0.4202054999999999
Task0 63 63 31 
Task1 127 255 3 
Task2 63 63 127 
Task3 3 63 31 
Task4 31 255 63 
Task5 31 31 127 
Task6 15 1 255 
Task7 127 255 3 
Task8 63 1 15 
Task9 63 63 127 
Task10 7 15 63 
Task11 31 127 255 
Task12 255 31 3 
Task13 1 255 1 
Task14 7 255 15 
Task15 63 127 63 
Task16 31 255 15 
Task17 255 127 7 
Task18 1 255 63 
Task19 15 63 63 
Task20 7 1 255 
Task21 15 63 15 
Task22 255 7 255 
Task23 3 255 63 
Task24 255 255 255 
Task25 7 255 15 
Task26 255 255 63 
Task27 7 15 127 
Task28 255 63 15 
Task29 63 63 31 
Task30 127 7 31 
Task31 31 1 127 
Task32 31 255 63 
Task33 255 31 1 
Task34 31 127 31 
Task35 127 63 7 
Task36 1 63 255 
Task37 127 255 31 
Task38 7 7 255 
Task39 255 63 255 
Task40 63 31 255 
Task41 31 255 7 
Task42 63 1 3 
Task43 63 63 255 
Task44 255 255 63 
Task45 255 127 15 
Task46 127 127 63 
Task47 63 255 255 
Task48 15 255 15 
Task49 255 63 63 
Task50 15 255 7 
Task51 15 255 31 
Task52 31 255 255 
Task53 255 15 31 
Task54 7 15 63 
Task55 63 255 31 
Task56 63 31 255 
Task57 255 7 15 
Task58 31 255 63 
Task59 1 63 255 
Task60 63 31 63 
Task61 127 63 3 
Task62 127 127 31 
Task63 255 127 127 
Task64 3 7 63 
Task65 255 3 15 
Task66 127 127 63 
Task67 255 1 127 
Task68 255 255 255 
Task69 63 63 31 
Task70 63 127 127 
Task71 255 255 31 
Task72 127 63 255 
Task73 255 3 1 
Task74 7 7 255 
Task75 255 127 3 
Task76 255 31 31 
Task77 15 255 15 
Task78 7 255 63 
Task79 63 127 63 
Task80 3 255 7 
Task81 31 31 255 
Task82 1 1 255 
Task83 127 255 127 
Task84 31 15 127 
Task85 31 255 63 
Task86 255 63 255 
Task87 31 127 127 
Task88 255 31 63 
Task89 127 63 15 
Task90 255 255 127 
Task91 3 63 255 
Task92 15 31 255 
Task93 255 127 31 
Task94 255 31 63 
Task95 255 255 127 
Task96 15 63 127 
Task97 255 31 255 
Task98 63 63 63 
Task99 127 63 31 
