digraph G {
3 ->12 4 ->13 8 ->11 8 ->15 9 ->10 9 ->14 10 ->18 11 ->16 11 ->21 11 ->23 12 ->19 12 ->20 12 ->24 12 ->25 13 ->22 14 ->17 18 ->27 18 ->32 18 ->33 19 ->26 19 ->31 20 ->28 21 ->34 22 ->29 24 ->30 26 ->43 26 ->44 29 ->35 30 ->42 31 ->41 31 ->45 32 ->40 33 ->36 33 ->38 33 ->39 34 ->37 35 ->49 35 ->51 35 ->54 36 ->52 36 ->57 38 ->48 38 ->53 38 ->55 38 ->56 39 ->46 41 ->47 44 ->50 48 ->59 49 ->62 50 ->58 56 ->60 56 ->61 58 ->63 58 ->70 58 ->71 59 ->65 59 ->67 59 ->68 61 ->64 61 ->66 61 ->72 61 ->73 62 ->69 63 ->75 63 ->78 63 ->84 66 ->74 66 ->85 67 ->79 67 ->81 68 ->87 71 ->80 71 ->83 72 ->77 73 ->76 73 ->82 73 ->86 78 ->94 78 ->96 79 ->93 80 ->88 81 ->97 84 ->89 84 ->91 84 ->95 85 ->92 86 ->90 86 ->98 91 ->99 
}
