digraph G {
0 ->13 0 ->16 1 ->8 1 ->15 2 ->12 3 ->11 4 ->14 5 ->17 5 ->18 6 ->9 6 ->10 9 ->22 9 ->25 10 ->20 14 ->26 14 ->27 14 ->28 15 ->23 16 ->19 17 ->29 17 ->30 18 ->21 18 ->24 20 ->37 21 ->32 21 ->35 26 ->34 27 ->36 27 ->39 27 ->40 28 ->31 29 ->33 29 ->38 31 ->46 31 ->49 32 ->45 35 ->41 35 ->42 35 ->43 36 ->44 38 ->47 38 ->48 42 ->50 42 ->51 42 ->55 45 ->52 45 ->57 46 ->53 47 ->56 49 ->54 50 ->65 51 ->59 51 ->61 51 ->62 51 ->63 52 ->58 52 ->68 53 ->64 54 ->60 54 ->70 55 ->66 57 ->67 57 ->69 58 ->82 59 ->76 59 ->81 60 ->72 60 ->74 60 ->80 61 ->79 64 ->71 64 ->78 65 ->75 65 ->77 67 ->73 70 ->83 72 ->93 74 ->84 75 ->92 77 ->87 78 ->89 80 ->90 81 ->85 81 ->86 83 ->88 83 ->91 83 ->94 84 ->95 88 ->98 89 ->97 89 ->99 90 ->96 
}
