0 5
0 7
0 8
0 10
0 11
0 12
0 15
1 6
1 7
1 19
2 6
2 7
2 9
2 11
2 13
3 8
3 12
3 14
3 15
3 16
3 19
4 5
4 8
4 9
4 12
4 16
4 19
5 13
5 17
5 20
5 30
6 18
6 25
6 26
7 14
7 16
8 14
8 24
8 29
9 17
9 20
9 24
9 25
10 17
10 22
10 27
11 17
12 22
12 23
12 26
12 27
13 22
13 29
14 29
14 30
15 22
15 23
15 27
15 28
15 30
16 21
16 25
17 26
17 29
18 24
18 25
19 24
19 27
20 31
21 43
22 34
22 38
22 39
22 48
23 32
23 37
24 33
24 42
25 40
26 32
26 33
26 44
27 36
27 48
29 34
29 35
30 40
30 45
31 44
31 52
32 41
32 44
32 47
32 49
32 54
33 39
33 45
33 47
33 48
33 49
33 51
34 38
34 39
34 42
34 46
34 50
34 52
34 53
35 38
35 53
35 54
36 52
36 57
36 59
37 51
37 52
38 51
38 64
39 53
40 61
41 50
42 50
42 55
42 56
42 63
44 53
44 58
44 65
45 63
46 60
46 64
49 55
49 56
50 60
50 68
50 73
51 68
51 69
51 70
52 66
52 68
52 70
53 61
53 62
53 66
53 67
53 68
53 71
54 57
54 61
54 62
54 65
54 66
55 70
55 73
56 67
56 71
56 73
56 79
56 80
57 67
57 69
57 73
58 76
59 73
59 77
59 78
61 79
62 67
63 75
63 78
64 70
64 73
64 75
66 72
66 74
66 75
66 79
67 76
67 80
67 82
67 85
68 77
68 82
70 79
70 83
71 74
71 83
72 77
72 84
72 85
73 74
73 77
73 78
73 81
73 85
74 86
74 88
74 93
75 87
75 88
75 89
76 82
76 95
76 99
77 86
77 87
77 94
77 96
78 84
78 88
78 89
79 86
79 93
80 84
80 89
80 94
81 82
82 90
82 96
82 98
82 99
83 90
84 91
84 97
85 95
86 91
86 92
86 93
86 99
