0 7
0 9
0 13
0 14
0 15
0 16
0 17
0 18
0 23
0 24
0 27
1 6
1 8
1 10
1 11
1 12
1 15
1 17
1 19
1 23
1 24
1 29
2 5
2 7
2 12
2 17
2 18
2 21
2 23
2 24
2 26
2 27
3 9
3 10
3 11
3 17
3 18
3 19
3 26
3 29
4 7
4 9
4 11
4 15
4 18
4 19
4 20
4 24
4 26
4 27
4 28
5 22
5 23
5 36
5 39
6 23
6 27
6 29
6 32
6 40
7 19
7 26
7 29
7 34
7 40
8 22
8 23
8 28
8 39
8 40
9 18
9 24
9 34
9 38
10 17
10 20
10 22
10 39
11 37
11 41
12 29
12 33
12 35
13 17
13 29
13 34
13 35
14 28
14 35
14 41
15 19
15 22
15 32
15 37
15 39
15 40
15 41
15 42
16 25
17 42
17 43
17 45
18 30
18 32
18 35
19 40
20 36
20 44
21 37
21 46
22 31
22 32
22 34
22 39
23 37
23 40
23 44
23 46
24 36
24 39
24 45
25 35
25 37
25 48
26 34
26 45
28 31
28 45
29 33
29 34
29 35
29 39
29 40
29 41
29 42
29 45
29 46
29 47
30 56
32 44
32 50
33 51
33 55
34 43
34 46
34 48
37 46
39 43
39 45
39 46
39 48
39 53
41 49
42 43
42 56
43 50
43 51
43 62
43 66
44 52
44 55
45 52
45 55
45 65
46 57
46 70
47 56
47 57
48 54
48 59
48 60
48 63
49 51
49 56
49 57
50 67
50 69
50 71
50 72
50 77
50 78
51 59
51 77
52 64
52 68
52 70
52 75
53 58
53 61
53 66
53 67
53 71
53 74
53 75
53 78
54 58
54 59
54 62
54 71
54 72
54 73
54 74
54 75
55 66
55 67
55 71
55 72
55 74
56 58
56 67
56 71
56 72
56 74
57 75
57 80
58 75
58 87
59 81
60 71
60 73
60 74
60 84
61 82
61 84
62 82
63 77
64 76
64 77
64 83
64 89
65 73
65 89
66 72
66 73
66 78
66 81
67 75
67 78
67 82
68 74
68 85
69 73
69 82
70 72
70 74
70 78
71 83
71 85
71 90
71 93
72 86
72 90
72 91
73 86
73 88
73 90
73 94
74 79
74 88
75 92
76 93
76 94
77 86
79 92
80 99
82 94
83 90
84 91
85 91
85 96
86 90
86 92
86 94
87 90
87 91
87 93
87 94
87 97
88 91
90 95
91 98
94 99
