0 16
0 24
1 16
1 17
1 20
2 23
3 14
3 16
4 17
4 24
5 14
5 16
6 17
6 23
7 14
7 15
7 17
8 14
8 15
8 22
9 13
9 14
9 15
9 18
10 17
12 16
12 20
13 19
13 26
13 29
14 21
14 25
14 33
15 20
15 21
15 28
15 30
15 32
15 34
15 35
16 26
16 29
16 34
17 19
17 29
18 30
18 37
18 40
19 27
19 32
19 36
19 37
20 27
20 30
20 32
20 35
20 36
20 37
20 39
20 40
21 26
21 39
21 40
22 26
22 27
22 31
22 35
23 35
24 39
25 37
25 54
26 38
26 52
28 40
28 47
28 53
29 52
31 37
31 41
31 45
31 48
32 49
33 49
34 36
34 43
34 44
35 51
36 41
36 48
36 50
36 53
36 57
36 58
36 61
37 45
37 54
37 56
37 58
37 59
37 60
37 61
37 63
37 66
38 42
38 46
38 48
38 52
38 56
38 57
38 58
38 59
38 62
38 65
38 66
39 44
39 45
39 53
39 56
39 56
39 59
39 61
39 63
39 64
39 65
40 46
40 57
40 61
40 63
40 65
41 59
42 55
42 56
42 57
42 58
42 59
42 62
42 65
43 58
43 62
44 68
46 61
47 59
47 69
47 70
48 58
49 59
50 57
50 63
51 58
51 64
51 65
52 61
52 65
53 57
54 62
55 67
56 68
57 70
57 72
58 67
58 70
58 77
58 81
59 67
59 70
60 69
60 71
60 73
61 71
61 78
61 82
62 80
63 77
63 80
64 67
64 74
65 68
65 79
66 67
66 72
66 79
67 72
67 75
67 84
67 86
67 88
68 73
68 81
68 82
68 85
69 87
70 76
70 83
70 87
70 88
71 74
71 76
71 83
71 86
71 88
73 86
73 89
74 83
74 92
74 95
74 97
76 91
76 98
76 99
77 98
78 85
78 88
79 87
79 94
79 98
80 89
80 96
80 98
81 83
81 87
81 88
82 85
83 92
85 90
85 91
86 91
86 94
87 93
88 97
88 99
89 99
