0 7
0 12
0 13
1 16
1 18
2 9
3 6
3 7
3 8
3 10
3 11
4 6
4 7
4 12
4 14
4 19
5 6
5 9
5 10
5 12
5 14
5 19
6 21
7 22
8 19
10 14
10 19
10 21
11 20
11 25
12 14
12 15
12 17
12 25
13 17
13 20
14 25
14 33
15 24
15 34
15 36
16 23
17 23
17 26
18 20
19 28
20 29
20 30
20 32
20 39
20 46
21 34
21 37
21 38
21 41
21 45
22 33
22 41
22 44
22 46
23 27
23 33
23 44
23 46
23 47
24 27
24 31
24 35
24 36
24 45
24 48
25 32
25 36
25 37
25 40
26 32
27 41
27 45
27 50
28 39
28 40
28 42
29 42
30 54
31 40
31 48
31 52
31 54
32 40
32 46
33 41
33 54
34 45
34 48
35 43
35 49
36 37
36 44
36 49
36 52
37 51
37 55
37 57
38 53
38 65
39 49
39 60
40 66
41 50
41 67
42 55
44 52
44 59
44 64
45 52
45 59
45 61
45 63
46 50
47 54
47 55
47 58
47 60
48 50
48 52
48 57
48 58
49 62
49 64
49 66
49 69
49 71
50 59
50 61
50 64
50 70
50 71
50 72
50 73
51 74
52 65
52 76
52 77
53 56
53 57
53 63
53 69
54 67
54 71
54 73
54 76
55 81
55 90
56 76
56 84
56 87
57 69
57 73
57 84
57 85
58 76
58 91
59 76
60 69
60 73
60 79
61 73
61 76
61 79
61 90
62 68
62 71
62 75
62 79
63 68
63 75
63 76
63 91
64 80
65 71
65 73
65 78
65 86
65 90
66 70
66 71
66 78
66 85
67 75
68 79
68 88
68 90
68 93
69 90
69 99
70 78
70 82
70 85
70 96
70 97
71 80
71 88
71 98
72 78
72 80
72 97
72 99
73 85
73 89
73 92
73 93
73 94
74 84
74 85
74 89
74 92
74 99
75 84
75 86
75 89
75 92
75 93
75 97
76 81
76 93
76 94
76 95
76 98
77 83
77 84
77 88
77 91
77 95
77 99
78 97
81 94
81 95
81 99
82 94
82 95
83 92
83 97
84 97
84 99
85 94
87 93
87 94
87 95
87 99
89 95
91 92
91 98
