digraph G {
0 ->9 0 ->13 0 ->17 1 ->10 1 ->12 1 ->15 2 ->6 2 ->7 2 ->9 2 ->16 3 ->6 3 ->7 3 ->11 3 ->14 4 ->8 4 ->11 4 ->16 4 ->17 5 ->8 5 ->9 5 ->15 5 ->16 5 ->17 6 ->18 6 ->24 7 ->20 7 ->21 7 ->22 7 ->24 7 ->25 8 ->19 8 ->24 8 ->26 9 ->19 9 ->25 9 ->26 9 ->28 10 ->19 10 ->20 10 ->23 10 ->25 10 ->26 10 ->28 11 ->19 11 ->21 11 ->22 11 ->24 11 ->25 11 ->26 12 ->20 12 ->21 12 ->22 12 ->23 12 ->24 12 ->25 12 ->27 13 ->20 13 ->22 13 ->26 13 ->27 13 ->28 14 ->20 14 ->22 14 ->25 14 ->26 15 ->21 15 ->28 16 ->22 16 ->28 17 ->20 17 ->21 17 ->28 18 ->29 18 ->30 18 ->31 18 ->33 19 ->29 19 ->32 19 ->33 19 ->38 20 ->29 20 ->31 20 ->32 20 ->33 20 ->36 21 ->31 21 ->32 21 ->33 21 ->37 22 ->29 22 ->31 22 ->32 22 ->33 22 ->37 23 ->36 23 ->37 23 ->38 24 ->31 24 ->38 25 ->29 25 ->35 26 ->30 26 ->36 26 ->37 27 ->29 27 ->34 27 ->36 28 ->30 28 ->33 28 ->36 28 ->37 28 ->38 29 ->39 29 ->40 29 ->43 30 ->43 30 ->44 31 ->39 31 ->42 31 ->43 32 ->39 33 ->41 33 ->45 34 ->39 34 ->41 35 ->44 36 ->40 36 ->43 36 ->44 37 ->40 37 ->42 37 ->44 38 ->39 38 ->40 38 ->44 39 ->47 39 ->48 39 ->51 40 ->47 40 ->48 41 ->52 42 ->46 42 ->50 42 ->52 43 ->49 44 ->46 44 ->52 45 ->52 46 ->55 46 ->56 46 ->57 47 ->53 47 ->55 47 ->60 47 ->64 48 ->55 48 ->57 48 ->58 48 ->62 48 ->63 48 ->64 49 ->57 49 ->58 49 ->58 49 ->61 50 ->55 50 ->56 50 ->59 50 ->61 50 ->62 51 ->58 51 ->60 51 ->61 52 ->54 52 ->56 52 ->57 52 ->64 53 ->67 54 ->65 55 ->74 56 ->66 56 ->67 56 ->72 57 ->69 58 ->69 58 ->70 59 ->67 59 ->70 59 ->71 60 ->66 60 ->69 60 ->70 61 ->67 61 ->68 61 ->69 61 ->70 61 ->71 62 ->66 62 ->69 62 ->70 62 ->71 62 ->74 63 ->66 63 ->67 63 ->72 64 ->73 64 ->74 65 ->78 65 ->80 65 ->85 65 ->88 66 ->77 66 ->79 66 ->85 67 ->75 67 ->78 67 ->79 67 ->82 67 ->84 67 ->85 67 ->87 68 ->79 68 ->80 68 ->81 68 ->82 68 ->87 68 ->88 69 ->77 69 ->80 69 ->86 69 ->87 70 ->82 70 ->83 70 ->85 71 ->79 71 ->83 71 ->85 72 ->75 72 ->76 72 ->79 73 ->83 74 ->77 74 ->80 74 ->88 76 ->92 77 ->90 77 ->92 77 ->93 77 ->96 78 ->89 78 ->92 78 ->93 78 ->95 78 ->96 80 ->91 82 ->96 83 ->89 84 ->89 84 ->95 85 ->94 85 ->95 86 ->91 86 ->92 86 ->95 87 ->92 87 ->95 87 ->96 88 ->93 90 ->98 91 ->98 91 ->99 92 ->98 94 ->97 95 ->99 96 ->97 96 ->98 
}
