digraph G {
0 ->8 0 ->10 0 ->11 1 ->6 1 ->7 1 ->10 2 ->5 2 ->7 2 ->11 3 ->7 3 ->11 4 ->8 4 ->9 5 ->14 5 ->16 5 ->17 5 ->19 5 ->22 5 ->23 6 ->14 6 ->19 7 ->12 7 ->15 7 ->16 7 ->22 8 ->13 8 ->14 8 ->15 8 ->22 8 ->24 9 ->13 9 ->14 9 ->21 9 ->23 9 ->24 10 ->20 10 ->21 10 ->23 10 ->24 11 ->13 11 ->15 11 ->17 11 ->18 11 ->19 11 ->20 11 ->21 11 ->22 11 ->23 11 ->24 12 ->25 12 ->29 13 ->27 13 ->29 14 ->28 14 ->29 15 ->25 15 ->28 15 ->30 17 ->26 17 ->27 17 ->29 18 ->30 19 ->26 19 ->30 20 ->25 20 ->28 20 ->30 21 ->25 21 ->28 21 ->29 21 ->30 22 ->25 22 ->28 22 ->30 22 ->30 23 ->25 24 ->25 24 ->28 24 ->29 25 ->32 25 ->38 25 ->40 26 ->35 26 ->36 26 ->37 26 ->39 26 ->41 27 ->31 27 ->37 27 ->39 28 ->33 28 ->34 29 ->35 29 ->36 29 ->40 29 ->41 30 ->31 30 ->36 30 ->41 31 ->47 31 ->48 31 ->49 32 ->43 32 ->45 32 ->47 32 ->49 33 ->42 33 ->43 33 ->44 33 ->47 34 ->45 34 ->47 34 ->50 35 ->45 35 ->50 36 ->44 36 ->48 37 ->42 37 ->45 37 ->49 38 ->42 38 ->43 38 ->50 39 ->42 39 ->43 39 ->49 40 ->42 40 ->45 40 ->46 40 ->47 40 ->48 40 ->49 41 ->46 42 ->51 43 ->55 44 ->51 44 ->52 45 ->51 45 ->52 46 ->52 46 ->53 47 ->53 47 ->55 48 ->55 49 ->54 49 ->55 51 ->58 51 ->59 51 ->60 52 ->57 52 ->58 53 ->58 53 ->60 53 ->61 54 ->56 54 ->59 54 ->60 54 ->61 54 ->62 55 ->56 55 ->59 55 ->61 55 ->62 56 ->63 56 ->64 56 ->65 57 ->65 57 ->66 58 ->63 59 ->65 60 ->63 60 ->64 60 ->67 61 ->64 61 ->66 61 ->68 62 ->66 63 ->71 63 ->74 64 ->69 64 ->71 64 ->73 64 ->74 64 ->75 64 ->78 65 ->71 65 ->72 65 ->73 65 ->75 65 ->76 65 ->79 65 ->80 65 ->81 66 ->72 66 ->72 66 ->75 66 ->77 66 ->79 66 ->80 66 ->81 67 ->69 67 ->70 67 ->73 67 ->81 68 ->69 68 ->76 68 ->78 69 ->82 69 ->83 69 ->86 69 ->88 69 ->89 71 ->82 71 ->86 71 ->89 72 ->84 73 ->84 73 ->86 73 ->89 74 ->85 75 ->84 75 ->85 75 ->86 76 ->85 76 ->85 76 ->86 77 ->82 77 ->83 77 ->87 78 ->84 78 ->86 79 ->82 79 ->85 79 ->87 79 ->88 80 ->82 80 ->84 80 ->85 81 ->84 81 ->84 81 ->86 81 ->87 81 ->89 82 ->92 82 ->94 83 ->93 83 ->94 83 ->98 84 ->90 84 ->91 84 ->96 85 ->95 85 ->96 86 ->92 86 ->93 87 ->91 87 ->97 88 ->95 88 ->97 89 ->92 89 ->94 89 ->96 89 ->98 90 ->99 91 ->99 92 ->99 97 ->99 
}
