files/tasks_parameters/ExAp01/sample8.txt 1.00553 3.76817 4.3855 0.450105 17.3941
files/tasks_parameters/ExAp01/sample12.txt 1.34714 5.03638 5.18776 0.610564 23.595
files/tasks_parameters/ExAp01/sample2.txt 1.29804 4.58991 5.64606 0.613877 23.723
files/tasks_parameters/ExAp01/sample44.txt 1.17822 3.77401 5.66946 0.551838 21.3255
files/tasks_parameters/ExAp01/sample27.txt 1.19675 4.13937 5.56136 0.55779 21.5555
files/tasks_parameters/ExAp01/sample17.txt 1.10848 3.76163 5.38341 0.520991 20.1335
files/tasks_parameters/ExAp01/sample9.txt 1.09599 3.69889 5.2981 0.511699 19.7744
files/tasks_parameters/ExAp01/sample34.txt 1.08862 3.52435 5.83741 0.49187 19.0081
files/tasks_parameters/ExAp01/sample40.txt 1.066 4.06185 5.0335 0.496884 19.2019
files/tasks_parameters/ExAp01/sample33.txt 1.40992 4.82091 5.83886 0.651963 25.1948
files/tasks_parameters/ExAp01/sample48.txt 0.973289 4.01134 5.07085 0.447927 17.31
files/tasks_parameters/ExAp01/sample29.txt 1.35335 4.20847 5.0406 0.643694 24.8753
files/tasks_parameters/ExAp01/sample11.txt 1.2061 3.94699 5.29198 0.557276 21.5357
files/tasks_parameters/ExAp01/sample14.txt 1.02476 3.54059 4.58345 0.466713 18.0359
files/tasks_parameters/ExAp01/sample0.txt 1.33153 4.82755 4.90216 0.623551 24.0968
files/tasks_parameters/ExAp01/sample7.txt 1.11235 3.60766 5.11185 0.509566 19.692
files/tasks_parameters/ExAp01/sample23.txt 1.2785 3.81403 5.45799 0.582911 22.5264
files/tasks_parameters/ExAp01/sample13.txt 1.35337 4.8894 5.26818 0.624499 24.1335
files/tasks_parameters/ExAp01/sample22.txt 1.15515 3.76156 4.95746 0.534216 20.6446
files/tasks_parameters/ExAp01/sample25.txt 0.901426 2.94144 4.92622 0.403639 15.5985
files/tasks_parameters/ExAp01/sample36.txt 1.10854 3.56164 4.5806 0.501799 19.3918
files/tasks_parameters/ExAp01/sample46.txt 1.18466 3.84833 4.7121 0.530701 20.5087
files/tasks_parameters/ExAp01/sample31.txt 1.07576 3.764 5.08385 0.479734 18.5391
files/tasks_parameters/ExAp01/sample37.txt 1.39348 4.43254 5.65111 0.65143 25.1743
files/tasks_parameters/ExAp01/sample16.txt 1.19386 4.49741 4.8895 0.509171 19.6767
files/tasks_parameters/ExAp01/sample10.txt 1.3117 3.87086 6.07511 0.60993 23.5705
files/tasks_parameters/ExAp01/sample39.txt 1.01932 3.66299 4.54281 0.463671 17.9184
files/tasks_parameters/ExAp01/sample19.txt 1.30854 3.86694 5.14047 0.615987 23.8046
files/tasks_parameters/ExAp01/sample20.txt 1.22401 4.09945 5.13368 0.580369 22.4281
files/tasks_parameters/ExAp01/sample43.txt 1.14256 3.75825 5.55698 0.530892 20.5161
files/tasks_parameters/ExAp01/sample32.txt 1.29569 4.0352 5.29178 0.587643 22.7092
files/tasks_parameters/ExAp01/sample45.txt 1.1775 3.94578 4.87833 0.541081 20.9098
files/tasks_parameters/ExAp01/sample26.txt 1.02106 3.50998 4.55035 0.474009 18.3179
files/tasks_parameters/ExAp01/sample5.txt 1.28031 4.00994 5.27725 0.587681 22.7107
files/tasks_parameters/ExAp01/sample21.txt 0.945781 2.8974 4.54677 0.430037 16.6186
files/tasks_parameters/ExAp01/sample38.txt 1.0543 3.56689 4.78573 0.492366 19.0273
files/tasks_parameters/ExAp01/sample1.txt 1.04847 3.69002 4.55048 0.481074 18.5909
files/tasks_parameters/ExAp01/sample15.txt 1.14302 3.73223 5.42493 0.524964 20.287
files/tasks_parameters/ExAp01/sample24.txt 1.18415 4.18053 5.40377 0.542575 20.9676
files/tasks_parameters/ExAp01/sample3.txt 1.00693 3.70547 4.7118 0.470503 18.1824
files/tasks_parameters/ExAp01/sample6.txt 1.31727 4.07521 5.71419 0.626702 24.2186
files/tasks_parameters/ExAp01/sample30.txt 1.35841 3.97446 5.82388 0.626709 24.2189
files/tasks_parameters/ExAp01/sample42.txt 1.17957 4.44207 5.58473 0.537025 20.7531
files/tasks_parameters/ExAp01/sample4.txt 1.19839 3.92181 4.49751 0.556974 21.524
files/tasks_parameters/ExAp01/sample28.txt 0.953895 3.13496 4.88321 0.444588 17.1809
files/tasks_parameters/ExAp01/sample18.txt 1.16674 3.95301 4.52898 0.537438 20.7691
files/tasks_parameters/ExAp01/sample35.txt 1.66441 5.75923 6.25034 0.752488 29.0796
files/tasks_parameters/ExAp01/sample47.txt 1.14416 3.44018 5.14289 0.540033 20.8694
files/tasks_parameters/ExAp01/sample49.txt 1.12576 3.38981 4.72409 0.493041 19.0534
files/tasks_parameters/ExAp01/sample41.txt 1.06704 3.58692 5.27252 0.492391 19.0282
