files/tasks_parameters/ExAp01/sample8.txt 1.10414 7.2562 4.46819 0.454772 10.4609
files/tasks_parameters/ExAp01/sample12.txt 1.60599 9.70908 5.28286 0.618515 14.2274
files/tasks_parameters/ExAp01/sample2.txt 1.45757 8.14159 5.7401 0.620531 14.2738
files/tasks_parameters/ExAp01/sample44.txt 1.32843 7.25164 5.75904 0.557631 12.8269
files/tasks_parameters/ExAp01/sample27.txt 1.32031 8.10944 5.64946 0.564878 12.9936
files/tasks_parameters/ExAp01/sample17.txt 1.24893 7.11225 5.46658 0.527183 12.1266
files/tasks_parameters/ExAp01/sample9.txt 1.18448 7.62559 5.37813 0.517277 11.8987
files/tasks_parameters/ExAp01/sample34.txt 1.23914 7.04587 5.93037 0.497709 11.4486
files/tasks_parameters/ExAp01/sample40.txt 1.19864 8.03037 5.123 0.502383 11.5561
files/tasks_parameters/ExAp01/sample33.txt 1.63051 9.22935 5.92956 0.659262 15.1647
files/tasks_parameters/ExAp01/sample48.txt 1.08862 8.12182 5.1577 0.452491 10.4084
files/tasks_parameters/ExAp01/sample29.txt 1.52575 8.06133 5.12331 0.650652 14.9667
files/tasks_parameters/ExAp01/sample11.txt 1.35045 7.63104 5.37897 0.563302 12.9574
files/tasks_parameters/ExAp01/sample14.txt 1.12287 6.66403 4.66322 0.471536 10.8465
files/tasks_parameters/ExAp01/sample0.txt 1.52082 9.3266 4.98971 0.6311 14.5169
files/tasks_parameters/ExAp01/sample7.txt 1.27135 7.34863 5.19436 0.515527 11.8584
files/tasks_parameters/ExAp01/sample23.txt 1.36739 6.68564 5.54308 0.588617 13.5397
files/tasks_parameters/ExAp01/sample13.txt 1.53395 9.31093 5.35591 0.632849 14.5571
files/tasks_parameters/ExAp01/sample22.txt 1.27974 7.65588 5.04866 0.540336 12.4291
files/tasks_parameters/ExAp01/sample25.txt 1.0252 6.17035 5.0141 0.408296 9.39185
files/tasks_parameters/ExAp01/sample36.txt 1.21451 7.03772 4.66274 0.507647 11.6772
files/tasks_parameters/ExAp01/sample46.txt 1.35253 7.73433 4.79934 0.536843 12.3488
files/tasks_parameters/ExAp01/sample31.txt 1.1726 6.96928 5.16482 0.485817 11.175
files/tasks_parameters/ExAp01/sample37.txt 1.54505 9.52443 5.74224 0.65799 15.1354
files/tasks_parameters/ExAp01/sample16.txt 1.34277 8.63521 4.97261 0.516328 11.8769
files/tasks_parameters/ExAp01/sample10.txt 1.40275 7.28353 6.16876 0.615651 14.1615
files/tasks_parameters/ExAp01/sample39.txt 1.1445 6.3405 4.6137 0.468873 10.7853
files/tasks_parameters/ExAp01/sample19.txt 1.41043 8.85528 5.22306 0.622152 14.3111
files/tasks_parameters/ExAp01/sample20.txt 1.39803 8.1141 5.21177 0.586994 13.5024
files/tasks_parameters/ExAp01/sample43.txt 1.28694 7.21373 5.6367 0.53748 12.3634
files/tasks_parameters/ExAp01/sample32.txt 1.4477 8.30592 5.38137 0.593918 13.6616
files/tasks_parameters/ExAp01/sample45.txt 1.31798 7.94069 4.96323 0.547271 12.5886
files/tasks_parameters/ExAp01/sample26.txt 1.1287 7.57061 4.62637 0.480146 11.0446
files/tasks_parameters/ExAp01/sample5.txt 1.37975 8.0307 5.35681 0.59407 13.6651
files/tasks_parameters/ExAp01/sample21.txt 1.03096 5.87802 4.61744 0.434264 9.98919
files/tasks_parameters/ExAp01/sample38.txt 1.19095 7.66999 4.86632 0.496808 11.4279
files/tasks_parameters/ExAp01/sample1.txt 1.12562 7.21312 4.63213 0.486293 11.186
files/tasks_parameters/ExAp01/sample15.txt 1.27966 8.02273 5.50855 0.531063 12.2158
files/tasks_parameters/ExAp01/sample24.txt 1.30085 8.66348 5.4905 0.548998 12.6284
files/tasks_parameters/ExAp01/sample3.txt 1.13735 7.74268 4.79918 0.477387 10.9811
files/tasks_parameters/ExAp01/sample6.txt 1.49653 8.57133 5.80157 0.633604 14.5745
files/tasks_parameters/ExAp01/sample30.txt 1.67172 8.18878 5.90888 0.633576 14.5739
files/tasks_parameters/ExAp01/sample42.txt 1.32903 8.57689 5.67253 0.54426 12.5194
files/tasks_parameters/ExAp01/sample4.txt 1.28491 8.40354 4.57985 0.563519 12.9624
files/tasks_parameters/ExAp01/sample28.txt 1.04079 6.44114 4.96426 0.449721 10.3447
files/tasks_parameters/ExAp01/sample18.txt 1.30431 8.56363 4.60946 0.543766 12.508
files/tasks_parameters/ExAp01/sample35.txt 1.93012 11.0387 6.34514 0.761377 17.5136
files/tasks_parameters/ExAp01/sample47.txt 1.32943 7.14493 5.22131 0.545046 12.5374
files/tasks_parameters/ExAp01/sample49.txt 1.31201 6.65996 4.80244 0.498533 11.4675
files/tasks_parameters/ExAp01/sample41.txt 1.16641 7.09069 5.35462 0.497129 11.4352
