files/tasks_parameters/ExAp01/sample8.txt 1.08361 3.76817 4.3855 0.450105 12.0148
files/tasks_parameters/ExAp01/sample12.txt 1.49418 5.03638 5.18776 0.610564 16.298
files/tasks_parameters/ExAp01/sample2.txt 1.38452 4.58991 5.64606 0.613877 16.3865
files/tasks_parameters/ExAp01/sample44.txt 1.24953 3.77401 5.66946 0.551838 14.7304
files/tasks_parameters/ExAp01/sample27.txt 1.29418 4.13937 5.56136 0.55779 14.8893
files/tasks_parameters/ExAp01/sample17.txt 1.1945 3.76163 5.38341 0.520991 13.907
files/tasks_parameters/ExAp01/sample9.txt 1.1433 3.69889 5.2981 0.511699 13.659
files/tasks_parameters/ExAp01/sample34.txt 1.13513 3.52435 5.83741 0.49187 13.1297
files/tasks_parameters/ExAp01/sample40.txt 1.15486 4.06185 5.0335 0.496884 13.2635
files/tasks_parameters/ExAp01/sample33.txt 1.55311 4.82091 5.83886 0.651963 17.4031
files/tasks_parameters/ExAp01/sample48.txt 1.07591 4.01134 5.07085 0.447927 11.9567
files/tasks_parameters/ExAp01/sample29.txt 1.46989 4.20847 5.0406 0.643694 17.1824
files/tasks_parameters/ExAp01/sample11.txt 1.31879 3.94699 5.29198 0.557276 14.8756
files/tasks_parameters/ExAp01/sample14.txt 1.07955 3.54059 4.58345 0.466713 12.4582
files/tasks_parameters/ExAp01/sample0.txt 1.50724 4.82755 4.90216 0.623551 16.6447
files/tasks_parameters/ExAp01/sample7.txt 1.15002 3.60766 5.11185 0.509566 13.602
files/tasks_parameters/ExAp01/sample23.txt 1.4156 3.81403 5.45799 0.582911 15.5599
files/tasks_parameters/ExAp01/sample13.txt 1.46298 4.8894 5.26818 0.624499 16.67
files/tasks_parameters/ExAp01/sample22.txt 1.29069 3.76156 4.95746 0.534216 14.2601
files/tasks_parameters/ExAp01/sample25.txt 0.976769 2.94144 4.92622 0.403639 10.7745
files/tasks_parameters/ExAp01/sample36.txt 1.25826 3.56164 4.5806 0.501799 13.3947
files/tasks_parameters/ExAp01/sample46.txt 1.23268 3.84833 4.7121 0.530701 14.1662
files/tasks_parameters/ExAp01/sample31.txt 1.08313 3.764 5.08385 0.479734 12.8057
files/tasks_parameters/ExAp01/sample37.txt 1.52462 4.43254 5.65111 0.65143 17.3889
files/tasks_parameters/ExAp01/sample16.txt 1.27234 4.49741 4.8895 0.509171 13.5915
files/tasks_parameters/ExAp01/sample10.txt 1.38978 3.87086 6.07511 0.60993 16.2811
files/tasks_parameters/ExAp01/sample39.txt 1.04986 3.66299 4.54281 0.463671 12.377
files/tasks_parameters/ExAp01/sample19.txt 1.4097 3.86694 5.14047 0.615987 16.4428
files/tasks_parameters/ExAp01/sample20.txt 1.30362 4.09945 5.13368 0.580369 15.492
files/tasks_parameters/ExAp01/sample43.txt 1.15418 3.75825 5.55698 0.530892 14.1713
files/tasks_parameters/ExAp01/sample32.txt 1.42892 4.0352 5.29178 0.587643 15.6862
files/tasks_parameters/ExAp01/sample45.txt 1.22596 3.94578 4.87833 0.541081 14.4433
files/tasks_parameters/ExAp01/sample26.txt 1.11326 3.50998 4.55035 0.474009 12.6529
files/tasks_parameters/ExAp01/sample5.txt 1.3559 4.00994 5.27725 0.587681 15.6872
files/tasks_parameters/ExAp01/sample21.txt 0.935093 2.8974 4.54677 0.430037 11.4792
files/tasks_parameters/ExAp01/sample38.txt 1.17206 3.56689 4.78573 0.492366 13.1429
files/tasks_parameters/ExAp01/sample1.txt 1.15522 3.69002 4.55048 0.481074 12.8415
files/tasks_parameters/ExAp01/sample15.txt 1.20629 3.73223 5.42493 0.524964 14.0131
files/tasks_parameters/ExAp01/sample24.txt 1.2753 4.18053 5.40377 0.542575 14.4832
files/tasks_parameters/ExAp01/sample3.txt 1.08376 3.70547 4.7118 0.470503 12.5593
files/tasks_parameters/ExAp01/sample6.txt 1.38737 4.07521 5.71419 0.626702 16.7288
files/tasks_parameters/ExAp01/sample30.txt 1.49546 3.97446 5.82388 0.626709 16.729
files/tasks_parameters/ExAp01/sample42.txt 1.29681 4.44207 5.58473 0.537025 14.335
files/tasks_parameters/ExAp01/sample4.txt 1.33441 3.92181 4.49751 0.556974 14.8675
files/tasks_parameters/ExAp01/sample28.txt 1.06724 3.13496 4.88321 0.444588 11.8676
files/tasks_parameters/ExAp01/sample18.txt 1.22803 3.95301 4.52898 0.537438 14.346
files/tasks_parameters/ExAp01/sample35.txt 1.80911 5.75923 6.25034 0.752488 20.0865
files/tasks_parameters/ExAp01/sample47.txt 1.16153 3.44018 5.14289 0.540033 14.4153
files/tasks_parameters/ExAp01/sample49.txt 1.2295 3.38981 4.72409 0.493041 13.161
files/tasks_parameters/ExAp01/sample41.txt 1.10214 3.58692 5.27252 0.492391 13.1436
