files/tasks_parameters/ExAp01/sample8.txt 1.09188 7.2562 4.46819 0.454772 12.5867
files/tasks_parameters/ExAp01/sample12.txt 1.63076 9.70908 5.28286 0.618515 17.1186
files/tasks_parameters/ExAp01/sample2.txt 1.4543 8.14159 5.7401 0.620531 17.1744
files/tasks_parameters/ExAp01/sample44.txt 1.35997 7.25164 5.75904 0.557631 15.4335
files/tasks_parameters/ExAp01/sample27.txt 1.3183 8.10944 5.64946 0.564878 15.6341
files/tasks_parameters/ExAp01/sample17.txt 1.25271 7.11225 5.46658 0.527183 14.5909
files/tasks_parameters/ExAp01/sample9.txt 1.19837 7.62559 5.37813 0.517277 14.3167
files/tasks_parameters/ExAp01/sample34.txt 1.2448 7.04587 5.93037 0.497709 13.7751
files/tasks_parameters/ExAp01/sample40.txt 1.201 8.03037 5.123 0.502383 13.9044
files/tasks_parameters/ExAp01/sample33.txt 1.61627 9.22935 5.92956 0.659262 18.2464
files/tasks_parameters/ExAp01/sample48.txt 1.15172 8.12182 5.1577 0.452491 12.5236
files/tasks_parameters/ExAp01/sample29.txt 1.53894 8.06133 5.12331 0.650652 18.0081
files/tasks_parameters/ExAp01/sample11.txt 1.35889 7.63104 5.37897 0.563302 15.5905
files/tasks_parameters/ExAp01/sample14.txt 1.13552 6.66403 4.66322 0.471536 13.0507
files/tasks_parameters/ExAp01/sample0.txt 1.5178 9.3266 4.98971 0.6311 17.4669
files/tasks_parameters/ExAp01/sample7.txt 1.23404 7.34863 5.19436 0.515527 14.2682
files/tasks_parameters/ExAp01/sample23.txt 1.40203 6.68564 5.54308 0.588617 16.2912
files/tasks_parameters/ExAp01/sample13.txt 1.60753 9.31093 5.35591 0.632849 17.5154
files/tasks_parameters/ExAp01/sample22.txt 1.28633 7.65588 5.04866 0.540336 14.9549
files/tasks_parameters/ExAp01/sample25.txt 1.0295 6.17035 5.0141 0.408296 11.3004
files/tasks_parameters/ExAp01/sample36.txt 1.19007 7.03772 4.66274 0.507647 14.0501
files/tasks_parameters/ExAp01/sample46.txt 1.37122 7.73433 4.79934 0.536843 14.8582
files/tasks_parameters/ExAp01/sample31.txt 1.16998 6.96928 5.16482 0.485817 13.446
files/tasks_parameters/ExAp01/sample37.txt 1.59473 9.52443 5.74224 0.65799 18.2112
files/tasks_parameters/ExAp01/sample16.txt 1.33876 8.63521 4.97261 0.516328 14.2904
files/tasks_parameters/ExAp01/sample10.txt 1.39877 7.28353 6.16876 0.615651 17.0394
files/tasks_parameters/ExAp01/sample39.txt 1.14417 6.3405 4.6137 0.468873 12.977
files/tasks_parameters/ExAp01/sample19.txt 1.40273 8.85528 5.22306 0.622152 17.2193
files/tasks_parameters/ExAp01/sample20.txt 1.39217 8.1141 5.21177 0.586994 16.2462
files/tasks_parameters/ExAp01/sample43.txt 1.30697 7.21373 5.6367 0.53748 14.8758
files/tasks_parameters/ExAp01/sample32.txt 1.47045 8.30592 5.38137 0.593918 16.4379
files/tasks_parameters/ExAp01/sample45.txt 1.29703 7.94069 4.96323 0.547271 15.1468
files/tasks_parameters/ExAp01/sample26.txt 1.12681 7.57061 4.62637 0.480146 13.289
files/tasks_parameters/ExAp01/sample5.txt 1.38077 8.0307 5.35681 0.59407 16.4421
files/tasks_parameters/ExAp01/sample21.txt 1.02755 5.87802 4.61744 0.434264 12.0191
files/tasks_parameters/ExAp01/sample38.txt 1.18484 7.66999 4.86632 0.496808 13.7502
files/tasks_parameters/ExAp01/sample1.txt 1.14035 7.21312 4.63213 0.486293 13.4591
files/tasks_parameters/ExAp01/sample15.txt 1.28125 8.02273 5.50855 0.531063 14.6982
files/tasks_parameters/ExAp01/sample24.txt 1.31554 8.66348 5.4905 0.548998 15.1946
files/tasks_parameters/ExAp01/sample3.txt 1.18752 7.74268 4.79918 0.477387 13.2126
files/tasks_parameters/ExAp01/sample6.txt 1.51709 8.57133 5.80157 0.633604 17.5363
files/tasks_parameters/ExAp01/sample30.txt 1.68756 8.18878 5.90888 0.633576 17.5355
files/tasks_parameters/ExAp01/sample42.txt 1.30673 8.57689 5.67253 0.54426 15.0635
files/tasks_parameters/ExAp01/sample4.txt 1.30007 8.40354 4.57985 0.563519 15.5965
files/tasks_parameters/ExAp01/sample28.txt 1.11521 6.44114 4.96426 0.449721 12.4469
files/tasks_parameters/ExAp01/sample18.txt 1.36968 8.56363 4.60946 0.543766 15.0498
files/tasks_parameters/ExAp01/sample35.txt 1.94181 11.0387 6.34514 0.761377 21.0726
files/tasks_parameters/ExAp01/sample47.txt 1.32345 7.14493 5.22131 0.545046 15.0852
files/tasks_parameters/ExAp01/sample49.txt 1.30001 6.65996 4.80244 0.498533 13.7979
files/tasks_parameters/ExAp01/sample41.txt 1.18983 7.09069 5.35462 0.497129 13.759
