0.29629723
Task0 7 1 31 
Task1 31 31 15 
Task2 31 1 63 
Task3 7 15 1 
Task4 63 1 31 
Task5 31 15 15 
Task6 15 31 3 
Task7 15 31 1 
Task8 255 63 63 
Task9 7 31 1 
Task10 31 7 15 
Task11 31 3 31 
Task12 3 63 31 
Task13 7 15 7 
Task14 255 127 63 
Task15 15 127 31 
Task16 1 1 31 
Task17 3 7 31 
Task18 7 15 31 
Task19 63 31 255 
Task20 255 15 15 
Task21 31 15 1 
Task22 1 3 15 
Task23 7 3 31 
Task24 15 1 63 
Task25 255 7 255 
Task26 7 31 3 
Task27 31 63 63 
Task28 3 7 7 
Task29 31 31 63 
Task30 31 15 31 
Task31 63 255 255 
Task32 15 15 7 
Task33 7 15 31 
Task34 7 15 15 
Task35 1 63 15 
Task36 63 15 15 
Task37 3 31 1 
Task38 31 15 15 
Task39 15 15 63 
Task40 63 15 127 
Task41 63 31 15 
Task42 127 255 255 
Task43 255 127 255 
Task44 63 63 63 
Task45 127 31 31 
Task46 7 31 7 
Task47 7 7 31 
Task48 31 7 3 
Task49 255 3 63 
Task50 31 15 15 
Task51 63 3 1 
Task52 127 63 31 
Task53 7 31 63 
Task54 7 15 15 
Task55 63 15 31 
Task56 7 31 15 
Task57 7 15 7 
Task58 1 15 3 
Task59 1 1 15 
Task60 3 3 15 
Task61 7 15 31 
Task62 15 1 31 
Task63 31 15 3 
Task64 1 31 15 
Task65 31 15 7 
Task66 7 31 1 
Task67 127 31 15 
Task68 15 15 31 
Task69 7 1 63 
Task70 31 31 15 
Task71 63 31 31 
Task72 3 7 63 
Task73 31 31 31 
Task74 63 15 7 
Task75 31 7 31 
Task76 7 31 3 
Task77 31 7 3 
Task78 15 15 1 
Task79 255 7 63 
Task80 7 31 1 
Task81 15 31 63 
Task82 15 7 63 
Task83 31 31 255 
Task84 15 15 15 
Task85 7 3 15 
Task86 31 1 3 
Task87 15 3 3 
Task88 7 7 63 
Task89 15 63 31 
Task90 1 15 15 
Task91 3 31 3 
Task92 31 31 31 
Task93 1 31 3 
Task94 15 15 31 
Task95 63 255 63 
Task96 31 3 31 
Task97 1 31 15 
Task98 63 127 31 
Task99 15 31 15 
