0.399529874
Task0 63 7 63 
Task1 7 63 15 
Task2 31 15 31 
Task3 15 63 31 
Task4 7 31 31 
Task5 3 1 31 
Task6 31 31 31 
Task7 255 127 255 
Task8 7 7 31 
Task9 63 3 63 
Task10 31 63 255 
Task11 31 1 7 
Task12 15 31 63 
Task13 255 31 127 
Task14 31 31 63 
Task15 31 63 31 
Task16 31 255 31 
Task17 63 15 15 
Task18 31 31 7 
Task19 63 15 31 
Task20 1 31 31 
Task21 255 255 255 
Task22 15 63 15 
Task23 255 31 15 
Task24 255 63 255 
Task25 15 31 15 
Task26 31 15 31 
Task27 3 3 63 
Task28 63 127 255 
Task29 1 255 31 
Task30 255 15 63 
Task31 63 1 15 
Task32 7 7 31 
Task33 15 63 7 
Task34 7 63 7 
Task35 255 1 63 
Task36 255 63 63 
Task37 63 1 1 
Task38 31 15 15 
Task39 31 1 31 
Task40 31 31 31 
Task41 255 127 127 
Task42 31 31 1 
Task43 31 7 1 
Task44 7 63 31 
Task45 3 15 63 
Task46 15 15 63 
Task47 31 63 31 
Task48 7 31 15 
Task49 31 3 31 
Task50 63 15 7 
Task51 15 7 31 
Task52 31 3 15 
Task53 15 31 1 
Task54 1 63 255 
Task55 7 7 63 
Task56 63 63 31 
Task57 31 63 31 
Task58 7 127 63 
Task59 255 255 31 
Task60 63 31 3 
Task61 15 1 31 
Task62 15 31 3 
Task63 63 1 1 
Task64 31 3 15 
Task65 7 63 1 
Task66 7 3 63 
Task67 127 127 255 
Task68 63 15 15 
Task69 31 63 255 
Task70 63 15 63 
Task71 63 15 31 
Task72 7 63 1 
Task73 7 31 7 
Task74 63 7 31 
Task75 63 3 15 
Task76 255 15 31 
Task77 7 31 7 
Task78 31 15 15 
Task79 63 3 7 
Task80 127 255 63 
Task81 3 31 15 
Task82 127 63 31 
Task83 31 1 3 
Task84 31 15 63 
Task85 127 15 63 
Task86 15 15 255 
Task87 63 3 31 
Task88 63 3 31 
Task89 63 1 63 
Task90 127 127 255 
Task91 255 15 3 
Task92 15 255 31 
Task93 15 3 3 
Task94 63 7 7 
Task95 31 15 63 
Task96 3 31 7 
Task97 31 63 63 
Task98 255 63 63 
Task99 7 63 31 
