files/tasks_parameters/ExAp01/sample8.txt 1.15752 6.77015 2.19458 0.288816 13.8501
files/tasks_parameters/ExAp01/sample12.txt 1.30804 9.58351 2.46081 0.337498 16.1846
files/tasks_parameters/ExAp01/sample2.txt 1.17007 8.44418 2.50701 0.319127 15.3036
files/tasks_parameters/ExAp01/sample44.txt 1.1108 6.96299 2.23089 0.28229 13.5371
files/tasks_parameters/ExAp01/sample27.txt 1.2651 7.74306 2.16676 0.28602 13.7159
files/tasks_parameters/ExAp01/sample17.txt 1.21926 7.35053 2.25579 0.292348 14.0194
files/tasks_parameters/ExAp01/sample9.txt 1.04525 6.89392 2.21068 0.282399 13.5423
files/tasks_parameters/ExAp01/sample34.txt 1.19172 6.62788 2.3772 0.297742 14.2781
files/tasks_parameters/ExAp01/sample40.txt 1.18178 7.75686 2.17534 0.285619 13.6967
files/tasks_parameters/ExAp01/sample33.txt 1.30641 8.14826 2.6463 0.338073 16.2121
files/tasks_parameters/ExAp01/sample48.txt 1.04455 7.64107 2.14272 0.270011 12.9483
files/tasks_parameters/ExAp01/sample29.txt 1.04318 7.139 1.93769 0.286306 13.7297
files/tasks_parameters/ExAp01/sample11.txt 1.12911 6.88688 2.12981 0.280008 13.4277
files/tasks_parameters/ExAp01/sample14.txt 0.965893 6.11983 1.97599 0.247458 11.8667
files/tasks_parameters/ExAp01/sample0.txt 1.13695 8.2738 2.14256 0.289132 13.8652
files/tasks_parameters/ExAp01/sample7.txt 1.09318 6.87011 2.05821 0.269886 12.9422
files/tasks_parameters/ExAp01/sample23.txt 1.18242 6.52032 2.38087 0.291712 13.9889
files/tasks_parameters/ExAp01/sample13.txt 1.16678 8.73247 2.33415 0.295393 14.1654
files/tasks_parameters/ExAp01/sample22.txt 1.15416 6.9777 2.28948 0.283979 13.6181
files/tasks_parameters/ExAp01/sample25.txt 1.08412 6.23444 2.2122 0.267298 12.8181
files/tasks_parameters/ExAp01/sample36.txt 0.983494 6.6174 1.9458 0.253823 12.172
files/tasks_parameters/ExAp01/sample46.txt 1.28966 7.42369 2.49128 0.327273 15.6942
files/tasks_parameters/ExAp01/sample31.txt 0.932597 7.22028 2.13584 0.25377 12.1694
files/tasks_parameters/ExAp01/sample37.txt 1.13727 8.90704 2.16981 0.295708 14.1805
files/tasks_parameters/ExAp01/sample16.txt 1.04541 8.18243 1.88294 0.24945 11.9622
files/tasks_parameters/ExAp01/sample10.txt 1.11352 6.96646 2.31217 0.285748 13.7029
files/tasks_parameters/ExAp01/sample39.txt 1.04755 6.4161 1.97266 0.251967 12.0829
files/tasks_parameters/ExAp01/sample19.txt 1.24227 8.16711 2.23199 0.308463 14.7922
files/tasks_parameters/ExAp01/sample20.txt 1.02961 7.28549 1.88944 0.25994 12.4653
files/tasks_parameters/ExAp01/sample43.txt 0.981455 6.86804 2.00142 0.25616 12.284
files/tasks_parameters/ExAp01/sample32.txt 1.17199 8.15663 2.12995 0.281726 13.5101
files/tasks_parameters/ExAp01/sample45.txt 1.10042 7.75184 2.10599 0.274935 13.1844
files/tasks_parameters/ExAp01/sample26.txt 1.0114 7.4944 1.88956 0.267248 12.8158
files/tasks_parameters/ExAp01/sample5.txt 1.09906 8.08362 2.09961 0.28454 13.645
files/tasks_parameters/ExAp01/sample21.txt 0.973924 6.11814 2.17119 0.26143 12.5367
files/tasks_parameters/ExAp01/sample38.txt 1.03042 7.761 1.96293 0.263659 12.6436
files/tasks_parameters/ExAp01/sample1.txt 1.06598 7.83752 2.13261 0.289228 13.8698
files/tasks_parameters/ExAp01/sample15.txt 1.12359 7.37971 2.12057 0.285825 13.7066
files/tasks_parameters/ExAp01/sample24.txt 1.16858 8.28531 2.25272 0.296628 14.2247
files/tasks_parameters/ExAp01/sample3.txt 1.29005 7.33359 2.39135 0.305084 14.6302
files/tasks_parameters/ExAp01/sample6.txt 1.15986 7.09894 2.24425 0.281804 13.5138
files/tasks_parameters/ExAp01/sample30.txt 1.23695 8.17669 2.03701 0.299204 14.3482
files/tasks_parameters/ExAp01/sample42.txt 1.30599 7.70416 2.42413 0.29743 14.2631
files/tasks_parameters/ExAp01/sample4.txt 1.22415 7.41691 2.36261 0.307803 14.7605
files/tasks_parameters/ExAp01/sample28.txt 1.15309 7.0562 2.07657 0.266428 12.7764
files/tasks_parameters/ExAp01/sample18.txt 1.04911 7.60139 2.1377 0.268016 12.8526
files/tasks_parameters/ExAp01/sample35.txt 1.23686 9.66795 2.28028 0.32244 15.4624
files/tasks_parameters/ExAp01/sample47.txt 1.00109 6.84842 2.12104 0.251655 12.068
files/tasks_parameters/ExAp01/sample49.txt 1.05261 7.1497 2.11412 0.255889 12.271
files/tasks_parameters/ExAp01/sample41.txt 1.05752 6.59911 2.07359 0.265885 12.7504
