Task0 1 1 1 
Task1 1 1 1 
Task2 1 1 1 
Task3 1 1 1 
Task4 1 1 1 
Task5 1 1 1 
Task6 1 1 1 
Task7 1 1 1 
Task8 1 1 1 
Task9 1 1 1 
Task10 7 1 3 
Task11 1 3 7 
Task12 1 1 1 
Task13 1 1 1 
Task14 1 3 1 
Task15 1 1 3 
Task16 1 1 1 
Task17 1 1 1 
Task18 1 1 1 
Task19 15 7 1 
Task20 1 1 1 
Task21 3 1 1 
Task22 1 1 3 
Task23 1 1 1 
Task24 3 1 1 
Task25 1 1 1 
Task26 1 3 1 
Task27 1 1 1 
Task28 1 1 3 
Task29 1 1 1 
Task30 1 1 7 
Task31 1 1 1 
Task32 1 1 1 
Task33 1 1 1 
Task34 1 1 1 
Task35 1 1 1 
Task36 3 1 3 
Task37 1 3 3 
Task38 3 3 1 
Task39 1 1 1 
Task40 3 3 1 
Task41 1 1 1 
Task42 3 1 1 
Task43 1 1 1 
Task44 1 1 1 
Task45 1 1 3 
Task46 3 1 1 
Task47 3 1 1 
Task48 127 255 255 
Task49 1 1 1 
Task50 3 7 1 
Task51 1 1 1 
Task52 1 1 1 
Task53 3 3 1 
Task54 1 1 1 
Task55 1 1 1 
Task56 1 1 1 
Task57 1 1 1 
Task58 3 3 1 
Task59 1 3 1 
Task60 1 1 1 
Task61 1 3 7 
Task62 1 1 3 
Task63 1 1 1 
Task64 3 3 3 
Task65 1 1 1 
Task66 3 1 1 
Task67 1 1 1 
Task68 1 1 1 
Task69 1 1 1 
Task70 1 3 1 
Task71 1 1 1 
Task72 1 1 1 
Task73 1 3 1 
Task74 1 1 1 
Task75 3 3 1 
Task76 1 1 1 
Task77 1 1 1 
Task78 3 1 1 
Task79 3 1 1 
Task80 3 1 1 
Task81 3 7 1 
Task82 1 7 15 
Task83 1 3 1 
Task84 3 3 7 
Task85 1 7 1 
Task86 1 3 1 
Task87 3 1 1 
Task88 3 1 3 
Task89 1 1 1 
Task90 3 1 15 
Task91 1 1 3 
Task92 3 1 1 
Task93 1 1 1 
Task94 1 1 1 
Task95 3 1 1 
Task96 1 3 1 
Task97 1 1 1 
Task98 1 3 1 
Task99 1 1 1 
