Task0 1 3 3 
Task1 1 1 1 
Task2 1 1 1 
Task3 1 3 1 
Task4 1 1 1 
Task5 1 3 1 
Task6 1 1 3 
Task7 1 1 1 
Task8 1 1 1 
Task9 3 3 1 
Task10 1 1 1 
Task11 3 1 1 
Task12 1 1 1 
Task13 1 1 1 
Task14 1 1 1 
Task15 1 1 1 
Task16 1 1 1 
Task17 1 1 1 
Task18 3 1 1 
Task19 3 3 1 
Task20 1 3 1 
Task21 1 1 1 
Task22 3 3 3 
Task23 3 1 1 
Task24 1 1 1 
Task25 1 1 1 
Task26 7 7 7 
Task27 1 1 1 
Task28 3 1 3 
Task29 1 1 1 
Task30 1 1 1 
Task31 1 1 1 
Task32 1 1 1 
Task33 3 1 3 
Task34 3 1 3 
Task35 1 1 1 
Task36 1 1 3 
Task37 1 1 3 
Task38 1 1 1 
Task39 3 1 3 
Task40 1 1 1 
Task41 1 1 1 
Task42 1 1 1 
Task43 1 1 7 
Task44 3 1 1 
Task45 7 1 1 
Task46 1 1 1 
Task47 1 1 1 
Task48 3 3 1 
Task49 1 1 1 
Task50 1 1 1 
Task51 1 1 1 
Task52 1 1 1 
Task53 1 1 3 
Task54 1 1 3 
Task55 7 1 7 
Task56 3 1 1 
Task57 7 1 1 
Task58 3 1 3 
Task59 1 1 1 
Task60 3 1 3 
Task61 1 1 1 
Task62 3 1 1 
Task63 1 1 1 
Task64 1 1 1 
Task65 1 1 3 
Task66 3 1 1 
Task67 1 1 1 
Task68 3 3 1 
Task69 1 1 1 
Task70 1 1 1 
Task71 3 1 1 
Task72 7 1 1 
Task73 1 1 1 
Task74 1 1 1 
Task75 1 1 1 
Task76 1 1 1 
Task77 1 1 1 
Task78 1 1 1 
Task79 3 3 1 
Task80 3 1 1 
Task81 1 1 1 
Task82 1 1 1 
Task83 1 3 7 
Task84 1 3 3 
Task85 1 1 1 
Task86 1 3 1 
Task87 3 1 3 
Task88 1 1 1 
Task89 1 1 1 
Task90 1 1 1 
Task91 1 1 1 
Task92 1 1 1 
Task93 3 1 3 
Task94 1 3 1 
Task95 1 3 1 
Task96 1 1 1 
Task97 1 1 1 
Task98 1 1 1 
Task99 1 1 1 
