0.29252224
Task0 15 7 31 
Task1 31 15 3 
Task2 15 31 31 
Task3 127 63 63 
Task4 255 255 255 
Task5 7 31 1 
Task6 31 1 15 
Task7 15 31 1 
Task8 3 31 15 
Task9 7 31 31 
Task10 7 31 3 
Task11 15 31 7 
Task12 15 63 3 
Task13 63 31 15 
Task14 31 7 3 
Task15 3 31 7 
Task16 63 31 1 
Task17 127 127 255 
Task18 31 1 31 
Task19 7 15 7 
Task20 31 63 1 
Task21 63 127 127 
Task22 15 7 7 
Task23 31 3 3 
Task24 63 31 7 
Task25 15 63 15 
Task26 31 3 3 
Task27 255 63 1 
Task28 31 15 31 
Task29 3 1 63 
Task30 15 15 3 
Task31 15 3 31 
Task32 255 255 255 
Task33 15 7 31 
Task34 3 31 3 
Task35 15 31 31 
Task36 31 7 1 
Task37 7 31 1 
Task38 3 15 7 
Task39 3 3 31 
Task40 15 3 31 
Task41 7 15 31 
Task42 15 15 31 
Task43 31 7 3 
Task44 7 31 15 
Task45 7 31 7 
Task46 31 3 31 
Task47 7 15 63 
Task48 7 31 1 
Task49 31 31 3 
Task50 7 15 63 
Task51 31 31 63 
Task52 15 31 7 
Task53 31 7 1 
Task54 31 63 15 
Task55 255 63 15 
Task56 15 31 7 
Task57 7 15 3 
Task58 1 31 31 
Task59 63 63 63 
Task60 31 15 1 
Task61 7 15 63 
Task62 15 15 15 
Task63 7 31 31 
Task64 31 31 3 
Task65 31 15 7 
Task66 31 7 3 
Task67 31 15 15 
Task68 3 15 1 
Task69 31 31 1 
Task70 15 3 63 
Task71 31 3 3 
Task72 63 3 1 
Task73 1 15 15 
Task74 3 1 31 
Task75 31 15 15 
Task76 7 15 31 
Task77 3 7 31 
Task78 15 7 63 
Task79 7 7 7 
Task80 15 1 63 
Task81 1 15 7 
Task82 15 15 15 
Task83 63 1 31 
Task84 15 1 15 
Task85 31 7 15 
Task86 15 15 1 
Task87 63 31 15 
Task88 7 31 15 
Task89 31 1 7 
Task90 7 3 63 
Task91 3 3 31 
Task92 63 3 7 
Task93 1 63 31 
Task94 31 3 7 
Task95 63 7 3 
Task96 15 15 15 
Task97 31 255 15 
Task98 1 15 15 
Task99 31 7 31 
