files/tasks_parameters/ExAp01/sample8.txt 0.796297 3.15778 1.5595 0.203411 6.39292
files/tasks_parameters/ExAp01/sample12.txt 0.754142 3.94962 1.6705 0.207924 6.53475
files/tasks_parameters/ExAp01/sample2.txt 0.698922 3.78275 1.74131 0.200098 6.28878
files/tasks_parameters/ExAp01/sample44.txt 0.685092 3.59825 1.65317 0.200005 6.28588
files/tasks_parameters/ExAp01/sample27.txt 0.690323 3.45743 1.5148 0.182129 5.72404
files/tasks_parameters/ExAp01/sample17.txt 0.580672 2.77299 1.44514 0.14646 4.60302
files/tasks_parameters/ExAp01/sample9.txt 0.624191 2.99933 1.451 0.177444 5.5768
files/tasks_parameters/ExAp01/sample34.txt 0.545245 3.02928 1.58429 0.157984 4.9652
files/tasks_parameters/ExAp01/sample40.txt 0.605656 3.86889 1.52122 0.168379 5.29192
files/tasks_parameters/ExAp01/sample33.txt 0.784272 3.63695 1.71905 0.199765 6.27833
files/tasks_parameters/ExAp01/sample48.txt 0.592676 3.39061 1.49062 0.154728 4.86289
files/tasks_parameters/ExAp01/sample29.txt 0.729794 3.30472 1.38739 0.223868 7.03586
files/tasks_parameters/ExAp01/sample11.txt 0.629019 3.10585 1.41612 0.174079 5.47104
files/tasks_parameters/ExAp01/sample14.txt 0.578682 2.70971 1.43432 0.162214 5.09817
files/tasks_parameters/ExAp01/sample0.txt 0.657754 3.6937 1.5439 0.18367 5.77248
files/tasks_parameters/ExAp01/sample7.txt 0.529329 2.70501 1.42221 0.143463 4.50885
files/tasks_parameters/ExAp01/sample23.txt 0.650774 3.2697 1.57822 0.181448 5.70267
files/tasks_parameters/ExAp01/sample13.txt 0.694654 3.84225 1.67648 0.198247 6.23062
files/tasks_parameters/ExAp01/sample22.txt 0.554238 3.09569 1.56121 0.148796 4.67645
files/tasks_parameters/ExAp01/sample25.txt 0.487825 2.73966 1.5007 0.148149 4.6561
files/tasks_parameters/ExAp01/sample36.txt 0.483122 2.85948 1.28553 0.130042 4.08704
files/tasks_parameters/ExAp01/sample46.txt 0.778422 3.58643 1.69998 0.210103 6.60323
files/tasks_parameters/ExAp01/sample31.txt 0.594121 3.4832 1.53782 0.1722 5.412
files/tasks_parameters/ExAp01/sample37.txt 0.64549 3.95293 1.50705 0.171701 5.39632
files/tasks_parameters/ExAp01/sample16.txt 0.605236 3.31216 1.30115 0.150249 4.72211
files/tasks_parameters/ExAp01/sample10.txt 0.647785 3.17098 1.61789 0.153776 4.83297
files/tasks_parameters/ExAp01/sample39.txt 0.623396 3.26617 1.44406 0.165669 5.20673
files/tasks_parameters/ExAp01/sample19.txt 0.720436 3.63532 1.52509 0.196094 6.16297
files/tasks_parameters/ExAp01/sample20.txt 0.510063 3.20793 1.25367 0.147335 4.63054
files/tasks_parameters/ExAp01/sample43.txt 0.586224 3.11551 1.4202 0.150644 4.73454
files/tasks_parameters/ExAp01/sample32.txt 0.617673 3.5311 1.42482 0.168744 5.30339
files/tasks_parameters/ExAp01/sample45.txt 0.710548 3.80283 1.48324 0.19807 6.22507
files/tasks_parameters/ExAp01/sample26.txt 0.583559 3.21645 1.29701 0.166061 5.21907
files/tasks_parameters/ExAp01/sample5.txt 0.638616 3.5889 1.52559 0.178903 5.62268
files/tasks_parameters/ExAp01/sample21.txt 0.658583 2.75242 1.55936 0.19512 6.13235
files/tasks_parameters/ExAp01/sample38.txt 0.604909 3.31563 1.37515 0.166157 5.22207
files/tasks_parameters/ExAp01/sample1.txt 0.757687 3.74964 1.51696 0.19701 6.19173
files/tasks_parameters/ExAp01/sample15.txt 0.61673 3.32916 1.48508 0.180707 5.67938
files/tasks_parameters/ExAp01/sample24.txt 0.604517 3.45951 1.59549 0.16529 5.19484
files/tasks_parameters/ExAp01/sample3.txt 0.920462 3.70014 1.70809 0.237107 7.45194
files/tasks_parameters/ExAp01/sample6.txt 0.620588 3.33003 1.58323 0.184714 5.80531
files/tasks_parameters/ExAp01/sample30.txt 0.794228 4.1841 1.4861 0.239623 7.53101
files/tasks_parameters/ExAp01/sample42.txt 0.662322 3.43221 1.70276 0.177383 5.57489
files/tasks_parameters/ExAp01/sample4.txt 0.738103 3.72477 1.6136 0.196448 6.17408
files/tasks_parameters/ExAp01/sample28.txt 0.560388 3.11323 1.45032 0.158819 4.99146
files/tasks_parameters/ExAp01/sample18.txt 0.56471 3.47418 1.45209 0.149064 4.68486
files/tasks_parameters/ExAp01/sample35.txt 0.640428 4.57086 1.49394 0.185031 5.81525
files/tasks_parameters/ExAp01/sample47.txt 0.625563 3.13768 1.52397 0.16417 5.15963
files/tasks_parameters/ExAp01/sample49.txt 0.552372 3.13288 1.49657 0.156154 4.9077
files/tasks_parameters/ExAp01/sample41.txt 0.587033 2.81964 1.49636 0.150876 4.74181
