files/tasks_parameters/ExAp01/sample8.txt 1.08361 3.76817 4.3855 0.450105 10.011
files/tasks_parameters/ExAp01/sample12.txt 1.49418 5.03638 5.18776 0.610564 13.5798
files/tasks_parameters/ExAp01/sample2.txt 1.38465 4.58991 5.64606 0.613877 13.6535
files/tasks_parameters/ExAp01/sample44.txt 1.24953 3.77401 5.66946 0.551838 12.2736
files/tasks_parameters/ExAp01/sample27.txt 1.29418 4.13937 5.56136 0.55779 12.406
files/tasks_parameters/ExAp01/sample17.txt 1.19456 3.76163 5.38341 0.520991 11.5876
files/tasks_parameters/ExAp01/sample9.txt 1.1433 3.69889 5.2981 0.511699 11.3809
files/tasks_parameters/ExAp01/sample34.txt 1.13513 3.52435 5.83741 0.49187 10.9399
files/tasks_parameters/ExAp01/sample40.txt 1.15486 4.06185 5.0335 0.496884 11.0514
files/tasks_parameters/ExAp01/sample33.txt 1.55311 4.82091 5.83886 0.651963 14.5006
files/tasks_parameters/ExAp01/sample48.txt 1.07595 4.01134 5.07085 0.447927 9.96253
files/tasks_parameters/ExAp01/sample29.txt 1.47053 4.20847 5.0406 0.643694 14.3167
files/tasks_parameters/ExAp01/sample11.txt 1.31879 3.94699 5.29198 0.557276 12.3946
files/tasks_parameters/ExAp01/sample14.txt 1.07971 3.54059 4.58345 0.466713 10.3804
files/tasks_parameters/ExAp01/sample0.txt 1.50757 4.82755 4.90216 0.623551 13.8686
files/tasks_parameters/ExAp01/sample7.txt 1.15002 3.60766 5.11185 0.509566 11.3335
files/tasks_parameters/ExAp01/sample23.txt 1.41561 3.81403 5.45799 0.582911 12.9648
files/tasks_parameters/ExAp01/sample13.txt 1.46309 4.8894 5.26818 0.624499 13.8897
files/tasks_parameters/ExAp01/sample22.txt 1.29069 3.76156 4.95746 0.534216 11.8817
files/tasks_parameters/ExAp01/sample25.txt 0.976769 2.94144 4.92622 0.403639 8.9775
files/tasks_parameters/ExAp01/sample36.txt 1.25826 3.56164 4.5806 0.501799 11.1607
files/tasks_parameters/ExAp01/sample46.txt 1.23268 3.84833 4.7121 0.530701 11.8035
files/tasks_parameters/ExAp01/sample31.txt 1.08313 3.764 5.08385 0.479734 10.67
files/tasks_parameters/ExAp01/sample37.txt 1.52462 4.43254 5.65111 0.65143 14.4887
files/tasks_parameters/ExAp01/sample16.txt 1.27249 4.49741 4.8895 0.509171 11.3247
files/tasks_parameters/ExAp01/sample10.txt 1.38978 3.87086 6.07511 0.60993 13.5657
files/tasks_parameters/ExAp01/sample39.txt 1.04986 3.66299 4.54281 0.463671 10.3127
files/tasks_parameters/ExAp01/sample19.txt 1.40981 3.86694 5.14047 0.615987 13.7004
files/tasks_parameters/ExAp01/sample20.txt 1.30362 4.09945 5.13368 0.580369 12.9082
files/tasks_parameters/ExAp01/sample43.txt 1.15434 3.75825 5.55698 0.530892 11.8078
files/tasks_parameters/ExAp01/sample32.txt 1.42898 4.0352 5.29178 0.587643 13.07
files/tasks_parameters/ExAp01/sample45.txt 1.226 3.94578 4.87833 0.541081 12.0344
files/tasks_parameters/ExAp01/sample26.txt 1.11336 3.50998 4.55035 0.474009 10.5426
files/tasks_parameters/ExAp01/sample5.txt 1.35595 4.00994 5.27725 0.587681 13.0708
files/tasks_parameters/ExAp01/sample21.txt 0.935151 2.8974 4.54677 0.430037 9.56463
files/tasks_parameters/ExAp01/sample38.txt 1.17206 3.56689 4.78573 0.492366 10.9509
files/tasks_parameters/ExAp01/sample1.txt 1.15527 3.69002 4.55048 0.481074 10.6998
files/tasks_parameters/ExAp01/sample15.txt 1.20629 3.73223 5.42493 0.524964 11.6759
files/tasks_parameters/ExAp01/sample24.txt 1.27538 4.18053 5.40377 0.542575 12.0676
files/tasks_parameters/ExAp01/sample3.txt 1.08376 3.70547 4.7118 0.470503 10.4646
files/tasks_parameters/ExAp01/sample6.txt 1.38737 4.07521 5.71419 0.626702 13.9387
files/tasks_parameters/ExAp01/sample30.txt 1.49566 3.97446 5.82388 0.626709 13.9389
files/tasks_parameters/ExAp01/sample42.txt 1.29681 4.44207 5.58473 0.537025 11.9442
files/tasks_parameters/ExAp01/sample4.txt 1.33483 3.92181 4.49751 0.556974 12.3879
files/tasks_parameters/ExAp01/sample28.txt 1.06732 3.13496 4.88321 0.444588 9.88826
files/tasks_parameters/ExAp01/sample18.txt 1.22803 3.95301 4.52898 0.537438 11.9534
files/tasks_parameters/ExAp01/sample35.txt 1.80933 5.75923 6.25034 0.752488 16.7364
files/tasks_parameters/ExAp01/sample47.txt 1.16153 3.44018 5.14289 0.540033 12.0111
files/tasks_parameters/ExAp01/sample49.txt 1.22964 3.38981 4.72409 0.493041 10.9659
files/tasks_parameters/ExAp01/sample41.txt 1.10214 3.58692 5.27252 0.492391 10.9515
