digraph G {
0 ->17 0 ->20 0 ->26 0 ->33 1 ->14 1 ->16 1 ->17 1 ->18 1 ->25 1 ->26 1 ->30 1 ->34 2 ->15 2 ->16 2 ->17 2 ->19 2 ->28 2 ->31 2 ->34 2 ->34 2 ->35 2 ->39 2 ->44 3 ->19 3 ->28 3 ->30 3 ->31 3 ->38 4 ->15 4 ->17 4 ->19 4 ->21 4 ->22 4 ->31 4 ->33 4 ->46 4 ->53 5 ->17 5 ->20 5 ->21 5 ->22 5 ->28 5 ->32 5 ->36 6 ->14 6 ->15 6 ->16 6 ->33 6 ->34 6 ->36 6 ->43 7 ->17 7 ->18 7 ->19 7 ->20 7 ->23 7 ->34 7 ->35 7 ->37 7 ->47 8 ->17 8 ->19 8 ->32 8 ->34 8 ->36 8 ->37 8 ->47 9 ->21 9 ->22 9 ->25 9 ->27 9 ->30 9 ->32 10 ->20 10 ->22 10 ->24 10 ->25 10 ->27 10 ->31 11 ->15 11 ->18 11 ->20 11 ->23 11 ->33 11 ->49 12 ->20 12 ->22 12 ->24 12 ->26 12 ->28 12 ->41 12 ->44 12 ->50 12 ->54 13 ->15 13 ->18 13 ->20 13 ->23 13 ->26 14 ->36 14 ->37 14 ->49 15 ->55 16 ->30 16 ->42 16 ->43 16 ->54 17 ->35 17 ->43 17 ->52 17 ->53 18 ->29 18 ->37 18 ->40 18 ->52 19 ->32 21 ->39 21 ->41 21 ->50 21 ->55 22 ->39 22 ->46 22 ->47 22 ->59 22 ->60 23 ->46 23 ->48 23 ->51 23 ->52 24 ->28 24 ->50 24 ->59 24 ->63 25 ->35 25 ->36 25 ->45 26 ->47 26 ->52 27 ->62 27 ->73 28 ->47 29 ->49 30 ->43 30 ->58 31 ->53 31 ->59 32 ->50 32 ->68 33 ->41 33 ->72 34 ->47 35 ->49 35 ->55 35 ->60 35 ->61 36 ->40 36 ->49 37 ->54 37 ->62 38 ->44 38 ->47 38 ->73 39 ->77 40 ->57 41 ->62 41 ->68 41 ->69 41 ->75 41 ->76 41 ->79 42 ->55 42 ->71 42 ->74 42 ->79 42 ->86 43 ->70 43 ->71 43 ->74 43 ->78 43 ->80 43 ->82 43 ->85 43 ->88 44 ->57 44 ->78 45 ->65 45 ->79 46 ->51 46 ->86 47 ->63 47 ->64 47 ->86 48 ->57 48 ->62 48 ->88 48 ->98 48 ->99 49 ->56 49 ->59 49 ->63 49 ->71 49 ->86 49 ->89 50 ->65 50 ->68 50 ->84 50 ->99 51 ->63 51 ->69 51 ->78 51 ->85 51 ->93 52 ->83 52 ->86 52 ->94 53 ->78 53 ->80 53 ->84 53 ->88 53 ->98 53 ->99 54 ->56 54 ->67 54 ->81 54 ->85 54 ->93 55 ->70 55 ->80 55 ->89 55 ->90 55 ->94 56 ->66 56 ->80 56 ->82 56 ->84 57 ->83 60 ->87 60 ->91 60 ->99 61 ->67 61 ->75 61 ->95 62 ->69 62 ->75 62 ->84 62 ->85 62 ->92 63 ->92 63 ->94 64 ->71 64 ->95 64 ->96 65 ->82 66 ->80 66 ->87 66 ->99 67 ->84 68 ->80 68 ->88 68 ->89 71 ->81 71 ->85 71 ->92 71 ->93 72 ->95 73 ->97 74 ->88 75 ->97 76 ->81 76 ->92 77 ->81 77 ->82 77 ->85 78 ->94 79 ->93 81 ->92 86 ->89 87 ->92 
}
