digraph G {
0 ->19 0 ->20 0 ->23 0 ->36 1 ->14 1 ->23 1 ->24 1 ->26 1 ->28 2 ->14 2 ->15 2 ->24 2 ->29 2 ->30 2 ->33 2 ->38 2 ->43 2 ->45 2 ->46 3 ->22 3 ->24 3 ->24 3 ->32 3 ->41 4 ->15 4 ->18 4 ->20 4 ->23 4 ->24 4 ->25 4 ->28 4 ->29 4 ->32 4 ->37 5 ->14 5 ->18 5 ->19 5 ->21 5 ->23 5 ->24 5 ->25 5 ->26 5 ->28 5 ->29 5 ->30 5 ->32 5 ->44 6 ->15 6 ->20 6 ->25 6 ->26 6 ->30 6 ->49 7 ->14 7 ->23 7 ->25 7 ->26 7 ->32 7 ->37 8 ->20 8 ->29 8 ->32 9 ->16 9 ->18 9 ->20 9 ->24 9 ->25 9 ->29 9 ->38 9 ->39 9 ->48 10 ->15 10 ->18 10 ->25 10 ->29 10 ->30 10 ->35 10 ->48 11 ->17 11 ->18 11 ->20 11 ->27 11 ->30 11 ->43 12 ->14 12 ->17 12 ->20 12 ->25 12 ->31 12 ->42 13 ->14 13 ->15 13 ->23 14 ->28 14 ->50 15 ->29 15 ->39 15 ->51 15 ->56 16 ->28 17 ->53 17 ->54 19 ->52 21 ->31 21 ->51 21 ->54 22 ->48 23 ->28 24 ->54 26 ->33 26 ->53 27 ->53 28 ->34 28 ->51 28 ->61 29 ->43 29 ->46 29 ->51 29 ->62 30 ->34 30 ->36 30 ->54 31 ->36 31 ->46 32 ->42 32 ->49 32 ->53 33 ->54 33 ->64 33 ->67 33 ->72 34 ->56 34 ->61 34 ->63 34 ->71 34 ->74 35 ->64 35 ->72 36 ->44 36 ->47 36 ->66 37 ->72 38 ->40 38 ->44 38 ->50 39 ->51 39 ->53 39 ->55 39 ->56 39 ->59 40 ->68 40 ->69 41 ->51 41 ->68 42 ->52 42 ->66 44 ->59 44 ->63 44 ->66 45 ->60 46 ->68 47 ->73 48 ->67 48 ->69 48 ->70 48 ->76 48 ->80 49 ->69 49 ->81 50 ->76 51 ->63 51 ->65 51 ->76 51 ->89 52 ->81 52 ->88 53 ->62 53 ->67 53 ->77 53 ->79 54 ->75 55 ->57 55 ->58 55 ->60 55 ->71 55 ->72 56 ->59 56 ->65 56 ->67 56 ->73 56 ->80 56 ->81 56 ->82 56 ->89 58 ->66 58 ->81 58 ->82 59 ->68 59 ->76 59 ->77 59 ->93 60 ->66 60 ->93 61 ->69 61 ->70 61 ->77 61 ->87 61 ->92 61 ->97 62 ->78 62 ->89 63 ->67 63 ->81 64 ->87 64 ->92 64 ->94 64 ->97 65 ->73 65 ->74 65 ->96 66 ->77 66 ->80 67 ->80 67 ->96 68 ->84 68 ->88 69 ->94 70 ->93 71 ->89 73 ->77 73 ->80 73 ->96 73 ->99 74 ->87 76 ->85 76 ->98 76 ->99 77 ->96 78 ->86 78 ->91 80 ->83 80 ->92 81 ->99 82 ->94 85 ->92 87 ->95 88 ->97 88 ->99 89 ->90 
}
