digraph G {
0 ->11 0 ->13 0 ->14 0 ->15 0 ->25 0 ->47 1 ->15 1 ->17 1 ->24 1 ->27 1 ->48 2 ->16 2 ->18 2 ->21 2 ->26 2 ->28 2 ->50 3 ->13 3 ->17 3 ->28 4 ->16 4 ->17 4 ->18 4 ->22 4 ->33 5 ->12 5 ->17 5 ->19 5 ->33 6 ->11 6 ->13 6 ->15 6 ->17 6 ->18 6 ->23 6 ->33 6 ->35 7 ->11 7 ->12 7 ->13 7 ->15 7 ->19 7 ->22 7 ->26 7 ->28 7 ->30 7 ->34 7 ->35 7 ->36 7 ->39 7 ->45 8 ->11 8 ->13 8 ->15 8 ->16 8 ->19 8 ->20 8 ->29 8 ->37 8 ->43 9 ->11 9 ->12 9 ->16 9 ->18 9 ->23 9 ->27 9 ->29 9 ->35 9 ->36 9 ->43 10 ->11 10 ->12 10 ->13 10 ->19 10 ->22 10 ->25 10 ->28 10 ->29 10 ->30 10 ->39 10 ->51 11 ->26 11 ->37 11 ->42 11 ->47 11 ->48 11 ->53 12 ->28 12 ->30 12 ->31 12 ->43 12 ->50 12 ->57 12 ->60 13 ->25 13 ->33 13 ->53 13 ->59 14 ->20 14 ->56 15 ->43 16 ->20 16 ->49 17 ->55 18 ->35 18 ->52 18 ->59 19 ->22 19 ->46 19 ->55 20 ->55 20 ->56 21 ->32 21 ->36 21 ->46 21 ->60 21 ->66 22 ->30 22 ->39 22 ->53 22 ->57 23 ->57 23 ->60 24 ->38 24 ->39 24 ->40 25 ->54 25 ->61 25 ->63 25 ->70 26 ->31 26 ->32 26 ->48 27 ->30 27 ->32 27 ->41 27 ->49 27 ->63 28 ->31 28 ->34 28 ->44 28 ->57 29 ->49 29 ->57 29 ->58 29 ->63 29 ->73 30 ->66 31 ->62 31 ->72 31 ->75 31 ->77 32 ->51 32 ->54 32 ->62 32 ->67 33 ->44 33 ->54 33 ->56 33 ->58 33 ->64 33 ->66 33 ->73 34 ->62 34 ->64 35 ->45 35 ->52 35 ->72 36 ->47 36 ->50 36 ->75 36 ->79 37 ->43 37 ->49 37 ->52 37 ->56 37 ->60 38 ->53 38 ->61 39 ->49 39 ->53 40 ->81 43 ->60 43 ->76 44 ->58 45 ->59 45 ->67 45 ->75 46 ->69 47 ->81 48 ->75 49 ->73 50 ->62 50 ->65 50 ->79 52 ->74 52 ->76 54 ->65 54 ->76 54 ->78 55 ->79 55 ->80 55 ->84 56 ->80 56 ->84 56 ->85 56 ->91 57 ->67 57 ->76 57 ->83 57 ->88 57 ->94 58 ->68 58 ->88 59 ->71 59 ->89 60 ->63 60 ->81 60 ->89 61 ->64 61 ->79 61 ->94 61 ->97 62 ->88 62 ->90 64 ->86 64 ->87 65 ->72 65 ->74 65 ->81 65 ->92 65 ->96 66 ->77 66 ->78 66 ->93 67 ->75 68 ->74 69 ->79 69 ->83 69 ->96 70 ->72 70 ->84 70 ->85 73 ->82 73 ->84 74 ->83 74 ->95 74 ->99 75 ->83 75 ->86 78 ->97 79 ->84 79 ->95 79 ->98 81 ->89 83 ->98 95 ->98 
}
