digraph G {
0 ->7 0 ->9 0 ->10 0 ->11 0 ->21 0 ->24 0 ->26 0 ->32 0 ->33 0 ->36 1 ->8 1 ->10 1 ->17 1 ->20 1 ->35 2 ->8 2 ->11 2 ->12 2 ->29 2 ->38 3 ->7 3 ->8 3 ->9 3 ->16 3 ->29 3 ->40 4 ->10 4 ->13 4 ->16 4 ->17 4 ->38 5 ->10 5 ->11 5 ->15 5 ->18 5 ->35 6 ->9 6 ->11 6 ->14 6 ->17 7 ->19 7 ->28 7 ->35 7 ->41 8 ->23 8 ->43 9 ->23 9 ->27 10 ->21 10 ->25 10 ->46 11 ->42 12 ->29 13 ->37 13 ->38 13 ->41 14 ->18 14 ->21 14 ->31 14 ->32 14 ->35 14 ->45 14 ->53 15 ->31 15 ->35 15 ->37 15 ->43 16 ->36 16 ->38 16 ->42 16 ->43 16 ->48 16 ->53 17 ->22 17 ->26 17 ->31 17 ->34 17 ->36 17 ->40 17 ->41 17 ->47 17 ->48 18 ->39 18 ->61 19 ->46 19 ->50 19 ->58 20 ->29 20 ->36 23 ->44 23 ->57 24 ->42 24 ->62 25 ->33 25 ->41 25 ->43 26 ->30 26 ->49 26 ->63 27 ->60 28 ->45 28 ->70 28 ->71 29 ->49 29 ->51 29 ->69 30 ->73 32 ->52 32 ->62 32 ->66 33 ->62 34 ->54 36 ->64 36 ->70 39 ->51 39 ->55 41 ->61 41 ->69 42 ->47 42 ->58 42 ->60 42 ->78 42 ->79 43 ->50 43 ->56 43 ->59 43 ->68 43 ->75 43 ->81 44 ->51 44 ->60 44 ->69 44 ->74 44 ->78 44 ->79 44 ->83 45 ->57 45 ->59 45 ->63 45 ->65 45 ->73 45 ->77 45 ->84 46 ->65 46 ->78 46 ->79 46 ->84 47 ->74 47 ->75 47 ->88 48 ->62 49 ->59 49 ->74 49 ->76 49 ->97 50 ->59 50 ->65 50 ->75 50 ->78 50 ->94 52 ->58 53 ->58 53 ->59 54 ->66 54 ->91 54 ->96 55 ->61 55 ->63 55 ->92 56 ->58 56 ->59 56 ->83 56 ->85 57 ->62 57 ->83 58 ->81 58 ->85 58 ->89 58 ->97 59 ->68 59 ->97 59 ->98 60 ->67 60 ->68 60 ->86 60 ->92 61 ->64 61 ->79 61 ->93 62 ->90 62 ->93 63 ->72 63 ->88 63 ->96 63 ->97 64 ->82 64 ->85 64 ->89 65 ->82 66 ->79 66 ->96 67 ->74 67 ->80 68 ->82 68 ->85 68 ->92 68 ->96 68 ->98 69 ->83 70 ->84 70 ->87 70 ->92 71 ->83 71 ->95 71 ->98 72 ->74 72 ->82 73 ->84 73 ->92 73 ->97 76 ->85 76 ->98 78 ->89 79 ->88 79 ->93 80 ->93 82 ->85 83 ->89 83 ->96 83 ->99 85 ->99 
}
