files/tasks_parameters/ExAp01/sample8.txt 1.00693 3.76817 4.3855 0.450105 12.3542
files/tasks_parameters/ExAp01/sample12.txt 1.31757 5.03638 5.18776 0.610564 16.7584
files/tasks_parameters/ExAp01/sample2.txt 1.30349 4.58991 5.64606 0.613877 16.8494
files/tasks_parameters/ExAp01/sample44.txt 1.17828 3.77401 5.66946 0.551838 15.1465
files/tasks_parameters/ExAp01/sample27.txt 1.20018 4.13937 5.56136 0.55779 15.3099
files/tasks_parameters/ExAp01/sample17.txt 1.1124 3.76163 5.38341 0.520991 14.2999
files/tasks_parameters/ExAp01/sample9.txt 1.09853 3.69889 5.2981 0.511699 14.0448
files/tasks_parameters/ExAp01/sample34.txt 1.0829 3.52435 5.83741 0.49187 13.5006
files/tasks_parameters/ExAp01/sample40.txt 1.07116 4.06185 5.0335 0.496884 13.6382
files/tasks_parameters/ExAp01/sample33.txt 1.37894 4.82091 5.83886 0.651963 17.8947
files/tasks_parameters/ExAp01/sample48.txt 0.977269 4.01134 5.07085 0.447927 12.2945
files/tasks_parameters/ExAp01/sample29.txt 1.35275 4.20847 5.0406 0.643694 17.6678
files/tasks_parameters/ExAp01/sample11.txt 1.20711 3.94699 5.29198 0.557276 15.2958
files/tasks_parameters/ExAp01/sample14.txt 1.03226 3.54059 4.58345 0.466713 12.8101
files/tasks_parameters/ExAp01/sample0.txt 1.34415 4.82755 4.90216 0.623551 17.1149
files/tasks_parameters/ExAp01/sample7.txt 1.09687 3.60766 5.11185 0.509566 13.9863
files/tasks_parameters/ExAp01/sample23.txt 1.26413 3.81403 5.45799 0.582911 15.9994
files/tasks_parameters/ExAp01/sample13.txt 1.33469 4.8894 5.26818 0.624499 17.1409
files/tasks_parameters/ExAp01/sample22.txt 1.151 3.76156 4.95746 0.534216 14.6629
files/tasks_parameters/ExAp01/sample25.txt 0.902179 2.94144 4.92622 0.403639 11.0789
files/tasks_parameters/ExAp01/sample36.txt 1.06838 3.56164 4.5806 0.501799 13.7731
files/tasks_parameters/ExAp01/sample46.txt 1.13274 3.84833 4.7121 0.530701 14.5664
files/tasks_parameters/ExAp01/sample31.txt 1.04537 3.764 5.08385 0.479734 13.1675
files/tasks_parameters/ExAp01/sample37.txt 1.391 4.43254 5.65111 0.65143 17.8801
files/tasks_parameters/ExAp01/sample16.txt 1.19083 4.49741 4.8895 0.509171 13.9754
files/tasks_parameters/ExAp01/sample10.txt 1.31728 3.87086 6.07511 0.60993 16.741
files/tasks_parameters/ExAp01/sample39.txt 0.998116 3.66299 4.54281 0.463671 12.7266
files/tasks_parameters/ExAp01/sample19.txt 1.30676 3.86694 5.14047 0.615987 16.9073
files/tasks_parameters/ExAp01/sample20.txt 1.2296 4.09945 5.13368 0.580369 15.9296
files/tasks_parameters/ExAp01/sample43.txt 1.1453 3.75825 5.55698 0.530892 14.5716
files/tasks_parameters/ExAp01/sample32.txt 1.2951 4.0352 5.29178 0.587643 16.1293
files/tasks_parameters/ExAp01/sample45.txt 1.18093 3.94578 4.87833 0.541081 14.8513
files/tasks_parameters/ExAp01/sample26.txt 1.0234 3.50998 4.55035 0.474009 13.0103
files/tasks_parameters/ExAp01/sample5.txt 1.27822 4.00994 5.27725 0.587681 16.1303
files/tasks_parameters/ExAp01/sample21.txt 0.944391 2.8974 4.54677 0.430037 11.8034
files/tasks_parameters/ExAp01/sample38.txt 1.05758 3.56689 4.78573 0.492366 13.5142
files/tasks_parameters/ExAp01/sample1.txt 1.05341 3.69002 4.55048 0.481074 13.2042
files/tasks_parameters/ExAp01/sample15.txt 1.13206 3.73223 5.42493 0.524964 14.4089
files/tasks_parameters/ExAp01/sample24.txt 1.16116 4.18053 5.40377 0.542575 14.8923
files/tasks_parameters/ExAp01/sample3.txt 1.00946 3.70547 4.7118 0.470503 12.9141
files/tasks_parameters/ExAp01/sample6.txt 1.32155 4.07521 5.71419 0.626702 17.2014
files/tasks_parameters/ExAp01/sample30.txt 1.36691 3.97446 5.82388 0.626709 17.2016
files/tasks_parameters/ExAp01/sample42.txt 1.18009 4.44207 5.58473 0.537025 14.74
files/tasks_parameters/ExAp01/sample4.txt 1.19083 3.92181 4.49751 0.556974 15.2875
files/tasks_parameters/ExAp01/sample28.txt 0.948519 3.13496 4.88321 0.444588 12.2028
files/tasks_parameters/ExAp01/sample18.txt 1.15028 3.95301 4.52898 0.537438 14.7513
files/tasks_parameters/ExAp01/sample35.txt 1.65882 5.75923 6.25034 0.752488 20.6539
files/tasks_parameters/ExAp01/sample47.txt 1.14889 3.44018 5.14289 0.540033 14.8225
files/tasks_parameters/ExAp01/sample49.txt 1.07057 3.38981 4.72409 0.493041 13.5327
files/tasks_parameters/ExAp01/sample41.txt 1.06081 3.58692 5.27252 0.492391 13.5149
