files/tasks_parameters/ExAp01/sample8.txt 1.22071 6.77015 2.19458 0.288816 11.9502
files/tasks_parameters/ExAp01/sample12.txt 1.26115 9.58351 2.46081 0.337498 13.9645
files/tasks_parameters/ExAp01/sample2.txt 1.21815 8.44418 2.50701 0.319127 13.2043
files/tasks_parameters/ExAp01/sample44.txt 1.04148 6.96299 2.23089 0.28229 11.6801
files/tasks_parameters/ExAp01/sample27.txt 1.16056 7.74306 2.16676 0.28602 11.8345
files/tasks_parameters/ExAp01/sample17.txt 1.17689 7.35053 2.25579 0.292348 12.0963
files/tasks_parameters/ExAp01/sample9.txt 1.04419 6.89392 2.21068 0.282399 11.6846
files/tasks_parameters/ExAp01/sample34.txt 1.26826 6.62788 2.3772 0.297742 12.3195
files/tasks_parameters/ExAp01/sample40.txt 1.16817 7.75686 2.17534 0.285619 11.8179
files/tasks_parameters/ExAp01/sample33.txt 1.3413 8.14826 2.6463 0.338073 13.9882
files/tasks_parameters/ExAp01/sample48.txt 1.06069 7.64107 2.14272 0.270011 11.1721
files/tasks_parameters/ExAp01/sample29.txt 0.991409 7.139 1.93769 0.286306 11.8463
files/tasks_parameters/ExAp01/sample11.txt 1.20312 6.88688 2.12981 0.280008 11.5857
files/tasks_parameters/ExAp01/sample14.txt 0.993734 6.11983 1.97599 0.247458 10.2389
files/tasks_parameters/ExAp01/sample0.txt 1.18024 8.2738 2.14256 0.289132 11.9632
files/tasks_parameters/ExAp01/sample7.txt 1.06751 6.87011 2.05821 0.269886 11.1669
files/tasks_parameters/ExAp01/sample23.txt 1.11861 6.52032 2.38087 0.291712 12.07
files/tasks_parameters/ExAp01/sample13.txt 1.17287 8.73247 2.33415 0.295393 12.2223
files/tasks_parameters/ExAp01/sample22.txt 1.09538 6.9777 2.28948 0.283979 11.75
files/tasks_parameters/ExAp01/sample25.txt 1.01969 6.23444 2.2122 0.267298 11.0598
files/tasks_parameters/ExAp01/sample36.txt 1.01191 6.6174 1.9458 0.253823 10.5023
files/tasks_parameters/ExAp01/sample46.txt 1.35234 7.42369 2.49128 0.327273 13.5414
files/tasks_parameters/ExAp01/sample31.txt 0.988745 7.22028 2.13584 0.25377 10.5001
files/tasks_parameters/ExAp01/sample37.txt 1.19086 8.90704 2.16981 0.295708 12.2353
files/tasks_parameters/ExAp01/sample16.txt 1.02205 8.18243 1.88294 0.24945 10.3213
files/tasks_parameters/ExAp01/sample10.txt 1.14821 6.96646 2.31217 0.285748 11.8232
files/tasks_parameters/ExAp01/sample39.txt 1.08706 6.4161 1.97266 0.251967 10.4255
files/tasks_parameters/ExAp01/sample19.txt 1.20159 8.16711 2.23199 0.308463 12.7631
files/tasks_parameters/ExAp01/sample20.txt 1.02145 7.28549 1.88944 0.25994 10.7554
files/tasks_parameters/ExAp01/sample43.txt 0.99986 6.86804 2.00142 0.25616 10.599
files/tasks_parameters/ExAp01/sample32.txt 1.08903 8.15663 2.12995 0.281726 11.6568
files/tasks_parameters/ExAp01/sample45.txt 1.08049 7.75184 2.10599 0.274935 11.3758
files/tasks_parameters/ExAp01/sample26.txt 1.06788 7.4944 1.88956 0.267248 11.0577
files/tasks_parameters/ExAp01/sample5.txt 1.15718 8.08362 2.09961 0.28454 11.7732
files/tasks_parameters/ExAp01/sample21.txt 1.07143 6.11814 2.17119 0.26143 10.817
files/tasks_parameters/ExAp01/sample38.txt 1.08796 7.761 1.96293 0.263659 10.9092
files/tasks_parameters/ExAp01/sample1.txt 1.17073 7.83752 2.13261 0.289228 11.9672
files/tasks_parameters/ExAp01/sample15.txt 1.18543 7.37971 2.12057 0.285825 11.8264
files/tasks_parameters/ExAp01/sample24.txt 1.15007 8.28531 2.25272 0.296628 12.2734
files/tasks_parameters/ExAp01/sample3.txt 1.24458 7.33359 2.39135 0.305084 12.6233
files/tasks_parameters/ExAp01/sample6.txt 1.08537 7.09894 2.24425 0.281804 11.66
files/tasks_parameters/ExAp01/sample30.txt 1.21722 8.17669 2.03701 0.299204 12.38
files/tasks_parameters/ExAp01/sample42.txt 1.30482 7.70416 2.42413 0.29743 12.3066
files/tasks_parameters/ExAp01/sample4.txt 1.16719 7.41691 2.36261 0.307803 12.7358
files/tasks_parameters/ExAp01/sample28.txt 0.973159 7.0562 2.07657 0.266428 11.0238
files/tasks_parameters/ExAp01/sample18.txt 1.1706 7.60139 2.1377 0.268016 11.0895
files/tasks_parameters/ExAp01/sample35.txt 1.25257 9.66795 2.28028 0.32244 13.3414
files/tasks_parameters/ExAp01/sample47.txt 0.949803 6.84842 2.12104 0.251655 10.4126
files/tasks_parameters/ExAp01/sample49.txt 1.03104 7.1497 2.11412 0.255889 10.5877
files/tasks_parameters/ExAp01/sample41.txt 1.03914 6.59911 2.07359 0.265885 11.0014
