files/tasks_parameters/ExAp01/sample8.txt 1.06856 7.2562 4.46819 0.454772 7.95312
files/tasks_parameters/ExAp01/sample12.txt 1.4813 9.70908 5.28286 0.618515 10.8167
files/tasks_parameters/ExAp01/sample2.txt 1.41828 8.14159 5.7401 0.620531 10.8519
files/tasks_parameters/ExAp01/sample44.txt 1.32684 7.25164 5.75904 0.557631 9.75192
files/tasks_parameters/ExAp01/sample27.txt 1.32482 8.10944 5.64946 0.564878 9.87867
files/tasks_parameters/ExAp01/sample17.txt 1.22909 7.11225 5.46658 0.527183 9.21945
files/tasks_parameters/ExAp01/sample9.txt 1.19155 7.62559 5.37813 0.517277 9.04621
files/tasks_parameters/ExAp01/sample34.txt 1.24255 7.04587 5.93037 0.497709 8.70401
files/tasks_parameters/ExAp01/sample40.txt 1.17099 8.03037 5.123 0.502383 8.78573
files/tasks_parameters/ExAp01/sample33.txt 1.48561 9.22935 5.92956 0.659262 11.5293
files/tasks_parameters/ExAp01/sample48.txt 1.0863 8.12182 5.1577 0.452491 7.91321
files/tasks_parameters/ExAp01/sample29.txt 1.46969 8.06133 5.12331 0.650652 11.3787
files/tasks_parameters/ExAp01/sample11.txt 1.30395 7.63104 5.37897 0.563302 9.8511
files/tasks_parameters/ExAp01/sample14.txt 1.12303 6.66403 4.66322 0.471536 8.24629
files/tasks_parameters/ExAp01/sample0.txt 1.46564 9.3266 4.98971 0.6311 11.0368
files/tasks_parameters/ExAp01/sample7.txt 1.22223 7.34863 5.19436 0.515527 9.01561
files/tasks_parameters/ExAp01/sample23.txt 1.38393 6.68564 5.54308 0.588617 10.2938
files/tasks_parameters/ExAp01/sample13.txt 1.45932 9.31093 5.35591 0.632849 11.0673
files/tasks_parameters/ExAp01/sample22.txt 1.25501 7.65588 5.04866 0.540336 9.44947
files/tasks_parameters/ExAp01/sample25.txt 1.01203 6.17035 5.0141 0.408296 7.14033
files/tasks_parameters/ExAp01/sample36.txt 1.17787 7.03772 4.66274 0.507647 8.8778
files/tasks_parameters/ExAp01/sample46.txt 1.27017 7.73433 4.79934 0.536843 9.38839
files/tasks_parameters/ExAp01/sample31.txt 1.18625 6.96928 5.16482 0.485817 8.49604
files/tasks_parameters/ExAp01/sample37.txt 1.50386 9.52443 5.74224 0.65799 11.507
files/tasks_parameters/ExAp01/sample16.txt 1.30745 8.63521 4.97261 0.516328 9.02961
files/tasks_parameters/ExAp01/sample10.txt 1.41163 7.28353 6.16876 0.615651 10.7666
files/tasks_parameters/ExAp01/sample39.txt 1.11525 6.3405 4.6137 0.468873 8.19972
files/tasks_parameters/ExAp01/sample19.txt 1.3941 8.85528 5.22306 0.622152 10.8803
files/tasks_parameters/ExAp01/sample20.txt 1.35601 8.1141 5.21177 0.586994 10.2654
files/tasks_parameters/ExAp01/sample43.txt 1.24967 7.21373 5.6367 0.53748 9.39952
files/tasks_parameters/ExAp01/sample32.txt 1.37755 8.30592 5.38137 0.593918 10.3865
files/tasks_parameters/ExAp01/sample45.txt 1.25092 7.94069 4.96323 0.547271 9.57075
files/tasks_parameters/ExAp01/sample26.txt 1.12468 7.57061 4.62637 0.480146 8.39685
files/tasks_parameters/ExAp01/sample5.txt 1.37121 8.0307 5.35681 0.59407 10.3892
files/tasks_parameters/ExAp01/sample21.txt 1.04145 5.87802 4.61744 0.434264 7.59447
files/tasks_parameters/ExAp01/sample38.txt 1.15056 7.66999 4.86632 0.496808 8.68825
files/tasks_parameters/ExAp01/sample1.txt 1.12281 7.21312 4.63213 0.486293 8.50436
files/tasks_parameters/ExAp01/sample15.txt 1.27034 8.02273 5.50855 0.531063 9.28729
files/tasks_parameters/ExAp01/sample24.txt 1.29959 8.66348 5.4905 0.548998 9.60095
files/tasks_parameters/ExAp01/sample3.txt 1.13049 7.74268 4.79918 0.477387 8.3486
files/tasks_parameters/ExAp01/sample6.txt 1.43198 8.57133 5.80157 0.633604 11.0806
files/tasks_parameters/ExAp01/sample30.txt 1.54979 8.18878 5.90888 0.633576 11.0801
files/tasks_parameters/ExAp01/sample42.txt 1.33557 8.57689 5.67253 0.54426 9.51809
files/tasks_parameters/ExAp01/sample4.txt 1.27989 8.40354 4.57985 0.563519 9.8549
files/tasks_parameters/ExAp01/sample28.txt 1.0396 6.44114 4.96426 0.449721 7.86479
files/tasks_parameters/ExAp01/sample18.txt 1.28008 8.56363 4.60946 0.543766 9.50946
files/tasks_parameters/ExAp01/sample35.txt 1.74353 11.0387 6.34514 0.761377 13.3151
files/tasks_parameters/ExAp01/sample47.txt 1.22808 7.14493 5.22131 0.545046 9.53183
files/tasks_parameters/ExAp01/sample49.txt 1.26332 6.65996 4.80244 0.498533 8.71842
files/tasks_parameters/ExAp01/sample41.txt 1.14834 7.09069 5.35462 0.497129 8.69385
