files/tasks_parameters/ExAp01/sample8.txt 1.08766 3.76817 4.3855 0.450105 15.701
files/tasks_parameters/ExAp01/sample12.txt 1.49787 5.03638 5.18776 0.610564 21.2983
files/tasks_parameters/ExAp01/sample2.txt 1.41377 4.58991 5.64606 0.613877 21.4139
files/tasks_parameters/ExAp01/sample44.txt 1.29119 3.77401 5.66946 0.551838 19.2497
files/tasks_parameters/ExAp01/sample27.txt 1.29418 4.13937 5.56136 0.55779 19.4574
files/tasks_parameters/ExAp01/sample17.txt 1.20394 3.76163 5.38341 0.520991 18.1737
files/tasks_parameters/ExAp01/sample9.txt 1.16025 3.69889 5.2981 0.511699 17.8496
files/tasks_parameters/ExAp01/sample34.txt 1.13513 3.52435 5.83741 0.49187 17.1579
files/tasks_parameters/ExAp01/sample40.txt 1.16959 4.06185 5.0335 0.496884 17.3328
files/tasks_parameters/ExAp01/sample33.txt 1.55311 4.82091 5.83886 0.651963 22.7424
files/tasks_parameters/ExAp01/sample48.txt 1.07975 4.01134 5.07085 0.447927 15.625
files/tasks_parameters/ExAp01/sample29.txt 1.48087 4.20847 5.0406 0.643694 22.454
files/tasks_parameters/ExAp01/sample11.txt 1.31879 3.94699 5.29198 0.557276 19.4395
files/tasks_parameters/ExAp01/sample14.txt 1.08636 3.54059 4.58345 0.466713 16.2804
files/tasks_parameters/ExAp01/sample0.txt 1.53376 4.82755 4.90216 0.623551 21.7513
files/tasks_parameters/ExAp01/sample7.txt 1.15513 3.60766 5.11185 0.509566 17.7752
files/tasks_parameters/ExAp01/sample23.txt 1.45515 3.81403 5.45799 0.582911 20.3337
files/tasks_parameters/ExAp01/sample13.txt 1.48679 4.8894 5.26818 0.624499 21.7844
files/tasks_parameters/ExAp01/sample22.txt 1.29323 3.76156 4.95746 0.534216 18.6351
files/tasks_parameters/ExAp01/sample25.txt 0.977565 2.94144 4.92622 0.403639 14.0801
files/tasks_parameters/ExAp01/sample36.txt 1.25826 3.56164 4.5806 0.501799 17.5042
files/tasks_parameters/ExAp01/sample46.txt 1.28113 3.84833 4.7121 0.530701 18.5124
files/tasks_parameters/ExAp01/sample31.txt 1.09387 3.764 5.08385 0.479734 16.7346
files/tasks_parameters/ExAp01/sample37.txt 1.52638 4.43254 5.65111 0.65143 22.7238
files/tasks_parameters/ExAp01/sample16.txt 1.27104 4.49741 4.8895 0.509171 17.7614
files/tasks_parameters/ExAp01/sample10.txt 1.38978 3.87086 6.07511 0.60993 21.2762
files/tasks_parameters/ExAp01/sample39.txt 1.08799 3.66299 4.54281 0.463671 16.1742
files/tasks_parameters/ExAp01/sample19.txt 1.40857 3.86694 5.14047 0.615987 21.4875
files/tasks_parameters/ExAp01/sample20.txt 1.30941 4.09945 5.13368 0.580369 20.245
files/tasks_parameters/ExAp01/sample43.txt 1.15541 3.75825 5.55698 0.530892 18.5191
files/tasks_parameters/ExAp01/sample32.txt 1.50161 4.0352 5.29178 0.587643 20.4988
files/tasks_parameters/ExAp01/sample45.txt 1.2322 3.94578 4.87833 0.541081 18.8745
files/tasks_parameters/ExAp01/sample26.txt 1.11268 3.50998 4.55035 0.474009 16.5349
files/tasks_parameters/ExAp01/sample5.txt 1.38255 4.00994 5.27725 0.587681 20.5001
files/tasks_parameters/ExAp01/sample21.txt 0.933921 2.8974 4.54677 0.430037 15.001
files/tasks_parameters/ExAp01/sample38.txt 1.17003 3.56689 4.78573 0.492366 17.1752
files/tasks_parameters/ExAp01/sample1.txt 1.15858 3.69002 4.55048 0.481074 16.7813
files/tasks_parameters/ExAp01/sample15.txt 1.20629 3.73223 5.42493 0.524964 18.3123
files/tasks_parameters/ExAp01/sample24.txt 1.31047 4.18053 5.40377 0.542575 18.9267
files/tasks_parameters/ExAp01/sample3.txt 1.08376 3.70547 4.7118 0.470503 16.4126
files/tasks_parameters/ExAp01/sample6.txt 1.41992 4.07521 5.71419 0.626702 21.8613
files/tasks_parameters/ExAp01/sample30.txt 1.49376 3.97446 5.82388 0.626709 21.8615
files/tasks_parameters/ExAp01/sample42.txt 1.29681 4.44207 5.58473 0.537025 18.733
files/tasks_parameters/ExAp01/sample4.txt 1.3677 3.92181 4.49751 0.556974 19.4289
files/tasks_parameters/ExAp01/sample28.txt 1.06302 3.13496 4.88321 0.444588 15.5086
files/tasks_parameters/ExAp01/sample18.txt 1.2298 3.95301 4.52898 0.537438 18.7474
files/tasks_parameters/ExAp01/sample35.txt 1.90934 5.75923 6.25034 0.752488 26.249
files/tasks_parameters/ExAp01/sample47.txt 1.16153 3.44018 5.14289 0.540033 18.838
files/tasks_parameters/ExAp01/sample49.txt 1.19873 3.38981 4.72409 0.493041 17.1988
files/tasks_parameters/ExAp01/sample41.txt 1.10214 3.58692 5.27252 0.492391 17.1761
