files/tasks_parameters/ExAp01/sample8.txt 0.729044 3.15778 1.5595 0.203411 5.55146
files/tasks_parameters/ExAp01/sample12.txt 0.761904 3.94962 1.6705 0.207924 5.67462
files/tasks_parameters/ExAp01/sample2.txt 0.706217 3.78275 1.74131 0.200098 5.46103
files/tasks_parameters/ExAp01/sample44.txt 0.694585 3.59825 1.65317 0.200005 5.4585
files/tasks_parameters/ExAp01/sample27.txt 0.660376 3.45743 1.5148 0.182129 4.97062
files/tasks_parameters/ExAp01/sample17.txt 0.542589 2.77299 1.44514 0.14646 3.99715
files/tasks_parameters/ExAp01/sample9.txt 0.6722 2.99933 1.451 0.177444 4.84276
files/tasks_parameters/ExAp01/sample34.txt 0.575916 3.02928 1.58429 0.157984 4.31166
files/tasks_parameters/ExAp01/sample40.txt 0.637345 3.86889 1.52122 0.168379 4.59538
files/tasks_parameters/ExAp01/sample33.txt 0.695363 3.63695 1.71905 0.199765 5.45195
files/tasks_parameters/ExAp01/sample48.txt 0.571558 3.39061 1.49062 0.154728 4.22281
files/tasks_parameters/ExAp01/sample29.txt 0.765609 3.30472 1.38739 0.223868 6.10977
files/tasks_parameters/ExAp01/sample11.txt 0.623638 3.10585 1.41612 0.174079 4.75092
files/tasks_parameters/ExAp01/sample14.txt 0.588347 2.70971 1.43432 0.162214 4.42713
files/tasks_parameters/ExAp01/sample0.txt 0.688938 3.6937 1.5439 0.18367 5.01268
files/tasks_parameters/ExAp01/sample7.txt 0.539729 2.70501 1.42221 0.143463 3.91538
files/tasks_parameters/ExAp01/sample23.txt 0.662417 3.2697 1.57822 0.181448 4.95206
files/tasks_parameters/ExAp01/sample13.txt 0.692437 3.84225 1.67648 0.198247 5.41052
files/tasks_parameters/ExAp01/sample22.txt 0.547139 3.09569 1.56121 0.148796 4.06092
files/tasks_parameters/ExAp01/sample25.txt 0.527572 2.73966 1.5007 0.148149 4.04325
files/tasks_parameters/ExAp01/sample36.txt 0.497304 2.85948 1.28553 0.130042 3.54909
files/tasks_parameters/ExAp01/sample46.txt 0.746668 3.58643 1.69998 0.210103 5.73409
files/tasks_parameters/ExAp01/sample31.txt 0.641763 3.4832 1.53782 0.1722 4.69965
files/tasks_parameters/ExAp01/sample37.txt 0.636903 3.95293 1.50705 0.171701 4.68603
files/tasks_parameters/ExAp01/sample16.txt 0.60208 3.31216 1.30115 0.150249 4.10057
files/tasks_parameters/ExAp01/sample10.txt 0.619668 3.17098 1.61789 0.153776 4.19684
files/tasks_parameters/ExAp01/sample39.txt 0.601285 3.26617 1.44406 0.165669 4.5214
files/tasks_parameters/ExAp01/sample19.txt 0.711819 3.63532 1.52509 0.196094 5.35177
files/tasks_parameters/ExAp01/sample20.txt 0.523194 3.20793 1.25367 0.147335 4.02105
files/tasks_parameters/ExAp01/sample43.txt 0.553673 3.11551 1.4202 0.150644 4.11136
files/tasks_parameters/ExAp01/sample32.txt 0.649013 3.5311 1.42482 0.168744 4.60534
files/tasks_parameters/ExAp01/sample45.txt 0.733838 3.80283 1.48324 0.19807 5.4057
files/tasks_parameters/ExAp01/sample26.txt 0.612658 3.21645 1.29701 0.166061 4.53211
files/tasks_parameters/ExAp01/sample5.txt 0.689742 3.5889 1.52559 0.178903 4.8826
files/tasks_parameters/ExAp01/sample21.txt 0.685743 2.75242 1.55936 0.19512 5.32519
files/tasks_parameters/ExAp01/sample38.txt 0.58699 3.31563 1.37515 0.166157 4.53472
files/tasks_parameters/ExAp01/sample1.txt 0.742908 3.74964 1.51696 0.19701 5.37675
files/tasks_parameters/ExAp01/sample15.txt 0.63175 3.32916 1.48508 0.180707 4.93184
files/tasks_parameters/ExAp01/sample24.txt 0.613762 3.45951 1.59549 0.16529 4.51108
files/tasks_parameters/ExAp01/sample3.txt 0.917358 3.70014 1.70809 0.237107 6.47108
files/tasks_parameters/ExAp01/sample6.txt 0.658567 3.33003 1.58323 0.184714 5.04119
files/tasks_parameters/ExAp01/sample30.txt 0.858613 4.1841 1.4861 0.239623 6.53975
files/tasks_parameters/ExAp01/sample42.txt 0.635864 3.43221 1.70276 0.177383 4.8411
files/tasks_parameters/ExAp01/sample4.txt 0.750238 3.72477 1.6136 0.196448 5.36143
files/tasks_parameters/ExAp01/sample28.txt 0.588605 3.11323 1.45032 0.158819 4.33446
files/tasks_parameters/ExAp01/sample18.txt 0.550883 3.47418 1.45209 0.149064 4.06822
files/tasks_parameters/ExAp01/sample35.txt 0.70113 4.57086 1.49394 0.185031 5.04983
files/tasks_parameters/ExAp01/sample47.txt 0.626938 3.13768 1.52397 0.16417 4.4805
files/tasks_parameters/ExAp01/sample49.txt 0.573091 3.13288 1.49657 0.156154 4.26173
files/tasks_parameters/ExAp01/sample41.txt 0.576353 2.81964 1.49636 0.150876 4.11768
