files/tasks_parameters/ExAp01/sample8.txt 0.790161 3.15778 1.5595 0.203411 4.17623
files/tasks_parameters/ExAp01/sample12.txt 0.806027 3.94962 1.6705 0.207924 4.26888
files/tasks_parameters/ExAp01/sample2.txt 0.770675 3.78275 1.74131 0.200098 4.1082
files/tasks_parameters/ExAp01/sample44.txt 0.689647 3.59825 1.65317 0.200005 4.1063
files/tasks_parameters/ExAp01/sample27.txt 0.680558 3.45743 1.5148 0.182129 3.73927
files/tasks_parameters/ExAp01/sample17.txt 0.925109 2.77299 1.44514 0.14646 3.00696
files/tasks_parameters/ExAp01/sample9.txt 0.720073 2.99933 1.451 0.177444 3.64309
files/tasks_parameters/ExAp01/sample34.txt 0.831645 3.02928 1.58429 0.157984 3.24356
files/tasks_parameters/ExAp01/sample40.txt 0.764924 3.86889 1.52122 0.168379 3.45699
files/tasks_parameters/ExAp01/sample33.txt 0.804922 3.63695 1.71905 0.199765 4.10137
files/tasks_parameters/ExAp01/sample48.txt 0.682426 3.39061 1.49062 0.154728 3.17672
files/tasks_parameters/ExAp01/sample29.txt 0.737424 3.30472 1.38739 0.223868 4.59623
files/tasks_parameters/ExAp01/sample11.txt 0.707448 3.10585 1.41612 0.174079 3.574
files/tasks_parameters/ExAp01/sample14.txt 0.656953 2.70971 1.43432 0.162214 3.33042
files/tasks_parameters/ExAp01/sample0.txt 0.747277 3.6937 1.5439 0.18367 3.77092
files/tasks_parameters/ExAp01/sample7.txt 0.809856 2.70501 1.42221 0.143463 2.94544
files/tasks_parameters/ExAp01/sample23.txt 0.75565 3.2697 1.57822 0.181448 3.72531
files/tasks_parameters/ExAp01/sample13.txt 0.732417 3.84225 1.67648 0.198247 4.0702
files/tasks_parameters/ExAp01/sample22.txt 0.879891 3.09569 1.56121 0.148796 3.05493
files/tasks_parameters/ExAp01/sample25.txt 0.746637 2.73966 1.5007 0.148149 3.04163
files/tasks_parameters/ExAp01/sample36.txt 0.75928 2.85948 1.28553 0.130042 2.66989
files/tasks_parameters/ExAp01/sample46.txt 0.749875 3.58643 1.69998 0.210103 4.31361
files/tasks_parameters/ExAp01/sample31.txt 0.693762 3.4832 1.53782 0.1722 3.53543
files/tasks_parameters/ExAp01/sample37.txt 0.775618 3.95293 1.50705 0.171701 3.52519
files/tasks_parameters/ExAp01/sample16.txt 0.610198 3.31216 1.30115 0.150249 3.08476
files/tasks_parameters/ExAp01/sample10.txt 1.08636 3.17098 1.61789 0.153776 3.15718
files/tasks_parameters/ExAp01/sample39.txt 0.700676 3.26617 1.44406 0.165669 3.40134
files/tasks_parameters/ExAp01/sample19.txt 0.735595 3.63532 1.52509 0.196094 4.02601
files/tasks_parameters/ExAp01/sample20.txt 0.662661 3.20793 1.25367 0.147335 3.02494
files/tasks_parameters/ExAp01/sample43.txt 0.647673 3.11551 1.4202 0.150644 3.09288
files/tasks_parameters/ExAp01/sample32.txt 0.722684 3.5311 1.42482 0.168744 3.46448
files/tasks_parameters/ExAp01/sample45.txt 0.743927 3.80283 1.48324 0.19807 4.06658
files/tasks_parameters/ExAp01/sample26.txt 0.63197 3.21645 1.29701 0.166061 3.4094
files/tasks_parameters/ExAp01/sample5.txt 0.634955 3.5889 1.52559 0.178903 3.67306
files/tasks_parameters/ExAp01/sample21.txt 0.657042 2.75242 1.55936 0.19512 4.00601
files/tasks_parameters/ExAp01/sample38.txt 0.662503 3.31563 1.37515 0.166157 3.41136
files/tasks_parameters/ExAp01/sample1.txt 0.726486 3.74964 1.51696 0.19701 4.0448
files/tasks_parameters/ExAp01/sample15.txt 0.694555 3.32916 1.48508 0.180707 3.7101
files/tasks_parameters/ExAp01/sample24.txt 0.843979 3.45951 1.59549 0.16529 3.39357
files/tasks_parameters/ExAp01/sample3.txt 0.877545 3.70014 1.70809 0.237107 4.86804
files/tasks_parameters/ExAp01/sample6.txt 0.730089 3.33003 1.58323 0.184714 3.79237
files/tasks_parameters/ExAp01/sample30.txt 0.781498 4.1841 1.4861 0.239623 4.91969
files/tasks_parameters/ExAp01/sample42.txt 0.747833 3.43221 1.70276 0.177383 3.64184
files/tasks_parameters/ExAp01/sample4.txt 0.785048 3.72477 1.6136 0.196448 4.03327
files/tasks_parameters/ExAp01/sample28.txt 0.689545 3.11323 1.45032 0.158819 3.26071
files/tasks_parameters/ExAp01/sample18.txt 0.769617 3.47418 1.45209 0.149064 3.06042
files/tasks_parameters/ExAp01/sample35.txt 0.805319 4.57086 1.49394 0.185031 3.79886
files/tasks_parameters/ExAp01/sample47.txt 0.715427 3.13768 1.52397 0.16417 3.37057
files/tasks_parameters/ExAp01/sample49.txt 0.776571 3.13288 1.49657 0.156154 3.20599
files/tasks_parameters/ExAp01/sample41.txt 0.761591 2.81964 1.49636 0.150876 3.09763
