files/tasks_parameters/ExAp01/sample8.txt 2.667 6.77015 2.19458 0.288816 5.92968
files/tasks_parameters/ExAp01/sample12.txt 3.07236 9.58351 2.46081 0.337498 6.92917
files/tasks_parameters/ExAp01/sample2.txt 2.89555 8.44418 2.50701 0.319127 6.55199
files/tasks_parameters/ExAp01/sample44.txt 2.60687 6.96299 2.23089 0.28229 5.79569
files/tasks_parameters/ExAp01/sample27.txt 2.61261 7.74306 2.16676 0.28602 5.87226
files/tasks_parameters/ExAp01/sample17.txt 2.70985 7.35053 2.25579 0.292348 6.00218
files/tasks_parameters/ExAp01/sample9.txt 2.55782 6.89392 2.21068 0.282399 5.79792
files/tasks_parameters/ExAp01/sample34.txt 2.68321 6.62788 2.3772 0.297742 6.11292
files/tasks_parameters/ExAp01/sample40.txt 2.55766 7.75686 2.17534 0.285619 5.86404
files/tasks_parameters/ExAp01/sample33.txt 3.06291 8.14826 2.6463 0.338073 6.94097
files/tasks_parameters/ExAp01/sample48.txt 2.45891 7.64107 2.14272 0.270011 5.54359
files/tasks_parameters/ExAp01/sample29.txt 2.50396 7.139 1.93769 0.286306 5.87813
files/tasks_parameters/ExAp01/sample11.txt 2.54174 6.88688 2.12981 0.280008 5.74884
files/tasks_parameters/ExAp01/sample14.txt 2.28095 6.11983 1.97599 0.247458 5.08054
files/tasks_parameters/ExAp01/sample0.txt 2.63532 8.2738 2.14256 0.289132 5.93615
files/tasks_parameters/ExAp01/sample7.txt 2.43072 6.87011 2.05821 0.269886 5.54101
files/tasks_parameters/ExAp01/sample23.txt 2.70714 6.52032 2.38087 0.291712 5.98912
files/tasks_parameters/ExAp01/sample13.txt 2.71002 8.73247 2.33415 0.295393 6.06469
files/tasks_parameters/ExAp01/sample22.txt 2.56579 6.9777 2.28948 0.283979 5.83037
files/tasks_parameters/ExAp01/sample25.txt 2.42799 6.23444 2.2122 0.267298 5.48788
files/tasks_parameters/ExAp01/sample36.txt 2.29418 6.6174 1.9458 0.253823 5.21122
files/tasks_parameters/ExAp01/sample46.txt 2.97073 7.42369 2.49128 0.327273 6.71923
files/tasks_parameters/ExAp01/sample31.txt 2.3278 7.22028 2.13584 0.25377 5.21014
files/tasks_parameters/ExAp01/sample37.txt 2.68778 8.90704 2.16981 0.295708 6.07117
files/tasks_parameters/ExAp01/sample16.txt 2.25068 8.18243 1.88294 0.24945 5.12144
files/tasks_parameters/ExAp01/sample10.txt 2.61535 6.96646 2.31217 0.285748 5.86668
files/tasks_parameters/ExAp01/sample39.txt 2.32159 6.4161 1.97266 0.251967 5.17312
files/tasks_parameters/ExAp01/sample19.txt 2.80769 8.16711 2.23199 0.308463 6.33304
files/tasks_parameters/ExAp01/sample20.txt 2.38905 7.28549 1.88944 0.25994 5.33682
files/tasks_parameters/ExAp01/sample43.txt 2.36691 6.86804 2.00142 0.25616 5.25922
files/tasks_parameters/ExAp01/sample32.txt 2.56866 8.15663 2.12995 0.281726 5.78411
files/tasks_parameters/ExAp01/sample45.txt 2.4959 7.75184 2.10599 0.274935 5.64468
files/tasks_parameters/ExAp01/sample26.txt 2.43734 7.4944 1.88956 0.267248 5.48686
files/tasks_parameters/ExAp01/sample5.txt 2.58269 8.08362 2.09961 0.28454 5.84189
files/tasks_parameters/ExAp01/sample21.txt 2.364 6.11814 2.17119 0.26143 5.3674
files/tasks_parameters/ExAp01/sample38.txt 2.44661 7.761 1.96293 0.263659 5.41317
files/tasks_parameters/ExAp01/sample1.txt 2.65338 7.83752 2.13261 0.289228 5.93813
files/tasks_parameters/ExAp01/sample15.txt 2.5922 7.37971 2.12057 0.285825 5.86827
files/tasks_parameters/ExAp01/sample24.txt 2.7184 8.28531 2.25272 0.296628 6.09007
files/tasks_parameters/ExAp01/sample3.txt 2.83412 7.33359 2.39135 0.305084 6.26368
files/tasks_parameters/ExAp01/sample6.txt 2.60831 7.09894 2.24425 0.281804 5.78571
files/tasks_parameters/ExAp01/sample30.txt 2.71907 8.17669 2.03701 0.299204 6.14295
files/tasks_parameters/ExAp01/sample42.txt 2.69646 7.70416 2.42413 0.29743 6.10652
files/tasks_parameters/ExAp01/sample4.txt 2.77686 7.41691 2.36261 0.307803 6.31949
files/tasks_parameters/ExAp01/sample28.txt 2.47739 7.0562 2.07657 0.266428 5.47002
files/tasks_parameters/ExAp01/sample18.txt 2.42102 7.60139 2.1377 0.268016 5.50263
files/tasks_parameters/ExAp01/sample35.txt 2.95381 9.66795 2.28028 0.32244 6.62
files/tasks_parameters/ExAp01/sample47.txt 2.32686 6.84842 2.12104 0.251655 5.16671
files/tasks_parameters/ExAp01/sample49.txt 2.35767 7.1497 2.11412 0.255889 5.25365
files/tasks_parameters/ExAp01/sample41.txt 2.42006 6.59911 2.07359 0.265885 5.45888
