files/tasks_parameters/ExAp01/sample8.txt 1.03331 3.76817 4.3855 0.450105 19.6207
files/tasks_parameters/ExAp01/sample12.txt 1.35529 5.03638 5.18776 0.610564 26.6153
files/tasks_parameters/ExAp01/sample2.txt 1.29995 4.58991 5.64606 0.613877 26.7597
files/tasks_parameters/ExAp01/sample44.txt 1.19802 3.77401 5.66946 0.551838 24.0553
files/tasks_parameters/ExAp01/sample27.txt 1.19616 4.13937 5.56136 0.55779 24.3148
files/tasks_parameters/ExAp01/sample17.txt 1.10786 3.76163 5.38341 0.520991 22.7107
files/tasks_parameters/ExAp01/sample9.txt 1.09275 3.69889 5.2981 0.511699 22.3056
files/tasks_parameters/ExAp01/sample34.txt 1.07834 3.52435 5.83741 0.49187 21.4413
files/tasks_parameters/ExAp01/sample40.txt 1.07995 4.06185 5.0335 0.496884 21.6598
files/tasks_parameters/ExAp01/sample33.txt 1.40288 4.82091 5.83886 0.651963 28.4199
files/tasks_parameters/ExAp01/sample48.txt 1.03907 4.01134 5.07085 0.447927 19.5257
files/tasks_parameters/ExAp01/sample29.txt 1.36602 4.20847 5.0406 0.643694 28.0595
files/tasks_parameters/ExAp01/sample11.txt 1.24462 3.94699 5.29198 0.557276 24.2924
files/tasks_parameters/ExAp01/sample14.txt 1.04104 3.54059 4.58345 0.466713 20.3446
files/tasks_parameters/ExAp01/sample0.txt 1.3348 4.82755 4.90216 0.623551 27.1814
files/tasks_parameters/ExAp01/sample7.txt 1.10076 3.60766 5.11185 0.509566 22.2126
files/tasks_parameters/ExAp01/sample23.txt 1.28538 3.81403 5.45799 0.582911 25.4099
files/tasks_parameters/ExAp01/sample13.txt 1.3429 4.8894 5.26818 0.624499 27.2227
files/tasks_parameters/ExAp01/sample22.txt 1.19546 3.76156 4.95746 0.534216 23.2872
files/tasks_parameters/ExAp01/sample25.txt 0.898613 2.94144 4.92622 0.403639 17.5952
files/tasks_parameters/ExAp01/sample36.txt 1.15253 3.56164 4.5806 0.501799 21.8741
files/tasks_parameters/ExAp01/sample46.txt 1.15719 3.84833 4.7121 0.530701 23.1339
files/tasks_parameters/ExAp01/sample31.txt 1.06532 3.764 5.08385 0.479734 20.9122
files/tasks_parameters/ExAp01/sample37.txt 1.42609 4.43254 5.65111 0.65143 28.3967
files/tasks_parameters/ExAp01/sample16.txt 1.1923 4.49741 4.8895 0.509171 22.1954
files/tasks_parameters/ExAp01/sample10.txt 1.30455 3.87086 6.07511 0.60993 26.5876
files/tasks_parameters/ExAp01/sample39.txt 1.01185 3.66299 4.54281 0.463671 20.212
files/tasks_parameters/ExAp01/sample19.txt 1.29166 3.86694 5.14047 0.615987 26.8517
files/tasks_parameters/ExAp01/sample20.txt 1.23098 4.09945 5.13368 0.580369 25.299
files/tasks_parameters/ExAp01/sample43.txt 1.14011 3.75825 5.55698 0.530892 23.1423
files/tasks_parameters/ExAp01/sample32.txt 1.35747 4.0352 5.29178 0.587643 25.6161
files/tasks_parameters/ExAp01/sample45.txt 1.21313 3.94578 4.87833 0.541081 23.5864
files/tasks_parameters/ExAp01/sample26.txt 1.02737 3.50998 4.55035 0.474009 20.6627
files/tasks_parameters/ExAp01/sample5.txt 1.27405 4.00994 5.27725 0.587681 25.6178
files/tasks_parameters/ExAp01/sample21.txt 0.937788 2.8974 4.54677 0.430037 18.7459
files/tasks_parameters/ExAp01/sample38.txt 1.05653 3.56689 4.78573 0.492366 21.4629
files/tasks_parameters/ExAp01/sample1.txt 1.05204 3.69002 4.55048 0.481074 20.9706
files/tasks_parameters/ExAp01/sample15.txt 1.15178 3.73223 5.42493 0.524964 22.8839
files/tasks_parameters/ExAp01/sample24.txt 1.17094 4.18053 5.40377 0.542575 23.6516
files/tasks_parameters/ExAp01/sample3.txt 1.0219 3.70547 4.7118 0.470503 20.5098
files/tasks_parameters/ExAp01/sample6.txt 1.3113 4.07521 5.71419 0.626702 27.3188
files/tasks_parameters/ExAp01/sample30.txt 1.40316 3.97446 5.82388 0.626709 27.3191
files/tasks_parameters/ExAp01/sample42.txt 1.17181 4.44207 5.58473 0.537025 23.4096
files/tasks_parameters/ExAp01/sample4.txt 1.24106 3.92181 4.49751 0.556974 24.2792
files/tasks_parameters/ExAp01/sample28.txt 0.946361 3.13496 4.88321 0.444588 19.3802
files/tasks_parameters/ExAp01/sample18.txt 1.18925 3.95301 4.52898 0.537438 23.4276
files/tasks_parameters/ExAp01/sample35.txt 1.75443 5.75923 6.25034 0.752488 32.8019
files/tasks_parameters/ExAp01/sample47.txt 1.13779 3.44018 5.14289 0.540033 23.5408
files/tasks_parameters/ExAp01/sample49.txt 1.13096 3.38981 4.72409 0.493041 21.4923
files/tasks_parameters/ExAp01/sample41.txt 1.07048 3.58692 5.27252 0.492391 21.4639
