files/tasks_parameters/ExAp01/sample8.txt 1.28186 6.77015 2.19458 0.288816 21.3014
files/tasks_parameters/ExAp01/sample12.txt 1.51657 9.58351 2.46081 0.337498 24.8919
files/tasks_parameters/ExAp01/sample2.txt 1.43306 8.44418 2.50701 0.319127 23.537
files/tasks_parameters/ExAp01/sample44.txt 1.24053 6.96299 2.23089 0.28229 20.8201
files/tasks_parameters/ExAp01/sample27.txt 1.40047 7.74306 2.16676 0.28602 21.0951
files/tasks_parameters/ExAp01/sample17.txt 1.34117 7.35053 2.25579 0.292348 21.5618
files/tasks_parameters/ExAp01/sample9.txt 1.24262 6.89392 2.21068 0.282399 20.8281
files/tasks_parameters/ExAp01/sample34.txt 1.27124 6.62788 2.3772 0.297742 21.9597
files/tasks_parameters/ExAp01/sample40.txt 1.27904 7.75686 2.17534 0.285619 21.0656
files/tasks_parameters/ExAp01/sample33.txt 1.46194 8.14826 2.6463 0.338073 24.9343
files/tasks_parameters/ExAp01/sample48.txt 1.10503 7.64107 2.14272 0.270011 19.9144
files/tasks_parameters/ExAp01/sample29.txt 1.12941 7.139 1.93769 0.286306 21.1162
files/tasks_parameters/ExAp01/sample11.txt 1.31135 6.88688 2.12981 0.280008 20.6518
files/tasks_parameters/ExAp01/sample14.txt 1.13054 6.11983 1.97599 0.247458 18.251
files/tasks_parameters/ExAp01/sample0.txt 1.26327 8.2738 2.14256 0.289132 21.3247
files/tasks_parameters/ExAp01/sample7.txt 1.12484 6.87011 2.05821 0.269886 19.9052
files/tasks_parameters/ExAp01/sample23.txt 1.23803 6.52032 2.38087 0.291712 21.5149
files/tasks_parameters/ExAp01/sample13.txt 1.42574 8.73247 2.33415 0.295393 21.7864
files/tasks_parameters/ExAp01/sample22.txt 1.29455 6.9777 2.28948 0.283979 20.9446
files/tasks_parameters/ExAp01/sample25.txt 1.17458 6.23444 2.2122 0.267298 19.7143
files/tasks_parameters/ExAp01/sample36.txt 1.20707 6.6174 1.9458 0.253823 18.7205
files/tasks_parameters/ExAp01/sample46.txt 1.34918 7.42369 2.49128 0.327273 24.1377
files/tasks_parameters/ExAp01/sample31.txt 1.14876 7.22028 2.13584 0.25377 18.7166
files/tasks_parameters/ExAp01/sample37.txt 1.32688 8.90704 2.16981 0.295708 21.8097
files/tasks_parameters/ExAp01/sample16.txt 1.09684 8.18243 1.88294 0.24945 18.398
files/tasks_parameters/ExAp01/sample10.txt 1.18287 6.96646 2.31217 0.285748 21.0751
files/tasks_parameters/ExAp01/sample39.txt 1.15002 6.4161 1.97266 0.251967 18.5836
files/tasks_parameters/ExAp01/sample19.txt 1.33192 8.16711 2.23199 0.308463 22.7504
files/tasks_parameters/ExAp01/sample20.txt 1.07484 7.28549 1.88944 0.25994 19.1716
files/tasks_parameters/ExAp01/sample43.txt 1.09732 6.86804 2.00142 0.25616 18.8929
files/tasks_parameters/ExAp01/sample32.txt 1.19063 8.15663 2.12995 0.281726 20.7785
files/tasks_parameters/ExAp01/sample45.txt 1.16613 7.75184 2.10599 0.274935 20.2776
files/tasks_parameters/ExAp01/sample26.txt 1.16422 7.4944 1.88956 0.267248 19.7106
files/tasks_parameters/ExAp01/sample5.txt 1.29162 8.08362 2.09961 0.28454 20.986
files/tasks_parameters/ExAp01/sample21.txt 1.10863 6.11814 2.17119 0.26143 19.2815
files/tasks_parameters/ExAp01/sample38.txt 1.14402 7.761 1.96293 0.263659 19.4459
files/tasks_parameters/ExAp01/sample1.txt 1.37414 7.83752 2.13261 0.289228 21.3318
files/tasks_parameters/ExAp01/sample15.txt 1.18288 7.37971 2.12057 0.285825 21.0808
files/tasks_parameters/ExAp01/sample24.txt 1.30107 8.28531 2.25272 0.296628 21.8776
files/tasks_parameters/ExAp01/sample3.txt 1.35499 7.33359 2.39135 0.305084 22.5012
files/tasks_parameters/ExAp01/sample6.txt 1.26481 7.09894 2.24425 0.281804 20.7842
files/tasks_parameters/ExAp01/sample30.txt 1.20726 8.17669 2.03701 0.299204 22.0676
files/tasks_parameters/ExAp01/sample42.txt 1.35831 7.70416 2.42413 0.29743 21.9367
files/tasks_parameters/ExAp01/sample4.txt 1.40558 7.41691 2.36261 0.307803 22.7017
files/tasks_parameters/ExAp01/sample28.txt 1.20628 7.0562 2.07657 0.266428 19.6502
files/tasks_parameters/ExAp01/sample18.txt 1.20281 7.60139 2.1377 0.268016 19.7673
files/tasks_parameters/ExAp01/sample35.txt 1.29872 9.66795 2.28028 0.32244 23.7813
files/tasks_parameters/ExAp01/sample47.txt 1.05585 6.84842 2.12104 0.251655 18.5606
files/tasks_parameters/ExAp01/sample49.txt 1.12265 7.1497 2.11412 0.255889 18.8729
files/tasks_parameters/ExAp01/sample41.txt 1.17082 6.59911 2.07359 0.265885 19.6101
