digraph G {
0 ->10 0 ->14 1 ->13 2 ->13 4 ->12 4 ->13 4 ->14 5 ->10 5 ->12 5 ->13 5 ->14 6 ->12 6 ->13 7 ->9 7 ->11 8 ->9 8 ->12 9 ->15 9 ->21 9 ->22 9 ->23 9 ->25 10 ->16 10 ->17 10 ->18 10 ->19 11 ->16 11 ->19 11 ->20 11 ->21 11 ->24 11 ->25 12 ->15 12 ->24 13 ->16 13 ->20 13 ->22 13 ->23 13 ->25 14 ->15 14 ->17 14 ->19 14 ->20 14 ->23 15 ->26 15 ->30 15 ->32 16 ->30 16 ->32 17 ->28 17 ->29 17 ->32 18 ->26 18 ->30 18 ->33 19 ->30 19 ->30 19 ->31 20 ->28 21 ->28 22 ->31 23 ->26 23 ->27 23 ->29 23 ->32 24 ->30 25 ->27 26 ->35 26 ->36 26 ->41 27 ->35 27 ->38 28 ->39 29 ->34 29 ->37 29 ->39 29 ->40 29 ->41 29 ->42 30 ->36 30 ->39 30 ->40 30 ->42 31 ->35 31 ->36 31 ->38 31 ->40 32 ->38 32 ->39 32 ->40 33 ->35 33 ->38 33 ->41 33 ->42 34 ->45 34 ->46 34 ->50 34 ->53 34 ->55 34 ->56 35 ->45 35 ->47 35 ->49 35 ->53 35 ->54 35 ->56 36 ->43 36 ->47 36 ->48 36 ->49 36 ->50 36 ->56 37 ->44 37 ->46 37 ->49 37 ->50 37 ->52 38 ->45 38 ->46 38 ->51 38 ->52 38 ->53 39 ->48 39 ->49 40 ->44 40 ->46 40 ->53 41 ->44 41 ->46 41 ->47 41 ->48 41 ->50 41 ->51 41 ->53 41 ->55 42 ->55 42 ->56 44 ->57 44 ->59 44 ->61 44 ->62 46 ->59 46 ->60 46 ->62 49 ->58 49 ->60 49 ->62 50 ->58 50 ->59 51 ->57 51 ->58 51 ->60 51 ->62 52 ->57 52 ->58 52 ->59 53 ->57 53 ->58 54 ->58 54 ->58 56 ->57 56 ->59 56 ->62 57 ->67 57 ->69 58 ->69 58 ->70 59 ->64 59 ->68 59 ->69 60 ->63 60 ->66 60 ->68 60 ->70 61 ->63 61 ->64 61 ->65 61 ->67 62 ->65 62 ->67 62 ->68 63 ->71 63 ->73 64 ->71 65 ->73 65 ->74 66 ->71 66 ->75 67 ->73 67 ->74 68 ->71 68 ->72 69 ->72 69 ->74 69 ->75 70 ->72 71 ->79 71 ->80 71 ->81 71 ->82 72 ->78 72 ->79 72 ->80 72 ->81 73 ->82 74 ->81 75 ->76 75 ->77 76 ->87 76 ->88 76 ->89 76 ->90 77 ->84 77 ->91 78 ->85 78 ->87 78 ->88 79 ->88 79 ->89 79 ->91 80 ->83 80 ->84 80 ->85 80 ->87 81 ->89 82 ->86 82 ->87 82 ->89 82 ->90 83 ->95 83 ->96 83 ->97 83 ->98 84 ->92 84 ->98 85 ->92 85 ->93 85 ->95 85 ->97 85 ->99 86 ->93 86 ->94 86 ->99 87 ->92 87 ->97 88 ->95 88 ->96 88 ->97 88 ->98 88 ->99 89 ->93 89 ->94 89 ->98 89 ->99 90 ->98 91 ->93 91 ->97 
}
