0 15
0 21
0 24
1 14
1 22
2 18
2 21
3 11
3 19
3 20
3 22
4 20
4 21
5 12
5 15
5 17
6 12
6 13
6 15
6 20
6 24
7 12
7 21
7 22
8 19
8 21
8 22
8 23
9 15
9 22
10 15
10 16
10 19
10 24
11 26
11 28
11 34
11 35
12 26
12 28
12 33
12 34
13 30
13 34
14 25
14 26
14 27
14 29
14 30
14 31
14 32
14 33
15 25
15 27
15 29
15 30
16 25
16 29
16 30
16 30
16 33
17 30
17 32
17 35
18 27
18 29
18 30
18 33
19 25
19 27
19 35
20 25
20 26
20 28
21 25
21 34
22 28
22 32
22 34
23 25
23 26
23 27
23 34
24 32
24 34
24 36
25 39
25 40
26 41
27 38
28 38
29 38
30 39
31 37
31 39
32 38
32 39
32 41
33 38
34 39
34 40
35 39
36 41
37 44
38 44
38 45
38 46
38 49
38 50
39 43
39 44
39 45
39 46
40 43
40 47
41 42
41 46
41 48
42 51
42 57
42 62
43 51
43 55
43 57
43 59
43 61
43 62
44 51
44 59
44 61
44 63
45 53
46 53
46 58
47 52
48 52
48 53
48 54
48 55
48 58
48 62
49 52
49 53
49 58
49 60
50 51
50 52
50 56
50 58
50 61
51 66
51 70
51 74
52 65
52 70
53 65
54 64
54 65
54 66
54 68
54 74
55 65
55 67
55 71
56 66
56 71
56 71
56 72
56 74
57 65
57 73
57 74
58 64
58 65
58 66
58 68
58 69
58 70
58 71
58 73
59 64
59 65
59 67
59 68
59 70
59 71
59 72
59 74
60 64
60 67
60 68
60 70
60 75
61 64
61 66
61 71
61 72
61 74
62 66
62 72
63 64
63 66
63 68
63 70
64 77
64 79
64 83
64 84
64 85
64 86
65 78
65 82
65 85
67 80
67 87
68 76
68 77
68 78
68 81
68 82
68 85
68 87
69 77
69 80
69 82
69 85
69 86
69 87
70 77
70 82
70 83
70 85
70 87
71 77
71 80
71 85
72 77
72 80
72 82
72 84
72 87
73 79
73 80
73 83
73 87
74 78
74 79
74 80
74 82
74 86
75 76
75 79
75 81
75 83
75 86
76 88
76 94
76 95
76 97
77 92
77 95
77 99
78 88
78 92
78 95
78 98
79 88
79 90
79 97
79 98
80 89
80 91
81 88
81 98
82 88
82 92
82 95
82 99
83 94
83 95
84 92
84 97
85 89
85 90
85 91
85 92
85 94
85 96
85 97
85 98
86 89
86 93
86 97
87 89
87 95
