0 16
0 16
1 17
2 15
2 18
2 19
3 18
3 18
4 19
5 16
6 14
6 16
6 17
7 15
7 17
7 19
8 17
8 17
8 19
9 19
10 14
10 16
11 14
11 19
12 16
13 15
13 16
13 17
13 18
13 19
14 20
14 24
15 23
15 24
15 25
16 23
16 24
16 25
16 26
17 21
17 22
18 20
19 20
19 23
20 29
20 33
20 34
20 35
20 37
21 33
21 34
21 34
21 35
21 36
21 38
21 40
22 29
22 31
22 32
22 38
22 39
22 40
22 40
23 27
23 31
23 32
23 34
23 38
23 39
24 28
24 29
24 30
24 31
24 37
24 39
25 27
25 33
25 37
25 39
26 29
26 32
26 37
27 41
27 43
27 46
27 47
28 41
28 44
28 45
28 46
28 47
29 46
30 42
30 46
31 41
31 42
31 46
32 43
32 47
33 44
34 44
35 44
36 42
36 44
37 41
37 43
37 47
38 43
38 46
39 41
39 47
40 41
40 46
41 48
41 52
41 53
41 54
42 51
42 53
42 54
43 48
43 49
43 52
44 48
44 50
45 50
46 50
46 52
47 49
47 50
47 53
47 54
48 58
48 60
48 62
48 64
48 67
49 59
49 62
49 63
49 65
49 66
50 55
50 58
50 60
50 65
51 55
51 57
51 59
51 62
51 67
52 59
52 64
53 56
53 61
53 64
54 56
54 58
54 60
54 68
55 75
56 72
56 73
56 75
57 72
57 75
58 70
58 74
59 72
60 71
60 73
61 69
61 71
61 74
61 75
62 73
62 75
64 70
65 69
65 72
66 70
66 71
66 72
66 75
67 69
67 70
67 71
68 69
68 70
68 75
69 76
69 78
69 79
69 82
69 83
69 86
70 76
70 80
70 81
70 82
70 83
70 85
70 86
71 78
71 80
71 85
72 76
72 77
72 80
72 81
72 83
72 84
73 77
73 79
74 79
74 80
74 84
75 79
75 85
75 86
76 88
76 91
76 92
76 95
77 87
77 88
77 89
77 92
78 87
78 88
78 89
78 94
79 88
79 94
80 91
80 93
81 88
81 92
81 94
82 91
82 92
82 94
82 95
83 88
83 91
83 95
83 95
84 91
84 92
85 87
85 90
85 91
85 93
85 94
86 89
86 92
86 93
87 96
87 97
88 98
89 99
90 98
90 99
91 98
91 99
93 97
93 98
94 97
94 99
