0 5
0 6
0 10
1 7
1 8
1 11
1 12
1 13
2 6
2 8
2 9
2 13
2 14
3 6
3 8
3 13
4 10
4 11
4 12
5 18
6 18
7 15
7 23
8 15
8 18
8 22
9 16
9 17
10 16
10 17
10 22
11 15
11 17
11 19
12 16
12 19
13 15
13 16
13 20
13 23
14 15
14 20
14 21
14 22
15 26
15 27
15 28
15 29
15 30
16 24
16 28
16 30
17 26
17 30
17 31
17 32
18 27
18 30
19 30
20 25
20 28
21 24
21 26
21 31
22 26
23 26
23 32
24 35
24 37
24 38
24 39
25 35
25 37
25 39
25 41
26 33
26 39
27 33
27 37
27 38
27 39
28 36
28 38
29 33
29 37
29 38
30 34
30 38
31 37
32 34
32 35
32 40
33 42
33 46
34 42
34 44
35 46
36 42
37 44
39 45
40 43
42 48
42 53
42 54
42 56
43 50
43 53
44 49
44 50
44 52
44 55
45 48
45 49
45 54
46 47
46 49
46 51
46 56
47 59
48 57
48 58
48 62
48 65
48 66
49 65
49 66
50 61
50 63
50 65
50 67
51 57
51 65
51 67
52 60
52 62
52 64
52 67
53 57
53 60
53 62
53 65
54 57
54 61
54 62
54 64
54 66
55 58
55 59
55 62
56 57
56 61
56 64
56 66
57 70
57 78
57 80
58 79
58 81
59 74
59 77
60 68
60 73
61 71
61 74
61 76
61 78
62 68
62 69
62 74
62 76
62 78
63 68
63 74
63 77
63 80
64 70
64 71
64 73
64 76
64 79
65 68
65 70
65 74
65 75
65 79
66 68
66 70
66 74
66 76
66 78
66 79
67 70
67 70
67 72
67 76
67 78
67 79
68 85
68 87
68 89
68 90
69 84
69 87
69 89
69 90
71 90
72 82
72 85
72 89
73 82
73 83
73 85
73 90
73 91
74 82
74 85
74 86
74 87
74 90
74 91
75 82
75 86
75 89
77 85
77 89
78 82
78 87
78 90
79 82
79 87
79 88
80 82
80 83
80 87
80 89
80 91
81 85
81 90
82 95
83 95
84 92
84 96
85 95
86 94
86 97
87 92
87 93
87 94
87 97
88 95
88 97
89 92
89 94
90 95
91 92
91 97
92 98
92 99
96 98
