0 20
1 17
1 18
1 22
2 14
2 20
2 21
3 14
3 16
3 19
3 20
4 14
4 15
4 18
4 19
4 20
5 14
5 15
5 16
5 20
6 16
6 22
8 14
8 15
9 14
11 15
11 16
11 18
11 19
11 21
12 15
12 19
13 14
13 16
13 19
14 24
14 28
14 31
15 25
15 29
15 30
15 31
16 24
16 27
16 28
16 30
18 27
18 30
19 25
20 23
20 24
20 28
20 30
21 25
21 26
21 27
21 28
21 31
22 25
22 27
23 36
23 36
23 37
23 40
23 41
24 33
24 34
24 36
25 34
25 35
25 37
25 38
25 39
25 42
27 38
28 32
28 35
28 37
28 42
29 32
29 37
29 41
29 42
30 32
30 35
30 41
30 42
31 34
31 36
31 37
31 41
31 42
32 43
32 45
32 46
32 48
33 43
33 45
33 46
33 49
34 43
35 50
36 43
36 47
36 48
36 49
37 46
37 48
37 50
38 48
39 44
39 45
39 46
39 50
40 50
41 50
42 44
42 48
42 50
43 54
43 63
44 52
44 55
44 56
44 58
45 54
45 56
45 60
46 56
46 57
46 60
46 62
47 52
47 54
47 57
47 59
47 60
47 64
48 58
48 59
48 60
48 61
48 62
48 63
49 53
49 55
49 57
49 63
49 64
50 51
50 54
50 55
50 56
50 57
50 59
50 63
50 64
51 67
51 68
51 73
52 71
53 65
54 67
54 68
54 73
55 66
56 68
56 69
57 65
57 69
57 71
58 65
58 66
58 67
58 68
58 73
59 65
59 67
59 73
60 65
60 66
60 69
60 71
60 74
61 65
61 67
61 70
61 71
61 73
62 65
62 66
62 68
62 69
62 72
63 66
63 69
63 73
64 66
64 67
64 71
65 79
65 85
65 86
65 87
65 87
66 85
67 77
67 78
67 83
67 85
67 86
67 87
68 77
68 79
69 75
69 80
69 86
70 75
70 76
70 84
70 85
70 87
71 75
71 79
71 80
71 88
72 75
72 79
72 80
72 82
72 86
72 88
73 75
73 76
73 79
73 84
73 88
74 80
74 81
74 84
74 86
74 87
75 91
75 93
75 93
76 93
76 97
77 89
77 94
77 95
77 97
78 90
78 91
78 95
79 89
79 90
79 91
79 97
80 90
80 91
80 92
81 90
81 92
82 90
82 91
82 94
82 97
83 92
84 91
84 92
84 93
84 95
85 89
85 90
85 92
86 92
86 93
86 95
86 96
87 90
87 93
87 95
88 89
88 92
88 93
88 95
88 97
89 98
92 98
93 99
97 99
