0 8
1 14
2 8
2 10
3 8
3 9
4 12
5 9
6 8
6 10
6 11
6 12
7 10
7 10
7 12
7 13
8 16
8 18
8 20
9 15
9 18
9 20
9 22
10 16
10 17
10 19
11 23
12 15
12 18
12 19
12 20
13 15
13 16
13 21
14 16
14 19
14 20
14 22
15 25
15 26
15 28
15 31
16 26
16 27
16 30
17 24
17 26
17 29
17 30
18 27
18 31
19 24
19 25
19 27
19 33
20 27
20 31
21 24
21 27
22 28
22 31
23 24
23 26
23 28
23 32
24 37
24 39
24 40
24 44
25 34
25 40
25 41
26 36
26 37
26 38
26 39
26 42
27 35
27 36
27 38
27 42
28 34
28 41
28 42
28 42
28 46
29 35
30 34
30 38
30 42
31 35
31 37
31 38
31 43
32 34
32 36
32 39
32 43
33 34
33 39
33 45
33 46
34 52
34 57
35 47
35 56
35 57
36 53
36 54
36 57
37 56
38 47
38 49
38 55
38 57
39 47
39 52
39 54
39 55
39 56
40 47
40 51
41 47
41 52
41 54
41 56
41 57
42 47
42 50
42 54
42 55
43 50
43 55
44 53
44 55
45 48
45 52
45 53
45 55
46 52
46 52
46 53
46 56
46 57
47 63
48 59
48 62
50 64
51 58
51 59
52 59
52 64
53 62
53 63
54 61
54 62
54 63
54 65
55 60
55 62
55 63
56 58
56 59
56 60
57 59
57 62
58 66
58 70
58 74
59 67
59 69
59 72
59 73
59 74
59 75
60 67
60 68
60 71
60 73
61 67
61 74
61 75
61 77
62 67
62 69
62 70
62 71
62 72
62 77
63 69
63 71
63 72
63 75
63 77
64 69
64 70
64 73
64 76
64 77
65 66
65 70
65 73
65 74
65 75
66 80
66 81
66 83
66 84
66 89
67 83
67 90
68 85
68 88
68 90
69 81
69 82
69 84
70 80
70 81
70 90
71 79
71 86
71 87
71 90
72 78
72 79
72 80
72 83
72 86
73 79
73 81
73 86
74 79
74 81
74 84
74 86
74 90
75 79
75 83
75 85
75 89
75 90
76 83
76 85
77 78
79 91
79 93
79 98
80 94
81 95
81 96
82 93
82 98
83 94
83 96
84 92
85 93
85 94
86 91
86 93
86 94
86 95
87 96
88 93
89 93
89 97
90 94
93 99
94 99
