0 10
0 15
1 15
2 10
2 13
2 16
3 9
3 12
3 15
4 8
4 9
4 11
4 15
5 13
6 8
6 9
6 13
7 14
7 16
8 21
8 22
9 19
10 17
10 19
11 17
11 19
11 22
13 19
13 20
14 18
14 20
15 17
15 18
15 21
16 17
16 22
17 23
17 24
17 28
17 31
17 32
18 24
18 24
18 25
18 26
18 27
18 29
18 33
18 34
19 28
19 33
20 30
21 30
22 23
22 28
22 30
22 31
23 36
23 37
23 42
23 43
24 37
24 37
24 38
25 37
25 42
25 43
27 35
27 41
27 42
28 37
28 38
28 40
28 42
28 43
28 44
29 40
30 35
30 40
30 42
31 37
31 39
31 40
31 43
31 44
32 36
32 43
33 39
34 38
34 39
34 41
34 43
35 47
35 49
35 50
35 51
35 52
37 52
37 53
38 51
39 48
39 50
39 53
40 48
40 49
41 47
41 48
41 52
42 45
42 46
42 50
42 51
43 45
43 50
44 47
44 53
45 55
45 57
45 62
46 55
46 58
46 63
46 65
47 56
47 57
47 62
47 63
47 65
48 54
48 55
48 58
48 61
48 63
48 65
49 55
49 56
49 58
49 59
49 62
49 63
49 65
50 54
50 57
50 63
50 65
51 54
51 57
51 64
52 55
52 60
52 66
53 56
53 64
54 67
54 71
54 79
55 67
55 68
55 71
55 73
55 79
56 67
56 71
56 71
56 74
56 78
57 67
57 80
58 74
58 78
59 69
59 70
60 69
60 74
60 78
60 80
61 68
61 69
61 75
62 69
62 71
62 74
62 79
63 69
63 76
63 78
64 67
64 71
64 76
64 79
65 67
65 68
65 69
65 71
65 72
65 74
65 78
66 69
66 73
66 74
66 77
66 78
66 79
67 84
67 85
67 85
67 86
68 81
68 87
68 89
69 82
69 88
70 89
71 84
71 88
71 90
72 86
72 88
73 85
73 87
73 88
74 85
74 86
74 88
75 85
75 87
75 89
75 90
76 83
76 84
76 88
76 89
76 90
77 85
77 86
77 87
77 88
77 90
78 84
78 86
78 87
78 89
78 90
79 81
79 82
79 86
79 90
80 81
80 84
80 85
80 86
80 89
81 95
82 93
82 95
82 96
83 91
83 92
83 95
83 96
84 92
84 92
84 95
85 91
85 93
85 94
85 95
86 91
87 96
88 96
89 94
89 96
90 94
91 97
91 99
94 97
95 97
95 98
96 99
