0 12
1 12
1 14
1 16
2 16
8 12
8 13
8 15
8 16
12 17
12 19
12 20
12 22
12 24
12 25
12 26
12 28
12 29
13 25
13 26
13 27
13 28
14 17
14 21
14 22
14 24
14 28
15 18
15 22
15 27
16 20
16 21
16 23
16 26
16 27
17 30
17 31
17 33
18 30
20 38
21 38
22 38
24 31
25 30
25 32
25 38
26 30
26 38
26 39
27 31
27 32
27 38
28 32
28 34
28 35
28 36
28 37
29 30
29 32
29 37
29 38
30 40
30 42
30 45
30 46
31 45
31 46
32 40
32 44
34 41
34 43
34 44
34 46
35 40
35 44
35 46
36 41
36 42
36 43
36 44
36 45
37 43
38 40
38 43
38 44
38 45
39 42
39 46
40 53
41 47
41 51
41 54
42 47
42 48
42 49
42 51
42 52
43 47
43 49
43 50
43 52
43 53
45 51
45 52
45 54
46 51
47 56
47 61
48 56
48 58
48 60
48 61
49 61
50 57
50 60
50 61
52 55
52 56
52 57
52 59
52 60
53 57
53 58
54 57
55 66
56 66
56 67
57 65
57 66
57 67
58 62
58 63
59 62
59 63
59 64
60 64
61 64
61 65
61 66
62 69
62 74
63 68
63 71
63 72
64 69
64 71
64 73
64 74
65 72
65 73
65 73
66 69
66 75
67 70
67 74
68 76
68 80
68 81
69 76
69 79
69 81
69 83
69 84
69 85
70 77
70 79
71 78
71 79
71 82
71 84
71 88
72 78
72 79
72 81
72 83
72 84
73 77
73 78
73 81
73 85
73 88
73 89
74 76
74 82
74 83
74 84
74 86
75 78
75 82
75 86
75 87
76 90
76 92
76 96
76 98
76 99
77 90
77 98
78 90
78 97
78 98
79 91
79 95
79 98
80 91
80 95
80 97
81 95
81 97
81 99
82 97
83 90
83 92
83 95
84 91
84 99
85 98
86 90
86 92
86 94
86 95
86 98
87 92
88 92
88 93
88 96
88 99
89 90
89 92
89 96
89 97
