0 9
1 5
1 7
1 11
2 8
2 10
3 5
3 6
3 8
3 9
3 10
4 6
4 7
4 12
5 20
6 15
6 17
7 18
7 20
8 13
8 14
8 20
9 16
9 18
9 19
9 20
10 18
10 18
11 15
12 13
12 19
13 26
15 23
15 26
16 21
16 23
17 21
17 23
18 22
18 25
18 26
19 21
19 22
19 25
19 26
20 23
20 24
21 27
21 28
21 29
21 32
21 34
21 36
22 27
22 30
22 35
23 32
23 36
24 28
24 32
24 33
24 35
25 28
25 31
25 34
26 27
26 31
27 38
27 42
27 47
27 48
27 49
28 40
29 38
29 40
29 41
29 45
30 40
30 42
30 48
30 49
31 37
31 43
32 50
33 37
33 39
33 42
33 50
34 44
35 43
36 37
36 38
36 42
36 43
36 46
37 52
38 52
40 51
40 54
41 53
41 54
42 55
43 52
45 52
46 52
47 52
48 52
51 56
51 58
51 59
51 61
51 62
51 63
51 64
51 67
52 57
52 58
52 61
53 57
53 58
54 56
54 57
54 60
54 65
54 66
55 62
55 65
56 69
57 69
57 70
57 71
57 77
58 79
59 73
59 75
60 68
60 74
60 75
60 77
60 79
61 68
61 74
61 75
62 68
62 69
62 72
62 75
63 72
63 74
63 76
64 72
64 74
64 75
64 76
65 70
65 74
65 78
66 69
66 71
66 72
66 74
66 78
67 69
67 75
67 76
67 78
68 90
69 80
70 80
70 82
70 87
70 89
70 90
71 85
72 81
72 91
73 80
73 81
73 82
73 88
73 89
73 90
74 80
74 82
74 89
75 82
75 83
75 85
75 88
76 82
76 88
76 91
77 80
77 87
78 82
78 84
78 88
78 89
79 80
79 86
79 87
79 88
80 98
82 93
82 95
82 99
83 92
83 93
83 94
83 95
83 99
84 93
84 93
84 95
85 93
85 98
85 99
88 94
88 98
89 95
89 97
90 96
90 98
91 94
91 97
