files/tasks_parameters/ExAp01/sample8.txt 1.08638 7.2562 4.46819 0.454772 13.4762
files/tasks_parameters/ExAp01/sample12.txt 1.50436 9.70908 5.28286 0.618515 18.3284
files/tasks_parameters/ExAp01/sample2.txt 1.45573 8.14159 5.7401 0.620531 18.3882
files/tasks_parameters/ExAp01/sample44.txt 1.31478 7.25164 5.75904 0.557631 16.5242
files/tasks_parameters/ExAp01/sample27.txt 1.3537 8.10944 5.64946 0.564878 16.739
files/tasks_parameters/ExAp01/sample17.txt 1.25081 7.11225 5.46658 0.527183 15.622
files/tasks_parameters/ExAp01/sample9.txt 1.22452 7.62559 5.37813 0.517277 15.3284
files/tasks_parameters/ExAp01/sample34.txt 1.26297 7.04587 5.93037 0.497709 14.7486
files/tasks_parameters/ExAp01/sample40.txt 1.195 8.03037 5.123 0.502383 14.8871
files/tasks_parameters/ExAp01/sample33.txt 1.53781 9.22935 5.92956 0.659262 19.5359
files/tasks_parameters/ExAp01/sample48.txt 1.08943 8.12182 5.1577 0.452491 13.4086
files/tasks_parameters/ExAp01/sample29.txt 1.50716 8.06133 5.12331 0.650652 19.2807
files/tasks_parameters/ExAp01/sample11.txt 1.32359 7.63104 5.37897 0.563302 16.6923
files/tasks_parameters/ExAp01/sample14.txt 1.1425 6.66403 4.66322 0.471536 13.973
files/tasks_parameters/ExAp01/sample0.txt 1.50939 9.3266 4.98971 0.6311 18.7014
files/tasks_parameters/ExAp01/sample7.txt 1.227 7.34863 5.19436 0.515527 15.2766
files/tasks_parameters/ExAp01/sample23.txt 1.36709 6.68564 5.54308 0.588617 17.4425
files/tasks_parameters/ExAp01/sample13.txt 1.5178 9.31093 5.35591 0.632849 18.7532
files/tasks_parameters/ExAp01/sample22.txt 1.29717 7.65588 5.04866 0.540336 16.0117
files/tasks_parameters/ExAp01/sample25.txt 1.02118 6.17035 5.0141 0.408296 12.099
files/tasks_parameters/ExAp01/sample36.txt 1.19495 7.03772 4.66274 0.507647 15.0431
files/tasks_parameters/ExAp01/sample46.txt 1.27378 7.73433 4.79934 0.536843 15.9083
files/tasks_parameters/ExAp01/sample31.txt 1.18907 6.96928 5.16482 0.485817 14.3962
files/tasks_parameters/ExAp01/sample37.txt 1.53453 9.52443 5.74224 0.65799 19.4982
files/tasks_parameters/ExAp01/sample16.txt 1.3008 8.63521 4.97261 0.516328 15.3003
files/tasks_parameters/ExAp01/sample10.txt 1.45022 7.28353 6.16876 0.615651 18.2436
files/tasks_parameters/ExAp01/sample39.txt 1.13448 6.3405 4.6137 0.468873 13.8941
files/tasks_parameters/ExAp01/sample19.txt 1.45393 8.85528 5.22306 0.622152 18.4362
files/tasks_parameters/ExAp01/sample20.txt 1.38007 8.1141 5.21177 0.586994 17.3944
files/tasks_parameters/ExAp01/sample43.txt 1.28799 7.21373 5.6367 0.53748 15.9271
files/tasks_parameters/ExAp01/sample32.txt 1.41514 8.30592 5.38137 0.593918 17.5996
files/tasks_parameters/ExAp01/sample45.txt 1.29154 7.94069 4.96323 0.547271 16.2173
files/tasks_parameters/ExAp01/sample26.txt 1.15091 7.57061 4.62637 0.480146 14.2281
files/tasks_parameters/ExAp01/sample5.txt 1.38889 8.0307 5.35681 0.59407 17.604
files/tasks_parameters/ExAp01/sample21.txt 1.05403 5.87802 4.61744 0.434264 12.8685
files/tasks_parameters/ExAp01/sample38.txt 1.16677 7.66999 4.86632 0.496808 14.7219
files/tasks_parameters/ExAp01/sample1.txt 1.18463 7.21312 4.63213 0.486293 14.4103
files/tasks_parameters/ExAp01/sample15.txt 1.27671 8.02273 5.50855 0.531063 15.737
files/tasks_parameters/ExAp01/sample24.txt 1.30128 8.66348 5.4905 0.548998 16.2684
files/tasks_parameters/ExAp01/sample3.txt 1.15265 7.74268 4.79918 0.477387 14.1464
files/tasks_parameters/ExAp01/sample6.txt 1.47319 8.57133 5.80157 0.633604 18.7756
files/tasks_parameters/ExAp01/sample30.txt 1.51668 8.18878 5.90888 0.633576 18.7747
files/tasks_parameters/ExAp01/sample42.txt 1.35117 8.57689 5.67253 0.54426 16.128
files/tasks_parameters/ExAp01/sample4.txt 1.34383 8.40354 4.57985 0.563519 16.6987
files/tasks_parameters/ExAp01/sample28.txt 1.06147 6.44114 4.96426 0.449721 13.3266
files/tasks_parameters/ExAp01/sample18.txt 1.29562 8.56363 4.60946 0.543766 16.1134
files/tasks_parameters/ExAp01/sample35.txt 1.80259 11.0387 6.34514 0.761377 22.5619
files/tasks_parameters/ExAp01/sample47.txt 1.26815 7.14493 5.22131 0.545046 16.1513
files/tasks_parameters/ExAp01/sample49.txt 1.21389 6.65996 4.80244 0.498533 14.773
files/tasks_parameters/ExAp01/sample41.txt 1.15886 7.09069 5.35462 0.497129 14.7314
