0.34439978
Task0 31 255 127 
Task1 255 7 255 
Task2 255 255 31 
Task3 15 255 63 
Task4 1 255 1 
Task5 63 1 31 
Task6 1 63 15 
Task7 3 63 127 
Task8 1 63 15 
Task9 31 255 7 
Task10 127 7 63 
Task11 15 3 255 
Task12 7 15 63 
Task13 31 7 1 
Task14 63 31 255 
Task15 255 15 3 
Task16 63 15 255 
Task17 63 3 63 
Task18 31 1 7 
Task19 7 63 255 
Task20 255 15 31 
Task21 127 63 15 
Task22 7 63 63 
Task23 1 7 255 
Task24 1 7 63 
Task25 63 31 31 
Task26 127 255 7 
Task27 63 31 31 
Task28 15 1 255 
Task29 31 127 127 
Task30 31 15 63 
Task31 15 63 127 
Task32 15 255 31 
Task33 255 15 15 
Task34 1 255 7 
Task35 127 63 15 
Task36 63 127 127 
Task37 31 7 63 
Task38 63 1 127 
Task39 31 255 15 
Task40 255 127 63 
Task41 15 255 3 
Task42 15 7 31 
Task43 63 127 63 
Task44 63 3 31 
Task45 255 255 63 
Task46 31 7 127 
Task47 63 63 63 
Task48 255 255 127 
Task49 7 7 63 
Task50 63 255 7 
Task51 255 7 3 
Task52 63 63 63 
Task53 15 255 31 
Task54 1 63 63 
Task55 1 255 31 
Task56 31 63 3 
Task57 31 3 255 
Task58 63 15 31 
Task59 1 255 255 
Task60 31 3 255 
Task61 255 63 31 
Task62 127 63 255 
Task63 127 31 63 
Task64 255 1 31 
Task65 7 31 255 
Task66 127 255 255 
Task67 63 127 7 
Task68 63 15 255 
Task69 3 31 7 
Task70 255 31 31 
Task71 31 255 31 
Task72 15 255 63 
Task73 3 15 63 
Task74 31 3 7 
Task75 63 31 127 
Task76 3 31 127 
Task77 63 7 15 
Task78 15 7 63 
Task79 255 1 1 
Task80 3 255 15 
Task81 127 127 63 
Task82 3 255 7 
Task83 31 127 3 
Task84 3 15 63 
Task85 3 63 7 
Task86 31 7 7 
Task87 31 15 127 
Task88 7 63 255 
Task89 3 15 127 
Task90 255 15 31 
Task91 63 255 15 
Task92 127 7 255 
Task93 255 63 255 
Task94 31 127 63 
Task95 63 31 15 
Task96 15 63 63 
Task97 63 127 31 
Task98 127 1 63 
Task99 63 127 63 
