digraph G {
0 ->7 0 ->8 0 ->15 0 ->17 1 ->11 1 ->13 1 ->16 1 ->18 2 ->7 2 ->9 2 ->11 2 ->12 2 ->14 2 ->16 3 ->8 3 ->9 3 ->12 3 ->14 3 ->17 4 ->8 4 ->10 4 ->11 4 ->13 4 ->15 4 ->16 5 ->9 5 ->10 5 ->13 5 ->14 5 ->16 5 ->18 6 ->9 6 ->10 6 ->15 6 ->18 8 ->22 9 ->21 9 ->22 10 ->21 10 ->22 11 ->22 12 ->19 12 ->23 13 ->21 13 ->23 14 ->22 14 ->23 15 ->20 15 ->21 15 ->22 15 ->23 16 ->21 18 ->21 19 ->24 19 ->25 19 ->30 19 ->31 19 ->35 20 ->24 20 ->28 20 ->30 21 ->25 21 ->27 21 ->29 21 ->32 21 ->35 22 ->25 22 ->26 22 ->28 22 ->30 22 ->31 22 ->32 22 ->33 22 ->34 23 ->29 23 ->31 23 ->34 23 ->35 24 ->37 24 ->38 24 ->39 24 ->42 25 ->41 25 ->44 25 ->46 26 ->43 26 ->46 26 ->46 27 ->37 27 ->45 28 ->38 28 ->42 28 ->43 29 ->37 29 ->42 29 ->45 29 ->46 30 ->37 30 ->39 30 ->46 31 ->41 31 ->46 33 ->36 33 ->38 33 ->45 34 ->36 34 ->39 34 ->40 34 ->41 34 ->42 35 ->38 35 ->39 35 ->40 35 ->41 35 ->45 36 ->47 36 ->51 36 ->52 36 ->55 36 ->56 37 ->49 37 ->56 37 ->57 37 ->58 38 ->55 38 ->59 38 ->60 39 ->47 39 ->50 39 ->54 39 ->55 39 ->58 40 ->47 40 ->49 40 ->53 40 ->57 40 ->59 40 ->60 41 ->52 41 ->55 41 ->57 41 ->59 41 ->60 42 ->51 42 ->52 42 ->56 42 ->58 43 ->48 43 ->49 43 ->51 43 ->60 44 ->47 44 ->48 44 ->50 44 ->52 44 ->58 45 ->48 45 ->49 45 ->56 45 ->58 45 ->59 46 ->47 46 ->49 46 ->52 46 ->54 46 ->55 46 ->56 47 ->63 47 ->70 47 ->71 48 ->62 48 ->67 48 ->68 48 ->69 48 ->71 49 ->61 49 ->63 49 ->64 49 ->65 49 ->68 50 ->61 50 ->62 50 ->63 50 ->64 50 ->67 50 ->68 50 ->70 51 ->62 51 ->70 52 ->62 52 ->63 52 ->64 53 ->62 53 ->66 53 ->67 53 ->70 53 ->71 54 ->61 54 ->70 55 ->61 55 ->62 55 ->71 56 ->61 56 ->63 56 ->67 56 ->68 56 ->69 56 ->71 57 ->63 57 ->64 57 ->66 57 ->68 58 ->64 58 ->66 58 ->67 58 ->69 58 ->70 59 ->62 59 ->66 60 ->61 60 ->64 60 ->68 62 ->74 63 ->73 63 ->77 64 ->74 65 ->72 65 ->73 65 ->74 65 ->75 66 ->73 66 ->74 66 ->75 66 ->76 67 ->72 67 ->74 67 ->77 68 ->77 69 ->72 69 ->74 72 ->86 72 ->87 73 ->79 73 ->84 73 ->86 74 ->79 74 ->80 74 ->81 74 ->83 74 ->84 75 ->78 75 ->84 75 ->85 75 ->86 76 ->83 77 ->79 77 ->82 77 ->87 78 ->88 79 ->91 79 ->92 79 ->93 79 ->94 80 ->89 80 ->91 80 ->93 80 ->95 81 ->88 81 ->95 82 ->88 82 ->90 82 ->92 82 ->94 82 ->96 83 ->89 83 ->90 83 ->91 83 ->92 83 ->93 84 ->90 84 ->91 84 ->92 84 ->93 85 ->90 85 ->94 86 ->88 86 ->90 86 ->91 86 ->94 86 ->95 87 ->88 87 ->93 87 ->94 89 ->99 91 ->98 91 ->99 93 ->97 94 ->98 96 ->98 
}
