digraph G {
0 ->14 0 ->16 0 ->17 3 ->16 4 ->11 4 ->12 4 ->14 4 ->15 4 ->16 4 ->18 5 ->10 5 ->11 5 ->12 5 ->13 5 ->16 5 ->17 5 ->18 6 ->10 6 ->11 6 ->12 6 ->13 6 ->17 6 ->18 6 ->18 7 ->13 7 ->14 8 ->11 8 ->17 9 ->10 9 ->11 9 ->16 11 ->19 11 ->26 12 ->20 12 ->21 12 ->22 12 ->26 13 ->19 13 ->20 13 ->22 13 ->26 14 ->19 14 ->21 14 ->23 14 ->24 14 ->25 15 ->19 15 ->20 15 ->23 15 ->24 15 ->26 17 ->26 17 ->27 18 ->19 18 ->22 19 ->28 19 ->29 19 ->32 19 ->34 20 ->28 20 ->30 20 ->32 20 ->33 20 ->34 21 ->32 21 ->34 21 ->35 22 ->35 23 ->28 23 ->33 24 ->30 24 ->32 25 ->30 25 ->31 25 ->33 25 ->35 26 ->29 26 ->30 26 ->34 27 ->28 27 ->34 27 ->35 28 ->38 28 ->42 28 ->43 29 ->37 29 ->42 30 ->37 30 ->38 31 ->39 31 ->40 31 ->44 32 ->40 32 ->44 33 ->37 33 ->41 33 ->44 34 ->36 34 ->37 34 ->41 35 ->42 35 ->43 36 ->48 36 ->49 36 ->50 36 ->51 36 ->52 37 ->47 37 ->53 37 ->54 38 ->45 38 ->46 38 ->47 38 ->49 39 ->48 39 ->54 40 ->46 40 ->48 40 ->50 41 ->45 41 ->46 41 ->47 41 ->48 41 ->50 41 ->53 42 ->47 42 ->48 42 ->50 42 ->52 42 ->53 43 ->49 43 ->51 43 ->54 44 ->46 44 ->51 45 ->57 45 ->61 45 ->63 46 ->57 46 ->58 47 ->60 48 ->60 49 ->57 49 ->59 49 ->61 49 ->62 50 ->57 50 ->60 50 ->61 51 ->61 52 ->55 52 ->56 53 ->58 53 ->60 54 ->55 54 ->57 54 ->61 55 ->67 55 ->68 55 ->68 56 ->65 56 ->67 56 ->68 57 ->65 57 ->66 57 ->67 57 ->69 58 ->67 58 ->70 59 ->69 59 ->70 60 ->66 60 ->69 60 ->70 62 ->64 62 ->66 62 ->70 63 ->66 63 ->67 63 ->68 64 ->75 64 ->76 64 ->77 64 ->80 64 ->81 64 ->84 65 ->71 65 ->73 65 ->76 65 ->79 65 ->80 65 ->84 66 ->72 66 ->73 66 ->76 66 ->80 67 ->76 67 ->77 67 ->79 67 ->83 68 ->72 68 ->75 69 ->72 69 ->73 69 ->74 69 ->75 69 ->77 69 ->78 69 ->84 70 ->71 70 ->77 70 ->78 70 ->80 70 ->82 71 ->85 71 ->90 71 ->94 72 ->85 72 ->87 72 ->90 73 ->92 73 ->93 74 ->85 74 ->91 74 ->92 74 ->93 74 ->96 75 ->87 75 ->89 75 ->92 75 ->94 75 ->95 76 ->88 76 ->92 76 ->93 76 ->94 76 ->95 77 ->87 77 ->89 77 ->90 78 ->85 78 ->89 78 ->94 79 ->87 79 ->89 79 ->91 80 ->89 80 ->89 80 ->90 80 ->91 80 ->94 80 ->95 81 ->88 81 ->94 82 ->89 83 ->85 83 ->92 83 ->95 84 ->85 84 ->86 84 ->92 84 ->93 85 ->97 85 ->99 89 ->99 90 ->99 91 ->99 92 ->97 94 ->97 94 ->98 95 ->97 95 ->99 96 ->97 96 ->99 
}
