digraph G {
0 ->6 0 ->8 0 ->10 0 ->11 1 ->9 2 ->7 2 ->8 2 ->11 3 ->7 3 ->11 4 ->7 4 ->8 4 ->10 5 ->10 6 ->16 6 ->19 6 ->20 7 ->13 7 ->14 7 ->19 8 ->12 8 ->16 8 ->18 8 ->20 9 ->15 9 ->18 9 ->18 9 ->19 10 ->12 10 ->15 10 ->21 11 ->12 11 ->17 11 ->20 13 ->25 14 ->23 15 ->23 15 ->24 15 ->25 16 ->23 17 ->24 18 ->26 19 ->25 20 ->25 20 ->26 21 ->22 21 ->25 22 ->27 22 ->29 22 ->33 23 ->31 24 ->27 24 ->28 24 ->31 25 ->27 25 ->31 25 ->32 26 ->30 27 ->35 27 ->36 27 ->40 28 ->38 28 ->40 29 ->38 29 ->39 30 ->37 33 ->34 33 ->35 33 ->40 34 ->43 35 ->43 35 ->44 36 ->41 38 ->42 39 ->41 39 ->42 39 ->45 41 ->55 42 ->46 42 ->47 42 ->48 42 ->53 42 ->55 43 ->46 43 ->51 43 ->54 43 ->56 44 ->49 44 ->50 44 ->51 44 ->52 44 ->53 45 ->48 45 ->51 45 ->54 46 ->57 46 ->61 46 ->63 46 ->64 47 ->62 47 ->63 47 ->65 48 ->59 48 ->60 49 ->60 49 ->64 49 ->66 50 ->58 50 ->60 50 ->64 50 ->65 51 ->57 51 ->60 51 ->63 51 ->65 52 ->60 52 ->63 52 ->63 53 ->57 54 ->60 54 ->61 54 ->65 55 ->59 56 ->64 56 ->65 57 ->69 58 ->67 58 ->71 60 ->69 60 ->70 60 ->71 61 ->71 62 ->70 63 ->67 63 ->68 63 ->69 64 ->67 64 ->70 65 ->67 65 ->70 65 ->72 66 ->69 66 ->71 66 ->72 67 ->77 67 ->80 67 ->82 68 ->74 68 ->75 69 ->74 69 ->75 69 ->79 69 ->81 70 ->73 70 ->74 70 ->75 70 ->76 70 ->78 70 ->82 71 ->76 71 ->78 71 ->79 72 ->78 72 ->80 73 ->85 73 ->90 73 ->91 74 ->84 74 ->86 74 ->87 74 ->90 75 ->83 75 ->90 76 ->87 76 ->91 77 ->89 78 ->86 78 ->90 78 ->91 79 ->86 79 ->87 79 ->90 80 ->85 80 ->86 80 ->87 80 ->89 81 ->83 81 ->85 81 ->91 82 ->85 82 ->86 82 ->88 82 ->91 83 ->92 83 ->93 83 ->96 83 ->99 84 ->92 84 ->94 84 ->95 84 ->96 84 ->99 85 ->93 85 ->94 86 ->92 86 ->95 87 ->92 87 ->94 87 ->95 87 ->97 87 ->98 88 ->98 89 ->95 90 ->93 90 ->94 90 ->97 91 ->92 91 ->96 
}
