digraph G {
0 ->15 0 ->18 1 ->17 1 ->18 1 ->19 1 ->21 2 ->17 3 ->15 3 ->17 4 ->18 5 ->14 5 ->16 5 ->20 6 ->19 8 ->15 8 ->17 8 ->18 9 ->17 9 ->17 9 ->19 10 ->21 12 ->15 12 ->16 12 ->19 12 ->20 13 ->15 13 ->17 13 ->19 14 ->22 14 ->23 14 ->24 14 ->28 14 ->30 15 ->24 15 ->25 15 ->26 15 ->27 15 ->28 15 ->29 16 ->23 16 ->27 16 ->29 17 ->23 17 ->27 17 ->31 18 ->25 18 ->29 19 ->30 20 ->29 20 ->30 20 ->31 21 ->24 21 ->26 21 ->30 21 ->31 22 ->38 22 ->41 22 ->43 23 ->32 23 ->35 23 ->38 23 ->39 23 ->41 23 ->43 24 ->32 24 ->35 24 ->40 24 ->41 25 ->33 25 ->34 25 ->37 25 ->38 25 ->40 25 ->42 26 ->32 26 ->40 27 ->37 28 ->38 28 ->40 28 ->41 28 ->42 28 ->43 29 ->32 29 ->33 29 ->35 29 ->36 29 ->39 29 ->40 29 ->45 30 ->33 30 ->35 30 ->36 30 ->43 31 ->32 31 ->35 31 ->44 31 ->45 32 ->48 32 ->49 32 ->50 33 ->47 33 ->52 33 ->53 33 ->54 34 ->48 34 ->54 34 ->56 35 ->46 35 ->47 35 ->52 35 ->54 35 ->56 36 ->46 36 ->47 36 ->48 36 ->49 37 ->46 37 ->47 37 ->49 38 ->47 38 ->55 38 ->56 39 ->47 39 ->49 39 ->50 39 ->51 39 ->55 41 ->52 42 ->48 42 ->50 42 ->51 42 ->54 43 ->47 43 ->48 43 ->51 43 ->52 44 ->48 44 ->51 44 ->53 45 ->46 45 ->48 45 ->51 45 ->54 45 ->56 47 ->60 48 ->57 48 ->58 48 ->60 48 ->61 48 ->62 49 ->60 49 ->61 50 ->57 50 ->59 50 ->61 52 ->58 52 ->59 53 ->57 53 ->59 53 ->61 56 ->61 57 ->64 57 ->70 58 ->70 59 ->63 59 ->64 59 ->66 59 ->67 59 ->69 59 ->71 59 ->73 60 ->66 60 ->67 60 ->68 61 ->65 61 ->69 62 ->63 62 ->64 62 ->69 62 ->72 62 ->73 63 ->76 63 ->82 64 ->76 64 ->77 64 ->81 65 ->76 65 ->77 65 ->81 65 ->82 65 ->84 66 ->74 66 ->77 66 ->81 66 ->82 66 ->83 67 ->75 67 ->80 67 ->81 67 ->82 68 ->78 68 ->80 69 ->75 69 ->77 69 ->78 69 ->80 70 ->75 70 ->79 71 ->75 71 ->76 71 ->80 72 ->76 72 ->77 72 ->79 72 ->82 72 ->84 73 ->75 73 ->77 73 ->79 73 ->84 74 ->86 74 ->90 74 ->91 74 ->96 75 ->89 75 ->90 75 ->92 75 ->93 75 ->95 75 ->97 76 ->90 76 ->93 76 ->95 76 ->97 77 ->90 77 ->94 77 ->95 78 ->85 78 ->86 78 ->96 79 ->93 79 ->94 80 ->85 80 ->88 80 ->91 80 ->94 81 ->85 81 ->86 81 ->87 81 ->92 82 ->86 82 ->94 82 ->96 82 ->97 83 ->94 83 ->95 83 ->96 83 ->97 84 ->92 84 ->94 84 ->95 84 ->96 84 ->97 91 ->99 92 ->99 93 ->98 94 ->99 
}
