digraph G {
1 ->9 1 ->12 2 ->8 2 ->9 2 ->12 3 ->9 3 ->12 4 ->8 4 ->13 6 ->10 6 ->13 7 ->8 7 ->11 7 ->13 8 ->18 8 ->21 9 ->16 9 ->17 10 ->14 10 ->20 10 ->22 11 ->14 11 ->15 11 ->22 12 ->14 12 ->15 12 ->17 12 ->19 12 ->20 12 ->22 13 ->15 13 ->16 14 ->23 14 ->27 14 ->28 14 ->30 14 ->31 14 ->32 15 ->23 15 ->24 15 ->25 15 ->29 16 ->23 16 ->24 16 ->25 16 ->30 16 ->31 17 ->25 17 ->28 17 ->32 19 ->24 19 ->29 19 ->30 19 ->31 20 ->25 20 ->26 21 ->26 21 ->28 21 ->29 22 ->23 22 ->24 22 ->26 22 ->29 22 ->30 22 ->31 23 ->34 23 ->35 23 ->38 23 ->42 24 ->33 24 ->34 24 ->35 24 ->39 24 ->40 24 ->42 25 ->34 25 ->39 25 ->40 25 ->42 27 ->37 27 ->39 27 ->42 28 ->34 29 ->39 29 ->41 29 ->42 30 ->35 30 ->38 31 ->35 31 ->36 31 ->39 32 ->34 32 ->35 32 ->36 32 ->37 33 ->49 33 ->51 34 ->43 34 ->46 34 ->48 35 ->43 35 ->46 35 ->48 37 ->44 37 ->48 38 ->43 38 ->48 38 ->50 39 ->47 39 ->49 39 ->51 40 ->44 41 ->44 41 ->46 41 ->48 41 ->49 41 ->51 42 ->45 42 ->46 42 ->47 42 ->50 42 ->51 43 ->52 43 ->53 43 ->54 43 ->58 44 ->52 44 ->54 44 ->55 44 ->56 44 ->60 45 ->54 45 ->55 45 ->56 46 ->59 47 ->59 47 ->61 48 ->54 48 ->55 49 ->53 49 ->56 49 ->59 50 ->53 50 ->55 50 ->56 50 ->57 51 ->56 52 ->64 52 ->71 53 ->65 54 ->69 54 ->71 55 ->63 55 ->67 55 ->69 55 ->71 56 ->64 56 ->69 56 ->70 56 ->71 57 ->62 58 ->62 58 ->64 58 ->65 58 ->66 58 ->67 58 ->68 58 ->70 59 ->64 59 ->67 59 ->68 59 ->71 60 ->63 60 ->66 60 ->67 60 ->68 61 ->62 61 ->66 61 ->67 61 ->69 62 ->73 62 ->77 63 ->73 63 ->74 63 ->75 63 ->76 63 ->77 63 ->78 64 ->77 64 ->78 65 ->76 68 ->72 68 ->75 68 ->77 69 ->73 69 ->75 70 ->74 70 ->75 70 ->78 71 ->75 71 ->77 72 ->80 72 ->81 73 ->82 73 ->86 74 ->80 74 ->86 75 ->85 75 ->86 75 ->87 75 ->89 75 ->90 76 ->80 76 ->82 76 ->83 76 ->85 76 ->87 76 ->88 76 ->89 77 ->79 77 ->81 77 ->84 77 ->87 77 ->88 77 ->89 78 ->79 78 ->80 78 ->81 78 ->82 78 ->85 78 ->86 79 ->91 79 ->92 79 ->93 79 ->94 79 ->97 80 ->91 80 ->93 81 ->94 82 ->94 82 ->98 83 ->91 83 ->93 84 ->94 84 ->96 85 ->96 86 ->92 86 ->94 86 ->95 86 ->96 87 ->93 87 ->95 87 ->96 87 ->97 88 ->93 88 ->98 88 ->99 89 ->91 89 ->92 89 ->97 89 ->98 90 ->91 90 ->92 
}
