0.29812760999999993
Task0 31 63 127 
Task1 255 63 31 
Task2 31 63 255 
Task3 7 15 31 
Task4 1 15 15 
Task5 31 127 255 
Task6 31 1 31 
Task7 31 7 63 
Task8 127 15 31 
Task9 63 7 7 
Task10 1 31 3 
Task11 15 31 3 
Task12 7 15 255 
Task13 1 7 31 
Task14 255 63 1 
Task15 127 1 255 
Task16 3 63 255 
Task17 63 7 63 
Task18 63 15 31 
Task19 63 3 15 
Task20 63 15 63 
Task21 255 31 31 
Task22 63 127 15 
Task23 15 31 3 
Task24 7 255 63 
Task25 15 255 255 
Task26 31 15 7 
Task27 255 15 7 
Task28 255 63 63 
Task29 15 15 31 
Task30 15 15 15 
Task31 63 255 31 
Task32 63 63 7 
Task33 31 31 1 
Task34 63 31 15 
Task35 15 255 1 
Task36 7 3 15 
Task37 3 63 63 
Task38 127 255 255 
Task39 7 7 31 
Task40 3 31 31 
Task41 3 127 7 
Task42 15 7 63 
Task43 3 1 31 
Task44 7 7 31 
Task45 3 3 15 
Task46 15 63 3 
Task47 63 3 15 
Task48 3 7 31 
Task49 63 255 31 
Task50 7 31 63 
Task51 127 255 63 
Task52 255 127 127 
Task53 7 15 7 
Task54 63 31 3 
Task55 7 127 255 
Task56 63 15 63 
Task57 3 31 127 
Task58 3 31 63 
Task59 63 7 63 
Task60 31 7 1 
Task61 15 31 63 
Task62 31 1 7 
Task63 63 3 7 
Task64 31 31 15 
Task65 127 7 127 
Task66 3 7 63 
Task67 15 3 255 
Task68 31 63 63 
Task69 63 127 255 
Task70 15 15 31 
Task71 31 63 63 
Task72 7 15 7 
Task73 3 1 31 
Task74 31 15 255 
Task75 127 15 63 
Task76 7 7 31 
Task77 1 31 3 
Task78 7 31 7 
Task79 15 7 31 
Task80 7 7 255 
Task81 31 31 7 
Task82 3 255 31 
Task83 63 31 1 
Task84 63 255 255 
Task85 3 31 15 
Task86 7 63 31 
Task87 31 63 31 
Task88 15 15 7 
Task89 7 63 15 
Task90 255 31 31 
Task91 31 7 3 
Task92 7 15 255 
Task93 63 31 31 
Task94 255 3 31 
Task95 15 63 63 
Task96 255 63 7 
Task97 63 63 63 
Task98 127 3 63 
Task99 63 15 15 
