Task0 0.08671660084402175 0.05454549416332377 0.08157348271731048 0.25661470490812377 0.9399969618878068 0.32354763939697834 0.5765537893618156 
Task1 0.00447522899673789 0.09316374796814156 0.14387553533265138 0.06492295151891142 0.4515032364460889 0.3979318005417365 0.3320275197207144 
Task2 0.029211412182216966 0.3134730378249179 0.3615613681798201 0.2118793648139574 0.8272203748085574 0.9898084201983113 0.9570984524560964 
Task3 0.13362986404220573 0.30116413236463746 0.24607726596745957 0.01629603627530295 0.9433213356151615 0.5823201436106507 0.7786429054529538 
Task4 0.04241041519220212 0.11909661590730623 0.20391651386200815 0.49674357083269827 0.3058442208970507 0.8124523374856871 0.4366958012885258 
Task5 0.016381162749714802 0.09689413468234914 0.01854450274458415 0.1095275086251346 0.8732604420263026 0.49644372703486117 0.5574452532160619 
Task6 0.00023500008452669342 0.069445646728566 0.0250464982754984 0.03405612018454202 0.36773186775141325 0.31300527529501576 0.5480587051525698 
Task7 0.08388318280521809 0.05808689042088646 0.20454692153733292 0.18281154195270904 0.6382289283042031 0.7129272140448186 0.8949642295921105 
Task8 0.11906147254378406 0.3006493627482178 0.17845083314415625 0.10768122613473925 0.8526006543742557 0.3129618656566622 0.465114333701969 
Task9 0.06342154657409577 0.2306413603611406 0.17000025247507666 0.04485607115096614 0.3431765460965845 0.7930803433898285 0.5341096400093746 
Task10 0.012551772803683293 0.13813957142119893 0.12040632646378414 0.1494204080631646 0.416933926638593 0.8515110321702455 0.42808569948142894 
Task11 0.06890828933560414 0.10936920810242401 0.0629312614442853 0.11358587677130416 0.5692651836763887 0.39645075054659495 0.8355663024733009 
Task12 0.1632867118233804 0.23238428897542743 0.30119376692876415 0.2545222407618887 0.9799610923652244 0.6213549927361295 0.32400293351735154 
Task13 0.05125346662151897 0.11449903885959253 0.21395208939283702 0.27481088283790284 0.45621737204864676 0.9743622783213051 0.9524496000181877 
Task14 0.13656303630545802 0.01924234535175276 0.19416332640241818 0.637659755114857 0.7296717575358933 0.6411828598968639 0.7238809741314314 
Task15 0.005116318060520618 0.005141016554345445 0.028419442274968225 0.027384847973632047 0.5041057804327876 0.3580642894602361 0.35239594776063105 
Task16 0.04494111368823625 0.09806928330205263 0.10026256950131084 0.047394879423012425 0.4076984194809996 0.7001680316042643 0.6583731392119132 
Task17 0.009603639591728398 0.019186179401251762 0.02042885860216052 0.019539655590592092 0.31327369183137804 0.9963053839376239 0.47134282999642774 
Task18 0.1669336727876738 0.008773691180179878 0.4520333200228416 0.3606685244508525 0.8863260656539904 0.7255991060906956 0.8889808124905809 
Task19 0.035029246239458516 0.00667775306233296 0.5204183379831828 0.10595251881614831 0.7439913562353487 0.4789280146503916 0.6013175706352774 
Task20 0.08551272997040668 0.15574240955818713 0.05597478692507148 0.17092216160959495 0.7658950199636657 0.45733181504065995 0.6100210734892997 
Task21 0.0018082377753612646 0.13314646443448036 0.5598170289131291 0.23915957305909138 0.6756904745453245 0.944508241726324 0.4748887202519839 
Task22 0.033665699109142654 0.12049549339661267 0.2975927123598666 0.35817428747142405 0.3326461160342909 0.5868274868161143 0.35461616587010775 
Task23 0.12325167524675788 0.08530333587865113 0.45972782083201014 0.07022874310994165 0.3237704254413269 0.317019930131649 0.5830055982766205 
Task24 0.0019072190617338226 0.0019547441903799557 0.013959667186855488 4.9429718424548595e-05 0.7297397853190568 0.40321839563148576 0.6758446986566015 
Task25 0.0770989892186041 0.13229438115385778 0.10758024238297471 0.11435154819359251 0.5976517099378442 0.4943781787193604 0.5259909765748026 
Task26 0.009656015814177667 0.08953949754059133 0.16543831756969984 0.15759434349454712 0.8988884673801965 0.41472243998799446 0.8218802375963821 
Task27 0.06596032701776822 0.2540986491606089 0.2555987884964626 0.00794401090927995 0.946427957967862 0.3820078213279264 0.31432585258023 
Task28 0.05288018182983081 0.16560308487302686 0.08929198980658277 0.054879608559726685 0.5346792571263095 0.3126590737530099 0.848826901889427 
Task29 0.03525617438579433 0.10121050702468071 0.03856140344630448 0.18636984914968424 0.9432504119715288 0.9474173358543097 0.735960477761535 
Task30 0.05860524254425074 0.1721666232525068 0.17207776568352637 0.16479821824551807 0.4355995436972328 0.33389355704045465 0.5298001029897628 
Task31 0.029492691648661307 0.024250404397513855 0.5067749269043683 0.3122758097732549 0.8966334355641454 0.5090716473002662 0.7464814451110446 
Task32 0.04535984076508392 0.06831421226918488 0.21505360217281333 0.44552840003210437 0.6790703561324465 0.4818829503926896 0.5278664741558957 
Task33 0.015742492123871712 0.041449732009684506 0.07821493913591143 0.021449408804500986 0.35291778779619276 0.862315190682619 0.5197629886381524 
Task34 0.01275801059259437 0.0518635383113047 0.30703192934234574 0.13620608004236084 0.8852235533648571 0.35432323482899275 0.8650551696516351 
Task35 0.05159861611041478 0.2829773615124121 0.19236918484231516 0.3406195151182962 0.4663952394437259 0.3326380930928207 0.8989379749192721 
Task36 0.02749657862862252 0.13403279229634632 0.3725347801269155 0.19562465414333646 0.7273997554283511 0.8641810183098271 0.3030987614475556 
Task37 0.011463614354290943 0.022571467694690595 0.019766119041009104 0.03533622943021342 0.6439064915553612 0.3482612021719578 0.9222543480593914 
Task38 0.04119802982817894 0.09435165839450776 0.1516401174197709 0.14776757492565384 0.8167591096370113 0.6995507504906531 0.8964837900184353 
Task39 0.041592077680434734 0.02422038286788298 0.17824394444092106 0.17652761946915468 0.6335459060063933 0.7698729631549229 0.30942589007593085 
Task40 0.07868712945864699 0.05612327741816388 0.291223947007002 0.06005742569007025 0.7952255467889776 0.46871465822341135 0.9269100246248085 
Task41 0.02770951753133841 0.11573304742333897 0.008789921591439466 0.145366505908358 0.3457527714096018 0.7509797184936142 0.38451402792644374 
Task42 0.001230269420561514 0.02171123106148278 0.03868023825352566 0.05067833069102513 0.8632153462170884 0.3603603018404879 0.37208494555042276 
Task43 0.029509304606544225 0.05983154735197138 0.028029604412995755 0.06639308481742132 0.797332683829431 0.48253455738393924 0.5238782078020331 
Task44 0.053666709506948476 0.3269218434347065 0.046467189274003846 0.17328916408408698 0.7863217591238896 0.5751341542755084 0.694425216197156 
Task45 0.028380426743002375 0.19811766423254384 0.04813481697018553 0.3346854605852098 0.5460926838319149 0.9773044822850347 0.435896252039004 
Task46 0.024760500616027064 0.1143717766957455 0.025619587626442297 0.06476099277381193 0.4806394533880126 0.31194767240998855 0.6685144595948892 
Task47 0.03073464714982422 0.004147489312266371 0.07010539989415197 0.0669742910135457 0.6689485985922847 0.5688400370957922 0.3288654121124915 
Task48 0.011433678479338924 0.009038152504096222 0.08023343122964893 0.06065029871323491 0.6298083517353958 0.3189754897133442 0.8274376855622299 
Task49 0.1325916769091654 0.2048138305249332 0.3426263938776051 0.2764305968551774 0.571938993578851 0.6134097220162363 0.4875942419526048 
Task50 0.011657102573321036 0.04316816613783524 0.021644113944294354 0.09440442383782592 0.7235356006003328 0.9316511935630825 0.6626127304065557 
Task51 0.04614158849385641 0.039502879702065286 0.06818855801885494 0.08225750685183761 0.44533270995916907 0.6197998233169975 0.8557651915116344 
Task52 0.017536372061479365 0.15060376388755806 0.2235560694526221 0.008583975072798622 0.6718343696422606 0.5412805192264754 0.765202445075153 
Task53 0.012563042770175439 0.14145735987553082 0.04665896148712159 0.029022122247594595 0.6217929344212667 0.8793788529138276 0.6512055993976698 
Task54 0.037740416617740795 0.06935446936033941 0.05198120564255112 0.04272550893547321 0.3471677132480498 0.8729326821662866 0.7902795617511151 
Task55 0.05801398638451007 0.20762369878929204 0.11396600961176756 0.23544920738983152 0.7827856124471735 0.4575673791130234 0.9832995756170506 
Task56 0.050913476369114745 0.0009219457622461123 0.3220169434578249 0.5426995669080573 0.976098092103016 0.34028019149377337 0.4621161403031582 
Task57 0.032104782510478755 0.15120418951458045 0.22796241115923088 0.07517689905050924 0.6580769058548182 0.747036956609318 0.42008241842847355 
Task58 0.025974285922829313 0.07674614356005452 0.09094071220705086 0.05263092639413818 0.4853195032297765 0.6123592708027346 0.7454747241681314 
Task59 0.04029998043084955 0.05331766972654196 0.17083064642635282 0.05199340878695193 0.9282901478904164 0.7154495932115743 0.35969051156223425 
Task60 0.1225845704547069 0.10712633914322592 0.2051090629796038 0.3909849719987768 0.4789271256135051 0.43670747422202644 0.8182943022127607 
Task61 0.006142615785073078 0.455845263153066 0.4825167895386527 0.0010631036122438356 0.6063522908907728 0.6289376521834016 0.7922752348538933 
Task62 0.004009924893152388 0.05270160190553803 0.06145368575957701 0.05236288714315783 0.6213216241855324 0.6227362579989763 0.7684626499847653 
Task63 0.03961922610558046 0.15484954221324604 0.1914036256603285 0.25979400776931644 0.4189704167542237 0.31570914685634904 0.4072228854264107 
Task64 0.013439537170503614 0.05507306596200901 0.29864474201995456 0.23863833231410428 0.7765577668036434 0.9795887716392875 0.3858724238079196 
Task65 0.06479307349872153 0.2095683892816824 0.09607530787246302 0.09752950311984544 0.5608530276952955 0.9240913918518514 0.4774093384930369 
Task66 0.15985273600841116 0.23229234276560173 0.27608068030540517 0.27708162934022923 0.4938682205789134 0.4698885511324275 0.5796826845208409 
Task67 0.12508420002633658 0.24319349585405228 0.24605115063037422 0.2245924216362553 0.6676680155903956 0.4759190063395682 0.40700523911287567 
Task68 0.08408671022192044 0.06411039513524949 0.3714389285465129 0.04741220464852652 0.6475609094785566 0.8250113897744131 0.8060290800197576 
Task69 0.08191017229077652 0.2201633643346202 0.10331673398500768 0.09081980830073075 0.6526827152932481 0.9386939601543305 0.9160150177348272 
Task70 0.0716576978072897 0.24693953905060703 0.17308547808695351 0.1518714474275701 0.9566019129678915 0.5757169786393226 0.6600978702938147 
Task71 0.008555187513942089 0.042263751228191454 0.04998318904130624 0.005540812668598168 0.9045391236525597 0.847120481539192 0.44954326298646946 
Task72 0.00455889770637287 0.014240022581281474 0.026821232509466147 0.06107576948036075 0.3931386758738774 0.6460322122584563 0.9037990546269836 
Task73 0.0003750101719364154 0.023323578805435168 0.040863298473857494 0.18503147046092266 0.6662683271955183 0.7683118384270906 0.45532627206473936 
Task74 0.011801287302026382 0.11263843073509204 0.00196937602999582 0.07250725755746619 0.7807519566927708 0.7426274699252899 0.6760801012587361 
Task75 0.05895296203092148 0.4067112606068421 0.3259565380116545 0.033293902394374436 0.39706952374045057 0.5754792085611623 0.7480658064491351 
Task76 0.031418383582993537 0.12696022177703495 0.08921692505825156 0.044988049647990684 0.36603422974120037 0.9701124915368191 0.46891289747196724 
Task77 0.010052862314625847 0.03985360997213842 0.02445775948362159 0.03884937268741663 0.4694637327596112 0.8669171232837092 0.7417419742574886 
Task78 0.044446914751718435 0.10460739414292272 0.14188878672857266 0.003914334824402632 0.5953440454129388 0.7074692839666228 0.757391271998597 
Task79 0.17769344899715703 0.257266935448217 0.18262036180375796 0.30121143687062196 0.882566294268559 0.5360169553060651 0.8091600096246074 
Task80 0.00635804250114073 0.14215768264390247 0.18178041897930644 0.1134806639994959 0.30183308988992763 0.9997145817734168 0.77288499651836 
Task81 0.021389578721681672 0.04574421766889919 0.02815120832568217 0.05486213862911023 0.9049221915492398 0.5624258696325624 0.4240435725800352 
Task82 0.050822888844120694 0.4431075183212709 0.3141399968173598 0.02356780206207211 0.3319373979260746 0.9143578025002035 0.5841573812977845 
Task83 0.03272292164518722 0.02843354737134099 0.12149461957621184 0.09440705835033093 0.7083499991563245 0.7267091708110076 0.8729176624113386 
Task84 0.0034768921458868296 0.028644273152680682 0.014194655979812155 0.024612636708302677 0.6376133952077023 0.736092696835571 0.583480598462087 
Task85 0.025938658026618575 0.20139716340510785 0.24363798586174973 0.03907771606628997 0.868261052176454 0.5081523675953193 0.7341983989502758 
Task86 0.012529734071064799 0.2533590642499988 0.31976509564439215 0.18461236705469494 0.8115591384802538 0.7557070387379974 0.5209386260516651 
Task87 0.007181358917132097 0.1640614914700508 0.04461001739434038 0.5516589878874325 0.7193487947977512 0.45724922998097134 0.5342293703278732 
Task88 0.057886227474479995 0.04045057432355986 0.3595166899075116 0.19274745311407146 0.7002590322015809 0.3094112428750932 0.7212691018330801 
Task89 0.024690445406701945 0.2498348035160897 0.2500395206955379 0.0804396188562093 0.6424353586144838 0.733330947590322 0.4198889145443639 
Task90 0.006087865066824787 0.05584381656536216 0.05985340193501241 0.024113503606578084 0.7693144183893632 0.37469924874041266 0.8496302737888899 
Task91 0.07117814409981975 0.10333390604351603 0.00978264456140468 0.32466492912664896 0.960842242027784 0.506379699690626 0.38873719296328374 
Task92 0.1470041140973453 0.4398125547596405 0.23244438407319104 0.10934023629600151 0.8378459630870729 0.39585732482064545 0.8335692686639489 
Task93 0.05740996262037756 0.6548093006153941 0.10916100105891992 0.16457185179232497 0.744525328827059 0.48928044359018114 0.44153457967405063 
Task94 0.13542417539778495 0.31615853722951676 0.4541662076050663 0.048538287894382144 0.6742019846881642 0.9846020374671036 0.5369179449299781 
Task95 0.04355368884493503 0.06578352330538413 0.17209789088008678 0.10272425932234039 0.3444930526451663 0.73579713505904 0.6166101900218415 
Task96 0.0024303042990850092 0.011876905547075677 0.01693073219942381 0.0018087023547539468 0.944290814267067 0.35599102013144424 0.42358280113373337 
Task97 0.0026060103142561556 0.018716245300297828 0.016233664884466575 0.0006366156178359153 0.9935818002189709 0.6908242038055791 0.31081660542789424 
Task98 0.016290156105265508 0.17922897145341615 0.23629844629404076 0.27667609378619745 0.7384049960710917 0.846633831583447 0.3928881675975857 
Task99 0.06903170821160454 0.27267722139887124 0.15959829861801017 0.06789101728936484 0.7800771805784812 0.4473394626942765 0.7552930138732877 
