Task0 0.12305487213592928 0.14328612135837077 0.1852457478353123 0.20786263761057538 0.5056905984278001 0.7611151881477328 0.8289252938458631 
Task1 0.14823130648057642 0.13156126875524113 0.30282538674704057 0.24768024688803647 0.49470723245528686 0.8245665698671936 0.43219916582602297 
Task2 0.10217923578148624 0.22214202911953215 0.2860182521930224 0.22793747552355623 0.6260391107600126 0.7784674613309266 0.7645567478435574 
Task3 0.005821114263713886 0.014384878653207964 0.00459869921718921 0.01835307523260944 0.37681643453692326 0.32523554460361387 0.3726115246701311 
Task4 0.04508674681286419 0.06410182232526829 0.2147224332786181 0.26887344106647404 0.4042529233043587 0.4208606422318565 0.43475841516348834 
Task5 0.011442679726082823 0.19260020398174021 0.2063590743778329 0.21407555161649688 0.7226422248052558 0.43064848116781834 0.49900482183856343 
Task6 0.016879968853358147 0.2541847218086691 0.11455574824628008 0.11477320179449595 0.4920014753178167 0.3081230312296253 0.7355969655142718 
Task7 0.024118562714882892 0.012439158244238952 0.03973178800856416 0.059127422964133015 0.6947300547272267 0.44991568387828956 0.797822555462607 
Task8 0.033736592394498915 0.14616555899084474 0.029895904086486652 0.11470099386061236 0.5501037484290044 0.9341741491712512 0.5786502103354996 
Task9 0.003365852415674589 0.3933490847463808 0.3560654514248734 0.1489424975113592 0.5865861230201534 0.35552850345248166 0.4101946109090141 
Task10 0.002219779786511489 0.14077507475485465 0.11144016546439676 0.019340681936424464 0.8698707046051342 0.43814621688294375 0.6450876592710479 
Task11 0.0065971061005634666 0.026295439545441616 0.018270143812630462 0.0662635020312209 0.3323906110630579 0.8076246768772308 0.40832504998165886 
Task12 0.06954297196914742 0.16212073504056487 0.1066732598690129 0.10969634957262576 0.7285536739468748 0.5390881647393515 0.9563840476949588 
Task13 0.05342262422274361 0.14782762299790075 0.03960741066064983 0.09138972359422459 0.8424393394850354 0.8862915715225916 0.38523383497699826 
Task14 0.005394722544295524 0.17313505672450516 0.18285473769347377 0.1888444434235941 0.34782842411607146 0.9414795786805457 0.7125873974650999 
Task15 0.08760782429517476 0.35391917036865794 0.059028424492363486 0.1709235890197577 0.33669242600122407 0.7983547570007188 0.3816332324804601 
Task16 0.008959080564416888 0.047872630140671765 0.03849239961949108 0.18325031046962395 0.5955648817011077 0.3726656989460332 0.7404141981198029 
Task17 0.01024358850689613 0.0064670427292432605 0.019249760529390914 0.01612607524181135 0.7623559975601101 0.8191522938961384 0.8573760195227722 
Task18 0.02730362170190037 0.030717064989798707 0.05428445034421166 0.03012113428814476 0.7197694771682623 0.5795381865270178 0.4313764549646709 
Task19 0.015064980692025387 0.08056598048678877 0.007697191391902309 0.014849569126703332 0.30470822594043834 0.7923300359432608 0.4437811394727229 
Task20 0.13096556089392483 0.4359063210330016 0.22297290100020067 0.07993724281811629 0.42561980986666004 0.9695479698409659 0.6720912027221233 
Task21 0.0329730799509407 0.02159227567921884 0.2823638887398934 0.43622050911437743 0.383329460010657 0.3693478145794987 0.5612352662472755 
Task22 0.004838226747247986 0.020880424694133665 0.011931676888056577 0.0025015900199013975 0.6823407545457155 0.9722564369378401 0.3032223559231119 
Task23 0.012513642045138558 0.0691715291652167 0.004412033488427522 0.009915004200596107 0.7746071330781577 0.4642372835130137 0.9691928358426625 
Task24 0.0010444134931113177 0.002155593403628756 0.0023880887089936416 0.0004925826125345824 0.8298456305132511 0.5641836403122966 0.49094701288197795 
Task25 0.058568504807686966 0.41834880710483446 0.1785419155572904 0.020815905443258537 0.45741668773602306 0.8824115368155767 0.8140224718148041 
Task26 0.026382337631053986 0.20843813153084717 0.10958417180751598 0.24113718903982725 0.9566634710657496 0.807464210880054 0.5872693999348073 
Task27 0.1082048987975631 0.29116599077239624 0.07144857051341168 0.18395879665752823 0.9581698275428463 0.6725795347656496 0.7414789282807633 
Task28 0.03501503900592447 0.3328812024820958 0.22073867362578337 0.20892236071580608 0.9618160165159462 0.8654872103431968 0.48518585385816165 
Task29 0.054660197304935466 0.1692374288093523 0.24999551693992395 0.20185526862127415 0.5728329847518905 0.7586705869579333 0.872841020607174 
Task30 0.11502644299866885 0.23314162376691827 0.20976847274106247 0.07334744510202622 0.9831604769969831 0.4535536746536792 0.7514582600050256 
Task31 0.042890103524116104 0.12089773918068437 0.07830719249563589 0.14958865228075038 0.5950676421485996 0.4738454845054914 0.3113816811772169 
Task32 0.030026711560087006 0.1261414841746384 0.07642534611935974 0.050785465935679536 0.6453578157042451 0.6257095752006335 0.3891291759303254 
Task33 0.051757534526914346 0.13054741927717672 0.02509779075820729 0.19124122312913347 0.392158411880367 0.8297318859312952 0.364155329344226 
Task34 0.013725815386926564 0.14076920541608223 0.11998472676064033 0.012786542109851598 0.6096822144783475 0.6633289656338767 0.5391687516217899 
Task35 0.01063994817898021 0.01125296104095928 0.034483559971636095 0.04673871471916989 0.4137843481087936 0.81378205733702 0.4378150620959011 
Task36 0.01676669550048038 0.24778753534473094 0.41850672297970715 0.0047042086664354985 0.8927116284143302 0.591093369902892 0.38389857843373754 
Task37 0.009010878623337909 0.013741292323598855 0.028693853758912313 0.014320047431054474 0.43967217522530533 0.8441628398243768 0.4268705724362255 
Task38 0.0816237525404975 0.27039166670704445 0.12832350296508802 0.4207541953932159 0.333792636331616 0.47059797908587686 0.7866808750520542 
Task39 0.018316178058975927 0.0004803156705307784 0.09398114618945336 0.035454014927575044 0.8091333596944974 0.748723323264259 0.7245931746627012 
Task40 0.07061225734943298 0.30599831358160756 0.19111862085326706 0.3976468070682535 0.30764108304789656 0.9151318128843839 0.9519755860155421 
Task41 0.0023442614195827946 0.037909393338635244 0.016656966285253698 0.11346347609515521 0.6765168230624873 0.7228051944480822 0.4067056383987352 
Task42 0.11367205216255985 0.1589468431064909 0.2177110124902445 0.3595608626099235 0.7930477610651046 0.3899938170167196 0.5245137969605796 
Task43 0.010581274611684198 0.07179668693960477 0.047338321081483455 0.0003463045825421962 0.9073823289926561 0.6159071543172752 0.767544554166504 
Task44 0.07733435508666488 0.06017831869643569 0.19460140986463087 0.2680190196643386 0.8971074535468435 0.9113774736548745 0.872762510063408 
Task45 0.04457470246477083 0.0994936132898964 0.10070481277392604 0.05316206692557288 0.3199998982151288 0.35298652768220745 0.925093599215328 
Task46 0.06847758089389974 0.2445293726012553 0.16486040814239386 0.10616262553180691 0.405069516411074 0.3408672539300208 0.8562033173038504 
Task47 0.006152470308520762 0.11550487244032014 0.10002171483563742 0.013326490308505011 0.823765616665717 0.5936718598165613 0.5805463508057227 
Task48 0.002281879653587994 0.11410563861693353 0.009407377779739877 0.06060657502474477 0.44036719243911093 0.9774358701486958 0.9836446677814237 
Task49 0.0228779131427161 0.024067788645068186 0.04499629012963059 0.03818159715902418 0.8118051469418077 0.8655562656910061 0.9401255252050269 
Task50 0.04417939654805809 0.09637244268711101 0.07655080319132943 0.026327452496199992 0.39380957443120634 0.3442832490957662 0.6287506173982308 
Task51 0.001999679964312583 0.19378846826015664 0.10450085874094198 0.35382775372698977 0.38848756821434505 0.7654532556502793 0.4454902619612633 
Task52 0.07781922718138237 0.3500021461917341 0.0754897726915886 0.15736196034499367 0.7435566314552908 0.545552573735235 0.761782871104836 
Task53 0.06243075550229939 0.507307955092087 0.23945680964438845 0.1514456173849908 0.46825361389401754 0.4368552847666168 0.8209989643804956 
Task54 0.018487725201113418 0.046706728576517385 0.08722382988015517 0.03602549110200337 0.40253241091545694 0.4318601208013404 0.5667103565230596 
Task55 0.07364822273373348 0.1767737959691399 0.1961731719318331 0.050890722440644236 0.6214036290813804 0.7961931376121428 0.5917043143082249 
Task56 0.04370253745597831 0.10572799146518909 0.038873444853302665 0.08387518327359529 0.8726294564761843 0.4948110399998382 0.5806610526795999 
Task57 0.1524398278023448 0.13233472068347732 0.24742509373768698 0.37865776669660983 0.6479120908255149 0.3696950664615203 0.4085564232825339 
Task58 0.022568152683734136 0.03303463332795227 0.10550881859356624 0.33530610240944925 0.734636620281147 0.8999163635864269 0.43357528751481605 
Task59 0.1214618924657136 0.20145050026315667 0.2838662885622337 0.15914780792657696 0.6877744135375022 0.5392006693272314 0.6055779022568855 
Task60 0.01743487639530341 0.5254029637169974 0.06961835625181438 0.12917387833811697 0.3236472266376316 0.3794894902345056 0.7147056061763907 
Task61 0.0343942700032685 0.1748826512661662 0.1823126638461917 0.14209065965837286 0.3607731614687687 0.4218783906994544 0.5005640491833663 
Task62 0.010512727668445758 0.3062098546680222 0.15106103858333236 0.22599547530298103 0.33705902259553705 0.44730286458856205 0.6612312550675684 
Task63 0.18807197373452228 0.2966169750878303 0.20997602235892257 0.26266492564860683 0.5325028538062901 0.6486156723939802 0.6730547154507669 
Task64 0.022310786375745104 0.24977966949720654 0.1040727240032296 0.29673210103803915 0.3320299117534599 0.438968299052229 0.39077676891336055 
Task65 0.050230737544975985 0.41965069434241287 0.1792941748391145 0.3199925048955971 0.4093141062491104 0.7069631263743733 0.36607277765228746 
Task66 0.06408422097040699 0.20989845573025076 0.3923961450879614 0.3025296394783331 0.377573695933301 0.8974684646309496 0.5620524451421613 
Task67 0.05714677847125894 0.21894306194245428 0.2530951804930425 0.23475824965052713 0.6489881051202078 0.9679156669603428 0.9519350773745419 
Task68 0.1393759264819011 0.30398949674149855 0.5365477134612779 0.012173689712637643 0.941737263410827 0.5257054281216134 0.4919171945310823 
Task69 0.03126139528244407 0.18213419969947686 0.2903808274187552 0.22676247275977515 0.7264801984357614 0.8255349392275961 0.3222480262889639 
Task70 0.039536712766028145 0.0506243012132093 0.2192945425831013 0.0909866700500828 0.5552050037787429 0.5633180284266931 0.5378400139186166 
Task71 0.007167343838386654 0.01730764377040826 0.040594628022850084 0.015730786793763652 0.3405024963245755 0.9746497851413543 0.5451517841075831 
Task72 0.01677076039627261 0.45772395865197096 0.03065785846740079 0.26143545285386904 0.5988743488807545 0.8946206519870716 0.3606417310904979 
Task73 0.002000837779510795 0.056850614967567485 0.15174991490989487 0.06585237312456857 0.9360600503128034 0.7286594465023064 0.6622952571929956 
Task74 0.08017325203186075 0.03286924602463671 0.4907992234186464 0.3132695226824765 0.4130891706063674 0.9016775479697452 0.7590861093104228 
Task75 0.19644921326246698 0.22325029101048174 0.36951962086103846 0.19879368457145952 0.5797641105630744 0.3948064965807006 0.4976887944041204 
Task76 0.024764450444381556 0.12110299634118117 0.0610446257308121 0.014623236667768174 0.4579155620013391 0.4716876394861006 0.5805145502429512 
Task77 0.0013992470386791924 0.11486488661511947 0.09679174308066928 0.0234970524397636 0.4825524604281686 0.47294455813288266 0.645551668358433 
Task78 0.015490714251384133 0.29448701877627603 0.32918373640332965 0.15127414507983275 0.9035770134980343 0.9216534584926184 0.958866414402715 
Task79 0.06009766314962325 0.10411649219070945 0.01515699714634531 0.148773394679788 0.6471028016549619 0.8803885147651265 0.6248113446498924 
Task80 0.00677209868218188 0.005432869567608115 0.017367448682576968 0.028412035305685517 0.6455122809976492 0.8723814702581358 0.7653557669147678 
Task81 0.08403675207153674 0.02843388000814403 0.3255355437468731 0.1065252767567013 0.3203307424915956 0.9976059333075171 0.6582149926085288 
Task82 0.05588331235511241 0.1182476186018101 0.12228621161913018 0.004503134543989299 0.6745423687774684 0.9337985319071254 0.4638155499928909 
Task83 0.08140215207621497 0.13528533262664677 0.13867536868021696 0.11107970517220257 0.4827746865663885 0.3243344934949535 0.5376044766512604 
Task84 0.009496424871657286 0.0187216582844002 0.025462311939933722 0.012733006361295493 0.48659285036576044 0.752201403071045 0.5220997370967674 
Task85 0.09710935467023007 0.16172038134820252 0.606299994899532 0.10990121745276492 0.9634766187670463 0.8773260826186937 0.8071475253420275 
Task86 0.14379297538318261 0.30375588434348544 0.13388479353401828 0.29979120581644253 0.4647113344625957 0.7825493457434071 0.40246627373586985 
Task87 0.007312444827816247 0.10465479209046089 0.15721911404942085 0.08634133521429334 0.8781529747079799 0.8446096989988956 0.6954118997852836 
Task88 0.11987629085059796 0.3077429021079887 0.17337510434305245 0.034461315390257145 0.3015437332065098 0.5666785125858032 0.4912158678886872 
Task89 0.039632721036311463 0.33163350450981466 0.32063125259858954 0.10389561558390133 0.8230431766190751 0.8775720577569337 0.5024693545630328 
Task90 0.09063746279244304 0.2230134681355215 0.11382479907972316 0.12546869692307502 0.8488493584617784 0.36336710512181275 0.9812833761939954 
Task91 0.004929307371440764 0.12036016249432381 0.0787093105570535 0.05534772012579336 0.33698155870411134 0.816798834087761 0.7148736422382678 
Task92 0.02572575575204754 0.06422196141170598 0.022974860740235414 0.03115867377640693 0.631846216187004 0.966333815940045 0.7727375595426835 
Task93 0.04395530516178533 0.02683383904975895 0.09709316758140875 0.11618873603221243 0.8622017819658683 0.45086731822136894 0.7540921568884378 
Task94 0.034526487878708066 0.05476192978348816 0.583269971437123 0.22749616614370877 0.5812707542237467 0.839109040006381 0.8853549480513707 
Task95 0.07598679604401046 0.07194614737204498 0.2867569477536098 0.060661294069537554 0.6803034196914557 0.6711670250069668 0.6141695224756898 
Task96 0.016786982681197552 0.20084944105756247 0.01558793682884427 0.13939980609186828 0.5553478521518819 0.5405642820459229 0.7806816445989664 
Task97 0.027886985063753984 0.35006457829996035 0.09484039851664108 0.22784511815196457 0.9832285403999537 0.6931825474646223 0.6904589016489346 
Task98 0.06546028988549338 0.24243704735238433 0.29747985250690634 0.0015678930600577683 0.96958119995514 0.6090883188612036 0.7570785581450232 
Task99 0.04243885706666118 0.07085642305181879 0.07583792012416177 0.03355575327135348 0.8409568847455118 0.6143252216004861 0.5465117108777053 
