Task0 0.004814167003316284 0.2437031364695514 0.2559452329843645 0.38701686298146454 0.8202411473941227 0.8285403892061529 0.6839118392071543 
Task1 0.009031730793616348 0.10357369627116858 0.03358190391021936 0.07060394104231235 0.718005785270273 0.7612942499642903 0.3512780657583594 
Task2 0.14570190492665372 0.40821524391541136 0.3069316747067532 0.06690330080406001 0.4614836937889939 0.4498316534718508 0.5171745717765175 
Task3 0.019851918436840477 0.027894234303338667 0.20275708080820343 0.19029817970749086 0.3928027384208403 0.8838911586505638 0.325394687819272 
Task4 0.06922288883816952 0.04462379912031089 0.14321777651452766 0.22862190527170195 0.47471937912240103 0.6470051648052464 0.5994334814193483 
Task5 0.05221113110158306 0.09754173347664019 0.18471000311138375 0.013904765135614814 0.5337215032940885 0.862961244089987 0.3860539162762217 
Task6 0.027077081262759296 0.14313692081270607 0.17048395060206517 0.254004946813323 0.38875959223581563 0.7522820334508182 0.3117003792975052 
Task7 0.015480457143972457 0.18102406589392014 0.15185507021413286 0.4108045615615214 0.851313370926585 0.6866132056153487 0.31733753344842847 
Task8 0.018485739727538843 0.09008226274680428 0.015295556236687331 0.11790002543171235 0.6714889038772656 0.4727909024904503 0.83669232652456 
Task9 0.054908317057191194 0.1321134263029715 0.0460128279665479 0.19450681400498368 0.8316192643795066 0.4733127494355721 0.5576558554467002 
Task10 0.003424505474314553 0.008418647917994886 0.02087173709815922 8.664272893915505e-05 0.8470447291509011 0.9959544605156938 0.45625475174009616 
Task11 0.09599911683431807 0.09372848235919486 0.2709982514076673 0.08443092628963285 0.9744948084923641 0.6124314710031094 0.8634775008827185 
Task12 0.01687225003680909 0.03312783786059227 0.10968515105938269 0.18893177923655818 0.853401270595403 0.8775251087396418 0.8545516849703909 
Task13 0.16841604462143311 0.41488937265933135 0.3005735486147857 0.043512256446961266 0.9799602437261015 0.7970611497837079 0.9249388757864012 
Task14 2.320157160246282e-05 0.0009554556374439392 0.0002808340288325478 0.0003015896624816064 0.889643784218141 0.35308897541270695 0.7655780233239546 
Task15 0.0005816400286433209 0.0016023022235445608 0.0008140420762460038 0.0019572644157969258 0.7255537362223421 0.7485235951817379 0.4666223988934285 
Task16 0.007536146239015794 0.04166103259925014 0.015812692851060402 0.14191219960548165 0.39115624144642513 0.40153941625780554 0.459003046365539 
Task17 0.044254225540731676 0.3410360265586601 0.12836711063014258 0.27498265635016667 0.41843350736238705 0.5328147874414144 0.8898058285929165 
Task18 0.014288235171310821 0.11588101574301411 0.35250581650812424 0.18437972829517796 0.553550327800359 0.8133554683559872 0.5410772284541577 
Task19 0.0133360849521332 0.1556429403548607 0.2750833439210284 0.28843963419322693 0.8368376664087 0.4312088685669302 0.3059448135271436 
Task20 0.09746068939191198 0.02850659274308254 0.4388971508138367 0.3332476133873536 0.7787374266803244 0.8448247981934465 0.6494816358613988 
Task21 0.01863936281315138 0.006219110949175997 0.05748191673024443 0.020162593444277715 0.722603808284767 0.9344060558256426 0.343980243747177 
Task22 0.02682007751584686 0.012743692734102845 0.04607126559005961 0.07511446865008044 0.40735529067677373 0.35357495335498623 0.37433958419277313 
Task23 0.17024365038484476 0.3495622148488525 0.34084817532578604 0.05831558104963645 0.5022298878552885 0.381712645266347 0.8711861683403765 
Task24 0.001475543371426407 0.07363776629716266 0.013010222853026655 0.021938831813767896 0.3563107437978082 0.7181272452374459 0.8464410482938776 
Task25 0.01585765880833399 0.09843862288410035 0.035152721629593243 0.08233805707087027 0.3960016178811576 0.9412541409782786 0.8150016233148514 
Task26 0.058098905671003565 0.11685001072587368 0.34399976101561747 0.2007870821923362 0.3252089742469024 0.46115692356501414 0.8911222386224782 
Task27 0.03233392673128921 0.03343861870680421 0.09898698324940809 0.02409966811100588 0.7173914384115319 0.614552069687887 0.7681599234349266 
Task28 0.0024982771284862335 0.028428176245593642 0.043183682868641604 0.010002851584895852 0.6077033395052313 0.39496212219574683 0.5871341973572244 
Task29 0.003983397203208264 0.01893923191153864 0.021791286374969823 0.011478084508043428 0.5500551158918204 0.7572373956971395 0.787107412512241 
Task30 0.0884556121563918 0.05097554801897009 0.5739606638039227 0.10074154393092245 0.95954067134536 0.8890551033781628 0.6927881081439269 
Task31 0.07981797944019649 0.30555882861088507 0.12572400332803338 0.03292835361251509 0.38122590453624544 0.8360819986786481 0.6922215916879533 
Task32 0.06031673312849294 0.13614864482053182 0.3645568133046322 0.2529806859621165 0.645986903624528 0.323629485570707 0.31872064910420306 
Task33 0.011557291588679167 0.19871221632775993 0.05405293987354056 0.03606986911789448 0.7964986335759188 0.3483096021120901 0.4796182948464834 
Task34 0.0020843228844012146 0.23027066486253103 0.33027931666644617 0.01043125990928666 0.7212360515922399 0.3806855092638126 0.5444380493969724 
Task35 0.02393165482292623 0.29208712386810215 0.16872739244573765 0.11955790545886072 0.4361295146377219 0.6505798406021136 0.8832247632103434 
Task36 0.08254451877127807 0.10299693703073436 0.2779541881601781 0.4018723787911587 0.35619214693115386 0.7919498218890837 0.6843121907758757 
Task37 0.13186975919355973 0.023043437978066923 0.4024205107369637 0.400374194782355 0.5673490964387249 0.7192412049614306 0.4482762633425018 
Task38 0.009092291672585368 0.0801755637887821 0.08291113573066906 0.05914249196113439 0.8841427904507235 0.7830503889991711 0.4375130999808573 
Task39 0.0364857161688882 0.040487948793411596 0.22469716083045874 0.18452228339549676 0.3574302662739091 0.34503452325044004 0.6884419865068201 
Task40 0.09213598390499946 0.3834445124033366 0.07745326897724046 0.19571263589514665 0.41362354522072037 0.7216099543539836 0.3440394815009604 
Task41 0.007693321215953438 0.012127260140233253 0.008101584665432081 0.011923311638286655 0.9415060291100545 0.4349209917598179 0.5584373460999399 
Task42 0.03676455215787675 0.047353692851462424 0.23480541117217607 0.05616528837432631 0.3952894713538826 0.5715644919830627 0.9408199489936278 
Task43 0.02426146995893314 0.14410801313253627 0.16190213093472447 0.23362396542277236 0.9473582839400911 0.6128125172658959 0.9516386443503639 
Task44 0.029252408153974008 0.02228375213479712 0.07597304786669486 0.05450787230252416 0.6729849722143884 0.6497923883960262 0.8995171081022504 
Task45 0.02864858717176797 0.07423909947056248 0.1364532474335478 0.03897240970357834 0.5993079089425998 0.6626253117780181 0.4165219617091001 
Task46 0.003776808693321028 0.029997873298201878 0.02163724694946588 0.010266419216101491 0.47707306630032165 0.5952771461143467 0.8128745720867674 
Task47 0.005446836636934197 0.014481867190020339 0.010556887268083586 0.011446567016863748 0.5246727611843534 0.8778734817745133 0.5288441258498349 
Task48 0.04419075745359497 0.2507315825460641 0.4780684111406311 0.06743443885983415 0.41748610186494417 0.6526527834210418 0.5908590600324414 
Task49 0.0007793864090696607 0.06326232180437569 0.2191563408604609 0.11195336647795766 0.5030385959147728 0.4341941495287297 0.8307610750850143 
Task50 0.06955881315667235 0.0008851980545808705 0.3885616718988663 0.403460832848816 0.8769718874614258 0.6825583094842891 0.4210208163886928 
Task51 0.02930766349026789 0.03481359213467898 0.059978380097835404 0.05081554512283326 0.38830819276953554 0.3560003844283771 0.45883796319236814 
Task52 0.01635411038246553 0.019796333450750995 0.057774616337220766 0.06831583647733346 0.606663749386098 0.42970608524086795 0.986751616089347 
Task53 0.04949146515187522 0.06347202530151298 0.1327064293514841 0.0145656563948667 0.5571960853036663 0.7960872666424987 0.41202856936286425 
Task54 0.02741953669633596 0.0538370734462517 0.016281033868603922 0.08076420927607098 0.3738583142749729 0.86205817264339 0.6157108760047152 
Task55 0.019565478570974952 0.01711296422249102 0.555646893891259 0.026209153118117598 0.7378654609333748 0.5565519207887337 0.7961771968849525 
Task56 0.020770781610879946 0.13701494469286932 0.04736774928693443 0.0388219198362665 0.6674966978928596 0.40002370303078044 0.4496148100474044 
Task57 0.08354136405578591 0.25336889658861317 0.10352625506490673 0.28031626808140836 0.623734360228831 0.9977350558665092 0.4355530264198866 
Task58 0.010949113124403978 0.12415867648199057 0.33668223008779274 0.31249532426928844 0.7661550997836069 0.9027301288488849 0.3416798487368146 
Task59 0.09872592360155596 0.3170996098727858 0.15853264040457046 0.04016790124777447 0.6657864088518162 0.5748778930749392 0.7393922365948074 
Task60 1.6294180611182928e-06 0.0006663789478621447 0.0005545387102769176 0.000536727586410319 0.4766655740994328 0.7895263934833522 0.3089717967216357 
Task61 0.12856221528849815 0.15158546432594427 0.1465712146665274 0.2395517220902318 0.5037069481609167 0.593775630581952 0.553292389599327 
Task62 0.003932229037004052 0.36513332602397547 0.4240017809107028 0.038709109524135275 0.39554349960073665 0.7770636614945898 0.9817966195243655 
Task63 0.012531250828880826 0.01747853551582712 0.026613566552477 0.012288074843649088 0.3774032689880883 0.9024171279761679 0.772895659952553 
Task64 0.03811187683997563 0.3614542017468282 0.08991792010356352 0.2997859091421542 0.5331607730428112 0.7350023671568695 0.440673732544077 
Task65 0.11547470158381588 0.18966462902182718 0.1727624918447686 0.13924024111860214 0.34530070259943024 0.7195893295923362 0.5693158070239394 
Task66 0.154419188196022 0.3235524768620217 0.03212146011254829 0.4359441586037636 0.44994016874780174 0.8340031546485178 0.9594973656571 
Task67 0.02494911683421992 0.07288231042470862 0.06744392857160923 0.008104571698713092 0.3318903635900673 0.7946588893868083 0.6797951682157191 
Task68 0.01648842363134536 0.06839306234152515 0.09826438118361963 0.06889476575367764 0.6567813805486039 0.5808861339600464 0.7254234908312926 
Task69 0.06097739425901693 0.08633770724669357 0.1309242837355853 0.04358130875822821 0.6959221421792903 0.6661768164730426 0.730770316797984 
Task70 0.0020476285761818302 0.030128597599994582 0.09232833440859162 0.004553822419221508 0.7328324285807408 0.9816352223341551 0.331096649773867 
Task71 0.017485894138428396 0.027907929599304347 0.029929713813052185 0.03873557984025953 0.4018323684570459 0.6950290157069057 0.6640476889526206 
Task72 0.09074664642599176 0.5160963591469175 0.1672052910565929 0.12236752932394515 0.3844345888280304 0.9103011074253813 0.937992735366354 
Task73 0.028398742758041134 0.19028355896046845 0.2769260462315625 0.1041980308049378 0.5919869354314923 0.4048134157897622 0.723788351035719 
Task74 0.003993018979880829 0.010097829913386461 0.008719219786716158 0.004875344113736273 0.39169483673768735 0.3454154375872418 0.6811306591567408 
Task75 0.019720778063484337 0.025637253369366005 0.10623069969769615 0.01014792998539328 0.8620584109598421 0.6505433228297379 0.3084963965551689 
Task76 0.027700439613746988 0.19322496381904133 0.1727584968453946 0.0617767205078932 0.5631219082354102 0.6656157984245876 0.30104960944024617 
Task77 0.035485538364186504 0.07847254578061218 0.25534659871024745 0.01530224589686446 0.5253733314831728 0.6031490966137878 0.35688954958411895 
Task78 0.01788728531517335 0.035776633857801575 0.056131240484349296 0.01467262903324017 0.9221259016952421 0.8296941978252723 0.5780926249588481 
Task79 0.058992790702566494 0.20343315074322532 0.5599683001194953 0.022906699082450403 0.7108123687019557 0.8930862282997745 0.9819196810930246 
Task80 0.06563133001167469 0.2123893919517063 0.27410494470707125 0.09888831958297038 0.5420913184922217 0.8819460663685104 0.31953007116467264 
Task81 0.016069232415883875 0.5244715374549779 0.05777190072370239 0.18734645654861531 0.3793805375404867 0.8218819419152485 0.792794610798043 
Task82 0.02059078995736342 0.9095452664410704 0.007225839078929208 0.024595273931676386 0.4753382708461168 0.4084872991033241 0.36160183846241706 
Task83 0.07478558664642751 0.17247048718473332 0.12262081207545147 0.06082202810538895 0.782273755241926 0.6431801907813981 0.8768786976484177 
Task84 0.0316605892501516 0.14068144456164242 0.20918045591807455 0.19799504940988324 0.53895822945755 0.7589880598284691 0.9739038508511797 
Task85 0.009423273061874645 0.11838118279969624 0.05863882767200257 0.0847897417787888 0.3926710969792868 0.3924541344168331 0.604740672198006 
Task86 0.12427794512139156 0.23773160238950636 0.39315525583267474 0.06078852860759061 0.43004914931769767 0.8858117252088864 0.7866683652786121 
Task87 0.17775405997126761 0.21357796588773892 0.2035582140816408 0.39618661173652575 0.5594127241597024 0.7665866974336684 0.8044415054985108 
Task88 0.012632831538379873 0.023983133832476706 0.02732762836846546 0.013659909822830808 0.3590378899341071 0.4640676934201686 0.39336791227722057 
Task89 0.05225145909546227 0.15096524718622384 0.09721754430599 0.05572760964249307 0.41444873023016443 0.6482929494470817 0.313105695033011 
Task90 0.07545829287232729 0.3680390717511473 0.11507464635665325 0.013531304029499418 0.948189458996731 0.4277087817668087 0.835335602303481 
Task91 0.005214544476466427 0.05851853690299149 0.025432560712881247 0.03654324328203736 0.9178189036491584 0.9995958250994206 0.4201672351779673 
Task92 0.04287839857066599 0.19161393890626682 0.15269569220326748 0.1571397002912429 0.790077628875038 0.8632563052227125 0.5693585119189073 
Task93 0.0010765245017563384 0.020906079165107727 0.02390738362505738 0.029110982667355404 0.5432132197897206 0.9309796062784754 0.5334421287801836 
Task94 0.10072173663382365 0.5321451438983097 0.09074476372940125 0.2747410597059797 0.5606644736291524 0.9820036899958049 0.49104589629289214 
Task95 0.1335888165031715 0.09513096953012067 0.43300332503575845 0.33661796843726355 0.49414809800552917 0.5572026242291049 0.5630127236258723 
Task96 0.04598931439127689 0.12550095359210253 0.20814245784903748 0.1044705869942249 0.8985468098720062 0.9000417048712539 0.30303586388367376 
Task97 0.07615947533891353 0.06476964892663206 0.10339167693035227 0.2680298338086118 0.33344522537718924 0.49988754030428917 0.9293429522958694 
Task98 0.10196426727437562 0.29134192667571535 0.052118775836415575 0.11021107218996133 0.4183521360830814 0.5793379282326372 0.5699448483663214 
Task99 0.028291256448891508 0.31420437968419573 0.17249171560264923 0.21703290969130012 0.9798927494481622 0.9204592215755618 0.5006958988434598 
