Task0 0.006543938189237765 0.018987700696924716 0.002187117743961409 0.020014865255230573 0.32335898743229424 0.9092105262261738 0.9921255998330551 
Task1 0.1095356254387678 0.39561123581119834 0.22999316424154795 0.1940953747865609 0.7892898697216157 0.8971706631663061 0.5123807129272808 
Task2 0.10483975391891948 0.14210913891582796 0.06885262927809074 0.4031558260331026 0.6741423200237202 0.6300282406372169 0.8539852986875713 
Task3 8.225720961578345e-05 0.12078281872031241 0.04845215562743175 0.05036320507573518 0.42046411290362257 0.8353536288689289 0.9072632856183849 
Task4 0.008820636960614404 0.11967820826488945 0.02349310247760681 0.06466346971729875 0.8492713406820847 0.6118378609262418 0.6208986817262967 
Task5 0.05062231785627851 0.3897715906994042 0.07151224571959033 0.4175754428753197 0.5122481102736582 0.7913396064403233 0.9533100775090491 
Task6 0.03701743814299863 0.1003082618056649 0.14871796312457616 0.012628443661252178 0.630397853867846 0.627332455032621 0.6399077465313128 
Task7 0.0010426649137421809 0.009681122662186428 0.00772281784523833 0.01856185170638058 0.889347968547604 0.960008598393179 0.7545017570285762 
Task8 0.049905697191286714 0.21576555292998917 0.19108125420477987 0.1465968437019599 0.580628997698548 0.725826546379641 0.6321301963984098 
Task9 0.05998221274476336 0.219611527872613 0.013564317639519702 0.04957632954657554 0.30660419639039194 0.6340919163597876 0.7333493366937915 
Task10 0.05198571607314089 0.02413131242541313 0.17014328103214624 0.1445786979983324 0.6744448289050239 0.3772838025650132 0.5783023010655215 
Task11 0.05069560320575409 0.062280086619524 0.16036318201666108 0.0005843925145105639 0.5295039484196626 0.5418258184933495 0.9285710911315335 
Task12 0.03492414727251735 0.11510203839133973 0.06697005360362712 0.018232225724468733 0.8082573166049147 0.7446822681906752 0.5657644352918757 
Task13 0.031481551646270305 0.2669322387247568 0.059669457994163885 0.30649831314343173 0.30683048350273656 0.7610875258669803 0.7720916999076486 
Task14 0.06600643644526423 0.13594723273299253 0.18279737762966417 0.21911476340211244 0.7177042790765087 0.7533112796383246 0.9865497479367391 
Task15 0.02183617014362993 0.5677630787579944 0.026989908907930064 0.0038249464935799543 0.5483068099650777 0.7591263652413239 0.7715415565569657 
Task16 0.10878633400907518 0.19837230952535553 0.18548262905889282 0.3858755906371044 0.5312306789847608 0.4394321632008457 0.5682411108582446 
Task17 0.05319424291103125 0.11780419115122699 0.18035526056872273 0.11340133888104961 0.8946541389729685 0.9523124317726623 0.9271229040871476 
Task18 0.007698993897686115 0.024549833928576684 0.10278845850301202 0.08490708169920078 0.596021755800645 0.7863450790362105 0.6912337120522567 
Task19 0.08922840333867611 0.23081182785903956 0.0937346461744425 0.13065358635852167 0.5703788526867741 0.4674036699319153 0.8047376468259497 
Task20 0.04881709437063971 0.06157776561322624 0.08741338898170939 0.11545512457821297 0.48963962967492136 0.43965297479177773 0.37328259294983757 
Task21 0.06874470603558637 0.057545808008093 0.040863305935079086 0.1821004614664803 0.9929366444290233 0.7192828412372727 0.4394971533682289 
Task22 0.028051851298733582 0.08009518035046544 0.07499710862493646 0.07400492618344627 0.4048176938023695 0.7974960945251373 0.9491751377185071 
Task23 0.009712895115819211 0.07895009319594708 0.47104833056663625 0.30452578053500506 0.51580667544012 0.6579771553463782 0.3413188881161586 
Task24 0.00042809044533013047 0.0057013832534773285 0.004427268462014319 0.0007565735611433644 0.3526999922681073 0.8369059879243197 0.5719204983155666 
Task25 0.025070086145018558 0.0195053177163518 0.04717009508041343 0.06659334397584157 0.9205375404399043 0.34755067640809323 0.3483598531368726 
Task26 0.008766912034355897 0.034490786196775314 0.01182198518917472 0.010550480144316216 0.6176592801102236 0.6760215686010381 0.942445729811896 
Task27 0.005905203246091839 0.05180758361773616 0.18474965637369645 0.04466373398596838 0.5135832285574183 0.5901016400245979 0.8933376189009608 
Task28 0.01710892901338647 0.12277332910119208 0.03224539010400573 0.17687217126813579 0.35524064942723316 0.3677199879485946 0.9908388345955492 
Task29 0.011059422321147204 0.2146851864823264 0.06486254935726085 0.15317962775897018 0.5167114005270889 0.7843301060244213 0.5122345487066255 
Task30 0.029039909933954864 0.144934562223659 0.035334784334132265 0.05252015361858843 0.8498593519113598 0.47822015870338463 0.64014052247715 
Task31 0.0007810147742653158 0.007090120996621021 0.005810076573200135 0.006250013104513129 0.3483884950756241 0.6932687222428269 0.6150680677963773 
Task32 0.07451198159921403 0.07995662026655218 0.17049232398839997 0.07467668438355148 0.7771726269997201 0.8540906677006979 0.7594711790295503 
Task33 0.047685916385152585 0.23549702727881167 0.010569380350784512 0.3176529557832081 0.3053435705094117 0.9662427189897456 0.5218574457342964 
Task34 0.008426966714097303 0.026887176180895835 0.18419865709525565 0.08289640200029162 0.8955563992115194 0.5714390305239317 0.4141999802197234 
Task35 0.08635586352887678 0.20957534837060826 0.1930629900247572 0.22577538770014274 0.9549178326005436 0.4480808785487574 0.6150930334529212 
Task36 0.05627697209797998 0.3023884077096924 0.4059705156368451 0.1919972406613723 0.7623466883367361 0.9703657845583882 0.6096945961783256 
Task37 0.1118480499146617 0.15525317554322302 0.13598208066198547 0.4286810007809432 0.42545545694161624 0.5597087676552894 0.7956994653381247 
Task38 0.11678666830858267 0.07731296163354769 0.34843052979512545 0.12797998631475319 0.40943959653768736 0.7322719475035282 0.5106937341034167 
Task39 0.05921478605922954 0.1396671021735168 0.15375200856105609 0.21282967108718423 0.5281837680180049 0.6316212614518896 0.964452283717941 
Task40 0.0013740254747175976 0.17000647478642372 0.08158073009333165 0.11650677743135725 0.8635984048773544 0.474554249958778 0.889670856875626 
Task41 0.041718300388326496 0.06389442486397817 0.08119473077066892 0.248332321442904 0.4360851314725005 0.8091658916599458 0.6604681019491356 
Task42 0.05773934164139666 0.14176348204455425 0.07511031296424726 0.23049214830668582 0.4906417757879983 0.7181862310505587 0.9716860218848049 
Task43 0.08681420632482827 0.5346210741372989 0.027901808962842417 0.12089043881096452 0.6861209539858923 0.8279251783663466 0.5117614520939484 
Task44 0.023343018811324192 0.37677830935016626 0.3282089505383882 0.13960937649011082 0.9984128916337027 0.3469464972896372 0.5573656018148873 
Task45 0.0025280688346317783 0.03673074666819363 0.024706371973134578 0.022298149163658063 0.9680366635767237 0.42758258037517466 0.9405248589963306 
Task46 0.01801663427388839 0.057395003531061806 0.04162749716107435 0.04614314621737996 0.8983163796082192 0.8420158203036463 0.8828960047389878 
Task47 0.0001181083871192716 0.0003244712871753758 0.0005868116257131432 0.00036126052317686145 0.6623148202147029 0.7956016077590795 0.49137664356404576 
Task48 0.08524400307655507 0.24497425222596922 0.12228180544878889 0.25329074745714447 0.5402814007647991 0.5914179971681108 0.8588599826909988 
Task49 0.0926511325637271 0.020030988028965697 0.23097803852774548 0.13391475465088393 0.8879056265060343 0.828559408630392 0.7799997507561168 
Task50 0.12730287671079585 0.04374700143056855 0.12726160851517088 0.4590837297900856 0.3822653401327429 0.6762089561249531 0.6624568898310472 
Task51 0.04653904017450199 0.23477078151143294 0.14336867246244145 0.06899741630573747 0.7945593048875035 0.34538307344557184 0.6030303491388419 
Task52 0.16114645092537844 0.13356415802482693 0.36665488852539424 0.18572657455571856 0.4665913387872949 0.4847746439255428 0.841754373313689 
Task53 0.019482002618354855 0.08402462153994193 0.044553650297371454 0.05996407365506674 0.31738201755521683 0.669348236840347 0.5271780841003844 
Task54 0.08330326945148991 0.11142765632129276 0.018283540501875417 0.22508887047468393 0.5459719101546721 0.8203951941766887 0.8286681050527442 
Task55 0.041820702012760405 0.009337236907554723 0.07321877490350827 0.08824503097239478 0.4523996502578877 0.5705228804296112 0.8797840624478988 
Task56 0.10882059222494807 0.16233598909860994 0.20900914827668904 0.17004564807844505 0.9832912915780512 0.6270896667041939 0.9207035612658467 
Task57 0.12752624263789009 0.09854992010222328 0.30507042269317663 0.37614799473102395 0.981889940440428 0.48910902121230115 0.5563065364408201 
Task58 7.332715541885218e-05 1.425594608089467e-05 0.0003069422315514502 9.330090028867494e-05 0.9276707087036682 0.3131333813132415 0.7625466706149614 
Task59 0.014428983125157406 0.07158344960379648 0.32895932271037664 0.2872218073924802 0.8350516888591724 0.35871848278315993 0.6175014867817867 
Task60 0.007081680186346847 0.028406347861896553 0.02559460121009247 0.027886076855030292 0.7419838605703136 0.34516380871364366 0.9227498652787607 
Task61 0.06887289716642335 0.22776611151523973 0.09668996166290152 0.12169844212333368 0.886216394671465 0.7560858393797427 0.38519923655657157 
Task62 0.035744092430896705 0.05594207469869103 0.20925181551208766 0.21087299959606234 0.7840965805979324 0.5798581167906048 0.7552346305594202 
Task63 0.012894187721842927 0.19971131151549545 0.17166110340691543 0.041097279349434114 0.5455384523157776 0.36179275466075944 0.4966981117159878 
Task64 0.06313907713453479 0.10410250868619154 0.21593654134594642 0.2157751239092129 0.6735754461118884 0.573803606246506 0.799827181491499 
Task65 0.04154503960588052 0.04466771258848719 0.11674079507989917 0.0693690535563178 0.4453816581871281 0.6693129422394034 0.971788815708043 
Task66 0.05387751649205346 0.1776059709410588 0.03635815182668428 0.08010770145049963 0.5558795389594754 0.4342603121432739 0.6982725605711007 
Task67 0.10481825071975116 0.2540280857522615 0.08641026531230177 0.1802850164174036 0.5857539933835448 0.9294612806328362 0.4719508785063069 
Task68 0.002383439476215237 0.0036354801457536673 0.0077239171928570145 0.0006563705998785433 0.7589208504105889 0.9211156426874174 0.6630628475738047 
Task69 0.028065933746703717 0.1097526664302866 0.18265232873846793 0.10211210093828084 0.5530929040669674 0.32148240507064973 0.3010510912944913 
Task70 0.044893933041423716 0.1524631545305202 0.1482716910236425 0.1451429625203067 0.8859547149458795 0.5510792383351274 0.40588309413451057 
Task71 0.0021807863480254605 0.00591376401521702 0.014916796883573705 0.0044497532506520086 0.6015071017035125 0.9257268467867426 0.5017173782969415 
Task72 0.16402872637831567 0.20995078556582009 0.14082088321217212 0.4709287451056637 0.5872230278289571 0.9000408004525298 0.982411386300353 
Task73 0.0932453465448039 0.23785585857596409 0.49238086775327755 0.17253213084934904 0.3542486018814373 0.9886691048086245 0.8251864336083632 
Task74 0.01811978907569051 0.027658990013488607 0.03175684992388091 0.01849717374063615 0.42071689897227443 0.6851411548015921 0.45057604815946295 
Task75 0.043800928587328314 0.2419758929292308 0.24437622541468076 0.28753875045052785 0.4609158845870862 0.9280859781509418 0.7352178293056904 
Task76 0.031245432889949694 0.04695260934757406 0.09628121445976112 0.012589253703364204 0.9372868342219869 0.7909516972026294 0.4529536321527825 
Task77 0.014784969381290052 0.015647435910076772 0.4987347209307419 0.03574412361700914 0.3838448251599623 0.7902945420447214 0.5308777395949407 
Task78 0.1589333447534196 0.25128622230595404 0.21435950814732838 0.2749094815391208 0.5855375218924808 0.7209064333248829 0.371434859393332 
Task79 0.06950200603107363 0.5224977973493946 0.04070425787618835 0.36656670725897805 0.8295878956371117 0.4355934139593113 0.9569372015971644 
Task80 0.0526951554659325 0.08058258658589626 0.39169765076798946 0.21051260678856737 0.4055237327075081 0.3130461523572918 0.6201675282997499 
Task81 0.05335193373219589 0.29034882689469094 0.047152468798048054 0.12592795761661524 0.8391042955978654 0.7170056163182932 0.9301726080296455 
Task82 0.09362574492187793 0.05493638483669491 0.3120468145644669 0.34091956798643064 0.8369963775691496 0.3022847529345077 0.7127640987936332 
Task83 0.05850198110613119 0.15149151435783867 0.20074149669631516 0.19256396799874623 0.304719789302933 0.5444658235377526 0.5617263071273297 
Task84 0.006031958421068445 0.04430333195688862 0.06444940770525792 0.046595008490610726 0.8620167380903483 0.5402171750303919 0.6923774688970388 
Task85 0.00033454332565829685 0.0016408701287970555 0.0003873269097883544 0.001342702957567179 0.7344429708357403 0.7580224620156888 0.7409843808334544 
Task86 0.004278243833397885 0.002054958115042734 0.029858594393421516 0.0005624425517457073 0.8555791594182225 0.586004147962323 0.9456930096548979 
Task87 0.008196594924643051 0.0562052886965716 0.02150496704656187 0.04747938254150947 0.44076995825072796 0.883373207009275 0.622991362113466 
Task88 0.008807845828317132 0.02450380790578785 0.03168679161208126 0.028856094074403066 0.9352441057474488 0.49954590769955626 0.4244493082525477 
Task89 0.05119046688521134 0.25426683289148616 0.3558289348908582 0.24328610683605223 0.6281507866264844 0.7457753224642371 0.6148204154849544 
Task90 0.003542676892517476 0.01888786325856273 0.00019529368717056085 0.012832897813202977 0.530370018795107 0.9139531565878212 0.38258936800530025 
Task91 0.013760261687140415 0.07298372946260683 0.1002631623981205 0.07120765547195769 0.6901549582869146 0.31305333219153747 0.7575099830040779 
Task92 0.09193700203511908 0.3015648729575288 0.12152228842634223 0.03646556378984669 0.48680132491253814 0.671618867080444 0.4869748026443012 
Task93 0.004741487602665891 0.07501284006059057 0.06591644388233335 0.0539721281775798 0.989291022237587 0.8711739956620879 0.38593624121725634 
Task94 0.007767231274348135 0.1328587101414408 0.019729391452967093 0.09106784682364442 0.6254259441422183 0.6605081652523526 0.44464318575323647 
Task95 0.06484476701024339 0.12740298082261683 0.07134898167564872 0.1218111369587165 0.6215651406220725 0.6244713880912893 0.530132264219868 
Task96 0.022486448880182353 0.07597795918893721 0.05344024017157539 0.03393336366252894 0.36887389381029545 0.42498145908916896 0.7359267932243896 
Task97 0.05692346487149197 0.07730600354512196 0.11909636643926531 0.060060264366616586 0.6207192895905295 0.8215619860213703 0.6627569790652488 
Task98 0.005090896533050571 0.027240474269598428 0.10461762286326197 0.06992304030095796 0.6237786110190536 0.3707459108784061 0.5618014328261343 
Task99 0.13552677622514317 0.24268695979319244 0.10248255500211742 0.3476994394605297 0.7647677853089789 0.5194682940460569 0.7345572829503283 
