0 9
0 13
0 14
0 16
0 16
1 10
1 14
2 13
2 16
3 12
3 13
4 9
4 10
4 14
4 16
4 17
5 10
5 15
6 12
6 13
6 15
7 10
7 11
7 12
7 15
8 9
8 11
8 12
8 15
8 16
9 19
9 21
9 22
10 21
10 25
11 20
11 21
11 23
11 24
11 26
12 18
12 21
12 24
13 22
14 18
14 19
14 20
14 22
14 25
15 18
15 21
15 22
15 22
15 23
15 24
15 25
16 19
16 25
17 19
17 20
17 23
17 24
18 27
18 34
19 27
19 28
19 31
19 32
20 28
21 28
21 29
21 30
21 33
21 34
22 31
23 27
23 31
23 32
23 34
25 27
25 35
26 31
27 37
27 40
27 41
27 42
27 45
28 38
28 42
30 41
32 36
32 37
32 40
32 42
33 38
33 41
34 36
34 39
34 45
35 43
35 44
35 45
36 54
37 46
37 47
37 52
37 54
38 51
38 53
38 54
39 54
40 46
40 50
41 55
42 46
42 47
42 48
42 54
43 47
43 49
43 50
43 51
43 52
44 46
44 51
45 47
45 53
46 56
47 56
48 59
49 58
49 63
49 64
50 59
51 60
51 62
51 63
52 61
52 63
53 56
53 57
53 61
54 61
54 64
55 57
55 58
55 61
58 65
58 69
58 70
59 65
59 67
59 68
59 70
59 72
59 74
60 67
60 69
60 70
60 72
60 72
61 66
61 69
61 70
61 71
61 73
61 74
62 65
62 68
62 71
62 72
62 74
63 74
64 65
64 66
64 68
64 69
64 73
65 78
65 80
65 82
65 84
66 75
66 77
66 79
66 81
66 83
66 84
67 81
68 76
69 81
69 84
70 75
70 77
70 82
72 84
73 75
73 81
73 82
73 83
74 77
74 78
74 82
74 83
75 85
75 86
75 87
75 88
75 93
75 94
76 86
76 91
76 92
76 94
77 85
77 86
77 92
78 85
78 91
78 94
79 89
79 93
80 88
80 90
80 91
80 93
81 94
82 85
82 86
82 88
82 91
82 94
83 88
84 86
84 87
86 95
87 97
89 99
90 96
90 97
90 99
91 97
91 98
92 99
94 99
