0 10
0 12
0 13
0 15
0 16
1 10
1 14
1 16
2 13
2 14
3 10
3 14
3 17
3 18
4 14
4 18
5 10
5 11
5 14
5 17
5 18
6 11
6 17
6 18
7 13
7 18
8 11
8 15
8 16
9 16
10 23
10 25
10 26
10 26
11 23
11 24
11 25
12 19
12 20
12 21
12 23
13 21
14 20
14 22
14 27
15 22
15 27
16 19
16 21
17 20
17 21
17 22
17 23
17 24
18 19
18 20
18 23
18 26
18 27
19 33
19 36
20 29
20 31
20 35
20 37
21 28
21 34
21 35
22 28
22 31
22 35
22 37
23 31
23 35
24 28
24 29
24 30
24 37
25 29
25 30
25 32
25 37
26 29
26 30
26 31
26 36
27 29
27 31
27 34
27 35
28 39
28 40
28 41
29 39
29 43
29 45
29 46
30 38
30 39
30 44
30 46
31 40
31 42
31 44
32 39
32 40
32 42
32 44
33 40
33 46
34 41
34 43
34 45
35 39
35 42
35 44
35 46
36 38
36 42
36 43
36 46
37 41
37 42
37 43
38 48
38 49
38 50
38 53
39 47
39 49
39 53
39 54
39 55
40 48
40 53
40 54
41 47
41 50
41 54
41 55
42 48
42 50
43 47
43 48
43 50
43 51
43 52
43 54
44 47
44 48
44 50
45 49
46 49
46 54
47 60
47 62
48 58
48 60
49 57
49 60
49 62
49 63
49 64
50 65
51 58
51 65
52 61
52 62
52 64
52 65
53 61
53 62
53 63
53 64
54 60
54 62
54 65
55 56
55 57
55 59
55 60
56 68
57 66
57 70
57 71
57 74
58 72
58 73
58 74
59 72
60 66
60 67
60 68
60 69
60 73
60 74
61 66
61 72
61 73
63 68
63 70
64 66
64 68
64 69
64 70
64 71
64 72
64 73
64 74
65 68
65 69
65 70
65 70
65 73
66 77
66 77
66 78
66 79
66 80
66 81
66 83
67 80
67 81
67 83
68 76
68 78
70 75
70 77
70 78
71 75
71 77
71 78
71 82
72 80
72 81
73 79
73 81
74 76
74 77
74 80
74 81
74 83
75 86
76 87
76 90
76 91
77 84
77 88
78 84
78 86
78 90
79 86
79 92
80 89
82 85
82 86
82 89
83 85
83 86
83 89
83 92
84 95
84 97
85 96
86 97
86 98
87 94
87 95
87 96
88 95
88 97
88 99
91 96
91 98
92 93
92 94
92 97
