files/tasks_parameters/ExAp01/sample8.txt 0.94354 3.15778 1.5595 0.203411 20.2699
files/tasks_parameters/ExAp01/sample12.txt 0.898501 3.94962 1.6705 0.207924 20.7196
files/tasks_parameters/ExAp01/sample2.txt 0.881278 3.78275 1.74131 0.200098 19.9397
files/tasks_parameters/ExAp01/sample44.txt 0.855113 3.59825 1.65317 0.200005 19.9305
files/tasks_parameters/ExAp01/sample27.txt 0.814543 3.45743 1.5148 0.182129 18.1491
files/tasks_parameters/ExAp01/sample17.txt 0.735023 2.77299 1.44514 0.14646 14.5947
files/tasks_parameters/ExAp01/sample9.txt 0.753814 2.99933 1.451 0.177444 17.6822
files/tasks_parameters/ExAp01/sample34.txt 0.687155 3.02928 1.58429 0.157984 15.743
files/tasks_parameters/ExAp01/sample40.txt 0.725211 3.86889 1.52122 0.168379 16.779
files/tasks_parameters/ExAp01/sample33.txt 0.929996 3.63695 1.71905 0.199765 19.9065
files/tasks_parameters/ExAp01/sample48.txt 0.734422 3.39061 1.49062 0.154728 15.4186
files/tasks_parameters/ExAp01/sample29.txt 0.842923 3.30472 1.38739 0.223868 22.3084
files/tasks_parameters/ExAp01/sample11.txt 0.787676 3.10585 1.41612 0.174079 17.3469
files/tasks_parameters/ExAp01/sample14.txt 0.688182 2.70971 1.43432 0.162214 16.1646
files/tasks_parameters/ExAp01/sample0.txt 0.809515 3.6937 1.5439 0.18367 18.3027
files/tasks_parameters/ExAp01/sample7.txt 0.738398 2.70501 1.42221 0.143463 14.2961
files/tasks_parameters/ExAp01/sample23.txt 0.749145 3.2697 1.57822 0.181448 18.0813
files/tasks_parameters/ExAp01/sample13.txt 0.866722 3.84225 1.67648 0.198247 19.7553
files/tasks_parameters/ExAp01/sample22.txt 0.682688 3.09569 1.56121 0.148796 14.8275
files/tasks_parameters/ExAp01/sample25.txt 0.676279 2.73966 1.5007 0.148149 14.763
files/tasks_parameters/ExAp01/sample36.txt 0.615755 2.85948 1.28553 0.130042 12.9587
files/tasks_parameters/ExAp01/sample46.txt 0.881065 3.58643 1.69998 0.210103 20.9367
files/tasks_parameters/ExAp01/sample31.txt 0.77415 3.4832 1.53782 0.1722 17.1597
files/tasks_parameters/ExAp01/sample37.txt 0.782444 3.95293 1.50705 0.171701 17.11
files/tasks_parameters/ExAp01/sample16.txt 0.691803 3.31216 1.30115 0.150249 14.9723
files/tasks_parameters/ExAp01/sample10.txt 0.756825 3.17098 1.61789 0.153776 15.3238
files/tasks_parameters/ExAp01/sample39.txt 0.764388 3.26617 1.44406 0.165669 16.5089
files/tasks_parameters/ExAp01/sample19.txt 0.902415 3.63532 1.52509 0.196094 19.5408
files/tasks_parameters/ExAp01/sample20.txt 0.618924 3.20793 1.25367 0.147335 14.6819
files/tasks_parameters/ExAp01/sample43.txt 0.679355 3.11551 1.4202 0.150644 15.0117
files/tasks_parameters/ExAp01/sample32.txt 0.712551 3.5311 1.42482 0.168744 16.8153
files/tasks_parameters/ExAp01/sample45.txt 0.906422 3.80283 1.48324 0.19807 19.7377
files/tasks_parameters/ExAp01/sample26.txt 0.712006 3.21645 1.29701 0.166061 16.548
files/tasks_parameters/ExAp01/sample5.txt 0.81165 3.5889 1.52559 0.178903 17.8277
files/tasks_parameters/ExAp01/sample21.txt 0.872316 2.75242 1.55936 0.19512 19.4437
files/tasks_parameters/ExAp01/sample38.txt 0.71826 3.31563 1.37515 0.166157 16.5575
files/tasks_parameters/ExAp01/sample1.txt 0.89598 3.74964 1.51696 0.19701 19.632
files/tasks_parameters/ExAp01/sample15.txt 0.761933 3.32916 1.48508 0.180707 18.0075
files/tasks_parameters/ExAp01/sample24.txt 0.735067 3.45951 1.59549 0.16529 16.4712
files/tasks_parameters/ExAp01/sample3.txt 1.07024 3.70014 1.70809 0.237107 23.6277
files/tasks_parameters/ExAp01/sample6.txt 0.792445 3.33003 1.58323 0.184714 18.4068
files/tasks_parameters/ExAp01/sample30.txt 0.911024 4.1841 1.4861 0.239623 23.8784
files/tasks_parameters/ExAp01/sample42.txt 0.796915 3.43221 1.70276 0.177383 17.6762
files/tasks_parameters/ExAp01/sample4.txt 0.856121 3.72477 1.6136 0.196448 19.576
files/tasks_parameters/ExAp01/sample28.txt 0.681085 3.11323 1.45032 0.158819 15.8263
files/tasks_parameters/ExAp01/sample18.txt 0.741526 3.47418 1.45209 0.149064 14.8542
files/tasks_parameters/ExAp01/sample35.txt 0.749297 4.57086 1.49394 0.185031 18.4383
files/tasks_parameters/ExAp01/sample47.txt 0.689666 3.13768 1.52397 0.16417 16.3595
files/tasks_parameters/ExAp01/sample49.txt 0.690278 3.13288 1.49657 0.156154 15.5607
files/tasks_parameters/ExAp01/sample41.txt 0.666718 2.81964 1.49636 0.150876 15.0348
