files/tasks_parameters/ExAp01/sample8.txt 1.11824 7.2562 4.46819 0.454772 12.1381
files/tasks_parameters/ExAp01/sample12.txt 1.62067 9.70908 5.28286 0.618515 16.5084
files/tasks_parameters/ExAp01/sample2.txt 1.45128 8.14159 5.7401 0.620531 16.5622
files/tasks_parameters/ExAp01/sample44.txt 1.37778 7.25164 5.75904 0.557631 14.8834
files/tasks_parameters/ExAp01/sample27.txt 1.3183 8.10944 5.64946 0.564878 15.0769
files/tasks_parameters/ExAp01/sample17.txt 1.25083 7.11225 5.46658 0.527183 14.0708
files/tasks_parameters/ExAp01/sample9.txt 1.19566 7.62559 5.37813 0.517277 13.8063
files/tasks_parameters/ExAp01/sample34.txt 1.2448 7.04587 5.93037 0.497709 13.2841
files/tasks_parameters/ExAp01/sample40.txt 1.201 8.03037 5.123 0.502383 13.4088
files/tasks_parameters/ExAp01/sample33.txt 1.61527 9.22935 5.92956 0.659262 17.596
files/tasks_parameters/ExAp01/sample48.txt 1.15858 8.12182 5.1577 0.452491 12.0772
files/tasks_parameters/ExAp01/sample29.txt 1.55696 8.06133 5.12331 0.650652 17.3662
files/tasks_parameters/ExAp01/sample11.txt 1.35889 7.63104 5.37897 0.563302 15.0348
files/tasks_parameters/ExAp01/sample14.txt 1.13168 6.66403 4.66322 0.471536 12.5855
files/tasks_parameters/ExAp01/sample0.txt 1.64692 9.3266 4.98971 0.6311 16.8443
files/tasks_parameters/ExAp01/sample7.txt 1.22945 7.34863 5.19436 0.515527 13.7596
files/tasks_parameters/ExAp01/sample23.txt 1.40203 6.68564 5.54308 0.588617 15.7105
files/tasks_parameters/ExAp01/sample13.txt 1.64235 9.31093 5.35591 0.632849 16.891
files/tasks_parameters/ExAp01/sample22.txt 1.29523 7.65588 5.04866 0.540336 14.4218
files/tasks_parameters/ExAp01/sample25.txt 1.0295 6.17035 5.0141 0.408296 10.8976
files/tasks_parameters/ExAp01/sample36.txt 1.19007 7.03772 4.66274 0.507647 13.5493
files/tasks_parameters/ExAp01/sample46.txt 1.37122 7.73433 4.79934 0.536843 14.3286
files/tasks_parameters/ExAp01/sample31.txt 1.16998 6.96928 5.16482 0.485817 12.9667
files/tasks_parameters/ExAp01/sample37.txt 1.63109 9.52443 5.74224 0.65799 17.562
files/tasks_parameters/ExAp01/sample16.txt 1.39058 8.63521 4.97261 0.516328 13.781
files/tasks_parameters/ExAp01/sample10.txt 1.39877 7.28353 6.16876 0.615651 16.432
files/tasks_parameters/ExAp01/sample39.txt 1.14417 6.3405 4.6137 0.468873 12.5144
files/tasks_parameters/ExAp01/sample19.txt 1.61229 8.85528 5.22306 0.622152 16.6055
files/tasks_parameters/ExAp01/sample20.txt 1.39438 8.1141 5.21177 0.586994 15.6671
files/tasks_parameters/ExAp01/sample43.txt 1.30697 7.21373 5.6367 0.53748 14.3456
files/tasks_parameters/ExAp01/sample32.txt 1.46987 8.30592 5.38137 0.593918 15.8519
files/tasks_parameters/ExAp01/sample45.txt 1.42274 7.94069 4.96323 0.547271 14.6069
files/tasks_parameters/ExAp01/sample26.txt 1.12003 7.57061 4.62637 0.480146 12.8153
files/tasks_parameters/ExAp01/sample5.txt 1.48828 8.0307 5.35681 0.59407 15.856
files/tasks_parameters/ExAp01/sample21.txt 1.02755 5.87802 4.61744 0.434264 11.5907
files/tasks_parameters/ExAp01/sample38.txt 1.18361 7.66999 4.86632 0.496808 13.26
files/tasks_parameters/ExAp01/sample1.txt 1.18473 7.21312 4.63213 0.486293 12.9794
files/tasks_parameters/ExAp01/sample15.txt 1.28125 8.02273 5.50855 0.531063 14.1743
files/tasks_parameters/ExAp01/sample24.txt 1.31361 8.66348 5.4905 0.548998 14.653
files/tasks_parameters/ExAp01/sample3.txt 1.18752 7.74268 4.79918 0.477387 12.7417
files/tasks_parameters/ExAp01/sample6.txt 1.47949 8.57133 5.80157 0.633604 16.9112
files/tasks_parameters/ExAp01/sample30.txt 1.64764 8.18878 5.90888 0.633576 16.9104
files/tasks_parameters/ExAp01/sample42.txt 1.30673 8.57689 5.67253 0.54426 14.5265
files/tasks_parameters/ExAp01/sample4.txt 1.28476 8.40354 4.57985 0.563519 15.0406
files/tasks_parameters/ExAp01/sample28.txt 1.05706 6.44114 4.96426 0.449721 12.0033
files/tasks_parameters/ExAp01/sample18.txt 1.38345 8.56363 4.60946 0.543766 14.5134
files/tasks_parameters/ExAp01/sample35.txt 1.94955 11.0387 6.34514 0.761377 20.3215
files/tasks_parameters/ExAp01/sample47.txt 1.32345 7.14493 5.22131 0.545046 14.5475
files/tasks_parameters/ExAp01/sample49.txt 1.29801 6.65996 4.80244 0.498533 13.3061
files/tasks_parameters/ExAp01/sample41.txt 1.18983 7.09069 5.35462 0.497129 13.2686
