files/tasks_parameters/ExAp01/sample8.txt 1.16931 6.77015 2.19458 0.288816 19.7068
files/tasks_parameters/ExAp01/sample12.txt 1.28872 9.58351 2.46081 0.337498 23.0285
files/tasks_parameters/ExAp01/sample2.txt 1.23779 8.44418 2.50701 0.319127 21.775
files/tasks_parameters/ExAp01/sample44.txt 1.15269 6.96299 2.23089 0.28229 19.2615
files/tasks_parameters/ExAp01/sample27.txt 1.2172 7.74306 2.16676 0.28602 19.516
files/tasks_parameters/ExAp01/sample17.txt 1.15918 7.35053 2.25579 0.292348 19.9477
files/tasks_parameters/ExAp01/sample9.txt 1.03035 6.89392 2.21068 0.282399 19.2689
files/tasks_parameters/ExAp01/sample34.txt 1.14213 6.62788 2.3772 0.297742 20.3158
files/tasks_parameters/ExAp01/sample40.txt 1.1552 7.75686 2.17534 0.285619 19.4886
files/tasks_parameters/ExAp01/sample33.txt 1.42099 8.14826 2.6463 0.338073 23.0677
files/tasks_parameters/ExAp01/sample48.txt 1.06631 7.64107 2.14272 0.270011 18.4236
files/tasks_parameters/ExAp01/sample29.txt 1.06238 7.139 1.93769 0.286306 19.5355
files/tasks_parameters/ExAp01/sample11.txt 1.06409 6.88688 2.12981 0.280008 19.1058
files/tasks_parameters/ExAp01/sample14.txt 1.00491 6.11983 1.97599 0.247458 16.8848
files/tasks_parameters/ExAp01/sample0.txt 1.14809 8.2738 2.14256 0.289132 19.7283
files/tasks_parameters/ExAp01/sample7.txt 1.08241 6.87011 2.05821 0.269886 18.4151
files/tasks_parameters/ExAp01/sample23.txt 1.14527 6.52032 2.38087 0.291712 19.9043
files/tasks_parameters/ExAp01/sample13.txt 1.19767 8.73247 2.33415 0.295393 20.1555
files/tasks_parameters/ExAp01/sample22.txt 1.18081 6.9777 2.28948 0.283979 19.3767
files/tasks_parameters/ExAp01/sample25.txt 1.055 6.23444 2.2122 0.267298 18.2385
files/tasks_parameters/ExAp01/sample36.txt 0.970829 6.6174 1.9458 0.253823 17.3191
files/tasks_parameters/ExAp01/sample46.txt 1.31111 7.42369 2.49128 0.327273 22.3308
files/tasks_parameters/ExAp01/sample31.txt 1.02484 7.22028 2.13584 0.25377 17.3155
files/tasks_parameters/ExAp01/sample37.txt 1.13954 8.90704 2.16981 0.295708 20.177
files/tasks_parameters/ExAp01/sample16.txt 1.08161 8.18243 1.88294 0.24945 17.0207
files/tasks_parameters/ExAp01/sample10.txt 1.13014 6.96646 2.31217 0.285748 19.4974
files/tasks_parameters/ExAp01/sample39.txt 0.99777 6.4161 1.97266 0.251967 17.1924
files/tasks_parameters/ExAp01/sample19.txt 1.29279 8.16711 2.23199 0.308463 21.0473
files/tasks_parameters/ExAp01/sample20.txt 0.939314 7.28549 1.88944 0.25994 17.7365
files/tasks_parameters/ExAp01/sample43.txt 0.989687 6.86804 2.00142 0.25616 17.4786
files/tasks_parameters/ExAp01/sample32.txt 1.11684 8.15663 2.12995 0.281726 19.223
files/tasks_parameters/ExAp01/sample45.txt 1.07881 7.75184 2.10599 0.274935 18.7596
files/tasks_parameters/ExAp01/sample26.txt 1.03474 7.4944 1.88956 0.267248 18.2351
files/tasks_parameters/ExAp01/sample5.txt 1.10168 8.08362 2.09961 0.28454 19.415
files/tasks_parameters/ExAp01/sample21.txt 1.02408 6.11814 2.17119 0.26143 17.8381
files/tasks_parameters/ExAp01/sample38.txt 1.02811 7.761 1.96293 0.263659 17.9902
files/tasks_parameters/ExAp01/sample1.txt 1.07714 7.83752 2.13261 0.289228 19.7349
files/tasks_parameters/ExAp01/sample15.txt 1.10942 7.37971 2.12057 0.285825 19.5027
files/tasks_parameters/ExAp01/sample24.txt 1.16281 8.28531 2.25272 0.296628 20.2398
files/tasks_parameters/ExAp01/sample3.txt 1.28271 7.33359 2.39135 0.305084 20.8168
files/tasks_parameters/ExAp01/sample6.txt 1.12018 7.09894 2.24425 0.281804 19.2283
files/tasks_parameters/ExAp01/sample30.txt 1.14627 8.17669 2.03701 0.299204 20.4156
files/tasks_parameters/ExAp01/sample42.txt 1.22745 7.70416 2.42413 0.29743 20.2945
files/tasks_parameters/ExAp01/sample4.txt 1.21 7.41691 2.36261 0.307803 21.0023
files/tasks_parameters/ExAp01/sample28.txt 1.07776 7.0562 2.07657 0.266428 18.1792
files/tasks_parameters/ExAp01/sample18.txt 1.13582 7.60139 2.1377 0.268016 18.2875
files/tasks_parameters/ExAp01/sample35.txt 1.28579 9.66795 2.28028 0.32244 22.001
files/tasks_parameters/ExAp01/sample47.txt 0.999047 6.84842 2.12104 0.251655 17.1711
files/tasks_parameters/ExAp01/sample49.txt 1.00239 7.1497 2.11412 0.255889 17.46
files/tasks_parameters/ExAp01/sample41.txt 1.01561 6.59911 2.07359 0.265885 18.1421
