files/tasks_parameters/ExAp01/sample8.txt 0.930967 3.15778 1.5595 0.203411 23.0533
files/tasks_parameters/ExAp01/sample12.txt 0.90387 3.94962 1.6705 0.207924 23.5647
files/tasks_parameters/ExAp01/sample2.txt 0.8956 3.78275 1.74131 0.200098 22.6777
files/tasks_parameters/ExAp01/sample44.txt 0.846033 3.59825 1.65317 0.200005 22.6672
files/tasks_parameters/ExAp01/sample27.txt 0.812104 3.45743 1.5148 0.182129 20.6412
files/tasks_parameters/ExAp01/sample17.txt 0.734787 2.77299 1.44514 0.14646 16.5988
files/tasks_parameters/ExAp01/sample9.txt 0.747158 2.99933 1.451 0.177444 20.1103
files/tasks_parameters/ExAp01/sample34.txt 0.76627 3.02928 1.58429 0.157984 17.9048
files/tasks_parameters/ExAp01/sample40.txt 0.760038 3.86889 1.52122 0.168379 19.083
files/tasks_parameters/ExAp01/sample33.txt 0.932253 3.63695 1.71905 0.199765 22.64
files/tasks_parameters/ExAp01/sample48.txt 0.745635 3.39061 1.49062 0.154728 17.5359
files/tasks_parameters/ExAp01/sample29.txt 0.815786 3.30472 1.38739 0.223868 25.3717
files/tasks_parameters/ExAp01/sample11.txt 0.785527 3.10585 1.41612 0.174079 19.7289
files/tasks_parameters/ExAp01/sample14.txt 0.671905 2.70971 1.43432 0.162214 18.3843
files/tasks_parameters/ExAp01/sample0.txt 0.81773 3.6937 1.5439 0.18367 20.8159
files/tasks_parameters/ExAp01/sample7.txt 0.690633 2.70501 1.42221 0.143463 16.2592
files/tasks_parameters/ExAp01/sample23.txt 0.763401 3.2697 1.57822 0.181448 20.5642
files/tasks_parameters/ExAp01/sample13.txt 0.900144 3.84225 1.67648 0.198247 22.468
files/tasks_parameters/ExAp01/sample22.txt 0.733812 3.09569 1.56121 0.148796 16.8636
files/tasks_parameters/ExAp01/sample25.txt 0.692845 2.73966 1.5007 0.148149 16.7902
files/tasks_parameters/ExAp01/sample36.txt 0.614906 2.85948 1.28553 0.130042 14.7381
files/tasks_parameters/ExAp01/sample46.txt 0.865327 3.58643 1.69998 0.210103 23.8116
files/tasks_parameters/ExAp01/sample31.txt 0.756278 3.4832 1.53782 0.1722 19.516
files/tasks_parameters/ExAp01/sample37.txt 0.793718 3.95293 1.50705 0.171701 19.4595
files/tasks_parameters/ExAp01/sample16.txt 0.68042 3.31216 1.30115 0.150249 17.0282
files/tasks_parameters/ExAp01/sample10.txt 0.777091 3.17098 1.61789 0.153776 17.428
files/tasks_parameters/ExAp01/sample39.txt 0.750256 3.26617 1.44406 0.165669 18.7758
files/tasks_parameters/ExAp01/sample19.txt 0.864399 3.63532 1.52509 0.196094 22.224
files/tasks_parameters/ExAp01/sample20.txt 0.657176 3.20793 1.25367 0.147335 16.698
files/tasks_parameters/ExAp01/sample43.txt 0.73076 3.11551 1.4202 0.150644 17.073
files/tasks_parameters/ExAp01/sample32.txt 0.69717 3.5311 1.42482 0.168744 19.1243
files/tasks_parameters/ExAp01/sample45.txt 0.896601 3.80283 1.48324 0.19807 22.448
files/tasks_parameters/ExAp01/sample26.txt 0.705298 3.21645 1.29701 0.166061 18.8203
files/tasks_parameters/ExAp01/sample5.txt 0.797646 3.5889 1.52559 0.178903 20.2757
files/tasks_parameters/ExAp01/sample21.txt 0.901593 2.75242 1.55936 0.19512 22.1136
files/tasks_parameters/ExAp01/sample38.txt 0.714109 3.31563 1.37515 0.166157 18.8311
files/tasks_parameters/ExAp01/sample1.txt 0.88094 3.74964 1.51696 0.19701 22.3278
files/tasks_parameters/ExAp01/sample15.txt 0.80804 3.32916 1.48508 0.180707 20.4802
files/tasks_parameters/ExAp01/sample24.txt 0.751953 3.45951 1.59549 0.16529 18.7329
files/tasks_parameters/ExAp01/sample3.txt 1.0071 3.70014 1.70809 0.237107 26.8721
files/tasks_parameters/ExAp01/sample6.txt 0.800285 3.33003 1.58323 0.184714 20.9343
files/tasks_parameters/ExAp01/sample30.txt 0.893369 4.1841 1.4861 0.239623 27.1573
files/tasks_parameters/ExAp01/sample42.txt 0.791365 3.43221 1.70276 0.177383 20.1034
files/tasks_parameters/ExAp01/sample4.txt 0.856957 3.72477 1.6136 0.196448 22.2641
files/tasks_parameters/ExAp01/sample28.txt 0.722726 3.11323 1.45032 0.158819 17.9995
files/tasks_parameters/ExAp01/sample18.txt 0.753105 3.47418 1.45209 0.149064 16.8939
files/tasks_parameters/ExAp01/sample35.txt 0.813895 4.57086 1.49394 0.185031 20.9701
files/tasks_parameters/ExAp01/sample47.txt 0.690866 3.13768 1.52397 0.16417 18.6059
files/tasks_parameters/ExAp01/sample49.txt 0.692219 3.13288 1.49657 0.156154 17.6975
files/tasks_parameters/ExAp01/sample41.txt 0.714142 2.81964 1.49636 0.150876 17.0993
