Task0 0.03243484591397065 0.10312120022799331 0.25893799399460893 0.07892730982602156 0.7021926175579123 0.574295969423348 0.9610538026751512 
Task1 0.046139508381247696 0.07572614712725129 0.08341981182952918 0.12013655975762068 0.3142034339917192 0.35278705587055215 0.30749121162690746 
Task2 0.011100495084575708 0.07972228563510736 0.1794221966849079 0.0025626966291999688 0.6620250207181002 0.8254536591756507 0.9743865107494432 
Task3 0.026595817548610717 0.06326200255504556 0.030694027392729046 0.0324378604020175 0.605146361415748 0.9300153588574644 0.9617351866522332 
Task4 0.014010355923784025 0.04748965064796467 0.04124928598322105 0.05097403309416276 0.7726889569005648 0.6097590716617984 0.9001268974033967 
Task5 0.07816279286463862 0.1127287721481451 0.3199633836430447 0.03576612018719026 0.5437412099595543 0.7851882678087974 0.8828917354735359 
Task6 0.007089326675233695 0.08938538015218574 0.105839669326288 0.2737353646538655 0.9500891350809009 0.6504429846305382 0.6003205013011339 
Task7 0.03450640499420994 0.049473476725885715 0.042536723427599885 0.05117213955624806 0.8044074211475372 0.6209992473056845 0.6206822050736678 
Task8 0.07778937667675284 0.06949859589094974 0.2687873989321309 0.43740003088059987 0.9386662842283644 0.7770324142208858 0.37276947717378855 
Task9 0.0634900662477356 0.07496846793028898 0.0006922542342816333 0.20385106198051628 0.8484591641592738 0.9461446220409537 0.7388952658429626 
Task10 0.01185588987254985 0.021438062166483342 0.0299677977882897 0.032063828752590076 0.5511675680694026 0.44924120753319324 0.4858059467348464 
Task11 0.003531773581916572 0.022558888232959297 0.015843291958905922 0.016146460510162493 0.48202737714124805 0.6586433915390872 0.8959861047554791 
Task12 0.05329409967382879 0.1972448441881479 0.17311057102678043 0.25370327108684854 0.7942079577123902 0.5229565913567877 0.37648335756460005 
Task13 0.059618449054268295 0.1157468995389939 0.022617104456202068 0.11958978913316407 0.3655380725031949 0.5104569953235283 0.3001679086642816 
Task14 0.01736063724972278 0.13160833792514953 0.27846819136701584 0.4817979510871955 0.5656840443448201 0.925592201013506 0.8779750540921587 
Task15 0.0008645512630884434 0.00174600319601512 0.002612938736340134 0.0022114797485379574 0.5315636702095546 0.8976842516185468 0.5280477356230592 
Task16 0.040035432966955886 0.20151686978970948 0.014657313206004385 0.3775686239926101 0.6644082954686379 0.691515964664031 0.36257866483203344 
Task17 0.09964826777713842 0.314501567174567 0.17691760014619715 0.17396619124272275 0.9691051214799744 0.48058210157000775 0.47341177368733733 
Task18 0.0010196792197686968 0.08479641657331334 0.07102424328487926 0.09361329653210008 0.5382711945254051 0.8811489898643625 0.3481867969951428 
Task19 0.14020486216604827 0.08664767529707257 0.3454912783916213 0.2393320039062916 0.9292948267249825 0.8473711800093502 0.6095449921427066 
Task20 0.05175571233700428 0.10389757185515491 0.6574498069548973 0.03079162921746316 0.6031921944695811 0.34475373966310197 0.5176679433866804 
Task21 0.07861856150372204 0.07430558121240087 0.15806227555353955 0.17650228276013358 0.4243634324937932 0.9127524478248918 0.4596375485615763 
Task22 0.0014670092416577646 0.060334807671169 0.03284494022408354 0.0011792486936668175 0.9343714709791038 0.936225876582516 0.44677082763511533 
Task23 0.03500926027511223 0.05139520760098835 0.2477586996082524 0.1399192447574688 0.7550770007524836 0.5259352439259436 0.6360650224970634 
Task24 0.09430508320357028 0.09835918525739472 0.18154798008361536 0.21547719366844137 0.6674723691679962 0.6090046690651784 0.30739392704386054 
Task25 0.022107745125209136 0.08211406087483962 0.24293572847847167 0.22213093873124826 0.7091326205289021 0.8536012270522733 0.4555174414892467 
Task26 0.03874357097269215 0.03655314538161568 0.024951007150815517 0.600781010541676 0.48005344367143093 0.6715517127696939 0.5560669581028015 
Task27 0.12437523972337423 0.3956488476525129 0.21487292761317722 0.1319074365273983 0.9278550193143076 0.34730610903062814 0.3091158223822593 
Task28 0.053134122989301265 0.047781800560284686 0.11539614141620377 0.09165024024844255 0.5233091222473794 0.3046692505044036 0.7057850574990292 
Task29 0.02493342207197685 0.06057536275378572 0.02533005387902214 0.06805979205462732 0.6158532166088437 0.9852605710789266 0.6855752014704664 
Task30 0.129514359293277 0.2773726828625421 0.04729273239766368 0.40295014993893075 0.8953188246497432 0.9964578138583806 0.5426650110766479 
Task31 0.11209388338268139 0.12976036106217004 0.3429908331034319 0.008923480454443737 0.9699270907769877 0.6286660513385606 0.9814746592245855 
Task32 0.010542216286180446 0.18466188427263772 0.038670253840719475 0.006037221232851464 0.6249382995734356 0.6467071704103768 0.3409319588348789 
Task33 0.10597031790648223 0.24511553125957986 0.21106414629889883 0.2568008419723295 0.4422125328465577 0.7076790233665046 0.4110332909772024 
Task34 0.09109654364803585 0.21691301418827486 0.04439399472391761 0.17448201353882234 0.4345932015609798 0.8717154783432184 0.4024348132748352 
Task35 0.009001783576110273 0.020031803994434758 0.06632747796805058 0.024282822346223566 0.33652661638101816 0.7961790726341458 0.36347008835306155 
Task36 9.023101470354154e-05 0.00024849828610695984 3.659429031142048e-05 0.00017719542698878683 0.5958303988819447 0.9317029240273658 0.9615802264502351 
Task37 0.003305296410319378 0.005184685631301615 0.004880895255333072 0.004853600304802874 0.9697691530597916 0.9785312913212147 0.7448373576301279 
Task38 0.04414647659725261 0.1563121789516561 0.10975281724934619 0.0975959403032073 0.7120296848903731 0.9452973678651408 0.9427593517427795 
Task39 0.06446360352564175 0.4471980731195524 0.0005406038237526799 0.24501822233237766 0.7558855370831621 0.7196033389928799 0.7513354731406171 
Task40 0.01889119700522211 0.18257865437069726 0.27306406803326394 0.17445630952795838 0.6232207272569767 0.6261610347925335 0.8080834043250094 
Task41 0.04264760037942334 0.13689735000065417 0.15276255473834977 0.011864724089575668 0.6417843707840736 0.6446792771321903 0.7296925206296161 
Task42 0.01336747611386477 0.1092330611233343 0.12957521370538752 0.1012002902672853 0.34361439051658416 0.9304906392671382 0.7794265095957859 
Task43 0.012582093193667387 0.06574989745763088 0.026728938310185968 0.02632152224671134 0.5297632238366794 0.8273173655248449 0.6334275342198858 
Task44 0.07383846693991827 0.05308936271194707 0.15677648470374814 0.5970044906380684 0.5103762457980684 0.42230466727332594 0.8425911764900562 
Task45 0.03166655044765813 0.057159707256905126 0.050416794396005646 0.08109436242182906 0.6179856796406897 0.37810791745304567 0.7816158394475812 
Task46 0.06823400688932006 0.03875990611225012 0.20821249662019292 0.43968589211233516 0.46484604558819975 0.359710391235659 0.43707116206164287 
Task47 0.10416049019711753 0.27287531560620776 0.11030211277300855 0.210758536652615 0.9969391698550856 0.5794371336968566 0.6098767272260921 
Task48 0.03165530076754991 0.11858781455435585 0.033822460666463654 0.0007108155664592953 0.9424198325956084 0.5235105759380015 0.41410250885761946 
Task49 0.001252399699822293 0.05457653499321682 0.014183918835925657 0.02766157713865772 0.8784768088884276 0.9377334902042291 0.8905566184802531 
Task50 0.041288983156476965 0.21935451131413727 0.12885750935431659 0.04208592585804758 0.8116752123803126 0.5910117524046088 0.6057373177340695 
Task51 0.07781178192102041 0.08665678347630583 0.11565630449447882 0.12129077832871892 0.7075461564713522 0.9954626033196547 0.7652404108631816 
Task52 0.05098231785841618 0.28935328786543774 0.31831026903114934 0.1990618240543406 0.9853602487828137 0.629863516159799 0.5986538753508315 
Task53 0.0030149850134867902 0.005030864931095332 0.05491922974561933 0.08990637941565463 0.705361049104721 0.5050002564144616 0.6908259696477512 
Task54 0.008478890875570423 0.08505149551928357 0.03631039075963336 0.01796526345444452 0.55634325688611 0.7810925860105253 0.46233946442056795 
Task55 0.00013342847643051862 0.1532740921046731 0.05843157745295893 0.029130537864989293 0.6424451111911633 0.7842963375111464 0.6700564895915591 
Task56 0.034511291680955423 0.1437546191614798 0.2826108637552458 0.1236204760968116 0.9306903879635122 0.3352887171004909 0.9442846502376754 
Task57 0.030120734305126042 0.008020666613408832 0.38909244072566496 0.044755075531791505 0.8878825112453332 0.461006865287818 0.6516192392042348 
Task58 0.014293654098365293 0.17770798082140202 0.21651330557797335 0.1245767051758035 0.5684089159794123 0.7138164164042992 0.34934970735368603 
Task59 0.12428715405269784 0.4060444155568749 0.34973415831902616 0.026366310320891814 0.6083537397144934 0.5862349873033175 0.8087847086852729 
Task60 0.0010941517550513574 0.18505689536945216 0.005733207548207719 0.05418980180244821 0.7407578296594836 0.8119710923361645 0.3487167131093932 
Task61 0.08481978299882444 0.14766822897008253 0.3262654074262533 0.011300370302824206 0.9023895950676568 0.6588604961352773 0.6503150105532665 
Task62 0.013344578905246974 0.07252566523846868 0.21659706552875557 0.06710778507112185 0.8810116810402184 0.8441431648903652 0.6675032410273083 
Task63 0.026994392222175673 0.1942238865219244 0.1815896537390764 0.057256263064489415 0.48764727350581066 0.905660617922242 0.5416949294756435 
Task64 0.1139204812733648 0.13931476849178956 0.1478522109419267 0.20881005341225753 0.635880135475243 0.7365212733686233 0.7285713494136281 
Task65 0.1383056279094284 0.23623562223015526 0.02510030919605605 0.590594991364934 0.4089572340073791 0.7085042842996327 0.6871685536538166 
Task66 0.0100757623827765 0.017074278576335537 0.012554989769975372 0.020839643638891753 0.3796187962683184 0.4227737189575881 0.696161773053575 
Task67 0.035775105146307766 0.12036987670265693 0.3949262600296086 0.18558548786008122 0.517389602444326 0.7350411087476281 0.5245060225629623 
Task68 0.00216535724123291 0.010637516315168368 0.06461876794891953 1.5544036352981046e-05 0.3848811929003824 0.6433031795199042 0.972345614939488 
Task69 0.019609461481345753 0.01330673936481387 0.27299145581675544 0.01712664219113252 0.33471103037359806 0.9087426329885187 0.718779582036831 
Task70 0.02748635742901148 0.04484482962044149 0.08318126379137593 0.02727386164489743 0.9582004695531761 0.69615385419395 0.3141724376823223 
Task71 0.08753163094152501 0.14497366953647242 0.18171568844948766 0.07292736701599226 0.38172931224198525 0.32180591534159975 0.6096405535369098 
Task72 0.10166282550461234 0.21752350255582734 0.11314822995628725 0.21396772350039747 0.9105248451558559 0.7450678644165389 0.9618420310571714 
Task73 0.06742376305779073 0.004414920885966547 0.2680968291515978 0.14520482584613695 0.9082154405962692 0.3912650549425544 0.6157314270771659 
Task74 0.010385737360545386 0.2347403162487666 0.3725944527089913 0.216643686989765 0.4148692351684431 0.4472301423194105 0.5105100315225946 
Task75 0.00264145131376574 0.33696394210941294 0.2087013674928651 0.2615348368059259 0.77603199699508 0.6417010581488659 0.8537444646966175 
Task76 0.05646800271138929 0.11362680181623046 0.2824227756900199 0.2151056355997484 0.4695588642872126 0.36546906006344376 0.4309141110788686 
Task77 0.001199443585727776 0.013264387288285513 0.0037432236837569473 0.012744640418945222 0.6514832044162295 0.9717111561016267 0.7247293306924728 
Task78 0.0011461184467931277 0.0007429473689072677 0.0017764904838605163 0.0023995111958551095 0.8043683648443927 0.809374342904899 0.637444306857021 
Task79 0.0013703405228287133 0.02909952376748751 0.005579641012150025 0.030315172054399996 0.44177301176105266 0.31787915567798103 0.936712774647809 
Task80 0.038630942612510356 0.20854534764845828 0.09911293610842667 0.2859268612208913 0.8105417030943709 0.7319576789797112 0.4771208548071002 
Task81 0.0195758986873717 0.06287224572806452 0.03824581621336541 0.12956299029317972 0.8350284036745763 0.44176844551103606 0.42615993198726093 
Task82 0.1325961602874448 0.22783915376499678 0.15464235658518008 0.22138713351481693 0.3332555104538107 0.4509932653276463 0.5587097362213476 
Task83 0.0351683417408619 0.020496801383941644 0.06933174664381532 0.05434546545181499 0.9205282605306764 0.4429012306991471 0.5263431460337696 
Task84 0.040963785615972165 0.15660426954499204 0.0032389980283034194 0.11330333068622124 0.36209258873182393 0.33105119108075687 0.8000035363164344 
Task85 0.07054111238836729 0.3044334439000217 0.1880302626318162 0.1895101998369408 0.983099736399337 0.6948962834577335 0.862013343284783 
Task86 0.05478865890002314 0.47415908080137326 0.042317157741571326 0.05164571771025026 0.6949976145053289 0.7161017231772039 0.6899247626415339 
Task87 0.03187786370684814 0.035974415205213155 0.07420731399195507 0.054991483688442755 0.7284997202015231 0.3912310102185056 0.438315738275909 
Task88 0.1033088602823414 0.2378540334834224 0.0278321343286837 0.22951589449446338 0.8682839143394729 0.34592565959819954 0.3519473583269883 
Task89 0.028098882719385158 0.028849157703475285 0.06639078300621579 0.022295873033595665 0.9974807381990252 0.7467242079273944 0.9353174190925349 
Task90 0.059788977799111596 0.1581261919527911 0.049299861988183584 0.1580955955454386 0.5327841222101762 0.5409587790586162 0.7242217520474368 
Task91 0.009663582696948938 0.013164453777551086 0.11651597451441123 0.0416272016990522 0.526567826644614 0.8430089703940624 0.8396169796363329 
Task92 0.10151475335051842 0.12982389074583034 0.14414218385235855 0.1976819660349968 0.6200427594135709 0.6258949094078265 0.3266809500563201 
Task93 0.05278287988003205 0.277727420664946 0.27228366909263396 0.09546867589052577 0.9502415120754844 0.6664676779238656 0.6721133386743764 
Task94 0.0211715968328655 0.07541471422732281 0.4074144367522518 0.1382044868827846 0.8802780980044278 0.9846829838632638 0.42905832148540934 
Task95 0.07705512619597626 0.13360919826357207 0.13259092133685055 0.0725238651455599 0.3360966921249937 0.5438741445774897 0.6831595589013981 
Task96 0.0029124713930083054 0.09256278145568067 0.061527049624721476 0.02143307075492269 0.8666094246947265 0.43884546316468415 0.502700173535046 
Task97 0.03615510395325623 0.46644777733281856 0.2952571406621169 0.18078748279646578 0.742419667689485 0.30490940908235503 0.3174561516097851 
Task98 0.025285618531042612 0.14606947505063012 0.03618941561583994 0.08282052816274121 0.5997329960185175 0.5896161205183668 0.5691357002696065 
Task99 0.08719882820004786 0.040277449325032584 0.2223813463985577 0.2533360733916972 0.4450128884464154 0.33752415554504595 0.3607030665394234 
