Task0 0.0005730642532890288 0.04723924732893252 0.03567372143668913 0.06383745288751762 0.9852131129502895 0.5490446939500858 0.6164900944497513 
Task1 0.19596664614955076 0.6239495630414411 0.1308477576618967 0.030145684291233592 0.9120021311054081 0.45670311231080485 0.6140357861638206 
Task2 0.025720504398745313 0.13372158766351147 0.05387102665806227 0.0021609172134028558 0.6135941014354462 0.5139118178598945 0.7293657053204026 
Task3 0.06580796640482492 0.12373158742323828 0.08702616796222687 0.11407631175463284 0.3485991754972523 0.47553389737595075 0.6093848733159023 
Task4 0.13236821649281919 0.09975596785055323 0.47575558928948725 0.2673313133860849 0.4200164558729117 0.33842512452992235 0.6435600319588411 
Task5 0.010776525650338133 0.3594743503426825 0.2676404039595885 0.3124793428607473 0.7417569801600595 0.8878849876162671 0.9085202154153906 
Task6 0.13452187037686267 0.23024675230560507 0.2942093230908782 0.11654238120818296 0.5536331817266047 0.4565149870059616 0.44522042325645206 
Task7 0.0008617402396981639 0.11580789019261832 0.1477410277830247 3.2430629436322724e-05 0.4860715480866703 0.8500114865846684 0.3190390803053211 
Task8 0.056947650911922096 0.1385885033870614 0.033941472358277144 0.06910858631602161 0.6746807432725709 0.5521431390769177 0.666932019889098 
Task9 0.021201963581923444 0.07531587236348501 0.11787948193094655 0.013358463298563028 0.7096418651708378 0.6481101321547438 0.8605765180257465 
Task10 0.009512034827824091 0.03137900080364058 0.027628533451279882 0.03983548346530212 0.9888635843028524 0.7679005363160363 0.5211197519442403 
Task11 0.12689920901029594 0.23702739785631594 0.08435588659984548 0.27350745696086026 0.5558402299937091 0.5938875174345812 0.6817340781811314 
Task12 0.02435521734458641 0.03960420369238565 0.25038897825753315 0.45694967762858996 0.5843214110144196 0.8615877756304411 0.43117063408535583 
Task13 0.03058245776586896 0.534412915294478 0.12938693121890188 0.01439742648897786 0.6504308720237268 0.7443966100358428 0.39359422395437477 
Task14 0.0005931024189607484 0.01563421391898893 0.001774945190829204 0.006933241912207392 0.839734149126024 0.6710248944392444 0.33675180785638703 
Task15 0.0803790935757494 0.0023402779257078506 0.7120400007315398 0.14232043138735267 0.532585734721947 0.5588682059965343 0.9545980269890555 
Task16 0.017061915036000474 0.04030805217713104 0.07633566281000434 0.09878861952766782 0.3865137646060987 0.42182405483491703 0.5713675268345104 
Task17 0.008311326283488962 0.0902251301368763 0.0764091940172211 0.03629350090867545 0.8160307888077485 0.8578456343953116 0.9535915511241937 
Task18 0.03946037135963345 0.2410709742220728 0.3021106797484332 0.16533253815418406 0.6313141899789998 0.36752346999486973 0.7269544458847137 
Task19 0.06605267971211763 0.1712470036883441 0.20335617534927422 0.22134486967163158 0.944341422539674 0.905789331813992 0.85213361577932 
Task20 0.0809840715882994 0.143314466806211 0.12060895187805014 0.08081239026650065 0.9017862124750389 0.4908319380156181 0.3759823547510039 
Task21 0.13675099111016525 0.4210233148045307 0.4092710376724568 0.03133788113805755 0.6864595490042616 0.38539392436640174 0.5651759402863251 
Task22 0.025814521844948264 0.11444219982897645 0.25558253703357087 0.05431814567552426 0.6242726696250798 0.8077494991744114 0.58540643214929 
Task23 0.020061458334617335 0.018926589598645085 0.20515741787313577 0.10718513543231287 0.3732456220680174 0.784541982787047 0.9584523563429506 
Task24 0.01012364353400897 0.09207264574670534 0.17199462215061034 0.1895960926678101 0.7753299598973563 0.8107638168431297 0.38526450353895747 
Task25 0.021118326578507804 0.10305109303738402 0.13340793505608564 0.022479320030816142 0.6786330360426158 0.8242402454945859 0.8706217055282699 
Task26 0.015859069177707866 0.2652597561841524 0.17815100262844102 0.12783355171274696 0.43679314962929044 0.7464121339467571 0.35332394943458295 
Task27 0.046308075916951325 0.032505231190590504 0.175148444388916 0.006467078405912969 0.8577302727398546 0.9724550437913584 0.6989430745067956 
Task28 0.09231827235077701 0.1725974919949333 0.1865188988591096 0.08950731628452298 0.47480303371240595 0.842703413040629 0.9301840077853301 
Task29 0.019315939473084704 0.12638433384484812 0.14302713180807533 0.5360498047391207 0.6056552787525833 0.6931334494954986 0.5818435039946732 
Task30 0.10549888078381758 0.15025772105612956 0.22911571673060785 0.3525903822666678 0.5428739364954089 0.6805909004027745 0.6941805570273026 
Task31 0.003024720148535436 0.15199567843426454 0.17518088330957587 0.26861455939132783 0.9950424412488301 0.4473684464633655 0.9843928050938853 
Task32 0.006220662276147369 0.1048173247756749 0.09452163215447053 0.08995158405058985 0.4480506221321269 0.7205151997145203 0.4425921735986113 
Task33 0.037466413053639944 0.03247870752053168 0.07767711497150576 0.06240904485964199 0.9056567008653096 0.3707102595034529 0.5115660542821413 
Task34 0.003572684670946175 0.25074266876620555 0.0996793453769683 0.1119911228555376 0.9432860213144951 0.3248848177802196 0.5844230026042302 
Task35 0.085040600840857 0.27501328693266264 0.32328142501868923 0.08987182982239753 0.5892504005387456 0.6610229702382395 0.5791450998943872 
Task36 0.02535309204366528 0.17498268876540546 0.0281175037296801 0.13414922778651725 0.8575999394578047 0.31524949823632564 0.36949558450390196 
Task37 0.05304478818896773 0.004720263173036197 0.16979945742320332 0.13793550996722265 0.9801626239853789 0.9567665148566125 0.3849010957250455 
Task38 0.16641257358138686 0.3560310287602111 0.08538005311755234 0.38909830621662245 0.944023173138167 0.3875149718928587 0.7983069873069968 
Task39 0.04652501172708278 0.192458847533378 0.015877909706954914 0.2077507109809166 0.7780554921559402 0.8831601715187005 0.4417658085288687 
Task40 0.09621972422970104 0.15556691357255892 0.14756942283096117 0.1471304550307812 0.33312663317419056 0.4537235402352414 0.6024994180021556 
Task41 0.033578812528999274 0.06398783132364837 0.019738894869311095 0.11495133208748086 0.703213238616972 0.5165806740309501 0.8517613778653343 
Task42 0.0005667237518597867 0.025625339522085358 0.03569970791400365 0.007809509639472311 0.7828111002586032 0.9450157114453477 0.9314700206472282 
Task43 0.036909343020420426 0.08680768690346582 0.045463366103881034 0.06789086429492634 0.5272913528361777 0.6786714219405867 0.7509587581431505 
Task44 0.061407694235287205 0.3402376919689426 0.3434302234531898 0.12649292968728632 0.5821795266788078 0.7717519610806836 0.36568624721741466 
Task45 0.008643406970980363 0.07952881576591583 0.06813643822355447 0.15625260445724293 0.328094863254322 0.5518669039509791 0.8644059531201662 
Task46 0.06287741808965215 0.32967370027314763 0.29402767107885414 0.0008088055507088636 0.6376365843063536 0.82119669518143 0.6343842313809747 
Task47 0.032442132849551795 0.052713523461719224 0.10158817449735238 0.13166661810245286 0.936293034356382 0.6180859577555777 0.6884023883897632 
Task48 0.09631298058668014 0.36873331748255883 0.19808640063528898 0.28202005446307715 0.9439007542525895 0.9788553578150829 0.8968429223288303 
Task49 0.03520753110672112 0.10657496502316421 0.07852919844433362 0.1440860123086945 0.690757695589715 0.38150048837982165 0.5294430497724086 
Task50 0.05081291400918742 0.09977642637604707 0.18778686043367276 0.12329321192359202 0.8074373504691099 0.8354361497153244 0.8888995961440957 
Task51 0.05668175728214786 0.3295481255733197 0.05261681017234229 0.18337206059296374 0.9139661505392651 0.6418075091010559 0.8794487174800127 
Task52 0.0548991692328236 0.03004747696382198 0.17546526082301725 0.12789925567644653 0.38985516619771954 0.8776691780320396 0.6575302104678514 
Task53 0.01062585718737598 0.08270927430368981 0.05227821547943033 0.05865104140061639 0.8465965467605991 0.3840995425360979 0.4232074033095803 
Task54 0.018606543494659213 0.05201036263867501 0.5135791925482432 0.04483069383450748 0.6752179285922968 0.8997584202415354 0.5790615594502829 
Task55 0.029217590612677424 0.01898724902564709 0.26515845236521884 0.1004984911954088 0.8882574857021566 0.5480122399620523 0.31733530201380367 
Task56 0.04362968190583807 0.07332804690461521 0.03998932443125642 0.5153148684036517 0.3109843505514152 0.38807632576027024 0.6677080756853859 
Task57 0.050035607665942464 0.17869958270242323 0.2337030844903567 0.10754302827189278 0.9259377873606183 0.3218933869326166 0.9718348216489912 
Task58 0.02791254032225831 0.1698928286438617 0.14410491787612364 0.05390139610213937 0.9720833951179437 0.6821571429196678 0.8757931613806773 
Task59 0.003930305251888729 0.20662286613387437 0.08803446898772271 0.02101360928009434 0.8299903160572102 0.5434515535448587 0.5207447364416891 
Task60 0.060587952379424936 0.01191249106308808 0.5203200449111117 0.36842813508026095 0.8589632874662783 0.4069238458852761 0.6697398925084012 
Task61 0.00816695779653566 0.01990648989946423 0.00031674594374299034 0.03706079139285761 0.5051855573934941 0.955574147830119 0.793036627674666 
Task62 0.018008887317653675 0.034639191431179946 0.09799716765449204 0.001717887157347436 0.7217579621118442 0.6349462808939379 0.48275307996068073 
Task63 0.047483472405882216 0.045392966328050996 0.010689651160468374 0.13838793189443027 0.4921889606242297 0.4900628371055207 0.8393292529301486 
Task64 0.044046387647170546 0.12537721829449108 0.14951024680942565 0.10698865441909794 0.7494696767704927 0.8758304217847854 0.9957346939602854 
Task65 0.09791698945566042 0.513484081503288 0.14035254571014444 0.07828081277544102 0.5303795680131925 0.4013779521686818 0.685291376468464 
Task66 0.016611237594987005 0.19323346696563987 0.002136044442335311 0.1489383671259464 0.42156502669009377 0.8991221436332684 0.6631597422137583 
Task67 0.017685423543241912 0.024581975809393277 0.07848806708028411 0.059704962703317 0.3189481301476847 0.9988921614254 0.8398883533858608 
Task68 0.009275892965134844 0.01482202441147281 0.038803002088203774 0.03447274331120424 0.7820413189912178 0.8065728193843631 0.8359702749082127 
Task69 0.02444930288473264 0.10413106790352092 0.01260436070599983 0.1205589330110249 0.9247011726233791 0.39484122993909815 0.35136979438266197 
Task70 0.002643396887180346 0.005485788491313405 0.009984339856856256 0.0013439954756963304 0.5144443903057927 0.7781409931327292 0.738665124262208 
Task71 0.059122628714557444 0.12531904450621784 0.19843066174649468 0.02476841820512909 0.7286971026272313 0.8650309173882975 0.9174735876299474 
Task72 0.06734226253137401 0.14821933601285214 0.20795715629049655 0.14827340952130197 0.9253233164598069 0.5838841713701259 0.4160929087933489 
Task73 0.015099261505258414 0.03849604038834883 0.04932665175450178 0.18690232924194897 0.4026387385903174 0.3592518312475074 0.7173937799277708 
Task74 0.1285180017065124 0.17931132792312673 0.21597193075125745 0.15496836913503034 0.5738698658044961 0.6659413847437214 0.45536508378622376 
Task75 0.030320044681250234 0.15987025254086235 0.0511249395566424 0.0661813451914958 0.381128961740572 0.5170043981125415 0.8866773180862009 
Task76 0.009088070422029698 0.10037564456863766 0.08947362405025365 0.19455757135593169 0.40682151501349056 0.6168580511162747 0.675374089023137 
Task77 0.016096791652403217 0.09736841555358372 0.32362061490968336 0.3885062229950608 0.8135827535512523 0.3115346501892533 0.8913617393189261 
Task78 0.018802895226435495 0.07433070383427688 0.05633330340567759 0.1104702527903266 0.3741795003458324 0.5642070017169843 0.6818666217349663 
Task79 0.06954889870166361 0.13520176256378139 0.18511071828480613 0.25158774057939975 0.33551655772857547 0.49744693046135224 0.49538848483649534 
Task80 0.12717564369634193 0.29969502888932525 0.18686582446002337 0.14478302801081394 0.4261421366335991 0.6532609936194883 0.9335766453754251 
Task81 0.015782706561081515 0.41982547621474653 0.12316937266834056 0.18581930408331324 0.9606244071187262 0.9805049474838947 0.5602428850707162 
Task82 3.105035688739581e-05 0.0002387711439659782 0.0006697785324576604 0.00017596834113611695 0.9769749316810583 0.7273667766847397 0.9490765001078139 
Task83 0.02477593419622171 0.12601329486693377 0.049224560899467876 0.017981163255670143 0.7898797445062982 0.7655701074145878 0.8227738014225183 
Task84 0.09089125464779092 0.31353864701327516 0.24144538371584542 0.16800519754938817 0.3386035084369252 0.6536683384997172 0.4803193389464485 
Task85 0.018875207532597055 0.07926787504859346 0.20445548707988917 0.3160217633596047 0.6623362947523777 0.5410677871265952 0.640526776578555 
Task86 0.029674567434070022 0.07507415374154777 0.06662562665502182 0.11502897832024386 0.7783107656563131 0.9310246473515857 0.42925590721186413 
Task87 0.04304674371207384 0.07873902620149054 0.15654354699951326 0.04799262626370079 0.8434886527027687 0.3398180004117465 0.8829406541388869 
Task88 0.01954800430667738 0.35095131334108937 0.12475319305307896 0.0520187230784484 0.6673503913018669 0.4592292129028421 0.35567040673431083 
Task89 0.010660288592320663 0.17290143727418097 0.10418249299157521 0.17919908110047478 0.6569579796375653 0.6987293422358467 0.4164848501103512 
Task90 0.0030232509039562587 0.08191981546509972 0.13304210755555188 0.061785252641705285 0.9668867077771401 0.9353683950550313 0.9423024965693056 
Task91 0.017508954388233373 0.08816554696589976 0.14081863311563997 0.09817610903195684 0.8551210324629117 0.321976574292477 0.45908181468237086 
Task92 0.004749446420676974 0.015480405116467175 0.013517148293764776 0.0028246999080182265 0.8197875745526786 0.320639678415323 0.5727388356744723 
Task93 0.013974845415980385 0.10206950602439718 0.2388185298553209 0.082260828716318 0.8540981874060634 0.6112200206875809 0.7255083741627129 
Task94 0.10958788694159352 0.20627732128595572 0.16678684415546477 0.13604098056044545 0.8580134462168285 0.83749303520374 0.7161302965974494 
Task95 0.029150969198342248 0.030808071779232282 0.24657268297672266 0.22430766609360242 0.6005389647944406 0.47186254419996937 0.7215390652707674 
Task96 0.04785622368330194 0.005519867475775602 0.17487817147648602 0.29143886835153976 0.42227476853207274 0.8660778299382754 0.7992586579257395 
Task97 0.0009083307132062726 0.018116727432417545 0.034711349968990134 0.01399850307119093 0.46216833760100784 0.9572802559039972 0.6170813284626417 
Task98 0.025131677089190344 0.04424621838710779 0.2154680975995 0.3496973485403537 0.5373483888514428 0.5156868736526998 0.9027230920248897 
Task99 0.014060339361164605 0.1343569394762175 0.023901885954040213 0.018039148752462767 0.8977274474448111 0.47713524057425877 0.7824321637512375 
