Task0 0.01800094291103943 0.011775512750786062 0.056681031913803546 0.032505539098885934 0.8621784932530219 0.3730532796425165 0.9707313728811418 
Task1 0.03969278579479777 0.22623943292428855 0.11542892553700171 0.286297784968456 0.7197904298626078 0.3928295701982422 0.4682300123661825 
Task2 0.030571508576729266 0.08439125822583875 0.1890533976117003 0.17544829814277757 0.511014381867017 0.42454961996519097 0.6174662600880807 
Task3 0.08708666552318543 0.2582649029180935 0.045864642786161966 0.20907628713738552 0.442155977348422 0.35922457808762787 0.5781474074963724 
Task4 0.025256727612180487 0.1534638520346673 0.17035674773229556 0.046011218466370137 0.45002920694429427 0.40068611563983736 0.451221483604321 
Task5 0.035368270062031054 0.24035636044664743 0.14715079014536314 0.08604905264600725 0.5239400649025016 0.4059309137061162 0.7241496177011466 
Task6 0.006824873611636215 0.06483716564579463 0.003068201995564095 0.0032878851247429286 0.5841425511839129 0.7091147388448408 0.9308660227617511 
Task7 0.07631636392348767 0.49505651878429835 0.3053276542127275 0.04498666432872798 0.4166956945135194 0.35042634378947635 0.4934907498233839 
Task8 0.028039657792063046 0.07375358878437531 0.027119831701826955 0.10492427504923002 0.7668610885177631 0.40604673917974166 0.7009419739453491 
Task9 0.0416581304579518 0.06131379779183617 0.03012133280586994 0.35602560307790565 0.3808505433967345 0.60894720177497 0.7990217126350629 
Task10 0.093312885751645 0.3484445416133869 0.24376027324239902 0.26247616519873357 0.764925147812781 0.3869967675690167 0.9576271352046353 
Task11 0.028483835862347616 0.03963602027666503 0.265247473465811 0.2555178718548577 0.7720956634907423 0.9914347734590301 0.49565216505702464 
Task12 0.107360314548075 0.0958311633955247 0.21364162897050828 0.15118792473385917 0.40518375413277474 0.30707227207033366 0.7588474146438373 
Task13 0.006260178792982455 0.040479753555547476 0.040223636164698796 0.05818045665211348 0.8133569706451751 0.5198806719299822 0.9416108042544606 
Task14 0.028879148121652026 0.07666581053847321 0.1596774009024945 0.08260382441950066 0.788681511716425 0.5347627379999177 0.813852693859618 
Task15 0.013902183343022996 0.005133010679872635 0.030896237076505226 0.20183851288445548 0.76722782780583 0.30553697185827444 0.9144609137618134 
Task16 0.06271942776810749 0.3289750896176877 0.04998320537882327 0.45758987571852494 0.5263289322651845 0.591519273636906 0.4565508760306679 
Task17 0.007550976953408948 0.17220449272731983 0.16233605094196524 0.02696468222871639 0.3048181839237918 0.3867854736028589 0.6860422944620383 
Task18 0.042951706178891075 0.2251331932545314 0.15124729692424443 0.00705382028706041 0.6600789596641647 0.7064262679613775 0.5543940988581068 
Task19 0.002853978603923085 0.016514320743678184 0.018364054294047423 0.024000871431457717 0.5584653401480435 0.5090873789903815 0.36413232036671717 
Task20 0.1131941031997237 0.5270258576116814 0.003604217951922842 0.08908766666633507 0.925638241023568 0.452542668096798 0.4715930728871308 
Task21 0.053292639854407145 0.07772183939393232 0.21636192212298858 0.20758769876671007 0.945824614114575 0.3808396736319698 0.3522019046645947 
Task22 0.07590178349372738 0.1879051468629083 0.07918209892967129 0.37060762150985044 0.6359556782420765 0.5879492252888188 0.3539014526563826 
Task23 0.05955663102594485 0.07122283634354264 0.13949018581742575 0.13762532091470567 0.40956276856741025 0.3665854667049682 0.8585844677013541 
Task24 0.0262845658700835 0.04809259702034095 0.03481664556288685 0.02871013441804113 0.5051242916629133 0.8063612019472906 0.6116909782274698 
Task25 0.0529556868618566 0.14843725565970403 0.08874021688109467 0.151792623212598 0.8670541801221361 0.8060129948085235 0.7371342599828336 
Task26 0.018968331579633502 0.026652041690294698 0.01607261867761869 0.033197187180107605 0.7742931831054827 0.6228497769733946 0.6707007129994359 
Task27 0.011653417470713487 0.2366989827911878 0.0922807746352698 0.13145184186131692 0.969320252120311 0.8357790341309346 0.7034060000937044 
Task28 0.11362739243204394 0.18368852428809815 0.13227490513224316 0.18591585031618815 0.917662250444953 0.6327158166638424 0.6506639665722096 
Task29 0.05165941940921795 0.06734151931902588 0.07742391551633131 0.09368198461721577 0.4738751741953231 0.4449877043675029 0.6610310379272106 
Task30 0.05367571312977839 0.032802193016499566 0.2681026792946965 0.18964502444087147 0.6832667423207931 0.5182856901247042 0.8180675212827051 
Task31 0.00362547014581664 0.009520704247306114 0.038239493584476626 0.021928305192824824 0.9104203764488656 0.3634151077774518 0.9171997679885611 
Task32 0.027069563391487913 0.15220492743038586 0.016584945510192232 0.3312382169808684 0.8724112561209407 0.5399131757945077 0.7802226632183067 
Task33 0.11283643535097518 0.08085492078670008 0.23187166333231404 0.4897914007552433 0.7907210259422927 0.6953859623364171 0.39034452115237805 
Task34 0.01213792999647946 0.03902097529813653 0.05750827231184813 0.054599768693793266 0.38631123638390247 0.34098612866676536 0.3490444901121611 
Task35 0.10008950930592163 0.3192048522505648 0.21370340111469704 0.04811684234864399 0.9448542602206838 0.7422219274123341 0.31651181792110566 
Task36 0.01891347936538407 0.057494128870978246 0.0056743832558106945 0.03486924503972364 0.7421290754005856 0.47144586710620895 0.7529347707547323 
Task37 0.011680291363693744 0.009190675424279654 0.012614665497408693 0.037629427910985405 0.5685691389779095 0.7082775146517772 0.41616707410957077 
Task38 0.04861887948797555 0.13016211564550387 0.27661706606382286 0.06399344424172408 0.9401254714109042 0.3713514716890206 0.47667398910565284 
Task39 0.11632466294633748 0.29966537278004446 0.11818442831415908 0.31156941560241896 0.948111904145176 0.4902342320823332 0.9851162713196346 
Task40 0.0007977190718635522 0.020999404667076574 0.010136182808692945 0.010912858835854434 0.43192843799055036 0.8342778781196598 0.4972600819622002 
Task41 0.003943344661512769 0.04399027272023205 0.002023223208326454 0.035018953995683826 0.6088162464176625 0.5055456888210401 0.7412956320754034 
Task42 0.07003020232135737 0.1764459688071059 0.2751062090634564 0.019685889545044535 0.30571677954631776 0.6055886379549262 0.6646660364494708 
Task43 0.07281363714848786 0.0849775038835094 0.2770176805467173 0.33699281513359025 0.9600923761645621 0.7892278785277095 0.9320785943413239 
Task44 0.057457345675957706 0.10031911551058041 0.17651764873846781 0.003924513350654637 0.6035935034251543 0.3861464796408639 0.9358872789674904 
Task45 0.04275297768229251 0.14327821031921212 0.018855444638439037 0.17073439355003509 0.7008345246685138 0.6979704604885926 0.5502608558635684 
Task46 0.02742938794101894 0.08364764513039927 0.009020277340121827 0.10870620916986908 0.5079791746421579 0.9075639247690674 0.3832498519164971 
Task47 0.07601293453461049 0.1616148585523703 0.09661616218829516 0.10324382704188168 0.998047803723783 0.9353653585633834 0.8495698500811071 
Task48 0.07924052655485266 0.11898717793848515 0.036559418941608225 0.1686472653672565 0.8671131162370813 0.5454238208943232 0.5087579519122287 
Task49 0.1361216012115722 0.2719661454794179 0.36698675448601115 0.15374006308528104 0.40259367550295183 0.670211851084924 0.9498816290598591 
Task50 0.02260775179446229 0.17636428754968692 0.27908008637551857 0.2964546409276876 0.8511920980404537 0.8249816346239376 0.43625674073180454 
Task51 0.021678677678495906 0.012068719047144093 0.5206129759625344 0.29539621429702695 0.7996240032931117 0.39736065767930373 0.4788370557304479 
Task52 0.00657054301014806 0.03527793286962843 0.008354579338840472 0.012797130840681063 0.5332913985296306 0.4840480834681747 0.8605437808328724 
Task53 0.06175953067746145 0.007562568124021403 0.18737091081794938 0.09155318963433967 0.46724154461807177 0.36822089441132017 0.8411633087623576 
Task54 0.12156249294192699 0.15922839545563885 0.07388589199701392 0.39026243189260984 0.9991686628558891 0.46011012336184953 0.6501335726173142 
Task55 1.969537812987833e-05 0.0018956123026536418 0.0037520419623320147 0.0026967560120714357 0.6479191801347155 0.38754551490917377 0.4704211742139976 
Task56 0.006522223621055986 0.0197988469511386 0.020604326292826578 0.01835011531389686 0.8435889070973532 0.48070507635243837 0.4887927272506136 
Task57 0.002589352461804751 0.001972052563387368 0.0021893672644083934 0.006365514378764772 0.38366109286649963 0.4835362003030529 0.9167786370277129 
Task58 0.10837365647816784 0.19896834779888467 0.050876484436703756 0.5139933568567348 0.9093920329357403 0.7060943771057125 0.9922008595202256 
Task59 0.021359546607763152 0.32652646565802534 0.386368143225155 0.08425519292632057 0.3808732451030952 0.6424130870384688 0.8526642757517504 
Task60 0.023824470052801267 0.06003010238313986 0.06827344842834383 0.04181762456006097 0.6064198599929818 0.8141063206081085 0.7827342553594386 
Task61 0.0057859104570240835 0.2040459492812755 0.5303608245093939 0.0604548212384522 0.36643646257557905 0.5221085156667289 0.5270169090655329 
Task62 0.10779749261891305 0.3612355486806064 0.188402927545541 0.07366472873968911 0.6374353891552899 0.6947954848175267 0.7862495327578003 
Task63 0.0815696314730617 0.11874010001073498 0.08511046821772211 0.1262014754075495 0.4950314137481241 0.9406556646497646 0.8372676856687469 
Task64 0.03285181506702829 0.10625608739775425 0.06065569849149029 0.10416178043837093 0.5177390054408487 0.8075240492424482 0.8068731958168975 
Task65 0.14174351547544184 0.32399954016751437 0.12580818920425485 0.398074675450571 0.8615469055079026 0.8814878156963313 0.33463945726242833 
Task66 0.00949348391287632 0.032182990340366 0.020798545641592763 0.016178790248655626 0.7719624230101605 0.5181907493461533 0.9432475261360422 
Task67 0.15862591569001666 0.26595057560011626 0.22719142415764604 0.2738948611185815 0.637554450764739 0.8597247249022377 0.476495539940593 
Task68 0.15373806573456394 0.3769812610228322 0.3325966158866049 0.010238641939215849 0.8660914838581282 0.5411764200984037 0.7241950602432278 
Task69 0.0010565473670677646 0.08881125210270295 0.15971681903829613 0.12222811412274336 0.8041817670197025 0.49251459044604884 0.8070260332143688 
Task70 0.022702390210372823 0.02154201235667012 0.04465390120471187 0.04210706401242578 0.4087115135077459 0.5069618927032342 0.9264326298006744 
Task71 0.06757752509056558 0.15848660128025022 0.15665534738039266 0.02663951264790115 0.809295447774121 0.7922277803875486 0.6847229352223894 
Task72 0.10620301849367571 0.11760430662298205 0.03214792200567174 0.43248612959564553 0.8624919571361425 0.5842861933400847 0.3628151072791848 
Task73 0.16324463842719633 0.03562729341688663 0.4397473831692285 0.3395396772056987 0.9885933631700086 0.8752254534869655 0.8198660747199762 
Task74 0.053144769916543724 0.3985411919332994 0.330957629451727 0.17571640710885306 0.7876588217569354 0.9807161170549783 0.9946176839464831 
Task75 0.01337606779924035 0.00744771948489462 0.07322659114074068 0.050923934759979785 0.9306498615452434 0.5178234695519652 0.3168795671975323 
Task76 0.01363414597398165 0.01613122092867505 0.022393013784577483 0.060382643152067574 0.8913480232651707 0.3877945067967917 0.49238205219845343 
Task77 0.005257625494262389 0.015412981521748139 0.00011938287746492578 0.031920274130632274 0.5437289113815017 0.45724695634405 0.7641738270842164 
Task78 0.01733743086463044 0.3491170066155 0.12856426049938488 0.43152856724110406 0.5942670889314485 0.4177325660125102 0.8256196255306862 
Task79 0.007113744981927397 0.43959405021114034 0.31797805880262603 0.09958828969897073 0.3058869303518455 0.44615093381970905 0.8715071309352391 
Task80 0.06733088189050526 0.0036817416671891617 0.14873162449958405 0.22581954442352786 0.9096261545115738 0.5072939332812075 0.44971217442321304 
Task81 0.030500978169197637 0.12947982441732744 0.32142491775725923 0.08462064404078053 0.6086190871746654 0.6823881482603739 0.3712872562612016 
Task82 0.1736952827857691 0.10271580078310417 0.48786543531706134 0.18665672345622863 0.7023001414464106 0.7284578983825019 0.7826919109095267 
Task83 0.1351978782262549 0.4479214974613849 0.04369755926919545 0.34979648391732787 0.6680968683323687 0.9892524257142246 0.8349154842579289 
Task84 0.027787107142406273 0.09235237966630525 0.08948948206241827 0.022093992474164378 0.9162804215415719 0.3081932987027428 0.654380298743316 
Task85 0.09373197832042435 0.6185440912075567 0.1992578672029205 0.06769603787944879 0.6537801351352388 0.6389567620067242 0.8766211030141626 
Task86 0.11842467406363594 0.21969991217620882 0.1745729262728038 0.10514869008633387 0.6806586394568017 0.48336624542687734 0.45978616261038474 
Task87 0.005115721287429441 0.174913284225282 0.5267999129944744 0.2909439963283721 0.9488529985777268 0.8498030749062013 0.9246615651792187 
Task88 0.053802726182541415 0.10784612100693128 0.14600798082814498 0.038325435143200054 0.46923937414815664 0.9389142421578882 0.6432339143923914 
Task89 0.0574678180206162 0.04344144194248916 0.12260381592239568 0.09990739666330069 0.3625437162585702 0.7960408327473698 0.4619061140059188 
Task90 0.0880165327950787 0.08421915351871448 0.31585907075376685 0.2758923961867177 0.47080273365674724 0.9246919881933611 0.909519781804049 
Task91 0.0732720132364159 0.08770646195844312 0.031540979455135544 0.2593262185687968 0.8866097339781829 0.9591705347695512 0.6084841090257114 
Task92 0.08286623046707017 0.14685544660153713 0.1469453133657035 0.11634547084329473 0.5049761261613044 0.3302176445738193 0.8288716080627974 
Task93 0.06989414327999602 0.06940241458360875 0.043575384745304056 0.17599822907745213 0.9065455155891404 0.9742550636351808 0.6335268017279876 
Task94 0.0020151085023360185 0.08589121751767229 0.02945455072071744 0.06482126119495799 0.7491800628154535 0.9510371178142787 0.3779417142393354 
Task95 0.04453778436011924 0.2398361182559245 0.0007612421545814929 0.013591743169986658 0.9014262580452364 0.3642472074956428 0.34877606739688 
Task96 0.07736313413948677 0.3239031784628398 0.013966402526926387 0.24550216174391187 0.5412816503274572 0.33710029788625295 0.38286756333529476 
Task97 0.023693008464399076 0.05577322038750986 0.05518494314550454 0.07486348941448752 0.9654564123786518 0.8310809765680711 0.8330812466462996 
Task98 0.11468348256156634 0.27593084976066684 0.14737537388574917 0.08661422501782007 0.5384783647704707 0.9124878430448584 0.5039878415402013 
Task99 0.010674187512138118 0.02461602087883759 0.06261795462557644 0.025558915331736917 0.9530849343857102 0.5636585732071984 0.6167388771662826 
