Task0 0.02039355205744182 0.029684339368097744 0.06540466732046094 0.052234248706795224 0.7107431332795122 0.4398689732210082 0.39125833270310595 
Task1 0.11342057532967807 0.19313988687441513 0.38592333705470433 0.2154524864399472 0.9761895097443491 0.34743227254670683 0.9158165397784672 
Task2 0.013327331812706861 0.11193116562949565 0.04901876285508094 0.08892671875382838 0.49455395989690376 0.341595508286505 0.9791880399897266 
Task3 0.051051565266874634 0.4718970647836121 0.162662637596494 0.005572728037935216 0.7213657119761006 0.5195123174820966 0.40669889759999145 
Task4 0.11120022989926687 0.27636213507766505 0.2951369012065894 0.1815388484993973 0.967636994694226 0.7797721081988311 0.4815978383017655 
Task5 0.11154301536872167 0.175831867028255 0.244865199373292 0.2695757618950039 0.7935198842114308 0.7527022537047158 0.8753117730186537 
Task6 0.0208642713389488 0.1825678950581061 0.08690061224193554 0.22721025293055952 0.46735562035455813 0.3558996050086603 0.6437560266157676 
Task7 0.040020679575018675 0.02108604546018326 0.09174019997388891 0.17403564922520184 0.876528361058095 0.6594009006499761 0.3698830672541295 
Task8 0.057362527390153455 0.19584157707957525 0.37342659828451613 0.3687648632993103 0.4692564907874127 0.5842234774355599 0.775633362711097 
Task9 0.008634641336692474 0.034576254355417536 0.051624215408348974 0.060769064910427974 0.42153228967476064 0.713371805199596 0.4835854214211867 
Task10 0.041821185095728915 0.11734203148725673 0.3828972042930404 0.2886239300181399 0.7513184471126677 0.5325110066320753 0.3637488716407362 
Task11 0.10484923415929152 0.1929132289607976 0.17010515953231795 0.20041993076998857 0.6035893102038536 0.38773939755947423 0.5600209170289747 
Task12 0.0655053659708892 0.03320162297817557 0.5688829919258407 0.29266567122839116 0.6515084459198353 0.8678127535731346 0.9557164813137022 
Task13 0.028786786486231494 0.10609188051312408 0.024622054428075753 0.036893734375216675 0.8186396748068177 0.8298140201839959 0.8313390860334673 
Task14 0.11841489175838031 0.27444617933386123 0.15467786464850833 0.05843403201662234 0.9577924678291863 0.9253062295151322 0.7216996250671346 
Task15 0.006882684978988448 0.029147981548216323 0.09439544437067669 0.02678852011590417 0.7514102848146411 0.5207431234174738 0.7249488553404233 
Task16 0.05865519864809812 0.011272166369867411 0.07570585652537914 0.20893960581438129 0.4602982404082965 0.6288288284687494 0.552441973732565 
Task17 0.061468317885028746 0.06805417597255838 0.5072682213802767 0.3339270146292511 0.34627482776235197 0.9841810152164285 0.802407161597124 
Task18 0.018931003256857735 0.08244502538733463 0.4990906765293989 0.22563831393877684 0.3902464878759868 0.8232407507178796 0.7688557037088071 
Task19 0.0733217167248661 0.08513006856944065 0.19012626593633453 0.1404593055868131 0.8565865870665121 0.4976952756067521 0.4787397516681373 
Task20 0.031100888929770965 0.03128898938123842 0.010405842840772426 0.09083499815360328 0.8569912733593819 0.46069266345547777 0.39393874163860554 
Task21 0.0524543301821541 0.03594258296940661 0.05335125299950256 0.45594198260977753 0.3732702158517657 0.6940734692835057 0.9522854659319646 
Task22 0.06442036827232202 0.004268556656556726 0.12432250893146306 0.27927650225778083 0.8327384376909717 0.7855787593753736 0.32386137245530905 
Task23 0.11429185015471399 0.25713273398637426 0.009931523852024601 0.2719234633943703 0.4831538663109046 0.9231385051032164 0.309098502633416 
Task24 0.008739482950123511 0.21262870983178025 0.11861141267312841 0.1722134070169154 0.9646881515435628 0.9582782842844813 0.6191904176837935 
Task25 0.030842319132784884 0.07987976460106572 0.054021066581484534 0.0610416285574863 0.6178988388873796 0.9208903366057148 0.5276319062886365 
Task26 0.0023784782537917214 0.0015692080668711374 0.005454448110355033 0.005511126493755737 0.868657391044166 0.3783057007011634 0.304263513024241 
Task27 0.05962182135704609 0.17351852161192138 0.32023234120624444 0.10399473792453579 0.7414886943840939 0.6337508697820669 0.33414732509618394 
Task28 0.0050652063393411125 0.05456638278021254 0.5174561486871853 0.2304649709686575 0.3180931012414256 0.7378649515856157 0.5424320543968659 
Task29 0.027620972838225823 0.20302642038922183 0.17877411925439685 0.08303150537957656 0.5689354586830664 0.9276114047677979 0.8359639216442605 
Task30 0.08099830191955604 0.07079338971573049 0.15334241592918554 0.18978056672968152 0.3523535925973321 0.3042641648337455 0.5186488656269412 
Task31 0.09411862270233465 0.1433615093826292 0.1974421974955495 0.0921611903089632 0.5584678412407464 0.8080595429701016 0.7466917356266298 
Task32 0.08075253343289276 0.0014772798668844503 0.18152706431676405 0.22421343305524208 0.44108040359623735 0.7234301837561626 0.9053512502562513 
Task33 0.008283813517530013 0.03525041683612786 0.03387109572183438 0.023525680504731437 0.5281572002879131 0.7591800846547834 0.5559575218889875 
Task34 0.14692607640019792 0.02197738371119949 0.37934070057231095 0.2531065623535881 0.3741548372338037 0.8827759780625937 0.7689601205434937 
Task35 0.0031961835792131744 0.004676463971430816 0.005325963533816659 0.007071167138776185 0.33353814267525594 0.8087501637223773 0.7079685589217757 
Task36 0.1733524097769889 0.2380486468808982 0.13056288205881997 0.4544788373628304 0.7777683900869745 0.8344189769491017 0.40423010001319476 
Task37 0.005153561524481111 0.05427325424027097 0.03519708374065728 0.07358252584739079 0.718966037862746 0.9727840244357657 0.3271133858803311 
Task38 0.06600811778414245 0.27109141731755526 0.06416299727613906 0.2763750359274284 0.638962721244371 0.9885824468534896 0.9881300911050468 
Task39 0.10572948974369575 0.22771069708561253 0.03637405131551138 0.5420667840487373 0.37309358639546475 0.41042023411170964 0.9469334422945412 
Task40 0.16368233281891084 0.301688066890392 0.10258464351943289 0.3699643476011786 0.881446251669066 0.8571889236185188 0.5120616892703849 
Task41 0.08683059654886842 0.2337785754090124 0.2708163551324653 0.20607387696052898 0.7715380789915276 0.4737667353263796 0.518545394192568 
Task42 0.016496363896520955 0.654344218589008 0.06006674962926274 0.0870752818414846 0.38034950468777934 0.5437223558699389 0.32381360059159486 
Task43 0.11088797733736293 0.15489799862268333 0.21980645212479435 0.08987475535255808 0.31948093931366905 0.6182382881654094 0.4151942947892401 
Task44 0.06372505826538631 0.1032002953009942 0.12009572003768375 0.10375306325924259 0.351491063587868 0.49627402088751166 0.7010692575162922 
Task45 0.051895944187270664 0.2260523313649913 0.013066267477016506 0.26020030251775794 0.7188138314400317 0.8915315730235409 0.47099818417495787 
Task46 0.12588004838165395 0.21560568314086379 0.19911949165299694 0.10487752460919651 0.6828240631980553 0.8301349750658151 0.8137882451186325 
Task47 0.13089379999443215 0.31366196946716585 0.019213029768285886 0.33288362724386394 0.9917652506566126 0.7334955890942153 0.8252345053229035 
Task48 0.0772791270797158 0.0822724151183125 0.29871803323757523 0.23258757259919968 0.46036366177993826 0.3583082007729352 0.6176864780278288 
Task49 0.0459701843731565 0.03903792049525381 0.07288885925392191 0.07560768281237273 0.8327243972382723 0.540485455029432 0.7269923413181075 
Task50 0.005828950040899904 0.048456298861391106 0.013174375394167529 0.12336291829052509 0.8738209684606253 0.870490944946066 0.3229091474065604 
Task51 0.12882822100856092 0.22513935660545067 0.581324353357553 0.04173189268276685 0.3550322793141329 0.706822126162628 0.8378604377197678 
Task52 0.11081652153349004 0.5978447538432204 0.025200026845239965 0.13140650153776504 0.5579349722790333 0.5255302195658227 0.5595645439254349 
Task53 0.01602870845091365 0.002369927364744677 0.06840917930399756 0.0059264698279418255 0.7964117396645902 0.9430740476474835 0.7313173607278465 
Task54 0.00693843770678132 0.09397883934538379 0.13627990518009256 0.19962151116631016 0.8814023099610093 0.9850501461830299 0.546002165009194 
Task55 0.15150129670982518 0.551807001688906 0.02745530691244632 0.2217469309469597 0.31459098493429766 0.8500549815408005 0.5509769802644201 
Task56 0.15947777485684234 0.18994392122141146 0.25188807310808226 0.30696950021203623 0.5339664494631048 0.4031219086241876 0.9092062486299868 
Task57 0.05363963355217149 0.03530062418872537 0.15228928220427446 0.2058611877959343 0.6206005602812859 0.3761241381233164 0.8913032445391826 
Task58 0.019282823271453836 0.07165598520870212 0.06166798733141414 0.04600853609681035 0.9448475767115418 0.7825994102155329 0.5306369305439448 
Task59 0.008907374829271876 0.027429071109044915 0.08407044911630666 0.032601580363321045 0.5109493062600775 0.34482504308282846 0.6279500886392025 
Task60 0.004632170233697143 0.024950663436499366 0.020034047081897752 0.010273159855784692 0.6753203175891138 0.3485456476983488 0.8041889552645092 
Task61 0.05177916083232637 0.14679771334463704 0.3509249495240046 0.11474396622011553 0.829855196438765 0.33145907713147205 0.357949804474951 
Task62 0.006965753666494666 0.018983461915306327 0.019012181314857306 0.03980691960140673 0.7401369456411188 0.5174526937167083 0.47660114496278533 
Task63 0.015820213489986832 0.11438598443748474 0.6114491850251902 0.14218686568395553 0.3133642276905121 0.5073476714597767 0.7924408451030431 
Task64 0.12137400681192081 0.11559848848677744 0.11383818691876671 0.2744118593622852 0.5560508942954381 0.34074090980597393 0.733623081439636 
Task65 0.09506319737459637 0.08653124156366679 0.14132718599328511 0.3960810388915639 0.6137466486431467 0.3971671206253602 0.6021331457767409 
Task66 0.010854655471339417 0.01215175983413568 0.018574910980265338 0.01538624549288401 0.5692184246206282 0.879889932885257 0.9918541801649616 
Task67 0.015651326752990455 0.27801148045411667 0.07803719064071438 0.25969278779680377 0.3118404718134297 0.7050482293616184 0.4866415798084175 
Task68 0.036199377258233446 0.07837269343918941 0.05370851673696143 0.013803481438283777 0.6800538443920425 0.5726530155878786 0.39196683262816207 
Task69 0.10317999883254665 0.12979152947098144 0.13691806154307992 0.30759107537782965 0.547693412358341 0.8549799634156972 0.6876273933074626 
Task70 0.1711459770894537 0.06684997058810979 0.35264635335737676 0.31060393706706635 0.6335221583243467 0.9345664004059666 0.6402749931122138 
Task71 0.09704184802693494 0.10607771709356852 0.3635403406968987 0.009563239503142017 0.5765568252486669 0.44725456366656446 0.6230254007029108 
Task72 0.10367488625040373 0.22222095270445674 0.3396355197939137 0.07083016470392674 0.6441337643576326 0.4892689203367877 0.7540238791627005 
Task73 0.02055960605017819 0.5018423836010975 0.1356644345279689 0.3262688321341188 0.4035285813225353 0.3924506692475927 0.6550652419678764 
Task74 0.13341397386429596 0.12712047289758668 0.3693526851485954 0.12290305365075714 0.8132374454716291 0.836073316353334 0.9340291865312482 
Task75 0.1040597562485626 0.007250151692299505 0.14379448468261277 0.30969145716880897 0.3311001817476569 0.6514970570119873 0.9595621630586781 
Task76 0.08981787799817681 0.07636159476545512 0.22217084398174095 0.08865921170224245 0.8376649792908402 0.7330513457630508 0.9445847993508536 
Task77 0.04379728907215401 0.18803686632667588 0.25338676249382214 0.294858259438293 0.9440614081046887 0.3766483628016084 0.7643324185563927 
Task78 0.006865128715086277 0.002846179156245645 0.032733048148696396 0.012717067455641566 0.46163448480206903 0.5205834110253569 0.541129937640453 
Task79 0.00290557483306194 0.011245258477531278 0.012053526425954026 0.017621049212462856 0.6878633159107999 0.6829138663247305 0.8457618956373314 
Task80 0.005601064418610373 0.029855273535143948 0.004598099812518731 0.028166579634837253 0.3052823421927914 0.7792056763712644 0.4747079965177968 
Task81 0.008057502748557977 0.0769508454265174 0.07931629676741057 0.1614520566983452 0.9403215945852601 0.5369498367081942 0.35024472432047976 
Task82 0.015912737676924027 0.16009598004093473 0.08162582226283205 0.10936369050154048 0.6629944766464955 0.8334956858103775 0.785307467049273 
Task83 0.011886901897631747 0.043905568060743735 0.039966467269904986 0.010999720788569667 0.8686525205102171 0.4276259259125995 0.870402207532379 
Task84 0.0004939231430521817 0.35323542734357355 0.32910843493680364 0.12285517461267507 0.41447139100329744 0.5749260273148444 0.4042890357848596 
Task85 0.14325126926457243 0.2481680389668357 0.17945966258705465 0.2012920124958642 0.7277983959718655 0.7539865113596849 0.7676231458659192 
Task86 0.07016372814590709 0.125821545700792 0.2576299178555994 0.18834902275788257 0.3634097775799559 0.97673829779568 0.8290473012038493 
Task87 0.01517625932004173 0.029479340292203046 0.051294382466381835 0.047683818238789866 0.8364682342559093 0.3126470692661224 0.6062961274274858 
Task88 0.012028727697367998 0.20107531086455643 0.009031199199299454 0.1527306613334985 0.9917442046407603 0.944543217838828 0.8510841178815212 
Task89 0.10557110136602219 0.05975366630630733 0.28841208250804 0.33202846728118757 0.4458092219012608 0.45914379689898643 0.780680631627885 
Task90 0.005442273389187825 0.02239308698350083 0.026988183167042722 0.02482836854450312 0.9013542309360596 0.7606795304507046 0.5078809468519976 
Task91 0.08187084940856316 0.3234786722839737 0.033577626470486094 0.36546219889438886 0.5512053052771161 0.4739557788584008 0.4955239132471383 
Task92 0.010540463311211657 0.033510253921286814 0.2242267095867873 0.04779775445290914 0.9756309601181177 0.6653202333972585 0.7598696463062373 
Task93 0.09157907541685215 0.38806587100593415 0.10754283646410097 0.23411581256055328 0.7794161304115625 0.3877996010405709 0.45533802632161946 
Task94 0.12462591072507019 0.2639049639804895 0.07320432836278112 0.37069369613608605 0.5484026108528997 0.33188016584055396 0.3435917386735667 
Task95 0.0010987444867603848 0.0002902301377328402 0.008716179005268715 0.0013109205683109488 0.43310761580185964 0.33730430826998214 0.6071155463005293 
Task96 0.10069167498495399 0.060576390057919025 0.20727318387179172 0.2299719024307675 0.37691594833630127 0.8074153514167304 0.7801723819379065 
Task97 0.011678466645525373 0.2896403562122107 0.024949800138413553 0.3121789885882178 0.6479382845483062 0.6019781429815879 0.8651608891846805 
Task98 0.048043265675595234 0.11405132173770724 0.1928456688620772 0.029232555069945754 0.410157820833172 0.7667099076020149 0.6980157123157902 
Task99 0.02041762565487387 0.42624326080208896 0.2893462358800473 0.07600411651221735 0.5661593696815848 0.36469756629072353 0.31849607665393476 
