files/tasks_parameters/ExAp01/sample8.txt 1.82474 6.77015 2.19458 0.288816 4.65383
files/tasks_parameters/ExAp01/sample12.txt 2.18972 9.58351 2.46081 0.337498 5.43826
files/tasks_parameters/ExAp01/sample2.txt 2.00815 8.44418 2.50701 0.319127 5.14224
files/tasks_parameters/ExAp01/sample44.txt 1.78854 6.96299 2.23089 0.28229 4.54867
files/tasks_parameters/ExAp01/sample27.txt 1.8561 7.74306 2.16676 0.28602 4.60877
files/tasks_parameters/ExAp01/sample17.txt 1.87493 7.35053 2.25579 0.292348 4.71073
files/tasks_parameters/ExAp01/sample9.txt 1.79269 6.89392 2.21068 0.282399 4.55042
files/tasks_parameters/ExAp01/sample34.txt 1.91052 6.62788 2.3772 0.297742 4.79764
files/tasks_parameters/ExAp01/sample40.txt 1.79735 7.75686 2.17534 0.285619 4.60231
files/tasks_parameters/ExAp01/sample33.txt 2.12865 8.14826 2.6463 0.338073 5.44752
files/tasks_parameters/ExAp01/sample48.txt 1.72691 7.64107 2.14272 0.270011 4.35081
files/tasks_parameters/ExAp01/sample29.txt 1.83687 7.139 1.93769 0.286306 4.61337
files/tasks_parameters/ExAp01/sample11.txt 1.79191 6.88688 2.12981 0.280008 4.5119
files/tasks_parameters/ExAp01/sample14.txt 1.57139 6.11983 1.97599 0.247458 3.9874
files/tasks_parameters/ExAp01/sample0.txt 1.89 8.2738 2.14256 0.289132 4.65891
files/tasks_parameters/ExAp01/sample7.txt 1.69685 6.87011 2.05821 0.269886 4.34879
files/tasks_parameters/ExAp01/sample23.txt 1.86274 6.52032 2.38087 0.291712 4.70048
files/tasks_parameters/ExAp01/sample13.txt 1.92097 8.73247 2.33415 0.295393 4.75979
files/tasks_parameters/ExAp01/sample22.txt 1.83551 6.9777 2.28948 0.283979 4.57588
files/tasks_parameters/ExAp01/sample25.txt 1.6906 6.23444 2.2122 0.267298 4.30709
files/tasks_parameters/ExAp01/sample36.txt 1.6287 6.6174 1.9458 0.253823 4.08996
files/tasks_parameters/ExAp01/sample46.txt 2.06166 7.42369 2.49128 0.327273 5.27349
files/tasks_parameters/ExAp01/sample31.txt 1.6205 7.22028 2.13584 0.25377 4.08911
files/tasks_parameters/ExAp01/sample37.txt 1.93663 8.90704 2.16981 0.295708 4.76488
files/tasks_parameters/ExAp01/sample16.txt 1.65319 8.18243 1.88294 0.24945 4.01949
files/tasks_parameters/ExAp01/sample10.txt 1.82102 6.96646 2.31217 0.285748 4.60438
files/tasks_parameters/ExAp01/sample39.txt 1.59146 6.4161 1.97266 0.251967 4.06005
files/tasks_parameters/ExAp01/sample19.txt 1.98731 8.16711 2.23199 0.308463 4.9704
files/tasks_parameters/ExAp01/sample20.txt 1.67184 7.28549 1.88944 0.25994 4.18853
files/tasks_parameters/ExAp01/sample43.txt 1.63825 6.86804 2.00142 0.25616 4.12762
files/tasks_parameters/ExAp01/sample32.txt 1.825 8.15663 2.12995 0.281726 4.53958
files/tasks_parameters/ExAp01/sample45.txt 1.8001 7.75184 2.10599 0.274935 4.43015
files/tasks_parameters/ExAp01/sample26.txt 1.67503 7.4944 1.88956 0.267248 4.30629
files/tasks_parameters/ExAp01/sample5.txt 1.83003 8.08362 2.09961 0.28454 4.58493
files/tasks_parameters/ExAp01/sample21.txt 1.67971 6.11814 2.17119 0.26143 4.21253
files/tasks_parameters/ExAp01/sample38.txt 1.68557 7.761 1.96293 0.263659 4.24845
files/tasks_parameters/ExAp01/sample1.txt 1.82791 7.83752 2.13261 0.289228 4.66046
files/tasks_parameters/ExAp01/sample15.txt 1.81877 7.37971 2.12057 0.285825 4.60563
files/tasks_parameters/ExAp01/sample24.txt 1.88737 8.28531 2.25272 0.296628 4.77971
files/tasks_parameters/ExAp01/sample3.txt 1.90961 7.33359 2.39135 0.305084 4.91596
files/tasks_parameters/ExAp01/sample6.txt 1.80289 7.09894 2.24425 0.281804 4.54084
files/tasks_parameters/ExAp01/sample30.txt 1.94227 8.17669 2.03701 0.299204 4.82121
files/tasks_parameters/ExAp01/sample42.txt 1.88098 7.70416 2.42413 0.29743 4.79262
files/tasks_parameters/ExAp01/sample4.txt 1.98547 7.41691 2.36261 0.307803 4.95976
files/tasks_parameters/ExAp01/sample28.txt 1.69141 7.0562 2.07657 0.266428 4.29307
files/tasks_parameters/ExAp01/sample18.txt 1.72495 7.60139 2.1377 0.268016 4.31866
files/tasks_parameters/ExAp01/sample35.txt 2.07932 9.66795 2.28028 0.32244 5.19561
files/tasks_parameters/ExAp01/sample47.txt 1.61723 6.84842 2.12104 0.251655 4.05502
files/tasks_parameters/ExAp01/sample49.txt 1.63858 7.1497 2.11412 0.255889 4.12325
files/tasks_parameters/ExAp01/sample41.txt 1.67975 6.59911 2.07359 0.265885 4.28433
