0.30175179
Task0 15 3 3 
Task1 63 63 7 
Task2 31 7 3 
Task3 7 3 63 
Task4 1 7 31 
Task5 7 3 63 
Task6 15 15 31 
Task7 15 31 7 
Task8 3 1 63 
Task9 31 3 1 
Task10 1 31 1 
Task11 3 31 7 
Task12 1 31 7 
Task13 31 63 31 
Task14 15 15 63 
Task15 63 3 7 
Task16 127 255 255 
Task17 15 63 1 
Task18 7 255 15 
Task19 15 31 7 
Task20 31 15 3 
Task21 255 127 1 
Task22 15 1 63 
Task23 7 3 31 
Task24 255 255 255 
Task25 15 255 15 
Task26 7 3 31 
Task27 31 7 7 
Task28 31 31 15 
Task29 63 31 31 
Task30 31 1 7 
Task31 31 1 3 
Task32 15 3 15 
Task33 3 15 7 
Task34 15 31 31 
Task35 15 31 3 
Task36 15 31 3 
Task37 255 1 7 
Task38 31 63 1 
Task39 1 3 31 
Task40 3 31 15 
Task41 1 31 3 
Task42 31 7 1 
Task43 7 15 15 
Task44 7 63 31 
Task45 7 3 31 
Task46 3 31 1 
Task47 63 31 15 
Task48 3 255 63 
Task49 31 15 31 
Task50 7 63 7 
Task51 31 15 255 
Task52 3 3 31 
Task53 3 63 15 
Task54 31 1 15 
Task55 1 15 3 
Task56 31 31 31 
Task57 15 31 31 
Task58 7 31 255 
Task59 31 31 15 
Task60 255 7 63 
Task61 15 15 15 
Task62 255 3 1 
Task63 7 15 31 
Task64 127 255 63 
Task65 63 63 3 
Task66 31 1 3 
Task67 15 7 31 
Task68 7 63 1 
Task69 255 127 63 
Task70 15 63 1 
Task71 15 31 31 
Task72 15 63 15 
Task73 255 1 63 
Task74 3 15 255 
Task75 127 31 63 
Task76 31 1 31 
Task77 15 31 3 
Task78 15 31 15 
Task79 31 15 7 
Task80 7 3 31 
Task81 255 127 3 
Task82 15 63 7 
Task83 63 255 31 
Task84 31 63 31 
Task85 7 1 31 
Task86 63 31 7 
Task87 3 31 3 
Task88 15 63 7 
Task89 3 15 63 
Task90 31 1 15 
Task91 15 31 1 
Task92 31 31 3 
Task93 31 255 7 
Task94 31 7 15 
Task95 63 63 31 
Task96 15 63 3 
Task97 15 63 3 
Task98 31 3 127 
Task99 31 15 31 
