files/tasks_parameters/ExAp01/sample8.txt 0.796368 3.15778 1.5595 0.203411 4.41783
files/tasks_parameters/ExAp01/sample12.txt 0.806027 3.94962 1.6705 0.207924 4.51585
files/tasks_parameters/ExAp01/sample2.txt 0.768548 3.78275 1.74131 0.200098 4.34587
files/tasks_parameters/ExAp01/sample44.txt 0.688067 3.59825 1.65317 0.200005 4.34386
files/tasks_parameters/ExAp01/sample27.txt 0.680558 3.45743 1.5148 0.182129 3.9556
files/tasks_parameters/ExAp01/sample17.txt 0.925109 2.77299 1.44514 0.14646 3.18092
files/tasks_parameters/ExAp01/sample9.txt 0.740389 2.99933 1.451 0.177444 3.85385
files/tasks_parameters/ExAp01/sample34.txt 0.831645 3.02928 1.58429 0.157984 3.43121
files/tasks_parameters/ExAp01/sample40.txt 0.764924 3.86889 1.52122 0.168379 3.65699
files/tasks_parameters/ExAp01/sample33.txt 0.800579 3.63695 1.71905 0.199765 4.33864
files/tasks_parameters/ExAp01/sample48.txt 0.682426 3.39061 1.49062 0.154728 3.3605
files/tasks_parameters/ExAp01/sample29.txt 0.751657 3.30472 1.38739 0.223868 4.86214
files/tasks_parameters/ExAp01/sample11.txt 0.707448 3.10585 1.41612 0.174079 3.78077
files/tasks_parameters/ExAp01/sample14.txt 0.655815 2.70971 1.43432 0.162214 3.52309
files/tasks_parameters/ExAp01/sample0.txt 0.745537 3.6937 1.5439 0.18367 3.98908
files/tasks_parameters/ExAp01/sample7.txt 0.809856 2.70501 1.42221 0.143463 3.11585
files/tasks_parameters/ExAp01/sample23.txt 0.761023 3.2697 1.57822 0.181448 3.94083
files/tasks_parameters/ExAp01/sample13.txt 0.730783 3.84225 1.67648 0.198247 4.30568
files/tasks_parameters/ExAp01/sample22.txt 0.901802 3.09569 1.56121 0.148796 3.23167
files/tasks_parameters/ExAp01/sample25.txt 0.746637 2.73966 1.5007 0.148149 3.2176
files/tasks_parameters/ExAp01/sample36.txt 0.831859 2.85948 1.28553 0.130042 2.82436
files/tasks_parameters/ExAp01/sample46.txt 0.758349 3.58643 1.69998 0.210103 4.56317
files/tasks_parameters/ExAp01/sample31.txt 0.707306 3.4832 1.53782 0.1722 3.73997
files/tasks_parameters/ExAp01/sample37.txt 0.773899 3.95293 1.50705 0.171701 3.72913
files/tasks_parameters/ExAp01/sample16.txt 0.609691 3.31216 1.30115 0.150249 3.26322
files/tasks_parameters/ExAp01/sample10.txt 1.10417 3.17098 1.61789 0.153776 3.33983
files/tasks_parameters/ExAp01/sample39.txt 0.700403 3.26617 1.44406 0.165669 3.59812
files/tasks_parameters/ExAp01/sample19.txt 0.767766 3.63532 1.52509 0.196094 4.25893
files/tasks_parameters/ExAp01/sample20.txt 0.662661 3.20793 1.25367 0.147335 3.19994
files/tasks_parameters/ExAp01/sample43.txt 0.647138 3.11551 1.4202 0.150644 3.27181
files/tasks_parameters/ExAp01/sample32.txt 0.722684 3.5311 1.42482 0.168744 3.66491
files/tasks_parameters/ExAp01/sample45.txt 0.764674 3.80283 1.48324 0.19807 4.30184
files/tasks_parameters/ExAp01/sample26.txt 0.630972 3.21645 1.29701 0.166061 3.60664
files/tasks_parameters/ExAp01/sample5.txt 0.632654 3.5889 1.52559 0.178903 3.88556
files/tasks_parameters/ExAp01/sample21.txt 0.668582 2.75242 1.55936 0.19512 4.23777
files/tasks_parameters/ExAp01/sample38.txt 0.677735 3.31563 1.37515 0.166157 3.60872
files/tasks_parameters/ExAp01/sample1.txt 0.715857 3.74964 1.51696 0.19701 4.2788
files/tasks_parameters/ExAp01/sample15.txt 0.693367 3.32916 1.48508 0.180707 3.92474
files/tasks_parameters/ExAp01/sample24.txt 0.861271 3.45951 1.59549 0.16529 3.5899
files/tasks_parameters/ExAp01/sample3.txt 0.889024 3.70014 1.70809 0.237107 5.14967
files/tasks_parameters/ExAp01/sample6.txt 0.730089 3.33003 1.58323 0.184714 4.01177
files/tasks_parameters/ExAp01/sample30.txt 0.911641 4.1841 1.4861 0.239623 5.20431
files/tasks_parameters/ExAp01/sample42.txt 0.747833 3.43221 1.70276 0.177383 3.85253
files/tasks_parameters/ExAp01/sample4.txt 0.767685 3.72477 1.6136 0.196448 4.26661
files/tasks_parameters/ExAp01/sample28.txt 0.689545 3.11323 1.45032 0.158819 3.44935
files/tasks_parameters/ExAp01/sample18.txt 0.769617 3.47418 1.45209 0.149064 3.23748
files/tasks_parameters/ExAp01/sample35.txt 0.804343 4.57086 1.49394 0.185031 4.01864
files/tasks_parameters/ExAp01/sample47.txt 0.712764 3.13768 1.52397 0.16417 3.56557
files/tasks_parameters/ExAp01/sample49.txt 0.776571 3.13288 1.49657 0.156154 3.39147
files/tasks_parameters/ExAp01/sample41.txt 0.761232 2.81964 1.49636 0.150876 3.27684
