files/tasks_parameters/ExAp01/sample8.txt 1.08361 3.76817 4.3855 0.450105 9.77572
files/tasks_parameters/ExAp01/sample12.txt 1.49418 5.03638 5.18776 0.610564 13.2607
files/tasks_parameters/ExAp01/sample2.txt 1.38471 4.58991 5.64606 0.613877 13.3326
files/tasks_parameters/ExAp01/sample44.txt 1.24953 3.77401 5.66946 0.551838 11.9852
files/tasks_parameters/ExAp01/sample27.txt 1.29418 4.13937 5.56136 0.55779 12.1145
files/tasks_parameters/ExAp01/sample17.txt 1.19417 3.76163 5.38341 0.520991 11.3153
files/tasks_parameters/ExAp01/sample9.txt 1.16167 3.69889 5.2981 0.511699 11.1135
files/tasks_parameters/ExAp01/sample34.txt 1.13513 3.52435 5.83741 0.49187 10.6828
files/tasks_parameters/ExAp01/sample40.txt 1.15486 4.06185 5.0335 0.496884 10.7917
files/tasks_parameters/ExAp01/sample33.txt 1.55311 4.82091 5.83886 0.651963 14.1598
files/tasks_parameters/ExAp01/sample48.txt 1.07591 4.01134 5.07085 0.447927 9.72842
files/tasks_parameters/ExAp01/sample29.txt 1.46117 4.20847 5.0406 0.643694 13.9802
files/tasks_parameters/ExAp01/sample11.txt 1.31879 3.94699 5.29198 0.557276 12.1033
files/tasks_parameters/ExAp01/sample14.txt 1.07916 3.54059 4.58345 0.466713 10.1364
files/tasks_parameters/ExAp01/sample0.txt 1.50771 4.82755 4.90216 0.623551 13.5427
files/tasks_parameters/ExAp01/sample7.txt 1.15002 3.60766 5.11185 0.509566 11.0671
files/tasks_parameters/ExAp01/sample23.txt 1.39278 3.81403 5.45799 0.582911 12.6601
files/tasks_parameters/ExAp01/sample13.txt 1.48742 4.8894 5.26818 0.624499 13.5633
files/tasks_parameters/ExAp01/sample22.txt 1.29069 3.76156 4.95746 0.534216 11.6025
files/tasks_parameters/ExAp01/sample25.txt 0.982879 2.94144 4.92622 0.403639 8.76654
files/tasks_parameters/ExAp01/sample36.txt 1.25826 3.56164 4.5806 0.501799 10.8984
files/tasks_parameters/ExAp01/sample46.txt 1.23268 3.84833 4.7121 0.530701 11.5262
files/tasks_parameters/ExAp01/sample31.txt 1.09399 3.764 5.08385 0.479734 10.4192
files/tasks_parameters/ExAp01/sample37.txt 1.52462 4.43254 5.65111 0.65143 14.1483
files/tasks_parameters/ExAp01/sample16.txt 1.27159 4.49741 4.8895 0.509171 11.0586
files/tasks_parameters/ExAp01/sample10.txt 1.38978 3.87086 6.07511 0.60993 13.2469
files/tasks_parameters/ExAp01/sample39.txt 1.04986 3.66299 4.54281 0.463671 10.0704
files/tasks_parameters/ExAp01/sample19.txt 1.40919 3.86694 5.14047 0.615987 13.3785
files/tasks_parameters/ExAp01/sample20.txt 1.30362 4.09945 5.13368 0.580369 12.6049
files/tasks_parameters/ExAp01/sample43.txt 1.15342 3.75825 5.55698 0.530892 11.5303
files/tasks_parameters/ExAp01/sample32.txt 1.42867 4.0352 5.29178 0.587643 12.7629
files/tasks_parameters/ExAp01/sample45.txt 1.22577 3.94578 4.87833 0.541081 11.7516
files/tasks_parameters/ExAp01/sample26.txt 1.11308 3.50998 4.55035 0.474009 10.2949
files/tasks_parameters/ExAp01/sample5.txt 1.3557 4.00994 5.27725 0.587681 12.7637
files/tasks_parameters/ExAp01/sample21.txt 0.933921 2.8974 4.54677 0.430037 9.33987
files/tasks_parameters/ExAp01/sample38.txt 1.19214 3.56689 4.78573 0.492366 10.6936
files/tasks_parameters/ExAp01/sample1.txt 1.15496 3.69002 4.55048 0.481074 10.4483
files/tasks_parameters/ExAp01/sample15.txt 1.20629 3.73223 5.42493 0.524964 11.4016
files/tasks_parameters/ExAp01/sample24.txt 1.29646 4.18053 5.40377 0.542575 11.7841
files/tasks_parameters/ExAp01/sample3.txt 1.08376 3.70547 4.7118 0.470503 10.2187
files/tasks_parameters/ExAp01/sample6.txt 1.42018 4.07521 5.71419 0.626702 13.6112
files/tasks_parameters/ExAp01/sample30.txt 1.4948 3.97446 5.82388 0.626709 13.6113
files/tasks_parameters/ExAp01/sample42.txt 1.29681 4.44207 5.58473 0.537025 11.6635
files/tasks_parameters/ExAp01/sample4.txt 1.33245 3.92181 4.49751 0.556974 12.0968
files/tasks_parameters/ExAp01/sample28.txt 1.06685 3.13496 4.88321 0.444588 9.6559
files/tasks_parameters/ExAp01/sample18.txt 1.22803 3.95301 4.52898 0.537438 11.6725
files/tasks_parameters/ExAp01/sample35.txt 1.80806 5.75923 6.25034 0.752488 16.3431
files/tasks_parameters/ExAp01/sample47.txt 1.16153 3.44018 5.14289 0.540033 11.7289
files/tasks_parameters/ExAp01/sample49.txt 1.19873 3.38981 4.72409 0.493041 10.7082
files/tasks_parameters/ExAp01/sample41.txt 1.10214 3.58692 5.27252 0.492391 10.6941
