files/tasks_parameters/ExAp01/sample8.txt 1.16985 6.77015 2.19458 0.288816 8.5058
files/tasks_parameters/ExAp01/sample12.txt 1.20994 9.58351 2.46081 0.337498 9.93952
files/tasks_parameters/ExAp01/sample2.txt 1.16947 8.44418 2.50701 0.319127 9.39847
files/tasks_parameters/ExAp01/sample44.txt 1.06287 6.96299 2.23089 0.28229 8.31361
files/tasks_parameters/ExAp01/sample27.txt 1.13828 7.74306 2.16676 0.28602 8.42344
files/tasks_parameters/ExAp01/sample17.txt 1.02189 7.35053 2.25579 0.292348 8.6098
files/tasks_parameters/ExAp01/sample9.txt 1.0042 6.89392 2.21068 0.282399 8.3168
files/tasks_parameters/ExAp01/sample34.txt 1.02977 6.62788 2.3772 0.297742 8.76866
files/tasks_parameters/ExAp01/sample40.txt 0.963492 7.75686 2.17534 0.285619 8.41164
files/tasks_parameters/ExAp01/sample33.txt 1.19933 8.14826 2.6463 0.338073 9.95644
files/tasks_parameters/ExAp01/sample48.txt 0.931253 7.64107 2.14272 0.270011 7.95198
files/tasks_parameters/ExAp01/sample29.txt 1.02434 7.139 1.93769 0.286306 8.43186
files/tasks_parameters/ExAp01/sample11.txt 1.00571 6.88688 2.12981 0.280008 8.2464
files/tasks_parameters/ExAp01/sample14.txt 0.898874 6.11983 1.97599 0.247458 7.28776
files/tasks_parameters/ExAp01/sample0.txt 1.06919 8.2738 2.14256 0.289132 8.51509
files/tasks_parameters/ExAp01/sample7.txt 0.977527 6.87011 2.05821 0.269886 7.94828
files/tasks_parameters/ExAp01/sample23.txt 1.0535 6.52032 2.38087 0.291712 8.59107
files/tasks_parameters/ExAp01/sample13.txt 1.10406 8.73247 2.33415 0.295393 8.69947
files/tasks_parameters/ExAp01/sample22.txt 1.02684 6.9777 2.28948 0.283979 8.36334
files/tasks_parameters/ExAp01/sample25.txt 0.95073 6.23444 2.2122 0.267298 7.87206
files/tasks_parameters/ExAp01/sample36.txt 0.96359 6.6174 1.9458 0.253823 7.47522
files/tasks_parameters/ExAp01/sample46.txt 1.22678 7.42369 2.49128 0.327273 9.63837
files/tasks_parameters/ExAp01/sample31.txt 0.876131 7.22028 2.13584 0.25377 7.47366
files/tasks_parameters/ExAp01/sample37.txt 1.01685 8.90704 2.16981 0.295708 8.70876
files/tasks_parameters/ExAp01/sample16.txt 1.04927 8.18243 1.88294 0.24945 7.34643
files/tasks_parameters/ExAp01/sample10.txt 1.0769 6.96646 2.31217 0.285748 8.41543
files/tasks_parameters/ExAp01/sample39.txt 0.950845 6.4161 1.97266 0.251967 7.42056
files/tasks_parameters/ExAp01/sample19.txt 1.16648 8.16711 2.23199 0.308463 9.0844
files/tasks_parameters/ExAp01/sample20.txt 0.940493 7.28549 1.88944 0.25994 7.65537
files/tasks_parameters/ExAp01/sample43.txt 0.909884 6.86804 2.00142 0.25616 7.54406
files/tasks_parameters/ExAp01/sample32.txt 1.00822 8.15663 2.12995 0.281726 8.297
files/tasks_parameters/ExAp01/sample45.txt 0.989708 7.75184 2.10599 0.274935 8.09698
files/tasks_parameters/ExAp01/sample26.txt 0.939307 7.4944 1.88956 0.267248 7.8706
files/tasks_parameters/ExAp01/sample5.txt 1.0553 8.08362 2.09961 0.28454 8.37987
files/tasks_parameters/ExAp01/sample21.txt 0.887274 6.11814 2.17119 0.26143 7.69925
files/tasks_parameters/ExAp01/sample38.txt 0.923611 7.761 1.96293 0.263659 7.7649
files/tasks_parameters/ExAp01/sample1.txt 1.0997 7.83752 2.13261 0.289228 8.51793
files/tasks_parameters/ExAp01/sample15.txt 0.992442 7.37971 2.12057 0.285825 8.41772
files/tasks_parameters/ExAp01/sample24.txt 1.08469 8.28531 2.25272 0.296628 8.73587
files/tasks_parameters/ExAp01/sample3.txt 1.17643 7.33359 2.39135 0.305084 8.98491
files/tasks_parameters/ExAp01/sample6.txt 1.0176 7.09894 2.24425 0.281804 8.29929
files/tasks_parameters/ExAp01/sample30.txt 1.12214 8.17669 2.03701 0.299204 8.81173
files/tasks_parameters/ExAp01/sample42.txt 1.0972 7.70416 2.42413 0.29743 8.75948
files/tasks_parameters/ExAp01/sample4.txt 1.1462 7.41691 2.36261 0.307803 9.06496
files/tasks_parameters/ExAp01/sample28.txt 0.961887 7.0562 2.07657 0.266428 7.84645
files/tasks_parameters/ExAp01/sample18.txt 0.933552 7.60139 2.1377 0.268016 7.89322
files/tasks_parameters/ExAp01/sample35.txt 1.2181 9.66795 2.28028 0.32244 9.49602
files/tasks_parameters/ExAp01/sample47.txt 0.94647 6.84842 2.12104 0.251655 7.41137
files/tasks_parameters/ExAp01/sample49.txt 0.990584 7.1497 2.11412 0.255889 7.53607
files/tasks_parameters/ExAp01/sample41.txt 0.980618 6.59911 2.07359 0.265885 7.83047
