0 34
0 35
0 43
1 33
1 35
2 34
2 40
2 42
2 43
2 46
2 48
2 49
3 33
3 34
3 35
3 36
3 44
3 47
3 49
4 34
4 40
4 47
5 34
5 40
5 47
5 49
6 40
6 41
6 42
6 43
6 45
6 49
7 33
7 34
7 42
7 43
8 33
8 35
8 42
8 43
8 47
8 48
9 33
9 34
9 42
10 35
10 36
10 45
10 49
11 43
11 44
11 49
12 33
12 49
13 34
13 38
13 44
13 45
13 49
14 34
14 43
14 44
15 34
15 35
15 41
15 44
15 46
15 48
16 40
16 43
16 47
16 49
17 33
17 41
17 47
18 33
18 37
18 44
18 47
18 49
19 33
20 33
20 36
20 42
20 43
21 42
21 43
21 45
22 34
22 37
22 42
22 43
22 46
23 34
23 35
23 37
23 41
23 42
23 44
23 49
24 35
24 40
24 42
24 43
25 35
25 37
25 40
25 41
25 43
25 49
26 47
27 33
27 34
27 35
27 37
27 43
28 33
28 34
28 35
28 37
28 44
28 48
28 49
29 33
29 34
29 35
29 49
30 37
30 39
31 33
31 34
31 35
31 43
31 48
32 47
33 50
33 52
33 53
33 55
33 57
33 62
33 63
33 65
33 66
33 72
34 51
34 52
34 55
34 56
34 63
34 68
34 73
35 52
35 64
36 51
36 53
36 60
36 62
36 64
36 65
36 70
36 73
37 51
37 53
37 61
37 62
37 67
37 68
37 73
37 74
37 75
38 51
38 52
38 53
38 56
38 63
38 65
38 66
38 72
38 73
39 52
39 54
39 57
39 63
39 64
39 65
39 68
40 52
40 53
40 56
40 64
40 65
40 65
40 72
40 73
40 74
41 61
41 62
41 64
41 70
41 74
42 55
42 57
42 61
42 62
42 64
42 66
42 68
42 70
42 71
42 74
43 50
43 55
43 61
43 67
43 69
43 71
43 75
44 53
44 61
44 61
44 64
44 66
44 67
44 71
44 73
44 75
45 55
45 56
45 57
45 61
45 73
46 53
46 56
46 57
46 58
46 59
46 60
46 67
46 72
46 73
46 75
47 52
47 56
47 59
47 60
47 63
47 64
47 66
47 68
47 71
47 74
47 75
48 51
48 52
48 55
48 57
48 59
48 61
48 62
48 65
48 70
48 74
48 75
49 50
49 51
49 52
49 53
49 55
49 57
49 60
49 65
50 76
50 78
50 79
50 82
50 86
50 89
50 93
51 78
51 82
51 90
51 93
52 78
52 79
52 82
52 88
52 90
52 91
52 92
53 78
53 81
53 82
53 85
53 90
53 92
54 77
54 78
54 79
54 81
54 82
54 90
54 91
55 77
55 81
55 82
55 86
55 88
55 90
56 76
56 77
56 83
56 86
56 89
56 90
56 91
57 88
57 89
57 90
57 93
58 78
58 92
59 81
59 87
59 92
60 79
60 82
60 84
60 92
61 78
61 79
62 76
62 81
62 85
62 87
62 89
62 90
63 85
63 89
63 90
64 79
64 85
64 87
64 89
64 90
64 91
65 77
65 80
65 85
65 87
65 89
65 90
66 78
66 85
66 89
66 90
66 93
67 79
67 81
67 85
67 90
68 76
68 78
68 81
68 91
68 92
69 79
69 85
69 87
69 89
69 91
69 92
70 82
70 85
70 87
71 79
71 82
71 86
72 81
72 82
72 85
74 76
74 82
74 86
74 87
74 91
75 79
75 81
75 91
77 96
77 97
77 98
77 99
79 95
79 98
80 95
80 97
81 96
81 98
82 94
82 97
83 94
83 98
84 94
85 94
86 94
86 97
87 94
87 96
87 98
88 94
88 96
88 97
88 98
89 94
89 95
89 96
89 98
90 95
92 98
92 99
93 95
93 99
