0 32
0 35
0 37
0 39
1 25
1 28
1 33
1 38
1 39
2 27
2 37
2 40
3 29
3 34
3 35
3 36
3 37
3 40
4 31
4 36
4 37
4 38
5 25
5 36
6 27
6 33
6 36
6 37
6 40
6 41
6 42
7 25
7 27
7 28
7 29
7 36
7 37
7 40
8 27
8 28
8 32
8 36
8 36
8 37
8 40
9 26
9 28
9 32
9 37
9 39
9 40
10 25
10 28
10 38
10 39
10 40
11 33
11 34
11 36
11 37
11 38
12 26
12 32
12 33
12 37
12 38
12 39
12 41
13 25
13 29
13 31
13 34
13 35
13 38
13 39
13 40
13 42
14 33
14 35
14 36
14 38
14 40
14 42
15 32
15 35
15 36
15 38
15 39
15 40
15 42
16 26
16 27
16 33
16 35
16 42
17 27
17 32
17 37
17 38
17 39
17 40
17 42
18 30
18 31
18 35
18 41
18 42
19 27
19 36
19 37
19 39
19 40
20 26
20 28
20 31
20 36
20 38
21 30
21 33
21 35
22 27
22 33
22 35
22 41
23 36
23 39
23 41
24 27
24 35
24 39
25 50
25 56
25 57
25 64
25 66
25 70
25 72
26 46
26 48
26 49
26 56
26 57
26 65
26 68
26 75
27 51
27 56
27 57
27 61
27 62
27 67
27 68
27 73
27 75
28 46
28 47
28 54
28 56
28 65
28 66
28 68
28 71
28 73
28 75
29 46
29 54
29 63
29 67
29 68
29 74
30 45
30 47
30 48
30 50
30 54
30 65
30 66
30 67
30 68
30 75
31 43
31 44
31 45
31 46
31 49
31 52
31 54
31 57
31 58
31 60
31 61
31 66
31 68
31 75
32 45
32 46
32 49
32 50
32 58
32 61
32 65
32 67
32 70
32 75
33 45
33 46
33 47
33 48
33 49
33 56
33 57
33 58
33 63
34 43
34 45
34 55
34 56
34 58
34 65
34 66
35 45
35 47
35 50
35 56
35 58
35 61
35 73
36 44
36 45
36 47
36 50
36 60
36 65
36 73
36 74
37 44
37 45
37 56
37 60
37 66
37 71
37 72
37 73
38 44
38 46
38 62
38 66
38 66
38 68
38 69
38 75
39 44
39 47
39 49
39 51
39 54
39 55
39 57
39 58
39 68
39 73
39 74
40 43
40 44
40 50
40 65
40 67
40 71
41 44
41 48
41 50
41 53
41 56
41 64
41 66
41 71
41 73
42 47
42 49
42 58
42 59
42 62
42 64
42 65
42 71
43 76
43 78
43 80
43 82
43 84
43 86
43 88
43 89
44 80
44 84
44 85
44 87
44 89
45 83
45 90
46 79
46 81
46 86
47 85
47 87
47 89
47 90
48 76
48 77
48 82
48 89
49 76
49 77
49 85
49 87
49 89
50 77
50 80
50 83
50 85
50 88
50 89
51 77
51 79
51 80
51 83
51 85
51 87
51 89
52 77
52 83
52 85
52 86
52 87
52 88
52 89
53 79
53 83
53 84
53 87
53 88
53 89
53 90
54 77
54 79
54 83
54 85
54 86
54 87
55 77
55 78
55 80
55 81
55 83
55 84
55 85
55 87
55 88
56 79
56 83
56 84
57 84
57 88
58 76
58 77
58 84
58 87
58 89
59 77
59 80
59 83
60 79
60 83
60 85
61 78
61 79
61 83
62 84
63 78
63 80
63 84
63 86
63 87
64 79
64 84
64 84
64 85
64 90
65 78
65 80
65 84
65 86
65 87
66 80
66 84
66 86
66 87
67 77
67 80
67 84
67 89
68 77
68 80
68 85
68 86
69 76
69 82
69 85
69 86
70 80
70 81
70 83
70 84
70 89
71 83
71 84
71 85
72 80
72 85
72 86
72 87
73 77
73 79
73 80
73 86
74 78
74 82
74 85
75 76
75 83
76 94
76 98
76 99
77 91
77 93
77 95
77 97
78 91
78 92
78 94
78 98
78 99
79 92
79 92
81 92
81 96
81 99
82 91
82 94
82 96
82 99
83 91
83 96
83 98
84 93
85 96
87 94
87 98
87 99
88 98
88 99
89 98
89 99
90 91
90 94
