files/tasks_parameters/ExAp01/sample8.txt 1.08954 7.2562 4.46819 0.454772 10.216
files/tasks_parameters/ExAp01/sample12.txt 1.62871 9.70908 5.28286 0.618515 13.8943
files/tasks_parameters/ExAp01/sample2.txt 1.45359 8.14159 5.7401 0.620531 13.9396
files/tasks_parameters/ExAp01/sample44.txt 1.37778 7.25164 5.75904 0.557631 12.5266
files/tasks_parameters/ExAp01/sample27.txt 1.3183 8.10944 5.64946 0.564878 12.6894
files/tasks_parameters/ExAp01/sample17.txt 1.25125 7.11225 5.46658 0.527183 11.8426
files/tasks_parameters/ExAp01/sample9.txt 1.19627 7.62559 5.37813 0.517277 11.6201
files/tasks_parameters/ExAp01/sample34.txt 1.2448 7.04587 5.93037 0.497709 11.1805
files/tasks_parameters/ExAp01/sample40.txt 1.201 8.03037 5.123 0.502383 11.2855
files/tasks_parameters/ExAp01/sample33.txt 1.6155 9.22935 5.92956 0.659262 14.8097
files/tasks_parameters/ExAp01/sample48.txt 1.15868 8.12182 5.1577 0.452491 10.1647
files/tasks_parameters/ExAp01/sample29.txt 1.52693 8.06133 5.12331 0.650652 14.6162
files/tasks_parameters/ExAp01/sample11.txt 1.35889 7.63104 5.37897 0.563302 12.654
files/tasks_parameters/ExAp01/sample14.txt 1.13168 6.66403 4.66322 0.471536 10.5926
files/tasks_parameters/ExAp01/sample0.txt 1.6176 9.3266 4.98971 0.6311 14.177
files/tasks_parameters/ExAp01/sample7.txt 1.26663 7.34863 5.19436 0.515527 11.5808
files/tasks_parameters/ExAp01/sample23.txt 1.40203 6.68564 5.54308 0.588617 13.2227
files/tasks_parameters/ExAp01/sample13.txt 1.60607 9.31093 5.35591 0.632849 14.2163
files/tasks_parameters/ExAp01/sample22.txt 1.28633 7.65588 5.04866 0.540336 12.1381
files/tasks_parameters/ExAp01/sample25.txt 1.0295 6.17035 5.0141 0.408296 9.17195
files/tasks_parameters/ExAp01/sample36.txt 1.19007 7.03772 4.66274 0.507647 11.4038
files/tasks_parameters/ExAp01/sample46.txt 1.3517 7.73433 4.79934 0.536843 12.0596
files/tasks_parameters/ExAp01/sample31.txt 1.16998 6.96928 5.16482 0.485817 10.9134
files/tasks_parameters/ExAp01/sample37.txt 1.59352 9.52443 5.74224 0.65799 14.7811
files/tasks_parameters/ExAp01/sample16.txt 1.34468 8.63521 4.97261 0.516328 11.5988
files/tasks_parameters/ExAp01/sample10.txt 1.39877 7.28353 6.16876 0.615651 13.83
files/tasks_parameters/ExAp01/sample39.txt 1.14417 6.3405 4.6137 0.468873 10.5328
files/tasks_parameters/ExAp01/sample19.txt 1.40036 8.85528 5.22306 0.622152 13.976
files/tasks_parameters/ExAp01/sample20.txt 1.39217 8.1141 5.21177 0.586994 13.1862
files/tasks_parameters/ExAp01/sample43.txt 1.30741 7.21373 5.6367 0.53748 12.0739
files/tasks_parameters/ExAp01/sample32.txt 1.46555 8.30592 5.38137 0.593918 13.3418
files/tasks_parameters/ExAp01/sample45.txt 1.29558 7.94069 4.96323 0.547271 12.2939
files/tasks_parameters/ExAp01/sample26.txt 1.1237 7.57061 4.62637 0.480146 10.786
files/tasks_parameters/ExAp01/sample5.txt 1.38077 8.0307 5.35681 0.59407 13.3452
files/tasks_parameters/ExAp01/sample21.txt 1.02755 5.87802 4.61744 0.434264 9.75531
files/tasks_parameters/ExAp01/sample38.txt 1.18327 7.66999 4.86632 0.496808 11.1603
files/tasks_parameters/ExAp01/sample1.txt 1.18299 7.21312 4.63213 0.486293 10.9241
files/tasks_parameters/ExAp01/sample15.txt 1.28125 8.02273 5.50855 0.531063 11.9298
files/tasks_parameters/ExAp01/sample24.txt 1.31405 8.66348 5.4905 0.548998 12.3327
files/tasks_parameters/ExAp01/sample3.txt 1.18752 7.74268 4.79918 0.477387 10.724
files/tasks_parameters/ExAp01/sample6.txt 1.51709 8.57133 5.80157 0.633604 14.2333
files/tasks_parameters/ExAp01/sample30.txt 1.58089 8.18878 5.90888 0.633576 14.2326
files/tasks_parameters/ExAp01/sample42.txt 1.30534 8.57689 5.67253 0.54426 12.2262
files/tasks_parameters/ExAp01/sample4.txt 1.29675 8.40354 4.57985 0.563519 12.6589
files/tasks_parameters/ExAp01/sample28.txt 1.05726 6.44114 4.96426 0.449721 10.1025
files/tasks_parameters/ExAp01/sample18.txt 1.36674 8.56363 4.60946 0.543766 12.2152
files/tasks_parameters/ExAp01/sample35.txt 1.938 11.0387 6.34514 0.761377 17.1036
files/tasks_parameters/ExAp01/sample47.txt 1.32345 7.14493 5.22131 0.545046 12.2439
files/tasks_parameters/ExAp01/sample49.txt 1.29846 6.65996 4.80244 0.498533 11.199
files/tasks_parameters/ExAp01/sample41.txt 1.18983 7.09069 5.35462 0.497129 11.1675
