files/tasks_parameters/ExAp01/sample8.txt 1.25423 6.77015 2.19458 0.288816 5.37548
files/tasks_parameters/ExAp01/sample12.txt 1.48494 9.58351 2.46081 0.337498 6.28155
files/tasks_parameters/ExAp01/sample2.txt 1.393 8.44418 2.50701 0.319127 5.93963
files/tasks_parameters/ExAp01/sample44.txt 1.23273 6.96299 2.23089 0.28229 5.25401
files/tasks_parameters/ExAp01/sample27.txt 1.2577 7.74306 2.16676 0.28602 5.32343
files/tasks_parameters/ExAp01/sample17.txt 1.27914 7.35053 2.25579 0.292348 5.4412
files/tasks_parameters/ExAp01/sample9.txt 1.22215 6.89392 2.21068 0.282399 5.25603
files/tasks_parameters/ExAp01/sample34.txt 1.29475 6.62788 2.3772 0.297742 5.5416
files/tasks_parameters/ExAp01/sample40.txt 1.24024 7.75686 2.17534 0.285619 5.31597
files/tasks_parameters/ExAp01/sample33.txt 1.47279 8.14826 2.6463 0.338073 6.29225
files/tasks_parameters/ExAp01/sample48.txt 1.18123 7.64107 2.14272 0.270011 5.02547
files/tasks_parameters/ExAp01/sample29.txt 1.24104 7.139 1.93769 0.286306 5.32875
files/tasks_parameters/ExAp01/sample11.txt 1.21001 6.88688 2.12981 0.280008 5.21154
files/tasks_parameters/ExAp01/sample14.txt 1.09079 6.11983 1.97599 0.247458 4.6057
files/tasks_parameters/ExAp01/sample0.txt 1.27231 8.2738 2.14256 0.289132 5.38135
files/tasks_parameters/ExAp01/sample7.txt 1.18404 6.87011 2.05821 0.269886 5.02313
files/tasks_parameters/ExAp01/sample23.txt 1.27214 6.52032 2.38087 0.291712 5.42936
files/tasks_parameters/ExAp01/sample13.txt 1.29203 8.73247 2.33415 0.295393 5.49788
files/tasks_parameters/ExAp01/sample22.txt 1.25093 6.9777 2.28948 0.283979 5.28545
files/tasks_parameters/ExAp01/sample25.txt 1.16499 6.23444 2.2122 0.267298 4.97497
files/tasks_parameters/ExAp01/sample36.txt 1.11557 6.6174 1.9458 0.253823 4.72417
files/tasks_parameters/ExAp01/sample46.txt 1.43238 7.42369 2.49128 0.327273 6.09123
files/tasks_parameters/ExAp01/sample31.txt 1.11641 7.22028 2.13584 0.25377 4.72319
files/tasks_parameters/ExAp01/sample37.txt 1.30163 8.90704 2.16981 0.295708 5.50375
files/tasks_parameters/ExAp01/sample16.txt 1.10434 8.18243 1.88294 0.24945 4.64278
files/tasks_parameters/ExAp01/sample10.txt 1.25489 6.96646 2.31217 0.285748 5.31837
files/tasks_parameters/ExAp01/sample39.txt 1.10646 6.4161 1.97266 0.251967 4.68963
files/tasks_parameters/ExAp01/sample19.txt 1.36117 8.16711 2.23199 0.308463 5.74114
files/tasks_parameters/ExAp01/sample20.txt 1.12719 7.28549 1.88944 0.25994 4.83802
files/tasks_parameters/ExAp01/sample43.txt 1.1213 6.86804 2.00142 0.25616 4.76768
files/tasks_parameters/ExAp01/sample32.txt 1.23644 8.15663 2.12995 0.281726 5.24352
files/tasks_parameters/ExAp01/sample45.txt 1.21695 7.75184 2.10599 0.274935 5.11711
files/tasks_parameters/ExAp01/sample26.txt 1.1605 7.4944 1.88956 0.267248 4.97404
files/tasks_parameters/ExAp01/sample5.txt 1.24733 8.08362 2.09961 0.28454 5.29589
files/tasks_parameters/ExAp01/sample21.txt 1.14163 6.11814 2.17119 0.26143 4.86575
files/tasks_parameters/ExAp01/sample38.txt 1.14757 7.761 1.96293 0.263659 4.90724
files/tasks_parameters/ExAp01/sample1.txt 1.2665 7.83752 2.13261 0.289228 5.38314
files/tasks_parameters/ExAp01/sample15.txt 1.24492 7.37971 2.12057 0.285825 5.31981
files/tasks_parameters/ExAp01/sample24.txt 1.30161 8.28531 2.25272 0.296628 5.52088
files/tasks_parameters/ExAp01/sample3.txt 1.32372 7.33359 2.39135 0.305084 5.67826
files/tasks_parameters/ExAp01/sample6.txt 1.21843 7.09894 2.24425 0.281804 5.24497
files/tasks_parameters/ExAp01/sample30.txt 1.32762 8.17669 2.03701 0.299204 5.56882
files/tasks_parameters/ExAp01/sample42.txt 1.28731 7.70416 2.42413 0.29743 5.53579
files/tasks_parameters/ExAp01/sample4.txt 1.36898 7.41691 2.36261 0.307803 5.72885
files/tasks_parameters/ExAp01/sample28.txt 1.15209 7.0562 2.07657 0.266428 4.95878
files/tasks_parameters/ExAp01/sample18.txt 1.1801 7.60139 2.1377 0.268016 4.98834
files/tasks_parameters/ExAp01/sample35.txt 1.40695 9.66795 2.28028 0.32244 6.00128
files/tasks_parameters/ExAp01/sample47.txt 1.11703 6.84842 2.12104 0.251655 4.68382
files/tasks_parameters/ExAp01/sample49.txt 1.11482 7.1497 2.11412 0.255889 4.76263
files/tasks_parameters/ExAp01/sample41.txt 1.15605 6.59911 2.07359 0.265885 4.94868
