0.297592271
Task0 15 15 15 
Task1 15 15 31 
Task2 1 15 15 
Task3 1 31 7 
Task4 31 31 7 
Task5 31 31 15 
Task6 7 31 3 
Task7 7 7 7 
Task8 63 31 7 
Task9 3 15 3 
Task10 31 31 15 
Task11 31 1 3 
Task12 7 15 15 
Task13 63 15 15 
Task14 15 1 31 
Task15 7 7 7 
Task16 31 7 3 
Task17 15 15 1 
Task18 15 15 15 
Task19 15 31 15 
Task20 7 7 1 
Task21 15 15 15 
Task22 15 3 15 
Task23 3 31 3 
Task24 15 31 1 
Task25 1 7 15 
Task26 1 3 15 
Task27 7 7 31 
Task28 3 15 31 
Task29 3 7 15 
Task30 15 7 15 
Task31 1 15 3 
Task32 31 31 63 
Task33 1 7 15 
Task34 7 1 15 
Task35 3 7 31 
Task36 1 15 3 
Task37 15 1 7 
Task38 7 3 15 
Task39 3 7 31 
Task40 7 31 7 
Task41 3 7 15 
Task42 15 7 15 
Task43 3 1 31 
Task44 15 31 15 
Task45 31 15 31 
Task46 3 31 7 
Task47 15 15 15 
Task48 15 15 31 
Task49 31 3 7 
Task50 3 3 15 
Task51 15 63 7 
Task52 3 15 7 
Task53 3 15 7 
Task54 15 1 15 
Task55 31 1 7 
Task56 15 7 7 
Task57 15 7 7 
Task58 15 7 1 
Task59 7 15 7 
Task60 7 15 1 
Task61 3 31 15 
Task62 1 15 7 
Task63 15 3 15 
Task64 3 7 15 
Task65 31 3 1 
Task66 31 7 7 
Task67 7 15 15 
Task68 31 3 15 
Task69 15 3 7 
Task70 15 3 31 
Task71 63 31 31 
Task72 7 63 7 
Task73 1 31 1 
Task74 15 3 7 
Task75 15 3 3 
Task76 15 63 31 
Task77 3 3 15 
Task78 1 3 15 
Task79 31 15 15 
Task80 7 3 15 
Task81 7 3 7 
Task82 31 31 31 
Task83 7 7 7 
Task84 1 15 3 
Task85 1 7 15 
Task86 3 15 3 
Task87 15 3 3 
Task88 31 1 15 
Task89 3 1 15 
Task90 15 7 15 
Task91 15 1 1 
Task92 15 1 3 
Task93 31 7 3 
Task94 3 15 3 
Task95 1 7 15 
Task96 1 31 3 
Task97 15 63 15 
Task98 15 15 31 
Task99 31 63 15 
