files/tasks_parameters/ExAp01/sample8.txt 1.22141 7.2562 4.46819 0.454772 43.7905
files/tasks_parameters/ExAp01/sample12.txt 1.70129 9.70908 5.28286 0.618515 59.5574
files/tasks_parameters/ExAp01/sample2.txt 1.58289 8.14159 5.7401 0.620531 59.7516
files/tasks_parameters/ExAp01/sample44.txt 1.45334 7.25164 5.75904 0.557631 53.6948
files/tasks_parameters/ExAp01/sample27.txt 1.4864 8.10944 5.64946 0.564878 54.3928
files/tasks_parameters/ExAp01/sample17.txt 1.2979 7.11225 5.46658 0.527183 50.7631
files/tasks_parameters/ExAp01/sample9.txt 1.32776 7.62559 5.37813 0.517277 49.8092
files/tasks_parameters/ExAp01/sample34.txt 1.29405 7.04587 5.93037 0.497709 47.925
files/tasks_parameters/ExAp01/sample40.txt 1.28787 8.03037 5.123 0.502383 48.375
files/tasks_parameters/ExAp01/sample33.txt 1.6965 9.22935 5.92956 0.659262 63.481
files/tasks_parameters/ExAp01/sample48.txt 1.33296 8.12182 5.1577 0.452491 43.5708
files/tasks_parameters/ExAp01/sample29.txt 1.64871 8.06133 5.12331 0.650652 62.652
files/tasks_parameters/ExAp01/sample11.txt 1.49587 7.63104 5.37897 0.563302 54.2409
files/tasks_parameters/ExAp01/sample14.txt 1.28977 6.66403 4.66322 0.471536 45.4047
files/tasks_parameters/ExAp01/sample0.txt 1.70067 9.3266 4.98971 0.6311 60.7693
files/tasks_parameters/ExAp01/sample7.txt 1.38561 7.34863 5.19436 0.515527 49.6407
files/tasks_parameters/ExAp01/sample23.txt 1.44007 6.68564 5.54308 0.588617 56.6786
files/tasks_parameters/ExAp01/sample13.txt 1.74239 9.31093 5.35591 0.632849 60.9377
files/tasks_parameters/ExAp01/sample22.txt 1.43579 7.65588 5.04866 0.540336 52.0295
files/tasks_parameters/ExAp01/sample25.txt 1.10286 6.17035 5.0141 0.408296 39.3152
files/tasks_parameters/ExAp01/sample36.txt 1.30107 7.03772 4.66274 0.507647 48.8819
files/tasks_parameters/ExAp01/sample46.txt 1.44985 7.73433 4.79934 0.536843 51.6932
files/tasks_parameters/ExAp01/sample31.txt 1.29117 6.96928 5.16482 0.485817 46.7799
files/tasks_parameters/ExAp01/sample37.txt 1.63359 9.52443 5.74224 0.65799 63.3585
files/tasks_parameters/ExAp01/sample16.txt 1.48676 8.63521 4.97261 0.516328 49.7177
files/tasks_parameters/ExAp01/sample10.txt 1.52559 7.28353 6.16876 0.615651 59.2817
files/tasks_parameters/ExAp01/sample39.txt 1.14009 6.3405 4.6137 0.468873 45.1483
files/tasks_parameters/ExAp01/sample19.txt 1.68895 8.85528 5.22306 0.622152 59.9077
files/tasks_parameters/ExAp01/sample20.txt 1.47056 8.1141 5.21177 0.586994 56.5222
files/tasks_parameters/ExAp01/sample43.txt 1.28805 7.21373 5.6367 0.53748 51.7545
files/tasks_parameters/ExAp01/sample32.txt 1.62147 8.30592 5.38137 0.593918 57.189
files/tasks_parameters/ExAp01/sample45.txt 1.49862 7.94069 4.96323 0.547271 52.6973
files/tasks_parameters/ExAp01/sample26.txt 1.35686 7.57061 4.62637 0.480146 46.2338
files/tasks_parameters/ExAp01/sample5.txt 1.50337 8.0307 5.35681 0.59407 57.2036
files/tasks_parameters/ExAp01/sample21.txt 1.15995 5.87802 4.61744 0.434264 41.8158
files/tasks_parameters/ExAp01/sample38.txt 1.26863 7.66999 4.86632 0.496808 47.8382
files/tasks_parameters/ExAp01/sample1.txt 1.3273 7.21312 4.63213 0.486293 46.8257
files/tasks_parameters/ExAp01/sample15.txt 1.31237 8.02273 5.50855 0.531063 51.1366
files/tasks_parameters/ExAp01/sample24.txt 1.40001 8.66348 5.4905 0.548998 52.8636
files/tasks_parameters/ExAp01/sample3.txt 1.19904 7.74268 4.79918 0.477387 45.9681
files/tasks_parameters/ExAp01/sample6.txt 1.63286 8.57133 5.80157 0.633604 61.0104
files/tasks_parameters/ExAp01/sample30.txt 1.81225 8.18878 5.90888 0.633576 61.0077
files/tasks_parameters/ExAp01/sample42.txt 1.43648 8.57689 5.67253 0.54426 52.4074
files/tasks_parameters/ExAp01/sample4.txt 1.44726 8.40354 4.57985 0.563519 54.2619
files/tasks_parameters/ExAp01/sample28.txt 1.16571 6.44114 4.96426 0.449721 43.3041
files/tasks_parameters/ExAp01/sample18.txt 1.36863 8.56363 4.60946 0.543766 52.3599
files/tasks_parameters/ExAp01/sample35.txt 2.04161 11.0387 6.34514 0.761377 73.3138
files/tasks_parameters/ExAp01/sample47.txt 1.36842 7.14493 5.22131 0.545046 52.483
files/tasks_parameters/ExAp01/sample49.txt 1.286 6.65996 4.80244 0.498533 48.0043
files/tasks_parameters/ExAp01/sample41.txt 1.22867 7.09069 5.35462 0.497129 47.8691
