files/tasks_parameters/ExAp01/sample8.txt 1.14301 7.2562 4.46819 0.454772 33.337
files/tasks_parameters/ExAp01/sample12.txt 1.587 9.70908 5.28286 0.618515 45.3401
files/tasks_parameters/ExAp01/sample2.txt 1.48847 8.14159 5.7401 0.620531 45.4879
files/tasks_parameters/ExAp01/sample44.txt 1.38868 7.25164 5.75904 0.557631 40.877
files/tasks_parameters/ExAp01/sample27.txt 1.37741 8.10944 5.64946 0.564878 41.4083
files/tasks_parameters/ExAp01/sample17.txt 1.24696 7.11225 5.46658 0.527183 38.6451
files/tasks_parameters/ExAp01/sample9.txt 1.21365 7.62559 5.37813 0.517277 37.9189
files/tasks_parameters/ExAp01/sample34.txt 1.21138 7.04587 5.93037 0.497709 36.4845
files/tasks_parameters/ExAp01/sample40.txt 1.21005 8.03037 5.123 0.502383 36.827
files/tasks_parameters/ExAp01/sample33.txt 1.66679 9.22935 5.92956 0.659262 48.327
files/tasks_parameters/ExAp01/sample48.txt 1.18233 8.12182 5.1577 0.452491 33.1697
files/tasks_parameters/ExAp01/sample29.txt 1.48745 8.06133 5.12331 0.650652 47.6959
files/tasks_parameters/ExAp01/sample11.txt 1.42931 7.63104 5.37897 0.563302 41.2927
files/tasks_parameters/ExAp01/sample14.txt 1.18206 6.66403 4.66322 0.471536 34.5658
files/tasks_parameters/ExAp01/sample0.txt 1.60693 9.3266 4.98971 0.6311 46.2626
files/tasks_parameters/ExAp01/sample7.txt 1.25914 7.34863 5.19436 0.515527 37.7906
files/tasks_parameters/ExAp01/sample23.txt 1.39092 6.68564 5.54308 0.588617 43.1485
files/tasks_parameters/ExAp01/sample13.txt 1.55698 9.31093 5.35591 0.632849 46.3908
files/tasks_parameters/ExAp01/sample22.txt 1.32767 7.65588 5.04866 0.540336 39.6092
files/tasks_parameters/ExAp01/sample25.txt 1.06168 6.17035 5.0141 0.408296 29.93
files/tasks_parameters/ExAp01/sample36.txt 1.26443 7.03772 4.66274 0.507647 37.213
files/tasks_parameters/ExAp01/sample46.txt 1.37988 7.73433 4.79934 0.536843 39.3532
files/tasks_parameters/ExAp01/sample31.txt 1.28917 6.96928 5.16482 0.485817 35.6127
files/tasks_parameters/ExAp01/sample37.txt 1.59691 9.52443 5.74224 0.65799 48.2338
files/tasks_parameters/ExAp01/sample16.txt 1.36779 8.63521 4.97261 0.516328 37.8493
files/tasks_parameters/ExAp01/sample10.txt 1.4782 7.28353 6.16876 0.615651 45.1301
files/tasks_parameters/ExAp01/sample39.txt 1.12339 6.3405 4.6137 0.468873 34.3706
files/tasks_parameters/ExAp01/sample19.txt 1.50025 8.85528 5.22306 0.622152 45.6067
files/tasks_parameters/ExAp01/sample20.txt 1.36525 8.1141 5.21177 0.586994 43.0294
files/tasks_parameters/ExAp01/sample43.txt 1.25535 7.21373 5.6367 0.53748 39.3998
files/tasks_parameters/ExAp01/sample32.txt 1.50999 8.30592 5.38137 0.593918 43.537
files/tasks_parameters/ExAp01/sample45.txt 1.3887 7.94069 4.96323 0.547271 40.1176
files/tasks_parameters/ExAp01/sample26.txt 1.13954 7.57061 4.62637 0.480146 35.197
files/tasks_parameters/ExAp01/sample5.txt 1.41395 8.0307 5.35681 0.59407 43.5481
files/tasks_parameters/ExAp01/sample21.txt 1.05189 5.87802 4.61744 0.434264 31.8336
files/tasks_parameters/ExAp01/sample38.txt 1.23349 7.66999 4.86632 0.496808 36.4184
files/tasks_parameters/ExAp01/sample1.txt 1.20722 7.21312 4.63213 0.486293 35.6476
files/tasks_parameters/ExAp01/sample15.txt 1.24317 8.02273 5.50855 0.531063 38.9294
files/tasks_parameters/ExAp01/sample24.txt 1.36344 8.66348 5.4905 0.548998 40.2442
files/tasks_parameters/ExAp01/sample3.txt 1.20434 7.74268 4.79918 0.477387 34.9947
files/tasks_parameters/ExAp01/sample6.txt 1.51194 8.57133 5.80157 0.633604 46.4462
files/tasks_parameters/ExAp01/sample30.txt 1.69524 8.18878 5.90888 0.633576 46.4442
files/tasks_parameters/ExAp01/sample42.txt 1.36591 8.57689 5.67253 0.54426 39.8968
files/tasks_parameters/ExAp01/sample4.txt 1.29249 8.40354 4.57985 0.563519 41.3086
files/tasks_parameters/ExAp01/sample28.txt 1.11121 6.44114 4.96426 0.449721 32.9667
files/tasks_parameters/ExAp01/sample18.txt 1.33453 8.56363 4.60946 0.543766 39.8607
files/tasks_parameters/ExAp01/sample35.txt 1.9359 11.0387 6.34514 0.761377 55.8126
files/tasks_parameters/ExAp01/sample47.txt 1.32653 7.14493 5.22131 0.545046 39.9544
files/tasks_parameters/ExAp01/sample49.txt 1.29164 6.65996 4.80244 0.498533 36.5449
files/tasks_parameters/ExAp01/sample41.txt 1.19046 7.09069 5.35462 0.497129 36.4419
