files/tasks_parameters/ExAp01/sample8.txt 1.16318 6.77015 2.19458 0.288816 7.70457
files/tasks_parameters/ExAp01/sample12.txt 1.2021 9.58351 2.46081 0.337498 9.00323
files/tasks_parameters/ExAp01/sample2.txt 1.09214 8.44418 2.50701 0.319127 8.51316
files/tasks_parameters/ExAp01/sample44.txt 1.0376 6.96299 2.23089 0.28229 7.53048
files/tasks_parameters/ExAp01/sample27.txt 1.10108 7.74306 2.16676 0.28602 7.62997
files/tasks_parameters/ExAp01/sample17.txt 1.01329 7.35053 2.25579 0.292348 7.79877
files/tasks_parameters/ExAp01/sample9.txt 1.00582 6.89392 2.21068 0.282399 7.53337
files/tasks_parameters/ExAp01/sample34.txt 1.01466 6.62788 2.3772 0.297742 7.94267
files/tasks_parameters/ExAp01/sample40.txt 0.981792 7.75686 2.17534 0.285619 7.61928
files/tasks_parameters/ExAp01/sample33.txt 1.26716 8.14826 2.6463 0.338073 9.01856
files/tasks_parameters/ExAp01/sample48.txt 0.954574 7.64107 2.14272 0.270011 7.20292
files/tasks_parameters/ExAp01/sample29.txt 1.03732 7.139 1.93769 0.286306 7.6376
files/tasks_parameters/ExAp01/sample11.txt 0.961061 6.88688 2.12981 0.280008 7.46961
files/tasks_parameters/ExAp01/sample14.txt 0.849114 6.11983 1.97599 0.247458 6.60127
files/tasks_parameters/ExAp01/sample0.txt 1.02603 8.2738 2.14256 0.289132 7.71298
files/tasks_parameters/ExAp01/sample7.txt 1.00648 6.87011 2.05821 0.269886 7.19956
files/tasks_parameters/ExAp01/sample23.txt 1.0935 6.52032 2.38087 0.291712 7.7818
files/tasks_parameters/ExAp01/sample13.txt 1.01667 8.73247 2.33415 0.295393 7.88
files/tasks_parameters/ExAp01/sample22.txt 1.01151 6.9777 2.28948 0.283979 7.57553
files/tasks_parameters/ExAp01/sample25.txt 0.908265 6.23444 2.2122 0.267298 7.13053
files/tasks_parameters/ExAp01/sample36.txt 0.887639 6.6174 1.9458 0.253823 6.77107
files/tasks_parameters/ExAp01/sample46.txt 1.22273 7.42369 2.49128 0.327273 8.73045
files/tasks_parameters/ExAp01/sample31.txt 0.8926 7.22028 2.13584 0.25377 6.76966
files/tasks_parameters/ExAp01/sample37.txt 1.0486 8.90704 2.16981 0.295708 7.88842
files/tasks_parameters/ExAp01/sample16.txt 0.945512 8.18243 1.88294 0.24945 6.65441
files/tasks_parameters/ExAp01/sample10.txt 1.05207 6.96646 2.31217 0.285748 7.62272
files/tasks_parameters/ExAp01/sample39.txt 0.918909 6.4161 1.97266 0.251967 6.72156
files/tasks_parameters/ExAp01/sample19.txt 1.12481 8.16711 2.23199 0.308463 8.22867
files/tasks_parameters/ExAp01/sample20.txt 0.875972 7.28549 1.88944 0.25994 6.93425
files/tasks_parameters/ExAp01/sample43.txt 0.918759 6.86804 2.00142 0.25616 6.83342
files/tasks_parameters/ExAp01/sample32.txt 1.04949 8.15663 2.12995 0.281726 7.51544
files/tasks_parameters/ExAp01/sample45.txt 1.00002 7.75184 2.10599 0.274935 7.33426
files/tasks_parameters/ExAp01/sample26.txt 0.918717 7.4944 1.88956 0.267248 7.1292
files/tasks_parameters/ExAp01/sample5.txt 1.04832 8.08362 2.09961 0.28454 7.5905
files/tasks_parameters/ExAp01/sample21.txt 0.901005 6.11814 2.17119 0.26143 6.97399
files/tasks_parameters/ExAp01/sample38.txt 0.92636 7.761 1.96293 0.263659 7.03346
files/tasks_parameters/ExAp01/sample1.txt 1.05931 7.83752 2.13261 0.289228 7.71555
files/tasks_parameters/ExAp01/sample15.txt 0.963875 7.37971 2.12057 0.285825 7.62478
files/tasks_parameters/ExAp01/sample24.txt 1.02176 8.28531 2.25272 0.296628 7.91297
files/tasks_parameters/ExAp01/sample3.txt 1.20875 7.33359 2.39135 0.305084 8.13854
files/tasks_parameters/ExAp01/sample6.txt 0.990884 7.09894 2.24425 0.281804 7.51751
files/tasks_parameters/ExAp01/sample30.txt 1.11916 8.17669 2.03701 0.299204 7.98168
files/tasks_parameters/ExAp01/sample42.txt 1.10064 7.70416 2.42413 0.29743 7.93435
files/tasks_parameters/ExAp01/sample4.txt 1.17412 7.41691 2.36261 0.307803 8.21106
files/tasks_parameters/ExAp01/sample28.txt 0.955114 7.0562 2.07657 0.266428 7.10733
files/tasks_parameters/ExAp01/sample18.txt 0.920058 7.60139 2.1377 0.268016 7.14969
files/tasks_parameters/ExAp01/sample35.txt 1.13666 9.66795 2.28028 0.32244 8.60152
files/tasks_parameters/ExAp01/sample47.txt 0.915292 6.84842 2.12104 0.251655 6.71323
files/tasks_parameters/ExAp01/sample49.txt 0.950184 7.1497 2.11412 0.255889 6.82619
files/tasks_parameters/ExAp01/sample41.txt 0.990607 6.59911 2.07359 0.265885 7.09285
