files/tasks_parameters/ExAp01/sample8.txt 1.16085 6.77015 2.19458 0.288816 18.9242
files/tasks_parameters/ExAp01/sample12.txt 1.23713 9.58351 2.46081 0.337498 22.114
files/tasks_parameters/ExAp01/sample2.txt 1.24752 8.44418 2.50701 0.319127 20.9103
files/tasks_parameters/ExAp01/sample44.txt 1.07163 6.96299 2.23089 0.28229 18.4966
files/tasks_parameters/ExAp01/sample27.txt 1.22813 7.74306 2.16676 0.28602 18.741
files/tasks_parameters/ExAp01/sample17.txt 1.12849 7.35053 2.25579 0.292348 19.1556
files/tasks_parameters/ExAp01/sample9.txt 1.02335 6.89392 2.21068 0.282399 18.5037
files/tasks_parameters/ExAp01/sample34.txt 1.13086 6.62788 2.3772 0.297742 19.509
files/tasks_parameters/ExAp01/sample40.txt 1.1817 7.75686 2.17534 0.285619 18.7147
files/tasks_parameters/ExAp01/sample33.txt 1.4137 8.14826 2.6463 0.338073 22.1517
files/tasks_parameters/ExAp01/sample48.txt 1.08844 7.64107 2.14272 0.270011 17.692
files/tasks_parameters/ExAp01/sample29.txt 1.04879 7.139 1.93769 0.286306 18.7597
files/tasks_parameters/ExAp01/sample11.txt 1.04917 6.88688 2.12981 0.280008 18.3471
files/tasks_parameters/ExAp01/sample14.txt 0.959748 6.11983 1.97599 0.247458 16.2142
files/tasks_parameters/ExAp01/sample0.txt 1.15117 8.2738 2.14256 0.289132 18.9449
files/tasks_parameters/ExAp01/sample7.txt 1.07849 6.87011 2.05821 0.269886 17.6838
files/tasks_parameters/ExAp01/sample23.txt 1.1043 6.52032 2.38087 0.291712 19.1139
files/tasks_parameters/ExAp01/sample13.txt 1.16831 8.73247 2.33415 0.295393 19.3551
files/tasks_parameters/ExAp01/sample22.txt 1.0889 6.9777 2.28948 0.283979 18.6073
files/tasks_parameters/ExAp01/sample25.txt 1.03014 6.23444 2.2122 0.267298 17.5142
files/tasks_parameters/ExAp01/sample36.txt 0.966337 6.6174 1.9458 0.253823 16.6313
files/tasks_parameters/ExAp01/sample46.txt 1.27822 7.42369 2.49128 0.327273 21.444
files/tasks_parameters/ExAp01/sample31.txt 0.945594 7.22028 2.13584 0.25377 16.6278
files/tasks_parameters/ExAp01/sample37.txt 1.15387 8.90704 2.16981 0.295708 19.3758
files/tasks_parameters/ExAp01/sample16.txt 0.971736 8.18243 1.88294 0.24945 16.3448
files/tasks_parameters/ExAp01/sample10.txt 1.15975 6.96646 2.31217 0.285748 18.7231
files/tasks_parameters/ExAp01/sample39.txt 1.00167 6.4161 1.97266 0.251967 16.5097
files/tasks_parameters/ExAp01/sample19.txt 1.21557 8.16711 2.23199 0.308463 20.2115
files/tasks_parameters/ExAp01/sample20.txt 0.910167 7.28549 1.88944 0.25994 17.0321
files/tasks_parameters/ExAp01/sample43.txt 0.999731 6.86804 2.00142 0.25616 16.7845
files/tasks_parameters/ExAp01/sample32.txt 1.13356 8.15663 2.12995 0.281726 18.4596
files/tasks_parameters/ExAp01/sample45.txt 1.07041 7.75184 2.10599 0.274935 18.0146
files/tasks_parameters/ExAp01/sample26.txt 0.99857 7.4944 1.88956 0.267248 17.511
files/tasks_parameters/ExAp01/sample5.txt 1.06921 8.08362 2.09961 0.28454 18.644
files/tasks_parameters/ExAp01/sample21.txt 1.01564 6.11814 2.17119 0.26143 17.1297
files/tasks_parameters/ExAp01/sample38.txt 1.01427 7.761 1.96293 0.263659 17.2758
files/tasks_parameters/ExAp01/sample1.txt 1.07657 7.83752 2.13261 0.289228 18.9512
files/tasks_parameters/ExAp01/sample15.txt 1.10579 7.37971 2.12057 0.285825 18.7282
files/tasks_parameters/ExAp01/sample24.txt 1.19981 8.28531 2.25272 0.296628 19.4361
files/tasks_parameters/ExAp01/sample3.txt 1.21139 7.33359 2.39135 0.305084 19.9901
files/tasks_parameters/ExAp01/sample6.txt 1.10289 7.09894 2.24425 0.281804 18.4647
files/tasks_parameters/ExAp01/sample30.txt 1.21487 8.17669 2.03701 0.299204 19.6049
files/tasks_parameters/ExAp01/sample42.txt 1.15141 7.70416 2.42413 0.29743 19.4886
files/tasks_parameters/ExAp01/sample4.txt 1.23133 7.41691 2.36261 0.307803 20.1682
files/tasks_parameters/ExAp01/sample28.txt 1.0307 7.0562 2.07657 0.266428 17.4572
files/tasks_parameters/ExAp01/sample18.txt 1.05866 7.60139 2.1377 0.268016 17.5613
files/tasks_parameters/ExAp01/sample35.txt 1.21994 9.66795 2.28028 0.32244 21.1273
files/tasks_parameters/ExAp01/sample47.txt 0.999454 6.84842 2.12104 0.251655 16.4892
files/tasks_parameters/ExAp01/sample49.txt 0.993759 7.1497 2.11412 0.255889 16.7667
files/tasks_parameters/ExAp01/sample41.txt 1.10314 6.59911 2.07359 0.265885 17.4217
