0.49700579999999994
Task0 7 1 31 
Task1 31 31 63 
Task2 1 63 31 
Task3 63 63 63 
Task4 15 3 63 
Task5 31 7 15 
Task6 255 63 15 
Task7 15 15 63 
Task8 31 3 7 
Task9 7 63 15 
Task10 3 7 31 
Task11 15 15 31 
Task12 15 31 3 
Task13 7 1 15 
Task14 3 7 31 
Task15 15 15 31 
Task16 1 31 1 
Task17 31 31 31 
Task18 7 63 31 
Task19 63 31 31 
Task20 7 31 1 
Task21 15 31 63 
Task22 15 15 3 
Task23 7 3 31 
Task24 31 3 1 
Task25 15 63 15 
Task26 255 127 31 
Task27 31 1 31 
Task28 3 3 63 
Task29 1 31 7 
Task30 31 3 31 
Task31 31 31 15 
Task32 15 31 7 
Task33 3 1 31 
Task34 3 31 1 
Task35 63 63 15 
Task36 3 3 63 
Task37 1 31 7 
Task38 7 31 3 
Task39 31 15 31 
Task40 3 31 1 
Task41 127 255 63 
Task42 15 1 63 
Task43 3 31 7 
Task44 31 7 15 
Task45 15 15 63 
Task46 15 3 15 
Task47 63 15 1 
Task48 1 31 7 
Task49 127 127 15 
Task50 1 31 31 
Task51 15 1 63 
Task52 63 15 31 
Task53 15 31 255 
Task54 7 3 31 
Task55 255 127 127 
Task56 1 31 31 
Task57 255 31 63 
Task58 15 15 31 
Task59 15 31 3 
Task60 15 63 15 
Task61 31 1 3 
Task62 63 7 7 
Task63 31 1 1 
Task64 63 1 7 
Task65 31 7 3 
Task66 31 7 7 
Task67 31 15 3 
Task68 31 63 63 
Task69 15 31 15 
Task70 15 63 31 
Task71 63 15 15 
Task72 63 31 63 
Task73 63 15 15 
Task74 15 31 63 
Task75 15 31 31 
Task76 15 15 31 
Task77 31 15 31 
Task78 63 7 15 
Task79 31 7 31 
Task80 15 31 3 
Task81 31 7 15 
Task82 7 31 63 
Task83 3 31 63 
Task84 31 31 7 
Task85 31 63 3 
Task86 31 31 7 
Task87 31 31 63 
Task88 31 7 31 
Task89 31 31 7 
Task90 31 31 31 
Task91 31 7 7 
Task92 31 15 31 
Task93 31 1 7 
Task94 15 63 7 
Task95 1 1 31 
Task96 255 255 255 
Task97 63 31 31 
Task98 3 31 3 
Task99 63 15 63 
Task100 3 63 1 
Task101 3 15 31 
Task102 7 63 1 
Task103 15 31 3 
Task104 31 3 31 
Task105 31 3 15 
Task106 7 31 31 
Task107 31 15 63 
Task108 63 31 63 
Task109 31 3 7 
Task110 31 15 31 
Task111 3 31 3 
Task112 31 1 1 
Task113 63 1 63 
Task114 31 3 1 
Task115 31 15 7 
Task116 1 15 63 
Task117 1 31 15 
Task118 31 15 7 
Task119 7 63 31 
Task120 63 3 1 
Task121 63 63 31 
Task122 3 63 31 
Task123 31 15 7 
Task124 15 31 3 
Task125 7 63 63 
Task126 63 15 1 
Task127 15 15 63 
Task128 7 63 3 
Task129 3 3 63 
Task130 3 31 15 
Task131 31 31 7 
Task132 255 127 63 
Task133 7 15 7 
Task134 3 7 31 
Task135 3 31 31 
Task136 15 31 3 
Task137 63 31 31 
Task138 15 63 7 
Task139 3 31 1 
Task140 31 3 63 
Task141 7 31 7 
Task142 3 31 63 
Task143 63 127 255 
Task144 31 15 15 
Task145 15 31 3 
Task146 7 1 63 
Task147 31 7 7 
Task148 31 7 1 
Task149 7 63 15 
