Task0 1 1 1 
Task1 1 3 1 
Task2 1 1 1 
Task3 3 1 1 
Task4 1 1 1 
Task5 7 1 3 
Task6 1 1 1 
Task7 1 1 1 
Task8 1 1 1 
Task9 1 1 1 
Task10 1 1 7 
Task11 1 3 7 
Task12 3 1 1 
Task13 7 3 1 
Task14 1 1 1 
Task15 1 1 1 
Task16 3 1 1 
Task17 1 3 1 
Task18 1 1 1 
Task19 1 1 1 
Task20 1 1 3 
Task21 1 1 1 
Task22 1 1 1 
Task23 1 1 3 
Task24 3 1 3 
Task25 3 1 1 
Task26 3 3 1 
Task27 1 1 1 
Task28 1 1 1 
Task29 1 3 1 
Task30 1 1 1 
Task31 1 1 1 
Task32 1 1 1 
Task33 1 3 1 
Task34 3 1 1 
Task35 1 1 1 
Task36 1 1 1 
Task37 1 1 1 
Task38 3 1 1 
Task39 1 1 1 
Task40 1 1 1 
Task41 1 1 3 
Task42 1 7 15 
Task43 1 7 3 
Task44 1 3 1 
Task45 1 1 1 
Task46 1 3 1 
Task47 1 1 1 
Task48 1 1 1 
Task49 1 1 3 
Task50 1 3 3 
Task51 1 1 3 
Task52 1 1 1 
Task53 1 1 1 
Task54 1 1 1 
Task55 1 1 1 
Task56 3 1 1 
Task57 1 1 1 
Task58 1 1 1 
Task59 1 1 3 
Task60 1 1 1 
Task61 1 1 1 
Task62 1 3 1 
Task63 1 1 1 
Task64 1 1 1 
Task65 1 1 1 
Task66 1 3 1 
Task67 1 1 1 
Task68 1 1 1 
Task69 1 1 1 
Task70 1 1 1 
Task71 3 7 1 
Task72 1 3 1 
Task73 1 1 7 
Task74 1 3 3 
Task75 3 1 1 
Task76 1 3 1 
Task77 1 1 1 
Task78 1 1 1 
Task79 15 1 1 
Task80 1 3 1 
Task81 1 1 1 
Task82 1 1 1 
Task83 1 1 1 
Task84 1 1 1 
Task85 1 1 1 
Task86 1 1 3 
Task87 3 1 1 
Task88 3 3 1 
Task89 1 1 1 
Task90 1 1 1 
Task91 1 1 3 
Task92 3 1 3 
Task93 1 1 1 
Task94 1 1 1 
Task95 1 1 1 
Task96 1 1 1 
Task97 1 1 1 
Task98 1 1 1 
Task99 1 1 1 
Task100 1 1 1 
Task101 1 1 1 
Task102 1 1 3 
Task103 1 1 3 
Task104 3 3 1 
Task105 3 1 1 
Task106 1 3 3 
Task107 1 1 1 
Task108 1 1 1 
Task109 1 1 1 
Task110 1 1 1 
Task111 1 1 3 
Task112 3 7 3 
Task113 1 3 3 
Task114 1 1 1 
Task115 1 1 1 
Task116 1 1 1 
Task117 1 1 1 
Task118 3 1 3 
Task119 1 1 1 
Task120 1 1 1 
Task121 1 3 1 
Task122 1 1 1 
Task123 1 1 3 
Task124 1 1 1 
Task125 1 1 1 
Task126 1 1 1 
Task127 1 1 1 
Task128 1 1 1 
Task129 1 1 3 
Task130 1 1 1 
Task131 1 1 1 
Task132 1 3 3 
Task133 1 1 3 
Task134 1 1 1 
Task135 1 3 1 
Task136 1 1 1 
Task137 1 3 3 
Task138 1 1 3 
Task139 1 1 1 
Task140 1 3 1 
Task141 1 1 1 
Task142 1 1 1 
Task143 1 1 1 
Task144 1 1 1 
Task145 1 1 1 
Task146 1 1 3 
Task147 1 7 1 
Task148 1 1 1 
Task149 1 1 1 
