0.42323076
Task0 255 127 255 
Task1 31 7 15 
Task2 7 7 63 
Task3 3 3 31 
Task4 31 1 3 
Task5 31 1 3 
Task6 31 7 31 
Task7 31 15 7 
Task8 31 31 15 
Task9 15 63 15 
Task10 1 63 31 
Task11 3 31 31 
Task12 3 31 7 
Task13 31 7 1 
Task14 3 31 3 
Task15 15 7 15 
Task16 31 31 3 
Task17 63 255 31 
Task18 15 1 15 
Task19 7 1 31 
Task20 63 31 31 
Task21 15 15 15 
Task22 31 7 3 
Task23 31 3 7 
Task24 1 31 63 
Task25 15 31 31 
Task26 31 31 15 
Task27 63 15 63 
Task28 1 31 31 
Task29 31 31 31 
Task30 3 7 31 
Task31 255 7 63 
Task32 31 3 7 
Task33 7 31 15 
Task34 15 31 7 
Task35 31 1 1 
Task36 63 127 31 
Task37 63 15 31 
Task38 15 15 63 
Task39 15 63 1 
Task40 31 7 31 
Task41 15 31 7 
Task42 63 63 31 
Task43 63 31 7 
Task44 31 3 1 
Task45 15 31 7 
Task46 31 7 1 
Task47 31 3 3 
Task48 31 7 1 
Task49 7 7 31 
Task50 7 31 63 
Task51 31 1 7 
Task52 1 31 15 
Task53 3 7 31 
Task54 15 63 15 
Task55 7 15 15 
Task56 3 7 31 
Task57 255 255 15 
Task58 1 1 31 
Task59 63 7 15 
Task60 31 7 7 
Task61 31 7 7 
Task62 15 7 63 
Task63 31 31 15 
Task64 31 7 31 
Task65 1 7 63 
Task66 31 1 3 
Task67 15 31 31 
Task68 15 15 7 
Task69 63 31 15 
Task70 15 15 63 
Task71 15 7 7 
Task72 31 63 3 
Task73 1 3 31 
Task74 31 7 7 
Task75 31 15 15 
Task76 31 7 15 
Task77 31 3 7 
Task78 31 31 127 
Task79 63 15 7 
Task80 63 3 15 
Task81 7 15 63 
Task82 7 3 15 
Task83 15 15 31 
Task84 63 31 31 
Task85 31 1 3 
Task86 15 15 63 
Task87 1 31 15 
Task88 31 1 63 
Task89 3 15 31 
Task90 31 1 3 
Task91 31 1 7 
Task92 7 63 31 
Task93 15 31 7 
Task94 7 31 7 
Task95 15 15 3 
Task96 3 7 31 
Task97 15 31 31 
Task98 7 3 31 
Task99 31 7 1 
Task100 3 1 31 
Task101 31 15 7 
Task102 15 31 7 
Task103 31 31 3 
Task104 3 63 7 
Task105 15 7 15 
Task106 15 63 31 
Task107 1 15 15 
Task108 31 15 31 
Task109 1 3 31 
Task110 31 63 63 
Task111 7 63 3 
Task112 7 31 31 
Task113 1 31 7 
Task114 31 63 15 
Task115 15 31 15 
Task116 7 31 7 
Task117 1 15 31 
Task118 31 15 31 
Task119 63 3 7 
Task120 7 15 15 
Task121 31 15 1 
Task122 127 255 63 
Task123 15 7 31 
Task124 31 31 15 
Task125 15 15 31 
Task126 31 63 1 
Task127 63 7 7 
Task128 31 15 31 
Task129 7 63 15 
Task130 63 7 1 
Task131 255 31 63 
Task132 31 1 31 
Task133 3 63 31 
Task134 7 15 7 
Task135 31 1 7 
Task136 31 15 3 
Task137 15 15 31 
Task138 31 255 63 
Task139 15 3 31 
Task140 31 1 15 
Task141 1 1 31 
Task142 31 15 31 
Task143 63 31 31 
Task144 15 15 31 
Task145 31 7 127 
Task146 15 63 1 
Task147 7 31 7 
Task148 7 31 7 
Task149 31 31 3 
