Task0 1 1 1 
Task1 1 3 1 
Task2 3 1 1 
Task3 1 3 3 
Task4 1 1 1 
Task5 1 3 3 
Task6 1 1 1 
Task7 1 1 1 
Task8 1 1 3 
Task9 1 1 1 
Task10 1 1 3 
Task11 1 1 1 
Task12 1 1 1 
Task13 1 1 1 
Task14 3 1 1 
Task15 1 1 1 
Task16 1 1 1 
Task17 3 1 3 
Task18 1 1 1 
Task19 1 1 1 
Task20 3 3 1 
Task21 3 1 7 
Task22 1 3 3 
Task23 3 1 3 
Task24 1 1 1 
Task25 1 3 1 
Task26 1 1 1 
Task27 1 1 1 
Task28 3 1 1 
Task29 1 1 1 
Task30 3 3 1 
Task31 1 1 1 
Task32 1 1 1 
Task33 1 1 1 
Task34 1 1 1 
Task35 1 1 1 
Task36 3 1 1 
Task37 1 1 1 
Task38 3 1 3 
Task39 3 1 1 
Task40 1 1 1 
Task41 1 3 3 
Task42 1 1 3 
Task43 1 1 1 
Task44 1 1 1 
Task45 1 1 1 
Task46 1 1 3 
Task47 1 1 1 
Task48 3 1 1 
Task49 1 1 1 
Task50 3 3 1 
Task51 1 1 1 
Task52 1 1 1 
Task53 1 1 1 
Task54 1 1 1 
Task55 1 1 1 
Task56 1 3 1 
Task57 1 1 1 
Task58 1 3 1 
Task59 3 1 1 
Task60 1 1 1 
Task61 1 1 1 
Task62 1 1 1 
Task63 1 1 1 
Task64 1 3 1 
Task65 1 1 1 
Task66 1 1 1 
Task67 1 3 3 
Task68 1 1 1 
Task69 1 1 7 
Task70 1 1 1 
Task71 1 1 1 
Task72 1 3 3 
Task73 3 1 1 
Task74 1 1 1 
Task75 1 1 3 
Task76 1 1 1 
Task77 1 1 1 
Task78 1 1 1 
Task79 7 7 1 
Task80 1 1 1 
Task81 1 1 1 
Task82 7 1 1 
Task83 3 1 3 
Task84 1 1 1 
Task85 1 1 1 
Task86 1 1 3 
Task87 1 1 1 
Task88 1 1 1 
Task89 15 1 15 
Task90 1 1 1 
Task91 1 3 1 
Task92 1 1 1 
Task93 1 1 1 
Task94 1 1 1 
Task95 1 1 1 
Task96 1 1 1 
Task97 1 1 1 
Task98 1 1 1 
Task99 1 1 1 
Task100 1 1 1 
Task101 1 1 1 
Task102 1 1 1 
Task103 3 1 1 
Task104 1 1 3 
Task105 3 1 3 
Task106 3 31 31 
Task107 1 1 1 
Task108 1 1 1 
Task109 1 1 1 
Task110 3 1 1 
Task111 1 1 1 
Task112 1 1 1 
Task113 1 1 3 
Task114 1 3 1 
Task115 1 1 1 
Task116 3 1 1 
Task117 1 1 1 
Task118 1 1 1 
Task119 1 1 1 
Task120 7 1 7 
Task121 1 1 1 
Task122 1 1 1 
Task123 1 1 1 
Task124 1 1 1 
Task125 1 1 1 
Task126 1 1 1 
Task127 3 1 1 
Task128 1 3 3 
Task129 1 1 1 
Task130 1 1 1 
Task131 3 1 1 
Task132 1 3 3 
Task133 1 1 1 
Task134 3 1 1 
Task135 1 1 1 
Task136 1 3 3 
Task137 1 3 1 
Task138 1 1 3 
Task139 3 1 1 
Task140 1 1 1 
Task141 7 3 1 
Task142 1 1 1 
Task143 3 1 1 
Task144 1 1 3 
Task145 1 1 1 
Task146 1 1 1 
Task147 1 1 1 
Task148 3 3 1 
Task149 1 1 1 
