0.51429954
Task0 63 1 15 
Task1 3 1 31 
Task2 15 7 31 
Task3 31 31 31 
Task4 1 15 63 
Task5 63 7 31 
Task6 3 63 3 
Task7 63 15 7 
Task8 63 31 7 
Task9 15 31 3 
Task10 7 31 1 
Task11 31 15 15 
Task12 15 63 7 
Task13 31 7 31 
Task14 7 15 31 
Task15 1 15 63 
Task16 63 255 127 
Task17 1 15 63 
Task18 255 255 127 
Task19 63 7 7 
Task20 15 31 7 
Task21 31 31 63 
Task22 255 1 7 
Task23 255 127 255 
Task24 63 7 3 
Task25 7 1 63 
Task26 15 15 31 
Task27 63 31 15 
Task28 63 1 31 
Task29 127 127 63 
Task30 31 1 7 
Task31 7 15 63 
Task32 63 1 3 
Task33 31 15 63 
Task34 1 63 31 
Task35 31 15 63 
Task36 63 3 3 
Task37 31 63 63 
Task38 31 7 63 
Task39 31 63 127 
Task40 7 31 31 
Task41 63 15 1 
Task42 127 127 63 
Task43 15 31 63 
Task44 1 63 3 
Task45 255 3 31 
Task46 63 15 7 
Task47 3 63 127 
Task48 31 31 31 
Task49 1 15 63 
Task50 31 31 31 
Task51 15 63 31 
Task52 7 63 63 
Task53 31 7 3 
Task54 7 3 63 
Task55 63 1 15 
Task56 63 3 7 
Task57 31 7 1 
Task58 7 31 1 
Task59 63 31 255 
Task60 1 63 31 
Task61 31 15 63 
Task62 63 63 127 
Task63 31 31 31 
Task64 31 255 255 
Task65 3 3 31 
Task66 3 63 63 
Task67 255 255 255 
Task68 31 255 127 
Task69 63 15 1 
Task70 63 7 7 
Task71 1 31 7 
Task72 31 63 63 
Task73 1 1 63 
Task74 63 31 63 
Task75 15 1 31 
Task76 15 31 31 
Task77 255 31 255 
Task78 63 63 31 
Task79 15 3 255 
Task80 15 63 31 
Task81 31 15 7 
Task82 127 63 15 
Task83 63 7 1 
Task84 31 7 3 
Task85 63 255 63 
Task86 31 127 63 
Task87 63 31 15 
Task88 31 7 3 
Task89 63 3 3 
Task90 63 1 7 
Task91 7 31 15 
Task92 31 127 7 
Task93 63 255 15 
Task94 7 31 15 
Task95 15 63 1 
Task96 31 1 31 
Task97 15 7 63 
Task98 63 31 127 
Task99 63 31 31 
Task100 31 1 63 
Task101 63 63 63 
Task102 15 63 7 
Task103 1 255 15 
Task104 63 63 1 
Task105 63 63 63 
Task106 31 15 15 
Task107 1 63 3 
Task108 31 7 7 
Task109 7 63 7 
Task110 255 63 7 
Task111 31 15 15 
Task112 31 31 7 
Task113 31 15 31 
Task114 7 31 3 
Task115 7 63 15 
Task116 63 31 1 
Task117 63 63 127 
Task118 31 15 63 
Task119 31 7 1 
Task120 63 31 255 
Task121 63 3 1 
Task122 3 3 31 
Task123 7 31 1 
Task124 15 63 3 
Task125 127 63 31 
Task126 31 7 7 
Task127 31 31 15 
Task128 127 31 63 
Task129 7 63 7 
Task130 255 15 127 
Task131 63 31 31 
Task132 127 255 63 
Task133 3 1 63 
Task134 255 63 127 
Task135 15 255 15 
Task136 1 15 15 
Task137 1 1 63 
Task138 3 63 63 
Task139 31 15 63 
Task140 63 31 7 
Task141 15 7 63 
Task142 7 31 7 
Task143 63 15 3 
Task144 63 15 3 
Task145 1 31 15 
Task146 63 31 7 
Task147 63 7 31 
Task148 1 7 63 
Task149 63 31 63 
