0.47241330000000004
Task0 31 7 31 
Task1 15 63 3 
Task2 15 31 3 
Task3 31 3 31 
Task4 1 31 1 
Task5 15 63 15 
Task6 3 63 1 
Task7 7 31 31 
Task8 15 15 31 
Task9 15 127 15 
Task10 31 1 3 
Task11 31 1 7 
Task12 63 1 7 
Task13 31 63 7 
Task14 15 31 3 
Task15 1 31 7 
Task16 15 15 63 
Task17 63 31 31 
Task18 1 1 31 
Task19 1 31 3 
Task20 31 7 1 
Task21 127 15 31 
Task22 1 15 31 
Task23 1 3 31 
Task24 63 31 15 
Task25 255 7 63 
Task26 63 3 31 
Task27 7 63 63 
Task28 63 63 31 
Task29 63 3 31 
Task30 63 7 255 
Task31 3 31 3 
Task32 31 63 31 
Task33 63 1 31 
Task34 127 255 255 
Task35 3 3 63 
Task36 7 31 7 
Task37 3 31 15 
Task38 1 63 63 
Task39 15 63 7 
Task40 7 31 3 
Task41 1 15 63 
Task42 31 63 7 
Task43 15 15 31 
Task44 15 7 15 
Task45 7 31 1 
Task46 63 63 31 
Task47 3 31 63 
Task48 63 3 31 
Task49 63 15 15 
Task50 7 31 3 
Task51 31 63 63 
Task52 63 63 127 
Task53 63 15 7 
Task54 31 15 7 
Task55 7 31 1 
Task56 15 1 31 
Task57 31 3 15 
Task58 255 63 63 
Task59 7 63 7 
Task60 7 31 3 
Task61 255 255 255 
Task62 31 15 7 
Task63 15 15 7 
Task64 7 15 63 
Task65 1 31 1 
Task66 63 31 31 
Task67 31 31 31 
Task68 255 255 127 
Task69 7 31 15 
Task70 31 31 1 
Task71 3 31 3 
Task72 1 1 31 
Task73 15 127 63 
Task74 15 31 31 
Task75 15 63 1 
Task76 15 31 31 
Task77 63 3 15 
Task78 31 31 63 
Task79 127 63 255 
Task80 7 63 7 
Task81 31 31 63 
Task82 3 31 63 
Task83 15 31 7 
Task84 63 15 7 
Task85 255 255 63 
Task86 31 7 31 
Task87 31 1 63 
Task88 15 31 7 
Task89 31 127 255 
Task90 15 15 31 
Task91 1 31 1 
Task92 7 31 1 
Task93 15 31 7 
Task94 15 31 63 
Task95 7 15 31 
Task96 7 7 31 
Task97 63 7 15 
Task98 63 31 31 
Task99 15 31 7 
Task100 63 63 3 
Task101 63 15 127 
Task102 7 31 3 
Task103 31 255 255 
Task104 3 31 1 
Task105 63 63 63 
Task106 63 15 63 
Task107 31 31 63 
Task108 15 3 7 
Task109 127 63 63 
Task110 63 7 15 
Task111 127 255 255 
Task112 1 31 63 
Task113 63 7 63 
Task114 15 31 3 
Task115 31 31 31 
Task116 3 1 63 
Task117 15 7 31 
Task118 255 127 127 
Task119 31 3 63 
Task120 31 3 15 
Task121 31 1 15 
Task122 15 15 31 
Task123 3 31 63 
Task124 31 7 31 
Task125 63 31 7 
Task126 31 255 15 
Task127 7 31 31 
Task128 31 3 15 
Task129 31 15 31 
Task130 255 127 63 
Task131 31 31 31 
Task132 15 15 63 
Task133 15 3 63 
Task134 31 7 63 
Task135 127 31 31 
Task136 31 31 15 
Task137 1 63 31 
Task138 15 63 63 
Task139 7 31 1 
Task140 31 255 63 
Task141 31 3 7 
Task142 31 7 7 
Task143 15 7 31 
Task144 31 15 15 
Task145 7 63 63 
Task146 255 255 31 
Task147 1 1 31 
Task148 1 15 31 
Task149 7 31 31 
