files/tasks_parameters/ExAp01/sample8.txt 0.927374 3.15778 1.5595 0.203411 9.75388
files/tasks_parameters/ExAp01/sample12.txt 0.852513 3.94962 1.6705 0.207924 9.97027
files/tasks_parameters/ExAp01/sample2.txt 0.921255 3.78275 1.74131 0.200098 9.595
files/tasks_parameters/ExAp01/sample44.txt 0.899685 3.59825 1.65317 0.200005 9.59056
files/tasks_parameters/ExAp01/sample27.txt 0.873288 3.45743 1.5148 0.182129 8.73335
files/tasks_parameters/ExAp01/sample17.txt 0.73276 2.77299 1.44514 0.14646 7.02298
files/tasks_parameters/ExAp01/sample9.txt 0.745727 2.99933 1.451 0.177444 8.50869
files/tasks_parameters/ExAp01/sample34.txt 0.734568 3.02928 1.58429 0.157984 7.57557
files/tasks_parameters/ExAp01/sample40.txt 0.769103 3.86889 1.52122 0.168379 8.07405
files/tasks_parameters/ExAp01/sample33.txt 0.919857 3.63695 1.71905 0.199765 9.57904
files/tasks_parameters/ExAp01/sample48.txt 0.735824 3.39061 1.49062 0.154728 7.41946
files/tasks_parameters/ExAp01/sample29.txt 0.863902 3.30472 1.38739 0.223868 10.7348
files/tasks_parameters/ExAp01/sample11.txt 0.830829 3.10585 1.41612 0.174079 8.34734
files/tasks_parameters/ExAp01/sample14.txt 0.681711 2.70971 1.43432 0.162214 7.77844
files/tasks_parameters/ExAp01/sample0.txt 0.846326 3.6937 1.5439 0.18367 8.80726
files/tasks_parameters/ExAp01/sample7.txt 0.724015 2.70501 1.42221 0.143463 6.8793
files/tasks_parameters/ExAp01/sample23.txt 0.8361 3.2697 1.57822 0.181448 8.70074
files/tasks_parameters/ExAp01/sample13.txt 0.917169 3.84225 1.67648 0.198247 9.50626
files/tasks_parameters/ExAp01/sample22.txt 0.681276 3.09569 1.56121 0.148796 7.13501
files/tasks_parameters/ExAp01/sample25.txt 0.67097 2.73966 1.5007 0.148149 7.10396
files/tasks_parameters/ExAp01/sample36.txt 0.621719 2.85948 1.28553 0.130042 6.23573
files/tasks_parameters/ExAp01/sample46.txt 0.91505 3.58643 1.69998 0.210103 10.0748
files/tasks_parameters/ExAp01/sample31.txt 0.720418 3.4832 1.53782 0.1722 8.25726
files/tasks_parameters/ExAp01/sample37.txt 0.833086 3.95293 1.50705 0.171701 8.23333
files/tasks_parameters/ExAp01/sample16.txt 0.715004 3.31216 1.30115 0.150249 7.20467
files/tasks_parameters/ExAp01/sample10.txt 0.775003 3.17098 1.61789 0.153776 7.37382
files/tasks_parameters/ExAp01/sample39.txt 0.752827 3.26617 1.44406 0.165669 7.94408
files/tasks_parameters/ExAp01/sample19.txt 0.921691 3.63532 1.52509 0.196094 9.40304
files/tasks_parameters/ExAp01/sample20.txt 0.652942 3.20793 1.25367 0.147335 7.06496
files/tasks_parameters/ExAp01/sample43.txt 0.646674 3.11551 1.4202 0.150644 7.22364
files/tasks_parameters/ExAp01/sample32.txt 0.711774 3.5311 1.42482 0.168744 8.09155
files/tasks_parameters/ExAp01/sample45.txt 0.917008 3.80283 1.48324 0.19807 9.49779
files/tasks_parameters/ExAp01/sample26.txt 0.77035 3.21645 1.29701 0.166061 7.9629
files/tasks_parameters/ExAp01/sample5.txt 0.869881 3.5889 1.52559 0.178903 8.5787
files/tasks_parameters/ExAp01/sample21.txt 0.904774 2.75242 1.55936 0.19512 9.35632
files/tasks_parameters/ExAp01/sample38.txt 0.689277 3.31563 1.37515 0.166157 7.96748
files/tasks_parameters/ExAp01/sample1.txt 0.942958 3.74964 1.51696 0.19701 9.44692
files/tasks_parameters/ExAp01/sample15.txt 0.807138 3.32916 1.48508 0.180707 8.66521
files/tasks_parameters/ExAp01/sample24.txt 0.763251 3.45951 1.59549 0.16529 7.92593
files/tasks_parameters/ExAp01/sample3.txt 1.02542 3.70014 1.70809 0.237107 11.3697
files/tasks_parameters/ExAp01/sample6.txt 0.884305 3.33003 1.58323 0.184714 8.85735
files/tasks_parameters/ExAp01/sample30.txt 0.962889 4.1841 1.4861 0.239623 11.4903
files/tasks_parameters/ExAp01/sample42.txt 0.823356 3.43221 1.70276 0.177383 8.50579
files/tasks_parameters/ExAp01/sample4.txt 0.886968 3.72477 1.6136 0.196448 9.42
files/tasks_parameters/ExAp01/sample28.txt 0.800343 3.11323 1.45032 0.158819 7.61562
files/tasks_parameters/ExAp01/sample18.txt 0.746425 3.47418 1.45209 0.149064 7.14784
files/tasks_parameters/ExAp01/sample35.txt 0.766917 4.57086 1.49394 0.185031 8.87251
files/tasks_parameters/ExAp01/sample47.txt 0.73582 3.13768 1.52397 0.16417 7.87222
files/tasks_parameters/ExAp01/sample49.txt 0.745984 3.13288 1.49657 0.156154 7.48784
files/tasks_parameters/ExAp01/sample41.txt 0.628136 2.81964 1.49636 0.150876 7.23474
