files/tasks_parameters/ExAp01/sample8.txt 0.870516 3.15778 1.5595 0.203411 15.5034
files/tasks_parameters/ExAp01/sample12.txt 0.829338 3.94962 1.6705 0.207924 15.8474
files/tasks_parameters/ExAp01/sample2.txt 0.863751 3.78275 1.74131 0.200098 15.2509
files/tasks_parameters/ExAp01/sample44.txt 0.847625 3.59825 1.65317 0.200005 15.2438
files/tasks_parameters/ExAp01/sample27.txt 0.837761 3.45743 1.5148 0.182129 13.8813
files/tasks_parameters/ExAp01/sample17.txt 0.700595 2.77299 1.44514 0.14646 11.1628
files/tasks_parameters/ExAp01/sample9.txt 0.692591 2.99933 1.451 0.177444 13.5242
files/tasks_parameters/ExAp01/sample34.txt 0.659133 3.02928 1.58429 0.157984 12.0411
files/tasks_parameters/ExAp01/sample40.txt 0.694617 3.86889 1.52122 0.168379 12.8334
files/tasks_parameters/ExAp01/sample33.txt 0.81564 3.63695 1.71905 0.199765 15.2255
files/tasks_parameters/ExAp01/sample48.txt 0.697187 3.39061 1.49062 0.154728 11.793
files/tasks_parameters/ExAp01/sample29.txt 0.783759 3.30472 1.38739 0.223868 17.0626
files/tasks_parameters/ExAp01/sample11.txt 0.787602 3.10585 1.41612 0.174079 13.2678
files/tasks_parameters/ExAp01/sample14.txt 0.630028 2.70971 1.43432 0.162214 12.3635
files/tasks_parameters/ExAp01/sample0.txt 0.754575 3.6937 1.5439 0.18367 13.9988
files/tasks_parameters/ExAp01/sample7.txt 0.697082 2.70501 1.42221 0.143463 10.9344
files/tasks_parameters/ExAp01/sample23.txt 0.74445 3.2697 1.57822 0.181448 13.8295
files/tasks_parameters/ExAp01/sample13.txt 0.798674 3.84225 1.67648 0.198247 15.1098
files/tasks_parameters/ExAp01/sample22.txt 0.687926 3.09569 1.56121 0.148796 11.3408
files/tasks_parameters/ExAp01/sample25.txt 0.64689 2.73966 1.5007 0.148149 11.2915
files/tasks_parameters/ExAp01/sample36.txt 0.560516 2.85948 1.28553 0.130042 9.91146
files/tasks_parameters/ExAp01/sample46.txt 0.889128 3.58643 1.69998 0.210103 16.0134
files/tasks_parameters/ExAp01/sample31.txt 0.741123 3.4832 1.53782 0.1722 13.1246
files/tasks_parameters/ExAp01/sample37.txt 0.713434 3.95293 1.50705 0.171701 13.0866
files/tasks_parameters/ExAp01/sample16.txt 0.68248 3.31216 1.30115 0.150249 11.4516
files/tasks_parameters/ExAp01/sample10.txt 0.756897 3.17098 1.61789 0.153776 11.7204
files/tasks_parameters/ExAp01/sample39.txt 0.72566 3.26617 1.44406 0.165669 12.6268
files/tasks_parameters/ExAp01/sample19.txt 0.900211 3.63532 1.52509 0.196094 14.9458
files/tasks_parameters/ExAp01/sample20.txt 0.59278 3.20793 1.25367 0.147335 11.2295
files/tasks_parameters/ExAp01/sample43.txt 0.649892 3.11551 1.4202 0.150644 11.4817
files/tasks_parameters/ExAp01/sample32.txt 0.697444 3.5311 1.42482 0.168744 12.8612
files/tasks_parameters/ExAp01/sample45.txt 0.852086 3.80283 1.48324 0.19807 15.0964
files/tasks_parameters/ExAp01/sample26.txt 0.680654 3.21645 1.29701 0.166061 12.6567
files/tasks_parameters/ExAp01/sample5.txt 0.798721 3.5889 1.52559 0.178903 13.6355
files/tasks_parameters/ExAp01/sample21.txt 0.804111 2.75242 1.55936 0.19512 14.8715
files/tasks_parameters/ExAp01/sample38.txt 0.664749 3.31563 1.37515 0.166157 12.664
files/tasks_parameters/ExAp01/sample1.txt 0.859421 3.74964 1.51696 0.19701 15.0155
files/tasks_parameters/ExAp01/sample15.txt 0.725472 3.32916 1.48508 0.180707 13.773
files/tasks_parameters/ExAp01/sample24.txt 0.732482 3.45951 1.59549 0.16529 12.598
files/tasks_parameters/ExAp01/sample3.txt 0.957969 3.70014 1.70809 0.237107 18.0716
files/tasks_parameters/ExAp01/sample6.txt 0.779212 3.33003 1.58323 0.184714 14.0784
files/tasks_parameters/ExAp01/sample30.txt 0.897413 4.1841 1.4861 0.239623 18.2634
files/tasks_parameters/ExAp01/sample42.txt 0.780552 3.43221 1.70276 0.177383 13.5196
files/tasks_parameters/ExAp01/sample4.txt 0.799776 3.72477 1.6136 0.196448 14.9727
files/tasks_parameters/ExAp01/sample28.txt 0.711775 3.11323 1.45032 0.158819 12.1047
files/tasks_parameters/ExAp01/sample18.txt 0.73969 3.47418 1.45209 0.149064 11.3612
files/tasks_parameters/ExAp01/sample35.txt 0.738508 4.57086 1.49394 0.185031 14.1025
files/tasks_parameters/ExAp01/sample47.txt 0.657754 3.13768 1.52397 0.16417 12.5126
files/tasks_parameters/ExAp01/sample49.txt 0.707308 3.13288 1.49657 0.156154 11.9016
files/tasks_parameters/ExAp01/sample41.txt 0.6766 2.81964 1.49636 0.150876 11.4993
