files/tasks_parameters/ExAp01/sample8.txt 0.759443 3.15778 1.5595 0.203411 4.52575
files/tasks_parameters/ExAp01/sample12.txt 0.840014 3.94962 1.6705 0.207924 4.62615
files/tasks_parameters/ExAp01/sample2.txt 0.793312 3.78275 1.74131 0.200098 4.45203
files/tasks_parameters/ExAp01/sample44.txt 0.765254 3.59825 1.65317 0.200005 4.44997
files/tasks_parameters/ExAp01/sample27.txt 0.716489 3.45743 1.5148 0.182129 4.05223
files/tasks_parameters/ExAp01/sample17.txt 0.600248 2.77299 1.44514 0.14646 3.25862
files/tasks_parameters/ExAp01/sample9.txt 0.689638 2.99933 1.451 0.177444 3.94799
files/tasks_parameters/ExAp01/sample34.txt 0.632686 3.02928 1.58429 0.157984 3.51502
files/tasks_parameters/ExAp01/sample40.txt 0.678923 3.86889 1.52122 0.168379 3.74632
files/tasks_parameters/ExAp01/sample33.txt 0.745477 3.63695 1.71905 0.199765 4.44462
files/tasks_parameters/ExAp01/sample48.txt 0.633464 3.39061 1.49062 0.154728 3.44259
files/tasks_parameters/ExAp01/sample29.txt 0.828542 3.30472 1.38739 0.223868 4.9809
files/tasks_parameters/ExAp01/sample11.txt 0.667138 3.10585 1.41612 0.174079 3.87312
files/tasks_parameters/ExAp01/sample14.txt 0.609672 2.70971 1.43432 0.162214 3.60915
files/tasks_parameters/ExAp01/sample0.txt 0.744185 3.6937 1.5439 0.18367 4.08652
files/tasks_parameters/ExAp01/sample7.txt 0.597164 2.70501 1.42221 0.143463 3.19196
files/tasks_parameters/ExAp01/sample23.txt 0.71679 3.2697 1.57822 0.181448 4.0371
files/tasks_parameters/ExAp01/sample13.txt 0.775929 3.84225 1.67648 0.198247 4.41085
files/tasks_parameters/ExAp01/sample22.txt 0.605556 3.09569 1.56121 0.148796 3.31061
files/tasks_parameters/ExAp01/sample25.txt 0.548255 2.73966 1.5007 0.148149 3.2962
files/tasks_parameters/ExAp01/sample36.txt 0.533068 2.85948 1.28553 0.130042 2.89335
files/tasks_parameters/ExAp01/sample46.txt 0.775667 3.58643 1.69998 0.210103 4.67463
files/tasks_parameters/ExAp01/sample31.txt 0.720116 3.4832 1.53782 0.1722 3.83132
files/tasks_parameters/ExAp01/sample37.txt 0.699556 3.95293 1.50705 0.171701 3.82022
files/tasks_parameters/ExAp01/sample16.txt 0.629848 3.31216 1.30115 0.150249 3.34293
files/tasks_parameters/ExAp01/sample10.txt 0.647271 3.17098 1.61789 0.153776 3.42141
files/tasks_parameters/ExAp01/sample39.txt 0.650646 3.26617 1.44406 0.165669 3.68601
files/tasks_parameters/ExAp01/sample19.txt 0.785606 3.63532 1.52509 0.196094 4.36296
files/tasks_parameters/ExAp01/sample20.txt 0.583757 3.20793 1.25367 0.147335 3.2781
files/tasks_parameters/ExAp01/sample43.txt 0.59952 3.11551 1.4202 0.150644 3.35173
files/tasks_parameters/ExAp01/sample32.txt 0.71629 3.5311 1.42482 0.168744 3.75444
files/tasks_parameters/ExAp01/sample45.txt 0.786902 3.80283 1.48324 0.19807 4.40692
files/tasks_parameters/ExAp01/sample26.txt 0.639562 3.21645 1.29701 0.166061 3.69474
files/tasks_parameters/ExAp01/sample5.txt 0.695745 3.5889 1.52559 0.178903 3.98047
files/tasks_parameters/ExAp01/sample21.txt 0.745988 2.75242 1.55936 0.19512 4.34128
files/tasks_parameters/ExAp01/sample38.txt 0.648635 3.31563 1.37515 0.166157 3.69687
files/tasks_parameters/ExAp01/sample1.txt 0.763892 3.74964 1.51696 0.19701 4.38332
files/tasks_parameters/ExAp01/sample15.txt 0.701885 3.32916 1.48508 0.180707 4.02061
files/tasks_parameters/ExAp01/sample24.txt 0.672659 3.45951 1.59549 0.16529 3.67759
files/tasks_parameters/ExAp01/sample3.txt 0.900868 3.70014 1.70809 0.237107 5.27546
files/tasks_parameters/ExAp01/sample6.txt 0.695656 3.33003 1.58323 0.184714 4.10976
files/tasks_parameters/ExAp01/sample30.txt 0.956321 4.1841 1.4861 0.239623 5.33144
files/tasks_parameters/ExAp01/sample42.txt 0.692006 3.43221 1.70276 0.177383 3.94664
files/tasks_parameters/ExAp01/sample4.txt 0.802663 3.72477 1.6136 0.196448 4.37083
files/tasks_parameters/ExAp01/sample28.txt 0.625908 3.11323 1.45032 0.158819 3.53361
files/tasks_parameters/ExAp01/sample18.txt 0.616152 3.47418 1.45209 0.149064 3.31656
files/tasks_parameters/ExAp01/sample35.txt 0.785483 4.57086 1.49394 0.185031 4.1168
files/tasks_parameters/ExAp01/sample47.txt 0.656952 3.13768 1.52397 0.16417 3.65267
files/tasks_parameters/ExAp01/sample49.txt 0.649198 3.13288 1.49657 0.156154 3.47431
files/tasks_parameters/ExAp01/sample41.txt 0.593817 2.81964 1.49636 0.150876 3.35688
