files/tasks_parameters/ExAp01/sample8.txt 1.12289 6.77015 2.19458 0.288816 6.42595
files/tasks_parameters/ExAp01/sample12.txt 1.31928 9.58351 2.46081 0.337498 7.50909
files/tasks_parameters/ExAp01/sample2.txt 1.21029 8.44418 2.50701 0.319127 7.10035
files/tasks_parameters/ExAp01/sample44.txt 1.03966 6.96299 2.23089 0.28229 6.28075
files/tasks_parameters/ExAp01/sample27.txt 1.12361 7.74306 2.16676 0.28602 6.36373
files/tasks_parameters/ExAp01/sample17.txt 1.10536 7.35053 2.25579 0.292348 6.50452
files/tasks_parameters/ExAp01/sample9.txt 1.11591 6.89392 2.21068 0.282399 6.28317
files/tasks_parameters/ExAp01/sample34.txt 1.08114 6.62788 2.3772 0.297742 6.62453
files/tasks_parameters/ExAp01/sample40.txt 1.02287 7.75686 2.17534 0.285619 6.35482
files/tasks_parameters/ExAp01/sample33.txt 1.24736 8.14826 2.6463 0.338073 7.52188
files/tasks_parameters/ExAp01/sample48.txt 0.995089 7.64107 2.14272 0.270011 6.00755
files/tasks_parameters/ExAp01/sample29.txt 1.20457 7.139 1.93769 0.286306 6.37009
files/tasks_parameters/ExAp01/sample11.txt 1.04673 6.88688 2.12981 0.280008 6.22998
files/tasks_parameters/ExAp01/sample14.txt 0.891644 6.11983 1.97599 0.247458 5.50575
files/tasks_parameters/ExAp01/sample0.txt 1.14709 8.2738 2.14256 0.289132 6.43297
files/tasks_parameters/ExAp01/sample7.txt 0.999531 6.87011 2.05821 0.269886 6.00476
files/tasks_parameters/ExAp01/sample23.txt 1.12678 6.52032 2.38087 0.291712 6.49037
files/tasks_parameters/ExAp01/sample13.txt 1.15094 8.73247 2.33415 0.295393 6.57227
files/tasks_parameters/ExAp01/sample22.txt 1.03589 6.9777 2.28948 0.283979 6.31833
files/tasks_parameters/ExAp01/sample25.txt 0.94223 6.23444 2.2122 0.267298 5.94718
files/tasks_parameters/ExAp01/sample36.txt 0.947484 6.6174 1.9458 0.253823 5.64737
files/tasks_parameters/ExAp01/sample46.txt 1.29733 7.42369 2.49128 0.327273 7.28158
files/tasks_parameters/ExAp01/sample31.txt 0.980782 7.22028 2.13584 0.25377 5.64619
files/tasks_parameters/ExAp01/sample37.txt 1.10975 8.90704 2.16981 0.295708 6.57929
files/tasks_parameters/ExAp01/sample16.txt 0.981907 8.18243 1.88294 0.24945 5.55007
files/tasks_parameters/ExAp01/sample10.txt 1.08201 6.96646 2.31217 0.285748 6.35768
files/tasks_parameters/ExAp01/sample39.txt 0.932317 6.4161 1.97266 0.251967 5.60607
files/tasks_parameters/ExAp01/sample19.txt 1.26342 8.16711 2.23199 0.308463 6.86307
files/tasks_parameters/ExAp01/sample20.txt 0.993469 7.28549 1.88944 0.25994 5.78347
files/tasks_parameters/ExAp01/sample43.txt 0.933763 6.86804 2.00142 0.25616 5.69938
files/tasks_parameters/ExAp01/sample32.txt 1.06662 8.15663 2.12995 0.281726 6.26821
files/tasks_parameters/ExAp01/sample45.txt 1.15 7.75184 2.10599 0.274935 6.1171
files/tasks_parameters/ExAp01/sample26.txt 1.02341 7.4944 1.88956 0.267248 5.94607
files/tasks_parameters/ExAp01/sample5.txt 1.13025 8.08362 2.09961 0.28454 6.33081
files/tasks_parameters/ExAp01/sample21.txt 1.03327 6.11814 2.17119 0.26143 5.81662
files/tasks_parameters/ExAp01/sample38.txt 1.00523 7.761 1.96293 0.263659 5.86622
files/tasks_parameters/ExAp01/sample1.txt 1.11835 7.83752 2.13261 0.289228 6.43511
files/tasks_parameters/ExAp01/sample15.txt 1.07722 7.37971 2.12057 0.285825 6.35941
files/tasks_parameters/ExAp01/sample24.txt 1.09533 8.28531 2.25272 0.296628 6.59977
files/tasks_parameters/ExAp01/sample3.txt 1.2438 7.33359 2.39135 0.305084 6.78791
files/tasks_parameters/ExAp01/sample6.txt 1.01863 7.09894 2.24425 0.281804 6.26994
files/tasks_parameters/ExAp01/sample30.txt 1.31038 8.17669 2.03701 0.299204 6.65708
files/tasks_parameters/ExAp01/sample42.txt 1.08133 7.70416 2.42413 0.29743 6.6176
files/tasks_parameters/ExAp01/sample4.txt 1.20915 7.41691 2.36261 0.307803 6.84839
files/tasks_parameters/ExAp01/sample28.txt 1.06828 7.0562 2.07657 0.266428 5.92783
files/tasks_parameters/ExAp01/sample18.txt 1.00564 7.60139 2.1377 0.268016 5.96316
files/tasks_parameters/ExAp01/sample35.txt 1.27709 9.66795 2.28028 0.32244 7.17405
files/tasks_parameters/ExAp01/sample47.txt 0.967955 6.84842 2.12104 0.251655 5.59913
files/tasks_parameters/ExAp01/sample49.txt 0.978554 7.1497 2.11412 0.255889 5.69334
files/tasks_parameters/ExAp01/sample41.txt 0.985154 6.59911 2.07359 0.265885 5.91575
