files/tasks_parameters/ExAp01/sample8.txt 1.10609 7.2562 4.46819 0.454772 16.1641
files/tasks_parameters/ExAp01/sample12.txt 1.63152 9.70908 5.28286 0.618515 21.9841
files/tasks_parameters/ExAp01/sample2.txt 1.53402 8.14159 5.7401 0.620531 22.0558
files/tasks_parameters/ExAp01/sample44.txt 1.33349 7.25164 5.75904 0.557631 19.8201
files/tasks_parameters/ExAp01/sample27.txt 1.3158 8.10944 5.64946 0.564878 20.0777
files/tasks_parameters/ExAp01/sample17.txt 1.28641 7.11225 5.46658 0.527183 18.7379
files/tasks_parameters/ExAp01/sample9.txt 1.19892 7.62559 5.37813 0.517277 18.3858
files/tasks_parameters/ExAp01/sample34.txt 1.26878 7.04587 5.93037 0.497709 17.6903
files/tasks_parameters/ExAp01/sample40.txt 1.201 8.03037 5.123 0.502383 17.8564
files/tasks_parameters/ExAp01/sample33.txt 1.61656 9.22935 5.92956 0.659262 23.4324
files/tasks_parameters/ExAp01/sample48.txt 1.16027 8.12182 5.1577 0.452491 16.083
files/tasks_parameters/ExAp01/sample29.txt 1.48774 8.06133 5.12331 0.650652 23.1264
files/tasks_parameters/ExAp01/sample11.txt 1.36191 7.63104 5.37897 0.563302 20.0217
files/tasks_parameters/ExAp01/sample14.txt 1.13501 6.66403 4.66322 0.471536 16.76
files/tasks_parameters/ExAp01/sample0.txt 1.51897 9.3266 4.98971 0.6311 22.4314
files/tasks_parameters/ExAp01/sample7.txt 1.28135 7.34863 5.19436 0.515527 18.3236
files/tasks_parameters/ExAp01/sample23.txt 1.4029 6.68564 5.54308 0.588617 20.9214
files/tasks_parameters/ExAp01/sample13.txt 1.60807 9.31093 5.35591 0.632849 22.4936
files/tasks_parameters/ExAp01/sample22.txt 1.28373 7.65588 5.04866 0.540336 19.2054
files/tasks_parameters/ExAp01/sample25.txt 1.0303 6.17035 5.0141 0.408296 14.5122
files/tasks_parameters/ExAp01/sample36.txt 1.29651 7.03772 4.66274 0.507647 18.0435
files/tasks_parameters/ExAp01/sample46.txt 1.34397 7.73433 4.79934 0.536843 19.0812
files/tasks_parameters/ExAp01/sample31.txt 1.16958 6.96928 5.16482 0.485817 17.2676
files/tasks_parameters/ExAp01/sample37.txt 1.59298 9.52443 5.74224 0.65799 23.3872
files/tasks_parameters/ExAp01/sample16.txt 1.32788 8.63521 4.97261 0.516328 18.352
files/tasks_parameters/ExAp01/sample10.txt 1.45189 7.28353 6.16876 0.615651 21.8823
files/tasks_parameters/ExAp01/sample39.txt 1.13898 6.3405 4.6137 0.468873 16.6653
files/tasks_parameters/ExAp01/sample19.txt 1.42656 8.85528 5.22306 0.622152 22.1134
files/tasks_parameters/ExAp01/sample20.txt 1.46626 8.1141 5.21177 0.586994 20.8637
files/tasks_parameters/ExAp01/sample43.txt 1.2796 7.21373 5.6367 0.53748 19.1038
files/tasks_parameters/ExAp01/sample32.txt 1.48263 8.30592 5.38137 0.593918 21.1099
files/tasks_parameters/ExAp01/sample45.txt 1.3017 7.94069 4.96323 0.547271 19.4519
files/tasks_parameters/ExAp01/sample26.txt 1.12824 7.57061 4.62637 0.480146 17.066
files/tasks_parameters/ExAp01/sample5.txt 1.38005 8.0307 5.35681 0.59407 21.1152
files/tasks_parameters/ExAp01/sample21.txt 1.01482 5.87802 4.61744 0.434264 15.4352
files/tasks_parameters/ExAp01/sample38.txt 1.17665 7.66999 4.86632 0.496808 17.6582
files/tasks_parameters/ExAp01/sample1.txt 1.13575 7.21312 4.63213 0.486293 17.2845
files/tasks_parameters/ExAp01/sample15.txt 1.26821 8.02273 5.50855 0.531063 18.8758
files/tasks_parameters/ExAp01/sample24.txt 1.31909 8.66348 5.4905 0.548998 19.5132
files/tasks_parameters/ExAp01/sample3.txt 1.17115 7.74268 4.79918 0.477387 16.9679
files/tasks_parameters/ExAp01/sample6.txt 1.49718 8.57133 5.80157 0.633604 22.5204
files/tasks_parameters/ExAp01/sample30.txt 1.68756 8.18878 5.90888 0.633576 22.5194
files/tasks_parameters/ExAp01/sample42.txt 1.3346 8.57689 5.67253 0.54426 19.3448
files/tasks_parameters/ExAp01/sample4.txt 1.3072 8.40354 4.57985 0.563519 20.0294
files/tasks_parameters/ExAp01/sample28.txt 1.0357 6.44114 4.96426 0.449721 15.9846
files/tasks_parameters/ExAp01/sample18.txt 1.33128 8.56363 4.60946 0.543766 19.3273
files/tasks_parameters/ExAp01/sample35.txt 1.92854 11.0387 6.34514 0.761377 27.0619
files/tasks_parameters/ExAp01/sample47.txt 1.32664 7.14493 5.22131 0.545046 19.3728
files/tasks_parameters/ExAp01/sample49.txt 1.29921 6.65996 4.80244 0.498533 17.7196
files/tasks_parameters/ExAp01/sample41.txt 1.17783 7.09069 5.35462 0.497129 17.6696
