files/tasks_parameters/ExAp01/sample8.txt 0.771933 3.15778 1.5595 0.203411 7.22992
files/tasks_parameters/ExAp01/sample12.txt 0.805513 3.94962 1.6705 0.207924 7.39031
files/tasks_parameters/ExAp01/sample2.txt 0.703833 3.78275 1.74131 0.200098 7.11215
files/tasks_parameters/ExAp01/sample44.txt 0.692535 3.59825 1.65317 0.200005 7.10886
files/tasks_parameters/ExAp01/sample27.txt 0.681124 3.45743 1.5148 0.182129 6.47346
files/tasks_parameters/ExAp01/sample17.txt 0.576017 2.77299 1.44514 0.14646 5.20568
files/tasks_parameters/ExAp01/sample9.txt 0.636924 2.99933 1.451 0.177444 6.30694
files/tasks_parameters/ExAp01/sample34.txt 0.603093 3.02928 1.58429 0.157984 5.61527
files/tasks_parameters/ExAp01/sample40.txt 0.628686 3.86889 1.52122 0.168379 5.98477
files/tasks_parameters/ExAp01/sample33.txt 0.729293 3.63695 1.71905 0.199765 7.10032
files/tasks_parameters/ExAp01/sample48.txt 0.615896 3.39061 1.49062 0.154728 5.49956
files/tasks_parameters/ExAp01/sample29.txt 0.738551 3.30472 1.38739 0.223868 7.95703
files/tasks_parameters/ExAp01/sample11.txt 0.639909 3.10585 1.41612 0.174079 6.18734
files/tasks_parameters/ExAp01/sample14.txt 0.572767 2.70971 1.43432 0.162214 5.76565
files/tasks_parameters/ExAp01/sample0.txt 0.675277 3.6937 1.5439 0.18367 6.52824
files/tasks_parameters/ExAp01/sample7.txt 0.574527 2.70501 1.42221 0.143463 5.09917
files/tasks_parameters/ExAp01/sample23.txt 0.644539 3.2697 1.57822 0.181448 6.44929
files/tasks_parameters/ExAp01/sample13.txt 0.701632 3.84225 1.67648 0.198247 7.04637
files/tasks_parameters/ExAp01/sample22.txt 0.563926 3.09569 1.56121 0.148796 5.28872
files/tasks_parameters/ExAp01/sample25.txt 0.499057 2.73966 1.5007 0.148149 5.2657
files/tasks_parameters/ExAp01/sample36.txt 0.477988 2.85948 1.28553 0.130042 4.62214
files/tasks_parameters/ExAp01/sample46.txt 0.749128 3.58643 1.69998 0.210103 7.46776
files/tasks_parameters/ExAp01/sample31.txt 0.609118 3.4832 1.53782 0.1722 6.12057
files/tasks_parameters/ExAp01/sample37.txt 0.672693 3.95293 1.50705 0.171701 6.10284
files/tasks_parameters/ExAp01/sample16.txt 0.591381 3.31216 1.30115 0.150249 5.34036
files/tasks_parameters/ExAp01/sample10.txt 0.622205 3.17098 1.61789 0.153776 5.46573
files/tasks_parameters/ExAp01/sample39.txt 0.610968 3.26617 1.44406 0.165669 5.88843
files/tasks_parameters/ExAp01/sample19.txt 0.739 3.63532 1.52509 0.196094 6.96986
files/tasks_parameters/ExAp01/sample20.txt 0.509265 3.20793 1.25367 0.147335 5.2368
files/tasks_parameters/ExAp01/sample43.txt 0.606895 3.11551 1.4202 0.150644 5.35441
files/tasks_parameters/ExAp01/sample32.txt 0.634788 3.5311 1.42482 0.168744 5.99774
files/tasks_parameters/ExAp01/sample45.txt 0.732252 3.80283 1.48324 0.19807 7.04009
files/tasks_parameters/ExAp01/sample26.txt 0.622094 3.21645 1.29701 0.166061 5.90238
files/tasks_parameters/ExAp01/sample5.txt 0.635573 3.5889 1.52559 0.178903 6.35883
files/tasks_parameters/ExAp01/sample21.txt 0.651076 2.75242 1.55936 0.19512 6.93523
files/tasks_parameters/ExAp01/sample38.txt 0.60601 3.31563 1.37515 0.166157 5.90577
files/tasks_parameters/ExAp01/sample1.txt 0.754759 3.74964 1.51696 0.19701 7.00239
files/tasks_parameters/ExAp01/sample15.txt 0.626823 3.32916 1.48508 0.180707 6.42295
files/tasks_parameters/ExAp01/sample24.txt 0.646621 3.45951 1.59549 0.16529 5.87498
files/tasks_parameters/ExAp01/sample3.txt 0.858496 3.70014 1.70809 0.237107 8.42759
files/tasks_parameters/ExAp01/sample6.txt 0.676936 3.33003 1.58323 0.184714 6.56538
files/tasks_parameters/ExAp01/sample30.txt 0.838195 4.1841 1.4861 0.239623 8.51701
files/tasks_parameters/ExAp01/sample42.txt 0.678979 3.43221 1.70276 0.177383 6.30479
files/tasks_parameters/ExAp01/sample4.txt 0.762637 3.72477 1.6136 0.196448 6.98243
files/tasks_parameters/ExAp01/sample28.txt 0.575461 3.11323 1.45032 0.158819 5.64497
files/tasks_parameters/ExAp01/sample18.txt 0.606787 3.47418 1.45209 0.149064 5.29823
files/tasks_parameters/ExAp01/sample35.txt 0.652831 4.57086 1.49394 0.185031 6.57662
files/tasks_parameters/ExAp01/sample47.txt 0.633881 3.13768 1.52397 0.16417 5.83516
files/tasks_parameters/ExAp01/sample49.txt 0.565278 3.13288 1.49657 0.156154 5.55024
files/tasks_parameters/ExAp01/sample41.txt 0.5964 2.81964 1.49636 0.150876 5.36264
