0.32944710000000005
Task0 15 7 15 
Task1 3 1 3 
Task2 3 3 15 
Task3 7 7 1 
Task4 3 7 31 
Task5 1 7 3 
Task6 7 7 15 
Task7 31 1 1 
Task8 7 3 3 
Task9 7 1 31 
Task10 31 3 63 
Task11 31 7 3 
Task12 15 3 1 
Task13 3 3 3 
Task14 1 3 7 
Task15 63 15 3 
Task16 1 3 3 
Task17 1 1 3 
Task18 15 1 3 
Task19 3 1 3 
Task20 1 7 31 
Task21 1 1 1 
Task22 15 7 15 
Task23 3 31 31 
Task24 15 7 3 
Task25 7 1 15 
Task26 31 15 15 
Task27 7 31 7 
Task28 31 63 7 
Task29 3 3 1 
Task30 255 63 255 
Task31 3 15 15 
Task32 15 3 7 
Task33 7 1 7 
Task34 15 15 3 
Task35 15 31 31 
Task36 15 1 1 
Task37 7 1 3 
Task38 1 3 15 
Task39 1 15 1 
Task40 1 1 1 
Task41 1 7 31 
Task42 15 7 3 
Task43 15 3 31 
Task44 1 3 1 
Task45 15 31 3 
Task46 31 31 15 
Task47 15 31 7 
Task48 15 15 3 
Task49 15 7 31 
Task50 3 1 3 
Task51 1 1 3 
Task52 3 1 15 
Task53 1 1 1 
Task54 3 1 3 
Task55 1 1 15 
Task56 1 1 7 
Task57 15 63 1 
Task58 3 15 7 
Task59 7 7 3 
Task60 1 3 1 
Task61 31 63 255 
Task62 7 7 1 
Task63 7 7 15 
Task64 1 7 15 
Task65 1 1 1 
Task66 7 15 3 
Task67 3 3 1 
Task68 15 15 3 
Task69 3 3 3 
Task70 15 63 1 
Task71 31 3 3 
Task72 1 3 3 
Task73 7 1 7 
Task74 15 15 7 
Task75 1 3 1 
Task76 1 1 31 
Task77 15 3 3 
Task78 1 1 3 
Task79 1 3 1 
Task80 1 3 1 
Task81 7 15 7 
Task82 1 1 15 
Task83 3 3 1 
Task84 1 1 1 
Task85 3 7 3 
Task86 7 1 3 
Task87 63 15 3 
Task88 1 1 1 
Task89 1 3 3 
Task90 15 31 7 
Task91 1 1 1 
Task92 3 1 1 
Task93 31 15 7 
Task94 15 7 7 
Task95 1 31 1 
Task96 3 7 3 
Task97 7 1 3 
Task98 15 7 3 
Task99 1 1 1 
