0.4662118
Task0 31 63 63 
Task1 63 7 63 
Task2 63 63 7 
Task3 31 1 63 
Task4 31 63 63 
Task5 63 15 7 
Task6 1 31 255 
Task7 255 15 15 
Task8 63 7 1 
Task9 7 63 63 
Task10 63 31 127 
Task11 127 127 15 
Task12 63 15 63 
Task13 255 15 127 
Task14 127 63 3 
Task15 127 255 127 
Task16 255 3 63 
Task17 127 127 127 
Task18 127 63 31 
Task19 127 31 63 
Task20 15 255 15 
Task21 127 63 255 
Task22 3 31 255 
Task23 3 63 31 
Task24 255 63 7 
Task25 127 255 31 
Task26 1 31 255 
Task27 7 63 1 
Task28 7 255 15 
Task29 63 63 255 
Task30 7 255 7 
Task31 3 63 7 
Task32 255 31 7 
Task33 3 31 63 
Task34 7 1 63 
Task35 255 3 7 
Task36 63 15 7 
Task37 127 63 31 
Task38 127 255 31 
Task39 31 3 63 
Task40 15 63 15 
Task41 3 63 7 
Task42 7 63 31 
Task43 255 3 255 
Task44 63 63 1 
Task45 255 255 127 
Task46 127 63 15 
Task47 31 255 255 
Task48 255 63 3 
Task49 63 3 1 
Task50 63 3 31 
Task51 15 63 7 
Task52 255 255 255 
Task53 127 1 15 
Task54 63 3 31 
Task55 127 15 63 
Task56 3 255 15 
Task57 63 3 31 
Task58 31 15 255 
Task59 127 255 63 
Task60 255 31 7 
Task61 7 7 63 
Task62 1 63 31 
Task63 1 255 63 
Task64 127 63 1 
Task65 3 127 255 
Task66 63 15 255 
Task67 15 127 63 
Task68 255 63 15 
Task69 3 255 1 
Task70 31 255 31 
Task71 31 7 63 
Task72 15 31 127 
Task73 127 3 31 
Task74 15 7 255 
Task75 255 255 15 
Task76 7 1 63 
Task77 63 15 7 
Task78 31 31 255 
Task79 255 255 31 
Task80 255 31 7 
Task81 63 255 31 
Task82 7 127 63 
Task83 15 255 63 
Task84 31 15 255 
Task85 127 255 3 
Task86 15 255 255 
Task87 31 255 31 
Task88 3 255 255 
Task89 255 63 15 
Task90 63 63 3 
Task91 255 7 7 
Task92 63 63 15 
Task93 31 63 3 
Task94 63 7 255 
Task95 7 7 255 
Task96 31 31 63 
Task97 31 1 255 
Task98 15 63 63 
Task99 7 255 63 
