digraph G {
0 ->14 1 ->9 2 ->10 2 ->12 2 ->13 2 ->15 3 ->5 3 ->7 3 ->8 3 ->11 4 ->6 5 ->20 7 ->17 9 ->18 11 ->20 11 ->21 12 ->16 12 ->18 13 ->19 14 ->17 14 ->19 15 ->21 17 ->24 19 ->22 19 ->26 19 ->27 20 ->23 21 ->25 22 ->30 23 ->28 23 ->32 23 ->34 23 ->35 24 ->31 24 ->33 25 ->29 25 ->32 25 ->36 27 ->28 28 ->41 28 ->45 29 ->40 29 ->46 30 ->38 30 ->40 30 ->42 31 ->44 31 ->46 33 ->39 33 ->41 33 ->43 34 ->37 34 ->42 36 ->38 37 ->50 37 ->54 40 ->51 40 ->55 41 ->51 41 ->53 43 ->52 43 ->56 44 ->47 44 ->48 45 ->49 45 ->52 46 ->47 46 ->49 47 ->57 49 ->58 49 ->60 49 ->61 49 ->63 50 ->61 51 ->59 52 ->57 52 ->59 55 ->64 56 ->62 56 ->64 57 ->65 57 ->68 57 ->70 60 ->67 62 ->66 62 ->69 63 ->70 63 ->71 66 ->78 66 ->79 67 ->76 67 ->81 68 ->82 69 ->73 69 ->74 70 ->75 71 ->72 71 ->77 71 ->78 71 ->80 71 ->81 72 ->86 72 ->87 73 ->88 73 ->94 74 ->90 74 ->92 75 ->84 75 ->95 76 ->83 76 ->88 76 ->89 77 ->84 77 ->90 79 ->85 79 ->91 81 ->92 82 ->93 84 ->99 85 ->99 86 ->97 86 ->98 90 ->96 91 ->99 92 ->96 93 ->96 
}
