digraph G {
0 ->12 0 ->20 1 ->15 1 ->21 1 ->22 2 ->21 3 ->14 4 ->13 4 ->18 5 ->13 5 ->14 6 ->13 6 ->17 6 ->18 7 ->15 7 ->17 8 ->22 9 ->12 9 ->15 9 ->19 9 ->20 10 ->16 12 ->32 13 ->28 13 ->29 13 ->32 14 ->23 14 ->27 14 ->28 14 ->33 15 ->31 16 ->27 16 ->32 17 ->26 17 ->35 18 ->34 19 ->36 20 ->24 21 ->25 21 ->30 22 ->25 22 ->26 22 ->29 22 ->30 23 ->37 25 ->38 26 ->38 31 ->41 32 ->39 33 ->38 33 ->39 34 ->40 35 ->37 35 ->39 35 ->40 37 ->46 37 ->48 37 ->53 37 ->55 38 ->47 38 ->51 39 ->42 39 ->49 40 ->50 40 ->54 41 ->43 41 ->44 41 ->45 41 ->52 42 ->58 43 ->60 44 ->57 48 ->56 50 ->59 51 ->57 51 ->62 52 ->57 52 ->60 53 ->61 57 ->65 57 ->67 58 ->64 60 ->66 61 ->63 62 ->63 63 ->70 64 ->69 64 ->71 65 ->73 65 ->76 65 ->78 65 ->79 66 ->75 66 ->80 67 ->68 67 ->72 67 ->74 67 ->77 71 ->84 72 ->83 74 ->81 74 ->84 76 ->84 77 ->82 79 ->85 82 ->88 82 ->89 82 ->97 83 ->87 83 ->91 83 ->93 84 ->90 84 ->92 84 ->94 84 ->95 85 ->86 85 ->96 89 ->99 94 ->98 95 ->98 
}
