digraph G {
0 ->7 0 ->9 1 ->14 2 ->6 2 ->8 2 ->9 2 ->12 2 ->15 3 ->10 3 ->11 4 ->6 4 ->10 5 ->13 6 ->17 6 ->19 6 ->20 6 ->21 6 ->27 7 ->24 7 ->25 9 ->18 9 ->19 9 ->25 10 ->16 10 ->20 11 ->23 11 ->27 11 ->28 12 ->21 13 ->18 13 ->22 14 ->17 15 ->22 15 ->26 16 ->30 16 ->32 18 ->29 19 ->31 20 ->31 22 ->31 23 ->29 23 ->33 24 ->32 27 ->30 29 ->34 29 ->43 30 ->39 30 ->42 30 ->44 31 ->36 31 ->38 31 ->40 32 ->35 32 ->37 32 ->41 34 ->46 34 ->51 35 ->48 35 ->50 37 ->48 38 ->47 39 ->52 40 ->52 41 ->51 42 ->49 43 ->49 44 ->45 45 ->56 46 ->53 47 ->59 47 ->60 47 ->62 48 ->57 48 ->59 48 ->60 48 ->61 50 ->54 50 ->63 51 ->55 52 ->54 52 ->56 52 ->58 53 ->67 53 ->69 55 ->66 55 ->68 55 ->70 57 ->64 59 ->67 60 ->68 61 ->65 61 ->69 62 ->66 62 ->70 64 ->71 64 ->72 67 ->74 68 ->73 69 ->71 70 ->75 71 ->76 72 ->82 72 ->84 72 ->86 73 ->79 74 ->80 74 ->85 75 ->77 75 ->78 75 ->81 75 ->83 76 ->91 77 ->93 78 ->88 78 ->93 79 ->90 80 ->90 80 ->93 81 ->89 84 ->91 85 ->89 85 ->92 86 ->87 87 ->95 87 ->96 88 ->98 88 ->99 89 ->97 89 ->98 90 ->94 90 ->97 92 ->99 
}
