digraph G {
1 ->8 1 ->9 1 ->10 1 ->12 4 ->11 7 ->11 9 ->18 10 ->14 10 ->19 11 ->13 11 ->16 12 ->15 12 ->17 14 ->22 14 ->25 15 ->24 16 ->26 17 ->21 17 ->22 18 ->20 18 ->25 19 ->23 20 ->29 20 ->31 20 ->38 21 ->29 21 ->37 22 ->30 22 ->31 22 ->32 23 ->33 23 ->35 23 ->36 23 ->39 24 ->39 25 ->28 25 ->34 26 ->27 26 ->30 27 ->40 31 ->43 33 ->42 35 ->43 36 ->43 38 ->41 39 ->40 39 ->44 41 ->45 41 ->46 41 ->50 42 ->47 43 ->48 43 ->49 43 ->51 45 ->54 45 ->55 45 ->56 46 ->53 46 ->57 46 ->60 46 ->64 47 ->56 47 ->60 47 ->63 47 ->65 48 ->52 48 ->62 49 ->59 50 ->54 50 ->55 50 ->64 51 ->58 51 ->61 51 ->63 51 ->65 52 ->68 52 ->76 54 ->76 55 ->70 56 ->69 56 ->71 56 ->72 56 ->74 57 ->75 58 ->67 58 ->72 58 ->73 58 ->74 59 ->77 60 ->70 60 ->78 62 ->77 63 ->66 65 ->70 65 ->76 65 ->77 66 ->80 66 ->86 66 ->89 67 ->82 67 ->87 68 ->87 69 ->81 69 ->89 70 ->80 70 ->90 71 ->79 71 ->83 71 ->84 71 ->86 71 ->90 72 ->79 74 ->83 75 ->84 75 ->88 76 ->83 76 ->85 77 ->85 78 ->89 78 ->90 80 ->93 81 ->92 82 ->96 83 ->94 83 ->98 84 ->91 85 ->98 86 ->96 87 ->95 90 ->93 90 ->97 95 ->99 98 ->99 
}
