digraph G {
1 ->11 1 ->13 1 ->14 1 ->17 2 ->8 2 ->12 2 ->13 3 ->10 3 ->12 4 ->9 4 ->16 5 ->15 5 ->16 6 ->14 7 ->10 7 ->11 8 ->22 9 ->18 9 ->24 11 ->21 11 ->22 14 ->18 14 ->19 14 ->20 15 ->23 16 ->20 17 ->19 18 ->25 18 ->29 18 ->31 19 ->30 20 ->26 21 ->27 22 ->29 23 ->25 24 ->28 24 ->30 25 ->38 26 ->33 26 ->38 27 ->32 27 ->34 27 ->40 29 ->33 29 ->35 29 ->36 29 ->39 31 ->37 32 ->42 36 ->41 36 ->46 37 ->45 38 ->44 38 ->47 39 ->43 41 ->52 41 ->55 41 ->57 41 ->58 41 ->59 42 ->51 42 ->56 43 ->49 44 ->51 44 ->60 45 ->54 46 ->50 46 ->52 46 ->54 46 ->59 47 ->48 47 ->53 48 ->65 49 ->62 49 ->70 50 ->68 51 ->66 53 ->67 54 ->63 55 ->64 55 ->69 56 ->71 58 ->69 59 ->61 60 ->61 60 ->62 62 ->72 63 ->72 63 ->73 63 ->74 63 ->80 65 ->74 65 ->76 67 ->79 68 ->73 68 ->78 69 ->75 69 ->76 70 ->77 72 ->86 74 ->83 76 ->82 76 ->85 77 ->81 78 ->82 78 ->84 78 ->86 81 ->87 81 ->88 81 ->89 81 ->92 84 ->88 84 ->91 85 ->90 86 ->89 86 ->90 87 ->94 88 ->96 89 ->97 90 ->93 92 ->95 94 ->98 96 ->99 
}
