digraph G {
0 ->12 0 ->17 0 ->20 2 ->17 2 ->19 2 ->21 3 ->11 4 ->12 4 ->14 4 ->18 4 ->23 6 ->15 6 ->17 6 ->24 7 ->15 7 ->23 8 ->16 9 ->11 9 ->13 10 ->18 10 ->22 11 ->26 12 ->30 12 ->33 12 ->34 13 ->28 14 ->27 14 ->29 14 ->36 15 ->32 16 ->27 17 ->32 17 ->35 18 ->25 18 ->30 19 ->26 19 ->27 19 ->33 20 ->29 20 ->31 21 ->26 22 ->32 23 ->29 24 ->30 24 ->33 24 ->37 26 ->38 26 ->39 26 ->40 28 ->39 28 ->41 29 ->40 30 ->42 31 ->39 37 ->41 38 ->43 39 ->51 40 ->47 40 ->50 41 ->45 41 ->48 41 ->52 42 ->44 42 ->46 42 ->49 45 ->54 45 ->57 47 ->56 48 ->56 49 ->53 50 ->54 50 ->57 51 ->58 52 ->55 53 ->59 54 ->61 55 ->60 55 ->63 56 ->61 56 ->62 59 ->66 59 ->68 60 ->69 60 ->72 61 ->65 61 ->70 62 ->67 62 ->71 63 ->64 65 ->75 67 ->73 67 ->76 68 ->77 69 ->74 70 ->74 72 ->73 72 ->75 72 ->76 72 ->77 73 ->78 74 ->84 75 ->79 75 ->81 76 ->83 77 ->80 77 ->82 78 ->86 78 ->88 78 ->90 78 ->91 78 ->95 79 ->85 79 ->93 79 ->98 80 ->94 80 ->96 81 ->88 81 ->95 81 ->97 82 ->87 82 ->94 83 ->86 83 ->89 83 ->92 84 ->90 84 ->91 90 ->99 98 ->99 
}
