files/tasks_parameters/ExAp01/sample8.txt 1.48725 6.77015 2.19458 0.288816 34.6202
files/tasks_parameters/ExAp01/sample12.txt 1.7566 9.58351 2.46081 0.337498 40.4557
files/tasks_parameters/ExAp01/sample2.txt 1.71148 8.44418 2.50701 0.319127 38.2536
files/tasks_parameters/ExAp01/sample44.txt 1.44425 6.96299 2.23089 0.28229 33.8379
files/tasks_parameters/ExAp01/sample27.txt 1.51349 7.74306 2.16676 0.28602 34.285
files/tasks_parameters/ExAp01/sample17.txt 1.43362 7.35053 2.25579 0.292348 35.0435
files/tasks_parameters/ExAp01/sample9.txt 1.32505 6.89392 2.21068 0.282399 33.8509
files/tasks_parameters/ExAp01/sample34.txt 1.45412 6.62788 2.3772 0.297742 35.6901
files/tasks_parameters/ExAp01/sample40.txt 1.42067 7.75686 2.17534 0.285619 34.237
files/tasks_parameters/ExAp01/sample33.txt 1.6341 8.14826 2.6463 0.338073 40.5246
files/tasks_parameters/ExAp01/sample48.txt 1.31093 7.64107 2.14272 0.270011 32.366
files/tasks_parameters/ExAp01/sample29.txt 1.33482 7.139 1.93769 0.286306 34.3193
files/tasks_parameters/ExAp01/sample11.txt 1.567 6.88688 2.12981 0.280008 33.5644
files/tasks_parameters/ExAp01/sample14.txt 1.28564 6.11983 1.97599 0.247458 29.6626
files/tasks_parameters/ExAp01/sample0.txt 1.48093 8.2738 2.14256 0.289132 34.658
files/tasks_parameters/ExAp01/sample7.txt 1.37383 6.87011 2.05821 0.269886 32.351
files/tasks_parameters/ExAp01/sample23.txt 1.49912 6.52032 2.38087 0.291712 34.9673
files/tasks_parameters/ExAp01/sample13.txt 1.53716 8.73247 2.33415 0.295393 35.4085
files/tasks_parameters/ExAp01/sample22.txt 1.38661 6.9777 2.28948 0.283979 34.0404
files/tasks_parameters/ExAp01/sample25.txt 1.26975 6.23444 2.2122 0.267298 32.0408
files/tasks_parameters/ExAp01/sample36.txt 1.27452 6.6174 1.9458 0.253823 30.4255
files/tasks_parameters/ExAp01/sample46.txt 1.53909 7.42369 2.49128 0.327273 39.23
files/tasks_parameters/ExAp01/sample31.txt 1.23077 7.22028 2.13584 0.25377 30.4192
files/tasks_parameters/ExAp01/sample37.txt 1.51039 8.90704 2.16981 0.295708 35.4463
files/tasks_parameters/ExAp01/sample16.txt 1.36631 8.18243 1.88294 0.24945 29.9014
files/tasks_parameters/ExAp01/sample10.txt 1.35375 6.96646 2.31217 0.285748 34.2524
files/tasks_parameters/ExAp01/sample39.txt 1.30679 6.4161 1.97266 0.251967 30.2031
files/tasks_parameters/ExAp01/sample19.txt 1.66942 8.16711 2.23199 0.308463 36.9752
files/tasks_parameters/ExAp01/sample20.txt 1.22397 7.28549 1.88944 0.25994 31.1588
files/tasks_parameters/ExAp01/sample43.txt 1.30919 6.86804 2.00142 0.25616 30.7057
files/tasks_parameters/ExAp01/sample32.txt 1.43556 8.15663 2.12995 0.281726 33.7703
files/tasks_parameters/ExAp01/sample45.txt 1.31401 7.75184 2.10599 0.274935 32.9563
files/tasks_parameters/ExAp01/sample26.txt 1.28253 7.4944 1.88956 0.267248 32.0348
files/tasks_parameters/ExAp01/sample5.txt 1.41896 8.08362 2.09961 0.28454 34.1076
files/tasks_parameters/ExAp01/sample21.txt 1.34701 6.11814 2.17119 0.26143 31.3374
files/tasks_parameters/ExAp01/sample38.txt 1.32264 7.761 1.96293 0.263659 31.6046
files/tasks_parameters/ExAp01/sample1.txt 1.50493 7.83752 2.13261 0.289228 34.6696
files/tasks_parameters/ExAp01/sample15.txt 1.41511 7.37971 2.12057 0.285825 34.2617
files/tasks_parameters/ExAp01/sample24.txt 1.39298 8.28531 2.25272 0.296628 35.5566
files/tasks_parameters/ExAp01/sample3.txt 1.49125 7.33359 2.39135 0.305084 36.5703
files/tasks_parameters/ExAp01/sample6.txt 1.36569 7.09894 2.24425 0.281804 33.7797
files/tasks_parameters/ExAp01/sample30.txt 1.41051 8.17669 2.03701 0.299204 35.8654
files/tasks_parameters/ExAp01/sample42.txt 1.77797 7.70416 2.42413 0.29743 35.6527
files/tasks_parameters/ExAp01/sample4.txt 1.59731 7.41691 2.36261 0.307803 36.8961
files/tasks_parameters/ExAp01/sample28.txt 1.3132 7.0562 2.07657 0.266428 31.9365
files/tasks_parameters/ExAp01/sample18.txt 1.43308 7.60139 2.1377 0.268016 32.1269
files/tasks_parameters/ExAp01/sample35.txt 1.54684 9.66795 2.28028 0.32244 38.6506
files/tasks_parameters/ExAp01/sample47.txt 1.30267 6.84842 2.12104 0.251655 30.1657
files/tasks_parameters/ExAp01/sample49.txt 1.36964 7.1497 2.11412 0.255889 30.6732
files/tasks_parameters/ExAp01/sample41.txt 1.28741 6.59911 2.07359 0.265885 31.8715
