digraph G {
0 ->12 0 ->19 1 ->6 1 ->8 1 ->11 1 ->17 1 ->18 2 ->6 2 ->8 2 ->10 2 ->13 2 ->14 3 ->9 3 ->10 3 ->10 3 ->11 3 ->13 3 ->14 3 ->16 3 ->19 4 ->7 4 ->15 5 ->6 5 ->8 5 ->14 5 ->15 5 ->17 6 ->21 7 ->20 8 ->21 8 ->23 8 ->26 8 ->27 9 ->27 10 ->22 10 ->26 10 ->27 11 ->21 11 ->22 11 ->24 11 ->26 11 ->27 13 ->21 13 ->27 14 ->22 14 ->24 15 ->21 15 ->24 15 ->25 16 ->24 16 ->25 17 ->21 17 ->22 17 ->24 18 ->21 18 ->26 18 ->27 19 ->22 19 ->27 21 ->33 21 ->35 22 ->29 22 ->35 23 ->28 23 ->33 24 ->34 24 ->35 25 ->29 25 ->31 26 ->32 26 ->34 26 ->35 27 ->28 27 ->30 28 ->36 28 ->42 28 ->43 28 ->45 28 ->48 28 ->49 29 ->40 29 ->43 29 ->45 29 ->47 30 ->46 31 ->37 31 ->38 31 ->45 31 ->46 31 ->48 32 ->36 32 ->41 32 ->49 33 ->40 33 ->43 33 ->44 34 ->40 34 ->42 34 ->43 34 ->45 34 ->47 34 ->49 35 ->36 35 ->38 35 ->39 35 ->40 36 ->50 36 ->52 36 ->57 37 ->50 37 ->52 37 ->54 38 ->50 38 ->54 38 ->57 38 ->58 39 ->52 39 ->53 39 ->54 40 ->52 40 ->53 40 ->56 41 ->55 41 ->56 41 ->57 42 ->50 42 ->51 42 ->52 42 ->54 42 ->55 43 ->51 43 ->53 43 ->57 43 ->58 44 ->54 44 ->56 45 ->51 45 ->55 45 ->59 46 ->51 46 ->52 46 ->53 46 ->54 47 ->54 47 ->56 47 ->57 48 ->50 48 ->52 48 ->55 48 ->56 48 ->58 48 ->59 48 ->60 49 ->56 50 ->66 50 ->67 50 ->71 51 ->67 52 ->62 52 ->66 52 ->67 52 ->68 52 ->71 53 ->61 53 ->65 53 ->68 54 ->63 54 ->68 54 ->69 55 ->61 55 ->63 55 ->64 55 ->69 55 ->71 56 ->61 56 ->62 56 ->63 56 ->65 56 ->66 56 ->67 56 ->68 56 ->69 56 ->70 56 ->71 57 ->62 57 ->63 57 ->66 57 ->70 58 ->61 58 ->63 58 ->66 58 ->71 59 ->64 59 ->67 60 ->61 61 ->76 61 ->77 62 ->72 62 ->74 63 ->75 63 ->77 64 ->72 64 ->74 64 ->77 65 ->73 65 ->76 65 ->77 66 ->75 66 ->76 66 ->77 67 ->75 68 ->72 68 ->75 68 ->76 69 ->74 69 ->75 70 ->73 70 ->74 70 ->77 71 ->72 71 ->74 72 ->78 72 ->80 73 ->79 73 ->84 74 ->84 75 ->78 75 ->79 75 ->80 75 ->81 76 ->80 76 ->82 76 ->83 77 ->79 78 ->85 78 ->90 79 ->85 79 ->88 79 ->92 79 ->95 80 ->88 80 ->90 80 ->93 81 ->87 82 ->86 82 ->87 82 ->88 82 ->91 82 ->95 83 ->87 83 ->88 83 ->90 83 ->91 83 ->93 83 ->95 84 ->89 84 ->94 84 ->95 85 ->96 85 ->97 86 ->96 87 ->96 90 ->97 91 ->99 92 ->97 93 ->98 94 ->96 94 ->97 94 ->98 95 ->96 95 ->97 
}
