digraph G {
0 ->6 0 ->9 0 ->10 0 ->11 0 ->18 1 ->6 1 ->8 1 ->9 1 ->10 1 ->11 1 ->14 1 ->17 2 ->12 2 ->13 2 ->15 3 ->6 3 ->9 3 ->12 3 ->16 3 ->17 4 ->11 4 ->15 4 ->16 4 ->16 5 ->7 5 ->8 5 ->10 5 ->17 6 ->19 6 ->21 6 ->22 6 ->25 7 ->24 7 ->25 8 ->19 8 ->25 10 ->23 10 ->25 11 ->22 11 ->24 12 ->19 12 ->22 12 ->23 12 ->24 12 ->25 13 ->20 13 ->21 14 ->20 14 ->22 14 ->24 15 ->20 15 ->22 15 ->24 16 ->21 16 ->22 16 ->23 16 ->25 17 ->24 17 ->25 18 ->19 18 ->21 18 ->22 19 ->28 19 ->31 20 ->27 21 ->29 21 ->30 21 ->31 22 ->26 22 ->28 22 ->29 22 ->30 23 ->26 23 ->28 23 ->31 24 ->26 24 ->28 25 ->30 26 ->36 26 ->38 27 ->32 27 ->33 27 ->34 27 ->35 28 ->33 29 ->33 29 ->34 29 ->38 30 ->32 30 ->36 30 ->37 31 ->32 31 ->34 32 ->46 32 ->47 33 ->43 33 ->44 33 ->46 33 ->48 33 ->49 34 ->40 34 ->41 34 ->42 34 ->45 34 ->49 35 ->44 35 ->45 35 ->47 36 ->41 36 ->42 36 ->45 37 ->42 37 ->45 37 ->46 38 ->39 38 ->44 38 ->46 38 ->47 39 ->50 39 ->53 39 ->55 40 ->52 40 ->53 40 ->55 41 ->51 41 ->52 42 ->50 43 ->52 43 ->53 44 ->54 45 ->50 45 ->51 45 ->54 46 ->54 47 ->50 48 ->50 48 ->52 50 ->56 50 ->63 50 ->64 51 ->58 51 ->63 51 ->66 52 ->56 52 ->57 52 ->60 52 ->67 52 ->68 53 ->58 53 ->60 53 ->65 53 ->67 54 ->59 54 ->60 54 ->62 54 ->65 54 ->67 54 ->69 55 ->57 55 ->58 55 ->61 55 ->63 55 ->64 56 ->70 56 ->74 56 ->75 56 ->76 56 ->78 56 ->80 57 ->70 59 ->70 59 ->74 59 ->78 59 ->80 60 ->72 60 ->74 61 ->70 61 ->71 61 ->72 61 ->73 61 ->79 62 ->71 62 ->74 62 ->75 62 ->77 63 ->71 63 ->72 63 ->74 63 ->75 63 ->78 64 ->70 64 ->74 64 ->78 64 ->81 65 ->75 65 ->76 65 ->77 66 ->75 66 ->78 66 ->79 67 ->74 67 ->75 67 ->76 67 ->78 67 ->79 68 ->76 69 ->75 69 ->76 69 ->77 71 ->85 72 ->83 73 ->83 73 ->86 74 ->85 74 ->86 75 ->83 76 ->86 77 ->82 77 ->85 77 ->86 77 ->87 78 ->86 80 ->85 80 ->86 81 ->83 81 ->84 82 ->88 82 ->90 82 ->93 82 ->94 83 ->88 83 ->89 83 ->94 83 ->95 84 ->90 84 ->93 84 ->95 84 ->97 85 ->92 85 ->96 85 ->97 86 ->98 87 ->88 87 ->91 87 ->93 88 ->99 89 ->99 90 ->99 93 ->99 94 ->99 98 ->99 
}
