digraph G {
0 ->9 0 ->12 0 ->14 0 ->16 1 ->10 1 ->11 1 ->15 1 ->18 2 ->10 2 ->12 2 ->13 3 ->9 3 ->10 3 ->11 3 ->12 4 ->9 4 ->16 4 ->17 4 ->19 5 ->10 5 ->13 5 ->15 5 ->17 6 ->13 6 ->17 7 ->12 7 ->16 7 ->17 8 ->9 8 ->12 8 ->18 9 ->22 10 ->21 10 ->23 11 ->25 13 ->21 14 ->21 14 ->22 14 ->25 15 ->20 15 ->22 15 ->25 15 ->26 16 ->21 16 ->22 16 ->24 16 ->25 16 ->26 17 ->25 17 ->26 18 ->21 19 ->22 19 ->26 20 ->31 20 ->34 20 ->37 21 ->27 21 ->28 21 ->33 21 ->34 21 ->36 22 ->35 22 ->36 23 ->28 23 ->30 23 ->32 23 ->37 24 ->29 24 ->30 25 ->30 25 ->35 26 ->28 26 ->33 26 ->34 27 ->40 27 ->41 27 ->44 28 ->41 28 ->44 30 ->38 30 ->40 30 ->42 32 ->42 33 ->42 33 ->43 34 ->43 35 ->40 35 ->44 36 ->38 36 ->40 36 ->44 37 ->38 37 ->39 37 ->40 37 ->41 37 ->44 38 ->45 39 ->47 39 ->54 39 ->55 39 ->57 40 ->48 40 ->49 40 ->51 41 ->46 41 ->48 41 ->50 41 ->55 41 ->58 42 ->46 42 ->49 42 ->51 42 ->54 42 ->55 42 ->56 42 ->57 43 ->45 43 ->49 43 ->51 43 ->52 43 ->53 43 ->54 44 ->47 44 ->53 44 ->55 44 ->58 45 ->59 45 ->62 45 ->64 45 ->65 46 ->59 46 ->61 46 ->63 46 ->68 47 ->63 47 ->64 47 ->66 48 ->60 48 ->63 49 ->59 49 ->60 49 ->63 49 ->64 49 ->66 50 ->60 50 ->64 50 ->67 51 ->61 51 ->64 51 ->65 51 ->68 52 ->60 52 ->65 52 ->67 52 ->68 53 ->66 53 ->68 54 ->60 54 ->62 54 ->65 55 ->62 55 ->66 56 ->66 57 ->60 57 ->62 57 ->63 57 ->65 57 ->68 58 ->59 58 ->61 58 ->63 58 ->65 58 ->67 58 ->68 59 ->75 60 ->74 60 ->76 61 ->71 61 ->73 61 ->74 62 ->75 63 ->72 63 ->75 64 ->69 64 ->72 64 ->74 65 ->69 65 ->70 65 ->75 65 ->76 66 ->70 66 ->72 66 ->73 66 ->74 66 ->76 67 ->69 67 ->72 68 ->72 68 ->73 68 ->74 69 ->88 70 ->79 70 ->80 70 ->84 70 ->85 70 ->86 71 ->77 71 ->79 71 ->82 71 ->83 72 ->78 72 ->79 72 ->81 72 ->82 72 ->84 73 ->88 74 ->77 74 ->80 74 ->82 74 ->83 74 ->84 74 ->85 75 ->77 75 ->79 75 ->80 75 ->83 75 ->86 75 ->87 76 ->78 76 ->80 76 ->83 76 ->84 76 ->85 76 ->86 76 ->88 77 ->89 78 ->89 78 ->92 79 ->89 79 ->91 79 ->92 79 ->93 80 ->95 81 ->95 82 ->92 82 ->93 82 ->95 83 ->93 83 ->93 83 ->94 83 ->95 83 ->96 84 ->93 84 ->94 84 ->95 85 ->89 85 ->91 85 ->92 85 ->93 85 ->94 85 ->95 86 ->90 86 ->91 86 ->94 86 ->96 87 ->90 87 ->91 87 ->94 88 ->91 88 ->92 88 ->94 89 ->99 90 ->98 91 ->98 92 ->99 95 ->97 
}
