digraph G {
0 ->13 0 ->18 1 ->12 1 ->13 1 ->16 1 ->17 2 ->14 2 ->17 2 ->19 3 ->12 3 ->15 3 ->19 4 ->14 6 ->13 6 ->17 6 ->18 7 ->12 7 ->17 7 ->19 8 ->12 8 ->17 8 ->18 9 ->14 9 ->16 9 ->17 9 ->19 10 ->12 10 ->19 11 ->13 11 ->19 12 ->25 14 ->21 14 ->22 14 ->23 15 ->21 15 ->22 15 ->24 16 ->20 18 ->22 18 ->24 18 ->25 19 ->25 20 ->26 20 ->28 20 ->30 21 ->27 22 ->27 23 ->27 23 ->29 24 ->28 24 ->29 25 ->26 25 ->28 25 ->29 25 ->30 26 ->32 26 ->33 26 ->38 26 ->43 27 ->31 27 ->35 27 ->36 27 ->38 27 ->39 27 ->41 27 ->42 27 ->43 28 ->31 28 ->34 28 ->35 29 ->32 29 ->33 29 ->34 29 ->37 29 ->41 30 ->31 30 ->32 30 ->33 30 ->36 30 ->37 30 ->38 30 ->40 30 ->41 30 ->43 31 ->47 31 ->57 32 ->47 32 ->51 32 ->52 32 ->54 32 ->56 32 ->57 33 ->51 33 ->53 33 ->54 33 ->55 33 ->57 34 ->48 34 ->53 35 ->47 35 ->49 35 ->57 36 ->47 36 ->49 36 ->50 36 ->51 36 ->54 37 ->44 37 ->46 37 ->47 37 ->51 37 ->54 38 ->53 39 ->45 39 ->49 39 ->53 39 ->55 40 ->48 40 ->49 40 ->57 41 ->48 41 ->52 41 ->53 42 ->47 42 ->54 43 ->45 43 ->51 43 ->57 44 ->63 45 ->59 45 ->60 45 ->61 45 ->70 46 ->64 46 ->66 46 ->69 47 ->59 47 ->61 47 ->62 47 ->64 47 ->65 48 ->61 48 ->70 49 ->61 49 ->62 49 ->66 50 ->58 50 ->60 50 ->62 50 ->69 50 ->70 51 ->58 51 ->62 51 ->62 51 ->69 52 ->59 52 ->65 52 ->69 52 ->69 53 ->58 53 ->65 53 ->67 53 ->69 53 ->70 54 ->58 54 ->62 54 ->65 55 ->58 55 ->61 56 ->58 56 ->61 56 ->62 56 ->67 56 ->68 57 ->58 57 ->60 57 ->61 57 ->68 57 ->69 58 ->72 58 ->73 58 ->75 58 ->76 58 ->81 59 ->71 59 ->73 59 ->76 59 ->80 59 ->81 60 ->71 60 ->75 60 ->77 60 ->79 61 ->74 61 ->79 61 ->82 62 ->72 62 ->73 62 ->75 63 ->73 63 ->75 63 ->80 64 ->74 64 ->75 64 ->79 64 ->80 65 ->74 65 ->75 65 ->80 66 ->73 66 ->74 66 ->81 68 ->73 68 ->78 68 ->82 69 ->79 70 ->81 71 ->87 73 ->86 74 ->83 74 ->87 75 ->83 76 ->83 76 ->84 76 ->85 78 ->83 78 ->84 78 ->87 79 ->87 80 ->83 80 ->87 81 ->85 82 ->83 82 ->84 82 ->87 83 ->90 83 ->95 83 ->98 84 ->91 84 ->94 84 ->95 85 ->88 85 ->89 86 ->92 86 ->93 86 ->94 86 ->96 87 ->91 87 ->93 87 ->97 87 ->98 88 ->99 89 ->99 94 ->99 
}
