digraph G {
0 ->14 0 ->19 0 ->21 1 ->15 1 ->18 1 ->21 1 ->24 2 ->15 2 ->16 2 ->17 2 ->18 2 ->24 3 ->15 3 ->20 3 ->21 3 ->22 3 ->24 4 ->14 4 ->17 5 ->16 5 ->18 5 ->20 6 ->14 6 ->16 6 ->17 6 ->24 7 ->17 8 ->14 8 ->17 8 ->19 8 ->21 9 ->14 9 ->21 9 ->22 10 ->16 10 ->17 10 ->21 10 ->22 10 ->24 11 ->15 11 ->16 11 ->22 11 ->22 12 ->15 13 ->15 13 ->16 13 ->19 13 ->23 13 ->24 14 ->26 14 ->27 14 ->33 14 ->36 15 ->32 15 ->34 16 ->26 16 ->32 16 ->36 17 ->31 17 ->32 17 ->35 18 ->26 18 ->27 18 ->31 18 ->32 18 ->33 19 ->26 19 ->27 19 ->30 19 ->31 19 ->33 19 ->36 20 ->27 20 ->28 20 ->33 21 ->25 21 ->26 21 ->29 22 ->33 23 ->26 23 ->27 23 ->30 24 ->25 24 ->27 24 ->30 24 ->31 24 ->36 25 ->40 25 ->42 26 ->38 26 ->40 27 ->38 27 ->44 28 ->38 28 ->41 28 ->44 29 ->37 29 ->42 30 ->38 30 ->40 30 ->43 30 ->47 31 ->37 31 ->45 32 ->40 32 ->42 32 ->45 32 ->46 32 ->47 33 ->38 33 ->39 33 ->46 34 ->38 34 ->40 34 ->42 34 ->47 35 ->39 35 ->40 35 ->41 35 ->42 35 ->43 35 ->48 36 ->39 36 ->42 37 ->51 37 ->52 37 ->55 37 ->56 38 ->49 38 ->52 38 ->56 38 ->58 39 ->49 39 ->52 39 ->57 40 ->50 40 ->52 41 ->58 42 ->56 43 ->53 44 ->50 44 ->54 44 ->58 45 ->50 45 ->55 45 ->58 46 ->49 46 ->50 46 ->55 47 ->51 47 ->56 48 ->53 48 ->54 48 ->55 49 ->60 49 ->65 49 ->66 49 ->67 49 ->70 50 ->60 50 ->65 51 ->62 51 ->66 51 ->69 52 ->59 52 ->64 52 ->69 53 ->62 53 ->65 53 ->66 54 ->64 54 ->65 54 ->68 55 ->61 55 ->63 55 ->65 55 ->66 55 ->70 56 ->59 56 ->60 56 ->62 56 ->63 56 ->64 56 ->67 56 ->68 57 ->60 57 ->61 57 ->64 57 ->69 58 ->59 58 ->60 58 ->66 58 ->70 59 ->72 59 ->74 59 ->79 59 ->81 60 ->72 60 ->73 60 ->78 60 ->80 60 ->81 60 ->82 60 ->83 61 ->72 61 ->76 61 ->77 61 ->79 61 ->80 61 ->84 62 ->77 62 ->83 62 ->84 63 ->75 63 ->79 63 ->84 64 ->74 64 ->76 64 ->79 64 ->80 64 ->83 64 ->84 65 ->73 65 ->76 65 ->79 65 ->80 65 ->83 65 ->84 66 ->75 66 ->79 67 ->73 67 ->75 67 ->76 67 ->83 68 ->71 68 ->73 68 ->80 68 ->81 68 ->83 69 ->82 69 ->84 70 ->71 71 ->86 71 ->91 71 ->93 72 ->86 72 ->90 72 ->92 72 ->94 73 ->90 73 ->93 74 ->86 74 ->87 74 ->93 75 ->86 75 ->87 76 ->90 77 ->87 77 ->89 77 ->90 77 ->93 78 ->90 78 ->94 79 ->85 79 ->86 79 ->93 80 ->86 80 ->89 80 ->92 80 ->94 81 ->87 81 ->90 81 ->91 81 ->93 81 ->94 82 ->91 82 ->94 83 ->87 83 ->88 83 ->91 83 ->92 84 ->86 84 ->88 84 ->90 84 ->91 85 ->98 86 ->97 87 ->99 88 ->95 88 ->99 89 ->99 90 ->97 91 ->97 91 ->98 92 ->96 92 ->97 92 ->98 93 ->97 93 ->98 94 ->99 
}
