digraph G {
0 ->12 0 ->18 0 ->19 0 ->21 0 ->21 1 ->10 1 ->15 1 ->19 2 ->9 2 ->13 2 ->17 2 ->19 3 ->15 3 ->16 3 ->19 4 ->21 5 ->16 5 ->17 5 ->18 5 ->20 5 ->22 6 ->10 6 ->15 6 ->16 6 ->17 6 ->18 6 ->22 7 ->10 7 ->11 7 ->13 7 ->15 7 ->17 7 ->18 7 ->20 7 ->21 8 ->12 8 ->14 8 ->16 8 ->18 8 ->21 9 ->24 9 ->28 9 ->31 10 ->24 10 ->26 10 ->28 10 ->31 10 ->34 11 ->23 11 ->26 11 ->33 12 ->23 12 ->26 12 ->32 12 ->33 13 ->23 13 ->27 13 ->28 13 ->29 13 ->33 14 ->25 14 ->27 14 ->29 14 ->30 14 ->33 14 ->35 15 ->26 15 ->28 15 ->31 16 ->34 17 ->30 17 ->31 17 ->33 18 ->23 18 ->26 18 ->29 18 ->31 19 ->27 19 ->28 19 ->31 20 ->23 20 ->26 20 ->28 20 ->29 20 ->35 21 ->26 21 ->29 21 ->33 21 ->35 22 ->29 24 ->37 24 ->39 25 ->36 25 ->38 25 ->41 25 ->42 25 ->43 26 ->43 26 ->44 27 ->38 27 ->44 28 ->38 28 ->40 28 ->44 29 ->40 31 ->38 32 ->37 32 ->44 33 ->36 34 ->38 34 ->39 35 ->36 35 ->38 35 ->39 35 ->41 37 ->46 38 ->46 38 ->47 39 ->45 39 ->46 39 ->50 40 ->49 41 ->46 41 ->49 42 ->49 43 ->47 43 ->50 44 ->46 44 ->48 44 ->49 44 ->50 45 ->51 45 ->54 45 ->58 45 ->61 46 ->52 46 ->55 46 ->57 46 ->60 46 ->62 47 ->51 47 ->56 47 ->58 47 ->59 47 ->60 47 ->63 48 ->51 48 ->53 48 ->58 48 ->64 49 ->59 49 ->63 50 ->53 50 ->55 50 ->56 50 ->61 50 ->63 50 ->64 51 ->67 51 ->69 52 ->67 52 ->68 53 ->65 53 ->67 54 ->66 55 ->66 55 ->68 55 ->69 56 ->67 56 ->69 58 ->65 58 ->68 59 ->68 59 ->69 60 ->67 62 ->65 62 ->66 62 ->69 63 ->65 63 ->69 64 ->66 64 ->68 64 ->69 65 ->70 65 ->73 65 ->80 66 ->70 66 ->71 66 ->74 66 ->77 66 ->78 66 ->79 66 ->80 67 ->71 67 ->72 67 ->73 67 ->76 67 ->80 68 ->71 68 ->77 68 ->81 69 ->75 69 ->76 70 ->83 70 ->84 71 ->85 71 ->90 72 ->85 73 ->85 73 ->87 73 ->89 74 ->86 75 ->82 75 ->84 75 ->86 75 ->87 75 ->89 76 ->83 76 ->85 76 ->86 76 ->88 76 ->89 76 ->90 77 ->84 77 ->90 78 ->83 78 ->85 78 ->88 78 ->90 79 ->82 79 ->83 79 ->88 80 ->83 80 ->88 80 ->89 81 ->83 81 ->84 81 ->86 81 ->89 82 ->93 82 ->99 83 ->94 83 ->95 83 ->99 84 ->91 84 ->92 84 ->94 84 ->95 84 ->97 84 ->98 85 ->91 85 ->93 85 ->96 86 ->98 87 ->92 87 ->93 87 ->94 87 ->99 88 ->93 88 ->94 88 ->95 88 ->96 89 ->92 89 ->95 89 ->96 89 ->98 90 ->92 90 ->99 
}
