0.31230823
Task0 15 31 15 
Task1 31 31 31 
Task2 7 3 31 
Task3 3 15 15 
Task4 255 63 63 
Task5 7 31 1 
Task6 1 7 15 
Task7 127 255 15 
Task8 3 7 15 
Task9 31 7 3 
Task10 31 31 15 
Task11 31 15 15 
Task12 63 63 63 
Task13 1 31 3 
Task14 63 7 3 
Task15 31 63 7 
Task16 7 31 1 
Task17 1 31 1 
Task18 15 7 15 
Task19 7 63 7 
Task20 7 15 15 
Task21 31 7 15 
Task22 3 31 31 
Task23 31 3 31 
Task24 1 127 63 
Task25 63 31 63 
Task26 31 31 31 
Task27 7 7 31 
Task28 63 7 7 
Task29 31 7 7 
Task30 255 255 255 
Task31 1 3 31 
Task32 63 7 15 
Task33 63 15 3 
Task34 7 7 31 
Task35 15 15 31 
Task36 7 63 3 
Task37 63 31 31 
Task38 15 31 31 
Task39 31 3 1 
Task40 7 31 7 
Task41 31 7 1 
Task42 31 7 7 
Task43 31 1 15 
Task44 63 15 31 
Task45 31 3 31 
Task46 31 15 3 
Task47 31 31 1 
Task48 3 31 15 
Task49 7 15 63 
Task50 31 3 3 
Task51 1 31 3 
Task52 1 31 1 
Task53 7 31 15 
Task54 63 1 31 
Task55 31 31 1 
Task56 15 15 31 
Task57 7 31 1 
Task58 7 31 15 
Task59 7 15 63 
Task60 127 255 63 
Task61 7 1 31 
Task62 7 7 31 
Task63 15 31 7 
Task64 31 31 15 
Task65 3 31 15 
Task66 1 1 31 
Task67 7 15 31 
Task68 15 63 15 
Task69 63 63 31 
Task70 31 7 31 
Task71 63 15 7 
Task72 3 3 31 
Task73 63 3 31 
Task74 31 63 15 
Task75 15 31 7 
Task76 31 31 1 
Task77 31 15 1 
Task78 3 31 31 
Task79 31 1 63 
Task80 127 15 255 
Task81 3 31 3 
Task82 31 1 7 
Task83 1 31 1 
Task84 63 31 31 
Task85 31 3 15 
Task86 7 15 63 
Task87 255 15 63 
Task88 31 31 7 
Task89 15 7 1 
Task90 15 31 3 
Task91 31 3 15 
Task92 31 63 15 
Task93 31 1 3 
Task94 63 63 63 
Task95 1 63 3 
Task96 1 31 15 
Task97 7 7 15 
Task98 1 31 31 
Task99 7 1 31 
