files/tasks_parameters/ExAp01/sample8.txt 1.21851 6.77015 2.19458 0.288816 13.9585
files/tasks_parameters/ExAp01/sample12.txt 1.45193 9.58351 2.46081 0.337498 16.3113
files/tasks_parameters/ExAp01/sample2.txt 1.27742 8.44418 2.50701 0.319127 15.4234
files/tasks_parameters/ExAp01/sample44.txt 1.12802 6.96299 2.23089 0.28229 13.6431
files/tasks_parameters/ExAp01/sample27.txt 1.16635 7.74306 2.16676 0.28602 13.8233
files/tasks_parameters/ExAp01/sample17.txt 1.18157 7.35053 2.25579 0.292348 14.1291
files/tasks_parameters/ExAp01/sample9.txt 1.22244 6.89392 2.21068 0.282399 13.6483
files/tasks_parameters/ExAp01/sample34.txt 1.15198 6.62788 2.3772 0.297742 14.3898
files/tasks_parameters/ExAp01/sample40.txt 1.06954 7.75686 2.17534 0.285619 13.804
files/tasks_parameters/ExAp01/sample33.txt 1.35615 8.14826 2.6463 0.338073 16.3391
files/tasks_parameters/ExAp01/sample48.txt 1.04214 7.64107 2.14272 0.270011 13.0496
files/tasks_parameters/ExAp01/sample29.txt 1.29366 7.139 1.93769 0.286306 13.8371
files/tasks_parameters/ExAp01/sample11.txt 1.1239 6.88688 2.12981 0.280008 13.5328
files/tasks_parameters/ExAp01/sample14.txt 0.902554 6.11983 1.97599 0.247458 11.9596
files/tasks_parameters/ExAp01/sample0.txt 1.18337 8.2738 2.14256 0.289132 13.9737
files/tasks_parameters/ExAp01/sample7.txt 1.04662 6.87011 2.05821 0.269886 13.0436
files/tasks_parameters/ExAp01/sample23.txt 1.19982 6.52032 2.38087 0.291712 14.0984
files/tasks_parameters/ExAp01/sample13.txt 1.23674 8.73247 2.33415 0.295393 14.2763
files/tasks_parameters/ExAp01/sample22.txt 1.07694 6.9777 2.28948 0.283979 13.7247
files/tasks_parameters/ExAp01/sample25.txt 0.95572 6.23444 2.2122 0.267298 12.9185
files/tasks_parameters/ExAp01/sample36.txt 0.984019 6.6174 1.9458 0.253823 12.2672
files/tasks_parameters/ExAp01/sample46.txt 1.3992 7.42369 2.49128 0.327273 15.8171
files/tasks_parameters/ExAp01/sample31.txt 1.04513 7.22028 2.13584 0.25377 12.2647
files/tasks_parameters/ExAp01/sample37.txt 1.15999 8.90704 2.16981 0.295708 14.2916
files/tasks_parameters/ExAp01/sample16.txt 1.03378 8.18243 1.88294 0.24945 12.0559
files/tasks_parameters/ExAp01/sample10.txt 1.08666 6.96646 2.31217 0.285748 13.8102
files/tasks_parameters/ExAp01/sample39.txt 1.02678 6.4161 1.97266 0.251967 12.1775
files/tasks_parameters/ExAp01/sample19.txt 1.37597 8.16711 2.23199 0.308463 14.908
files/tasks_parameters/ExAp01/sample20.txt 1.07782 7.28549 1.88944 0.25994 12.5629
files/tasks_parameters/ExAp01/sample43.txt 1.00492 6.86804 2.00142 0.25616 12.3802
files/tasks_parameters/ExAp01/sample32.txt 1.14278 8.15663 2.12995 0.281726 13.6158
files/tasks_parameters/ExAp01/sample45.txt 1.2332 7.75184 2.10599 0.274935 13.2876
files/tasks_parameters/ExAp01/sample26.txt 1.08718 7.4944 1.88956 0.267248 12.9161
files/tasks_parameters/ExAp01/sample5.txt 1.20596 8.08362 2.09961 0.28454 13.7518
files/tasks_parameters/ExAp01/sample21.txt 1.12915 6.11814 2.17119 0.26143 12.6349
files/tasks_parameters/ExAp01/sample38.txt 1.0669 7.761 1.96293 0.263659 12.7426
files/tasks_parameters/ExAp01/sample1.txt 1.22521 7.83752 2.13261 0.289228 13.9784
files/tasks_parameters/ExAp01/sample15.txt 1.14561 7.37971 2.12057 0.285825 13.8139
files/tasks_parameters/ExAp01/sample24.txt 1.14958 8.28531 2.25272 0.296628 14.336
files/tasks_parameters/ExAp01/sample3.txt 1.34347 7.33359 2.39135 0.305084 14.7447
files/tasks_parameters/ExAp01/sample6.txt 1.08987 7.09894 2.24425 0.281804 13.6196
files/tasks_parameters/ExAp01/sample30.txt 1.42058 8.17669 2.03701 0.299204 14.4605
files/tasks_parameters/ExAp01/sample42.txt 1.12819 7.70416 2.42413 0.29743 14.3748
files/tasks_parameters/ExAp01/sample4.txt 1.30828 7.41691 2.36261 0.307803 14.8761
files/tasks_parameters/ExAp01/sample28.txt 1.16213 7.0562 2.07657 0.266428 12.8764
files/tasks_parameters/ExAp01/sample18.txt 1.06065 7.60139 2.1377 0.268016 12.9532
files/tasks_parameters/ExAp01/sample35.txt 1.40294 9.66795 2.28028 0.32244 15.5835
files/tasks_parameters/ExAp01/sample47.txt 1.05172 6.84842 2.12104 0.251655 12.1625
files/tasks_parameters/ExAp01/sample49.txt 1.01591 7.1497 2.11412 0.255889 12.3671
files/tasks_parameters/ExAp01/sample41.txt 1.06869 6.59911 2.07359 0.265885 12.8502
