Task0 0.050299468643571904 0.20950676262657872 0.2922736613877552 0.7449417834190771 0.8160286960230947 
Task1 0.12625030732298528 0.7706796727118086 0.09501264168985589 0.9681527862300285 0.9398888725442096 
Task2 0.10613471132311217 0.2611053695580079 0.452734427534869 0.9321853819496002 0.3459999501121918 
Task3 0.04557955958999994 0.11344152904338006 0.093787019637718 0.7150531686453565 0.9911964997263627 
Task4 0.07353581784815474 0.37132774123994716 0.2881690580827542 0.9824909116254774 0.8188232294893087 
Task5 0.10325365696952078 0.12344529477721215 0.5827747208240868 0.5555605168296649 0.8316492629312939 
Task6 0.020925197869807986 0.053993682711853695 0.13172756408167455 0.47667478238951033 0.5169681641808546 
Task7 0.08782071313700376 0.5153627298342478 0.37647530670598156 0.32733892671226184 0.9340661672461603 
Task8 0.0010420134404896869 0.07462256806923204 0.02777145920427321 0.5575392939129502 0.9336904615889876 
Task9 0.014750715504253512 0.5106994075709904 0.18357796805894486 0.5306606017423924 0.8985913713863036 
Task10 0.014466528810450257 0.1728049244353123 0.17680804194311894 0.8467559917185818 0.30990163993743414 
Task11 0.04053403917372317 0.1300274301633269 0.04959370034324349 0.6995540151531916 0.5785863705273978 
Task12 0.08588117000421432 0.34579830670423556 0.09833818330008416 0.8719549823819228 0.6193699809010428 
Task13 0.04236780894811608 0.33158816431005067 0.22091678262019512 0.41266421638133693 0.3886837338267984 
Task14 0.018426910114482897 0.07611335976785015 0.06764127754192101 0.7473770051850648 0.7222947523582782 
Task15 0.004428550946536792 0.024251575188134932 0.006479267336645962 0.9231155758747176 0.8004127102527712 
Task16 0.02571979910922795 0.2594543407023921 0.22387404090150095 0.32174751807309504 0.9775839570491522 
Task17 0.05758102099886699 0.15307761547572582 0.6576296904880805 0.31072626097101363 0.8699991723087126 
Task18 0.10257384291400812 0.3382215502484772 0.3191062406917147 0.5558627736427599 0.846338238602744 
Task19 0.0007156334215619177 0.015729290919061632 0.01269154180153415 0.9878646349870217 0.9402941918762939 
Task20 0.003981642025378408 0.08245678351425889 0.05838039564679366 0.7041051081450248 0.6283470480120873 
Task21 0.11877055599562275 0.017317435843929533 0.6382555055872089 0.3551581080257606 0.6208220660875066 
Task22 0.1378066318513072 0.36008106738299456 0.4471301678716243 0.6826434859424365 0.6044819624968507 
Task23 0.002647508150337519 0.004925627905665531 0.19006388740798463 0.5715233497917338 0.670265604447139 
Task24 0.10904158594423 0.42873307374606273 0.09114965913654716 0.36005586884818996 0.4332652783038247 
Task25 0.08921311720860087 0.04900778144852844 0.5914871237002517 0.3985027175771365 0.9864491411557303 
Task26 0.03862109975377742 0.1584863638635149 0.10568712743850782 0.7732501889185903 0.40725654925402355 
Task27 0.11488388847770067 0.5471430256772363 0.3321799522387432 0.641568096291936 0.5227787972569558 
Task28 0.058250950428017305 0.21379509033351404 0.18216611512880607 0.4303901841211033 0.5701093403186959 
Task29 0.01550773131631814 0.0848931955400705 0.044303386194093713 0.7244034635599328 0.556441815472375 
Task30 0.006744091634694138 0.08597229960836737 0.1295011557740181 0.442579764205724 0.9748436748848812 
Task31 0.0035905031341527233 0.023786173355343932 0.010434291919616586 0.6290126559099452 0.6160061452719667 
Task32 0.10006218611865272 0.48645759711198183 0.23887492811127417 0.7242981650805949 0.6075539717858505 
Task33 0.05074165630949676 0.33488377346520176 0.37034798078034153 0.6981212843252103 0.584609289415327 
Task34 0.07832132988754938 0.3208707784394863 0.3837736542872626 0.491292657160483 0.5940346700699457 
Task35 0.020492136558862818 0.17095508947124122 0.15289657469967896 0.7905862127931454 0.6477734029330107 
Task36 0.004967681301828901 0.024463487769007537 0.024437971587008098 0.5191683504313985 0.3890667660069851 
Task37 0.10047618222786682 0.27105098765680885 0.35501338199571303 0.38545556277415993 0.3956833383493654 
Task38 0.032941047131769166 0.46358003795588637 0.48941026697513584 0.853533445856042 0.7203671111317438 
Task39 0.00940962412546695 0.08036609685129549 0.02966079275439594 0.706277075528777 0.9762223215545776 
Task40 0.002428618482150066 0.09864140977873431 0.1137450045262112 0.8627776441696895 0.7265130830839753 
Task41 0.04165048653889773 0.07315192379189073 0.346699508879674 0.9669066948068061 0.39230972280686105 
Task42 0.011118421564850454 0.05408933882567749 0.037962705403017105 0.6148433319356049 0.6940725418708404 
Task43 0.14040037608769948 0.36747836607072176 0.20566694687874146 0.5364546216780276 0.7359569457430178 
Task44 0.016389390124995382 0.7967498848719895 0.013924402292029767 0.5498598113931656 0.8132616710788922 
Task45 0.08896900433556366 0.048287436527515645 0.34132856069300754 0.31055905776646686 0.4524036310772851 
Task46 0.05709306921931025 0.454621808286257 0.24829176812666837 0.6001137455806542 0.5820356664270148 
Task47 0.0011588632405321677 0.012994543545147048 0.005287034842709099 0.4805368413366809 0.5807144860951322 
Task48 0.04675189137778386 0.21008838004250766 0.7065403952986699 0.33127443837901466 0.972933707885784 
Task49 0.040068531669539637 0.033540692936309416 0.12708652952395438 0.3834343313148515 0.517376999655309 
Task50 0.11988754833442425 0.23411370131668482 0.5754365623730096 0.7280783725708887 0.5000186673569769 
Task51 0.03230141031835872 0.4125099715251039 0.3191199469443102 0.4185165876263123 0.9405528994461008 
Task52 0.05462179338296994 0.15689802492223748 0.4986779338366604 0.5956968587002529 0.6570460767577899 
Task53 0.04870907746960882 0.9481862088937207 0.0016481098995616544 0.30002155641205175 0.8535294735936192 
Task54 0.0009772823460465754 0.14942223617258535 0.4723003193170735 0.8423684422066606 0.9462737431305124 
Task55 0.03929873825981578 0.10553586806690074 0.06387059472997293 0.8580341826777096 0.3079231297796675 
Task56 0.0037102907252867627 0.01997570123766742 0.13936152494012988 0.38155503628723253 0.8895010674077577 
Task57 0.024383063769842585 0.3198024532352889 0.2274104625815973 0.4657928218564057 0.8344095087067271 
Task58 0.023040906364720944 0.08673179586154821 0.1300464531112698 0.6732476513255962 0.635097019901185 
Task59 0.0657379138316605 0.5816457008286293 0.09937575391872484 0.3711532787787273 0.4515489540808161 
Task60 0.00034604410576099517 0.03458437704291795 0.008654981709591227 0.35971671411527795 0.5933520784649873 
Task61 0.0182485767279686 0.5096003711408832 0.4325283629361549 0.7928847396326655 0.6309649040645087 
Task62 0.005885239271624927 0.03000064199540342 0.025285817594662367 0.704496232277086 0.8547806033585388 
Task63 0.09637563977498195 0.1324944666226101 0.27223649556990537 0.3460678746944937 0.9415499416011395 
Task64 0.1693476438204077 0.5000517312180015 0.2524305210393973 0.7370648394175956 0.40466489546545553 
Task65 0.016467403311287113 0.06228447530167416 0.0675006080982762 0.7609406305786763 0.42852410770517824 
Task66 0.0855935855555078 0.520938805148031 0.10887996074533356 0.7659368569239019 0.8603133028605621 
Task67 0.010804060336574559 0.09728351741911102 0.07695795720086472 0.9034308924656504 0.7196088539307728 
Task68 0.1281765979823288 0.11169609444645145 0.5910120561472856 0.9459211329939083 0.6172954331484093 
Task69 0.16876963869634945 0.15153882758230422 0.5245585411181722 0.5555762467970558 0.6867020145075409 
Task70 0.05180461947499239 0.11193658003370507 0.1352158427163517 0.6796188723050178 0.4651062534128711 
Task71 0.04782686973671585 0.032276322071944606 0.5783711546332796 0.6149092490559762 0.7456807776946865 
Task72 0.1027362675696724 0.2634194905423788 0.21652566011932098 0.7890524588836911 0.3001725632971144 
Task73 0.154972355557081 0.5075972296576551 0.15910628756759262 0.7068412172941748 0.5236395069021468 
Task74 0.011249417982071264 0.23582123287602272 0.6678510082459141 0.42019951155899765 0.8720422889927941 
Task75 0.066521497902601 0.19449053047644793 0.10179034379663575 0.5128624262453352 0.8431558784970472 
Task76 0.10261864795664846 0.7069075365986601 0.0862801195535284 0.6673227251750893 0.9869421729369852 
Task77 0.01199341751790635 0.12759922817870487 0.5006042132566607 0.3435628380510425 0.750036934705439 
Task78 0.02566831821936956 0.011751459892715567 0.2311881274051984 0.7220253110275364 0.793155321020754 
Task79 0.0038176640364978513 0.3527945030394279 0.6366959583767827 0.4511478568260034 0.6687288505888187 
Task80 0.00836557249730613 0.03347326730782854 0.04559637510251327 0.6870019806640104 0.8451584097421918 
Task81 0.03747532605007786 0.03346148682381339 0.14921188430114354 0.46790484178878977 0.3986373252013279 
Task82 0.03587378221991581 0.1759930683513088 0.3421763194946884 0.9151095198306798 0.514632741648229 
Task83 0.0498864938690366 0.18881384034049845 0.3206993076628153 0.852101621727186 0.337021942446996 
Task84 0.03684567263395856 0.18734385768905498 0.04290988776941091 0.3581142391491181 0.7736997439792244 
Task85 0.0003438478594671106 0.0005377515475926565 0.0023599427942400295 0.7220994893494728 0.55757236490059 
Task86 0.04487087495493572 0.16135943476366685 0.04068757813234125 0.30374036463881426 0.7899997465469724 
Task87 0.009317015818204403 0.2404093315170038 0.5971493570982179 0.31852889970350984 0.7762292099010977 
Task88 0.0005063404908234819 0.0013588458005186958 0.004367278341454297 0.7631929307001848 0.406120207997488 
Task89 0.041568268741046625 0.18166038507946616 0.2660459186977966 0.6877264100327712 0.78897138819543 
Task90 0.08726104368540114 0.3202576892268638 0.3518790130204877 0.7339693383966326 0.6019045018850373 
Task91 0.08797334431106418 0.546229821048739 0.0984983694059608 0.41400986690797303 0.7880460772455509 
Task92 0.005241792597503661 0.09707878612937385 0.020499130912769673 0.9899495066754096 0.5971883817618321 
Task93 0.16125551472710156 0.18226813917540863 0.46895476217697357 0.48295886405648025 0.43174004657883236 
Task94 0.13811859882148567 0.033621577742731217 0.5655665761134618 0.655753066087537 0.4543029234410444 
Task95 0.10225404331001249 0.22206177216446726 0.3752208232134862 0.9380392705072089 0.4422673133877918 
Task96 0.06549670649284212 0.37231591342935605 0.40367131478311674 0.7929703160285819 0.8467816508698274 
Task97 0.009552691890615502 0.3148725118832541 0.09265727630522412 0.594808554746898 0.4550369240059623 
Task98 0.015460004385514764 0.18481899102235974 0.16332323567701967 0.3816906573957547 0.35543762849036215 
Task99 0.09777631476394551 0.20180329957772725 0.35279797589966444 0.9655156097790365 0.4222836515299028 
