files/tasks_parameters/ExAp01/sample8.txt 1.75413 6.77015 2.19458 0.288816 4.87544
files/tasks_parameters/ExAp01/sample12.txt 2.0428 9.58351 2.46081 0.337498 5.69723
files/tasks_parameters/ExAp01/sample2.txt 1.95 8.44418 2.50701 0.319127 5.38711
files/tasks_parameters/ExAp01/sample44.txt 1.72914 6.96299 2.23089 0.28229 4.76527
files/tasks_parameters/ExAp01/sample27.txt 1.72079 7.74306 2.16676 0.28602 4.82823
files/tasks_parameters/ExAp01/sample17.txt 1.79042 7.35053 2.25579 0.292348 4.93505
files/tasks_parameters/ExAp01/sample9.txt 1.73534 6.89392 2.21068 0.282399 4.76711
files/tasks_parameters/ExAp01/sample34.txt 1.81801 6.62788 2.3772 0.297742 5.0261
files/tasks_parameters/ExAp01/sample40.txt 1.7325 7.75686 2.17534 0.285619 4.82147
files/tasks_parameters/ExAp01/sample33.txt 2.04561 8.14826 2.6463 0.338073 5.70693
files/tasks_parameters/ExAp01/sample48.txt 1.65077 7.64107 2.14272 0.270011 4.55799
files/tasks_parameters/ExAp01/sample29.txt 1.69032 7.139 1.93769 0.286306 4.83306
files/tasks_parameters/ExAp01/sample11.txt 1.69709 6.88688 2.12981 0.280008 4.72675
files/tasks_parameters/ExAp01/sample14.txt 1.50207 6.11983 1.97599 0.247458 4.17727
files/tasks_parameters/ExAp01/sample0.txt 1.78307 8.2738 2.14256 0.289132 4.88076
files/tasks_parameters/ExAp01/sample7.txt 1.65384 6.87011 2.05821 0.269886 4.55587
files/tasks_parameters/ExAp01/sample23.txt 1.78315 6.52032 2.38087 0.291712 4.92431
files/tasks_parameters/ExAp01/sample13.txt 1.78884 8.73247 2.33415 0.295393 4.98645
files/tasks_parameters/ExAp01/sample22.txt 1.75928 6.9777 2.28948 0.283979 4.79378
files/tasks_parameters/ExAp01/sample25.txt 1.61088 6.23444 2.2122 0.267298 4.51219
files/tasks_parameters/ExAp01/sample36.txt 1.56127 6.6174 1.9458 0.253823 4.28472
files/tasks_parameters/ExAp01/sample46.txt 1.98889 7.42369 2.49128 0.327273 5.52461
files/tasks_parameters/ExAp01/sample31.txt 1.55508 7.22028 2.13584 0.25377 4.28383
files/tasks_parameters/ExAp01/sample37.txt 1.81654 8.90704 2.16981 0.295708 4.99178
files/tasks_parameters/ExAp01/sample16.txt 1.50361 8.18243 1.88294 0.24945 4.2109
files/tasks_parameters/ExAp01/sample10.txt 1.75532 6.96646 2.31217 0.285748 4.82364
files/tasks_parameters/ExAp01/sample39.txt 1.53724 6.4161 1.97266 0.251967 4.25339
files/tasks_parameters/ExAp01/sample19.txt 1.87401 8.16711 2.23199 0.308463 5.20709
files/tasks_parameters/ExAp01/sample20.txt 1.59061 7.28549 1.88944 0.25994 4.38798
files/tasks_parameters/ExAp01/sample43.txt 1.5626 6.86804 2.00142 0.25616 4.32418
files/tasks_parameters/ExAp01/sample32.txt 1.74189 8.15663 2.12995 0.281726 4.75576
files/tasks_parameters/ExAp01/sample45.txt 1.70579 7.75184 2.10599 0.274935 4.64111
files/tasks_parameters/ExAp01/sample26.txt 1.6188 7.4944 1.88956 0.267248 4.51135
files/tasks_parameters/ExAp01/sample5.txt 1.74221 8.08362 2.09961 0.28454 4.80326
files/tasks_parameters/ExAp01/sample21.txt 1.59891 6.11814 2.17119 0.26143 4.41313
files/tasks_parameters/ExAp01/sample38.txt 1.59963 7.761 1.96293 0.263659 4.45076
files/tasks_parameters/ExAp01/sample1.txt 1.73053 7.83752 2.13261 0.289228 4.88239
files/tasks_parameters/ExAp01/sample15.txt 1.735 7.37971 2.12057 0.285825 4.82495
files/tasks_parameters/ExAp01/sample24.txt 1.79987 8.28531 2.25272 0.296628 5.00731
files/tasks_parameters/ExAp01/sample3.txt 1.8345 7.33359 2.39135 0.305084 5.15006
files/tasks_parameters/ExAp01/sample6.txt 1.70157 7.09894 2.24425 0.281804 4.75707
files/tasks_parameters/ExAp01/sample30.txt 1.82826 8.17669 2.03701 0.299204 5.0508
files/tasks_parameters/ExAp01/sample42.txt 1.83591 7.70416 2.42413 0.29743 5.02084
files/tasks_parameters/ExAp01/sample4.txt 1.88187 7.41691 2.36261 0.307803 5.19594
files/tasks_parameters/ExAp01/sample28.txt 1.63919 7.0562 2.07657 0.266428 4.49751
files/tasks_parameters/ExAp01/sample18.txt 1.63949 7.60139 2.1377 0.268016 4.52431
files/tasks_parameters/ExAp01/sample35.txt 1.98827 9.66795 2.28028 0.32244 5.44303
files/tasks_parameters/ExAp01/sample47.txt 1.50894 6.84842 2.12104 0.251655 4.24812
files/tasks_parameters/ExAp01/sample49.txt 1.55626 7.1497 2.11412 0.255889 4.3196
files/tasks_parameters/ExAp01/sample41.txt 1.60826 6.59911 2.07359 0.265885 4.48835
