files/tasks_parameters/ExAp01/sample8.txt 0.768646 3.15778 1.5595 0.203411 3.71952
files/tasks_parameters/ExAp01/sample12.txt 0.864593 3.94962 1.6705 0.207924 3.80204
files/tasks_parameters/ExAp01/sample2.txt 0.828484 3.78275 1.74131 0.200098 3.65893
files/tasks_parameters/ExAp01/sample44.txt 0.785675 3.59825 1.65317 0.200005 3.65724
files/tasks_parameters/ExAp01/sample27.txt 0.743955 3.45743 1.5148 0.182129 3.33035
files/tasks_parameters/ExAp01/sample17.txt 0.63167 2.77299 1.44514 0.14646 2.67812
files/tasks_parameters/ExAp01/sample9.txt 0.708373 2.99933 1.451 0.177444 3.24468
files/tasks_parameters/ExAp01/sample34.txt 0.651127 3.02928 1.58429 0.157984 2.88884
files/tasks_parameters/ExAp01/sample40.txt 0.702463 3.86889 1.52122 0.168379 3.07894
files/tasks_parameters/ExAp01/sample33.txt 0.782284 3.63695 1.71905 0.199765 3.65284
files/tasks_parameters/ExAp01/sample48.txt 0.656675 3.39061 1.49062 0.154728 2.82932
files/tasks_parameters/ExAp01/sample29.txt 0.844543 3.30472 1.38739 0.223868 4.09359
files/tasks_parameters/ExAp01/sample11.txt 0.709833 3.10585 1.41612 0.174079 3.18315
files/tasks_parameters/ExAp01/sample14.txt 0.643206 2.70971 1.43432 0.162214 2.96621
files/tasks_parameters/ExAp01/sample0.txt 0.786425 3.6937 1.5439 0.18367 3.35853
files/tasks_parameters/ExAp01/sample7.txt 0.622067 2.70501 1.42221 0.143463 2.62333
files/tasks_parameters/ExAp01/sample23.txt 0.745981 3.2697 1.57822 0.181448 3.31791
files/tasks_parameters/ExAp01/sample13.txt 0.797555 3.84225 1.67648 0.198247 3.62509
files/tasks_parameters/ExAp01/sample22.txt 0.632737 3.09569 1.56121 0.148796 2.72084
files/tasks_parameters/ExAp01/sample25.txt 0.591825 2.73966 1.5007 0.148149 2.709
files/tasks_parameters/ExAp01/sample36.txt 0.5679 2.85948 1.28553 0.130042 2.37792
files/tasks_parameters/ExAp01/sample46.txt 0.809566 3.58643 1.69998 0.210103 3.84188
files/tasks_parameters/ExAp01/sample31.txt 0.75956 3.4832 1.53782 0.1722 3.1488
files/tasks_parameters/ExAp01/sample37.txt 0.747162 3.95293 1.50705 0.171701 3.13968
files/tasks_parameters/ExAp01/sample16.txt 0.648149 3.31216 1.30115 0.150249 2.74741
files/tasks_parameters/ExAp01/sample10.txt 0.684275 3.17098 1.61789 0.153776 2.81191
files/tasks_parameters/ExAp01/sample39.txt 0.704948 3.26617 1.44406 0.165669 3.02937
files/tasks_parameters/ExAp01/sample19.txt 0.792288 3.63532 1.52509 0.196094 3.58573
files/tasks_parameters/ExAp01/sample20.txt 0.612731 3.20793 1.25367 0.147335 2.69413
files/tasks_parameters/ExAp01/sample43.txt 0.62624 3.11551 1.4202 0.150644 2.75464
files/tasks_parameters/ExAp01/sample32.txt 0.727689 3.5311 1.42482 0.168744 3.08561
files/tasks_parameters/ExAp01/sample45.txt 0.811492 3.80283 1.48324 0.19807 3.62186
files/tasks_parameters/ExAp01/sample26.txt 0.662463 3.21645 1.29701 0.166061 3.03655
files/tasks_parameters/ExAp01/sample5.txt 0.709619 3.5889 1.52559 0.178903 3.27138
files/tasks_parameters/ExAp01/sample21.txt 0.754563 2.75242 1.55936 0.19512 3.56791
files/tasks_parameters/ExAp01/sample38.txt 0.692764 3.31563 1.37515 0.166157 3.0383
files/tasks_parameters/ExAp01/sample1.txt 0.785349 3.74964 1.51696 0.19701 3.60246
files/tasks_parameters/ExAp01/sample15.txt 0.7283 3.32916 1.48508 0.180707 3.30436
files/tasks_parameters/ExAp01/sample24.txt 0.702438 3.45951 1.59549 0.16529 3.02245
files/tasks_parameters/ExAp01/sample3.txt 0.915854 3.70014 1.70809 0.237107 4.33567
files/tasks_parameters/ExAp01/sample6.txt 0.734361 3.33003 1.58323 0.184714 3.37764
files/tasks_parameters/ExAp01/sample30.txt 0.983848 4.1841 1.4861 0.239623 4.38168
files/tasks_parameters/ExAp01/sample42.txt 0.722934 3.43221 1.70276 0.177383 3.24357
files/tasks_parameters/ExAp01/sample4.txt 0.826376 3.72477 1.6136 0.196448 3.59219
files/tasks_parameters/ExAp01/sample28.txt 0.655121 3.11323 1.45032 0.158819 2.90412
files/tasks_parameters/ExAp01/sample18.txt 0.644795 3.47418 1.45209 0.149064 2.72574
files/tasks_parameters/ExAp01/sample35.txt 0.810054 4.57086 1.49394 0.185031 3.38342
files/tasks_parameters/ExAp01/sample47.txt 0.694991 3.13768 1.52397 0.16417 3.00197
files/tasks_parameters/ExAp01/sample49.txt 0.67243 3.13288 1.49657 0.156154 2.85539
files/tasks_parameters/ExAp01/sample41.txt 0.624517 2.81964 1.49636 0.150876 2.75887
