0.4001952399999999
Task0 63 15 127 
Task1 31 31 63 
Task2 31 15 127 
Task3 15 1 31 
Task4 127 255 127 
Task5 31 255 3 
Task6 31 255 63 
Task7 63 63 127 
Task8 255 255 15 
Task9 31 15 127 
Task10 15 127 127 
Task11 63 31 63 
Task12 63 15 31 
Task13 255 63 15 
Task14 255 31 63 
Task15 127 63 127 
Task16 63 255 127 
Task17 63 63 63 
Task18 255 127 255 
Task19 255 31 15 
Task20 7 31 1 
Task21 7 7 255 
Task22 31 63 63 
Task23 127 7 63 
Task24 63 63 15 
Task25 63 255 255 
Task26 255 255 127 
Task27 15 255 255 
Task28 63 63 1 
Task29 255 255 127 
Task30 15 3 255 
Task31 127 63 15 
Task32 31 31 255 
Task33 63 63 31 
Task34 15 63 31 
Task35 1 255 7 
Task36 15 255 15 
Task37 255 63 31 
Task38 31 127 255 
Task39 63 127 255 
Task40 1 255 15 
Task41 255 7 15 
Task42 15 255 31 
Task43 255 7 15 
Task44 63 255 127 
Task45 31 63 255 
Task46 7 15 255 
Task47 1 127 255 
Task48 127 31 255 
Task49 255 31 63 
Task50 255 15 7 
Task51 31 63 63 
Task52 127 63 7 
Task53 127 63 63 
Task54 31 15 255 
Task55 127 255 255 
Task56 31 127 63 
Task57 63 15 127 
Task58 63 255 255 
Task59 31 15 255 
Task60 255 3 7 
Task61 7 31 1 
Task62 127 1 127 
Task63 3 31 3 
Task64 31 63 7 
Task65 15 3 255 
Task66 63 1 63 
Task67 15 255 31 
Task68 63 3 7 
Task69 255 15 1 
Task70 31 31 63 
Task71 31 1 63 
Task72 7 3 63 
Task73 255 255 7 
Task74 63 15 15 
Task75 127 3 255 
Task76 1 3 31 
Task77 31 63 15 
Task78 1 63 63 
Task79 31 3 1 
Task80 3 31 255 
Task81 31 7 1 
Task82 31 127 15 
Task83 127 255 31 
Task84 3 1 31 
Task85 31 255 127 
Task86 63 31 127 
Task87 255 1 1 
Task88 31 15 127 
Task89 63 31 127 
Task90 7 7 31 
Task91 31 255 31 
Task92 31 7 255 
Task93 63 63 15 
Task94 63 63 15 
Task95 31 63 31 
Task96 7 127 63 
Task97 7 63 31 
Task98 63 31 15 
Task99 7 31 63 
