files/tasks_parameters/ExAp01/sample8.txt 0.99609 3.76817 4.3855 0.450105 31.0073
files/tasks_parameters/ExAp01/sample12.txt 1.38321 5.03638 5.18776 0.610564 42.0611
files/tasks_parameters/ExAp01/sample2.txt 1.35153 4.58991 5.64606 0.613877 42.2893
files/tasks_parameters/ExAp01/sample44.txt 1.20129 3.77401 5.66946 0.551838 38.0155
files/tasks_parameters/ExAp01/sample27.txt 1.23849 4.13937 5.56136 0.55779 38.4255
files/tasks_parameters/ExAp01/sample17.txt 1.14978 3.76163 5.38341 0.520991 35.8905
files/tasks_parameters/ExAp01/sample9.txt 1.12963 3.69889 5.2981 0.511699 35.2504
files/tasks_parameters/ExAp01/sample34.txt 1.10445 3.52435 5.83741 0.49187 33.8844
files/tasks_parameters/ExAp01/sample40.txt 1.11015 4.06185 5.0335 0.496884 34.2298
files/tasks_parameters/ExAp01/sample33.txt 1.42318 4.82091 5.83886 0.651963 44.913
files/tasks_parameters/ExAp01/sample48.txt 0.997518 4.01134 5.07085 0.447927 30.8572
files/tasks_parameters/ExAp01/sample29.txt 1.39748 4.20847 5.0406 0.643694 44.3434
files/tasks_parameters/ExAp01/sample11.txt 1.23075 3.94699 5.29198 0.557276 38.3901
files/tasks_parameters/ExAp01/sample14.txt 1.06298 3.54059 4.58345 0.466713 32.1514
files/tasks_parameters/ExAp01/sample0.txt 1.39184 4.82755 4.90216 0.623551 42.9557
files/tasks_parameters/ExAp01/sample7.txt 1.13017 3.60766 5.11185 0.509566 35.1034
files/tasks_parameters/ExAp01/sample23.txt 1.27872 3.81403 5.45799 0.582911 40.1561
files/tasks_parameters/ExAp01/sample13.txt 1.38681 4.8894 5.26818 0.624499 43.021
files/tasks_parameters/ExAp01/sample22.txt 1.19288 3.76156 4.95746 0.534216 36.8016
files/tasks_parameters/ExAp01/sample25.txt 0.890075 2.94144 4.92622 0.403639 27.8063
files/tasks_parameters/ExAp01/sample36.txt 1.10567 3.56164 4.5806 0.501799 34.5684
files/tasks_parameters/ExAp01/sample46.txt 1.17033 3.84833 4.7121 0.530701 36.5594
files/tasks_parameters/ExAp01/sample31.txt 1.08466 3.764 5.08385 0.479734 33.0483
files/tasks_parameters/ExAp01/sample37.txt 1.43283 4.43254 5.65111 0.65143 44.8763
files/tasks_parameters/ExAp01/sample16.txt 1.13707 4.49741 4.8895 0.509171 35.0762
files/tasks_parameters/ExAp01/sample10.txt 1.36434 3.87086 6.07511 0.60993 42.0174
files/tasks_parameters/ExAp01/sample39.txt 1.04677 3.66299 4.54281 0.463671 31.9418
files/tasks_parameters/ExAp01/sample19.txt 1.36013 3.86694 5.14047 0.615987 42.4347
files/tasks_parameters/ExAp01/sample20.txt 1.27694 4.09945 5.13368 0.580369 39.981
files/tasks_parameters/ExAp01/sample43.txt 1.18168 3.75825 5.55698 0.530892 36.5726
files/tasks_parameters/ExAp01/sample32.txt 1.30429 4.0352 5.29178 0.587643 40.4821
files/tasks_parameters/ExAp01/sample45.txt 1.19576 3.94578 4.87833 0.541081 37.2745
files/tasks_parameters/ExAp01/sample26.txt 1.05535 3.50998 4.55035 0.474009 32.654
files/tasks_parameters/ExAp01/sample5.txt 1.28915 4.00994 5.27725 0.587681 40.4847
files/tasks_parameters/ExAp01/sample21.txt 0.986404 2.8974 4.54677 0.430037 29.6248
files/tasks_parameters/ExAp01/sample38.txt 1.09317 3.56689 4.78573 0.492366 33.9186
files/tasks_parameters/ExAp01/sample1.txt 1.09079 3.69002 4.55048 0.481074 33.1406
files/tasks_parameters/ExAp01/sample15.txt 1.17308 3.73223 5.42493 0.524964 36.1642
files/tasks_parameters/ExAp01/sample24.txt 1.20139 4.18053 5.40377 0.542575 37.3774
files/tasks_parameters/ExAp01/sample3.txt 1.03942 3.70547 4.7118 0.470503 32.4124
files/tasks_parameters/ExAp01/sample6.txt 1.3646 4.07521 5.71419 0.626702 43.1728
files/tasks_parameters/ExAp01/sample30.txt 1.38477 3.97446 5.82388 0.626709 43.1733
files/tasks_parameters/ExAp01/sample42.txt 1.20795 4.44207 5.58473 0.537025 36.995
files/tasks_parameters/ExAp01/sample4.txt 1.24654 3.92181 4.49751 0.556974 38.3693
files/tasks_parameters/ExAp01/sample28.txt 0.972739 3.13496 4.88321 0.444588 30.6272
files/tasks_parameters/ExAp01/sample18.txt 1.19766 3.95301 4.52898 0.537438 37.0235
files/tasks_parameters/ExAp01/sample35.txt 1.66833 5.75923 6.25034 0.752488 51.838
files/tasks_parameters/ExAp01/sample47.txt 1.19124 3.44018 5.14289 0.540033 37.2023
files/tasks_parameters/ExAp01/sample49.txt 1.12432 3.38981 4.72409 0.493041 33.9651
files/tasks_parameters/ExAp01/sample41.txt 1.07572 3.58692 5.27252 0.492391 33.9202
