digraph G {
0 ->13 1 ->8 1 ->10 1 ->17 2 ->13 2 ->14 2 ->15 3 ->8 3 ->13 3 ->14 4 ->8 4 ->9 4 ->10 4 ->11 4 ->15 5 ->9 5 ->10 5 ->12 5 ->15 6 ->9 6 ->10 6 ->12 6 ->16 7 ->8 7 ->16 8 ->22 8 ->23 9 ->19 9 ->22 9 ->23 10 ->18 10 ->22 10 ->23 11 ->18 11 ->19 11 ->22 11 ->23 12 ->18 12 ->19 12 ->21 12 ->22 13 ->19 13 ->20 17 ->19 17 ->23 18 ->24 18 ->25 19 ->24 19 ->25 22 ->26 23 ->24 23 ->25 23 ->26 24 ->29 25 ->30 26 ->27 26 ->28 26 ->29 26 ->30 27 ->34 28 ->32 28 ->33 29 ->32 30 ->31 30 ->33 31 ->38 31 ->40 32 ->36 32 ->37 33 ->35 34 ->36 34 ->37 34 ->38 34 ->39 34 ->40 35 ->41 35 ->43 36 ->43 36 ->45 37 ->46 38 ->41 39 ->42 39 ->43 39 ->44 39 ->45 39 ->46 40 ->41 40 ->42 40 ->45 40 ->46 41 ->47 41 ->49 42 ->49 43 ->47 44 ->47 44 ->48 44 ->49 45 ->48 
}
