digraph G {
0 ->5 0 ->6 0 ->7 0 ->8 0 ->9 1 ->6 3 ->8 3 ->9 3 ->10 4 ->5 4 ->6 4 ->9 5 ->13 5 ->15 5 ->16 6 ->12 6 ->13 6 ->15 7 ->11 7 ->12 8 ->13 8 ->16 9 ->11 9 ->14 10 ->12 10 ->14 10 ->16 12 ->17 12 ->18 13 ->17 13 ->19 14 ->17 14 ->18 17 ->20 17 ->21 17 ->22 18 ->20 18 ->23 19 ->21 19 ->23 20 ->27 20 ->28 20 ->30 21 ->31 22 ->24 22 ->25 22 ->26 22 ->27 22 ->28 23 ->24 23 ->29 23 ->30 23 ->31 24 ->33 26 ->32 26 ->34 28 ->32 29 ->32 29 ->35 31 ->32 31 ->33 31 ->35 32 ->36 32 ->37 32 ->39 32 ->41 32 ->43 33 ->36 33 ->41 33 ->42 34 ->37 35 ->38 35 ->39 35 ->40 36 ->44 36 ->49 37 ->45 37 ->47 38 ->46 38 ->47 39 ->47 41 ->45 41 ->46 41 ->49 42 ->44 42 ->46 42 ->48 42 ->49 43 ->44 43 ->46 43 ->47 44 ->53 44 ->54 44 ->55 44 ->57 45 ->53 45 ->54 45 ->55 46 ->56 47 ->50 48 ->53 48 ->55 48 ->57 49 ->51 49 ->52 49 ->56 49 ->57 50 ->58 51 ->62 51 ->63 53 ->61 55 ->63 56 ->58 56 ->59 56 ->60 56 ->61 56 ->63 57 ->59 57 ->60 58 ->65 58 ->67 58 ->68 60 ->64 60 ->69 61 ->64 61 ->65 61 ->66 61 ->68 61 ->69 62 ->65 62 ->66 62 ->67 63 ->64 63 ->68 63 ->69 64 ->71 64 ->72 64 ->74 65 ->70 65 ->71 65 ->74 66 ->70 66 ->71 68 ->73 68 ->74 69 ->70 69 ->72 70 ->78 71 ->76 72 ->75 73 ->76 73 ->78 73 ->79 74 ->77 74 ->78 75 ->81 75 ->85 76 ->80 76 ->82 76 ->85 77 ->83 77 ->84 78 ->80 78 ->81 78 ->85 79 ->80 79 ->81 79 ->82 80 ->87 80 ->88 80 ->91 81 ->87 81 ->88 81 ->89 81 ->92 82 ->86 82 ->92 83 ->86 83 ->88 83 ->91 84 ->87 85 ->86 85 ->90 87 ->93 87 ->96 87 ->97 88 ->93 88 ->94 88 ->97 89 ->93 90 ->95 91 ->95 92 ->95 92 ->97 93 ->98 94 ->98 94 ->99 95 ->98 96 ->99 
}
