0 17
1 13
1 16
1 17
1 18
2 16
2 19
3 13
3 17
4 15
4 16
5 10
5 13
5 14
5 15
5 16
6 11
6 12
6 14
6 19
7 15
8 16
8 17
9 10
9 11
9 17
9 19
10 20
11 27
11 29
12 21
12 26
13 24
14 22
14 25
15 21
15 22
16 20
16 22
16 23
16 24
16 25
16 29
17 21
17 22
17 23
17 29
18 22
18 26
18 29
18 29
19 25
19 26
19 28
20 31
20 36
21 30
21 34
21 36
22 31
23 32
23 35
24 30
24 35
24 37
24 38
25 30
25 33
26 30
26 31
26 33
26 35
26 36
27 30
27 31
27 33
27 37
27 39
28 36
29 32
29 34
29 37
29 38
30 40
30 41
30 44
30 46
30 47
30 49
31 40
31 44
31 47
32 46
32 47
33 43
33 46
33 48
33 49
34 40
34 42
34 43
34 44
34 48
35 41
35 42
35 43
36 41
36 49
37 42
37 43
37 49
38 40
38 47
38 49
39 40
39 44
39 45
39 46
39 47
39 48
40 50
40 51
40 56
41 52
41 56
42 59
43 51
43 57
43 58
44 51
44 53
44 54
44 58
45 53
45 54
45 55
45 56
45 57
45 58
46 53
46 54
46 56
48 51
48 53
49 52
50 60
50 61
50 63
50 64
51 61
51 64
51 65
51 66
52 61
52 65
52 68
53 61
53 62
53 64
53 66
54 64
55 69
56 62
56 65
56 66
57 60
57 62
57 67
57 68
58 64
58 68
59 61
60 70
60 72
60 73
60 76
61 74
62 71
62 75
63 70
63 71
63 72
63 73
63 78
64 70
64 72
64 73
64 75
64 76
64 78
65 77
65 78
66 72
66 74
66 76
67 71
67 73
67 75
68 70
68 71
68 74
69 70
69 71
69 75
69 79
70 84
70 88
71 81
72 85
72 86
72 89
73 85
74 80
74 89
75 82
75 84
75 87
75 89
76 82
76 83
76 85
76 87
77 82
77 85
77 87
78 84
78 87
79 80
79 81
79 84
79 85
79 86
79 87
79 88
80 90
80 91
80 92
80 96
80 97
81 90
81 91
81 92
81 94
81 95
81 96
81 97
82 95
84 90
84 92
84 93
84 94
84 95
84 98
84 99
85 92
85 93
85 95
85 96
86 93
86 95
86 96
86 97
87 92
87 96
88 90
