0 10
0 15
0 16
1 13
1 15
1 16
2 11
3 13
3 15
4 14
4 15
4 18
5 15
6 11
6 12
6 14
6 17
6 19
7 13
7 14
7 16
7 17
8 11
8 13
8 14
8 17
9 11
9 14
9 19
10 21
10 24
10 26
10 28
10 29
11 23
11 27
11 28
11 29
12 29
13 28
14 25
14 27
14 28
15 23
15 25
15 27
16 20
16 22
16 24
16 25
16 29
17 23
17 24
18 22
18 26
18 27
19 22
19 26
19 27
19 28
19 29
20 31
20 33
20 35
20 39
21 31
21 36
21 39
22 35
23 30
23 32
23 34
24 30
24 31
24 34
24 35
24 37
25 30
25 34
25 35
25 39
26 30
26 34
26 37
27 32
27 33
27 37
27 38
28 31
28 32
28 34
28 37
29 33
30 40
30 43
31 42
31 49
32 40
32 45
32 49
33 44
33 45
33 47
33 49
34 40
34 42
34 43
34 44
34 45
34 47
34 48
35 40
35 41
35 42
35 45
35 46
35 48
36 41
36 43
36 48
37 41
37 43
37 47
37 48
37 49
38 41
38 46
38 47
39 40
39 43
39 47
40 52
40 53
40 57
42 50
42 54
42 55
42 58
43 51
43 54
43 56
43 57
43 59
44 55
44 56
45 50
45 52
45 59
46 51
46 57
46 59
47 53
47 55
48 52
48 53
48 56
49 53
49 53
49 56
50 63
50 65
50 67
51 63
51 65
51 66
51 67
52 60
52 65
53 62
54 66
54 68
55 61
55 64
55 69
56 68
57 60
57 61
57 63
57 66
58 60
58 62
58 63
58 64
58 65
58 67
58 69
59 63
59 64
59 65
59 66
59 67
59 69
60 71
61 72
61 74
62 74
62 75
62 77
63 71
63 75
63 76
63 78
64 71
64 72
64 74
64 75
64 77
64 79
65 71
65 76
65 79
66 71
66 74
66 76
66 77
67 72
67 73
67 75
69 70
69 75
69 76
70 81
70 83
70 84
70 86
70 87
71 89
72 81
72 82
72 89
73 82
73 84
73 87
74 81
74 82
74 84
75 81
75 85
75 86
75 87
75 88
76 83
76 86
76 88
76 89
77 80
77 87
77 88
78 87
79 80
79 81
79 89
80 90
80 91
80 95
81 93
82 90
82 91
82 93
82 98
83 92
83 93
84 90
84 92
84 95
84 96
84 98
85 93
86 96
86 98
87 94
87 96
87 97
87 98
88 92
88 96
88 99
89 90
89 94
89 95
