files/tasks_parameters/ExAp01/sample8.txt 1.08882 6.77015 2.19458 0.288816 11.5889
files/tasks_parameters/ExAp01/sample12.txt 1.24952 9.58351 2.46081 0.337498 13.5423
files/tasks_parameters/ExAp01/sample2.txt 1.13472 8.44418 2.50701 0.319127 12.8052
files/tasks_parameters/ExAp01/sample44.txt 1.0204 6.96299 2.23089 0.28229 11.3271
files/tasks_parameters/ExAp01/sample27.txt 1.13847 7.74306 2.16676 0.28602 11.4767
files/tasks_parameters/ExAp01/sample17.txt 1.08653 7.35053 2.25579 0.292348 11.7306
files/tasks_parameters/ExAp01/sample9.txt 1.01659 6.89392 2.21068 0.282399 11.3314
files/tasks_parameters/ExAp01/sample34.txt 1.08865 6.62788 2.3772 0.297742 11.9471
files/tasks_parameters/ExAp01/sample40.txt 1.10484 7.75686 2.17534 0.285619 11.4607
files/tasks_parameters/ExAp01/sample33.txt 1.26977 8.14826 2.6463 0.338073 13.5654
files/tasks_parameters/ExAp01/sample48.txt 1.05395 7.64107 2.14272 0.270011 10.8344
files/tasks_parameters/ExAp01/sample29.txt 1.04951 7.139 1.93769 0.286306 11.4882
files/tasks_parameters/ExAp01/sample11.txt 0.981433 6.88688 2.12981 0.280008 11.2355
files/tasks_parameters/ExAp01/sample14.txt 0.928104 6.11983 1.97599 0.247458 9.92939
files/tasks_parameters/ExAp01/sample0.txt 1.0542 8.2738 2.14256 0.289132 11.6016
files/tasks_parameters/ExAp01/sample7.txt 1.04071 6.87011 2.05821 0.269886 10.8293
files/tasks_parameters/ExAp01/sample23.txt 1.04862 6.52032 2.38087 0.291712 11.7051
files/tasks_parameters/ExAp01/sample13.txt 1.17112 8.73247 2.33415 0.295393 11.8528
files/tasks_parameters/ExAp01/sample22.txt 1.13773 6.9777 2.28948 0.283979 11.3948
files/tasks_parameters/ExAp01/sample25.txt 0.935259 6.23444 2.2122 0.267298 10.7255
files/tasks_parameters/ExAp01/sample36.txt 0.951104 6.6174 1.9458 0.253823 10.1848
files/tasks_parameters/ExAp01/sample46.txt 1.26266 7.42369 2.49128 0.327273 13.132
files/tasks_parameters/ExAp01/sample31.txt 0.951008 7.22028 2.13584 0.25377 10.1827
files/tasks_parameters/ExAp01/sample37.txt 1.02056 8.90704 2.16981 0.295708 11.8655
files/tasks_parameters/ExAp01/sample16.txt 0.890387 8.18243 1.88294 0.24945 10.0093
files/tasks_parameters/ExAp01/sample10.txt 1.09472 6.96646 2.31217 0.285748 11.4658
files/tasks_parameters/ExAp01/sample39.txt 1.02309 6.4161 1.97266 0.251967 10.1103
files/tasks_parameters/ExAp01/sample19.txt 1.1671 8.16711 2.23199 0.308463 12.3773
files/tasks_parameters/ExAp01/sample20.txt 0.911848 7.28549 1.88944 0.25994 10.4302
files/tasks_parameters/ExAp01/sample43.txt 0.925433 6.86804 2.00142 0.25616 10.2786
files/tasks_parameters/ExAp01/sample32.txt 1.12058 8.15663 2.12995 0.281726 11.3044
files/tasks_parameters/ExAp01/sample45.txt 1.07365 7.75184 2.10599 0.274935 11.0319
files/tasks_parameters/ExAp01/sample26.txt 1.05532 7.4944 1.88956 0.267248 10.7235
files/tasks_parameters/ExAp01/sample5.txt 1.0513 8.08362 2.09961 0.28454 11.4174
files/tasks_parameters/ExAp01/sample21.txt 0.907519 6.11814 2.17119 0.26143 10.49
files/tasks_parameters/ExAp01/sample38.txt 0.962292 7.761 1.96293 0.263659 10.5795
files/tasks_parameters/ExAp01/sample1.txt 1.09603 7.83752 2.13261 0.289228 11.6055
files/tasks_parameters/ExAp01/sample15.txt 1.0796 7.37971 2.12057 0.285825 11.4689
files/tasks_parameters/ExAp01/sample24.txt 1.12511 8.28531 2.25272 0.296628 11.9024
files/tasks_parameters/ExAp01/sample3.txt 1.24789 7.33359 2.39135 0.305084 12.2417
files/tasks_parameters/ExAp01/sample6.txt 1.04443 7.09894 2.24425 0.281804 11.3076
files/tasks_parameters/ExAp01/sample30.txt 1.20032 8.17669 2.03701 0.299204 12.0058
files/tasks_parameters/ExAp01/sample42.txt 1.1412 7.70416 2.42413 0.29743 11.9346
files/tasks_parameters/ExAp01/sample4.txt 1.15571 7.41691 2.36261 0.307803 12.3508
files/tasks_parameters/ExAp01/sample28.txt 1.01219 7.0562 2.07657 0.266428 10.6906
files/tasks_parameters/ExAp01/sample18.txt 0.96374 7.60139 2.1377 0.268016 10.7543
files/tasks_parameters/ExAp01/sample35.txt 1.16091 9.66795 2.28028 0.32244 12.9381
files/tasks_parameters/ExAp01/sample47.txt 0.959953 6.84842 2.12104 0.251655 10.0978
files/tasks_parameters/ExAp01/sample49.txt 0.987626 7.1497 2.11412 0.255889 10.2677
files/tasks_parameters/ExAp01/sample41.txt 0.976556 6.59911 2.07359 0.265885 10.6688
