1.081029681
Task0 63 7 7 
Task1 7 3 31 
Task2 63 1 15 
Task3 7 7 31 
Task4 63 63 15 
Task5 63 1 1 
Task6 63 3 31 
Task7 63 63 7 
Task8 15 31 63 
Task9 15 63 63 
Task10 63 3 63 
Task11 1 31 31 
Task12 15 1 63 
Task13 31 31 31 
Task14 31 31 1 
Task15 15 31 63 
Task16 63 63 1 
Task17 15 7 31 
Task18 3 1 63 
Task19 1 7 31 
Task20 1 1 63 
Task21 1 63 31 
Task22 3 63 31 
Task23 31 1 7 
Task24 31 31 1 
Task25 31 1 7 
Task26 63 3 31 
Task27 3 31 63 
Task28 63 63 31 
Task29 15 3 31 
Task30 31 63 1 
Task31 1 63 3 
Task32 63 7 31 
Task33 3 31 31 
Task34 63 1 15 
Task35 63 1 15 
Task36 15 31 63 
Task37 31 7 1 
Task38 31 1 15 
Task39 1 63 1 
Task40 63 63 1 
Task41 31 3 15 
Task42 63 15 31 
Task43 1 63 15 
Task44 63 7 1 
Task45 1 31 15 
Task46 1 1 63 
Task47 31 7 1 
Task48 63 31 31 
Task49 1 7 63 
Task50 3 31 31 
Task51 63 31 1 
Task52 31 1 31 
Task53 1 63 31 
Task54 7 31 31 
Task55 15 31 15 
Task56 31 3 7 
Task57 31 1 31 
Task58 63 31 1 
Task59 15 63 15 
Task60 7 63 7 
Task61 15 31 63 
Task62 31 31 31 
Task63 3 63 3 
Task64 3 63 1 
Task65 31 31 3 
Task66 31 15 31 
Task67 1 63 7 
Task68 31 15 63 
Task69 1 7 63 
Task70 15 7 31 
Task71 63 15 3 
Task72 63 31 63 
Task73 63 31 31 
Task74 31 7 63 
Task75 15 63 1 
Task76 63 7 1 
Task77 7 1 63 
Task78 31 15 63 
Task79 1 31 63 
Task80 31 15 3 
Task81 31 31 63 
Task82 1 1 63 
Task83 7 63 7 
Task84 15 31 31 
Task85 7 1 63 
Task86 15 31 3 
Task87 63 1 63 
Task88 7 15 31 
Task89 1 1 63 
Task90 63 1 31 
Task91 31 1 15 
Task92 1 63 31 
Task93 1 7 63 
Task94 63 1 3 
Task95 31 3 63 
Task96 31 31 63 
Task97 7 15 63 
Task98 3 63 15 
Task99 3 31 63 
