1.0877251000000001
Task0 3 31 3 
Task1 15 1 63 
Task2 15 31 3 
Task3 31 15 15 
Task4 31 63 1 
Task5 63 15 31 
Task6 1 3 63 
Task7 7 63 1 
Task8 15 63 1 
Task9 63 1 15 
Task10 63 1 1 
Task11 1 63 31 
Task12 15 63 1 
Task13 31 3 31 
Task14 63 1 15 
Task15 63 15 3 
Task16 3 3 31 
Task17 1 3 63 
Task18 31 1 63 
Task19 63 31 63 
Task20 63 1 1 
Task21 3 7 63 
Task22 7 63 7 
Task23 63 31 1 
Task24 31 1 31 
Task25 63 1 31 
Task26 1 3 63 
Task27 7 31 63 
Task28 1 1 63 
Task29 63 31 1 
Task30 63 1 63 
Task31 1 1 63 
Task32 31 15 3 
Task33 31 1 31 
Task34 31 31 31 
Task35 63 15 1 
Task36 1 3 31 
Task37 1 1 63 
Task38 3 63 1 
Task39 15 15 31 
Task40 63 31 63 
Task41 31 1 31 
Task42 15 31 31 
Task43 3 63 1 
Task44 31 3 31 
Task45 7 63 63 
Task46 15 31 1 
Task47 1 31 3 
Task48 31 15 1 
Task49 31 3 63 
Task50 31 31 3 
Task51 15 31 15 
Task52 63 1 31 
Task53 31 31 63 
Task54 31 15 31 
Task55 1 31 15 
Task56 15 63 1 
Task57 31 15 15 
Task58 1 63 1 
Task59 63 15 1 
Task60 31 7 31 
Task61 31 15 1 
Task62 63 1 1 
Task63 1 3 63 
Task64 31 31 31 
Task65 1 1 63 
Task66 31 1 3 
Task67 63 3 7 
Task68 7 63 1 
Task69 1 31 63 
Task70 31 1 15 
Task71 7 15 31 
Task72 7 63 31 
Task73 63 31 1 
Task74 15 63 63 
Task75 3 1 63 
Task76 1 31 15 
Task77 1 31 63 
Task78 3 31 1 
Task79 1 63 7 
Task80 31 63 7 
Task81 7 31 15 
Task82 1 7 63 
Task83 7 1 63 
Task84 1 15 31 
Task85 31 63 3 
Task86 15 1 63 
Task87 31 1 31 
Task88 31 15 31 
Task89 63 15 3 
Task90 63 63 31 
Task91 15 1 31 
Task92 15 3 63 
Task93 63 31 7 
Task94 3 15 31 
Task95 7 63 3 
Task96 1 1 63 
Task97 7 1 31 
Task98 1 63 1 
Task99 1 31 63 
