0.8322046000000001
Task0 15 31 15 
Task1 31 15 3 
Task2 1 63 31 
Task3 1 31 7 
Task4 31 3 63 
Task5 31 31 15 
Task6 63 1 1 
Task7 63 7 31 
Task8 7 1 63 
Task9 31 1 63 
Task10 31 3 3 
Task11 1 31 31 
Task12 1 63 3 
Task13 31 1 1 
Task14 3 1 63 
Task15 63 63 1 
Task16 15 31 15 
Task17 1 63 7 
Task18 3 15 63 
Task19 63 1 1 
Task20 15 7 31 
Task21 7 31 15 
Task22 31 7 1 
Task23 31 7 1 
Task24 3 63 15 
Task25 1 31 31 
Task26 1 3 63 
Task27 15 31 31 
Task28 31 15 1 
Task29 1 31 15 
Task30 63 15 63 
Task31 31 1 15 
Task32 31 15 1 
Task33 3 63 1 
Task34 31 3 63 
Task35 1 7 63 
Task36 7 1 31 
Task37 15 15 31 
Task38 15 63 15 
Task39 15 3 31 
Task40 1 31 31 
Task41 31 31 31 
Task42 63 15 3 
Task43 1 3 63 
Task44 63 3 63 
Task45 7 31 1 
Task46 31 7 1 
Task47 1 3 63 
Task48 1 31 63 
Task49 15 1 31 
Task50 3 63 1 
Task51 1 63 1 
Task52 31 63 15 
Task53 1 1 63 
Task54 3 1 63 
Task55 63 1 63 
Task56 3 31 1 
Task57 1 63 3 
Task58 63 1 1 
Task59 15 1 63 
Task60 15 31 31 
Task61 7 63 15 
Task62 3 63 7 
Task63 31 31 1 
Task64 1 63 3 
Task65 31 63 63 
Task66 63 31 15 
Task67 1 1 31 
Task68 1 63 1 
Task69 1 31 15 
Task70 1 15 63 
Task71 63 1 15 
Task72 1 31 3 
Task73 31 15 63 
Task74 31 7 63 
Task75 1 63 7 
Task76 63 7 3 
Task77 1 63 31 
Task78 1 1 63 
Task79 31 1 63 
Task80 31 3 31 
Task81 63 1 1 
Task82 31 7 1 
Task83 1 7 31 
Task84 1 31 15 
Task85 63 7 31 
Task86 15 31 1 
Task87 15 1 63 
Task88 3 3 63 
Task89 31 31 15 
Task90 15 31 1 
Task91 15 31 3 
Task92 1 3 63 
Task93 31 15 31 
Task94 1 1 63 
Task95 63 3 7 
Task96 15 15 31 
Task97 63 7 31 
Task98 3 63 3 
Task99 31 15 15 
