1.0713421
Task0 7 63 15 
Task1 63 63 63 
Task2 3 63 63 
Task3 127 63 1 
Task4 1 63 1 
Task5 63 63 63 
Task6 31 1 63 
Task7 15 31 63 
Task8 31 1 63 
Task9 63 63 63 
Task10 31 63 1 
Task11 63 63 63 
Task12 15 15 63 
Task13 15 63 1 
Task14 63 15 15 
Task15 63 31 15 
Task16 31 63 15 
Task17 1 63 1 
Task18 1 31 63 
Task19 1 63 63 
Task20 63 63 15 
Task21 15 15 63 
Task22 63 1 3 
Task23 1 63 15 
Task24 15 63 1 
Task25 31 63 63 
Task26 63 15 63 
Task27 7 63 63 
Task28 7 63 31 
Task29 7 31 63 
Task30 63 1 31 
Task31 63 63 3 
Task32 1 63 1 
Task33 63 1 31 
Task34 1 63 15 
Task35 3 63 15 
Task36 63 63 7 
Task37 3 63 1 
Task38 31 31 63 
Task39 63 63 63 
Task40 63 3 1 
Task41 63 1 3 
Task42 63 63 15 
Task43 1 63 15 
Task44 63 7 1 
Task45 1 1 63 
Task46 3 63 63 
Task47 63 15 3 
Task48 1 63 7 
Task49 63 3 1 
Task50 63 7 31 
Task51 63 63 1 
Task52 1 63 15 
Task53 1 63 31 
Task54 15 1 63 
Task55 63 1 31 
Task56 7 15 63 
Task57 63 3 15 
Task58 1 15 63 
Task59 15 63 1 
Task60 63 63 15 
Task61 7 63 31 
Task62 1 63 15 
Task63 1 31 63 
Task64 15 63 63 
Task65 63 7 15 
Task66 31 63 31 
Task67 63 31 15 
Task68 63 63 63 
Task69 63 1 3 
Task70 3 31 63 
Task71 63 15 15 
Task72 15 31 63 
Task73 1 63 1 
Task74 15 63 63 
Task75 15 63 1 
Task76 63 1 1 
Task77 31 7 63 
Task78 63 1 63 
Task79 1 1 63 
Task80 1 7 63 
Task81 3 127 63 
Task82 1 1 63 
Task83 63 31 15 
Task84 15 7 63 
Task85 63 7 1 
Task86 7 15 63 
Task87 15 1 63 
Task88 31 63 1 
Task89 1 1 63 
Task90 1 7 63 
Task91 31 63 7 
Task92 15 63 3 
Task93 63 63 1 
Task94 63 63 7 
Task95 31 63 31 
Task96 63 1 1 
Task97 3 63 31 
Task98 3 31 63 
Task99 15 63 1 
