files/tasks_parameters/ExAp01/sample8.txt 3.35246 6.77015 2.19458 0.288816 5.95449
files/tasks_parameters/ExAp01/sample12.txt 3.9383 9.58351 2.46081 0.337498 6.95817
files/tasks_parameters/ExAp01/sample2.txt 3.72697 8.44418 2.50701 0.319127 6.57941
files/tasks_parameters/ExAp01/sample44.txt 3.30853 6.96299 2.23089 0.28229 5.81995
files/tasks_parameters/ExAp01/sample27.txt 3.36764 7.74306 2.16676 0.28602 5.89684
files/tasks_parameters/ExAp01/sample17.txt 3.46169 7.35053 2.25579 0.292348 6.0273
files/tasks_parameters/ExAp01/sample9.txt 3.34175 6.89392 2.21068 0.282399 5.82218
files/tasks_parameters/ExAp01/sample34.txt 3.48453 6.62788 2.3772 0.297742 6.1385
files/tasks_parameters/ExAp01/sample40.txt 3.37809 7.75686 2.17534 0.285619 5.88858
files/tasks_parameters/ExAp01/sample33.txt 4.03025 8.14826 2.6463 0.338073 6.97001
files/tasks_parameters/ExAp01/sample48.txt 3.12679 7.64107 2.14272 0.270011 5.56679
files/tasks_parameters/ExAp01/sample29.txt 3.14517 7.139 1.93769 0.286306 5.90273
files/tasks_parameters/ExAp01/sample11.txt 3.35935 6.88688 2.12981 0.280008 5.7729
files/tasks_parameters/ExAp01/sample14.txt 2.88266 6.11983 1.97599 0.247458 5.1018
files/tasks_parameters/ExAp01/sample0.txt 3.42284 8.2738 2.14256 0.289132 5.961
files/tasks_parameters/ExAp01/sample7.txt 3.10102 6.87011 2.05821 0.269886 5.5642
files/tasks_parameters/ExAp01/sample23.txt 3.5091 6.52032 2.38087 0.291712 6.01418
files/tasks_parameters/ExAp01/sample13.txt 3.52054 8.73247 2.33415 0.295393 6.09007
files/tasks_parameters/ExAp01/sample22.txt 3.37937 6.9777 2.28948 0.283979 5.85477
files/tasks_parameters/ExAp01/sample25.txt 3.12608 6.23444 2.2122 0.267298 5.51085
files/tasks_parameters/ExAp01/sample36.txt 3.06491 6.6174 1.9458 0.253823 5.23303
files/tasks_parameters/ExAp01/sample46.txt 3.90127 7.42369 2.49128 0.327273 6.74735
files/tasks_parameters/ExAp01/sample31.txt 3.02773 7.22028 2.13584 0.25377 5.23194
files/tasks_parameters/ExAp01/sample37.txt 3.462 8.90704 2.16981 0.295708 6.09658
files/tasks_parameters/ExAp01/sample16.txt 2.93502 8.18243 1.88294 0.24945 5.14288
files/tasks_parameters/ExAp01/sample10.txt 3.44491 6.96646 2.31217 0.285748 5.89123
files/tasks_parameters/ExAp01/sample39.txt 2.91167 6.4161 1.97266 0.251967 5.19477
files/tasks_parameters/ExAp01/sample19.txt 3.693 8.16711 2.23199 0.308463 6.35954
files/tasks_parameters/ExAp01/sample20.txt 3.05555 7.28549 1.88944 0.25994 5.35915
files/tasks_parameters/ExAp01/sample43.txt 3.00148 6.86804 2.00142 0.25616 5.28122
files/tasks_parameters/ExAp01/sample32.txt 3.36539 8.15663 2.12995 0.281726 5.80832
files/tasks_parameters/ExAp01/sample45.txt 3.33015 7.75184 2.10599 0.274935 5.6683
files/tasks_parameters/ExAp01/sample26.txt 3.17427 7.4944 1.88956 0.267248 5.50982
files/tasks_parameters/ExAp01/sample5.txt 3.37451 8.08362 2.09961 0.28454 5.86633
files/tasks_parameters/ExAp01/sample21.txt 3.14748 6.11814 2.17119 0.26143 5.38986
files/tasks_parameters/ExAp01/sample38.txt 3.11044 7.761 1.96293 0.263659 5.43582
files/tasks_parameters/ExAp01/sample1.txt 3.46552 7.83752 2.13261 0.289228 5.96298
files/tasks_parameters/ExAp01/sample15.txt 3.38426 7.37971 2.12057 0.285825 5.89283
files/tasks_parameters/ExAp01/sample24.txt 3.49287 8.28531 2.25272 0.296628 6.11555
files/tasks_parameters/ExAp01/sample3.txt 3.64528 7.33359 2.39135 0.305084 6.28989
files/tasks_parameters/ExAp01/sample6.txt 3.28704 7.09894 2.24425 0.281804 5.80993
files/tasks_parameters/ExAp01/sample30.txt 3.45829 8.17669 2.03701 0.299204 6.16866
files/tasks_parameters/ExAp01/sample42.txt 3.48075 7.70416 2.42413 0.29743 6.13208
files/tasks_parameters/ExAp01/sample4.txt 3.68742 7.41691 2.36261 0.307803 6.34593
files/tasks_parameters/ExAp01/sample28.txt 3.17848 7.0562 2.07657 0.266428 5.49291
files/tasks_parameters/ExAp01/sample18.txt 3.16409 7.60139 2.1377 0.268016 5.52565
files/tasks_parameters/ExAp01/sample35.txt 3.76694 9.66795 2.28028 0.32244 6.6477
files/tasks_parameters/ExAp01/sample47.txt 2.95093 6.84842 2.12104 0.251655 5.18834
files/tasks_parameters/ExAp01/sample49.txt 2.95542 7.1497 2.11412 0.255889 5.27563
files/tasks_parameters/ExAp01/sample41.txt 3.14523 6.59911 2.07359 0.265885 5.48173
