0.37382368
Task0 31 31 1 
Task1 15 31 63 
Task2 7 31 15 
Task3 63 3 15 
Task4 63 31 63 
Task5 7 63 63 
Task6 63 1 3 
Task7 63 31 31 
Task8 15 63 15 
Task9 1 1 63 
Task10 63 31 15 
Task11 31 31 7 
Task12 63 3 31 
Task13 7 31 31 
Task14 63 31 63 
Task15 63 1 31 
Task16 7 7 31 
Task17 7 1 31 
Task18 7 31 15 
Task19 1 31 1 
Task20 3 15 31 
Task21 15 63 1 
Task22 7 63 3 
Task23 1 31 7 
Task24 3 3 31 
Task25 1 1 31 
Task26 31 15 63 
Task27 63 15 7 
Task28 31 7 31 
Task29 7 1 31 
Task30 15 1 63 
Task31 31 31 31 
Task32 3 63 15 
Task33 7 31 63 
Task34 7 31 15 
Task35 7 31 1 
Task36 15 31 31 
Task37 3 31 15 
Task38 31 63 31 
Task39 31 31 15 
Task40 1 31 63 
Task41 15 63 1 
Task42 31 7 3 
Task43 15 63 3 
Task44 15 63 15 
Task45 31 15 63 
Task46 1 1 31 
Task47 31 31 127 
Task48 63 15 31 
Task49 31 15 63 
Task50 31 63 1 
Task51 63 7 15 
Task52 7 7 31 
Task53 31 7 3 
Task54 7 63 1 
Task55 31 7 31 
Task56 63 7 3 
Task57 7 31 31 
Task58 15 63 7 
Task59 127 63 127 
Task60 31 31 63 
Task61 15 63 31 
Task62 63 31 31 
Task63 3 1 31 
Task64 63 7 63 
Task65 3 7 63 
Task66 7 1 63 
Task67 1 15 63 
Task68 15 31 31 
Task69 63 31 63 
Task70 15 31 31 
Task71 1 7 31 
Task72 31 31 31 
Task73 7 63 15 
Task74 31 63 31 
Task75 7 3 31 
Task76 31 31 7 
Task77 7 63 31 
Task78 15 7 31 
Task79 15 63 15 
Task80 31 15 15 
Task81 3 31 15 
Task82 31 15 31 
Task83 63 15 1 
Task84 1 31 7 
Task85 31 63 15 
Task86 31 7 3 
Task87 31 127 15 
Task88 255 63 127 
Task89 31 127 63 
Task90 3 31 3 
Task91 7 63 15 
Task92 63 255 63 
Task93 15 255 31 
Task94 31 7 15 
Task95 15 63 3 
Task96 63 127 127 
Task97 63 31 31 
Task98 63 31 63 
Task99 15 15 63 
