Task0 1 1 3 
Task1 1 1 1 
Task2 1 1 1 
Task3 1 1 1 
Task4 1 1 1 
Task5 1 1 1 
Task6 1 1 1 
Task7 1 1 1 
Task8 1 1 1 
Task9 1 1 1 
Task10 3 3 1 
Task11 1 1 1 
Task12 3 1 1 
Task13 3 1 1 
Task14 1 1 1 
Task15 1 1 1 
Task16 1 1 1 
Task17 1 1 1 
Task18 1 1 1 
Task19 1 1 1 
Task20 1 1 1 
Task21 1 1 1 
Task22 1 1 1 
Task23 1 1 1 
Task24 1 1 1 
Task25 1 1 1 
Task26 3 1 3 
Task27 1 3 3 
Task28 1 1 3 
Task29 1 1 1 
Task30 1 1 1 
Task31 1 3 1 
Task32 1 1 1 
Task33 1 1 1 
Task34 3 1 3 
Task35 1 1 1 
Task36 1 1 1 
Task37 1 1 1 
Task38 1 3 3 
Task39 1 1 1 
Task40 3 3 1 
Task41 1 3 3 
Task42 1 1 1 
Task43 1 1 1 
Task44 3 1 1 
Task45 1 1 3 
Task46 1 1 1 
Task47 1 1 1 
Task48 1 1 1 
Task49 1 1 1 
Task50 3 1 1 
Task51 3 1 3 
Task52 1 1 1 
Task53 3 1 1 
Task54 1 1 3 
Task55 1 1 7 
Task56 1 1 1 
Task57 1 1 7 
Task58 1 1 1 
Task59 1 1 1 
Task60 1 1 1 
Task61 1 1 1 
Task62 1 1 1 
Task63 1 1 1 
Task64 1 3 1 
Task65 1 1 3 
Task66 1 1 7 
Task67 1 1 1 
Task68 3 3 1 
Task69 1 3 1 
Task70 3 1 1 
Task71 1 1 1 
Task72 1 1 1 
Task73 1 3 1 
Task74 15 1 3 
Task75 3 1 1 
Task76 1 3 1 
Task77 1 1 1 
Task78 1 3 1 
Task79 1 3 3 
Task80 1 3 3 
Task81 1 1 1 
Task82 1 1 1 
Task83 3 1 1 
Task84 1 1 1 
Task85 1 3 1 
Task86 3 1 1 
Task87 1 3 1 
Task88 3 1 1 
Task89 1 1 1 
Task90 1 1 3 
Task91 1 1 1 
Task92 1 1 1 
Task93 1 3 3 
Task94 1 1 1 
Task95 1 1 1 
Task96 1 1 1 
Task97 1 1 1 
Task98 1 3 3 
Task99 3 1 1 
