0 11
0 20
1 14
1 16
1 18
2 11
2 12
2 13
2 15
2 22
3 12
3 15
3 17
4 11
4 15
5 15
5 15
5 17
5 18
5 22
6 13
6 15
6 17
6 18
6 21
7 17
7 21
8 13
8 16
8 18
8 19
8 21
8 22
9 12
9 17
9 21
9 22
10 11
10 13
10 14
10 22
11 26
11 28
11 30
11 32
12 23
12 29
12 30
12 31
12 32
12 33
12 36
13 34
14 24
14 27
14 31
14 32
14 34
14 35
15 24
15 31
15 31
16 27
16 30
16 31
16 34
16 35
17 30
17 34
17 35
17 36
18 24
18 26
18 29
19 27
19 29
20 23
20 24
20 26
20 31
20 32
20 34
21 23
21 24
21 25
21 30
21 32
21 35
21 36
22 24
22 30
22 35
22 36
24 37
24 38
24 42
26 41
26 44
27 42
27 44
28 41
28 44
29 41
29 43
29 44
30 42
31 41
31 44
32 37
32 41
32 45
33 37
33 41
33 43
33 44
34 37
34 39
34 41
34 43
34 45
35 37
35 39
35 43
36 40
36 43
37 48
37 51
37 52
37 53
38 48
38 49
38 53
38 53
38 58
39 46
39 49
39 51
39 52
39 53
39 56
40 48
40 50
40 55
40 57
41 46
41 48
41 54
41 57
41 58
42 47
42 51
42 52
42 54
42 56
42 57
43 47
43 50
43 51
43 52
43 54
43 57
44 47
44 48
44 49
44 50
44 53
44 55
44 56
44 57
45 47
45 49
45 50
45 51
45 55
46 59
47 59
47 62
49 59
51 61
52 59
52 60
54 59
54 62
57 59
57 61
57 63
59 66
59 67
59 69
59 71
59 72
60 66
60 67
61 64
61 65
61 72
62 68
62 70
63 65
63 67
64 75
64 76
64 77
65 73
65 75
65 77
66 73
66 77
67 74
68 77
69 73
69 75
70 73
71 76
72 75
72 76
73 80
73 84
73 86
74 79
74 81
75 78
75 82
75 84
76 80
76 82
76 83
76 84
76 85
77 82
77 85
78 87
78 88
78 91
79 89
79 90
79 91
80 89
81 89
82 90
82 91
83 90
84 87
84 90
85 87
85 89
86 87
86 90
86 91
87 92
87 97
88 92
88 94
89 92
89 93
89 95
89 96
89 97
90 94
90 96
90 97
92 98
94 98
94 99
97 98
