0 13
0 18
1 13
1 15
2 13
2 15
2 16
3 14
3 15
3 16
3 18
4 15
4 16
5 13
5 17
6 14
6 16
8 13
9 14
9 18
10 15
10 18
11 13
11 16
12 15
12 16
12 17
13 23
13 25
13 28
14 19
14 20
14 29
15 20
15 22
15 24
15 26
15 28
16 21
16 22
16 23
16 27
17 21
17 23
17 27
18 20
18 24
18 27
18 30
20 33
20 34
21 31
21 34
21 38
22 32
22 36
22 38
23 31
23 36
23 37
23 38
24 31
24 35
24 36
24 37
25 31
25 32
25 35
25 36
25 38
26 34
27 31
27 34
28 32
28 35
28 38
30 32
30 36
30 37
31 43
31 51
31 52
32 48
32 49
33 39
33 40
33 45
33 46
33 49
34 39
34 44
34 47
34 49
34 50
34 51
35 39
35 41
35 47
35 51
36 45
36 47
36 47
36 52
37 39
37 40
37 41
37 42
37 44
38 41
38 43
38 45
38 49
38 52
39 53
39 55
39 57
40 57
41 60
42 53
42 60
43 53
43 57
43 58
43 59
44 59
44 60
45 55
45 56
46 55
46 58
46 59
47 55
47 59
48 55
49 53
49 55
50 53
50 54
50 55
50 60
51 53
51 60
53 63
53 65
53 68
53 70
54 61
54 64
54 66
54 68
54 69
55 61
55 63
55 69
56 61
57 61
57 62
57 64
57 68
57 70
58 62
58 64
58 67
58 69
58 70
59 62
59 65
59 70
60 62
60 65
60 66
61 75
61 76
62 74
63 71
63 74
64 72
64 74
64 75
65 71
65 72
65 74
65 75
65 77
66 71
66 77
67 71
67 73
67 75
68 73
68 74
69 78
70 71
71 81
71 84
71 86
71 89
71 90
72 80
72 82
72 85
72 89
73 80
73 81
73 82
73 83
73 84
73 86
74 81
74 83
74 88
74 89
75 79
75 82
75 83
75 85
75 88
75 90
76 80
76 87
77 79
77 80
77 81
77 82
77 91
78 86
79 93
79 94
79 95
79 97
80 94
81 93
81 95
82 92
82 95
82 98
83 93
83 99
84 93
84 95
85 93
86 92
86 94
86 95
86 96
86 98
87 96
87 98
88 94
88 95
88 97
88 98
90 93
90 98
91 92
