0 17
0 23
1 21
1 22
2 18
3 14
3 16
3 19
3 21
4 17
5 14
5 23
6 23
7 19
7 22
8 22
9 18
9 23
10 14
10 15
10 19
10 20
11 14
11 16
11 18
12 14
12 15
12 20
13 14
13 15
14 25
15 28
15 29
16 24
16 27
16 28
17 26
18 25
18 26
18 28
19 26
19 27
19 28
19 30
20 26
21 24
21 26
21 27
21 29
22 25
22 29
23 24
23 28
24 32
24 36
24 37
24 39
24 40
25 32
25 35
25 39
26 33
26 34
26 35
26 38
26 39
26 40
27 31
27 34
27 35
27 39
28 31
28 35
29 33
29 34
29 36
30 32
30 36
30 36
31 47
31 48
31 50
31 54
32 53
33 45
33 51
34 42
34 43
34 45
34 46
34 49
34 50
35 44
35 45
35 52
36 42
36 44
36 47
36 50
36 51
37 41
37 44
37 47
37 48
37 51
37 54
38 43
38 44
38 47
38 52
38 53
39 42
39 47
39 48
39 52
40 42
40 44
40 45
40 48
40 51
41 58
41 59
41 61
42 58
43 56
43 57
43 62
44 58
44 61
45 59
46 61
47 58
47 60
47 61
48 58
48 61
49 56
49 59
49 61
50 55
50 56
50 57
50 62
51 55
51 59
51 61
52 56
52 60
53 55
53 56
53 58
54 58
54 59
54 60
57 64
57 66
57 67
58 64
58 67
59 64
59 65
59 66
59 67
60 63
60 67
61 63
61 64
61 65
62 63
62 66
63 74
64 68
64 69
64 71
64 72
64 74
65 70
65 74
66 71
67 70
67 73
68 78
68 79
68 81
68 82
68 83
69 79
69 83
70 75
70 76
70 77
71 75
71 76
71 77
71 84
72 78
72 84
73 77
73 78
74 76
74 78
74 80
74 81
75 86
75 87
76 92
77 85
78 85
78 87
78 92
79 86
79 87
80 86
80 92
81 85
81 90
81 92
82 85
82 88
82 90
84 86
84 89
84 90
84 91
85 97
86 93
86 94
86 95
86 97
88 97
89 95
90 93
90 94
90 95
91 94
91 96
92 95
93 98
93 99
94 98
96 99
97 98
