Task0 0.1586621078127482 0.4022977133156061 0.1137921073057569 0.2983973869785634 0.4454725218889328 0.8928035262188598 0.7462553478210403 
Task1 0.012955178554964265 0.14577903229577005 0.01971629933777152 0.20581030961338634 0.5164420208214138 0.718336657009846 0.5449049142087332 
Task2 0.014173927363900402 0.05457726697047286 0.10672104520908063 0.1035327102129391 0.9818185408071216 0.5870296785427533 0.6666271606997973 
Task3 0.03585190699352479 0.06688711214390367 0.06993299290712501 0.09025367754395369 0.5446079363871108 0.960758332639295 0.7077797925162239 
Task4 0.0031552034928105112 0.0015973858591956985 0.0059990164566251026 0.010016086870912835 0.8763379422384567 0.5166101463280239 0.7039753670361848 
Task5 0.005635499323624658 0.034816241967203315 0.10043409579910945 0.07003452574467904 0.32574638744500395 0.904961631644434 0.30593130049762074 
Task6 0.023378325538580103 0.045372865133842415 0.04738314648066242 0.002650083791646356 0.5508770319242421 0.8264654835919407 0.5785299087585936 
Task7 0.08465902100388613 0.1546129742226449 0.09685849635599593 0.1242028903498153 0.7357909205161608 0.639096300175179 0.7507191481469744 
Task8 0.006357060897387972 0.03307587682276475 0.07089644391994346 0.13504730587391833 0.6625598044163308 0.3384317297368631 0.43264280639103536 
Task9 0.0027689571605446217 0.012530277677457803 0.0006192954586788538 0.24422170887296385 0.4436486004637068 0.5113938096957646 0.658595217467755 
Task10 0.002137519876393622 0.2073885552279003 0.033482088037025376 0.14731063997416885 0.571543957549434 0.786579453720571 0.38495072368029754 
Task11 0.10879408264231033 0.22598167583588613 0.27645908442944744 0.35009007695898603 0.7621362517939105 0.6102221426354986 0.9011430784515972 
Task12 0.06292550788189126 0.031770541723668 0.12097932320127663 0.12042642329417862 0.4612481147165578 0.9748825974109647 0.605884105478187 
Task13 0.020990333319931526 0.11568533317256369 0.017503369775418647 0.020414699241998444 0.3682185290033946 0.9360169456077427 0.9300811177663542 
Task14 0.011982530671944415 0.230821922238487 0.08608867459336264 0.0863533312294159 0.5672282472861704 0.7906125695713656 0.9454228700406679 
Task15 0.03876825495678576 0.037105018887081356 0.13689136952365183 0.0346967298939696 0.6720209654093743 0.6432594983630135 0.8564314715992982 
Task16 0.10639557743602357 0.2012794711571148 0.12130912206301772 0.17218655245127393 0.37335981288672776 0.594332921657693 0.8097940417350373 
Task17 0.06405285369503481 0.29663090870104214 0.319911656130073 0.01680622533136716 0.8254354962900223 0.42585178445143096 0.5000311203097716 
Task18 0.020007071311615367 0.02832882056213201 0.010633208211562533 0.05786169563877704 0.5414352791546639 0.43441627669530253 0.5962069995278053 
Task19 0.0018789288124768312 0.0027646373432025856 0.02051599372441983 0.038468090537839915 0.7013790658571692 0.7781428380556734 0.9897860662623983 
Task20 0.10360330010775376 0.06805239626679402 0.19499122972941657 0.17484706332905497 0.3186607387744433 0.35740772608999305 0.34179696983312796 
Task21 0.022893243173844138 0.37417521572012646 0.345012806669624 0.2323949532683494 0.4349654550402525 0.4088649072774978 0.9275265664363241 
Task22 0.12944809545606584 0.4113089832292021 0.21855531507711645 0.036548632693241226 0.600526034304248 0.9244821602696931 0.7047021421071998 
Task23 0.01524945950440472 0.008187653951585125 0.057547345000129875 0.04059133388275155 0.4354715919692902 0.7083436038185944 0.6093200871822053 
Task24 0.0013762214280152777 0.04368062296625734 0.031557895377191905 0.028302499720272958 0.4542498187741223 0.3740784647525115 0.7428370507617121 
Task25 0.0033648791463163964 0.0815731946394504 0.056084976775836994 0.08990789259685641 0.454772393104314 0.6818572694760083 0.36704464396486897 
Task26 0.0034690487870222227 0.03554996341051616 0.021962319139556395 0.02919138275641214 0.36500673127633027 0.3483437118892858 0.3675679391921681 
Task27 0.12934778264233676 0.1358724723687569 0.10395148081729055 0.566981719278203 0.924769327879676 0.32808372853728945 0.6648934068875042 
Task28 0.008801919720811652 0.06241248550119773 0.09838397447452098 0.07525847070471348 0.9229218411174809 0.6315372348619632 0.30821911315021455 
Task29 0.011976412948445297 0.06039055309415729 0.006528533115355194 0.027654703838182915 0.4518732826523775 0.6694793502422874 0.6148568265401587 
Task30 0.035753037136777965 0.12425877890191282 0.19609755624061195 0.011945258722504392 0.5822945255946856 0.831348833844419 0.32569091768763003 
Task31 0.13753715645165887 0.082086483850443 0.10485269539329377 0.4180405836203895 0.3891695587400052 0.9518614653424302 0.5393389308113758 
Task32 0.050942213370870626 0.41515954993282783 0.007842703440025287 0.4128237484846982 0.6853898084780894 0.7416834562668095 0.7220827871645062 
Task33 0.06781984194352107 0.051486612767394774 0.14559812686849982 0.08530851792199975 0.8323958748051601 0.5654349832909578 0.515394547778334 
Task34 0.019536249733699284 0.028605605725666217 0.4429425872382234 0.12823581478435067 0.8852478098039067 0.8874763225277122 0.7136867599337573 
Task35 0.020704115834887134 0.04301342118627683 0.043468239047855184 0.014041856977394554 0.41730661163397675 0.37010869381841066 0.6609329690282995 
Task36 0.09203389765811235 0.1426724170298154 0.21994752883594157 0.013852625331548277 0.7886222190313305 0.8609798040222538 0.31383144942521446 
Task37 0.024272338148175567 0.019475047690510124 0.014720020370637252 0.11116500729862884 0.9128577935248032 0.4799913729275192 0.7128196163293667 
Task38 0.00018544278428375796 0.06336525876409536 0.07144483725383453 0.09724500405395915 0.8948600559261 0.7366221546840259 0.39474517983877033 
Task39 0.08109551203726378 0.754180995864463 0.07873003218068683 0.08143325168243161 0.7778964160223739 0.6027243910449825 0.9568431097188412 
Task40 0.005946874871085014 0.05264445976767427 0.04370920468297005 0.06410493745306745 0.9554453024526426 0.8524301282695133 0.401045806991665 
Task41 0.005673365156095779 0.014608693280675456 0.038356314769993446 0.040365946911227295 0.34224061619420715 0.5276044308899187 0.9840016696906064 
Task42 0.018034354166722714 0.08211113438659709 0.17476997568562422 0.011175881342667626 0.8515074870465753 0.8959030350748451 0.8349934615602144 
Task43 0.0005763199418753462 0.00868279624397994 0.012590687014239547 0.001963420553819868 0.5394035588831587 0.4613078753163613 0.6613794296121913 
Task44 0.11033518555077142 0.13189224582685075 0.1584440756764876 0.25101210304922467 0.6170635640259974 0.652766362696334 0.7778680515477713 
Task45 0.04713927527198605 0.27096329043837647 0.04706329812312413 0.2388113593427368 0.3969935652827314 0.5189492000564757 0.6877921118564015 
Task46 0.0626290418437603 0.12622767118952774 0.28407277811600956 0.18464903210865982 0.9204815844908574 0.5928968652795998 0.6648006867688119 
Task47 0.11385880224970434 0.2519561941940596 0.4687874213962533 0.01586051144528919 0.3249941375512283 0.8517336003904914 0.9139265985117901 
Task48 0.004536719011101688 0.026910858750789763 0.026473098512093503 0.00037796986397069254 0.9776921447170193 0.5352337671125794 0.5903502985148463 
Task49 0.0016252218115302044 0.08229779055559185 0.055095451999175316 0.013667159024132292 0.5903686491200564 0.4657561145619984 0.4000956474662993 
Task50 0.09690850762906734 0.020256163522303805 0.2451976236024091 0.39946671583836824 0.9799807155507023 0.4457428390102467 0.6028676750883561 
Task51 0.0006912744894636946 0.21226231471448076 0.09414335808845814 0.1564797812007042 0.49081582517395106 0.9796528395187816 0.41365703416255295 
Task52 0.053408729121950514 0.2024881408134151 0.010608987800464738 0.16773808639676882 0.5472476742708858 0.32245964806336375 0.5188949696517478 
Task53 0.024221807552363743 0.016624090570038313 0.041618420402679934 0.055956326856766415 0.7521573032469273 0.46153713696945553 0.6101006419673807 
Task54 0.09659459865808072 0.05803967075071914 0.1648670913871407 0.1668197442255608 0.6554785604906395 0.8560146937472404 0.49932103643312664 
Task55 0.050547864100403773 0.08401993490346656 0.11762695133766665 0.12180074117110046 0.3653591952571951 0.45228417758419176 0.548294119720621 
Task56 0.020931028002606995 0.0033587755686342816 0.07507339047442424 0.08836769039114689 0.6458236195450964 0.9292785338213236 0.8642921004523545 
Task57 0.046759398102434686 0.14844955437563334 0.3737082403095585 0.085026366451742 0.6654429305008014 0.9382364959311496 0.3743608763106998 
Task58 0.002625909190588805 0.29307149227339174 0.14168416287734353 0.18982323105924426 0.6104875839160526 0.7749553500307016 0.8351376839868399 
Task59 0.018847861074162656 0.04177276114369537 0.14969766099789789 0.4829467180611358 0.32515371038038116 0.45792427490334875 0.5136116073458139 
Task60 0.01601941162371284 0.14818089366876733 0.000995134413229439 0.06526396853732827 0.9579569261099037 0.9763210820039128 0.6660854575424953 
Task61 0.15508063971728842 0.20287649503937652 0.4154445973851725 0.12861165474178068 0.49147356331393277 0.7010574062438468 0.825998009881856 
Task62 0.04668665466741212 0.12125417054235729 0.08379088546784164 0.19908524344615652 0.7038876311743507 0.8970931163932194 0.5808395587883368 
Task63 0.038271435110126546 0.039263781395397816 0.09240203802226367 0.08526721225840922 0.7311236383815537 0.9068138157417047 0.8236516927025666 
Task64 0.10784571530992866 0.025945440469009585 0.4359611477525506 0.3305508933939736 0.4313687404661547 0.6432708040973814 0.7500289524973651 
Task65 0.012427402982404795 0.1716777935337143 0.26655831481399395 0.17196515199992596 0.843102877970398 0.7900693978955614 0.8609546552212308 
Task66 0.012776206373676111 0.2801550841866444 0.21428549236513675 0.3125208248159573 0.8101495831012384 0.9815792942591837 0.9794924701298529 
Task67 0.06951564332897789 0.12592163818188512 0.025296536340146978 0.1315594560705818 0.5513211719888169 0.9805599586926723 0.37433846484891053 
Task68 0.06828858295246086 0.009038566345319817 0.3147055677102191 0.09170643517670161 0.6495460755318424 0.889690192543044 0.6266712450034438 
Task69 0.09605475658045043 0.11081489159185277 0.4347824476075068 0.17288629040047407 0.5806177221469921 0.6145303181225481 0.95146337114451 
Task70 0.06433260266472882 0.1492911804585731 0.12962929044379212 0.04080492497407639 0.6088919962007143 0.5331314941981165 0.5407169468064538 
Task71 0.030306227749293507 0.05846501839751812 0.10677795204365764 0.0689855887889001 0.4748223738741556 0.34758216418143284 0.9631719153369 
Task72 0.0039024444795231444 0.0015695087678640916 0.023552754326231613 0.015467496189155666 0.6257228130696841 0.3812451000240063 0.5778118474416069 
Task73 0.05330486995893083 0.11762295683861085 0.06544125980964753 0.06229358565845704 0.30274336021932746 0.6594161789004459 0.9286426538808736 
Task74 0.08967384403561784 0.09171729299529768 0.2542178635649636 0.28868372670689696 0.7252090981426237 0.6775211375546545 0.7090861931360508 
Task75 0.0210932462918381 0.050271494419239934 0.005550818438370114 0.05912390504534747 0.9618621601398234 0.8597229397346209 0.9792118252954392 
Task76 0.04639373225973687 0.2614426757318692 0.04780347714515212 0.18638058992447143 0.972962968488992 0.5010827471000708 0.5654151960691746 
Task77 0.10767940194204707 0.2349129147490711 0.04017705359899896 0.35536786019378 0.3989581855587095 0.6401908534221324 0.7784970147818204 
Task78 0.004023209722889428 0.020600587193185287 0.018574593948191016 0.03537275730224828 0.9069200343661443 0.4683519822531033 0.30688638282283115 
Task79 0.03740123551182169 0.13663209043059088 0.22615797728362133 0.20883156618327592 0.9262703382341668 0.9355397484496681 0.5306505381211983 
Task80 0.027668570977203672 0.09993041822176338 0.012509152390384033 0.1395829058490754 0.6293108149720691 0.8539198047006866 0.7528887855222035 
Task81 0.028504515319496358 0.15608601617846993 0.13858689138498917 0.11984938293323193 0.800096694104478 0.720658193478914 0.9436502040481163 
Task82 0.08506961725421394 0.2954020375308808 0.3554616634637761 0.20382738124318156 0.7313281260206537 0.9337471349996489 0.4059630212471377 
Task83 0.013291807006628456 0.2216044186014608 0.1997222544245601 0.40245692392453725 0.4946337203516883 0.815012876458759 0.6481534929299582 
Task84 0.116349491046706 0.29935622598851436 0.2643423181070589 0.07459643498318533 0.3819527460333761 0.3631986880413648 0.6388387326523799 
Task85 0.1376278887084143 0.24214573876890005 0.13131837582856354 0.2188209454857648 0.31039197270437324 0.7012654402686269 0.6018434959810366 
Task86 0.1407824378943574 0.23355637184896158 0.2491728385084067 0.28852961808336125 0.5916311502044503 0.6747570491164453 0.9154888554000462 
Task87 0.01654353271620725 0.016215565914209706 0.027527087036222177 0.028085704293695384 0.6564929321217838 0.8902706205009909 0.3315371249323452 
Task88 0.1471736793318497 0.02439905149484252 0.21908862757808759 0.35804388123800607 0.8572024387793475 0.547677614764817 0.4322206625059075 
Task89 0.12936851780992112 0.31764361374929406 0.218307340753545 0.28809344460728276 0.5623830793720029 0.40293720431610713 0.4419313778165141 
Task90 0.032956139391818205 0.09197299850360256 0.15799618597475426 0.10722079774556659 0.430495637066849 0.7169124651577875 0.3806641919160505 
Task91 0.07038053089456503 0.031610150580934 0.2497971102435878 0.26863894072142314 0.7478426631290241 0.9052345077816419 0.9511305057982222 
Task92 0.06805540983902496 0.30973733453325447 0.10209068825376875 0.01724873582578798 0.40719850584069145 0.7886280788159996 0.40260027703671625 
Task93 0.04091245208496381 0.1698365599713304 0.027452671782337346 0.18255676733195106 0.6377725415005643 0.8147244414281438 0.7189372573063366 
Task94 0.028068734743877485 0.1041914178182976 0.0932610485563368 0.1259914664730248 0.36241635275648604 0.48064822822913067 0.6341991855760236 
Task95 0.12687005289315545 0.31289821861035166 0.04413957142616865 0.35431923778979457 0.4579307740072638 0.7912216379774302 0.494236204551335 
Task96 0.020339282778250936 0.11017954547919188 0.0945072504082832 0.1901396647142296 0.9085347944067039 0.9295026529248571 0.32288036367445294 
Task97 0.1289299693507582 0.06589153575373738 0.37909106689261063 0.22798880392912055 0.5925458335212987 0.8910520697772613 0.5970666708280256 
Task98 0.027177928111488853 0.231864438310645 0.09444114939652863 0.015136960685536601 0.5709908636225125 0.8789192739871705 0.7462452642390726 
Task99 0.16004296536637286 0.35329558831963764 0.19096390891946244 0.250876168419284 0.4806103591045447 0.7439715383547211 0.5919302290548651 
