Task0 0.02790289730422135 0.2984955544456916 0.04923452557474362 0.27270161699464973 0.6263893124245125 0.9350220340644111 0.31071268739692254 
Task1 0.023215716494190557 0.018747027766590298 0.09376447007360428 0.05379951338605453 0.34771882629499773 0.6721657392507343 0.5459381917906952 
Task2 0.05055755580719192 0.07204902763813342 0.034561874234757595 0.11405015097500415 0.6984449390250181 0.580667991095478 0.5590192034483377 
Task3 0.023562433443241215 0.08079104925260935 0.03303116794572142 0.1229663800744461 0.7324724039562183 0.3561749602904849 0.45826578244392047 
Task4 0.01980463922065708 0.011272849301414459 0.10065256862277805 0.047206202722883076 0.8219603782571099 0.7977834921396758 0.37554901731569296 
Task5 0.009175192247350044 0.07768256777953429 0.10872910675852057 0.1193252489656597 0.42863427546376465 0.5185307844894326 0.5449624852848278 
Task6 0.0184038863153866 0.029473164851464343 0.023778141253351644 0.05987547635542366 0.8013893063840358 0.4588638325180434 0.43877916305284503 
Task7 0.05632953612174159 0.10408482546092573 0.13347364312903168 0.22328890255834052 0.390021105733527 0.353410644749257 0.9310502185959557 
Task8 0.004643326618599512 0.22117600062861328 0.2840104178611627 0.023222436532579 0.9926918229299644 0.7262278992525186 0.7373272195110285 
Task9 0.06746948028921276 0.4115194191507339 0.08057651875044267 0.41434491632594245 0.6770472270809778 0.42394567978510717 0.6960684089033259 
Task10 0.024331129542269105 0.12788305236177205 0.42044812875367427 0.23330834323088673 0.43428384352937277 0.48455086204251285 0.9162604454240673 
Task11 0.10027013986496457 0.26917829385423914 0.20149043553276988 0.007479108091562062 0.5215576772303386 0.8216754397728865 0.47723170090091527 
Task12 0.07265428953541825 0.30238034178163625 0.257492613566884 0.21856584229223297 0.9838761940619911 0.7502295819686777 0.45685654569422557 
Task13 0.009848786010263065 0.05955384929399033 0.052381398975603476 0.018113562680080998 0.5191647864661335 0.6186684167215866 0.8245616701000609 
Task14 0.07656163737227722 0.36360608710113523 0.05953199120456558 0.22399689860189334 0.6186730323788543 0.7487002320561216 0.7453176531318562 
Task15 0.11298365079514572 0.316156282633327 0.025132054055879073 0.36177973968542054 0.3072677043128088 0.4997034868584882 0.6051657785897333 
Task16 0.007872668701431954 0.049870997899956616 0.046635106594607074 0.03983452839372714 0.8773751517598365 0.8922390702508063 0.8320656848430195 
Task17 0.008885093538390483 0.05043078931167025 0.002670999023711571 0.04612552993036392 0.6228189770124586 0.8053071891083086 0.6440862695085049 
Task18 0.02898240898964209 0.09157777968546026 0.14182722939203496 0.08669719248961567 0.5773263513177884 0.9158185791363835 0.9763280479984793 
Task19 0.07301621452798306 0.1830585715020093 0.11464837309283273 0.09802321687863903 0.9439892988413219 0.9830541091954241 0.8983905838805573 
Task20 0.0541740098145344 0.1374689297011702 0.11849904644009653 0.10360861333375565 0.9270601860646668 0.9363280499186606 0.7430127246062426 
Task21 0.015445714997955572 0.028709447500623698 0.023510221933708497 0.023441660055852454 0.3930029454545285 0.4840754057574934 0.5236408390275216 
Task22 0.017259745313264525 0.03966943095733553 0.044250312157007726 0.08585174612961226 0.763036662006444 0.3491500872495973 0.580171969709634 
Task23 0.04537851226198939 0.017128891106855542 0.22278035907278573 0.13892649159804873 0.34520679657688325 0.461992645961423 0.466637186146038 
Task24 0.15323604305386365 0.31274291617389216 0.38549992740837763 0.005398814907167538 0.6918916024504738 0.7556772017052258 0.5734885623901949 
Task25 0.025830680059245166 0.008165713774314536 0.0662349038494861 0.1105786734636493 0.9715945973715043 0.48513006438479556 0.9956920468884809 
Task26 0.09171643384588747 0.3286040807475192 0.01197951795474013 0.186260073836538 0.4157986097489258 0.45512339961178183 0.8148723626566832 
Task27 0.17408201386829822 0.4222325288056748 0.3085649931152232 0.07531196317907503 0.8506745935982376 0.965288210866585 0.4202398314647412 
Task28 0.083516758509194 0.24833627348077894 0.33916607950629196 0.09081592945250572 0.7961829717430209 0.5291031927025217 0.8169221497871195 
Task29 0.12429403022188701 0.27854188152147497 0.1830046208780114 0.2919151404667516 0.381873160603613 0.7870801642595664 0.42494262824021023 
Task30 0.11619039282783425 0.3026802125341443 0.014271180337072899 0.51449977857683 0.3788539724444554 0.8335651782978406 0.43992228917953574 
Task31 0.002146496651696838 0.007967486373599706 0.009562586987894844 0.015019362683366965 0.7917488728711002 0.9413490901645718 0.5612030243545324 
Task32 0.06063842205314081 0.1506185823948413 0.20158748773114382 0.07896094181105377 0.793568364826803 0.9514771441676317 0.5950634346912287 
Task33 0.008618286700888949 0.014310099462330052 0.05209327935799501 0.017432117651643673 0.5440988559355955 0.5804913031122156 0.6511887523275154 
Task34 0.0013717300722718329 0.0006297291851957902 0.005578174060363774 0.0011424543297934345 0.9423794614637981 0.4064193260906392 0.5504406447261333 
Task35 0.01182356783191894 0.03669494504605465 0.05208410374879451 0.04882214793404766 0.6427723006338109 0.30632493549600587 0.3613887567024169 
Task36 0.11161892876831553 0.17118156926491282 0.0696802682600628 0.32325347626876816 0.6499570792223275 0.953465670813197 0.4289138056186457 
Task37 0.10107280490486367 0.159878458157949 0.11291622840889935 0.25673369435159576 0.3518822648419437 0.335632560878697 0.40940071820127066 
Task38 0.08109954915573642 0.013579393455269751 0.25493885304646846 0.2060811940063238 0.8907989184972993 0.9095559237814566 0.8603724827490982 
Task39 0.024537953342743862 0.19757942573731252 0.06902650433371653 0.1433141839482807 0.8026468772480402 0.3143314360864707 0.5358214699457202 
Task40 0.11193593762470531 0.1902751914218729 0.13582248236229816 0.4794327222375201 0.5842652621869979 0.641653952689698 0.6870812468822709 
Task41 0.0627517963354557 0.15204902837705506 0.2581046076544094 0.3419021359875468 0.6478219998199466 0.5296311790165091 0.8294278716887922 
Task42 0.030749993853445297 0.15946494132819664 0.17331652413756415 0.47266372651869254 0.8708713702935478 0.36625880237873315 0.8453857958596873 
Task43 0.057680700375441846 0.21776124574268588 0.3330469876007855 0.12334067032714925 0.9709981958207599 0.3130821471195982 0.3147131559798014 
Task44 0.1313036942474587 0.1456292699149364 0.08355597877774311 0.33504542519825314 0.7484371321967036 0.9540270350856792 0.7704048773816218 
Task45 0.015238295150592223 0.07460015601464369 0.00435950500478477 0.016807195323554132 0.687322906625428 0.8155770065441605 0.4122124663574409 
Task46 0.07979288162416484 0.2680349275095896 0.040254098122706014 0.2689580538979133 0.8709186959499209 0.8075376628489688 0.9787709638234794 
Task47 0.05076376407287831 0.13383344888306095 0.16002871594779292 0.08141099908265509 0.9988399007303843 0.47219912941816866 0.32686941907015615 
Task48 0.16833514517508366 0.04946942621305146 0.4146573910873613 0.2655883828030478 0.507509638725778 0.34935373476613374 0.5641813944535987 
Task49 0.04438218846137063 0.28385326988681503 0.08937748146216538 0.12840758747057157 0.8975079683496454 0.708265699422078 0.30563172140922246 
Task50 0.10863803038391329 0.11145253727357432 0.27831214090446404 0.1608150640890909 0.8232537345865227 0.8869333221443216 0.5867979194859108 
Task51 0.15167135000060458 0.21527560968695475 0.31544998391300944 0.1698159640615519 0.9847053507839951 0.5212372304620201 0.3073656333528216 
Task52 0.0054180539767770645 0.1998217065178668 0.11084336436905004 0.17632892505699685 0.3467892629099544 0.8244417919051885 0.493797810503875 
Task53 0.061969376777901285 0.06653373029527286 0.12174440650618086 0.13926106782246872 0.43446222612379615 0.7094714435836054 0.6804919401025308 
Task54 0.001734151923565174 0.004266761510128734 0.004802525598551539 0.0008503869375454729 0.5259219087408263 0.5927059106735965 0.519032990244154 
Task55 0.03591011307369125 0.18925032639839515 0.18716982328684492 0.03725077385802862 0.35054919990266536 0.8034627773395155 0.8130993709587544 
Task56 0.058222212334362325 0.24987728149041988 0.2857559144921301 0.28326466824744173 0.6471729440246659 0.5542992505481261 0.9226984951178865 
Task57 0.07186595552127317 0.11625136490954288 0.3318532906058347 0.42865464754160854 0.915031275225209 0.5200652865477562 0.9586150547449364 
Task58 0.008508870904385419 0.023110448235517805 0.026650604214916974 0.01742828764164957 0.6110302703118973 0.9643871547336493 0.37699755410511515 
Task59 0.009575522666327944 0.008301371360948544 0.051905403588905295 0.09784767210213534 0.8651141811597907 0.6772193938303357 0.5177221166328675 
Task60 0.1419013252566434 0.25201260539680137 0.23337432899823932 0.13076020662556137 0.3519202608689159 0.5276317967631298 0.8377163874199007 
Task61 0.02876054360654377 0.16776563057774752 0.11362085644378252 0.01128531136109766 0.5293308877212884 0.4144666497598615 0.9829987919711927 
Task62 0.0032671013906757046 0.09081824764924791 0.07002212295070444 0.04744431697345532 0.7223575999708275 0.5968463679866816 0.7987960764624484 
Task63 0.019923026742967788 0.031048085395413563 0.12426386041373648 0.10970448038506177 0.9296124529427294 0.31172159007546646 0.332533445898706 
Task64 0.08006591437829767 0.13654755700000792 0.10148599138397901 0.11706620774871138 0.5137236055881471 0.8712726968158389 0.7469225186027513 
Task65 0.020485526565777245 0.1397355049460511 0.060566729076879454 0.17319508328057712 0.7169658135329854 0.555316570476471 0.701669104905402 
Task66 0.0895215456799649 0.06631112857359756 0.11790343465348378 0.27178551656528127 0.9738995512535453 0.5605009183237657 0.7137713169347089 
Task67 0.02738166350572941 0.0895901784627175 0.11587535034968979 0.10141235622089251 0.3638265993501924 0.7722848463581283 0.936939904417166 
Task68 0.027327708381417973 0.13936953569168103 0.19457220204307818 0.10146350423935588 0.7423577817123763 0.5132202252932092 0.8879430870447036 
Task69 0.06946843085743534 0.3165092511449384 0.004985809574461646 0.33447427334998475 0.7382604150712363 0.4347841115091436 0.8866504216191895 
Task70 0.11332617558794005 0.2550972872070348 0.11083227916063436 0.13219895010334515 0.6806340127369652 0.488201997730043 0.8940734873616512 
Task71 0.03595098330442652 0.0754117029775178 0.27043808410518666 0.20490386645200603 0.35575912877804944 0.6620474552363611 0.7692640434159166 
Task72 0.04651722302332082 0.1298384551975526 0.03692888401375323 0.09325723365078949 0.6009888119828644 0.8868349531057327 0.7826533768145851 
Task73 0.05146143412413301 0.0804592509674946 0.10896422363855462 0.03858370796425822 0.6224963768386682 0.46410649232058543 0.3932600408810524 
Task74 0.003714921299060479 0.00721007490116571 0.005537031295909893 0.0029402713496567254 0.39022486719434424 0.79870899242183 0.5125334495470064 
Task75 0.0004167257832700056 0.0016524208723291286 0.002839421057862977 0.002238128736705523 0.8915231019053689 0.6896440364481029 0.533187875263714 
Task76 0.00012743027033317129 0.11342281452440507 0.1293051782934931 0.065011310381378 0.32941662595544835 0.39041955448332577 0.5728573801531655 
Task77 0.03775093536910131 0.5385504805591549 0.1643942627027724 0.12808975812674517 0.813181833947149 0.552806016495847 0.8421210246027877 
Task78 0.07474597293456081 0.2760127130082326 0.07173966398975469 0.16463565896302423 0.406783110539834 0.6223955128021837 0.953212588261158 
Task79 0.045833735501971194 0.06599916001315066 0.07334755868363511 0.052228613758517374 0.43651843821202874 0.5508518880945552 0.8205432739801453 
Task80 0.045487187937952374 0.13542464246669098 0.11983479669083184 0.12255440305923859 0.6652652236067198 0.4839819823370932 0.7807104483736726 
Task81 0.0011327233714195464 0.06555229577810075 0.03701761141893515 0.07408797681272336 0.3268929185525539 0.6381941336502429 0.710575803531192 
Task82 0.09499983160186919 0.12469253403997138 0.2810247426629589 0.38655242652406685 0.6530399824450435 0.746437474650206 0.319406299623497 
Task83 0.163318576124796 0.3082473009111297 0.09246351807897032 0.2989515309297841 0.4835218815197022 0.6679774901992889 0.7604424841530149 
Task84 0.08441072386916247 0.20349109128891227 0.11312833824433148 0.05885713333374038 0.47770965731633963 0.5664880600819202 0.8631514816835699 
Task85 0.10213491259350548 0.18241421812841555 0.17884126815562607 0.10435987413233058 0.30687733959862956 0.7373058907811538 0.31689427803051984 
Task86 0.02578360061511718 0.3096474292086076 0.2297591657251049 0.3483937848980336 0.3334265680609519 0.5276335666386015 0.6992844229665423 
Task87 0.02230789451548531 0.03217105114428972 0.0702764321330503 0.08417375362190782 0.8570163473225605 0.7687648455490079 0.8122993198306614 
Task88 0.05157451189072597 0.14186700626585014 0.2955268056377408 0.2815265715218092 0.47103643993522576 0.35844058524849465 0.6666916822873676 
Task89 0.12905277860431327 0.031217006740003807 0.2629975574337002 0.2924723874770525 0.45250579113615275 0.3303677363302277 0.5093636123928285 
Task90 0.01665518509319371 0.10283764797928616 0.39426232391746835 0.15677823522229867 0.8271533134290305 0.3026406733115044 0.4810398775724654 
Task91 0.05546047231127165 0.15305206151886108 0.029777972574938045 0.1692868047826044 0.9275968020690106 0.5928679704979942 0.832361816816775 
Task92 0.12754420839937536 0.09698597503284904 0.29726737464842007 0.29303357561145527 0.5234101904625953 0.8211252304611298 0.5918527260944582 
Task93 0.07846616487666384 0.004824513757823041 0.2798138905256555 0.16948500050626122 0.9196425205311343 0.6315391882971021 0.4775368852487694 
Task94 0.0030777729218418497 0.00963652590705656 0.04277982539205353 0.0984569532843101 0.6181884042642267 0.5304315779109133 0.6457434095587714 
Task95 0.056319418411342505 0.29912745657683415 0.15625396495717098 0.4088151587773754 0.7039079248888864 0.553467076532878 0.8759672838346733 
Task96 0.09579595815065929 0.2568871673542634 0.21301216076700755 0.14479801003528758 0.6187216308534436 0.36307801052539285 0.9614464905123052 
Task97 0.033586607491208086 0.22457410930696806 0.5042804786832571 0.15914753488376707 0.5072840231771206 0.7413898722450916 0.9311034574176102 
Task98 0.023537558642771718 0.05975930610853064 0.009709836886174248 0.05724256446681785 0.4142347393505344 0.6104543067117756 0.9480320711720789 
Task99 0.08785660505094303 0.0904191254820486 0.15872027522212795 0.11173245148161061 0.9818593400111546 0.9004741865261012 0.5313641775131861 
