Task0 0.1135657657806466 0.30070545093832435 0.14301069453838255 0.12739024610379637 0.6001413378135477 0.668065532196322 0.7257160742944069 
Task1 0.06139341176918773 0.010931293063358506 0.18616209090948838 0.33603453527227556 0.550115884846822 0.7702429621100644 0.9150215903725549 
Task2 0.04749130715466579 0.08201795498520223 0.17958422291002224 0.14302961524290592 0.5424202347524476 0.4844136449570414 0.43111896894707025 
Task3 0.014579599905552595 0.050991320569168566 0.002665741455932482 0.05336596560191535 0.36232475597762986 0.7418706087972916 0.6997262277727496 
Task4 0.025270583114683325 0.06957928521885014 0.05145602839062721 0.06542980834641415 0.455325811045598 0.5494938055553235 0.4099013457733673 
Task5 0.017595478829606687 0.029311266184005563 0.1937838626635165 0.21838105902765648 0.35382865080366216 0.5570208712325794 0.7411810403997026 
Task6 0.048331142693139525 0.1123469846907407 0.25282569979761754 0.4063659977251253 0.5977155730738188 0.6855163550601329 0.8197487553171905 
Task7 0.1723400715450019 0.15709111597676362 0.2742028553916581 0.32655050903428406 0.7414842841695882 0.8033666196927158 0.8132945347814815 
Task8 0.05779405119308186 0.05054837233209586 0.1027841941120398 0.16112408103052653 0.5606854290331554 0.89291864208462 0.6146499966493316 
Task9 0.08703817987064943 0.23555816133178767 0.3554012285636563 0.1540936732591966 0.8459910570736395 0.7343140723330552 0.7587213141841013 
Task10 0.042902159247053026 0.02382786824806616 0.126519938829004 0.06548125034373795 0.4601471376072518 0.9661148175418837 0.3310336363652069 
Task11 0.031747857521030064 0.13843239032900684 0.05009958238597788 0.0840294879541479 0.5123426198186797 0.8245592806938555 0.3657148221545842 
Task12 0.041664218068992266 0.3329477177093029 0.12163085269826092 0.14217690355062848 0.7478475673487688 0.9305519441150256 0.7843816954406735 
Task13 0.007717479246122509 0.027341400330897755 0.06381456445329234 0.08048589023177223 0.857560740935196 0.9549241653816178 0.6190623001385549 
Task14 0.020491534443815188 0.10929856212148462 0.025923663898472435 0.11272094720128359 0.5793003009179993 0.7071722074473887 0.6394282539791528 
Task15 0.17311116360143788 0.15369104496687647 0.46484556496389556 0.1438894534606995 0.35428001301182516 0.38338308230475826 0.46412512069784395 
Task16 0.1574054009364309 0.2633852463968081 0.1283195939585846 0.3559070381930616 0.49690929875179896 0.42320296124215095 0.5518816827669193 
Task17 0.018902766648949267 0.071145186616244 0.01967065811892868 0.06958718955204171 0.7666399046852235 0.5349112215499929 0.545415054465099 
Task18 0.10399389483564048 0.24391395939824348 0.20942661515927974 0.16276274665028215 0.32909139140092847 0.8374876342421558 0.6371032162359838 
Task19 0.09560557157826831 0.09213319999968192 0.06046691475331838 0.36424422293599634 0.66332071044009 0.976412107853315 0.5662006517969058 
Task20 0.006685473085609545 0.1256257916911595 0.02740952107314701 0.09802515549789653 0.6600338553589975 0.3364416575424656 0.8848895944630639 
Task21 0.09068146611556015 0.11347959121785163 0.25168581060248196 0.09020643277569027 0.47201559546131466 0.8561871558386482 0.5503811188976555 
Task22 0.02088943426694217 0.04482387789454341 0.16496518250621536 0.20980590104122773 0.9739143265374297 0.3373604052876736 0.34956032435042805 
Task23 0.07160594914519146 0.35873575251039114 0.08977081045789802 0.07564714278061709 0.3835146346077116 0.3289081226653717 0.7764073739883506 
Task24 0.10437170347416888 0.11758766196440364 0.37958946071913974 0.15516316942746267 0.3004353613461493 0.6055337767765359 0.6275610240781069 
Task25 0.021284651795018022 0.040440128092960534 0.05682996360132308 0.00534495200820403 0.9181326201080211 0.6194176241245223 0.46593772776621434 
Task26 0.006881715379189854 0.17131310444257855 0.08322765001435313 0.09463447772639916 0.7208828857186149 0.7929510097801112 0.8678279907330118 
Task27 0.04155323835414167 0.044398085946079656 0.13235496186852935 0.12962152163103127 0.7002499078185865 0.48502570530950384 0.4656200735270455 
Task28 0.0027060534539837073 0.19211706492748584 0.1761668387072368 0.16301175821923505 0.5364434444357442 0.576467056816995 0.7361425742751254 
Task29 0.020968872613086262 0.06872984684281545 0.04317208331163808 0.15622802168086317 0.8733208797963157 0.6665849071237022 0.39607862515057807 
Task30 0.04915161931063311 0.06689637850242487 0.0021461118246596197 0.6885571233824559 0.5518438373086628 0.4268512570644657 0.5723682228948974 
Task31 0.005353109574818144 0.023386258869845047 0.01022873355710922 0.014665172185396933 0.5729731809059012 0.8003748904570127 0.6641993781172315 
Task32 0.019967863139138835 0.06365705404942403 0.046627085943568514 0.013368114445062234 0.7570396628490781 0.31572757732598056 0.7748002697592032 
Task33 0.028723721574277505 0.09800901913463551 0.08858317963644614 0.03575108147681436 0.6413966560693014 0.9525478889972292 0.8049233188518887 
Task34 0.08798447330929 0.06859392277786061 0.18720892796131694 0.20351586694740237 0.767220579532121 0.49029625829794793 0.7516442326736421 
Task35 0.031101691262846988 0.3894967717730707 0.057573618456949124 0.08360640437740217 0.4722632341697541 0.32711601646634314 0.6952567717558622 
Task36 0.12366588148464226 0.3560618898547726 0.14683547822678983 0.06126569796796895 0.5536350485553914 0.38211450238209393 0.33565232458275657 
Task37 0.042441884071980636 0.47920663223145743 0.026812141339194264 0.04960058376517077 0.8185369187666365 0.6603961776806913 0.9267539653329018 
Task38 0.008044564566375775 0.22921208706689203 0.07709250209345869 0.4165360862026872 0.5893318517683902 0.7084895458903167 0.3656414745552772 
Task39 0.06027577488711763 0.04858379246770383 0.10170806936567779 0.12063235221722873 0.9806745674225439 0.633923618480601 0.5329416513968566 
Task40 0.018388723483305825 0.01215469777643645 0.3977361528240175 0.4844445014198049 0.6608894838465781 0.5355165195133825 0.7747637148301746 
Task41 0.022297195616002748 0.29814807258208137 0.07114055473106061 0.1842960619888728 0.5408683412686285 0.4530150880134551 0.4694422134632567 
Task42 0.03716007183233561 0.06063073761261688 0.14754720793111484 0.300917433206795 0.7279267649198604 0.9171365511377911 0.7445824818495216 
Task43 0.050842782206685366 0.04100382207023868 0.23323514933255865 0.2625353943242235 0.46589478900862513 0.47527002215507586 0.845141703304122 
Task44 0.002869555275333951 0.04637415162957167 0.008746711100663461 0.17632434746351117 0.7461797082705789 0.7536053458259868 0.46152744743532204 
Task45 0.015047797315771397 0.07292905033802936 0.11353833601872054 0.07281209007785659 0.30731242431503547 0.8685996533721625 0.7689589170302027 
Task46 0.04129575770584119 0.055220984237111775 0.16807975182164214 0.00943582334282549 0.392342464040426 0.8527117661470389 0.5265076310043606 
Task47 0.17994839193996398 0.09036235281683395 0.44959783489063176 0.18489226760817093 0.9906461411988587 0.9612402548096024 0.5633132389591209 
Task48 0.013642192264047542 0.3115524146094423 0.21611932310177998 0.15701336952516126 0.45351273262138775 0.3337687412337066 0.7326608006193553 
Task49 0.017171956612086044 0.09774837221477613 0.41204693235893886 0.24247093849963242 0.3849821280002261 0.4324317982705968 0.9242177612720928 
Task50 0.03201845104053524 0.508525666865006 0.07004575781454972 0.04778453304504269 0.7251710972813561 0.4057535560151554 0.5912637689134674 
Task51 0.11574995605068754 0.03965625008808644 0.472105763543598 0.04612162988100193 0.9246329744903996 0.9811045274266625 0.3296683852134014 
Task52 0.03416656327414848 0.2145364952928543 0.23611642372060004 0.11610881386592921 0.3121102658550789 0.33552810776427433 0.5004291973909263 
Task53 0.1585038922205196 0.4020066546821259 0.34709401093560843 0.07906076641572304 0.5586662503342595 0.31937035940508834 0.8976766630186674 
Task54 0.0583199630486716 0.18426991362296938 0.1895490604428597 0.10382355618541315 0.4264669935077695 0.6211230207392848 0.8654896023907392 
Task55 0.008865889727951506 0.014866124013606735 0.028430764390754953 0.0034638761281202595 0.33724302639270043 0.40534196500213043 0.363130457847193 
Task56 0.09743358594251751 0.4975053006574228 0.06101248882224649 0.3366305854373983 0.4342764920938825 0.7137055066371953 0.43028649044920764 
Task57 0.1209949356272036 0.2844256701115541 0.22138352588034024 0.14490760109821302 0.31971641185440597 0.8048500829776588 0.900876883189683 
Task58 0.004202275846798196 0.01900834511061844 0.006155564993255125 0.037536684725783295 0.8251595163008316 0.7258881040772083 0.41506199954007705 
Task59 0.07853833553274671 0.10673792775289727 0.34551041648840597 0.24603337013126864 0.7646083865723927 0.34475675128233324 0.7624226235780953 
Task60 0.06257314157867838 0.1691046226354587 0.09806146153845409 0.25921795069832704 0.4486428781677019 0.8144676060830969 0.825493099802858 
Task61 0.16041932923379215 0.2642100014956182 0.13206679723140435 0.31967041356736337 0.7104122315087009 0.5355614632553567 0.8651171698304938 
Task62 0.04773313807320023 0.08609041813949568 0.17835456478991013 0.03667891265452088 0.3592529850754021 0.8760037599202726 0.5676002945620116 
Task63 0.11806566548119152 0.2036291424149075 0.05062502412491076 0.3282337014795547 0.6402342504515708 0.978393739886718 0.5804358407996266 
Task64 0.022023670450664803 0.06223111038064996 0.07971629834760353 0.23806156839406933 0.8140647664578184 0.9032605218943748 0.9357211113098174 
Task65 0.06306609859856577 0.12884433774583756 0.06176742017141195 0.10849586969323274 0.869144402021536 0.7000032149250726 0.9830389711426852 
Task66 0.0523321070308393 0.19967237522493234 0.038838016095014236 0.316812346969863 0.9665129850600325 0.9453217982917763 0.39013525010012634 
Task67 0.003603860559322867 0.10919021080112933 0.09033609487900586 0.08490485497808284 0.4444833805118554 0.7721278598603292 0.8052135893397769 
Task68 0.17154211880403591 0.4000053404256134 0.025072841911881513 0.3488664084290914 0.4726030960652904 0.36408095634263377 0.5754093883828144 
Task69 0.12302175222262414 0.3480500216861432 0.06322386953367318 0.10703214491457017 0.6828890512993152 0.9327172405182664 0.8605679597443661 
Task70 0.00320809687905535 0.43285094657463424 0.3006515907348773 0.08409742399809456 0.9818724957356022 0.47899650184386255 0.6643439192198428 
Task71 0.11187266554980707 0.16074659130541924 0.15877084295324034 0.19801068295160293 0.7190387551181294 0.33015514724802 0.8804102431384566 
Task72 0.01976532457753323 0.10222522965085126 0.10073689864708878 0.09260505975143264 0.46415732377776564 0.7837609240082934 0.5753283818378092 
Task73 0.004161178806317774 0.03581206990101932 0.03592572536328293 0.010330732785478632 0.3104040059691038 0.30075100277718864 0.5255685069888755 
Task74 0.05373692332005362 0.3546078392719488 0.031522164147005136 0.021502669765401276 0.6853602898169502 0.3037493133875171 0.6786206235750636 
Task75 0.006850121766922515 0.1317601019111316 0.35112895020708507 0.30378863205957535 0.32974411623074285 0.5132341434613983 0.685452391123061 
Task76 0.004171975844877793 0.0008502980735990058 0.04153509313120915 0.20900320785610377 0.6548069130036273 0.49346643560629744 0.49114605202449024 
Task77 0.02679749260711465 0.23873064401397096 0.16876688220481492 0.21514022213619105 0.8320557727474229 0.7018421009700677 0.6270230442230962 
Task78 0.04639444674731601 0.06923906929120315 0.06592469529362596 0.09162870349170582 0.5639577503456653 0.48375438520020697 0.8638744030091896 
Task79 0.05222830399180658 0.23371315139269544 0.2312649249457676 0.05423611507628351 0.7148574944972796 0.5686123296138375 0.4985222417173411 
Task80 0.01913780489688367 0.05451295275240874 0.002858569230017238 0.04693335782961852 0.48206601250392084 0.6921345258856207 0.8465470357814919 
Task81 0.02791863223498579 0.020158521304773837 0.300735751076589 0.06831290392563913 0.31678415158714174 0.5021200881652202 0.5332788573045449 
Task82 0.031770712801898034 0.026191764122307736 0.2110243510332094 0.19056898973323827 0.5555570821994646 0.6755285406170504 0.5867345613988161 
Task83 0.01625299732517493 0.3085520148257272 0.09843463392310424 0.06012546783176253 0.8000564360201752 0.4738387169394893 0.9635181758792739 
Task84 0.003420952203193245 0.009249587573973272 0.011328456633460637 0.005687596420281205 0.7800642980175126 0.4123648694613084 0.5799583417736278 
Task85 0.15510968860933902 0.25864926866679955 0.22528542651980069 0.2321080276942357 0.6130654069533962 0.4906923345953428 0.7368922806684381 
Task86 0.07974147477256718 0.13892102741934675 0.06770155502442635 0.14577726622731757 0.4553745025247516 0.43290694825236964 0.6877892714269214 
Task87 0.001819267430569573 0.013922340554564669 0.0021374321059261575 0.002403725995717307 0.5182887967091397 0.3142016398458027 0.9105663297957154 
Task88 0.14780485871904675 0.28246266682937055 0.390009624106421 0.1716156939249935 0.7746053568265163 0.8718733986945935 0.5583523693713471 
Task89 0.15523123278238404 0.20203989770215225 0.2632744088565685 0.1917398736990112 0.4656496916168552 0.7029170717843503 0.367798701924813 
Task90 0.0070919765840538555 0.02837135299240428 0.09844657681458113 0.15418320854420098 0.8864122832307355 0.8161149134629047 0.8668568223297857 
Task91 0.006316858244453563 0.06611931535950726 0.016156678897020296 0.10814336084666881 0.3462849607102988 0.4897493656861476 0.8604512713937025 
Task92 0.01223645773010941 0.36391584101778385 0.1238450092621051 0.11498227474608509 0.3757633019001977 0.3738495601364452 0.4491417783872618 
Task93 0.012193088819162843 0.03738165224446596 0.2471506853755531 0.06457150279781394 0.6049958745823865 0.38049355659585027 0.6499172633729591 
Task94 0.019412415758671513 0.18519435737246814 0.13006480826232228 0.1415827623287391 0.3182568953241606 0.464527517486066 0.6512014769872082 
Task95 0.030066377047978484 0.12250526234980483 0.1536669826555305 0.020953119004625098 0.6862470513526161 0.318622176704613 0.9259728680539829 
Task96 0.001889201312499542 0.13694349002661568 0.03645489037059401 0.02737298374878906 0.8586392430547038 0.6775031224702953 0.7520471486382506 
Task97 0.11721732323497105 0.21129494004151578 0.22675887329187167 0.12305260476720414 0.7474876122852019 0.5415791603019813 0.5094449774037503 
Task98 0.034536717056287136 0.05807354571874349 0.06851078283366675 0.022202392790725754 0.8183220885843749 0.4796186840482518 0.8350319237630708 
Task99 0.11286053291326519 0.6178448141009372 0.26165717773538794 0.0012691918025658931 0.8161562029208596 0.9804836727357564 0.8736756439142694 
