Task0 0.08125911459461173 0.17279721540000162 0.16124954631091581 0.009182028193646063 0.4419935884662306 0.8604886582318871 0.9674885295116598 
Task1 0.045453483436136914 0.20721591305925854 0.13429139985388994 0.07176588269065909 0.883397601967238 0.766857315930913 0.7060804009987283 
Task2 0.10144923184610209 0.2293706336013668 0.21646587935926295 0.0368941420514985 0.9052698835647826 0.7127832416277395 0.7473825518226044 
Task3 0.009049299684277751 0.23196480503795522 0.14038397866634408 0.06034946560966674 0.6476393399924973 0.8601536225552315 0.5882811021530323 
Task4 0.06151462476413365 0.021910958924264395 0.6824883015866046 0.16397836489755846 0.9272337097767076 0.4347428772038582 0.4442662212827904 
Task5 0.026488588958705258 0.08770697229888395 0.008194283689435715 0.04698854358101297 0.37622935923499207 0.7376884160706896 0.5090003304521364 
Task6 0.022373080845810335 0.11850510524856928 0.15155861181775332 0.14678911481700269 0.38687817197610086 0.6521849549606179 0.9477991631986067 
Task7 0.010969787079954283 0.5234305561194609 0.07210234980315064 0.29401081158479897 0.752774087570059 0.6440216723764683 0.5406859745008334 
Task8 0.09506960911090308 0.2136022193730229 0.17102397204449185 0.13141488473579135 0.4310173731788035 0.37516226862653784 0.6783030662488347 
Task9 0.020056733435021148 0.026844488713530668 0.10146736786226851 0.15070341409109195 0.46066682204348675 0.7777728951141435 0.44592072025198415 
Task10 0.08326215107874928 0.04148446111761971 0.2773386093490378 0.018837056506481504 0.4248261828604454 0.8953833526957076 0.6328615833016857 
Task11 0.03873698135977464 0.3424361451173722 0.10207901033272038 0.0737783834602362 0.804055455209566 0.7518851976471734 0.6865750718689148 
Task12 0.09482298501903916 0.12061470096687586 0.03527348848991552 0.33966274827080895 0.8081952300166342 0.5543643202359034 0.4667550056709815 
Task13 0.04597474935208654 0.02554112839617213 0.2361181734791773 0.206309213618943 0.868850817091527 0.8409157259363298 0.5177050478220429 
Task14 0.003607448706641492 0.011244130834658266 0.00466024811943257 0.012396660032687483 0.3375204523888742 0.7310278501112899 0.5987756992437381 
Task15 0.022812014592389625 0.07823782877916546 0.12547344772816976 0.037492185172206385 0.7554043100218434 0.3564889753021996 0.694283336200422 
Task16 0.0529198083136527 0.1571577625703172 0.17812289948099883 0.10054099363848648 0.7781399977465538 0.8637283973446404 0.6811220322715714 
Task17 0.12943350209068225 0.19973058166675564 0.25529970421600323 0.3460266502545419 0.7295288166884762 0.43096115465730245 0.37310736012384066 
Task18 0.10574148212717785 0.20234404758776223 0.16283658792846842 0.08109173913470231 0.5044976361572381 0.9452397782503679 0.6450757564027478 
Task19 0.12818579542828215 0.32436454419241867 0.012536820371557142 0.19694068782469085 0.6485474515016278 0.5467416494277271 0.9425208509494134 
Task20 0.011434457501514199 0.02190619902252485 0.019167972629123634 0.0117912117275155 0.5552851321161414 0.35536489417682976 0.6258002136239251 
Task21 0.011420831861327448 0.20317163289958048 0.2599358053848543 0.3738136859811456 0.5180172083839331 0.532416352485364 0.746234300412477 
Task22 0.005078105160260266 0.007497641136055014 0.014237946114360859 0.005884435673316054 0.5353957204932334 0.4378135820240917 0.6898907191980073 
Task23 0.16784383977134384 0.4303114481398886 0.06359037585485387 0.29495071577216175 0.7363805649219659 0.3546231464086472 0.4397278549062317 
Task24 0.007237839248158724 0.07099926499531078 0.05533402472326764 0.07263610643842591 0.9410737106958853 0.9085442627600766 0.32511403503344305 
Task25 0.04534051713607828 0.056794620589626525 0.11887093038761735 0.1380171039984058 0.43231528230927296 0.5004130200361157 0.6263850960595523 
Task26 0.01092971366816463 0.04312413555087938 0.015424513030565589 0.11819596138498334 0.4433579418175906 0.7263832247392892 0.6525258172917097 
Task27 0.0503930929992704 0.7725106088718441 0.11243480069789247 0.013128683011151642 0.9546799012740259 0.988472602730639 0.7352009391679453 
Task28 0.07597155818411307 0.299751822183558 0.17131788307751591 0.26491679254258454 0.480977611911191 0.3330981366039792 0.8696875487103544 
Task29 0.01144945800816838 0.061246832273966746 0.002891198744920016 0.12465280499416642 0.4784878187545274 0.46328251770629303 0.651436925870388 
Task30 0.0025879140795500104 0.29817136038709824 0.2315351931002048 0.34002472342051737 0.9106604829546792 0.5761621398060799 0.49512822857845806 
Task31 0.0011935365317232312 0.045604746649177734 0.14813210303025517 0.37727766500006943 0.569314384372571 0.9844583804529659 0.8128906420905841 
Task32 0.15636386889813017 0.4926385728245939 0.1933748859656434 0.05968139604924105 0.38338641999327894 0.5346593986856378 0.7869632139442084 
Task33 0.011198370485381798 0.21161465875473878 0.1190891585095568 0.18706249963958926 0.6065641377130384 0.9025230892725318 0.48547935933622666 
Task34 0.0024516383751923506 0.002898686852239413 0.006697648306563262 0.0012755208459719124 0.6749062870037658 0.3408623070639868 0.553976292743722 
Task35 0.15307410176376376 0.2766537633646353 0.0632558079504647 0.28967865424460043 0.9335060791706988 0.5819803625380184 0.5495174084705561 
Task36 0.03689932164223662 0.27709566998357266 0.1612184950368668 0.2694995769862493 0.33728460447450487 0.3529545050712945 0.44755224024909324 
Task37 0.10962554754522907 0.24485449601563225 0.06781339358189342 0.19890008687248642 0.6119353048835612 0.5097325569809954 0.3032294137629192 
Task38 0.06938987306693326 0.12558300651202872 0.2787907628762691 0.2927076286864031 0.9111400555343658 0.7786552307330753 0.6296555986179116 
Task39 0.013306482729640693 0.10985686551870415 0.26800984872945094 0.2453237694750256 0.8887037064402719 0.6594932034136245 0.9387656345802284 
Task40 0.007922126854930338 0.08323583398349543 0.10178768587412323 0.0928740119806799 0.7235174313209369 0.4429617033126624 0.4246618968599978 
Task41 0.01850612257902055 0.07858158087151067 0.028920922960742026 0.03454286419434411 0.7937544389916018 0.8890371393024024 0.4624941021625588 
Task42 0.03600986264004722 0.380641046737843 0.1406573235923147 0.3493576799524414 0.9588513375870653 0.9547198988388743 0.8160323578675568 
Task43 0.13033454185564802 0.23684874722622146 0.12291573456002317 0.33970383997442866 0.6014460537374207 0.9330890577652624 0.6065960199287055 
Task44 0.05019688759495833 0.07963236365951089 0.16734842062067903 0.018680788819149707 0.8086246330443325 0.9163330936651881 0.3237813062120941 
Task45 0.0195680506658365 0.29799265666051705 0.08802577058726027 0.05968188877574222 0.38358553928512573 0.3813639914542154 0.3857788505904606 
Task46 0.010283893936774759 0.0429424164377524 0.007759374881878111 0.004076133555550339 0.47829666187984665 0.9391402834835896 0.8486774816118081 
Task47 0.032458227732192674 0.04345589820194958 0.26529380883907716 0.08750291606256014 0.6671393050955331 0.7487510651015188 0.44864332344115976 
Task48 0.04649632135734752 0.04713616288470872 0.212352239861821 0.4673038284444587 0.6396262117202881 0.6784106116084874 0.42583421405666166 
Task49 0.0250901851690503 0.07879935544554624 0.08894302499930734 0.09315492546338729 0.5180280020370689 0.31582214385492485 0.6251011254287625 
Task50 0.017613641988663675 0.04870492205273093 0.010727258665497065 0.049931750117705315 0.3210290597292804 0.665286974604915 0.8409721308989864 
Task51 0.05197728510467818 0.5194682904678478 0.09573882177792449 0.1269593217710226 0.8026282186730735 0.5442199309552354 0.4862918212828289 
Task52 0.0312530331998984 0.1564909944432421 0.06043497480696685 0.13048531951390724 0.9141953072163473 0.5903192011765405 0.8660715082770163 
Task53 0.08493007295091302 0.36241104123304396 0.42754487871937447 0.1120559351178399 0.45178963145223194 0.5938133808088962 0.8996347556707545 
Task54 0.023562166003690946 0.07854298675293477 0.044110990319429506 0.07934755215748292 0.4962775699592896 0.6192803797599995 0.751773180620233 
Task55 0.10263105261199892 0.13820399049480456 0.14777150647336737 0.19496649816340114 0.6609280245423481 0.6693394021502556 0.35010985355513924 
Task56 0.011692979630822312 0.07750640464089355 0.16590865301000896 0.301062627327747 0.38582383640396894 0.8061225737900204 0.5893189842518072 
Task57 0.02510608517538818 0.37278573091775713 0.5620062439665637 0.0130136375906457 0.3789631193826651 0.6223427842129938 0.9231220686678823 
Task58 0.004118128315058663 0.012034154689856752 0.010581962517678952 0.003968265134534665 0.3949068266808945 0.8559986383846228 0.7110444069687054 
Task59 0.04541574285945403 0.08660771315249907 0.06475045667693675 0.04806379908937479 0.31728489386320863 0.4914311314729746 0.675113183976673 
Task60 0.05536370368590454 0.1741783996458303 0.1733992390406501 0.1476648985093013 0.884983874688686 0.8057899062050125 0.598372245397917 
Task61 0.036641262947953765 0.13979437676628592 0.1464954734414231 0.007729509100153411 0.43585963626191665 0.6201989939910489 0.3136830149586456 
Task62 0.03669026395040047 0.07737839128242703 0.0406752534873862 0.05031051519904828 0.8470933171521478 0.44957210004948267 0.5831829758468035 
Task63 0.09090329815062695 0.20929670584497317 0.03855397716134125 0.16424876381458506 0.927831032596631 0.678870446198384 0.9777780887725036 
Task64 0.04346758862375326 0.06833495605920017 0.10760915074631928 0.006428748320936355 0.3861441725756769 0.5856406976612945 0.9622511459806544 
Task65 0.029262267750010163 0.3457076439405262 0.16244561722277134 0.2287431955280824 0.4566716784630049 0.49488374910119387 0.6780871169359284 
Task66 0.04537726808943647 0.3466057778030994 0.3652824314159675 0.09044334308800138 0.674253690858551 0.4913596499860012 0.9428545341569015 
Task67 0.015231428345365637 0.07722074248750485 0.040215880729998606 0.08935034756424919 0.9673738418987479 0.6727305543039708 0.46598068360889666 
Task68 0.11810880516031674 0.10619798276489441 0.18690814571517228 0.2727779211791061 0.7193184823895231 0.7294023776985323 0.41321596059465837 
Task69 0.07230535389668667 0.22248390006580387 0.1784688557315173 0.32303564444050326 0.9543466309616255 0.8592161774179201 0.9048021140705571 
Task70 0.07770051779560214 0.14828613782693095 0.4256940209414335 0.038509924049526106 0.8696552397237349 0.710310991402334 0.8774987065002817 
Task71 0.008619446253057307 0.020607964734109457 0.017120113988259567 0.014542830843422835 0.4419212337836302 0.6564855683675292 0.7274528887816577 
Task72 0.04115066238437641 0.12106703847222264 0.05471048109998601 0.009792620378981844 0.7872791087717355 0.8620752191054151 0.7924852954907317 
Task73 0.10315087844452117 0.20545162745130358 0.20104542092421285 0.14872492136338655 0.7314895721218119 0.7731334248258996 0.31679152141728845 
Task74 0.01853010928065208 0.09759400186574482 0.04292332905996213 0.2269738124029555 0.4324980879732799 0.40202259118968786 0.9484962327251327 
Task75 0.001522843187626132 0.06534430416208312 0.025756267354573266 0.017638530747005346 0.9850743323511546 0.7943355266827095 0.9152527756629982 
Task76 0.17243389165973702 0.3631665822308468 0.01864728651682198 0.38292786835434756 0.3083450807954995 0.9096359004875523 0.5032326963781967 
Task77 0.16660062676181558 0.33872538864266755 0.11826375799029629 0.2575356832589493 0.4952376730598492 0.9211724151194753 0.4497715534515918 
Task78 0.060102168530457876 0.17919338550566194 0.2652393203044167 0.35232766814044336 0.754697368216032 0.8313655377555502 0.39623508901522153 
Task79 0.08967755547899775 0.4164760810102691 0.01721092852385605 0.35213803793083176 0.40640163930437173 0.9578412471227147 0.634300535848012 
Task80 0.08553746892161244 0.06482534864330196 0.3433959147030283 0.2969567530131533 0.4233052043300421 0.5557082423816083 0.43407042054722417 
Task81 0.002121772987318819 0.0008241165102099004 0.0024328928730892345 0.016194797376000266 0.7604566453510072 0.3760978305272029 0.32633926126518087 
Task82 0.004753261287390999 0.03394334939108237 0.025235043271469207 0.01862656916362606 0.32383919631859837 0.30025730304617165 0.7470438772223547 
Task83 0.14164757152143587 0.14837414175584238 0.3126310252949943 0.29369169896518965 0.9458411672803857 0.6088107749894507 0.559963949226137 
Task84 0.006644874378951931 0.10755635567198292 0.398845296855185 0.4028480080557208 0.4500597690734961 0.40087132155712313 0.8570226136933818 
Task85 0.09571738226570861 0.0787426387044838 0.09735706005608438 0.3364776047040776 0.43223653729356193 0.43011133636211774 0.9211251591589862 
Task86 0.06205829196006394 0.1774830488908889 0.0331849018101843 0.2204355683885585 0.3119547062869995 0.7553647060470883 0.3512611892930927 
Task87 0.019908166059216612 0.018859392003479174 0.06013565070524079 0.03763634221765157 0.7314020894737834 0.4820756070257 0.5300938031735518 
Task88 0.09825897911803089 0.2835430211929038 0.1740370119600168 0.34219045081316785 0.7395649364503436 0.5014189177305023 0.7892830516873238 
Task89 0.14105897361226116 0.3986065589507142 0.04944712274096019 0.4017022296867816 0.40052259310903116 0.36802673238593564 0.6934497351683362 
Task90 0.061779154164474936 0.004411346281732405 0.653742010245284 0.27849708022993036 0.7026982068556196 0.4887106101448108 0.3074834714182187 
Task91 0.015732743815422452 0.013157691722179536 0.05909985001207571 0.021010878759465612 0.3931145715298162 0.7491812627066672 0.8030753756637765 
Task92 0.012028284893611761 0.04336839914955767 0.012331711764192926 0.0005398518042668524 0.8525550264156689 0.7485757569265108 0.4947554384721217 
Task93 0.029505453853064845 0.17655545880203638 0.02003011094672778 0.07858220921160239 0.8582087948083945 0.7541653226418906 0.5764909535507639 
Task94 0.12192309440176287 0.23164567609645606 0.2948166147068783 0.042571903732474374 0.5824438976709236 0.5681423084472828 0.3183231137035013 
Task95 0.11650378301869486 0.1724778227684492 0.3536871701586791 0.3243732167070166 0.9830275357037479 0.543158418796758 0.452107796588577 
Task96 0.04343927192451757 0.2229738802111241 0.04625683751322326 0.01449043937663751 0.5588921415328296 0.3115997921570977 0.7779565436141445 
Task97 0.010228243625531822 0.02311854834576131 0.0194865660770426 0.0003473666773330881 0.31647751161968474 0.9906428044857811 0.3589157505108225 
Task98 0.06464005574750903 0.2034612940573506 0.33350300411380335 0.04009118244267034 0.3187939237009617 0.3734444739016021 0.6413073828336587 
Task99 0.026535456497393427 0.006876951414766917 0.16020750557192515 0.11317247116802995 0.5997076321416271 0.8980823557167101 0.6382746949341932 
