0.29467076
Task0 31 255 63 
Task1 7 1 63 
Task2 255 1 31 
Task3 255 15 255 
Task4 31 63 63 
Task5 7 255 255 
Task6 63 31 63 
Task7 63 7 7 
Task8 31 31 1 
Task9 255 31 31 
Task10 7 7 31 
Task11 255 7 31 
Task12 31 15 31 
Task13 127 1 63 
Task14 63 255 255 
Task15 63 127 3 
Task16 127 255 255 
Task17 255 63 15 
Task18 31 31 7 
Task19 63 31 3 
Task20 31 63 63 
Task21 255 15 63 
Task22 15 63 63 
Task23 31 31 15 
Task24 127 7 31 
Task25 63 63 31 
Task26 15 7 63 
Task27 15 1 255 
Task28 15 63 15 
Task29 255 31 31 
Task30 31 31 63 
Task31 1 63 15 
Task32 15 1 63 
Task33 15 1 255 
Task34 63 15 31 
Task35 63 15 31 
Task36 255 31 255 
Task37 63 31 3 
Task38 31 3 63 
Task39 255 63 31 
Task40 63 31 7 
Task41 15 127 127 
Task42 3 127 255 
Task43 63 31 127 
Task44 7 31 63 
Task45 15 255 63 
Task46 255 31 63 
Task47 255 3 15 
Task48 255 63 127 
Task49 7 31 63 
Task50 31 63 255 
Task51 15 63 31 
Task52 127 255 15 
Task53 15 63 31 
Task54 255 1 31 
Task55 255 1 63 
Task56 255 255 1 
Task57 3 255 15 
Task58 7 127 3 
Task59 31 63 3 
Task60 255 7 31 
Task61 63 63 63 
Task62 63 15 31 
Task63 7 63 31 
Task64 63 31 15 
Task65 15 31 15 
Task66 255 127 31 
Task67 15 63 15 
Task68 15 127 15 
Task69 255 63 15 
Task70 7 63 63 
Task71 1 63 1 
Task72 255 7 127 
Task73 1 255 127 
Task74 15 31 3 
Task75 15 63 3 
Task76 15 63 31 
Task77 63 31 63 
Task78 255 255 3 
Task79 255 7 15 
Task80 31 63 63 
Task81 15 63 7 
Task82 3 7 63 
Task83 15 15 63 
Task84 31 15 63 
Task85 255 1 15 
Task86 63 127 63 
Task87 63 255 31 
Task88 15 63 255 
Task89 15 255 3 
Task90 31 255 63 
Task91 31 63 1 
Task92 63 63 15 
Task93 31 63 63 
Task94 255 31 255 
Task95 63 63 15 
Task96 7 63 127 
Task97 63 3 31 
Task98 255 63 127 
Task99 127 255 127 
