files/tasks_parameters/ExAp01/sample8.txt 1.18553 6.77015 2.19458 0.288816 9.13677
files/tasks_parameters/ExAp01/sample12.txt 1.35224 9.58351 2.46081 0.337498 10.6768
files/tasks_parameters/ExAp01/sample2.txt 1.14238 8.44418 2.50701 0.319127 10.0957
files/tasks_parameters/ExAp01/sample44.txt 1.09057 6.96299 2.23089 0.28229 8.93032
files/tasks_parameters/ExAp01/sample27.txt 1.09624 7.74306 2.16676 0.28602 9.0483
files/tasks_parameters/ExAp01/sample17.txt 1.11205 7.35053 2.25579 0.292348 9.24848
files/tasks_parameters/ExAp01/sample9.txt 1.13941 6.89392 2.21068 0.282399 8.93375
files/tasks_parameters/ExAp01/sample34.txt 1.13263 6.62788 2.3772 0.297742 9.41912
files/tasks_parameters/ExAp01/sample40.txt 0.994329 7.75686 2.17534 0.285619 9.03563
files/tasks_parameters/ExAp01/sample33.txt 1.34238 8.14826 2.6463 0.338073 10.695
files/tasks_parameters/ExAp01/sample48.txt 0.988503 7.64107 2.14272 0.270011 8.54186
files/tasks_parameters/ExAp01/sample29.txt 1.03166 7.139 1.93769 0.286306 9.05734
files/tasks_parameters/ExAp01/sample11.txt 1.0721 6.88688 2.12981 0.280008 8.85813
files/tasks_parameters/ExAp01/sample14.txt 0.894656 6.11983 1.97599 0.247458 7.82838
files/tasks_parameters/ExAp01/sample0.txt 1.09604 8.2738 2.14256 0.289132 9.14675
files/tasks_parameters/ExAp01/sample7.txt 0.997471 6.87011 2.05821 0.269886 8.53789
files/tasks_parameters/ExAp01/sample23.txt 1.09676 6.52032 2.38087 0.291712 9.22836
files/tasks_parameters/ExAp01/sample13.txt 1.14306 8.73247 2.33415 0.295393 9.34481
files/tasks_parameters/ExAp01/sample22.txt 1.05957 6.9777 2.28948 0.283979 8.98374
files/tasks_parameters/ExAp01/sample25.txt 0.997242 6.23444 2.2122 0.267298 8.45602
files/tasks_parameters/ExAp01/sample36.txt 1.03524 6.6174 1.9458 0.253823 8.02974
files/tasks_parameters/ExAp01/sample46.txt 1.20597 7.42369 2.49128 0.327273 10.3533
files/tasks_parameters/ExAp01/sample31.txt 1.00276 7.22028 2.13584 0.25377 8.02806
files/tasks_parameters/ExAp01/sample37.txt 1.17564 8.90704 2.16981 0.295708 9.35479
files/tasks_parameters/ExAp01/sample16.txt 1.04906 8.18243 1.88294 0.24945 7.8914
files/tasks_parameters/ExAp01/sample10.txt 1.13452 6.96646 2.31217 0.285748 9.0397
files/tasks_parameters/ExAp01/sample39.txt 1.01381 6.4161 1.97266 0.251967 7.97102
files/tasks_parameters/ExAp01/sample19.txt 1.22109 8.16711 2.23199 0.308463 9.75829
files/tasks_parameters/ExAp01/sample20.txt 0.958018 7.28549 1.88944 0.25994 8.22325
files/tasks_parameters/ExAp01/sample43.txt 0.946087 6.86804 2.00142 0.25616 8.10368
files/tasks_parameters/ExAp01/sample32.txt 1.04889 8.15663 2.12995 0.281726 8.91248
files/tasks_parameters/ExAp01/sample45.txt 1.01253 7.75184 2.10599 0.274935 8.69763
files/tasks_parameters/ExAp01/sample26.txt 0.948139 7.4944 1.88956 0.267248 8.45445
files/tasks_parameters/ExAp01/sample5.txt 1.19875 8.08362 2.09961 0.28454 9.00149
files/tasks_parameters/ExAp01/sample21.txt 0.8728 6.11814 2.17119 0.26143 8.27038
files/tasks_parameters/ExAp01/sample38.txt 1.02239 7.761 1.96293 0.263659 8.34091
files/tasks_parameters/ExAp01/sample1.txt 1.06588 7.83752 2.13261 0.289228 9.14979
files/tasks_parameters/ExAp01/sample15.txt 0.980753 7.37971 2.12057 0.285825 9.04215
files/tasks_parameters/ExAp01/sample24.txt 1.1625 8.28531 2.25272 0.296628 9.38391
files/tasks_parameters/ExAp01/sample3.txt 1.22166 7.33359 2.39135 0.305084 9.65141
files/tasks_parameters/ExAp01/sample6.txt 1.03311 7.09894 2.24425 0.281804 8.91494
files/tasks_parameters/ExAp01/sample30.txt 1.17982 8.17669 2.03701 0.299204 9.46539
files/tasks_parameters/ExAp01/sample42.txt 1.16864 7.70416 2.42413 0.29743 9.40926
files/tasks_parameters/ExAp01/sample4.txt 1.14391 7.41691 2.36261 0.307803 9.73741
files/tasks_parameters/ExAp01/sample28.txt 0.979883 7.0562 2.07657 0.266428 8.42851
files/tasks_parameters/ExAp01/sample18.txt 1.10592 7.60139 2.1377 0.268016 8.47875
files/tasks_parameters/ExAp01/sample35.txt 1.3226 9.66795 2.28028 0.32244 10.2004
files/tasks_parameters/ExAp01/sample47.txt 0.955963 6.84842 2.12104 0.251655 7.96115
files/tasks_parameters/ExAp01/sample49.txt 1.12233 7.1497 2.11412 0.255889 8.0951
files/tasks_parameters/ExAp01/sample41.txt 1.05551 6.59911 2.07359 0.265885 8.41134
