files/tasks_parameters/ExAp01/sample8.txt 0.78224 3.15778 1.5595 0.203411 5.31169
files/tasks_parameters/ExAp01/sample12.txt 0.897568 3.94962 1.6705 0.207924 5.42953
files/tasks_parameters/ExAp01/sample2.txt 0.862556 3.78275 1.74131 0.200098 5.22517
files/tasks_parameters/ExAp01/sample44.txt 0.800476 3.59825 1.65317 0.200005 5.22275
files/tasks_parameters/ExAp01/sample27.txt 0.762498 3.45743 1.5148 0.182129 4.75594
files/tasks_parameters/ExAp01/sample17.txt 0.925109 2.77299 1.44514 0.14646 3.82452
files/tasks_parameters/ExAp01/sample9.txt 0.753139 2.99933 1.451 0.177444 4.6336
files/tasks_parameters/ExAp01/sample34.txt 0.831645 3.02928 1.58429 0.157984 4.12544
files/tasks_parameters/ExAp01/sample40.txt 0.773878 3.86889 1.52122 0.168379 4.3969
files/tasks_parameters/ExAp01/sample33.txt 0.814264 3.63695 1.71905 0.199765 5.21648
files/tasks_parameters/ExAp01/sample48.txt 0.705052 3.39061 1.49062 0.154728 4.04043
files/tasks_parameters/ExAp01/sample29.txt 0.865541 3.30472 1.38739 0.223868 5.84589
files/tasks_parameters/ExAp01/sample11.txt 0.730365 3.10585 1.41612 0.174079 4.54573
files/tasks_parameters/ExAp01/sample14.txt 0.669199 2.70971 1.43432 0.162214 4.23592
files/tasks_parameters/ExAp01/sample0.txt 0.806884 3.6937 1.5439 0.18367 4.79618
files/tasks_parameters/ExAp01/sample7.txt 0.809856 2.70501 1.42221 0.143463 3.74627
files/tasks_parameters/ExAp01/sample23.txt 0.797816 3.2697 1.57822 0.181448 4.73818
files/tasks_parameters/ExAp01/sample13.txt 0.834296 3.84225 1.67648 0.198247 5.17684
files/tasks_parameters/ExAp01/sample22.txt 0.901802 3.09569 1.56121 0.148796 3.88553
files/tasks_parameters/ExAp01/sample25.txt 0.746637 2.73966 1.5007 0.148149 3.86862
files/tasks_parameters/ExAp01/sample36.txt 0.853406 2.85948 1.28553 0.130042 3.3958
files/tasks_parameters/ExAp01/sample46.txt 0.829332 3.58643 1.69998 0.210103 5.48643
files/tasks_parameters/ExAp01/sample31.txt 0.772537 3.4832 1.53782 0.1722 4.49667
files/tasks_parameters/ExAp01/sample37.txt 0.795345 3.95293 1.50705 0.171701 4.48364
files/tasks_parameters/ExAp01/sample16.txt 0.678171 3.31216 1.30115 0.150249 3.92346
files/tasks_parameters/ExAp01/sample10.txt 1.13118 3.17098 1.61789 0.153776 4.01557
files/tasks_parameters/ExAp01/sample39.txt 0.703394 3.26617 1.44406 0.165669 4.32612
files/tasks_parameters/ExAp01/sample19.txt 0.816868 3.63532 1.52509 0.196094 5.12063
files/tasks_parameters/ExAp01/sample20.txt 0.668079 3.20793 1.25367 0.147335 3.84738
files/tasks_parameters/ExAp01/sample43.txt 0.660149 3.11551 1.4202 0.150644 3.93379
files/tasks_parameters/ExAp01/sample32.txt 0.779453 3.5311 1.42482 0.168744 4.40643
files/tasks_parameters/ExAp01/sample45.txt 0.822146 3.80283 1.48324 0.19807 5.17223
files/tasks_parameters/ExAp01/sample26.txt 0.695132 3.21645 1.29701 0.166061 4.33637
files/tasks_parameters/ExAp01/sample5.txt 0.731775 3.5889 1.52559 0.178903 4.67172
files/tasks_parameters/ExAp01/sample21.txt 0.773629 2.75242 1.55936 0.19512 5.09519
files/tasks_parameters/ExAp01/sample38.txt 0.708461 3.31563 1.37515 0.166157 4.33887
files/tasks_parameters/ExAp01/sample1.txt 0.800937 3.74964 1.51696 0.19701 5.14453
files/tasks_parameters/ExAp01/sample15.txt 0.756906 3.32916 1.48508 0.180707 4.71883
files/tasks_parameters/ExAp01/sample24.txt 0.861271 3.45951 1.59549 0.16529 4.31624
files/tasks_parameters/ExAp01/sample3.txt 0.932605 3.70014 1.70809 0.237107 6.1916
files/tasks_parameters/ExAp01/sample6.txt 0.769105 3.33003 1.58323 0.184714 4.82346
files/tasks_parameters/ExAp01/sample30.txt 1.00385 4.1841 1.4861 0.239623 6.2573
files/tasks_parameters/ExAp01/sample42.txt 0.774955 3.43221 1.70276 0.177383 4.63201
files/tasks_parameters/ExAp01/sample4.txt 0.868689 3.72477 1.6136 0.196448 5.12987
files/tasks_parameters/ExAp01/sample28.txt 0.724274 3.11323 1.45032 0.158819 4.14725
files/tasks_parameters/ExAp01/sample18.txt 0.782213 3.47418 1.45209 0.149064 3.89252
files/tasks_parameters/ExAp01/sample35.txt 0.873187 4.57086 1.49394 0.185031 4.83172
files/tasks_parameters/ExAp01/sample47.txt 0.737488 3.13768 1.52397 0.16417 4.28699
files/tasks_parameters/ExAp01/sample49.txt 0.791437 3.13288 1.49657 0.156154 4.07766
files/tasks_parameters/ExAp01/sample41.txt 0.77121 2.81964 1.49636 0.150876 3.93983
