files/tasks_parameters/ExAp01/sample8.txt 1.13482 6.77015 2.19458 0.288816 9.33183
files/tasks_parameters/ExAp01/sample12.txt 1.25986 9.58351 2.46081 0.337498 10.9048
files/tasks_parameters/ExAp01/sample2.txt 1.16408 8.44418 2.50701 0.319127 10.3112
files/tasks_parameters/ExAp01/sample44.txt 1.1624 6.96299 2.23089 0.28229 9.12097
files/tasks_parameters/ExAp01/sample27.txt 1.16851 7.74306 2.16676 0.28602 9.24147
files/tasks_parameters/ExAp01/sample17.txt 1.11332 7.35053 2.25579 0.292348 9.44592
files/tasks_parameters/ExAp01/sample9.txt 1.00457 6.89392 2.21068 0.282399 9.12447
files/tasks_parameters/ExAp01/sample34.txt 1.04261 6.62788 2.3772 0.297742 9.62021
files/tasks_parameters/ExAp01/sample40.txt 1.11464 7.75686 2.17534 0.285619 9.22853
files/tasks_parameters/ExAp01/sample33.txt 1.21571 8.14826 2.6463 0.338073 10.9233
files/tasks_parameters/ExAp01/sample48.txt 0.927547 7.64107 2.14272 0.270011 8.72422
files/tasks_parameters/ExAp01/sample29.txt 1.02333 7.139 1.93769 0.286306 9.25071
files/tasks_parameters/ExAp01/sample11.txt 1.0509 6.88688 2.12981 0.280008 9.04724
files/tasks_parameters/ExAp01/sample14.txt 0.937638 6.11983 1.97599 0.247458 7.9955
files/tasks_parameters/ExAp01/sample0.txt 1.14097 8.2738 2.14256 0.289132 9.34202
files/tasks_parameters/ExAp01/sample7.txt 1.02498 6.87011 2.05821 0.269886 8.72016
files/tasks_parameters/ExAp01/sample23.txt 1.06245 6.52032 2.38087 0.291712 9.42537
files/tasks_parameters/ExAp01/sample13.txt 1.13258 8.73247 2.33415 0.295393 9.54431
files/tasks_parameters/ExAp01/sample22.txt 1.06145 6.9777 2.28948 0.283979 9.17553
files/tasks_parameters/ExAp01/sample25.txt 0.964444 6.23444 2.2122 0.267298 8.63655
files/tasks_parameters/ExAp01/sample36.txt 0.896934 6.6174 1.9458 0.253823 8.20116
files/tasks_parameters/ExAp01/sample46.txt 1.24985 7.42369 2.49128 0.327273 10.5744
files/tasks_parameters/ExAp01/sample31.txt 0.901146 7.22028 2.13584 0.25377 8.19945
files/tasks_parameters/ExAp01/sample37.txt 1.15949 8.90704 2.16981 0.295708 9.5545
files/tasks_parameters/ExAp01/sample16.txt 1.02773 8.18243 1.88294 0.24945 8.05987
files/tasks_parameters/ExAp01/sample10.txt 1.05473 6.96646 2.31217 0.285748 9.23268
files/tasks_parameters/ExAp01/sample39.txt 0.960947 6.4161 1.97266 0.251967 8.14119
files/tasks_parameters/ExAp01/sample19.txt 1.17252 8.16711 2.23199 0.308463 9.96661
files/tasks_parameters/ExAp01/sample20.txt 0.968857 7.28549 1.88944 0.25994 8.39881
files/tasks_parameters/ExAp01/sample43.txt 0.904157 6.86804 2.00142 0.25616 8.27669
files/tasks_parameters/ExAp01/sample32.txt 1.08856 8.15663 2.12995 0.281726 9.10275
files/tasks_parameters/ExAp01/sample45.txt 1.00703 7.75184 2.10599 0.274935 8.88331
files/tasks_parameters/ExAp01/sample26.txt 0.941076 7.4944 1.88956 0.267248 8.63494
files/tasks_parameters/ExAp01/sample5.txt 1.0804 8.08362 2.09961 0.28454 9.19366
files/tasks_parameters/ExAp01/sample21.txt 1.05866 6.11814 2.17119 0.26143 8.44694
files/tasks_parameters/ExAp01/sample38.txt 0.907234 7.761 1.96293 0.263659 8.51897
files/tasks_parameters/ExAp01/sample1.txt 1.09153 7.83752 2.13261 0.289228 9.34513
files/tasks_parameters/ExAp01/sample15.txt 1.03254 7.37971 2.12057 0.285825 9.23519
files/tasks_parameters/ExAp01/sample24.txt 1.10846 8.28531 2.25272 0.296628 9.58424
files/tasks_parameters/ExAp01/sample3.txt 1.20525 7.33359 2.39135 0.305084 9.85746
files/tasks_parameters/ExAp01/sample6.txt 1.0121 7.09894 2.24425 0.281804 9.10526
files/tasks_parameters/ExAp01/sample30.txt 1.16562 8.17669 2.03701 0.299204 9.66747
files/tasks_parameters/ExAp01/sample42.txt 1.15837 7.70416 2.42413 0.29743 9.61014
files/tasks_parameters/ExAp01/sample4.txt 1.16295 7.41691 2.36261 0.307803 9.94529
files/tasks_parameters/ExAp01/sample28.txt 1.03233 7.0562 2.07657 0.266428 8.60844
files/tasks_parameters/ExAp01/sample18.txt 1.03048 7.60139 2.1377 0.268016 8.65975
files/tasks_parameters/ExAp01/sample35.txt 1.34503 9.66795 2.28028 0.32244 10.4182
files/tasks_parameters/ExAp01/sample47.txt 0.933062 6.84842 2.12104 0.251655 8.13111
files/tasks_parameters/ExAp01/sample49.txt 0.978086 7.1497 2.11412 0.255889 8.26792
files/tasks_parameters/ExAp01/sample41.txt 0.983351 6.59911 2.07359 0.265885 8.59091
