0.33133741
Task0 63 7 7 
Task1 31 7 63 
Task2 63 1 127 
Task3 31 15 63 
Task4 63 31 7 
Task5 63 7 1 
Task6 1 63 1 
Task7 63 7 7 
Task8 31 3 3 
Task9 63 63 63 
Task10 63 63 63 
Task11 31 63 63 
Task12 15 63 31 
Task13 31 63 7 
Task14 63 255 63 
Task15 15 63 15 
Task16 1 3 63 
Task17 127 255 127 
Task18 3 15 63 
Task19 7 63 31 
Task20 31 63 31 
Task21 63 15 15 
Task22 1 63 31 
Task23 3 31 31 
Task24 15 63 7 
Task25 63 31 31 
Task26 15 63 3 
Task27 63 255 31 
Task28 15 63 15 
Task29 31 63 127 
Task30 63 1 15 
Task31 15 31 31 
Task32 127 63 31 
Task33 31 255 255 
Task34 255 127 7 
Task35 7 15 31 
Task36 15 7 31 
Task37 1 63 15 
Task38 31 7 31 
Task39 63 63 7 
Task40 31 1 3 
Task41 255 7 255 
Task42 7 63 63 
Task43 15 1 31 
Task44 15 31 7 
Task45 63 31 127 
Task46 255 255 255 
Task47 63 63 31 
Task48 1 63 1 
Task49 3 255 255 
Task50 63 31 63 
Task51 31 31 15 
Task52 31 31 15 
Task53 31 31 63 
Task54 63 7 31 
Task55 63 3 31 
Task56 63 3 15 
Task57 3 15 31 
Task58 31 7 1 
Task59 63 7 3 
Task60 63 63 31 
Task61 3 31 63 
Task62 63 7 3 
Task63 15 15 63 
Task64 1 127 255 
Task65 31 63 7 
Task66 63 63 255 
Task67 7 31 15 
Task68 15 7 63 
Task69 31 7 7 
Task70 63 7 31 
Task71 7 255 127 
Task72 15 63 31 
Task73 31 63 1 
Task74 31 1 3 
Task75 31 31 7 
Task76 31 63 7 
Task77 1 31 15 
Task78 15 15 255 
Task79 1 1 31 
Task80 63 3 15 
Task81 1 3 63 
Task82 1 3 31 
Task83 1 63 1 
Task84 15 31 31 
Task85 15 63 15 
Task86 255 63 15 
Task87 15 7 31 
Task88 31 7 31 
Task89 31 31 63 
Task90 3 63 15 
Task91 31 63 15 
Task92 3 31 255 
Task93 31 3 3 
Task94 1 31 7 
Task95 63 1 31 
Task96 15 7 63 
Task97 3 255 63 
Task98 7 63 31 
Task99 7 31 1 
