Task0 1 1 1 
Task1 3 1 1 
Task2 1 1 1 
Task3 1 1 1 
Task4 3 3 1 
Task5 3 1 1 
Task6 1 1 1 
Task7 1 3 3 
Task8 1 1 1 
Task9 1 1 1 
Task10 1 1 1 
Task11 1 1 3 
Task12 1 1 1 
Task13 1 1 3 
Task14 3 1 1 
Task15 1 1 1 
Task16 1 1 1 
Task17 1 1 1 
Task18 1 1 1 
Task19 1 1 1 
Task20 1 1 1 
Task21 1 3 3 
Task22 1 1 1 
Task23 1 1 1 
Task24 1 1 1 
Task25 1 1 3 
Task26 1 1 1 
Task27 1 1 3 
Task28 1 1 1 
Task29 1 1 1 
Task30 1 1 1 
Task31 1 3 1 
Task32 1 1 1 
Task33 1 1 1 
Task34 1 3 1 
Task35 1 1 1 
Task36 1 1 1 
Task37 1 1 1 
Task38 1 1 1 
Task39 3 1 1 
Task40 1 1 1 
Task41 3 1 1 
Task42 1 3 1 
Task43 1 1 1 
Task44 1 3 1 
Task45 1 1 1 
Task46 1 1 1 
Task47 1 1 1 
Task48 1 1 1 
Task49 1 1 1 
