1 9
1 17
3 12
5 10
5 14
5 15
5 18
6 11
6 13
8 16
10 22
11 20
12 21
12 27
14 19
14 23
14 26
14 28
16 25
18 24
19 29
20 35
23 32
24 31
24 33
24 34
28 30
29 47
30 37
30 41
30 43
31 39
31 48
32 40
32 45
32 49
34 36
34 38
34 46
35 42
35 44
40 52
42 53
43 55
44 54
45 50
46 51
51 57
52 56
52 58
52 60
54 59
56 63
56 69
56 74
57 67
57 70
57 72
58 71
59 62
59 66
59 68
59 73
60 61
60 64
60 65
62 81
62 82
63 78
64 75
64 76
64 77
68 83
70 80
71 79
76 94
77 84
77 91
80 87
80 90
81 88
81 92
82 86
83 85
83 89
83 93
83 95
86 98
91 99
93 96
93 97
