files/tasks_parameters/ExAp01/sample8.txt 0.779515 3.15778 1.5595 0.203411 4.55878
files/tasks_parameters/ExAp01/sample12.txt 0.802504 3.94962 1.6705 0.207924 4.65992
files/tasks_parameters/ExAp01/sample2.txt 0.799787 3.78275 1.74131 0.200098 4.48452
files/tasks_parameters/ExAp01/sample44.txt 0.68453 3.59825 1.65317 0.200005 4.48245
files/tasks_parameters/ExAp01/sample27.txt 0.713775 3.45743 1.5148 0.182129 4.0818
files/tasks_parameters/ExAp01/sample17.txt 0.669653 2.77299 1.44514 0.14646 3.28241
files/tasks_parameters/ExAp01/sample9.txt 0.695388 2.99933 1.451 0.177444 3.9768
files/tasks_parameters/ExAp01/sample34.txt 0.67876 3.02928 1.58429 0.157984 3.54068
files/tasks_parameters/ExAp01/sample40.txt 0.7306 3.86889 1.52122 0.168379 3.77366
files/tasks_parameters/ExAp01/sample33.txt 0.783853 3.63695 1.71905 0.199765 4.47706
files/tasks_parameters/ExAp01/sample48.txt 0.657585 3.39061 1.49062 0.154728 3.46771
files/tasks_parameters/ExAp01/sample29.txt 0.733528 3.30472 1.38739 0.223868 5.01726
files/tasks_parameters/ExAp01/sample11.txt 0.719024 3.10585 1.41612 0.174079 3.90139
files/tasks_parameters/ExAp01/sample14.txt 0.690372 2.70971 1.43432 0.162214 3.63549
files/tasks_parameters/ExAp01/sample0.txt 0.705765 3.6937 1.5439 0.18367 4.11634
files/tasks_parameters/ExAp01/sample7.txt 0.624547 2.70501 1.42221 0.143463 3.21525
files/tasks_parameters/ExAp01/sample23.txt 0.708189 3.2697 1.57822 0.181448 4.06656
files/tasks_parameters/ExAp01/sample13.txt 0.729548 3.84225 1.67648 0.198247 4.44304
files/tasks_parameters/ExAp01/sample22.txt 0.664324 3.09569 1.56121 0.148796 3.33477
files/tasks_parameters/ExAp01/sample25.txt 0.624769 2.73966 1.5007 0.148149 3.32026
files/tasks_parameters/ExAp01/sample36.txt 0.608953 2.85948 1.28553 0.130042 2.91446
files/tasks_parameters/ExAp01/sample46.txt 0.780757 3.58643 1.69998 0.210103 4.70875
files/tasks_parameters/ExAp01/sample31.txt 0.706976 3.4832 1.53782 0.1722 3.85928
files/tasks_parameters/ExAp01/sample37.txt 0.738998 3.95293 1.50705 0.171701 3.8481
files/tasks_parameters/ExAp01/sample16.txt 0.609882 3.31216 1.30115 0.150249 3.36733
files/tasks_parameters/ExAp01/sample10.txt 0.697877 3.17098 1.61789 0.153776 3.44638
files/tasks_parameters/ExAp01/sample39.txt 0.710094 3.26617 1.44406 0.165669 3.71291
files/tasks_parameters/ExAp01/sample19.txt 0.757795 3.63532 1.52509 0.196094 4.3948
files/tasks_parameters/ExAp01/sample20.txt 0.618953 3.20793 1.25367 0.147335 3.30203
files/tasks_parameters/ExAp01/sample43.txt 0.645172 3.11551 1.4202 0.150644 3.37619
files/tasks_parameters/ExAp01/sample32.txt 0.720803 3.5311 1.42482 0.168744 3.78184
files/tasks_parameters/ExAp01/sample45.txt 0.757989 3.80283 1.48324 0.19807 4.43909
files/tasks_parameters/ExAp01/sample26.txt 0.596762 3.21645 1.29701 0.166061 3.72171
files/tasks_parameters/ExAp01/sample5.txt 0.672925 3.5889 1.52559 0.178903 4.00952
files/tasks_parameters/ExAp01/sample21.txt 0.645144 2.75242 1.55936 0.19512 4.37297
files/tasks_parameters/ExAp01/sample38.txt 0.655145 3.31563 1.37515 0.166157 3.72385
files/tasks_parameters/ExAp01/sample1.txt 0.725904 3.74964 1.51696 0.19701 4.41531
files/tasks_parameters/ExAp01/sample15.txt 0.693046 3.32916 1.48508 0.180707 4.04995
files/tasks_parameters/ExAp01/sample24.txt 0.737703 3.45951 1.59549 0.16529 3.70443
files/tasks_parameters/ExAp01/sample3.txt 0.916744 3.70014 1.70809 0.237107 5.31396
files/tasks_parameters/ExAp01/sample6.txt 0.708463 3.33003 1.58323 0.184714 4.13976
files/tasks_parameters/ExAp01/sample30.txt 0.893262 4.1841 1.4861 0.239623 5.37035
files/tasks_parameters/ExAp01/sample42.txt 0.732127 3.43221 1.70276 0.177383 3.97544
files/tasks_parameters/ExAp01/sample4.txt 0.765017 3.72477 1.6136 0.196448 4.40273
files/tasks_parameters/ExAp01/sample28.txt 0.644681 3.11323 1.45032 0.158819 3.5594
files/tasks_parameters/ExAp01/sample18.txt 0.628909 3.47418 1.45209 0.149064 3.34077
files/tasks_parameters/ExAp01/sample35.txt 0.754579 4.57086 1.49394 0.185031 4.14684
files/tasks_parameters/ExAp01/sample47.txt 0.679048 3.13768 1.52397 0.16417 3.67932
files/tasks_parameters/ExAp01/sample49.txt 0.656166 3.13288 1.49657 0.156154 3.49967
files/tasks_parameters/ExAp01/sample41.txt 0.63825 2.81964 1.49636 0.150876 3.38138
