0.39614083000000005
Task0 31 7 63 
Task1 63 31 255 
Task2 63 1 63 
Task3 15 63 31 
Task4 63 1 3 
Task5 255 31 127 
Task6 63 63 1 
Task7 31 255 31 
Task8 1 63 3 
Task9 15 63 7 
Task10 1 255 31 
Task11 15 127 255 
Task12 63 7 15 
Task13 1 31 63 
Task14 31 31 127 
Task15 1 63 1 
Task16 3 3 63 
Task17 127 255 127 
Task18 63 31 31 
Task19 1 255 63 
Task20 63 3 31 
Task21 7 63 7 
Task22 127 127 31 
Task23 63 127 7 
Task24 7 15 63 
Task25 31 1 31 
Task26 31 127 31 
Task27 255 255 127 
Task28 7 1 63 
Task29 63 7 15 
Task30 127 255 255 
Task31 63 31 15 
Task32 15 63 7 
Task33 255 127 15 
Task34 31 15 63 
Task35 7 255 255 
Task36 7 127 15 
Task37 63 3 255 
Task38 3 31 63 
Task39 255 31 63 
Task40 7 63 7 
Task41 15 63 7 
Task42 63 1 1 
Task43 7 31 31 
Task44 63 15 1 
Task45 63 7 1 
Task46 63 255 63 
Task47 127 255 127 
Task48 31 15 127 
Task49 63 31 63 
Task50 7 255 127 
Task51 31 127 127 
Task52 15 63 63 
Task53 1 15 63 
Task54 63 63 3 
Task55 7 1 63 
Task56 63 1 15 
Task57 7 63 63 
Task58 127 63 63 
Task59 31 63 63 
Task60 15 63 63 
Task61 63 15 127 
Task62 63 127 31 
Task63 63 3 3 
Task64 7 63 3 
Task65 63 7 63 
Task66 31 63 15 
Task67 15 63 127 
Task68 63 15 7 
Task69 127 255 15 
Task70 127 31 127 
Task71 255 7 31 
Task72 7 63 3 
Task73 63 127 31 
Task74 7 31 63 
Task75 127 63 31 
Task76 63 63 63 
Task77 31 63 15 
Task78 127 31 31 
Task79 7 63 7 
Task80 15 63 7 
Task81 255 127 31 
Task82 15 63 15 
Task83 31 255 63 
Task84 3 63 7 
Task85 63 15 31 
Task86 15 15 255 
Task87 63 3 7 
Task88 15 15 63 
Task89 3 63 7 
Task90 31 31 255 
Task91 31 63 63 
Task92 63 1 7 
Task93 63 63 63 
Task94 31 15 255 
Task95 127 3 31 
Task96 1 3 63 
Task97 63 7 15 
Task98 63 31 63 
Task99 63 63 15 
