files/tasks_parameters/ExAp01/sample8.txt 1.28634 6.77015 2.19458 0.288816 6.07351
files/tasks_parameters/ExAp01/sample12.txt 1.50815 9.58351 2.46081 0.337498 7.09725
files/tasks_parameters/ExAp01/sample2.txt 1.42208 8.44418 2.50701 0.319127 6.71092
files/tasks_parameters/ExAp01/sample44.txt 1.24907 6.96299 2.23089 0.28229 5.93628
files/tasks_parameters/ExAp01/sample27.txt 1.26419 7.74306 2.16676 0.28602 6.0147
files/tasks_parameters/ExAp01/sample17.txt 1.30425 7.35053 2.25579 0.292348 6.14777
files/tasks_parameters/ExAp01/sample9.txt 1.24747 6.89392 2.21068 0.282399 5.93856
files/tasks_parameters/ExAp01/sample34.txt 1.31818 6.62788 2.3772 0.297742 6.2612
files/tasks_parameters/ExAp01/sample40.txt 1.26286 7.75686 2.17534 0.285619 6.00628
files/tasks_parameters/ExAp01/sample33.txt 1.50626 8.14826 2.6463 0.338073 7.10933
files/tasks_parameters/ExAp01/sample48.txt 1.20024 7.64107 2.14272 0.270011 5.67806
files/tasks_parameters/ExAp01/sample29.txt 1.25615 7.139 1.93769 0.286306 6.02071
files/tasks_parameters/ExAp01/sample11.txt 1.24382 6.88688 2.12981 0.280008 5.88829
files/tasks_parameters/ExAp01/sample14.txt 1.10255 6.11983 1.97599 0.247458 5.20378
files/tasks_parameters/ExAp01/sample0.txt 1.30201 8.2738 2.14256 0.289132 6.08014
files/tasks_parameters/ExAp01/sample7.txt 1.2009 6.87011 2.05821 0.269886 5.67541
files/tasks_parameters/ExAp01/sample23.txt 1.30565 6.52032 2.38087 0.291712 6.13439
files/tasks_parameters/ExAp01/sample13.txt 1.29974 8.73247 2.33415 0.295393 6.2118
files/tasks_parameters/ExAp01/sample22.txt 1.25488 6.9777 2.28948 0.283979 5.97179
files/tasks_parameters/ExAp01/sample25.txt 1.18538 6.23444 2.2122 0.267298 5.621
files/tasks_parameters/ExAp01/sample36.txt 1.12569 6.6174 1.9458 0.253823 5.33763
files/tasks_parameters/ExAp01/sample46.txt 1.4546 7.42369 2.49128 0.327273 6.88221
files/tasks_parameters/ExAp01/sample31.txt 1.13364 7.22028 2.13584 0.25377 5.33652
files/tasks_parameters/ExAp01/sample37.txt 1.36662 8.90704 2.16981 0.295708 6.21844
files/tasks_parameters/ExAp01/sample16.txt 1.13233 8.18243 1.88294 0.24945 5.24567
files/tasks_parameters/ExAp01/sample10.txt 1.2552 6.96646 2.31217 0.285748 6.00899
files/tasks_parameters/ExAp01/sample39.txt 1.11263 6.4161 1.97266 0.251967 5.2986
files/tasks_parameters/ExAp01/sample19.txt 1.36112 8.16711 2.23199 0.308463 6.48665
files/tasks_parameters/ExAp01/sample20.txt 1.16101 7.28549 1.88944 0.25994 5.46627
files/tasks_parameters/ExAp01/sample43.txt 1.13304 6.86804 2.00142 0.25616 5.38678
files/tasks_parameters/ExAp01/sample32.txt 1.25307 8.15663 2.12995 0.281726 5.92442
files/tasks_parameters/ExAp01/sample45.txt 1.2435 7.75184 2.10599 0.274935 5.7816
files/tasks_parameters/ExAp01/sample26.txt 1.186 7.4944 1.88956 0.267248 5.61995
files/tasks_parameters/ExAp01/sample5.txt 1.25784 8.08362 2.09961 0.28454 5.98359
files/tasks_parameters/ExAp01/sample21.txt 1.17018 6.11814 2.17119 0.26143 5.4976
files/tasks_parameters/ExAp01/sample38.txt 1.17251 7.761 1.96293 0.263659 5.54447
files/tasks_parameters/ExAp01/sample1.txt 1.27448 7.83752 2.13261 0.289228 6.08217
files/tasks_parameters/ExAp01/sample15.txt 1.26725 7.37971 2.12057 0.285825 6.01061
files/tasks_parameters/ExAp01/sample24.txt 1.30267 8.28531 2.25272 0.296628 6.23779
files/tasks_parameters/ExAp01/sample3.txt 1.34627 7.33359 2.39135 0.305084 6.41561
files/tasks_parameters/ExAp01/sample6.txt 1.23848 7.09894 2.24425 0.281804 5.92605
files/tasks_parameters/ExAp01/sample30.txt 1.32887 8.17669 2.03701 0.299204 6.29196
files/tasks_parameters/ExAp01/sample42.txt 1.3271 7.70416 2.42413 0.29743 6.25465
files/tasks_parameters/ExAp01/sample4.txt 1.37517 7.41691 2.36261 0.307803 6.47277
files/tasks_parameters/ExAp01/sample28.txt 1.17166 7.0562 2.07657 0.266428 5.60271
files/tasks_parameters/ExAp01/sample18.txt 1.2303 7.60139 2.1377 0.268016 5.6361
files/tasks_parameters/ExAp01/sample35.txt 1.42344 9.66795 2.28028 0.32244 6.78057
files/tasks_parameters/ExAp01/sample47.txt 1.12529 6.84842 2.12104 0.251655 5.29204
files/tasks_parameters/ExAp01/sample49.txt 1.12747 7.1497 2.11412 0.255889 5.38108
files/tasks_parameters/ExAp01/sample41.txt 1.17261 6.59911 2.07359 0.265885 5.59129
