0.390240576
Task0 63 7 7 
Task1 255 255 255 
Task2 7 63 3 
Task3 7 63 63 
Task4 127 15 15 
Task5 63 15 15 
Task6 31 31 7 
Task7 15 63 15 
Task8 63 15 63 
Task9 255 15 255 
Task10 7 63 7 
Task11 7 31 31 
Task12 15 1 63 
Task13 255 63 31 
Task14 3 63 1 
Task15 3 63 1 
Task16 31 127 63 
Task17 7 15 63 
Task18 1 1 63 
Task19 63 31 255 
Task20 63 7 63 
Task21 15 63 7 
Task22 1 63 31 
Task23 255 127 255 
Task24 255 7 31 
Task25 31 63 1 
Task26 7 15 63 
Task27 63 255 63 
Task28 15 63 15 
Task29 63 63 63 
Task30 63 255 63 
Task31 1 127 7 
Task32 31 63 15 
Task33 1 63 7 
Task34 63 7 15 
Task35 1 255 15 
Task36 127 7 1 
Task37 63 3 63 
Task38 63 1 7 
Task39 3 63 15 
Task40 63 127 63 
Task41 63 63 127 
Task42 63 15 31 
Task43 63 3 31 
Task44 7 63 15 
Task45 63 3 7 
Task46 7 63 127 
Task47 31 63 3 
Task48 63 255 255 
Task49 31 63 7 
Task50 31 255 255 
Task51 31 31 127 
Task52 31 15 31 
Task53 255 7 63 
Task54 127 127 255 
Task55 255 1 7 
Task56 1 15 31 
Task57 1 63 15 
Task58 3 63 1 
Task59 7 63 15 
Task60 3 1 63 
Task61 31 31 127 
Task62 63 255 31 
Task63 63 7 31 
Task64 3 63 31 
Task65 127 31 31 
Task66 63 7 7 
Task67 255 255 255 
Task68 127 63 255 
Task69 31 31 3 
Task70 7 3 63 
Task71 7 63 127 
Task72 31 127 63 
Task73 63 3 255 
Task74 1 63 7 
Task75 63 1 15 
Task76 7 63 7 
Task77 15 7 63 
Task78 15 255 255 
Task79 63 15 63 
Task80 255 127 127 
Task81 255 31 31 
Task82 63 7 15 
Task83 31 7 63 
Task84 7 63 7 
Task85 63 15 63 
Task86 3 7 63 
Task87 3 63 31 
Task88 1 31 31 
Task89 255 15 255 
Task90 255 1 15 
Task91 31 3 15 
Task92 255 3 255 
Task93 63 127 255 
Task94 3 1 63 
Task95 31 127 7 
Task96 15 15 127 
Task97 31 127 31 
Task98 7 63 15 
Task99 255 7 63 
