files/tasks_parameters/ExAp01/sample8.txt 0.789244 3.15778 1.5595 0.203411 3.9648
files/tasks_parameters/ExAp01/sample12.txt 0.806027 3.94962 1.6705 0.207924 4.05276
files/tasks_parameters/ExAp01/sample2.txt 0.769792 3.78275 1.74131 0.200098 3.90021
files/tasks_parameters/ExAp01/sample44.txt 0.685714 3.59825 1.65317 0.200005 3.89841
files/tasks_parameters/ExAp01/sample27.txt 0.714885 3.45743 1.5148 0.182129 3.54997
files/tasks_parameters/ExAp01/sample17.txt 0.748681 2.77299 1.44514 0.14646 2.85473
files/tasks_parameters/ExAp01/sample9.txt 0.727314 2.99933 1.451 0.177444 3.45865
files/tasks_parameters/ExAp01/sample34.txt 0.76404 3.02928 1.58429 0.157984 3.07935
files/tasks_parameters/ExAp01/sample40.txt 0.747968 3.86889 1.52122 0.168379 3.28198
files/tasks_parameters/ExAp01/sample33.txt 0.786432 3.63695 1.71905 0.199765 3.89373
files/tasks_parameters/ExAp01/sample48.txt 0.674472 3.39061 1.49062 0.154728 3.01589
files/tasks_parameters/ExAp01/sample29.txt 0.704418 3.30472 1.38739 0.223868 4.36354
files/tasks_parameters/ExAp01/sample11.txt 0.707448 3.10585 1.41612 0.174079 3.39306
files/tasks_parameters/ExAp01/sample14.txt 0.656477 2.70971 1.43432 0.162214 3.16181
files/tasks_parameters/ExAp01/sample0.txt 0.748147 3.6937 1.5439 0.18367 3.58001
files/tasks_parameters/ExAp01/sample7.txt 0.744368 2.70501 1.42221 0.143463 2.79632
files/tasks_parameters/ExAp01/sample23.txt 0.761502 3.2697 1.57822 0.181448 3.53671
files/tasks_parameters/ExAp01/sample13.txt 0.731742 3.84225 1.67648 0.198247 3.86414
files/tasks_parameters/ExAp01/sample22.txt 0.734345 3.09569 1.56121 0.148796 2.90027
files/tasks_parameters/ExAp01/sample25.txt 0.70837 2.73966 1.5007 0.148149 2.88765
files/tasks_parameters/ExAp01/sample36.txt 0.644919 2.85948 1.28553 0.130042 2.53473
files/tasks_parameters/ExAp01/sample46.txt 0.748889 3.58643 1.69998 0.210103 4.09523
files/tasks_parameters/ExAp01/sample31.txt 0.692891 3.4832 1.53782 0.1722 3.35644
files/tasks_parameters/ExAp01/sample37.txt 0.745348 3.95293 1.50705 0.171701 3.34672
files/tasks_parameters/ExAp01/sample16.txt 0.59187 3.31216 1.30115 0.150249 2.92859
files/tasks_parameters/ExAp01/sample10.txt 0.771832 3.17098 1.61789 0.153776 2.99734
files/tasks_parameters/ExAp01/sample39.txt 0.684991 3.26617 1.44406 0.165669 3.22914
files/tasks_parameters/ExAp01/sample19.txt 0.725161 3.63532 1.52509 0.196094 3.82218
files/tasks_parameters/ExAp01/sample20.txt 0.649082 3.20793 1.25367 0.147335 2.8718
files/tasks_parameters/ExAp01/sample43.txt 0.638672 3.11551 1.4202 0.150644 2.93629
files/tasks_parameters/ExAp01/sample32.txt 0.721554 3.5311 1.42482 0.168744 3.28909
files/tasks_parameters/ExAp01/sample45.txt 0.757337 3.80283 1.48324 0.19807 3.8607
files/tasks_parameters/ExAp01/sample26.txt 0.630821 3.21645 1.29701 0.166061 3.23679
files/tasks_parameters/ExAp01/sample5.txt 0.630891 3.5889 1.52559 0.178903 3.4871
files/tasks_parameters/ExAp01/sample21.txt 0.662223 2.75242 1.55936 0.19512 3.8032
files/tasks_parameters/ExAp01/sample38.txt 0.643838 3.31563 1.37515 0.166157 3.23865
files/tasks_parameters/ExAp01/sample1.txt 0.7254 3.74964 1.51696 0.19701 3.84002
files/tasks_parameters/ExAp01/sample15.txt 0.693575 3.32916 1.48508 0.180707 3.52227
files/tasks_parameters/ExAp01/sample24.txt 0.780358 3.45951 1.59549 0.16529 3.22177
files/tasks_parameters/ExAp01/sample3.txt 0.897203 3.70014 1.70809 0.237107 4.62158
files/tasks_parameters/ExAp01/sample6.txt 0.709716 3.33003 1.58323 0.184714 3.60037
files/tasks_parameters/ExAp01/sample30.txt 0.781507 4.1841 1.4861 0.239623 4.67063
files/tasks_parameters/ExAp01/sample42.txt 0.745593 3.43221 1.70276 0.177383 3.45747
files/tasks_parameters/ExAp01/sample4.txt 0.768474 3.72477 1.6136 0.196448 3.82908
files/tasks_parameters/ExAp01/sample28.txt 0.685445 3.11323 1.45032 0.158819 3.09563
files/tasks_parameters/ExAp01/sample18.txt 0.72604 3.47418 1.45209 0.149064 2.90549
files/tasks_parameters/ExAp01/sample35.txt 0.774543 4.57086 1.49394 0.185031 3.60654
files/tasks_parameters/ExAp01/sample47.txt 0.701477 3.13768 1.52397 0.16417 3.19993
files/tasks_parameters/ExAp01/sample49.txt 0.736707 3.13288 1.49657 0.156154 3.04369
files/tasks_parameters/ExAp01/sample41.txt 0.761441 2.81964 1.49636 0.150876 2.94081
