files/tasks_parameters/ExAp01/sample8.txt 2.32342 6.77015 2.19458 0.288816 4.96875
files/tasks_parameters/ExAp01/sample12.txt 2.72603 9.58351 2.46081 0.337498 5.80626
files/tasks_parameters/ExAp01/sample2.txt 2.53114 8.44418 2.50701 0.319127 5.49021
files/tasks_parameters/ExAp01/sample44.txt 2.29073 6.96299 2.23089 0.28229 4.85647
files/tasks_parameters/ExAp01/sample27.txt 2.28688 7.74306 2.16676 0.28602 4.92063
files/tasks_parameters/ExAp01/sample17.txt 2.35698 7.35053 2.25579 0.292348 5.0295
files/tasks_parameters/ExAp01/sample9.txt 2.28498 6.89392 2.21068 0.282399 4.85834
files/tasks_parameters/ExAp01/sample34.txt 2.44492 6.62788 2.3772 0.297742 5.1223
files/tasks_parameters/ExAp01/sample40.txt 2.29195 7.75686 2.17534 0.285619 4.91374
files/tasks_parameters/ExAp01/sample33.txt 2.68831 8.14826 2.6463 0.338073 5.81615
files/tasks_parameters/ExAp01/sample48.txt 2.19149 7.64107 2.14272 0.270011 4.64522
files/tasks_parameters/ExAp01/sample29.txt 2.22891 7.139 1.93769 0.286306 4.92555
files/tasks_parameters/ExAp01/sample11.txt 2.2421 6.88688 2.12981 0.280008 4.81722
files/tasks_parameters/ExAp01/sample14.txt 1.99312 6.11983 1.97599 0.247458 4.25722
files/tasks_parameters/ExAp01/sample0.txt 2.30789 8.2738 2.14256 0.289132 4.97417
files/tasks_parameters/ExAp01/sample7.txt 2.14071 6.87011 2.05821 0.269886 4.64306
files/tasks_parameters/ExAp01/sample23.txt 2.34838 6.52032 2.38087 0.291712 5.01855
files/tasks_parameters/ExAp01/sample13.txt 2.37971 8.73247 2.33415 0.295393 5.08188
files/tasks_parameters/ExAp01/sample22.txt 2.2881 6.9777 2.28948 0.283979 4.88553
files/tasks_parameters/ExAp01/sample25.txt 2.17836 6.23444 2.2122 0.267298 4.59854
files/tasks_parameters/ExAp01/sample36.txt 2.06117 6.6174 1.9458 0.253823 4.36672
files/tasks_parameters/ExAp01/sample46.txt 2.66648 7.42369 2.49128 0.327273 5.63034
files/tasks_parameters/ExAp01/sample31.txt 2.01139 7.22028 2.13584 0.25377 4.36581
files/tasks_parameters/ExAp01/sample37.txt 2.42012 8.90704 2.16981 0.295708 5.08731
files/tasks_parameters/ExAp01/sample16.txt 2.00781 8.18243 1.88294 0.24945 4.29149
files/tasks_parameters/ExAp01/sample10.txt 2.30153 6.96646 2.31217 0.285748 4.91596
files/tasks_parameters/ExAp01/sample39.txt 2.05997 6.4161 1.97266 0.251967 4.33479
files/tasks_parameters/ExAp01/sample19.txt 2.48793 8.16711 2.23199 0.308463 5.30674
files/tasks_parameters/ExAp01/sample20.txt 2.09363 7.28549 1.88944 0.25994 4.47196
files/tasks_parameters/ExAp01/sample43.txt 2.04917 6.86804 2.00142 0.25616 4.40693
files/tasks_parameters/ExAp01/sample32.txt 2.3046 8.15663 2.12995 0.281726 4.84677
files/tasks_parameters/ExAp01/sample45.txt 2.21757 7.75184 2.10599 0.274935 4.72993
files/tasks_parameters/ExAp01/sample26.txt 2.17834 7.4944 1.88956 0.267248 4.59769
files/tasks_parameters/ExAp01/sample5.txt 2.2859 8.08362 2.09961 0.28454 4.89518
files/tasks_parameters/ExAp01/sample21.txt 2.11706 6.11814 2.17119 0.26143 4.49759
files/tasks_parameters/ExAp01/sample38.txt 2.12278 7.761 1.96293 0.263659 4.53594
files/tasks_parameters/ExAp01/sample1.txt 2.29471 7.83752 2.13261 0.289228 4.97583
files/tasks_parameters/ExAp01/sample15.txt 2.30263 7.37971 2.12057 0.285825 4.91729
files/tasks_parameters/ExAp01/sample24.txt 2.39447 8.28531 2.25272 0.296628 5.10314
files/tasks_parameters/ExAp01/sample3.txt 2.44754 7.33359 2.39135 0.305084 5.24862
files/tasks_parameters/ExAp01/sample6.txt 2.28733 7.09894 2.24425 0.281804 4.84811
files/tasks_parameters/ExAp01/sample30.txt 2.37325 8.17669 2.03701 0.299204 5.14746
files/tasks_parameters/ExAp01/sample42.txt 2.39602 7.70416 2.42413 0.29743 5.11693
files/tasks_parameters/ExAp01/sample4.txt 2.4343 7.41691 2.36261 0.307803 5.29538
files/tasks_parameters/ExAp01/sample28.txt 2.14784 7.0562 2.07657 0.266428 4.58358
files/tasks_parameters/ExAp01/sample18.txt 2.19107 7.60139 2.1377 0.268016 4.6109
files/tasks_parameters/ExAp01/sample35.txt 2.58993 9.66795 2.28028 0.32244 5.54719
files/tasks_parameters/ExAp01/sample47.txt 2.00731 6.84842 2.12104 0.251655 4.32942
files/tasks_parameters/ExAp01/sample49.txt 2.08054 7.1497 2.11412 0.255889 4.40227
files/tasks_parameters/ExAp01/sample41.txt 2.15767 6.59911 2.07359 0.265885 4.57424
