files/tasks_parameters/ExAp01/sample8.txt 0.759443 3.15778 1.5595 0.203411 8.24142
files/tasks_parameters/ExAp01/sample12.txt 0.830862 3.94962 1.6705 0.207924 8.42425
files/tasks_parameters/ExAp01/sample2.txt 0.793312 3.78275 1.74131 0.200098 8.10717
files/tasks_parameters/ExAp01/sample44.txt 0.765254 3.59825 1.65317 0.200005 8.10342
files/tasks_parameters/ExAp01/sample27.txt 0.721049 3.45743 1.5148 0.182129 7.37913
files/tasks_parameters/ExAp01/sample17.txt 0.600248 2.77299 1.44514 0.14646 5.93397
files/tasks_parameters/ExAp01/sample9.txt 0.691541 2.99933 1.451 0.177444 7.18931
files/tasks_parameters/ExAp01/sample34.txt 0.632686 3.02928 1.58429 0.157984 6.40088
files/tasks_parameters/ExAp01/sample40.txt 0.682699 3.86889 1.52122 0.168379 6.82207
files/tasks_parameters/ExAp01/sample33.txt 0.772295 3.63695 1.71905 0.199765 8.09369
files/tasks_parameters/ExAp01/sample48.txt 0.622277 3.39061 1.49062 0.154728 6.26898
files/tasks_parameters/ExAp01/sample29.txt 0.832332 3.30472 1.38739 0.223868 9.07026
files/tasks_parameters/ExAp01/sample11.txt 0.667138 3.10585 1.41612 0.174079 7.05298
files/tasks_parameters/ExAp01/sample14.txt 0.617737 2.70971 1.43432 0.162214 6.57229
files/tasks_parameters/ExAp01/sample0.txt 0.744185 3.6937 1.5439 0.18367 7.44158
files/tasks_parameters/ExAp01/sample7.txt 0.597164 2.70501 1.42221 0.143463 5.81257
files/tasks_parameters/ExAp01/sample23.txt 0.726799 3.2697 1.57822 0.181448 7.35158
files/tasks_parameters/ExAp01/sample13.txt 0.775929 3.84225 1.67648 0.198247 8.03219
files/tasks_parameters/ExAp01/sample22.txt 0.608241 3.09569 1.56121 0.148796 6.02863
files/tasks_parameters/ExAp01/sample25.txt 0.548255 2.73966 1.5007 0.148149 6.0024
files/tasks_parameters/ExAp01/sample36.txt 0.54273 2.85948 1.28553 0.130042 5.2688
files/tasks_parameters/ExAp01/sample46.txt 0.778341 3.58643 1.69998 0.210103 8.51254
files/tasks_parameters/ExAp01/sample31.txt 0.720738 3.4832 1.53782 0.1722 6.97686
files/tasks_parameters/ExAp01/sample37.txt 0.706368 3.95293 1.50705 0.171701 6.95665
files/tasks_parameters/ExAp01/sample16.txt 0.633293 3.31216 1.30115 0.150249 6.0875
files/tasks_parameters/ExAp01/sample10.txt 0.647725 3.17098 1.61789 0.153776 6.23041
files/tasks_parameters/ExAp01/sample39.txt 0.650646 3.26617 1.44406 0.165669 6.71224
files/tasks_parameters/ExAp01/sample19.txt 0.787866 3.63532 1.52509 0.196094 7.94497
files/tasks_parameters/ExAp01/sample20.txt 0.583757 3.20793 1.25367 0.147335 5.96945
files/tasks_parameters/ExAp01/sample43.txt 0.603593 3.11551 1.4202 0.150644 6.10352
files/tasks_parameters/ExAp01/sample32.txt 0.707108 3.5311 1.42482 0.168744 6.83685
files/tasks_parameters/ExAp01/sample45.txt 0.793261 3.80283 1.48324 0.19807 8.02503
files/tasks_parameters/ExAp01/sample26.txt 0.639562 3.21645 1.29701 0.166061 6.72815
files/tasks_parameters/ExAp01/sample5.txt 0.698814 3.5889 1.52559 0.178903 7.24846
files/tasks_parameters/ExAp01/sample21.txt 0.751738 2.75242 1.55936 0.19512 7.90551
files/tasks_parameters/ExAp01/sample38.txt 0.648635 3.31563 1.37515 0.166157 6.73202
files/tasks_parameters/ExAp01/sample1.txt 0.763892 3.74964 1.51696 0.19701 7.98205
files/tasks_parameters/ExAp01/sample15.txt 0.701885 3.32916 1.48508 0.180707 7.32155
files/tasks_parameters/ExAp01/sample24.txt 0.672659 3.45951 1.59549 0.16529 6.69692
files/tasks_parameters/ExAp01/sample3.txt 0.927316 3.70014 1.70809 0.237107 9.60664
files/tasks_parameters/ExAp01/sample6.txt 0.695656 3.33003 1.58323 0.184714 7.4839
files/tasks_parameters/ExAp01/sample30.txt 0.956321 4.1841 1.4861 0.239623 9.70858
files/tasks_parameters/ExAp01/sample42.txt 0.692006 3.43221 1.70276 0.177383 7.18685
files/tasks_parameters/ExAp01/sample4.txt 0.802663 3.72477 1.6136 0.196448 7.9593
files/tasks_parameters/ExAp01/sample28.txt 0.625908 3.11323 1.45032 0.158819 6.43472
files/tasks_parameters/ExAp01/sample18.txt 0.616152 3.47418 1.45209 0.149064 6.03948
files/tasks_parameters/ExAp01/sample35.txt 0.785483 4.57086 1.49394 0.185031 7.49671
files/tasks_parameters/ExAp01/sample47.txt 0.654891 3.13768 1.52397 0.16417 6.65153
files/tasks_parameters/ExAp01/sample49.txt 0.649198 3.13288 1.49657 0.156154 6.32675
files/tasks_parameters/ExAp01/sample41.txt 0.593817 2.81964 1.49636 0.150876 6.1129
