files/tasks_parameters/ExAp01/sample8.txt 0.714982 3.15778 1.5595 0.203411 4.01351
files/tasks_parameters/ExAp01/sample12.txt 0.790889 3.94962 1.6705 0.207924 4.10255
files/tasks_parameters/ExAp01/sample2.txt 0.742401 3.78275 1.74131 0.200098 3.94813
files/tasks_parameters/ExAp01/sample44.txt 0.719096 3.59825 1.65317 0.200005 3.94631
files/tasks_parameters/ExAp01/sample27.txt 0.680258 3.45743 1.5148 0.182129 3.59358
files/tasks_parameters/ExAp01/sample17.txt 0.556826 2.77299 1.44514 0.14646 2.8898
files/tasks_parameters/ExAp01/sample9.txt 0.647288 2.99933 1.451 0.177444 3.50114
files/tasks_parameters/ExAp01/sample34.txt 0.591239 3.02928 1.58429 0.157984 3.11718
files/tasks_parameters/ExAp01/sample40.txt 0.642425 3.86889 1.52122 0.168379 3.3223
files/tasks_parameters/ExAp01/sample33.txt 0.735147 3.63695 1.71905 0.199765 3.94157
files/tasks_parameters/ExAp01/sample48.txt 0.591641 3.39061 1.49062 0.154728 3.05295
files/tasks_parameters/ExAp01/sample29.txt 0.789629 3.30472 1.38739 0.223868 4.41715
files/tasks_parameters/ExAp01/sample11.txt 0.637316 3.10585 1.41612 0.174079 3.43475
files/tasks_parameters/ExAp01/sample14.txt 0.583814 2.70971 1.43432 0.162214 3.20066
files/tasks_parameters/ExAp01/sample0.txt 0.697848 3.6937 1.5439 0.18367 3.62399
files/tasks_parameters/ExAp01/sample7.txt 0.562576 2.70501 1.42221 0.143463 2.83068
files/tasks_parameters/ExAp01/sample23.txt 0.670366 3.2697 1.57822 0.181448 3.58017
files/tasks_parameters/ExAp01/sample13.txt 0.727155 3.84225 1.67648 0.198247 3.91162
files/tasks_parameters/ExAp01/sample22.txt 0.584493 3.09569 1.56121 0.148796 2.9359
files/tasks_parameters/ExAp01/sample25.txt 0.525153 2.73966 1.5007 0.148149 2.92312
files/tasks_parameters/ExAp01/sample36.txt 0.502284 2.85948 1.28553 0.130042 2.56587
files/tasks_parameters/ExAp01/sample46.txt 0.742032 3.58643 1.69998 0.210103 4.14554
files/tasks_parameters/ExAp01/sample31.txt 0.67076 3.4832 1.53782 0.1722 3.39768
files/tasks_parameters/ExAp01/sample37.txt 0.671062 3.95293 1.50705 0.171701 3.38784
files/tasks_parameters/ExAp01/sample16.txt 0.616212 3.31216 1.30115 0.150249 2.96457
files/tasks_parameters/ExAp01/sample10.txt 0.639562 3.17098 1.61789 0.153776 3.03417
files/tasks_parameters/ExAp01/sample39.txt 0.635111 3.26617 1.44406 0.165669 3.26881
files/tasks_parameters/ExAp01/sample19.txt 0.74075 3.63532 1.52509 0.196094 3.86915
files/tasks_parameters/ExAp01/sample20.txt 0.548491 3.20793 1.25367 0.147335 2.90708
files/tasks_parameters/ExAp01/sample43.txt 0.582443 3.11551 1.4202 0.150644 2.97237
files/tasks_parameters/ExAp01/sample32.txt 0.673384 3.5311 1.42482 0.168744 3.3295
files/tasks_parameters/ExAp01/sample45.txt 0.764816 3.80283 1.48324 0.19807 3.90813
files/tasks_parameters/ExAp01/sample26.txt 0.603031 3.21645 1.29701 0.166061 3.27656
files/tasks_parameters/ExAp01/sample5.txt 0.65006 3.5889 1.52559 0.178903 3.52995
files/tasks_parameters/ExAp01/sample21.txt 0.706821 2.75242 1.55936 0.19512 3.84992
files/tasks_parameters/ExAp01/sample38.txt 0.636141 3.31563 1.37515 0.166157 3.27844
files/tasks_parameters/ExAp01/sample1.txt 0.722107 3.74964 1.51696 0.19701 3.8872
files/tasks_parameters/ExAp01/sample15.txt 0.658139 3.32916 1.48508 0.180707 3.56554
files/tasks_parameters/ExAp01/sample24.txt 0.627834 3.45951 1.59549 0.16529 3.26135
files/tasks_parameters/ExAp01/sample3.txt 0.869402 3.70014 1.70809 0.237107 4.67837
files/tasks_parameters/ExAp01/sample6.txt 0.654681 3.33003 1.58323 0.184714 3.64461
files/tasks_parameters/ExAp01/sample30.txt 0.894412 4.1841 1.4861 0.239623 4.72801
files/tasks_parameters/ExAp01/sample42.txt 0.648605 3.43221 1.70276 0.177383 3.49995
files/tasks_parameters/ExAp01/sample4.txt 0.761658 3.72477 1.6136 0.196448 3.87612
files/tasks_parameters/ExAp01/sample28.txt 0.599792 3.11323 1.45032 0.158819 3.13366
files/tasks_parameters/ExAp01/sample18.txt 0.587349 3.47418 1.45209 0.149064 2.94118
files/tasks_parameters/ExAp01/sample35.txt 0.730425 4.57086 1.49394 0.185031 3.65085
files/tasks_parameters/ExAp01/sample47.txt 0.624328 3.13768 1.52397 0.16417 3.23925
files/tasks_parameters/ExAp01/sample49.txt 0.610777 3.13288 1.49657 0.156154 3.08108
files/tasks_parameters/ExAp01/sample41.txt 0.566667 2.81964 1.49636 0.150876 2.97694
