files/tasks_parameters/ExAp01/sample8.txt 1.11869 7.2562 4.46819 0.454772 23.9959
files/tasks_parameters/ExAp01/sample12.txt 1.61976 9.70908 5.28286 0.618515 32.6357
files/tasks_parameters/ExAp01/sample2.txt 1.58247 8.14159 5.7401 0.620531 32.7421
files/tasks_parameters/ExAp01/sample44.txt 1.38208 7.25164 5.75904 0.557631 29.4232
files/tasks_parameters/ExAp01/sample27.txt 1.32056 8.10944 5.64946 0.564878 29.8056
files/tasks_parameters/ExAp01/sample17.txt 1.24692 7.11225 5.46658 0.527183 27.8166
files/tasks_parameters/ExAp01/sample9.txt 1.22286 7.62559 5.37813 0.517277 27.2939
files/tasks_parameters/ExAp01/sample34.txt 1.26878 7.04587 5.93037 0.497709 26.2614
files/tasks_parameters/ExAp01/sample40.txt 1.21355 8.03037 5.123 0.502383 26.508
files/tasks_parameters/ExAp01/sample33.txt 1.64793 9.22935 5.92956 0.659262 34.7857
files/tasks_parameters/ExAp01/sample48.txt 1.16575 8.12182 5.1577 0.452491 23.8755
files/tasks_parameters/ExAp01/sample29.txt 1.60395 8.06133 5.12331 0.650652 34.3314
files/tasks_parameters/ExAp01/sample11.txt 1.34485 7.63104 5.37897 0.563302 29.7224
files/tasks_parameters/ExAp01/sample14.txt 1.13066 6.66403 4.66322 0.471536 24.8804
files/tasks_parameters/ExAp01/sample0.txt 1.51409 9.3266 4.98971 0.6311 33.2997
files/tasks_parameters/ExAp01/sample7.txt 1.25906 7.34863 5.19436 0.515527 27.2016
files/tasks_parameters/ExAp01/sample23.txt 1.40203 6.68564 5.54308 0.588617 31.0582
files/tasks_parameters/ExAp01/sample13.txt 1.71102 9.31093 5.35591 0.632849 33.392
files/tasks_parameters/ExAp01/sample22.txt 1.32772 7.65588 5.04866 0.540336 28.5106
files/tasks_parameters/ExAp01/sample25.txt 1.10182 6.17035 5.0141 0.408296 21.5436
files/tasks_parameters/ExAp01/sample36.txt 1.21599 7.03772 4.66274 0.507647 26.7858
files/tasks_parameters/ExAp01/sample46.txt 1.36858 7.73433 4.79934 0.536843 28.3263
files/tasks_parameters/ExAp01/sample31.txt 1.25386 6.96928 5.16482 0.485817 25.634
files/tasks_parameters/ExAp01/sample37.txt 1.63814 9.52443 5.74224 0.65799 34.7186
files/tasks_parameters/ExAp01/sample16.txt 1.3673 8.63521 4.97261 0.516328 27.2438
files/tasks_parameters/ExAp01/sample10.txt 1.38553 7.28353 6.16876 0.615651 32.4846
files/tasks_parameters/ExAp01/sample39.txt 1.13898 6.3405 4.6137 0.468873 24.7399
files/tasks_parameters/ExAp01/sample19.txt 1.62945 8.85528 5.22306 0.622152 32.8276
files/tasks_parameters/ExAp01/sample20.txt 1.44882 8.1141 5.21177 0.586994 30.9725
files/tasks_parameters/ExAp01/sample43.txt 1.3255 7.21373 5.6367 0.53748 28.3599
files/tasks_parameters/ExAp01/sample32.txt 1.53937 8.30592 5.38137 0.593918 31.3379
files/tasks_parameters/ExAp01/sample45.txt 1.43293 7.94069 4.96323 0.547271 28.8765
files/tasks_parameters/ExAp01/sample26.txt 1.15038 7.57061 4.62637 0.480146 25.3347
files/tasks_parameters/ExAp01/sample5.txt 1.49349 8.0307 5.35681 0.59407 31.3459
files/tasks_parameters/ExAp01/sample21.txt 1.01841 5.87802 4.61744 0.434264 22.9138
files/tasks_parameters/ExAp01/sample38.txt 1.22671 7.66999 4.86632 0.496808 26.2139
files/tasks_parameters/ExAp01/sample1.txt 1.20021 7.21312 4.63213 0.486293 25.6591
files/tasks_parameters/ExAp01/sample15.txt 1.27078 8.02273 5.50855 0.531063 28.0213
files/tasks_parameters/ExAp01/sample24.txt 1.38815 8.66348 5.4905 0.548998 28.9677
files/tasks_parameters/ExAp01/sample3.txt 1.16781 7.74268 4.79918 0.477387 25.1891
files/tasks_parameters/ExAp01/sample6.txt 1.60317 8.57133 5.80157 0.633604 33.4319
files/tasks_parameters/ExAp01/sample30.txt 1.72381 8.18878 5.90888 0.633576 33.4304
files/tasks_parameters/ExAp01/sample42.txt 1.32485 8.57689 5.67253 0.54426 28.7177
files/tasks_parameters/ExAp01/sample4.txt 1.34532 8.40354 4.57985 0.563519 29.7339
files/tasks_parameters/ExAp01/sample28.txt 1.14249 6.44114 4.96426 0.449721 23.7294
files/tasks_parameters/ExAp01/sample18.txt 1.38054 8.56363 4.60946 0.543766 28.6916
files/tasks_parameters/ExAp01/sample35.txt 2.02259 11.0387 6.34514 0.761377 40.1738
files/tasks_parameters/ExAp01/sample47.txt 1.32248 7.14493 5.22131 0.545046 28.7591
files/tasks_parameters/ExAp01/sample49.txt 1.33291 6.65996 4.80244 0.498533 26.3049
files/tasks_parameters/ExAp01/sample41.txt 1.21619 7.09069 5.35462 0.497129 26.2308
