digraph G {
0 ->15 0 ->16 1 ->16 2 ->16 2 ->17 4 ->16 6 ->17 7 ->16 8 ->15 8 ->16 8 ->17 8 ->18 9 ->15 9 ->17 10 ->14 10 ->15 10 ->17 11 ->15 11 ->15 11 ->17 12 ->15 12 ->17 13 ->16 14 ->20 14 ->23 14 ->31 15 ->19 15 ->28 16 ->21 16 ->22 16 ->24 16 ->25 16 ->26 16 ->29 17 ->19 17 ->20 17 ->22 17 ->23 17 ->25 18 ->20 18 ->21 18 ->23 18 ->24 18 ->27 18 ->28 18 ->29 18 ->30 19 ->34 19 ->36 20 ->33 20 ->34 21 ->34 22 ->35 22 ->36 23 ->33 23 ->34 24 ->32 24 ->33 25 ->36 26 ->34 27 ->35 28 ->33 29 ->34 29 ->36 31 ->37 32 ->40 32 ->41 32 ->42 33 ->41 33 ->42 34 ->39 35 ->38 35 ->39 36 ->40 37 ->39 37 ->40 37 ->41 38 ->47 38 ->49 38 ->50 39 ->46 39 ->48 39 ->49 40 ->43 40 ->44 40 ->45 40 ->46 40 ->48 41 ->44 42 ->44 42 ->45 42 ->49 42 ->50 43 ->55 43 ->55 43 ->56 44 ->53 44 ->54 44 ->56 45 ->52 45 ->53 45 ->57 46 ->52 46 ->53 47 ->51 47 ->52 48 ->51 49 ->55 50 ->52 50 ->55 50 ->57 51 ->63 51 ->64 52 ->59 53 ->60 53 ->65 54 ->60 54 ->61 54 ->63 56 ->58 56 ->62 56 ->65 57 ->58 57 ->59 57 ->62 57 ->63 58 ->68 58 ->72 58 ->74 59 ->71 59 ->73 59 ->75 59 ->76 59 ->77 60 ->71 60 ->72 60 ->73 60 ->77 61 ->66 61 ->68 61 ->72 62 ->67 62 ->69 62 ->70 62 ->71 62 ->75 62 ->77 63 ->67 63 ->71 63 ->74 64 ->72 64 ->75 64 ->77 65 ->67 65 ->73 66 ->80 66 ->83 67 ->79 68 ->79 68 ->84 68 ->85 69 ->85 70 ->80 71 ->79 71 ->86 72 ->78 72 ->79 72 ->80 72 ->85 73 ->81 73 ->82 73 ->84 73 ->86 74 ->83 74 ->86 75 ->80 75 ->83 75 ->86 76 ->79 76 ->85 76 ->86 77 ->81 77 ->84 77 ->86 78 ->93 78 ->95 78 ->97 79 ->87 79 ->91 79 ->92 79 ->95 80 ->88 80 ->89 80 ->93 80 ->95 81 ->88 81 ->90 81 ->93 81 ->96 81 ->97 82 ->88 82 ->91 82 ->94 82 ->97 83 ->90 83 ->91 83 ->92 83 ->96 83 ->97 84 ->87 84 ->90 84 ->96 85 ->94 85 ->95 86 ->93 86 ->95 86 ->96 88 ->99 89 ->98 89 ->99 91 ->98 92 ->98 93 ->98 94 ->98 95 ->99 96 ->98 96 ->99 
}
