digraph G {
0 ->7 0 ->8 0 ->10 1 ->7 2 ->7 2 ->11 2 ->12 3 ->9 4 ->8 5 ->8 6 ->7 6 ->8 6 ->9 7 ->13 7 ->14 7 ->16 7 ->19 8 ->13 8 ->16 8 ->20 9 ->14 9 ->17 9 ->19 10 ->15 10 ->18 10 ->20 11 ->14 11 ->18 11 ->20 12 ->13 12 ->15 12 ->18 13 ->25 13 ->26 14 ->21 14 ->25 14 ->26 14 ->27 15 ->26 15 ->27 15 ->28 16 ->21 16 ->28 16 ->28 16 ->29 17 ->24 17 ->28 17 ->29 18 ->21 18 ->22 18 ->23 18 ->26 18 ->27 19 ->21 19 ->25 19 ->30 20 ->27 20 ->29 21 ->32 21 ->36 21 ->42 22 ->35 22 ->36 22 ->38 22 ->40 22 ->42 23 ->31 23 ->32 23 ->33 23 ->36 23 ->37 23 ->38 23 ->42 24 ->31 24 ->35 24 ->37 24 ->38 24 ->40 25 ->31 25 ->32 25 ->35 25 ->37 25 ->41 26 ->35 26 ->37 27 ->31 27 ->35 27 ->40 27 ->43 28 ->33 28 ->34 28 ->36 29 ->31 29 ->32 29 ->33 29 ->36 29 ->39 29 ->42 30 ->32 30 ->38 30 ->39 30 ->42 31 ->44 32 ->48 33 ->45 33 ->46 34 ->44 34 ->45 34 ->46 35 ->44 35 ->45 36 ->45 36 ->48 37 ->47 39 ->45 40 ->45 41 ->45 41 ->48 44 ->52 44 ->53 44 ->55 44 ->56 45 ->49 45 ->54 46 ->50 46 ->54 47 ->51 47 ->52 47 ->53 47 ->55 48 ->49 48 ->51 48 ->52 48 ->53 48 ->54 49 ->57 49 ->60 49 ->63 49 ->65 50 ->66 50 ->67 51 ->60 51 ->61 51 ->67 51 ->68 52 ->59 52 ->60 52 ->62 52 ->63 53 ->62 53 ->63 53 ->64 53 ->68 54 ->57 54 ->59 54 ->64 54 ->68 55 ->58 55 ->59 55 ->64 56 ->57 56 ->59 56 ->60 56 ->63 56 ->68 57 ->69 57 ->72 57 ->73 57 ->74 57 ->75 57 ->76 57 ->77 57 ->82 58 ->69 58 ->72 58 ->74 58 ->77 59 ->70 59 ->72 59 ->73 59 ->77 59 ->79 59 ->81 60 ->70 60 ->72 60 ->75 60 ->79 60 ->81 60 ->82 61 ->69 61 ->70 62 ->73 62 ->79 63 ->71 63 ->73 63 ->75 63 ->78 63 ->79 64 ->73 64 ->75 64 ->76 65 ->71 65 ->76 65 ->79 65 ->82 66 ->71 66 ->73 66 ->75 66 ->76 66 ->77 66 ->79 66 ->82 67 ->77 67 ->81 68 ->69 68 ->77 68 ->80 69 ->83 69 ->84 69 ->86 69 ->90 69 ->91 69 ->92 69 ->95 70 ->84 70 ->85 70 ->90 70 ->91 71 ->83 71 ->86 71 ->90 71 ->91 71 ->96 72 ->83 72 ->85 72 ->88 72 ->90 72 ->91 72 ->92 73 ->85 73 ->92 73 ->93 73 ->94 73 ->95 74 ->84 74 ->86 74 ->88 74 ->92 74 ->93 74 ->94 75 ->83 75 ->85 75 ->86 75 ->89 75 ->92 75 ->93 76 ->86 76 ->88 76 ->89 76 ->92 76 ->93 77 ->86 77 ->89 77 ->95 77 ->96 78 ->93 78 ->95 78 ->96 79 ->83 79 ->84 79 ->87 79 ->88 79 ->89 79 ->91 79 ->92 80 ->83 80 ->88 80 ->89 80 ->91 80 ->93 80 ->95 81 ->89 81 ->96 82 ->83 82 ->87 82 ->89 82 ->91 82 ->94 83 ->97 83 ->99 84 ->97 85 ->97 86 ->97 89 ->97 90 ->97 94 ->97 96 ->98 
}
