digraph G {
0 ->12 1 ->6 1 ->12 2 ->11 2 ->12 3 ->9 3 ->11 4 ->6 4 ->8 4 ->9 4 ->11 5 ->7 5 ->10 6 ->14 6 ->19 6 ->20 6 ->25 6 ->26 7 ->20 8 ->13 8 ->14 8 ->15 8 ->21 8 ->22 8 ->24 8 ->26 9 ->13 9 ->14 9 ->15 9 ->17 9 ->21 9 ->22 9 ->25 9 ->26 10 ->13 10 ->15 10 ->17 10 ->23 10 ->24 10 ->25 10 ->26 11 ->16 11 ->17 11 ->18 11 ->20 12 ->13 12 ->17 12 ->20 12 ->22 12 ->23 13 ->28 13 ->30 13 ->32 14 ->27 14 ->28 14 ->29 14 ->30 14 ->31 14 ->32 15 ->29 15 ->35 16 ->30 16 ->35 17 ->31 18 ->27 18 ->29 18 ->34 19 ->30 19 ->32 19 ->33 20 ->32 20 ->33 20 ->34 20 ->36 21 ->32 21 ->34 21 ->35 22 ->28 22 ->30 22 ->32 23 ->31 23 ->35 24 ->28 24 ->31 24 ->32 24 ->35 26 ->28 26 ->30 26 ->31 26 ->34 26 ->35 27 ->39 28 ->37 28 ->39 28 ->41 29 ->37 29 ->39 30 ->37 30 ->38 30 ->39 30 ->40 30 ->41 31 ->37 31 ->40 31 ->41 32 ->39 32 ->40 33 ->38 35 ->37 35 ->40 36 ->40 37 ->42 38 ->45 39 ->43 40 ->43 41 ->44 41 ->45 41 ->46 42 ->47 42 ->49 42 ->55 42 ->60 43 ->47 43 ->49 43 ->50 43 ->51 43 ->54 43 ->56 43 ->57 43 ->58 43 ->60 44 ->48 44 ->50 44 ->52 44 ->53 44 ->55 44 ->57 44 ->57 44 ->58 44 ->59 45 ->49 46 ->48 46 ->54 46 ->56 46 ->58 46 ->60 49 ->62 50 ->61 50 ->62 50 ->64 51 ->64 52 ->63 53 ->65 54 ->64 55 ->63 55 ->64 58 ->64 60 ->63 61 ->68 61 ->71 61 ->74 62 ->73 62 ->74 63 ->69 63 ->70 63 ->71 63 ->73 63 ->75 63 ->77 64 ->70 64 ->72 64 ->73 65 ->66 65 ->67 65 ->70 65 ->76 65 ->77 66 ->81 66 ->83 67 ->78 67 ->82 68 ->84 69 ->82 70 ->78 70 ->79 70 ->84 71 ->80 71 ->82 72 ->82 72 ->83 73 ->83 73 ->83 73 ->84 74 ->82 75 ->82 75 ->83 75 ->84 76 ->84 77 ->80 77 ->84 78 ->89 79 ->86 80 ->87 81 ->88 82 ->85 83 ->85 83 ->88 83 ->89 84 ->88 84 ->89 85 ->91 85 ->92 85 ->94 85 ->99 86 ->93 86 ->94 86 ->94 86 ->98 87 ->90 88 ->95 88 ->97 89 ->90 89 ->91 89 ->92 89 ->96 89 ->97 89 ->98 
}
