files/tasks_parameters/ExAp01/sample8.txt 1.08934 7.2562 4.46819 0.454772 10.224
files/tasks_parameters/ExAp01/sample12.txt 1.62853 9.70908 5.28286 0.618515 13.9053
files/tasks_parameters/ExAp01/sample2.txt 1.45337 8.14159 5.7401 0.620531 13.9506
files/tasks_parameters/ExAp01/sample44.txt 1.37778 7.25164 5.75904 0.557631 12.5365
files/tasks_parameters/ExAp01/sample27.txt 1.3183 8.10944 5.64946 0.564878 12.6994
files/tasks_parameters/ExAp01/sample17.txt 1.25113 7.11225 5.46658 0.527183 11.852
files/tasks_parameters/ExAp01/sample9.txt 1.19609 7.62559 5.37813 0.517277 11.6293
files/tasks_parameters/ExAp01/sample34.txt 1.2448 7.04587 5.93037 0.497709 11.1893
files/tasks_parameters/ExAp01/sample40.txt 1.201 8.03037 5.123 0.502383 11.2944
files/tasks_parameters/ExAp01/sample33.txt 1.61543 9.22935 5.92956 0.659262 14.8213
files/tasks_parameters/ExAp01/sample48.txt 1.15865 8.12182 5.1577 0.452491 10.1727
files/tasks_parameters/ExAp01/sample29.txt 1.52667 8.06133 5.12331 0.650652 14.6278
files/tasks_parameters/ExAp01/sample11.txt 1.35889 7.63104 5.37897 0.563302 12.664
files/tasks_parameters/ExAp01/sample14.txt 1.13168 6.66403 4.66322 0.471536 10.6009
files/tasks_parameters/ExAp01/sample0.txt 1.61705 9.3266 4.98971 0.6311 14.1882
files/tasks_parameters/ExAp01/sample7.txt 1.22945 7.34863 5.19436 0.515527 11.5899
files/tasks_parameters/ExAp01/sample23.txt 1.40203 6.68564 5.54308 0.588617 13.2331
files/tasks_parameters/ExAp01/sample13.txt 1.60594 9.31093 5.35591 0.632849 14.2275
files/tasks_parameters/ExAp01/sample22.txt 1.28633 7.65588 5.04866 0.540336 12.1477
files/tasks_parameters/ExAp01/sample25.txt 1.0295 6.17035 5.0141 0.408296 9.17918
files/tasks_parameters/ExAp01/sample36.txt 1.19007 7.03772 4.66274 0.507647 11.4128
files/tasks_parameters/ExAp01/sample46.txt 1.3517 7.73433 4.79934 0.536843 12.0691
files/tasks_parameters/ExAp01/sample31.txt 1.16998 6.96928 5.16482 0.485817 10.922
files/tasks_parameters/ExAp01/sample37.txt 1.59341 9.52443 5.74224 0.65799 14.7927
files/tasks_parameters/ExAp01/sample16.txt 1.34466 8.63521 4.97261 0.516328 11.6079
files/tasks_parameters/ExAp01/sample10.txt 1.39877 7.28353 6.16876 0.615651 13.8409
files/tasks_parameters/ExAp01/sample39.txt 1.14417 6.3405 4.6137 0.468873 10.5411
files/tasks_parameters/ExAp01/sample19.txt 1.40015 8.85528 5.22306 0.622152 13.987
files/tasks_parameters/ExAp01/sample20.txt 1.39217 8.1141 5.21177 0.586994 13.1966
files/tasks_parameters/ExAp01/sample43.txt 1.30722 7.21373 5.6367 0.53748 12.0834
files/tasks_parameters/ExAp01/sample32.txt 1.46551 8.30592 5.38137 0.593918 13.3523
files/tasks_parameters/ExAp01/sample45.txt 1.29545 7.94069 4.96323 0.547271 12.3036
files/tasks_parameters/ExAp01/sample26.txt 1.12345 7.57061 4.62637 0.480146 10.7945
files/tasks_parameters/ExAp01/sample5.txt 1.38077 8.0307 5.35681 0.59407 13.3557
files/tasks_parameters/ExAp01/sample21.txt 1.02755 5.87802 4.61744 0.434264 9.76299
files/tasks_parameters/ExAp01/sample38.txt 1.18304 7.66999 4.86632 0.496808 11.1691
files/tasks_parameters/ExAp01/sample1.txt 1.18286 7.21312 4.63213 0.486293 10.9327
files/tasks_parameters/ExAp01/sample15.txt 1.28125 8.02273 5.50855 0.531063 11.9392
files/tasks_parameters/ExAp01/sample24.txt 1.31392 8.66348 5.4905 0.548998 12.3424
files/tasks_parameters/ExAp01/sample3.txt 1.18752 7.74268 4.79918 0.477387 10.7325
files/tasks_parameters/ExAp01/sample6.txt 1.51709 8.57133 5.80157 0.633604 14.2445
files/tasks_parameters/ExAp01/sample30.txt 1.58071 8.18878 5.90888 0.633576 14.2439
files/tasks_parameters/ExAp01/sample42.txt 1.30528 8.57689 5.67253 0.54426 12.2359
files/tasks_parameters/ExAp01/sample4.txt 1.29652 8.40354 4.57985 0.563519 12.6689
files/tasks_parameters/ExAp01/sample28.txt 1.0572 6.44114 4.96426 0.449721 10.1105
files/tasks_parameters/ExAp01/sample18.txt 1.36648 8.56363 4.60946 0.543766 12.2248
files/tasks_parameters/ExAp01/sample35.txt 1.93766 11.0387 6.34514 0.761377 17.117
files/tasks_parameters/ExAp01/sample47.txt 1.32345 7.14493 5.22131 0.545046 12.2535
files/tasks_parameters/ExAp01/sample49.txt 1.29833 6.65996 4.80244 0.498533 11.2079
files/tasks_parameters/ExAp01/sample41.txt 1.18983 7.09069 5.35462 0.497129 11.1763
