files/tasks_parameters/ExAp01/sample8.txt 0.93729 3.15778 1.5595 0.203411 11.4056
files/tasks_parameters/ExAp01/sample12.txt 0.860208 3.94962 1.6705 0.207924 11.6586
files/tasks_parameters/ExAp01/sample2.txt 0.847441 3.78275 1.74131 0.200098 11.2198
files/tasks_parameters/ExAp01/sample44.txt 0.818513 3.59825 1.65317 0.200005 11.2146
files/tasks_parameters/ExAp01/sample27.txt 0.820484 3.45743 1.5148 0.182129 10.2122
files/tasks_parameters/ExAp01/sample17.txt 0.68878 2.77299 1.44514 0.14646 8.21221
files/tasks_parameters/ExAp01/sample9.txt 0.732735 2.99933 1.451 0.177444 9.94951
files/tasks_parameters/ExAp01/sample34.txt 0.675695 3.02928 1.58429 0.157984 8.85837
files/tasks_parameters/ExAp01/sample40.txt 0.751769 3.86889 1.52122 0.168379 9.44127
files/tasks_parameters/ExAp01/sample33.txt 0.935009 3.63695 1.71905 0.199765 11.2011
files/tasks_parameters/ExAp01/sample48.txt 0.692752 3.39061 1.49062 0.154728 8.67583
files/tasks_parameters/ExAp01/sample29.txt 0.827139 3.30472 1.38739 0.223868 12.5526
files/tasks_parameters/ExAp01/sample11.txt 0.810998 3.10585 1.41612 0.174079 9.76084
files/tasks_parameters/ExAp01/sample14.txt 0.65815 2.70971 1.43432 0.162214 9.09559
files/tasks_parameters/ExAp01/sample0.txt 0.789078 3.6937 1.5439 0.18367 10.2986
files/tasks_parameters/ExAp01/sample7.txt 0.687312 2.70501 1.42221 0.143463 8.0442
files/tasks_parameters/ExAp01/sample23.txt 0.72441 3.2697 1.57822 0.181448 10.1741
files/tasks_parameters/ExAp01/sample13.txt 0.855035 3.84225 1.67648 0.198247 11.116
files/tasks_parameters/ExAp01/sample22.txt 0.620964 3.09569 1.56121 0.148796 8.34321
files/tasks_parameters/ExAp01/sample25.txt 0.602688 2.73966 1.5007 0.148149 8.3069
files/tasks_parameters/ExAp01/sample36.txt 0.545554 2.85948 1.28553 0.130042 7.29166
files/tasks_parameters/ExAp01/sample46.txt 0.887576 3.58643 1.69998 0.210103 11.7808
files/tasks_parameters/ExAp01/sample31.txt 0.747013 3.4832 1.53782 0.1722 9.65549
files/tasks_parameters/ExAp01/sample37.txt 0.737725 3.95293 1.50705 0.171701 9.62752
files/tasks_parameters/ExAp01/sample16.txt 0.691803 3.31216 1.30115 0.150249 8.42467
files/tasks_parameters/ExAp01/sample10.txt 0.767129 3.17098 1.61789 0.153776 8.62246
files/tasks_parameters/ExAp01/sample39.txt 0.728068 3.26617 1.44406 0.165669 9.28928
files/tasks_parameters/ExAp01/sample19.txt 0.879473 3.63532 1.52509 0.196094 10.9953
files/tasks_parameters/ExAp01/sample20.txt 0.634262 3.20793 1.25367 0.147335 8.26131
files/tasks_parameters/ExAp01/sample43.txt 0.693319 3.11551 1.4202 0.150644 8.44685
files/tasks_parameters/ExAp01/sample32.txt 0.690981 3.5311 1.42482 0.168744 9.46173
files/tasks_parameters/ExAp01/sample45.txt 0.906424 3.80283 1.48324 0.19807 11.1061
files/tasks_parameters/ExAp01/sample26.txt 0.698012 3.21645 1.29701 0.166061 9.31129
files/tasks_parameters/ExAp01/sample5.txt 0.804349 3.5889 1.52559 0.178903 10.0314
files/tasks_parameters/ExAp01/sample21.txt 0.804717 2.75242 1.55936 0.19512 10.9407
files/tasks_parameters/ExAp01/sample38.txt 0.696198 3.31563 1.37515 0.166157 9.31665
files/tasks_parameters/ExAp01/sample1.txt 0.885912 3.74964 1.51696 0.19701 11.0466
files/tasks_parameters/ExAp01/sample15.txt 0.763882 3.32916 1.48508 0.180707 10.1325
files/tasks_parameters/ExAp01/sample24.txt 0.751986 3.45951 1.59549 0.16529 9.26807
files/tasks_parameters/ExAp01/sample3.txt 1.04276 3.70014 1.70809 0.237107 13.2949
files/tasks_parameters/ExAp01/sample6.txt 0.801357 3.33003 1.58323 0.184714 10.3572
files/tasks_parameters/ExAp01/sample30.txt 0.911024 4.1841 1.4861 0.239623 13.436
files/tasks_parameters/ExAp01/sample42.txt 0.775151 3.43221 1.70276 0.177383 9.94611
files/tasks_parameters/ExAp01/sample4.txt 0.853376 3.72477 1.6136 0.196448 11.0151
files/tasks_parameters/ExAp01/sample28.txt 0.651929 3.11323 1.45032 0.158819 8.90521
files/tasks_parameters/ExAp01/sample18.txt 0.7112 3.47418 1.45209 0.149064 8.35822
files/tasks_parameters/ExAp01/sample35.txt 0.779681 4.57086 1.49394 0.185031 10.3749
files/tasks_parameters/ExAp01/sample47.txt 0.701987 3.13768 1.52397 0.16417 9.20525
files/tasks_parameters/ExAp01/sample49.txt 0.66719 3.13288 1.49657 0.156154 8.75578
files/tasks_parameters/ExAp01/sample41.txt 0.674495 2.81964 1.49636 0.150876 8.45983
