files/tasks_parameters/ExAp01/sample8.txt 1.25198 6.77015 2.19458 0.288816 5.36992
files/tasks_parameters/ExAp01/sample12.txt 1.4635 9.58351 2.46081 0.337498 6.27506
files/tasks_parameters/ExAp01/sample2.txt 1.34807 8.44418 2.50701 0.319127 5.93348
files/tasks_parameters/ExAp01/sample44.txt 1.21851 6.96299 2.23089 0.28229 5.24858
files/tasks_parameters/ExAp01/sample27.txt 1.23138 7.74306 2.16676 0.28602 5.31792
files/tasks_parameters/ExAp01/sample17.txt 1.26858 7.35053 2.25579 0.292348 5.43557
files/tasks_parameters/ExAp01/sample9.txt 1.20415 6.89392 2.21068 0.282399 5.2506
files/tasks_parameters/ExAp01/sample34.txt 1.27488 6.62788 2.3772 0.297742 5.53586
files/tasks_parameters/ExAp01/sample40.txt 1.22286 7.75686 2.17534 0.285619 5.31047
files/tasks_parameters/ExAp01/sample33.txt 1.44398 8.14826 2.6463 0.338073 6.28574
files/tasks_parameters/ExAp01/sample48.txt 1.16467 7.64107 2.14272 0.270011 5.02027
files/tasks_parameters/ExAp01/sample29.txt 1.22056 7.139 1.93769 0.286306 5.32324
files/tasks_parameters/ExAp01/sample11.txt 1.19151 6.88688 2.12981 0.280008 5.20615
files/tasks_parameters/ExAp01/sample14.txt 1.06027 6.11983 1.97599 0.247458 4.60094
files/tasks_parameters/ExAp01/sample0.txt 1.26522 8.2738 2.14256 0.289132 5.37578
files/tasks_parameters/ExAp01/sample7.txt 1.16801 6.87011 2.05821 0.269886 5.01794
files/tasks_parameters/ExAp01/sample23.txt 1.24146 6.52032 2.38087 0.291712 5.42375
files/tasks_parameters/ExAp01/sample13.txt 1.28491 8.73247 2.33415 0.295393 5.49219
files/tasks_parameters/ExAp01/sample22.txt 1.23984 6.9777 2.28948 0.283979 5.27998
files/tasks_parameters/ExAp01/sample25.txt 1.14119 6.23444 2.2122 0.267298 4.96982
files/tasks_parameters/ExAp01/sample36.txt 1.11022 6.6174 1.9458 0.253823 4.71928
files/tasks_parameters/ExAp01/sample46.txt 1.3968 7.42369 2.49128 0.327273 6.08493
files/tasks_parameters/ExAp01/sample31.txt 1.0859 7.22028 2.13584 0.25377 4.7183
files/tasks_parameters/ExAp01/sample37.txt 1.29391 8.90704 2.16981 0.295708 5.49805
files/tasks_parameters/ExAp01/sample16.txt 1.09445 8.18243 1.88294 0.24945 4.63798
files/tasks_parameters/ExAp01/sample10.txt 1.23445 6.96646 2.31217 0.285748 5.31287
files/tasks_parameters/ExAp01/sample39.txt 1.08017 6.4161 1.97266 0.251967 4.68478
files/tasks_parameters/ExAp01/sample19.txt 1.34846 8.16711 2.23199 0.308463 5.7352
files/tasks_parameters/ExAp01/sample20.txt 1.11157 7.28549 1.88944 0.25994 4.83302
files/tasks_parameters/ExAp01/sample43.txt 1.107 6.86804 2.00142 0.25616 4.76275
files/tasks_parameters/ExAp01/sample32.txt 1.21093 8.15663 2.12995 0.281726 5.23809
files/tasks_parameters/ExAp01/sample45.txt 1.20098 7.75184 2.10599 0.274935 5.11182
files/tasks_parameters/ExAp01/sample26.txt 1.13399 7.4944 1.88956 0.267248 4.9689
files/tasks_parameters/ExAp01/sample5.txt 1.21572 8.08362 2.09961 0.28454 5.29041
files/tasks_parameters/ExAp01/sample21.txt 1.11374 6.11814 2.17119 0.26143 4.86072
files/tasks_parameters/ExAp01/sample38.txt 1.12719 7.761 1.96293 0.263659 4.90217
files/tasks_parameters/ExAp01/sample1.txt 1.24961 7.83752 2.13261 0.289228 5.37757
files/tasks_parameters/ExAp01/sample15.txt 1.2342 7.37971 2.12057 0.285825 5.31431
files/tasks_parameters/ExAp01/sample24.txt 1.27386 8.28531 2.25272 0.296628 5.51517
files/tasks_parameters/ExAp01/sample3.txt 1.30527 7.33359 2.39135 0.305084 5.67239
files/tasks_parameters/ExAp01/sample6.txt 1.21198 7.09894 2.24425 0.281804 5.23954
files/tasks_parameters/ExAp01/sample30.txt 1.33388 8.17669 2.03701 0.299204 5.56306
files/tasks_parameters/ExAp01/sample42.txt 1.26709 7.70416 2.42413 0.29743 5.53007
files/tasks_parameters/ExAp01/sample4.txt 1.33702 7.41691 2.36261 0.307803 5.72293
files/tasks_parameters/ExAp01/sample28.txt 1.14261 7.0562 2.07657 0.266428 4.95365
files/tasks_parameters/ExAp01/sample18.txt 1.14788 7.60139 2.1377 0.268016 4.98318
files/tasks_parameters/ExAp01/sample35.txt 1.39043 9.66795 2.28028 0.32244 5.99507
files/tasks_parameters/ExAp01/sample47.txt 1.09138 6.84842 2.12104 0.251655 4.67898
files/tasks_parameters/ExAp01/sample49.txt 1.09586 7.1497 2.11412 0.255889 4.7577
files/tasks_parameters/ExAp01/sample41.txt 1.1261 6.59911 2.07359 0.265885 4.94356
