0 13
0 24
1 14
1 17
1 20
2 13
2 15
2 17
2 20
2 22
2 23
3 12
3 15
3 18
3 20
3 22
3 25
4 13
4 22
5 18
5 21
6 12
6 13
6 21
7 15
7 19
8 13
8 15
8 16
9 15
9 16
9 20
9 22
9 25
10 18
10 20
10 21
10 24
11 17
11 20
12 34
13 26
13 33
14 34
15 28
15 30
15 34
16 28
16 29
16 33
16 34
17 27
17 28
17 34
18 28
18 28
18 32
19 29
20 31
21 27
21 28
21 34
22 27
22 32
22 33
22 34
23 27
24 28
24 32
25 33
26 35
26 37
26 41
27 35
27 38
27 41
28 36
28 39
28 40
28 41
29 36
29 39
29 40
29 41
30 35
30 36
30 41
31 36
32 37
33 35
33 40
34 35
35 43
35 45
36 42
36 43
36 45
36 46
37 46
38 43
39 42
39 46
41 44
41 46
42 47
42 51
42 52
42 53
42 54
42 55
42 56
42 59
43 49
43 50
43 51
43 57
43 58
43 59
43 60
44 52
44 54
44 57
45 54
45 55
46 47
46 48
46 51
46 52
46 53
46 60
48 63
49 63
50 61
50 63
50 65
51 61
52 61
53 63
54 61
54 64
55 66
56 65
57 62
57 65
58 63
59 61
60 64
61 69
63 68
64 67
64 72
64 73
65 71
65 72
66 67
66 68
66 70
66 71
66 72
67 80
67 82
67 83
67 86
68 74
68 80
68 82
68 83
68 86
69 74
69 75
69 76
69 78
69 80
69 84
70 81
70 85
71 74
71 77
71 79
71 81
71 86
72 74
72 75
72 76
72 81
72 83
72 85
73 75
73 76
73 76
73 77
73 83
74 90
74 97
75 87
75 93
75 98
76 88
76 90
76 93
76 98
76 99
77 88
77 90
77 91
77 92
78 91
78 96
79 98
80 88
80 89
80 91
80 94
80 98
81 87
81 88
81 89
81 90
81 94
81 95
81 98
82 89
82 91
82 93
82 96
82 98
83 87
83 89
83 91
83 92
83 94
83 95
84 87
84 89
84 91
86 88
86 91
86 94
86 97
