0 13
0 15
0 18
1 14
1 19
1 20
2 14
2 16
2 19
3 14
5 17
5 19
5 20
5 21
6 14
6 15
6 22
7 14
7 16
7 19
7 22
8 14
8 18
8 20
9 13
9 18
9 19
9 22
10 13
10 15
10 18
10 22
11 12
11 13
12 23
12 25
12 26
12 27
12 28
12 32
13 27
13 28
13 31
14 23
14 27
14 31
15 26
15 29
15 31
15 33
16 27
16 29
16 30
16 31
16 33
17 23
17 25
17 26
17 27
17 32
17 34
18 26
18 28
18 30
18 32
18 34
19 23
19 28
19 32
20 28
20 32
21 23
21 24
21 25
21 27
21 28
21 31
21 34
22 23
22 25
22 25
22 26
22 29
23 35
23 36
24 35
24 42
25 38
26 36
26 37
26 39
26 43
27 36
27 43
28 38
29 37
29 38
29 40
29 41
29 42
30 36
30 38
30 39
30 41
31 39
31 40
32 35
32 41
33 36
33 41
33 43
34 36
34 43
35 44
35 46
35 52
35 54
36 45
36 50
36 51
36 56
36 57
37 45
37 46
37 50
37 51
37 55
38 46
38 50
38 51
38 52
38 55
38 56
39 48
39 49
39 53
39 54
40 44
40 46
40 47
40 48
40 54
40 55
40 56
41 44
41 48
41 54
41 55
41 57
43 46
43 49
43 56
43 57
44 59
44 61
44 64
46 61
46 62
46 64
47 58
47 60
47 64
48 61
48 62
48 64
51 58
51 60
52 59
52 62
52 64
55 59
55 60
55 63
56 60
56 61
56 62
57 59
57 60
57 61
57 62
58 67
58 68
58 70
58 71
58 73
58 74
58 76
59 66
59 70
59 70
59 72
59 73
59 75
59 78
60 69
60 71
60 72
60 78
61 65
61 66
61 69
61 71
62 65
62 75
63 66
63 69
63 73
63 77
64 68
64 71
64 75
64 77
64 78
65 82
65 84
66 79
66 84
66 85
66 88
67 79
67 81
68 81
68 82
68 86
69 84
69 87
70 87
71 79
71 80
71 83
72 82
72 85
73 80
73 82
73 85
74 79
74 80
74 85
74 86
75 80
75 86
76 80
76 82
76 85
76 88
77 79
77 80
77 81
77 82
77 84
78 79
78 82
78 84
79 93
79 96
79 97
80 93
80 95
81 92
81 95
82 97
83 94
83 95
83 96
84 89
84 90
84 92
84 96
85 91
85 92
85 94
85 97
86 89
86 93
86 95
86 97
86 98
87 89
87 90
87 94
88 92
88 98
89 99
90 99
94 99
