files/tasks_parameters/ExAp01/sample8.txt 1.08222 3.76817 4.3855 0.450105 29.6372
files/tasks_parameters/ExAp01/sample12.txt 1.59629 5.03638 5.18776 0.610564 40.2026
files/tasks_parameters/ExAp01/sample2.txt 1.42123 4.58991 5.64606 0.613877 40.4207
files/tasks_parameters/ExAp01/sample44.txt 1.25576 3.77401 5.66946 0.551838 36.3357
files/tasks_parameters/ExAp01/sample27.txt 1.30619 4.13937 5.56136 0.55779 36.7277
files/tasks_parameters/ExAp01/sample17.txt 1.19699 3.76163 5.38341 0.520991 34.3047
files/tasks_parameters/ExAp01/sample9.txt 1.17132 3.69889 5.2981 0.511699 33.6929
files/tasks_parameters/ExAp01/sample34.txt 1.13943 3.52435 5.83741 0.49187 32.3872
files/tasks_parameters/ExAp01/sample40.txt 1.15793 4.06185 5.0335 0.496884 32.7173
files/tasks_parameters/ExAp01/sample33.txt 1.55857 4.82091 5.83886 0.651963 42.9285
files/tasks_parameters/ExAp01/sample48.txt 1.13801 4.01134 5.07085 0.447927 29.4938
files/tasks_parameters/ExAp01/sample29.txt 1.48252 4.20847 5.0406 0.643694 42.384
files/tasks_parameters/ExAp01/sample11.txt 1.33858 3.94699 5.29198 0.557276 36.6938
files/tasks_parameters/ExAp01/sample14.txt 1.07166 3.54059 4.58345 0.466713 30.7308
files/tasks_parameters/ExAp01/sample0.txt 1.50739 4.82755 4.90216 0.623551 41.0577
files/tasks_parameters/ExAp01/sample7.txt 1.17333 3.60766 5.11185 0.509566 33.5524
files/tasks_parameters/ExAp01/sample23.txt 1.45426 3.81403 5.45799 0.582911 38.3818
files/tasks_parameters/ExAp01/sample13.txt 1.5237 4.8894 5.26818 0.624499 41.1201
files/tasks_parameters/ExAp01/sample22.txt 1.2925 3.76156 4.95746 0.534216 35.1755
files/tasks_parameters/ExAp01/sample25.txt 0.983929 2.94144 4.92622 0.403639 26.5776
files/tasks_parameters/ExAp01/sample36.txt 1.19339 3.56164 4.5806 0.501799 33.0409
files/tasks_parameters/ExAp01/sample46.txt 1.27205 3.84833 4.7121 0.530701 34.944
files/tasks_parameters/ExAp01/sample31.txt 1.09398 3.764 5.08385 0.479734 31.5881
files/tasks_parameters/ExAp01/sample37.txt 1.52603 4.43254 5.65111 0.65143 42.8934
files/tasks_parameters/ExAp01/sample16.txt 1.25757 4.49741 4.8895 0.509171 33.5263
files/tasks_parameters/ExAp01/sample10.txt 1.37558 3.87086 6.07511 0.60993 40.1608
files/tasks_parameters/ExAp01/sample39.txt 1.09166 3.66299 4.54281 0.463671 30.5304
files/tasks_parameters/ExAp01/sample19.txt 1.3652 3.86694 5.14047 0.615987 40.5597
files/tasks_parameters/ExAp01/sample20.txt 1.34 4.09945 5.13368 0.580369 38.2144
files/tasks_parameters/ExAp01/sample43.txt 1.1879 3.75825 5.55698 0.530892 34.9566
files/tasks_parameters/ExAp01/sample32.txt 1.43029 4.0352 5.29178 0.587643 38.6934
files/tasks_parameters/ExAp01/sample45.txt 1.24016 3.94578 4.87833 0.541081 35.6275
files/tasks_parameters/ExAp01/sample26.txt 1.12226 3.50998 4.55035 0.474009 31.2111
files/tasks_parameters/ExAp01/sample5.txt 1.40167 4.00994 5.27725 0.587681 38.6958
files/tasks_parameters/ExAp01/sample21.txt 0.938742 2.8974 4.54677 0.430037 28.3158
files/tasks_parameters/ExAp01/sample38.txt 1.17164 3.56689 4.78573 0.492366 32.4199
files/tasks_parameters/ExAp01/sample1.txt 1.16309 3.69002 4.55048 0.481074 31.6763
files/tasks_parameters/ExAp01/sample15.txt 1.20629 3.73223 5.42493 0.524964 34.5663
files/tasks_parameters/ExAp01/sample24.txt 1.28816 4.18053 5.40377 0.542575 35.7259
files/tasks_parameters/ExAp01/sample3.txt 1.09929 3.70547 4.7118 0.470503 30.9803
files/tasks_parameters/ExAp01/sample6.txt 1.47511 4.07521 5.71419 0.626702 41.2652
files/tasks_parameters/ExAp01/sample30.txt 1.49477 3.97446 5.82388 0.626709 41.2657
files/tasks_parameters/ExAp01/sample42.txt 1.3036 4.44207 5.58473 0.537025 35.3604
files/tasks_parameters/ExAp01/sample4.txt 1.28513 3.92181 4.49751 0.556974 36.674
files/tasks_parameters/ExAp01/sample28.txt 1.0573 3.13496 4.88321 0.444588 29.2739
files/tasks_parameters/ExAp01/sample18.txt 1.23501 3.95301 4.52898 0.537438 35.3876
files/tasks_parameters/ExAp01/sample35.txt 1.91466 5.75923 6.25034 0.752488 49.5476
files/tasks_parameters/ExAp01/sample47.txt 1.17128 3.44018 5.14289 0.540033 35.5585
files/tasks_parameters/ExAp01/sample49.txt 1.23045 3.38981 4.72409 0.493041 32.4643
files/tasks_parameters/ExAp01/sample41.txt 1.14012 3.58692 5.27252 0.492391 32.4215
