files/tasks_parameters/ExAp01/sample8.txt 1.24707 6.77015 2.19458 0.288816 6.62384
files/tasks_parameters/ExAp01/sample12.txt 1.45905 9.58351 2.46081 0.337498 7.74034
files/tasks_parameters/ExAp01/sample2.txt 1.38555 8.44418 2.50701 0.319127 7.319
files/tasks_parameters/ExAp01/sample44.txt 1.23062 6.96299 2.23089 0.28229 6.47417
files/tasks_parameters/ExAp01/sample27.txt 1.24748 7.74306 2.16676 0.28602 6.5597
files/tasks_parameters/ExAp01/sample17.txt 1.26594 7.35053 2.25579 0.292348 6.70482
files/tasks_parameters/ExAp01/sample9.txt 1.22208 6.89392 2.21068 0.282399 6.47666
files/tasks_parameters/ExAp01/sample34.txt 1.28649 6.62788 2.3772 0.297742 6.82853
files/tasks_parameters/ExAp01/sample40.txt 1.23462 7.75686 2.17534 0.285619 6.55052
files/tasks_parameters/ExAp01/sample33.txt 1.4648 8.14826 2.6463 0.338073 7.75351
files/tasks_parameters/ExAp01/sample48.txt 1.16745 7.64107 2.14272 0.270011 6.19255
files/tasks_parameters/ExAp01/sample29.txt 1.22385 7.139 1.93769 0.286306 6.56626
files/tasks_parameters/ExAp01/sample11.txt 1.20975 6.88688 2.12981 0.280008 6.42183
files/tasks_parameters/ExAp01/sample14.txt 1.08451 6.11983 1.97599 0.247458 5.6753
files/tasks_parameters/ExAp01/sample0.txt 1.26543 8.2738 2.14256 0.289132 6.63107
files/tasks_parameters/ExAp01/sample7.txt 1.18404 6.87011 2.05821 0.269886 6.18967
files/tasks_parameters/ExAp01/sample23.txt 1.2593 6.52032 2.38087 0.291712 6.69024
files/tasks_parameters/ExAp01/sample13.txt 1.27492 8.73247 2.33415 0.295393 6.77466
files/tasks_parameters/ExAp01/sample22.txt 1.23512 6.9777 2.28948 0.283979 6.5129
files/tasks_parameters/ExAp01/sample25.txt 1.15927 6.23444 2.2122 0.267298 6.13032
files/tasks_parameters/ExAp01/sample36.txt 1.11196 6.6174 1.9458 0.253823 5.82128
files/tasks_parameters/ExAp01/sample46.txt 1.43029 7.42369 2.49128 0.327273 7.50582
files/tasks_parameters/ExAp01/sample31.txt 1.1074 7.22028 2.13584 0.25377 5.82007
files/tasks_parameters/ExAp01/sample37.txt 1.36119 8.90704 2.16981 0.295708 6.7819
files/tasks_parameters/ExAp01/sample16.txt 1.12125 8.18243 1.88294 0.24945 5.72099
files/tasks_parameters/ExAp01/sample10.txt 1.24164 6.96646 2.31217 0.285748 6.55347
files/tasks_parameters/ExAp01/sample39.txt 1.09718 6.4161 1.97266 0.251967 5.77871
files/tasks_parameters/ExAp01/sample19.txt 1.33753 8.16711 2.23199 0.308463 7.07442
files/tasks_parameters/ExAp01/sample20.txt 1.11962 7.28549 1.88944 0.25994 5.96157
files/tasks_parameters/ExAp01/sample43.txt 1.11641 6.86804 2.00142 0.25616 5.87489
files/tasks_parameters/ExAp01/sample32.txt 1.22088 8.15663 2.12995 0.281726 6.46123
files/tasks_parameters/ExAp01/sample45.txt 1.21105 7.75184 2.10599 0.274935 6.30548
files/tasks_parameters/ExAp01/sample26.txt 1.15505 7.4944 1.88956 0.267248 6.12918
files/tasks_parameters/ExAp01/sample5.txt 1.23813 8.08362 2.09961 0.28454 6.52577
files/tasks_parameters/ExAp01/sample21.txt 1.13708 6.11814 2.17119 0.26143 5.99574
files/tasks_parameters/ExAp01/sample38.txt 1.13807 7.761 1.96293 0.263659 6.04687
files/tasks_parameters/ExAp01/sample1.txt 1.26181 7.83752 2.13261 0.289228 6.63328
files/tasks_parameters/ExAp01/sample15.txt 1.24919 7.37971 2.12057 0.285825 6.55524
files/tasks_parameters/ExAp01/sample24.txt 1.28204 8.28531 2.25272 0.296628 6.803
files/tasks_parameters/ExAp01/sample3.txt 1.32266 7.33359 2.39135 0.305084 6.99694
files/tasks_parameters/ExAp01/sample6.txt 1.2129 7.09894 2.24425 0.281804 6.46302
files/tasks_parameters/ExAp01/sample30.txt 1.29505 8.17669 2.03701 0.299204 6.86208
files/tasks_parameters/ExAp01/sample42.txt 1.28518 7.70416 2.42413 0.29743 6.82139
files/tasks_parameters/ExAp01/sample4.txt 1.34602 7.41691 2.36261 0.307803 7.05928
files/tasks_parameters/ExAp01/sample28.txt 1.14931 7.0562 2.07657 0.266428 6.11037
files/tasks_parameters/ExAp01/sample18.txt 1.21701 7.60139 2.1377 0.268016 6.14679
files/tasks_parameters/ExAp01/sample35.txt 1.39405 9.66795 2.28028 0.32244 7.39497
files/tasks_parameters/ExAp01/sample47.txt 1.09877 6.84842 2.12104 0.251655 5.77156
files/tasks_parameters/ExAp01/sample49.txt 1.11715 7.1497 2.11412 0.255889 5.86867
files/tasks_parameters/ExAp01/sample41.txt 1.1547 6.59911 2.07359 0.265885 6.09793
