files/tasks_parameters/ExJump0/sample8.txt 1.90472 7.88245 2.24879 0.304538 6.24943
files/tasks_parameters/ExJump0/sample12.txt 1.81168 8.71784 2.19486 0.29231 5.99849
files/tasks_parameters/ExJump0/sample2.txt 1.67414 7.35425 2.09193 0.270098 5.54269
files/tasks_parameters/ExJump0/sample44.txt 1.67022 7.0483 2.19732 0.273699 5.61658
files/tasks_parameters/ExJump0/sample27.txt 1.55126 7.23524 1.90524 0.249064 5.11104
files/tasks_parameters/ExJump0/sample17.txt 1.84229 7.4164 2.33545 0.303943 6.23722
files/tasks_parameters/ExJump0/sample9.txt 1.89826 7.30672 2.50948 0.303508 6.2283
files/tasks_parameters/ExJump0/sample34.txt 1.85266 7.00191 2.47133 0.296813 6.09091
files/tasks_parameters/ExJump0/sample40.txt 1.79954 6.96701 2.14058 0.289312 5.93698
files/tasks_parameters/ExJump0/sample33.txt 1.85049 7.61248 2.06328 0.296985 6.09444
files/tasks_parameters/ExJump0/sample48.txt 1.88435 7.44873 2.22797 0.305125 6.26148
files/tasks_parameters/ExJump0/sample29.txt 1.77424 7.45131 2.27126 0.285451 5.85775
files/tasks_parameters/ExJump0/sample11.txt 1.64966 6.97739 2.28093 0.267819 5.49592
files/tasks_parameters/ExJump0/sample14.txt 1.97759 8.21164 2.49077 0.32184 6.60448
files/tasks_parameters/ExJump0/sample0.txt 1.7945 7.22086 2.11374 0.287299 5.89567
files/tasks_parameters/ExJump0/sample7.txt 1.92899 8.72016 2.2397 0.313686 6.43715
files/tasks_parameters/ExJump0/sample23.txt 1.48176 6.11176 1.83796 0.240957 4.94467
files/tasks_parameters/ExJump0/sample13.txt 1.78019 7.01264 2.26766 0.28747 5.89917
files/tasks_parameters/ExJump0/sample22.txt 1.95983 8.05464 2.43055 0.314271 6.44917
files/tasks_parameters/ExJump0/sample25.txt 1.89403 6.89368 2.49868 0.305037 6.25968
files/tasks_parameters/ExJump0/sample36.txt 1.75155 8.70711 2.10864 0.282982 5.80708
files/tasks_parameters/ExJump0/sample46.txt 1.66051 7.15217 1.98961 0.269394 5.52823
files/tasks_parameters/ExJump0/sample31.txt 1.79002 7.72499 2.25084 0.286209 5.87329
files/tasks_parameters/ExJump0/sample37.txt 1.94798 8.88703 2.42358 0.314575 6.4554
files/tasks_parameters/ExJump0/sample16.txt 1.61697 6.20735 2.17213 0.261121 5.35846
files/tasks_parameters/ExJump0/sample10.txt 1.80074 7.02924 2.25411 0.28931 5.93694
files/tasks_parameters/ExJump0/sample39.txt 1.93651 7.9165 2.19584 0.310157 6.36473
files/tasks_parameters/ExJump0/sample19.txt 1.59409 6.98401 2.22791 0.256228 5.25806
files/tasks_parameters/ExJump0/sample20.txt 1.54588 8.24144 1.84573 0.251402 5.15902
files/tasks_parameters/ExJump0/sample43.txt 1.79632 8.03549 2.11875 0.291665 5.98526
files/tasks_parameters/ExJump0/sample32.txt 1.7548 5.87648 2.33593 0.279497 5.73556
files/tasks_parameters/ExJump0/sample45.txt 1.68287 7.61026 1.91563 0.273101 5.60432
files/tasks_parameters/ExJump0/sample26.txt 1.91293 7.33381 2.37614 0.306279 6.28515
files/tasks_parameters/ExJump0/sample5.txt 1.43238 6.45655 1.69519 0.230397 4.72798
files/tasks_parameters/ExJump0/sample21.txt 1.65987 8.15419 1.99095 0.26573 5.45304
files/tasks_parameters/ExJump0/sample38.txt 1.81985 8.5903 2.27713 0.293552 6.02399
files/tasks_parameters/ExJump0/sample1.txt 1.62629 7.7539 2.00935 0.263504 5.40737
files/tasks_parameters/ExJump0/sample15.txt 1.6469 7.05551 2.08874 0.26776 5.49471
files/tasks_parameters/ExJump0/sample24.txt 1.79023 7.33045 2.22012 0.287125 5.89211
files/tasks_parameters/ExJump0/sample3.txt 1.80627 8.38588 2.24625 0.291575 5.98341
files/tasks_parameters/ExJump0/sample6.txt 1.88869 7.83706 2.34819 0.302539 6.20841
files/tasks_parameters/ExJump0/sample30.txt 1.61698 8.01377 1.92044 0.261365 5.36348
files/tasks_parameters/ExJump0/sample42.txt 1.73 8.88699 1.97175 0.276351 5.671
files/tasks_parameters/ExJump0/sample4.txt 1.75803 9.11458 1.95752 0.285149 5.85154
files/tasks_parameters/ExJump0/sample28.txt 1.67374 6.98722 2.01414 0.26719 5.48301
files/tasks_parameters/ExJump0/sample18.txt 1.91441 7.41688 2.43103 0.307673 6.31377
files/tasks_parameters/ExJump0/sample35.txt 1.87211 7.62783 2.38785 0.298815 6.13198
files/tasks_parameters/ExJump0/sample47.txt 1.63366 6.59802 2.00866 0.261933 5.37514
files/tasks_parameters/ExJump0/sample49.txt 1.93346 8.35647 2.34409 0.308984 6.34067
files/tasks_parameters/ExJump0/sample41.txt 1.77471 6.72374 2.14557 0.28109 5.76824
