files/tasks_parameters/ExAp01/sample8.txt 0.748971 3.15778 1.5595 0.203411 6.88215
files/tasks_parameters/ExAp01/sample12.txt 0.753199 3.94962 1.6705 0.207924 7.03483
files/tasks_parameters/ExAp01/sample2.txt 0.727445 3.78275 1.74131 0.200098 6.77004
files/tasks_parameters/ExAp01/sample44.txt 0.674396 3.59825 1.65317 0.200005 6.76691
files/tasks_parameters/ExAp01/sample27.txt 0.696976 3.45743 1.5148 0.182129 6.16208
files/tasks_parameters/ExAp01/sample17.txt 0.591733 2.77299 1.44514 0.14646 4.95527
files/tasks_parameters/ExAp01/sample9.txt 0.615859 2.99933 1.451 0.177444 6.00357
files/tasks_parameters/ExAp01/sample34.txt 0.603842 3.02928 1.58429 0.157984 5.34517
files/tasks_parameters/ExAp01/sample40.txt 0.612354 3.86889 1.52122 0.168379 5.69689
files/tasks_parameters/ExAp01/sample33.txt 0.796912 3.63695 1.71905 0.199765 6.75878
files/tasks_parameters/ExAp01/sample48.txt 0.584539 3.39061 1.49062 0.154728 5.23502
files/tasks_parameters/ExAp01/sample29.txt 0.699129 3.30472 1.38739 0.223868 7.57429
files/tasks_parameters/ExAp01/sample11.txt 0.644314 3.10585 1.41612 0.174079 5.88972
files/tasks_parameters/ExAp01/sample14.txt 0.581031 2.70971 1.43432 0.162214 5.48831
files/tasks_parameters/ExAp01/sample0.txt 0.670796 3.6937 1.5439 0.18367 6.21422
files/tasks_parameters/ExAp01/sample7.txt 0.571183 2.70501 1.42221 0.143463 4.85389
files/tasks_parameters/ExAp01/sample23.txt 0.642811 3.2697 1.57822 0.181448 6.13907
files/tasks_parameters/ExAp01/sample13.txt 0.674359 3.84225 1.67648 0.198247 6.70743
files/tasks_parameters/ExAp01/sample22.txt 0.599726 3.09569 1.56121 0.148796 5.03432
files/tasks_parameters/ExAp01/sample25.txt 0.504791 2.73966 1.5007 0.148149 5.01241
files/tasks_parameters/ExAp01/sample36.txt 0.47506 2.85948 1.28553 0.130042 4.39981
files/tasks_parameters/ExAp01/sample46.txt 0.779063 3.58643 1.69998 0.210103 7.10855
files/tasks_parameters/ExAp01/sample31.txt 0.563436 3.4832 1.53782 0.1722 5.82616
files/tasks_parameters/ExAp01/sample37.txt 0.659873 3.95293 1.50705 0.171701 5.80928
files/tasks_parameters/ExAp01/sample16.txt 0.599834 3.31216 1.30115 0.150249 5.08348
files/tasks_parameters/ExAp01/sample10.txt 0.646324 3.17098 1.61789 0.153776 5.20282
files/tasks_parameters/ExAp01/sample39.txt 0.617167 3.26617 1.44406 0.165669 5.60518
files/tasks_parameters/ExAp01/sample19.txt 0.721912 3.63532 1.52509 0.196094 6.6346
files/tasks_parameters/ExAp01/sample20.txt 0.499033 3.20793 1.25367 0.147335 4.9849
files/tasks_parameters/ExAp01/sample43.txt 0.583012 3.11551 1.4202 0.150644 5.09686
files/tasks_parameters/ExAp01/sample32.txt 0.613805 3.5311 1.42482 0.168744 5.70924
files/tasks_parameters/ExAp01/sample45.txt 0.722218 3.80283 1.48324 0.19807 6.70145
files/tasks_parameters/ExAp01/sample26.txt 0.57412 3.21645 1.29701 0.166061 5.61846
files/tasks_parameters/ExAp01/sample5.txt 0.642326 3.5889 1.52559 0.178903 6.05296
files/tasks_parameters/ExAp01/sample21.txt 0.666032 2.75242 1.55936 0.19512 6.60164
files/tasks_parameters/ExAp01/sample38.txt 0.583168 3.31563 1.37515 0.166157 5.6217
files/tasks_parameters/ExAp01/sample1.txt 0.74653 3.74964 1.51696 0.19701 6.66556
files/tasks_parameters/ExAp01/sample15.txt 0.629612 3.32916 1.48508 0.180707 6.114
files/tasks_parameters/ExAp01/sample24.txt 0.6069 3.45951 1.59549 0.16529 5.59238
files/tasks_parameters/ExAp01/sample3.txt 0.897171 3.70014 1.70809 0.237107 8.0222
files/tasks_parameters/ExAp01/sample6.txt 0.628432 3.33003 1.58323 0.184714 6.24957
files/tasks_parameters/ExAp01/sample30.txt 0.781992 4.1841 1.4861 0.239623 8.10733
files/tasks_parameters/ExAp01/sample42.txt 0.661534 3.43221 1.70276 0.177383 6.00151
files/tasks_parameters/ExAp01/sample4.txt 0.743082 3.72477 1.6136 0.196448 6.64656
files/tasks_parameters/ExAp01/sample28.txt 0.574023 3.11323 1.45032 0.158819 5.37343
files/tasks_parameters/ExAp01/sample18.txt 0.597149 3.47418 1.45209 0.149064 5.04338
files/tasks_parameters/ExAp01/sample35.txt 0.660249 4.57086 1.49394 0.185031 6.26027
files/tasks_parameters/ExAp01/sample47.txt 0.615568 3.13768 1.52397 0.16417 5.55448
files/tasks_parameters/ExAp01/sample49.txt 0.569837 3.13288 1.49657 0.156154 5.28327
files/tasks_parameters/ExAp01/sample41.txt 0.580899 2.81964 1.49636 0.150876 5.10469
