digraph G {
0 ->7 0 ->8 0 ->12 1 ->7 1 ->11 1 ->12 2 ->8 2 ->9 2 ->10 2 ->11 3 ->5 3 ->6 3 ->8 4 ->6 4 ->10 6 ->13 6 ->14 6 ->15 6 ->16 7 ->13 7 ->16 8 ->13 8 ->16 9 ->15 9 ->16 9 ->18 10 ->17 10 ->18 11 ->13 12 ->15 13 ->20 13 ->21 13 ->23 13 ->24 13 ->25 14 ->21 14 ->23 14 ->24 14 ->26 15 ->23 15 ->25 15 ->26 17 ->19 17 ->26 18 ->22 18 ->24 18 ->25 19 ->30 19 ->32 20 ->31 20 ->34 21 ->27 21 ->29 21 ->31 21 ->32 21 ->34 22 ->27 22 ->29 22 ->31 22 ->33 23 ->28 23 ->31 23 ->32 23 ->33 24 ->28 24 ->30 24 ->33 24 ->34 25 ->27 25 ->29 25 ->30 25 ->32 26 ->29 27 ->40 28 ->35 28 ->36 28 ->37 29 ->35 29 ->38 30 ->38 31 ->40 32 ->35 32 ->37 32 ->38 32 ->40 33 ->35 33 ->36 33 ->37 34 ->37 34 ->39 35 ->41 35 ->42 35 ->45 36 ->43 37 ->46 38 ->41 38 ->43 38 ->44 38 ->46 39 ->43 39 ->44 39 ->46 39 ->48 39 ->49 40 ->41 40 ->47 42 ->52 43 ->50 44 ->50 45 ->51 47 ->51 51 ->55 52 ->53 52 ->54 53 ->59 53 ->61 53 ->62 53 ->63 53 ->67 54 ->58 54 ->62 54 ->65 54 ->66 55 ->56 55 ->57 55 ->58 55 ->60 55 ->64 55 ->67 56 ->70 56 ->73 57 ->70 57 ->72 57 ->73 58 ->73 59 ->70 60 ->72 61 ->73 62 ->71 63 ->70 64 ->68 65 ->72 65 ->73 66 ->69 66 ->72 67 ->69 67 ->71 67 ->73 68 ->75 68 ->76 68 ->77 68 ->81 68 ->84 69 ->74 69 ->78 69 ->81 70 ->79 70 ->81 70 ->82 70 ->83 71 ->80 71 ->82 72 ->74 72 ->79 72 ->85 73 ->78 73 ->79 73 ->82 73 ->84 74 ->87 74 ->89 74 ->91 75 ->89 75 ->97 75 ->99 76 ->87 76 ->88 76 ->89 76 ->91 76 ->92 76 ->93 76 ->94 76 ->99 77 ->88 77 ->90 77 ->93 77 ->98 77 ->99 78 ->88 78 ->89 78 ->90 78 ->91 79 ->87 79 ->88 79 ->90 80 ->87 80 ->96 80 ->99 81 ->90 81 ->94 81 ->95 81 ->97 82 ->86 82 ->88 82 ->90 82 ->94 83 ->86 83 ->93 83 ->94 84 ->87 84 ->91 84 ->94 84 ->96 85 ->87 85 ->90 85 ->91 85 ->94 85 ->96 85 ->98 
}
