digraph G {
0 ->10 0 ->11 2 ->8 2 ->9 3 ->8 3 ->9 3 ->11 4 ->9 4 ->10 5 ->9 5 ->10 6 ->12 7 ->10 7 ->12 8 ->15 8 ->17 8 ->19 8 ->20 8 ->21 8 ->22 8 ->24 8 ->25 9 ->13 9 ->14 9 ->17 9 ->18 9 ->19 9 ->20 10 ->13 10 ->16 10 ->17 10 ->18 11 ->16 11 ->22 11 ->23 12 ->13 12 ->14 12 ->15 12 ->20 12 ->22 12 ->24 12 ->25 13 ->26 13 ->31 13 ->34 13 ->36 13 ->40 14 ->32 14 ->33 14 ->39 15 ->27 15 ->28 15 ->34 15 ->35 15 ->37 15 ->42 16 ->29 16 ->32 16 ->34 16 ->35 16 ->39 16 ->42 17 ->26 17 ->27 17 ->30 17 ->34 17 ->35 17 ->41 17 ->42 18 ->28 18 ->29 18 ->33 18 ->34 18 ->35 19 ->29 19 ->29 19 ->33 19 ->35 19 ->37 20 ->27 20 ->29 20 ->31 20 ->34 20 ->35 20 ->39 20 ->41 20 ->42 21 ->31 21 ->33 21 ->40 21 ->42 22 ->27 22 ->31 22 ->32 22 ->33 22 ->34 22 ->36 22 ->38 23 ->29 23 ->31 23 ->32 23 ->42 24 ->42 25 ->29 25 ->33 25 ->35 25 ->40 26 ->45 27 ->44 28 ->44 28 ->46 28 ->47 30 ->44 31 ->43 31 ->44 31 ->45 32 ->46 33 ->44 33 ->46 33 ->47 34 ->45 36 ->44 36 ->46 37 ->45 38 ->45 39 ->47 41 ->44 41 ->45 42 ->44 42 ->45 43 ->48 44 ->49 46 ->48 46 ->49 47 ->48 47 ->49 48 ->50 48 ->54 48 ->56 49 ->51 49 ->52 49 ->53 49 ->55 49 ->57 50 ->61 50 ->63 50 ->69 50 ->70 51 ->58 51 ->61 51 ->62 51 ->64 51 ->69 51 ->70 52 ->62 52 ->67 52 ->68 52 ->69 53 ->58 53 ->59 53 ->60 53 ->65 53 ->66 53 ->67 53 ->68 53 ->69 53 ->72 54 ->59 54 ->61 54 ->62 54 ->65 54 ->66 54 ->70 54 ->72 55 ->62 55 ->65 55 ->66 56 ->59 56 ->65 56 ->67 56 ->70 56 ->71 57 ->61 57 ->66 57 ->68 58 ->73 58 ->78 58 ->83 58 ->86 59 ->74 59 ->78 59 ->79 59 ->81 59 ->82 60 ->79 60 ->81 61 ->74 61 ->78 61 ->80 61 ->85 61 ->86 62 ->73 62 ->77 62 ->80 62 ->85 62 ->87 63 ->76 63 ->80 63 ->80 63 ->84 63 ->85 63 ->86 64 ->73 64 ->77 64 ->79 65 ->78 65 ->79 65 ->80 65 ->81 65 ->83 66 ->78 66 ->80 66 ->83 67 ->76 67 ->78 67 ->83 68 ->73 68 ->74 68 ->76 68 ->80 68 ->83 68 ->84 68 ->86 69 ->78 69 ->81 69 ->82 69 ->83 69 ->86 70 ->75 70 ->76 70 ->82 70 ->86 71 ->82 71 ->84 71 ->87 72 ->73 72 ->82 72 ->87 73 ->91 73 ->95 73 ->96 73 ->97 74 ->88 74 ->91 74 ->97 76 ->89 76 ->98 77 ->89 77 ->95 77 ->97 77 ->98 78 ->89 79 ->88 79 ->89 79 ->95 79 ->97 80 ->89 80 ->95 80 ->95 80 ->97 81 ->89 81 ->90 81 ->94 81 ->95 82 ->88 82 ->92 82 ->93 82 ->97 83 ->89 83 ->95 83 ->98 84 ->90 84 ->97 84 ->98 85 ->89 85 ->97 86 ->88 86 ->91 86 ->93 86 ->98 87 ->91 87 ->95 87 ->98 87 ->98 88 ->99 90 ->99 91 ->99 96 ->99 97 ->99 
}
