digraph G {
0 ->14 0 ->19 0 ->21 0 ->24 0 ->26 1 ->14 1 ->15 1 ->18 1 ->24 1 ->26 2 ->12 2 ->14 2 ->17 2 ->18 2 ->20 2 ->23 2 ->24 2 ->26 3 ->15 3 ->18 3 ->19 3 ->20 3 ->23 3 ->26 4 ->20 4 ->23 5 ->12 5 ->13 5 ->15 5 ->22 6 ->12 6 ->13 6 ->20 6 ->23 6 ->25 7 ->12 7 ->14 7 ->15 7 ->20 7 ->21 7 ->23 7 ->24 8 ->14 8 ->19 8 ->24 8 ->25 9 ->14 9 ->26 10 ->15 10 ->18 10 ->21 10 ->22 11 ->12 11 ->15 11 ->16 11 ->17 11 ->19 11 ->21 11 ->23 11 ->24 11 ->26 12 ->33 13 ->29 14 ->29 14 ->36 15 ->27 15 ->29 15 ->34 16 ->29 16 ->29 16 ->30 16 ->35 17 ->30 17 ->32 17 ->33 18 ->29 18 ->31 18 ->33 18 ->34 18 ->36 19 ->33 20 ->28 22 ->32 22 ->37 23 ->30 23 ->33 23 ->37 24 ->28 24 ->30 24 ->33 24 ->37 25 ->29 25 ->30 25 ->33 25 ->34 25 ->36 26 ->30 26 ->30 26 ->31 26 ->32 26 ->33 26 ->34 27 ->41 27 ->52 28 ->40 28 ->41 28 ->43 28 ->45 28 ->52 29 ->40 29 ->41 29 ->43 29 ->47 29 ->48 30 ->38 30 ->43 30 ->48 30 ->49 30 ->51 30 ->52 31 ->38 31 ->42 31 ->49 31 ->51 32 ->44 32 ->46 32 ->48 33 ->42 33 ->44 33 ->51 34 ->39 35 ->39 35 ->41 35 ->44 35 ->46 35 ->48 35 ->52 36 ->44 36 ->45 36 ->47 36 ->48 36 ->49 36 ->51 37 ->38 37 ->39 37 ->41 37 ->42 37 ->43 37 ->50 37 ->52 38 ->53 38 ->60 39 ->53 39 ->56 39 ->57 39 ->58 39 ->60 40 ->56 40 ->60 40 ->63 40 ->64 41 ->53 41 ->62 41 ->64 41 ->64 42 ->54 42 ->59 42 ->66 42 ->67 43 ->54 43 ->56 43 ->67 44 ->56 44 ->58 44 ->59 45 ->53 45 ->56 45 ->58 46 ->56 46 ->56 46 ->64 46 ->66 47 ->58 48 ->56 48 ->58 48 ->60 49 ->62 50 ->58 50 ->60 50 ->61 50 ->62 50 ->64 50 ->67 51 ->54 51 ->55 51 ->64 52 ->60 52 ->65 53 ->69 54 ->69 54 ->70 55 ->69 55 ->70 56 ->69 57 ->68 58 ->70 59 ->69 62 ->68 64 ->68 65 ->70 68 ->71 68 ->72 68 ->75 68 ->78 68 ->79 68 ->81 69 ->74 69 ->76 69 ->82 70 ->72 70 ->73 70 ->77 70 ->78 70 ->80 71 ->83 71 ->85 72 ->84 72 ->85 75 ->87 76 ->83 76 ->85 76 ->86 76 ->87 77 ->86 77 ->87 78 ->83 78 ->85 78 ->86 78 ->87 79 ->87 81 ->84 82 ->83 82 ->86 82 ->87 83 ->89 83 ->90 84 ->89 84 ->91 86 ->88 86 ->92 88 ->93 88 ->95 88 ->96 89 ->97 90 ->94 90 ->99 91 ->98 92 ->93 92 ->95 92 ->97 92 ->99 
}
