digraph G {
0 ->21 1 ->17 1 ->24 2 ->17 2 ->22 2 ->23 3 ->24 4 ->24 4 ->25 5 ->19 5 ->22 5 ->24 6 ->19 6 ->21 6 ->23 8 ->24 9 ->20 9 ->22 10 ->19 11 ->21 12 ->17 12 ->21 12 ->24 12 ->26 13 ->19 13 ->21 13 ->24 14 ->18 14 ->26 15 ->17 15 ->26 16 ->19 16 ->26 17 ->28 17 ->37 17 ->39 18 ->27 18 ->33 18 ->36 18 ->37 18 ->42 19 ->27 19 ->31 19 ->33 19 ->42 20 ->28 20 ->31 20 ->32 20 ->37 20 ->39 20 ->40 20 ->41 21 ->32 21 ->43 22 ->29 22 ->30 22 ->32 22 ->34 22 ->36 22 ->41 22 ->42 23 ->28 23 ->29 23 ->30 23 ->34 23 ->38 24 ->27 24 ->28 24 ->29 24 ->30 25 ->28 25 ->30 25 ->31 25 ->32 25 ->35 26 ->37 26 ->40 26 ->42 27 ->45 27 ->46 27 ->48 27 ->51 27 ->52 27 ->56 28 ->44 28 ->45 28 ->51 28 ->56 29 ->45 29 ->45 29 ->46 29 ->47 29 ->49 29 ->52 29 ->55 29 ->56 30 ->45 30 ->47 30 ->52 30 ->56 31 ->45 31 ->48 31 ->49 31 ->53 31 ->56 32 ->46 32 ->49 34 ->51 34 ->52 34 ->53 35 ->44 35 ->46 35 ->49 35 ->52 35 ->53 36 ->44 36 ->47 36 ->53 36 ->56 37 ->50 37 ->52 37 ->53 37 ->54 39 ->44 39 ->47 39 ->49 39 ->52 40 ->44 40 ->46 40 ->47 40 ->48 40 ->54 40 ->56 41 ->44 41 ->50 42 ->48 42 ->51 42 ->54 42 ->56 43 ->45 43 ->47 43 ->51 43 ->52 43 ->56 44 ->57 44 ->59 44 ->64 45 ->58 45 ->64 45 ->65 46 ->59 46 ->61 46 ->64 48 ->58 48 ->59 48 ->63 48 ->64 49 ->58 49 ->63 49 ->64 50 ->58 50 ->61 51 ->64 51 ->65 52 ->58 52 ->61 52 ->62 52 ->65 53 ->63 53 ->64 53 ->65 54 ->58 54 ->65 55 ->59 56 ->60 56 ->61 56 ->62 57 ->68 57 ->69 57 ->70 58 ->68 58 ->74 58 ->77 59 ->75 59 ->77 60 ->74 60 ->76 61 ->73 61 ->74 61 ->77 62 ->67 62 ->69 62 ->71 62 ->73 62 ->76 63 ->73 64 ->66 64 ->71 64 ->75 65 ->67 65 ->69 65 ->71 65 ->72 65 ->76 66 ->81 66 ->84 66 ->86 67 ->79 67 ->82 67 ->83 67 ->84 68 ->79 68 ->83 68 ->86 69 ->78 69 ->81 70 ->79 71 ->81 71 ->82 71 ->84 72 ->81 73 ->79 73 ->81 74 ->79 74 ->80 74 ->81 75 ->79 75 ->84 76 ->83 76 ->84 76 ->85 77 ->86 78 ->88 78 ->90 79 ->90 80 ->87 81 ->88 82 ->87 83 ->90 84 ->88 85 ->89 86 ->88 86 ->89 87 ->92 87 ->93 88 ->91 89 ->91 89 ->92 91 ->94 91 ->96 91 ->98 92 ->95 92 ->97 92 ->99 93 ->95 93 ->96 93 ->98 93 ->99 
}
