0 8
0 13
0 14
0 20
0 22
1 8
1 9
1 10
1 14
1 19
1 20
1 21
1 22
2 11
2 13
2 17
2 19
2 24
2 25
3 10
3 12
3 14
3 15
3 18
3 21
3 23
3 24
4 10
4 11
4 13
4 15
4 19
4 20
5 14
5 15
5 16
5 23
5 24
6 11
6 13
6 15
6 17
6 21
7 8
7 19
7 21
8 26
9 26
15 28
19 27
21 26
21 29
23 29
24 29
26 30
27 32
29 31
29 32
29 33
30 35
31 35
31 36
33 34
34 37
34 39
34 40
34 44
34 45
34 49
35 37
35 38
35 39
35 41
35 42
35 43
35 45
35 48
36 40
36 44
36 46
36 47
36 48
36 49
40 50
47 50
50 51
50 52
50 53
50 54
50 55
50 56
50 57
50 58
50 59
50 60
50 61
50 62
50 63
50 64
50 65
50 66
50 67
50 68
52 74
53 71
53 74
54 69
54 71
54 73
55 69
56 69
56 71
56 74
57 69
57 72
57 74
58 69
59 71
59 72
59 73
60 71
60 72
60 73
61 70
61 71
61 72
61 74
62 71
62 72
63 73
63 74
64 71
64 72
64 73
65 74
66 69
67 74
69 75
69 76
69 77
69 78
69 79
69 85
69 87
69 88
69 90
69 92
70 75
70 76
70 82
70 84
70 85
71 75
71 81
71 82
71 87
71 90
72 77
72 78
72 81
72 82
72 83
72 86
72 87
72 89
72 91
72 92
73 80
73 83
73 85
73 89
73 91
74 77
74 80
74 83
74 84
74 89
74 90
74 91
77 94
77 95
78 93
81 93
85 93
87 93
87 94
88 93
88 94
90 94
91 93
91 94
91 96
93 97
93 98
94 97
98 99
