0 18
1 18
2 18
2 19
3 18
3 19
4 19
5 18
5 19
6 18
6 19
7 19
7 19
8 18
8 19
16 18
17 18
17 19
18 20
18 25
18 26
18 27
18 32
19 21
19 22
19 23
19 24
19 28
19 29
19 30
19 31
19 33
20 34
20 35
20 37
20 43
21 35
21 36
21 39
21 42
21 47
22 42
22 47
23 36
23 37
23 44
23 47
23 48
24 36
24 38
24 43
24 47
24 48
25 40
25 41
25 43
26 34
26 41
26 45
27 36
27 41
28 35
28 38
28 43
29 36
29 42
29 46
29 47
29 48
30 36
30 41
30 42
30 47
30 50
31 41
31 42
31 45
31 49
31 50
32 36
32 42
32 46
32 47
32 48
32 49
33 35
33 38
33 40
33 41
33 42
33 48
34 51
34 55
34 56
34 57
34 60
34 62
35 51
35 54
35 56
35 57
35 59
36 52
36 59
36 60
36 61
36 64
36 66
37 58
37 61
38 52
38 53
38 58
38 59
38 63
38 64
39 55
39 61
39 62
39 64
39 65
39 66
40 53
40 60
40 62
40 65
40 66
41 51
41 54
41 59
41 62
41 66
42 55
42 66
43 56
43 59
43 60
43 65
44 56
44 58
44 61
44 62
45 51
45 53
45 56
45 61
45 62
46 51
46 52
46 57
46 58
46 62
47 55
47 58
47 60
47 64
48 54
48 56
48 58
48 59
48 60
48 64
49 54
49 56
49 61
49 64
49 66
50 53
50 54
50 60
50 61
50 64
51 69
51 70
51 76
51 78
51 79
52 69
52 72
52 73
52 75
52 77
52 78
53 69
53 70
53 71
53 74
53 78
53 78
54 69
54 70
54 73
54 77
54 78
55 70
55 73
56 69
56 70
56 75
56 76
57 78
58 70
59 72
60 68
60 75
61 68
61 69
61 75
61 76
61 78
62 67
62 68
62 70
62 76
62 78
63 67
63 72
63 75
64 70
65 75
65 76
65 77
66 75
67 84
67 87
67 88
68 82
68 86
68 88
68 90
69 82
69 86
69 88
69 90
70 84
70 90
71 81
71 82
71 84
71 87
71 88
72 80
72 82
72 89
73 84
73 87
73 89
74 80
74 89
75 85
75 86
75 89
76 82
76 83
76 86
76 87
76 89
76 90
77 87
77 89
78 84
78 87
79 84
79 86
79 87
80 93
80 99
81 92
81 94
81 95
81 97
81 99
82 99
83 91
83 93
83 95
83 96
83 98
84 95
84 97
85 94
85 95
85 96
86 93
86 96
86 98
87 96
87 98
88 92
88 94
88 96
89 93
89 94
89 95
90 93
90 94
