0 12
1 8
1 9
1 10
1 11
1 12
2 8
2 12
4 8
4 10
8 14
8 15
8 17
8 21
8 22
8 24
8 26
8 30
9 13
9 15
9 16
9 17
9 18
9 21
9 25
9 26
9 27
9 29
10 19
10 20
10 21
10 22
10 25
10 29
11 15
11 20
11 23
11 28
11 30
12 13
12 14
12 17
12 24
12 25
13 31
13 32
13 37
14 32
14 34
14 36
15 31
15 34
15 37
15 41
16 37
16 42
17 34
17 35
17 37
17 40
18 35
18 38
18 41
18 43
19 31
19 33
19 35
19 40
19 41
20 37
20 39
20 40
21 34
21 37
21 40
22 34
22 38
23 31
23 32
24 32
24 36
24 37
24 43
25 31
25 32
25 33
25 34
25 40
26 34
26 38
26 41
27 34
27 37
27 41
28 35
28 40
28 41
28 43
29 31
29 34
29 35
29 36
29 37
29 40
29 41
30 31
30 36
30 38
31 47
31 51
31 55
32 49
32 50
32 51
33 51
33 52
33 55
33 56
34 50
34 52
34 55
35 52
35 56
36 52
37 47
37 56
38 47
38 49
38 51
39 46
39 50
40 44
40 48
40 50
40 51
40 55
41 47
41 49
41 53
41 55
42 44
42 45
42 47
42 50
42 52
42 54
43 49
43 52
44 57
44 58
44 59
46 58
46 61
47 58
48 60
49 57
49 58
49 60
51 61
52 61
53 58
53 59
53 61
54 57
54 59
54 60
54 61
55 60
56 57
56 58
56 60
57 62
58 62
60 63
61 63
62 67
62 68
62 69
62 72
63 64
63 65
63 66
63 70
63 71
63 73
63 74
63 75
64 79
64 83
64 84
64 85
65 84
67 81
67 82
67 83
68 77
68 85
69 77
69 85
69 86
70 78
71 81
71 84
71 86
72 79
72 81
72 82
72 86
73 76
73 81
73 84
73 86
74 77
74 78
74 80
74 81
74 83
74 84
74 86
75 78
75 86
76 95
77 95
77 97
78 87
78 90
78 94
78 97
79 92
79 94
79 96
79 98
80 90
80 91
80 95
81 88
81 92
81 93
81 94
82 93
83 87
83 88
83 89
83 94
84 92
84 95
85 89
85 95
86 89
86 91
88 99
89 99
90 99
94 99
96 99
97 99
