files/tasks_parameters/ExAp01/sample8.txt 1.00966 3.76817 4.3855 0.450105 17.4491
files/tasks_parameters/ExAp01/sample12.txt 1.34074 5.03638 5.18776 0.610564 23.6696
files/tasks_parameters/ExAp01/sample2.txt 1.31996 4.58991 5.64606 0.613877 23.798
files/tasks_parameters/ExAp01/sample44.txt 1.19081 3.77401 5.66946 0.551838 21.393
files/tasks_parameters/ExAp01/sample27.txt 1.21054 4.13937 5.56136 0.55779 21.6237
files/tasks_parameters/ExAp01/sample17.txt 1.12402 3.76163 5.38341 0.520991 20.1971
files/tasks_parameters/ExAp01/sample9.txt 1.1062 3.69889 5.2981 0.511699 19.8369
files/tasks_parameters/ExAp01/sample34.txt 1.07872 3.52435 5.83741 0.49187 19.0682
files/tasks_parameters/ExAp01/sample40.txt 1.08677 4.06185 5.0335 0.496884 19.2626
files/tasks_parameters/ExAp01/sample33.txt 1.39351 4.82091 5.83886 0.651963 25.2745
files/tasks_parameters/ExAp01/sample48.txt 0.974147 4.01134 5.07085 0.447927 17.3647
files/tasks_parameters/ExAp01/sample29.txt 1.36863 4.20847 5.0406 0.643694 24.9539
files/tasks_parameters/ExAp01/sample11.txt 1.203 3.94699 5.29198 0.557276 21.6038
files/tasks_parameters/ExAp01/sample14.txt 1.04561 3.54059 4.58345 0.466713 18.093
files/tasks_parameters/ExAp01/sample0.txt 1.35391 4.82755 4.90216 0.623551 24.173
files/tasks_parameters/ExAp01/sample7.txt 1.1054 3.60766 5.11185 0.509566 19.7542
files/tasks_parameters/ExAp01/sample23.txt 1.25104 3.81403 5.45799 0.582911 22.5976
files/tasks_parameters/ExAp01/sample13.txt 1.3507 4.8894 5.26818 0.624499 24.2098
files/tasks_parameters/ExAp01/sample22.txt 1.16193 3.76156 4.95746 0.534216 20.7098
files/tasks_parameters/ExAp01/sample25.txt 0.904452 2.94144 4.92622 0.403639 15.6478
files/tasks_parameters/ExAp01/sample36.txt 1.07907 3.56164 4.5806 0.501799 19.4531
files/tasks_parameters/ExAp01/sample46.txt 1.14658 3.84833 4.7121 0.530701 20.5736
files/tasks_parameters/ExAp01/sample31.txt 1.05932 3.764 5.08385 0.479734 18.5977
files/tasks_parameters/ExAp01/sample37.txt 1.39878 4.43254 5.65111 0.65143 25.2539
files/tasks_parameters/ExAp01/sample16.txt 1.15919 4.49741 4.8895 0.509171 19.7389
files/tasks_parameters/ExAp01/sample10.txt 1.33026 3.87086 6.07511 0.60993 23.645
files/tasks_parameters/ExAp01/sample39.txt 1.01891 3.66299 4.54281 0.463671 17.975
files/tasks_parameters/ExAp01/sample19.txt 1.32581 3.86694 5.14047 0.615987 23.8798
files/tasks_parameters/ExAp01/sample20.txt 1.24649 4.09945 5.13368 0.580369 22.499
files/tasks_parameters/ExAp01/sample43.txt 1.15401 3.75825 5.55698 0.530892 20.581
files/tasks_parameters/ExAp01/sample32.txt 1.278 4.0352 5.29178 0.587643 22.781
files/tasks_parameters/ExAp01/sample45.txt 1.16942 3.94578 4.87833 0.541081 20.976
files/tasks_parameters/ExAp01/sample26.txt 1.03149 3.50998 4.55035 0.474009 18.3758
files/tasks_parameters/ExAp01/sample5.txt 1.27463 4.00994 5.27725 0.587681 22.7825
files/tasks_parameters/ExAp01/sample21.txt 0.958404 2.8974 4.54677 0.430037 16.6712
files/tasks_parameters/ExAp01/sample38.txt 1.06746 3.56689 4.78573 0.492366 19.0875
files/tasks_parameters/ExAp01/sample1.txt 1.058 3.69002 4.55048 0.481074 18.6497
files/tasks_parameters/ExAp01/sample15.txt 1.14393 3.73223 5.42493 0.524964 20.3512
files/tasks_parameters/ExAp01/sample24.txt 1.17218 4.18053 5.40377 0.542575 21.0339
files/tasks_parameters/ExAp01/sample3.txt 1.01708 3.70547 4.7118 0.470503 18.2399
files/tasks_parameters/ExAp01/sample6.txt 1.33627 4.07521 5.71419 0.626702 24.2952
files/tasks_parameters/ExAp01/sample30.txt 1.35266 3.97446 5.82388 0.626709 24.2955
files/tasks_parameters/ExAp01/sample42.txt 1.17604 4.44207 5.58473 0.537025 20.8187
files/tasks_parameters/ExAp01/sample4.txt 1.21047 3.92181 4.49751 0.556974 21.5921
files/tasks_parameters/ExAp01/sample28.txt 0.954399 3.13496 4.88321 0.444588 17.2353
files/tasks_parameters/ExAp01/sample18.txt 1.16635 3.95301 4.52898 0.537438 20.8347
files/tasks_parameters/ExAp01/sample35.txt 1.6247 5.75923 6.25034 0.752488 29.1715
files/tasks_parameters/ExAp01/sample47.txt 1.16318 3.44018 5.14289 0.540033 20.9354
files/tasks_parameters/ExAp01/sample49.txt 1.08903 3.38981 4.72409 0.493041 19.1136
files/tasks_parameters/ExAp01/sample41.txt 1.05468 3.58692 5.27252 0.492391 19.0884
