files/tasks_parameters/ExAp01/sample8.txt 2.31965 6.77015 2.19458 0.288816 5.75993
files/tasks_parameters/ExAp01/sample12.txt 2.722 9.58351 2.46081 0.337498 6.73081
files/tasks_parameters/ExAp01/sample2.txt 2.52586 8.44418 2.50701 0.319127 6.36443
files/tasks_parameters/ExAp01/sample44.txt 2.28789 6.96299 2.23089 0.28229 5.62978
files/tasks_parameters/ExAp01/sample27.txt 2.26632 7.74306 2.16676 0.28602 5.70416
files/tasks_parameters/ExAp01/sample17.txt 2.3554 7.35053 2.25579 0.292348 5.83036
files/tasks_parameters/ExAp01/sample9.txt 2.28498 6.89392 2.21068 0.282399 5.63195
files/tasks_parameters/ExAp01/sample34.txt 2.44492 6.62788 2.3772 0.297742 5.93793
files/tasks_parameters/ExAp01/sample40.txt 2.29195 7.75686 2.17534 0.285619 5.69617
files/tasks_parameters/ExAp01/sample33.txt 2.6877 8.14826 2.6463 0.338073 6.74227
files/tasks_parameters/ExAp01/sample48.txt 2.17747 7.64107 2.14272 0.270011 5.3849
files/tasks_parameters/ExAp01/sample29.txt 2.22584 7.139 1.93769 0.286306 5.70986
files/tasks_parameters/ExAp01/sample11.txt 2.2421 6.88688 2.12981 0.280008 5.58427
files/tasks_parameters/ExAp01/sample14.txt 1.98229 6.11983 1.97599 0.247458 4.93511
files/tasks_parameters/ExAp01/sample0.txt 2.30323 8.2738 2.14256 0.289132 5.76622
files/tasks_parameters/ExAp01/sample7.txt 2.14071 6.87011 2.05821 0.269886 5.38239
files/tasks_parameters/ExAp01/sample23.txt 2.34591 6.52032 2.38087 0.291712 5.81767
files/tasks_parameters/ExAp01/sample13.txt 2.3691 8.73247 2.33415 0.295393 5.89109
files/tasks_parameters/ExAp01/sample22.txt 2.28589 6.9777 2.28948 0.283979 5.66347
files/tasks_parameters/ExAp01/sample25.txt 2.16974 6.23444 2.2122 0.267298 5.33078
files/tasks_parameters/ExAp01/sample36.txt 2.04274 6.6174 1.9458 0.253823 5.06205
files/tasks_parameters/ExAp01/sample46.txt 2.66648 7.42369 2.49128 0.327273 6.52688
files/tasks_parameters/ExAp01/sample31.txt 2.00339 7.22028 2.13584 0.25377 5.06099
files/tasks_parameters/ExAp01/sample37.txt 2.38256 8.90704 2.16981 0.295708 5.89738
files/tasks_parameters/ExAp01/sample16.txt 1.99084 8.18243 1.88294 0.24945 4.97484
files/tasks_parameters/ExAp01/sample10.txt 2.30153 6.96646 2.31217 0.285748 5.69874
files/tasks_parameters/ExAp01/sample39.txt 2.05844 6.4161 1.97266 0.251967 5.02503
files/tasks_parameters/ExAp01/sample19.txt 2.47899 8.16711 2.23199 0.308463 6.15175
files/tasks_parameters/ExAp01/sample20.txt 2.08075 7.28549 1.88944 0.25994 5.18404
files/tasks_parameters/ExAp01/sample43.txt 2.03925 6.86804 2.00142 0.25616 5.10866
files/tasks_parameters/ExAp01/sample32.txt 2.28718 8.15663 2.12995 0.281726 5.61854
files/tasks_parameters/ExAp01/sample45.txt 2.21063 7.75184 2.10599 0.274935 5.48309
files/tasks_parameters/ExAp01/sample26.txt 2.17178 7.4944 1.88956 0.267248 5.32979
files/tasks_parameters/ExAp01/sample5.txt 2.27452 8.08362 2.09961 0.28454 5.67466
files/tasks_parameters/ExAp01/sample21.txt 2.11706 6.11814 2.17119 0.26143 5.21375
files/tasks_parameters/ExAp01/sample38.txt 2.12174 7.761 1.96293 0.263659 5.25821
files/tasks_parameters/ExAp01/sample1.txt 2.29275 7.83752 2.13261 0.289228 5.76815
files/tasks_parameters/ExAp01/sample15.txt 2.30184 7.37971 2.12057 0.285825 5.70029
files/tasks_parameters/ExAp01/sample24.txt 2.39447 8.28531 2.25272 0.296628 5.91573
files/tasks_parameters/ExAp01/sample3.txt 2.44754 7.33359 2.39135 0.305084 6.08437
files/tasks_parameters/ExAp01/sample6.txt 2.26999 7.09894 2.24425 0.281804 5.62009
files/tasks_parameters/ExAp01/sample30.txt 2.35148 8.17669 2.03701 0.299204 5.9671
files/tasks_parameters/ExAp01/sample42.txt 2.38382 7.70416 2.42413 0.29743 5.93172
files/tasks_parameters/ExAp01/sample4.txt 2.43112 7.41691 2.36261 0.307803 6.13858
files/tasks_parameters/ExAp01/sample28.txt 2.14784 7.0562 2.07657 0.266428 5.31344
files/tasks_parameters/ExAp01/sample18.txt 2.17545 7.60139 2.1377 0.268016 5.34511
files/tasks_parameters/ExAp01/sample35.txt 2.58352 9.66795 2.28028 0.32244 6.43049
files/tasks_parameters/ExAp01/sample47.txt 2.00483 6.84842 2.12104 0.251655 5.01881
files/tasks_parameters/ExAp01/sample49.txt 2.07856 7.1497 2.11412 0.255889 5.10325
files/tasks_parameters/ExAp01/sample41.txt 2.15767 6.59911 2.07359 0.265885 5.30261
