files/tasks_parameters/ExAp01/sample8.txt 0.85078 3.15778 1.5595 0.203411 20.137
files/tasks_parameters/ExAp01/sample12.txt 0.840077 3.94962 1.6705 0.207924 20.5837
files/tasks_parameters/ExAp01/sample2.txt 0.932576 3.78275 1.74131 0.200098 19.8089
files/tasks_parameters/ExAp01/sample44.txt 0.803699 3.59825 1.65317 0.200005 19.7998
files/tasks_parameters/ExAp01/sample27.txt 0.827633 3.45743 1.5148 0.182129 18.0301
files/tasks_parameters/ExAp01/sample17.txt 0.640673 2.77299 1.44514 0.14646 14.499
files/tasks_parameters/ExAp01/sample9.txt 0.759807 2.99933 1.451 0.177444 17.5663
files/tasks_parameters/ExAp01/sample34.txt 0.683138 3.02928 1.58429 0.157984 15.6398
files/tasks_parameters/ExAp01/sample40.txt 0.71784 3.86889 1.52122 0.168379 16.669
files/tasks_parameters/ExAp01/sample33.txt 0.842043 3.63695 1.71905 0.199765 19.776
files/tasks_parameters/ExAp01/sample48.txt 0.7356 3.39061 1.49062 0.154728 15.3175
files/tasks_parameters/ExAp01/sample29.txt 0.805158 3.30472 1.38739 0.223868 22.1622
files/tasks_parameters/ExAp01/sample11.txt 0.763231 3.10585 1.41612 0.174079 17.2332
files/tasks_parameters/ExAp01/sample14.txt 0.609626 2.70971 1.43432 0.162214 16.0586
files/tasks_parameters/ExAp01/sample0.txt 0.772404 3.6937 1.5439 0.18367 18.1827
files/tasks_parameters/ExAp01/sample7.txt 0.644699 2.70501 1.42221 0.143463 14.2024
files/tasks_parameters/ExAp01/sample23.txt 0.737457 3.2697 1.57822 0.181448 17.9627
files/tasks_parameters/ExAp01/sample13.txt 0.821731 3.84225 1.67648 0.198247 19.6257
files/tasks_parameters/ExAp01/sample22.txt 0.660931 3.09569 1.56121 0.148796 14.7303
files/tasks_parameters/ExAp01/sample25.txt 0.633236 2.73966 1.5007 0.148149 14.6662
files/tasks_parameters/ExAp01/sample36.txt 0.570909 2.85948 1.28553 0.130042 12.8737
files/tasks_parameters/ExAp01/sample46.txt 0.934653 3.58643 1.69998 0.210103 20.7994
files/tasks_parameters/ExAp01/sample31.txt 0.699383 3.4832 1.53782 0.1722 17.0472
files/tasks_parameters/ExAp01/sample37.txt 0.727764 3.95293 1.50705 0.171701 16.9978
files/tasks_parameters/ExAp01/sample16.txt 0.700216 3.31216 1.30115 0.150249 14.8741
files/tasks_parameters/ExAp01/sample10.txt 0.758374 3.17098 1.61789 0.153776 15.2233
files/tasks_parameters/ExAp01/sample39.txt 0.764569 3.26617 1.44406 0.165669 16.4006
files/tasks_parameters/ExAp01/sample19.txt 0.879195 3.63532 1.52509 0.196094 19.4126
files/tasks_parameters/ExAp01/sample20.txt 0.600695 3.20793 1.25367 0.147335 14.5857
files/tasks_parameters/ExAp01/sample43.txt 0.671976 3.11551 1.4202 0.150644 14.9133
files/tasks_parameters/ExAp01/sample32.txt 0.688318 3.5311 1.42482 0.168744 16.7051
files/tasks_parameters/ExAp01/sample45.txt 0.884349 3.80283 1.48324 0.19807 19.6083
files/tasks_parameters/ExAp01/sample26.txt 0.730229 3.21645 1.29701 0.166061 16.4395
files/tasks_parameters/ExAp01/sample5.txt 0.795741 3.5889 1.52559 0.178903 17.7108
files/tasks_parameters/ExAp01/sample21.txt 0.888055 2.75242 1.55936 0.19512 19.3162
files/tasks_parameters/ExAp01/sample38.txt 0.686479 3.31563 1.37515 0.166157 16.4489
files/tasks_parameters/ExAp01/sample1.txt 0.893684 3.74964 1.51696 0.19701 19.5032
files/tasks_parameters/ExAp01/sample15.txt 0.756817 3.32916 1.48508 0.180707 17.8894
files/tasks_parameters/ExAp01/sample24.txt 0.740901 3.45951 1.59549 0.16529 16.3632
files/tasks_parameters/ExAp01/sample3.txt 0.977459 3.70014 1.70809 0.237107 23.4727
files/tasks_parameters/ExAp01/sample6.txt 0.761588 3.33003 1.58323 0.184714 18.2861
files/tasks_parameters/ExAp01/sample30.txt 0.935383 4.1841 1.4861 0.239623 23.7218
files/tasks_parameters/ExAp01/sample42.txt 0.777678 3.43221 1.70276 0.177383 17.5603
files/tasks_parameters/ExAp01/sample4.txt 0.845834 3.72477 1.6136 0.196448 19.4477
files/tasks_parameters/ExAp01/sample28.txt 0.671069 3.11323 1.45032 0.158819 15.7225
files/tasks_parameters/ExAp01/sample18.txt 0.749148 3.47418 1.45209 0.149064 14.7568
files/tasks_parameters/ExAp01/sample35.txt 0.728112 4.57086 1.49394 0.185031 18.3174
files/tasks_parameters/ExAp01/sample47.txt 0.661865 3.13768 1.52397 0.16417 16.2523
files/tasks_parameters/ExAp01/sample49.txt 0.678215 3.13288 1.49657 0.156154 15.4587
files/tasks_parameters/ExAp01/sample41.txt 0.708859 2.81964 1.49636 0.150876 14.9362
