files/tasks_parameters/ExAp01/sample8.txt 1.21614 7.2562 4.46819 0.454772 45.0208
files/tasks_parameters/ExAp01/sample12.txt 1.72254 9.70908 5.28286 0.618515 61.2307
files/tasks_parameters/ExAp01/sample2.txt 1.5679 8.14159 5.7401 0.620531 61.4303
files/tasks_parameters/ExAp01/sample44.txt 1.44991 7.25164 5.75904 0.557631 55.2034
files/tasks_parameters/ExAp01/sample27.txt 1.4111 8.10944 5.64946 0.564878 55.9209
files/tasks_parameters/ExAp01/sample17.txt 1.24012 7.11225 5.46658 0.527183 52.1893
files/tasks_parameters/ExAp01/sample9.txt 1.27993 7.62559 5.37813 0.517277 51.2086
files/tasks_parameters/ExAp01/sample34.txt 1.30597 7.04587 5.93037 0.497709 49.2714
files/tasks_parameters/ExAp01/sample40.txt 1.266 8.03037 5.123 0.502383 49.7341
files/tasks_parameters/ExAp01/sample33.txt 1.71071 9.22935 5.92956 0.659262 65.2646
files/tasks_parameters/ExAp01/sample48.txt 1.27183 8.12182 5.1577 0.452491 44.7949
files/tasks_parameters/ExAp01/sample29.txt 1.55454 8.06133 5.12331 0.650652 64.4122
files/tasks_parameters/ExAp01/sample11.txt 1.42828 7.63104 5.37897 0.563302 55.7649
files/tasks_parameters/ExAp01/sample14.txt 1.20602 6.66403 4.66322 0.471536 46.6804
files/tasks_parameters/ExAp01/sample0.txt 1.65987 9.3266 4.98971 0.6311 62.4766
files/tasks_parameters/ExAp01/sample7.txt 1.29802 7.34863 5.19436 0.515527 51.0354
files/tasks_parameters/ExAp01/sample23.txt 1.40809 6.68564 5.54308 0.588617 58.271
files/tasks_parameters/ExAp01/sample13.txt 1.49902 9.31093 5.35591 0.632849 62.6498
files/tasks_parameters/ExAp01/sample22.txt 1.36834 7.65588 5.04866 0.540336 53.4913
files/tasks_parameters/ExAp01/sample25.txt 1.09881 6.17035 5.0141 0.408296 40.4198
files/tasks_parameters/ExAp01/sample36.txt 1.25354 7.03772 4.66274 0.507647 50.2552
files/tasks_parameters/ExAp01/sample46.txt 1.47339 7.73433 4.79934 0.536843 53.1456
files/tasks_parameters/ExAp01/sample31.txt 1.25323 6.96928 5.16482 0.485817 48.0942
files/tasks_parameters/ExAp01/sample37.txt 1.61382 9.52443 5.74224 0.65799 65.1386
files/tasks_parameters/ExAp01/sample16.txt 1.37815 8.63521 4.97261 0.516328 51.1146
files/tasks_parameters/ExAp01/sample10.txt 1.49965 7.28353 6.16876 0.615651 60.9472
files/tasks_parameters/ExAp01/sample39.txt 1.1771 6.3405 4.6137 0.468873 46.4168
files/tasks_parameters/ExAp01/sample19.txt 1.48482 8.85528 5.22306 0.622152 61.5909
files/tasks_parameters/ExAp01/sample20.txt 1.38234 8.1141 5.21177 0.586994 58.1103
files/tasks_parameters/ExAp01/sample43.txt 1.29691 7.21373 5.6367 0.53748 53.2086
files/tasks_parameters/ExAp01/sample32.txt 1.53268 8.30592 5.38137 0.593918 58.7958
files/tasks_parameters/ExAp01/sample45.txt 1.41277 7.94069 4.96323 0.547271 54.1779
files/tasks_parameters/ExAp01/sample26.txt 1.22252 7.57061 4.62637 0.480146 47.5327
files/tasks_parameters/ExAp01/sample5.txt 1.40706 8.0307 5.35681 0.59407 58.8108
files/tasks_parameters/ExAp01/sample21.txt 1.16654 5.87802 4.61744 0.434264 42.9906
files/tasks_parameters/ExAp01/sample38.txt 1.18117 7.66999 4.86632 0.496808 49.1822
files/tasks_parameters/ExAp01/sample1.txt 1.23293 7.21312 4.63213 0.486293 48.1413
files/tasks_parameters/ExAp01/sample15.txt 1.28361 8.02273 5.50855 0.531063 52.5733
files/tasks_parameters/ExAp01/sample24.txt 1.38021 8.66348 5.4905 0.548998 54.3488
files/tasks_parameters/ExAp01/sample3.txt 1.22632 7.74268 4.79918 0.477387 47.2596
files/tasks_parameters/ExAp01/sample6.txt 1.59501 8.57133 5.80157 0.633604 62.7245
files/tasks_parameters/ExAp01/sample30.txt 1.74228 8.18878 5.90888 0.633576 62.7218
files/tasks_parameters/ExAp01/sample42.txt 1.4194 8.57689 5.67253 0.54426 53.8798
files/tasks_parameters/ExAp01/sample4.txt 1.37641 8.40354 4.57985 0.563519 55.7864
files/tasks_parameters/ExAp01/sample28.txt 1.13975 6.44114 4.96426 0.449721 44.5208
files/tasks_parameters/ExAp01/sample18.txt 1.36316 8.56363 4.60946 0.543766 53.8309
files/tasks_parameters/ExAp01/sample35.txt 1.99467 11.0387 6.34514 0.761377 75.3736
files/tasks_parameters/ExAp01/sample47.txt 1.3376 7.14493 5.22131 0.545046 53.9576
files/tasks_parameters/ExAp01/sample49.txt 1.30869 6.65996 4.80244 0.498533 49.353
files/tasks_parameters/ExAp01/sample41.txt 1.23601 7.09069 5.35462 0.497129 49.214
