0.4000102199999999
Task0 15 255 63 
Task1 255 63 15 
Task2 7 15 63 
Task3 31 15 255 
Task4 255 3 1 
Task5 15 63 127 
Task6 255 255 31 
Task7 255 63 127 
Task8 7 255 1 
Task9 63 255 127 
Task10 31 255 63 
Task11 7 255 31 
Task12 7 15 255 
Task13 31 7 63 
Task14 15 255 15 
Task15 63 255 7 
Task16 255 127 31 
Task17 1 15 255 
Task18 63 127 255 
Task19 63 15 7 
Task20 31 1 255 
Task21 127 7 7 
Task22 255 3 1 
Task23 127 31 3 
Task24 1 127 63 
Task25 255 63 255 
Task26 255 31 1 
Task27 63 63 127 
Task28 127 7 63 
Task29 7 127 127 
Task30 255 255 255 
Task31 255 31 63 
Task32 31 15 255 
Task33 127 63 15 
Task34 31 255 127 
Task35 255 7 3 
Task36 31 7 255 
Task37 127 127 31 
Task38 127 63 255 
Task39 63 255 3 
Task40 31 31 255 
Task41 15 255 31 
Task42 255 31 1 
Task43 255 63 3 
Task44 63 1 255 
Task45 15 31 63 
Task46 63 31 255 
Task47 63 31 127 
Task48 127 31 63 
Task49 63 3 63 
Task50 1 7 255 
Task51 127 63 15 
Task52 63 31 31 
Task53 255 7 255 
Task54 3 255 3 
Task55 3 127 63 
Task56 31 31 15 
Task57 255 127 127 
Task58 63 255 15 
Task59 255 31 7 
Task60 7 31 255 
Task61 15 255 255 
Task62 15 255 3 
Task63 31 255 15 
Task64 127 31 31 
Task65 127 127 7 
Task66 63 127 3 
Task67 15 63 255 
Task68 7 31 255 
Task69 63 7 31 
Task70 31 3 63 
Task71 7 31 63 
Task72 15 255 7 
Task73 7 31 255 
Task74 255 15 15 
Task75 255 31 63 
Task76 15 127 63 
Task77 127 127 63 
Task78 15 3 255 
Task79 15 255 31 
Task80 15 255 15 
Task81 31 255 31 
Task82 15 3 255 
Task83 63 255 127 
Task84 7 63 15 
Task85 31 255 255 
Task86 127 31 63 
Task87 15 255 31 
Task88 255 15 15 
Task89 31 7 255 
Task90 31 255 31 
Task91 63 1 63 
Task92 63 63 7 
Task93 255 127 63 
Task94 31 255 3 
Task95 15 31 127 
Task96 7 255 15 
Task97 63 127 7 
Task98 31 127 63 
Task99 255 3 31 
