files/tasks_parameters/ExAp01/sample8.txt 0.732739 3.15778 1.5595 0.203411 3.45165
files/tasks_parameters/ExAp01/sample12.txt 0.849869 3.94962 1.6705 0.207924 3.52822
files/tasks_parameters/ExAp01/sample2.txt 0.825882 3.78275 1.74131 0.200098 3.39542
files/tasks_parameters/ExAp01/sample44.txt 0.746675 3.59825 1.65317 0.200005 3.39385
files/tasks_parameters/ExAp01/sample27.txt 0.720533 3.45743 1.5148 0.182129 3.09051
files/tasks_parameters/ExAp01/sample17.txt 0.773023 2.77299 1.44514 0.14646 2.48525
files/tasks_parameters/ExAp01/sample9.txt 0.752003 2.99933 1.451 0.177444 3.01101
files/tasks_parameters/ExAp01/sample34.txt 0.817378 3.02928 1.58429 0.157984 2.6808
files/tasks_parameters/ExAp01/sample40.txt 0.757029 3.86889 1.52122 0.168379 2.8572
files/tasks_parameters/ExAp01/sample33.txt 0.796662 3.63695 1.71905 0.199765 3.38978
files/tasks_parameters/ExAp01/sample48.txt 0.682098 3.39061 1.49062 0.154728 2.62556
files/tasks_parameters/ExAp01/sample29.txt 0.810376 3.30472 1.38739 0.223868 3.79878
files/tasks_parameters/ExAp01/sample11.txt 0.717528 3.10585 1.41612 0.174079 2.95391
files/tasks_parameters/ExAp01/sample14.txt 0.663037 2.70971 1.43432 0.162214 2.75259
files/tasks_parameters/ExAp01/sample0.txt 0.782087 3.6937 1.5439 0.18367 3.11666
files/tasks_parameters/ExAp01/sample7.txt 0.775165 2.70501 1.42221 0.143463 2.43441
files/tasks_parameters/ExAp01/sample23.txt 0.777501 3.2697 1.57822 0.181448 3.07897
files/tasks_parameters/ExAp01/sample13.txt 0.793272 3.84225 1.67648 0.198247 3.36402
files/tasks_parameters/ExAp01/sample22.txt 0.758933 3.09569 1.56121 0.148796 2.5249
files/tasks_parameters/ExAp01/sample25.txt 0.724204 2.73966 1.5007 0.148149 2.51391
files/tasks_parameters/ExAp01/sample36.txt 0.665731 2.85948 1.28553 0.130042 2.20666
files/tasks_parameters/ExAp01/sample46.txt 0.791803 3.58643 1.69998 0.210103 3.5652
files/tasks_parameters/ExAp01/sample31.txt 0.725639 3.4832 1.53782 0.1722 2.92203
files/tasks_parameters/ExAp01/sample37.txt 0.760365 3.95293 1.50705 0.171701 2.91357
files/tasks_parameters/ExAp01/sample16.txt 0.642207 3.31216 1.30115 0.150249 2.54955
files/tasks_parameters/ExAp01/sample10.txt 0.821663 3.17098 1.61789 0.153776 2.6094
files/tasks_parameters/ExAp01/sample39.txt 0.681658 3.26617 1.44406 0.165669 2.8112
files/tasks_parameters/ExAp01/sample19.txt 0.769146 3.63532 1.52509 0.196094 3.32749
files/tasks_parameters/ExAp01/sample20.txt 0.663123 3.20793 1.25367 0.147335 2.50011
files/tasks_parameters/ExAp01/sample43.txt 0.64896 3.11551 1.4202 0.150644 2.55626
files/tasks_parameters/ExAp01/sample32.txt 0.766615 3.5311 1.42482 0.168744 2.86339
files/tasks_parameters/ExAp01/sample45.txt 0.765508 3.80283 1.48324 0.19807 3.36102
files/tasks_parameters/ExAp01/sample26.txt 0.666702 3.21645 1.29701 0.166061 2.81786
files/tasks_parameters/ExAp01/sample5.txt 0.682147 3.5889 1.52559 0.178903 3.03578
files/tasks_parameters/ExAp01/sample21.txt 0.727488 2.75242 1.55936 0.19512 3.31096
files/tasks_parameters/ExAp01/sample38.txt 0.669741 3.31563 1.37515 0.166157 2.81949
files/tasks_parameters/ExAp01/sample1.txt 0.744422 3.74964 1.51696 0.19701 3.34302
files/tasks_parameters/ExAp01/sample15.txt 0.722155 3.32916 1.48508 0.180707 3.06639
files/tasks_parameters/ExAp01/sample24.txt 0.793482 3.45951 1.59549 0.16529 2.80478
files/tasks_parameters/ExAp01/sample3.txt 0.901573 3.70014 1.70809 0.237107 4.02343
files/tasks_parameters/ExAp01/sample6.txt 0.736709 3.33003 1.58323 0.184714 3.13439
files/tasks_parameters/ExAp01/sample30.txt 0.940163 4.1841 1.4861 0.239623 4.06612
files/tasks_parameters/ExAp01/sample42.txt 0.761674 3.43221 1.70276 0.177383 3.00998
files/tasks_parameters/ExAp01/sample4.txt 0.825138 3.72477 1.6136 0.196448 3.33349
files/tasks_parameters/ExAp01/sample28.txt 0.705154 3.11323 1.45032 0.158819 2.69497
files/tasks_parameters/ExAp01/sample18.txt 0.731986 3.47418 1.45209 0.149064 2.52944
files/tasks_parameters/ExAp01/sample35.txt 0.836725 4.57086 1.49394 0.185031 3.13975
files/tasks_parameters/ExAp01/sample47.txt 0.719224 3.13768 1.52397 0.16417 2.78577
files/tasks_parameters/ExAp01/sample49.txt 0.759796 3.13288 1.49657 0.156154 2.64975
files/tasks_parameters/ExAp01/sample41.txt 0.767359 2.81964 1.49636 0.150876 2.56019
