digraph G {
0 ->9 0 ->12 0 ->14 0 ->15 0 ->17 0 ->18 0 ->19 0 ->20 1 ->13 1 ->15 1 ->20 1 ->21 2 ->9 2 ->11 2 ->16 2 ->19 2 ->21 3 ->15 4 ->9 4 ->10 4 ->14 4 ->19 4 ->20 5 ->9 5 ->11 5 ->14 5 ->19 5 ->20 6 ->13 6 ->14 6 ->16 6 ->18 6 ->19 6 ->20 6 ->21 7 ->12 7 ->18 8 ->12 8 ->13 8 ->18 9 ->25 9 ->26 9 ->30 10 ->22 10 ->26 11 ->22 12 ->26 13 ->23 14 ->22 14 ->24 14 ->26 14 ->30 15 ->27 15 ->28 15 ->29 16 ->26 16 ->28 17 ->28 18 ->22 18 ->26 18 ->27 18 ->31 19 ->22 19 ->23 19 ->26 19 ->27 19 ->28 19 ->29 19 ->30 20 ->22 20 ->24 20 ->27 20 ->29 20 ->31 22 ->33 22 ->39 22 ->40 22 ->41 23 ->35 23 ->38 23 ->41 24 ->39 25 ->32 25 ->34 25 ->35 25 ->38 25 ->41 26 ->32 26 ->36 26 ->37 26 ->39 26 ->41 26 ->42 27 ->37 27 ->40 28 ->33 28 ->36 28 ->37 28 ->40 28 ->42 29 ->32 29 ->39 29 ->42 30 ->35 30 ->36 30 ->39 30 ->40 30 ->41 31 ->32 31 ->34 31 ->35 31 ->42 32 ->44 32 ->54 33 ->43 33 ->44 33 ->49 33 ->50 34 ->43 34 ->45 34 ->46 34 ->48 34 ->52 35 ->48 35 ->50 35 ->53 36 ->43 36 ->47 36 ->49 36 ->53 37 ->43 37 ->44 37 ->50 37 ->53 38 ->43 39 ->46 39 ->50 39 ->52 40 ->49 40 ->50 40 ->52 41 ->44 41 ->53 42 ->44 42 ->51 43 ->56 43 ->61 43 ->63 44 ->59 44 ->60 44 ->62 44 ->63 45 ->57 45 ->60 45 ->61 45 ->63 46 ->57 46 ->58 46 ->60 46 ->61 47 ->55 47 ->57 47 ->61 48 ->57 48 ->57 48 ->60 48 ->61 49 ->58 49 ->61 50 ->56 50 ->59 50 ->60 51 ->57 51 ->58 51 ->59 51 ->63 52 ->56 52 ->58 52 ->60 52 ->63 53 ->56 53 ->58 54 ->55 54 ->58 54 ->63 56 ->64 56 ->65 57 ->67 59 ->66 60 ->65 60 ->66 61 ->64 63 ->65 63 ->66 63 ->68 64 ->72 64 ->74 64 ->75 65 ->70 65 ->71 65 ->72 65 ->73 65 ->75 66 ->69 66 ->75 67 ->71 67 ->73 67 ->74 68 ->69 68 ->72 68 ->73 69 ->79 69 ->81 70 ->77 70 ->81 71 ->76 71 ->78 71 ->80 72 ->77 72 ->80 73 ->77 73 ->81 74 ->80 75 ->76 75 ->80 76 ->83 76 ->86 77 ->83 77 ->84 77 ->90 77 ->91 78 ->82 78 ->84 78 ->89 78 ->91 79 ->85 79 ->88 79 ->91 80 ->82 80 ->86 80 ->87 81 ->84 81 ->85 81 ->86 82 ->93 83 ->94 83 ->96 83 ->97 83 ->98 84 ->95 84 ->96 84 ->97 85 ->95 85 ->96 86 ->96 86 ->97 86 ->99 87 ->99 88 ->94 88 ->97 88 ->98 88 ->99 89 ->92 90 ->93 90 ->94 90 ->95 90 ->99 91 ->97 
}
