digraph G {
0 ->8 0 ->9 0 ->11 0 ->19 1 ->17 1 ->20 2 ->8 2 ->12 2 ->15 2 ->16 2 ->17 2 ->18 2 ->19 2 ->20 2 ->21 3 ->10 3 ->11 3 ->12 3 ->16 3 ->18 3 ->21 4 ->8 4 ->10 4 ->12 4 ->15 4 ->16 4 ->21 5 ->10 5 ->12 5 ->13 5 ->14 5 ->16 5 ->19 5 ->20 6 ->10 6 ->18 7 ->9 7 ->18 8 ->22 8 ->23 8 ->26 9 ->22 10 ->25 10 ->27 10 ->28 12 ->22 12 ->25 13 ->22 13 ->25 13 ->26 13 ->28 14 ->25 14 ->28 15 ->26 16 ->22 16 ->27 17 ->25 17 ->26 18 ->27 19 ->22 19 ->24 19 ->25 19 ->28 21 ->24 21 ->26 21 ->28 22 ->29 22 ->36 23 ->30 23 ->32 23 ->36 23 ->37 24 ->30 24 ->34 25 ->29 25 ->30 25 ->31 25 ->33 25 ->37 26 ->33 26 ->34 26 ->35 26 ->36 26 ->37 27 ->30 27 ->32 27 ->35 28 ->33 28 ->36 29 ->41 29 ->45 30 ->39 30 ->40 30 ->42 30 ->43 31 ->38 31 ->39 31 ->41 31 ->42 31 ->45 32 ->38 33 ->40 33 ->45 34 ->38 34 ->39 34 ->40 34 ->41 34 ->42 35 ->40 36 ->39 36 ->40 36 ->41 36 ->43 37 ->38 37 ->42 37 ->44 37 ->45 38 ->49 38 ->51 39 ->46 39 ->48 39 ->50 39 ->51 40 ->46 40 ->48 40 ->49 41 ->47 41 ->48 41 ->50 43 ->46 44 ->49 44 ->50 45 ->46 45 ->49 46 ->53 46 ->54 46 ->56 47 ->52 47 ->54 47 ->55 47 ->56 47 ->58 48 ->52 48 ->56 49 ->53 50 ->55 51 ->53 51 ->54 51 ->57 51 ->59 52 ->64 53 ->63 53 ->65 54 ->60 54 ->63 55 ->64 56 ->62 57 ->60 57 ->61 57 ->64 58 ->62 58 ->63 59 ->62 60 ->67 60 ->68 60 ->72 60 ->76 60 ->77 61 ->66 61 ->67 61 ->68 61 ->73 61 ->78 62 ->69 62 ->70 62 ->71 62 ->72 62 ->78 63 ->66 63 ->67 63 ->72 63 ->75 64 ->70 64 ->71 64 ->74 64 ->76 64 ->77 65 ->71 65 ->76 65 ->77 66 ->81 66 ->84 67 ->79 67 ->84 67 ->86 68 ->79 68 ->82 68 ->86 69 ->84 69 ->85 69 ->86 70 ->79 70 ->80 70 ->84 70 ->86 71 ->82 72 ->82 72 ->85 73 ->79 74 ->80 74 ->87 75 ->79 76 ->80 76 ->83 76 ->85 76 ->86 77 ->79 77 ->82 78 ->82 78 ->82 78 ->83 78 ->84 78 ->85 79 ->88 79 ->95 80 ->93 80 ->96 81 ->88 82 ->88 83 ->89 84 ->88 84 ->95 84 ->97 85 ->91 85 ->95 85 ->96 86 ->89 86 ->92 86 ->95 86 ->96 87 ->90 87 ->94 87 ->96 87 ->97 88 ->99 90 ->98 92 ->98 93 ->99 95 ->99 97 ->98 
}
