digraph G {
0 ->6 0 ->7 0 ->8 1 ->6 1 ->7 2 ->5 2 ->7 2 ->8 2 ->10 3 ->5 3 ->8 3 ->9 5 ->12 5 ->13 5 ->15 5 ->18 6 ->11 6 ->18 7 ->11 7 ->12 7 ->13 7 ->15 7 ->16 8 ->11 8 ->14 10 ->12 10 ->13 10 ->17 10 ->18 11 ->25 11 ->28 11 ->30 12 ->23 12 ->28 13 ->26 13 ->27 14 ->20 14 ->22 14 ->25 14 ->32 15 ->19 15 ->22 15 ->24 15 ->25 15 ->26 15 ->28 15 ->32 16 ->19 16 ->22 16 ->25 16 ->26 16 ->28 16 ->29 16 ->31 17 ->31 18 ->21 18 ->24 18 ->27 18 ->30 20 ->33 20 ->35 20 ->36 20 ->37 21 ->36 22 ->38 22 ->39 23 ->33 23 ->38 23 ->39 25 ->33 25 ->35 25 ->37 25 ->38 26 ->35 26 ->36 26 ->37 27 ->35 28 ->33 28 ->35 29 ->33 29 ->34 29 ->40 30 ->36 30 ->37 31 ->36 31 ->37 32 ->33 32 ->34 32 ->35 33 ->41 33 ->42 33 ->44 33 ->45 33 ->46 33 ->47 34 ->42 34 ->43 34 ->46 35 ->43 35 ->45 35 ->49 36 ->45 36 ->46 37 ->44 37 ->47 38 ->44 38 ->46 38 ->48 39 ->42 39 ->47 39 ->48 40 ->42 40 ->43 40 ->44 40 ->48 41 ->53 41 ->56 42 ->50 42 ->51 42 ->53 42 ->56 42 ->58 43 ->54 43 ->56 44 ->50 44 ->51 44 ->58 45 ->51 45 ->52 45 ->55 46 ->58 47 ->51 47 ->54 48 ->54 48 ->57 49 ->53 49 ->54 49 ->56 51 ->63 52 ->66 53 ->59 53 ->63 53 ->64 53 ->65 54 ->62 54 ->64 54 ->65 55 ->62 55 ->66 56 ->62 56 ->66 57 ->60 57 ->61 57 ->62 58 ->61 58 ->64 58 ->65 58 ->66 59 ->69 59 ->71 60 ->67 60 ->69 60 ->70 61 ->70 62 ->70 64 ->69 64 ->72 64 ->74 65 ->70 65 ->72 66 ->68 66 ->73 67 ->81 68 ->76 68 ->77 68 ->78 68 ->81 69 ->75 69 ->77 69 ->78 69 ->79 70 ->75 70 ->76 70 ->77 70 ->81 72 ->75 72 ->76 72 ->78 73 ->76 73 ->78 73 ->80 74 ->77 75 ->85 75 ->93 75 ->94 76 ->83 76 ->95 77 ->83 77 ->86 77 ->88 77 ->89 77 ->90 77 ->92 78 ->86 78 ->87 78 ->89 78 ->91 78 ->95 79 ->83 79 ->85 79 ->87 79 ->95 80 ->84 80 ->85 80 ->86 80 ->87 80 ->91 80 ->93 80 ->95 81 ->82 81 ->83 81 ->84 81 ->85 81 ->87 81 ->90 81 ->91 81 ->93 81 ->94 83 ->97 83 ->98 84 ->96 84 ->99 85 ->99 86 ->98 86 ->99 87 ->98 88 ->98 91 ->96 91 ->99 92 ->96 94 ->97 95 ->96 
}
