digraph G {
0 ->8 0 ->9 0 ->10 0 ->11 0 ->14 0 ->16 0 ->17 0 ->20 1 ->10 1 ->11 1 ->14 1 ->15 2 ->11 2 ->14 2 ->18 3 ->12 3 ->17 3 ->18 3 ->21 4 ->8 4 ->13 4 ->15 4 ->19 5 ->8 5 ->9 5 ->15 5 ->19 6 ->14 6 ->15 6 ->17 6 ->18 6 ->19 7 ->8 7 ->9 7 ->10 7 ->11 7 ->12 7 ->16 7 ->17 7 ->19 7 ->20 8 ->26 9 ->23 9 ->24 9 ->25 10 ->23 10 ->25 11 ->26 12 ->22 12 ->24 12 ->25 13 ->22 13 ->24 14 ->22 14 ->23 14 ->25 14 ->26 15 ->25 16 ->25 16 ->26 17 ->25 17 ->27 18 ->22 19 ->26 20 ->22 20 ->23 20 ->26 21 ->22 21 ->26 22 ->30 22 ->31 22 ->32 22 ->33 22 ->36 23 ->31 23 ->33 23 ->34 23 ->35 24 ->28 24 ->32 24 ->33 24 ->35 25 ->29 25 ->32 25 ->35 27 ->31 28 ->41 28 ->42 29 ->38 29 ->40 29 ->41 30 ->38 30 ->39 30 ->40 31 ->39 31 ->43 31 ->44 31 ->46 32 ->39 32 ->45 32 ->46 33 ->37 33 ->43 33 ->44 33 ->46 33 ->47 34 ->37 34 ->42 34 ->43 34 ->44 34 ->45 34 ->47 35 ->37 35 ->39 35 ->41 35 ->44 36 ->37 36 ->43 37 ->49 37 ->53 38 ->48 38 ->49 38 ->51 38 ->52 39 ->48 39 ->51 39 ->52 40 ->48 40 ->52 42 ->48 42 ->51 42 ->53 43 ->51 43 ->54 44 ->49 44 ->50 47 ->49 47 ->53 47 ->54 47 ->55 48 ->56 48 ->57 48 ->58 48 ->59 49 ->56 49 ->57 49 ->58 50 ->58 50 ->60 50 ->62 50 ->64 51 ->59 51 ->60 51 ->62 52 ->60 52 ->61 52 ->62 52 ->63 53 ->56 53 ->60 53 ->61 54 ->61 54 ->63 55 ->57 55 ->58 55 ->59 55 ->61 55 ->63 56 ->66 56 ->69 57 ->65 57 ->67 59 ->68 59 ->69 60 ->68 61 ->65 61 ->69 62 ->67 62 ->68 63 ->65 63 ->68 63 ->69 64 ->65 64 ->66 64 ->69 65 ->72 65 ->76 66 ->74 67 ->71 67 ->73 67 ->77 68 ->72 69 ->70 69 ->75 70 ->79 71 ->78 71 ->82 71 ->84 71 ->85 72 ->78 72 ->84 73 ->81 74 ->84 74 ->85 75 ->82 76 ->78 76 ->80 76 ->85 77 ->78 77 ->83 77 ->85 78 ->86 78 ->87 79 ->86 79 ->91 80 ->89 81 ->90 82 ->87 82 ->90 83 ->86 83 ->87 83 ->88 85 ->88 86 ->93 86 ->96 86 ->98 87 ->94 87 ->97 88 ->92 88 ->94 88 ->95 89 ->92 89 ->95 89 ->96 89 ->97 89 ->99 90 ->95 91 ->97 91 ->99 
}
