files/tasks_parameters/ExOptd4/sample39.txt 1.30889 9.27457 4.76762 0.510331 12.8197
files/tasks_parameters/ExOptd4/sample21.txt 1.26226 8.59473 5.40832 0.541332 13.5985
files/tasks_parameters/ExOptd4/sample7.txt 1.26326 6.30021 4.845 0.492351 12.3681
files/tasks_parameters/ExOptd4/sample29.txt 1.54539 9.68141 5.4795 0.640982 16.1017
files/tasks_parameters/ExOptd4/sample44.txt 1.30643 7.63894 5.4424 0.54165 13.6065
files/tasks_parameters/ExOptd4/sample25.txt 1.15868 7.72224 5.08235 0.497645 12.5011
files/tasks_parameters/ExOptd4/sample43.txt 1.21438 7.13627 5.17218 0.467633 11.7472
files/tasks_parameters/ExOptd4/sample5.txt 1.32658 8.60329 5.6852 0.57266 14.3855
files/tasks_parameters/ExOptd4/sample9.txt 1.34705 8.60364 5.44341 0.563423 14.1534
files/tasks_parameters/ExOptd4/sample3.txt 1.3493 8.06835 5.13954 0.563028 14.1435
files/tasks_parameters/ExOptd4/sample32.txt 1.22412 8.30829 4.86813 0.535509 13.4522
files/tasks_parameters/ExOptd4/sample41.txt 1.60856 8.45829 5.73685 0.663665 16.6715
files/tasks_parameters/ExOptd4/sample16.txt 1.1887 8.23168 4.28629 0.467235 11.7372
files/tasks_parameters/ExOptd4/sample49.txt 1.35069 7.79588 4.40177 0.589917 14.819
files/tasks_parameters/ExOptd4/sample42.txt 1.26475 7.5984 5.19998 0.548427 13.7767
files/tasks_parameters/ExOptd4/sample33.txt 1.49435 9.659 5.49227 0.631662 15.8676
files/tasks_parameters/ExOptd4/sample11.txt 1.68687 8.81365 5.43661 0.664147 16.6837
files/tasks_parameters/ExOptd4/sample36.txt 1.39813 7.7247 4.94959 0.563255 14.1492
files/tasks_parameters/ExOptd4/sample46.txt 1.20515 6.97893 5.31854 0.475653 11.9486
files/tasks_parameters/ExOptd4/sample30.txt 1.25397 8.01523 5.24418 0.503348 12.6443
files/tasks_parameters/ExOptd4/sample18.txt 1.63413 9.64498 5.73813 0.703576 17.6741
files/tasks_parameters/ExOptd4/sample12.txt 1.13282 7.0793 4.53135 0.4802 12.0628
files/tasks_parameters/ExOptd4/sample1.txt 1.07083 6.06444 5.24492 0.463437 11.6417
files/tasks_parameters/ExOptd4/sample48.txt 1.56909 8.42767 6.05428 0.621365 15.609
files/tasks_parameters/ExOptd4/sample23.txt 1.30687 8.30521 5.18144 0.549163 13.7952
files/tasks_parameters/ExOptd4/sample47.txt 1.14671 7.01976 4.37051 0.44082 11.0736
files/tasks_parameters/ExOptd4/sample15.txt 1.45649 8.3814 5.00723 0.582912 14.643
files/tasks_parameters/ExOptd4/sample0.txt 1.22345 7.40806 4.73091 0.494852 12.4309
files/tasks_parameters/ExOptd4/sample24.txt 1.32601 7.93229 5.73429 0.564196 14.1728
files/tasks_parameters/ExOptd4/sample35.txt 1.13441 7.9066 4.70235 0.453936 11.4031
files/tasks_parameters/ExOptd4/sample40.txt 1.46815 7.95555 5.46191 0.599283 15.0543
files/tasks_parameters/ExOptd4/sample10.txt 1.10293 7.10361 4.98422 0.459973 11.5547
files/tasks_parameters/ExOptd4/sample28.txt 1.46328 7.81791 5.28772 0.614862 15.4456
files/tasks_parameters/ExOptd4/sample34.txt 1.30755 7.11804 5.36393 0.537962 13.5138
files/tasks_parameters/ExOptd4/sample8.txt 1.28887 7.24561 5.03191 0.52076 13.0817
files/tasks_parameters/ExOptd4/sample4.txt 1.38978 8.32908 4.84029 0.575469 14.456
files/tasks_parameters/ExOptd4/sample6.txt 1.39111 8.40009 5.41821 0.569857 14.3151
files/tasks_parameters/ExOptd4/sample19.txt 1.14822 7.0361 4.75223 0.492781 12.3789
files/tasks_parameters/ExOptd4/sample45.txt 1.12734 7.26695 4.32988 0.433635 10.8931
files/tasks_parameters/ExOptd4/sample22.txt 1.37078 8.48783 5.0613 0.56369 14.1601
files/tasks_parameters/ExOptd4/sample26.txt 1.08097 8.32169 4.52847 0.428933 10.775
files/tasks_parameters/ExOptd4/sample13.txt 1.02832 5.93038 4.50296 0.41412 10.4029
files/tasks_parameters/ExOptd4/sample38.txt 1.47289 8.69382 5.64906 0.628653 15.792
files/tasks_parameters/ExOptd4/sample31.txt 1.58208 8.23509 5.86793 0.657391 16.5139
files/tasks_parameters/ExOptd4/sample27.txt 1.23487 7.06962 5.27346 0.514387 12.9216
files/tasks_parameters/ExOptd4/sample20.txt 1.38847 7.88257 5.02823 0.590664 14.8377
files/tasks_parameters/ExOptd4/sample37.txt 1.56928 9.57112 4.81463 0.658035 16.5301
files/tasks_parameters/ExOptd4/sample2.txt 1.35906 8.50023 5.05804 0.534608 13.4296
files/tasks_parameters/ExOptd4/sample17.txt 1.3891 7.77474 5.58752 0.5787 14.5372
files/tasks_parameters/ExOptd4/sample14.txt 1.33929 9.54755 5.17103 0.568266 14.2751
