files/tasks_parameters/ExAp01/sample8.txt 1.08878 7.2562 4.46819 0.454772 9.46446
files/tasks_parameters/ExAp01/sample12.txt 1.45011 9.70908 5.28286 0.618515 12.8722
files/tasks_parameters/ExAp01/sample2.txt 1.42452 8.14159 5.7401 0.620531 12.9141
files/tasks_parameters/ExAp01/sample44.txt 1.31061 7.25164 5.75904 0.557631 11.6051
files/tasks_parameters/ExAp01/sample27.txt 1.32857 8.10944 5.64946 0.564878 11.7559
files/tasks_parameters/ExAp01/sample17.txt 1.24263 7.11225 5.46658 0.527183 10.9714
files/tasks_parameters/ExAp01/sample9.txt 1.19734 7.62559 5.37813 0.517277 10.7653
files/tasks_parameters/ExAp01/sample34.txt 1.24539 7.04587 5.93037 0.497709 10.358
files/tasks_parameters/ExAp01/sample40.txt 1.17034 8.03037 5.123 0.502383 10.4553
files/tasks_parameters/ExAp01/sample33.txt 1.50355 9.22935 5.92956 0.659262 13.7202
files/tasks_parameters/ExAp01/sample48.txt 1.07537 8.12182 5.1577 0.452491 9.41698
files/tasks_parameters/ExAp01/sample29.txt 1.46414 8.06133 5.12331 0.650652 13.541
files/tasks_parameters/ExAp01/sample11.txt 1.32743 7.63104 5.37897 0.563302 11.7231
files/tasks_parameters/ExAp01/sample14.txt 1.13088 6.66403 4.66322 0.471536 9.81334
files/tasks_parameters/ExAp01/sample0.txt 1.45835 9.3266 4.98971 0.6311 13.1341
files/tasks_parameters/ExAp01/sample7.txt 1.20302 7.34863 5.19436 0.515527 10.7289
files/tasks_parameters/ExAp01/sample23.txt 1.36986 6.68564 5.54308 0.588617 12.25
files/tasks_parameters/ExAp01/sample13.txt 1.4707 9.31093 5.35591 0.632849 13.1705
files/tasks_parameters/ExAp01/sample22.txt 1.26233 7.65588 5.04866 0.540336 11.2452
files/tasks_parameters/ExAp01/sample25.txt 1.01203 6.17035 5.0141 0.408296 8.49722
files/tasks_parameters/ExAp01/sample36.txt 1.1996 7.03772 4.66274 0.507647 10.5649
files/tasks_parameters/ExAp01/sample46.txt 1.25672 7.73433 4.79934 0.536843 11.1725
files/tasks_parameters/ExAp01/sample31.txt 1.18801 6.96928 5.16482 0.485817 10.1106
files/tasks_parameters/ExAp01/sample37.txt 1.5083 9.52443 5.74224 0.65799 13.6937
files/tasks_parameters/ExAp01/sample16.txt 1.30521 8.63521 4.97261 0.516328 10.7455
files/tasks_parameters/ExAp01/sample10.txt 1.41904 7.28353 6.16876 0.615651 12.8126
files/tasks_parameters/ExAp01/sample39.txt 1.11704 6.3405 4.6137 0.468873 9.75792
files/tasks_parameters/ExAp01/sample19.txt 1.40668 8.85528 5.22306 0.622152 12.9479
files/tasks_parameters/ExAp01/sample20.txt 1.34097 8.1141 5.21177 0.586994 12.2162
files/tasks_parameters/ExAp01/sample43.txt 1.25612 7.21373 5.6367 0.53748 11.1857
files/tasks_parameters/ExAp01/sample32.txt 1.37714 8.30592 5.38137 0.593918 12.3603
files/tasks_parameters/ExAp01/sample45.txt 1.24952 7.94069 4.96323 0.547271 11.3895
files/tasks_parameters/ExAp01/sample26.txt 1.12538 7.57061 4.62637 0.480146 9.99252
files/tasks_parameters/ExAp01/sample5.txt 1.35489 8.0307 5.35681 0.59407 12.3634
files/tasks_parameters/ExAp01/sample21.txt 1.04306 5.87802 4.61744 0.434264 9.03766
files/tasks_parameters/ExAp01/sample38.txt 1.14197 7.66999 4.86632 0.496808 10.3393
files/tasks_parameters/ExAp01/sample1.txt 1.13426 7.21312 4.63213 0.486293 10.1205
files/tasks_parameters/ExAp01/sample15.txt 1.25626 8.02273 5.50855 0.531063 11.0522
files/tasks_parameters/ExAp01/sample24.txt 1.27504 8.66348 5.4905 0.548998 11.4254
files/tasks_parameters/ExAp01/sample3.txt 1.13905 7.74268 4.79918 0.477387 9.9351
files/tasks_parameters/ExAp01/sample6.txt 1.43941 8.57133 5.80157 0.633604 13.1862
files/tasks_parameters/ExAp01/sample30.txt 1.53299 8.18878 5.90888 0.633576 13.1856
files/tasks_parameters/ExAp01/sample42.txt 1.33801 8.57689 5.67253 0.54426 11.3268
files/tasks_parameters/ExAp01/sample4.txt 1.29354 8.40354 4.57985 0.563519 11.7276
files/tasks_parameters/ExAp01/sample28.txt 1.04164 6.44114 4.96426 0.449721 9.35934
files/tasks_parameters/ExAp01/sample18.txt 1.28179 8.56363 4.60946 0.543766 11.3166
files/tasks_parameters/ExAp01/sample35.txt 1.78661 11.0387 6.34514 0.761377 15.8453
files/tasks_parameters/ExAp01/sample47.txt 1.23583 7.14493 5.22131 0.545046 11.3432
files/tasks_parameters/ExAp01/sample49.txt 1.27929 6.65996 4.80244 0.498533 10.3752
files/tasks_parameters/ExAp01/sample41.txt 1.14834 7.09069 5.35462 0.497129 10.346
