files/tasks_parameters/ExAp01/sample8.txt 1.10676 7.2562 4.46819 0.454772 16.5607
files/tasks_parameters/ExAp01/sample12.txt 1.59735 9.70908 5.28286 0.618515 22.5234
files/tasks_parameters/ExAp01/sample2.txt 1.47507 8.14159 5.7401 0.620531 22.5969
files/tasks_parameters/ExAp01/sample44.txt 1.35459 7.25164 5.75904 0.557631 20.3063
files/tasks_parameters/ExAp01/sample27.txt 1.31703 8.10944 5.64946 0.564878 20.5703
files/tasks_parameters/ExAp01/sample17.txt 1.23781 7.11225 5.46658 0.527183 19.1976
files/tasks_parameters/ExAp01/sample9.txt 1.18131 7.62559 5.37813 0.517277 18.8368
files/tasks_parameters/ExAp01/sample34.txt 1.26878 7.04587 5.93037 0.497709 18.1243
files/tasks_parameters/ExAp01/sample40.txt 1.201 8.03037 5.123 0.502383 18.2944
files/tasks_parameters/ExAp01/sample33.txt 1.61126 9.22935 5.92956 0.659262 24.0073
files/tasks_parameters/ExAp01/sample48.txt 1.16035 8.12182 5.1577 0.452491 16.4776
files/tasks_parameters/ExAp01/sample29.txt 1.54119 8.06133 5.12331 0.650652 23.6937
files/tasks_parameters/ExAp01/sample11.txt 1.36191 7.63104 5.37897 0.563302 20.5128
files/tasks_parameters/ExAp01/sample14.txt 1.13535 6.66403 4.66322 0.471536 17.1712
files/tasks_parameters/ExAp01/sample0.txt 1.50404 9.3266 4.98971 0.6311 22.9817
files/tasks_parameters/ExAp01/sample7.txt 1.28298 7.34863 5.19436 0.515527 18.7731
files/tasks_parameters/ExAp01/sample23.txt 1.39402 6.68564 5.54308 0.588617 21.4347
files/tasks_parameters/ExAp01/sample13.txt 1.53396 9.31093 5.35591 0.632849 23.0454
files/tasks_parameters/ExAp01/sample22.txt 1.30375 7.65588 5.04866 0.540336 19.6765
files/tasks_parameters/ExAp01/sample25.txt 1.0303 6.17035 5.0141 0.408296 14.8682
files/tasks_parameters/ExAp01/sample36.txt 1.21656 7.03772 4.66274 0.507647 18.4862
files/tasks_parameters/ExAp01/sample46.txt 1.35192 7.73433 4.79934 0.536843 19.5494
files/tasks_parameters/ExAp01/sample31.txt 1.16974 6.96928 5.16482 0.485817 17.6912
files/tasks_parameters/ExAp01/sample37.txt 1.54658 9.52443 5.74224 0.65799 23.9609
files/tasks_parameters/ExAp01/sample16.txt 1.33659 8.63521 4.97261 0.516328 18.8023
files/tasks_parameters/ExAp01/sample10.txt 1.39967 7.28353 6.16876 0.615651 22.4191
files/tasks_parameters/ExAp01/sample39.txt 1.13898 6.3405 4.6137 0.468873 17.0742
files/tasks_parameters/ExAp01/sample19.txt 1.40328 8.85528 5.22306 0.622152 22.6559
files/tasks_parameters/ExAp01/sample20.txt 1.39217 8.1141 5.21177 0.586994 21.3756
files/tasks_parameters/ExAp01/sample43.txt 1.31249 7.21373 5.6367 0.53748 19.5725
files/tasks_parameters/ExAp01/sample32.txt 1.44593 8.30592 5.38137 0.593918 21.6277
files/tasks_parameters/ExAp01/sample45.txt 1.30968 7.94069 4.96323 0.547271 19.9291
files/tasks_parameters/ExAp01/sample26.txt 1.13707 7.57061 4.62637 0.480146 17.4847
files/tasks_parameters/ExAp01/sample5.txt 1.37224 8.0307 5.35681 0.59407 21.6333
files/tasks_parameters/ExAp01/sample21.txt 1.01482 5.87802 4.61744 0.434264 15.8139
files/tasks_parameters/ExAp01/sample38.txt 1.31247 7.66999 4.86632 0.496808 18.0915
files/tasks_parameters/ExAp01/sample1.txt 1.13575 7.21312 4.63213 0.486293 17.7085
files/tasks_parameters/ExAp01/sample15.txt 1.27809 8.02273 5.50855 0.531063 19.3388
files/tasks_parameters/ExAp01/sample24.txt 1.31882 8.66348 5.4905 0.548998 19.992
files/tasks_parameters/ExAp01/sample3.txt 1.16653 7.74268 4.79918 0.477387 17.3842
files/tasks_parameters/ExAp01/sample6.txt 1.48574 8.57133 5.80157 0.633604 23.0729
files/tasks_parameters/ExAp01/sample30.txt 1.6639 8.18878 5.90888 0.633576 23.0719
files/tasks_parameters/ExAp01/sample42.txt 1.33149 8.57689 5.67253 0.54426 19.8194
files/tasks_parameters/ExAp01/sample4.txt 1.28102 8.40354 4.57985 0.563519 20.5208
files/tasks_parameters/ExAp01/sample28.txt 1.03586 6.44114 4.96426 0.449721 16.3768
files/tasks_parameters/ExAp01/sample18.txt 1.30689 8.56363 4.60946 0.543766 19.8015
files/tasks_parameters/ExAp01/sample35.txt 1.89869 11.0387 6.34514 0.761377 27.7258
files/tasks_parameters/ExAp01/sample47.txt 1.32195 7.14493 5.22131 0.545046 19.848
files/tasks_parameters/ExAp01/sample49.txt 1.28263 6.65996 4.80244 0.498533 18.1543
files/tasks_parameters/ExAp01/sample41.txt 1.18307 7.09069 5.35462 0.497129 18.1031
