0.36936325999999997
Task0 7 15 63 
Task1 1 63 15 
Task2 1 63 3 
Task3 3 63 31 
Task4 127 127 127 
Task5 3 63 7 
Task6 15 63 31 
Task7 7 63 63 
Task8 31 31 31 
Task9 15 7 63 
Task10 63 1 31 
Task11 31 31 31 
Task12 15 15 63 
Task13 255 15 31 
Task14 1 15 31 
Task15 255 31 127 
Task16 63 127 63 
Task17 1 7 63 
Task18 3 15 63 
Task19 63 31 31 
Task20 31 63 127 
Task21 7 63 1 
Task22 63 15 7 
Task23 255 255 63 
Task24 3 31 31 
Task25 63 7 3 
Task26 31 3 7 
Task27 15 63 7 
Task28 3 7 63 
Task29 3 31 255 
Task30 7 3 63 
Task31 1 63 3 
Task32 31 63 15 
Task33 31 31 255 
Task34 63 63 31 
Task35 15 63 127 
Task36 63 1 15 
Task37 31 31 7 
Task38 31 127 63 
Task39 127 31 31 
Task40 15 63 1 
Task41 7 31 3 
Task42 7 31 31 
Task43 15 3 63 
Task44 63 31 31 
Task45 255 255 255 
Task46 7 1 63 
Task47 15 63 31 
Task48 7 7 63 
Task49 31 63 15 
Task50 31 63 63 
Task51 31 255 127 
Task52 31 15 7 
Task53 3 3 63 
Task54 31 7 7 
Task55 255 255 63 
Task56 63 255 31 
Task57 7 31 63 
Task58 63 255 31 
Task59 31 63 15 
Task60 31 31 1 
Task61 63 63 15 
Task62 31 63 1 
Task63 255 255 255 
Task64 3 63 7 
Task65 3 63 15 
Task66 63 15 63 
Task67 63 31 31 
Task68 31 63 3 
Task69 15 7 31 
Task70 7 31 3 
Task71 7 63 15 
Task72 63 31 63 
Task73 255 63 255 
Task74 3 7 63 
Task75 63 3 7 
Task76 63 15 63 
Task77 63 3 15 
Task78 255 31 31 
Task79 31 31 31 
Task80 63 63 31 
Task81 15 127 31 
Task82 255 127 63 
Task83 63 3 3 
Task84 1 63 7 
Task85 1 127 63 
Task86 63 15 7 
Task87 15 63 7 
Task88 3 63 3 
Task89 63 15 15 
Task90 15 31 31 
Task91 31 7 15 
Task92 7 31 15 
Task93 31 63 1 
Task94 31 15 15 
Task95 63 15 31 
Task96 7 63 7 
Task97 127 15 255 
Task98 31 63 31 
Task99 255 127 255 
