0.31578285
Task0 63 15 15 
Task1 31 127 63 
Task2 3 15 63 
Task3 15 31 63 
Task4 255 15 255 
Task5 63 255 127 
Task6 15 15 63 
Task7 15 31 31 
Task8 31 15 15 
Task9 15 63 15 
Task10 63 63 127 
Task11 3 31 3 
Task12 31 1 7 
Task13 31 63 31 
Task14 1 63 7 
Task15 31 63 127 
Task16 7 63 15 
Task17 15 63 3 
Task18 63 7 7 
Task19 31 7 1 
Task20 7 7 63 
Task21 31 1 7 
Task22 1 31 31 
Task23 1 3 63 
Task24 7 31 3 
Task25 3 63 63 
Task26 31 7 15 
Task27 31 3 7 
Task28 31 63 15 
Task29 63 15 255 
Task30 7 15 63 
Task31 31 7 1 
Task32 7 127 255 
Task33 3 31 15 
Task34 63 31 63 
Task35 3 31 31 
Task36 31 63 3 
Task37 7 3 63 
Task38 15 31 63 
Task39 63 15 15 
Task40 7 7 63 
Task41 3 31 3 
Task42 15 63 15 
Task43 31 3 7 
Task44 31 15 7 
Task45 63 31 7 
Task46 7 31 1 
Task47 3 63 3 
Task48 15 31 7 
Task49 63 7 15 
Task50 1 7 31 
Task51 31 3 1 
Task52 31 31 3 
Task53 15 31 15 
Task54 31 31 63 
Task55 15 1 31 
Task56 1 15 63 
Task57 15 31 15 
Task58 31 31 15 
Task59 3 31 31 
Task60 63 63 31 
Task61 15 63 7 
Task62 7 31 7 
Task63 31 63 63 
Task64 31 1 31 
Task65 63 31 15 
Task66 7 7 63 
Task67 63 15 3 
Task68 255 63 127 
Task69 15 31 63 
Task70 31 31 3 
Task71 127 7 255 
Task72 7 31 3 
Task73 31 15 15 
Task74 1 31 31 
Task75 31 1 1 
Task76 3 7 63 
Task77 7 31 15 
Task78 63 1 3 
Task79 127 31 15 
Task80 31 3 1 
Task81 15 63 15 
Task82 15 63 63 
Task83 15 15 63 
Task84 31 1 31 
Task85 7 31 1 
Task86 1 31 7 
Task87 63 3 3 
Task88 31 3 7 
Task89 15 31 63 
Task90 7 7 31 
Task91 31 255 31 
Task92 3 31 1 
Task93 31 3 3 
Task94 31 31 7 
Task95 31 255 63 
Task96 63 7 7 
Task97 63 15 1 
Task98 63 31 31 
Task99 3 7 31 
