0.3389767699999999
Task0 15 7 31 
Task1 7 31 7 
Task2 63 63 31 
Task3 15 31 15 
Task4 31 31 31 
Task5 255 63 255 
Task6 15 31 1 
Task7 3 3 31 
Task8 7 15 63 
Task9 1 63 31 
Task10 31 15 63 
Task11 255 127 127 
Task12 15 63 63 
Task13 3 15 63 
Task14 63 15 31 
Task15 7 15 63 
Task16 7 3 63 
Task17 3 15 63 
Task18 31 1 31 
Task19 7 15 15 
Task20 31 63 3 
Task21 31 7 31 
Task22 7 31 7 
Task23 3 7 31 
Task24 63 31 15 
Task25 63 31 15 
Task26 7 31 31 
Task27 127 31 63 
Task28 3 7 31 
Task29 7 63 15 
Task30 127 127 255 
Task31 255 255 31 
Task32 127 7 31 
Task33 31 31 31 
Task34 3 1 31 
Task35 127 127 255 
Task36 31 1 3 
Task37 1 15 31 
Task38 7 31 7 
Task39 31 1 1 
Task40 63 127 127 
Task41 3 63 31 
Task42 31 7 15 
Task43 31 15 1 
Task44 3 31 31 
Task45 7 7 31 
Task46 1 31 63 
Task47 31 31 15 
Task48 31 15 31 
Task49 3 31 1 
Task50 63 7 7 
Task51 63 3 31 
Task52 31 1 15 
Task53 31 15 63 
Task54 7 63 31 
Task55 31 7 1 
Task56 255 127 63 
Task57 15 31 3 
Task58 7 31 63 
Task59 31 3 7 
Task60 3 1 63 
Task61 31 63 1 
Task62 15 31 63 
Task63 63 63 15 
Task64 63 7 15 
Task65 31 31 15 
Task66 31 15 15 
Task67 31 7 31 
Task68 63 15 63 
Task69 7 15 31 
Task70 3 31 1 
Task71 15 31 3 
Task72 63 31 15 
Task73 31 7 31 
Task74 255 31 7 
Task75 7 31 7 
Task76 1 7 63 
Task77 7 3 31 
Task78 3 31 7 
Task79 255 255 255 
Task80 3 7 63 
Task81 15 31 15 
Task82 7 31 7 
Task83 31 1 15 
Task84 63 31 31 
Task85 15 63 63 
Task86 255 7 63 
Task87 3 1 31 
Task88 3 3 31 
Task89 1 15 15 
Task90 31 15 63 
Task91 255 63 31 
Task92 63 255 127 
Task93 15 1 63 
Task94 3 31 1 
Task95 3 63 15 
Task96 3 63 31 
Task97 7 15 31 
Task98 31 15 3 
Task99 31 31 3 
