files/tasks_parameters/ExAp01/sample8.txt 0.791465 3.15778 1.5595 0.203411 3.92548
files/tasks_parameters/ExAp01/sample12.txt 0.806027 3.94962 1.6705 0.207924 4.01256
files/tasks_parameters/ExAp01/sample2.txt 0.7723 3.78275 1.74131 0.200098 3.86153
files/tasks_parameters/ExAp01/sample44.txt 0.69082 3.59825 1.65317 0.200005 3.85975
files/tasks_parameters/ExAp01/sample27.txt 0.681226 3.45743 1.5148 0.182129 3.51476
files/tasks_parameters/ExAp01/sample17.txt 0.8698 2.77299 1.44514 0.14646 2.82642
files/tasks_parameters/ExAp01/sample9.txt 0.728395 2.99933 1.451 0.177444 3.42435
files/tasks_parameters/ExAp01/sample34.txt 0.831645 3.02928 1.58429 0.157984 3.04881
files/tasks_parameters/ExAp01/sample40.txt 0.764924 3.86889 1.52122 0.168379 3.24943
files/tasks_parameters/ExAp01/sample33.txt 0.805353 3.63695 1.71905 0.199765 3.85511
files/tasks_parameters/ExAp01/sample48.txt 0.682426 3.39061 1.49062 0.154728 2.98598
files/tasks_parameters/ExAp01/sample29.txt 0.736993 3.30472 1.38739 0.223868 4.32026
files/tasks_parameters/ExAp01/sample11.txt 0.707448 3.10585 1.41612 0.174079 3.35941
files/tasks_parameters/ExAp01/sample14.txt 0.65583 2.70971 1.43432 0.162214 3.13045
files/tasks_parameters/ExAp01/sample0.txt 0.7486 3.6937 1.5439 0.18367 3.5445
files/tasks_parameters/ExAp01/sample7.txt 0.809856 2.70501 1.42221 0.143463 2.76859
files/tasks_parameters/ExAp01/sample23.txt 0.75565 3.2697 1.57822 0.181448 3.50164
files/tasks_parameters/ExAp01/sample13.txt 0.733647 3.84225 1.67648 0.198247 3.82582
files/tasks_parameters/ExAp01/sample22.txt 0.859577 3.09569 1.56121 0.148796 2.8715
files/tasks_parameters/ExAp01/sample25.txt 0.746637 2.73966 1.5007 0.148149 2.85901
files/tasks_parameters/ExAp01/sample36.txt 0.75928 2.85948 1.28553 0.130042 2.50959
files/tasks_parameters/ExAp01/sample46.txt 0.753045 3.58643 1.69998 0.210103 4.05461
files/tasks_parameters/ExAp01/sample31.txt 0.691311 3.4832 1.53782 0.1722 3.32316
files/tasks_parameters/ExAp01/sample37.txt 0.770439 3.95293 1.50705 0.171701 3.31353
files/tasks_parameters/ExAp01/sample16.txt 0.606127 3.31216 1.30115 0.150249 2.89954
files/tasks_parameters/ExAp01/sample10.txt 1.04368 3.17098 1.61789 0.153776 2.96761
files/tasks_parameters/ExAp01/sample39.txt 0.699279 3.26617 1.44406 0.165669 3.19712
files/tasks_parameters/ExAp01/sample19.txt 0.73825 3.63532 1.52509 0.196094 3.78428
files/tasks_parameters/ExAp01/sample20.txt 0.662661 3.20793 1.25367 0.147335 2.84331
files/tasks_parameters/ExAp01/sample43.txt 0.648094 3.11551 1.4202 0.150644 2.90717
files/tasks_parameters/ExAp01/sample32.txt 0.722684 3.5311 1.42482 0.168744 3.25647
files/tasks_parameters/ExAp01/sample45.txt 0.748982 3.80283 1.48324 0.19807 3.82241
files/tasks_parameters/ExAp01/sample26.txt 0.63282 3.21645 1.29701 0.166061 3.20469
files/tasks_parameters/ExAp01/sample5.txt 0.633056 3.5889 1.52559 0.178903 3.45252
files/tasks_parameters/ExAp01/sample21.txt 0.680268 2.75242 1.55936 0.19512 3.76548
files/tasks_parameters/ExAp01/sample38.txt 0.664457 3.31563 1.37515 0.166157 3.20653
files/tasks_parameters/ExAp01/sample1.txt 0.729041 3.74964 1.51696 0.19701 3.80194
files/tasks_parameters/ExAp01/sample15.txt 0.698554 3.32916 1.48508 0.180707 3.48734
files/tasks_parameters/ExAp01/sample24.txt 0.843979 3.45951 1.59549 0.16529 3.18981
files/tasks_parameters/ExAp01/sample3.txt 0.896972 3.70014 1.70809 0.237107 4.57575
files/tasks_parameters/ExAp01/sample6.txt 0.702332 3.33003 1.58323 0.184714 3.56466
files/tasks_parameters/ExAp01/sample30.txt 0.810147 4.1841 1.4861 0.239623 4.6243
files/tasks_parameters/ExAp01/sample42.txt 0.747833 3.43221 1.70276 0.177383 3.42318
files/tasks_parameters/ExAp01/sample4.txt 0.785506 3.72477 1.6136 0.196448 3.7911
files/tasks_parameters/ExAp01/sample28.txt 0.689545 3.11323 1.45032 0.158819 3.06493
files/tasks_parameters/ExAp01/sample18.txt 0.769617 3.47418 1.45209 0.149064 2.87667
files/tasks_parameters/ExAp01/sample35.txt 0.806087 4.57086 1.49394 0.185031 3.57077
files/tasks_parameters/ExAp01/sample47.txt 0.716344 3.13768 1.52397 0.16417 3.1682
files/tasks_parameters/ExAp01/sample49.txt 0.776571 3.13288 1.49657 0.156154 3.0135
files/tasks_parameters/ExAp01/sample41.txt 0.761871 2.81964 1.49636 0.150876 2.91164
