Task0 0.06744764575965363 0.4016825297916734 0.22288727418029397 0.21260292786230647 0.4431714747059587 0.3172971644037778 0.7347183208523926 
Task1 0.006112689525433334 0.04018950596505081 0.03215701973837737 0.022708412420139375 0.7027288562878184 0.7284259619304314 0.6946155067343304 
Task2 0.06533122475144167 0.0468516328438971 0.13226866985315647 0.14430765781052038 0.5754139232721813 0.6969569705013954 0.6384504600041527 
Task3 0.16751251575302836 0.16796686134425234 0.16388710988799124 0.3448124198293517 0.635536307763768 0.9340281144804978 0.6666703110735555 
Task4 0.042039123172228555 0.1135936179463822 0.17441617181954233 0.0878522755644055 0.8449516514476905 0.7451454475792725 0.6249731324060994 
Task5 0.021981404941361665 0.012807628660225457 0.14272467975808115 0.0486050408954973 0.694402931072017 0.3134035187340548 0.8838275765610177 
Task6 0.07673414495962812 0.06255821582088204 0.1364159038708499 0.21478054428526777 0.46420375612034614 0.9470820302016951 0.33193322465472963 
Task7 0.0028353350652177774 0.0017184717851218179 0.0025559230282624244 0.008486367430609503 0.797769755581498 0.5960446256873604 0.6991319231298273 
Task8 0.02303642167379396 0.025697439654278485 0.04671707769938744 0.057427958930042544 0.6632797181008198 0.8954458026555909 0.8542881935434099 
Task9 0.10542092566253168 0.42113827017567546 0.3315200819140302 0.10058202734501297 0.7448795837235419 0.4919476747455388 0.806733692949759 
Task10 0.15574695151957202 0.16534997054748266 0.12953382982871062 0.5141851626104096 0.47822682798115057 0.8157659142934433 0.7593071182871014 
Task11 0.013513084506015143 0.15580384904666933 0.0697242912112188 0.043489957497823105 0.8501119746410422 0.4901059013419944 0.4826588333845343 
Task12 0.17004729483048142 0.0752207093207008 0.4718603778757675 0.2618969548773769 0.8271982547243661 0.8906495823742229 0.3291448661349203 
Task13 0.055329551022190525 0.1362035089573741 0.6960045047511392 0.08391625810560778 0.6904096576914645 0.7858374134695825 0.8008274676502842 
Task14 0.04291098322120306 0.23199423312483597 0.12756166823764367 0.568283672606456 0.9368257461230178 0.53498715626275 0.47951586141965724 
Task15 0.0118927272745787 0.06949596289023796 0.052512928311379305 0.09834013036872326 0.9265664051446858 0.8102539126226409 0.6793853615027831 
Task16 0.13798053168091964 0.31268684556028 0.006005325462260233 0.42774712703703915 0.9255987000673505 0.635341997665572 0.994633417669543 
Task17 0.009579116869938467 0.03894046406433916 0.032248124510226156 0.039067961151217634 0.41219283618037716 0.9553070425160404 0.8372392382314378 
Task18 0.06643128808635754 0.01426119143144225 0.18313905274996412 0.16339831637573646 0.33885201594601616 0.8068732491377681 0.8169664702752542 
Task19 0.041164915951302936 0.3475161320350476 0.2679523141994343 0.3186532153288372 0.36129234245793096 0.8167860516204344 0.8787242008496277 
Task20 0.11284195869946421 0.6267114209608546 0.055516463472355525 0.18593549808572682 0.9625312422229271 0.4295459098404807 0.6898955312337154 
Task21 0.006846207072838491 0.13913041300587448 0.09341309287438065 0.04143643967693911 0.4255173012654906 0.35569950444923415 0.7410027264950764 
Task22 0.0023630493021370848 0.22162306582470562 0.18319440638597437 0.2592359556727464 0.662995421773437 0.9221186236095902 0.5091990637622749 
Task23 0.0017925887848387445 0.026978378049352162 0.06630644016621823 0.05915706973742174 0.3036117371044557 0.9151802494075816 0.9068860213898025 
Task24 0.0756732442636301 0.19682713581048022 0.09101127925577894 0.25661594059844417 0.8686791293636689 0.8370902949314905 0.538382652482522 
Task25 0.06243000066757339 0.039993107331061775 0.08150220738725131 0.20674954161572767 0.31655239654407497 0.5560608994557869 0.7900335148792333 
Task26 0.12316318534277526 0.27340417851799576 0.2708817502619833 0.018692273281005863 0.6645525088883977 0.7753364594463066 0.5954393004299698 
Task27 0.0723230887609342 0.033018679325329245 0.20422144944349666 0.10952062090141383 0.46923370670740694 0.9931349931634417 0.9379356469153 
Task28 0.09960982659512226 0.2467384902900389 0.20718886462740896 0.33866578361643446 0.5681411170821133 0.49711322441767575 0.7625586070726742 
Task29 0.10606220687352032 0.0771008189799624 0.40327977197756887 0.04124532677928744 0.9572629538519168 0.40730365449113304 0.4485111304448424 
Task30 0.01667248512878169 0.07305566550907425 0.02826877290025036 0.15306950831061755 0.8317836507871454 0.32095672820723187 0.8902628677122062 
Task31 0.05995704428540308 0.06406760966556767 0.1879144247916582 0.04832085090330237 0.3841656513611615 0.7376097711487224 0.7142897756958083 
Task32 0.11996585724189673 0.32891617789488237 0.3363339580219651 0.017389962401147728 0.5046415799379663 0.6008648474757419 0.638619025186965 
Task33 0.05713424234898763 0.09902167383409441 0.35564641466631797 0.1898236642350733 0.9298611423960987 0.3460170309264724 0.8732605375030038 
Task34 0.003519582170933693 0.3814674501165953 0.20669830491169167 0.0159080151620812 0.8936896728208241 0.9270986694966554 0.6343700020151407 
Task35 0.0010637372455210323 0.038049945582997534 0.047821775018694036 0.03707236102476005 0.8236620233604734 0.43336964423625335 0.42999338981902524 
Task36 0.03978355093741177 0.007321011840002897 0.3612231660525362 0.17819653848700412 0.319996670804591 0.4951133553995029 0.50826845896892 
Task37 0.11167030804237071 0.3182563690778801 0.09688060469648035 0.31216500230073135 0.5841785831980035 0.6211178912807525 0.33524221726301934 
Task38 0.021685164401633972 0.10305821183252745 0.07609210205410172 0.05303582486613275 0.4594765951383506 0.6628596522873909 0.6265520460638974 
Task39 0.011794284635801844 0.01906116333209417 0.04173659199641142 0.12386762048000029 0.5390255129343512 0.3691294681905089 0.4788754069874825 
Task40 0.002421243002941555 0.008753126306076362 0.004112146328161981 0.001714674195448428 0.45709087193043546 0.7587405396984719 0.5256217320828762 
Task41 0.020141889022924162 0.04074328019537975 0.0039024260088663114 0.08022588496385423 0.39317032977970534 0.6005026538646056 0.5453498429061168 
Task42 0.029069910164789863 0.035845781158359465 0.6222645974687174 0.09555219495732144 0.9538719098728081 0.5896735380569371 0.6328491516460344 
Task43 0.14799819096703798 0.05357032927819833 0.22985482158290146 0.37594552525824054 0.7843188568422348 0.5597365190136075 0.9466299675468008 
Task44 0.015110449480505451 0.021023094599484045 0.009659048336709422 0.04654432219219345 0.4700026093043074 0.6261585811886246 0.9796015285752302 
Task45 0.011384199447717281 0.07904598457224059 0.06793790240521573 0.08338222975800366 0.6324658542053749 0.5462082545930467 0.453433709079116 
Task46 0.07189263672488198 0.08988451437904149 0.0632096071545432 0.19540415529631064 0.6320585352763474 0.6791559329394373 0.8992080848748629 
Task47 0.06664564147438208 0.21904083519713322 0.48742296281340725 0.05076347202813925 0.9252389868673012 0.5407366667645808 0.8803616335242079 
Task48 0.020937813968063525 0.4716998524492653 0.4698973397253586 0.007098602136391632 0.8791324983480016 0.4507415552405918 0.7091682046373795 
Task49 0.12520245124460286 0.07125094214793573 0.12745208778573328 0.3229427186279457 0.6013279347346558 0.6250900057209889 0.8750418867474701 
Task50 0.0236994972319753 0.0014669094177308852 0.11688449565692931 0.046055950287350024 0.4501301091943916 0.6593602610898619 0.7796733090475105 
Task51 0.12517799723185016 0.308572744605302 0.21067207846065064 0.1915197948330853 0.5899239179096782 0.7404093873090781 0.6706852541790935 
Task52 0.0560454110553114 0.31980594681648866 0.11850274847625764 0.2885287882636779 0.9739599131617347 0.5657122368989576 0.461055055337036 
Task53 0.05296814891708917 0.06604039535230645 0.23129206722530934 0.022832906466151406 0.8648805553436207 0.7159003124036578 0.6926037020234346 
Task54 0.01615687813767614 0.10479659604418204 0.3149426363049688 0.3596337628163863 0.46083638992639175 0.7650329106577514 0.9317341831189978 
Task55 0.010156393290857832 0.06613100976590042 0.06804812143184721 0.1710755039933352 0.9495142610378446 0.758200227492639 0.6571436312732126 
Task56 0.14781245694924178 0.2724489906119252 0.08649291466360154 0.2673315150729662 0.5264873677717777 0.41662611552226164 0.48681824921950456 
Task57 0.09972687914488772 0.3452975066267721 0.01325998664181285 0.16795274521947667 0.9098782975146809 0.6842605772116265 0.9501212445559541 
Task58 0.009430057771778848 0.07889841305715266 0.09780371691518394 0.10588307615356182 0.5093542514469274 0.7242155861899578 0.6602856175831167 
Task59 0.012558345471989947 0.10273391478036271 0.07112257271823594 0.01976665042661295 0.3343929083883854 0.9030531388492207 0.6802807820760559 
Task60 0.04061238652558064 0.28522379704714784 0.17274882795199445 0.02772963000723419 0.485752544838321 0.5150029900088897 0.35380247796001485 
Task61 0.06437919290248487 0.21309093224265674 0.11735866566713911 0.15277986641607336 0.563284339903622 0.4385223143620168 0.40231298409606653 
Task62 0.007357037748033419 0.06755434410467866 0.005671743993664118 0.07723067463305397 0.47268013301607076 0.9227723086872373 0.8793602333475548 
Task63 0.050253258174479454 0.06921553954311509 0.3147010102893195 0.14012495999596963 0.46256968811934734 0.9604584765192214 0.3704407458821882 
Task64 0.04975033268471872 0.3155543018558319 0.28972199874899174 0.01016742135725457 0.4833331255323907 0.541513601599377 0.8976844767358543 
Task65 0.06546498171957646 0.15943585695655305 0.15929042474171082 0.15569963535868528 0.6952599033206717 0.5240498065550911 0.4100395000127098 
Task66 0.041867387283909235 0.037152413324527296 0.20791295241380117 0.056242269829641804 0.5629355847135579 0.3946496585058049 0.5573402307790956 
Task67 0.047871367969806684 0.15463805418720888 0.17119296604320391 0.15901549703605958 0.3667862419648016 0.7245210678258356 0.7970460467065485 
Task68 0.13630920864676083 0.362963538437033 0.11136525474543932 0.2507495189492082 0.5066045837857159 0.3372316934133596 0.8149020201275767 
Task69 0.06741444261620155 0.4424847874035111 0.012655205396601997 0.25357152920766374 0.8941911879149747 0.7924295757363582 0.772227493096953 
Task70 0.04022080056370204 0.04942042543341659 0.08040852134078173 0.07829430461414354 0.9061560344103454 0.5695900456274334 0.4649366175859143 
Task71 0.0024163409777148426 0.1626609555950403 0.15360486890231229 0.0723603092310246 0.4316744140418943 0.40887632504770166 0.6450889063288038 
Task72 0.10869551123319886 0.12458064821848969 0.3115560107347274 0.14253106558596898 0.4276118239368222 0.7328206389044538 0.6181836025955576 
Task73 0.01512585798449702 0.04032462066359595 0.007876802468822728 0.060519176479364625 0.9273444523717291 0.6082726244183327 0.8235721499713118 
Task74 0.004178626795173478 0.018638506533081276 0.032513716695185185 0.0074312644993796105 0.3629002800345113 0.3865315688344406 0.8478822124681722 
Task75 0.08727948679676911 0.11514127834928317 0.3047031684159353 0.09121826513615808 0.9550707013691067 0.8514733605941767 0.49903887754139 
Task76 0.07880498530011563 0.18649236687182616 0.22000575506947917 0.1319130645263961 0.8013672677803221 0.9944884003142189 0.5595888932441306 
Task77 0.06964681305758254 0.35795220956057183 0.25193154745138735 0.15209331321426597 0.7448446094679466 0.6722494067077129 0.7450754413555372 
Task78 0.018490622329736497 0.10562536259710899 0.06920509398293455 0.07778706610845484 0.6357411093257219 0.9056258985901893 0.7577872950778133 
Task79 0.1294206596540655 0.22895360068839257 0.3118185482427056 0.1872385830774071 0.4732793412443993 0.5371086918561563 0.48433673965155866 
Task80 0.01867144579329921 0.35783692418218926 0.2250235641370428 0.29147370160205943 0.8833828553419543 0.7397088274578549 0.7381714095442602 
Task81 0.027438284380448506 0.008676510728306951 0.07633382320613928 0.09411601017137218 0.6859166661418516 0.6912983915803591 0.38975015300055244 
Task82 0.0018383255825322922 0.06621572745630798 0.15606037770121375 0.15562855575608533 0.4361662747960643 0.6842136237194427 0.5615712887454745 
Task83 0.0670578606073753 0.20663274631229125 0.018204867719694384 0.05178989852439654 0.4232235925258374 0.4444249561220597 0.4394976248592471 
Task84 0.06721200824408999 0.16328296218924174 0.13083542586363991 0.05857798873535468 0.8876984248854616 0.7882827208819636 0.818910024090272 
Task85 0.09476509993878032 0.3812037463980386 0.057132433113430615 0.22758431182309322 0.7894607308621919 0.5757105271705563 0.6489267132374844 
Task86 0.08585947350595399 0.2460857307512048 0.21955026210034254 0.11119587616891903 0.866141038960093 0.4531778159744646 0.3210473414300469 
Task87 0.13013007098543067 0.3466383246958773 0.18448172428830303 0.033465207839112644 0.9816660898340235 0.9797145032842727 0.6428564260255706 
Task88 0.06527475583281286 0.11349187555609838 0.08382046796328191 0.17946714292614885 0.6019805294862434 0.7834364931493698 0.620335166379185 
Task89 0.11129356888096739 0.1588241026934761 0.15873632091151915 0.22700100784348332 0.43415279369911536 0.8489538855503638 0.6101018490105063 
Task90 0.04943645266491056 0.23421515658973346 0.006544518096196787 0.010505263511474362 0.49003856618476704 0.9599922420993063 0.6000642906679665 
Task91 0.07391590349058778 0.31850368941955676 0.12347864196241015 0.465133216039979 0.3564961795314062 0.3731580784765074 0.42539785373372074 
Task92 0.05058540346270062 0.08226235416241133 0.09026212104629656 0.09103105643899882 0.5004419938843276 0.7104178985992169 0.6087408712925768 
Task93 0.13454617634500782 0.3022361518698763 0.28390778039566744 0.17329280646153739 0.5365687410716569 0.8301361560492748 0.4978581740387943 
Task94 0.07719343367296774 0.10205357228633728 0.4330878319098592 0.15493742896553162 0.8719094107103695 0.6258944506001818 0.7255718778866176 
Task95 0.05345481938704681 0.12352888301792406 0.1597192269074654 0.030694120510917033 0.8655550133583625 0.5941488818282747 0.40887362648553577 
Task96 0.06445603831065817 0.3739071959628739 0.42022737147333966 0.12940771633099357 0.44872769971780424 0.619143147654667 0.6802796002370368 
Task97 0.01911055363142049 0.06976688838945007 0.03810659595297375 0.07165479645497458 0.8003016736552182 0.9725240031681062 0.6046909078233316 
Task98 0.027407829530583037 0.20434850170951002 0.22427468999014058 0.13359773943360834 0.447620480880144 0.4170486226809343 0.5953706422288157 
Task99 0.008691134988846709 0.0024993146279322143 0.2208452415080771 0.07030043829025844 0.7096747328803914 0.4607400991263735 0.4253553412635649 
