digraph G {
0 ->48 0 ->54 0 ->55 0 ->56 0 ->58 0 ->67 0 ->72 0 ->73 0 ->77 0 ->78 0 ->80 0 ->86 0 ->87 0 ->89 0 ->90 0 ->94 1 ->54 1 ->58 1 ->60 1 ->66 1 ->67 1 ->74 1 ->76 1 ->78 1 ->80 1 ->86 1 ->88 1 ->89 1 ->91 1 ->94 1 ->96 1 ->97 2 ->48 2 ->54 2 ->60 2 ->65 2 ->67 2 ->68 2 ->70 2 ->73 2 ->76 2 ->85 2 ->93 2 ->97 3 ->48 3 ->55 3 ->61 3 ->66 3 ->67 3 ->68 3 ->73 3 ->81 3 ->82 3 ->91 4 ->50 4 ->51 4 ->54 4 ->57 4 ->66 4 ->69 4 ->75 4 ->76 4 ->77 4 ->78 4 ->84 4 ->89 4 ->95 5 ->49 5 ->51 5 ->56 5 ->57 5 ->58 5 ->63 5 ->68 5 ->72 5 ->76 6 ->48 6 ->72 6 ->80 6 ->82 6 ->85 6 ->87 6 ->91 6 ->92 6 ->95 6 ->96 7 ->48 7 ->50 7 ->52 7 ->55 7 ->58 7 ->66 7 ->67 7 ->72 7 ->78 7 ->79 7 ->80 7 ->81 7 ->82 7 ->85 7 ->87 7 ->88 7 ->91 7 ->95 7 ->96 7 ->97 8 ->48 8 ->49 8 ->59 8 ->65 8 ->73 8 ->82 8 ->87 8 ->91 8 ->95 8 ->96 9 ->49 9 ->49 9 ->50 9 ->51 9 ->52 9 ->53 9 ->58 9 ->60 9 ->67 9 ->72 9 ->81 9 ->82 9 ->87 9 ->88 9 ->89 9 ->96 10 ->50 10 ->54 10 ->60 10 ->61 10 ->68 10 ->74 10 ->75 10 ->81 10 ->85 10 ->86 10 ->87 10 ->88 10 ->89 10 ->94 10 ->96 11 ->48 11 ->49 11 ->50 11 ->51 11 ->55 11 ->58 11 ->66 11 ->72 11 ->73 11 ->76 11 ->78 11 ->82 11 ->87 11 ->95 11 ->96 12 ->50 12 ->54 12 ->55 12 ->65 12 ->66 12 ->68 12 ->71 12 ->72 12 ->73 12 ->76 12 ->85 12 ->87 12 ->92 12 ->93 12 ->94 13 ->51 13 ->54 13 ->56 13 ->57 13 ->66 13 ->67 13 ->68 13 ->69 13 ->75 13 ->76 13 ->79 13 ->81 13 ->85 13 ->91 13 ->92 14 ->50 14 ->51 14 ->60 14 ->63 14 ->76 14 ->85 14 ->87 14 ->88 14 ->91 14 ->92 14 ->95 14 ->96 15 ->58 15 ->65 15 ->68 15 ->88 15 ->89 15 ->92 15 ->97 16 ->48 16 ->51 16 ->65 16 ->73 16 ->80 16 ->83 16 ->88 16 ->89 16 ->92 16 ->97 17 ->60 17 ->68 17 ->76 17 ->83 17 ->97 18 ->49 18 ->50 18 ->55 18 ->68 18 ->69 18 ->72 18 ->75 18 ->78 18 ->80 18 ->81 18 ->84 18 ->85 18 ->97 19 ->49 19 ->50 19 ->51 19 ->52 19 ->54 19 ->55 19 ->57 19 ->68 19 ->69 19 ->72 19 ->80 19 ->82 19 ->83 19 ->84 19 ->85 19 ->88 19 ->89 19 ->96 20 ->48 20 ->50 20 ->51 20 ->55 20 ->58 20 ->65 20 ->67 20 ->68 20 ->69 20 ->70 20 ->80 20 ->85 20 ->87 20 ->88 20 ->94 20 ->97 21 ->50 21 ->50 21 ->55 21 ->67 21 ->68 21 ->69 21 ->70 21 ->77 21 ->81 21 ->85 21 ->87 21 ->88 21 ->91 21 ->92 21 ->93 21 ->94 21 ->97 22 ->48 22 ->60 22 ->68 22 ->73 22 ->76 22 ->85 22 ->89 22 ->91 22 ->93 22 ->94 22 ->96 23 ->53 23 ->56 23 ->58 23 ->68 23 ->73 23 ->80 23 ->85 23 ->87 23 ->88 23 ->91 23 ->92 23 ->94 23 ->97 24 ->54 24 ->58 24 ->61 24 ->63 24 ->66 24 ->67 24 ->69 24 ->70 24 ->73 24 ->79 24 ->81 24 ->83 24 ->87 24 ->89 24 ->92 24 ->94 24 ->96 25 ->54 25 ->55 25 ->63 25 ->66 25 ->77 25 ->81 25 ->83 25 ->87 25 ->94 25 ->96 26 ->48 26 ->55 26 ->58 26 ->59 26 ->67 26 ->72 26 ->75 26 ->80 26 ->84 26 ->87 26 ->88 26 ->91 26 ->97 27 ->49 27 ->51 27 ->52 27 ->55 27 ->58 27 ->66 27 ->67 27 ->69 27 ->70 27 ->72 27 ->73 27 ->75 27 ->87 27 ->88 27 ->92 27 ->96 27 ->97 28 ->48 28 ->50 28 ->58 28 ->67 28 ->70 28 ->72 28 ->83 28 ->85 28 ->89 28 ->91 28 ->94 28 ->96 29 ->48 29 ->49 29 ->57 29 ->58 29 ->66 29 ->72 29 ->79 29 ->85 29 ->86 29 ->89 29 ->90 29 ->91 29 ->92 30 ->49 30 ->50 30 ->54 30 ->57 30 ->58 30 ->68 30 ->72 30 ->77 30 ->79 30 ->80 30 ->82 30 ->84 30 ->91 31 ->58 31 ->60 31 ->63 31 ->65 31 ->71 31 ->73 31 ->79 31 ->80 31 ->85 31 ->86 31 ->90 31 ->91 32 ->58 32 ->62 32 ->67 32 ->74 32 ->79 32 ->80 32 ->88 32 ->89 32 ->90 33 ->50 33 ->52 33 ->54 33 ->57 33 ->58 33 ->59 33 ->64 33 ->65 33 ->67 33 ->72 33 ->73 33 ->74 33 ->75 33 ->86 33 ->88 33 ->89 34 ->48 34 ->49 34 ->55 34 ->56 34 ->57 34 ->58 34 ->59 34 ->64 34 ->65 34 ->67 34 ->72 34 ->75 34 ->82 34 ->85 34 ->88 34 ->89 34 ->90 35 ->48 35 ->49 35 ->50 35 ->56 35 ->58 35 ->67 35 ->70 35 ->73 35 ->74 35 ->83 35 ->85 35 ->90 35 ->91 35 ->92 35 ->97 36 ->48 36 ->49 36 ->50 36 ->54 36 ->55 36 ->57 36 ->59 36 ->60 36 ->67 36 ->69 36 ->70 36 ->74 36 ->87 36 ->88 36 ->90 36 ->91 36 ->96 36 ->97 37 ->48 37 ->50 37 ->52 37 ->54 37 ->58 37 ->59 37 ->65 37 ->69 37 ->76 37 ->80 37 ->82 37 ->89 37 ->90 37 ->91 37 ->95 37 ->96 38 ->48 38 ->58 38 ->60 38 ->70 38 ->73 38 ->81 38 ->82 38 ->85 38 ->94 38 ->95 39 ->49 39 ->57 39 ->60 39 ->64 39 ->65 39 ->69 39 ->74 39 ->75 39 ->76 39 ->82 39 ->84 39 ->88 39 ->93 39 ->94 39 ->97 40 ->48 40 ->54 40 ->57 40 ->60 40 ->61 40 ->64 40 ->65 40 ->67 40 ->79 40 ->81 40 ->82 40 ->87 40 ->88 40 ->97 41 ->48 41 ->49 41 ->51 41 ->60 41 ->61 41 ->67 41 ->72 41 ->76 41 ->77 41 ->82 41 ->85 41 ->87 41 ->88 41 ->89 41 ->90 41 ->92 41 ->97 42 ->48 42 ->49 42 ->50 42 ->53 42 ->54 42 ->55 42 ->67 42 ->68 42 ->69 42 ->73 42 ->74 42 ->76 42 ->84 42 ->87 42 ->88 42 ->89 42 ->90 42 ->92 42 ->94 42 ->96 43 ->48 43 ->51 43 ->53 43 ->66 43 ->68 43 ->73 43 ->78 43 ->87 43 ->89 43 ->92 44 ->51 44 ->55 44 ->59 44 ->60 44 ->61 44 ->71 44 ->72 44 ->73 44 ->87 44 ->88 44 ->89 44 ->91 44 ->92 44 ->97 45 ->61 45 ->65 45 ->69 45 ->73 45 ->76 45 ->80 45 ->81 45 ->82 45 ->86 45 ->88 45 ->89 45 ->91 45 ->92 45 ->94 46 ->48 46 ->51 46 ->59 46 ->64 46 ->65 46 ->70 46 ->73 46 ->74 46 ->77 46 ->81 46 ->86 46 ->88 46 ->91 46 ->93 46 ->95 46 ->96 47 ->49 47 ->50 47 ->54 47 ->58 47 ->59 47 ->61 47 ->65 47 ->69 47 ->72 47 ->73 47 ->76 47 ->79 47 ->80 47 ->86 47 ->89 47 ->91 47 ->97 48 ->98 49 ->98 72 ->98 81 ->98 82 ->98 82 ->99 86 ->98 93 ->98 
}
