digraph G {
0 ->51 0 ->52 0 ->63 0 ->64 0 ->65 0 ->79 0 ->82 1 ->54 1 ->63 1 ->64 1 ->65 1 ->65 1 ->66 1 ->72 1 ->77 1 ->79 1 ->81 2 ->54 2 ->61 2 ->63 2 ->67 2 ->72 2 ->73 2 ->75 2 ->79 2 ->79 3 ->57 3 ->66 3 ->72 3 ->79 4 ->53 4 ->56 4 ->62 4 ->63 4 ->66 4 ->67 4 ->69 4 ->72 4 ->75 4 ->76 5 ->51 5 ->62 5 ->65 5 ->72 5 ->77 6 ->50 6 ->51 6 ->54 6 ->56 6 ->60 6 ->61 6 ->63 6 ->65 6 ->67 6 ->71 6 ->82 7 ->51 7 ->54 7 ->60 7 ->61 7 ->67 7 ->70 7 ->73 7 ->77 7 ->82 8 ->50 8 ->61 8 ->67 8 ->69 8 ->74 8 ->78 8 ->79 9 ->60 9 ->61 9 ->62 9 ->63 9 ->66 9 ->68 9 ->69 9 ->74 9 ->77 9 ->78 9 ->79 10 ->50 10 ->51 10 ->53 10 ->56 10 ->58 10 ->60 10 ->65 10 ->73 10 ->74 10 ->76 10 ->79 11 ->52 11 ->53 11 ->57 11 ->62 11 ->66 11 ->72 11 ->82 12 ->54 12 ->58 12 ->60 12 ->62 12 ->65 12 ->66 12 ->71 12 ->73 12 ->82 13 ->51 13 ->54 13 ->56 13 ->58 13 ->59 13 ->60 13 ->72 13 ->73 13 ->74 13 ->77 13 ->81 13 ->82 14 ->51 14 ->56 14 ->57 14 ->58 14 ->59 14 ->73 14 ->74 14 ->78 14 ->82 15 ->51 15 ->54 15 ->61 15 ->63 15 ->69 15 ->74 16 ->51 16 ->53 16 ->57 16 ->58 16 ->61 16 ->62 16 ->63 16 ->65 16 ->66 16 ->72 16 ->76 16 ->77 16 ->80 17 ->51 17 ->56 17 ->57 17 ->59 17 ->61 17 ->66 17 ->74 17 ->76 17 ->79 17 ->82 18 ->55 18 ->58 18 ->61 18 ->62 18 ->72 18 ->73 18 ->74 18 ->77 19 ->61 19 ->74 19 ->77 19 ->81 20 ->51 20 ->52 20 ->53 20 ->58 20 ->61 20 ->64 20 ->65 20 ->74 20 ->76 20 ->78 21 ->51 21 ->58 21 ->61 21 ->65 21 ->77 22 ->52 22 ->58 22 ->61 22 ->63 22 ->64 22 ->65 22 ->67 22 ->73 22 ->75 22 ->76 22 ->80 23 ->51 23 ->52 23 ->58 23 ->61 23 ->65 23 ->67 23 ->72 23 ->80 23 ->82 24 ->51 24 ->53 24 ->58 24 ->61 24 ->63 24 ->64 24 ->66 24 ->72 24 ->73 24 ->77 24 ->80 25 ->58 25 ->61 25 ->66 25 ->72 25 ->73 25 ->74 25 ->76 25 ->77 25 ->78 25 ->80 26 ->58 26 ->61 26 ->62 26 ->65 26 ->72 26 ->73 26 ->74 26 ->76 26 ->77 26 ->82 27 ->54 27 ->56 27 ->58 27 ->62 27 ->65 27 ->72 27 ->73 27 ->78 27 ->79 27 ->82 28 ->58 28 ->62 28 ->65 28 ->70 28 ->73 28 ->78 28 ->79 28 ->82 29 ->51 29 ->52 29 ->53 29 ->60 29 ->62 29 ->73 29 ->76 29 ->80 29 ->82 30 ->51 30 ->53 30 ->57 30 ->58 30 ->60 30 ->62 30 ->65 30 ->69 30 ->74 30 ->77 30 ->82 31 ->50 31 ->56 31 ->57 31 ->58 31 ->59 31 ->60 31 ->62 31 ->63 31 ->64 31 ->69 31 ->71 31 ->72 31 ->75 31 ->78 31 ->79 32 ->50 32 ->51 32 ->52 32 ->53 32 ->63 32 ->65 32 ->66 32 ->71 32 ->77 32 ->78 32 ->79 32 ->80 33 ->51 33 ->53 33 ->63 33 ->65 33 ->73 33 ->79 34 ->54 34 ->59 34 ->60 34 ->61 34 ->65 34 ->68 34 ->72 34 ->73 34 ->77 35 ->55 35 ->63 35 ->65 35 ->66 35 ->73 35 ->74 35 ->77 35 ->79 35 ->80 36 ->58 36 ->60 36 ->63 36 ->65 36 ->71 36 ->72 36 ->73 36 ->79 36 ->82 37 ->52 37 ->59 37 ->60 37 ->63 37 ->65 37 ->66 37 ->72 37 ->74 37 ->75 37 ->81 37 ->82 38 ->53 38 ->56 38 ->66 38 ->72 38 ->74 38 ->77 38 ->78 38 ->82 39 ->54 39 ->56 39 ->58 39 ->62 39 ->63 39 ->69 39 ->72 39 ->74 39 ->78 39 ->79 39 ->82 40 ->52 40 ->54 40 ->58 40 ->59 40 ->63 40 ->65 40 ->73 40 ->78 40 ->79 40 ->82 41 ->51 41 ->53 41 ->54 41 ->57 41 ->63 41 ->65 41 ->68 41 ->71 41 ->74 41 ->76 41 ->77 41 ->81 42 ->51 42 ->53 42 ->58 42 ->79 43 ->51 43 ->57 43 ->72 43 ->76 43 ->79 44 ->56 44 ->60 45 ->50 45 ->51 45 ->55 45 ->57 45 ->63 45 ->65 45 ->72 45 ->73 45 ->75 45 ->77 45 ->79 45 ->80 45 ->82 46 ->51 46 ->53 46 ->54 46 ->57 46 ->58 46 ->62 46 ->63 46 ->64 46 ->66 46 ->70 46 ->72 46 ->79 46 ->82 47 ->55 47 ->57 47 ->58 47 ->63 47 ->66 47 ->70 47 ->79 47 ->81 48 ->54 48 ->58 48 ->62 48 ->72 48 ->73 48 ->77 48 ->79 48 ->81 48 ->82 49 ->60 49 ->74 49 ->77 49 ->79 49 ->81 50 ->98 50 ->99 51 ->87 51 ->92 51 ->99 52 ->87 52 ->88 52 ->90 52 ->97 53 ->87 53 ->96 53 ->97 53 ->98 54 ->87 54 ->92 54 ->99 55 ->83 55 ->98 55 ->99 56 ->88 56 ->89 56 ->91 57 ->87 57 ->88 57 ->98 58 ->87 58 ->89 58 ->92 58 ->97 59 ->88 59 ->97 60 ->84 60 ->88 61 ->89 61 ->90 61 ->91 61 ->92 61 ->98 62 ->89 62 ->91 62 ->97 63 ->84 63 ->85 63 ->89 63 ->97 64 ->89 64 ->90 64 ->93 64 ->97 64 ->98 64 ->99 65 ->87 65 ->89 65 ->91 66 ->89 66 ->89 66 ->91 66 ->97 67 ->91 67 ->93 67 ->99 68 ->88 68 ->89 68 ->91 68 ->92 68 ->94 68 ->97 68 ->99 69 ->84 69 ->91 69 ->97 69 ->99 70 ->83 70 ->88 70 ->91 70 ->92 70 ->98 70 ->99 71 ->86 71 ->89 71 ->91 71 ->92 71 ->98 71 ->99 72 ->83 72 ->84 72 ->88 72 ->89 72 ->90 72 ->93 72 ->98 73 ->85 73 ->87 73 ->89 73 ->92 73 ->94 74 ->84 74 ->92 74 ->97 75 ->90 75 ->91 75 ->98 75 ->99 76 ->87 76 ->88 76 ->89 76 ->91 76 ->92 76 ->97 76 ->98 77 ->84 77 ->90 77 ->92 77 ->97 77 ->98 77 ->99 78 ->90 78 ->92 78 ->95 78 ->97 78 ->98 79 ->87 79 ->97 79 ->98 80 ->84 80 ->87 80 ->99 81 ->85 81 ->88 81 ->92 81 ->94 81 ->99 82 ->85 82 ->87 82 ->89 82 ->91 82 ->97 
}
