files/tasks_parameters/ExAp01/sample8.txt 1.10816 7.2562 4.46819 0.454772 9.13179
files/tasks_parameters/ExAp01/sample12.txt 1.60256 9.70908 5.28286 0.618515 12.4197
files/tasks_parameters/ExAp01/sample2.txt 1.45442 8.14159 5.7401 0.620531 12.4602
files/tasks_parameters/ExAp01/sample44.txt 1.33358 7.25164 5.75904 0.557631 11.1972
files/tasks_parameters/ExAp01/sample27.txt 1.31959 8.10944 5.64946 0.564878 11.3427
files/tasks_parameters/ExAp01/sample17.txt 1.24756 7.11225 5.46658 0.527183 10.5858
files/tasks_parameters/ExAp01/sample9.txt 1.1835 7.62559 5.37813 0.517277 10.3869
files/tasks_parameters/ExAp01/sample34.txt 1.2454 7.04587 5.93037 0.497709 9.99396
files/tasks_parameters/ExAp01/sample40.txt 1.20264 8.03037 5.123 0.502383 10.0878
files/tasks_parameters/ExAp01/sample33.txt 1.62161 9.22935 5.92956 0.659262 13.2379
files/tasks_parameters/ExAp01/sample48.txt 1.15357 8.12182 5.1577 0.452491 9.08597
files/tasks_parameters/ExAp01/sample29.txt 1.52238 8.06133 5.12331 0.650652 13.065
files/tasks_parameters/ExAp01/sample11.txt 1.3591 7.63104 5.37897 0.563302 11.3111
files/tasks_parameters/ExAp01/sample14.txt 1.13396 6.66403 4.66322 0.471536 9.46841
files/tasks_parameters/ExAp01/sample0.txt 1.51591 9.3266 4.98971 0.6311 12.6724
files/tasks_parameters/ExAp01/sample7.txt 1.22406 7.34863 5.19436 0.515527 10.3517
files/tasks_parameters/ExAp01/sample23.txt 1.36442 6.68564 5.54308 0.588617 11.8194
files/tasks_parameters/ExAp01/sample13.txt 1.53075 9.31093 5.35591 0.632849 12.7076
files/tasks_parameters/ExAp01/sample22.txt 1.29495 7.65588 5.04866 0.540336 10.8499
files/tasks_parameters/ExAp01/sample25.txt 1.03102 6.17035 5.0141 0.408296 8.19855
files/tasks_parameters/ExAp01/sample36.txt 1.2162 7.03772 4.66274 0.507647 10.1935
files/tasks_parameters/ExAp01/sample46.txt 1.35048 7.73433 4.79934 0.536843 10.7798
files/tasks_parameters/ExAp01/sample31.txt 1.17642 6.96928 5.16482 0.485817 9.75517
files/tasks_parameters/ExAp01/sample37.txt 1.54146 9.52443 5.74224 0.65799 13.2124
files/tasks_parameters/ExAp01/sample16.txt 1.34134 8.63521 4.97261 0.516328 10.3678
files/tasks_parameters/ExAp01/sample10.txt 1.40133 7.28353 6.16876 0.615651 12.3622
files/tasks_parameters/ExAp01/sample39.txt 1.14438 6.3405 4.6137 0.468873 9.41494
files/tasks_parameters/ExAp01/sample19.txt 1.40631 8.85528 5.22306 0.622152 12.4928
files/tasks_parameters/ExAp01/sample20.txt 1.39594 8.1141 5.21177 0.586994 11.7868
files/tasks_parameters/ExAp01/sample43.txt 1.28843 7.21373 5.6367 0.53748 10.7925
files/tasks_parameters/ExAp01/sample32.txt 1.44395 8.30592 5.38137 0.593918 11.9258
files/tasks_parameters/ExAp01/sample45.txt 1.31563 7.94069 4.96323 0.547271 10.9892
files/tasks_parameters/ExAp01/sample26.txt 1.12704 7.57061 4.62637 0.480146 9.64129
files/tasks_parameters/ExAp01/sample5.txt 1.37749 8.0307 5.35681 0.59407 11.9289
files/tasks_parameters/ExAp01/sample21.txt 1.02975 5.87802 4.61744 0.434264 8.71999
files/tasks_parameters/ExAp01/sample38.txt 1.18994 7.66999 4.86632 0.496808 9.97587
files/tasks_parameters/ExAp01/sample1.txt 1.12402 7.21312 4.63213 0.486293 9.76473
files/tasks_parameters/ExAp01/sample15.txt 1.28394 8.02273 5.50855 0.531063 10.6637
files/tasks_parameters/ExAp01/sample24.txt 1.30014 8.66348 5.4905 0.548998 11.0238
files/tasks_parameters/ExAp01/sample3.txt 1.14154 7.74268 4.79918 0.477387 9.58589
files/tasks_parameters/ExAp01/sample6.txt 1.4935 8.57133 5.80157 0.633604 12.7227
files/tasks_parameters/ExAp01/sample30.txt 1.66943 8.18878 5.90888 0.633576 12.7222
files/tasks_parameters/ExAp01/sample42.txt 1.33044 8.57689 5.67253 0.54426 10.9287
files/tasks_parameters/ExAp01/sample4.txt 1.28166 8.40354 4.57985 0.563519 11.3154
files/tasks_parameters/ExAp01/sample28.txt 1.03974 6.44114 4.96426 0.449721 9.03037
files/tasks_parameters/ExAp01/sample18.txt 1.29999 8.56363 4.60946 0.543766 10.9188
files/tasks_parameters/ExAp01/sample35.txt 1.92465 11.0387 6.34514 0.761377 15.2884
files/tasks_parameters/ExAp01/sample47.txt 1.3273 7.14493 5.22131 0.545046 10.9445
files/tasks_parameters/ExAp01/sample49.txt 1.28718 6.65996 4.80244 0.498533 10.0105
files/tasks_parameters/ExAp01/sample41.txt 1.19851 7.09069 5.35462 0.497129 9.98231
