files/tasks_parameters/ExAp01/sample8.txt 1.33928 6.77015 2.19458 0.288816 4.87842
files/tasks_parameters/ExAp01/sample12.txt 1.61858 9.58351 2.46081 0.337498 5.70071
files/tasks_parameters/ExAp01/sample2.txt 1.54597 8.44418 2.50701 0.319127 5.3904
files/tasks_parameters/ExAp01/sample44.txt 1.30807 6.96299 2.23089 0.28229 4.76818
files/tasks_parameters/ExAp01/sample27.txt 1.343 7.74306 2.16676 0.28602 4.83118
files/tasks_parameters/ExAp01/sample17.txt 1.37989 7.35053 2.25579 0.292348 4.93806
files/tasks_parameters/ExAp01/sample9.txt 1.32888 6.89392 2.21068 0.282399 4.77002
files/tasks_parameters/ExAp01/sample34.txt 1.39219 6.62788 2.3772 0.297742 5.02917
files/tasks_parameters/ExAp01/sample40.txt 1.33292 7.75686 2.17534 0.285619 4.82441
files/tasks_parameters/ExAp01/sample33.txt 1.57383 8.14826 2.6463 0.338073 5.71042
files/tasks_parameters/ExAp01/sample48.txt 1.28467 7.64107 2.14272 0.270011 4.56078
files/tasks_parameters/ExAp01/sample29.txt 1.38769 7.139 1.93769 0.286306 4.83601
files/tasks_parameters/ExAp01/sample11.txt 1.29612 6.88688 2.12981 0.280008 4.72964
files/tasks_parameters/ExAp01/sample14.txt 1.15799 6.11983 1.97599 0.247458 4.17982
files/tasks_parameters/ExAp01/sample0.txt 1.37649 8.2738 2.14256 0.289132 4.88374
files/tasks_parameters/ExAp01/sample7.txt 1.25609 6.87011 2.05821 0.269886 4.55865
files/tasks_parameters/ExAp01/sample23.txt 1.38786 6.52032 2.38087 0.291712 4.92732
files/tasks_parameters/ExAp01/sample13.txt 1.4559 8.73247 2.33415 0.295393 4.9895
files/tasks_parameters/ExAp01/sample22.txt 1.35389 6.9777 2.28948 0.283979 4.79671
files/tasks_parameters/ExAp01/sample25.txt 1.24297 6.23444 2.2122 0.267298 4.51494
files/tasks_parameters/ExAp01/sample36.txt 1.21297 6.6174 1.9458 0.253823 4.28734
files/tasks_parameters/ExAp01/sample46.txt 1.5214 7.42369 2.49128 0.327273 5.52799
files/tasks_parameters/ExAp01/sample31.txt 1.25114 7.22028 2.13584 0.25377 4.28644
files/tasks_parameters/ExAp01/sample37.txt 1.4379 8.90704 2.16981 0.295708 4.99482
files/tasks_parameters/ExAp01/sample16.txt 1.22415 8.18243 1.88294 0.24945 4.21347
files/tasks_parameters/ExAp01/sample10.txt 1.35703 6.96646 2.31217 0.285748 4.82659
files/tasks_parameters/ExAp01/sample39.txt 1.18554 6.4161 1.97266 0.251967 4.25599
files/tasks_parameters/ExAp01/sample19.txt 1.49113 8.16711 2.23199 0.308463 5.21026
files/tasks_parameters/ExAp01/sample20.txt 1.22227 7.28549 1.88944 0.25994 4.39066
files/tasks_parameters/ExAp01/sample43.txt 1.18284 6.86804 2.00142 0.25616 4.32682
files/tasks_parameters/ExAp01/sample32.txt 1.35339 8.15663 2.12995 0.281726 4.75866
files/tasks_parameters/ExAp01/sample45.txt 1.34108 7.75184 2.10599 0.274935 4.64394
files/tasks_parameters/ExAp01/sample26.txt 1.25569 7.4944 1.88956 0.267248 4.5141
files/tasks_parameters/ExAp01/sample5.txt 1.36399 8.08362 2.09961 0.28454 4.80619
files/tasks_parameters/ExAp01/sample21.txt 1.25547 6.11814 2.17119 0.26143 4.41582
files/tasks_parameters/ExAp01/sample38.txt 1.24938 7.761 1.96293 0.263659 4.45348
files/tasks_parameters/ExAp01/sample1.txt 1.3637 7.83752 2.13261 0.289228 4.88537
files/tasks_parameters/ExAp01/sample15.txt 1.35736 7.37971 2.12057 0.285825 4.8279
files/tasks_parameters/ExAp01/sample24.txt 1.39658 8.28531 2.25272 0.296628 5.01037
files/tasks_parameters/ExAp01/sample3.txt 1.45268 7.33359 2.39135 0.305084 5.1532
files/tasks_parameters/ExAp01/sample6.txt 1.32933 7.09894 2.24425 0.281804 4.75997
files/tasks_parameters/ExAp01/sample30.txt 1.49554 8.17669 2.03701 0.299204 5.05388
files/tasks_parameters/ExAp01/sample42.txt 1.40017 7.70416 2.42413 0.29743 5.02391
files/tasks_parameters/ExAp01/sample4.txt 1.48977 7.41691 2.36261 0.307803 5.19912
files/tasks_parameters/ExAp01/sample28.txt 1.26441 7.0562 2.07657 0.266428 4.50025
files/tasks_parameters/ExAp01/sample18.txt 1.27295 7.60139 2.1377 0.268016 4.52708
files/tasks_parameters/ExAp01/sample35.txt 1.55692 9.66795 2.28028 0.32244 5.44635
files/tasks_parameters/ExAp01/sample47.txt 1.21064 6.84842 2.12104 0.251655 4.25072
files/tasks_parameters/ExAp01/sample49.txt 1.2216 7.1497 2.11412 0.255889 4.32224
files/tasks_parameters/ExAp01/sample41.txt 1.26893 6.59911 2.07359 0.265885 4.49109
