files/tasks_parameters/ExAp01/sample8.txt 1.08738 7.2562 4.46819 0.454772 7.68159
files/tasks_parameters/ExAp01/sample12.txt 1.46039 9.70908 5.28286 0.618515 10.4474
files/tasks_parameters/ExAp01/sample2.txt 1.43132 8.14159 5.7401 0.620531 10.4814
files/tasks_parameters/ExAp01/sample44.txt 1.31177 7.25164 5.75904 0.557631 9.41897
files/tasks_parameters/ExAp01/sample27.txt 1.33266 8.10944 5.64946 0.564878 9.5414
files/tasks_parameters/ExAp01/sample17.txt 1.24631 7.11225 5.46658 0.527183 8.90469
files/tasks_parameters/ExAp01/sample9.txt 1.20364 7.62559 5.37813 0.517277 8.73736
files/tasks_parameters/ExAp01/sample34.txt 1.24848 7.04587 5.93037 0.497709 8.40684
files/tasks_parameters/ExAp01/sample40.txt 1.17809 8.03037 5.123 0.502383 8.48578
files/tasks_parameters/ExAp01/sample33.txt 1.50541 9.22935 5.92956 0.659262 11.1356
files/tasks_parameters/ExAp01/sample48.txt 1.07719 8.12182 5.1577 0.452491 7.64305
files/tasks_parameters/ExAp01/sample29.txt 1.47621 8.06133 5.12331 0.650652 10.9902
files/tasks_parameters/ExAp01/sample11.txt 1.301 7.63104 5.37897 0.563302 9.51477
files/tasks_parameters/ExAp01/sample14.txt 1.12732 6.66403 4.66322 0.471536 7.96475
files/tasks_parameters/ExAp01/sample0.txt 1.47322 9.3266 4.98971 0.6311 10.6599
files/tasks_parameters/ExAp01/sample7.txt 1.21195 7.34863 5.19436 0.515527 8.70781
files/tasks_parameters/ExAp01/sample23.txt 1.3559 6.68564 5.54308 0.588617 9.94237
files/tasks_parameters/ExAp01/sample13.txt 1.48307 9.31093 5.35591 0.632849 10.6895
files/tasks_parameters/ExAp01/sample22.txt 1.2703 7.65588 5.04866 0.540336 9.12685
files/tasks_parameters/ExAp01/sample25.txt 1.03789 6.17035 5.0141 0.408296 6.89655
files/tasks_parameters/ExAp01/sample36.txt 1.20897 7.03772 4.66274 0.507647 8.5747
files/tasks_parameters/ExAp01/sample46.txt 1.24966 7.73433 4.79934 0.536843 9.06786
files/tasks_parameters/ExAp01/sample31.txt 1.18311 6.96928 5.16482 0.485817 8.20597
files/tasks_parameters/ExAp01/sample37.txt 1.52269 9.52443 5.74224 0.65799 11.1141
files/tasks_parameters/ExAp01/sample16.txt 1.33565 8.63521 4.97261 0.516328 8.72132
files/tasks_parameters/ExAp01/sample10.txt 1.4271 7.28353 6.16876 0.615651 10.399
files/tasks_parameters/ExAp01/sample39.txt 1.11899 6.3405 4.6137 0.468873 7.91977
files/tasks_parameters/ExAp01/sample19.txt 1.42037 8.85528 5.22306 0.622152 10.5088
files/tasks_parameters/ExAp01/sample20.txt 1.35117 8.1141 5.21177 0.586994 9.91495
files/tasks_parameters/ExAp01/sample43.txt 1.26313 7.21373 5.6367 0.53748 9.0786
files/tasks_parameters/ExAp01/sample32.txt 1.39382 8.30592 5.38137 0.593918 10.0319
files/tasks_parameters/ExAp01/sample45.txt 1.25982 7.94069 4.96323 0.547271 9.24399
files/tasks_parameters/ExAp01/sample26.txt 1.13439 7.57061 4.62637 0.480146 8.11017
files/tasks_parameters/ExAp01/sample5.txt 1.37882 8.0307 5.35681 0.59407 10.0345
files/tasks_parameters/ExAp01/sample21.txt 1.0353 5.87802 4.61744 0.434264 7.33518
files/tasks_parameters/ExAp01/sample38.txt 1.1524 7.66999 4.86632 0.496808 8.39162
files/tasks_parameters/ExAp01/sample1.txt 1.14924 7.21312 4.63213 0.486293 8.21401
files/tasks_parameters/ExAp01/sample15.txt 1.25988 8.02273 5.50855 0.531063 8.97021
files/tasks_parameters/ExAp01/sample24.txt 1.27975 8.66348 5.4905 0.548998 9.27316
files/tasks_parameters/ExAp01/sample3.txt 1.13538 7.74268 4.79918 0.477387 8.06357
files/tasks_parameters/ExAp01/sample6.txt 1.4475 8.57133 5.80157 0.633604 10.7022
files/tasks_parameters/ExAp01/sample30.txt 1.48244 8.18878 5.90888 0.633576 10.7018
files/tasks_parameters/ExAp01/sample42.txt 1.32576 8.57689 5.67253 0.54426 9.19313
files/tasks_parameters/ExAp01/sample4.txt 1.3084 8.40354 4.57985 0.563519 9.51844
files/tasks_parameters/ExAp01/sample28.txt 1.05456 6.44114 4.96426 0.449721 7.59627
files/tasks_parameters/ExAp01/sample18.txt 1.25973 8.56363 4.60946 0.543766 9.18479
files/tasks_parameters/ExAp01/sample35.txt 1.76998 11.0387 6.34514 0.761377 12.8605
files/tasks_parameters/ExAp01/sample47.txt 1.24426 7.14493 5.22131 0.545046 9.2064
files/tasks_parameters/ExAp01/sample49.txt 1.23619 6.65996 4.80244 0.498533 8.42076
files/tasks_parameters/ExAp01/sample41.txt 1.14984 7.09069 5.35462 0.497129 8.39703
