files/tasks_parameters/ExAp01/sample8.txt 0.804513 3.15778 1.5595 0.203411 3.43583
files/tasks_parameters/ExAp01/sample12.txt 0.916646 3.94962 1.6705 0.207924 3.51205
files/tasks_parameters/ExAp01/sample2.txt 0.879328 3.78275 1.74131 0.200098 3.37986
files/tasks_parameters/ExAp01/sample44.txt 0.824768 3.59825 1.65317 0.200005 3.3783
files/tasks_parameters/ExAp01/sample27.txt 0.774671 3.45743 1.5148 0.182129 3.07634
files/tasks_parameters/ExAp01/sample17.txt 0.672601 2.77299 1.44514 0.14646 2.47386
files/tasks_parameters/ExAp01/sample9.txt 0.759292 2.99933 1.451 0.177444 2.99721
files/tasks_parameters/ExAp01/sample34.txt 0.71306 3.02928 1.58429 0.157984 2.66851
files/tasks_parameters/ExAp01/sample40.txt 0.761803 3.86889 1.52122 0.168379 2.84411
files/tasks_parameters/ExAp01/sample33.txt 0.820234 3.63695 1.71905 0.199765 3.37424
files/tasks_parameters/ExAp01/sample48.txt 0.697638 3.39061 1.49062 0.154728 2.61352
files/tasks_parameters/ExAp01/sample29.txt 0.878384 3.30472 1.38739 0.223868 3.78137
files/tasks_parameters/ExAp01/sample11.txt 0.740725 3.10585 1.41612 0.174079 2.94037
files/tasks_parameters/ExAp01/sample14.txt 0.674395 2.70971 1.43432 0.162214 2.73997
files/tasks_parameters/ExAp01/sample0.txt 0.817311 3.6937 1.5439 0.18367 3.10238
files/tasks_parameters/ExAp01/sample7.txt 0.672036 2.70501 1.42221 0.143463 2.42325
files/tasks_parameters/ExAp01/sample23.txt 0.796655 3.2697 1.57822 0.181448 3.06486
files/tasks_parameters/ExAp01/sample13.txt 0.852928 3.84225 1.67648 0.198247 3.3486
files/tasks_parameters/ExAp01/sample22.txt 0.682528 3.09569 1.56121 0.148796 2.51333
files/tasks_parameters/ExAp01/sample25.txt 0.615049 2.73966 1.5007 0.148149 2.50239
files/tasks_parameters/ExAp01/sample36.txt 0.596971 2.85948 1.28553 0.130042 2.19655
files/tasks_parameters/ExAp01/sample46.txt 0.843089 3.58643 1.69998 0.210103 3.54886
files/tasks_parameters/ExAp01/sample31.txt 0.793952 3.4832 1.53782 0.1722 2.90864
files/tasks_parameters/ExAp01/sample37.txt 0.78198 3.95293 1.50705 0.171701 2.90021
files/tasks_parameters/ExAp01/sample16.txt 0.691158 3.31216 1.30115 0.150249 2.53787
files/tasks_parameters/ExAp01/sample10.txt 0.730584 3.17098 1.61789 0.153776 2.59745
files/tasks_parameters/ExAp01/sample39.txt 0.71195 3.26617 1.44406 0.165669 2.79832
files/tasks_parameters/ExAp01/sample19.txt 0.841476 3.63532 1.52509 0.196094 3.31224
files/tasks_parameters/ExAp01/sample20.txt 0.657555 3.20793 1.25367 0.147335 2.48865
files/tasks_parameters/ExAp01/sample43.txt 0.651965 3.11551 1.4202 0.150644 2.54455
files/tasks_parameters/ExAp01/sample32.txt 0.78143 3.5311 1.42482 0.168744 2.85027
files/tasks_parameters/ExAp01/sample45.txt 0.840932 3.80283 1.48324 0.19807 3.34562
files/tasks_parameters/ExAp01/sample26.txt 0.694441 3.21645 1.29701 0.166061 2.80495
files/tasks_parameters/ExAp01/sample5.txt 0.75255 3.5889 1.52559 0.178903 3.02187
files/tasks_parameters/ExAp01/sample21.txt 0.782655 2.75242 1.55936 0.19512 3.29579
files/tasks_parameters/ExAp01/sample38.txt 0.71618 3.31563 1.37515 0.166157 2.80657
files/tasks_parameters/ExAp01/sample1.txt 0.826587 3.74964 1.51696 0.19701 3.3277
files/tasks_parameters/ExAp01/sample15.txt 0.772703 3.32916 1.48508 0.180707 3.05234
files/tasks_parameters/ExAp01/sample24.txt 0.756447 3.45951 1.59549 0.16529 2.79193
files/tasks_parameters/ExAp01/sample3.txt 0.96007 3.70014 1.70809 0.237107 4.00499
files/tasks_parameters/ExAp01/sample6.txt 0.772295 3.33003 1.58323 0.184714 3.12002
files/tasks_parameters/ExAp01/sample30.txt 1.03678 4.1841 1.4861 0.239623 4.04749
files/tasks_parameters/ExAp01/sample42.txt 0.773551 3.43221 1.70276 0.177383 2.99619
files/tasks_parameters/ExAp01/sample4.txt 0.883593 3.72477 1.6136 0.196448 3.31822
files/tasks_parameters/ExAp01/sample28.txt 0.693041 3.11323 1.45032 0.158819 2.68262
files/tasks_parameters/ExAp01/sample18.txt 0.69207 3.47418 1.45209 0.149064 2.51785
files/tasks_parameters/ExAp01/sample35.txt 0.875999 4.57086 1.49394 0.185031 3.12537
files/tasks_parameters/ExAp01/sample47.txt 0.72513 3.13768 1.52397 0.16417 2.77301
files/tasks_parameters/ExAp01/sample49.txt 0.734017 3.13288 1.49657 0.156154 2.63761
files/tasks_parameters/ExAp01/sample41.txt 0.665653 2.81964 1.49636 0.150876 2.54845
