files/tasks_parameters/ExAp01/sample8.txt 1.38257 6.77015 2.19458 0.288816 5.17439
files/tasks_parameters/ExAp01/sample12.txt 1.62337 9.58351 2.46081 0.337498 6.04658
files/tasks_parameters/ExAp01/sample2.txt 1.52152 8.44418 2.50701 0.319127 5.71744
files/tasks_parameters/ExAp01/sample44.txt 1.35428 6.96299 2.23089 0.28229 5.05747
files/tasks_parameters/ExAp01/sample27.txt 1.37419 7.74306 2.16676 0.28602 5.12429
files/tasks_parameters/ExAp01/sample17.txt 1.40601 7.35053 2.25579 0.292348 5.23766
files/tasks_parameters/ExAp01/sample9.txt 1.33896 6.89392 2.21068 0.282399 5.05942
files/tasks_parameters/ExAp01/sample34.txt 1.42519 6.62788 2.3772 0.297742 5.3343
files/tasks_parameters/ExAp01/sample40.txt 1.36408 7.75686 2.17534 0.285619 5.11711
files/tasks_parameters/ExAp01/sample33.txt 1.61613 8.14826 2.6463 0.338073 6.05687
files/tasks_parameters/ExAp01/sample48.txt 1.29412 7.64107 2.14272 0.270011 4.83748
files/tasks_parameters/ExAp01/sample29.txt 1.37211 7.139 1.93769 0.286306 5.12941
files/tasks_parameters/ExAp01/sample11.txt 1.33982 6.88688 2.12981 0.280008 5.01659
files/tasks_parameters/ExAp01/sample14.txt 1.17066 6.11983 1.97599 0.247458 4.43342
files/tasks_parameters/ExAp01/sample0.txt 1.36997 8.2738 2.14256 0.289132 5.18004
files/tasks_parameters/ExAp01/sample7.txt 1.28572 6.87011 2.05821 0.269886 4.83523
files/tasks_parameters/ExAp01/sample23.txt 1.38898 6.52032 2.38087 0.291712 5.22626
files/tasks_parameters/ExAp01/sample13.txt 1.41937 8.73247 2.33415 0.295393 5.29221
files/tasks_parameters/ExAp01/sample22.txt 1.36231 6.9777 2.28948 0.283979 5.08773
files/tasks_parameters/ExAp01/sample25.txt 1.26715 6.23444 2.2122 0.267298 4.78887
files/tasks_parameters/ExAp01/sample36.txt 1.23635 6.6174 1.9458 0.253823 4.54745
files/tasks_parameters/ExAp01/sample46.txt 1.57981 7.42369 2.49128 0.327273 5.86337
files/tasks_parameters/ExAp01/sample31.txt 1.23737 7.22028 2.13584 0.25377 4.5465
files/tasks_parameters/ExAp01/sample37.txt 1.43731 8.90704 2.16981 0.295708 5.29786
files/tasks_parameters/ExAp01/sample16.txt 1.19848 8.18243 1.88294 0.24945 4.46911
files/tasks_parameters/ExAp01/sample10.txt 1.36376 6.96646 2.31217 0.285748 5.11942
files/tasks_parameters/ExAp01/sample39.txt 1.19811 6.4161 1.97266 0.251967 4.5142
files/tasks_parameters/ExAp01/sample19.txt 1.47837 8.16711 2.23199 0.308463 5.52638
files/tasks_parameters/ExAp01/sample20.txt 1.23664 7.28549 1.88944 0.25994 4.65705
files/tasks_parameters/ExAp01/sample43.txt 1.21157 6.86804 2.00142 0.25616 4.58933
files/tasks_parameters/ExAp01/sample32.txt 1.34177 8.15663 2.12995 0.281726 5.04737
files/tasks_parameters/ExAp01/sample45.txt 1.32578 7.75184 2.10599 0.274935 4.9257
files/tasks_parameters/ExAp01/sample26.txt 1.28134 7.4944 1.88956 0.267248 4.78798
files/tasks_parameters/ExAp01/sample5.txt 1.35816 8.08362 2.09961 0.28454 5.09778
files/tasks_parameters/ExAp01/sample21.txt 1.23906 6.11814 2.17119 0.26143 4.68374
files/tasks_parameters/ExAp01/sample38.txt 1.26263 7.761 1.96293 0.263659 4.72368
files/tasks_parameters/ExAp01/sample1.txt 1.37238 7.83752 2.13261 0.289228 5.18177
files/tasks_parameters/ExAp01/sample15.txt 1.36449 7.37971 2.12057 0.285825 5.12081
files/tasks_parameters/ExAp01/sample24.txt 1.42393 8.28531 2.25272 0.296628 5.31435
files/tasks_parameters/ExAp01/sample3.txt 1.47095 7.33359 2.39135 0.305084 5.46585
files/tasks_parameters/ExAp01/sample6.txt 1.34302 7.09894 2.24425 0.281804 5.04877
files/tasks_parameters/ExAp01/sample30.txt 1.46326 8.17669 2.03701 0.299204 5.3605
files/tasks_parameters/ExAp01/sample42.txt 1.42901 7.70416 2.42413 0.29743 5.32871
files/tasks_parameters/ExAp01/sample4.txt 1.47096 7.41691 2.36261 0.307803 5.51455
files/tasks_parameters/ExAp01/sample28.txt 1.26341 7.0562 2.07657 0.266428 4.77329
files/tasks_parameters/ExAp01/sample18.txt 1.28669 7.60139 2.1377 0.268016 4.80174
files/tasks_parameters/ExAp01/sample35.txt 1.54278 9.66795 2.28028 0.32244 5.77678
files/tasks_parameters/ExAp01/sample47.txt 1.19463 6.84842 2.12104 0.251655 4.50861
files/tasks_parameters/ExAp01/sample49.txt 1.22353 7.1497 2.11412 0.255889 4.58447
files/tasks_parameters/ExAp01/sample41.txt 1.26214 6.59911 2.07359 0.265885 4.76356
