0 7
0 8
0 11
0 14
1 10
1 11
1 15
2 6
2 10
2 15
3 6
3 7
3 9
3 11
4 6
4 8
4 10
4 16
5 7
5 8
5 12
5 13
5 14
5 15
6 20
7 17
7 18
8 17
8 19
8 20
8 21
9 19
9 20
10 19
11 17
11 20
11 21
12 17
12 18
13 17
14 17
14 18
15 18
15 20
15 21
17 22
17 25
17 26
17 31
17 32
18 23
18 25
18 28
18 29
18 30
18 31
18 33
18 34
19 23
19 28
19 29
19 33
19 34
20 23
20 24
20 26
20 27
20 32
20 34
21 35
22 38
22 40
22 43
22 45
23 44
23 45
24 36
24 38
24 43
25 42
25 46
27 36
27 39
27 40
27 45
27 46
28 38
28 39
29 38
29 42
29 43
30 36
30 41
30 43
31 43
31 45
32 36
32 38
32 42
32 43
32 44
32 45
33 37
33 38
33 39
33 42
34 41
34 43
34 45
34 46
35 40
35 41
35 42
35 45
36 48
36 56
36 57
37 54
37 56
37 57
37 58
38 48
38 50
38 56
38 58
39 48
39 52
39 55
39 57
39 58
40 48
40 49
40 50
40 53
41 50
41 51
41 52
41 53
41 54
41 56
42 49
42 51
42 52
43 48
43 52
43 55
43 58
44 49
44 50
44 54
44 58
45 47
45 49
45 50
45 51
45 52
45 54
45 56
46 48
46 49
46 51
47 60
47 65
48 59
48 62
48 66
49 59
49 62
49 64
49 65
50 59
50 60
50 62
50 65
51 59
52 63
52 64
52 67
54 59
54 60
54 65
55 59
55 61
55 63
56 61
56 66
57 61
57 62
57 63
57 65
57 66
58 60
58 61
59 68
59 72
59 73
59 74
59 78
60 68
60 69
60 72
60 73
60 74
61 73
61 74
61 77
62 68
62 70
62 74
62 76
63 70
63 71
64 68
64 69
64 70
64 71
64 73
64 76
65 71
65 72
65 76
65 78
66 69
66 71
66 74
66 75
67 69
67 75
67 78
68 82
68 85
68 86
69 79
69 88
70 85
70 87
70 88
71 81
71 84
71 85
72 81
72 86
72 89
73 82
73 83
73 86
73 89
74 85
74 86
75 81
75 85
76 79
76 80
76 82
76 86
77 81
77 82
77 82
78 79
78 81
78 82
78 83
78 84
79 90
79 95
80 91
80 92
81 92
82 92
82 93
82 94
83 92
84 90
84 91
84 93
84 94
85 92
85 95
86 91
86 92
86 96
87 91
87 93
87 95
88 95
90 98
91 97
91 98
92 99
93 98
94 98
95 97
96 97
