0 8
0 11
0 13
1 8
1 9
1 10
1 12
4 9
5 8
6 12
7 8
8 14
8 19
8 21
9 15
9 18
9 19
9 20
9 21
10 14
10 18
10 22
11 16
11 18
11 22
12 15
13 14
13 17
13 22
14 27
14 28
15 23
16 24
16 25
16 26
16 28
18 23
18 26
18 27
19 23
19 27
19 27
22 28
23 29
23 30
23 34
23 35
23 39
24 35
24 38
24 40
24 41
25 32
25 39
25 40
25 42
26 30
26 31
26 34
26 37
26 40
27 31
27 33
27 34
27 36
27 37
27 39
28 30
28 42
29 43
29 46
29 47
30 43
30 46
30 47
30 50
31 51
32 46
32 51
33 45
33 46
33 47
34 44
34 46
34 47
34 48
35 44
35 48
35 49
35 51
36 43
36 49
36 50
37 43
37 44
37 51
37 52
38 46
38 50
38 51
39 48
39 50
39 51
40 43
40 47
40 50
41 48
41 50
41 52
42 49
42 50
42 51
43 53
43 58
43 60
43 62
43 63
44 55
44 59
44 62
44 63
45 62
46 56
47 58
47 60
48 53
48 61
49 53
49 59
49 63
50 53
50 54
50 55
50 56
51 53
51 55
51 57
51 58
51 60
52 55
52 58
53 67
53 69
53 70
54 65
54 73
55 71
55 72
56 65
56 69
56 72
56 73
57 64
57 69
57 72
57 73
58 66
58 67
58 69
58 71
58 73
59 64
59 65
59 71
59 72
60 64
60 65
60 71
61 65
61 65
61 68
61 71
61 72
62 66
62 67
62 72
63 67
64 75
64 76
65 76
65 77
66 76
67 75
67 78
69 74
70 74
70 76
74 81
74 81
74 83
74 84
75 80
75 82
75 85
76 79
76 80
76 82
76 83
76 85
77 79
77 82
77 83
78 79
78 81
79 86
79 87
79 91
79 95
79 96
79 97
79 99
80 88
80 94
80 97
81 87
81 88
81 90
81 91
81 93
81 95
81 96
81 99
82 88
82 91
82 93
82 96
83 86
83 90
83 94
84 86
84 89
84 94
84 95
84 96
84 97
85 86
85 90
85 92
85 94
85 95
85 97
85 98
85 99
