0 12
1 12
1 15
2 13
2 14
2 16
3 13
4 13
5 12
5 13
6 13
6 15
7 13
8 12
10 16
12 17
12 22
12 24
12 26
12 29
13 20
13 22
13 24
13 25
13 28
14 20
14 21
14 23
14 24
14 27
14 29
15 22
15 26
15 30
16 17
16 18
16 19
16 23
16 30
17 33
17 34
17 40
17 41
17 44
18 32
18 33
18 34
18 37
18 38
18 41
19 31
19 32
19 33
20 31
20 33
20 38
20 42
21 31
21 32
21 36
21 38
21 40
21 43
22 32
22 38
22 40
22 41
22 43
23 32
23 39
23 40
23 43
24 34
24 43
25 32
25 41
25 43
25 44
26 35
26 37
26 40
26 41
26 44
27 33
27 34
27 41
28 32
28 33
28 34
28 36
28 40
28 41
28 43
29 34
29 42
29 44
30 33
30 34
30 35
30 40
30 44
31 46
31 47
31 50
31 52
32 50
32 52
32 54
33 45
33 51
33 53
34 50
34 51
35 48
35 49
35 54
36 51
37 46
37 47
37 50
37 51
37 52
38 46
38 48
38 53
38 54
39 46
39 47
39 50
39 52
39 53
40 46
40 47
40 52
40 53
41 45
41 50
42 46
42 47
43 45
43 51
43 52
44 50
45 63
46 55
46 56
46 61
46 64
47 55
47 56
47 57
47 61
47 62
47 63
47 66
48 55
48 56
48 57
48 59
48 61
48 66
48 66
49 56
49 57
49 62
49 64
50 57
50 59
50 60
50 61
50 62
50 64
51 58
51 59
51 60
52 60
52 64
52 65
52 66
53 56
53 57
53 60
53 64
54 59
54 62
54 63
54 65
54 67
57 72
58 69
58 71
59 72
60 68
61 68
61 70
62 68
63 69
63 71
64 68
66 68
67 68
68 73
68 76
68 78
69 74
69 75
70 74
70 77
70 78
72 73
72 75
73 79
73 80
73 82
73 84
73 85
73 86
73 87
74 79
74 80
74 86
75 80
75 83
76 81
76 82
76 83
78 81
78 84
78 86
78 87
79 89
79 91
80 90
80 95
81 88
81 95
82 89
82 90
82 91
82 92
82 95
83 89
83 90
83 91
83 96
84 90
84 95
85 90
85 96
86 89
86 96
87 92
87 93
87 94
88 98
90 99
92 98
93 97
93 98
93 99
94 98
96 99
