0 7
0 13
1 10
1 11
2 11
3 6
3 8
3 9
3 12
4 6
4 7
4 9
4 11
4 12
5 7
5 12
5 13
6 19
6 20
7 14
7 16
7 17
7 21
7 22
7 23
7 24
8 15
8 16
8 18
9 15
9 16
9 22
9 24
10 17
10 18
10 19
10 22
10 25
11 21
11 25
12 14
12 15
12 16
12 20
12 22
12 23
12 24
12 25
13 17
13 20
13 24
14 26
14 28
14 34
15 26
15 27
15 31
15 32
15 34
15 36
16 27
16 29
16 31
16 35
16 36
17 27
17 32
17 33
17 36
18 26
18 27
18 29
18 30
18 31
18 33
19 29
19 30
20 28
20 30
21 28
21 30
22 26
22 28
22 34
22 36
23 30
23 33
23 36
24 27
24 30
25 28
25 32
25 34
26 37
26 39
26 40
26 42
27 38
27 39
29 37
29 38
30 38
30 41
30 42
31 42
32 37
32 40
33 37
34 37
34 38
34 41
34 42
35 39
35 42
36 42
37 44
37 48
37 49
37 50
38 44
38 48
38 51
39 48
40 43
41 46
41 49
42 44
42 45
42 47
42 49
43 54
44 57
45 52
45 53
45 56
46 53
46 57
47 52
47 53
48 52
48 56
49 52
49 54
49 56
50 52
50 53
50 54
50 55
50 56
50 57
51 53
51 56
51 57
52 65
52 66
52 67
52 69
52 70
53 62
53 67
53 70
54 61
54 62
55 59
55 62
55 66
55 68
56 58
56 59
56 63
56 64
57 58
57 59
57 60
57 66
57 67
57 69
58 71
58 79
59 73
59 74
59 75
59 77
59 80
60 74
60 75
60 78
61 72
61 73
62 72
62 73
62 75
62 76
63 73
63 74
63 75
63 76
63 77
63 78
63 80
64 71
64 80
65 71
65 73
65 74
65 77
65 80
66 74
66 79
67 77
67 80
68 72
68 75
68 76
68 77
68 79
68 80
70 75
71 82
71 83
71 86
72 82
72 85
73 82
74 82
74 85
74 86
74 87
74 88
75 81
75 86
75 87
76 85
76 88
77 88
78 88
79 85
79 87
80 84
80 86
80 87
80 88
81 90
81 94
82 89
82 90
82 92
82 94
83 91
83 95
83 98
83 99
84 91
84 93
84 95
85 93
85 96
86 93
86 94
86 96
87 89
87 91
87 92
87 95
87 96
87 97
88 90
88 91
88 93
88 95
88 96
