files/tasks_parameters/ExAp01/sample8.txt 1.25972 6.77015 2.19458 0.288816 18.4428
files/tasks_parameters/ExAp01/sample12.txt 1.42541 9.58351 2.46081 0.337498 21.5514
files/tasks_parameters/ExAp01/sample2.txt 1.33984 8.44418 2.50701 0.319127 20.3783
files/tasks_parameters/ExAp01/sample44.txt 1.23644 6.96299 2.23089 0.28229 18.026
files/tasks_parameters/ExAp01/sample27.txt 1.3584 7.74306 2.16676 0.28602 18.2642
files/tasks_parameters/ExAp01/sample17.txt 1.25962 7.35053 2.25579 0.292348 18.6683
files/tasks_parameters/ExAp01/sample9.txt 1.09072 6.89392 2.21068 0.282399 18.033
files/tasks_parameters/ExAp01/sample34.txt 1.27447 6.62788 2.3772 0.297742 19.0127
files/tasks_parameters/ExAp01/sample40.txt 1.2238 7.75686 2.17534 0.285619 18.2386
files/tasks_parameters/ExAp01/sample33.txt 1.43359 8.14826 2.6463 0.338073 21.5881
files/tasks_parameters/ExAp01/sample48.txt 1.12089 7.64107 2.14272 0.270011 17.2419
files/tasks_parameters/ExAp01/sample29.txt 1.14175 7.139 1.93769 0.286306 18.2824
files/tasks_parameters/ExAp01/sample11.txt 1.20832 6.88688 2.12981 0.280008 17.8803
files/tasks_parameters/ExAp01/sample14.txt 1.00395 6.11983 1.97599 0.247458 15.8017
files/tasks_parameters/ExAp01/sample0.txt 1.28213 8.2738 2.14256 0.289132 18.4629
files/tasks_parameters/ExAp01/sample7.txt 1.24947 6.87011 2.05821 0.269886 17.2339
files/tasks_parameters/ExAp01/sample23.txt 1.22425 6.52032 2.38087 0.291712 18.6276
files/tasks_parameters/ExAp01/sample13.txt 1.26265 8.73247 2.33415 0.295393 18.8627
files/tasks_parameters/ExAp01/sample22.txt 1.16666 6.9777 2.28948 0.283979 18.1339
files/tasks_parameters/ExAp01/sample25.txt 1.15777 6.23444 2.2122 0.267298 17.0687
files/tasks_parameters/ExAp01/sample36.txt 1.02061 6.6174 1.9458 0.253823 16.2082
files/tasks_parameters/ExAp01/sample46.txt 1.37765 7.42369 2.49128 0.327273 20.8985
files/tasks_parameters/ExAp01/sample31.txt 0.954383 7.22028 2.13584 0.25377 16.2048
files/tasks_parameters/ExAp01/sample37.txt 1.24038 8.90704 2.16981 0.295708 18.8828
files/tasks_parameters/ExAp01/sample16.txt 1.07028 8.18243 1.88294 0.24945 15.929
files/tasks_parameters/ExAp01/sample10.txt 1.20523 6.96646 2.31217 0.285748 18.2468
files/tasks_parameters/ExAp01/sample39.txt 1.1785 6.4161 1.97266 0.251967 16.0897
files/tasks_parameters/ExAp01/sample19.txt 1.29049 8.16711 2.23199 0.308463 19.6973
files/tasks_parameters/ExAp01/sample20.txt 1.03544 7.28549 1.88944 0.25994 16.5988
files/tasks_parameters/ExAp01/sample43.txt 1.10341 6.86804 2.00142 0.25616 16.3575
files/tasks_parameters/ExAp01/sample32.txt 1.18188 8.15663 2.12995 0.281726 17.99
files/tasks_parameters/ExAp01/sample45.txt 1.07917 7.75184 2.10599 0.274935 17.5563
files/tasks_parameters/ExAp01/sample26.txt 1.11748 7.4944 1.88956 0.267248 17.0655
files/tasks_parameters/ExAp01/sample5.txt 1.22443 8.08362 2.09961 0.28454 18.1697
files/tasks_parameters/ExAp01/sample21.txt 1.12123 6.11814 2.17119 0.26143 16.6939
files/tasks_parameters/ExAp01/sample38.txt 1.08859 7.761 1.96293 0.263659 16.8363
files/tasks_parameters/ExAp01/sample1.txt 1.3578 7.83752 2.13261 0.289228 18.4691
files/tasks_parameters/ExAp01/sample15.txt 1.17861 7.37971 2.12057 0.285825 18.2518
files/tasks_parameters/ExAp01/sample24.txt 1.26578 8.28531 2.25272 0.296628 18.9416
files/tasks_parameters/ExAp01/sample3.txt 1.28229 7.33359 2.39135 0.305084 19.4816
files/tasks_parameters/ExAp01/sample6.txt 1.27829 7.09894 2.24425 0.281804 17.995
files/tasks_parameters/ExAp01/sample30.txt 1.20839 8.17669 2.03701 0.299204 19.1061
files/tasks_parameters/ExAp01/sample42.txt 1.34541 7.70416 2.42413 0.29743 18.9928
files/tasks_parameters/ExAp01/sample4.txt 1.33371 7.41691 2.36261 0.307803 19.6552
files/tasks_parameters/ExAp01/sample28.txt 1.12807 7.0562 2.07657 0.266428 17.0131
files/tasks_parameters/ExAp01/sample18.txt 1.21028 7.60139 2.1377 0.268016 17.1145
files/tasks_parameters/ExAp01/sample35.txt 1.33734 9.66795 2.28028 0.32244 20.5898
files/tasks_parameters/ExAp01/sample47.txt 1.03663 6.84842 2.12104 0.251655 16.0698
files/tasks_parameters/ExAp01/sample49.txt 1.12169 7.1497 2.11412 0.255889 16.3401
files/tasks_parameters/ExAp01/sample41.txt 1.097 6.59911 2.07359 0.265885 16.9785
