10.851609769999996
Task0 3 3 1 
Task1 1 1 1 
Task2 1 3 1 
Task3 3 3 1 
Task4 1 3 3 
Task5 3 1 1 
Task6 1 1 1 
Task7 3 1 3 
Task8 1 1 1 
Task9 3 1 1 
Task10 3 3 1 
Task11 3 1 3 
Task12 3 1 3 
Task13 3 1 1 
Task14 3 1 3 
Task15 3 3 3 
Task16 1 1 3 
Task17 1 1 1 
Task18 1 3 3 
Task19 1 1 1 
Task20 1 1 1 
Task21 1 3 3 
Task22 1 1 1 
Task23 3 3 3 
Task24 1 1 1 
Task25 3 3 1 
Task26 1 1 3 
Task27 3 1 3 
Task28 3 1 1 
Task29 3 1 3 
Task30 1 3 1 
Task31 3 1 3 
Task32 3 1 3 
Task33 1 3 1 
Task34 1 1 1 
Task35 3 3 1 
Task36 1 3 1 
Task37 1 1 3 
Task38 3 1 1 
Task39 1 3 3 
Task40 1 1 1 
Task41 3 3 1 
Task42 1 3 3 
Task43 3 3 1 
Task44 1 1 1 
Task45 3 1 3 
Task46 1 1 3 
Task47 1 3 3 
Task48 3 1 3 
Task49 1 1 1 
Task50 1 3 1 
Task51 1 1 3 
Task52 1 3 3 
Task53 1 1 3 
Task54 1 3 3 
Task55 3 3 3 
Task56 1 1 1 
Task57 1 3 1 
Task58 1 3 3 
Task59 1 1 3 
Task60 1 1 1 
Task61 3 3 3 
Task62 1 3 3 
Task63 1 1 1 
Task64 1 3 1 
Task65 3 3 3 
Task66 1 1 1 
Task67 1 3 3 
Task68 3 1 3 
Task69 1 3 1 
Task70 3 3 3 
Task71 3 3 1 
Task72 1 3 3 
Task73 1 3 1 
Task74 3 1 3 
Task75 1 1 1 
Task76 1 3 1 
Task77 3 1 1 
Task78 3 3 1 
Task79 1 1 3 
Task80 1 3 1 
Task81 3 1 3 
Task82 3 3 1 
Task83 1 1 1 
Task84 1 1 3 
Task85 1 1 1 
Task86 1 1 1 
Task87 3 1 3 
Task88 1 3 1 
Task89 1 1 1 
Task90 1 3 1 
Task91 1 1 1 
Task92 1 3 1 
Task93 3 3 3 
Task94 1 1 3 
Task95 1 1 1 
Task96 1 3 3 
Task97 3 3 3 
Task98 1 1 1 
Task99 1 1 1 
Task100 1 3 3 
Task101 1 1 1 
Task102 1 1 1 
Task103 1 3 3 
Task104 1 3 1 
Task105 3 1 3 
Task106 3 3 1 
Task107 3 1 1 
Task108 3 1 3 
Task109 1 1 1 
Task110 3 1 3 
Task111 1 3 1 
Task112 3 3 1 
Task113 1 1 1 
Task114 3 3 1 
Task115 3 1 1 
Task116 1 1 1 
Task117 1 1 3 
Task118 1 3 3 
Task119 3 3 1 
Task120 1 1 1 
Task121 3 3 1 
Task122 1 1 1 
Task123 3 1 3 
Task124 3 3 1 
Task125 3 1 3 
Task126 3 3 3 
Task127 1 1 3 
Task128 3 1 3 
Task129 1 1 1 
Task130 3 3 1 
Task131 1 1 1 
Task132 1 1 3 
Task133 3 3 1 
Task134 3 3 3 
Task135 3 3 1 
Task136 1 1 1 
Task137 1 1 1 
Task138 1 1 1 
Task139 1 1 1 
Task140 1 1 1 
Task141 1 1 1 
Task142 1 1 1 
Task143 1 3 1 
Task144 1 1 1 
Task145 1 3 1 
Task146 1 1 3 
Task147 1 1 1 
Task148 1 3 3 
Task149 1 1 1 
