0.399529874
Task0 127 15 255 
Task1 7 127 31 
Task2 63 15 63 
Task3 31 127 63 
Task4 7 31 31 
Task5 3 1 31 
Task6 63 63 63 
Task7 255 127 255 
Task8 7 15 63 
Task9 127 3 127 
Task10 31 63 255 
Task11 31 1 7 
Task12 15 63 127 
Task13 255 31 127 
Task14 63 63 255 
Task15 63 127 63 
Task16 31 255 31 
Task17 255 15 31 
Task18 63 63 7 
Task19 63 15 31 
Task20 1 63 63 
Task21 255 255 255 
Task22 31 255 31 
Task23 255 31 15 
Task24 255 63 255 
Task25 31 63 31 
Task26 63 15 63 
Task27 7 7 127 
Task28 63 127 255 
Task29 1 255 31 
Task30 255 15 63 
Task31 255 1 31 
Task32 15 15 63 
Task33 15 63 7 
Task34 15 255 15 
Task35 255 1 63 
Task36 255 63 63 
Task37 255 3 3 
Task38 63 31 31 
Task39 63 3 63 
Task40 63 63 63 
Task41 255 127 127 
Task42 63 63 1 
Task43 31 7 1 
Task44 15 127 63 
Task45 3 15 127 
Task46 31 31 255 
Task47 63 127 63 
Task48 15 63 31 
Task49 31 3 31 
Task50 255 63 15 
Task51 15 7 31 
Task52 31 3 15 
Task53 31 63 1 
Task54 1 63 255 
Task55 31 15 255 
Task56 127 127 63 
Task57 63 63 63 
Task58 15 255 127 
Task59 255 255 31 
Task60 127 63 7 
Task61 15 1 31 
Task62 31 63 7 
Task63 255 1 1 
Task64 31 3 15 
Task65 15 255 1 
Task66 15 3 255 
Task67 127 127 255 
Task68 255 31 31 
Task69 31 63 255 
Task70 63 15 63 
Task71 255 127 127 
Task72 15 127 1 
Task73 15 127 31 
Task74 63 7 31 
Task75 255 3 15 
Task76 255 15 31 
Task77 7 31 7 
Task78 63 31 31 
Task79 255 7 7 
Task80 127 255 63 
Task81 3 31 15 
Task82 255 127 63 
Task83 31 1 3 
Task84 63 31 255 
Task85 255 31 127 
Task86 15 15 255 
Task87 63 3 31 
Task88 63 3 31 
Task89 63 1 63 
Task90 127 127 255 
Task91 255 15 3 
Task92 15 255 31 
Task93 63 3 7 
Task94 255 15 15 
Task95 31 15 63 
Task96 3 31 7 
Task97 31 127 127 
Task98 255 63 63 
Task99 15 255 63 
