files/tasks_parameters/ExAp01/sample8.txt 1.03331 3.76817 4.3855 0.450105 9.5955
files/tasks_parameters/ExAp01/sample12.txt 1.35529 5.03638 5.18776 0.610564 13.0162
files/tasks_parameters/ExAp01/sample2.txt 1.29995 4.58991 5.64606 0.613877 13.0868
files/tasks_parameters/ExAp01/sample44.txt 1.19669 3.77401 5.66946 0.551838 11.7643
files/tasks_parameters/ExAp01/sample27.txt 1.19616 4.13937 5.56136 0.55779 11.8911
files/tasks_parameters/ExAp01/sample17.txt 1.10786 3.76163 5.38341 0.520991 11.1067
files/tasks_parameters/ExAp01/sample9.txt 1.09275 3.69889 5.2981 0.511699 10.9086
files/tasks_parameters/ExAp01/sample34.txt 1.07834 3.52435 5.83741 0.49187 10.4859
files/tasks_parameters/ExAp01/sample40.txt 1.07995 4.06185 5.0335 0.496884 10.5927
files/tasks_parameters/ExAp01/sample33.txt 1.40288 4.82091 5.83886 0.651963 13.8988
files/tasks_parameters/ExAp01/sample48.txt 1.03705 4.01134 5.07085 0.447927 9.54907
files/tasks_parameters/ExAp01/sample29.txt 1.36181 4.20847 5.0406 0.643694 13.7225
files/tasks_parameters/ExAp01/sample11.txt 1.24462 3.94699 5.29198 0.557276 11.8802
files/tasks_parameters/ExAp01/sample14.txt 1.04005 3.54059 4.58345 0.466713 9.94956
files/tasks_parameters/ExAp01/sample0.txt 1.3348 4.82755 4.90216 0.623551 13.2931
files/tasks_parameters/ExAp01/sample7.txt 1.10032 3.60766 5.11185 0.509566 10.8631
files/tasks_parameters/ExAp01/sample23.txt 1.28538 3.81403 5.45799 0.582911 12.4267
files/tasks_parameters/ExAp01/sample13.txt 1.3429 4.8894 5.26818 0.624499 13.3133
files/tasks_parameters/ExAp01/sample22.txt 1.17187 3.76156 4.95746 0.534216 11.3886
files/tasks_parameters/ExAp01/sample25.txt 0.898613 2.94144 4.92622 0.403639 8.60492
files/tasks_parameters/ExAp01/sample36.txt 1.15253 3.56164 4.5806 0.501799 10.6975
files/tasks_parameters/ExAp01/sample46.txt 1.16109 3.84833 4.7121 0.530701 11.3137
files/tasks_parameters/ExAp01/sample31.txt 1.05566 3.764 5.08385 0.479734 10.2271
files/tasks_parameters/ExAp01/sample37.txt 1.42609 4.43254 5.65111 0.65143 13.8874
files/tasks_parameters/ExAp01/sample16.txt 1.19803 4.49741 4.8895 0.509171 10.8547
files/tasks_parameters/ExAp01/sample10.txt 1.31724 3.87086 6.07511 0.60993 13.0027
files/tasks_parameters/ExAp01/sample39.txt 1.01185 3.66299 4.54281 0.463671 9.8847
files/tasks_parameters/ExAp01/sample19.txt 1.29166 3.86694 5.14047 0.615987 13.1318
files/tasks_parameters/ExAp01/sample20.txt 1.23098 4.09945 5.13368 0.580369 12.3725
files/tasks_parameters/ExAp01/sample43.txt 1.14011 3.75825 5.55698 0.530892 11.3177
files/tasks_parameters/ExAp01/sample32.txt 1.35794 4.0352 5.29178 0.587643 12.5276
files/tasks_parameters/ExAp01/sample45.txt 1.21313 3.94578 4.87833 0.541081 11.535
files/tasks_parameters/ExAp01/sample26.txt 1.02737 3.50998 4.55035 0.474009 10.1051
files/tasks_parameters/ExAp01/sample5.txt 1.27405 4.00994 5.27725 0.587681 12.5284
files/tasks_parameters/ExAp01/sample21.txt 0.937788 2.8974 4.54677 0.430037 9.16768
files/tasks_parameters/ExAp01/sample38.txt 1.05653 3.56689 4.78573 0.492366 10.4964
files/tasks_parameters/ExAp01/sample1.txt 1.05204 3.69002 4.55048 0.481074 10.2557
files/tasks_parameters/ExAp01/sample15.txt 1.15178 3.73223 5.42493 0.524964 11.1914
files/tasks_parameters/ExAp01/sample24.txt 1.16864 4.18053 5.40377 0.542575 11.5668
files/tasks_parameters/ExAp01/sample3.txt 1.01481 3.70547 4.7118 0.470503 10.0303
files/tasks_parameters/ExAp01/sample6.txt 1.33132 4.07521 5.71419 0.626702 13.3603
files/tasks_parameters/ExAp01/sample30.txt 1.40316 3.97446 5.82388 0.626709 13.3604
files/tasks_parameters/ExAp01/sample42.txt 1.19327 4.44207 5.58473 0.537025 11.4485
files/tasks_parameters/ExAp01/sample4.txt 1.24106 3.92181 4.49751 0.556974 11.8738
files/tasks_parameters/ExAp01/sample28.txt 1.01367 3.13496 4.88321 0.444588 9.47788
files/tasks_parameters/ExAp01/sample18.txt 1.18244 3.95301 4.52898 0.537438 11.4573
files/tasks_parameters/ExAp01/sample35.txt 1.75443 5.75923 6.25034 0.752488 16.0418
files/tasks_parameters/ExAp01/sample47.txt 1.13779 3.44018 5.14289 0.540033 11.5126
files/tasks_parameters/ExAp01/sample49.txt 1.13096 3.38981 4.72409 0.493041 10.5108
files/tasks_parameters/ExAp01/sample41.txt 1.07048 3.58692 5.27252 0.492391 10.497
