files/tasks_parameters/ExAp01/sample8.txt 1.08905 7.2562 4.46819 0.454772 9.3695
files/tasks_parameters/ExAp01/sample12.txt 1.62827 9.70908 5.28286 0.618515 12.743
files/tasks_parameters/ExAp01/sample2.txt 1.45146 8.14159 5.7401 0.620531 12.7846
files/tasks_parameters/ExAp01/sample44.txt 1.37778 7.25164 5.75904 0.557631 11.4887
files/tasks_parameters/ExAp01/sample27.txt 1.3183 8.10944 5.64946 0.564878 11.638
files/tasks_parameters/ExAp01/sample17.txt 1.25094 7.11225 5.46658 0.527183 10.8614
files/tasks_parameters/ExAp01/sample9.txt 1.19583 7.62559 5.37813 0.517277 10.6573
files/tasks_parameters/ExAp01/sample34.txt 1.2448 7.04587 5.93037 0.497709 10.2541
files/tasks_parameters/ExAp01/sample40.txt 1.201 8.03037 5.123 0.502383 10.3504
files/tasks_parameters/ExAp01/sample33.txt 1.61534 9.22935 5.92956 0.659262 13.5825
files/tasks_parameters/ExAp01/sample48.txt 1.15861 8.12182 5.1577 0.452491 9.32249
files/tasks_parameters/ExAp01/sample29.txt 1.52629 8.06133 5.12331 0.650652 13.4051
files/tasks_parameters/ExAp01/sample11.txt 1.35889 7.63104 5.37897 0.563302 11.6055
files/tasks_parameters/ExAp01/sample14.txt 1.13168 6.66403 4.66322 0.471536 9.71488
files/tasks_parameters/ExAp01/sample0.txt 1.61626 9.3266 4.98971 0.6311 13.0023
files/tasks_parameters/ExAp01/sample7.txt 1.22945 7.34863 5.19436 0.515527 10.6212
files/tasks_parameters/ExAp01/sample23.txt 1.40203 6.68564 5.54308 0.588617 12.1271
files/tasks_parameters/ExAp01/sample13.txt 1.60576 9.31093 5.35591 0.632849 13.0383
files/tasks_parameters/ExAp01/sample22.txt 1.28633 7.65588 5.04866 0.540336 11.1323
files/tasks_parameters/ExAp01/sample25.txt 1.0295 6.17035 5.0141 0.408296 8.41197
files/tasks_parameters/ExAp01/sample36.txt 1.19007 7.03772 4.66274 0.507647 10.4589
files/tasks_parameters/ExAp01/sample46.txt 1.35236 7.73433 4.79934 0.536843 11.0604
files/tasks_parameters/ExAp01/sample31.txt 1.16998 6.96928 5.16482 0.485817 10.0091
files/tasks_parameters/ExAp01/sample37.txt 1.59326 9.52443 5.74224 0.65799 13.5563
files/tasks_parameters/ExAp01/sample16.txt 1.34466 8.63521 4.97261 0.516328 10.6377
files/tasks_parameters/ExAp01/sample10.txt 1.39877 7.28353 6.16876 0.615651 12.684
files/tasks_parameters/ExAp01/sample39.txt 1.14417 6.3405 4.6137 0.468873 9.66002
files/tasks_parameters/ExAp01/sample19.txt 1.39986 8.85528 5.22306 0.622152 12.818
files/tasks_parameters/ExAp01/sample20.txt 1.39217 8.1141 5.21177 0.586994 12.0936
files/tasks_parameters/ExAp01/sample43.txt 1.30697 7.21373 5.6367 0.53748 11.0735
files/tasks_parameters/ExAp01/sample32.txt 1.46545 8.30592 5.38137 0.593918 12.2363
files/tasks_parameters/ExAp01/sample45.txt 1.29527 7.94069 4.96323 0.547271 11.2752
files/tasks_parameters/ExAp01/sample26.txt 1.12017 7.57061 4.62637 0.480146 9.89226
files/tasks_parameters/ExAp01/sample5.txt 1.38077 8.0307 5.35681 0.59407 12.2394
files/tasks_parameters/ExAp01/sample21.txt 1.02755 5.87802 4.61744 0.434264 8.94698
files/tasks_parameters/ExAp01/sample38.txt 1.18271 7.66999 4.86632 0.496808 10.2356
files/tasks_parameters/ExAp01/sample1.txt 1.18284 7.21312 4.63213 0.486293 10.0189
files/tasks_parameters/ExAp01/sample15.txt 1.28125 8.02273 5.50855 0.531063 10.9413
files/tasks_parameters/ExAp01/sample24.txt 1.31373 8.66348 5.4905 0.548998 11.3108
files/tasks_parameters/ExAp01/sample3.txt 1.18752 7.74268 4.79918 0.477387 9.83542
files/tasks_parameters/ExAp01/sample6.txt 1.51709 8.57133 5.80157 0.633604 13.0539
files/tasks_parameters/ExAp01/sample30.txt 1.58045 8.18878 5.90888 0.633576 13.0533
files/tasks_parameters/ExAp01/sample42.txt 1.30673 8.57689 5.67253 0.54426 11.2132
files/tasks_parameters/ExAp01/sample4.txt 1.2945 8.40354 4.57985 0.563519 11.61
files/tasks_parameters/ExAp01/sample28.txt 1.05712 6.44114 4.96426 0.449721 9.26544
files/tasks_parameters/ExAp01/sample18.txt 1.36612 8.56363 4.60946 0.543766 11.203
files/tasks_parameters/ExAp01/sample35.txt 1.93719 11.0387 6.34514 0.761377 15.6864
files/tasks_parameters/ExAp01/sample47.txt 1.32345 7.14493 5.22131 0.545046 11.2294
files/tasks_parameters/ExAp01/sample49.txt 1.29814 6.65996 4.80244 0.498533 10.2711
files/tasks_parameters/ExAp01/sample41.txt 1.18983 7.09069 5.35462 0.497129 10.2422
