Task0 0.028051817851456443 0.21240995637164115 0.34289365342116795 0.3070845195266563 0.7552116361869048 0.5167287881214455 0.9796611757679989 
Task1 0.02385857753540679 0.1419197067300819 0.11032268462867781 0.011705662372398673 0.538011041564219 0.6924797882006525 0.48966770091848627 
Task2 0.022030683041251574 0.017540006636655645 0.0453999278489341 0.06799471595060601 0.5507828229767534 0.5164067688081189 0.45928746695398415 
Task3 0.05106717680078913 0.12417426856733872 0.03733039321521803 0.10495684137162269 0.8285265966804811 0.3627345237420618 0.8201062922083788 
Task4 0.03422332061435643 0.029898472712597147 0.06533062164187863 0.04408913406827829 0.5453969881041751 0.7150495109108911 0.4024525304441333 
Task5 0.1015188567536057 0.48372412401590253 0.14305398327758906 0.15161691296635396 0.5260737273182399 0.7730299057419154 0.9934442068014675 
Task6 0.09644827189270135 0.41550356472245553 0.09811929772071408 0.05807874919791628 0.7044760360140033 0.9528349443558637 0.49576086962872257 
Task7 0.08452517979791231 0.19777134058786286 0.17698820188181008 0.09780858456034193 0.809705064787597 0.4805367612122662 0.5367219114151125 
Task8 0.004730387874947041 0.007727501966968575 0.012234910136529687 7.073176091300215e-05 0.34975347430110615 0.3353857256768395 0.8836361332152292 
Task9 0.04301634143428846 0.19844763626707376 0.08112591898921076 0.07376240130002668 0.920342680865458 0.9101494624257378 0.5242217267596255 
Task10 0.009377740032026951 0.039930065782074774 0.2587233344828302 0.3206492912138569 0.5897443070341788 0.6360089452146704 0.8045887561362326 
Task11 0.020681661980119163 0.17378808687956906 0.3395810935845897 0.026567048715876417 0.7494547305373884 0.6978551874551784 0.42424483855010503 
Task12 0.004235351114721256 0.02212826624269934 0.0743242317541702 0.12423994375832134 0.9518080942753695 0.9908893799144267 0.4057459502746724 
Task13 0.15790048623242206 0.3430283734547269 0.17956463526881636 0.2900216939347801 0.7449993594759983 0.6880515639025424 0.5978424808718891 
Task14 0.09505617260711399 0.29380425309127406 0.015638311114006258 0.11941003764536963 0.36524010096596865 0.6872882806171585 0.4235999597776319 
Task15 0.02535057946478874 0.019948754178598146 0.019269540918981667 0.08267165406660118 0.4359853877223887 0.4633453282781045 0.44053395545524376 
Task16 0.005993921859105621 0.06141364187150855 0.006533613955453039 0.017406777192162468 0.9512447915073328 0.9264843613219294 0.62674198958469 
Task17 0.1505017443060133 0.10389863827883623 0.25494875994046595 0.33132182343772865 0.43183434471563664 0.5792728608422153 0.4046558733877416 
Task18 0.022514602718427215 0.044831906400547385 0.004841801765374981 0.041204647733554964 0.8596371335947837 0.7291923784441752 0.9038298476016453 
Task19 0.04689805785377884 0.010960438473292351 0.134910635136486 0.21039620933382566 0.8164656003383501 0.3804834140007927 0.6456774714626327 
Task20 0.06098701023704362 0.23990129255339396 0.08665573355869606 0.13575001905562462 0.4589770297429365 0.3121338894517837 0.5679689926244683 
Task21 0.11396198735300375 0.32678865487511255 0.32719243805306747 0.0003491444684186727 0.4861733264122532 0.36132097901012417 0.5332650906043246 
Task22 0.1103354312328619 0.11887538264740312 0.2847498836807123 0.17881359994594126 0.43612962847029 0.7966388901142291 0.6638745794853829 
Task23 0.127800590125462 0.10314763679983281 0.10508324170179191 0.37948250691800617 0.7632397908944337 0.7488129585930725 0.6750091356395633 
Task24 0.024116150506350503 0.10710972205367497 0.08980833819033089 0.023520923039953647 0.5650274804627535 0.38737962629859846 0.4614190231224667 
Task25 0.1156248467043539 0.3697158854651386 0.27412579870939197 0.17473871641876954 0.9551073409585673 0.4863402776935731 0.44578012932273553 
Task26 0.002117223060489228 0.0071935332132534845 0.014055202462324634 0.011314927812588966 0.8460496983600481 0.7855083974403179 0.47013398988520017 
Task27 0.1504322459510557 0.03338629054793952 0.23470275857849762 0.4649631586434233 0.7820717819085077 0.9807581201872397 0.9807931059250803 
Task28 0.025600804494217654 0.09856202687062118 0.14418009970024986 0.038725305140552564 0.4573068856283362 0.9130829766617845 0.37824799952350985 
Task29 0.11703855729446981 0.25168957637611783 0.15642784906077692 0.08473953597384842 0.8160589517026438 0.887205161001388 0.8794042636106236 
Task30 0.007159101931160896 0.015615024891701985 0.023322313441377578 0.06836321550309007 0.3389801549337089 0.47493815666367656 0.6023580588870502 
Task31 0.054356443542954797 0.03839258625303592 0.10190260534804961 0.12734484605162882 0.5368896729109188 0.4795011711548911 0.6636131154468241 
Task32 0.0055212444779770345 0.023373640337045077 0.0023952236945336087 0.025240656988256838 0.7094669089613826 0.6739097091523767 0.6167534318706648 
Task33 0.0005142057023264887 0.012527492692614208 0.0050784596274679305 0.0038732107914544135 0.8492075054911625 0.31325154017161094 0.5368612794446219 
Task34 0.023274647690975644 0.07584111608413324 0.07606918574857449 0.6868089944878032 0.6125613511741005 0.3079073576257814 0.6370004791563806 
Task35 0.026689233646311167 0.04011936034533457 0.34370452773897237 0.07083999275020421 0.6491856285851023 0.6711837659984237 0.943007806823202 
Task36 0.023849521831454844 0.07213562136892013 0.014964183266558965 0.07790989878489339 0.6950802360062069 0.44011455200715255 0.866186491392881 
Task37 0.0037717330836152434 0.32400580230395554 0.3157752767996769 0.28027771120076234 0.6000335762749427 0.5581708809872865 0.8703348537485907 
Task38 0.004561301669346027 0.006414242941339692 0.009034391061422202 0.005330388890524216 0.972575883070502 0.8445426620938139 0.6223105777859055 
Task39 0.0017742155436805947 0.021111599440846267 0.014175499424977799 0.00955899771666058 0.42953072405983717 0.8134896262242197 0.701225777579762 
Task40 0.05360015761137598 0.2598987945155777 0.26239960835373677 0.1195151912973637 0.6443446629824369 0.639991741700871 0.5096089017231986 
Task41 0.051083704147465124 0.5064796380759117 0.08447876171646186 0.1238037223748257 0.7480640271960289 0.4351409742158513 0.5257822951159562 
Task42 0.08927351456294784 0.09249679239787852 0.16342494519738432 0.10859174828325967 0.44731347327816007 0.7440164854559166 0.6460974839720295 
Task43 0.05453340373894911 0.1442084829429441 0.16016223285212522 0.2911922212390623 0.7920862584954969 0.5075861270736941 0.7565949411579285 
Task44 0.08528329365118514 0.31193483175337244 0.03073123669224599 0.2677677470919621 0.9231750007766353 0.8938215884910454 0.4997513363493923 
Task45 0.00261708183878943 0.0848998604278655 0.10893786565220158 0.0869190788445474 0.3821539483120516 0.318550058225365 0.9218196145610351 
Task46 0.062342886456603394 0.15279833027939696 0.20491589692450224 0.13683994063268246 0.6872800142865767 0.3269573493208675 0.4277089802331694 
Task47 0.12412215780831727 0.05160730376678493 0.05869272654690477 0.476962314752672 0.903798737754163 0.4748441863024107 0.7824699350739098 
Task48 0.14619218754935648 0.2977813017226337 0.31582265273524096 0.20334918148984116 0.38767261903208783 0.48727614709410916 0.5055872240456176 
Task49 0.0025161745743046086 0.014089123025092302 0.030294456745402806 0.002731803511742448 0.5067239890999451 0.9985275576873709 0.47461933531679934 
Task50 0.044106574365126945 0.14476847387298059 0.13106801838688026 0.10280026699103803 0.9441116455676339 0.44256643053502376 0.550943101328131 
Task51 0.009747986649959649 0.13147331309530294 0.05206914859278047 0.2562276657884917 0.39863850038005516 0.5504783248352759 0.6712750605923521 
Task52 0.011939989200370737 0.08743853678754981 0.0026091457988328608 0.06367034966858973 0.6282551965946133 0.321600990850227 0.5172576073292923 
Task53 0.022617259122743632 0.04977343531807601 0.05151736114137594 0.02595756833598245 0.6361482430867607 0.42406751207818993 0.687520132294043 
Task54 0.027154149182860233 0.19062613931858946 0.11179270033189438 0.5831308049711407 0.9596724935969936 0.5936007115340176 0.8856441080045734 
Task55 0.0009352563427889619 0.31048674372407387 0.3337494473716382 0.35319603938051697 0.9259076452016501 0.41570897229876214 0.3646135914373096 
Task56 0.042774809227649875 0.01336759340416284 0.17833288623705235 0.07353464850209822 0.45397151626919674 0.35086743931909253 0.9901234572043529 
Task57 0.00954384162871786 0.02121600794531643 0.02229739962358373 0.023461809075680067 0.4390555684915797 0.5747230686990509 0.5122312286778485 
Task58 0.020709479580610292 0.014312814080304954 0.13432335582769922 0.10866622978105439 0.34958895317487393 0.3204452249247985 0.7381329547188296 
Task59 0.027106259252300587 0.017260874820322257 0.19384114331725572 0.23234088361044705 0.8648121289340664 0.9021933367837709 0.5370537720660785 
Task60 0.008049215150075548 0.029743155124480704 0.0005427427980277077 0.024581575116590103 0.6458446778292646 0.5627977181982615 0.7960560805463647 
Task61 0.1074357000574085 0.3233994758577781 0.16036729269889757 0.09533792911259743 0.3954853683268712 0.5724299277337325 0.6834411969697873 
Task62 0.015921640649463692 0.6149602745709674 0.0861561885093074 0.2557242165419711 0.6326497795100907 0.5917742802947101 0.9554931800197 
Task63 0.09264809605423442 0.30293367832778817 0.22215035132726688 0.3618202788117817 0.6452454664211772 0.5498552934015892 0.6211961709229343 
Task64 0.13126457426387403 0.23945287402986015 0.10686375996358063 0.2090693205883333 0.9157401592944059 0.7190117508463567 0.4330721873066816 
Task65 0.007947764069661079 0.034311312423206605 0.0008753328574477415 0.0260423308344957 0.5522778375141442 0.5032373063745456 0.35643906460629615 
Task66 0.04816745319882999 0.06557240693795735 0.3499575385375346 0.28625986388769403 0.6836107920288012 0.3814161132363929 0.4023570216131994 
Task67 0.03913109919329123 0.08768785877580518 0.06980071695290427 0.10330568605830961 0.5085961554809685 0.9604695403231172 0.4178272519026254 
Task68 0.07616538852371606 0.1021480301257186 0.02382398435773496 0.25651758097222643 0.31678526611687247 0.6694067786095022 0.4808415908125905 
Task69 0.03186844720017493 0.04000855897384325 0.49540850790042035 0.34676184516591857 0.5601756934728493 0.6177349015599767 0.9065039129032288 
Task70 0.0949529284802547 0.2129261057368777 0.1863512685110945 0.27051980172059836 0.7088286256203824 0.8974237728062289 0.7992622353283376 
Task71 0.006187381587135419 0.06393755412691092 0.05032464521517778 0.024449097170958767 0.8207704376797933 0.523955076021895 0.9399062829618672 
Task72 0.017105915532643165 0.043954611768795795 0.030028250762574024 0.0215723604037091 0.7651662083553996 0.38068065013302466 0.4879154403190364 
Task73 0.002618293849298131 0.04895311044577111 0.007834847607337292 0.05057507339499282 0.7989500017070409 0.8603815450647545 0.7676909897544946 
Task74 0.10830158494308405 0.24056518903219049 0.1981220578059193 0.40981639673451015 0.5489490927608303 0.5902528343133882 0.7429646877353231 
Task75 0.043463748854947394 0.19646398607949914 0.47279334752626173 0.09201764501599607 0.3262982320962912 0.9573279562257051 0.3973686480978737 
Task76 0.020980361686104742 0.010640282496369086 0.04874404477283785 0.05793957914191961 0.9295005106098913 0.5592279034618 0.6207850488392612 
Task77 0.04611351994078198 0.08924369086520244 0.48673471526747686 0.023377520122082107 0.6862269229881792 0.435081296958137 0.47271859343943745 
Task78 0.048923709013327515 0.21091521593209497 0.226261747121648 0.11959540897264824 0.7347379118558259 0.921889207274726 0.5336149278088392 
Task79 0.11158666770960676 0.15240610250626935 0.21631135284442476 0.16845974340355138 0.9041606145102121 0.5509562850020875 0.5819336824417287 
Task80 0.05417216831474937 0.0318085889844249 0.23802062722834486 0.1296837853133133 0.9899459505026167 0.8850735944542132 0.30562516429630215 
Task81 0.0006368465607143743 0.21988073376651093 0.03289884178919672 0.24384609740083027 0.32105663736580736 0.38471781305421837 0.9363039825792951 
Task82 0.02377566806275437 0.030406448434238082 0.11622350775726581 0.027082220225570407 0.310529121437495 0.3724360699505071 0.5528350165158322 
Task83 0.17219895056401416 0.27460672756868043 0.3848412743166106 0.08646185047777526 0.4571234642579757 0.7401525711376987 0.4667084222113772 
Task84 0.11811855557303015 0.24369276857534622 0.15473089233272896 0.07841151373627152 0.8941244481684898 0.9618274050738727 0.7044989931737011 
Task85 0.03924371994640795 0.05631320865789227 0.0719123694516803 0.06332536781283228 0.6036475633847709 0.9508858264326303 0.3108144159269373 
Task86 0.040005431198959 0.31482380144880784 0.0845311183988379 0.14507827204393905 0.6655248408335466 0.7220111988043 0.4584915170430501 
Task87 0.032079992265919385 0.3507614400017341 0.3146169236182142 0.15195217385475407 0.613184465966101 0.7398362741989224 0.5556173755091731 
Task88 0.13061629302607447 0.2833852476588374 0.18628382556281636 0.18525515468307352 0.36529985985760416 0.7290165552162464 0.8416828337701987 
Task89 0.07296564847708098 0.28426872008275395 0.14058957061005817 0.2248094324174236 0.35047838714868085 0.5100943434579929 0.4467663447237423 
Task90 0.11388006736902653 0.4202199604682076 0.10342382605599801 0.2911785866503163 0.6088622529094346 0.7055421573733067 0.4427015795512954 
Task91 0.034451627829926265 0.2259268780042817 0.3239531166650652 0.15036455981165306 0.6725055485809435 0.3990574763444907 0.9221447136186991 
Task92 0.0904585467028217 0.29214699035513253 0.10832805723541555 0.05282876668233062 0.750482498524387 0.5043437345934167 0.9034301123160129 
Task93 0.12757971912174298 0.2060474128509531 0.2517859956008256 0.06158279947248471 0.7798334517704271 0.5859999415897845 0.7431087681551367 
Task94 0.0006115341110068473 0.017910891763887066 0.0005130349064821765 0.028227905756448724 0.41259870964742085 0.5471367529186296 0.9883253197992978 
Task95 0.07126673794320597 0.12059521195693104 0.03230660554146293 0.2130567825747617 0.8835935756428113 0.5805549729010635 0.5438805515640308 
Task96 0.034476920232662335 0.16136228846597792 0.16464814553505594 0.1671602384026455 0.5341287107378745 0.48077754775260395 0.37905834532169036 
Task97 0.0152436079473419 0.10623152505240742 0.10834135296274465 0.03033428225838104 0.9042556948034826 0.6242453290636389 0.6875772145039385 
Task98 0.06845814430853453 0.3356366048175507 0.08615388027807902 0.09028736738562425 0.8234461661961527 0.6083684986870694 0.8779262125535567 
Task99 0.07392489869327258 0.024236821356737513 0.20430996624449738 0.5566930565003583 0.6192704837865906 0.5307572969727988 0.4228545878747741 
