files/tasks_parameters/ExAp01/sample8.txt 0.795046 3.15778 1.5595 0.203411 5.11576
files/tasks_parameters/ExAp01/sample12.txt 0.793707 3.94962 1.6705 0.207924 5.22925
files/tasks_parameters/ExAp01/sample2.txt 0.813067 3.78275 1.74131 0.200098 5.03243
files/tasks_parameters/ExAp01/sample44.txt 0.686261 3.59825 1.65317 0.200005 5.0301
files/tasks_parameters/ExAp01/sample27.txt 0.732508 3.45743 1.5148 0.182129 4.5805
files/tasks_parameters/ExAp01/sample17.txt 0.614792 2.77299 1.44514 0.14646 3.68344
files/tasks_parameters/ExAp01/sample9.txt 0.713469 2.99933 1.451 0.177444 4.46268
files/tasks_parameters/ExAp01/sample34.txt 0.652335 3.02928 1.58429 0.157984 3.97327
files/tasks_parameters/ExAp01/sample40.txt 0.712808 3.86889 1.52122 0.168379 4.23472
files/tasks_parameters/ExAp01/sample33.txt 0.789509 3.63695 1.71905 0.199765 5.02406
files/tasks_parameters/ExAp01/sample48.txt 0.678528 3.39061 1.49062 0.154728 3.89139
files/tasks_parameters/ExAp01/sample29.txt 0.795626 3.30472 1.38739 0.223868 5.63025
files/tasks_parameters/ExAp01/sample11.txt 0.697089 3.10585 1.41612 0.174079 4.37805
files/tasks_parameters/ExAp01/sample14.txt 0.69183 2.70971 1.43432 0.162214 4.07967
files/tasks_parameters/ExAp01/sample0.txt 0.709164 3.6937 1.5439 0.18367 4.61927
files/tasks_parameters/ExAp01/sample7.txt 0.601308 2.70501 1.42221 0.143463 3.60808
files/tasks_parameters/ExAp01/sample23.txt 0.706516 3.2697 1.57822 0.181448 4.5634
files/tasks_parameters/ExAp01/sample13.txt 0.73129 3.84225 1.67648 0.198247 4.98588
files/tasks_parameters/ExAp01/sample22.txt 0.59934 3.09569 1.56121 0.148796 3.7422
files/tasks_parameters/ExAp01/sample25.txt 0.59314 2.73966 1.5007 0.148149 3.72592
files/tasks_parameters/ExAp01/sample36.txt 0.521449 2.85948 1.28553 0.130042 3.27054
files/tasks_parameters/ExAp01/sample46.txt 0.790653 3.58643 1.69998 0.210103 5.28405
files/tasks_parameters/ExAp01/sample31.txt 0.705073 3.4832 1.53782 0.1722 4.3308
files/tasks_parameters/ExAp01/sample37.txt 0.698717 3.95293 1.50705 0.171701 4.31826
files/tasks_parameters/ExAp01/sample16.txt 0.612687 3.31216 1.30115 0.150249 3.77874
files/tasks_parameters/ExAp01/sample10.txt 0.687178 3.17098 1.61789 0.153776 3.86745
files/tasks_parameters/ExAp01/sample39.txt 0.718056 3.26617 1.44406 0.165669 4.16654
files/tasks_parameters/ExAp01/sample19.txt 0.741512 3.63532 1.52509 0.196094 4.93175
files/tasks_parameters/ExAp01/sample20.txt 0.591946 3.20793 1.25367 0.147335 3.70546
files/tasks_parameters/ExAp01/sample43.txt 0.594251 3.11551 1.4202 0.150644 3.78869
files/tasks_parameters/ExAp01/sample32.txt 0.673724 3.5311 1.42482 0.168744 4.24389
files/tasks_parameters/ExAp01/sample45.txt 0.763562 3.80283 1.48324 0.19807 4.98144
files/tasks_parameters/ExAp01/sample26.txt 0.621669 3.21645 1.29701 0.166061 4.17641
files/tasks_parameters/ExAp01/sample5.txt 0.671817 3.5889 1.52559 0.178903 4.49939
files/tasks_parameters/ExAp01/sample21.txt 0.718754 2.75242 1.55936 0.19512 4.90725
files/tasks_parameters/ExAp01/sample38.txt 0.662078 3.31563 1.37515 0.166157 4.17882
files/tasks_parameters/ExAp01/sample1.txt 0.701589 3.74964 1.51696 0.19701 4.95476
files/tasks_parameters/ExAp01/sample15.txt 0.681871 3.32916 1.48508 0.180707 4.54477
files/tasks_parameters/ExAp01/sample24.txt 0.710098 3.45951 1.59549 0.16529 4.15703
files/tasks_parameters/ExAp01/sample3.txt 0.934896 3.70014 1.70809 0.237107 5.96321
files/tasks_parameters/ExAp01/sample6.txt 0.709265 3.33003 1.58323 0.184714 4.64554
files/tasks_parameters/ExAp01/sample30.txt 0.934441 4.1841 1.4861 0.239623 6.02648
files/tasks_parameters/ExAp01/sample42.txt 0.721953 3.43221 1.70276 0.177383 4.46115
files/tasks_parameters/ExAp01/sample4.txt 0.792898 3.72477 1.6136 0.196448 4.94064
files/tasks_parameters/ExAp01/sample28.txt 0.623096 3.11323 1.45032 0.158819 3.99427
files/tasks_parameters/ExAp01/sample18.txt 0.614192 3.47418 1.45209 0.149064 3.74893
files/tasks_parameters/ExAp01/sample35.txt 0.743778 4.57086 1.49394 0.185031 4.65349
files/tasks_parameters/ExAp01/sample47.txt 0.64424 3.13768 1.52397 0.16417 4.12885
files/tasks_parameters/ExAp01/sample49.txt 0.617619 3.13288 1.49657 0.156154 3.92725
files/tasks_parameters/ExAp01/sample41.txt 0.624418 2.81964 1.49636 0.150876 3.79451
