files/tasks_parameters/ExAp01/sample8.txt 2.07889 6.77015 2.19458 0.288816 5.0343
files/tasks_parameters/ExAp01/sample12.txt 2.40032 9.58351 2.46081 0.337498 5.88287
files/tasks_parameters/ExAp01/sample2.txt 2.28944 8.44418 2.50701 0.319127 5.56264
files/tasks_parameters/ExAp01/sample44.txt 2.03133 6.96299 2.23089 0.28229 4.92055
files/tasks_parameters/ExAp01/sample27.txt 2.01759 7.74306 2.16676 0.28602 4.98555
files/tasks_parameters/ExAp01/sample17.txt 2.06826 7.35053 2.25579 0.292348 5.09585
files/tasks_parameters/ExAp01/sample9.txt 2.04142 6.89392 2.21068 0.282399 4.92244
files/tasks_parameters/ExAp01/sample34.txt 2.08943 6.62788 2.3772 0.297742 5.18987
files/tasks_parameters/ExAp01/sample40.txt 2.05757 7.75686 2.17534 0.285619 4.97857
files/tasks_parameters/ExAp01/sample33.txt 2.43443 8.14826 2.6463 0.338073 5.89288
files/tasks_parameters/ExAp01/sample48.txt 1.93196 7.64107 2.14272 0.270011 4.70651
files/tasks_parameters/ExAp01/sample29.txt 1.95709 7.139 1.93769 0.286306 4.99054
files/tasks_parameters/ExAp01/sample11.txt 2.00539 6.88688 2.12981 0.280008 4.88077
files/tasks_parameters/ExAp01/sample14.txt 1.75193 6.11983 1.97599 0.247458 4.31338
files/tasks_parameters/ExAp01/sample0.txt 2.0711 8.2738 2.14256 0.289132 5.0398
files/tasks_parameters/ExAp01/sample7.txt 1.95416 6.87011 2.05821 0.269886 4.70432
files/tasks_parameters/ExAp01/sample23.txt 2.08652 6.52032 2.38087 0.291712 5.08476
files/tasks_parameters/ExAp01/sample13.txt 2.12987 8.73247 2.33415 0.295393 5.14893
files/tasks_parameters/ExAp01/sample22.txt 2.02976 6.9777 2.28948 0.283979 4.94998
files/tasks_parameters/ExAp01/sample25.txt 1.9255 6.23444 2.2122 0.267298 4.65921
files/tasks_parameters/ExAp01/sample36.txt 1.80187 6.6174 1.9458 0.253823 4.42433
files/tasks_parameters/ExAp01/sample46.txt 2.33615 7.42369 2.49128 0.327273 5.70463
files/tasks_parameters/ExAp01/sample31.txt 1.82995 7.22028 2.13584 0.25377 4.42341
files/tasks_parameters/ExAp01/sample37.txt 2.13196 8.90704 2.16981 0.295708 5.15443
files/tasks_parameters/ExAp01/sample16.txt 1.7944 8.18243 1.88294 0.24945 4.34811
files/tasks_parameters/ExAp01/sample10.txt 2.03447 6.96646 2.31217 0.285748 4.98081
files/tasks_parameters/ExAp01/sample39.txt 1.79526 6.4161 1.97266 0.251967 4.39198
files/tasks_parameters/ExAp01/sample19.txt 2.23639 8.16711 2.23199 0.308463 5.37675
files/tasks_parameters/ExAp01/sample20.txt 1.90025 7.28549 1.88944 0.25994 4.53096
files/tasks_parameters/ExAp01/sample43.txt 1.82018 6.86804 2.00142 0.25616 4.46508
files/tasks_parameters/ExAp01/sample32.txt 2.01075 8.15663 2.12995 0.281726 4.91072
files/tasks_parameters/ExAp01/sample45.txt 1.95503 7.75184 2.10599 0.274935 4.79233
files/tasks_parameters/ExAp01/sample26.txt 1.89818 7.4944 1.88956 0.267248 4.65834
files/tasks_parameters/ExAp01/sample5.txt 2.01787 8.08362 2.09961 0.28454 4.95976
files/tasks_parameters/ExAp01/sample21.txt 1.87075 6.11814 2.17119 0.26143 4.55693
files/tasks_parameters/ExAp01/sample38.txt 1.88497 7.761 1.96293 0.263659 4.59578
files/tasks_parameters/ExAp01/sample1.txt 2.07743 7.83752 2.13261 0.289228 5.04148
files/tasks_parameters/ExAp01/sample15.txt 2.06637 7.37971 2.12057 0.285825 4.98216
files/tasks_parameters/ExAp01/sample24.txt 2.12223 8.28531 2.25272 0.296628 5.17047
files/tasks_parameters/ExAp01/sample3.txt 2.18251 7.33359 2.39135 0.305084 5.31786
files/tasks_parameters/ExAp01/sample6.txt 2.00737 7.09894 2.24425 0.281804 4.91207
files/tasks_parameters/ExAp01/sample30.txt 2.11785 8.17669 2.03701 0.299204 5.21537
files/tasks_parameters/ExAp01/sample42.txt 2.14868 7.70416 2.42413 0.29743 5.18444
files/tasks_parameters/ExAp01/sample4.txt 2.22047 7.41691 2.36261 0.307803 5.36525
files/tasks_parameters/ExAp01/sample28.txt 1.90003 7.0562 2.07657 0.266428 4.64405
files/tasks_parameters/ExAp01/sample18.txt 1.92713 7.60139 2.1377 0.268016 4.67173
files/tasks_parameters/ExAp01/sample35.txt 2.27413 9.66795 2.28028 0.32244 5.62038
files/tasks_parameters/ExAp01/sample47.txt 1.81837 6.84842 2.12104 0.251655 4.38654
files/tasks_parameters/ExAp01/sample49.txt 1.82851 7.1497 2.11412 0.255889 4.46035
files/tasks_parameters/ExAp01/sample41.txt 1.91505 6.59911 2.07359 0.265885 4.63459
