files/tasks_parameters/ExAp01/sample8.txt 1.08914 3.76817 4.3855 0.450105 27.0929
files/tasks_parameters/ExAp01/sample12.txt 1.53149 5.03638 5.18776 0.610564 36.7513
files/tasks_parameters/ExAp01/sample2.txt 1.46512 4.58991 5.64606 0.613877 36.9507
files/tasks_parameters/ExAp01/sample44.txt 1.29722 3.77401 5.66946 0.551838 33.2164
files/tasks_parameters/ExAp01/sample27.txt 1.3061 4.13937 5.56136 0.55779 33.5746
files/tasks_parameters/ExAp01/sample17.txt 1.20337 3.76163 5.38341 0.520991 31.3597
files/tasks_parameters/ExAp01/sample9.txt 1.21642 3.69889 5.2981 0.511699 30.8004
files/tasks_parameters/ExAp01/sample34.txt 1.13513 3.52435 5.83741 0.49187 29.6068
files/tasks_parameters/ExAp01/sample40.txt 1.16886 4.06185 5.0335 0.496884 29.9086
files/tasks_parameters/ExAp01/sample33.txt 1.55311 4.82091 5.83886 0.651963 39.2431
files/tasks_parameters/ExAp01/sample48.txt 1.08806 4.01134 5.07085 0.447927 26.9618
files/tasks_parameters/ExAp01/sample29.txt 1.5507 4.20847 5.0406 0.643694 38.7454
files/tasks_parameters/ExAp01/sample11.txt 1.34698 3.94699 5.29198 0.557276 33.5437
files/tasks_parameters/ExAp01/sample14.txt 1.08636 3.54059 4.58345 0.466713 28.0926
files/tasks_parameters/ExAp01/sample0.txt 1.55839 4.82755 4.90216 0.623551 37.5329
files/tasks_parameters/ExAp01/sample7.txt 1.17664 3.60766 5.11185 0.509566 30.6719
files/tasks_parameters/ExAp01/sample23.txt 1.45386 3.81403 5.45799 0.582911 35.0868
files/tasks_parameters/ExAp01/sample13.txt 1.4773 4.8894 5.26818 0.624499 37.59
files/tasks_parameters/ExAp01/sample22.txt 1.29087 3.76156 4.95746 0.534216 32.1557
files/tasks_parameters/ExAp01/sample25.txt 0.976459 2.94144 4.92622 0.403639 24.296
files/tasks_parameters/ExAp01/sample36.txt 1.2054 3.56164 4.5806 0.501799 30.2044
files/tasks_parameters/ExAp01/sample46.txt 1.30276 3.84833 4.7121 0.530701 31.9441
files/tasks_parameters/ExAp01/sample31.txt 1.13527 3.764 5.08385 0.479734 28.8763
files/tasks_parameters/ExAp01/sample37.txt 1.52605 4.43254 5.65111 0.65143 39.2111
files/tasks_parameters/ExAp01/sample16.txt 1.30838 4.49741 4.8895 0.509171 30.6482
files/tasks_parameters/ExAp01/sample10.txt 1.37558 3.87086 6.07511 0.60993 36.7131
files/tasks_parameters/ExAp01/sample39.txt 1.08798 3.66299 4.54281 0.463671 27.9094
files/tasks_parameters/ExAp01/sample19.txt 1.52391 3.86694 5.14047 0.615987 37.0777
files/tasks_parameters/ExAp01/sample20.txt 1.38674 4.09945 5.13368 0.580369 34.9337
files/tasks_parameters/ExAp01/sample43.txt 1.15494 3.75825 5.55698 0.530892 31.9556
files/tasks_parameters/ExAp01/sample32.txt 1.5148 4.0352 5.29178 0.587643 35.3716
files/tasks_parameters/ExAp01/sample45.txt 1.24045 3.94578 4.87833 0.541081 32.5689
files/tasks_parameters/ExAp01/sample26.txt 1.11247 3.50998 4.55035 0.474009 28.5317
files/tasks_parameters/ExAp01/sample5.txt 1.40014 4.00994 5.27725 0.587681 35.3738
files/tasks_parameters/ExAp01/sample21.txt 0.936582 2.8974 4.54677 0.430037 25.8849
files/tasks_parameters/ExAp01/sample38.txt 1.16724 3.56689 4.78573 0.492366 29.6367
files/tasks_parameters/ExAp01/sample1.txt 1.16236 3.69002 4.55048 0.481074 28.9569
files/tasks_parameters/ExAp01/sample15.txt 1.20629 3.73223 5.42493 0.524964 31.5988
files/tasks_parameters/ExAp01/sample24.txt 1.356 4.18053 5.40377 0.542575 32.6589
files/tasks_parameters/ExAp01/sample3.txt 1.15291 3.70547 4.7118 0.470503 28.3207
files/tasks_parameters/ExAp01/sample6.txt 1.45704 4.07521 5.71419 0.626702 37.7227
files/tasks_parameters/ExAp01/sample30.txt 1.49318 3.97446 5.82388 0.626709 37.7231
files/tasks_parameters/ExAp01/sample42.txt 1.28874 4.44207 5.58473 0.537025 32.3248
files/tasks_parameters/ExAp01/sample4.txt 1.28837 3.92181 4.49751 0.556974 33.5256
files/tasks_parameters/ExAp01/sample28.txt 1.0647 3.13496 4.88321 0.444588 26.7608
files/tasks_parameters/ExAp01/sample18.txt 1.2855 3.95301 4.52898 0.537438 32.3496
files/tasks_parameters/ExAp01/sample35.txt 2.03507 5.75923 6.25034 0.752488 45.294
files/tasks_parameters/ExAp01/sample47.txt 1.15711 3.44018 5.14289 0.540033 32.5059
files/tasks_parameters/ExAp01/sample49.txt 1.16083 3.38981 4.72409 0.493041 29.6773
files/tasks_parameters/ExAp01/sample41.txt 1.16119 3.58692 5.27252 0.492391 29.6381
