files/tasks_parameters/ExAp01/sample8.txt 0.793445 3.15778 1.5595 0.203411 6.7042
files/tasks_parameters/ExAp01/sample12.txt 0.790996 3.94962 1.6705 0.207924 6.85293
files/tasks_parameters/ExAp01/sample2.txt 0.704674 3.78275 1.74131 0.200098 6.59499
files/tasks_parameters/ExAp01/sample44.txt 0.67968 3.59825 1.65317 0.200005 6.59194
files/tasks_parameters/ExAp01/sample27.txt 0.704454 3.45743 1.5148 0.182129 6.00275
files/tasks_parameters/ExAp01/sample17.txt 0.560894 2.77299 1.44514 0.14646 4.82715
files/tasks_parameters/ExAp01/sample9.txt 0.629021 2.99933 1.451 0.177444 5.84834
files/tasks_parameters/ExAp01/sample34.txt 0.590096 3.02928 1.58429 0.157984 5.20696
files/tasks_parameters/ExAp01/sample40.txt 0.608477 3.86889 1.52122 0.168379 5.54959
files/tasks_parameters/ExAp01/sample33.txt 0.803252 3.63695 1.71905 0.199765 6.58403
files/tasks_parameters/ExAp01/sample48.txt 0.596086 3.39061 1.49062 0.154728 5.09967
files/tasks_parameters/ExAp01/sample29.txt 0.719595 3.30472 1.38739 0.223868 7.37844
files/tasks_parameters/ExAp01/sample11.txt 0.644478 3.10585 1.41612 0.174079 5.73743
files/tasks_parameters/ExAp01/sample14.txt 0.56777 2.70971 1.43432 0.162214 5.3464
files/tasks_parameters/ExAp01/sample0.txt 0.664598 3.6937 1.5439 0.18367 6.05355
files/tasks_parameters/ExAp01/sample7.txt 0.566053 2.70501 1.42221 0.143463 4.72839
files/tasks_parameters/ExAp01/sample23.txt 0.656339 3.2697 1.57822 0.181448 5.98034
files/tasks_parameters/ExAp01/sample13.txt 0.685258 3.84225 1.67648 0.198247 6.534
files/tasks_parameters/ExAp01/sample22.txt 0.568516 3.09569 1.56121 0.148796 4.90415
files/tasks_parameters/ExAp01/sample25.txt 0.502428 2.73966 1.5007 0.148149 4.88281
files/tasks_parameters/ExAp01/sample36.txt 0.465534 2.85948 1.28553 0.130042 4.28605
files/tasks_parameters/ExAp01/sample46.txt 0.724648 3.58643 1.69998 0.210103 6.92475
files/tasks_parameters/ExAp01/sample31.txt 0.574437 3.4832 1.53782 0.1722 5.67551
files/tasks_parameters/ExAp01/sample37.txt 0.643906 3.95293 1.50705 0.171701 5.65907
files/tasks_parameters/ExAp01/sample16.txt 0.591594 3.31216 1.30115 0.150249 4.95204
files/tasks_parameters/ExAp01/sample10.txt 0.626752 3.17098 1.61789 0.153776 5.06829
files/tasks_parameters/ExAp01/sample39.txt 0.621458 3.26617 1.44406 0.165669 5.46025
files/tasks_parameters/ExAp01/sample19.txt 0.727036 3.63532 1.52509 0.196094 6.46305
files/tasks_parameters/ExAp01/sample20.txt 0.510749 3.20793 1.25367 0.147335 4.85601
files/tasks_parameters/ExAp01/sample43.txt 0.585746 3.11551 1.4202 0.150644 4.96507
files/tasks_parameters/ExAp01/sample32.txt 0.62008 3.5311 1.42482 0.168744 5.56162
files/tasks_parameters/ExAp01/sample45.txt 0.708414 3.80283 1.48324 0.19807 6.52818
files/tasks_parameters/ExAp01/sample26.txt 0.590065 3.21645 1.29701 0.166061 5.47319
files/tasks_parameters/ExAp01/sample5.txt 0.653001 3.5889 1.52559 0.178903 5.89645
files/tasks_parameters/ExAp01/sample21.txt 0.656359 2.75242 1.55936 0.19512 6.43094
files/tasks_parameters/ExAp01/sample38.txt 0.590066 3.31563 1.37515 0.166157 5.47634
files/tasks_parameters/ExAp01/sample1.txt 0.724976 3.74964 1.51696 0.19701 6.49321
files/tasks_parameters/ExAp01/sample15.txt 0.619036 3.32916 1.48508 0.180707 5.95591
files/tasks_parameters/ExAp01/sample24.txt 0.623435 3.45951 1.59549 0.16529 5.44778
files/tasks_parameters/ExAp01/sample3.txt 0.879543 3.70014 1.70809 0.237107 7.81478
files/tasks_parameters/ExAp01/sample6.txt 0.627479 3.33003 1.58323 0.184714 6.08798
files/tasks_parameters/ExAp01/sample30.txt 0.813927 4.1841 1.4861 0.239623 7.8977
files/tasks_parameters/ExAp01/sample42.txt 0.696622 3.43221 1.70276 0.177383 5.84634
files/tasks_parameters/ExAp01/sample4.txt 0.74408 3.72477 1.6136 0.196448 6.47471
files/tasks_parameters/ExAp01/sample28.txt 0.578005 3.11323 1.45032 0.158819 5.2345
files/tasks_parameters/ExAp01/sample18.txt 0.570682 3.47418 1.45209 0.149064 4.91297
files/tasks_parameters/ExAp01/sample35.txt 0.645634 4.57086 1.49394 0.185031 6.0984
files/tasks_parameters/ExAp01/sample47.txt 0.62853 3.13768 1.52397 0.16417 5.41086
files/tasks_parameters/ExAp01/sample49.txt 0.582538 3.13288 1.49657 0.156154 5.14666
files/tasks_parameters/ExAp01/sample41.txt 0.556413 2.81964 1.49636 0.150876 4.9727
