files/tasks_parameters/ExAp01/sample8.txt 0.985045 3.76817 4.3855 0.450105 9.57131
files/tasks_parameters/ExAp01/sample12.txt 1.36454 5.03638 5.18776 0.610564 12.9834
files/tasks_parameters/ExAp01/sample2.txt 1.33727 4.58991 5.64606 0.613877 13.0538
files/tasks_parameters/ExAp01/sample44.txt 1.19004 3.77401 5.66946 0.551838 11.7346
files/tasks_parameters/ExAp01/sample27.txt 1.22433 4.13937 5.56136 0.55779 11.8612
files/tasks_parameters/ExAp01/sample17.txt 1.13736 3.76163 5.38341 0.520991 11.0787
files/tasks_parameters/ExAp01/sample9.txt 1.11739 3.69889 5.2981 0.511699 10.8811
files/tasks_parameters/ExAp01/sample34.txt 1.09054 3.52435 5.83741 0.49187 10.4594
files/tasks_parameters/ExAp01/sample40.txt 1.09675 4.06185 5.0335 0.496884 10.566
files/tasks_parameters/ExAp01/sample33.txt 1.40945 4.82091 5.83886 0.651963 13.8637
files/tasks_parameters/ExAp01/sample48.txt 0.985807 4.01134 5.07085 0.447927 9.52499
files/tasks_parameters/ExAp01/sample29.txt 1.38479 4.20847 5.0406 0.643694 13.6879
files/tasks_parameters/ExAp01/sample11.txt 1.21736 3.94699 5.29198 0.557276 11.8502
files/tasks_parameters/ExAp01/sample14.txt 1.05277 3.54059 4.58345 0.466713 9.92447
files/tasks_parameters/ExAp01/sample0.txt 1.37516 4.82755 4.90216 0.623551 13.2596
files/tasks_parameters/ExAp01/sample7.txt 1.11738 3.60766 5.11185 0.509566 10.8357
files/tasks_parameters/ExAp01/sample23.txt 1.26572 3.81403 5.45799 0.582911 12.3954
files/tasks_parameters/ExAp01/sample13.txt 1.37093 4.8894 5.26818 0.624499 13.2797
files/tasks_parameters/ExAp01/sample22.txt 1.17746 3.76156 4.95746 0.534216 11.3599
files/tasks_parameters/ExAp01/sample25.txt 0.8805 2.94144 4.92622 0.403639 8.58323
files/tasks_parameters/ExAp01/sample36.txt 1.09348 3.56164 4.5806 0.501799 10.6705
files/tasks_parameters/ExAp01/sample46.txt 1.15741 3.84833 4.7121 0.530701 11.2851
files/tasks_parameters/ExAp01/sample31.txt 1.07024 3.764 5.08385 0.479734 10.2013
files/tasks_parameters/ExAp01/sample37.txt 1.41786 4.43254 5.65111 0.65143 13.8524
files/tasks_parameters/ExAp01/sample16.txt 1.14282 4.49741 4.8895 0.509171 10.8273
files/tasks_parameters/ExAp01/sample10.txt 1.3477 3.87086 6.07511 0.60993 12.9699
files/tasks_parameters/ExAp01/sample39.txt 1.03301 3.66299 4.54281 0.463671 9.85978
files/tasks_parameters/ExAp01/sample19.txt 1.34504 3.86694 5.14047 0.615987 13.0987
files/tasks_parameters/ExAp01/sample20.txt 1.26355 4.09945 5.13368 0.580369 12.3413
files/tasks_parameters/ExAp01/sample43.txt 1.1671 3.75825 5.55698 0.530892 11.2892
files/tasks_parameters/ExAp01/sample32.txt 1.29497 4.0352 5.29178 0.587643 12.496
files/tasks_parameters/ExAp01/sample45.txt 1.18267 3.94578 4.87833 0.541081 11.5059
files/tasks_parameters/ExAp01/sample26.txt 1.04298 3.50998 4.55035 0.474009 10.0796
files/tasks_parameters/ExAp01/sample5.txt 1.27604 4.00994 5.27725 0.587681 12.4968
files/tasks_parameters/ExAp01/sample21.txt 0.971852 2.8974 4.54677 0.430037 9.14457
files/tasks_parameters/ExAp01/sample38.txt 1.08068 3.56689 4.78573 0.492366 10.47
files/tasks_parameters/ExAp01/sample1.txt 1.07537 3.69002 4.55048 0.481074 10.2298
files/tasks_parameters/ExAp01/sample15.txt 1.1587 3.73223 5.42493 0.524964 11.1632
files/tasks_parameters/ExAp01/sample24.txt 1.18683 4.18053 5.40377 0.542575 11.5376
files/tasks_parameters/ExAp01/sample3.txt 1.02808 3.70547 4.7118 0.470503 10.0051
files/tasks_parameters/ExAp01/sample6.txt 1.35179 4.07521 5.71419 0.626702 13.3266
files/tasks_parameters/ExAp01/sample30.txt 1.36854 3.97446 5.82388 0.626709 13.3267
files/tasks_parameters/ExAp01/sample42.txt 1.19253 4.44207 5.58473 0.537025 11.4196
files/tasks_parameters/ExAp01/sample4.txt 1.23068 3.92181 4.49751 0.556974 11.8438
files/tasks_parameters/ExAp01/sample28.txt 0.963113 3.13496 4.88321 0.444588 9.45399
files/tasks_parameters/ExAp01/sample18.txt 1.18351 3.95301 4.52898 0.537438 11.4284
files/tasks_parameters/ExAp01/sample35.txt 1.64904 5.75923 6.25034 0.752488 16.0013
files/tasks_parameters/ExAp01/sample47.txt 1.17844 3.44018 5.14289 0.540033 11.4836
files/tasks_parameters/ExAp01/sample49.txt 1.10839 3.38981 4.72409 0.493041 10.4843
files/tasks_parameters/ExAp01/sample41.txt 1.06525 3.58692 5.27252 0.492391 10.4705
