files/tasks_parameters/ExAp01/sample8.txt 3.60785 6.77015 2.19458 0.288816 6.14156
files/tasks_parameters/ExAp01/sample12.txt 4.29518 9.58351 2.46081 0.337498 7.17677
files/tasks_parameters/ExAp01/sample2.txt 4.01538 8.44418 2.50701 0.319127 6.78611
files/tasks_parameters/ExAp01/sample44.txt 3.54598 6.96299 2.23089 0.28229 6.00279
files/tasks_parameters/ExAp01/sample27.txt 3.53515 7.74306 2.16676 0.28602 6.0821
files/tasks_parameters/ExAp01/sample17.txt 3.78159 7.35053 2.25579 0.292348 6.21665
files/tasks_parameters/ExAp01/sample9.txt 3.52853 6.89392 2.21068 0.282399 6.0051
files/tasks_parameters/ExAp01/sample34.txt 3.69065 6.62788 2.3772 0.297742 6.33136
files/tasks_parameters/ExAp01/sample40.txt 3.59753 7.75686 2.17534 0.285619 6.07358
files/tasks_parameters/ExAp01/sample33.txt 4.21233 8.14826 2.6463 0.338073 7.18899
files/tasks_parameters/ExAp01/sample48.txt 3.35433 7.64107 2.14272 0.270011 5.74168
files/tasks_parameters/ExAp01/sample29.txt 3.37987 7.139 1.93769 0.286306 6.08817
files/tasks_parameters/ExAp01/sample11.txt 3.50031 6.88688 2.12981 0.280008 5.95427
files/tasks_parameters/ExAp01/sample14.txt 3.13655 6.11983 1.97599 0.247458 5.26209
files/tasks_parameters/ExAp01/sample0.txt 3.54334 8.2738 2.14256 0.289132 6.14827
files/tasks_parameters/ExAp01/sample7.txt 3.47654 6.87011 2.05821 0.269886 5.73901
files/tasks_parameters/ExAp01/sample23.txt 3.63336 6.52032 2.38087 0.291712 6.20313
files/tasks_parameters/ExAp01/sample13.txt 3.65356 8.73247 2.33415 0.295393 6.2814
files/tasks_parameters/ExAp01/sample22.txt 3.47013 6.9777 2.28948 0.283979 6.0387
files/tasks_parameters/ExAp01/sample25.txt 3.35623 6.23444 2.2122 0.267298 5.68398
files/tasks_parameters/ExAp01/sample36.txt 3.22677 6.6174 1.9458 0.253823 5.39744
files/tasks_parameters/ExAp01/sample46.txt 4.16221 7.42369 2.49128 0.327273 6.95933
files/tasks_parameters/ExAp01/sample31.txt 3.14591 7.22028 2.13584 0.25377 5.39631
files/tasks_parameters/ExAp01/sample37.txt 3.73942 8.90704 2.16981 0.295708 6.28811
files/tasks_parameters/ExAp01/sample16.txt 3.18038 8.18243 1.88294 0.24945 5.30445
files/tasks_parameters/ExAp01/sample10.txt 3.58518 6.96646 2.31217 0.285748 6.07631
files/tasks_parameters/ExAp01/sample39.txt 3.1271 6.4161 1.97266 0.251967 5.35797
files/tasks_parameters/ExAp01/sample19.txt 3.8536 8.16711 2.23199 0.308463 6.55934
files/tasks_parameters/ExAp01/sample20.txt 3.25149 7.28549 1.88944 0.25994 5.52752
files/tasks_parameters/ExAp01/sample43.txt 3.24781 6.86804 2.00142 0.25616 5.44714
files/tasks_parameters/ExAp01/sample32.txt 3.52545 8.15663 2.12995 0.281726 5.9908
files/tasks_parameters/ExAp01/sample45.txt 3.46536 7.75184 2.10599 0.274935 5.84638
files/tasks_parameters/ExAp01/sample26.txt 3.34833 7.4944 1.88956 0.267248 5.68292
files/tasks_parameters/ExAp01/sample5.txt 3.57844 8.08362 2.09961 0.28454 6.05063
files/tasks_parameters/ExAp01/sample21.txt 3.26791 6.11814 2.17119 0.26143 5.55919
files/tasks_parameters/ExAp01/sample38.txt 3.35038 7.761 1.96293 0.263659 5.6066
files/tasks_parameters/ExAp01/sample1.txt 3.57075 7.83752 2.13261 0.289228 6.15032
files/tasks_parameters/ExAp01/sample15.txt 3.61478 7.37971 2.12057 0.285825 6.07796
files/tasks_parameters/ExAp01/sample24.txt 3.67255 8.28531 2.25272 0.296628 6.30768
files/tasks_parameters/ExAp01/sample3.txt 3.84498 7.33359 2.39135 0.305084 6.4875
files/tasks_parameters/ExAp01/sample6.txt 3.42504 7.09894 2.24425 0.281804 5.99245
files/tasks_parameters/ExAp01/sample30.txt 3.67476 8.17669 2.03701 0.299204 6.36246
files/tasks_parameters/ExAp01/sample42.txt 3.70972 7.70416 2.42413 0.29743 6.32473
files/tasks_parameters/ExAp01/sample4.txt 3.915 7.41691 2.36261 0.307803 6.5453
files/tasks_parameters/ExAp01/sample28.txt 3.3671 7.0562 2.07657 0.266428 5.66548
files/tasks_parameters/ExAp01/sample18.txt 3.28892 7.60139 2.1377 0.268016 5.69925
files/tasks_parameters/ExAp01/sample35.txt 3.97922 9.66795 2.28028 0.32244 6.85655
files/tasks_parameters/ExAp01/sample47.txt 3.10681 6.84842 2.12104 0.251655 5.35134
files/tasks_parameters/ExAp01/sample49.txt 3.18505 7.1497 2.11412 0.255889 5.44137
files/tasks_parameters/ExAp01/sample41.txt 3.3447 6.59911 2.07359 0.265885 5.65394
