digraph G {
0 ->16 0 ->17 1 ->11 1 ->12 1 ->13 2 ->11 2 ->15 3 ->11 3 ->15 3 ->17 4 ->12 4 ->15 4 ->16 5 ->13 5 ->14 5 ->15 5 ->16 5 ->17 6 ->12 6 ->13 6 ->15 6 ->16 6 ->17 7 ->12 7 ->14 7 ->15 8 ->11 8 ->12 8 ->14 8 ->16 8 ->17 9 ->11 9 ->14 9 ->18 10 ->11 10 ->13 10 ->14 11 ->20 11 ->27 12 ->20 12 ->22 12 ->25 12 ->26 13 ->19 13 ->20 13 ->25 13 ->26 13 ->28 14 ->20 14 ->24 14 ->25 15 ->21 15 ->23 15 ->27 15 ->28 16 ->19 16 ->21 16 ->24 17 ->21 17 ->26 17 ->28 17 ->29 18 ->26 18 ->28 19 ->37 19 ->38 20 ->30 20 ->35 21 ->33 21 ->37 22 ->34 23 ->34 24 ->33 24 ->34 24 ->38 25 ->30 25 ->38 26 ->34 26 ->38 27 ->34 27 ->37 28 ->31 28 ->33 28 ->34 28 ->37 29 ->30 29 ->32 29 ->36 29 ->37 30 ->39 30 ->42 30 ->43 30 ->45 31 ->39 31 ->40 31 ->41 31 ->45 31 ->46 31 ->49 32 ->41 32 ->44 32 ->45 33 ->40 33 ->41 33 ->43 33 ->44 34 ->39 34 ->44 34 ->46 34 ->49 35 ->39 35 ->47 35 ->48 36 ->42 36 ->43 36 ->45 37 ->40 37 ->42 39 ->50 39 ->56 40 ->50 40 ->51 40 ->55 40 ->56 40 ->58 40 ->59 41 ->50 41 ->51 41 ->55 41 ->56 42 ->50 42 ->53 42 ->54 42 ->55 42 ->56 42 ->58 43 ->53 43 ->53 43 ->58 44 ->53 45 ->51 46 ->52 46 ->54 46 ->57 47 ->52 47 ->55 47 ->57 48 ->55 49 ->53 49 ->55 51 ->60 51 ->70 52 ->65 52 ->71 52 ->72 52 ->73 53 ->61 53 ->65 53 ->67 53 ->71 53 ->72 54 ->60 54 ->64 54 ->66 54 ->67 54 ->69 55 ->63 55 ->64 55 ->67 55 ->68 55 ->71 55 ->73 56 ->62 56 ->64 56 ->69 56 ->70 57 ->63 57 ->66 57 ->69 57 ->70 57 ->71 57 ->72 58 ->60 58 ->62 58 ->68 58 ->69 58 ->72 59 ->60 59 ->63 59 ->65 59 ->68 59 ->71 59 ->73 60 ->75 60 ->76 60 ->77 61 ->77 61 ->78 62 ->78 63 ->74 63 ->76 63 ->78 64 ->78 65 ->77 65 ->78 66 ->74 67 ->74 68 ->74 68 ->78 69 ->77 70 ->75 70 ->77 70 ->78 71 ->77 72 ->76 73 ->74 73 ->77 74 ->81 74 ->82 74 ->83 75 ->81 76 ->79 77 ->80 77 ->83 78 ->80 78 ->81 78 ->82 79 ->87 79 ->89 80 ->84 81 ->85 81 ->87 81 ->88 82 ->86 83 ->86 83 ->89 84 ->90 84 ->91 84 ->92 84 ->97 84 ->98 85 ->93 85 ->94 85 ->97 85 ->98 85 ->98 86 ->91 86 ->93 86 ->97 87 ->90 87 ->95 87 ->99 88 ->91 88 ->93 88 ->95 88 ->96 89 ->92 89 ->94 
}
