digraph G {
0 ->15 0 ->22 1 ->16 1 ->17 1 ->18 2 ->19 4 ->18 4 ->23 5 ->16 5 ->17 5 ->19 5 ->22 6 ->16 6 ->17 6 ->21 6 ->22 7 ->14 7 ->17 7 ->20 7 ->21 7 ->22 8 ->15 8 ->20 9 ->13 9 ->14 9 ->16 9 ->18 9 ->20 9 ->21 10 ->19 10 ->20 10 ->22 11 ->16 11 ->19 11 ->20 12 ->14 12 ->15 12 ->17 12 ->19 12 ->23 14 ->25 14 ->27 15 ->26 15 ->28 15 ->29 15 ->33 16 ->25 16 ->26 16 ->27 16 ->29 16 ->30 16 ->32 16 ->33 17 ->26 17 ->29 17 ->30 18 ->24 19 ->24 19 ->25 19 ->34 20 ->24 20 ->26 20 ->27 20 ->30 20 ->31 21 ->28 21 ->35 22 ->24 22 ->25 22 ->30 23 ->24 23 ->25 23 ->26 23 ->27 23 ->30 23 ->32 23 ->34 23 ->35 24 ->38 24 ->39 25 ->37 26 ->40 28 ->39 29 ->36 29 ->37 29 ->39 30 ->36 30 ->37 31 ->39 32 ->37 32 ->40 33 ->36 33 ->37 34 ->36 34 ->37 35 ->36 35 ->39 36 ->41 36 ->44 37 ->41 37 ->45 38 ->42 38 ->43 39 ->41 40 ->42 40 ->43 41 ->48 41 ->59 42 ->47 42 ->54 42 ->55 42 ->57 42 ->59 43 ->49 43 ->51 44 ->46 44 ->47 44 ->50 44 ->51 44 ->52 44 ->56 44 ->57 44 ->58 45 ->48 45 ->49 45 ->51 45 ->52 45 ->53 45 ->54 45 ->57 46 ->65 47 ->68 49 ->61 49 ->68 50 ->61 50 ->67 51 ->69 52 ->62 52 ->66 52 ->70 53 ->66 53 ->68 53 ->70 54 ->60 54 ->62 54 ->64 54 ->65 54 ->67 54 ->68 55 ->60 55 ->63 56 ->60 56 ->62 56 ->67 57 ->62 57 ->67 57 ->68 58 ->62 58 ->68 59 ->61 59 ->62 59 ->70 60 ->71 60 ->73 61 ->73 61 ->75 61 ->77 61 ->78 61 ->80 62 ->71 62 ->78 62 ->79 63 ->79 64 ->79 65 ->73 65 ->77 66 ->73 66 ->79 67 ->74 67 ->76 67 ->80 68 ->71 68 ->72 68 ->74 68 ->75 69 ->74 69 ->79 69 ->80 70 ->73 70 ->80 71 ->82 72 ->86 73 ->81 73 ->84 73 ->86 75 ->83 75 ->84 76 ->81 76 ->83 76 ->85 77 ->85 78 ->83 78 ->84 78 ->85 79 ->82 79 ->83 79 ->84 79 ->85 80 ->82 80 ->84 80 ->85 81 ->89 82 ->93 83 ->87 83 ->88 83 ->93 84 ->87 84 ->88 84 ->89 84 ->90 84 ->92 85 ->87 85 ->89 85 ->91 85 ->92 86 ->92 86 ->93 87 ->94 87 ->95 87 ->98 88 ->95 90 ->97 90 ->98 91 ->94 92 ->95 92 ->97 92 ->99 93 ->94 93 ->95 93 ->96 93 ->99 
}
