digraph G {
0 ->10 0 ->12 0 ->13 1 ->11 1 ->12 1 ->13 2 ->7 2 ->14 3 ->11 4 ->7 4 ->8 4 ->9 4 ->11 4 ->12 5 ->7 5 ->9 5 ->10 6 ->7 6 ->9 6 ->10 6 ->13 7 ->21 7 ->22 8 ->15 8 ->19 8 ->21 9 ->21 9 ->22 10 ->16 10 ->17 11 ->17 11 ->17 11 ->18 11 ->22 11 ->23 11 ->24 11 ->26 12 ->19 13 ->19 13 ->20 13 ->25 14 ->17 15 ->28 15 ->33 15 ->34 15 ->37 15 ->39 16 ->31 16 ->33 16 ->34 16 ->36 16 ->39 17 ->29 17 ->31 17 ->34 17 ->35 17 ->36 17 ->39 18 ->27 18 ->29 18 ->30 18 ->34 18 ->36 18 ->38 18 ->39 19 ->29 19 ->34 19 ->37 20 ->28 20 ->32 20 ->34 20 ->36 21 ->27 21 ->28 21 ->37 21 ->39 22 ->28 22 ->37 22 ->38 22 ->39 23 ->30 23 ->31 23 ->32 23 ->33 23 ->36 23 ->38 24 ->27 24 ->32 24 ->33 24 ->38 25 ->28 25 ->30 25 ->31 25 ->32 25 ->33 25 ->37 25 ->38 26 ->27 26 ->28 26 ->31 26 ->33 26 ->36 26 ->37 26 ->38 27 ->43 28 ->41 29 ->40 29 ->41 29 ->42 31 ->41 31 ->43 32 ->40 32 ->43 34 ->41 34 ->42 34 ->44 36 ->42 36 ->44 37 ->41 37 ->42 38 ->42 38 ->42 39 ->41 39 ->42 40 ->49 40 ->50 40 ->55 41 ->46 41 ->48 41 ->52 41 ->54 41 ->56 42 ->45 42 ->47 42 ->51 42 ->53 42 ->55 43 ->45 43 ->46 43 ->55 43 ->56 44 ->54 45 ->58 45 ->60 46 ->59 46 ->61 47 ->57 48 ->60 48 ->62 49 ->62 49 ->62 50 ->58 51 ->60 52 ->58 52 ->61 53 ->59 53 ->60 54 ->59 55 ->59 55 ->60 55 ->62 56 ->57 56 ->59 57 ->63 57 ->64 57 ->65 57 ->67 57 ->70 57 ->71 57 ->72 58 ->63 58 ->64 58 ->65 58 ->66 58 ->68 59 ->64 59 ->66 60 ->67 60 ->69 61 ->69 61 ->71 62 ->63 62 ->65 62 ->67 62 ->68 63 ->76 64 ->73 65 ->73 65 ->76 65 ->78 66 ->73 66 ->74 66 ->75 66 ->77 67 ->73 67 ->78 68 ->76 68 ->77 68 ->78 68 ->79 70 ->74 70 ->75 70 ->77 71 ->76 72 ->77 73 ->82 73 ->83 74 ->80 74 ->81 75 ->80 75 ->81 76 ->81 76 ->83 77 ->81 77 ->83 77 ->84 78 ->80 78 ->82 79 ->82 80 ->88 80 ->90 80 ->92 80 ->95 81 ->85 81 ->86 81 ->87 81 ->91 81 ->92 82 ->85 82 ->93 83 ->90 83 ->91 83 ->92 83 ->94 84 ->86 84 ->88 84 ->89 85 ->96 86 ->97 87 ->99 88 ->96 89 ->98 89 ->99 90 ->96 90 ->98 90 ->99 91 ->96 91 ->97 91 ->98 91 ->99 92 ->96 92 ->98 94 ->99 
}
