0.3700614099999999
Task0 15 255 31 
Task1 15 15 255 
Task2 63 31 31 
Task3 255 255 7 
Task4 7 7 63 
Task5 63 63 255 
Task6 127 127 255 
Task7 255 3 31 
Task8 127 127 63 
Task9 63 255 63 
Task10 255 63 1 
Task11 63 255 127 
Task12 31 255 31 
Task13 7 15 31 
Task14 15 31 255 
Task15 7 31 63 
Task16 63 255 7 
Task17 31 15 63 
Task18 255 127 63 
Task19 127 127 127 
Task20 127 63 63 
Task21 255 255 255 
Task22 63 31 63 
Task23 15 255 15 
Task24 127 15 127 
Task25 31 15 255 
Task26 127 127 255 
Task27 31 255 127 
Task28 63 127 63 
Task29 255 127 127 
Task30 63 63 127 
Task31 63 7 63 
Task32 255 127 7 
Task33 3 63 127 
Task34 63 127 127 
Task35 1 63 255 
Task36 31 1 127 
Task37 31 63 63 
Task38 15 63 3 
Task39 1 255 63 
Task40 7 63 255 
Task41 255 1 31 
Task42 63 127 1 
Task43 63 255 7 
Task44 31 3 63 
Task45 15 7 255 
Task46 63 63 15 
Task47 63 3 15 
Task48 255 31 31 
Task49 3 63 31 
Task50 63 1 15 
Task51 255 127 255 
Task52 63 255 127 
Task53 255 31 63 
Task54 63 7 31 
Task55 31 3 63 
Task56 63 3 1 
Task57 7 7 63 
Task58 63 63 31 
Task59 63 127 7 
Task60 3 15 63 
Task61 255 63 31 
Task62 63 15 31 
Task63 15 63 63 
Task64 7 255 1 
Task65 255 63 63 
Task66 127 127 255 
Task67 7 3 255 
Task68 63 7 3 
Task69 63 127 127 
Task70 1 3 63 
Task71 63 255 63 
Task72 127 255 63 
Task73 31 63 31 
Task74 63 63 63 
Task75 63 255 31 
Task76 255 31 3 
Task77 255 63 7 
Task78 127 15 127 
Task79 15 63 255 
Task80 255 31 255 
Task81 3 255 127 
Task82 31 31 127 
Task83 255 31 7 
Task84 31 31 255 
Task85 255 31 31 
Task86 63 15 31 
Task87 63 31 3 
Task88 15 7 63 
Task89 255 7 31 
Task90 63 255 63 
Task91 31 63 255 
Task92 15 15 255 
Task93 63 63 255 
Task94 255 15 15 
Task95 3 63 31 
Task96 255 15 7 
Task97 63 255 1 
Task98 31 15 127 
Task99 31 63 31 
