files/tasks_parameters/ExAp01/sample8.txt 1.04728 6.77015 2.19458 0.288816 6.4248
files/tasks_parameters/ExAp01/sample12.txt 1.23598 9.58351 2.46081 0.337498 7.50774
files/tasks_parameters/ExAp01/sample2.txt 1.13688 8.44418 2.50701 0.319127 7.09907
files/tasks_parameters/ExAp01/sample44.txt 1.00216 6.96299 2.23089 0.28229 6.27962
files/tasks_parameters/ExAp01/sample27.txt 1.04204 7.74306 2.16676 0.28602 6.36259
files/tasks_parameters/ExAp01/sample17.txt 1.06433 7.35053 2.25579 0.292348 6.50335
files/tasks_parameters/ExAp01/sample9.txt 1.02272 6.89392 2.21068 0.282399 6.28204
files/tasks_parameters/ExAp01/sample34.txt 1.04321 6.62788 2.3772 0.297742 6.62334
files/tasks_parameters/ExAp01/sample40.txt 1.00209 7.75686 2.17534 0.285619 6.35368
files/tasks_parameters/ExAp01/sample33.txt 1.22859 8.14826 2.6463 0.338073 7.52053
files/tasks_parameters/ExAp01/sample48.txt 0.953212 7.64107 2.14272 0.270011 6.00647
files/tasks_parameters/ExAp01/sample29.txt 1.06001 7.139 1.93769 0.286306 6.36895
files/tasks_parameters/ExAp01/sample11.txt 0.969674 6.88688 2.12981 0.280008 6.22886
files/tasks_parameters/ExAp01/sample14.txt 0.872573 6.11983 1.97599 0.247458 5.50476
files/tasks_parameters/ExAp01/sample0.txt 1.07236 8.2738 2.14256 0.289132 6.43181
files/tasks_parameters/ExAp01/sample7.txt 0.966301 6.87011 2.05821 0.269886 6.00368
files/tasks_parameters/ExAp01/sample23.txt 1.0708 6.52032 2.38087 0.291712 6.4892
files/tasks_parameters/ExAp01/sample13.txt 1.086 8.73247 2.33415 0.295393 6.57109
files/tasks_parameters/ExAp01/sample22.txt 1.02266 6.9777 2.28948 0.283979 6.31719
files/tasks_parameters/ExAp01/sample25.txt 0.964317 6.23444 2.2122 0.267298 5.94611
files/tasks_parameters/ExAp01/sample36.txt 0.898572 6.6174 1.9458 0.253823 5.64635
files/tasks_parameters/ExAp01/sample46.txt 1.24122 7.42369 2.49128 0.327273 7.28027
files/tasks_parameters/ExAp01/sample31.txt 0.946223 7.22028 2.13584 0.25377 5.64518
files/tasks_parameters/ExAp01/sample37.txt 1.10048 8.90704 2.16981 0.295708 6.57811
files/tasks_parameters/ExAp01/sample16.txt 0.915206 8.18243 1.88294 0.24945 5.54908
files/tasks_parameters/ExAp01/sample10.txt 1.07272 6.96646 2.31217 0.285748 6.35654
files/tasks_parameters/ExAp01/sample39.txt 0.913658 6.4161 1.97266 0.251967 5.60507
files/tasks_parameters/ExAp01/sample19.txt 1.17168 8.16711 2.23199 0.308463 6.86184
files/tasks_parameters/ExAp01/sample20.txt 0.900562 7.28549 1.88944 0.25994 5.78243
files/tasks_parameters/ExAp01/sample43.txt 0.919036 6.86804 2.00142 0.25616 5.69835
files/tasks_parameters/ExAp01/sample32.txt 1.02565 8.15663 2.12995 0.281726 6.26708
files/tasks_parameters/ExAp01/sample45.txt 1.0511 7.75184 2.10599 0.274935 6.116
files/tasks_parameters/ExAp01/sample26.txt 0.942561 7.4944 1.88956 0.267248 5.945
files/tasks_parameters/ExAp01/sample5.txt 1.09633 8.08362 2.09961 0.28454 6.32968
files/tasks_parameters/ExAp01/sample21.txt 0.947337 6.11814 2.17119 0.26143 5.81557
files/tasks_parameters/ExAp01/sample38.txt 0.950506 7.761 1.96293 0.263659 5.86516
files/tasks_parameters/ExAp01/sample1.txt 1.03508 7.83752 2.13261 0.289228 6.43396
files/tasks_parameters/ExAp01/sample15.txt 1.00747 7.37971 2.12057 0.285825 6.35826
files/tasks_parameters/ExAp01/sample24.txt 1.07164 8.28531 2.25272 0.296628 6.59858
files/tasks_parameters/ExAp01/sample3.txt 1.16815 7.33359 2.39135 0.305084 6.78669
files/tasks_parameters/ExAp01/sample6.txt 1.04744 7.09894 2.24425 0.281804 6.26881
files/tasks_parameters/ExAp01/sample30.txt 1.15835 8.17669 2.03701 0.299204 6.65588
files/tasks_parameters/ExAp01/sample42.txt 1.09444 7.70416 2.42413 0.29743 6.61641
files/tasks_parameters/ExAp01/sample4.txt 1.1673 7.41691 2.36261 0.307803 6.84715
files/tasks_parameters/ExAp01/sample28.txt 0.980532 7.0562 2.07657 0.266428 5.92676
files/tasks_parameters/ExAp01/sample18.txt 0.977241 7.60139 2.1377 0.268016 5.96209
files/tasks_parameters/ExAp01/sample35.txt 1.16761 9.66795 2.28028 0.32244 7.17276
files/tasks_parameters/ExAp01/sample47.txt 0.919292 6.84842 2.12104 0.251655 5.59813
files/tasks_parameters/ExAp01/sample49.txt 0.91972 7.1497 2.11412 0.255889 5.69232
files/tasks_parameters/ExAp01/sample41.txt 0.924161 6.59911 2.07359 0.265885 5.91469
