files/tasks_parameters/ExAp01/sample8.txt 0.714982 3.15778 1.5595 0.203411 4.12986
files/tasks_parameters/ExAp01/sample12.txt 0.790889 3.94962 1.6705 0.207924 4.22148
files/tasks_parameters/ExAp01/sample2.txt 0.742401 3.78275 1.74131 0.200098 4.06259
files/tasks_parameters/ExAp01/sample44.txt 0.719096 3.59825 1.65317 0.200005 4.06071
files/tasks_parameters/ExAp01/sample27.txt 0.680258 3.45743 1.5148 0.182129 3.69776
files/tasks_parameters/ExAp01/sample17.txt 0.560777 2.77299 1.44514 0.14646 2.97358
files/tasks_parameters/ExAp01/sample9.txt 0.647288 2.99933 1.451 0.177444 3.60264
files/tasks_parameters/ExAp01/sample34.txt 0.591239 3.02928 1.58429 0.157984 3.20755
files/tasks_parameters/ExAp01/sample40.txt 0.642425 3.86889 1.52122 0.168379 3.41861
files/tasks_parameters/ExAp01/sample33.txt 0.722397 3.63695 1.71905 0.199765 4.05583
files/tasks_parameters/ExAp01/sample48.txt 0.591641 3.39061 1.49062 0.154728 3.14145
files/tasks_parameters/ExAp01/sample29.txt 0.789629 3.30472 1.38739 0.223868 4.5452
files/tasks_parameters/ExAp01/sample11.txt 0.631598 3.10585 1.41612 0.174079 3.53432
files/tasks_parameters/ExAp01/sample14.txt 0.583814 2.70971 1.43432 0.162214 3.29344
files/tasks_parameters/ExAp01/sample0.txt 0.697848 3.6937 1.5439 0.18367 3.72905
files/tasks_parameters/ExAp01/sample7.txt 0.559533 2.70501 1.42221 0.143463 2.91274
files/tasks_parameters/ExAp01/sample23.txt 0.670366 3.2697 1.57822 0.181448 3.68395
files/tasks_parameters/ExAp01/sample13.txt 0.727155 3.84225 1.67648 0.198247 4.02502
files/tasks_parameters/ExAp01/sample22.txt 0.584493 3.09569 1.56121 0.148796 3.02101
files/tasks_parameters/ExAp01/sample25.txt 0.525153 2.73966 1.5007 0.148149 3.00787
files/tasks_parameters/ExAp01/sample36.txt 0.496339 2.85948 1.28553 0.130042 2.64025
files/tasks_parameters/ExAp01/sample46.txt 0.742032 3.58643 1.69998 0.210103 4.26572
files/tasks_parameters/ExAp01/sample31.txt 0.676243 3.4832 1.53782 0.1722 3.49618
files/tasks_parameters/ExAp01/sample37.txt 0.658472 3.95293 1.50705 0.171701 3.48605
files/tasks_parameters/ExAp01/sample16.txt 0.616212 3.31216 1.30115 0.150249 3.05051
files/tasks_parameters/ExAp01/sample10.txt 0.625326 3.17098 1.61789 0.153776 3.12213
files/tasks_parameters/ExAp01/sample39.txt 0.635111 3.26617 1.44406 0.165669 3.36358
files/tasks_parameters/ExAp01/sample19.txt 0.74075 3.63532 1.52509 0.196094 3.98131
files/tasks_parameters/ExAp01/sample20.txt 0.548491 3.20793 1.25367 0.147335 2.99135
files/tasks_parameters/ExAp01/sample43.txt 0.560577 3.11551 1.4202 0.150644 3.05854
files/tasks_parameters/ExAp01/sample32.txt 0.673384 3.5311 1.42482 0.168744 3.42602
files/tasks_parameters/ExAp01/sample45.txt 0.764816 3.80283 1.48324 0.19807 4.02143
files/tasks_parameters/ExAp01/sample26.txt 0.603031 3.21645 1.29701 0.166061 3.37155
files/tasks_parameters/ExAp01/sample5.txt 0.65006 3.5889 1.52559 0.178903 3.63228
files/tasks_parameters/ExAp01/sample21.txt 0.706821 2.75242 1.55936 0.19512 3.96153
files/tasks_parameters/ExAp01/sample38.txt 0.607508 3.31563 1.37515 0.166157 3.37349
files/tasks_parameters/ExAp01/sample1.txt 0.722107 3.74964 1.51696 0.19701 3.99989
files/tasks_parameters/ExAp01/sample15.txt 0.658139 3.32916 1.48508 0.180707 3.66891
files/tasks_parameters/ExAp01/sample24.txt 0.632088 3.45951 1.59549 0.16529 3.3559
files/tasks_parameters/ExAp01/sample3.txt 0.873253 3.70014 1.70809 0.237107 4.81399
files/tasks_parameters/ExAp01/sample6.txt 0.654681 3.33003 1.58323 0.184714 3.75026
files/tasks_parameters/ExAp01/sample30.txt 0.894412 4.1841 1.4861 0.239623 4.86507
files/tasks_parameters/ExAp01/sample42.txt 0.648605 3.43221 1.70276 0.177383 3.60141
files/tasks_parameters/ExAp01/sample4.txt 0.758937 3.72477 1.6136 0.196448 3.98849
files/tasks_parameters/ExAp01/sample28.txt 0.586608 3.11323 1.45032 0.158819 3.22451
files/tasks_parameters/ExAp01/sample18.txt 0.587349 3.47418 1.45209 0.149064 3.02645
files/tasks_parameters/ExAp01/sample35.txt 0.730425 4.57086 1.49394 0.185031 3.75668
files/tasks_parameters/ExAp01/sample47.txt 0.624328 3.13768 1.52397 0.16417 3.33315
files/tasks_parameters/ExAp01/sample49.txt 0.604623 3.13288 1.49657 0.156154 3.1704
files/tasks_parameters/ExAp01/sample41.txt 0.566667 2.81964 1.49636 0.150876 3.06324
