0.33748840999999996
Task0 3 127 63 
Task1 255 15 127 
Task2 31 7 63 
Task3 15 63 15 
Task4 63 63 31 
Task5 255 63 15 
Task6 255 255 63 
Task7 15 255 3 
Task8 1 31 7 
Task9 3 31 3 
Task10 255 31 127 
Task11 1 15 31 
Task12 31 63 15 
Task13 31 15 63 
Task14 31 127 255 
Task15 127 31 255 
Task16 31 31 63 
Task17 7 63 63 
Task18 127 63 3 
Task19 3 31 3 
Task20 31 15 7 
Task21 255 127 15 
Task22 63 15 1 
Task23 15 63 63 
Task24 31 31 3 
Task25 127 255 31 
Task26 31 63 7 
Task27 31 31 7 
Task28 31 31 31 
Task29 31 7 3 
Task30 63 3 31 
Task31 31 7 255 
Task32 3 127 31 
Task33 31 255 127 
Task34 7 255 127 
Task35 31 63 63 
Task36 255 31 31 
Task37 63 1 63 
Task38 255 31 1 
Task39 31 15 3 
Task40 7 255 255 
Task41 127 255 255 
Task42 7 255 31 
Task43 31 255 31 
Task44 31 255 255 
Task45 15 1 255 
Task46 15 31 1 
Task47 63 15 15 
Task48 7 31 1 
Task49 15 255 255 
Task50 3 63 7 
Task51 63 3 63 
Task52 1 3 31 
Task53 127 63 63 
Task54 63 7 15 
Task55 255 255 63 
Task56 15 255 63 
Task57 255 255 255 
Task58 63 127 255 
Task59 7 63 255 
Task60 255 3 31 
Task61 127 255 127 
Task62 31 255 31 
Task63 31 31 63 
Task64 63 255 63 
Task65 7 7 31 
Task66 7 255 31 
Task67 63 63 63 
Task68 31 127 255 
Task69 15 255 7 
Task70 31 31 255 
Task71 31 31 63 
Task72 63 3 255 
Task73 15 15 31 
Task74 255 7 3 
Task75 1 3 31 
Task76 31 127 15 
Task77 255 127 127 
Task78 15 31 255 
Task79 31 63 63 
Task80 127 255 127 
Task81 7 1 31 
Task82 1 31 7 
Task83 127 63 255 
Task84 31 1 7 
Task85 255 63 15 
Task86 255 7 31 
Task87 3 31 15 
Task88 15 15 255 
Task89 31 63 127 
Task90 31 15 31 
Task91 7 15 63 
Task92 63 63 31 
Task93 1 255 1 
Task94 3 7 31 
Task95 31 31 63 
Task96 255 63 63 
Task97 255 15 63 
Task98 3 31 31 
Task99 31 31 127 
