0.34815720000000006
Task0 63 63 127 
Task1 63 7 63 
Task2 127 127 63 
Task3 63 255 255 
Task4 63 31 7 
Task5 15 63 31 
Task6 63 7 63 
Task7 15 31 1 
Task8 7 7 63 
Task9 255 63 31 
Task10 15 15 31 
Task11 31 15 3 
Task12 255 31 255 
Task13 7 63 1 
Task14 127 255 255 
Task15 63 63 63 
Task16 15 127 31 
Task17 1 7 63 
Task18 31 63 31 
Task19 255 15 63 
Task20 31 15 15 
Task21 1 3 63 
Task22 3 63 15 
Task23 31 31 15 
Task24 15 15 255 
Task25 1 15 63 
Task26 7 63 15 
Task27 31 3 15 
Task28 15 3 63 
Task29 15 31 31 
Task30 63 127 63 
Task31 31 63 7 
Task32 31 15 127 
Task33 63 31 63 
Task34 63 1 7 
Task35 255 63 127 
Task36 255 63 255 
Task37 1 255 15 
Task38 255 15 127 
Task39 7 63 3 
Task40 63 127 63 
Task41 127 255 31 
Task42 3 31 63 
Task43 31 31 1 
Task44 63 31 255 
Task45 31 63 63 
Task46 7 7 63 
Task47 15 63 63 
Task48 31 31 31 
Task49 31 255 31 
Task50 63 255 127 
Task51 15 63 15 
Task52 255 31 15 
Task53 15 7 31 
Task54 31 255 63 
Task55 1 255 127 
Task56 63 3 7 
Task57 255 255 127 
Task58 7 31 1 
Task59 63 3 7 
Task60 31 3 7 
Task61 31 31 31 
Task62 255 255 31 
Task63 15 63 7 
Task64 3 63 31 
Task65 255 31 63 
Task66 1 15 31 
Task67 1 63 31 
Task68 31 63 7 
Task69 15 7 31 
Task70 255 15 127 
Task71 7 15 63 
Task72 15 127 127 
Task73 31 7 31 
Task74 1 63 15 
Task75 7 31 63 
Task76 31 255 127 
Task77 15 63 15 
Task78 3 63 7 
Task79 127 127 255 
Task80 31 7 3 
Task81 1 31 3 
Task82 255 31 255 
Task83 1 31 3 
Task84 1 63 31 
Task85 31 15 7 
Task86 1 15 63 
Task87 31 7 31 
Task88 15 31 63 
Task89 31 63 31 
Task90 31 31 255 
Task91 31 63 15 
Task92 7 255 255 
Task93 31 7 63 
Task94 3 15 31 
Task95 127 7 127 
Task96 63 7 15 
Task97 255 31 127 
Task98 1 31 31 
Task99 31 15 255 
