files/tasks_parameters/ExAp01/sample8.txt 1.75222 6.77015 2.19458 0.288816 5.66628
files/tasks_parameters/ExAp01/sample12.txt 2.02364 9.58351 2.46081 0.337498 6.62138
files/tasks_parameters/ExAp01/sample2.txt 1.94288 8.44418 2.50701 0.319127 6.26095
files/tasks_parameters/ExAp01/sample44.txt 1.72891 6.96299 2.23089 0.28229 5.53825
files/tasks_parameters/ExAp01/sample27.txt 1.71172 7.74306 2.16676 0.28602 5.61142
files/tasks_parameters/ExAp01/sample17.txt 1.77884 7.35053 2.25579 0.292348 5.73556
files/tasks_parameters/ExAp01/sample9.txt 1.72965 6.89392 2.21068 0.282399 5.54038
files/tasks_parameters/ExAp01/sample34.txt 1.80567 6.62788 2.3772 0.297742 5.84139
files/tasks_parameters/ExAp01/sample40.txt 1.7325 7.75686 2.17534 0.285619 5.60356
files/tasks_parameters/ExAp01/sample33.txt 2.03719 8.14826 2.6463 0.338073 6.63265
files/tasks_parameters/ExAp01/sample48.txt 1.65052 7.64107 2.14272 0.270011 5.29734
files/tasks_parameters/ExAp01/sample29.txt 1.68178 7.139 1.93769 0.286306 5.61703
files/tasks_parameters/ExAp01/sample11.txt 1.69709 6.88688 2.12981 0.280008 5.49348
files/tasks_parameters/ExAp01/sample14.txt 1.49988 6.11983 1.97599 0.247458 4.85487
files/tasks_parameters/ExAp01/sample0.txt 1.76056 8.2738 2.14256 0.289132 5.67247
files/tasks_parameters/ExAp01/sample7.txt 1.64764 6.87011 2.05821 0.269886 5.29488
files/tasks_parameters/ExAp01/sample23.txt 1.77556 6.52032 2.38087 0.291712 5.72308
files/tasks_parameters/ExAp01/sample13.txt 1.77786 8.73247 2.33415 0.295393 5.7953
files/tasks_parameters/ExAp01/sample22.txt 1.73884 6.9777 2.28948 0.283979 5.57138
files/tasks_parameters/ExAp01/sample25.txt 1.60542 6.23444 2.2122 0.267298 5.24411
files/tasks_parameters/ExAp01/sample36.txt 1.54791 6.6174 1.9458 0.253823 4.97974
files/tasks_parameters/ExAp01/sample46.txt 1.98889 7.42369 2.49128 0.327273 6.42076
files/tasks_parameters/ExAp01/sample31.txt 1.55508 7.22028 2.13584 0.25377 4.97871
files/tasks_parameters/ExAp01/sample37.txt 1.78474 8.90704 2.16981 0.295708 5.80149
files/tasks_parameters/ExAp01/sample16.txt 1.4816 8.18243 1.88294 0.24945 4.89395
files/tasks_parameters/ExAp01/sample10.txt 1.74391 6.96646 2.31217 0.285748 5.60608
files/tasks_parameters/ExAp01/sample39.txt 1.53073 6.4161 1.97266 0.251967 4.94333
files/tasks_parameters/ExAp01/sample19.txt 1.86596 8.16711 2.23199 0.308463 6.05173
files/tasks_parameters/ExAp01/sample20.txt 1.58838 7.28549 1.88944 0.25994 5.09976
files/tasks_parameters/ExAp01/sample43.txt 1.5582 6.86804 2.00142 0.25616 5.0256
files/tasks_parameters/ExAp01/sample32.txt 1.71462 8.15663 2.12995 0.281726 5.52719
files/tasks_parameters/ExAp01/sample45.txt 1.69257 7.75184 2.10599 0.274935 5.39394
files/tasks_parameters/ExAp01/sample26.txt 1.61388 7.4944 1.88956 0.267248 5.24313
files/tasks_parameters/ExAp01/sample5.txt 1.72703 8.08362 2.09961 0.28454 5.58239
files/tasks_parameters/ExAp01/sample21.txt 1.59891 6.11814 2.17119 0.26143 5.12898
files/tasks_parameters/ExAp01/sample38.txt 1.59431 7.761 1.96293 0.263659 5.17272
files/tasks_parameters/ExAp01/sample1.txt 1.73053 7.83752 2.13261 0.289228 5.67436
files/tasks_parameters/ExAp01/sample15.txt 1.72866 7.37971 2.12057 0.285825 5.6076
files/tasks_parameters/ExAp01/sample24.txt 1.78788 8.28531 2.25272 0.296628 5.81955
files/tasks_parameters/ExAp01/sample3.txt 1.83353 7.33359 2.39135 0.305084 5.98545
files/tasks_parameters/ExAp01/sample6.txt 1.70157 7.09894 2.24425 0.281804 5.52871
files/tasks_parameters/ExAp01/sample30.txt 1.80709 8.17669 2.03701 0.299204 5.87008
files/tasks_parameters/ExAp01/sample42.txt 1.82126 7.70416 2.42413 0.29743 5.83527
files/tasks_parameters/ExAp01/sample4.txt 1.87414 7.41691 2.36261 0.307803 6.03878
files/tasks_parameters/ExAp01/sample28.txt 1.63919 7.0562 2.07657 0.266428 5.22705
files/tasks_parameters/ExAp01/sample18.txt 1.6262 7.60139 2.1377 0.268016 5.2582
files/tasks_parameters/ExAp01/sample35.txt 1.97143 9.66795 2.28028 0.32244 6.32594
files/tasks_parameters/ExAp01/sample47.txt 1.50894 6.84842 2.12104 0.251655 4.93721
files/tasks_parameters/ExAp01/sample49.txt 1.55626 7.1497 2.11412 0.255889 5.02028
files/tasks_parameters/ExAp01/sample41.txt 1.60826 6.59911 2.07359 0.265885 5.2164
