files/tasks_parameters/ExOptd3/sample39.txt 1.7252 7.80857 2.15451 0.277481 5.69419
files/tasks_parameters/ExOptd3/sample21.txt 1.68173 7.53048 2.04696 0.269353 5.52739
files/tasks_parameters/ExOptd3/sample7.txt 1.94585 6.69052 2.47596 0.315476 6.47389
files/tasks_parameters/ExOptd3/sample29.txt 1.80912 8.11524 2.19983 0.290671 5.96487
files/tasks_parameters/ExOptd3/sample44.txt 1.75534 7.07502 2.26219 0.283482 5.81733
files/tasks_parameters/ExOptd3/sample25.txt 1.63386 6.38944 2.32949 0.263437 5.40599
files/tasks_parameters/ExOptd3/sample43.txt 1.45973 6.86674 1.72319 0.231943 4.75971
files/tasks_parameters/ExOptd3/sample5.txt 1.73018 7.18114 2.18974 0.278214 5.70924
files/tasks_parameters/ExOptd3/sample9.txt 1.68975 6.94298 2.13773 0.272282 5.5875
files/tasks_parameters/ExOptd3/sample3.txt 1.73424 8.61826 1.9971 0.281167 5.76984
files/tasks_parameters/ExOptd3/sample32.txt 1.84596 7.08113 2.19809 0.297093 6.09666
files/tasks_parameters/ExOptd3/sample41.txt 1.80256 7.02091 2.46604 0.290694 5.96534
files/tasks_parameters/ExOptd3/sample16.txt 1.6741 7.07736 2.11016 0.266236 5.46344
files/tasks_parameters/ExOptd3/sample49.txt 1.61569 7.56054 1.90721 0.257122 5.27641
files/tasks_parameters/ExOptd3/sample42.txt 1.72327 7.87962 2.16018 0.278908 5.72347
files/tasks_parameters/ExOptd3/sample33.txt 1.60989 6.33205 2.1803 0.258609 5.30692
files/tasks_parameters/ExOptd3/sample11.txt 1.56939 7.99946 1.78212 0.253309 5.19815
files/tasks_parameters/ExOptd3/sample36.txt 1.79839 9.15436 1.90001 0.288858 5.92766
files/tasks_parameters/ExOptd3/sample46.txt 1.52843 6.47785 1.80279 0.248364 5.09669
files/tasks_parameters/ExOptd3/sample30.txt 1.68287 7.05148 2.13774 0.269399 5.52833
files/tasks_parameters/ExOptd3/sample18.txt 1.76746 6.93178 2.08855 0.284652 5.84134
files/tasks_parameters/ExOptd3/sample12.txt 1.83762 8.01471 2.18147 0.297498 6.10496
files/tasks_parameters/ExOptd3/sample1.txt 1.64702 7.79638 2.01079 0.268373 5.50729
files/tasks_parameters/ExOptd3/sample48.txt 1.47598 5.60273 1.859 0.238473 4.89371
files/tasks_parameters/ExOptd3/sample23.txt 1.69333 8.08271 2.15087 0.273198 5.6063
files/tasks_parameters/ExOptd3/sample47.txt 1.94103 7.76688 2.33309 0.310511 6.37199
files/tasks_parameters/ExOptd3/sample15.txt 1.68372 7.4111 2.09554 0.273282 5.60802
files/tasks_parameters/ExOptd3/sample0.txt 1.76317 7.80476 1.92 0.281238 5.77128
files/tasks_parameters/ExOptd3/sample24.txt 1.74079 7.7005 2.257 0.279535 5.73634
files/tasks_parameters/ExOptd3/sample35.txt 1.97491 9.89052 2.54816 0.322523 6.6185
files/tasks_parameters/ExOptd3/sample40.txt 2.13508 7.51614 2.64451 0.341567 7.00929
files/tasks_parameters/ExOptd3/sample10.txt 1.70107 7.57895 1.93936 0.272014 5.58201
files/tasks_parameters/ExOptd3/sample28.txt 1.811 7.2828 2.31858 0.29336 6.02005
files/tasks_parameters/ExOptd3/sample34.txt 1.68303 6.72714 2.09734 0.270412 5.54913
files/tasks_parameters/ExOptd3/sample8.txt 1.97601 7.89604 2.38038 0.317882 6.52326
files/tasks_parameters/ExOptd3/sample4.txt 1.922 7.91885 2.11537 0.304503 6.24871
files/tasks_parameters/ExOptd3/sample6.txt 1.78368 7.2861 2.15931 0.292637 6.00521
files/tasks_parameters/ExOptd3/sample19.txt 1.79135 8.13946 2.08349 0.287125 5.8921
files/tasks_parameters/ExOptd3/sample45.txt 1.85716 7.86135 2.36822 0.298177 6.1189
files/tasks_parameters/ExOptd3/sample22.txt 1.75306 7.06893 2.20023 0.278384 5.71273
files/tasks_parameters/ExOptd3/sample26.txt 1.64078 7.68327 2.01622 0.263942 5.41636
files/tasks_parameters/ExOptd3/sample13.txt 1.92577 7.72405 2.45001 0.308511 6.33095
files/tasks_parameters/ExOptd3/sample38.txt 1.70322 7.36546 2.01602 0.272536 5.59272
files/tasks_parameters/ExOptd3/sample31.txt 1.70906 7.94766 2.10637 0.277947 5.70376
files/tasks_parameters/ExOptd3/sample27.txt 1.79847 7.35403 2.25417 0.286268 5.87451
files/tasks_parameters/ExOptd3/sample20.txt 1.81416 7.16198 2.25904 0.289474 5.94031
files/tasks_parameters/ExOptd3/sample37.txt 1.61738 8.35005 1.82152 0.263199 5.40111
files/tasks_parameters/ExOptd3/sample2.txt 1.72748 6.43259 2.10326 0.278851 5.72231
files/tasks_parameters/ExOptd3/sample17.txt 1.79248 7.4053 2.24728 0.290275 5.95673
files/tasks_parameters/ExOptd3/sample14.txt 1.8031 7.7514 2.14247 0.28735 5.89672
