files/tasks_parameters/ExAp01/sample8.txt 0.780579 3.15778 1.5595 0.203411 10.1649
files/tasks_parameters/ExAp01/sample12.txt 0.855922 3.94962 1.6705 0.207924 10.3904
files/tasks_parameters/ExAp01/sample2.txt 0.815935 3.78275 1.74131 0.200098 9.99928
files/tasks_parameters/ExAp01/sample44.txt 0.785675 3.59825 1.65317 0.200005 9.99465
files/tasks_parameters/ExAp01/sample27.txt 0.737071 3.45743 1.5148 0.182129 9.10132
files/tasks_parameters/ExAp01/sample17.txt 0.61968 2.77299 1.44514 0.14646 7.31889
files/tasks_parameters/ExAp01/sample9.txt 0.708373 2.99933 1.451 0.177444 8.8672
files/tasks_parameters/ExAp01/sample34.txt 0.651127 3.02928 1.58429 0.157984 7.89476
files/tasks_parameters/ExAp01/sample40.txt 0.702455 3.86889 1.52122 0.168379 8.41425
files/tasks_parameters/ExAp01/sample33.txt 0.784782 3.63695 1.71905 0.199765 9.98265
files/tasks_parameters/ExAp01/sample48.txt 0.637181 3.39061 1.49062 0.154728 7.73208
files/tasks_parameters/ExAp01/sample29.txt 0.849353 3.30472 1.38739 0.223868 11.1871
files/tasks_parameters/ExAp01/sample11.txt 0.685062 3.10585 1.41612 0.174079 8.69905
files/tasks_parameters/ExAp01/sample14.txt 0.630732 2.70971 1.43432 0.162214 8.10618
files/tasks_parameters/ExAp01/sample0.txt 0.757835 3.6937 1.5439 0.18367 9.17834
files/tasks_parameters/ExAp01/sample7.txt 0.615739 2.70501 1.42221 0.143463 7.16915
files/tasks_parameters/ExAp01/sample23.txt 0.73744 3.2697 1.57822 0.181448 9.06734
files/tasks_parameters/ExAp01/sample13.txt 0.797555 3.84225 1.67648 0.198247 9.9068
files/tasks_parameters/ExAp01/sample22.txt 0.624408 3.09569 1.56121 0.148796 7.43564
files/tasks_parameters/ExAp01/sample25.txt 0.562163 2.73966 1.5007 0.148149 7.40328
files/tasks_parameters/ExAp01/sample36.txt 0.552411 2.85948 1.28553 0.130042 6.49847
files/tasks_parameters/ExAp01/sample46.txt 0.795468 3.58643 1.69998 0.210103 10.4993
files/tasks_parameters/ExAp01/sample31.txt 0.742098 3.4832 1.53782 0.1722 8.60517
files/tasks_parameters/ExAp01/sample37.txt 0.721476 3.95293 1.50705 0.171701 8.58024
files/tasks_parameters/ExAp01/sample16.txt 0.650896 3.31216 1.30115 0.150249 7.50824
files/tasks_parameters/ExAp01/sample10.txt 0.660948 3.17098 1.61789 0.153776 7.68451
files/tasks_parameters/ExAp01/sample39.txt 0.671422 3.26617 1.44406 0.165669 8.27879
files/tasks_parameters/ExAp01/sample19.txt 0.797453 3.63532 1.52509 0.196094 9.79923
files/tasks_parameters/ExAp01/sample20.txt 0.60028 3.20793 1.25367 0.147335 7.36264
files/tasks_parameters/ExAp01/sample43.txt 0.614726 3.11551 1.4202 0.150644 7.528
files/tasks_parameters/ExAp01/sample32.txt 0.723463 3.5311 1.42482 0.168744 8.43248
files/tasks_parameters/ExAp01/sample45.txt 0.811492 3.80283 1.48324 0.19807 9.89797
files/tasks_parameters/ExAp01/sample26.txt 0.65741 3.21645 1.29701 0.166061 8.29841
files/tasks_parameters/ExAp01/sample5.txt 0.716843 3.5889 1.52559 0.178903 8.94016
files/tasks_parameters/ExAp01/sample21.txt 0.771051 2.75242 1.55936 0.19512 9.75055
files/tasks_parameters/ExAp01/sample38.txt 0.666922 3.31563 1.37515 0.166157 8.30318
files/tasks_parameters/ExAp01/sample1.txt 0.790014 3.74964 1.51696 0.19701 9.84496
files/tasks_parameters/ExAp01/sample15.txt 0.72128 3.32916 1.48508 0.180707 9.03031
files/tasks_parameters/ExAp01/sample24.txt 0.692625 3.45951 1.59549 0.16529 8.25989
files/tasks_parameters/ExAp01/sample3.txt 0.935573 3.70014 1.70809 0.237107 11.8487
files/tasks_parameters/ExAp01/sample6.txt 0.713765 3.33003 1.58323 0.184714 9.23055
files/tasks_parameters/ExAp01/sample30.txt 0.983848 4.1841 1.4861 0.239623 11.9744
files/tasks_parameters/ExAp01/sample42.txt 0.71128 3.43221 1.70276 0.177383 8.86417
files/tasks_parameters/ExAp01/sample4.txt 0.826376 3.72477 1.6136 0.196448 9.8169
files/tasks_parameters/ExAp01/sample28.txt 0.643318 3.11323 1.45032 0.158819 7.9365
files/tasks_parameters/ExAp01/sample18.txt 0.63601 3.47418 1.45209 0.149064 7.44902
files/tasks_parameters/ExAp01/sample35.txt 0.810054 4.57086 1.49394 0.185031 9.24635
files/tasks_parameters/ExAp01/sample47.txt 0.674264 3.13768 1.52397 0.16417 8.20391
files/tasks_parameters/ExAp01/sample49.txt 0.669082 3.13288 1.49657 0.156154 7.80333
files/tasks_parameters/ExAp01/sample41.txt 0.608893 2.81964 1.49636 0.150876 7.53957
