digraph G {
0 ->3 0 ->4 2 ->4 3 ->5 3 ->6 4 ->7 5 ->9 7 ->8 8 ->11 8 ->12 9 ->10 10 ->13 11 ->13 11 ->14 12 ->14 13 ->16 13 ->17 14 ->15 15 ->18 15 ->20 16 ->18 17 ->19 17 ->20 18 ->22 18 ->23 19 ->21 20 ->24 21 ->25 21 ->26 24 ->26 25 ->27 25 ->28 27 ->29 28 ->30 28 ->31 29 ->33 30 ->34 31 ->32 31 ->33 33 ->35 34 ->36 35 ->37 36 ->38 36 ->39 37 ->40 37 ->41 39 ->41 40 ->42 40 ->43 40 ->44 41 ->45 42 ->46 44 ->47 44 ->48 45 ->46 46 ->50 47 ->49 47 ->51 49 ->52 49 ->53 50 ->52 51 ->54 52 ->55 52 ->57 52 ->58 53 ->56 54 ->55 54 ->56 55 ->59 59 ->60 59 ->61 59 ->62 59 ->63 61 ->65 61 ->66 62 ->64 62 ->66 63 ->65 64 ->67 67 ->68 67 ->69 67 ->70 67 ->71 68 ->73 69 ->72 69 ->73 70 ->72 72 ->75 73 ->74 74 ->76 74 ->78 75 ->77 75 ->79 76 ->82 78 ->80 79 ->80 79 ->81 79 ->82 80 ->83 83 ->84 83 ->85 83 ->86 84 ->87 87 ->88 87 ->89 87 ->90 88 ->91 89 ->92 90 ->93 92 ->94 92 ->95 92 ->96 93 ->94 96 ->97 97 ->98 97 ->99 
}
