digraph G {
0 ->3 3 ->4 3 ->5 5 ->6 5 ->7 5 ->8 6 ->9 7 ->9 7 ->10 8 ->10 9 ->11 10 ->12 11 ->14 12 ->13 12 ->15 15 ->16 16 ->17 17 ->18 17 ->19 18 ->20 20 ->21 20 ->22 20 ->23 21 ->24 24 ->25 24 ->26 26 ->27 26 ->28 27 ->29 28 ->30 28 ->31 29 ->33 31 ->32 31 ->34 32 ->36 32 ->37 33 ->37 34 ->35 35 ->38 36 ->39 38 ->40 38 ->41 40 ->43 41 ->42 42 ->46 43 ->44 43 ->45 44 ->49 45 ->47 45 ->50 46 ->48 47 ->51 49 ->52 50 ->51 50 ->52 52 ->53 52 ->54 53 ->55 54 ->56 55 ->57 55 ->58 56 ->59 57 ->60 60 ->61 60 ->62 61 ->63 62 ->64 62 ->65 64 ->66 64 ->67 65 ->67 66 ->70 67 ->68 67 ->69 67 ->71 68 ->74 68 ->75 69 ->73 69 ->74 70 ->73 71 ->72 72 ->77 72 ->78 73 ->76 73 ->78 75 ->77 77 ->79 77 ->80 77 ->81 78 ->79 79 ->82 79 ->83 80 ->82 81 ->83 82 ->84 84 ->85 85 ->86 85 ->87 86 ->89 87 ->88 89 ->90 89 ->91 89 ->92 90 ->94 91 ->93 93 ->95 93 ->96 93 ->97 93 ->98 96 ->99 
}
