digraph G {
0 ->3 0 ->5 1 ->3 2 ->4 4 ->6 6 ->7 6 ->8 6 ->9 6 ->10 7 ->12 8 ->12 9 ->11 9 ->13 12 ->14 12 ->15 15 ->16 16 ->17 16 ->18 16 ->19 17 ->20 17 ->21 18 ->21 18 ->22 21 ->24 21 ->25 22 ->23 22 ->24 23 ->26 23 ->27 23 ->28 24 ->26 24 ->28 26 ->29 27 ->30 27 ->31 29 ->32 29 ->33 30 ->32 33 ->34 33 ->35 33 ->36 34 ->37 37 ->38 37 ->39 37 ->40 37 ->41 38 ->42 38 ->43 38 ->44 39 ->43 40 ->42 43 ->45 43 ->46 43 ->47 43 ->48 44 ->47 44 ->48 46 ->49 46 ->51 47 ->50 47 ->51 48 ->49 50 ->52 52 ->53 52 ->54 52 ->55 52 ->56 55 ->58 55 ->59 56 ->57 56 ->58 56 ->59 57 ->60 57 ->61 57 ->62 59 ->61 60 ->64 60 ->65 61 ->63 62 ->64 62 ->66 63 ->69 64 ->67 65 ->67 65 ->68 67 ->72 68 ->70 69 ->71 69 ->72 70 ->73 70 ->75 71 ->74 71 ->76 73 ->78 73 ->79 74 ->78 76 ->77 76 ->79 77 ->81 77 ->82 78 ->81 78 ->82 79 ->80 80 ->83 80 ->84 81 ->84 83 ->85 83 ->88 84 ->86 84 ->87 85 ->90 86 ->90 87 ->89 89 ->91 89 ->92 89 ->93 89 ->94 91 ->97 91 ->98 93 ->95 93 ->96 94 ->95 94 ->98 95 ->99 96 ->99 
}
