digraph G {
1 ->3 1 ->4 4 ->5 4 ->6 6 ->7 7 ->8 8 ->9 8 ->10 9 ->12 10 ->11 11 ->13 11 ->14 11 ->15 13 ->16 14 ->16 15 ->17 16 ->18 17 ->19 17 ->20 18 ->23 19 ->21 19 ->23 20 ->22 23 ->24 24 ->25 24 ->26 25 ->27 25 ->28 27 ->29 27 ->31 27 ->32 28 ->30 29 ->33 30 ->33 31 ->35 32 ->34 33 ->36 33 ->38 33 ->39 34 ->37 34 ->38 35 ->37 37 ->40 39 ->40 39 ->41 41 ->42 42 ->43 42 ->44 42 ->45 42 ->46 44 ->48 46 ->47 46 ->48 46 ->49 47 ->52 48 ->50 48 ->52 49 ->51 51 ->53 53 ->54 54 ->55 54 ->56 55 ->57 55 ->58 57 ->61 58 ->59 58 ->60 59 ->63 60 ->62 61 ->62 63 ->64 64 ->65 64 ->66 65 ->68 65 ->69 66 ->67 67 ->70 68 ->71 68 ->72 70 ->73 70 ->75 71 ->74 72 ->74 72 ->75 73 ->76 73 ->78 74 ->77 75 ->76 75 ->77 75 ->78 75 ->79 76 ->81 77 ->80 77 ->81 77 ->82 78 ->83 79 ->80 79 ->82 80 ->85 80 ->86 81 ->84 82 ->84 82 ->85 84 ->87 84 ->88 88 ->89 88 ->90 89 ->91 89 ->92 92 ->93 92 ->94 94 ->95 95 ->96 96 ->97 96 ->98 96 ->99 
}
