digraph G {
1 ->2 1 ->3 2 ->4 2 ->5 3 ->6 4 ->8 6 ->7 8 ->9 8 ->10 8 ->11 9 ->12 9 ->15 10 ->14 11 ->13 11 ->15 13 ->17 14 ->18 15 ->16 16 ->19 16 ->20 19 ->23 19 ->24 20 ->21 20 ->22 21 ->25 23 ->26 25 ->27 25 ->28 28 ->29 29 ->30 29 ->31 29 ->32 29 ->33 30 ->35 32 ->34 32 ->36 33 ->36 34 ->37 35 ->38 37 ->39 38 ->40 39 ->43 39 ->44 40 ->41 40 ->42 43 ->46 43 ->48 44 ->45 44 ->46 44 ->47 45 ->51 46 ->50 46 ->52 47 ->49 48 ->50 49 ->53 49 ->55 49 ->56 50 ->53 50 ->55 52 ->54 53 ->59 54 ->57 55 ->58 56 ->57 56 ->58 58 ->60 58 ->61 58 ->62 59 ->61 60 ->63 60 ->66 61 ->64 62 ->63 62 ->64 62 ->65 63 ->68 64 ->67 66 ->67 68 ->69 69 ->70 69 ->71 69 ->72 69 ->73 70 ->74 74 ->75 75 ->76 75 ->77 75 ->78 76 ->82 77 ->79 77 ->81 78 ->80 79 ->86 81 ->83 81 ->84 82 ->83 82 ->85 82 ->86 84 ->87 87 ->88 87 ->89 89 ->90 89 ->91 90 ->93 91 ->92 92 ->94 92 ->95 92 ->96 95 ->98 96 ->97 96 ->98 98 ->99 
}
