0.33748840999999996
Task0 3 63 31 
Task1 255 15 127 
Task2 31 7 63 
Task3 7 31 7 
Task4 31 31 15 
Task5 255 63 15 
Task6 127 63 15 
Task7 7 31 1 
Task8 1 31 7 
Task9 3 31 3 
Task10 63 15 31 
Task11 1 15 31 
Task12 31 63 15 
Task13 15 7 31 
Task14 15 31 63 
Task15 127 31 255 
Task16 15 15 31 
Task17 7 63 63 
Task18 63 31 1 
Task19 3 31 3 
Task20 31 15 7 
Task21 127 31 15 
Task22 63 15 1 
Task23 15 63 63 
Task24 31 31 3 
Task25 127 255 31 
Task26 31 63 7 
Task27 31 31 7 
Task28 31 31 31 
Task29 31 7 3 
Task30 31 1 15 
Task31 15 3 63 
Task32 3 63 15 
Task33 31 255 127 
Task34 7 255 127 
Task35 31 63 63 
Task36 127 15 15 
Task37 31 1 31 
Task38 63 7 1 
Task39 31 15 3 
Task40 3 127 63 
Task41 63 127 127 
Task42 3 31 15 
Task43 7 31 7 
Task44 15 63 63 
Task45 15 1 63 
Task46 15 31 1 
Task47 63 15 15 
Task48 7 31 1 
Task49 7 63 127 
Task50 1 15 3 
Task51 31 3 31 
Task52 1 3 31 
Task53 127 63 63 
Task54 63 7 15 
Task55 127 63 31 
Task56 7 63 15 
Task57 63 127 63 
Task58 15 31 63 
Task59 1 15 63 
Task60 63 3 15 
Task61 63 127 63 
Task62 15 63 15 
Task63 31 31 63 
Task64 31 63 31 
Task65 7 7 31 
Task66 7 31 15 
Task67 31 31 31 
Task68 15 63 63 
Task69 7 63 3 
Task70 7 7 63 
Task71 15 15 31 
Task72 7 1 31 
Task73 15 15 31 
Task74 31 1 1 
Task75 1 3 31 
Task76 15 63 15 
Task77 255 127 127 
Task78 7 7 31 
Task79 31 63 63 
Task80 127 255 127 
Task81 7 1 31 
Task82 1 31 7 
Task83 31 31 63 
Task84 31 1 7 
Task85 31 15 3 
Task86 63 3 15 
Task87 3 31 15 
Task88 7 7 63 
Task89 15 31 63 
Task90 31 15 31 
Task91 7 15 63 
Task92 63 63 31 
Task93 1 31 1 
Task94 3 7 31 
Task95 31 31 63 
Task96 63 15 31 
Task97 63 15 31 
Task98 3 31 31 
Task99 15 15 31 
