0.29467076
Task0 31 255 63 
Task1 3 1 31 
Task2 63 1 15 
Task3 255 15 255 
Task4 31 31 31 
Task5 3 63 63 
Task6 31 15 31 
Task7 31 3 3 
Task8 31 31 1 
Task9 63 15 15 
Task10 7 7 31 
Task11 255 7 31 
Task12 15 7 15 
Task13 63 1 31 
Task14 63 255 255 
Task15 31 63 1 
Task16 127 255 255 
Task17 63 15 3 
Task18 31 31 7 
Task19 63 31 3 
Task20 15 31 31 
Task21 63 7 31 
Task22 15 31 31 
Task23 15 15 7 
Task24 127 7 31 
Task25 31 31 15 
Task26 7 3 31 
Task27 7 1 31 
Task28 15 63 15 
Task29 255 31 31 
Task30 15 15 31 
Task31 1 31 7 
Task32 7 1 31 
Task33 15 1 255 
Task34 31 7 15 
Task35 31 7 31 
Task36 255 31 255 
Task37 31 15 1 
Task38 31 3 63 
Task39 127 31 15 
Task40 15 15 3 
Task41 7 63 63 
Task42 3 127 255 
Task43 31 15 63 
Task44 3 15 31 
Task45 15 255 63 
Task46 127 15 31 
Task47 255 3 15 
Task48 255 63 127 
Task49 7 31 63 
Task50 31 63 255 
Task51 7 31 15 
Task52 127 255 15 
Task53 15 63 31 
Task54 255 1 31 
Task55 63 1 31 
Task56 255 255 1 
Task57 1 63 7 
Task58 3 63 1 
Task59 15 31 3 
Task60 255 7 31 
Task61 63 63 63 
Task62 31 15 15 
Task63 3 31 15 
Task64 15 15 7 
Task65 15 31 15 
Task66 63 63 15 
Task67 15 63 15 
Task68 7 63 7 
Task69 255 63 15 
Task70 3 31 31 
Task71 1 31 1 
Task72 63 3 31 
Task73 1 127 31 
Task74 3 7 3 
Task75 7 31 3 
Task76 15 31 15 
Task77 31 15 31 
Task78 63 31 1 
Task79 63 7 7 
Task80 15 31 31 
Task81 7 31 3 
Task82 3 3 31 
Task83 7 7 31 
Task84 31 15 63 
Task85 31 1 7 
Task86 63 63 31 
Task87 31 63 7 
Task88 15 31 127 
Task89 7 63 3 
Task90 31 255 63 
Task91 15 31 1 
Task92 31 31 7 
Task93 31 63 63 
Task94 255 31 255 
Task95 31 31 7 
Task96 3 31 31 
Task97 31 3 15 
Task98 255 63 127 
Task99 31 63 31 
