0.4001952399999999
Task0 31 15 63 
Task1 31 31 63 
Task2 15 7 63 
Task3 15 1 31 
Task4 127 255 127 
Task5 15 63 1 
Task6 31 255 63 
Task7 31 63 63 
Task8 255 255 15 
Task9 15 3 63 
Task10 7 31 31 
Task11 31 15 31 
Task12 63 15 31 
Task13 255 63 15 
Task14 255 31 63 
Task15 63 31 63 
Task16 63 255 127 
Task17 31 31 31 
Task18 127 63 63 
Task19 63 15 7 
Task20 7 31 1 
Task21 3 3 63 
Task22 31 63 63 
Task23 63 3 31 
Task24 31 31 7 
Task25 63 255 255 
Task26 63 63 63 
Task27 15 255 255 
Task28 63 63 1 
Task29 255 255 127 
Task30 7 1 63 
Task31 63 31 7 
Task32 31 31 255 
Task33 63 63 31 
Task34 7 31 15 
Task35 1 255 7 
Task36 7 63 7 
Task37 127 31 15 
Task38 31 127 255 
Task39 31 63 127 
Task40 1 255 15 
Task41 63 3 7 
Task42 15 255 31 
Task43 63 3 7 
Task44 63 255 127 
Task45 31 63 255 
Task46 3 7 63 
Task47 1 127 255 
Task48 127 31 255 
Task49 255 31 63 
Task50 255 15 7 
Task51 31 63 63 
Task52 63 31 7 
Task53 63 63 31 
Task54 31 15 255 
Task55 127 255 255 
Task56 31 63 31 
Task57 31 7 63 
Task58 31 63 127 
Task59 15 15 63 
Task60 255 3 7 
Task61 7 31 1 
Task62 31 1 31 
Task63 3 31 3 
Task64 15 31 3 
Task65 7 1 63 
Task66 63 1 63 
Task67 15 255 31 
Task68 31 1 7 
Task69 63 7 1 
Task70 31 31 63 
Task71 31 1 63 
Task72 7 3 63 
Task73 255 255 7 
Task74 63 15 15 
Task75 127 3 255 
Task76 1 3 31 
Task77 31 63 15 
Task78 1 31 31 
Task79 31 3 1 
Task80 3 31 255 
Task81 31 7 1 
Task82 15 31 3 
Task83 63 127 15 
Task84 3 1 31 
Task85 31 255 127 
Task86 31 15 63 
Task87 63 1 1 
Task88 15 7 63 
Task89 31 31 63 
Task90 7 7 31 
Task91 15 63 15 
Task92 7 3 63 
Task93 31 31 7 
Task94 63 63 15 
Task95 15 31 15 
Task96 3 63 31 
Task97 3 31 15 
Task98 63 31 15 
Task99 7 31 63 
