0.34564476
Task0 63 1 63 
Task1 255 255 63 
Task2 15 63 1 
Task3 63 15 63 
Task4 15 127 63 
Task5 1 7 63 
Task6 63 15 31 
Task7 63 31 31 
Task8 63 255 127 
Task9 31 3 1 
Task10 7 15 63 
Task11 31 31 255 
Task12 255 255 7 
Task13 7 31 1 
Task14 63 31 255 
Task15 63 255 127 
Task16 255 63 255 
Task17 31 31 63 
Task18 31 1 15 
Task19 3 127 127 
Task20 3 7 63 
Task21 1 31 1 
Task22 31 31 7 
Task23 31 63 63 
Task24 3 7 63 
Task25 1 3 63 
Task26 63 15 63 
Task27 7 31 63 
Task28 63 7 15 
Task29 63 63 15 
Task30 63 31 1 
Task31 1 31 7 
Task32 255 63 255 
Task33 31 7 31 
Task34 7 1 31 
Task35 63 15 31 
Task36 15 63 15 
Task37 7 3 63 
Task38 31 7 1 
Task39 63 1 7 
Task40 7 31 7 
Task41 15 63 15 
Task42 15 127 15 
Task43 15 63 7 
Task44 3 63 15 
Task45 31 7 1 
Task46 1 1 31 
Task47 15 15 63 
Task48 15 63 15 
Task49 63 15 15 
Task50 63 15 1 
Task51 7 31 7 
Task52 63 15 31 
Task53 31 255 15 
Task54 63 31 63 
Task55 31 63 1 
Task56 127 63 63 
Task57 7 31 31 
Task58 63 3 15 
Task59 31 31 31 
Task60 15 1 31 
Task61 31 15 7 
Task62 3 3 63 
Task63 31 63 15 
Task64 1 63 7 
Task65 31 127 63 
Task66 31 15 7 
Task67 7 63 7 
Task68 255 63 63 
Task69 3 15 63 
Task70 255 127 127 
Task71 31 1 3 
Task72 7 7 63 
Task73 7 1 31 
Task74 1 7 63 
Task75 1 1 31 
Task76 63 3 1 
Task77 63 15 31 
Task78 3 31 15 
Task79 63 1 63 
Task80 3 63 31 
Task81 15 31 127 
Task82 3 31 1 
Task83 15 3 31 
Task84 31 255 15 
Task85 63 255 63 
Task86 63 31 15 
Task87 63 31 15 
Task88 63 1 255 
Task89 1 63 15 
Task90 3 63 1 
Task91 1 31 15 
Task92 15 63 7 
Task93 63 3 7 
Task94 3 31 31 
Task95 31 7 15 
Task96 7 63 31 
Task97 63 255 1 
Task98 31 63 255 
Task99 15 7 63 
