0.33476035
Task0 63 3 15 
Task1 255 31 7 
Task2 63 3 3 
Task3 63 255 3 
Task4 1 31 3 
Task5 7 15 31 
Task6 63 15 7 
Task7 63 15 15 
Task8 3 31 15 
Task9 127 255 7 
Task10 63 31 7 
Task11 63 31 1 
Task12 63 7 1 
Task13 63 63 63 
Task14 15 63 31 
Task15 15 31 31 
Task16 31 31 31 
Task17 63 15 31 
Task18 63 1 31 
Task19 15 63 63 
Task20 63 15 63 
Task21 63 31 63 
Task22 255 63 127 
Task23 7 63 31 
Task24 31 3 63 
Task25 7 7 31 
Task26 15 31 3 
Task27 31 63 3 
Task28 7 31 1 
Task29 1 3 31 
Task30 63 3 7 
Task31 31 15 31 
Task32 31 7 15 
Task33 63 31 31 
Task34 3 31 15 
Task35 1 31 31 
Task36 63 255 7 
Task37 63 3 7 
Task38 31 15 63 
Task39 63 15 31 
Task40 1 31 15 
Task41 127 63 255 
Task42 31 63 31 
Task43 63 1 15 
Task44 3 63 1 
Task45 63 1 3 
Task46 3 7 31 
Task47 31 31 15 
Task48 31 15 7 
Task49 63 15 31 
Task50 255 63 15 
Task51 7 63 15 
Task52 255 127 127 
Task53 15 63 63 
Task54 31 63 7 
Task55 63 31 31 
Task56 31 15 31 
Task57 63 7 3 
Task58 63 3 15 
Task59 127 255 127 
Task60 15 15 63 
Task61 63 15 3 
Task62 255 31 1 
Task63 31 63 63 
Task64 63 1 3 
Task65 7 31 7 
Task66 7 31 63 
Task67 127 3 255 
Task68 31 3 15 
Task69 7 31 63 
Task70 63 63 63 
Task71 3 31 31 
Task72 15 31 63 
Task73 31 31 63 
Task74 7 31 31 
Task75 3 31 63 
Task76 7 7 31 
Task77 31 1 63 
Task78 7 63 7 
Task79 63 15 255 
Task80 1 7 63 
Task81 15 1 63 
Task82 31 31 7 
Task83 3 63 3 
Task84 1 63 15 
Task85 63 15 1 
Task86 63 3 7 
Task87 63 31 63 
Task88 255 63 31 
Task89 1 3 31 
Task90 1 31 7 
Task91 63 1 1 
Task92 31 31 63 
Task93 31 3 3 
Task94 31 15 3 
Task95 15 31 15 
Task96 15 63 31 
Task97 3 31 15 
Task98 31 31 15 
Task99 63 63 63 
