0.45148784000000003
Task0 31 63 7 
Task1 15 255 15 
Task2 63 255 63 
Task3 63 7 7 
Task4 31 7 63 
Task5 15 63 31 
Task6 3 63 1 
Task7 7 63 1 
Task8 31 63 1 
Task9 7 127 255 
Task10 127 31 7 
Task11 127 1 63 
Task12 255 3 3 
Task13 15 63 3 
Task14 63 127 63 
Task15 63 15 255 
Task16 255 3 255 
Task17 63 3 31 
Task18 63 3 63 
Task19 127 63 63 
Task20 255 15 31 
Task21 31 15 63 
Task22 31 63 255 
Task23 15 15 63 
Task24 31 63 63 
Task25 31 63 255 
Task26 63 7 3 
Task27 31 15 255 
Task28 3 1 63 
Task29 15 63 63 
Task30 1 7 63 
Task31 31 63 63 
Task32 3 15 63 
Task33 255 7 7 
Task34 63 127 1 
Task35 255 63 63 
Task36 63 31 7 
Task37 127 63 127 
Task38 255 31 15 
Task39 3 15 63 
Task40 1 255 63 
Task41 15 255 15 
Task42 31 15 63 
Task43 7 63 7 
Task44 31 63 63 
Task45 63 255 255 
Task46 15 255 31 
Task47 63 63 7 
Task48 31 255 31 
Task49 63 127 31 
Task50 7 63 255 
Task51 63 3 15 
Task52 7 63 3 
Task53 15 255 63 
Task54 3 63 255 
Task55 15 63 31 
Task56 31 127 31 
Task57 3 15 63 
Task58 63 3 31 
Task59 15 255 15 
Task60 63 1 255 
Task61 31 63 63 
Task62 1 63 1 
Task63 63 127 127 
Task64 127 3 31 
Task65 7 7 63 
Task66 63 7 255 
Task67 31 31 63 
Task68 63 127 127 
Task69 63 31 3 
Task70 7 255 31 
Task71 1 255 255 
Task72 255 31 127 
Task73 7 127 255 
Task74 255 127 63 
Task75 127 255 31 
Task76 63 7 1 
Task77 63 7 3 
Task78 15 63 31 
Task79 63 15 1 
Task80 63 63 1 
Task81 63 63 127 
Task82 255 63 7 
Task83 63 3 7 
Task84 15 255 127 
Task85 1 63 3 
Task86 255 127 127 
Task87 15 63 3 
Task88 31 63 31 
Task89 15 63 63 
Task90 31 31 127 
Task91 15 7 63 
Task92 63 255 15 
Task93 255 255 127 
Task94 63 63 31 
Task95 63 3 15 
Task96 127 63 255 
Task97 3 63 3 
Task98 15 255 127 
Task99 255 15 15 
