0.36792107
Task0 15 63 1 
Task1 15 63 3 
Task2 3 3 63 
Task3 3 7 31 
Task4 255 63 127 
Task5 7 31 31 
Task6 31 7 31 
Task7 63 7 3 
Task8 31 63 15 
Task9 63 1 31 
Task10 31 63 31 
Task11 63 15 7 
Task12 127 255 63 
Task13 63 1 7 
Task14 1 15 63 
Task15 7 63 31 
Task16 3 63 15 
Task17 3 63 1 
Task18 63 1 7 
Task19 1 63 7 
Task20 1 63 255 
Task21 31 15 63 
Task22 63 31 31 
Task23 7 7 63 
Task24 15 255 7 
Task25 31 63 7 
Task26 7 7 63 
Task27 7 63 3 
Task28 7 31 7 
Task29 15 127 63 
Task30 1 255 63 
Task31 7 31 15 
Task32 31 127 31 
Task33 255 31 63 
Task34 31 31 3 
Task35 63 15 3 
Task36 15 63 3 
Task37 3 63 1 
Task38 63 3 7 
Task39 63 63 15 
Task40 63 15 31 
Task41 7 63 127 
Task42 63 15 3 
Task43 3 63 1 
Task44 63 7 7 
Task45 63 7 31 
Task46 63 31 3 
Task47 7 63 7 
Task48 63 15 63 
Task49 127 127 63 
Task50 63 7 1 
Task51 63 31 3 
Task52 1 1 63 
Task53 1 15 63 
Task54 31 7 31 
Task55 63 255 255 
Task56 31 255 15 
Task57 15 1 63 
Task58 63 7 3 
Task59 15 63 3 
Task60 255 31 15 
Task61 7 1 63 
Task62 1 31 63 
Task63 63 1 1 
Task64 31 15 15 
Task65 31 63 63 
Task66 15 15 63 
Task67 63 31 255 
Task68 7 63 1 
Task69 7 3 63 
Task70 63 15 31 
Task71 31 31 31 
Task72 255 255 255 
Task73 31 31 15 
Task74 3 63 1 
Task75 15 3 31 
Task76 31 31 31 
Task77 31 15 63 
Task78 31 7 63 
Task79 63 7 15 
Task80 15 63 3 
Task81 7 7 63 
Task82 127 63 3 
Task83 63 1 63 
Task84 63 15 1 
Task85 255 31 63 
Task86 63 63 63 
Task87 255 63 63 
Task88 3 15 63 
Task89 63 63 31 
Task90 255 1 63 
Task91 7 63 7 
Task92 255 63 255 
Task93 63 1 15 
Task94 15 31 15 
Task95 63 15 15 
Task96 127 31 255 
Task97 63 31 7 
Task98 31 31 63 
Task99 63 7 7 
