0.39818067999999995
Task0 31 31 31 
Task1 63 63 127 
Task2 15 1 63 
Task3 7 31 31 
Task4 63 63 7 
Task5 15 15 63 
Task6 63 7 1 
Task7 7 3 31 
Task8 63 7 31 
Task9 31 3 3 
Task10 31 31 7 
Task11 1 15 63 
Task12 31 63 7 
Task13 63 7 15 
Task14 31 3 3 
Task15 31 63 3 
Task16 255 63 7 
Task17 1 63 1 
Task18 63 31 15 
Task19 15 63 7 
Task20 15 15 63 
Task21 31 63 31 
Task22 3 1 63 
Task23 63 15 15 
Task24 7 1 63 
Task25 7 31 63 
Task26 63 127 31 
Task27 1 3 31 
Task28 31 3 31 
Task29 7 7 31 
Task30 31 31 63 
Task31 15 7 63 
Task32 15 7 63 
Task33 15 31 31 
Task34 1 63 1 
Task35 255 31 255 
Task36 15 3 63 
Task37 3 1 31 
Task38 1 31 7 
Task39 63 15 15 
Task40 15 63 31 
Task41 15 3 63 
Task42 15 31 7 
Task43 15 63 31 
Task44 31 31 15 
Task45 255 255 15 
Task46 31 15 63 
Task47 127 255 63 
Task48 15 255 31 
Task49 63 15 31 
Task50 7 31 31 
Task51 15 15 31 
Task52 31 1 31 
Task53 7 31 1 
Task54 1 15 255 
Task55 31 31 3 
Task56 7 7 31 
Task57 31 7 15 
Task58 255 127 15 
Task59 31 31 31 
Task60 31 15 1 
Task61 63 3 31 
Task62 1 63 3 
Task63 31 63 63 
Task64 1 7 63 
Task65 31 127 255 
Task66 63 127 31 
Task67 31 15 15 
Task68 63 15 3 
Task69 255 127 7 
Task70 63 7 3 
Task71 31 31 1 
Task72 63 31 7 
Task73 31 15 3 
Task74 63 31 7 
Task75 31 15 1 
Task76 63 3 7 
Task77 3 7 63 
Task78 31 1 15 
Task79 3 1 31 
Task80 31 7 1 
Task81 15 31 63 
Task82 15 15 63 
Task83 1 63 31 
Task84 63 7 31 
Task85 1 31 63 
Task86 63 63 31 
Task87 31 7 7 
Task88 1 15 63 
Task89 15 31 31 
Task90 31 3 1 
Task91 63 31 7 
Task92 31 63 15 
Task93 63 7 15 
Task94 3 3 31 
Task95 15 63 15 
Task96 31 15 3 
Task97 255 15 15 
Task98 31 63 31 
Task99 31 31 7 
