0.26008451
Task0 7 63 15 
Task1 15 7 31 
Task2 15 15 15 
Task3 31 1 7 
Task4 31 15 3 
Task5 7 63 3 
Task6 7 1 63 
Task7 31 3 1 
Task8 31 7 7 
Task9 15 1 31 
Task10 31 15 15 
Task11 31 31 7 
Task12 15 31 31 
Task13 63 1 127 
Task14 31 127 15 
Task15 31 15 31 
Task16 63 63 63 
Task17 31 15 7 
Task18 31 7 31 
Task19 3 7 15 
Task20 1 31 31 
Task21 15 15 1 
Task22 7 31 15 
Task23 15 15 3 
Task24 7 31 31 
Task25 15 3 15 
Task26 15 63 1 
Task27 31 7 31 
Task28 1 1 31 
Task29 63 15 3 
Task30 255 7 15 
Task31 15 15 15 
Task32 15 31 15 
Task33 3 15 31 
Task34 7 1 31 
Task35 7 15 15 
Task36 63 7 3 
Task37 15 3 15 
Task38 7 1 63 
Task39 7 15 3 
Task40 7 15 31 
Task41 63 15 3 
Task42 31 7 3 
Task43 15 7 15 
Task44 63 15 1 
Task45 3 3 15 
Task46 1 31 15 
Task47 15 1 1 
Task48 15 15 15 
Task49 7 31 7 
Task50 31 7 3 
Task51 31 15 63 
Task52 7 15 7 
Task53 1 31 3 
Task54 255 31 1 
Task55 63 7 127 
Task56 15 7 7 
Task57 15 15 1 
Task58 15 1 7 
Task59 15 31 31 
Task60 127 31 15 
Task61 15 31 15 
Task62 31 1 3 
Task63 31 127 7 
Task64 7 15 31 
Task65 15 15 15 
Task66 63 15 31 
Task67 15 31 7 
Task68 127 15 255 
Task69 63 255 7 
Task70 31 15 1 
Task71 127 63 31 
Task72 15 127 255 
Task73 15 63 7 
Task74 15 7 31 
Task75 15 15 31 
Task76 15 7 15 
Task77 15 15 63 
Task78 7 7 7 
Task79 3 7 15 
Task80 3 127 63 
Task81 63 31 31 
Task82 15 7 1 
Task83 1 31 31 
Task84 15 1 63 
Task85 1 15 7 
Task86 3 15 63 
Task87 255 127 15 
Task88 31 63 3 
Task89 1 7 3 
Task90 1 3 15 
Task91 1 31 31 
Task92 15 255 7 
Task93 31 31 7 
Task94 63 15 3 
Task95 31 63 15 
Task96 3 63 7 
Task97 63 127 127 
Task98 31 63 63 
Task99 255 127 63 
