1 12
1 13
2 9
2 14
3 12
3 13
3 14
4 10
5 13
5 14
7 11
7 12
7 13
8 12
9 16
9 18
9 19
9 20
9 21
10 21
10 23
10 25
11 15
11 21
11 23
11 24
11 25
11 26
12 15
12 19
12 20
12 25
13 15
13 17
13 18
13 20
14 22
15 28
15 33
15 35
15 37
15 38
16 28
16 31
16 33
16 35
16 36
16 37
16 38
17 28
17 31
17 33
18 27
18 28
18 31
18 33
18 34
19 30
19 31
19 35
19 37
20 29
20 34
20 35
20 36
20 38
21 27
21 34
21 35
21 36
21 38
21 39
22 30
22 31
22 33
22 36
22 38
22 40
23 30
23 31
23 34
23 36
25 37
25 39
26 32
26 35
26 37
26 38
27 44
27 45
27 48
27 49
28 42
28 44
28 47
28 48
28 50
29 42
29 48
29 50
30 51
31 48
31 51
33 42
33 45
33 50
34 41
34 49
35 41
35 49
35 51
36 41
36 43
36 51
37 44
37 49
37 51
38 41
38 42
38 46
38 48
38 49
38 50
39 44
39 46
39 47
39 49
39 51
40 41
40 44
40 46
41 52
41 55
42 52
42 53
42 54
42 56
42 57
43 52
43 54
43 56
43 56
43 57
44 53
44 54
44 57
45 53
45 54
45 55
45 58
47 52
47 57
48 52
48 53
48 57
48 58
49 55
50 55
51 53
51 55
51 56
52 62
52 64
52 67
52 68
52 69
53 63
53 65
53 67
53 69
54 59
54 63
55 59
55 65
55 69
56 60
56 61
56 62
56 63
56 66
56 70
57 59
57 68
58 67
58 68
58 69
59 74
59 75
59 78
59 80
60 73
61 73
62 76
62 81
63 71
63 73
63 74
63 76
63 78
63 80
63 81
63 82
63 83
64 71
64 78
64 81
64 82
64 83
65 72
65 79
65 81
66 73
66 76
66 81
66 82
67 75
67 82
68 71
68 76
68 80
68 81
68 82
69 71
69 73
69 75
69 78
69 80
69 83
70 73
70 77
70 79
70 80
70 82
71 84
71 85
71 87
72 86
73 84
73 85
74 86
74 88
75 85
75 88
76 84
76 85
76 86
76 87
77 84
78 84
78 89
79 86
81 85
81 86
81 88
82 84
82 85
82 86
83 84
83 85
83 88
84 90
84 91
84 93
84 94
85 92
85 93
85 95
85 96
85 98
85 99
86 90
86 96
87 94
87 96
87 97
87 98
87 99
88 92
88 93
88 97
89 90
89 92
89 97
