0.2739894318
Task0 31 15 3 
Task1 1 15 15 
Task2 31 15 15 
Task3 7 31 31 
Task4 1 3 15 
Task5 31 15 3 
Task6 1 1 31 
Task7 15 7 15 
Task8 1 15 7 
Task9 3 15 3 
Task10 31 31 31 
Task11 15 7 1 
Task12 7 15 63 
Task13 15 15 31 
Task14 1 3 15 
Task15 1 31 3 
Task16 3 3 31 
Task17 7 15 31 
Task18 1 7 15 
Task19 63 31 15 
Task20 1 7 31 
Task21 15 3 3 
Task22 255 63 127 
Task23 31 1 31 
Task24 63 255 255 
Task25 15 7 7 
Task26 15 63 3 
Task27 31 31 15 
Task28 7 15 3 
Task29 15 1 15 
Task30 15 3 1 
Task31 15 7 3 
Task32 31 3 31 
Task33 3 1 15 
Task34 3 31 15 
Task35 1 31 3 
Task36 15 1 7 
Task37 15 3 7 
Task38 7 15 1 
Task39 7 7 15 
Task40 15 7 1 
Task41 15 7 31 
Task42 7 15 15 
Task43 15 7 15 
Task44 7 1 15 
Task45 15 15 31 
Task46 15 31 15 
Task47 7 15 15 
Task48 1 15 3 
Task49 15 3 7 
Task50 31 15 7 
Task51 31 7 7 
Task52 1 15 1 
Task53 63 63 31 
Task54 255 255 255 
Task55 7 1 15 
Task56 15 15 15 
Task57 15 15 15 
Task58 31 7 1 
Task59 63 3 15 
Task60 15 3 31 
Task61 31 1 3 
Task62 31 127 127 
Task63 7 31 15 
Task64 31 3 31 
Task65 31 7 3 
Task66 31 15 3 
Task67 1 15 1 
Task68 7 63 3 
Task69 15 31 1 
Task70 15 3 7 
Task71 15 1 1 
Task72 7 31 1 
Task73 31 15 63 
Task74 3 15 31 
Task75 31 7 31 
Task76 15 7 15 
Task77 31 31 7 
Task78 31 1 1 
Task79 7 31 15 
Task80 15 1 3 
Task81 7 3 15 
Task82 7 15 31 
Task83 7 15 31 
Task84 31 15 15 
Task85 15 15 7 
Task86 1 1 15 
Task87 31 3 1 
Task88 31 1 1 
Task89 7 15 7 
Task90 31 15 1 
Task91 31 15 31 
Task92 3 3 15 
Task93 1 7 31 
Task94 7 3 63 
Task95 7 31 3 
Task96 15 3 7 
Task97 15 3 7 
Task98 7 7 15 
Task99 3 7 31 
