0.20474028062356722
Task0 1 1 3 
Task1 15 1 3 
Task2 1 7 7 
Task3 7 7 1 
Task4 3 1 1 
Task5 7 1 31 
Task6 7 3 15 
Task7 1 1 1 
Task8 3 15 3 
Task9 1 3 1 
Task10 3 7 3 
Task11 1 3 3 
Task12 3 3 7 
Task13 7 7 1 
Task14 7 1 1 
Task15 3 3 3 
Task16 1 1 7 
Task17 1 1 3 
Task18 3 3 3 
Task19 3 3 1 
Task20 3 31 3 
Task21 15 7 1 
Task22 7 15 15 
Task23 3 3 7 
Task24 1 7 1 
Task25 1 3 3 
Task26 1 3 7 
Task27 3 1 3 
Task28 3 3 7 
Task29 15 7 1 
Task30 3 3 3 
Task31 1 1 3 
Task32 7 1 1 
Task33 3 1 3 
Task34 3 3 1 
Task35 1 1 3 
Task36 3 1 3 
Task37 7 1 7 
Task38 1 1 7 
Task39 1 1 1 
Task40 15 31 63 
Task41 15 3 15 
Task42 7 7 7 
Task43 1 1 1 
Task44 1 3 3 
Task45 7 7 1 
Task46 15 1 3 
Task47 3 3 3 
Task48 1 7 7 
Task49 7 31 7 
Task50 1 3 1 
Task51 3 3 31 
Task52 3 1 3 
Task53 7 3 31 
Task54 1 1 15 
Task55 31 3 31 
Task56 3 7 1 
Task57 31 7 15 
Task58 1 7 7 
Task59 127 127 63 
Task60 3 1 1 
Task61 63 31 1 
Task62 3 1 1 
Task63 1 1 3 
Task64 15 1 31 
Task65 31 31 1 
Task66 1 1 1 
Task67 1 1 1 
Task68 1 1 1 
Task69 3 15 15 
Task70 1 1 3 
Task71 3 1 15 
Task72 7 1 15 
Task73 7 3 3 
Task74 1 3 3 
Task75 3 7 7 
Task76 1 1 1 
Task77 3 3 7 
Task78 3 3 7 
Task79 7 3 7 
Task80 7 3 1 
Task81 3 3 1 
Task82 1 7 7 
Task83 1 1 1 
Task84 1 1 3 
Task85 7 3 1 
Task86 1 1 15 
Task87 7 3 3 
Task88 127 63 31 
Task89 1 3 1 
Task90 1 3 3 
Task91 31 15 31 
Task92 1 1 1 
Task93 15 7 3 
Task94 3 7 7 
Task95 7 1 63 
Task96 1 3 1 
Task97 3 3 1 
Task98 31 7 3 
Task99 1 1 1 
