Task0 3 1 1 
Task1 1 3 1 
Task2 1 1 1 
Task3 1 1 1 
Task4 1 1 1 
Task5 1 1 1 
Task6 1 1 1 
Task7 1 3 1 
Task8 3 1 1 
Task9 3 1 3 
Task10 1 1 1 
Task11 1 1 3 
Task12 1 1 1 
Task13 1 1 1 
Task14 1 1 1 
Task15 1 1 1 
Task16 1 1 1 
Task17 3 1 1 
Task18 1 1 1 
Task19 1 1 1 
Task20 1 1 1 
Task21 1 1 1 
Task22 1 3 1 
Task23 1 1 1 
Task24 1 1 1 
Task25 3 3 1 
Task26 1 1 1 
Task27 1 1 7 
Task28 1 1 1 
Task29 1 1 1 
Task30 1 1 1 
Task31 1 1 1 
Task32 1 1 1 
Task33 1 3 1 
Task34 1 1 1 
Task35 1 1 1 
Task36 1 3 3 
Task37 1 1 1 
Task38 7 1 1 
Task39 1 1 3 
Task40 1 3 1 
Task41 1 3 1 
Task42 1 3 1 
Task43 1 1 1 
Task44 1 1 3 
Task45 3 3 3 
Task46 1 3 1 
Task47 3 1 3 
Task48 1 1 1 
Task49 1 1 1 
Task50 1 1 1 
Task51 1 1 1 
Task52 1 3 1 
Task53 1 1 1 
Task54 1 1 1 
Task55 1 1 3 
Task56 1 1 1 
Task57 1 1 1 
Task58 3 1 3 
Task59 1 1 3 
Task60 7 15 1 
Task61 1 1 1 
Task62 1 1 1 
Task63 1 1 1 
Task64 1 1 3 
Task65 7 3 3 
Task66 1 1 1 
Task67 1 1 3 
Task68 3 1 1 
Task69 1 1 3 
Task70 7 1 3 
Task71 1 1 1 
Task72 1 1 3 
Task73 1 3 3 
Task74 1 1 1 
Task75 1 1 1 
Task76 3 1 1 
Task77 1 1 1 
Task78 3 1 1 
Task79 1 1 1 
Task80 1 1 3 
Task81 1 1 3 
Task82 1 1 1 
Task83 1 1 1 
Task84 1 1 1 
Task85 1 1 3 
Task86 3 3 1 
Task87 1 3 3 
Task88 3 1 1 
Task89 1 1 1 
Task90 1 1 1 
Task91 1 3 3 
Task92 1 1 1 
Task93 1 1 1 
Task94 1 1 1 
Task95 1 1 1 
Task96 1 3 1 
Task97 1 1 1 
Task98 3 3 1 
Task99 1 1 3 
