0.29304024
Task0 7 15 7 
Task1 15 7 15 
Task2 3 3 15 
Task3 31 15 15 
Task4 3 3 31 
Task5 7 3 31 
Task6 15 31 31 
Task7 31 3 7 
Task8 63 127 31 
Task9 1 31 15 
Task10 1 15 31 
Task11 31 15 1 
Task12 31 3 15 
Task13 31 3 3 
Task14 15 15 7 
Task15 15 31 63 
Task16 31 1 3 
Task17 1 15 31 
Task18 3 31 7 
Task19 3 7 15 
Task20 31 1 7 
Task21 31 31 15 
Task22 31 15 31 
Task23 15 3 31 
Task24 31 1 1 
Task25 1 15 15 
Task26 15 7 1 
Task27 15 31 15 
Task28 15 15 15 
Task29 7 31 1 
Task30 15 7 15 
Task31 31 7 1 
Task32 31 63 1 
Task33 15 31 31 
Task34 1 1 31 
Task35 31 15 7 
Task36 15 1 15 
Task37 15 1 7 
Task38 7 31 1 
Task39 31 7 1 
Task40 31 15 31 
Task41 15 31 7 
Task42 31 15 3 
Task43 3 31 1 
Task44 15 31 1 
Task45 7 15 15 
Task46 31 7 15 
Task47 15 7 31 
Task48 1 15 15 
Task49 15 3 31 
Task50 1 3 31 
Task51 15 31 31 
Task52 63 7 15 
Task53 31 31 31 
Task54 63 255 63 
Task55 15 31 31 
Task56 31 3 7 
Task57 127 255 255 
Task58 31 3 15 
Task59 3 1 31 
Task60 63 15 15 
Task61 31 1 7 
Task62 15 31 3 
Task63 15 15 31 
Task64 63 127 255 
Task65 7 31 3 
Task66 15 7 31 
Task67 7 31 7 
Task68 3 31 1 
Task69 1 31 7 
Task70 1 31 7 
Task71 1 31 7 
Task72 3 31 3 
Task73 3 1 31 
Task74 31 3 1 
Task75 15 3 3 
Task76 15 1 63 
Task77 31 1 63 
Task78 15 15 7 
Task79 3 31 1 
Task80 63 7 15 
Task81 63 1 15 
Task82 15 15 31 
Task83 15 7 3 
Task84 7 7 31 
Task85 3 31 15 
Task86 15 3 15 
Task87 1 15 7 
Task88 15 31 7 
Task89 3 31 31 
Task90 3 7 15 
Task91 15 7 1 
Task92 3 63 15 
Task93 7 15 31 
Task94 31 7 31 
Task95 15 7 31 
Task96 15 1 3 
Task97 7 31 15 
Task98 7 3 15 
Task99 3 1 31 
