0.2493057
Task0 15 7 3 
Task1 15 3 3 
Task2 3 3 15 
Task3 3 7 1 
Task4 15 1 3 
Task5 3 1 31 
Task6 1 1 15 
Task7 3 15 7 
Task8 3 3 15 
Task9 3 31 15 
Task10 15 7 15 
Task11 3 15 3 
Task12 15 7 15 
Task13 127 255 255 
Task14 15 255 63 
Task15 15 15 1 
Task16 7 3 3 
Task17 7 15 31 
Task18 1 255 7 
Task19 3 15 7 
Task20 7 1 15 
Task21 1 31 15 
Task22 3 7 7 
Task23 31 15 63 
Task24 7 7 15 
Task25 31 7 7 
Task26 7 15 15 
Task27 1 31 31 
Task28 7 7 7 
Task29 15 7 15 
Task30 15 7 31 
Task31 15 31 7 
Task32 15 7 3 
Task33 3 7 7 
Task34 7 3 15 
Task35 15 7 7 
Task36 15 3 3 
Task37 3 7 7 
Task38 7 1 15 
Task39 7 31 15 
Task40 15 3 1 
Task41 3 7 7 
Task42 3 15 7 
Task43 3 1 15 
Task44 63 15 3 
Task45 31 7 15 
Task46 3 3 15 
Task47 1 7 15 
Task48 1 15 15 
Task49 1 15 7 
Task50 1 3 15 
Task51 7 15 15 
Task52 15 7 15 
Task53 15 15 3 
Task54 7 31 7 
Task55 7 31 15 
Task56 1 63 31 
Task57 7 7 3 
Task58 15 1 7 
Task59 7 7 7 
Task60 255 127 127 
Task61 7 15 7 
Task62 31 31 63 
Task63 31 7 7 
Task64 31 7 7 
Task65 7 255 3 
Task66 1 1 15 
Task67 31 15 3 
Task68 7 15 1 
Task69 1 7 3 
Task70 1 15 1 
Task71 1 7 15 
Task72 31 63 31 
Task73 63 31 3 
Task74 7 15 1 
Task75 15 7 7 
Task76 15 3 1 
Task77 15 1 3 
Task78 1 15 63 
Task79 7 1 31 
Task80 15 1 1 
Task81 31 7 15 
Task82 7 1 7 
Task83 3 15 7 
Task84 15 3 15 
Task85 31 1 15 
Task86 31 7 7 
Task87 15 31 15 
Task88 31 1 3 
Task89 3 31 31 
Task90 15 1 7 
Task91 7 7 7 
Task92 3 3 15 
Task93 15 31 15 
Task94 3 1 15 
Task95 31 7 31 
Task96 31 15 15 
Task97 1 3 7 
Task98 7 1 1 
Task99 63 31 15 
