0.26855624000000006
Task0 15 7 1 
Task1 1 7 15 
Task2 1 31 7 
Task3 15 7 1 
Task4 15 7 31 
Task5 1 1 7 
Task6 7 15 1 
Task7 1 15 15 
Task8 1 3 15 
Task9 7 31 7 
Task10 7 7 31 
Task11 15 7 7 
Task12 3 7 7 
Task13 3 15 1 
Task14 1 15 3 
Task15 7 3 15 
Task16 3 1 15 
Task17 15 15 3 
Task18 3 31 15 
Task19 1 15 7 
Task20 7 15 7 
Task21 7 15 7 
Task22 7 15 7 
Task23 3 3 7 
Task24 15 15 1 
Task25 3 15 1 
Task26 1 7 15 
Task27 3 7 15 
Task28 3 15 1 
Task29 1 15 3 
Task30 3 3 15 
Task31 3 15 7 
Task32 3 7 3 
Task33 3 1 15 
Task34 31 15 31 
Task35 1 7 15 
Task36 15 3 1 
Task37 7 7 15 
Task38 31 15 31 
Task39 15 7 15 
Task40 1 1 15 
Task41 15 7 7 
Task42 127 255 63 
Task43 7 7 7 
Task44 63 63 31 
Task45 15 7 15 
Task46 3 15 15 
Task47 15 3 3 
Task48 3 31 7 
Task49 15 3 3 
Task50 63 31 15 
Task51 31 63 15 
Task52 7 3 15 
Task53 3 3 7 
Task54 15 7 7 
Task55 31 7 31 
Task56 31 7 1 
Task57 7 15 3 
Task58 7 7 7 
Task59 15 1 15 
Task60 1 31 7 
Task61 15 7 1 
Task62 15 63 15 
Task63 7 7 15 
Task64 15 15 7 
Task65 15 7 7 
Task66 15 1 15 
Task67 31 63 63 
Task68 7 7 15 
Task69 3 1 15 
Task70 31 1 7 
Task71 3 3 7 
Task72 255 255 7 
Task73 7 3 15 
Task74 1 3 7 
Task75 1 15 31 
Task76 31 3 3 
Task77 7 1 7 
Task78 3 1 7 
Task79 15 15 3 
Task80 31 7 15 
Task81 7 3 7 
Task82 15 7 1 
Task83 15 31 1 
Task84 15 3 7 
Task85 7 15 3 
Task86 15 1 3 
Task87 7 15 7 
Task88 1 7 7 
Task89 3 15 3 
Task90 63 63 1 
Task91 7 15 3 
Task92 31 31 63 
Task93 31 63 15 
Task94 3 15 31 
Task95 15 15 3 
Task96 255 63 127 
Task97 7 63 63 
Task98 3 15 15 
Task99 15 1 1 
