files/tasks_parameters/ExAp01/sample8.txt 0.746906 3.15778 1.5595 0.203411 5.24944
files/tasks_parameters/ExAp01/sample12.txt 0.808326 3.94962 1.6705 0.207924 5.3659
files/tasks_parameters/ExAp01/sample2.txt 0.772782 3.78275 1.74131 0.200098 5.16393
files/tasks_parameters/ExAp01/sample44.txt 0.746675 3.59825 1.65317 0.200005 5.16154
files/tasks_parameters/ExAp01/sample27.txt 0.702904 3.45743 1.5148 0.182129 4.7002
files/tasks_parameters/ExAp01/sample17.txt 0.582686 2.77299 1.44514 0.14646 3.77969
files/tasks_parameters/ExAp01/sample9.txt 0.677828 2.99933 1.451 0.177444 4.57929
files/tasks_parameters/ExAp01/sample34.txt 0.615964 3.02928 1.58429 0.157984 4.07709
files/tasks_parameters/ExAp01/sample40.txt 0.671515 3.86889 1.52122 0.168379 4.34537
files/tasks_parameters/ExAp01/sample33.txt 0.7524 3.63695 1.71905 0.199765 5.15534
files/tasks_parameters/ExAp01/sample48.txt 0.615626 3.39061 1.49062 0.154728 3.99308
files/tasks_parameters/ExAp01/sample29.txt 0.813272 3.30472 1.38739 0.223868 5.77737
files/tasks_parameters/ExAp01/sample11.txt 0.650838 3.10585 1.41612 0.174079 4.49245
files/tasks_parameters/ExAp01/sample14.txt 0.603787 2.70971 1.43432 0.162214 4.18627
files/tasks_parameters/ExAp01/sample0.txt 0.716378 3.6937 1.5439 0.18367 4.73997
files/tasks_parameters/ExAp01/sample7.txt 0.580366 2.70501 1.42221 0.143463 3.70236
files/tasks_parameters/ExAp01/sample23.txt 0.712334 3.2697 1.57822 0.181448 4.68265
files/tasks_parameters/ExAp01/sample13.txt 0.756279 3.84225 1.67648 0.198247 5.11617
files/tasks_parameters/ExAp01/sample22.txt 0.588501 3.09569 1.56121 0.148796 3.83999
files/tasks_parameters/ExAp01/sample25.txt 0.535589 2.73966 1.5007 0.148149 3.82328
files/tasks_parameters/ExAp01/sample36.txt 0.529307 2.85948 1.28553 0.130042 3.356
files/tasks_parameters/ExAp01/sample46.txt 0.760462 3.58643 1.69998 0.210103 5.42213
files/tasks_parameters/ExAp01/sample31.txt 0.700194 3.4832 1.53782 0.1722 4.44397
files/tasks_parameters/ExAp01/sample37.txt 0.679741 3.95293 1.50705 0.171701 4.43109
files/tasks_parameters/ExAp01/sample16.txt 0.612062 3.31216 1.30115 0.150249 3.87748
files/tasks_parameters/ExAp01/sample10.txt 0.643401 3.17098 1.61789 0.153776 3.96851
files/tasks_parameters/ExAp01/sample39.txt 0.634278 3.26617 1.44406 0.165669 4.27542
files/tasks_parameters/ExAp01/sample19.txt 0.774909 3.63532 1.52509 0.196094 5.06061
files/tasks_parameters/ExAp01/sample20.txt 0.568754 3.20793 1.25367 0.147335 3.80229
files/tasks_parameters/ExAp01/sample43.txt 0.58209 3.11551 1.4202 0.150644 3.88769
files/tasks_parameters/ExAp01/sample32.txt 0.704069 3.5311 1.42482 0.168744 4.35479
files/tasks_parameters/ExAp01/sample45.txt 0.758818 3.80283 1.48324 0.19807 5.11161
files/tasks_parameters/ExAp01/sample26.txt 0.623357 3.21645 1.29701 0.166061 4.28555
files/tasks_parameters/ExAp01/sample5.txt 0.676889 3.5889 1.52559 0.178903 4.61696
files/tasks_parameters/ExAp01/sample21.txt 0.733425 2.75242 1.55936 0.19512 5.03548
files/tasks_parameters/ExAp01/sample38.txt 0.632046 3.31563 1.37515 0.166157 4.28801
files/tasks_parameters/ExAp01/sample1.txt 0.744422 3.74964 1.51696 0.19701 5.08423
files/tasks_parameters/ExAp01/sample15.txt 0.684261 3.32916 1.48508 0.180707 4.66352
files/tasks_parameters/ExAp01/sample24.txt 0.654566 3.45951 1.59549 0.16529 4.26565
files/tasks_parameters/ExAp01/sample3.txt 0.931514 3.70014 1.70809 0.237107 6.11903
files/tasks_parameters/ExAp01/sample6.txt 0.67917 3.33003 1.58323 0.184714 4.76693
files/tasks_parameters/ExAp01/sample30.txt 0.940163 4.1841 1.4861 0.239623 6.18396
files/tasks_parameters/ExAp01/sample42.txt 0.674509 3.43221 1.70276 0.177383 4.57772
files/tasks_parameters/ExAp01/sample4.txt 0.781152 3.72477 1.6136 0.196448 5.06974
files/tasks_parameters/ExAp01/sample28.txt 0.610081 3.11323 1.45032 0.158819 4.09865
files/tasks_parameters/ExAp01/sample18.txt 0.598195 3.47418 1.45209 0.149064 3.84689
files/tasks_parameters/ExAp01/sample35.txt 0.76324 4.57086 1.49394 0.185031 4.77509
files/tasks_parameters/ExAp01/sample47.txt 0.645723 3.13768 1.52397 0.16417 4.23674
files/tasks_parameters/ExAp01/sample49.txt 0.631194 3.13288 1.49657 0.156154 4.02987
files/tasks_parameters/ExAp01/sample41.txt 0.578641 2.81964 1.49636 0.150876 3.89366
