digraph G {
0 ->10 0 ->13 0 ->14 0 ->18 1 ->10 1 ->14 1 ->18 1 ->18 1 ->19 2 ->15 3 ->9 3 ->13 3 ->15 3 ->16 4 ->12 4 ->13 4 ->14 4 ->15 4 ->16 4 ->17 4 ->19 5 ->14 5 ->15 5 ->18 6 ->11 6 ->14 6 ->17 7 ->11 7 ->17 8 ->11 8 ->13 9 ->22 10 ->22 10 ->24 10 ->25 10 ->26 10 ->27 10 ->29 11 ->20 11 ->25 11 ->26 11 ->27 12 ->25 12 ->26 12 ->29 13 ->23 13 ->27 14 ->27 14 ->28 15 ->22 15 ->29 16 ->22 16 ->24 16 ->29 16 ->30 17 ->29 18 ->21 18 ->24 19 ->24 19 ->30 20 ->32 20 ->34 21 ->34 21 ->35 22 ->35 22 ->36 22 ->37 23 ->32 23 ->38 24 ->31 24 ->34 24 ->35 25 ->36 25 ->37 26 ->37 26 ->38 27 ->35 28 ->32 28 ->33 29 ->33 29 ->34 29 ->35 29 ->37 31 ->40 31 ->41 31 ->43 31 ->44 31 ->46 31 ->47 32 ->44 32 ->45 33 ->40 33 ->41 34 ->41 34 ->47 35 ->42 36 ->46 36 ->47 37 ->41 37 ->44 37 ->45 38 ->39 38 ->44 38 ->45 38 ->47 38 ->48 39 ->51 39 ->52 39 ->53 39 ->55 40 ->50 40 ->53 40 ->55 41 ->49 41 ->54 42 ->49 43 ->54 43 ->56 44 ->49 44 ->53 46 ->49 46 ->52 46 ->55 46 ->56 47 ->50 47 ->51 48 ->49 48 ->52 48 ->53 49 ->57 49 ->58 49 ->62 49 ->63 51 ->63 52 ->57 52 ->60 52 ->62 53 ->58 53 ->59 53 ->60 53 ->64 54 ->58 54 ->59 54 ->62 55 ->58 55 ->62 55 ->63 56 ->61 56 ->63 56 ->65 57 ->66 57 ->74 58 ->75 59 ->67 59 ->68 59 ->69 59 ->71 59 ->73 59 ->74 60 ->66 60 ->67 60 ->68 60 ->70 60 ->73 61 ->66 61 ->72 61 ->73 61 ->74 62 ->68 62 ->72 62 ->73 63 ->67 63 ->72 63 ->73 64 ->66 64 ->70 64 ->72 65 ->67 65 ->68 65 ->70 65 ->72 65 ->74 66 ->76 66 ->78 66 ->79 67 ->78 68 ->78 69 ->78 69 ->80 69 ->82 69 ->83 70 ->78 70 ->82 70 ->83 71 ->76 71 ->77 71 ->82 71 ->83 72 ->76 72 ->79 72 ->83 73 ->76 73 ->79 73 ->81 74 ->80 75 ->76 75 ->79 75 ->80 76 ->87 76 ->91 77 ->84 77 ->85 77 ->87 77 ->88 77 ->91 78 ->84 78 ->85 78 ->88 78 ->89 78 ->91 78 ->92 80 ->86 80 ->89 80 ->92 81 ->84 81 ->88 81 ->89 82 ->84 82 ->88 82 ->90 82 ->92 83 ->85 84 ->94 84 ->99 85 ->95 86 ->93 87 ->94 87 ->97 88 ->93 88 ->96 89 ->97 91 ->93 91 ->98 92 ->94 
}
