digraph G {
0 ->10 0 ->16 1 ->13 1 ->14 2 ->11 2 ->12 2 ->13 4 ->8 4 ->11 4 ->12 4 ->15 5 ->9 5 ->10 5 ->12 5 ->17 6 ->9 6 ->10 6 ->11 6 ->14 7 ->10 7 ->13 7 ->16 8 ->19 8 ->22 8 ->24 9 ->21 9 ->24 10 ->23 10 ->24 10 ->25 11 ->21 11 ->23 12 ->23 13 ->20 13 ->23 13 ->24 13 ->25 14 ->18 15 ->18 15 ->22 15 ->25 16 ->21 16 ->22 16 ->25 17 ->19 17 ->22 17 ->23 18 ->26 18 ->31 19 ->36 20 ->33 20 ->34 21 ->28 21 ->30 21 ->32 21 ->34 21 ->35 21 ->36 22 ->33 22 ->35 23 ->26 23 ->28 23 ->31 23 ->32 23 ->34 23 ->35 23 ->36 24 ->26 24 ->29 24 ->30 24 ->32 24 ->35 25 ->26 25 ->27 25 ->29 25 ->31 25 ->33 26 ->39 26 ->45 27 ->37 29 ->40 29 ->41 29 ->45 29 ->46 30 ->42 30 ->43 31 ->38 32 ->38 32 ->40 32 ->43 32 ->45 32 ->46 33 ->41 33 ->42 33 ->44 33 ->45 34 ->38 34 ->41 34 ->42 34 ->45 35 ->37 35 ->42 35 ->44 35 ->46 36 ->40 36 ->41 36 ->42 36 ->46 37 ->48 37 ->50 37 ->51 37 ->53 38 ->53 39 ->47 39 ->54 40 ->49 41 ->47 41 ->48 41 ->53 42 ->47 42 ->48 42 ->50 42 ->51 42 ->52 43 ->47 43 ->52 43 ->53 44 ->50 44 ->52 45 ->50 45 ->52 45 ->53 46 ->47 46 ->50 46 ->52 46 ->54 47 ->60 48 ->56 48 ->58 48 ->60 48 ->63 50 ->55 50 ->57 51 ->61 52 ->55 52 ->59 52 ->60 53 ->55 53 ->56 53 ->62 54 ->55 54 ->60 55 ->70 56 ->66 56 ->67 56 ->69 57 ->67 57 ->68 57 ->69 57 ->71 58 ->64 58 ->66 58 ->68 58 ->69 59 ->66 59 ->67 59 ->70 60 ->66 60 ->70 61 ->65 61 ->66 61 ->71 62 ->65 62 ->68 62 ->69 62 ->71 63 ->68 63 ->69 64 ->74 64 ->75 64 ->76 64 ->77 65 ->72 65 ->77 65 ->78 66 ->73 66 ->75 66 ->78 67 ->74 67 ->78 67 ->79 68 ->74 69 ->72 69 ->77 69 ->78 69 ->79 70 ->79 71 ->72 71 ->74 71 ->75 71 ->76 71 ->80 72 ->83 72 ->85 72 ->86 72 ->88 73 ->82 74 ->84 74 ->88 75 ->85 75 ->86 76 ->84 76 ->86 76 ->87 77 ->82 77 ->84 78 ->87 79 ->81 79 ->82 79 ->85 79 ->88 80 ->84 80 ->85 81 ->90 81 ->95 82 ->91 82 ->92 82 ->93 82 ->96 83 ->91 83 ->92 83 ->96 84 ->93 84 ->95 85 ->89 85 ->95 86 ->90 86 ->92 87 ->90 87 ->91 87 ->94 88 ->90 88 ->93 88 ->94 89 ->97 89 ->99 90 ->99 92 ->99 93 ->98 94 ->97 94 ->98 95 ->97 96 ->97 96 ->99 
}
