digraph G {
0 ->11 0 ->12 1 ->10 1 ->11 1 ->16 2 ->10 2 ->13 2 ->14 2 ->16 3 ->10 3 ->16 4 ->9 4 ->13 4 ->14 4 ->15 5 ->10 5 ->16 6 ->9 6 ->10 6 ->13 6 ->14 6 ->16 7 ->9 7 ->14 7 ->15 8 ->11 9 ->22 9 ->23 9 ->25 10 ->19 10 ->21 10 ->22 10 ->24 12 ->22 12 ->24 13 ->17 13 ->18 13 ->19 13 ->20 13 ->21 14 ->17 14 ->21 14 ->25 15 ->21 16 ->17 16 ->20 16 ->25 17 ->29 17 ->30 17 ->31 18 ->28 18 ->29 18 ->33 18 ->35 19 ->27 19 ->32 19 ->33 19 ->34 20 ->27 20 ->32 20 ->33 21 ->35 22 ->29 22 ->31 24 ->26 24 ->28 24 ->32 25 ->28 25 ->32 26 ->36 26 ->40 27 ->37 27 ->42 27 ->45 28 ->42 29 ->41 29 ->43 29 ->44 30 ->37 30 ->38 30 ->39 30 ->43 30 ->44 31 ->36 31 ->37 31 ->39 31 ->44 32 ->36 32 ->44 33 ->36 33 ->37 33 ->38 33 ->39 33 ->41 33 ->45 34 ->37 34 ->39 34 ->44 35 ->36 35 ->43 36 ->47 36 ->49 36 ->50 36 ->54 37 ->46 37 ->50 37 ->51 37 ->52 37 ->54 37 ->56 38 ->51 38 ->53 38 ->55 38 ->56 39 ->46 39 ->49 39 ->52 39 ->53 39 ->55 39 ->56 40 ->46 40 ->49 40 ->52 40 ->53 40 ->54 40 ->55 41 ->48 41 ->50 41 ->51 41 ->54 41 ->56 42 ->47 42 ->49 42 ->50 42 ->53 42 ->54 43 ->46 43 ->48 43 ->50 43 ->51 43 ->52 44 ->46 45 ->47 45 ->49 45 ->55 46 ->60 46 ->62 47 ->60 47 ->61 47 ->63 48 ->58 48 ->60 48 ->61 48 ->63 49 ->57 49 ->60 49 ->63 50 ->58 50 ->62 50 ->64 51 ->57 51 ->58 51 ->64 52 ->57 52 ->58 52 ->60 53 ->57 53 ->58 53 ->59 53 ->64 54 ->59 54 ->63 55 ->59 55 ->64 56 ->57 56 ->58 56 ->59 56 ->60 56 ->61 57 ->68 57 ->74 58 ->65 58 ->67 58 ->69 58 ->70 58 ->71 58 ->73 58 ->74 59 ->67 59 ->68 59 ->69 59 ->71 59 ->72 60 ->66 60 ->67 60 ->69 60 ->72 60 ->72 60 ->74 61 ->66 61 ->74 62 ->66 62 ->70 62 ->73 63 ->66 63 ->72 63 ->73 64 ->67 64 ->71 65 ->77 65 ->81 66 ->75 66 ->78 66 ->79 66 ->80 67 ->79 67 ->82 68 ->76 68 ->80 69 ->75 70 ->75 70 ->81 70 ->82 71 ->75 71 ->82 72 ->75 72 ->80 73 ->76 73 ->79 73 ->82 74 ->79 74 ->82 75 ->85 75 ->86 75 ->88 76 ->85 77 ->84 77 ->87 78 ->83 78 ->90 79 ->87 79 ->88 79 ->90 80 ->89 80 ->90 81 ->87 81 ->89 82 ->83 82 ->85 82 ->88 83 ->95 83 ->97 84 ->92 84 ->95 84 ->99 85 ->91 85 ->92 85 ->93 85 ->98 85 ->99 86 ->98 87 ->92 87 ->94 87 ->95 87 ->97 88 ->91 88 ->94 88 ->96 89 ->95 89 ->97 89 ->98 90 ->91 90 ->92 90 ->96 90 ->97 90 ->98 
}
