digraph G {
0 ->11 0 ->14 0 ->15 0 ->16 1 ->13 1 ->14 2 ->9 2 ->10 2 ->11 2 ->12 2 ->13 3 ->11 3 ->12 4 ->10 4 ->11 4 ->12 5 ->10 5 ->11 5 ->16 5 ->17 6 ->16 6 ->17 8 ->10 8 ->12 9 ->18 10 ->25 10 ->26 10 ->28 11 ->24 11 ->25 11 ->27 12 ->18 12 ->27 13 ->18 13 ->20 13 ->25 13 ->28 14 ->23 14 ->25 16 ->18 16 ->21 17 ->18 17 ->19 17 ->21 17 ->22 17 ->28 18 ->29 18 ->32 18 ->34 19 ->29 19 ->30 19 ->34 20 ->29 20 ->30 20 ->39 21 ->31 22 ->31 22 ->34 23 ->31 24 ->35 24 ->36 25 ->37 25 ->38 26 ->29 26 ->31 26 ->32 26 ->33 26 ->34 26 ->39 27 ->32 27 ->39 29 ->43 29 ->46 30 ->41 30 ->44 30 ->47 30 ->49 30 ->50 31 ->43 32 ->43 32 ->44 32 ->46 32 ->48 32 ->49 32 ->50 33 ->42 33 ->47 33 ->48 34 ->46 34 ->47 35 ->40 35 ->43 35 ->44 35 ->46 35 ->49 35 ->50 36 ->45 36 ->48 36 ->50 37 ->43 37 ->44 37 ->45 37 ->46 37 ->47 38 ->41 38 ->43 38 ->44 39 ->44 39 ->47 40 ->55 41 ->51 42 ->51 42 ->59 44 ->54 44 ->55 44 ->57 45 ->52 45 ->53 45 ->56 46 ->53 46 ->54 47 ->53 47 ->56 48 ->54 48 ->57 48 ->58 48 ->59 49 ->52 49 ->53 49 ->54 49 ->56 49 ->58 50 ->52 51 ->60 51 ->63 51 ->65 51 ->66 52 ->62 52 ->64 53 ->61 53 ->64 53 ->67 54 ->63 54 ->64 54 ->67 55 ->64 55 ->65 55 ->67 56 ->62 56 ->63 56 ->64 57 ->61 58 ->60 58 ->61 59 ->61 60 ->68 60 ->70 60 ->73 60 ->77 61 ->68 61 ->71 61 ->74 62 ->69 62 ->71 62 ->77 63 ->72 64 ->71 64 ->72 64 ->75 65 ->71 65 ->72 65 ->75 65 ->76 66 ->72 66 ->75 66 ->76 67 ->70 67 ->74 68 ->78 68 ->81 68 ->86 69 ->79 69 ->82 69 ->84 69 ->86 70 ->83 70 ->84 70 ->86 71 ->82 71 ->83 71 ->85 72 ->78 72 ->81 72 ->82 72 ->85 72 ->86 73 ->81 74 ->78 74 ->80 74 ->81 74 ->84 75 ->82 75 ->83 75 ->84 76 ->78 76 ->79 76 ->81 76 ->82 76 ->83 77 ->83 77 ->85 78 ->89 78 ->90 79 ->90 79 ->91 79 ->93 80 ->88 80 ->90 81 ->88 81 ->89 81 ->92 82 ->88 82 ->90 82 ->92 83 ->87 83 ->89 83 ->90 83 ->93 83 ->95 84 ->89 84 ->92 84 ->94 85 ->92 85 ->94 86 ->87 86 ->91 87 ->98 88 ->97 88 ->98 89 ->96 89 ->97 89 ->99 90 ->96 90 ->97 90 ->99 92 ->96 95 ->98 95 ->99 
}
