files/tasks_parameters/ExAp01/sample8.txt 0.822896 3.15778 1.5595 0.203411 5.57978
files/tasks_parameters/ExAp01/sample12.txt 0.753316 3.94962 1.6705 0.207924 5.70357
files/tasks_parameters/ExAp01/sample2.txt 0.738912 3.78275 1.74131 0.200098 5.48889
files/tasks_parameters/ExAp01/sample44.txt 0.697511 3.59825 1.65317 0.200005 5.48635
files/tasks_parameters/ExAp01/sample27.txt 0.709914 3.45743 1.5148 0.182129 4.99598
files/tasks_parameters/ExAp01/sample17.txt 0.553145 2.77299 1.44514 0.14646 4.01755
files/tasks_parameters/ExAp01/sample9.txt 0.649892 2.99933 1.451 0.177444 4.86746
files/tasks_parameters/ExAp01/sample34.txt 0.624958 3.02928 1.58429 0.157984 4.33366
files/tasks_parameters/ExAp01/sample40.txt 0.597698 3.86889 1.52122 0.168379 4.61882
files/tasks_parameters/ExAp01/sample33.txt 0.694336 3.63695 1.71905 0.199765 5.47976
files/tasks_parameters/ExAp01/sample48.txt 0.601919 3.39061 1.49062 0.154728 4.24436
files/tasks_parameters/ExAp01/sample29.txt 0.822409 3.30472 1.38739 0.223868 6.14094
files/tasks_parameters/ExAp01/sample11.txt 0.619727 3.10585 1.41612 0.174079 4.77516
files/tasks_parameters/ExAp01/sample14.txt 0.583151 2.70971 1.43432 0.162214 4.44971
files/tasks_parameters/ExAp01/sample0.txt 0.698749 3.6937 1.5439 0.18367 5.03826
files/tasks_parameters/ExAp01/sample7.txt 0.57337 2.70501 1.42221 0.143463 3.93535
files/tasks_parameters/ExAp01/sample23.txt 0.674714 3.2697 1.57822 0.181448 4.97732
files/tasks_parameters/ExAp01/sample13.txt 0.693628 3.84225 1.67648 0.198247 5.43813
files/tasks_parameters/ExAp01/sample22.txt 0.654901 3.09569 1.56121 0.148796 4.08164
files/tasks_parameters/ExAp01/sample25.txt 0.557167 2.73966 1.5007 0.148149 4.06387
files/tasks_parameters/ExAp01/sample36.txt 0.496589 2.85948 1.28553 0.130042 3.5672
files/tasks_parameters/ExAp01/sample46.txt 0.771143 3.58643 1.69998 0.210103 5.76334
files/tasks_parameters/ExAp01/sample31.txt 0.620591 3.4832 1.53782 0.1722 4.72363
files/tasks_parameters/ExAp01/sample37.txt 0.661467 3.95293 1.50705 0.171701 4.70994
files/tasks_parameters/ExAp01/sample16.txt 0.565168 3.31216 1.30115 0.150249 4.12149
files/tasks_parameters/ExAp01/sample10.txt 0.613459 3.17098 1.61789 0.153776 4.21825
files/tasks_parameters/ExAp01/sample39.txt 0.638041 3.26617 1.44406 0.165669 4.54447
files/tasks_parameters/ExAp01/sample19.txt 0.708297 3.63532 1.52509 0.196094 5.37908
files/tasks_parameters/ExAp01/sample20.txt 0.559706 3.20793 1.25367 0.147335 4.04157
files/tasks_parameters/ExAp01/sample43.txt 0.586544 3.11551 1.4202 0.150644 4.13234
files/tasks_parameters/ExAp01/sample32.txt 0.63366 3.5311 1.42482 0.168744 4.62883
files/tasks_parameters/ExAp01/sample45.txt 0.723964 3.80283 1.48324 0.19807 5.43328
files/tasks_parameters/ExAp01/sample26.txt 0.621436 3.21645 1.29701 0.166061 4.55524
files/tasks_parameters/ExAp01/sample5.txt 0.701611 3.5889 1.52559 0.178903 4.90751
files/tasks_parameters/ExAp01/sample21.txt 0.744873 2.75242 1.55936 0.19512 5.35236
files/tasks_parameters/ExAp01/sample38.txt 0.645711 3.31563 1.37515 0.166157 4.55786
files/tasks_parameters/ExAp01/sample1.txt 0.744197 3.74964 1.51696 0.19701 5.40418
files/tasks_parameters/ExAp01/sample15.txt 0.672427 3.32916 1.48508 0.180707 4.957
files/tasks_parameters/ExAp01/sample24.txt 0.678927 3.45951 1.59549 0.16529 4.53409
files/tasks_parameters/ExAp01/sample3.txt 0.987121 3.70014 1.70809 0.237107 6.5041
files/tasks_parameters/ExAp01/sample6.txt 0.657218 3.33003 1.58323 0.184714 5.06691
files/tasks_parameters/ExAp01/sample30.txt 0.940722 4.1841 1.4861 0.239623 6.57311
files/tasks_parameters/ExAp01/sample42.txt 0.739904 3.43221 1.70276 0.177383 4.8658
files/tasks_parameters/ExAp01/sample4.txt 0.77315 3.72477 1.6136 0.196448 5.38878
files/tasks_parameters/ExAp01/sample28.txt 0.613206 3.11323 1.45032 0.158819 4.35657
files/tasks_parameters/ExAp01/sample18.txt 0.607952 3.47418 1.45209 0.149064 4.08898
files/tasks_parameters/ExAp01/sample35.txt 0.76536 4.57086 1.49394 0.185031 5.07559
files/tasks_parameters/ExAp01/sample47.txt 0.631528 3.13768 1.52397 0.16417 4.50336
files/tasks_parameters/ExAp01/sample49.txt 0.600822 3.13288 1.49657 0.156154 4.28347
files/tasks_parameters/ExAp01/sample41.txt 0.590819 2.81964 1.49636 0.150876 4.13869
