0.40682218
Task0 255 7 63 
Task1 255 255 63 
Task2 15 255 7 
Task3 1 255 31 
Task4 3 255 31 
Task5 1 63 1 
Task6 63 127 255 
Task7 7 31 31 
Task8 127 63 255 
Task9 63 31 1 
Task10 127 127 255 
Task11 255 255 31 
Task12 63 127 15 
Task13 7 15 127 
Task14 31 63 7 
Task15 31 63 1 
Task16 63 31 7 
Task17 63 127 255 
Task18 255 7 7 
Task19 255 127 63 
Task20 31 63 127 
Task21 15 255 1 
Task22 3 7 63 
Task23 63 7 7 
Task24 7 255 3 
Task25 3 3 63 
Task26 63 1 31 
Task27 127 15 31 
Task28 255 63 127 
Task29 255 63 7 
Task30 31 15 255 
Task31 255 15 31 
Task32 15 127 255 
Task33 15 63 255 
Task34 63 63 31 
Task35 255 127 255 
Task36 255 31 127 
Task37 31 63 15 
Task38 15 7 63 
Task39 7 255 15 
Task40 7 3 63 
Task41 255 3 7 
Task42 255 63 127 
Task43 255 31 63 
Task44 63 7 127 
Task45 255 7 15 
Task46 255 63 31 
Task47 31 15 255 
Task48 3 255 15 
Task49 255 63 127 
Task50 7 31 255 
Task51 127 63 15 
Task52 63 63 3 
Task53 31 255 255 
Task54 31 1 255 
Task55 15 255 7 
Task56 15 63 127 
Task57 127 255 255 
Task58 1 7 255 
Task59 31 63 15 
Task60 7 63 7 
Task61 127 255 15 
Task62 255 63 63 
Task63 127 1 255 
Task64 3 255 63 
Task65 1 7 63 
Task66 255 63 255 
Task67 63 7 255 
Task68 255 15 3 
Task69 127 63 31 
Task70 7 15 255 
Task71 31 63 15 
Task72 31 63 15 
Task73 255 1 7 
Task74 31 255 127 
Task75 63 31 7 
Task76 63 255 255 
Task77 31 255 63 
Task78 63 31 63 
Task79 31 63 1 
Task80 63 31 31 
Task81 7 127 63 
Task82 31 31 63 
Task83 3 1 255 
Task84 127 127 127 
Task85 31 31 7 
Task86 63 7 127 
Task87 31 255 7 
Task88 7 1 63 
Task89 15 31 255 
Task90 63 127 15 
Task91 255 31 255 
Task92 31 63 63 
Task93 3 3 63 
Task94 63 31 7 
Task95 63 15 63 
Task96 63 63 63 
Task97 127 63 127 
Task98 127 127 31 
Task99 7 1 255 
