Task0 0.08004427904355044 0.16624448794624427 0.008824863021479284 0.07509769600608776 0.07670018505474498 0.11241556072832783 0.4532684071577804 0.5138350387726347 0.6290153508376646 0.6335219999801289 0.9391539618031233 
Task1 0.009493857397012239 0.03751540753583732 0.13433156533052923 0.04308796188721759 0.11129586427069396 0.06721837353181835 0.6047436139692506 0.579156644458189 0.7139239138774667 0.7592139321759414 0.9598724647837793 
Task2 0.006063417352683767 0.06451405709213805 0.11643895161678013 0.10902415262393682 0.056573365188640375 0.00953544683293049 0.8957526970012679 0.6403910696381898 0.643057579903145 0.9047734919750263 0.6790654489215331 
Task3 0.09361671977390164 0.07639899412752328 0.16406929224290237 0.16787502642752467 0.07961332447107691 0.2083999600193036 0.6058554965086724 0.7043287375191258 0.59703965198014 0.965045844017929 0.42257711190580827 
Task4 0.026098201536845965 0.08570236785948886 0.06986251077037285 0.03852376245410921 0.056025791303881155 0.12803172630194337 0.7126628945801545 0.4464713473705665 0.7686513822038318 0.31500473804821083 0.5231148725952599 
Task5 0.016324715442547436 0.14451997539814532 0.25349811823173873 0.04389832923630584 0.1405767234351178 0.22984214640157816 0.8237805443923596 0.9625534070273938 0.828714341264964 0.3616156724498394 0.9224481838486973 
Task6 0.0013160891943807772 0.006518892255372288 0.031162893138783402 0.0014744827167657132 0.019225278123137995 0.007291054846203202 0.8530371807085853 0.34995016418757785 0.7666022346589033 0.7601047798228684 0.4679610645324349 
Task7 0.000321188550198187 0.0005562245685628178 0.00037837856602947764 7.3863416654180325e-06 0.00017034762181109342 0.0006267133250901708 0.4655699871941946 0.787098467997341 0.32132987694067505 0.40475191146103395 0.6991578145429109 
Task8 0.1776983720684332 0.09116613445060806 0.07527076753103745 0.19517383162533772 0.17160873666004875 0.20805868532842672 0.404327792707139 0.7020857562904825 0.7019726536228437 0.4891196897423957 0.5025583119029572 
Task9 0.05667025114228033 0.07087407325407911 0.005562044170602102 0.13764785260976997 0.10325781624549994 0.09319914291018844 0.6767696589879795 0.6288313467384385 0.9199842851427413 0.481054568648355 0.6421925040412706 
Task10 0.0788849436692023 0.05651399802207901 0.16183110883247884 0.14296131557134162 0.1210440514812062 0.11983028757523422 0.4408488900711576 0.8304268908638335 0.5423068999339271 0.8166112251179853 0.40199249835522316 
Task11 0.10559704313348672 0.13855687890479576 0.16966625611748648 0.16084864980629435 0.14107966641616412 0.0947369689928467 0.5248273055870996 0.46437058753529353 0.47732276003953594 0.9977406147271088 0.6849328238722289 
Task12 0.024448959247657207 0.03329190494506757 0.03699237757434038 0.028586518605038122 0.039947308490837906 0.0034668126216097295 0.39181453618706885 0.3163989456325678 0.5598722194428936 0.7207457764310106 0.5127033989204784 
Task13 0.003997447628822933 0.13430440983869335 0.004296709775254107 0.17877979043373235 0.19406988596911082 0.008770792882323526 0.9645313651080916 0.7268190563022534 0.40743365699243334 0.6414716886377289 0.34720308625592905 
Task14 0.07448606255237686 0.1463240127970074 0.010928019549927169 0.12291459252038289 0.12175737922991206 0.0973602873364754 0.4222780813150589 0.6524479723319723 0.8053980892004622 0.3806008586260449 0.41219820575452176 
Task15 0.035312341363579317 0.2068356310048962 0.02661085323821324 0.0370610023723354 0.10471860570716604 0.13242189403590093 0.795393887804041 0.43755116133429317 0.7872820730104126 0.7223805296406396 0.7870283127401826 
Task16 0.055346380948996604 0.026229505442509536 0.06492529333459968 0.05247037770765404 0.040796847162969475 0.04654731731577354 0.7284899488212719 0.7341205203590775 0.7226561972852044 0.8979130654418215 0.8329618833796517 
Task17 0.0006917511050324717 0.007441465368931276 0.003809332729865452 0.0013856335289259515 0.004503020017250973 0.0047188953352084485 0.4116486815961789 0.6380223979241609 0.5590078242770424 0.7070644046714805 0.9634825862586545 
Task18 0.050990397006937194 0.06082386671668043 0.08310822649538166 0.07775949805354332 0.07661094257627547 0.0696823198864629 0.7150303265729341 0.6456025793327353 0.5726046177309867 0.6227462592241988 0.54983509390117 
Task19 0.037470133243379576 0.050179515027301114 0.04939129636906038 0.015776859246419573 0.05111891333696182 0.03370122647124639 0.7372394743745043 0.5967494359060111 0.6636475240699202 0.3561409625907538 0.7696675559106592 
Task20 0.13169917378807305 0.17146012718586262 0.16653953973876093 0.27216727051624057 0.005545631549381059 0.09551683396387511 0.8709101877617227 0.3085250337184428 0.5135031123048479 0.8668560405442856 0.9854618338908638 
Task21 0.05797213778939865 0.17990436783278774 0.1707461693959548 0.0896326936069001 0.02985892202350637 0.1931192196656138 0.8109840020701327 0.6275204352942387 0.5424203518552493 0.4068646279990999 0.33259996434442024 
Task22 0.08566485750203694 0.2088423908011658 0.16461218778402215 0.37282105110302954 0.09607807732126414 0.0157580269582301 0.4312359111811589 0.6867899663565757 0.5111894958911207 0.32463219379219976 0.944050923151849 
Task23 0.06577168059450102 0.14412680266671482 0.11005283038597603 0.07004349604646636 0.14277968583160847 0.10932817735365244 0.4526637767474837 0.3133316062478389 0.45755766953361154 0.6164808758293578 0.5708679692208157 
Task24 0.021464184311786958 0.17400404044110182 0.07684862273976001 0.15677623335625132 0.03923430557679736 0.2986608305875899 0.7049379345696138 0.9561366218299914 0.3134987697731889 0.5489055278663774 0.9388742933136485 
Task25 0.00021442512844172394 0.0018087854663475453 0.0006848188905390115 0.0019155110543691933 0.0008832020149457174 0.0012880845312583198 0.558727052619197 0.6891455922034957 0.4581014071330212 0.7522694667856036 0.917179075519216 
Task26 0.09439086639643963 0.12704996821988596 0.07580418207214466 0.2653516255846289 0.2017670960179874 0.1773975196548384 0.3878891249450397 0.4797174296598393 0.7960581907439513 0.5926374774595237 0.355838384368432 
Task27 0.029895977357270953 0.10221397728532133 0.09387157918684254 0.0965104490409947 0.028797126413066074 0.03179161063095676 0.8045124625278741 0.5314710743115223 0.4933809031487778 0.8308944751971274 0.4441200144201677 
Task28 0.01696926480231545 0.02810907666962721 0.01974447486189428 0.009020151451805198 0.061754814889708166 0.011827294182655003 0.9732490267121798 0.3101077407364667 0.7534452508826387 0.9868758909259747 0.4990715897697618 
Task29 0.026105039080639107 0.3138597914483598 0.35111245389160023 0.026254899581459143 0.08318171867380092 0.010319785925870763 0.713963329117014 0.5332119666196398 0.47497354975591644 0.34575236004843635 0.3521728925060198 
Task30 0.008149986064340226 0.02116961252875774 0.03868392552390967 0.035477507247931264 0.019875462610877956 0.03366108033143175 0.38380706104342577 0.8462161919304854 0.718560136003952 0.9645689167843869 0.7896701296996096 
Task31 0.09019008519604198 0.16109138101109408 0.19185172516224713 0.017492077393881162 0.05285623750229401 0.1895997462749461 0.7820698933481437 0.7602904612485767 0.4508166958440739 0.5549577208504781 0.9957676975346934 
Task32 0.051848050261589805 0.1577945297550858 0.09658899274451546 0.043213748799791944 0.09715729216118507 0.05362593096525883 0.32064964503633253 0.6770549074523098 0.9625134331625453 0.8512415346048621 0.80551282749568 
Task33 0.0681650276693375 0.09878375530142518 0.0672982133435143 0.1420352481301609 0.01877671611956882 0.0350625105320861 0.9982508316678198 0.5609969095753453 0.9881857681286448 0.3092229757653737 0.5520960096158822 
Task34 0.023495228491830163 0.08665998898774085 0.03874810999035465 0.01388075763581699 0.009911738344702353 0.06637067491841113 0.33220305219862584 0.5539617291245169 0.4305210673429113 0.37827469813212355 0.6259361112670976 
Task35 0.14450448651024625 0.15546825436616735 0.22001360768802025 0.039671559868501946 0.15202139026122596 0.14805778344392562 0.3179713399289409 0.5343380862609605 0.5394171900842542 0.8796064354797326 0.5644034479693316 
Task36 0.045724890805145996 0.17950387164434375 0.08384359248484831 0.26437071554922875 0.2191475508942046 0.02507705245799915 0.9026584693579451 0.3378918055533398 0.3497324945856571 0.7115799662109014 0.5777331527433872 
Task37 0.047896587766245155 0.04137804010756273 0.06211935473641551 0.20363491232907158 0.1020625104992695 0.12509359816732019 0.35353222391285916 0.9752267767618639 0.3758721824033821 0.912546096907326 0.7880747285935219 
Task38 0.01950747429911555 0.16001645676506165 0.010332231321380584 0.10885813780865528 0.11490138250092248 0.010691261837238394 0.47257222862759696 0.6595581701122244 0.6935064141751335 0.7743514917935774 0.3515521771038788 
Task39 0.0031569952394568347 0.0020543411770169192 0.002152036608703872 0.0025895164704747295 0.009116664623656465 0.007193701166420775 0.931242371753982 0.7863122770554114 0.7595633711751286 0.48897417823115275 0.639795801761478 
Task40 0.05124793221745815 0.045825693588856534 0.07241621102845086 0.024452429871279612 0.13919862503683633 0.1257046057710254 0.6503568341250744 0.7036717319769819 0.7304215433552538 0.6775188996651715 0.968520588991832 
Task41 0.008539657558870243 0.0023025634531105062 0.011909038424252184 0.037888143476734894 0.009780807569773155 0.007064544570386817 0.7289719664409438 0.7138734475582473 0.9407489644912141 0.49467335426154163 0.7532635994039945 
Task42 0.06474226423484428 0.05564426585969906 0.000638570108356653 0.1582110008226803 0.06638084498108383 0.1344770003472707 0.7957575923537293 0.8427356754550717 0.4757800226102594 0.8880532769951062 0.9723230167346051 
Task43 0.05701203868061784 0.04755918085913066 0.09340569497729424 0.030466036077704515 0.10705342839627426 0.10089953325522265 0.6903675977797687 0.322924023466007 0.8501471958492814 0.668462720938348 0.5297630906284739 
Task44 0.09438642740991487 0.211374216847414 0.0711879637475543 0.05704623173935848 0.21730297761638517 0.07819984606277995 0.972059804575 0.7634798357159835 0.42022931013242176 0.41410382206212876 0.9377405315953802 
Task45 0.027385743684297893 0.008294484577273858 0.20492836260177175 0.19994919275947767 0.14925765993755624 0.0449746877761679 0.3517074106175798 0.9646276759248329 0.4436897189134029 0.4665674339697721 0.5685623577719328 
Task46 0.03497474881090757 0.00941225189956653 0.053542997733906215 0.03633707316599838 0.039958482101217586 0.019720189603274166 0.9600773850786999 0.9162186392075442 0.5765530165861853 0.34292918808043327 0.814135448842473 
Task47 7.989160411628133e-05 0.012048343245238707 0.01215468591964183 0.0009064183236852803 0.01634222028097953 3.764366293787131e-05 0.401688031077779 0.3599346766213384 0.91922143352578 0.47391551627555184 0.7327945943433238 
Task48 0.03199133157489433 0.13953161933108899 0.1736694635052141 0.09569360351950001 0.0697324526465087 0.06197447510596408 0.5121682800829138 0.9051098129241004 0.8938337151767775 0.32933784494805834 0.5925404013426286 
Task49 0.04243615494807011 0.418222604212273 0.23523777501673618 0.07832464969221732 0.13792617288133704 0.040307249681489715 0.5115705551472226 0.8680286302078133 0.6602143176565407 0.6619297813464471 0.5543074177672709 
Task50 0.14454935166842314 0.1698647685769625 0.15670129557611134 0.1488385843359112 0.15982294684007178 0.14189854725405937 0.7294716201266913 0.9702244960475868 0.701026426472889 0.627281033196432 0.4031775971322542 
Task51 0.04165621933615116 0.031130059623991516 0.0044864527310332246 0.03427811190860484 0.044450869649067026 0.05402562663942654 0.96101021136042 0.6373608698380477 0.9084023829551833 0.5991414840087617 0.4852327958264019 
Task52 0.04069033598690722 0.10386673740589068 0.03133862631402897 0.08582289139155515 0.005045289480831554 0.05873862998162121 0.8070960957797437 0.6893638141324214 0.9036987000824455 0.9832150999187239 0.696153029248233 
Task53 0.11725885616262519 0.1387050330539065 0.12209301092065947 0.12727041382917323 0.07487531619565015 0.04677213782827331 0.33835363233655114 0.6457040222850998 0.8390760832853223 0.8057769922735849 0.3817874015553838 
Task54 0.020651004345587295 0.06363595491803975 0.10212516783178206 0.14249228873006145 0.12720061488923784 0.04348226680428126 0.5692020566821228 0.7501300678588618 0.6044926946534817 0.8000362786986326 0.4323843271539951 
Task55 0.0050689176914668465 0.005869865668614404 0.005368609637425104 0.005030472056919524 0.003279410889754559 0.0021089146282185648 0.49728811642567466 0.508097372071505 0.42477693918222537 0.505837812952667 0.5030635576109868 
Task56 0.00019135234654668403 0.020799865877156466 0.01583300888750846 0.011348994734778906 0.011992188714193386 0.018686073785473916 0.7654935909445448 0.7745139223107091 0.7507459100766856 0.807749482610453 0.5458114971047696 
Task57 0.07673212281606709 0.094384221361617 0.06746592254643355 0.12286032929124505 0.13538329349226624 0.01538696122091871 0.4069403468142434 0.890269842148729 0.9916563902937572 0.822883340335195 0.8676449485275841 
Task58 0.02014574983257539 0.004062119470644801 0.11642791113370059 0.00854948956395701 0.06717900255585861 0.14201017072585842 0.4227780136947423 0.8158664490731702 0.670632960470343 0.8652273410537741 0.37258897469239777 
Task59 0.0870405271950085 0.23515421620399832 0.20529622602130743 0.006044405515114329 0.24997288062223338 0.0567889301786643 0.5517040467507666 0.6100200083569521 0.6797297136483618 0.6657392500102475 0.41833801137020293 
Task60 0.016661244575484815 0.2248458805951178 0.03923530016354928 0.0643173874831344 0.19480860132590885 0.04719184610778189 0.8638907127956763 0.937658665883063 0.33712742440436416 0.8492109478767162 0.9577575495185147 
Task61 0.18259025794821152 0.14128278264585603 0.00996319002325413 0.25672144582088297 0.032881843727258234 0.3245647190438953 0.5016564388913576 0.8701629017696144 0.5220118807734148 0.8701110387473474 0.386663737700784 
Task62 0.10289673695045162 0.1421043774890767 0.05145555838665888 0.14577805325683535 0.015556962394804766 0.08858570160488781 0.660732343910376 0.8149468390825299 0.3935405245305948 0.9623674396319502 0.6771466987279481 
Task63 0.03320553448686726 0.15874969873433623 0.00048111544208612173 0.35984946371046983 0.18784428327793615 0.2076922343600584 0.44650896997633616 0.7479597765689627 0.775989112766177 0.6445590739663328 0.8867200612333876 
Task64 0.1313549361541832 0.05488141297091604 0.0639847427156799 0.07758624174719889 0.1688261812302881 0.18895609074626069 0.8228919223404569 0.7670713240894858 0.8675907116781367 0.9538259801496103 0.35731674320639323 
Task65 0.07586708303653147 0.09323166047971647 0.10040461858948428 0.09757199447584514 0.06527398348374952 0.019039414736020874 0.8793110298786504 0.8569675333079299 0.4771332203210362 0.5115643296682565 0.4297512358018841 
Task66 0.0077352389697274235 0.07519391404641561 0.0050528843837688315 0.008065507299009837 0.03771536727961591 0.05870397730197462 0.6692382963311281 0.7982597456254329 0.9720422714473764 0.6850410858468012 0.7380751078918262 
Task67 0.054368884655607824 0.06969535727457991 0.020995380231021595 0.05133353445642679 0.036806557512131265 0.070844769973135 0.5766236973747263 0.8061425554658299 0.3195298788066717 0.4529163396342889 0.871007830264632 
Task68 0.08207685906252227 0.3043963723473287 0.18394313350968727 0.19793667326242534 0.015348430346917977 0.15416364192313622 0.37192639924879967 0.5339254848298823 0.7759213352475589 0.8494967713605444 0.6931863052155889 
Task69 0.02149194790107047 0.19870637595615132 0.18580831974100384 0.1644454881202564 0.10900197723843923 0.30772301593354007 0.3843156542006043 0.729984428598748 0.7952409421370521 0.9604145615622732 0.3389528743785037 
Task70 0.033011171116382965 0.03785145352572959 0.09355197341761042 0.08949549037279403 0.11495868316578899 0.04163856307278064 0.616310276364656 0.7119641936668492 0.7913139005918655 0.44282398464156525 0.9148536424895821 
Task71 0.010190682408371883 0.03120697137650816 0.00033057785534533013 0.018815394918683597 0.0139534354640239 0.014672908116806292 0.3217517738796918 0.5704970269736143 0.4348868144712026 0.5973283746657881 0.584909920296684 
Task72 0.020924860252962682 0.029869624344238763 0.07431555066871477 0.04548236944128303 0.019157018272240145 0.05296295554819098 0.7820568510043941 0.8396704858589945 0.5979179778648935 0.6368904163866045 0.7159307893792026 
Task73 0.010109960646168582 0.026111205654164117 0.013170437096862218 0.045454341736351066 0.030769032963249173 0.06413004575647635 0.4427467973736326 0.549847270910439 0.5138531767853257 0.5871298802281464 0.5183157212213927 
Task74 0.010971175485821279 0.05082177878840584 0.03711175112183464 0.044303631495038284 0.00680820101272235 0.02494257833407546 0.47695748852610903 0.9458048126995493 0.72569114910136 0.37717446272660793 0.8848376177301587 
Task75 0.014854435118500042 0.05272036935447237 0.01912728167872114 0.05162489771203534 0.03414102386143174 0.05506887498960885 0.5551625388271872 0.504629188778734 0.6210951570931014 0.8626117903720281 0.56787527397021 
Task76 0.014678848424930892 0.029086875493925225 0.013630248923238206 0.019080422649728868 0.023275145580506026 0.014768330251233794 0.422103285146022 0.8731547687566903 0.8868819395907277 0.7161638593123376 0.46256981188714175 
Task77 0.0012604385602251384 0.028988231818351112 0.023808902104289462 0.01277662414406804 0.06197432374582209 0.00398636876939547 0.9306048911929539 0.7805308138962306 0.9473807398044383 0.596522629724942 0.3608813651555418 
Task78 0.00739649527090733 0.07931374013898881 0.06328729883339829 0.06275642548751685 0.075507559410951 0.0007256865529113299 0.7941831818362894 0.907551161576925 0.4748427550900568 0.586397513762872 0.6834265642035113 
Task79 0.13840952044054194 0.030998700014123134 0.15189380232413788 0.10986123426326316 0.1701365063656165 0.1275640780159765 0.41871134347017064 0.48771127495378336 0.6801527855840201 0.6445154782262329 0.5895534408090461 
Task80 0.05846423345724696 0.011485934525678755 0.02579109322740702 0.10257128181919596 0.04604116831089316 0.07734176230494236 0.797612664666896 0.6723028268802316 0.6636312750618141 0.8976460043704475 0.8872559045640831 
Task81 0.033035762059633995 0.02348349235240511 0.04668141918130467 0.0123763684185346 0.01660030419436625 0.051741923257359546 0.3005610556717319 0.4005760359334044 0.4336965994267406 0.8894868480600076 0.5667474801900709 
Task82 0.10453920132732299 0.12126755696638027 0.15486790471453787 0.17866741955315316 0.1880999875339467 0.05381667728610145 0.8067753181476147 0.5279826134458487 0.5917589093926847 0.9544020158822768 0.6282063516169474 
Task83 0.16325342933548787 0.1759366274576823 0.05510919066517502 0.18886972557544943 0.08064087191624328 0.15917192502640934 0.7169445363761249 0.51010105754092 0.9801615137333373 0.9273368994914759 0.34166362181754756 
Task84 0.05164489081658372 0.06091030688460487 0.08432338817927343 0.009271638382917505 0.07919829498280055 0.13910855132855499 0.8986699147030752 0.76346362306685 0.3120339189045919 0.4999338172965924 0.5555922663157096 
Task85 0.08386906384585946 0.32620018044871874 0.2052468101871041 0.01735161042417981 0.0531036860810698 0.11850419743580838 0.7599382439168401 0.3738567041335821 0.7427857836302831 0.50856679875216 0.3803309646656924 
Task86 0.03421281748015975 0.07422614018723614 0.2601567082743666 0.2558635482447634 0.005816633804751198 0.21819256406167808 0.7722338774982933 0.9159176113194252 0.5531719225138361 0.7721413190378876 0.8827410051653153 
Task87 0.006804584616160639 0.35177356668680876 0.22027240151765448 0.0031775803467555368 0.06061078971213966 0.039339235991077366 0.7255374763079632 0.37537488751088244 0.33378643100080674 0.7841537407396291 0.36111627031091653 
Task88 0.02194076926182766 0.046069202167856274 0.11772197087612425 0.05494347992873615 0.05656876470766224 0.09334400644362806 0.3869950489216588 0.9926198822306318 0.8847679535280126 0.5941844382488664 0.40505891402388766 
Task89 0.020912192656601197 0.03481076837410993 0.06301933320809056 0.0685609783241805 0.02137302975363413 0.03469666391728051 0.3100946691463253 0.594743263199214 0.45438214177922875 0.563645189015084 0.9103149391533125 
Task90 0.045784462181884464 0.050400224397148 0.09363328419768929 0.06597997705339445 0.11071320834415725 0.07979219693328159 0.5037106645879705 0.3956583053942078 0.3004725440244504 0.8854104559875349 0.9143583284780918 
Task91 0.12199314072081785 0.14473980374839437 0.06407567565833401 0.15561425829742498 0.242235495871117 0.09944131816091406 0.3448794660004455 0.7844988771679178 0.679995814495086 0.9802210894518892 0.6940385059428802 
Task92 0.160987335394786 0.09505900075405395 0.12978617078855026 0.18329326056066864 0.07451917940128401 0.2004376401136978 0.6506053122788154 0.7548920166147693 0.8213290276607741 0.38830818750669177 0.5525509309007182 
Task93 0.006639939951620158 0.05736872784096336 0.17885151849337294 0.0601442086531348 0.043495737018633816 0.020459293922710196 0.39832689528511744 0.4652928245188972 0.4973503696333851 0.4688117396798155 0.7377211261808989 
Task94 0.0004578033473501512 0.0006378968340349494 0.0007009058592569375 0.0007963124803977168 0.0014867196801545753 0.0013148629929015717 0.805544876334003 0.3097637080434574 0.44418751130816553 0.7188630772511304 0.9643753797814396 
Task95 0.04629910393968271 0.1419414380014741 0.1500825685713142 0.1084406530544342 0.005645516494355183 0.10105819726308263 0.7506540226953731 0.3221252761932024 0.8653745496512553 0.8003962369608937 0.46753194282057997 
Task96 0.01925092972508315 0.03179099207664578 0.14198110276935091 0.1021522098044359 0.06408791674102557 0.02575793293389928 0.9932516876649835 0.5521443319251891 0.4443335486753811 0.8713029969531165 0.895302623763967 
Task97 0.008163250385654663 0.017049773007241913 0.012333568236469179 0.030777675272496828 0.025198908490073273 0.036440808451171064 0.590839684488457 0.5320693491368749 0.9293851499497867 0.5271894618187873 0.395328681917733 
Task98 0.05862949684425336 0.035485438939762 0.08976547591715602 0.10967897435742358 0.22045639011812204 0.1121891707820283 0.7422992900384755 0.4811312955931315 0.7138574768824004 0.6203437592143062 0.5757597166860717 
Task99 0.043692430847972315 0.17977376821703622 0.10916544199907759 0.24632357827912418 0.07479874856740612 0.029173903560619593 0.9770697915657391 0.7932242618454011 0.8425240170170194 0.4436143684223183 0.9305035121363769 
