Task0 0.13016972551741104 0.022214102574748172 0.096170817589279 0.1700707688957696 0.13998328388235196 0.14015659841847258 0.8096052332164085 0.6905530519800671 0.8666210299402939 0.8613683991358194 0.682943395815499 
Task1 0.0022616682563019633 0.06361388671692209 0.16919236409580407 0.19386857490974024 0.18398257631673756 0.16113406652133472 0.6453063617005832 0.643949579537985 0.9457114622993004 0.6954853705950068 0.5413709013512349 
Task2 0.015423506448812595 0.17027886155586877 0.13686260325049943 0.09249672703112946 0.07494889584450787 0.1015333947234219 0.4872642290278538 0.31610556658032846 0.7816149408790399 0.528352014214059 0.36709166500122764 
Task3 0.07724436689307543 0.17168807252499316 0.02394077838055585 0.08170277912483188 0.12333108631081062 0.19517069843864365 0.9487039670424386 0.3301987733912888 0.5232598592695537 0.8434397630174855 0.7125256926937985 
Task4 0.02704938313416854 0.04560403207186642 0.01020867479706405 0.06602016826973225 0.029362345842170866 0.016458373428083605 0.7905890954875813 0.3491943877878615 0.9937322046574384 0.7258621437206871 0.5614959089175335 
Task5 0.055086769419598496 0.21953957729044818 0.03238870462989012 0.18018632958302197 0.08071616885943539 0.19762344491495248 0.7578971226845547 0.6641297058251598 0.340087885483328 0.5831950059773057 0.7068041752084568 
Task6 0.004214522220696921 0.0023483636255614585 0.18201704762544887 0.23613618727501698 0.16730315242395752 0.034267395434520655 0.8062694148748024 0.9038235336143206 0.8232842753518612 0.8323437309103439 0.9524770209796012 
Task7 0.03468738491102439 0.05127867168060862 0.09166101460303847 0.032849288491269044 0.1823778619543187 0.18595454438362402 0.7479285349507618 0.36110728965872935 0.5205881174272432 0.7531719575800562 0.7814104480418383 
Task8 0.0007493756823652933 0.0026297654776239764 1.6733321541516134e-05 0.0022638175696540874 0.0014684801448305738 2.96685873190323e-05 0.9349461305478168 0.7916865712894363 0.5290159183635623 0.8382841972755566 0.4093363707130444 
Task9 0.03669334440382286 0.3249775040183938 0.07263372944892933 0.006749345256718357 0.07539291339935382 0.2626343053262595 0.9768714715331006 0.6029003824047945 0.5732321524137813 0.5925495355059863 0.3785514389145962 
Task10 0.03623716463715645 0.08578511972963809 0.20389476946541432 0.19344016422515733 0.14631779723418115 0.012820561780300188 0.46354170364971226 0.6702632754800335 0.8485421534262296 0.805008121980844 0.4387038980475848 
Task11 0.020570873600331104 0.16697286122785426 0.010762898637790943 0.08035282904287262 0.16037976423853945 0.1268173043517746 0.9937622989963708 0.3671274323356249 0.757569794180607 0.4598325664812964 0.9589093410574885 
Task12 0.02562288500516207 0.04783163539866897 0.018620831615990284 0.03856612540926898 0.07415783900407735 0.07448503729350726 0.668301481284356 0.677525300939551 0.5490365398656963 0.9107326078674927 0.34748131590985276 
Task13 0.0005830774487429574 0.004154395811590756 0.012810158665010394 0.005329027091346083 0.006100912842737363 0.008903912349647226 0.6445225413385447 0.4293545894243239 0.9746374819641812 0.3787570261352458 0.6581213907470119 
Task14 0.052763352576616046 0.12176605541613747 0.027776800008949016 0.10464907090009565 0.14513394080687722 0.15807551845162982 0.40819128102395447 0.4130181567915877 0.6421388083598334 0.9366708061067361 0.7677855753050409 
Task15 0.004379188542655052 0.07924381094604821 0.1964350391091185 0.0766651452495077 0.03651247204873927 0.11059493749965044 0.6288224617752285 0.769663102506102 0.914046424162531 0.5618076012490004 0.926155143129981 
Task16 0.007812960557097483 0.027313741164582843 0.02859051114972325 0.003179943593119687 0.0026270697181913637 0.030608663644559678 0.5450023963294504 0.6358876812679081 0.6308163743766826 0.5395202332995518 0.7589191553804857 
Task17 0.020603454963708204 0.022242552176843757 0.016285023528493616 0.013866269986020568 0.012860764071838032 0.03095886361833409 0.5299243356304318 0.840646830292064 0.39517455761565273 0.8894482462062667 0.7203075728886661 
Task18 0.08712139086603261 0.07743735798175741 0.15094657281948803 0.18670512383820723 0.1334290376653899 0.18083643256932572 0.38601109639277836 0.6043511129584029 0.4997323487823503 0.874070332531798 0.8319487403194668 
Task19 0.017944697543566035 0.17227127021320313 0.16703310902926843 0.13663026558111144 0.1645370152761203 0.1651039632702592 0.9430579636834351 0.5069539967350727 0.9633500127759791 0.5712742154109538 0.846327306212517 
Task20 0.042424955062743054 0.02573236633117297 0.023064561043477143 0.07723877666946172 0.09917808532076769 0.05563796170943303 0.3183013778481503 0.45379399532594045 0.8326702398012658 0.940784842221672 0.782473077367042 
Task21 0.005280814651853257 0.0064478955934882745 0.0034904682676519267 0.011713334996011529 0.004884487083280999 0.004433369698321862 0.34322563176785464 0.9409694355522153 0.3151389503419225 0.7064737126535146 0.45943192064016247 
Task22 0.033068223541262806 0.09228991040822215 0.13318120474332548 0.025507431373684313 0.18311045415642577 0.14037007742960114 0.47802958656192474 0.8751357182955719 0.4424405547153457 0.5858299543512432 0.4134160297768922 
Task23 0.18864351270915272 0.12907010968615776 0.0035391631146838988 0.16033054251435835 0.36241848545794536 0.1501371130966792 0.9184773815918679 0.49821414456496 0.9030255438952279 0.6752043813346397 0.5018016199075286 
Task24 0.09944812903614672 0.14688034794888824 0.12280729528770551 0.06894228933564082 0.24610552486964252 0.24997618902738536 0.5624827343535831 0.8288553590711094 0.7994721704133461 0.9354968446745806 0.7160007605986539 
Task25 0.14880872963547323 0.22755581846000086 0.14632401888853236 0.18337143358425992 0.1560212627047161 0.022160236091709445 0.5431459857888872 0.6394060774497639 0.6012018288040087 0.9511995050705553 0.711016797731658 
Task26 0.04935424331043348 0.04016905752314128 0.0999085219798436 0.10965400274074251 0.10835999872146407 0.0209878866901728 0.6411980252915688 0.6384264552682283 0.8510730841616361 0.7203176104305251 0.92995146793151 
Task27 0.025785172383025717 0.002456431652351044 0.016496671159798696 0.18285836623447924 0.15452323313482122 0.5016424077413477 0.9219868171267052 0.6538082273993434 0.6200028254906049 0.6129421160375356 0.832927723403242 
Task28 0.04596138086924172 0.07264689266933087 0.1425164856590059 0.04718975381341796 0.05744329309028205 0.07525460381802132 0.5864007615717594 0.3746330949814119 0.8885306955012322 0.5083151166826154 0.40757555652973076 
Task29 6.502025222786553e-05 4.628116903960159e-05 0.0002320264063397941 0.0001380845135155492 0.000162504529222003 4.2049547691651826e-06 0.3309514698936808 0.4019277160214164 0.3497044067447131 0.36841681174504515 0.9303297362220844 
Task30 0.06204805692009743 0.09854062977256058 0.1363789787696749 0.11675250173810295 0.08509539312489492 0.09074467957411662 0.6064460961254601 0.8814706706307214 0.7670610378149316 0.33903381402420996 0.5505698212066521 
Task31 0.011723507946606222 0.0021008433858918265 0.01797944627536977 0.017957524672132016 0.020949516174676164 0.019316774130813084 0.6377981219500526 0.786694860054407 0.30523772514303915 0.505429456995462 0.5004720517692396 
Task32 0.043150004927038084 0.14193950119443927 0.13586498298162467 0.3699415522617036 0.016497594631147146 0.18633380006738579 0.554772713256082 0.519733496459116 0.6735176768243647 0.6876754555307024 0.38431057773338323 
Task33 0.1255321332031905 0.09855873442613418 0.09920513707738925 0.1437056936764612 0.05704798557034836 0.16397662083352477 0.4866581686869993 0.8975310201192501 0.5979418178005045 0.4456755293540405 0.4941211192824767 
Task34 0.06967316406527518 0.11408561328658319 0.10081408312597068 0.06080679246753076 0.2513747561844738 0.11069110760941087 0.8682041062494126 0.5516532801883078 0.41046871651211436 0.32974622227741773 0.40284380044038304 
Task35 0.022949265352119774 0.16691327630951996 0.06596176140767204 0.09279745178943082 0.08649458295444211 0.08357763593786877 0.7253204345518042 0.7482618123269005 0.4290369207907393 0.42961029313751453 0.9404032571234233 
Task36 0.034455889255309284 0.1423731896827852 0.18165439724290594 0.07200306205744214 0.38530037408665463 0.17694900983840964 0.5715482154612317 0.48476180163527083 0.3966116003249008 0.4706888478150968 0.3378428132965047 
Task37 0.002102934653253072 0.07950502533286487 0.05253411520138471 0.09505185500390051 0.09783272499691893 0.08840973981918543 0.6811951981103583 0.5678916816454654 0.5505099010878053 0.868485028048676 0.44166075004809335 
Task38 0.012134631900122062 0.05132387568713008 0.015496479165276604 0.07968457183273875 0.009158258614899646 0.061067854068573686 0.8392923468836193 0.3876928525064895 0.49090372830754275 0.7925635790712602 0.42305587179822807 
Task39 0.0457482301523897 0.07114700429806328 0.04030742819871021 0.008759670835034662 0.033905544146676674 0.03966127917198597 0.7083425211242446 0.5924234931883668 0.6284315253668162 0.33907530054349805 0.8579664249596839 
Task40 0.06910358843478917 0.1124608056755875 0.10370667896770301 0.06748201448009916 0.15704241292554616 0.31261854483081536 0.44456114893399734 0.3031164697798394 0.35349569579612994 0.5248122445614192 0.6807381532096551 
Task41 0.019342977766922703 0.04401713079099707 0.08667379675765782 0.08455549736803664 0.05171092187161122 0.003226508604488479 0.789295127501781 0.4282727850081804 0.6490093984978063 0.5383999361403172 0.697636112394063 
Task42 0.012125228271461359 0.03654565931900034 0.012100991407210607 0.020328971556281626 0.03847918678219348 0.051929305457942956 0.3023092546783901 0.7130564151995256 0.4078742188640618 0.3477564187808278 0.6682356576459568 
Task43 0.13760906272101828 0.10905000247851547 0.1456386436077884 0.16352231592155997 0.07758975075602838 0.14553457095298444 0.4677351471184126 0.7119690058175989 0.91597434234132 0.650778017835211 0.49528690943923726 
Task44 0.051974573637712546 0.04450675897193883 0.030901561214312267 0.06635089924865979 0.037987651634758327 0.07372126273593582 0.942788982316384 0.651865078050085 0.43515905120621773 0.5409961253081065 0.49840174495567424 
Task45 0.08815707972747731 0.09480523149795501 0.04912260952819046 0.008716637861512729 0.15294811858659657 0.1521358433403473 0.4550364507419645 0.6661025589173533 0.8508522705192201 0.7650214564086912 0.9100723639101436 
Task46 0.053755994822357454 0.06221070938003366 0.17240208082780314 0.07462982725234062 0.24437996981335386 0.19103861374846354 0.6709201194773684 0.4965000595820481 0.5975850369837583 0.41710670132096656 0.7880749632006041 
Task47 0.10087895169807058 0.03310695206116142 0.09361473728005502 0.15994356843583574 0.1321094133853138 0.14292579935804772 0.5996394590032345 0.4010853651416089 0.6985194088599247 0.474630746832948 0.8812229829225904 
Task48 0.058704486699195285 0.010586730802633847 0.016604587006509245 0.09257032354095193 0.05071893623101983 0.11036450751644758 0.892321568757471 0.4088602421375458 0.5906100467370241 0.9922822468756289 0.8505836872051273 
Task49 0.011704391408177594 0.017875952175781758 0.010566984351650115 0.019764162048089083 0.002918789143253365 0.01222912814514911 0.3830246497499882 0.4838533522756611 0.49733399195577105 0.47141549217428547 0.9588997448748475 
Task50 0.0369544408020213 0.20316052022768064 0.06391986599278157 0.17473657343880342 0.08077127179589434 0.032002516049549866 0.7106838431893083 0.8215431395657804 0.6585097032483047 0.891264015843396 0.5285390097268239 
Task51 0.023098823155618363 0.0015266183607369258 0.030008195172666268 0.0670186783993288 0.018920862313999712 0.05231074553919372 0.3487320544927038 0.6386071781337868 0.6924183432486328 0.5353008725330989 0.38736597317225036 
Task52 0.12230240221192541 0.16322026311279117 0.054056328047901045 0.10010759625491417 0.15268373370454846 0.22986497373189282 0.9636695270473823 0.8783075292038898 0.566986631717127 0.642952236302357 0.33491451467142264 
Task53 0.0248659181638679 0.002824413359703252 0.22277543537386216 0.1821726244238516 0.08189028793888299 0.2571677131707843 0.5330091653297653 0.6263382862861053 0.909051884305552 0.4100994919933476 0.6917364477948375 
Task54 0.010327895278017892 0.3866086161629801 0.11985893654960657 0.02557920581151154 0.07802224568442497 0.004249163792585806 0.4198441034552665 0.8354999660612987 0.9910070363307251 0.41816212502460565 0.9964429720736916 
Task55 0.0918360304688729 0.181903771646055 0.13414906731593515 0.16865000053749052 0.04678738476219411 0.11228969333692461 0.6304579781473455 0.7702368368963297 0.45556133233180085 0.43454554922147426 0.6162953247984508 
Task56 0.09620554917354582 0.04071558326725268 0.05280530384371882 0.2553826452001098 0.14448838849027434 0.20988571681010626 0.42887021901913025 0.3789174871369696 0.3973783528890467 0.9646472423286863 0.6486525256685285 
Task57 0.028165163700298843 0.009867258608314541 0.01616508717512163 0.03395461905950073 0.047157116995895136 0.03384546448094166 0.396220075579593 0.7042343782230386 0.8108786361230671 0.6181406402988858 0.6044926874509517 
Task58 0.006176557403281786 0.02174133459759415 0.09194503201999933 0.044496761671795025 0.02606284937842651 0.12443579481916586 0.38520953621764137 0.9775215330951406 0.3130710847058921 0.8950190809116372 0.4146100730231137 
Task59 0.00042230371700346453 0.006119245937677969 0.000662420272327548 0.001202336606814698 0.0004993846387854882 0.007403927008700325 0.4847129485525252 0.7553558076826297 0.8758067109029082 0.5696083158979163 0.5331797400278867 
Task60 0.15792288558587636 0.19219607997126867 0.16497618441441872 0.15120767623592027 0.1258156568831189 0.04614085935288655 0.8568968337997978 0.49128731641865697 0.4868365867666332 0.8872036134918182 0.7560827970466795 
Task61 0.0358974893910193 0.06985913449725673 0.0046809339803922986 0.05832083449694282 0.05130146393713309 0.09222786992259138 0.7037648855161833 0.9795623292901956 0.33889138091295157 0.30668840953209625 0.5915817372120233 
Task62 0.0247671122390543 0.040561365215614126 0.03234006445856465 0.020359245168395056 0.012458503736843015 0.025380972909789076 0.49220544595446697 0.4081768202774112 0.6736468102270902 0.37749894110676063 0.8579113619009291 
Task63 0.028968873889221942 0.09973550321870445 0.04155660743840233 0.05024097405271426 0.07900401891647178 0.10883839043861589 0.8990086569516205 0.37286080831561613 0.698108831357477 0.7981776595236307 0.3283509609293026 
Task64 0.03728893049407794 0.06504056967836548 0.08721440294343041 0.049190770287219514 0.08134088433306706 0.018923396980496315 0.9744072002639583 0.9303179110521962 0.6074363175882622 0.4311064183940867 0.4154344556757756 
Task65 0.06763514473170233 0.06843159631651066 0.01670821326178775 0.18225310981040577 0.056861084367906836 0.08962370140409533 0.48459311624691614 0.3274582288878519 0.557608868164654 0.7877567573619966 0.784181462842237 
Task66 0.05950791570415375 0.23085891741758874 0.06941236020222866 0.02202662120835664 0.3269496082253504 0.20890182944423108 0.7112857180849161 0.8437445525377394 0.3330952868437648 0.8113440832481122 0.5922020637729335 
Task67 0.041343651707429874 0.14527752788131348 0.2595453951873553 0.1617451196635822 0.11829364080437331 0.1568504658939738 0.8456259322356936 0.5216782128303309 0.7835970900557848 0.621005470951806 0.5632119425792206 
Task68 0.04243631042792281 0.1588308437992147 0.15724807878446712 0.1643160918341582 0.10448707055989523 0.13870979344427073 0.7380551690353488 0.6216885124399608 0.335801694379571 0.8699063130379037 0.3406907555529817 
Task69 0.06093383496212532 0.039238988474709864 0.05073827765781076 0.04178365219500611 0.053318036822863346 0.08207924927217737 0.5036135516950863 0.3196948743748422 0.42806294798567746 0.44601038072042193 0.9156714373521053 
Task70 0.10485558262179343 0.0486216589335849 0.24609692617595208 0.11733850457617395 0.05871056778595712 0.03395404440626825 0.3815714631241802 0.600684271155111 0.6473192261901943 0.34962015915979205 0.9022010097226969 
Task71 0.03942539755865438 0.0006661405787892835 0.06473329795305437 0.040632861087315085 0.06397483961326456 0.07064812650500073 0.7827826666609117 0.6181323809349099 0.5151639637659613 0.7626168321257198 0.42989522530950386 
Task72 0.017170671319000356 0.01021736893577239 0.033929001216224816 0.0265615519163386 0.020230973413535202 0.01719241546807793 0.712381438533854 0.3707733158900066 0.4206796954202657 0.4113835365127821 0.8705517547596782 
Task73 0.022504422067078044 0.03866692661162666 0.008450958029656412 0.04193937137809482 0.04880224373864416 0.07012521605863428 0.9211927591276108 0.6666781061932447 0.7354052442414255 0.5489049690330059 0.824420382139426 
Task74 0.04475641657604569 0.14628519512408772 0.09878950847096152 0.0019822501830718373 0.09904452583939775 0.11219867824739216 0.6761243604768825 0.7979793780392491 0.8661790936791427 0.42847457251820875 0.30013633584177846 
Task75 0.036707063922362386 0.05411876049452934 0.03404682763579516 0.03204714578481308 0.04818708730596963 0.006832455755911248 0.7328372629127644 0.3226128762201316 0.5146769260075046 0.500288153339942 0.9373103344750695 
Task76 0.07808565579424682 0.20762237646340043 0.09881214186694735 0.21283221330878377 0.06075257694832581 0.16146198148343477 0.46972561756608744 0.7658576108368569 0.6984321044945297 0.984381255747206 0.6756278536483327 
Task77 0.006531960291089938 0.19752223381775927 0.028261474136527763 0.049542763767721605 0.14101740840033347 0.03616814565775794 0.8166456822316912 0.44378788351755777 0.8110061561643458 0.8094640443629477 0.43783430788098676 
Task78 0.014965350028914342 0.1366425563401317 0.24499514155809726 0.15426049435741798 0.1267674685720521 0.15029312374850587 0.5921476180307566 0.7098615929900424 0.388144527814995 0.6363213694300587 0.8176094786706185 
Task79 0.1436494034780611 0.21376352179980582 0.211753646158435 0.24239084473860636 0.09444776803700322 0.055577158263633714 0.7620067924492802 0.7447990182332013 0.9327626779921239 0.6265239424582536 0.5005899711681709 
Task80 0.034991355212000454 0.16609176547591195 0.0798153343815274 0.11600389364124951 0.018948514175399236 0.09289990508940706 0.8334804339129434 0.8022021541950766 0.7794995982445206 0.9487344780286069 0.4326150543807763 
Task81 0.045143003830047344 0.19567558769443433 0.0015985862321536918 0.14037959949750853 0.18548921463576842 0.11003711246388558 0.6280991122388868 0.5508743522485977 0.38195272345804476 0.695313137948691 0.7363608990927276 
Task82 0.17752829304182885 0.21233624938675072 0.168539040758148 0.09399613219458049 0.08161251085554358 0.24578517490228874 0.30026897066374214 0.5402542165381805 0.3692926473864832 0.7576836136944658 0.6404759250794064 
Task83 0.07526905580455481 0.14974124840933778 0.09390720589524197 0.1431260517815388 0.012119680135587377 0.06693808308226565 0.7204477368886799 0.321798003533398 0.6199219596942692 0.5232034399083855 0.843490327942267 
Task84 0.1577189779363 0.10900417069421832 0.05930785068588158 0.011074883571669095 0.20300974370866734 0.2513917448646182 0.6724689902526093 0.5237471970484974 0.3232080342462941 0.3048588632796154 0.41853375887932137 
Task85 0.08014625560604917 0.21047868482214974 0.02469760722597448 0.03478474828950346 0.04257490870062928 0.22084860438366574 0.7003615045688834 0.8391047185241916 0.9196476181586344 0.6807054844339742 0.3034411709248879 
Task86 0.00540931705997845 0.05644667325922023 0.031066876282742475 0.23286874034501664 0.07125755815205426 0.3228838617729496 0.6941174616989009 0.7187507097491843 0.8184675891019899 0.9008114644148026 0.9822634836994562 
Task87 0.06505763008200559 0.11153353424441671 0.011324619266247466 0.10954833553942098 0.07230974650267141 0.1787037378130546 0.8144720274413313 0.8051386739806774 0.8264575133192407 0.8887586529242075 0.5468869950372529 
Task88 0.07266973672548069 0.04199062062274721 0.1329437799691299 0.07028028957009687 0.156467987039507 0.15447896382030826 0.7284954745600385 0.7664873031368278 0.41447953269991655 0.8243338243621712 0.3330065490799996 
Task89 0.09860307107600476 0.11303955171807178 0.10149947791078266 0.08944404257044554 0.037120335113374765 0.06286845795141634 0.5756994080311983 0.5153000780194679 0.5206540009769337 0.7691165903425609 0.839449627512231 
Task90 0.10644376510133681 0.07304868511669355 0.15518336415078704 0.24594897621841597 0.19185162836921554 0.07651079773239944 0.8404519452778352 0.323881272199001 0.3592093450859737 0.9343258450459062 0.9537643062217662 
Task91 0.05737625852956744 0.0389618942896762 0.16605852124880005 0.06113561991939638 0.11906168990396122 0.1121665437205301 0.5409556203480003 0.9767727148869036 0.4797218132360491 0.7581582714434143 0.9962066635582689 
Task92 0.06790574869234033 0.14212940725350515 0.013333793710246854 0.166957614984168 0.08097658160083762 0.04641646193426883 0.85945879188293 0.7694022963777303 0.5658188950519083 0.5195355805890469 0.40852231420547114 
Task93 0.0033405865286839365 0.026365735877319493 0.03762376045622724 0.03891703840589898 0.03326241342308413 0.03166037514725469 0.5268878075421684 0.9057208743973921 0.3828720841046101 0.6170667161054904 0.5830839770904541 
Task94 0.0615723729170482 0.08243090198376189 0.029137665895641457 0.011634187822821029 0.1738474246298469 0.05156074388859445 0.5652020099793182 0.5741140231755437 0.4374384298918381 0.5318510861086305 0.7544429947504949 
Task95 0.0035099545626856073 0.003907975592442612 0.0032497077041116866 0.004187795120517714 0.00016817058139586644 0.0035009907497874017 0.6615192584282799 0.6679255735977403 0.6978889402698258 0.31062872045556894 0.9337132843779257 
Task96 0.009537246338232889 0.03428402210064654 0.08564856865166366 0.04396805284816076 0.007669859878896223 0.06050126947969456 0.6339441158153198 0.6223747870570122 0.5790009974159596 0.49686895839815626 0.3206730652655862 
Task97 0.007613584667525426 0.05191032618043244 0.07394412408611178 0.08120932391817905 0.05774559852827204 0.11345714751772909 0.5224919617519734 0.6084794940069919 0.6333639626756401 0.4318269290848634 0.9140599832601874 
Task98 0.08770451726781578 0.17307713201572766 0.19751305762995539 0.15084539854786672 0.0680936245960938 0.004920179836557344 0.5878400406550941 0.8883708187699604 0.47856860939594437 0.9408880432092404 0.3899021497211381 
Task99 0.12021403574071465 0.01198331218510059 0.10689313583547898 0.32067297866258143 0.2601260612816343 0.11312870459432466 0.8699851231216462 0.9170519628866245 0.7135291062664741 0.7554326973119201 0.3306627937805082 
