Task0 0.019182935702118348 0.04812302874488076 0.05566731056754879 0.07153771348040296 0.07776425520967899 0.10026708533220033 0.9923442837536918 0.608491284815288 0.5977485976831892 0.9367941855009176 0.4031972656063507 
Task1 0.016796627381176335 0.027469230719298403 0.1321102478467979 0.06265076765357809 0.08782283591181142 0.21164562391229666 0.44115777391725935 0.5612323283412242 0.8373900028755323 0.46154580536030076 0.6254514306125338 
Task2 0.007567959701048779 0.13604586991994544 0.13042808393452257 0.11892715177194935 0.08240746674803277 0.046981645394194416 0.9738808666311147 0.3420340392303269 0.6942049824311431 0.8237852586491015 0.31291886276163067 
Task3 0.044672506767374935 0.05242593916370372 0.031937024334913695 0.09937446116254671 0.08788950049244015 0.030170665072580143 0.603995933598026 0.8241220032461927 0.4823548787822172 0.7123828881480517 0.331297377433322 
Task4 0.09869849008834342 0.223718696200536 0.21539066286908473 0.08924584198830461 0.0507834973266272 0.03698381431186572 0.48329885268085176 0.41104138736381945 0.7642955301538918 0.6442436658396751 0.5626164432424005 
Task5 0.0016060858464083765 0.0192970231933126 0.02324889386471614 0.011393173872930712 0.007467082296366724 0.013600708014634517 0.8826122843655351 0.5949523433001138 0.3833337566170922 0.8520936272879611 0.8792387796830285 
Task6 0.003817076112204932 0.01076863460808458 0.03905514286463183 5.406127055077392e-05 0.001652304347269337 0.01369544668926558 0.9061414626498161 0.6605747480609926 0.9461950201048133 0.9252591145188114 0.55546134758316 
Task7 0.008152486786406881 0.048285930486796386 0.017844892108167712 0.05249856379682568 0.03600198960301678 0.020837897717071487 0.9317966724602138 0.9387047881500516 0.7183424078217013 0.37447792944333635 0.9738079734154834 
Task8 0.020363317464793293 0.01222831248465848 0.04224272154797409 0.026529039609915334 0.07291119535946904 0.0015461253458230121 0.5322155724123722 0.7084651352724063 0.6021464192953794 0.8585596461457896 0.8193782170026473 
Task9 0.10624057150822803 0.04142782861248797 0.3706752411495286 0.0755749301528219 0.14807634173140152 0.007369959431097609 0.3630773843543794 0.416674511602222 0.7453662593240524 0.41258269396811564 0.5020498792691654 
Task10 0.0527753978308996 0.08634415113355949 0.1841850880620592 0.23505063599513043 0.10925825576310737 0.056639175247755594 0.31020853469502346 0.3396849449653373 0.3454259029153842 0.6187615125938992 0.48590327246587184 
Task11 0.0405281324085406 0.04166425355883864 0.07642338138992616 0.0716514698330543 0.046294516099256444 0.048495885002966234 0.6886284023343747 0.9634178606793524 0.4454414275236559 0.5239713902909753 0.4966727174641876 
Task12 0.09118772347745834 0.33927106526356665 0.35041817143743637 0.08583984199513175 0.037616227981063136 0.0406385536543638 0.7916635554531233 0.3328091840726632 0.3509234309922857 0.6645453005300102 0.44599871185194984 
Task13 0.12816153088990204 0.17850314412991747 0.2519471045502107 0.14278567964939237 0.11162188560802509 0.07331668988551733 0.6725909533408121 0.3995715710620518 0.5341859221500116 0.3956729648757066 0.7810494994530601 
Task14 0.0022334305839679567 0.011998902841171675 0.015322179176639595 0.020077888522273633 0.01035815156457858 0.004158795037369345 0.8497801780024954 0.6954480882265627 0.4024093547336448 0.956279734969331 0.8557520531673342 
Task15 0.01767105849969518 0.0626612375433089 0.15882104608060013 0.052345934326961586 0.06965404923096054 0.05930129814488021 0.5020178148305438 0.6413306321835981 0.6966317896954379 0.831895685859739 0.4310258974901192 
Task16 0.0004799412387161312 0.060731159918395894 0.021499073286199988 0.06036002097891556 0.08428920717024055 0.1096229402634344 0.5501018609324968 0.4717898128139024 0.6417788485778597 0.8834590393156541 0.8825432707999186 
Task17 0.0465752382230536 0.08795371581207606 0.024160567868103618 0.053920719891710815 0.1468371088057557 0.1060883718895042 0.8879196029889644 0.35677673714744684 0.9698226690573029 0.351736068140822 0.6504959183953127 
Task18 0.1879685458109307 0.16269150723308418 0.057177119734657195 0.28489314251421805 0.18291137424391923 0.10403615742102106 0.8274056910751275 0.42200984034218614 0.7121424120125612 0.6445619530192681 0.8623723622783412 
Task19 0.13944445011981665 0.06278613324500894 0.14417343656645618 0.06638004693769377 0.14347281572930762 0.18537280667591352 0.6054932514044333 0.41988619102587593 0.45646084137841886 0.4097749105702986 0.846479601526577 
Task20 0.06733890980670416 0.029365845295097285 0.08584675746213767 0.1181174191554476 0.10619030893633359 0.07529445171898655 0.6583320888446743 0.4184308698876894 0.5034660160997648 0.5245933836869328 0.6066629257394095 
Task21 0.013014419458895749 0.09081753891201202 0.07574463685754779 0.05667286898396029 0.0694496898054741 0.013769698829469218 0.9129675104949384 0.9610052752435634 0.5466594691854698 0.4049012425414938 0.745227554199555 
Task22 0.08042152059882743 0.026329775691786458 0.19241005143739026 0.25073894984443496 0.19236997244091747 0.10120568478329849 0.9259309169852765 0.8567856579472151 0.40762778341174055 0.8187605408571854 0.36060566531309834 
Task23 9.789950635220389e-05 0.03221531231644248 0.06106461225944059 0.05340472442302786 0.05747709751993366 0.05528185399694546 0.46192074972025676 0.654894077504891 0.6103174530990696 0.9451174761076593 0.8809189963246042 
Task24 0.01626635650993789 0.06523106484205551 0.05887035366319488 0.17494248910743804 0.06304881842774525 0.0859388161323636 0.3194689064844335 0.8621949285408306 0.5994729808669039 0.7158957459520602 0.333677923175858 
Task25 0.05701194993354456 0.03981128236219194 0.08311451029504602 0.025945256078346163 0.08375478312883446 0.025616364588271115 0.6141753108866306 0.6028500111121404 0.5867034840101668 0.3161846440095739 0.6838723291668118 
Task26 0.015262554589982472 0.03640392391553646 0.016986439344194398 0.0026292260972172183 0.018509168850707792 0.019793114350079653 0.9153566046660844 0.42515879184358696 0.6767753584167376 0.4846155390580329 0.8234531466031281 
Task27 0.0836358865917788 0.09424939475015945 0.0552246475792611 0.0997542564800558 0.07599950901879231 0.09750806482275888 0.8144924316515247 0.9023619676226102 0.4670173719207749 0.7500439226033547 0.6653868097347384 
Task28 0.033501681712851956 0.18650554280028464 0.17031669868284532 0.08300030789741068 0.22121292460547107 0.30277719502896167 0.3789611333590034 0.6035036887720923 0.4507710336620248 0.874221394940593 0.7081523468832057 
Task29 0.0012965876058142873 0.0023279006318600547 0.004325739395531235 0.0038871867455068923 0.0016573609231766973 0.0028077261088335927 0.9134162756576316 0.3286895725711522 0.7387105059040756 0.4314570017465416 0.6175396383744279 
Task30 0.033256533790390494 0.006590873821181785 0.030649345481431053 0.09274290126246547 0.08454354548525374 0.03386450526135704 0.6741871534507509 0.3264400323630274 0.6574739155550736 0.9979577196314269 0.908536945258775 
Task31 0.05818539985981359 0.04419623589333987 0.09862421440226156 0.041727695681732326 0.018300441199706155 0.06906540071058093 0.4471557222788527 0.6904521302961046 0.9670668416751984 0.35271747180064894 0.803490672616672 
Task32 0.014419214213404998 0.02793203382625657 0.03375154640554744 0.009479036320499686 0.013960447336336203 0.029883553978685893 0.6460250300753299 0.9560253749415242 0.7882125165047178 0.5890708236907723 0.6937012844129438 
Task33 0.08645458976867298 0.18103403215051803 0.2175631868338179 0.14616880732091173 0.10594962469009356 0.23610977376843748 0.9332183451146476 0.4103318615154431 0.3401761731841206 0.7236181232385964 0.7324184656019104 
Task34 0.0303362386230244 0.12405053132353618 0.1282976768285761 0.01945255529587968 0.025332289329235765 0.044112440061302195 0.685417743217665 0.33777654459259693 0.9845552023493926 0.9895334110308189 0.44257460556197314 
Task35 0.10983703110359366 0.2355195247276737 0.14135865198153783 0.2255352058089112 0.19591897120005178 0.06311596604548865 0.5952856028159321 0.8762908145095059 0.8715898066675392 0.3203523783504389 0.3740956426527743 
Task36 0.0159407610328733 0.13277743657139682 0.03678124344773899 0.13735159804208832 0.07360216508079252 0.0991374931757891 0.9371542835003654 0.8085696040503927 0.812082962405801 0.694611218785508 0.6331728794068779 
Task37 0.004808109737748987 0.009804034990217874 0.007342334715717244 0.004851185807600216 0.0011494273167813123 0.002962883196026425 0.7712524651860853 0.519847316118011 0.9405158636002 0.5338726242665723 0.378419452565023 
Task38 0.004797782611227102 0.20244621173174457 0.18323487323316168 0.009560410780274064 0.2629456199234856 0.16613656217022882 0.8120242649495486 0.4479442786361797 0.4155831965375757 0.5810660531849983 0.9480906968643474 
Task39 0.044453867255144865 0.19768237354482038 0.011275914258049592 0.04601620840974885 0.1148413904824399 0.1223308177636811 0.9576454058027624 0.30442279072687606 0.5701225075110476 0.46436621420679175 0.7923887007536328 
Task40 0.019619244500565576 0.0019349230647065173 0.01572387838146563 0.022031236092812094 0.02239915752277455 0.01974076857221691 0.7957384719653151 0.668126328171696 0.3122059238714891 0.8748664629278669 0.4593705562052929 
Task41 0.013271680676506352 0.006562301884408558 0.021879780767190615 0.020438391538746464 0.009625652328976745 0.003915645079771356 0.5198957144097704 0.6767026636061892 0.38813667243497296 0.8412535383334561 0.7884778364607262 
Task42 0.026535493894457005 0.014393312728340941 0.024161588758818568 0.02086262257008411 0.0783354058295755 0.0969815242318534 0.5949160867235426 0.6677531563372554 0.6559584520526878 0.8957227966541577 0.8433520627724573 
Task43 0.02231088603222771 0.031072449829562965 0.06347685464063677 0.0635085842660455 0.018484570046607855 0.001931229688258046 0.5686938544194702 0.9495295725723882 0.8238082562328466 0.41394782365686944 0.7872554042769958 
Task44 0.023593468076866665 0.1268717769530726 0.2253277482370266 0.03211213459273986 0.28767811529445037 0.0003193217246555234 0.628291847612788 0.6253944784053032 0.7003557809379742 0.5021621368556773 0.7741133849086039 
Task45 0.07530610393438357 0.05155179973550422 0.09715277419837728 0.020281868532437537 0.04421033837343491 0.12390644375824615 0.5992660026870655 0.5464311679964651 0.38935826440799964 0.6434632240816629 0.9229154592500419 
Task46 0.09171181625741845 0.08974481872492437 0.03749852639105307 0.1277626338627055 0.1535427585438191 0.13586714506227 0.7628857478893671 0.9638712670055387 0.42776764925003197 0.45962551822136377 0.7632361104709553 
Task47 0.034871473170905734 0.01400202439625963 0.03330698045985649 0.026142036117476935 0.042205433505294716 0.034722153828174875 0.5727276094015711 0.5078385250233938 0.8239678122361493 0.8609610118442168 0.6163735483917373 
Task48 0.06004209870517232 0.17479745124264046 0.18088949042373895 0.04569861064353148 0.13721851095286125 0.05885040540260156 0.5289941620227485 0.9295412822018574 0.4084855319584466 0.43791427586872 0.4146319092774545 
Task49 0.018689834105752243 0.11936147643997368 0.13763322179918072 0.042096775049846484 0.11338851148527684 0.09734995120405603 0.39620353165008765 0.3335439477413922 0.6427313231387696 0.7888744777435437 0.9064215339169175 
Task50 0.0496880593587508 0.06293241614824531 0.0035135913286734903 0.2292765251705212 0.1311857004773278 0.08008846335565045 0.662091942032947 0.3707748764768028 0.9937176329604263 0.5256726438542041 0.35388973285370745 
Task51 0.023601049813200117 0.09328415862399468 0.022089744466198907 0.01815104756183873 0.03269330069882204 0.04372532369717083 0.867035566843043 0.9385681543381212 0.6098644663622901 0.7659455392841102 0.656360188310714 
Task52 0.08943680748926129 0.029443879026191125 0.13253183144977607 0.11503239763558704 0.10254751992597645 0.07731443225731906 0.47583173558761904 0.7070485082308335 0.9665960890135648 0.5290660156409985 0.31742281023922797 
Task53 0.005833708699136013 0.12566296389829204 0.027128406343121508 0.015166635941700847 0.02185202537054483 0.27477809400108666 0.6062722778119551 0.901188601064935 0.38495116353510844 0.31116239174425414 0.9950778714674666 
Task54 0.044195369067547265 0.10154383371765763 0.0739047620674538 0.13032200837793853 0.10668611465650266 0.09604706635560895 0.591689078727373 0.6935690998956652 0.9564060901031701 0.8138932228890179 0.4539533738255729 
Task55 0.07988853329944823 0.07028026158935115 0.050890104837643474 0.004732480257669651 0.1979530856380895 0.18837083297381052 0.9242672917226336 0.35446270355656306 0.883711351551854 0.4692962629552204 0.3961177203000246 
Task56 0.021880076642067498 0.03636367533631264 0.011393084993946796 0.03724084503064988 0.08490066306306213 0.05310977454411494 0.5799234131161334 0.6844675239021808 0.7410137608860853 0.3898767002176101 0.9033556657878701 
Task57 0.004571982755178348 0.00794316614808026 0.007166571020622899 0.000428971494395775 0.001455291949207609 0.004560353660438659 0.8837571647733717 0.5230203187383634 0.7703487181847041 0.7240350412184651 0.3916631511967512 
Task58 0.056463323199673 0.02195382445708179 0.05957766484834565 0.1027183609960166 0.014371590274499798 0.10482997039547824 0.431861606217831 0.6085703079476869 0.932017832311965 0.36965507302826184 0.41745733712273503 
Task59 0.06492786887610474 0.1353658507848559 0.010629704937721082 0.12842251225783524 0.20904971048175547 0.05897527406652627 0.9225449829961156 0.9207682542034528 0.36457306009669216 0.5937266443122782 0.4576125204855281 
Task60 0.016864676437990347 0.12005725344780786 0.13640955425246243 0.05847897836590528 0.1978999488595321 0.21318117961843208 0.9830726377846475 0.3362345756920083 0.804066135531122 0.3086623943060702 0.7287214669283419 
Task61 0.014884340312834346 0.008743568371814043 0.023440043754990075 0.023218424947978107 0.02523155397128171 0.019595811450468886 0.45739145479218923 0.8146684376357805 0.5908926275535824 0.8028461346314759 0.5213731521428828 
Task62 0.011014286710175422 0.04490365631113329 0.02788338932919118 0.08689725418297081 0.03463981443584477 0.08715697079484551 0.5270224636344389 0.7708571469220957 0.6152915553882102 0.5827467846946492 0.31258951565390736 
Task63 0.09292955370657464 0.011274297529821757 0.18565998338895304 0.11528161914213257 0.19085110477585232 0.19476258270933985 0.8829734986133762 0.38642698694311706 0.4175572766601994 0.3234944572590202 0.39674332927466677 
Task64 0.006884427598801928 0.035752224679674545 0.03380464944649246 0.044644063934052576 0.009897206097412114 0.053531205943813276 0.7371165852331005 0.8022333163196786 0.30224212533387884 0.8656105642085048 0.3680767744046375 
Task65 0.15892075317336474 0.0562792937056817 0.36062141280922116 0.16310469537217925 0.02080038587547084 0.09520602583638821 0.5829795496161985 0.6411851236296133 0.9434547817121923 0.5661953870157588 0.6826753033166357 
Task66 0.19458704522743184 0.3004964753669055 0.01126333346604769 0.20265711583300974 0.2515713789636581 0.03230889785510278 0.8405465388194098 0.6637000692287791 0.6650076531253661 0.5572060732517086 0.4206919844919858 
Task67 0.044462483536911915 0.06440430405929519 0.055633938293539055 0.05130536521780359 0.020368546012069857 0.04671787092313494 0.8966707663829776 0.9465802670449004 0.8060522114805164 0.6513893122958225 0.665266415395581 
Task68 0.012774727390963967 0.015452860157234734 0.0068270761871188634 0.01982157678333582 0.007217466527651769 0.025247727758473254 0.39652896821405614 0.6796037121919838 0.6298471823334199 0.5517714501974951 0.9248797018921715 
Task69 0.009817770893626673 0.07199348279046862 0.0806390375747833 0.03991979095364232 0.03573487337456141 0.03097783084678539 0.8405691287051371 0.705115110619975 0.7196747816320395 0.6125110966869534 0.7499002107043644 
Task70 0.17066217027245584 0.26004250320691613 0.07423566991875445 0.07110400294629075 0.07162967731407452 0.22956115684455164 0.920588723601871 0.38141738194725755 0.4432276658350936 0.679259445780537 0.8459108546950997 
Task71 0.05234346941636137 0.18796439979785412 0.1778743027672805 0.2791473296757389 0.09932309760707798 0.09244773257722794 0.354436150234702 0.482517466595746 0.833886359387789 0.4414970835076419 0.6611112940586881 
Task72 0.07948550243630313 0.013610051213931426 0.06408416083224658 0.07060276164422115 0.16223005759349018 0.16503622584985658 0.5863232123381039 0.6738860226168202 0.5185764912277795 0.5333713555869676 0.5233035188971162 
Task73 0.11372139259186569 0.16552099280817317 0.054999940145464936 0.3254552128023135 0.06613641678560558 0.13946728700117048 0.6341714129048381 0.3018053742512058 0.9022716880489938 0.8191908404338437 0.8017589540835637 
Task74 0.048139540853982817 0.11463623929745474 0.06361790241577603 0.12763157019823257 0.002921642810855504 0.060684345016058155 0.4308129062037472 0.56723713972667 0.6810409773843513 0.5664273314544876 0.9306050872964142 
Task75 0.04046443934243998 0.022498295161313627 0.07849317153679852 0.001435689024049515 0.05643172198585519 0.08646379893428077 0.7352896459714638 0.802037509614649 0.30796389966781584 0.5749486378959606 0.7847248400621282 
Task76 0.11899922752861164 0.07622793183491859 0.05023258746891475 0.3187447651000738 0.10844563534301217 0.035576746291624405 0.5646282206121298 0.31346211376914523 0.886568117574573 0.5266606444003552 0.6592423633908441 
Task77 0.00630527643002649 0.05700658114187123 0.059864588730841724 0.004322028661088086 0.07504784034900608 0.06389269362302948 0.5672108738049737 0.49261184547178094 0.5430578865446595 0.7441901355590366 0.5091885695993923 
Task78 0.0033716650948254303 0.008605721710278113 0.005613652828182516 0.0022505962974006645 0.007081444690884623 0.009711468036676435 0.5168817345168406 0.625569612145743 0.6751907187453072 0.9574507737287421 0.47158084134541234 
Task79 0.0015404750891623536 0.01424643632920781 0.011568978667143981 0.016208166693642768 0.01497257866130874 0.008313188372554528 0.9992119194997016 0.3405776897714782 0.6110626583374693 0.48685475934389233 0.9119770825409381 
Task80 0.040300524979200864 0.27387771436073544 0.16298854186768597 0.03486532330511174 0.18403234569374374 0.02316728655028678 0.6354464334604566 0.5982263950166573 0.5857864342367951 0.7759085838548069 0.631907714066663 
Task81 0.01121269107246732 0.13190799982609022 0.056290763508363255 0.4892010321830959 0.06046007307968349 0.19594448910321022 0.4017931870835835 0.5763795395309712 0.7827491689217878 0.3798758398599276 0.6267039232714388 
Task82 0.014266173381601334 0.19294067108529583 0.008106971869576297 0.00894020864645423 0.20340609144674512 0.19898654093939852 0.46899471458361475 0.728312713688906 0.4447805476248423 0.7228475228032645 0.6486812048875121 
Task83 0.024747952523028062 0.005326598164162954 0.16246460996728146 0.059592707876730766 0.0452019056301613 0.039540252760326265 0.4664730203172268 0.9466255420591627 0.9476031442346404 0.41272385112088483 0.9775470069304293 
Task84 0.005022636784701353 0.02481257222578989 0.014977498490835425 0.024454890633363213 0.0083235258428508 0.02360038243975134 0.8471439349206402 0.4323669667078637 0.35087885904076305 0.5001271578106675 0.31042683227729356 
Task85 0.07546217895847336 0.2218242731900934 0.04137377437798054 0.20740868316035432 0.05784437315556403 0.22538027194833793 0.5779108344120125 0.6829457094805458 0.5408003663651126 0.5929889655360709 0.9876559380515901 
Task86 0.08942561319132708 0.19328059325337582 0.21580291081174063 0.1146358010981508 0.027659432268714926 0.21747984443678597 0.7408904706597387 0.5978683731791119 0.7718496825030374 0.9745195007089262 0.8911026831622051 
Task87 0.027946025584554942 0.02432380871815894 0.04366275658275628 0.039549946900501426 0.029320592010594962 0.015612382760540998 0.8602034850964886 0.905439037308573 0.8716806344451511 0.6468090125896353 0.6403774943185088 
Task88 0.02058511854593069 0.0027557624893306022 0.016017641962573433 0.10808668721424183 0.0037072192537752928 0.03259184211078 0.4484533442762154 0.8427427091772459 0.6798195921334267 0.8076160273902482 0.9057734907751729 
Task89 0.15839498578590558 0.18893481239711626 0.1762477022636982 0.05355326039947396 0.1185923195741498 0.18083669691196863 0.7070525514914834 0.36259729828761667 0.9110877845131504 0.9155488982174635 0.46859954161156525 
Task90 0.007382049702812339 0.046432685049554716 0.052173882194953655 0.04929130989375864 0.04125118723142621 0.03157078699617102 0.8064721522512623 0.326829831168578 0.9484011295690966 0.7479199679521482 0.9385596460877204 
Task91 0.06892432548575801 0.1114721478078602 0.13030173929739378 0.034202163220385454 0.09387555173692767 0.11516680789439349 0.44483814171645264 0.7442413679769484 0.31385054245218763 0.7862114216693465 0.9425763593076928 
Task92 0.013379349906158739 0.09192680765268117 0.08027850234217218 0.03902925760522435 0.05468030896591254 0.029913714441374094 0.6346571368850495 0.5523984616096731 0.7374499354830043 0.36723096586488174 0.9071522102423184 
Task93 0.007487421074762373 0.05997190376810601 0.034126767150220644 0.06343547867006083 0.02984787614574804 0.0032309203753380505 0.3432693593593293 0.38082298639876666 0.7906111797336486 0.36910998812215867 0.9543398490339159 
Task94 0.035092093185488026 0.09686097077217129 0.08178022817712233 0.20638132929438596 0.2867153439931281 0.2389581180573575 0.5214120627707111 0.34229200156326833 0.7781462052687529 0.9856110550715118 0.9912584339310926 
Task95 0.08331571477055694 0.07196150779855885 0.06313446506033019 0.09046578249454103 0.1309911992343024 0.14955903060319234 0.5010246622634053 0.46111204188179383 0.9834237483708415 0.8762775807064351 0.3260546686766447 
Task96 0.03774880590240033 0.07629953811862335 0.031182704503552018 0.12728531695092235 0.14923992117357213 0.010533849710864804 0.31748806129741175 0.978210796904214 0.7803874851538819 0.5191267127971491 0.5104068052827737 
Task97 0.005102067933604155 0.08967816535080728 0.03164286079295984 0.1689396079588433 0.16684049389090655 0.059068806359244753 0.32752928394265024 0.9440922937527763 0.34927929135430935 0.7997559538000867 0.6058851733792259 
Task98 0.13185819064035847 0.25191727473025904 0.10869822864930702 0.1826057409558993 0.02933707004338034 0.2562531964602002 0.8801823859092146 0.9660563550579917 0.5380081669598911 0.3925089322636305 0.8590639970971707 
Task99 0.11369186630552368 0.10475787881522233 0.10347414070762277 0.11508073390937773 0.09556554038913005 0.04079866204888129 0.6709477250031822 0.3921300806592838 0.9923227475576606 0.7864971027369324 0.5581611728048055 
