digraph G {
0 ->18 0 ->21 0 ->22 1 ->16 1 ->18 2 ->15 2 ->17 2 ->19 2 ->20 3 ->15 4 ->15 4 ->16 5 ->16 5 ->20 5 ->21 6 ->13 6 ->17 7 ->12 7 ->16 8 ->12 8 ->17 8 ->18 9 ->13 9 ->15 9 ->16 10 ->13 10 ->14 10 ->18 10 ->20 11 ->13 11 ->15 11 ->18 11 ->20 12 ->24 12 ->27 13 ->23 13 ->27 14 ->25 15 ->23 15 ->27 16 ->24 16 ->28 17 ->23 18 ->28 19 ->25 19 ->27 20 ->26 20 ->27 20 ->28 21 ->26 22 ->24 22 ->27 23 ->29 23 ->31 23 ->32 23 ->34 23 ->37 24 ->29 24 ->31 24 ->36 24 ->37 25 ->30 25 ->37 26 ->30 26 ->33 26 ->36 27 ->29 27 ->30 27 ->33 27 ->35 27 ->36 28 ->31 28 ->32 28 ->34 29 ->38 29 ->39 29 ->40 29 ->42 30 ->38 30 ->43 30 ->45 31 ->38 31 ->39 31 ->41 32 ->38 32 ->46 33 ->39 33 ->40 35 ->41 35 ->42 36 ->41 36 ->43 36 ->47 37 ->39 37 ->40 37 ->42 37 ->44 38 ->52 38 ->53 39 ->49 39 ->52 39 ->57 40 ->52 40 ->53 40 ->57 41 ->51 41 ->54 41 ->55 41 ->58 42 ->54 42 ->57 43 ->52 43 ->54 43 ->56 43 ->59 44 ->48 44 ->57 45 ->48 45 ->50 46 ->57 46 ->58 47 ->50 47 ->51 47 ->56 49 ->64 49 ->68 50 ->60 50 ->63 50 ->66 50 ->68 50 ->69 50 ->70 50 ->71 51 ->66 51 ->68 52 ->62 54 ->64 54 ->65 55 ->60 56 ->60 56 ->67 57 ->61 57 ->65 57 ->68 57 ->72 58 ->61 58 ->64 58 ->68 58 ->70 58 ->72 59 ->60 59 ->61 59 ->65 59 ->72 60 ->76 60 ->77 60 ->83 61 ->75 61 ->79 61 ->86 62 ->73 62 ->76 62 ->84 62 ->85 63 ->73 63 ->79 63 ->82 63 ->84 64 ->80 64 ->82 65 ->80 65 ->81 65 ->85 65 ->86 66 ->74 66 ->79 66 ->80 66 ->85 67 ->73 67 ->77 67 ->82 67 ->83 67 ->85 68 ->74 68 ->75 68 ->76 68 ->77 68 ->80 68 ->81 68 ->82 68 ->83 68 ->84 69 ->76 69 ->78 69 ->80 69 ->84 70 ->73 70 ->76 70 ->78 70 ->81 70 ->83 70 ->84 71 ->83 71 ->86 72 ->81 72 ->83 72 ->86 73 ->92 75 ->90 75 ->91 76 ->90 76 ->91 77 ->87 77 ->90 77 ->93 78 ->90 79 ->91 79 ->93 80 ->87 80 ->88 80 ->89 81 ->91 82 ->90 82 ->91 82 ->93 83 ->91 83 ->93 84 ->90 84 ->92 85 ->89 85 ->90 85 ->92 86 ->89 86 ->92 87 ->97 87 ->98 88 ->94 88 ->95 89 ->94 89 ->97 90 ->95 90 ->97 92 ->94 92 ->96 93 ->94 93 ->96 93 ->98 94 ->99 95 ->99 
}
