digraph G {
0 ->17 0 ->19 0 ->20 1 ->15 1 ->17 1 ->19 1 ->20 2 ->20 2 ->24 3 ->20 4 ->17 4 ->20 5 ->14 5 ->16 5 ->17 5 ->20 6 ->19 6 ->21 6 ->23 7 ->15 7 ->20 7 ->22 8 ->17 8 ->18 9 ->17 9 ->19 10 ->17 10 ->19 10 ->24 11 ->14 11 ->15 11 ->16 11 ->23 12 ->15 12 ->24 13 ->15 13 ->19 13 ->23 14 ->26 14 ->31 15 ->25 15 ->30 15 ->31 16 ->33 17 ->27 17 ->31 17 ->32 17 ->33 18 ->32 19 ->26 19 ->30 19 ->32 19 ->33 20 ->29 20 ->32 20 ->33 21 ->26 22 ->28 22 ->31 23 ->28 23 ->32 24 ->30 24 ->31 24 ->32 25 ->35 25 ->39 26 ->36 26 ->37 27 ->37 28 ->36 28 ->39 28 ->40 29 ->35 29 ->39 30 ->36 30 ->38 32 ->36 33 ->34 33 ->36 34 ->41 34 ->46 35 ->44 36 ->42 36 ->43 36 ->44 37 ->42 37 ->45 38 ->42 38 ->44 38 ->45 38 ->47 39 ->45 39 ->46 40 ->42 40 ->45 40 ->46 41 ->54 42 ->48 42 ->52 42 ->54 43 ->54 44 ->50 44 ->51 45 ->49 45 ->50 45 ->51 45 ->52 46 ->48 46 ->51 46 ->52 46 ->53 47 ->52 47 ->53 48 ->55 48 ->57 48 ->58 49 ->56 49 ->57 49 ->62 49 ->63 50 ->57 50 ->59 50 ->63 50 ->64 51 ->55 51 ->59 51 ->61 51 ->64 52 ->55 52 ->56 52 ->59 52 ->60 52 ->63 53 ->56 54 ->62 54 ->64 55 ->71 55 ->72 55 ->73 55 ->76 55 ->77 56 ->66 56 ->73 56 ->74 56 ->76 57 ->67 57 ->68 57 ->69 57 ->73 57 ->77 58 ->67 58 ->69 58 ->70 58 ->73 58 ->76 58 ->77 59 ->66 59 ->67 59 ->69 59 ->71 59 ->75 60 ->66 60 ->77 60 ->78 61 ->65 61 ->66 61 ->71 61 ->72 61 ->76 62 ->65 62 ->69 62 ->71 62 ->73 62 ->74 62 ->75 62 ->78 63 ->67 63 ->76 63 ->78 64 ->65 64 ->67 64 ->68 64 ->69 64 ->71 64 ->74 64 ->75 64 ->78 65 ->81 65 ->84 66 ->79 66 ->82 67 ->80 67 ->82 68 ->80 68 ->82 68 ->84 69 ->79 69 ->84 70 ->83 70 ->84 71 ->82 71 ->84 72 ->79 72 ->82 72 ->83 73 ->79 74 ->81 74 ->82 76 ->79 77 ->80 78 ->83 79 ->88 79 ->90 80 ->89 80 ->90 81 ->89 81 ->90 81 ->91 81 ->92 82 ->87 82 ->88 82 ->92 83 ->85 83 ->86 83 ->87 83 ->88 83 ->92 84 ->85 84 ->87 84 ->91 85 ->93 85 ->94 85 ->99 86 ->94 86 ->96 87 ->94 87 ->97 87 ->99 88 ->98 88 ->99 89 ->94 89 ->95 89 ->97 90 ->96 91 ->93 91 ->98 
}
