digraph G {
0 ->15 0 ->20 0 ->21 0 ->24 1 ->15 1 ->17 1 ->19 1 ->22 2 ->18 3 ->11 3 ->13 3 ->14 3 ->16 3 ->20 3 ->23 4 ->11 4 ->18 4 ->19 4 ->20 4 ->23 5 ->11 5 ->12 5 ->13 5 ->21 5 ->24 6 ->15 6 ->21 6 ->22 7 ->11 7 ->12 7 ->14 7 ->17 7 ->19 7 ->21 7 ->24 8 ->11 8 ->13 8 ->14 8 ->16 9 ->11 9 ->16 9 ->17 10 ->13 10 ->14 10 ->15 10 ->16 10 ->18 10 ->19 10 ->20 10 ->21 11 ->29 11 ->30 12 ->25 12 ->28 12 ->29 12 ->30 13 ->26 13 ->29 14 ->26 14 ->28 15 ->29 15 ->30 16 ->28 18 ->27 18 ->28 19 ->25 19 ->26 19 ->28 20 ->26 20 ->26 20 ->27 21 ->27 21 ->28 21 ->30 22 ->25 22 ->27 23 ->27 23 ->28 25 ->31 25 ->38 26 ->32 27 ->39 28 ->32 28 ->33 28 ->34 28 ->37 28 ->39 29 ->31 29 ->34 29 ->35 30 ->31 30 ->33 30 ->36 32 ->41 32 ->44 33 ->42 33 ->43 33 ->46 33 ->47 33 ->48 34 ->45 34 ->48 35 ->44 36 ->42 36 ->46 37 ->40 37 ->43 37 ->46 37 ->48 38 ->40 38 ->42 38 ->47 39 ->44 39 ->47 39 ->48 40 ->52 41 ->50 41 ->51 41 ->52 42 ->50 42 ->52 44 ->49 44 ->50 44 ->51 45 ->49 45 ->51 46 ->49 46 ->51 46 ->53 47 ->49 47 ->50 47 ->53 48 ->49 48 ->50 49 ->56 49 ->57 49 ->58 49 ->59 49 ->64 50 ->56 50 ->57 50 ->63 51 ->54 51 ->55 51 ->56 51 ->59 51 ->62 51 ->63 52 ->61 53 ->58 53 ->60 53 ->61 53 ->62 54 ->70 54 ->72 55 ->66 55 ->70 56 ->65 56 ->66 56 ->67 56 ->70 56 ->72 57 ->67 57 ->70 58 ->69 58 ->71 58 ->74 58 ->75 59 ->69 59 ->72 59 ->73 59 ->76 60 ->65 60 ->66 60 ->69 60 ->72 60 ->73 61 ->66 61 ->66 61 ->69 61 ->72 62 ->71 63 ->65 63 ->72 63 ->73 63 ->76 64 ->67 64 ->68 64 ->70 64 ->74 64 ->76 65 ->79 65 ->81 66 ->77 68 ->77 68 ->79 69 ->81 70 ->77 71 ->77 72 ->77 72 ->79 72 ->80 72 ->82 73 ->78 74 ->78 74 ->82 75 ->82 76 ->78 76 ->80 76 ->82 77 ->84 77 ->86 77 ->90 78 ->83 78 ->84 78 ->85 78 ->88 78 ->91 79 ->83 79 ->87 79 ->88 79 ->91 80 ->83 80 ->85 80 ->88 80 ->93 81 ->84 81 ->87 82 ->89 82 ->90 82 ->91 82 ->92 82 ->93 83 ->94 83 ->95 83 ->96 83 ->99 84 ->96 84 ->97 85 ->96 85 ->99 86 ->97 87 ->96 88 ->96 88 ->97 88 ->98 89 ->97 90 ->95 90 ->96 90 ->97 91 ->97 92 ->99 93 ->95 
}
