digraph G {
0 ->17 1 ->14 2 ->14 2 ->16 3 ->14 3 ->17 4 ->14 7 ->16 7 ->18 8 ->15 9 ->15 10 ->14 10 ->15 11 ->14 11 ->15 11 ->16 11 ->18 12 ->15 13 ->14 13 ->17 14 ->22 14 ->26 14 ->28 14 ->29 14 ->31 15 ->19 15 ->21 15 ->23 15 ->25 15 ->28 15 ->30 15 ->31 15 ->32 16 ->19 16 ->21 16 ->22 16 ->23 16 ->24 16 ->25 16 ->27 16 ->30 16 ->32 17 ->22 17 ->27 17 ->28 17 ->30 18 ->19 18 ->20 18 ->26 18 ->27 18 ->31 19 ->34 19 ->36 20 ->35 20 ->37 23 ->33 23 ->34 23 ->35 23 ->37 25 ->33 25 ->37 26 ->33 26 ->34 27 ->34 27 ->37 28 ->33 28 ->34 28 ->37 29 ->33 30 ->33 31 ->33 31 ->37 32 ->37 33 ->44 33 ->47 34 ->38 34 ->41 34 ->43 35 ->38 35 ->40 35 ->41 35 ->46 36 ->38 36 ->39 36 ->41 36 ->42 36 ->45 37 ->39 37 ->43 37 ->45 37 ->46 37 ->47 38 ->49 40 ->48 40 ->49 40 ->50 40 ->52 41 ->48 41 ->54 42 ->48 42 ->52 42 ->53 43 ->48 43 ->49 43 ->51 43 ->52 43 ->53 44 ->48 45 ->52 45 ->53 46 ->50 46 ->52 47 ->49 47 ->53 47 ->54 48 ->55 48 ->58 49 ->55 49 ->59 51 ->58 52 ->57 52 ->58 53 ->55 53 ->56 53 ->59 54 ->58 55 ->60 55 ->61 55 ->63 55 ->68 55 ->69 56 ->60 56 ->62 56 ->63 56 ->67 56 ->71 57 ->60 57 ->62 57 ->64 57 ->65 57 ->66 57 ->67 57 ->71 58 ->61 58 ->62 58 ->64 58 ->65 58 ->66 58 ->71 59 ->61 59 ->69 59 ->70 60 ->73 60 ->81 61 ->72 61 ->77 61 ->78 61 ->81 62 ->72 62 ->80 62 ->81 63 ->73 63 ->78 63 ->79 63 ->81 64 ->73 64 ->77 64 ->78 65 ->73 65 ->75 65 ->79 65 ->80 66 ->74 66 ->77 66 ->78 66 ->80 67 ->77 67 ->78 68 ->73 68 ->78 68 ->79 69 ->76 69 ->77 69 ->79 69 ->81 70 ->75 70 ->76 70 ->81 71 ->75 71 ->76 72 ->83 72 ->85 72 ->89 73 ->82 73 ->85 73 ->90 74 ->82 75 ->82 76 ->82 77 ->84 77 ->87 78 ->83 78 ->84 78 ->85 78 ->86 79 ->83 79 ->84 79 ->85 79 ->88 80 ->83 80 ->85 80 ->89 81 ->83 81 ->84 82 ->91 82 ->94 82 ->96 83 ->99 84 ->97 84 ->98 84 ->99 85 ->93 86 ->91 86 ->93 86 ->95 86 ->98 86 ->99 87 ->91 87 ->92 87 ->93 87 ->95 87 ->99 88 ->92 88 ->93 88 ->95 88 ->95 88 ->97 88 ->98 89 ->91 89 ->92 90 ->91 90 ->92 90 ->93 90 ->96 90 ->97 
}
