digraph G {
0 ->14 1 ->18 2 ->17 2 ->18 3 ->16 4 ->18 5 ->15 6 ->15 7 ->17 8 ->17 8 ->18 9 ->15 11 ->17 12 ->15 12 ->16 12 ->17 13 ->15 13 ->16 13 ->17 14 ->21 14 ->28 15 ->20 15 ->24 15 ->27 15 ->28 16 ->19 16 ->23 16 ->24 16 ->25 16 ->26 16 ->28 17 ->23 17 ->23 18 ->21 18 ->22 18 ->25 19 ->32 19 ->36 20 ->30 20 ->31 21 ->29 21 ->31 23 ->29 23 ->30 23 ->31 23 ->32 23 ->33 23 ->34 23 ->36 24 ->30 24 ->32 24 ->33 24 ->36 25 ->31 25 ->32 25 ->33 25 ->35 26 ->34 28 ->33 28 ->34 28 ->35 28 ->36 29 ->39 30 ->39 30 ->41 30 ->42 31 ->37 32 ->38 33 ->38 33 ->41 33 ->42 34 ->41 34 ->42 35 ->37 35 ->39 35 ->40 35 ->41 36 ->39 36 ->40 37 ->43 37 ->44 37 ->46 37 ->47 39 ->43 40 ->47 42 ->43 42 ->45 42 ->47 43 ->49 43 ->56 44 ->48 44 ->53 44 ->55 44 ->56 44 ->58 44 ->60 45 ->48 45 ->53 45 ->54 45 ->55 45 ->57 46 ->49 46 ->51 46 ->52 46 ->56 46 ->59 46 ->60 47 ->49 47 ->50 47 ->51 47 ->52 47 ->60 47 ->61 48 ->65 48 ->66 48 ->67 48 ->70 48 ->71 49 ->65 49 ->66 49 ->70 50 ->65 50 ->67 51 ->65 51 ->66 51 ->67 52 ->69 52 ->72 54 ->63 54 ->64 54 ->66 54 ->67 54 ->69 54 ->71 54 ->72 55 ->67 55 ->70 55 ->71 56 ->63 56 ->67 56 ->70 56 ->71 56 ->72 57 ->63 57 ->65 57 ->66 57 ->68 57 ->69 57 ->70 57 ->71 57 ->72 58 ->67 58 ->69 59 ->62 59 ->68 59 ->71 60 ->68 60 ->72 61 ->65 61 ->68 61 ->69 62 ->77 63 ->73 63 ->74 63 ->77 64 ->75 66 ->76 67 ->76 68 ->73 68 ->74 68 ->77 71 ->73 72 ->73 72 ->77 73 ->78 73 ->81 73 ->82 75 ->79 75 ->80 76 ->79 76 ->80 76 ->82 77 ->78 77 ->80 78 ->85 78 ->89 78 ->91 79 ->84 79 ->85 79 ->88 79 ->90 79 ->91 80 ->83 80 ->86 80 ->87 80 ->90 81 ->83 81 ->86 81 ->90 82 ->83 82 ->88 82 ->89 84 ->93 84 ->94 84 ->95 85 ->93 86 ->94 87 ->92 87 ->94 88 ->92 89 ->92 89 ->95 90 ->93 90 ->96 91 ->93 91 ->95 92 ->98 93 ->99 94 ->97 94 ->98 96 ->99 
}
