digraph G {
0 ->12 0 ->15 0 ->18 0 ->23 1 ->17 1 ->20 1 ->21 2 ->12 2 ->18 2 ->19 2 ->20 2 ->23 3 ->21 4 ->15 4 ->18 4 ->21 5 ->11 5 ->12 5 ->13 5 ->14 5 ->16 6 ->11 6 ->13 6 ->14 6 ->15 6 ->21 6 ->23 7 ->10 7 ->11 7 ->12 7 ->13 7 ->14 7 ->16 7 ->17 7 ->22 8 ->11 8 ->13 8 ->18 8 ->19 9 ->12 9 ->13 9 ->14 9 ->15 9 ->18 9 ->19 10 ->26 10 ->29 10 ->30 10 ->31 10 ->32 11 ->24 11 ->26 11 ->27 11 ->31 12 ->29 12 ->31 13 ->27 13 ->29 13 ->31 13 ->33 14 ->25 14 ->30 14 ->31 14 ->34 15 ->25 15 ->26 15 ->29 15 ->33 16 ->26 16 ->30 16 ->33 16 ->34 17 ->30 17 ->34 18 ->30 18 ->32 19 ->25 19 ->27 19 ->31 19 ->34 20 ->34 20 ->35 21 ->29 21 ->32 21 ->33 21 ->35 22 ->26 22 ->27 22 ->28 22 ->29 22 ->32 22 ->35 23 ->26 23 ->28 23 ->29 23 ->32 23 ->33 23 ->35 24 ->36 24 ->44 25 ->36 25 ->38 25 ->40 25 ->41 25 ->45 26 ->38 26 ->40 26 ->42 27 ->37 27 ->40 28 ->40 28 ->42 28 ->45 29 ->36 29 ->43 29 ->45 30 ->41 30 ->45 31 ->38 31 ->40 31 ->41 33 ->39 33 ->41 34 ->40 34 ->41 34 ->45 35 ->41 35 ->43 37 ->46 37 ->47 37 ->48 38 ->48 39 ->48 40 ->49 40 ->50 41 ->50 42 ->46 42 ->48 42 ->50 43 ->46 43 ->47 44 ->49 45 ->46 45 ->50 46 ->51 46 ->52 46 ->53 46 ->58 47 ->51 47 ->55 48 ->55 48 ->57 49 ->53 49 ->54 49 ->55 50 ->51 50 ->53 50 ->56 50 ->58 51 ->59 51 ->60 51 ->62 52 ->60 52 ->60 52 ->61 52 ->62 52 ->63 53 ->59 53 ->63 53 ->64 54 ->62 55 ->63 55 ->64 56 ->59 56 ->61 57 ->61 58 ->63 59 ->70 60 ->66 60 ->69 60 ->71 61 ->65 61 ->67 61 ->71 62 ->65 62 ->66 62 ->67 62 ->68 62 ->70 62 ->71 64 ->68 65 ->72 65 ->74 65 ->77 65 ->78 66 ->72 66 ->76 67 ->72 67 ->73 67 ->77 67 ->79 68 ->73 68 ->73 68 ->78 68 ->79 69 ->73 69 ->77 69 ->79 70 ->77 71 ->74 71 ->75 72 ->81 72 ->84 73 ->81 73 ->82 73 ->83 74 ->80 74 ->81 75 ->80 75 ->82 76 ->80 76 ->82 77 ->82 78 ->84 79 ->81 79 ->83 79 ->84 80 ->85 80 ->87 80 ->89 81 ->85 81 ->88 81 ->90 81 ->93 81 ->95 82 ->85 82 ->86 82 ->93 82 ->94 82 ->95 83 ->86 83 ->89 83 ->91 83 ->92 84 ->87 84 ->92 84 ->94 84 ->95 84 ->96 85 ->97 87 ->97 88 ->97 88 ->98 88 ->99 89 ->97 89 ->98 89 ->99 90 ->97 90 ->98 93 ->98 94 ->98 95 ->98 
}
