digraph G {
0 ->15 1 ->14 1 ->15 1 ->16 2 ->12 2 ->14 2 ->15 3 ->12 4 ->13 5 ->14 5 ->16 7 ->15 7 ->16 8 ->13 8 ->15 9 ->15 10 ->12 10 ->13 11 ->12 11 ->16 12 ->20 12 ->21 13 ->18 13 ->19 13 ->21 14 ->21 15 ->17 15 ->20 16 ->18 16 ->19 16 ->20 17 ->22 17 ->24 17 ->25 17 ->26 18 ->25 18 ->29 19 ->23 19 ->28 19 ->30 20 ->23 20 ->26 20 ->27 20 ->30 21 ->22 21 ->26 21 ->27 21 ->29 22 ->39 22 ->40 22 ->41 23 ->32 23 ->33 23 ->35 23 ->38 23 ->39 24 ->33 24 ->35 24 ->40 24 ->41 24 ->42 25 ->32 25 ->33 25 ->35 25 ->37 25 ->41 26 ->33 26 ->35 26 ->36 26 ->37 26 ->39 27 ->31 27 ->33 27 ->35 27 ->36 28 ->31 28 ->34 28 ->36 28 ->40 28 ->41 28 ->42 29 ->40 30 ->36 30 ->37 30 ->40 30 ->41 31 ->47 31 ->49 31 ->52 32 ->46 32 ->48 33 ->45 33 ->48 34 ->44 34 ->48 34 ->55 35 ->46 36 ->44 36 ->46 36 ->47 36 ->49 36 ->51 36 ->54 37 ->47 37 ->48 37 ->50 37 ->52 37 ->54 37 ->54 38 ->48 38 ->53 38 ->55 39 ->49 39 ->55 40 ->48 40 ->49 40 ->50 40 ->52 41 ->47 41 ->49 41 ->50 41 ->55 42 ->43 42 ->47 42 ->49 42 ->50 43 ->58 43 ->59 43 ->61 43 ->66 44 ->60 44 ->61 44 ->62 44 ->68 45 ->56 45 ->64 46 ->56 46 ->57 46 ->58 46 ->60 46 ->64 47 ->57 47 ->58 47 ->62 47 ->66 48 ->57 48 ->63 48 ->66 48 ->69 49 ->56 49 ->59 49 ->62 49 ->65 49 ->66 49 ->67 49 ->69 50 ->61 50 ->66 50 ->69 51 ->64 52 ->58 53 ->58 53 ->62 53 ->64 53 ->66 54 ->56 54 ->57 54 ->58 54 ->62 54 ->63 55 ->58 55 ->64 55 ->69 56 ->74 56 ->75 56 ->77 56 ->78 56 ->80 56 ->82 57 ->70 57 ->72 58 ->70 58 ->71 58 ->74 58 ->80 58 ->81 59 ->74 59 ->76 60 ->70 60 ->74 60 ->76 60 ->82 61 ->71 61 ->72 61 ->74 61 ->76 61 ->80 61 ->82 62 ->70 62 ->71 62 ->76 62 ->76 62 ->78 62 ->79 63 ->70 63 ->71 63 ->75 63 ->76 63 ->77 63 ->78 63 ->82 64 ->70 64 ->73 64 ->79 64 ->82 65 ->82 66 ->72 66 ->74 66 ->75 66 ->76 66 ->78 66 ->81 67 ->72 67 ->73 67 ->74 67 ->75 67 ->79 68 ->73 68 ->75 68 ->78 68 ->81 69 ->70 69 ->77 69 ->80 69 ->82 70 ->87 70 ->90 70 ->91 71 ->83 71 ->88 71 ->92 72 ->83 72 ->84 72 ->85 72 ->89 72 ->92 72 ->94 73 ->86 73 ->90 73 ->91 74 ->83 74 ->92 74 ->93 75 ->83 75 ->85 75 ->88 75 ->93 76 ->83 76 ->85 76 ->89 76 ->92 76 ->93 77 ->86 77 ->87 77 ->91 78 ->86 78 ->93 79 ->83 79 ->90 79 ->91 79 ->92 80 ->83 80 ->90 80 ->91 81 ->84 81 ->85 81 ->87 81 ->93 82 ->84 82 ->85 84 ->95 85 ->95 86 ->95 87 ->97 89 ->96 90 ->95 90 ->98 90 ->99 91 ->95 91 ->96 91 ->98 91 ->99 92 ->96 92 ->99 93 ->95 93 ->98 94 ->98 94 ->98 
}
