files/tasks_parameters/ExAp01/sample8.txt 1.17042 6.77015 2.19458 0.288816 6.03311
files/tasks_parameters/ExAp01/sample12.txt 1.39585 9.58351 2.46081 0.337498 7.05003
files/tasks_parameters/ExAp01/sample2.txt 1.30425 8.44418 2.50701 0.319127 6.66627
files/tasks_parameters/ExAp01/sample44.txt 1.15822 6.96299 2.23089 0.28229 5.89678
files/tasks_parameters/ExAp01/sample27.txt 1.16113 7.74306 2.16676 0.28602 5.97469
files/tasks_parameters/ExAp01/sample17.txt 1.19331 7.35053 2.25579 0.292348 6.10687
files/tasks_parameters/ExAp01/sample9.txt 1.15035 6.89392 2.21068 0.282399 5.89905
files/tasks_parameters/ExAp01/sample34.txt 1.21327 6.62788 2.3772 0.297742 6.21955
files/tasks_parameters/ExAp01/sample40.txt 1.16108 7.75686 2.17534 0.285619 5.96632
files/tasks_parameters/ExAp01/sample33.txt 1.38421 8.14826 2.6463 0.338073 7.06204
files/tasks_parameters/ExAp01/sample48.txt 1.10382 7.64107 2.14272 0.270011 5.64028
files/tasks_parameters/ExAp01/sample29.txt 1.14653 7.139 1.93769 0.286306 5.98066
files/tasks_parameters/ExAp01/sample11.txt 1.13861 6.88688 2.12981 0.280008 5.84912
files/tasks_parameters/ExAp01/sample14.txt 1.01749 6.11983 1.97599 0.247458 5.16916
files/tasks_parameters/ExAp01/sample0.txt 1.19241 8.2738 2.14256 0.289132 6.03969
files/tasks_parameters/ExAp01/sample7.txt 1.10456 6.87011 2.05821 0.269886 5.63766
files/tasks_parameters/ExAp01/sample23.txt 1.18557 6.52032 2.38087 0.291712 6.09358
files/tasks_parameters/ExAp01/sample13.txt 1.21727 8.73247 2.33415 0.295393 6.17048
files/tasks_parameters/ExAp01/sample22.txt 1.15982 6.9777 2.28948 0.283979 5.93206
files/tasks_parameters/ExAp01/sample25.txt 1.09414 6.23444 2.2122 0.267298 5.5836
files/tasks_parameters/ExAp01/sample36.txt 1.05414 6.6174 1.9458 0.253823 5.30212
files/tasks_parameters/ExAp01/sample46.txt 1.33056 7.42369 2.49128 0.327273 6.83643
files/tasks_parameters/ExAp01/sample31.txt 1.04319 7.22028 2.13584 0.25377 5.30102
files/tasks_parameters/ExAp01/sample37.txt 1.27194 8.90704 2.16981 0.295708 6.17707
files/tasks_parameters/ExAp01/sample16.txt 1.0494 8.18243 1.88294 0.24945 5.21077
files/tasks_parameters/ExAp01/sample10.txt 1.22921 6.96646 2.31217 0.285748 5.96901
files/tasks_parameters/ExAp01/sample39.txt 1.04466 6.4161 1.97266 0.251967 5.26335
files/tasks_parameters/ExAp01/sample19.txt 1.29479 8.16711 2.23199 0.308463 6.4435
files/tasks_parameters/ExAp01/sample20.txt 1.05468 7.28549 1.88944 0.25994 5.4299
files/tasks_parameters/ExAp01/sample43.txt 1.04102 6.86804 2.00142 0.25616 5.35095
files/tasks_parameters/ExAp01/sample32.txt 1.15 8.15663 2.12995 0.281726 5.885
files/tasks_parameters/ExAp01/sample45.txt 1.13562 7.75184 2.10599 0.274935 5.74314
files/tasks_parameters/ExAp01/sample26.txt 1.09281 7.4944 1.88956 0.267248 5.58256
files/tasks_parameters/ExAp01/sample5.txt 1.16465 8.08362 2.09961 0.28454 5.94378
files/tasks_parameters/ExAp01/sample21.txt 1.07023 6.11814 2.17119 0.26143 5.46102
files/tasks_parameters/ExAp01/sample38.txt 1.06857 7.761 1.96293 0.263659 5.50759
files/tasks_parameters/ExAp01/sample1.txt 1.18388 7.83752 2.13261 0.289228 6.04171
files/tasks_parameters/ExAp01/sample15.txt 1.16246 7.37971 2.12057 0.285825 5.97063
files/tasks_parameters/ExAp01/sample24.txt 1.21104 8.28531 2.25272 0.296628 6.19629
files/tasks_parameters/ExAp01/sample3.txt 1.24935 7.33359 2.39135 0.305084 6.37293
files/tasks_parameters/ExAp01/sample6.txt 1.14305 7.09894 2.24425 0.281804 5.88663
files/tasks_parameters/ExAp01/sample30.txt 1.26459 8.17669 2.03701 0.299204 6.2501
files/tasks_parameters/ExAp01/sample42.txt 1.21429 7.70416 2.42413 0.29743 6.21304
files/tasks_parameters/ExAp01/sample4.txt 1.26155 7.41691 2.36261 0.307803 6.42971
files/tasks_parameters/ExAp01/sample28.txt 1.07922 7.0562 2.07657 0.266428 5.56543
files/tasks_parameters/ExAp01/sample18.txt 1.08158 7.60139 2.1377 0.268016 5.59861
files/tasks_parameters/ExAp01/sample35.txt 1.32078 9.66795 2.28028 0.32244 6.73547
files/tasks_parameters/ExAp01/sample47.txt 1.03211 6.84842 2.12104 0.251655 5.25683
files/tasks_parameters/ExAp01/sample49.txt 1.02974 7.1497 2.11412 0.255889 5.34528
files/tasks_parameters/ExAp01/sample41.txt 1.08332 6.59911 2.07359 0.265885 5.5541
