0.39401927
Task0 15 63 15 
Task1 255 1 15 
Task2 31 15 255 
Task3 63 31 127 
Task4 7 63 31 
Task5 255 31 3 
Task6 15 255 255 
Task7 31 31 255 
Task8 255 63 15 
Task9 7 7 255 
Task10 127 255 63 
Task11 255 63 63 
Task12 63 63 63 
Task13 255 255 3 
Task14 63 255 127 
Task15 127 7 255 
Task16 7 31 255 
Task17 255 63 127 
Task18 31 15 255 
Task19 31 127 127 
Task20 63 7 1 
Task21 31 255 63 
Task22 127 127 127 
Task23 15 255 31 
Task24 31 15 63 
Task25 63 63 63 
Task26 31 127 31 
Task27 7 3 255 
Task28 255 255 31 
Task29 127 255 15 
Task30 31 31 255 
Task31 63 255 7 
Task32 127 3 127 
Task33 63 255 63 
Task34 31 31 7 
Task35 127 255 63 
Task36 127 31 31 
Task37 15 127 127 
Task38 255 7 7 
Task39 255 15 15 
Task40 255 31 15 
Task41 3 255 255 
Task42 127 255 63 
Task43 1 7 255 
Task44 255 15 63 
Task45 31 15 63 
Task46 127 255 127 
Task47 63 255 15 
Task48 7 255 63 
Task49 7 255 255 
Task50 127 255 15 
Task51 7 255 15 
Task52 255 7 1 
Task53 31 7 255 
Task54 7 63 63 
Task55 127 63 63 
Task56 255 3 15 
Task57 255 31 255 
Task58 63 127 255 
Task59 31 63 1 
Task60 255 31 7 
Task61 31 255 31 
Task62 31 1 255 
Task63 7 7 255 
Task64 15 63 255 
Task65 255 63 63 
Task66 7 7 31 
Task67 63 7 63 
Task68 7 15 127 
Task69 63 31 255 
Task70 15 255 31 
Task71 31 255 127 
Task72 1 1 255 
Task73 127 127 31 
Task74 1 255 31 
Task75 255 255 255 
Task76 31 15 7 
Task77 255 127 63 
Task78 127 31 63 
Task79 31 3 255 
Task80 127 31 127 
Task81 255 255 255 
Task82 31 15 255 
Task83 63 255 31 
Task84 63 255 255 
Task85 15 127 255 
Task86 63 127 63 
Task87 15 255 1 
Task88 1 31 127 
Task89 63 31 63 
Task90 7 255 1 
Task91 63 255 7 
Task92 255 15 63 
Task93 1 31 31 
Task94 127 127 127 
Task95 63 127 255 
Task96 255 63 31 
Task97 127 255 255 
Task98 3 255 63 
Task99 15 31 255 
