files/tasks_parameters/ExAp01/sample8.txt 1.08361 3.76817 4.3855 0.450105 12.87
files/tasks_parameters/ExAp01/sample12.txt 1.50473 5.03638 5.18776 0.610564 17.458
files/tasks_parameters/ExAp01/sample2.txt 1.41474 4.58991 5.64606 0.613877 17.5528
files/tasks_parameters/ExAp01/sample44.txt 1.25959 3.77401 5.66946 0.551838 15.7788
files/tasks_parameters/ExAp01/sample27.txt 1.29418 4.13937 5.56136 0.55779 15.949
files/tasks_parameters/ExAp01/sample17.txt 1.19475 3.76163 5.38341 0.520991 14.8968
files/tasks_parameters/ExAp01/sample9.txt 1.1433 3.69889 5.2981 0.511699 14.6312
files/tasks_parameters/ExAp01/sample34.txt 1.13513 3.52435 5.83741 0.49187 14.0642
files/tasks_parameters/ExAp01/sample40.txt 1.15486 4.06185 5.0335 0.496884 14.2075
files/tasks_parameters/ExAp01/sample33.txt 1.55311 4.82091 5.83886 0.651963 18.6417
files/tasks_parameters/ExAp01/sample48.txt 1.06942 4.01134 5.07085 0.447927 12.8077
files/tasks_parameters/ExAp01/sample29.txt 1.48178 4.20847 5.0406 0.643694 18.4053
files/tasks_parameters/ExAp01/sample11.txt 1.31883 3.94699 5.29198 0.557276 15.9343
files/tasks_parameters/ExAp01/sample14.txt 1.08414 3.54059 4.58345 0.466713 13.3449
files/tasks_parameters/ExAp01/sample0.txt 1.49565 4.82755 4.90216 0.623551 17.8293
files/tasks_parameters/ExAp01/sample7.txt 1.15513 3.60766 5.11185 0.509566 14.5701
files/tasks_parameters/ExAp01/sample23.txt 1.41566 3.81403 5.45799 0.582911 16.6673
files/tasks_parameters/ExAp01/sample13.txt 1.46339 4.8894 5.26818 0.624499 17.8565
files/tasks_parameters/ExAp01/sample22.txt 1.29415 3.76156 4.95746 0.534216 15.275
files/tasks_parameters/ExAp01/sample25.txt 0.976769 2.94144 4.92622 0.403639 11.5414
files/tasks_parameters/ExAp01/sample36.txt 1.25826 3.56164 4.5806 0.501799 14.3481
files/tasks_parameters/ExAp01/sample46.txt 1.2969 3.84833 4.7121 0.530701 15.1745
files/tasks_parameters/ExAp01/sample31.txt 1.07256 3.764 5.08385 0.479734 13.7172
files/tasks_parameters/ExAp01/sample37.txt 1.52769 4.43254 5.65111 0.65143 18.6265
files/tasks_parameters/ExAp01/sample16.txt 1.27293 4.49741 4.8895 0.509171 14.5589
files/tasks_parameters/ExAp01/sample10.txt 1.38978 3.87086 6.07511 0.60993 17.4399
files/tasks_parameters/ExAp01/sample39.txt 1.08837 3.66299 4.54281 0.463671 13.2579
files/tasks_parameters/ExAp01/sample19.txt 1.41011 3.86694 5.14047 0.615987 17.6131
files/tasks_parameters/ExAp01/sample20.txt 1.30362 4.09945 5.13368 0.580369 16.5946
files/tasks_parameters/ExAp01/sample43.txt 1.15768 3.75825 5.55698 0.530892 15.1799
files/tasks_parameters/ExAp01/sample32.txt 1.42828 4.0352 5.29178 0.587643 16.8026
files/tasks_parameters/ExAp01/sample45.txt 1.22612 3.94578 4.87833 0.541081 15.4713
files/tasks_parameters/ExAp01/sample26.txt 1.11075 3.50998 4.55035 0.474009 13.5535
files/tasks_parameters/ExAp01/sample5.txt 1.38308 4.00994 5.27725 0.587681 16.8037
files/tasks_parameters/ExAp01/sample21.txt 0.935311 2.8974 4.54677 0.430037 12.2962
files/tasks_parameters/ExAp01/sample38.txt 1.17206 3.56689 4.78573 0.492366 14.0784
files/tasks_parameters/ExAp01/sample1.txt 1.15683 3.69002 4.55048 0.481074 13.7555
files/tasks_parameters/ExAp01/sample15.txt 1.20629 3.73223 5.42493 0.524964 15.0104
files/tasks_parameters/ExAp01/sample24.txt 1.27047 4.18053 5.40377 0.542575 15.514
files/tasks_parameters/ExAp01/sample3.txt 1.08376 3.70547 4.7118 0.470503 13.4532
files/tasks_parameters/ExAp01/sample6.txt 1.3864 4.07521 5.71419 0.626702 17.9195
files/tasks_parameters/ExAp01/sample30.txt 1.49621 3.97446 5.82388 0.626709 17.9197
files/tasks_parameters/ExAp01/sample42.txt 1.29681 4.44207 5.58473 0.537025 15.3553
files/tasks_parameters/ExAp01/sample4.txt 1.40755 3.92181 4.49751 0.556974 15.9257
files/tasks_parameters/ExAp01/sample28.txt 1.02434 3.13496 4.88321 0.444588 12.7122
files/tasks_parameters/ExAp01/sample18.txt 1.22792 3.95301 4.52898 0.537438 15.3671
files/tasks_parameters/ExAp01/sample35.txt 1.80993 5.75923 6.25034 0.752488 21.5161
files/tasks_parameters/ExAp01/sample47.txt 1.16153 3.44018 5.14289 0.540033 15.4413
files/tasks_parameters/ExAp01/sample49.txt 1.23002 3.38981 4.72409 0.493041 14.0977
files/tasks_parameters/ExAp01/sample41.txt 1.10214 3.58692 5.27252 0.492391 14.0791
