files/tasks_parameters/ExAp01/sample8.txt 1.29145 6.77015 2.19458 0.288816 10.7701
files/tasks_parameters/ExAp01/sample12.txt 1.30749 9.58351 2.46081 0.337498 12.5855
files/tasks_parameters/ExAp01/sample2.txt 1.31409 8.44418 2.50701 0.319127 11.9004
files/tasks_parameters/ExAp01/sample44.txt 1.18433 6.96299 2.23089 0.28229 10.5267
files/tasks_parameters/ExAp01/sample27.txt 1.1515 7.74306 2.16676 0.28602 10.6658
files/tasks_parameters/ExAp01/sample17.txt 1.20394 7.35053 2.25579 0.292348 10.9018
files/tasks_parameters/ExAp01/sample9.txt 1.14049 6.89392 2.21068 0.282399 10.5308
files/tasks_parameters/ExAp01/sample34.txt 1.0953 6.62788 2.3772 0.297742 11.1029
files/tasks_parameters/ExAp01/sample40.txt 1.07749 7.75686 2.17534 0.285619 10.6509
files/tasks_parameters/ExAp01/sample33.txt 1.27832 8.14826 2.6463 0.338073 12.6069
files/tasks_parameters/ExAp01/sample48.txt 1.00682 7.64107 2.14272 0.270011 10.0688
files/tasks_parameters/ExAp01/sample29.txt 1.05369 7.139 1.93769 0.286306 10.6765
files/tasks_parameters/ExAp01/sample11.txt 1.11418 6.88688 2.12981 0.280008 10.4416
files/tasks_parameters/ExAp01/sample14.txt 1.03371 6.11983 1.97599 0.247458 9.22779
files/tasks_parameters/ExAp01/sample0.txt 1.20129 8.2738 2.14256 0.289132 10.7818
files/tasks_parameters/ExAp01/sample7.txt 1.01352 6.87011 2.05821 0.269886 10.0641
files/tasks_parameters/ExAp01/sample23.txt 1.18408 6.52032 2.38087 0.291712 10.878
files/tasks_parameters/ExAp01/sample13.txt 1.16448 8.73247 2.33415 0.295393 11.0153
files/tasks_parameters/ExAp01/sample22.txt 1.08127 6.9777 2.28948 0.283979 10.5897
files/tasks_parameters/ExAp01/sample25.txt 1.04844 6.23444 2.2122 0.267298 9.96764
files/tasks_parameters/ExAp01/sample36.txt 1.22737 6.6174 1.9458 0.253823 9.46515
files/tasks_parameters/ExAp01/sample46.txt 1.44229 7.42369 2.49128 0.327273 12.2041
files/tasks_parameters/ExAp01/sample31.txt 0.955371 7.22028 2.13584 0.25377 9.46318
files/tasks_parameters/ExAp01/sample37.txt 1.1981 8.90704 2.16981 0.295708 11.0271
files/tasks_parameters/ExAp01/sample16.txt 1.06421 8.18243 1.88294 0.24945 9.30208
files/tasks_parameters/ExAp01/sample10.txt 1.0988 6.96646 2.31217 0.285748 10.6557
files/tasks_parameters/ExAp01/sample39.txt 1.00176 6.4161 1.97266 0.251967 9.39594
files/tasks_parameters/ExAp01/sample19.txt 1.30221 8.16711 2.23199 0.308463 11.5027
files/tasks_parameters/ExAp01/sample20.txt 1.03211 7.28549 1.88944 0.25994 9.69326
files/tasks_parameters/ExAp01/sample43.txt 0.893499 6.86804 2.00142 0.25616 9.55231
files/tasks_parameters/ExAp01/sample32.txt 1.11587 8.15663 2.12995 0.281726 10.5057
files/tasks_parameters/ExAp01/sample45.txt 1.06866 7.75184 2.10599 0.274935 10.2524
files/tasks_parameters/ExAp01/sample26.txt 0.951311 7.4944 1.88956 0.267248 9.96578
files/tasks_parameters/ExAp01/sample5.txt 1.19795 8.08362 2.09961 0.28454 10.6106
files/tasks_parameters/ExAp01/sample21.txt 1.13028 6.11814 2.17119 0.26143 9.74881
files/tasks_parameters/ExAp01/sample38.txt 1.03144 7.761 1.96293 0.263659 9.83194
files/tasks_parameters/ExAp01/sample1.txt 1.28924 7.83752 2.13261 0.289228 10.7854
files/tasks_parameters/ExAp01/sample15.txt 1.04342 7.37971 2.12057 0.285825 10.6585
files/tasks_parameters/ExAp01/sample24.txt 1.17202 8.28531 2.25272 0.296628 11.0614
files/tasks_parameters/ExAp01/sample3.txt 1.25937 7.33359 2.39135 0.305084 11.3767
files/tasks_parameters/ExAp01/sample6.txt 1.12058 7.09894 2.24425 0.281804 10.5086
files/tasks_parameters/ExAp01/sample30.txt 1.2622 8.17669 2.03701 0.299204 11.1574
files/tasks_parameters/ExAp01/sample42.txt 1.20169 7.70416 2.42413 0.29743 11.0913
files/tasks_parameters/ExAp01/sample4.txt 1.31539 7.41691 2.36261 0.307803 11.4781
files/tasks_parameters/ExAp01/sample28.txt 1.00698 7.0562 2.07657 0.266428 9.9352
files/tasks_parameters/ExAp01/sample18.txt 1.10978 7.60139 2.1377 0.268016 9.99442
files/tasks_parameters/ExAp01/sample35.txt 1.41359 9.66795 2.28028 0.32244 12.0239
files/tasks_parameters/ExAp01/sample47.txt 0.992289 6.84842 2.12104 0.251655 9.3843
files/tasks_parameters/ExAp01/sample49.txt 1.01546 7.1497 2.11412 0.255889 9.5422
files/tasks_parameters/ExAp01/sample41.txt 1.06768 6.59911 2.07359 0.265885 9.91497
