digraph G {
0 ->7 0 ->8 1 ->5 2 ->6 2 ->7 4 ->9 5 ->10 5 ->13 5 ->14 5 ->18 5 ->19 6 ->10 7 ->11 7 ->14 7 ->18 8 ->11 8 ->17 9 ->12 9 ->15 9 ->16 9 ->20 10 ->23 10 ->25 10 ->26 11 ->23 11 ->24 12 ->23 13 ->21 13 ->22 13 ->25 14 ->21 14 ->23 14 ->25 14 ->26 15 ->25 15 ->26 16 ->25 17 ->24 18 ->26 18 ->27 20 ->24 20 ->26 21 ->30 21 ->34 22 ->29 22 ->31 23 ->28 23 ->32 23 ->34 25 ->33 26 ->29 26 ->30 26 ->31 26 ->32 27 ->28 27 ->29 27 ->30 27 ->31 27 ->32 27 ->33 28 ->39 29 ->36 29 ->37 29 ->39 29 ->40 30 ->37 30 ->41 31 ->40 32 ->38 33 ->35 33 ->38 34 ->41 35 ->42 35 ->43 35 ->48 35 ->50 35 ->51 36 ->43 37 ->47 37 ->48 37 ->50 37 ->52 38 ->42 38 ->44 38 ->45 38 ->49 38 ->53 39 ->42 39 ->44 39 ->46 39 ->49 39 ->53 40 ->46 40 ->51 41 ->43 41 ->45 41 ->46 41 ->51 41 ->52 41 ->54 42 ->58 42 ->61 42 ->62 43 ->57 43 ->62 44 ->57 45 ->55 45 ->59 45 ->61 45 ->62 46 ->59 46 ->60 47 ->61 48 ->60 50 ->57 50 ->62 51 ->57 51 ->58 52 ->56 52 ->57 52 ->59 53 ->58 53 ->61 55 ->63 55 ->66 55 ->67 55 ->76 56 ->66 56 ->67 56 ->72 56 ->74 56 ->75 57 ->66 57 ->68 57 ->73 57 ->75 58 ->69 58 ->73 58 ->74 58 ->75 59 ->70 59 ->71 59 ->74 60 ->64 60 ->65 60 ->67 60 ->68 60 ->73 61 ->65 61 ->68 61 ->69 62 ->66 62 ->74 62 ->75 63 ->77 63 ->78 63 ->80 64 ->78 64 ->81 65 ->80 65 ->82 66 ->77 67 ->83 68 ->83 69 ->78 70 ->77 70 ->78 71 ->78 72 ->77 72 ->79 72 ->80 73 ->82 73 ->83 74 ->83 74 ->83 76 ->80 76 ->83 77 ->87 77 ->91 78 ->87 78 ->88 78 ->90 79 ->89 79 ->90 80 ->86 80 ->87 80 ->89 80 ->93 80 ->94 81 ->85 81 ->86 81 ->93 81 ->94 81 ->94 82 ->92 82 ->93 82 ->95 83 ->84 83 ->90 83 ->91 83 ->95 85 ->99 90 ->97 91 ->97 93 ->96 93 ->98 94 ->96 95 ->99 
}
