digraph G {
0 ->13 0 ->18 1 ->15 1 ->16 1 ->18 2 ->12 2 ->13 2 ->19 3 ->12 3 ->13 3 ->16 3 ->20 4 ->13 4 ->15 4 ->17 5 ->12 5 ->14 5 ->16 6 ->12 6 ->14 6 ->16 7 ->13 7 ->16 8 ->14 9 ->11 9 ->18 10 ->12 11 ->21 11 ->23 12 ->23 12 ->24 12 ->25 12 ->26 12 ->28 13 ->25 13 ->28 13 ->29 13 ->31 13 ->34 14 ->22 14 ->32 15 ->25 15 ->27 15 ->28 15 ->31 16 ->21 16 ->25 16 ->27 16 ->28 17 ->21 17 ->22 17 ->23 17 ->27 17 ->30 18 ->21 18 ->24 19 ->24 19 ->27 20 ->23 20 ->24 20 ->26 20 ->29 20 ->33 21 ->37 21 ->39 23 ->35 23 ->38 24 ->41 25 ->35 25 ->40 25 ->41 26 ->37 27 ->40 28 ->41 29 ->36 29 ->38 30 ->37 32 ->37 33 ->38 33 ->40 34 ->37 34 ->40 34 ->41 35 ->47 35 ->48 35 ->48 35 ->51 36 ->42 36 ->51 36 ->52 37 ->42 37 ->43 37 ->44 37 ->45 37 ->49 37 ->52 37 ->53 38 ->45 38 ->52 38 ->53 39 ->44 39 ->45 39 ->46 39 ->50 40 ->53 41 ->42 41 ->44 41 ->48 42 ->54 42 ->58 42 ->61 43 ->57 43 ->58 43 ->59 43 ->64 44 ->60 45 ->57 45 ->62 46 ->58 46 ->60 46 ->63 46 ->66 47 ->55 47 ->61 47 ->62 47 ->63 48 ->56 48 ->57 48 ->61 48 ->65 49 ->57 49 ->58 49 ->65 50 ->54 50 ->55 50 ->57 50 ->63 51 ->59 51 ->64 51 ->65 53 ->58 53 ->60 53 ->64 53 ->65 54 ->71 54 ->72 54 ->75 55 ->67 55 ->72 56 ->72 56 ->75 58 ->67 58 ->70 59 ->73 59 ->74 60 ->70 60 ->75 61 ->70 62 ->67 63 ->69 63 ->73 64 ->72 64 ->75 65 ->68 65 ->75 66 ->67 66 ->68 66 ->72 66 ->73 66 ->75 67 ->77 67 ->83 68 ->78 68 ->79 69 ->77 69 ->78 70 ->76 71 ->77 71 ->79 71 ->81 71 ->82 71 ->83 72 ->81 72 ->82 73 ->78 73 ->83 74 ->80 75 ->77 75 ->79 76 ->88 76 ->91 76 ->92 76 ->95 77 ->85 77 ->87 77 ->91 77 ->92 78 ->84 78 ->85 78 ->89 78 ->94 79 ->87 79 ->93 79 ->95 81 ->86 81 ->92 81 ->93 81 ->94 82 ->89 82 ->90 83 ->95 84 ->97 85 ->96 86 ->97 86 ->98 86 ->99 87 ->96 87 ->99 88 ->99 90 ->98 91 ->98 92 ->96 93 ->97 94 ->97 94 ->98 94 ->99 95 ->97 
}
