digraph G {
0 ->12 0 ->15 0 ->16 0 ->17 1 ->11 2 ->12 2 ->15 4 ->12 4 ->16 5 ->11 5 ->16 5 ->17 6 ->14 8 ->14 8 ->15 9 ->13 9 ->14 9 ->16 11 ->18 11 ->21 12 ->22 13 ->18 13 ->19 15 ->20 16 ->19 16 ->20 16 ->23 16 ->24 17 ->21 17 ->22 18 ->26 18 ->29 18 ->33 19 ->27 19 ->28 19 ->30 19 ->35 20 ->25 20 ->29 20 ->30 20 ->31 20 ->34 20 ->35 21 ->28 21 ->30 21 ->31 21 ->36 22 ->31 22 ->32 22 ->33 23 ->32 23 ->33 23 ->34 24 ->26 24 ->32 25 ->40 25 ->42 27 ->39 30 ->37 31 ->38 32 ->39 32 ->42 33 ->37 33 ->39 33 ->40 33 ->42 34 ->41 34 ->42 35 ->40 35 ->41 36 ->40 36 ->41 37 ->43 37 ->44 37 ->45 37 ->52 39 ->47 39 ->50 39 ->52 40 ->46 40 ->47 40 ->49 40 ->50 40 ->53 41 ->44 41 ->51 41 ->53 42 ->48 42 ->52 42 ->54 43 ->57 43 ->58 45 ->56 45 ->57 46 ->61 47 ->58 47 ->60 48 ->58 49 ->56 49 ->57 50 ->59 50 ->61 50 ->62 51 ->57 51 ->59 51 ->60 51 ->62 52 ->57 52 ->59 53 ->55 53 ->59 54 ->58 54 ->59 54 ->61 55 ->64 55 ->66 56 ->64 56 ->66 56 ->69 57 ->63 57 ->64 57 ->67 58 ->67 58 ->68 59 ->63 60 ->63 61 ->65 62 ->66 62 ->67 63 ->72 63 ->79 63 ->81 63 ->82 63 ->83 64 ->71 64 ->72 64 ->73 64 ->80 65 ->74 65 ->78 65 ->82 66 ->74 66 ->75 66 ->80 67 ->70 67 ->79 68 ->70 68 ->75 68 ->76 68 ->77 68 ->80 69 ->70 69 ->72 69 ->75 69 ->79 69 ->82 69 ->83 70 ->85 71 ->90 72 ->86 72 ->87 72 ->90 73 ->84 73 ->86 73 ->92 74 ->84 74 ->86 74 ->92 75 ->86 75 ->89 76 ->88 76 ->94 77 ->90 77 ->93 78 ->91 80 ->88 81 ->94 82 ->87 82 ->88 82 ->90 83 ->88 83 ->88 84 ->95 85 ->95 85 ->96 87 ->97 88 ->96 88 ->97 88 ->99 89 ->97 90 ->96 91 ->98 91 ->99 92 ->99 93 ->97 93 ->98 
}
