files/tasks_parameters/ExAp01/sample8.txt 1.11872 7.2562 4.46819 0.454772 13.2773
files/tasks_parameters/ExAp01/sample12.txt 1.64268 9.70908 5.28286 0.618515 18.0578
files/tasks_parameters/ExAp01/sample2.txt 1.50039 8.14159 5.7401 0.620531 18.1167
files/tasks_parameters/ExAp01/sample44.txt 1.39825 7.25164 5.75904 0.557631 16.2802
files/tasks_parameters/ExAp01/sample27.txt 1.32244 8.10944 5.64946 0.564878 16.4919
files/tasks_parameters/ExAp01/sample17.txt 1.2699 7.11225 5.46658 0.527183 15.3913
files/tasks_parameters/ExAp01/sample9.txt 1.21431 7.62559 5.37813 0.517277 15.1021
files/tasks_parameters/ExAp01/sample34.txt 1.23761 7.04587 5.93037 0.497709 14.5308
files/tasks_parameters/ExAp01/sample40.txt 1.201 8.03037 5.123 0.502383 14.6673
files/tasks_parameters/ExAp01/sample33.txt 1.63735 9.22935 5.92956 0.659262 19.2474
files/tasks_parameters/ExAp01/sample48.txt 1.15848 8.12182 5.1577 0.452491 13.2106
files/tasks_parameters/ExAp01/sample29.txt 1.55578 8.06133 5.12331 0.650652 18.9961
files/tasks_parameters/ExAp01/sample11.txt 1.36212 7.63104 5.37897 0.563302 16.4458
files/tasks_parameters/ExAp01/sample14.txt 1.13168 6.66403 4.66322 0.471536 13.7667
files/tasks_parameters/ExAp01/sample0.txt 1.64578 9.3266 4.98971 0.6311 18.4252
files/tasks_parameters/ExAp01/sample7.txt 1.2899 7.34863 5.19436 0.515527 15.051
files/tasks_parameters/ExAp01/sample23.txt 1.40562 6.68564 5.54308 0.588617 17.1849
files/tasks_parameters/ExAp01/sample13.txt 1.65128 9.31093 5.35591 0.632849 18.4763
files/tasks_parameters/ExAp01/sample22.txt 1.29523 7.65588 5.04866 0.540336 15.7753
files/tasks_parameters/ExAp01/sample25.txt 1.0295 6.17035 5.0141 0.408296 11.9204
files/tasks_parameters/ExAp01/sample36.txt 1.1881 7.03772 4.66274 0.507647 14.821
files/tasks_parameters/ExAp01/sample46.txt 1.3517 7.73433 4.79934 0.536843 15.6734
files/tasks_parameters/ExAp01/sample31.txt 1.19045 6.96928 5.16482 0.485817 14.1836
files/tasks_parameters/ExAp01/sample37.txt 1.63308 9.52443 5.74224 0.65799 19.2103
files/tasks_parameters/ExAp01/sample16.txt 1.43943 8.63521 4.97261 0.516328 15.0744
files/tasks_parameters/ExAp01/sample10.txt 1.39877 7.28353 6.16876 0.615651 17.9742
files/tasks_parameters/ExAp01/sample39.txt 1.14417 6.3405 4.6137 0.468873 13.6889
files/tasks_parameters/ExAp01/sample19.txt 1.63097 8.85528 5.22306 0.622152 18.164
files/tasks_parameters/ExAp01/sample20.txt 1.39428 8.1141 5.21177 0.586994 17.1375
files/tasks_parameters/ExAp01/sample43.txt 1.30697 7.21373 5.6367 0.53748 15.6919
files/tasks_parameters/ExAp01/sample32.txt 1.60366 8.30592 5.38137 0.593918 17.3397
files/tasks_parameters/ExAp01/sample45.txt 1.42262 7.94069 4.96323 0.547271 15.9778
files/tasks_parameters/ExAp01/sample26.txt 1.16499 7.57061 4.62637 0.480146 14.0181
files/tasks_parameters/ExAp01/sample5.txt 1.49433 8.0307 5.35681 0.59407 17.3441
files/tasks_parameters/ExAp01/sample21.txt 1.02755 5.87802 4.61744 0.434264 12.6785
files/tasks_parameters/ExAp01/sample38.txt 1.18504 7.66999 4.86632 0.496808 14.5045
files/tasks_parameters/ExAp01/sample1.txt 1.16534 7.21312 4.63213 0.486293 14.1975
files/tasks_parameters/ExAp01/sample15.txt 1.28125 8.02273 5.50855 0.531063 15.5046
files/tasks_parameters/ExAp01/sample24.txt 1.32473 8.66348 5.4905 0.548998 16.0282
files/tasks_parameters/ExAp01/sample3.txt 1.2059 7.74268 4.79918 0.477387 13.9375
files/tasks_parameters/ExAp01/sample6.txt 1.50617 8.57133 5.80157 0.633604 18.4983
files/tasks_parameters/ExAp01/sample30.txt 1.69694 8.18878 5.90888 0.633576 18.4975
files/tasks_parameters/ExAp01/sample42.txt 1.30441 8.57689 5.67253 0.54426 15.8899
files/tasks_parameters/ExAp01/sample4.txt 1.34361 8.40354 4.57985 0.563519 16.4522
files/tasks_parameters/ExAp01/sample28.txt 1.07476 6.44114 4.96426 0.449721 13.1298
files/tasks_parameters/ExAp01/sample18.txt 1.31773 8.56363 4.60946 0.543766 15.8755
files/tasks_parameters/ExAp01/sample35.txt 1.98334 11.0387 6.34514 0.761377 22.2287
files/tasks_parameters/ExAp01/sample47.txt 1.32345 7.14493 5.22131 0.545046 15.9128
files/tasks_parameters/ExAp01/sample49.txt 1.32812 6.65996 4.80244 0.498533 14.5549
files/tasks_parameters/ExAp01/sample41.txt 1.18983 7.09069 5.35462 0.497129 14.5139
