0 82
0 86
0 91
0 93
0 97
1 80
1 81
1 85
1 88
1 92
1 93
2 81
2 88
2 89
3 81
3 83
3 88
3 93
3 99
4 78
4 81
4 86
4 88
4 89
4 90
4 93
4 95
5 77
5 78
5 81
5 84
5 85
5 88
5 89
5 95
6 81
6 82
6 88
6 89
6 90
6 92
6 95
7 81
7 88
7 90
7 91
7 92
8 81
8 86
9 78
9 80
9 83
9 85
10 80
10 84
10 90
10 93
11 88
11 92
12 77
12 84
12 85
12 88
12 98
13 78
13 82
13 96
14 78
14 82
14 86
14 90
14 91
14 96
15 81
15 82
15 84
15 88
15 89
16 77
17 77
17 81
17 86
17 93
17 96
17 97
18 78
18 88
18 89
18 95
19 90
19 95
19 97
20 81
20 88
20 95
21 77
21 88
21 92
22 78
22 81
22 88
22 89
23 78
23 81
23 82
23 88
23 89
23 95
23 96
24 78
24 81
24 82
24 85
24 89
24 93
24 96
25 86
25 89
26 84
26 89
26 93
26 99
27 84
27 85
27 87
27 88
27 89
27 93
27 97
28 78
28 86
28 88
28 88
28 89
29 78
29 80
29 88
29 89
29 89
29 90
29 93
29 97
30 82
30 86
30 89
30 89
30 90
30 93
30 97
31 81
31 83
31 87
31 90
31 94
32 81
32 87
32 87
32 90
32 96
32 99
33 81
33 83
33 94
34 77
34 78
34 81
34 88
34 93
34 97
34 99
35 77
35 86
35 88
35 89
35 92
35 93
36 80
36 88
36 93
36 97
37 80
37 83
37 88
37 89
37 93
37 95
38 88
38 89
38 93
38 95
39 81
39 85
39 90
39 99
40 78
40 80
40 90
41 82
41 83
41 90
42 81
42 84
42 86
42 90
42 92
43 77
43 79
43 81
43 82
43 84
43 91
43 97
44 78
44 81
44 85
44 90
44 91
44 92
44 97
45 80
45 81
45 85
45 88
45 92
45 93
45 97
46 77
46 80
46 81
46 82
46 86
46 97
47 78
47 81
47 83
47 84
47 85
47 88
47 97
47 99
48 81
48 82
48 83
48 88
48 89
48 90
49 78
49 82
49 83
49 88
49 89
49 90
49 92
49 95
49 96
50 80
50 82
50 84
50 93
51 80
51 81
51 85
51 89
51 90
51 91
51 93
51 95
51 96
52 85
52 87
52 91
53 82
53 86
53 88
53 93
54 80
54 84
54 88
54 89
54 90
54 97
55 78
55 80
55 82
55 88
55 97
55 99
56 78
56 82
56 85
56 88
56 90
56 91
56 97
57 78
57 88
58 78
58 88
58 97
59 78
59 82
59 86
60 77
60 80
60 81
60 89
60 96
60 97
61 86
61 89
61 93
61 97
62 77
62 81
62 85
62 86
62 89
62 91
62 93
62 99
63 78
63 82
63 84
63 86
63 88
63 93
64 85
64 86
64 88
64 90
64 97
65 81
65 85
65 86
65 87
65 97
66 77
66 80
66 82
66 85
66 86
66 89
66 91
66 96
67 77
67 78
67 81
67 82
67 97
68 77
68 86
68 96
69 77
69 78
69 81
69 82
69 84
69 85
69 93
70 84
70 96
71 77
71 78
71 81
71 86
71 87
71 88
71 90
71 93
72 78
72 80
72 81
72 86
72 93
72 99
73 85
73 86
73 89
73 93
73 97
74 78
74 85
74 86
74 90
74 93
74 97
75 81
75 83
75 86
75 89
75 91
75 93
76 83
76 85
76 93
