0 34
0 35
0 40
0 43
0 46
0 52
0 64
0 65
0 66
0 69
0 70
0 81
0 86
0 89
0 92
0 95
0 97
1 34
1 40
1 41
1 43
1 46
1 52
1 55
1 57
1 66
1 69
1 70
1 77
1 81
1 90
1 91
1 93
1 98
2 43
2 45
2 46
2 55
2 57
2 66
2 71
2 82
2 83
2 89
2 95
2 97
3 40
3 46
3 48
3 53
3 55
3 56
3 57
3 58
3 66
3 86
3 93
3 95
4 36
4 38
4 46
4 51
4 53
4 57
4 58
4 58
4 63
4 66
4 68
4 69
4 70
4 72
4 77
4 81
4 86
4 87
4 89
4 91
4 93
4 95
5 34
5 37
5 38
5 39
5 41
5 44
5 52
5 54
5 56
5 57
5 58
5 62
5 65
5 66
5 67
5 70
5 79
5 83
5 84
5 85
5 86
5 89
5 93
5 95
6 34
6 37
6 43
6 44
6 53
6 60
6 64
6 65
6 66
6 69
6 70
6 77
6 80
6 83
6 86
6 89
7 35
7 41
7 51
7 53
7 59
7 60
7 64
7 69
7 70
7 74
7 77
7 78
7 79
7 80
7 86
7 92
7 97
7 98
8 38
8 39
8 41
8 48
8 57
8 60
8 69
8 69
8 77
8 79
8 81
8 86
8 89
8 92
8 96
9 34
9 37
9 39
9 47
9 48
9 51
9 53
9 66
9 69
9 73
9 74
9 75
9 79
9 96
9 98
10 39
10 41
10 43
10 44
10 45
10 50
10 53
10 54
10 59
10 61
10 63
10 64
10 69
10 71
10 79
10 81
10 90
10 92
10 95
11 39
11 40
11 41
11 43
11 45
11 46
11 53
11 54
11 70
11 79
11 82
11 86
11 88
11 93
11 95
12 34
12 36
12 38
12 39
12 40
12 43
12 46
12 48
12 50
12 51
12 52
12 53
12 56
12 64
12 71
12 76
12 79
12 81
12 88
12 89
12 91
12 99
13 36
13 40
13 44
13 46
13 47
13 50
13 51
13 55
13 59
13 65
13 68
13 69
13 86
14 36
14 43
14 44
14 46
14 48
14 51
14 66
14 74
14 82
14 87
14 88
14 96
14 97
15 36
15 37
15 39
15 43
15 46
15 48
15 58
15 63
15 74
15 83
15 85
15 86
15 88
15 90
15 92
15 94
15 95
16 36
16 37
16 42
16 43
16 44
16 45
16 46
16 50
16 58
16 65
16 90
17 36
17 42
17 43
17 46
17 49
17 58
17 61
17 66
17 79
17 80
17 82
17 83
17 92
17 94
18 36
18 37
18 38
18 41
18 49
18 60
18 63
18 66
18 71
18 77
18 79
18 89
18 96
18 97
18 99
19 34
19 35
19 38
19 40
19 45
19 48
19 50
19 52
19 55
19 56
19 57
19 59
19 64
19 65
19 66
19 69
19 71
19 72
19 73
19 78
19 79
19 81
19 84
19 88
19 92
19 97
19 99
20 34
20 38
20 38
20 40
20 41
20 42
20 43
20 45
20 48
20 53
20 54
20 55
20 57
20 60
20 69
20 71
20 74
20 79
20 80
20 87
20 88
20 89
20 91
20 92
20 97
20 97
21 34
21 51
21 55
21 57
21 63
21 69
21 70
21 77
21 83
21 84
21 85
21 86
21 87
21 89
21 90
21 91
21 98
21 99
22 34
22 39
22 41
22 42
22 43
22 45
22 46
22 51
22 57
22 63
22 66
22 73
22 74
22 81
22 84
22 88
22 89
23 37
23 39
23 41
23 42
23 48
23 50
23 52
23 55
23 57
23 60
23 66
23 71
23 77
23 79
23 81
23 88
24 40
24 44
24 48
24 49
24 53
24 56
24 65
24 66
24 70
24 71
24 77
24 81
24 95
25 34
25 35
25 36
25 37
25 40
25 44
25 45
25 49
25 50
25 52
25 57
25 62
25 65
25 70
25 79
25 81
25 85
25 89
25 90
25 99
26 35
26 37
26 44
26 45
26 51
26 60
26 71
26 72
26 74
26 81
26 89
26 93
26 99
27 34
27 37
27 40
27 41
27 42
27 44
27 51
27 54
27 55
27 57
27 60
27 68
27 77
27 79
27 81
27 83
27 84
27 85
27 93
27 95
27 97
28 38
28 40
28 41
28 42
28 43
28 45
28 48
28 54
28 55
28 57
28 65
28 66
28 73
28 77
28 80
28 81
28 83
28 88
28 98
28 99
29 38
29 41
29 44
29 48
29 49
29 55
29 58
29 63
29 71
29 75
29 77
29 81
29 85
29 90
30 35
30 37
30 40
30 41
30 45
30 48
30 53
30 58
30 66
30 67
30 77
30 82
30 85
30 87
30 96
30 98
31 35
31 37
31 38
31 39
31 40
31 41
31 43
31 47
31 48
31 51
31 52
31 57
31 80
31 81
31 86
31 87
31 88
31 95
32 34
32 36
32 39
32 43
32 44
32 46
32 51
32 53
32 55
32 57
32 58
32 75
32 81
32 85
32 86
32 87
32 90
32 91
32 93
32 97
32 99
33 34
33 37
33 40
33 43
33 46
33 48
33 55
33 56
33 58
33 63
33 65
33 73
33 77
33 80
33 84
33 86
33 89
33 96
33 97
