0 73
0 74
0 86
0 88
0 91
0 95
1 73
1 74
1 78
1 81
1 82
1 91
1 92
1 93
1 99
2 74
2 82
2 83
2 84
2 87
2 95
2 96
2 99
3 73
3 75
3 79
3 82
3 86
4 71
4 74
4 82
4 83
4 86
4 87
4 88
4 89
4 95
4 99
5 74
5 74
5 82
5 83
5 86
5 87
5 91
5 93
5 95
5 99
6 71
6 72
6 74
6 79
6 82
6 86
6 97
7 71
7 74
7 81
7 82
7 83
7 84
7 86
7 87
7 90
7 91
7 97
7 98
8 72
8 78
8 80
8 82
8 87
8 90
8 99
9 74
9 77
9 83
9 91
10 74
10 77
10 89
10 90
10 91
10 97
11 79
11 85
11 90
11 96
12 74
12 81
12 86
12 88
12 91
12 96
13 73
13 74
13 80
13 81
13 91
13 95
13 96
13 97
13 99
14 72
14 82
14 83
14 86
14 90
15 75
15 77
15 79
15 84
15 87
16 75
16 77
16 79
16 85
16 86
16 87
16 96
17 74
17 75
17 82
17 87
17 91
17 96
17 97
18 72
18 73
18 86
18 88
18 91
19 72
19 88
19 91
19 96
20 72
20 75
20 77
20 79
20 91
20 96
20 97
20 98
21 72
21 74
21 75
21 87
21 90
21 91
21 95
21 96
21 99
22 81
22 87
22 88
22 91
22 92
22 95
22 97
23 77
23 83
23 90
23 91
23 99
24 77
24 85
24 87
24 88
24 91
24 99
25 75
25 77
25 86
25 87
25 91
25 93
25 95
25 97
26 78
26 91
26 97
27 77
27 79
27 86
27 88
27 97
28 72
28 75
28 81
28 86
28 88
29 72
29 76
29 83
29 88
29 90
29 91
29 95
29 97
30 71
30 72
30 74
30 82
30 83
30 87
30 89
31 74
31 78
31 79
31 80
31 87
31 88
31 94
31 95
32 72
32 74
32 81
32 82
32 85
32 88
32 90
32 91
33 71
33 91
34 71
34 79
34 81
34 84
34 86
34 98
35 74
35 79
35 87
35 88
35 97
35 99
36 72
36 73
36 74
36 79
36 85
36 86
36 87
36 91
36 97
37 74
37 75
37 79
37 82
37 92
37 97
38 78
38 79
38 82
38 83
38 90
38 91
38 93
38 95
38 96
38 97
38 99
39 78
39 79
39 86
39 87
39 92
39 93
39 93
39 96
40 76
40 79
40 84
40 90
40 91
40 93
40 95
40 96
41 73
41 79
41 81
41 83
41 84
41 87
41 90
41 92
41 97
42 73
42 74
42 79
42 81
43 71
43 73
43 79
43 87
43 91
43 95
43 99
44 83
44 93
45 87
45 99
46 71
46 74
46 78
46 86
46 87
46 88
46 91
46 95
47 73
47 76
47 77
47 83
47 86
47 87
47 90
47 93
47 95
47 97
48 74
48 77
48 81
48 83
48 84
48 88
48 91
48 95
49 74
49 77
49 82
49 87
49 88
49 90
49 93
49 95
49 96
49 97
50 71
50 72
50 77
50 82
50 84
50 85
50 86
50 87
50 88
50 90
50 92
50 96
50 97
50 99
51 72
51 76
51 79
51 86
51 87
51 89
51 92
51 97
52 73
52 85
52 86
52 87
52 90
52 91
52 95
52 96
52 97
53 72
53 74
53 77
53 82
53 86
53 88
53 90
53 95
53 96
54 77
54 83
54 95
54 96
54 97
54 99
55 71
55 77
55 79
55 82
55 86
55 93
56 78
56 81
56 84
56 87
56 88
57 77
57 83
57 88
57 93
57 97
58 71
58 74
58 79
58 82
58 83
58 92
58 93
58 96
58 97
58 99
59 71
59 74
59 86
59 93
59 99
60 77
60 79
60 81
60 85
60 86
60 87
60 88
60 96
61 88
61 93
61 97
61 98
62 72
62 73
62 74
62 77
62 91
62 95
62 96
62 97
63 72
63 86
63 87
63 91
63 95
63 96
63 97
63 97
64 72
64 80
64 81
64 83
64 87
64 88
64 91
64 95
64 96
64 97
65 72
65 76
65 82
65 86
65 93
65 95
66 73
66 74
66 86
66 87
66 93
66 95
66 96
66 97
66 99
67 71
67 74
67 77
67 82
67 84
67 86
67 93
67 95
67 99
68 74
68 83
68 84
69 74
69 82
69 83
69 88
69 90
69 91
69 97
69 99
70 74
70 83
70 88
70 89
70 90
