0 65
0 68
0 73
0 78
0 81
0 93
0 99
1 67
1 69
1 72
1 80
1 85
1 92
1 93
1 99
2 59
2 60
2 62
2 69
2 73
2 75
2 88
2 90
2 91
3 59
3 65
3 67
3 69
3 75
3 82
3 93
3 97
4 78
4 93
4 98
5 65
5 67
5 75
5 78
5 79
5 82
6 60
6 69
6 74
6 75
6 79
6 86
6 87
6 90
6 92
6 93
7 68
7 73
7 74
7 79
7 79
7 87
7 90
7 93
7 95
7 96
7 97
7 98
8 63
8 65
8 67
8 68
8 72
8 74
8 76
8 79
8 88
8 90
8 93
8 98
9 63
9 65
9 66
9 68
9 70
9 71
9 72
9 74
9 76
9 79
9 86
9 88
9 95
9 97
10 65
10 66
10 68
10 69
10 73
10 76
10 82
10 92
10 96
11 63
11 66
11 68
11 69
11 72
11 73
11 78
11 81
11 95
11 96
12 61
12 62
12 64
12 68
12 69
12 70
12 72
12 79
12 80
12 81
12 82
12 93
12 97
13 59
13 62
13 69
13 70
13 71
13 88
13 93
13 97
14 70
14 73
14 80
14 81
14 86
14 93
14 96
14 98
14 99
15 62
15 68
15 69
15 72
15 73
15 74
15 75
15 81
15 82
15 90
15 93
15 96
15 97
16 60
16 69
16 72
16 73
16 74
16 79
16 80
16 81
16 82
16 84
16 85
16 90
16 93
16 97
17 61
17 64
17 67
17 69
17 76
17 79
17 80
17 82
17 86
17 89
17 90
17 93
17 97
17 99
18 59
18 64
18 65
18 66
18 67
18 68
18 69
18 79
18 80
18 90
18 92
18 93
18 97
19 65
19 73
19 81
19 82
19 88
20 62
20 67
20 72
20 73
20 80
20 88
20 97
20 98
20 99
21 60
21 62
21 67
21 68
21 78
21 85
21 96
22 59
22 62
22 80
22 82
22 90
22 92
22 95
23 62
23 69
23 88
23 95
23 97
23 99
24 62
24 64
24 67
24 71
24 79
24 85
24 88
24 97
25 64
25 65
25 68
25 69
25 75
25 79
25 85
25 97
25 99
26 64
26 65
26 67
26 69
26 79
26 80
26 93
26 95
27 62
27 64
27 73
27 79
27 79
27 80
27 82
27 86
27 91
27 92
27 93
27 95
28 58
28 64
28 69
28 70
28 74
28 75
28 76
28 78
28 83
28 85
28 92
28 93
28 95
29 64
29 64
29 66
29 73
29 82
29 84
29 85
29 90
29 92
29 98
29 99
30 64
30 68
30 69
30 78
30 80
30 82
30 84
30 86
30 89
30 93
31 59
31 63
31 65
31 78
31 79
31 80
31 85
31 88
31 91
31 92
31 97
32 64
32 73
32 77
32 80
32 84
32 85
32 88
32 90
32 97
32 98
32 99
33 64
33 65
33 67
33 69
33 70
33 73
33 80
33 82
33 88
33 93
33 94
34 60
34 65
34 72
34 79
34 82
34 93
35 65
35 71
35 73
35 78
35 81
35 82
35 84
35 86
35 91
35 93
36 62
36 63
36 73
36 78
36 81
36 88
36 92
36 93
36 97
37 64
37 74
37 86
37 88
37 93
37 96
37 98
38 60
38 63
38 64
38 65
38 66
38 69
38 72
38 82
38 84
38 91
38 93
38 99
39 60
39 61
39 63
39 66
39 69
39 72
39 91
39 92
39 93
39 94
39 98
40 59
40 62
40 66
40 66
40 68
40 73
40 74
40 79
40 82
40 88
40 93
40 95
40 97
40 99
41 61
41 62
41 66
41 67
41 69
41 71
41 80
41 81
41 84
41 85
41 97
41 99
42 60
42 61
42 65
42 66
42 67
42 73
42 74
42 81
42 82
42 85
42 94
42 97
43 59
43 61
43 64
43 68
43 73
43 79
43 81
43 81
43 85
43 89
43 97
44 62
44 79
44 81
44 86
45 62
45 69
45 70
45 73
45 76
45 77
45 79
45 85
45 91
45 98
45 99
46 60
46 62
46 66
46 68
46 71
46 76
46 81
46 88
46 92
46 99
47 59
47 60
47 62
47 65
47 71
47 76
47 81
47 86
47 88
47 95
47 96
47 97
47 99
48 60
48 60
48 63
48 65
48 67
48 71
48 73
48 74
48 85
48 86
48 88
48 97
48 98
48 99
49 60
49 61
49 62
49 63
49 73
49 74
49 78
49 80
49 81
49 86
49 97
49 97
49 98
49 99
50 67
50 73
50 74
50 76
50 79
50 86
50 90
50 93
50 97
50 98
50 99
51 64
51 68
51 69
51 72
51 74
51 86
51 90
51 95
51 96
51 98
51 99
52 64
52 67
52 68
52 69
52 70
52 72
52 73
52 78
52 79
52 80
52 81
52 82
52 85
52 91
52 95
52 99
53 58
53 60
53 66
53 67
53 68
53 69
53 72
53 77
53 81
53 82
53 85
53 88
53 92
53 97
53 99
53 99
54 62
54 64
54 67
54 68
54 73
54 74
54 78
54 79
54 81
54 82
54 85
54 93
55 59
55 62
55 69
55 75
55 78
55 79
55 82
55 85
55 93
56 59
56 60
56 66
56 68
56 69
56 76
56 78
56 79
56 82
56 85
56 94
56 97
56 99
57 59
57 61
57 64
57 67
57 74
57 76
57 78
57 79
57 82
57 85
57 88
57 97
57 99
