0 59
0 70
0 71
0 75
0 84
0 88
0 89
0 90
0 92
0 93
0 95
0 96
0 97
0 99
1 60
1 63
1 64
1 67
1 68
1 81
1 82
1 84
1 88
1 95
2 60
2 63
2 68
2 69
2 81
2 83
2 84
2 86
2 88
2 90
2 94
3 63
3 64
3 68
3 81
3 83
3 84
3 88
4 58
4 60
4 63
4 68
4 72
4 73
4 83
4 86
4 88
4 92
4 94
5 60
5 60
5 68
5 68
5 69
5 71
5 73
5 74
5 81
5 83
5 85
5 87
5 88
5 92
5 93
6 61
6 62
6 64
6 66
6 67
6 69
6 71
6 74
6 77
6 78
6 81
6 82
6 84
6 85
6 87
6 88
7 64
7 67
7 69
7 70
7 71
7 74
7 81
7 85
7 88
7 92
8 61
8 64
8 65
8 68
8 69
8 71
8 72
8 74
8 84
8 85
8 86
8 88
8 90
8 92
8 95
8 97
9 71
9 73
9 74
9 81
9 83
9 85
9 86
9 88
9 92
9 99
10 57
10 60
10 67
10 74
10 81
10 86
10 86
10 90
10 92
10 93
10 94
10 97
11 59
11 60
11 69
11 72
11 78
11 81
11 82
11 86
11 88
11 89
11 96
11 97
12 60
12 64
12 71
12 72
12 78
12 81
12 83
12 84
12 85
12 86
12 88
12 90
12 92
12 97
12 98
13 59
13 65
13 71
13 78
13 81
13 81
13 87
13 88
13 90
13 92
13 94
14 60
14 64
14 72
14 74
14 78
14 81
14 83
14 84
14 87
14 90
14 92
14 97
15 73
15 74
15 81
15 83
15 84
15 85
15 86
15 87
15 89
15 92
16 71
16 83
16 84
16 85
16 86
16 87
16 88
16 90
16 92
16 95
16 96
16 97
17 60
17 73
17 78
17 82
17 84
17 85
17 87
17 97
18 60
18 68
18 71
18 74
18 83
18 84
18 85
18 86
18 92
18 94
18 95
18 98
19 59
19 64
19 68
19 72
19 76
19 77
19 83
19 84
19 85
19 86
19 88
19 93
19 97
19 99
20 67
20 69
20 70
20 74
20 83
20 89
20 90
20 94
20 99
21 64
21 71
21 72
21 74
21 80
21 83
21 85
21 87
21 94
21 95
21 99
22 57
22 67
22 74
22 80
22 85
22 87
22 92
22 97
23 59
23 63
23 67
23 72
23 85
23 86
23 87
23 90
23 92
23 95
23 97
24 72
24 74
24 78
24 85
24 88
24 90
24 93
24 96
24 97
25 59
25 72
25 75
25 78
25 88
25 90
26 59
26 64
26 67
26 68
26 72
26 80
26 87
26 88
26 90
26 98
27 70
27 71
27 83
27 88
27 95
27 97
27 98
28 61
28 74
28 77
28 85
28 88
28 92
28 95
28 97
29 73
29 74
29 83
29 93
29 95
30 71
30 74
30 81
30 85
30 86
30 88
30 93
30 97
30 99
31 57
31 59
31 64
31 67
31 68
31 70
31 71
31 78
31 81
31 83
31 85
31 90
31 93
31 95
31 97
32 65
32 68
32 71
32 72
32 78
32 79
32 83
32 84
32 85
32 86
32 87
32 92
32 93
32 95
32 99
33 57
33 60
33 64
33 67
33 71
33 83
33 84
33 98
34 67
34 68
34 71
34 72
34 78
34 81
34 83
34 87
34 90
34 94
34 97
34 98
35 68
35 71
35 73
35 78
35 82
35 83
35 84
35 87
35 90
35 94
35 98
36 63
36 81
36 84
36 85
36 86
36 90
36 92
36 94
36 99
37 64
37 68
37 72
37 84
37 86
37 87
37 89
37 90
37 93
37 94
38 67
38 70
38 71
38 78
38 82
38 84
38 86
38 87
38 95
38 97
39 74
39 79
39 86
39 87
39 90
39 97
40 59
40 68
40 74
40 78
40 83
40 86
40 87
40 91
40 97
41 61
41 68
41 72
41 73
41 74
41 85
41 86
41 87
41 90
41 95
42 74
42 75
42 80
42 84
42 87
43 58
43 59
43 67
43 74
43 80
43 86
43 88
44 60
44 73
44 77
44 81
44 84
44 85
44 86
44 87
44 95
44 97
45 60
45 70
45 78
45 81
45 82
45 83
45 85
45 86
45 87
45 88
46 60
46 70
46 73
46 81
46 83
46 83
46 84
46 88
46 92
46 94
46 97
47 57
47 58
47 60
47 64
47 67
47 68
47 82
47 87
47 90
47 95
47 96
48 60
48 67
48 68
48 69
48 90
48 92
48 96
49 60
49 68
49 70
49 86
49 90
49 94
50 68
50 81
50 84
50 85
50 86
50 90
50 97
51 69
51 78
51 81
51 83
51 84
51 86
51 87
51 88
51 89
51 90
51 92
51 97
51 98
52 57
52 58
52 64
52 77
52 78
52 86
52 87
52 90
52 92
52 93
52 97
53 64
53 67
53 78
53 81
53 83
53 87
53 90
53 94
53 95
53 97
53 98
54 59
54 68
54 69
54 70
54 72
54 78
54 87
54 92
54 93
54 94
55 57
55 67
55 68
55 73
55 76
55 77
55 78
55 84
55 85
55 87
55 88
55 90
55 92
55 93
55 95
55 97
56 63
56 64
56 68
56 70
56 72
56 84
56 85
56 88
56 92
56 95
