files/tasks_parameters/ExAp01/sample8.txt 0.809582 3.15778 1.5595 0.203411 6.66573
files/tasks_parameters/ExAp01/sample12.txt 0.780085 3.94962 1.6705 0.207924 6.81361
files/tasks_parameters/ExAp01/sample2.txt 0.714861 3.78275 1.74131 0.200098 6.55715
files/tasks_parameters/ExAp01/sample44.txt 0.70392 3.59825 1.65317 0.200005 6.55412
files/tasks_parameters/ExAp01/sample27.txt 0.68031 3.45743 1.5148 0.182129 5.96831
files/tasks_parameters/ExAp01/sample17.txt 0.531731 2.77299 1.44514 0.14646 4.79945
files/tasks_parameters/ExAp01/sample9.txt 0.644517 2.99933 1.451 0.177444 5.81478
files/tasks_parameters/ExAp01/sample34.txt 0.599409 3.02928 1.58429 0.157984 5.17709
files/tasks_parameters/ExAp01/sample40.txt 0.625811 3.86889 1.52122 0.168379 5.51775
files/tasks_parameters/ExAp01/sample33.txt 0.700085 3.63695 1.71905 0.199765 6.54625
files/tasks_parameters/ExAp01/sample48.txt 0.58684 3.39061 1.49062 0.154728 5.07041
files/tasks_parameters/ExAp01/sample29.txt 0.750861 3.30472 1.38739 0.223868 7.33611
files/tasks_parameters/ExAp01/sample11.txt 0.654998 3.10585 1.41612 0.174079 5.70451
files/tasks_parameters/ExAp01/sample14.txt 0.581673 2.70971 1.43432 0.162214 5.31573
files/tasks_parameters/ExAp01/sample0.txt 0.705528 3.6937 1.5439 0.18367 6.01881
files/tasks_parameters/ExAp01/sample7.txt 0.560177 2.70501 1.42221 0.143463 4.70126
files/tasks_parameters/ExAp01/sample23.txt 0.660174 3.2697 1.57822 0.181448 5.94602
files/tasks_parameters/ExAp01/sample13.txt 0.693436 3.84225 1.67648 0.198247 6.49651
files/tasks_parameters/ExAp01/sample22.txt 0.562351 3.09569 1.56121 0.148796 4.87601
files/tasks_parameters/ExAp01/sample25.txt 0.505669 2.73966 1.5007 0.148149 4.85479
files/tasks_parameters/ExAp01/sample36.txt 0.515688 2.85948 1.28553 0.130042 4.26145
files/tasks_parameters/ExAp01/sample46.txt 0.762355 3.58643 1.69998 0.210103 6.88502
files/tasks_parameters/ExAp01/sample31.txt 0.616053 3.4832 1.53782 0.1722 5.64295
files/tasks_parameters/ExAp01/sample37.txt 0.663447 3.95293 1.50705 0.171701 5.6266
files/tasks_parameters/ExAp01/sample16.txt 0.601364 3.31216 1.30115 0.150249 4.92362
files/tasks_parameters/ExAp01/sample10.txt 0.64086 3.17098 1.61789 0.153776 5.03921
files/tasks_parameters/ExAp01/sample39.txt 0.615295 3.26617 1.44406 0.165669 5.42892
files/tasks_parameters/ExAp01/sample19.txt 0.753194 3.63532 1.52509 0.196094 6.42597
files/tasks_parameters/ExAp01/sample20.txt 0.511246 3.20793 1.25367 0.147335 4.82814
files/tasks_parameters/ExAp01/sample43.txt 0.560146 3.11551 1.4202 0.150644 4.93658
files/tasks_parameters/ExAp01/sample32.txt 0.644673 3.5311 1.42482 0.168744 5.52971
files/tasks_parameters/ExAp01/sample45.txt 0.746438 3.80283 1.48324 0.19807 6.49072
files/tasks_parameters/ExAp01/sample26.txt 0.628084 3.21645 1.29701 0.166061 5.44179
files/tasks_parameters/ExAp01/sample5.txt 0.659966 3.5889 1.52559 0.178903 5.86262
files/tasks_parameters/ExAp01/sample21.txt 0.697383 2.75242 1.55936 0.19512 6.39404
files/tasks_parameters/ExAp01/sample38.txt 0.600323 3.31563 1.37515 0.166157 5.44492
files/tasks_parameters/ExAp01/sample1.txt 0.752126 3.74964 1.51696 0.19701 6.45596
files/tasks_parameters/ExAp01/sample15.txt 0.637652 3.32916 1.48508 0.180707 5.92174
files/tasks_parameters/ExAp01/sample24.txt 0.64324 3.45951 1.59549 0.16529 5.41653
files/tasks_parameters/ExAp01/sample3.txt 0.911428 3.70014 1.70809 0.237107 7.76994
files/tasks_parameters/ExAp01/sample6.txt 0.641245 3.33003 1.58323 0.184714 6.05305
files/tasks_parameters/ExAp01/sample30.txt 0.851253 4.1841 1.4861 0.239623 7.85239
files/tasks_parameters/ExAp01/sample42.txt 0.690182 3.43221 1.70276 0.177383 5.81279
files/tasks_parameters/ExAp01/sample4.txt 0.758391 3.72477 1.6136 0.196448 6.43756
files/tasks_parameters/ExAp01/sample28.txt 0.59208 3.11323 1.45032 0.158819 5.20446
files/tasks_parameters/ExAp01/sample18.txt 0.569239 3.47418 1.45209 0.149064 4.88478
files/tasks_parameters/ExAp01/sample35.txt 0.679154 4.57086 1.49394 0.185031 6.06341
files/tasks_parameters/ExAp01/sample47.txt 0.614888 3.13768 1.52397 0.16417 5.37981
files/tasks_parameters/ExAp01/sample49.txt 0.585003 3.13288 1.49657 0.156154 5.11713
files/tasks_parameters/ExAp01/sample41.txt 0.559022 2.81964 1.49636 0.150876 4.94417
