files/tasks_parameters/ExAp01/sample8.txt 0.742843 3.15778 1.5595 0.203411 7.37043
files/tasks_parameters/ExAp01/sample12.txt 0.810374 3.94962 1.6705 0.207924 7.53394
files/tasks_parameters/ExAp01/sample2.txt 0.760102 3.78275 1.74131 0.200098 7.25036
files/tasks_parameters/ExAp01/sample44.txt 0.74172 3.59825 1.65317 0.200005 7.24701
files/tasks_parameters/ExAp01/sample27.txt 0.703153 3.45743 1.5148 0.182129 6.59927
files/tasks_parameters/ExAp01/sample17.txt 0.575662 2.77299 1.44514 0.14646 5.30684
files/tasks_parameters/ExAp01/sample9.txt 0.674522 2.99933 1.451 0.177444 6.42951
files/tasks_parameters/ExAp01/sample34.txt 0.619458 3.02928 1.58429 0.157984 5.7244
files/tasks_parameters/ExAp01/sample40.txt 0.675898 3.86889 1.52122 0.168379 6.10108
files/tasks_parameters/ExAp01/sample33.txt 0.755071 3.63695 1.71905 0.199765 7.23831
files/tasks_parameters/ExAp01/sample48.txt 0.610036 3.39061 1.49062 0.154728 5.60644
files/tasks_parameters/ExAp01/sample29.txt 0.802987 3.30472 1.38739 0.223868 8.11167
files/tasks_parameters/ExAp01/sample11.txt 0.659712 3.10585 1.41612 0.174079 6.30759
files/tasks_parameters/ExAp01/sample14.txt 0.607982 2.70971 1.43432 0.162214 5.8777
files/tasks_parameters/ExAp01/sample0.txt 0.724712 3.6937 1.5439 0.18367 6.65512
files/tasks_parameters/ExAp01/sample7.txt 0.571464 2.70501 1.42221 0.143463 5.19827
files/tasks_parameters/ExAp01/sample23.txt 0.695305 3.2697 1.57822 0.181448 6.57463
files/tasks_parameters/ExAp01/sample13.txt 0.74413 3.84225 1.67648 0.198247 7.18331
files/tasks_parameters/ExAp01/sample22.txt 0.585348 3.09569 1.56121 0.148796 5.3915
files/tasks_parameters/ExAp01/sample25.txt 0.531366 2.73966 1.5007 0.148149 5.36804
files/tasks_parameters/ExAp01/sample36.txt 0.5304 2.85948 1.28553 0.130042 4.71197
files/tasks_parameters/ExAp01/sample46.txt 0.757541 3.58643 1.69998 0.210103 7.61289
files/tasks_parameters/ExAp01/sample31.txt 0.697466 3.4832 1.53782 0.1722 6.23951
files/tasks_parameters/ExAp01/sample37.txt 0.684798 3.95293 1.50705 0.171701 6.22144
files/tasks_parameters/ExAp01/sample16.txt 0.622303 3.31216 1.30115 0.150249 5.44414
files/tasks_parameters/ExAp01/sample10.txt 0.621148 3.17098 1.61789 0.153776 5.57195
files/tasks_parameters/ExAp01/sample39.txt 0.623244 3.26617 1.44406 0.165669 6.00286
files/tasks_parameters/ExAp01/sample19.txt 0.760045 3.63532 1.52509 0.196094 7.10531
files/tasks_parameters/ExAp01/sample20.txt 0.559485 3.20793 1.25367 0.147335 5.33857
files/tasks_parameters/ExAp01/sample43.txt 0.581667 3.11551 1.4202 0.150644 5.45847
files/tasks_parameters/ExAp01/sample32.txt 0.675004 3.5311 1.42482 0.168744 6.1143
files/tasks_parameters/ExAp01/sample45.txt 0.759506 3.80283 1.48324 0.19807 7.17691
files/tasks_parameters/ExAp01/sample26.txt 0.628118 3.21645 1.29701 0.166061 6.01708
files/tasks_parameters/ExAp01/sample5.txt 0.669541 3.5889 1.52559 0.178903 6.48241
files/tasks_parameters/ExAp01/sample21.txt 0.728438 2.75242 1.55936 0.19512 7.07002
files/tasks_parameters/ExAp01/sample38.txt 0.621803 3.31563 1.37515 0.166157 6.02055
files/tasks_parameters/ExAp01/sample1.txt 0.732396 3.74964 1.51696 0.19701 7.13847
files/tasks_parameters/ExAp01/sample15.txt 0.673364 3.32916 1.48508 0.180707 6.54778
files/tasks_parameters/ExAp01/sample24.txt 0.661137 3.45951 1.59549 0.16529 5.98915
files/tasks_parameters/ExAp01/sample3.txt 0.895652 3.70014 1.70809 0.237107 8.59137
files/tasks_parameters/ExAp01/sample6.txt 0.677672 3.33003 1.58323 0.184714 6.69297
files/tasks_parameters/ExAp01/sample30.txt 0.915931 4.1841 1.4861 0.239623 8.68253
files/tasks_parameters/ExAp01/sample42.txt 0.663699 3.43221 1.70276 0.177383 6.42731
files/tasks_parameters/ExAp01/sample4.txt 0.769433 3.72477 1.6136 0.196448 7.11813
files/tasks_parameters/ExAp01/sample28.txt 0.600291 3.11323 1.45032 0.158819 5.75467
files/tasks_parameters/ExAp01/sample18.txt 0.587136 3.47418 1.45209 0.149064 5.4012
files/tasks_parameters/ExAp01/sample35.txt 0.749529 4.57086 1.49394 0.185031 6.70443
files/tasks_parameters/ExAp01/sample47.txt 0.642921 3.13768 1.52397 0.16417 5.94856
files/tasks_parameters/ExAp01/sample49.txt 0.628951 3.13288 1.49657 0.156154 5.65811
files/tasks_parameters/ExAp01/sample41.txt 0.594854 2.81964 1.49636 0.150876 5.46686
