Task0 0.006840184916261954 0.04647649497350227 0.03322403054754749 0.023234891683977077 0.5765148801583907 0.7378521382396566 0.7916680317197831 
Task1 0.08203340199485949 0.09103925594885202 0.1979866903591254 0.19597554804368605 0.34334663817636446 0.9086601985798919 0.8572770911150505 
Task2 0.014731990140660088 0.020371899542643828 0.0415005674608879 0.03963852815714054 0.6897349380842608 0.5808406510808827 0.9812438999136566 
Task3 0.04122343220169978 0.004189330526785246 0.20988117495733913 0.060386485812142676 0.35180268894012096 0.9471241123416811 0.8085293277985353 
Task4 0.017591795316813666 0.1329303381589812 0.3975680296468022 0.359399202921285 0.3008170805331273 0.6892622685932687 0.7794915376696421 
Task5 0.10324059231790197 0.2890030188687047 0.32996285361578687 0.10970825009079295 0.9591720756759201 0.7270805542067489 0.6039657592642405 
Task6 0.0013166265009583948 0.026386482268924025 0.008272080152647222 0.007138131775032486 0.8509499488124779 0.7324704805389123 0.31574495521241946 
Task7 0.08666560228408901 0.036705320006558254 0.2099643625584764 0.1252657384887999 0.7893231209428985 0.33641945041734256 0.4838959339402391 
Task8 0.04504643610248287 0.07427360812163082 0.0461008832158076 0.08075481502743456 0.341440391645034 0.35926921886448093 0.5484438183009508 
Task9 0.0009522474481287059 0.09129053498925883 0.08177385880587652 0.012909499227717499 0.5853264790896477 0.647533671064813 0.6590526734050712 
Task10 0.05822598338895756 0.09817773924393203 0.5135688605633589 0.26227890536597503 0.625021335220938 0.8131059031368542 0.44455766888813397 
Task11 0.01700750227894675 0.012199954354705729 0.05737670338508738 0.008070887335610401 0.8852045604258623 0.7199354235916495 0.4379653503380621 
Task12 0.02580325522931531 0.24048731121540418 0.1564241553020435 0.14817394665893258 0.9083257971897896 0.4147446082589879 0.8212078499045594 
Task13 0.017506295634094293 0.02402404469307497 0.04388373698958423 0.011224468204950431 0.7696688264409386 0.6653593461226747 0.6512173533724727 
Task14 0.008558240456407384 0.04402881231851331 0.038365092423333476 0.07062967555704974 0.4832856888755149 0.8922601051124688 0.3430968007729171 
Task15 0.037899854180202794 0.04455186411725407 0.7705183507357066 0.12339415524992683 0.8086808153971097 0.41099026836598374 0.8695679467500561 
Task16 0.00020375371596335957 0.000981134274514893 0.001565008217340949 0.0012346468386227115 0.5813699511469523 0.9857962077490605 0.9921443543137152 
Task17 0.01215695151203396 0.22975061381712458 0.07734569395405516 0.2161880759840517 0.8232342249965503 0.4065281065378108 0.6568361187039378 
Task18 0.04675743174227791 0.06651800001498795 0.4424494915015426 0.06342588976287346 0.46682091775897944 0.4458042040430641 0.9596388005657965 
Task19 0.14567502238161 0.49865996261935264 0.11398199461913129 0.20551767121071368 0.6349302136422112 0.5251487427751377 0.40120813575894343 
Task20 0.018648262732280162 0.015486584839407224 0.1304298048897773 0.2334375854058025 0.7123081699440499 0.6463259136247774 0.3717695607881988 
Task21 0.005746763726992767 0.27149136428748066 0.13150497892311483 0.42591816598407495 0.41670809056412356 0.9738736558391226 0.49173794515445407 
Task22 0.0865559474069145 0.24700861344011496 0.1472654873586143 0.13930003164813387 0.6867266562104415 0.7444101156445938 0.7736330186286821 
Task23 0.06548617013792857 0.30039165977622806 0.0035852843739920186 0.048030607395279146 0.4423924743584494 0.8947050760980919 0.919994481341748 
Task24 0.05268077288369098 0.06638993967096764 0.05561404159081912 0.14037680287312565 0.7038698337455938 0.45482554900817884 0.8895828458903792 
Task25 0.06274215539173537 0.19468362321141328 0.07647171932975731 0.08980531984155171 0.5826202500433593 0.7661413213865578 0.35068013992672853 
Task26 0.001134218978124185 0.016275226692668364 0.013319735680410354 0.014920434831458274 0.963271173608184 0.5534315755387044 0.5357665751989055 
Task27 0.16577818432325614 0.4900717107365211 0.03976491347294022 0.2555404615182899 0.8102157290856247 0.7818027201295816 0.6591691357413711 
Task28 0.06556138271340241 0.15267740682132527 0.13856965933219176 0.6167130890811233 0.6601948237886666 0.627667241322607 0.30350322989353923 
Task29 0.04329833588797742 0.038614680884283985 0.11090301573231724 0.07451868179712565 0.3940358226406115 0.9301599635416984 0.625675864451158 
Task30 0.016297079852117313 0.1573325065484838 0.07113830654139157 0.12821891603533364 0.7140697828798781 0.6065120489461843 0.5800878176908445 
Task31 0.04272971708061243 0.11725883754915425 0.13472100455430594 0.15208072791127997 0.4291296490192006 0.9514103733513506 0.9675928211332938 
Task32 0.16323032216022224 0.31880823620033877 0.2817290758618177 0.05873574998013776 0.42255806805188767 0.9008443743642505 0.7559058506673736 
Task33 0.06225266458429169 0.006563253390934834 0.4005606036251951 0.07444438290764081 0.7212445237489495 0.7827437008606886 0.6673482209047594 
Task34 0.0858782169432546 0.10735431394938202 0.1361230105688262 0.11296558829277491 0.8901575165250815 0.6608581007809824 0.8803012823813754 
Task35 0.023093185801501406 0.17968664544835244 0.1576772717389953 0.1755255890467746 0.6014196326699546 0.9513131348585648 0.4829395470504515 
Task36 0.07151397855892726 0.19981511865810286 0.23910033848326182 0.306230941338091 0.5498007577775647 0.33489384926780597 0.7224913275751244 
Task37 0.049859126246063035 0.2500803375511887 0.3688334465658498 0.2010147115194196 0.5926777737268432 0.9839775051409239 0.9996218463528526 
Task38 0.04335153330049598 0.08968898933868115 0.4641410479993067 0.2820136154771807 0.5516004842181059 0.7382904896451956 0.5110467993834928 
Task39 0.05811698043789326 0.28211498904695553 0.00973711422824835 0.3386325011613314 0.4143876886047785 0.6327779973629701 0.588827408365576 
Task40 0.11409336945145367 0.41244523944817446 0.04771944017201002 0.1511517527503295 0.8764097780793714 0.4592955459529534 0.6475370084920666 
Task41 0.02991158220825642 0.22090822480802527 0.31540511267502674 0.3322174795770195 0.6400166925609552 0.8901726047847967 0.9281212687301856 
Task42 0.029686795007106703 0.03101542020726327 0.10066148441672976 0.010008638586378122 0.9943212303977385 0.6802594770523205 0.8813995738529481 
Task43 0.009511036226679443 0.07698394495130984 0.015805238918187886 0.013559273037832843 0.6526580240930926 0.7833568869106309 0.4561893761814416 
Task44 0.0012318578412315268 0.007491547668256959 0.008772555370937362 0.009935191595636356 0.8743738874249998 0.759329462975876 0.5064271055235213 
Task45 0.14543713951991735 0.10685788409040123 0.25240374369361646 0.23379895598001177 0.6789545105489561 0.6635528188752648 0.7958003078186527 
Task46 0.10790419322092769 0.3224299241067912 0.017841574770012587 0.2039075092241312 0.6008406593270186 0.851010488854123 0.6188656014534881 
Task47 0.011593673472399443 0.0748968022027971 0.06887710887311203 0.06620676199214758 0.8314342310669234 0.6538523052835434 0.8913249222242592 
Task48 0.03904903245718532 0.06275967074642316 0.17160425223726802 0.15316327742532188 0.9137491575420342 0.5898889081868101 0.7717656337314673 
Task49 0.025850962103103906 0.13122756895636475 0.22619956281953746 0.3924659502512114 0.49910865333595006 0.6590592283259072 0.9896063238648043 
Task50 0.045746805257982366 0.31428961662222166 0.15301715298420962 0.15187754394307607 0.48139936258881966 0.7321571592840066 0.41769065664798677 
Task51 0.05497036039663851 0.11359315482797488 0.11278125691516136 0.04474637146815912 0.34315072549321757 0.7105130300203941 0.42726937194226633 
Task52 0.001529950285512625 0.04337884500491528 0.02860889066625931 0.02820412835646442 0.4338144875303912 0.7843756524054715 0.8496293490121125 
Task53 0.06541459404209218 0.15720509741713823 0.08643089004289521 0.14246607326894267 0.8169652924595479 0.6671766241756437 0.8428281529480508 
Task54 0.015134373722546618 0.05565091140366145 0.7282745908579101 0.08355898562097955 0.6497663806457497 0.3193244900366524 0.5338423889883578 
Task55 0.007206894420882076 0.1084010958022515 0.11567968023504802 0.13812567403051548 0.9377587068264202 0.3961485300645194 0.8080064253610408 
Task56 0.08631585934603833 0.058380478957812995 0.20494303475457204 0.17954851246483955 0.6818536044469841 0.8362900084845117 0.4946219301896342 
Task57 0.0062935290124757765 0.012550383782005205 0.0325299755095015 0.06315519858971776 0.9702038535358453 0.9373165056760491 0.7544526435870214 
Task58 0.1201658068724352 0.1251792839365703 0.3265162015690406 0.22676438537301513 0.7490077733794407 0.9351673060819956 0.6698707226879004 
Task59 0.07398654343106453 0.27320755446613026 0.09148091991143369 0.25401229731825836 0.3474305544713025 0.8861868718887718 0.8140712636050143 
Task60 0.09706942898180593 0.041008514892264356 0.39659591772172503 0.2644207202206988 0.7700839187087696 0.39616589514419537 0.7780022688383798 
Task61 0.03844054717414534 0.6233989531762844 0.2858593050902477 0.021431631922663865 0.4697405948626493 0.5956003650358586 0.8537128525955189 
Task62 0.03802942837018481 0.1425968600312254 0.3896390244991347 0.36750051769092446 0.7990893063288866 0.3405698700844325 0.48571169164890443 
Task63 0.026049174270915833 0.09861894286479925 0.1309660751468338 0.10256786403154117 0.8964244060748185 0.48069675382096877 0.4605638416239034 
Task64 0.02349152500032328 0.07574420663267963 0.03856024805915128 0.02877743595307446 0.38892940151484606 0.513925446260785 0.49307884902902266 
Task65 0.01998637075519243 0.02224143909492633 0.05979011482188596 0.055330873290950155 0.6626478888771901 0.4022681529298563 0.7887734948664533 
Task66 0.16373643081221942 0.19992499247020618 0.24720614358722579 0.25779929521505296 0.337747864294411 0.5546563770512329 0.8667667913176753 
Task67 0.10818404072951598 0.21231509608150204 0.14082694911388485 0.18662252587225425 0.3832953031830282 0.30379289124051434 0.6937417741700379 
Task68 0.13654714539801882 0.3017833916300652 0.1352421908265059 0.25604322084796505 0.8579972393330244 0.6775561429566909 0.7417808412881817 
Task69 0.036565309269901584 0.053806564997220446 0.08907520056524666 0.10567993700450545 0.5773495277254587 0.8174037548494224 0.4242144462999272 
Task70 0.052834046386957996 0.12114227169173762 0.017823667134095292 0.15325607255303692 0.7843845028590839 0.8621624763307769 0.6898172613281848 
Task71 0.02453899360093891 0.35088962752428504 0.043971235807139325 0.2703783537053982 0.9538439648495096 0.9560548403801288 0.6128228324348364 
Task72 0.055541826830279896 0.10566449871478488 0.09333216688256278 0.03280368360396184 0.9822063201371767 0.3802087812338074 0.8048871061632614 
Task73 0.16591849618731652 0.36861048563543286 0.3002756801719507 0.013781556067860362 0.30706232851581017 0.7340834830765904 0.6999250703960151 
Task74 0.018700449136787832 0.031784210015728155 0.03482533337241728 0.03644304167598529 0.35161332226230035 0.6460280373208483 0.995841443890455 
Task75 0.024224985406780346 0.05391814852484862 0.028835985745028832 0.09399955225758776 0.8211461588716176 0.3124664591771029 0.5208627841505764 
Task76 0.10642240206803441 0.26546398108212443 0.2406731232180926 0.07070719307654326 0.8226365155521032 0.5292840030508803 0.46257577751387285 
Task77 0.05953697546830523 0.05113850735295836 0.4791065097721781 0.08265881834609391 0.38442392181153434 0.4648273341955723 0.9131976797689487 
Task78 0.05598817591633679 0.2145647722309117 0.1252238711078645 0.3449062016868411 0.6675046122767143 0.8009471285984182 0.9992006210973319 
Task79 0.16050002083972853 0.286695413554718 0.3509274129367022 0.038211245272890194 0.8234052951246826 0.8355373939676967 0.7222449944496604 
Task80 0.0488910702010549 0.2548440640689622 0.20585544306547757 0.07927218943512158 0.724125329232126 0.625240455780419 0.32768093329744924 
Task81 0.01521535954280664 0.08945729578575978 0.02496291075358465 0.24932311630754306 0.7784295116569899 0.7783174803703784 0.3965705904260541 
Task82 0.00843795557485137 0.019756113948079006 0.03917949202676438 0.0461014135506277 0.4949431507488084 0.665362589911155 0.5816612576431798 
Task83 0.04691700388226632 0.2537810860476617 0.3573897109880035 0.17288244867770922 0.344259938499614 0.5994722265964518 0.7199276280622624 
Task84 0.08333487274083125 0.19090521716362002 0.1744365729930326 0.4521156889998603 0.8409044865733954 0.5661775763324138 0.6356786609145095 
Task85 0.1511071290056364 0.3167054170219188 0.12108710588751238 0.2153566127871242 0.6897193543689984 0.5087397589874288 0.78203504366305 
Task86 0.0014886075504855784 0.009185046164887276 0.004884700643934372 0.005792842866079915 0.6412162338013008 0.7700634680145152 0.9732812134011026 
Task87 0.1237876469991992 0.13203250793852708 0.22576086648908383 0.2039146530613998 0.43093163623487807 0.4865952807463288 0.8404459981120549 
Task88 0.08690034662922035 0.11809052943789067 0.34119700719383367 0.08208023189005192 0.5205753107779297 0.8477166156437468 0.4346385086264183 
Task89 2.9462778774158334e-05 0.00031034265143547036 0.00025573172578798086 0.0002902348490684006 0.8614016102424726 0.9858116264800085 0.3920981029760864 
Task90 0.004612001587489755 0.013964679134259632 0.02344789388130204 0.022335639340124943 0.9057057158096731 0.6659542566205106 0.944308157485118 
Task91 0.003216641452410949 0.1547213681010595 0.1283418147423527 0.11977918554303343 0.3899420176622016 0.81279980473392 0.5647062340831097 
Task92 0.10471191529764243 0.0017488199633747988 0.2098777347448621 0.5558425116071795 0.7050334295283986 0.9364660002805876 0.679889766355185 
Task93 0.01600743973734193 0.03133801351638687 0.009318029269487962 0.027873442202627528 0.7174042955308337 0.8165751379153141 0.8672015655088987 
Task94 0.04057253521158878 0.007106439958456215 0.08336625874192603 0.18018847732308202 0.7234230663565431 0.5476980570677168 0.3095025034900219 
Task95 0.009884759116409046 0.2444255462087344 0.23181743145362319 0.22858633781789217 0.6171739016974935 0.9150576780393975 0.9553102084850755 
Task96 0.08212199466136116 0.022356848061463007 0.25665084751226885 0.2918520687261566 0.4649554675319832 0.46908808481612957 0.62965465394208 
Task97 0.017274348384610373 0.054922032321774214 0.04161588381717213 0.012453909316671162 0.8528839666048 0.34414800943815405 0.856207999151799 
Task98 0.06263951179447651 0.1236642535663027 0.4965279538271155 0.14099118542021577 0.31529369915856276 0.9078105779810546 0.9606323991060539 
Task99 0.009444000198656257 0.2208132745520389 0.10782064491047978 0.4573035072593157 0.6424026341551046 0.6354370069244352 0.6889266428275966 
