Task0 0.09696894758041301 0.32270917488639883 0.07419373608089862 0.12626626105039745 0.6672062516573816 0.7305439871140353 0.932043532558666 
Task1 0.05361149185495543 0.1189427924867551 0.03185733434516125 0.09327796697144945 0.7364871234355891 0.8631702749399903 0.6748550386674961 
Task2 0.164822256528702 0.3134101203601975 0.35671756228588 0.015993244277430964 0.9013825678016774 0.7862502774592383 0.8700312346130219 
Task3 0.02196978677090279 0.4796949630431554 0.33628805343636403 0.009615340440812093 0.6960949681286641 0.9160777786536918 0.4453796380175475 
Task4 0.16513960909629102 0.2806562902295785 0.21371453847338773 0.2242035373747327 0.8877620341079928 0.7133957404744882 0.7646114716533856 
Task5 0.015603749562289118 0.07658476907810126 0.029404794299856783 0.06659437220506577 0.9139507085136407 0.7838329105629331 0.8097457424558132 
Task6 0.006174257656635983 0.3401578192689446 0.39893774328441495 0.0655936629112397 0.41174988910441646 0.9599191808266301 0.6431051414519735 
Task7 0.011542724155145513 0.1615384420233436 0.13481168674805752 0.22794330977759722 0.5963760435970683 0.5761330343662185 0.9703036874047615 
Task8 0.06602623468049813 0.11537892318932981 0.28975731141769584 0.14688499447419887 0.6513414591276298 0.888061995151485 0.8341023083549579 
Task9 0.17340970481396004 0.13965368399238223 0.5744362005389588 0.05910509896726763 0.33332767874004515 0.3625072937013518 0.5950991971712055 
Task10 0.16005991431022581 0.46954295971048265 0.08393821765684344 0.1774431470623649 0.41427090555803325 0.8047114978596352 0.36788705426369184 
Task11 0.04085689285727488 0.08420732524206109 0.12028614983967964 0.05254165236743239 0.6066329616934414 0.5294463915303526 0.6304534473911374 
Task12 0.0636703610830815 0.15400726566516565 0.2982423238936125 0.020634995885341026 0.5896740191511022 0.596715802533109 0.48316355815001727 
Task13 0.06507117217887567 0.09573769177376298 0.2216595569405305 0.023759890489611298 0.8224075497238741 0.8277545908197426 0.5903138735006306 
Task14 0.08713207919493501 0.06533680897219851 0.18747748436243974 0.1519760210129034 0.4242722074560601 0.7776299206740014 0.40110318493371216 
Task15 0.03177741390309658 0.2810314932450753 0.24371366351147442 0.33803672175311106 0.9924840794773484 0.8788942528708432 0.6783082483211412 
Task16 0.06923438536321805 0.23623579497491287 0.21716511453212448 0.1163088798992248 0.43166902057828416 0.901614437565551 0.6641388823939607 
Task17 0.03198801637709501 0.33465672028194027 0.2991234224657774 0.21414666691315065 0.3578144027605323 0.6780728552602733 0.7697764417601798 
Task18 0.10340549869675694 0.4848992634257738 0.02303531611651874 0.25175449272125805 0.905102889450617 0.4406479128398477 0.7781029842310476 
Task19 0.012209716207298804 0.13885154443003248 0.1076521020931114 0.21456991344685017 0.9179366562076905 0.6975336697080181 0.8450927297933508 
Task20 0.15079361424067644 0.15355693377989824 0.4709393218398376 0.037710913861628025 0.8837272264679772 0.9438357242561914 0.5511421153335537 
Task21 0.047056810814353714 0.07149253514499533 0.16939139850587578 0.17190541624148156 0.9027378913410085 0.42884139805684407 0.4602291274203444 
Task22 0.024394960480972665 0.12303759168267296 0.0013743996402795589 0.00241962110537046 0.4838837302518739 0.5129253857940237 0.4953395995353336 
Task23 0.041929310426533944 0.5254882496939347 0.003701316158124933 0.28710383211379925 0.6153427180733726 0.46425013293476664 0.560142113571329 
Task24 0.009129742300101313 0.18251129103570646 0.21412765414600118 0.06084674490623742 0.7843447988778693 0.4070462686562646 0.36355156528256 
Task25 0.15616747410319767 0.07516921827891135 0.37864126302905116 0.2608567001090562 0.7474327646998811 0.3839557415691174 0.427743593294015 
Task26 0.03733543213371623 0.07019577326175208 0.08421027440298286 0.11324358987024513 0.8007889605375933 0.8587091342494022 0.8831214191949162 
Task27 0.11855382772892237 0.27747874378563464 0.20017036795207976 0.09534173656866382 0.32060815024974404 0.4402468808701471 0.4506422597545209 
Task28 0.04141080394066109 0.10125053807585895 0.20933927693644194 0.24929976698155412 0.635906410411625 0.4295884220343103 0.35376593802293554 
Task29 0.022991748694406216 0.2361517723466358 0.19833952646479297 0.02686809132895196 0.9936865452901638 0.33554778632262844 0.4668824876598927 
Task30 0.01050232494124382 0.02270232274768476 0.021628777726141083 0.02840876459644535 0.7672726321823792 0.6456877650411574 0.33598655203634264 
Task31 0.07572401540949682 0.2683184248140389 0.26443911245533197 0.15356760635946343 0.984053350771321 0.5176277260709338 0.6396789376693095 
Task32 0.054230054785208474 0.10156315642781573 0.10193000922870755 0.2987542177023392 0.5103164878952533 0.931295150734595 0.8657290408286138 
Task33 0.021186788221322164 0.2691601983293654 0.005774586184972658 0.34147541880906407 0.9579756739264831 0.3279010478821633 0.34350885425557937 
Task34 0.0050111221162940514 0.012899734822889107 0.009612815442117914 0.003011577659715022 0.5678090720148722 0.35567628041618915 0.9800535336021818 
Task35 0.14465007573414868 0.3267517509764324 0.24911059442502748 0.21964394537372378 0.3822864007321586 0.32264443541705157 0.528749922112694 
Task36 0.03989292898587157 0.1253021948087404 0.016702822808341244 0.08066763471257186 0.5633753723877921 0.624011033019806 0.8263079047894692 
Task37 0.08261203489766758 0.08859190597787009 0.2161383190383942 0.02978687131431619 0.513627022590194 0.6417221098659669 0.7085611087740619 
Task38 0.058230195746782794 0.2906320907484919 0.2865767544290369 0.21905985149333038 0.9386494784008217 0.7254056155238933 0.733922601859293 
Task39 0.004917841069433604 0.0649029814040438 0.20097354377623694 0.07402332909354346 0.6678507136745211 0.7451831602898997 0.7457476951874238 
Task40 0.06961321748149372 0.17500032692938736 0.13390391036630664 0.12963388813649024 0.49664520595015915 0.4230887747220453 0.5717814384850748 
Task41 0.06576299304732133 0.1100973216326219 0.080584433255862 0.1852915065543854 0.4546080080184282 0.6767510468937064 0.5605259178786635 
Task42 0.005274529976733161 0.11164357885523307 0.22878262424981227 0.5313423957348653 0.9484773206426438 0.3241834456207781 0.7454456272126551 
Task43 0.008038420012344956 0.20169548537461102 0.007204806295032553 0.07983451819268364 0.7593885250177572 0.6122350743529221 0.47670924902409795 
Task44 0.022552697998306788 0.022270715096609835 0.3650666324405367 0.02442883979195883 0.4842342866543495 0.8976032306208102 0.5330384012671893 
Task45 0.045047031438357574 0.35336811378301086 0.24795908323078023 0.07856253100812943 0.8627753494669987 0.8633739089735546 0.45584663181599605 
Task46 0.004207779287245131 0.030002382313450315 0.035413308330379825 0.007083267316405507 0.9381915208615004 0.8489020239854095 0.31238069199431356 
Task47 0.03208159153025806 0.005391085189574691 0.061123219880050296 0.13614470251125385 0.5316955333564006 0.6338470286995543 0.7896246851224862 
Task48 0.05021896600409504 0.026571046302254226 0.07871261815588099 0.26755995009369227 0.46226538748946877 0.46557683731273736 0.5964997740016837 
Task49 0.05497742622065715 0.11045511277295865 0.09151979108196932 0.08341448473567895 0.4894924331958621 0.8967598559784817 0.40164278767699524 
Task50 0.14279510791086872 0.47196065491043115 0.029478881568410442 0.19484525110285497 0.9944269758888142 0.6561398444531924 0.6458212320706823 
Task51 0.05230785277163286 0.12080082187196914 0.33470165218222064 0.44748957678038015 0.5372070909904498 0.3557175114972549 0.4278169832920494 
Task52 0.0007526523881429484 0.01484657220817835 0.0239102152695459 0.04529265796230186 0.9478200758156574 0.623271858175791 0.9924785334625261 
Task53 0.0013062262463823162 0.3605506357705392 0.26331027799755996 0.21252210474927266 0.3637040839816093 0.946807693006871 0.44134393546308304 
Task54 0.015797264895383824 0.13712000358783852 0.023449486893567347 0.08947651212009079 0.9739022266381301 0.46648717821627783 0.5314192430754026 
Task55 0.03747255693047043 0.07995338290789133 0.08968274760291986 0.043591686796275494 0.8928889825123616 0.4208273246371169 0.9369814048172889 
Task56 0.0004223683366831346 0.014485089377790486 0.11046784610054607 0.020142043418901835 0.3691521549290542 0.3711098190352171 0.8352420301944306 
Task57 0.021223745286073535 0.1504486578029582 0.10653084605640493 0.2618996636953105 0.924495530743483 0.7950730351946285 0.45616345888475174 
Task58 0.03732905724826054 0.09517996556680214 0.06325944149124409 0.26327402459673105 0.6314107964191135 0.8121495732796413 0.831717701022598 
Task59 0.030201708767420076 0.051798144870253617 0.1909311744935628 0.33004547058888767 0.3650571987642447 0.403057129150416 0.9685062617252944 
Task60 0.19921538008929104 0.2871315300647722 0.43217354257580715 0.07814998676076299 0.8961175423093495 0.33020632708282 0.33218369855740776 
Task61 0.10268920516234965 0.1699687572321502 0.22227109042911616 0.11209839045590975 0.8336941217254838 0.3350359337205293 0.8968781957592562 
Task62 0.029467405683314418 0.2099271474156648 0.13383585952446794 0.18292201039529654 0.7770677034871744 0.46716369521780676 0.6950126714489042 
Task63 0.04215360164731946 0.1351076229396075 0.0827033718338898 0.008336059961320056 0.5164252816334929 0.56957952219454 0.3676122599274682 
Task64 0.04650656577111364 0.4071092552164522 0.22880709707372313 0.07602151082490631 0.6031201729403045 0.9244364324789138 0.5354695216887186 
Task65 0.026041713078678978 0.08571544015331503 0.020618189943392935 0.02162927167110882 0.6001792433012175 0.716815510743398 0.5864489059349682 
Task66 0.08629904495095927 0.31071835048199825 0.3184850180498464 0.02320700703603037 0.6214980918135131 0.7745318892415811 0.7013053290655373 
Task67 0.0024681414398836925 0.01995744401167495 0.019346556249484028 0.00010607456792903434 0.43528616241470885 0.7244546150749718 0.8480136097032904 
Task68 0.13851774621435806 0.24575774716445786 0.18137389601591036 0.2036797332996549 0.3334961166208483 0.9663965582656726 0.5687995373331564 
Task69 0.09800797997340609 0.35184268013457254 0.17058139527603441 0.3188074107194306 0.9883955159058304 0.8045552533425127 0.8652082831535597 
Task70 0.020926936762388697 0.010387622106397413 0.043155612138810084 0.04359965614405618 0.9244515978444345 0.342529464909955 0.867268617028425 
Task71 0.021644627327904203 0.13203888195294194 0.14535485364990597 0.02296543451908571 0.5362976547500857 0.7514525162490471 0.42443206232366115 
Task72 0.06825598235782072 0.2733262491683649 0.18181343646044917 0.23939439650028094 0.9373647699248082 0.8252939601013936 0.6349764585347573 
Task73 0.04984856580949474 0.11667018644763448 0.2173353891020505 0.07366005629335527 0.3210360835610114 0.8339261730454357 0.7070527708124663 
Task74 0.0026954788679533904 0.021170893103318673 0.0021917559725092885 0.020490220466837145 0.6119399309889442 0.3183747395102433 0.41330025462327064 
Task75 0.09559874953291471 0.2436715611609167 0.11208261453046893 0.2421316787231758 0.7337355587395088 0.3484856227146751 0.7434616322006327 
Task76 0.03590248974142886 0.12013408265996943 0.07443071080251755 0.06969112238513597 0.454633559453036 0.45964655541446353 0.7686607513974879 
Task77 0.07154873993004124 0.38340916110028583 0.2796719247168798 0.23685241223692158 0.41338024429451614 0.8748482699522482 0.9386721023842706 
Task78 0.1709254350516369 0.3981399032872497 0.24864850325839885 0.17430105413986685 0.6323950552500182 0.3846640506969832 0.5651693682282359 
Task79 0.0003744950228536338 0.0004954662786626774 0.0023313743964454552 0.0024713926814296013 0.7063348923680248 0.7009582265276755 0.5911079752760047 
Task80 0.0543915342597862 0.07686622945611118 0.07942896580359494 0.09726410334058484 0.4049158000856938 0.4984399820704696 0.38078337862132555 
Task81 0.03505565150395818 0.3259458994354964 0.07215917108214745 0.31229671142994997 0.4997817880190897 0.6070579694496615 0.5842855837038397 
Task82 0.08355765127176495 0.22254615412496015 0.2103541026033381 0.028373383486765477 0.5352052510424402 0.4495769082286379 0.45124383203571694 
Task83 0.15523510349218073 0.7962195610345697 0.016173167729424245 0.008709830266202737 0.6030607468680164 0.42930422248309286 0.7045462889237153 
Task84 0.010359428473016697 0.05991895595625894 0.17216287930592572 0.10539292645937129 0.8724055407915341 0.8393255644219446 0.958387023311366 
Task85 0.046231512146735654 0.14307321454079377 0.27316627576559155 0.31004534796256755 0.49958797261316434 0.967777043736332 0.6637723935259826 
Task86 0.051102929341424845 0.26247915067455035 0.024855847560960032 0.20696350210968 0.478922995389352 0.38767175325422154 0.30357785910373264 
Task87 0.05234235020982456 0.08438175379747252 0.015094256495866475 0.18868528726754985 0.389138876641156 0.9471799829653225 0.8749571229811324 
Task88 0.055923814555013475 0.500313876581852 0.07095649583694828 0.33924991431676205 0.570309083688283 0.3217686243495797 0.8114589382775275 
Task89 0.0978568741012177 0.18413330072919276 0.2724867895905524 0.39770234554395983 0.5352481191684746 0.40760549893756554 0.7180747582010953 
Task90 0.005105664823684467 0.06727441827470303 0.10485225268442452 0.0940815533865306 0.953475241166146 0.3703391965921254 0.4868570559020653 
Task91 0.05321230890500209 0.009488745079907325 0.10980550898647705 0.20399614293405963 0.48607279220979893 0.6859399507229644 0.3354395460951279 
Task92 0.04319672942301146 0.1313235269650293 0.024264279913373342 0.0994850896333216 0.9010347379210406 0.6731941052448909 0.47351710153630056 
Task93 0.005890238302916445 0.05287495919169712 0.04228911262581401 0.009818065459294277 0.36342194997624433 0.4071665563827672 0.46998348336216833 
Task94 0.03456295689817111 0.2034309215998529 0.01759110359361081 0.15497756315185762 0.4195128885970541 0.8292364601806368 0.39807099664695805 
Task95 0.0003104947201870283 0.0018666715057929085 0.0014870569589759347 0.004669114121141771 0.3203250917377144 0.9494530756129596 0.3124312059516462 
Task96 0.10760393871876837 0.2690975836241992 0.3304982337811372 0.2586308201949483 0.7867886419163975 0.317621626052173 0.9833652842252376 
Task97 0.045410023807243675 0.08067864242165307 0.10527913915085367 0.18441184572730554 0.301959117745566 0.9652409145803862 0.45540139781700917 
Task98 0.02461457821800727 0.11655442924013804 0.05020206410069869 0.056259208615270916 0.6826948745536927 0.872539334965218 0.5245289085740469 
Task99 0.11718078999587117 0.3752124065908135 0.10257710821359667 0.19961689735862417 0.3115301771639567 0.5297419706113793 0.8354652641952307 
