Task0 0.12269601710032786 0.1598895891922216 0.25673165528028147 0.3180926178889609 0.6689908341460984 0.7158068141173074 0.5094380454978623 
Task1 0.09154316726169451 0.026698358686308658 0.1866959888650742 0.23027691856189494 0.4607105021942812 0.950154221887781 0.3411641042930259 
Task2 0.02980751887913663 0.15087069727259791 0.09879545784912468 0.41078136909460455 0.596414698971867 0.4280591505210971 0.6004700470283882 
Task3 0.015992164194008545 0.2521090218031163 0.1766219112288664 0.3642647562175634 0.532329745036602 0.652078221270193 0.5494637022564549 
Task4 0.02408237176840337 0.018212645843586707 0.043391334805985116 0.05949301531618898 0.9656605724080143 0.3994626398061668 0.5871879749646731 
Task5 0.0964729732041649 0.1764052623153576 0.010809864854954927 0.20353748911727454 0.5319647998567696 0.36338787416301516 0.7756056696950796 
Task6 0.017696077536609192 0.09303325868380678 0.06163206883315203 0.12849793103673868 0.7230520685428874 0.9971160515295441 0.6381084918187445 
Task7 0.010253365997299386 0.30214137888965736 0.5198770858738481 0.055395623699881213 0.842949744273864 0.7372176846462778 0.9461835243655965 
Task8 0.0410463597755304 0.19654522975630806 0.383770155281857 0.02215570195856238 0.8136557412890886 0.9630507078627715 0.4820141907100043 
Task9 0.04168334409684035 0.10660590243814834 0.2008638931994448 0.18183154496737905 0.5819917189378918 0.6515128436354307 0.3862891965451804 
Task10 0.11602811347889667 0.010705970290026198 0.26594416124708603 0.37273218532491026 0.583467022333378 0.5592966609825957 0.7557368986357136 
Task11 0.04214977756463831 0.2706877248709434 0.10825782096517554 0.41186300606500176 0.8019138225865008 0.8981166615669895 0.9748062350564322 
Task12 0.00948264780569513 0.036598362708131583 0.03353693676395595 0.009938874820798287 0.559720847251199 0.9110806698947094 0.6806439815769492 
Task13 0.03960828737185223 0.03354954297020037 0.049313747735359195 0.18361705485676155 0.6805558102357412 0.5367321391730351 0.9830474158623963 
Task14 0.051702202200485006 0.05071444548351308 0.1678240058319532 0.08313835854759102 0.8532016515920646 0.32413723481854145 0.6011994963866834 
Task15 0.0013300917170440238 0.1641696458417198 0.29114146737912805 0.26646197855911835 0.7977603864756508 0.501194760311381 0.8618111305744103 
Task16 0.0029877730334550707 0.3453726997870326 0.3192689345420092 0.21827275222890372 0.7690378865530971 0.922705924495677 0.3424633037029656 
Task17 0.008784589877318371 0.010832087067534552 0.109824773111179 0.04946980992645508 0.5081619159980247 0.5651672210657457 0.5554154983433278 
Task18 0.024833826130054974 0.10970794391407789 0.275832996659729 0.01528094019180979 0.7978271753802633 0.715603459156399 0.8951463699594151 
Task19 0.12561081797355983 0.30414430716054663 0.017554752412703212 0.33067412175777205 0.9489624149846634 0.8224458796638698 0.8499718348423728 
Task20 0.01685355511202311 0.10830721690164433 0.17119391279149562 0.25470152959759085 0.4878194262589901 0.8275000763951859 0.46933125437845347 
Task21 0.014014657152288596 0.054919917238351275 0.0268283007712495 0.05568871203855403 0.5860145065801424 0.8615658479444976 0.6532740614194293 
Task22 0.007273115806944399 0.21140511708807305 0.2421872853682303 0.03147627213600122 0.7907652886107803 0.9762733488991882 0.7838277249679702 
Task23 0.0010516437732786973 0.016084651039253463 0.157850627830766 0.03184438857638341 0.6479112273048442 0.847465895172755 0.7351071688721935 
Task24 0.053632030921014 0.1494173926493972 0.3115475798591641 0.2101924329120365 0.6581170758650938 0.9005509696018563 0.4373445167549377 
Task25 0.0007024908072727694 0.003220556430351653 0.0016549331032373225 0.002500809519459766 0.30044818472715945 0.8578109260632303 0.9509225746320613 
Task26 0.06522658028265318 0.2809450185769383 0.3341005276247556 0.2629295542420298 0.5106736342213403 0.5096072778408393 0.43721062363371804 
Task27 0.06495156244736906 0.13943333195442756 0.06232068218236104 0.07387709876111588 0.3140005805416688 0.8817488734182857 0.4782350200920896 
Task28 0.03891850921533279 0.2281971659653342 0.16562891463832577 0.14720020420147273 0.44166120191056024 0.31054842048558084 0.5425484123582487 
Task29 0.10134312642514061 0.26905021987297983 0.07549568856246669 0.2610484320493172 0.5621673315942464 0.8803332042585357 0.469856984678195 
Task30 0.034552367704890896 0.11970812188629547 0.1367236661286881 0.024647354386564856 0.44843372805609777 0.5672186354516773 0.4672927330630083 
Task31 0.0072253765263235225 0.13781818706278778 0.26613819193137606 0.5730756330811809 0.7769291660501783 0.5088026040031639 0.7752940722674366 
Task32 9.923224834157864e-05 0.06347295895515076 0.15797530530994455 0.1707411340562605 0.5958693828087123 0.4485198728258416 0.7318911863102134 
Task33 0.0621472102339012 0.1480299251372458 0.1872356090376545 0.06228334571227887 0.8460429442015689 0.8722948067637128 0.7145827626359046 
Task34 0.06376834662628819 0.21869128136979407 0.020285322860958042 0.22925037397414041 0.4067685754954493 0.6346264184775624 0.724881448080223 
Task35 0.025399357563069044 0.04262968427859413 0.06990570819819601 0.07219957618014239 0.6407643881920362 0.7827700087347118 0.6873064773314197 
Task36 0.13576467189793684 0.02658426918026779 0.2919412220617959 0.33352419972696085 0.7211587120782659 0.6962472587351412 0.3538663350589373 
Task37 0.10505929972029054 0.22704146535989012 0.18591074898409732 0.02440037424284484 0.7108223476087754 0.7676108464392377 0.6396378423736361 
Task38 0.08000020130586681 0.010204438673409243 0.17613894440796893 0.21036296560870796 0.8864013509433457 0.9574821591350193 0.3027640895003389 
Task39 0.10894673617721841 0.0789381318721459 0.3652599333237913 0.30572308032497064 0.33247575170875854 0.4713876035578183 0.8251507795938358 
Task40 0.009412511252741755 0.04923141020585251 0.08387951304450117 0.03180402694490117 0.7439176450275564 0.8596693841401979 0.8294326650257733 
Task41 0.09408189643556986 0.341985806004244 0.4032543363351664 0.020395065046192994 0.3783992792109111 0.316795049851353 0.7095854547618219 
Task42 0.06402801230608658 0.03616060011886069 0.16660717807037018 0.2864498963934798 0.7788393234658967 0.9989573978921971 0.5412848359220506 
Task43 0.0992728223925654 0.22122247288604835 0.07045357707584705 0.2063290159467278 0.8514736501212279 0.9617153147473951 0.4782749175810281 
Task44 0.020693745284499018 0.048858435189663915 0.02117170430273252 0.035554553333656175 0.4500200512534504 0.6973220987124931 0.37447249374543934 
Task45 0.026084720333172634 0.07206007966378403 0.12231690932399525 0.1283631212384294 0.4167316096173503 0.655101208806676 0.8706889113628162 
Task46 0.0008084298839415364 0.0015230719561401043 0.00665544341644333 0.005240894019374131 0.5802892147894709 0.5433805103626586 0.45409575427810434 
Task47 0.0017393451835862688 0.7339795491330628 0.03577910413785659 0.16520586618716934 0.8654716265475466 0.4964924424138085 0.35651428580897426 
Task48 0.009638952125914035 0.04478163250959141 0.06150299983068756 0.08325910718237428 0.36896364776350676 0.4330739329026675 0.6441917368172301 
Task49 0.02120621638584447 0.06819102596431074 0.09103834260243501 0.024286735161268145 0.3022603353689238 0.8198538571234901 0.5804534701745703 
Task50 0.027931903660064566 0.18814782757394202 0.18057777912151382 0.19309680194370002 0.5688669332638732 0.757292365415472 0.3401967306476917 
Task51 0.04933065644704255 0.06680662927495408 0.164511631754821 0.05901631715439123 0.7356368653728009 0.5441644909280805 0.8470832000063153 
Task52 0.07585085627547034 0.007966640197281055 0.15523033898976946 0.7275585094485292 0.4408149842335891 0.607188829347411 0.36459271861868214 
Task53 0.02047928757840176 0.05509691532260337 0.08208341784698871 0.20508409380087905 0.7495105942094183 0.8025252580039739 0.9322394448174767 
Task54 0.040250500253943416 0.16204127629203008 0.037163850356727805 0.0998343178441254 0.9471080736034827 0.5260140282020903 0.4561343434319851 
Task55 0.014840143652183965 0.020570130647115985 0.02201380811451452 0.048662859297775925 0.6432120639034783 0.38664127593449815 0.7653730242495385 
Task56 0.01880737557009901 0.09201655701141231 0.07014577901777708 0.20710930217032847 0.9541740248202641 0.3267520902076036 0.5421659203546104 
Task57 0.07879849415748477 0.0016372793663876916 0.26136150358847093 0.36203209543165 0.9271365602612751 0.47213040565047915 0.8509139022835444 
Task58 0.01370698029472781 0.10530788023939484 0.0939044561792602 0.0793697978313785 0.8312495215950688 0.48028107627279093 0.8510450967692309 
Task59 0.02464609320751762 0.007202138632396866 0.6186751483462416 0.2734170591142685 0.8781698664999515 0.8889334729447946 0.9825774426132416 
Task60 0.005679523937171075 0.20696362078313615 0.49400674554947366 0.06975370125693502 0.8200810546269361 0.8226981883949231 0.7394244451437092 
Task61 0.04862983868137584 0.060734513982082 0.09562281063729382 0.08076800927421685 0.3477025566869326 0.5543273633219714 0.5611364988215372 
Task62 0.10222184784740188 0.31059420338952176 0.24399750244017704 0.3281068873336459 0.9700251703850888 0.4859245279484894 0.8548722402434161 
Task63 0.09297883305662889 0.5616363896871317 0.1665317743315625 0.025603384713445504 0.362732924921048 0.989104403023795 0.5580067274024616 
Task64 0.02356512130830134 0.12736311992896396 0.2514427826251504 0.1199418703664925 0.9762815652250532 0.36170561649129607 0.6459442391325725 
Task65 0.07183508309849697 0.6178606942186603 0.22012517527516864 0.019475904335874518 0.7998659837570918 0.5848886089204102 0.7094542223071039 
Task66 0.021400816342836883 0.26654605405022336 0.09368251541325674 0.1848066489687949 0.46814116981663234 0.775994349974813 0.5884801750549434 
Task67 0.022630757908200207 0.12091984892356689 0.5473238381108213 0.009025924667758657 0.5035170615421889 0.8163893458838134 0.38225838190424377 
Task68 0.019098838322390035 0.11561414928957797 0.1727660168189829 0.02319879610839733 0.8462998189734223 0.31911664257929767 0.5871492109435851 
Task69 0.005389881179109462 0.19528258791660477 0.018889986589138645 0.050336900005572754 0.9299622403279226 0.8977873070967048 0.772877039756008 
Task70 0.12993249720142155 0.18620140230338592 0.29466681262115924 0.21382357400777816 0.3337452639740563 0.6614369730066645 0.40038155823007515 
Task71 0.09846996050247786 0.40289637106000326 0.06988956649878059 0.30952007051585734 0.5716606357850589 0.803391400467341 0.3213761298796537 
Task72 0.004209086118536288 0.002049547816005794 0.014643855715779051 0.052301985335492705 0.3087652043441188 0.34938622238846495 0.319074132478621 
Task73 0.05318670239197333 0.01438038891087618 0.1437756107083254 0.108744729908544 0.4701958237281797 0.9186764933942841 0.5560821553705018 
Task74 0.10891855783206465 0.2175995276261544 0.19233817367481262 0.17195757659033994 0.5791392736221803 0.8345019066694408 0.9126894389180185 
Task75 0.13110092880240262 0.2496430621487926 0.5040700652591997 0.0980212177805222 0.8638693826449328 0.5156942721351089 0.3191845302624898 
Task76 0.002786222184754341 0.041634908779052425 0.01013428640522735 0.009780713822038517 0.3100302265115564 0.4052489324587599 0.687924902254214 
Task77 0.05048712787880633 0.12699548972288072 0.1111793380324841 0.10140374745347308 0.8297835111134739 0.8856497319618033 0.715155864690513 
Task78 0.02608415585618695 0.03920528814602348 0.02676115038335568 0.0785256213222017 0.9555436210149948 0.5957519632590347 0.611606143841246 
Task79 0.05280007307677397 0.12018420556164143 0.08294460623658524 0.037001651192703607 0.3252718269723074 0.9886775370476637 0.6339719572659244 
Task80 0.0066568234572226895 0.06470570563988642 0.05384332567642426 0.032997325780755586 0.961186844971414 0.7214441431444165 0.6662711735679949 
Task81 0.09706723612564883 0.15003390630820765 0.17520218565529758 0.177769710003009 0.9384289517322502 0.8122071865147993 0.5792305064860627 
Task82 0.05007754783244786 0.2307629419290796 0.1014674009191593 0.10029504125943432 0.524766034879488 0.945111997018945 0.32230334005470285 
Task83 0.05950441663375747 0.11597024577706802 0.0988582313693065 0.038615799911801384 0.8764944447843916 0.6504635032958055 0.3004050699732441 
Task84 0.15659016743685 0.39202205945044427 0.34500381268324803 0.04299852255109014 0.8932057435358429 0.8158814241327632 0.7955198382217764 
Task85 0.06387809610192481 0.564210302446845 0.15684487073159326 0.19940490121240653 0.5467773927045851 0.6552510474229388 0.8862190938588934 
Task86 0.06621147273202177 0.24272443258099832 0.28020685378829707 0.17924784687345105 0.9663358744382844 0.4027374842394707 0.8822647188940465 
Task87 0.023711550297940063 0.021888033273942797 0.1213700363800315 0.5160675594779741 0.5651809760428643 0.5400087137219158 0.7320868242021235 
Task88 0.1385137364584478 0.38107512409064176 0.3556833781659362 0.0640357152823676 0.921125897153642 0.7463513630897609 0.4039825153673481 
Task89 0.008879560809982338 0.024024997223770266 0.00597353927639919 0.006190087639583731 0.8186586693373543 0.4062732586053172 0.6526665206063671 
Task90 0.1261004984094638 0.5898920253403334 0.10821144784926255 0.17383109496624044 0.673926761427142 0.9336547344964108 0.7734826263000811 
Task91 0.039179449986627375 0.13893817349586823 0.4085781257941396 0.3955116962968474 0.5627705942795524 0.4977604508762823 0.3431641329457612 
Task92 0.005451500271020639 0.10706637750511658 0.057541897998617905 0.0915579639479818 0.8379755580375119 0.5255820320505701 0.8293240117420986 
Task93 0.00206626025357132 0.030567441089307836 0.03471051709549774 0.007028702300945545 0.3450182829694691 0.44254599513278037 0.5593787283453306 
Task94 0.009531059560598782 0.12304905888293674 0.02630110493879733 0.6538997883534553 0.3484818483401241 0.6887081618940114 0.878319723321215 
Task95 0.013071694771467513 0.03717462008896531 0.14896997464580117 0.12553738829365702 0.7768881137029993 0.8958398234812073 0.4010367360621034 
Task96 0.021797202194826427 0.1283282486674514 0.035661918371558056 0.2779857392355974 0.5812392041850031 0.40668258166634635 0.43077537836468516 
Task97 0.017391919458964428 0.22430030459635406 0.21012485072922624 0.07347696541572879 0.5857107504585881 0.5334008131291033 0.7117254170822718 
Task98 0.04882124129535545 0.2880327858319883 0.2638946809170265 0.3768667970623293 0.4745906319595248 0.726504885386563 0.6718432839775083 
Task99 0.1235522189751631 0.31766053312496284 0.2521974824794099 0.247020623856394 0.36985197632706646 0.58830624865322 0.671795714051503 
