Task0 0.00363561990523399 0.009200928200515938 0.0033199437233665105 0.004757462577077153 0.3812679991275117 0.9968495572173988 0.6318362440651237 
Task1 0.037631262982089714 0.18775207895927754 0.17875807747657788 0.25853888840393685 0.7266322864142095 0.38948441212448043 0.9175197461435749 
Task2 0.04510281607556497 0.15034256545786134 0.0014515757092139758 0.08602321245620052 0.5829914361978608 0.3150525045299196 0.8055429505185048 
Task3 0.024046341266525238 0.06332083414051838 0.011584202364594641 0.07422355530435794 0.5213289378429107 0.888750094361195 0.7741402663467956 
Task4 0.016252755922508622 0.031370725348613744 0.027805362290938822 0.03030864839981035 0.7977005887752238 0.6545153714850678 0.48761035687257825 
Task5 0.0016220527000125062 0.04077018452463912 0.016067950378870897 0.016733632934571682 0.515677710291166 0.6952942719791615 0.8524989211138274 
Task6 0.042058927137249166 0.04401325995144004 0.13044640390405046 0.0013567270298571006 0.5758755813700044 0.8811011267813074 0.9473943082834966 
Task7 0.15323487405193423 0.07823536339416781 0.5078951470450125 0.16643918116355655 0.6003013897955574 0.5036911254042347 0.44887112323368916 
Task8 0.029939916137219115 0.08502359001719813 0.3429499766094409 0.5040266066924961 0.8892770735882043 0.6541102519138668 0.39804233815941176 
Task9 0.13198263546656355 0.31261382911860564 0.21230381677340018 0.02046006533438172 0.9837225220264807 0.5887223718781218 0.9405670236844688 
Task10 0.08812130873224322 0.2808754977998052 0.19317796298279113 0.10319503480906372 0.9387867859849301 0.6233473253963016 0.7816078792518638 
Task11 0.016252128361252657 0.04104562992298758 0.016083450696949577 0.09099774305248999 0.9048615338286561 0.702065477657849 0.9266188806134417 
Task12 0.0997595062169055 0.04113070326377486 0.5049019300437717 0.10785366104394781 0.5665198391878914 0.43520737826640854 0.9653814067028235 
Task13 0.03213904276305563 0.12825541053908512 0.030534897986166473 0.11095263737477368 0.7578858319721744 0.5897717804758477 0.4355326764571684 
Task14 0.007290840911251621 0.14476806586397373 0.12337031847045822 0.006844993734946861 0.32313240596619774 0.7723611312757266 0.697234626442059 
Task15 0.013139755115340494 0.00153213510101538 0.04564498845891709 0.006686714728575135 0.5468626102592273 0.6656706627028268 0.3620331979164739 
Task16 0.0930240568039798 0.030123966126710408 0.6242445055854514 0.07989904958768514 0.7796815360019382 0.6362300961831973 0.7246065198395749 
Task17 0.04535397823225588 0.13001914837753967 0.14110162004343682 0.2767721562873641 0.38908768590962006 0.7172547672720956 0.35795266696693706 
Task18 0.019600486995640147 0.06616993792770592 0.09729860559832497 0.09006057873452793 0.6101267251506057 0.38755497944128803 0.3705655590634145 
Task19 0.059467992670228634 0.11936273826378808 0.12832191739449078 0.14104520051416844 0.3657078595657715 0.9789984201332784 0.3287240896325785 
Task20 0.1211095395734783 0.24171941156225554 0.344014633483919 0.2771655920073827 0.8742456187602774 0.6588863075025464 0.45469903437904197 
Task21 0.04949958436741466 0.19385570361117663 0.24340538633959663 0.47116451279570926 0.6235948840486312 0.567845668643733 0.9354773723930279 
Task22 0.12993795742404365 0.30113802043871146 0.006928982164029028 0.25124432879564784 0.38630419918526177 0.8502899117120661 0.95632279694735 
Task23 0.06870977452180171 0.2352645093800592 0.2778868561320327 0.15456234854123121 0.9326688378465404 0.9050131866025621 0.5525908832337605 
Task24 0.016872861012988044 0.038194299286895245 0.07951983342707641 0.05779970939283441 0.5527948256292192 0.47616710911817894 0.5222493332657818 
Task25 0.014892208519050001 0.09470778784787547 0.07104191342408787 0.15619240019784664 0.6438908676094236 0.9337184080992116 0.9736862904336694 
Task26 0.09476696071077405 0.30051568162731446 0.14604917719231988 0.2301817312263181 0.9240802450704662 0.44828032018553926 0.4068247313870848 
Task27 0.05026445570604399 0.13355396012402798 0.14575466710481977 0.10832628291685777 0.8818554255759967 0.8134979001521017 0.9481197230634366 
Task28 0.1185302782099958 0.14920529400471058 0.4139057105420606 0.24204851404939196 0.7337738474871733 0.7622322739138363 0.8552615009101399 
Task29 0.04747205552936352 0.4157049727285356 0.03643830471767889 0.3508798993387616 0.4264798100140999 0.6473712984288942 0.9884481736028188 
Task30 0.12308626837628676 0.20645847672605966 0.1800283631716174 0.10975423878981559 0.9715495524811826 0.5369840587203992 0.9643074804093599 
Task31 0.033868428436086236 0.10001373972876874 0.014798113267287685 0.08213163906404851 0.7270805531065008 0.9769558497424882 0.9014412246727048 
Task32 0.00024194659672284636 0.09071281428604147 0.1827391371293127 0.034831332544689175 0.9534771714081833 0.427126566639374 0.5975711529861669 
Task33 0.0018967168385265636 0.0014851051164175293 0.006981253201303397 0.006595005719885216 0.4856610193194766 0.30030111502929047 0.7385689702598651 
Task34 0.0031024431787151224 0.006548853785506603 0.006730445607286476 0.0007699232807442729 0.4696674629174049 0.45729346116742053 0.704155522297693 
Task35 0.02123196983147964 0.08432238589115726 0.05563795723869106 0.0383767224931367 0.5759736949969361 0.9701781688393594 0.7680472388732383 
Task36 0.0019086476048733956 0.047349735751737655 0.03451723987695529 0.015906135162779406 0.5712416030596921 0.9178598882622595 0.7228922737201022 
Task37 0.07938275940937853 0.32780641741606126 0.027419856978821024 0.13141023835386328 0.6702293268115451 0.6800091577013003 0.7214493778705319 
Task38 0.0023719639223036253 0.019618018872292104 0.24424696028182516 0.2963279857992288 0.6594606440666639 0.8330030171048639 0.328980468752859 
Task39 0.0005432986626015546 0.005126344970520243 0.00042277350798109397 0.003243056795130238 0.49578778189075806 0.8095754670951583 0.6341904456027561 
Task40 0.023133581365235037 0.0762868828736862 0.053894230267791374 0.027966904335838753 0.9878769710920565 0.7511157853073092 0.4594805336239879 
Task41 0.13211954654323724 0.27447087677392995 0.15612968426605284 0.26657744591277804 0.661019109473021 0.394664393200992 0.5186259201131582 
Task42 0.0015570319993780648 0.006711542336789352 0.0017368013511225241 0.0018868430675811794 0.30262857568753154 0.8768488109028445 0.5330165607854713 
Task43 0.0718667823442232 0.06855933609703795 0.3034044366712809 0.38747839310994525 0.3523791302497674 0.9486307850632796 0.7108698532664446 
Task44 0.022583411613957077 0.12211677545866056 0.1929401662529753 0.14142296984931646 0.5390526929807556 0.668284844900445 0.6218640205208477 
Task45 0.05576888373514322 0.20349195860476615 0.017438750783554877 0.1973765918966456 0.4290151861659559 0.473622961019486 0.5255362434409607 
Task46 0.021087154988957857 0.09130780516434717 0.07184158040657418 0.09186494512578007 0.9667595831721476 0.448241739844778 0.37159328523203544 
Task47 0.005484643344920073 0.052068126187888183 0.03464661056937669 0.046804526155912476 0.6568414673875937 0.834755375150485 0.9664458793614508 
Task48 0.033521564514132206 0.060531051965701285 0.08014023771082701 0.5204176373813423 0.6862410301148283 0.3517634440369339 0.9825695990010177 
Task49 0.028785105399499404 0.05940695314178899 0.0773385955912604 0.0783318347170101 0.4201844835664799 0.7076439872356418 0.4618288717522256 
Task50 0.04429375358517535 0.1729006148628837 0.27545433362207855 0.3709303145096845 0.5589885696939519 0.5681449388455224 0.4346758146397738 
Task51 0.0037690180412877873 0.037114296716028956 0.1513928433783975 0.044773338765012785 0.45433353926407966 0.43572187611287355 0.6180345252335852 
Task52 0.04645888212159002 0.11174480154427398 0.07190501968019064 0.04593138787959267 0.6433710336163627 0.3068522754203995 0.5854980681557965 
Task53 0.021022798078420717 0.0813629824548689 0.044295267093622914 0.054488621003349114 0.8438931202396425 0.5139494381498775 0.7169178143812802 
Task54 0.011691439246940903 0.07696526039260418 0.1159304984022602 0.03350923998683325 0.9783790585670078 0.5157612998105292 0.36541174671574533 
Task55 0.0014844080938363347 0.030426038861580948 0.028466542452448982 0.024866490026321717 0.405470735336768 0.7407253852379634 0.6489164910382359 
Task56 0.06624982054072036 0.17778161947780946 0.07369390945909778 0.30921695903890006 0.4610863980804072 0.5144029813629605 0.3435547611077537 
Task57 0.10381576450221636 0.11259624510531642 0.12860581111031266 0.19532459660867568 0.7595845068770686 0.6813894521055099 0.383933104151239 
Task58 0.01365217076156187 0.15938380273850167 0.045984431844696874 0.08434870583595346 0.5870722065653018 0.651137566442574 0.9925758384518835 
Task59 0.060262849389458084 0.1168771053374325 0.12727581107328098 0.049675733224564665 0.9904760962943819 0.6123679797015045 0.7587804796009725 
Task60 0.003175206612478485 0.0008222047593629432 0.005436470129702745 0.013477647375361557 0.8752706818705118 0.8164460029485354 0.9083522644965103 
Task61 0.07187033653078508 0.13753832863960966 0.04312354607325488 0.1286184745036041 0.7948380692784511 0.5934548874101895 0.5146917481653344 
Task62 0.18067634101988972 0.11397808879092142 0.44527369416824847 0.1869197061508695 0.8412214136213549 0.6165993490556348 0.6332348774976511 
Task63 0.032941326923463334 0.16603467427181542 0.003392633610180594 0.1733633141855207 0.8300983484365978 0.5132704577128192 0.3766567713713309 
Task64 0.11842554736217055 0.27955595824501156 0.2945730039309912 0.09314892860404993 0.4768043756953674 0.38374886792077506 0.6133645971363955 
Task65 0.048747408576749404 0.09453142453558055 0.05207553965220275 0.05717590477086307 0.6296312643317403 0.4541988966780872 0.3537501066245664 
Task66 0.02575646490806342 0.017521464988723506 0.5070742112594808 0.374719296351974 0.3100838753585805 0.5468655273231334 0.3873644468133997 
Task67 0.002209684495175175 0.0030574043074135166 0.00825215807334611 0.016140149999277664 0.8671095648031653 0.5311964349030603 0.8245382359116096 
Task68 0.026680311296747215 0.23324128746063771 0.0874787239211737 0.2849488156234854 0.9459818954074479 0.3708745717876141 0.6898290375691067 
Task69 0.14038592420026952 0.6367078495869546 0.19053446923101902 0.029426023169644596 0.5973789554893761 0.677446438809186 0.9024539258219073 
Task70 0.13849149083728507 0.0599644097863279 0.012397300429149188 0.48254874008149645 0.8951004556574642 0.6212825355753056 0.8737107851640438 
Task71 0.008778114019485556 0.044442815130724206 0.08568197980538611 0.01621252335884281 0.8260916330077972 0.34425120132246534 0.9821537226609303 
Task72 0.028282607739310822 0.2759453943870495 0.19727811484233537 0.11982664917222814 0.3649889762041886 0.4152465963264246 0.4838093123031896 
Task73 0.04769041917748683 0.1794185066553598 0.27283056133276495 0.1490955635922341 0.4579707192691759 0.709851113293253 0.5971455388760275 
Task74 0.01717810940945719 0.0938103968220722 0.042410867266522365 0.09911152766160095 0.31092082030754753 0.8590453558209326 0.9434545768415716 
Task75 0.0006373769263910738 0.030084282660160968 0.008112476444659506 0.0502408776094756 0.7489338061256603 0.9904104676313734 0.5168439453253612 
Task76 0.08607610312269535 0.037878165983492126 0.08366982353774846 0.22964303933583569 0.5824830618048547 0.3196175500910115 0.8050528795959693 
Task77 0.11115027258377586 0.12103138806374708 0.3341466976121622 0.08351535018148229 0.718449294620799 0.5987792135471453 0.8731194801525259 
Task78 0.1179597495878496 0.3235582144758731 0.31176090945886703 0.23408582784179793 0.3454796481994543 0.7354448336883765 0.7621364025448859 
Task79 0.016798367599765603 0.35161550052179996 0.17035250729840232 0.35628391871180903 0.573127154590519 0.4572350696411521 0.6025833657001782 
Task80 0.0030651967656453133 0.020520470994833048 0.03107047016255003 0.019338851005952878 0.9288942818358812 0.45207275779592004 0.3116513696773175 
Task81 0.03483698057147336 0.21498335880916244 0.06290521576691076 0.13558618429694796 0.647081880411247 0.4501992281913183 0.3617969696029566 
Task82 0.04984736651870981 0.060326978200248405 0.10680979611430076 0.2252091318821924 0.9126559216407721 0.4959622843326983 0.38156224062129707 
Task83 0.08589064020679361 0.096226786355851 0.23263938576372542 0.1839731983531017 0.8648411584366869 0.5699948270323598 0.37618394316567666 
Task84 0.004074382014699176 0.0661726695058516 0.08913322410703577 0.1158725965972305 0.397884926268335 0.9778150548106832 0.6689125643047097 
Task85 0.006413762834768155 0.07044824935378845 0.2842618366427705 0.013460678247669697 0.5877455874583282 0.9916969577702681 0.39036787220378893 
Task86 0.08012166697287973 0.3061074003049544 0.15841827268972244 0.047969050276610255 0.706724702177018 0.7466062549357997 0.5420120093937965 
Task87 0.004739941467229181 0.0019477144356014292 0.010990644341553082 0.025267207087012765 0.5739235166327084 0.5675274637684011 0.33663470798573203 
Task88 0.10057485320959617 0.25577815344440374 0.45744807468998977 0.10172650134243687 0.30256931461669806 0.4976384968201316 0.376324061585359 
Task89 0.13256841051362064 0.21992775258564734 0.26695628242837716 0.1922891766798377 0.5167880125310323 0.5300074776774495 0.8955654165916684 
Task90 0.0528758275986374 0.35815439781182146 0.29343602630915494 0.17252094215361746 0.9939796828076288 0.4954167204136117 0.8394924969372382 
Task91 0.0056428759924231865 0.2219680979824407 0.20552302124493477 0.14197706424977535 0.7148266261908435 0.6868318646328022 0.8411007341415866 
Task92 0.08304362824222665 0.14274446325397896 0.08089329450926161 0.15640230121410312 0.8421418695986345 0.46899139074998397 0.3507634958923308 
Task93 0.1258319217690593 0.027164524385069923 0.19123315734865964 0.3098435670461593 0.4069282648234122 0.7859485832722978 0.5514391792213253 
Task94 0.07299171035113819 0.20366881727595407 0.11454710789268613 0.4418302042005849 0.8146932831511844 0.40683421942266534 0.5526296434091287 
Task95 0.05788681612911289 0.5715484513606784 0.07360453479476421 0.23187686637485705 0.39759787205032215 0.4307920536868226 0.7147312612973576 
Task96 0.03564438683760794 0.1735539183416418 0.14994895018820747 0.0458778995638784 0.5150467356249959 0.8479549819930721 0.8784578224650652 
Task97 0.02072907747791364 0.19384397583109003 0.1551488261868509 0.18908343170080763 0.6253306846587365 0.48082132748816464 0.6452175998074114 
Task98 0.1481574673161419 0.23988805911008465 0.39708506970766155 0.14086072141657577 0.713081768108444 0.9319687730808444 0.823499572484419 
Task99 0.042861065013478035 0.2164077044384831 0.25163082748200377 0.210973853947511 0.47202649710178823 0.36215249072431177 0.46323501329571726 
