Task0 0.0005183800516734253 0.0023721491704605186 0.002339150994801817 0.0009559428774723054 0.46105068040166525 0.6221207013475518 0.7714972606076473 
Task1 0.019833225709022195 0.013611689459247948 0.03859823078164591 0.028445027049883435 0.6621741134271663 0.32721561753059947 0.9061009522139358 
Task2 0.16046768217809843 0.21744883386936226 0.23172071085419108 0.3142194267587109 0.587614504027257 0.7198228380093824 0.8131486118112989 
Task3 0.02301067256059791 0.08597540785900981 0.07842754958140542 0.09764656366947787 0.7463421560182725 0.9397256032215799 0.5298577319352433 
Task4 0.028770673860516485 0.516138065742925 0.30250783649339275 0.042516563717634855 0.641142739743347 0.3390903573268973 0.44033423022509777 
Task5 0.0222777311392501 0.037376270971531476 0.04285921764817347 0.018031258015392584 0.36712656070765814 0.9447835118941246 0.9685357890465802 
Task6 0.08552950580559625 0.08578057121480974 0.16778167274734265 0.17171673396354115 0.3047622031309039 0.4361525056219472 0.34071296652383815 
Task7 0.12959140825603324 0.42289956370586634 0.21525590090556243 0.2135290715313459 0.8413530409885379 0.5455467970322917 0.5343054436716204 
Task8 0.06021938570202134 0.14299433161814382 0.3294393685007227 0.05385341091530478 0.6715217277131248 0.473900601286242 0.9751431009493037 
Task9 0.01971069179500672 0.013005178792159266 0.04457201078156766 0.0453936468504962 0.37205285150487905 0.30862423023564395 0.3524273322592667 
Task10 0.15644240913016894 0.015250952453123003 0.2917532606316231 0.476892020511379 0.34319871596142604 0.9357096278935166 0.7015506585239686 
Task11 0.1263132840289343 0.3174148632226473 0.04750392045393119 0.22267353911594032 0.753717971500298 0.3169302013050486 0.8677051409774639 
Task12 0.00799580311670095 0.08384716770393195 0.15213273410828734 0.04696389262540846 0.6139926031451665 0.7493253958547657 0.7082665798319363 
Task13 0.04249903196186075 0.08951338035787776 0.07709533532462018 0.22886589055133044 0.7515225286021179 0.8483543106980007 0.3650479951496432 
Task14 0.056847114216942336 0.11056103160768392 0.21561584096922323 0.20709824529073814 0.6935385977088419 0.7365164751082678 0.9955735336348224 
Task15 0.01085344651101914 0.3009635471852658 0.24911351015790137 0.09788690520206192 0.5822004911457996 0.4205830098644898 0.4525216575090864 
Task16 0.029380284180950778 0.3165552824792494 0.05181021852534062 0.34655492585702846 0.9950149044327239 0.7159760967302016 0.9786956255274544 
Task17 0.06091675334929439 0.04541099735892351 0.4969985089829463 0.04590325249115694 0.3893633481562786 0.4608952854366293 0.4615471481490644 
Task18 0.06589388954421783 0.1134391783324317 0.09161239296383063 0.06447645202644706 0.7971315721968325 0.7714385001533401 0.5810425962946271 
Task19 0.0026756033861778604 0.11393079977130997 0.15849566806001766 0.12094417792557276 0.6649582699038477 0.33785344416047247 0.5363709783628723 
Task20 0.07900366674838599 0.14799057562860443 0.14730800811151618 0.05093618846438807 0.4523878830459675 0.5326932225332197 0.6483737296503469 
Task21 0.061087690435192916 0.1181283027370913 0.11763107054771271 0.11445279205295919 0.6677600583061459 0.6462764466837643 0.944213918680926 
Task22 0.09855037909325987 0.3231914556961654 0.37587281432809905 0.19586684247775304 0.7150133296554979 0.9141980442407454 0.4509459393268063 
Task23 0.07385095409454509 0.25635633784693934 0.27765009800749313 0.06438322135510609 0.846744185205357 0.735524924769563 0.479965559203065 
Task24 0.014782128625915993 0.15619327111597126 0.02983937226525867 0.13740884372313655 0.9401447149814961 0.5228896540898598 0.3106716954810914 
Task25 0.0017844307445083981 0.13241032048273244 0.006938910850588917 0.10091779250064511 0.5379297140614803 0.37350585965730454 0.7160249953176984 
Task26 0.019928880279672677 0.054888443269259346 0.02541940576625128 0.025136643231638608 0.6386045127082702 0.5092520984675628 0.3053863980532762 
Task27 0.10640419408123507 0.4239534903319452 0.23389090304654792 0.2202199825557879 0.8880575802281474 0.8583930336247381 0.9130479902956121 
Task28 0.03384983308111181 0.10784519457693328 0.014792658017047064 0.18894019027020784 0.9068531238262785 0.6492781831468541 0.32573898783257194 
Task29 0.10467986811013039 0.39681877201460247 0.41195875461431003 0.011733791935109957 0.8789504108645854 0.34212092603904853 0.5920126178456777 
Task30 0.03843429316422725 0.21725291357947848 0.2522582663939833 0.109347102567277 0.7390841829777249 0.32302450403290606 0.742706234355405 
Task31 0.10983421323259904 0.12038569337001666 0.3227706630878565 0.3462637660187404 0.7328575701965502 0.5749801609706581 0.7964059113233158 
Task32 0.006599122111197445 0.011394375450344555 0.010541003067148134 0.010816055309145187 0.8636316431658433 0.46850506736902764 0.8212410648979147 
Task33 0.10232279114061496 0.4759326190641482 0.08146029087963608 0.006393414243101137 0.3726498875781873 0.7294876265673165 0.8248802395271126 
Task34 0.004829701178477474 0.022750650294865556 0.10349329847618567 0.04319877499307905 0.8264441405375687 0.9374226338560019 0.47252935510549976 
Task35 0.0820844440189887 0.10184702152855782 0.14170144179809963 0.15092335541257604 0.6136998949467503 0.8068292415100236 0.9195062383821031 
Task36 0.10659388897732996 0.10368874737089001 0.3214360870617331 0.22265245283444798 0.6584423485842815 0.8089402248163178 0.6764246257864845 
Task37 0.016523786029411482 0.09849683265244373 0.008338836317643305 0.0929009121423481 0.31436789781745017 0.9708129136150727 0.5891224720790106 
Task38 0.014408306068522288 0.15683121819501994 0.17532419361198992 0.025418369115558004 0.40987578985076606 0.5691369534577948 0.815294415681941 
Task39 0.031952114357450635 0.23723248849944492 0.055289788629253066 0.25845001887274277 0.9703010187307453 0.46852777918333577 0.7768133248765936 
Task40 0.047847377993262205 0.04805189543812539 0.035686136903356404 0.20309478740417533 0.3827572942204957 0.9772643885795507 0.7374916700026392 
Task41 0.014596253300902204 0.09010166663870835 0.11154069429527151 0.2819604118954156 0.6605671172626955 0.8846613237468326 0.5856956002114453 
Task42 0.01609885728264832 0.04516561262623268 0.008450556767943833 0.05144691801335855 0.8730532894335314 0.570441719374299 0.8818626980880144 
Task43 0.053724038899340104 0.11784892174677156 0.08372661504825996 0.03775037277219979 0.49776478000202806 0.7737525030152306 0.3021745823731697 
Task44 0.020904452173163817 0.05694963692398456 0.043583928649723526 0.03439765335905699 0.37872929697037405 0.6842527711819755 0.742838536977765 
Task45 0.052226726045172395 0.10128449124134657 0.1603892627450398 0.09917676518261341 0.8538313880128772 0.45582426888647853 0.9954404165041948 
Task46 0.05794593823389393 0.2457028580704728 0.20328799256531208 0.1768128774138648 0.9366837289199388 0.6801002935092866 0.917897423927138 
Task47 0.14696317154060032 0.19028285857918023 0.13743146578136797 0.2979059290773553 0.6514516085853934 0.5878982385010316 0.5842370387447113 
Task48 0.0546491654654002 0.3249764076514956 0.12814828399093983 0.31874188258090025 0.9380019042700345 0.5526853698928261 0.37348854993645436 
Task49 0.0007032352178122863 0.03782378726657353 0.01638133791283704 0.035394107510104016 0.537362377192451 0.38731855107979524 0.5928060331773537 
Task50 0.0069248539152711504 0.1984711719181648 0.3280283058127661 0.2742110844249738 0.3203698356397557 0.78878762351134 0.3586718099783144 
Task51 0.15048039111777112 0.1584059849313679 0.48998805322989997 0.1546494098361617 0.8654835072020084 0.7368958358741458 0.46761582539094076 
Task52 0.039115244922572165 0.054457544069906876 0.20741549212809776 0.29201387237615384 0.8610313985728664 0.9981430079784397 0.3521131993202432 
Task53 0.032775330192965836 0.04600817604700069 0.1718542518561185 0.035261710233391384 0.6683247695226964 0.31268279617473005 0.7235896486518361 
Task54 0.1231002809355189 0.30874865097244936 0.1474922667032725 0.3014901446958047 0.9479688647567424 0.4314682441287415 0.4313580892840976 
Task55 0.03792220209826903 0.04659905119819236 0.07746946297105088 0.03568919528007397 0.35063997893042653 0.3982610117759732 0.933772088963533 
Task56 0.07804498974114993 0.13292916200671784 0.12411871039890393 0.06959107955035956 0.9062705182659887 0.8705992804819305 0.5103721275179605 
Task57 0.03766649194258589 0.08585761946549426 0.08393828830073605 0.12191347643079188 0.5376710511410612 0.42520958295675293 0.8885237986471892 
Task58 0.02385860658748585 0.05133233045162764 0.15463131196523122 0.1437723841654324 0.4094459974374605 0.39324110875265716 0.9151625073930725 
Task59 0.053558268638152155 0.11022463641122339 0.14714354064243498 0.11979254052316937 0.7831684636627234 0.30919102064908427 0.9032381745535447 
Task60 0.11903275120141998 0.15707630652751453 0.42112544040420535 0.1820125335156391 0.6866544310463507 0.9584244614970396 0.34688973925245276 
Task61 0.027438908938262337 0.04221034968283745 0.056399904985966566 0.030814056520642355 0.6960787314046177 0.7658382407368711 0.961084385978989 
Task62 0.0019018047174145835 0.011065868109279188 0.010874204453154217 0.0012709663380992024 0.876261318147191 0.3224903075123146 0.8172445413435858 
Task63 0.11567297161865107 0.20666592151582716 0.31943862348764285 0.0260344820298139 0.6675879410506675 0.3042353781860727 0.8638430062665383 
Task64 0.06697345320076611 0.11960483322198563 0.0905966577944384 0.2701380352418723 0.42336709500356595 0.33699750033461395 0.954604807115842 
Task65 0.052174120023351804 0.05890429063334748 0.0841740451051432 0.09622607687518189 0.4936771301301321 0.3111169884263857 0.5879623898554076 
Task66 0.001036037121424358 0.003956530025828019 0.006971122286163219 0.0037199754591103313 0.7910564901086715 0.6167403051924214 0.8648538138649557 
Task67 0.007609080131171734 0.1065655009765074 0.15396074981452318 0.04888951255805254 0.3220300935521914 0.45188171535557753 0.42254341706674425 
Task68 0.08081639930564384 0.11109251467006374 0.31203708724653545 0.19791104369377 0.35657205412008586 0.36858908515978145 0.3835644433775692 
Task69 0.10022277534874 0.13716251751565722 0.237086192879067 0.12735602406182675 0.8071002894534838 0.48817290855491524 0.8699506661826448 
Task70 0.06207420873638918 0.26684584147410284 0.20114946531908867 0.3472368596194178 0.8801086024438265 0.9373853473276146 0.4224490121550337 
Task71 0.07911824135969997 0.1771978747627177 0.37220920687725695 0.16451162222914356 0.5343756344366761 0.9187265525429826 0.601071797824216 
Task72 0.05532733683440892 0.21654953030757287 0.08672963910487957 0.38553696836231865 0.8373986525084931 0.7331687340979248 0.8834663823859432 
Task73 0.025546149220527725 0.206440993178027 0.04068304167024224 0.1194375612661513 0.8794384715918524 0.6421977111297104 0.71736178885403 
Task74 0.033600844522518984 0.01096077613134603 0.13381292906215764 0.12357504002207295 0.3609850091474918 0.330586162839309 0.9143451371792721 
Task75 0.02016775070267462 0.06991987576274176 0.0036993783314798 0.014932398888548228 0.349274702311974 0.6991128199406647 0.6846624414045702 
Task76 0.006832665097896262 0.2539864503866601 0.22659768667140218 0.14873942853023045 0.34598515680928854 0.44786958066730176 0.7428738068014133 
Task77 0.010594247748906488 0.01283494754432207 0.020240523661005237 0.012443992109152122 0.7009199429307906 0.521589725561674 0.8992707921488798 
Task78 0.07071585970994368 0.42124883276936964 0.0917268982361237 0.2368767177020748 0.4318301548407947 0.6781190478289494 0.6962966159574305 
Task79 0.008559335059261885 0.07245208673286084 0.06885422341263878 0.09388551460685629 0.8142070255125518 0.6686761572186819 0.5091199747968618 
Task80 0.16077173727173139 0.30689017754046827 0.1508098491578818 0.28429836925432417 0.738937689425111 0.7470755914148781 0.8411087614674673 
Task81 0.13163428165786265 0.09648362634684503 0.21154551405601782 0.3385646167050021 0.8215551206731389 0.8082109221736082 0.3364769651977452 
Task82 0.032191183891914596 0.14301744986291023 0.37558666970323584 0.1941132071599222 0.4976644987531769 0.665639544716187 0.9599027784247234 
Task83 0.0019793385143874404 0.1551072404393159 0.2887397545099873 0.2878274284230979 0.6941341800962646 0.31695638330975473 0.5117737121018613 
Task84 0.053367387567933716 0.1967068410314544 0.2059969947150166 0.1927763504922745 0.9237755264810523 0.616280238211899 0.5625109258200394 
Task85 0.03023197055332678 0.47627145997791365 0.20288119692699988 0.06938351307081034 0.5259427593203998 0.7333263504364465 0.6442579102057564 
Task86 0.04864144320223331 0.21744220650217072 0.13269815843213603 0.13938618019710947 0.6724969347365363 0.714945699849371 0.7076651324499501 
Task87 0.12714927177776608 0.14225235831474695 0.22921839748538106 0.258057756264968 0.6514248159495349 0.7568505341839397 0.910513639220752 
Task88 0.006907575904993007 0.10455995560173598 0.3187690377220047 0.077348732780715 0.4440972198963169 0.3932156578027569 0.8962572768239443 
Task89 0.04548680732701355 0.07885577589773689 0.2699660856548032 0.1452483272529262 0.8549128723205126 0.6254250437845659 0.3651068954939347 
Task90 0.07235598629119107 0.19667467056982438 0.4457976633796689 0.0729759401734299 0.8669263108030274 0.589929736292478 0.5182716040675863 
Task91 0.07676575512596935 0.21382817983940786 0.39693403958648826 0.18369203705968276 0.8894794327567179 0.6629692207993816 0.343779701945334 
Task92 0.06329923925219194 0.029146354695813247 0.2021717875396608 0.1670543793805258 0.8835348002451202 0.3370437796456176 0.7119451084710278 
Task93 0.1715767230780165 0.20221321440864365 0.42676867651164224 0.08425361139620005 0.6859644135927225 0.6359550789611392 0.48206513453708744 
Task94 0.013596882328026826 0.01908507113776128 0.03173075596552242 0.006445418420843984 0.32286542016301784 0.38990646082554187 0.9129355722179848 
Task95 0.05542227043104139 0.0501774193123012 0.18387135614797223 0.21783897370037295 0.7341580154183269 0.38140903160735606 0.3235688913684974 
Task96 0.10257981925594742 0.26031943769850946 0.03046047898159258 0.4624389060466367 0.9197928384303606 0.42214368103289246 0.6206610297038841 
Task97 0.06644275217839334 0.026239571709258662 0.09071674534768444 0.5556691761195901 0.889357194998718 0.7005234931830284 0.7230895411101317 
Task98 0.0548896990233867 0.07941026358416549 0.10056519362032279 0.21190678222844336 0.7743789799927046 0.7699652294973678 0.4145693611731 
Task99 0.12110268280083734 0.032617112106757475 0.22219723567494357 0.24141205620198752 0.8419861053076945 0.8999630727814822 0.7407805563008582 
