Task0 0.019221416823472986 0.01755622662025909 0.3516656820608692 0.30490821653852224 0.3607384162687443 0.9833428514943303 0.8887650038791912 
Task1 0.0039564067736227206 0.08325238104098434 0.1750288542532771 0.23367259035506197 0.6466285309898314 0.7784360681677339 0.5668544419699251 
Task2 0.06331281844439536 0.11998373506472156 0.16717431306869027 0.12295193079152797 0.30792429671588434 0.5915532970946996 0.31623220596333024 
Task3 0.003703143195317143 0.009234924832303983 0.008487405113571482 0.00843361241748295 0.762559817757146 0.7702686189752921 0.3607333331531848 
Task4 0.06232360187522755 0.073656441216895 0.13447411965918063 0.07962600247190534 0.35207592956015943 0.45184087637589004 0.6011278209618511 
Task5 0.11010020236620217 0.28202950039422325 0.1536571523882397 0.30045435685665967 0.47813844445462295 0.6277692330457918 0.5242462736283199 
Task6 0.05465238188129519 0.10720509427597012 0.08021479572454726 0.1958672701334383 0.6637395825756296 0.31713053666410307 0.9028824578464263 
Task7 0.049126067752480074 0.269052085770352 0.36362360001603244 0.04870217043955097 0.6798201190759576 0.5614515505401521 0.4255928545110856 
Task8 0.04979098654980114 0.22344982543447206 0.2577717895396307 0.3204808321527208 0.8842370368336254 0.5304221510182527 0.8801337740302053 
Task9 0.12695720587659381 0.20892806790637555 0.01876314509778253 0.40214004420608856 0.8003478962186032 0.6279213202187085 0.4248555958394778 
Task10 0.018475190638243703 0.030280530413490773 0.11794751117164019 0.0354282541402097 0.40178461748163696 0.9889989270947788 0.8443768641337543 
Task11 0.020923796928192812 0.03595248448840886 0.03943143615893149 0.027597644251702174 0.9557859234743145 0.9325002901666817 0.3328478621388905 
Task12 0.16881340798325292 0.2045809738131314 0.43176528732813646 0.17132498034339033 0.5212327696796375 0.42669116161479137 0.8075971530152324 
Task13 0.0007024088132738633 0.12821650345215307 0.11077696868964686 0.4296585059520361 0.39295446840669623 0.5785031422712684 0.4494192536084243 
Task14 0.0036783300279968094 0.031043134737703135 0.024372662624440673 0.21873584544921143 0.7384162155704335 0.738503717908027 0.5335124018963779 
Task15 0.09663497345914702 0.09652063309441447 0.23321783644066843 0.13102778829844694 0.41943341892183367 0.6075648306728032 0.3486564566049457 
Task16 0.054879459711734836 0.2965323386219942 0.359671775171856 0.026028126558524673 0.5629476658441215 0.9189609864434323 0.38084393953307366 
Task17 0.02063462882269791 0.043114224804787556 0.07050754480157793 0.05985009718291374 0.9622307739677816 0.43897825373780597 0.9874087779340814 
Task18 0.029385699966805515 0.17371057025489886 0.18937406730003312 0.2566243073041168 0.3812617165439818 0.44220075183004737 0.839269251846007 
Task19 0.09671037178567397 0.3068053952606288 0.12736131072313578 0.10089525960660763 0.4089793994526171 0.4531708793200927 0.5151713302661616 
Task20 0.05226779966300327 0.2607797413650697 0.3392729678814404 0.17092730107300724 0.8049201455259463 0.4119142737955215 0.5859790330495053 
Task21 0.0004738725988567702 0.0012161755601065483 0.00043133727634916714 0.002240680658671333 0.8273301537512361 0.6147467033707179 0.8262939794284254 
Task22 0.08538666697468593 0.0996872952403678 0.21047714929418695 0.07242257156279236 0.6275724921643309 0.3382174101883616 0.46306737878530513 
Task23 0.028951534759661557 0.16950867478628986 0.12292481934255477 0.31639551201976324 0.8670975949161768 0.8968419367254057 0.9847877766801689 
Task24 0.00803826133917151 0.06266886733399864 0.1690663306591891 0.13487061411094847 0.7129155598939363 0.7292284984032766 0.6358228371756918 
Task25 0.0808390841123307 0.04851520025136972 0.11884605518552235 0.6298006231962688 0.7105717841249779 0.40613521775669004 0.8125456214263023 
Task26 0.07625596627259291 0.09875160767147895 0.2944670475544016 0.47455018484892414 0.5354730141415418 0.9170303821424124 0.3187639302087756 
Task27 0.046725636092046774 0.17164634016538327 0.10609823657392776 0.1578618244362451 0.40297978222454284 0.4273253515381634 0.410707914234298 
Task28 0.056700788894415106 0.053187831079825956 0.23829273149414437 0.03132959769814811 0.7174864468242951 0.30118673424858405 0.45549129326835414 
Task29 0.026255971748746824 0.20407394162452558 0.07363871085776859 0.14793874077685118 0.6678191853670247 0.7501480779946227 0.7573741594276739 
Task30 0.08042365472578174 0.12374106833288265 0.20484420277486273 0.17780017411973692 0.6891802281202308 0.6799227116747532 0.9058662879205479 
Task31 0.11904917498855276 0.2029260553083318 0.0936611647578922 0.5436844427320765 0.765907378560156 0.9575660945121207 0.7765486922161473 
Task32 0.0443501336236977 0.09933274682335545 0.11224328587803933 0.014544827339746127 0.5852894706887336 0.30243110111409816 0.9148849633219731 
Task33 0.007940554709572504 0.030913546451825973 0.027196999778393505 0.018621389435679658 0.8047977328258695 0.6732439517323916 0.559403186715293 
Task34 0.060517561896686146 0.150899455943469 0.24463050134841993 0.1833461668900579 0.8784677961985761 0.6768766492394158 0.7372096299525494 
Task35 0.02067514479086151 0.06570834034516009 0.0680631994213235 0.07214149533501582 0.3129809418152917 0.6971495852047029 0.7069601569030262 
Task36 0.009568651042671824 0.017636457543543507 0.015092640886610064 0.01584892823352834 0.314058798389142 0.5597780129140173 0.7155680726024459 
Task37 0.0056039491146615055 0.04483119013494988 0.009033740939058071 0.3184745219292874 0.6146072975667325 0.5855766344165534 0.423962173616295 
Task38 0.07668589310075065 0.021903140290495077 0.07815905028302482 0.29414166136896425 0.7036632077805441 0.596120341478333 0.8124872162256165 
Task39 0.002066193398630632 0.003605701919742165 0.031071670934642834 0.011985651542009961 0.4056146925656448 0.572080057112814 0.9289839543846627 
Task40 0.02003385166480361 0.08150128636279386 0.06990577516501359 0.004801923008886113 0.5042916417216701 0.7919293673153897 0.8697017193694767 
Task41 0.09577439289949252 0.15165882148904314 0.12287695227548645 0.6228782417432133 0.5596129202811226 0.9418866972462399 0.8804282861935051 
Task42 0.015150633501385485 0.13400774651305852 0.4292693600527113 0.3289800416496358 0.8403573339597223 0.8240481885627602 0.35117884197187194 
Task43 0.0039048809644243202 0.0030526735926557818 0.05438031569535324 0.046589880909966595 0.8717879298866802 0.7086264269309355 0.8172645575093855 
Task44 0.03105381890684368 0.15076440672444402 0.46046139711402273 0.16047139495560564 0.37020318259765395 0.9951035340392578 0.7335038211188201 
Task45 0.018340284474623398 0.20472790884715825 0.009631995302173341 0.17879914870445085 0.9094741454362987 0.5881666957646116 0.9023511531238952 
Task46 0.016073108183559285 0.7156538143072422 0.07338826705497092 0.17443231346090568 0.40011398856252567 0.4401167976173261 0.9332256560468286 
Task47 0.05647793149999294 0.19966633036589043 0.08698812669300478 0.22882242688884105 0.5508923126197915 0.6575522576313326 0.9709881702041634 
Task48 0.07048583682516586 0.10622389239790657 0.03126511348278246 0.31735978274618987 0.8335082985516762 0.8383852616658907 0.38667793212808316 
Task49 0.0002805315534970322 0.00908163876000788 0.012236676977942928 0.000239104366868969 0.31691127561986326 0.41238132971345764 0.7151111551439879 
Task50 0.051476239487522495 0.3124225718704875 0.19459410097538873 0.3025145003351172 0.8119236849149978 0.7830546300286219 0.5280654912477791 
Task51 0.014739660865252368 0.40907885526676174 0.20946860319666552 0.1473217783332313 0.6375464995230676 0.7385033578207452 0.3562817924507168 
Task52 0.05191179663135134 0.279845546858875 0.1239640722924826 0.17900531314774362 0.566805112803667 0.6686082787868348 0.9452260151105023 
Task53 0.13033020430277845 0.22087549035970863 0.21335510645988348 0.1722897569191484 0.810856947555928 0.9990128900097868 0.9393226924372993 
Task54 0.08259812444201531 0.2537077754464012 0.13664019075662956 0.39281184335348274 0.3514241073665232 0.7626333785702125 0.5870120241524548 
Task55 0.01077900261456243 0.22004375344625574 0.18802634283102818 0.28551188058216287 0.5155728408837077 0.38460020437476744 0.6331528426460249 
Task56 0.16175655762031332 0.24545284135611195 0.17008327643946922 0.3737311667048785 0.40230691481143793 0.6972645464718881 0.7588960161896039 
Task57 0.07862450703849 0.21597429033502094 0.043777645748734974 0.1098762007129419 0.7671276717084448 0.5617117542444241 0.7310641679356447 
Task58 0.12009630289793453 0.23714971412147778 0.1925103810847499 0.15496588312518028 0.8838112790894339 0.9789026730067332 0.7151446929679726 
Task59 0.033596064078183295 0.10824240865977103 0.08330314952883554 0.024158745099898855 0.8252042666423667 0.6086834700107061 0.9035655528763944 
Task60 0.003196200200613332 0.03643623822764991 0.028490552365255793 0.03700032745344138 0.6216124934065727 0.3698715929728617 0.7789250786609305 
Task61 0.004067663189316504 0.00373122779362847 0.01035184349237042 0.009779027536847179 0.4587637863688889 0.8904401922332859 0.874070378811828 
Task62 0.011429907480304868 0.30291318345985346 0.3093455043153688 0.07108332223411412 0.38816987564901917 0.7006804780215193 0.3121390977034243 
Task63 0.047841309663040454 0.25927791341562 0.10020966756433994 0.24085055236841657 0.5812738978014407 0.7489184488519727 0.6310809326079623 
Task64 0.030192066678306054 0.32163092214663974 0.06125475869723937 0.09774117917943699 0.9617388359126495 0.7978327060049858 0.6323940979945714 
Task65 0.04985729183824298 0.16340570310389915 0.033310829548879935 0.08784216357186496 0.970504922176048 0.7175109695565313 0.35151603622141603 
Task66 0.027498570356785 0.12400796581397562 0.13469950795617297 0.13777966512995596 0.5967333167696719 0.7649361799449241 0.8664640303716011 
Task67 0.10843682723181743 0.16792570946402013 0.21068721893679102 0.1689158322667851 0.9153259483652831 0.659271275942176 0.6394559665088406 
Task68 0.02448184057181946 0.2486457201980266 0.3096959936221151 0.024917899676312385 0.9503554608529463 0.6558313245450584 0.78543430824854 
Task69 0.046483338279518095 0.21877267803936318 0.2189836180827067 0.09898722429748846 0.5449279295716218 0.5352844638882758 0.5176103026059903 
Task70 0.019883569577116237 0.24019189345656144 0.278109175597402 0.28284252272819543 0.49674653089576415 0.8986947253688571 0.7767722945768869 
Task71 0.02323920086715197 0.02850922594812629 0.11717369350607407 0.031199323472791293 0.9172167486891325 0.8347467829764983 0.3331316818736781 
Task72 0.04235012039436422 0.11576220779717207 0.0940278447498793 0.3560646614459995 0.9127744428699187 0.30891965052307174 0.46483091517131925 
Task73 0.10493568333290455 0.03693392190560576 0.2880596765467247 0.12837834851376465 0.3477603707382256 0.7962085630782627 0.3516559041062932 
Task74 0.08764413992552175 0.2210921066081075 0.2610515949023193 0.16919962241336048 0.6066055756808983 0.966192337526891 0.8767770625645979 
Task75 0.041174246534790244 0.12340629751392743 0.13653388057330987 0.0008429236023825707 0.9787762027025384 0.5011752860689552 0.7915337170910559 
Task76 0.12370778866464505 0.36851235607903343 0.12473547508332758 0.2161362512625464 0.3424544624188256 0.6702518328892293 0.32641961962470273 
Task77 0.06004573764539937 0.1039414263894867 0.15518934617614571 0.10764138333789151 0.6764754594543886 0.9639394224377835 0.7701758837583502 
Task78 0.027586357642668025 0.062060359865738365 0.06522906808855514 0.018850913595068682 0.5417368078935947 0.8561560748219605 0.5250956834454281 
Task79 0.04737641849392691 0.03825467959461613 0.3801270369052207 0.2806213038823326 0.6294786634651041 0.8523722471038937 0.8839757442284131 
Task80 0.07495812450306376 0.23804062673107373 0.11433046587087461 0.257538102999972 0.41705204015892505 0.36204433972610245 0.32216712936577085 
Task81 0.021603934623091577 0.17609080373608982 0.033490166260474775 0.1406693140866353 0.5008342972428088 0.9849097679833843 0.6432882839019176 
Task82 0.022438734188478866 0.04485785983917736 0.014054488796948908 0.09492308925342914 0.4881385672858136 0.3964867486259035 0.6005135192768367 
Task83 0.06311024033461596 0.14314745306357904 0.10738055102270751 0.15086106495084955 0.8803772132197034 0.620588898931185 0.828937889836306 
Task84 0.04754553808543932 0.12387200828325161 0.02497396604274205 0.04764901497514192 0.7130177331191864 0.5298243022212898 0.666615084229067 
Task85 0.0580084419354189 0.050669366064985476 0.1340836112440774 0.19631693448471654 0.9703468453473183 0.43060466332180714 0.9043001038220495 
Task86 0.1547931343023651 0.45461423774208715 0.18307471230458583 0.13451096138363486 0.46947012187408405 0.309772758501486 0.38838148532976297 
Task87 0.12768483852055693 0.43725875667203246 0.22382478318659013 0.13461727529782144 0.5976953904270128 0.3158606401498048 0.8495119304554182 
Task88 0.13483861610227504 0.2862314402518269 0.2556671524069112 0.14479856023205975 0.7254853573313762 0.38524598051039194 0.3211338309068461 
Task89 0.06693339511419447 0.36973845118505216 0.11033702113401252 0.21715255942819414 0.8037046106173649 0.9609187139243356 0.6681663135481648 
Task90 0.05530396579499933 0.06564247039089913 0.17355784652741899 0.07459107794035329 0.5787459197931464 0.4207789902552088 0.7514012614226115 
Task91 0.05487818354097279 0.23830467125129745 0.014995423492494693 0.28993303506488394 0.34125620256811995 0.5114197489900537 0.6185297262843703 
Task92 0.012880320837908014 0.2624180906482753 0.10439542974099279 0.3192984036729911 0.9482963848445038 0.6256182041347316 0.9671105224895309 
Task93 0.036601827133126166 0.04760196851380163 0.016428268066426673 0.1020157466007657 0.8777321591382719 0.417501834259109 0.33514872065859164 
Task94 0.03785814001825437 0.14946115094661921 0.2424446641115705 0.1767752963995936 0.5389138861137964 0.5415787133119511 0.85102868061675 
Task95 0.03168032116584982 0.038008822599206224 0.1444269605826654 0.18856437546389826 0.6790975635074812 0.6372372327569176 0.4760454747498971 
Task96 0.018354295171480267 0.05558477576912953 0.03136412949636752 0.051701494118195315 0.3986150163298447 0.3339073817533278 0.3218818233507626 
Task97 0.0509427566345414 0.40176359566383846 0.1322476151105204 0.35548607036940144 0.6511459940666006 0.9594527422546786 0.8090517640352997 
Task98 0.005527102181814728 0.07074369009561951 0.0268567024125926 0.0549406906279621 0.31566360417195977 0.6034874891667388 0.5072204595297437 
Task99 0.044436584262362626 0.09770477101650384 0.0892888170503963 0.14369613741682524 0.8703250513334291 0.6551493075399646 0.8609705182526153 
