Task0 0.10951712578000036 0.42923133990223616 0.1629291567069911 0.06695595987608145 0.42660697303026873 0.8587593243115701 0.8568718832094879 
Task1 0.04001176469135975 0.19100773665078993 0.2069969052713946 0.04913448501264103 0.6528392775556373 0.49097202724638 0.6099532864821935 
Task2 0.005473728548173664 0.3217144715552665 0.13863145245306774 0.11045306493368318 0.9031752397037307 0.5755189621043396 0.8053169974780903 
Task3 0.0026600353089712464 0.13928343840439586 0.22716529089605395 0.06281037102252747 0.6020251150473348 0.9595524628381478 0.4107569223445406 
Task4 0.1166855068089143 0.36518150141611755 0.07654239310492827 0.33628881101658425 0.38138652435002773 0.7698366890446422 0.31902957492828504 
Task5 0.10905990234752161 0.14745593529613935 0.27439475147227704 0.19696913160325308 0.9429617106188743 0.3080241609961098 0.5773376731662044 
Task6 0.00529423233591514 0.0463796861011632 0.046457644361231204 0.27096177545446276 0.6570843582252719 0.74540506148315 0.44826714027511483 
Task7 0.06487411290501105 0.04218913860828341 0.28959505534120317 0.31484272878302527 0.3005197328197109 0.3565165676784821 0.4949356127612123 
Task8 0.06202379818511757 0.014469148980368102 0.051470899860740424 0.23986560367231713 0.9621903064154413 0.3837497800632788 0.4926254267636281 
Task9 0.012072447833013962 0.09310359976418905 0.01977911928122835 0.044102362700000765 0.40988285879743047 0.9868663397644035 0.7370035330494393 
Task10 0.07944075322336994 0.17803229706433635 0.09814735584261637 0.1859844163463583 0.5041735928174467 0.8843150701948774 0.7194834836956254 
Task11 0.12286311264499676 0.11039263690830434 0.29147320784330094 0.27534660237114933 0.3510369432918757 0.35878876636155443 0.8418453521129199 
Task12 0.03166909005136648 0.14678699193501 0.0001446238870396696 0.20266308032137317 0.44362061419120485 0.8506755997155959 0.4895065792440426 
Task13 0.06314261337130406 0.18734911073620866 0.3405255563978559 0.26506773866281885 0.5450321214397335 0.5766790252716909 0.8713399290834798 
Task14 0.009482705263399834 0.17170692338398558 0.2776582394854301 0.0714323082491928 0.6482480895032741 0.42909600270864 0.36775922110565046 
Task15 0.17256967985327648 0.1595335497781601 0.2615806916138358 0.31176062148686595 0.9909407124165484 0.5342732877492773 0.9802471396838894 
Task16 0.11979500445555866 0.02894529346035545 0.07715238375739661 0.4693142601619861 0.6251291690117994 0.5535148654353608 0.4558216660298199 
Task17 0.056398696188924444 0.02351134814384872 0.03903733566039775 0.2603441945235605 0.6827297458397943 0.9635643735178674 0.34711058237458575 
Task18 0.15415235492746024 0.029987800056144924 0.3941516845576894 0.3772034677018537 0.5933129298946578 0.5474316245287133 0.7200160318078073 
Task19 0.02086409976235878 0.13831046303618078 0.160311359633432 0.1323474339954879 0.6321117255671063 0.5788434621214922 0.49753829169156955 
Task20 0.09729307699825784 0.49085593695597246 0.0776629108382505 0.055116421833911945 0.6309642816451684 0.4543779971925241 0.8839187067114798 
Task21 0.0032277135291040307 0.025888541823486586 0.02362710158568666 0.014826750354854234 0.521528681189906 0.7825362939479585 0.6305873691846883 
Task22 0.07789397699398067 0.0061623814414015175 0.29966651761434426 0.11048546481546494 0.7902143077846446 0.3191561425240891 0.38757319319791367 
Task23 0.08535347176681972 0.09892023779142711 0.3160969673993661 0.1806225928197966 0.5859351964517732 0.49955224702293755 0.5814479503045976 
Task24 0.12032133772245734 0.04484334261861772 0.2142456306111284 0.3764777539245856 0.9738589787491003 0.5086184134232643 0.8414245015356079 
Task25 0.029512973371586773 0.07479460858976465 0.028043398761229254 0.10238076659058128 0.48556053574412594 0.38874809913748365 0.8833966840404608 
Task26 0.0021773858550801495 0.05908775072209421 0.04321025568268248 0.07533883322844732 0.8741880465710266 0.3290068251528919 0.3824121369532487 
Task27 0.1591589023552548 0.3905575891238183 0.009550237954932917 0.35587895373426626 0.7773691513661954 0.5261245275367696 0.7147099164628178 
Task28 0.08213439330194142 0.3789844536580604 0.29242259065476284 0.13847916023339993 0.8535783864568078 0.8047568628899897 0.6921251590542838 
Task29 0.007557916361333833 0.07836966345828729 0.08049479023423393 0.04451898571894445 0.5792770292055494 0.44491320653726774 0.4047971325116042 
Task30 0.0464168941218522 0.1892003175544077 0.15136214652792668 0.14111958008842895 0.7617511835597934 0.5720068499235968 0.3550853977259559 
Task31 0.06262838545904559 0.058024874403996285 0.12975421375474794 0.09798195814378043 0.9268928315869425 0.802862822635594 0.5917764353142839 
Task32 0.10692445369019109 0.12990032231539425 0.3255487176268592 0.31757254806127944 0.7084597290476085 0.48855816575770916 0.36568088000137094 
Task33 0.08065829959017314 0.15313145338818376 0.09992193200810479 0.10114949080520659 0.7324776633316348 0.5161446849704868 0.8536335684366285 
Task34 0.0014774709083160808 0.07572255765245128 0.012962346014249157 0.017751680927336488 0.8551631532034265 0.9337648016452702 0.3639063050600266 
Task35 0.020361723030698924 0.09452157108660401 0.056014280198032264 0.04706072664474508 0.5750663886250345 0.760540338566468 0.7826433260757879 
Task36 0.08085182084024883 0.21592166248411626 0.1763198965773872 0.12820507976135417 0.6244950569472711 0.4417126515192801 0.6956252894675755 
Task37 0.02331012698733623 0.11419982433880231 0.0575542980789971 0.24020374072586076 0.43197405012147844 0.7926066460126766 0.8488525773758455 
Task38 0.17393472478395577 0.2842860244011407 0.20517884868727854 0.3037654038025471 0.35034536543681427 0.43541295598982616 0.4454171652099357 
Task39 0.09199199210754797 0.08375991335001536 0.11262229563561404 0.31326413281621673 0.6162076188544123 0.8322979060782765 0.42484127825331086 
Task40 0.0008428154601730531 0.1139723583785354 0.015441555945871493 0.06245262762618739 0.858717871166871 0.5161731794932909 0.6916836613908223 
Task41 0.03164135393966297 0.20806392554923173 0.25848694560471125 0.01468106840752153 0.30143171461267204 0.3710457430149423 0.5783234845077387 
Task42 0.02100938194732749 0.032489705008130025 0.06397048125576545 0.035159135121229965 0.7146083198263721 0.984435796451594 0.34270807980303897 
Task43 0.025081301578488896 0.24914038420179516 0.07561848179406139 0.09202953869855406 0.43725230534549847 0.4970858247108218 0.3713021106254316 
Task44 0.058704844840065475 0.34592182196917703 0.0017793957375250504 0.009905828474747939 0.8272354587625512 0.6818833552100554 0.4460219946718369 
Task45 0.06941267045243982 0.149752948919147 0.25526268136146246 0.368943429460819 0.34710127800710305 0.8445088400795477 0.45149661792807094 
Task46 0.145693091362026 0.057997840774686275 0.4402109113705768 0.23399315499542397 0.6298986397849293 0.6155011977945387 0.9053196883346111 
Task47 0.0971221858601924 0.15570266339760433 0.28876675467341273 0.11474524121942847 0.9042252039048415 0.6197635335094451 0.9841536423892221 
Task48 0.07353452362121246 0.2899757934223597 0.011052953676526237 0.48390510993441294 0.6686206847416964 0.6057308378860149 0.46066727387475087 
Task49 0.0035153139540524195 0.019261187022732853 0.03804292483546968 0.07182420061393227 0.4089393360628452 0.595320160104197 0.6202951349729298 
Task50 0.016594457509832596 0.22629660645613495 0.09703251744986398 0.13376546569360173 0.8776569595740753 0.6104699376069489 0.5176846764304197 
Task51 0.029679869223714322 0.35744145270563915 0.2070850041800385 0.37170705837147316 0.6296261756639121 0.7903043334558306 0.9800544209077717 
Task52 0.05829367952418032 0.04631054421466845 0.3384594965037227 0.0057919783554967776 0.3147384232933867 0.5358192319714541 0.3746324697938007 
Task53 0.008683112682683066 0.1643642640464822 0.15788361909712262 0.1925637816780134 0.4670356102375373 0.930231496038985 0.4123408874542246 
Task54 0.1106156973013567 0.40324021394186915 0.24728416738609058 0.043858881747580444 0.9819441715431947 0.5431352636640322 0.7865376105994464 
Task55 0.024729861668391293 0.05741960821535092 0.023395701809130122 0.062347388215056816 0.7878793144950023 0.7858353107091959 0.4175370020953794 
Task56 0.08270353788664797 0.3654107478741473 0.27734712470829087 0.031047182623681377 0.9944258868703302 0.8835938606631217 0.585135788287388 
Task57 0.09656645251291163 0.10613898276900371 0.33602612699077006 0.37410256981114043 0.41118825922649765 0.7953367727613259 0.6795574590781949 
Task58 0.054966390797158336 0.22596860953938191 0.06825922870384823 0.10214210594766826 0.8733562178295182 0.9569950527737434 0.7784201597918123 
Task59 0.11021599625314023 0.32807101363186103 0.05347426534873734 0.22128192972590308 0.30395327860227894 0.450949282404721 0.40079737231940166 
Task60 0.02004405635664362 0.3003405615356131 0.23582028469750832 0.3670341625798995 0.4011677296961558 0.49027888543494846 0.437288190184034 
Task61 0.015351142624776149 0.4244219312920069 0.08863640099422189 0.07949192893953692 0.793999139156224 0.4653967080488538 0.5382925481399294 
Task62 0.11840314952966585 0.16141412052142484 0.5651307241528931 0.13287394121517634 0.3613818989253475 0.6706958952025742 0.9964714472184308 
Task63 0.008115905221164604 0.006768513594454087 0.0242277790889715 0.08219290611858432 0.9460477547482191 0.8062916347129168 0.5478436715687829 
Task64 0.06978454974224552 0.09892968924350944 0.5208189791524386 0.19935683929444764 0.8635526641218563 0.9549436460295819 0.8496437761624802 
Task65 0.037209366870509276 0.046814472932443646 0.19451525394839575 0.21459548786439805 0.7073059870793977 0.8681383379817342 0.7341459076613424 
Task66 0.07531831899561649 0.13644354168347764 0.019743290013027014 0.22119584013352217 0.735451498732075 0.6081528345361722 0.32019151901231935 
Task67 0.02033554630467116 0.1139237988553071 0.06520639996700431 0.047940452320065864 0.4878125172148676 0.31766108858496916 0.9980045959786308 
Task68 0.005050581054469164 0.2187525998572855 0.18031834780973396 0.2751241281725801 0.3333091700243564 0.4518132818271138 0.6319203397303431 
Task69 0.027014879582467954 0.43779009617220754 0.14619335234741557 0.13609223624229086 0.3721842259546854 0.916676885848597 0.9070498765735304 
Task70 0.010065413833888068 0.007761094091566153 0.020403959579841355 0.02409990732306988 0.6415109387605398 0.709316972161338 0.7142686858301566 
Task71 0.016311167377995886 0.10757537188535257 0.15426885394823217 0.16401192350951152 0.848127545353043 0.4632370391863634 0.3680603697150884 
Task72 0.07691830364095102 0.1414902980652677 0.14856567772786392 0.29889848838108407 0.9929006760793837 0.7410561711952612 0.6978537918068857 
Task73 0.05379216847306186 0.03752403045215441 0.06974586975133311 0.1498421099635385 0.38691623086460986 0.32166918758095914 0.7483845173951651 
Task74 0.011835609879760291 0.004860409154775234 0.07545235564936772 0.36401796953509147 0.509873772253093 0.6980856662639423 0.3356273089723209 
Task75 0.03283512509310942 0.08604115951333076 0.022146991336156517 0.04570570983401709 0.7293311261143709 0.7341670039600584 0.44723473421069315 
Task76 0.07443981796862673 0.3542948843091959 0.39563861012013496 0.11113858253415758 0.6538048955865055 0.84442061735556 0.6920340835567313 
Task77 0.061967624156610515 0.19778578522487905 0.2123071753165146 0.27942180790337023 0.687510201887713 0.3802753412507312 0.7875379364284704 
Task78 0.027851345579206828 0.013145934901815698 0.20208623399641723 0.060840966735016204 0.8328303778942003 0.4056645959760009 0.3730739842371436 
Task79 0.0021517015265179553 0.003063448971342818 0.008114513564055672 0.00918615988397202 0.3963288364346652 0.5814008916592119 0.8689661641299835 
Task80 0.003568780556861681 0.005436472872923607 0.0156550809366202 0.011985018756446726 0.728724885869958 0.7921903891710704 0.5685822464195479 
Task81 0.0330391083937304 0.16429885278151243 0.3848325577339298 0.019254322184628907 0.49149726510313824 0.8569846990523118 0.6351093233539628 
Task82 0.03138149617013172 0.11107473686521385 0.2973387673819623 0.2821361372210325 0.542690686728333 0.3535221159066682 0.6522154002581493 
Task83 0.07959857954274331 0.11295992113260812 0.05645968770801192 0.1585173634131266 0.7649482713516957 0.5874795930438027 0.7101073704551684 
Task84 0.07867260739579936 0.3683166535421657 0.22691187542366179 0.09990287704823811 0.5388280371368275 0.32165773425316857 0.4877601292901198 
Task85 0.02909582737357122 0.1018709918870307 0.017451357253818373 0.006975086429216431 0.8027021171481545 0.5043957820960387 0.9888015060703925 
Task86 0.12883090457542107 0.2289777786019647 0.21406736006631935 0.2618172830038424 0.3102669523000304 0.7238523159554116 0.7068354717173644 
Task87 0.029437393616781094 0.05851945173167836 0.07576793432118334 0.339227955084449 0.395425581536805 0.9787474295122527 0.8279048495716546 
Task88 0.06380603367613585 0.10571959753924598 0.06555583205422055 0.11805386741388764 0.42444008109413245 0.6330124160989781 0.3128276765121915 
Task89 0.06323414649228615 0.15421898829127148 0.019777144409231354 0.15522524764408524 0.7317798368138722 0.8931844893460787 0.5437927349983169 
Task90 0.026247286747146426 0.365669558288457 0.10264285765445445 0.04277345307451888 0.3018183976932613 0.4406095109936455 0.40615083735574786 
Task91 0.0935211676552905 0.01140262244595894 0.026606145726459196 0.40366210289136994 0.42445409864634187 0.45023160667679596 0.6091835718037415 
Task92 0.026945824958641607 0.2601410367318336 0.37121160729991826 0.2003801172297573 0.9957359698507693 0.645566883667344 0.9871588857180007 
Task93 0.04123482874097796 0.15911228967062324 0.1355896391630761 0.3205252823707988 0.5082316109237732 0.6708043939254709 0.6221825624322874 
Task94 0.0058320710647553845 0.08024148019062154 0.36960752252434237 0.07931672251416008 0.440172503324115 0.7597308674622872 0.8751100145898609 
Task95 0.008802895728810274 0.10372048450938696 0.14187634215047978 0.05628687898666929 0.7900115818417046 0.7789530152003878 0.4005761577979802 
Task96 0.034770444134151944 0.27566789133740155 0.16426346730088237 0.2824972381773855 0.6822302228937394 0.6759769037725025 0.4728149549377647 
Task97 0.05344111517445321 0.26947885894317464 0.07483475596491992 0.5276538839873243 0.5020532152851622 0.7411538896276954 0.6110587002280006 
Task98 0.0739819748743596 0.11305676713917688 0.1504185849174036 0.46017074945299424 0.7290851493514336 0.9655703199378225 0.9861993995007587 
Task99 0.0373142788221464 0.10887952694993934 0.12478539716920732 0.008456064673670815 0.8453086218483299 0.6868723000078862 0.41401318478547805 
