Task0 1 15 7 
Task1 7 3 1 
Task2 1 1 1 
Task3 1 1 1 
Task4 1 1 1 
Task5 1 3 1 
Task6 1 3 1 
Task7 3 1 1 
Task8 1 3 1 
Task9 1 3 1 
Task10 3 1 1 
Task11 1 1 1 
Task12 3 7 1 
Task13 1 1 1 
Task14 1 1 3 
Task15 1 1 1 
Task16 1 1 1 
Task17 3 1 1 
Task18 3 1 3 
Task19 1 1 3 
Task20 3 1 3 
Task21 3 1 1 
Task22 1 1 1 
Task23 1 1 3 
Task24 1 3 1 
Task25 3 1 1 
Task26 1 1 1 
Task27 1 1 1 
Task28 3 1 1 
Task29 1 1 1 
Task30 1 1 1 
Task31 1 3 1 
Task32 3 3 1 
Task33 1 1 1 
Task34 1 1 1 
Task35 3 1 1 
Task36 1 1 1 
Task37 1 1 1 
Task38 1 1 1 
Task39 1 1 1 
Task40 1 1 1 
Task41 1 1 1 
Task42 1 1 1 
Task43 1 1 1 
Task44 3 1 1 
Task45 1 7 1 
Task46 1 1 1 
Task47 3 1 1 
Task48 1 1 1 
Task49 1 3 1 
Task50 1 1 1 
Task51 1 1 1 
Task52 3 1 1 
Task53 1 1 1 
Task54 1 1 1 
Task55 3 1 1 
Task56 1 1 1 
Task57 1 1 1 
Task58 1 1 1 
Task59 3 3 3 
Task60 7 1 7 
Task61 1 7 1 
Task62 1 1 1 
Task63 1 1 1 
Task64 1 1 1 
Task65 1 1 1 
Task66 1 1 1 
Task67 1 1 1 
Task68 1 3 1 
Task69 3 1 1 
Task70 1 3 1 
Task71 3 3 1 
Task72 1 1 1 
Task73 1 3 1 
Task74 1 1 1 
Task75 1 1 1 
Task76 1 1 1 
Task77 1 1 7 
Task78 1 1 1 
Task79 1 1 3 
Task80 1 1 1 
Task81 1 1 1 
Task82 1 3 1 
Task83 3 1 1 
Task84 7 1 1 
Task85 1 1 1 
Task86 1 1 1 
Task87 1 1 1 
Task88 1 1 1 
Task89 1 1 1 
Task90 1 3 1 
Task91 7 1 7 
Task92 3 1 3 
Task93 1 1 1 
Task94 1 1 1 
Task95 1 1 1 
Task96 1 1 1 
Task97 3 3 1 
Task98 1 1 1 
Task99 1 3 1 
