Task0 1 3 1 
Task1 1 3 3 
Task2 1 1 1 
Task3 3 1 3 
Task4 7 3 1 
Task5 1 1 1 
Task6 1 1 1 
Task7 1 1 1 
Task8 1 1 1 
Task9 3 7 1 
Task10 7 1 3 
Task11 3 3 1 
Task12 1 1 1 
Task13 1 3 1 
Task14 3 1 3 
Task15 1 1 3 
Task16 1 1 1 
Task17 1 1 1 
Task18 1 1 1 
Task19 1 1 1 
Task20 1 1 1 
Task21 1 1 1 
Task22 1 1 1 
Task23 3 1 3 
Task24 1 1 1 
Task25 1 1 1 
Task26 1 1 1 
Task27 1 1 1 
Task28 1 1 1 
Task29 1 1 1 
Task30 3 1 1 
Task31 1 1 1 
Task32 1 1 1 
Task33 1 1 1 
Task34 1 1 1 
Task35 1 1 1 
Task36 1 7 1 
Task37 1 1 1 
Task38 1 1 1 
Task39 1 3 1 
Task40 3 1 1 
Task41 1 1 3 
Task42 1 1 1 
Task43 1 3 1 
Task44 3 1 3 
Task45 1 1 3 
Task46 1 1 1 
Task47 3 1 1 
Task48 1 1 1 
Task49 1 1 1 
Task50 3 1 3 
Task51 1 1 1 
Task52 7 1 1 
Task53 1 1 1 
Task54 1 3 3 
Task55 1 3 1 
Task56 1 1 1 
Task57 3 1 3 
Task58 1 1 1 
Task59 1 1 1 
Task60 1 1 3 
Task61 1 1 1 
Task62 1 1 1 
Task63 1 1 1 
Task64 1 1 1 
Task65 3 1 1 
Task66 1 1 3 
Task67 15 1 15 
Task68 1 3 1 
Task69 1 1 1 
Task70 1 1 1 
Task71 1 1 3 
Task72 1 1 1 
Task73 1 1 1 
Task74 1 1 1 
Task75 1 1 1 
Task76 1 1 1 
Task77 1 3 1 
Task78 1 1 1 
Task79 1 3 3 
Task80 1 1 1 
Task81 1 1 1 
Task82 1 7 1 
Task83 1 1 1 
Task84 3 3 1 
Task85 7 15 1 
Task86 3 1 1 
Task87 1 1 1 
Task88 1 1 1 
Task89 1 3 1 
Task90 1 1 1 
Task91 1 1 3 
Task92 1 3 1 
Task93 1 1 1 
Task94 63 127 255 
Task95 1 3 3 
Task96 3 1 1 
Task97 3 3 3 
Task98 3 7 1 
Task99 1 1 1 
