1.2602455830000003
Task0 63 255 127 
Task1 255 3 3 
Task2 15 255 31 
Task3 255 31 63 
Task4 31 255 255 
Task5 63 255 63 
Task6 7 255 7 
Task7 255 255 63 
Task8 127 63 255 
Task9 31 255 15 
Task10 255 31 255 
Task11 7 255 3 
Task12 3 255 31 
Task13 1 31 255 
Task14 15 1 255 
Task15 255 127 255 
Task16 255 1 127 
Task17 255 127 63 
Task18 255 63 63 
Task19 255 31 127 
Task20 127 63 255 
Task21 255 31 255 
Task22 63 255 127 
Task23 63 31 255 
Task24 127 255 255 
Task25 31 31 255 
Task26 7 7 255 
Task27 1 255 15 
Task28 255 15 1 
Task29 15 255 15 
Task30 63 7 255 
Task31 31 255 31 
Task32 127 255 31 
Task33 31 255 255 
Task34 255 31 1 
Task35 7 255 255 
Task36 255 63 63 
Task37 7 255 1 
Task38 63 127 255 
Task39 31 255 31 
Task40 31 7 255 
Task41 255 127 127 
Task42 255 127 63 
Task43 255 255 63 
Task44 127 255 63 
Task45 3 255 31 
Task46 31 31 255 
Task47 255 255 15 
Task48 255 63 31 
Task49 255 31 63 
Task50 31 255 1 
Task51 255 3 31 
Task52 255 255 255 
Task53 15 255 7 
Task54 255 31 255 
Task55 255 63 63 
Task56 7 255 1 
Task57 127 255 63 
Task58 1 31 255 
Task59 255 1 127 
Task60 255 255 7 
Task61 255 255 7 
Task62 255 31 15 
Task63 255 63 15 
Task64 3 255 63 
Task65 1 255 255 
Task66 7 15 255 
Task67 127 255 31 
Task68 31 255 63 
Task69 7 63 255 
Task70 127 255 15 
Task71 255 15 3 
Task72 31 127 255 
Task73 255 15 15 
Task74 63 255 255 
Task75 31 255 31 
Task76 255 15 63 
Task77 255 31 127 
Task78 15 7 255 
Task79 1 255 63 
Task80 15 31 255 
Task81 255 127 255 
Task82 255 127 63 
Task83 255 255 255 
Task84 255 127 255 
Task85 255 63 63 
Task86 3 127 255 
Task87 127 127 255 
Task88 63 255 7 
Task89 15 7 255 
Task90 31 7 255 
Task91 63 31 255 
Task92 127 255 63 
Task93 31 255 255 
Task94 31 255 15 
Task95 127 31 255 
Task96 7 255 127 
Task97 3 31 255 
Task98 255 127 255 
Task99 15 31 255 
