Task0 3 1 1 
Task1 1 7 3 
Task2 1 1 1 
Task3 1 1 1 
Task4 1 1 1 
Task5 1 1 1 
Task6 1 1 1 
Task7 1 1 1 
Task8 3 1 1 
Task9 1 1 1 
Task10 1 1 1 
Task11 3 15 15 
Task12 1 1 1 
Task13 3 1 3 
Task14 1 1 3 
Task15 3 1 3 
Task16 1 1 1 
Task17 1 3 1 
Task18 3 1 1 
Task19 1 1 3 
Task20 1 1 1 
Task21 7 1 1 
Task22 1 1 1 
Task23 1 1 1 
Task24 1 1 1 
Task25 1 1 3 
Task26 1 1 1 
Task27 3 3 7 
Task28 3 7 1 
Task29 1 1 1 
Task30 1 1 1 
Task31 3 1 1 
Task32 1 1 1 
Task33 1 1 1 
Task34 1 1 1 
Task35 1 1 1 
Task36 1 1 1 
Task37 3 1 1 
Task38 1 1 1 
Task39 3 1 3 
Task40 1 1 1 
Task41 1 1 1 
Task42 1 1 3 
Task43 1 1 1 
Task44 1 1 1 
Task45 1 3 1 
Task46 1 1 3 
Task47 3 3 1 
Task48 1 1 1 
Task49 3 3 1 
Task50 1 1 1 
Task51 1 1 1 
Task52 1 1 1 
Task53 1 3 1 
Task54 1 1 1 
Task55 1 1 1 
Task56 1 3 1 
Task57 1 1 1 
Task58 3 3 1 
Task59 3 3 1 
Task60 1 1 1 
Task61 1 1 1 
Task62 7 1 1 
Task63 1 1 1 
Task64 1 1 1 
Task65 1 1 1 
Task66 1 7 3 
Task67 3 3 1 
Task68 1 3 7 
Task69 1 7 7 
Task70 3 1 1 
Task71 1 1 1 
Task72 1 1 1 
Task73 1 1 1 
Task74 1 1 1 
Task75 1 1 1 
Task76 3 1 1 
Task77 1 1 1 
Task78 1 1 1 
Task79 1 1 1 
Task80 1 1 1 
Task81 1 3 3 
Task82 1 1 3 
Task83 1 1 1 
Task84 1 1 1 
Task85 7 7 1 
Task86 1 1 1 
Task87 1 1 3 
Task88 1 1 1 
Task89 1 1 1 
Task90 3 1 7 
Task91 1 1 1 
Task92 3 3 1 
Task93 3 1 3 
Task94 1 1 1 
Task95 3 1 1 
Task96 3 1 3 
Task97 15 3 1 
Task98 1 3 1 
Task99 3 1 3 
