1 13
1 21
2 11
2 12
2 13
4 11
4 17
4 20
4 22
5 15
6 15
6 18
7 14
7 17
8 16
9 15
9 20
10 19
10 21
11 27
12 24
13 26
16 25
17 25
18 26
18 28
20 25
20 28
22 23
22 28
23 29
23 30
23 36
23 37
24 32
25 31
25 36
26 33
26 34
26 38
28 35
30 40
30 42
31 39
31 48
32 43
34 44
35 46
35 47
36 40
37 41
37 49
38 45
38 49
39 56
40 53
40 59
42 51
42 61
43 50
43 56
43 60
44 53
44 56
45 51
45 58
45 59
46 57
46 59
47 51
47 55
47 57
47 58
47 61
48 52
48 54
48 57
48 60
50 65
51 66
52 63
52 66
53 67
54 62
55 66
56 63
58 64
63 75
64 70
64 71
65 74
66 68
66 69
66 72
66 76
66 77
67 70
67 73
68 81
68 85
68 86
69 81
69 86
70 79
70 84
70 88
71 83
71 87
71 90
72 78
72 90
73 80
74 87
75 83
75 85
76 78
76 80
76 82
77 89
78 91
79 93
79 98
80 91
80 96
80 98
80 99
81 92
82 96
83 93
83 95
83 97
84 94
84 98
86 93
89 94
89 96
89 99
90 94
90 97
90 99
