1 14
1 17
1 18
4 16
4 18
5 14
6 16
6 17
7 18
10 16
13 15
14 21
14 22
15 19
15 20
17 23
17 24
20 25
20 32
20 35
20 38
21 34
21 37
22 26
22 29
22 32
23 27
23 28
23 31
23 36
24 30
24 33
24 38
26 41
27 44
28 46
29 42
30 46
31 46
32 40
32 45
34 40
34 42
34 44
34 47
37 39
37 42
37 43
38 45
38 47
39 48
39 52
41 57
43 49
43 57
43 58
44 51
44 55
45 52
45 53
45 54
46 48
46 56
47 49
47 50
47 53
47 54
48 62
48 64
49 59
50 65
51 63
52 62
52 63
52 66
52 70
53 69
55 59
55 61
55 69
56 67
56 70
58 60
58 68
60 76
60 80
61 76
62 79
62 81
63 73
63 80
64 71
64 73
64 75
65 74
65 75
66 72
66 77
66 80
67 78
68 74
68 77
69 74
69 78
70 72
71 82
71 83
71 86
73 82
73 85
74 82
74 83
75 85
80 84
80 87
81 87
84 89
85 88
85 90
85 92
85 93
86 91
86 94
86 95
87 95
90 97
93 98
95 96
95 99
