files/tasks_parameters/ExAp01/sample8.txt 1.08312 7.2562 4.46819 0.454772 7.45218
files/tasks_parameters/ExAp01/sample12.txt 1.46933 9.70908 5.28286 0.618515 10.1354
files/tasks_parameters/ExAp01/sample2.txt 1.4346 8.14159 5.7401 0.620531 10.1684
files/tasks_parameters/ExAp01/sample44.txt 1.30915 7.25164 5.75904 0.557631 9.13768
files/tasks_parameters/ExAp01/sample27.txt 1.33463 8.10944 5.64946 0.564878 9.25645
files/tasks_parameters/ExAp01/sample17.txt 1.23526 7.11225 5.46658 0.527183 8.63876
files/tasks_parameters/ExAp01/sample9.txt 1.20668 7.62559 5.37813 0.517277 8.47643
files/tasks_parameters/ExAp01/sample34.txt 1.24997 7.04587 5.93037 0.497709 8.15578
files/tasks_parameters/ExAp01/sample40.txt 1.19625 8.03037 5.123 0.502383 8.23236
files/tasks_parameters/ExAp01/sample33.txt 1.51141 9.22935 5.92956 0.659262 10.8031
files/tasks_parameters/ExAp01/sample48.txt 1.07807 8.12182 5.1577 0.452491 7.41479
files/tasks_parameters/ExAp01/sample29.txt 1.48203 8.06133 5.12331 0.650652 10.662
files/tasks_parameters/ExAp01/sample11.txt 1.30332 7.63104 5.37897 0.563302 9.23062
files/tasks_parameters/ExAp01/sample14.txt 1.12715 6.66403 4.66322 0.471536 7.72689
files/tasks_parameters/ExAp01/sample0.txt 1.48081 9.3266 4.98971 0.6311 10.3416
files/tasks_parameters/ExAp01/sample7.txt 1.21626 7.34863 5.19436 0.515527 8.44775
files/tasks_parameters/ExAp01/sample23.txt 1.36181 6.68564 5.54308 0.588617 9.64545
files/tasks_parameters/ExAp01/sample13.txt 1.48904 9.31093 5.35591 0.632849 10.3703
files/tasks_parameters/ExAp01/sample22.txt 1.27414 7.65588 5.04866 0.540336 8.85428
files/tasks_parameters/ExAp01/sample25.txt 1.03212 6.17035 5.0141 0.408296 6.69059
files/tasks_parameters/ExAp01/sample36.txt 1.17562 7.03772 4.66274 0.507647 8.31862
files/tasks_parameters/ExAp01/sample46.txt 1.25096 7.73433 4.79934 0.536843 8.79705
files/tasks_parameters/ExAp01/sample31.txt 1.17353 6.96928 5.16482 0.485817 7.96091
files/tasks_parameters/ExAp01/sample37.txt 1.52963 9.52443 5.74224 0.65799 10.7822
files/tasks_parameters/ExAp01/sample16.txt 1.31826 8.63521 4.97261 0.516328 8.46087
files/tasks_parameters/ExAp01/sample10.txt 1.43099 7.28353 6.16876 0.615651 10.0884
files/tasks_parameters/ExAp01/sample39.txt 1.11994 6.3405 4.6137 0.468873 7.68325
files/tasks_parameters/ExAp01/sample19.txt 1.42697 8.85528 5.22306 0.622152 10.195
files/tasks_parameters/ExAp01/sample20.txt 1.35624 8.1141 5.21177 0.586994 9.61885
files/tasks_parameters/ExAp01/sample43.txt 1.26651 7.21373 5.6367 0.53748 8.80748
files/tasks_parameters/ExAp01/sample32.txt 1.40187 8.30592 5.38137 0.593918 9.73231
files/tasks_parameters/ExAp01/sample45.txt 1.26616 7.94069 4.96323 0.547271 8.96792
files/tasks_parameters/ExAp01/sample26.txt 1.131 7.57061 4.62637 0.480146 7.86797
files/tasks_parameters/ExAp01/sample5.txt 1.38428 8.0307 5.35681 0.59407 9.7348
files/tasks_parameters/ExAp01/sample21.txt 1.03864 5.87802 4.61744 0.434264 7.11613
files/tasks_parameters/ExAp01/sample38.txt 1.15853 7.66999 4.86632 0.496808 8.14101
files/tasks_parameters/ExAp01/sample1.txt 1.15647 7.21312 4.63213 0.486293 7.96871
files/tasks_parameters/ExAp01/sample15.txt 1.26164 8.02273 5.50855 0.531063 8.70233
files/tasks_parameters/ExAp01/sample24.txt 1.29045 8.66348 5.4905 0.548998 8.99623
files/tasks_parameters/ExAp01/sample3.txt 1.13867 7.74268 4.79918 0.477387 7.82276
files/tasks_parameters/ExAp01/sample6.txt 1.4514 8.57133 5.80157 0.633604 10.3826
files/tasks_parameters/ExAp01/sample30.txt 1.48887 8.18878 5.90888 0.633576 10.3822
files/tasks_parameters/ExAp01/sample42.txt 1.32862 8.57689 5.67253 0.54426 8.91858
files/tasks_parameters/ExAp01/sample4.txt 1.31556 8.40354 4.57985 0.563519 9.23418
files/tasks_parameters/ExAp01/sample28.txt 1.05779 6.44114 4.96426 0.449721 7.36942
files/tasks_parameters/ExAp01/sample18.txt 1.26714 8.56363 4.60946 0.543766 8.9105
files/tasks_parameters/ExAp01/sample35.txt 1.77872 11.0387 6.34514 0.761377 12.4764
files/tasks_parameters/ExAp01/sample47.txt 1.24832 7.14493 5.22131 0.545046 8.93146
files/tasks_parameters/ExAp01/sample49.txt 1.23071 6.65996 4.80244 0.498533 8.16928
files/tasks_parameters/ExAp01/sample41.txt 1.15045 7.09069 5.35462 0.497129 8.14626
