digraph G {
0 ->10 0 ->11 0 ->13 1 ->10 1 ->11 1 ->13 2 ->9 2 ->10 2 ->11 2 ->13 2 ->14 3 ->9 3 ->10 3 ->11 3 ->14 3 ->15 4 ->12 4 ->14 4 ->15 5 ->9 5 ->11 5 ->12 5 ->13 5 ->15 6 ->12 6 ->13 6 ->15 7 ->14 8 ->11 8 ->13 8 ->14 9 ->18 9 ->23 9 ->26 10 ->17 10 ->20 10 ->24 10 ->25 10 ->26 10 ->28 11 ->16 11 ->17 11 ->18 11 ->20 11 ->21 11 ->22 11 ->23 11 ->24 11 ->25 11 ->28 12 ->16 12 ->17 12 ->18 12 ->21 12 ->21 12 ->23 13 ->16 13 ->18 13 ->21 13 ->23 13 ->24 13 ->27 14 ->23 14 ->25 14 ->26 14 ->27 15 ->19 15 ->20 15 ->24 15 ->27 16 ->29 16 ->32 16 ->34 17 ->34 17 ->35 18 ->29 18 ->30 18 ->32 18 ->34 18 ->36 19 ->29 19 ->30 19 ->31 19 ->37 20 ->31 20 ->37 21 ->33 21 ->37 22 ->29 22 ->33 22 ->34 22 ->36 23 ->30 23 ->31 23 ->33 23 ->34 23 ->36 24 ->31 24 ->31 24 ->33 24 ->36 24 ->37 25 ->33 25 ->36 25 ->37 26 ->34 26 ->37 27 ->29 27 ->32 27 ->37 28 ->31 28 ->34 28 ->36 28 ->37 29 ->40 29 ->41 30 ->43 30 ->46 31 ->41 31 ->43 31 ->45 31 ->46 32 ->40 32 ->46 32 ->48 33 ->38 33 ->40 33 ->43 33 ->47 34 ->47 35 ->44 35 ->48 36 ->40 36 ->44 36 ->46 37 ->39 37 ->40 37 ->42 37 ->45 37 ->46 37 ->48 38 ->57 38 ->57 38 ->58 38 ->61 39 ->49 39 ->51 39 ->52 39 ->54 39 ->55 39 ->57 40 ->51 40 ->54 40 ->55 40 ->61 41 ->52 41 ->54 41 ->55 41 ->57 41 ->58 41 ->62 42 ->52 42 ->54 42 ->55 42 ->56 42 ->58 42 ->60 42 ->62 43 ->50 43 ->52 43 ->53 43 ->54 43 ->58 43 ->60 43 ->61 44 ->49 44 ->58 45 ->49 45 ->50 45 ->59 45 ->60 46 ->53 46 ->58 46 ->59 46 ->61 47 ->49 47 ->52 47 ->54 47 ->57 47 ->62 48 ->49 48 ->57 48 ->60 49 ->65 49 ->68 50 ->63 50 ->64 50 ->66 51 ->66 52 ->64 52 ->67 52 ->69 53 ->66 53 ->67 53 ->69 54 ->64 54 ->67 55 ->64 55 ->69 56 ->68 57 ->63 57 ->66 57 ->68 58 ->63 58 ->66 58 ->67 58 ->68 59 ->63 59 ->64 59 ->67 60 ->63 60 ->65 60 ->67 61 ->67 62 ->66 62 ->67 62 ->68 63 ->71 63 ->72 63 ->79 64 ->70 64 ->73 64 ->74 64 ->76 64 ->78 65 ->70 65 ->72 65 ->76 66 ->70 66 ->75 66 ->78 67 ->74 67 ->75 67 ->77 68 ->74 68 ->76 68 ->78 68 ->79 69 ->70 69 ->71 69 ->74 69 ->75 69 ->76 69 ->78 69 ->79 70 ->82 70 ->83 70 ->84 70 ->89 70 ->90 70 ->91 71 ->87 71 ->89 71 ->90 71 ->92 72 ->83 72 ->84 72 ->85 72 ->86 72 ->87 72 ->88 72 ->89 72 ->90 73 ->81 73 ->82 73 ->83 73 ->84 73 ->88 73 ->90 73 ->93 74 ->84 74 ->87 74 ->91 74 ->93 75 ->90 75 ->92 75 ->93 76 ->84 76 ->92 77 ->81 77 ->83 77 ->89 78 ->81 78 ->83 78 ->87 78 ->88 79 ->80 79 ->81 79 ->83 79 ->87 79 ->88 79 ->90 79 ->91 80 ->95 80 ->96 80 ->97 80 ->98 81 ->95 81 ->96 81 ->97 81 ->98 82 ->96 82 ->97 83 ->96 83 ->97 83 ->99 84 ->98 84 ->99 84 ->99 85 ->97 85 ->98 87 ->97 88 ->94 88 ->97 88 ->98 89 ->94 89 ->96 89 ->97 91 ->95 91 ->99 92 ->98 93 ->94 93 ->96 93 ->98 
}
