digraph G {
0 ->12 0 ->17 0 ->19 1 ->11 1 ->12 1 ->19 2 ->10 2 ->11 2 ->12 2 ->14 2 ->15 3 ->11 3 ->11 3 ->13 3 ->15 3 ->20 4 ->10 4 ->13 4 ->14 4 ->20 4 ->20 5 ->12 5 ->13 5 ->15 5 ->19 5 ->20 6 ->12 6 ->14 6 ->15 6 ->19 6 ->20 7 ->12 7 ->14 7 ->18 8 ->11 8 ->13 8 ->14 8 ->16 9 ->10 9 ->17 9 ->19 10 ->21 10 ->26 10 ->31 11 ->21 11 ->22 11 ->23 11 ->27 11 ->31 12 ->22 12 ->27 12 ->30 13 ->23 13 ->27 14 ->23 14 ->25 14 ->28 15 ->25 15 ->28 15 ->30 16 ->22 16 ->23 16 ->27 16 ->30 17 ->21 17 ->25 17 ->27 17 ->29 18 ->21 18 ->22 18 ->25 18 ->26 18 ->27 18 ->30 18 ->31 19 ->24 19 ->25 19 ->26 19 ->28 19 ->30 19 ->31 20 ->21 20 ->24 20 ->25 21 ->32 21 ->33 22 ->32 22 ->33 23 ->33 23 ->33 23 ->34 23 ->36 24 ->32 24 ->33 24 ->34 24 ->37 25 ->32 25 ->34 26 ->32 26 ->33 26 ->37 28 ->33 30 ->32 30 ->35 30 ->36 31 ->32 31 ->34 31 ->36 32 ->39 32 ->41 32 ->44 32 ->45 33 ->39 33 ->40 33 ->41 33 ->42 33 ->44 34 ->38 34 ->40 34 ->47 34 ->48 35 ->38 35 ->43 35 ->45 35 ->46 35 ->47 35 ->48 36 ->39 36 ->42 36 ->43 37 ->39 37 ->43 37 ->43 38 ->52 38 ->57 38 ->60 39 ->51 39 ->60 40 ->49 40 ->50 40 ->51 40 ->53 40 ->54 40 ->57 40 ->60 41 ->49 41 ->50 41 ->51 41 ->52 41 ->53 41 ->59 41 ->60 42 ->50 42 ->51 42 ->52 42 ->52 42 ->58 42 ->60 43 ->55 43 ->56 43 ->57 43 ->59 44 ->50 44 ->56 44 ->58 45 ->50 45 ->52 46 ->49 46 ->52 46 ->55 46 ->57 46 ->60 47 ->49 47 ->50 47 ->51 47 ->55 47 ->58 47 ->59 47 ->60 48 ->52 48 ->55 48 ->57 49 ->63 49 ->65 49 ->66 49 ->67 49 ->71 49 ->74 50 ->63 50 ->67 50 ->73 50 ->74 51 ->66 51 ->72 52 ->63 52 ->67 52 ->69 52 ->72 52 ->73 53 ->63 53 ->66 53 ->68 53 ->72 54 ->65 54 ->66 54 ->70 54 ->71 54 ->73 55 ->62 55 ->64 55 ->67 55 ->68 56 ->61 56 ->63 56 ->64 56 ->65 56 ->67 56 ->70 56 ->73 57 ->66 57 ->68 57 ->70 58 ->64 58 ->66 58 ->67 58 ->73 58 ->74 59 ->63 59 ->66 59 ->67 59 ->73 59 ->74 60 ->63 60 ->65 60 ->66 60 ->71 60 ->72 60 ->74 61 ->77 62 ->76 62 ->77 62 ->78 63 ->75 63 ->78 64 ->75 64 ->76 64 ->78 65 ->75 65 ->77 65 ->79 66 ->75 66 ->76 66 ->79 67 ->75 67 ->79 68 ->76 69 ->76 69 ->77 71 ->78 71 ->79 72 ->78 73 ->75 73 ->76 73 ->78 74 ->75 74 ->77 74 ->79 75 ->81 75 ->85 75 ->87 76 ->82 76 ->83 76 ->85 77 ->80 77 ->82 77 ->84 77 ->86 77 ->87 78 ->83 79 ->80 79 ->82 79 ->87 80 ->90 81 ->88 81 ->89 81 ->90 81 ->92 82 ->90 83 ->89 84 ->88 84 ->89 84 ->90 84 ->91 85 ->92 87 ->88 87 ->90 87 ->92 88 ->96 89 ->93 89 ->94 89 ->95 89 ->98 90 ->93 90 ->97 90 ->98 91 ->93 91 ->94 91 ->95 91 ->97 92 ->94 92 ->96 92 ->99 
}
