digraph G {
0 ->10 0 ->12 0 ->15 2 ->12 2 ->15 3 ->11 4 ->10 6 ->14 6 ->15 7 ->13 7 ->15 8 ->12 8 ->15 9 ->10 9 ->12 9 ->13 9 ->15 10 ->17 10 ->18 10 ->23 10 ->25 10 ->26 11 ->26 12 ->19 12 ->20 12 ->22 12 ->24 12 ->25 13 ->16 13 ->17 13 ->19 13 ->21 13 ->22 13 ->23 13 ->24 13 ->25 14 ->20 14 ->21 14 ->23 14 ->25 14 ->26 15 ->17 15 ->20 15 ->21 15 ->24 15 ->26 16 ->27 16 ->29 16 ->31 17 ->27 18 ->30 18 ->31 20 ->27 20 ->31 21 ->32 22 ->27 22 ->29 22 ->32 23 ->28 23 ->31 24 ->31 25 ->27 26 ->29 27 ->39 27 ->41 27 ->42 28 ->34 28 ->37 28 ->38 28 ->42 28 ->44 28 ->46 29 ->37 29 ->37 29 ->38 29 ->42 29 ->43 30 ->34 30 ->35 30 ->36 30 ->41 30 ->42 30 ->43 30 ->44 30 ->45 30 ->46 31 ->34 31 ->35 31 ->43 32 ->33 32 ->35 32 ->36 32 ->40 32 ->45 33 ->48 33 ->49 33 ->50 33 ->53 33 ->55 33 ->56 34 ->48 34 ->49 34 ->50 34 ->51 34 ->56 35 ->48 35 ->49 35 ->51 36 ->49 36 ->50 36 ->51 37 ->50 37 ->51 37 ->51 37 ->55 38 ->47 38 ->55 39 ->53 39 ->55 40 ->49 40 ->52 40 ->54 40 ->55 41 ->49 41 ->50 41 ->54 41 ->56 42 ->49 42 ->50 43 ->49 43 ->51 43 ->54 43 ->55 44 ->48 44 ->56 45 ->47 45 ->48 45 ->50 45 ->55 46 ->48 46 ->49 46 ->50 46 ->55 46 ->56 47 ->60 47 ->64 47 ->65 47 ->66 47 ->67 47 ->69 48 ->63 48 ->65 48 ->66 48 ->69 49 ->60 49 ->62 49 ->67 50 ->62 50 ->67 51 ->58 51 ->59 51 ->60 52 ->58 52 ->59 52 ->61 52 ->68 53 ->57 53 ->58 53 ->59 53 ->64 53 ->68 54 ->57 54 ->63 54 ->64 54 ->65 54 ->68 54 ->69 55 ->59 55 ->61 55 ->64 55 ->68 55 ->69 55 ->69 56 ->57 56 ->62 56 ->63 56 ->66 56 ->69 57 ->70 57 ->72 58 ->71 58 ->76 59 ->73 60 ->74 60 ->77 61 ->70 61 ->74 61 ->77 62 ->71 62 ->72 62 ->74 62 ->76 63 ->74 63 ->75 63 ->77 64 ->70 64 ->74 64 ->75 64 ->77 65 ->70 65 ->74 66 ->72 66 ->74 66 ->77 67 ->71 67 ->72 67 ->77 68 ->75 69 ->74 70 ->78 70 ->79 70 ->82 70 ->85 70 ->88 70 ->89 71 ->87 72 ->83 73 ->79 73 ->80 74 ->80 74 ->81 74 ->84 75 ->80 75 ->83 75 ->84 75 ->86 75 ->87 76 ->83 76 ->84 76 ->86 76 ->87 76 ->89 77 ->83 77 ->86 78 ->93 78 ->94 78 ->96 78 ->97 78 ->98 79 ->93 79 ->96 79 ->98 79 ->99 80 ->92 80 ->94 80 ->96 80 ->98 81 ->91 81 ->94 81 ->96 81 ->97 82 ->94 82 ->95 82 ->96 83 ->90 83 ->93 84 ->93 84 ->94 84 ->96 85 ->90 85 ->93 85 ->96 85 ->98 86 ->93 86 ->94 88 ->90 88 ->92 88 ->93 88 ->94 88 ->97 89 ->90 89 ->94 89 ->96 89 ->97 
}
