digraph G {
0 ->12 0 ->13 0 ->17 1 ->11 1 ->12 1 ->15 1 ->23 2 ->12 2 ->14 2 ->18 2 ->22 3 ->10 3 ->17 3 ->18 3 ->22 4 ->11 4 ->17 4 ->18 4 ->22 5 ->12 5 ->18 5 ->19 5 ->20 6 ->17 6 ->23 7 ->11 7 ->12 7 ->14 7 ->17 8 ->18 9 ->12 9 ->13 9 ->16 9 ->17 9 ->20 9 ->21 10 ->24 10 ->26 10 ->27 10 ->32 10 ->33 10 ->34 11 ->26 11 ->28 11 ->29 11 ->30 11 ->32 12 ->25 12 ->26 12 ->29 12 ->30 12 ->31 12 ->34 13 ->34 14 ->27 14 ->30 14 ->33 14 ->36 15 ->27 15 ->30 15 ->33 15 ->34 16 ->24 16 ->29 16 ->30 16 ->33 16 ->35 16 ->37 17 ->24 17 ->26 17 ->29 17 ->34 17 ->37 18 ->24 18 ->27 18 ->29 18 ->30 18 ->33 18 ->37 19 ->24 19 ->27 19 ->28 19 ->29 19 ->30 19 ->33 19 ->35 19 ->37 20 ->27 20 ->28 20 ->30 20 ->33 20 ->37 21 ->24 21 ->27 21 ->28 21 ->33 21 ->35 21 ->37 22 ->24 22 ->25 22 ->27 22 ->28 23 ->24 23 ->27 23 ->28 23 ->29 23 ->31 23 ->32 24 ->39 24 ->39 24 ->43 24 ->49 25 ->38 25 ->40 25 ->41 25 ->44 25 ->46 26 ->40 26 ->44 26 ->45 26 ->49 26 ->50 27 ->40 27 ->44 27 ->45 27 ->49 27 ->51 28 ->40 28 ->41 28 ->42 28 ->44 28 ->47 28 ->51 29 ->39 29 ->45 29 ->46 29 ->49 29 ->51 29 ->51 30 ->39 30 ->43 30 ->45 30 ->49 31 ->38 31 ->39 32 ->39 32 ->39 32 ->42 32 ->43 32 ->44 32 ->48 32 ->51 33 ->38 33 ->39 33 ->41 33 ->42 33 ->43 33 ->46 33 ->47 33 ->48 33 ->51 34 ->38 34 ->40 34 ->42 34 ->45 34 ->49 35 ->38 35 ->48 36 ->38 36 ->43 36 ->44 36 ->45 37 ->38 37 ->39 37 ->42 37 ->43 37 ->44 37 ->45 37 ->48 37 ->51 38 ->52 38 ->55 39 ->54 40 ->54 40 ->56 41 ->53 41 ->54 41 ->56 42 ->53 42 ->54 42 ->56 43 ->53 43 ->54 43 ->56 44 ->52 44 ->53 44 ->54 44 ->56 45 ->52 45 ->53 45 ->54 45 ->56 46 ->53 46 ->53 52 ->59 52 ->60 52 ->63 52 ->64 52 ->65 52 ->67 52 ->69 52 ->70 53 ->57 53 ->58 53 ->62 53 ->65 53 ->66 53 ->67 53 ->68 53 ->69 54 ->57 54 ->58 54 ->60 54 ->61 54 ->63 54 ->64 54 ->67 54 ->68 55 ->59 55 ->60 55 ->61 55 ->68 56 ->57 56 ->58 56 ->59 56 ->62 56 ->63 56 ->65 56 ->69 56 ->70 57 ->72 57 ->77 58 ->72 58 ->75 59 ->73 59 ->74 59 ->76 60 ->73 60 ->74 60 ->76 60 ->77 61 ->73 61 ->76 61 ->77 62 ->77 63 ->77 64 ->71 64 ->74 64 ->76 65 ->76 66 ->72 66 ->75 66 ->76 66 ->77 67 ->71 67 ->75 68 ->72 68 ->74 68 ->75 69 ->74 69 ->75 69 ->77 70 ->72 70 ->74 71 ->84 71 ->86 71 ->87 71 ->89 72 ->79 72 ->81 72 ->87 72 ->89 72 ->90 73 ->82 73 ->83 73 ->84 73 ->85 74 ->79 74 ->81 74 ->85 74 ->90 75 ->87 75 ->90 76 ->78 76 ->80 76 ->82 76 ->86 76 ->87 76 ->90 77 ->85 77 ->86 77 ->87 77 ->88 77 ->90 78 ->93 78 ->94 78 ->96 78 ->97 79 ->94 79 ->95 79 ->96 79 ->98 80 ->94 80 ->95 80 ->97 80 ->98 80 ->99 81 ->93 81 ->95 81 ->96 81 ->98 81 ->99 82 ->94 82 ->96 82 ->96 82 ->98 83 ->94 83 ->95 83 ->96 83 ->97 84 ->94 84 ->96 85 ->98 87 ->92 87 ->95 87 ->97 88 ->94 88 ->95 88 ->98 89 ->92 89 ->93 89 ->95 89 ->99 90 ->91 90 ->92 90 ->93 
}
