files/tasks_parameters/ExAp01/sample8.txt 1.09126 7.2562 4.46819 0.454772 8.22464
files/tasks_parameters/ExAp01/sample12.txt 1.60256 9.70908 5.28286 0.618515 11.1859
files/tasks_parameters/ExAp01/sample2.txt 1.45442 8.14159 5.7401 0.620531 11.2224
files/tasks_parameters/ExAp01/sample44.txt 1.33358 7.25164 5.75904 0.557631 10.0848
files/tasks_parameters/ExAp01/sample27.txt 1.31959 8.10944 5.64946 0.564878 10.2159
files/tasks_parameters/ExAp01/sample17.txt 1.24756 7.11225 5.46658 0.527183 9.53421
files/tasks_parameters/ExAp01/sample9.txt 1.1835 7.62559 5.37813 0.517277 9.35505
files/tasks_parameters/ExAp01/sample34.txt 1.2454 7.04587 5.93037 0.497709 9.00116
files/tasks_parameters/ExAp01/sample40.txt 1.20264 8.03037 5.123 0.502383 9.08568
files/tasks_parameters/ExAp01/sample33.txt 1.62161 9.22935 5.92956 0.659262 11.9229
files/tasks_parameters/ExAp01/sample48.txt 1.15357 8.12182 5.1577 0.452491 8.18337
files/tasks_parameters/ExAp01/sample29.txt 1.52238 8.06133 5.12331 0.650652 11.7672
files/tasks_parameters/ExAp01/sample11.txt 1.3591 7.63104 5.37897 0.563302 10.1874
files/tasks_parameters/ExAp01/sample14.txt 1.13396 6.66403 4.66322 0.471536 8.52782
files/tasks_parameters/ExAp01/sample0.txt 1.51591 9.3266 4.98971 0.6311 11.4136
files/tasks_parameters/ExAp01/sample7.txt 1.22406 7.34863 5.19436 0.515527 9.3234
files/tasks_parameters/ExAp01/sample23.txt 1.36442 6.68564 5.54308 0.588617 10.6452
files/tasks_parameters/ExAp01/sample13.txt 1.53075 9.31093 5.35591 0.632849 11.4452
files/tasks_parameters/ExAp01/sample22.txt 1.29495 7.65588 5.04866 0.540336 9.77207
files/tasks_parameters/ExAp01/sample25.txt 1.03102 6.17035 5.0141 0.408296 7.3841
files/tasks_parameters/ExAp01/sample36.txt 1.2162 7.03772 4.66274 0.507647 9.18089
files/tasks_parameters/ExAp01/sample46.txt 1.35048 7.73433 4.79934 0.536843 9.70891
files/tasks_parameters/ExAp01/sample31.txt 1.17642 6.96928 5.16482 0.485817 8.78609
files/tasks_parameters/ExAp01/sample37.txt 1.54146 9.52443 5.74224 0.65799 11.8999
files/tasks_parameters/ExAp01/sample16.txt 1.34134 8.63521 4.97261 0.516328 9.33788
files/tasks_parameters/ExAp01/sample10.txt 1.40133 7.28353 6.16876 0.615651 11.1342
files/tasks_parameters/ExAp01/sample39.txt 1.14438 6.3405 4.6137 0.468873 8.47966
files/tasks_parameters/ExAp01/sample19.txt 1.40631 8.85528 5.22306 0.622152 11.2517
files/tasks_parameters/ExAp01/sample20.txt 1.39594 8.1141 5.21177 0.586994 10.6159
files/tasks_parameters/ExAp01/sample43.txt 1.28843 7.21373 5.6367 0.53748 9.72042
files/tasks_parameters/ExAp01/sample32.txt 1.44395 8.30592 5.38137 0.593918 10.7411
files/tasks_parameters/ExAp01/sample45.txt 1.31563 7.94069 4.96323 0.547271 9.89749
files/tasks_parameters/ExAp01/sample26.txt 1.12704 7.57061 4.62637 0.480146 8.68352
files/tasks_parameters/ExAp01/sample5.txt 1.37749 8.0307 5.35681 0.59407 10.7439
files/tasks_parameters/ExAp01/sample21.txt 1.02975 5.87802 4.61744 0.434264 7.85375
files/tasks_parameters/ExAp01/sample38.txt 1.18994 7.66999 4.86632 0.496808 8.98487
files/tasks_parameters/ExAp01/sample1.txt 1.12402 7.21312 4.63213 0.486293 8.7947
files/tasks_parameters/ExAp01/sample15.txt 1.28394 8.02273 5.50855 0.531063 9.60436
files/tasks_parameters/ExAp01/sample24.txt 1.3078 8.66348 5.4905 0.548998 9.92873
files/tasks_parameters/ExAp01/sample3.txt 1.14154 7.74268 4.79918 0.477387 8.63363
files/tasks_parameters/ExAp01/sample6.txt 1.4935 8.57133 5.80157 0.633604 11.4588
files/tasks_parameters/ExAp01/sample30.txt 1.66943 8.18878 5.90888 0.633576 11.4583
files/tasks_parameters/ExAp01/sample42.txt 1.33044 8.57689 5.67253 0.54426 9.84303
files/tasks_parameters/ExAp01/sample4.txt 1.28166 8.40354 4.57985 0.563519 10.1913
files/tasks_parameters/ExAp01/sample28.txt 1.03974 6.44114 4.96426 0.449721 8.13329
files/tasks_parameters/ExAp01/sample18.txt 1.29999 8.56363 4.60946 0.543766 9.83411
files/tasks_parameters/ExAp01/sample35.txt 1.92465 11.0387 6.34514 0.761377 13.7696
files/tasks_parameters/ExAp01/sample47.txt 1.3273 7.14493 5.22131 0.545046 9.85725
files/tasks_parameters/ExAp01/sample49.txt 1.28718 6.65996 4.80244 0.498533 9.01607
files/tasks_parameters/ExAp01/sample41.txt 1.19851 7.09069 5.35462 0.497129 8.99066
