files/tasks_parameters/ExAp01/sample8.txt 1.38134 6.77015 2.19458 0.288816 5.2233
files/tasks_parameters/ExAp01/sample12.txt 1.62044 9.58351 2.46081 0.337498 6.10372
files/tasks_parameters/ExAp01/sample2.txt 1.51859 8.44418 2.50701 0.319127 5.77147
files/tasks_parameters/ExAp01/sample44.txt 1.35331 6.96299 2.23089 0.28229 5.10527
files/tasks_parameters/ExAp01/sample27.txt 1.37238 7.74306 2.16676 0.28602 5.17272
files/tasks_parameters/ExAp01/sample17.txt 1.40382 7.35053 2.25579 0.292348 5.28716
files/tasks_parameters/ExAp01/sample9.txt 1.33695 6.89392 2.21068 0.282399 5.10723
files/tasks_parameters/ExAp01/sample34.txt 1.4239 6.62788 2.3772 0.297742 5.38471
files/tasks_parameters/ExAp01/sample40.txt 1.36408 7.75686 2.17534 0.285619 5.16548
files/tasks_parameters/ExAp01/sample33.txt 1.61494 8.14826 2.6463 0.338073 6.11411
files/tasks_parameters/ExAp01/sample48.txt 1.29234 7.64107 2.14272 0.270011 4.8832
files/tasks_parameters/ExAp01/sample29.txt 1.37066 7.139 1.93769 0.286306 5.17789
files/tasks_parameters/ExAp01/sample11.txt 1.33888 6.88688 2.12981 0.280008 5.064
files/tasks_parameters/ExAp01/sample14.txt 1.17036 6.11983 1.97599 0.247458 4.47532
files/tasks_parameters/ExAp01/sample0.txt 1.36732 8.2738 2.14256 0.289132 5.229
files/tasks_parameters/ExAp01/sample7.txt 1.28238 6.87011 2.05821 0.269886 4.88093
files/tasks_parameters/ExAp01/sample23.txt 1.38898 6.52032 2.38087 0.291712 5.27566
files/tasks_parameters/ExAp01/sample13.txt 1.41608 8.73247 2.33415 0.295393 5.34223
files/tasks_parameters/ExAp01/sample22.txt 1.35853 6.9777 2.28948 0.283979 5.13581
files/tasks_parameters/ExAp01/sample25.txt 1.26655 6.23444 2.2122 0.267298 4.83413
files/tasks_parameters/ExAp01/sample36.txt 1.23451 6.6174 1.9458 0.253823 4.59043
files/tasks_parameters/ExAp01/sample46.txt 1.57946 7.42369 2.49128 0.327273 5.91879
files/tasks_parameters/ExAp01/sample31.txt 1.23256 7.22028 2.13584 0.25377 4.58947
files/tasks_parameters/ExAp01/sample37.txt 1.43429 8.90704 2.16981 0.295708 5.34793
files/tasks_parameters/ExAp01/sample16.txt 1.19361 8.18243 1.88294 0.24945 4.51134
files/tasks_parameters/ExAp01/sample10.txt 1.3628 6.96646 2.31217 0.285748 5.1678
files/tasks_parameters/ExAp01/sample39.txt 1.19504 6.4161 1.97266 0.251967 4.55686
files/tasks_parameters/ExAp01/sample19.txt 1.47631 8.16711 2.23199 0.308463 5.5786
files/tasks_parameters/ExAp01/sample20.txt 1.23553 7.28549 1.88944 0.25994 4.70106
files/tasks_parameters/ExAp01/sample43.txt 1.20999 6.86804 2.00142 0.25616 4.6327
files/tasks_parameters/ExAp01/sample32.txt 1.3398 8.15663 2.12995 0.281726 5.09507
files/tasks_parameters/ExAp01/sample45.txt 1.32251 7.75184 2.10599 0.274935 4.97225
files/tasks_parameters/ExAp01/sample26.txt 1.27943 7.4944 1.88956 0.267248 4.83323
files/tasks_parameters/ExAp01/sample5.txt 1.3562 8.08362 2.09961 0.28454 5.14596
files/tasks_parameters/ExAp01/sample21.txt 1.23906 6.11814 2.17119 0.26143 4.728
files/tasks_parameters/ExAp01/sample38.txt 1.26052 7.761 1.96293 0.263659 4.76832
files/tasks_parameters/ExAp01/sample1.txt 1.37176 7.83752 2.13261 0.289228 5.23074
files/tasks_parameters/ExAp01/sample15.txt 1.36254 7.37971 2.12057 0.285825 5.1692
files/tasks_parameters/ExAp01/sample24.txt 1.42224 8.28531 2.25272 0.296628 5.36458
files/tasks_parameters/ExAp01/sample3.txt 1.47003 7.33359 2.39135 0.305084 5.51751
files/tasks_parameters/ExAp01/sample6.txt 1.34092 7.09894 2.24425 0.281804 5.09648
files/tasks_parameters/ExAp01/sample30.txt 1.45633 8.17669 2.03701 0.299204 5.41116
files/tasks_parameters/ExAp01/sample42.txt 1.42777 7.70416 2.42413 0.29743 5.37907
files/tasks_parameters/ExAp01/sample4.txt 1.46692 7.41691 2.36261 0.307803 5.56667
files/tasks_parameters/ExAp01/sample28.txt 1.2605 7.0562 2.07657 0.266428 4.8184
files/tasks_parameters/ExAp01/sample18.txt 1.28422 7.60139 2.1377 0.268016 4.84712
files/tasks_parameters/ExAp01/sample35.txt 1.54035 9.66795 2.28028 0.32244 5.83138
files/tasks_parameters/ExAp01/sample47.txt 1.19433 6.84842 2.12104 0.251655 4.55122
files/tasks_parameters/ExAp01/sample49.txt 1.22325 7.1497 2.11412 0.255889 4.6278
files/tasks_parameters/ExAp01/sample41.txt 1.26145 6.59911 2.07359 0.265885 4.80858
