files/tasks_parameters/ExAp01/sample8.txt 0.707681 3.15778 1.5595 0.203411 3.67873
files/tasks_parameters/ExAp01/sample12.txt 0.784509 3.94962 1.6705 0.207924 3.76034
files/tasks_parameters/ExAp01/sample2.txt 0.785412 3.78275 1.74131 0.200098 3.6188
files/tasks_parameters/ExAp01/sample44.txt 0.686112 3.59825 1.65317 0.200005 3.61713
files/tasks_parameters/ExAp01/sample27.txt 0.689711 3.45743 1.5148 0.182129 3.29383
files/tasks_parameters/ExAp01/sample17.txt 0.670955 2.77299 1.44514 0.14646 2.64875
files/tasks_parameters/ExAp01/sample9.txt 0.676318 2.99933 1.451 0.177444 3.2091
files/tasks_parameters/ExAp01/sample34.txt 0.685797 3.02928 1.58429 0.157984 2.85716
files/tasks_parameters/ExAp01/sample40.txt 0.733194 3.86889 1.52122 0.168379 3.04517
files/tasks_parameters/ExAp01/sample33.txt 0.784914 3.63695 1.71905 0.199765 3.61278
files/tasks_parameters/ExAp01/sample48.txt 0.65736 3.39061 1.49062 0.154728 2.79829
files/tasks_parameters/ExAp01/sample29.txt 0.768329 3.30472 1.38739 0.223868 4.0487
files/tasks_parameters/ExAp01/sample11.txt 0.723664 3.10585 1.41612 0.174079 3.14824
files/tasks_parameters/ExAp01/sample14.txt 0.669158 2.70971 1.43432 0.162214 2.93368
files/tasks_parameters/ExAp01/sample0.txt 0.724174 3.6937 1.5439 0.18367 3.3217
files/tasks_parameters/ExAp01/sample7.txt 0.629521 2.70501 1.42221 0.143463 2.59456
files/tasks_parameters/ExAp01/sample23.txt 0.714648 3.2697 1.57822 0.181448 3.28153
files/tasks_parameters/ExAp01/sample13.txt 0.747555 3.84225 1.67648 0.198247 3.58533
files/tasks_parameters/ExAp01/sample22.txt 0.659155 3.09569 1.56121 0.148796 2.69101
files/tasks_parameters/ExAp01/sample25.txt 0.630026 2.73966 1.5007 0.148149 2.67929
files/tasks_parameters/ExAp01/sample36.txt 0.617471 2.85948 1.28553 0.130042 2.35184
files/tasks_parameters/ExAp01/sample46.txt 0.748936 3.58643 1.69998 0.210103 3.79975
files/tasks_parameters/ExAp01/sample31.txt 0.708322 3.4832 1.53782 0.1722 3.11427
files/tasks_parameters/ExAp01/sample37.txt 0.728478 3.95293 1.50705 0.171701 3.10524
files/tasks_parameters/ExAp01/sample16.txt 0.600323 3.31216 1.30115 0.150249 2.71728
files/tasks_parameters/ExAp01/sample10.txt 0.700203 3.17098 1.61789 0.153776 2.78107
files/tasks_parameters/ExAp01/sample39.txt 0.668567 3.26617 1.44406 0.165669 2.99615
files/tasks_parameters/ExAp01/sample19.txt 0.722189 3.63532 1.52509 0.196094 3.5464
files/tasks_parameters/ExAp01/sample20.txt 0.62234 3.20793 1.25367 0.147335 2.66459
files/tasks_parameters/ExAp01/sample43.txt 0.639769 3.11551 1.4202 0.150644 2.72443
files/tasks_parameters/ExAp01/sample32.txt 0.727979 3.5311 1.42482 0.168744 3.05177
files/tasks_parameters/ExAp01/sample45.txt 0.749297 3.80283 1.48324 0.19807 3.58214
files/tasks_parameters/ExAp01/sample26.txt 0.602537 3.21645 1.29701 0.166061 3.00325
files/tasks_parameters/ExAp01/sample5.txt 0.640858 3.5889 1.52559 0.178903 3.2355
files/tasks_parameters/ExAp01/sample21.txt 0.675006 2.75242 1.55936 0.19512 3.52879
files/tasks_parameters/ExAp01/sample38.txt 0.636628 3.31563 1.37515 0.166157 3.00498
files/tasks_parameters/ExAp01/sample1.txt 0.688402 3.74964 1.51696 0.19701 3.56295
files/tasks_parameters/ExAp01/sample15.txt 0.696025 3.32916 1.48508 0.180707 3.26813
files/tasks_parameters/ExAp01/sample24.txt 0.745878 3.45951 1.59549 0.16529 2.98931
files/tasks_parameters/ExAp01/sample3.txt 0.862674 3.70014 1.70809 0.237107 4.28812
files/tasks_parameters/ExAp01/sample6.txt 0.711714 3.33003 1.58323 0.184714 3.34059
files/tasks_parameters/ExAp01/sample30.txt 0.858613 4.1841 1.4861 0.239623 4.33363
files/tasks_parameters/ExAp01/sample42.txt 0.740599 3.43221 1.70276 0.177383 3.208
files/tasks_parameters/ExAp01/sample4.txt 0.801046 3.72477 1.6136 0.196448 3.5528
files/tasks_parameters/ExAp01/sample28.txt 0.648505 3.11323 1.45032 0.158819 2.87227
files/tasks_parameters/ExAp01/sample18.txt 0.637219 3.47418 1.45209 0.149064 2.69585
files/tasks_parameters/ExAp01/sample35.txt 0.771522 4.57086 1.49394 0.185031 3.34631
files/tasks_parameters/ExAp01/sample47.txt 0.674154 3.13768 1.52397 0.16417 2.96905
files/tasks_parameters/ExAp01/sample49.txt 0.672128 3.13288 1.49657 0.156154 2.82408
files/tasks_parameters/ExAp01/sample41.txt 0.645221 2.81964 1.49636 0.150876 2.72862
