files/tasks_parameters/ExAp01/sample8.txt 0.816407 3.15778 1.5595 0.203411 6.29702
files/tasks_parameters/ExAp01/sample12.txt 0.742071 3.94962 1.6705 0.207924 6.43672
files/tasks_parameters/ExAp01/sample2.txt 0.77933 3.78275 1.74131 0.200098 6.19444
files/tasks_parameters/ExAp01/sample44.txt 0.669017 3.59825 1.65317 0.200005 6.19158
files/tasks_parameters/ExAp01/sample27.txt 0.711313 3.45743 1.5148 0.182129 5.63817
files/tasks_parameters/ExAp01/sample17.txt 0.594596 2.77299 1.44514 0.14646 4.53397
files/tasks_parameters/ExAp01/sample9.txt 0.656024 2.99933 1.451 0.177444 5.49314
files/tasks_parameters/ExAp01/sample34.txt 0.575872 3.02928 1.58429 0.157984 4.89072
files/tasks_parameters/ExAp01/sample40.txt 0.6155 3.86889 1.52122 0.168379 5.21254
files/tasks_parameters/ExAp01/sample33.txt 0.78184 3.63695 1.71905 0.199765 6.18414
files/tasks_parameters/ExAp01/sample48.txt 0.571882 3.39061 1.49062 0.154728 4.78994
files/tasks_parameters/ExAp01/sample29.txt 0.767802 3.30472 1.38739 0.223868 6.93031
files/tasks_parameters/ExAp01/sample11.txt 0.674556 3.10585 1.41612 0.174079 5.38897
files/tasks_parameters/ExAp01/sample14.txt 0.539466 2.70971 1.43432 0.162214 5.02169
files/tasks_parameters/ExAp01/sample0.txt 0.717288 3.6937 1.5439 0.18367 5.68588
files/tasks_parameters/ExAp01/sample7.txt 0.565715 2.70501 1.42221 0.143463 4.44121
files/tasks_parameters/ExAp01/sample23.txt 0.613178 3.2697 1.57822 0.181448 5.61712
files/tasks_parameters/ExAp01/sample13.txt 0.759726 3.84225 1.67648 0.198247 6.13715
files/tasks_parameters/ExAp01/sample22.txt 0.586883 3.09569 1.56121 0.148796 4.6063
files/tasks_parameters/ExAp01/sample25.txt 0.517865 2.73966 1.5007 0.148149 4.58625
files/tasks_parameters/ExAp01/sample36.txt 0.475137 2.85948 1.28553 0.130042 4.02573
files/tasks_parameters/ExAp01/sample46.txt 0.801613 3.58643 1.69998 0.210103 6.50417
files/tasks_parameters/ExAp01/sample31.txt 0.597267 3.4832 1.53782 0.1722 5.33081
files/tasks_parameters/ExAp01/sample37.txt 0.724204 3.95293 1.50705 0.171701 5.31537
files/tasks_parameters/ExAp01/sample16.txt 0.593083 3.31216 1.30115 0.150249 4.65127
files/tasks_parameters/ExAp01/sample10.txt 0.670588 3.17098 1.61789 0.153776 4.76047
files/tasks_parameters/ExAp01/sample39.txt 0.624174 3.26617 1.44406 0.165669 5.12862
files/tasks_parameters/ExAp01/sample19.txt 0.773644 3.63532 1.52509 0.196094 6.07052
files/tasks_parameters/ExAp01/sample20.txt 0.488597 3.20793 1.25367 0.147335 4.56108
files/tasks_parameters/ExAp01/sample43.txt 0.574524 3.11551 1.4202 0.150644 4.66352
files/tasks_parameters/ExAp01/sample32.txt 0.615378 3.5311 1.42482 0.168744 5.22383
files/tasks_parameters/ExAp01/sample45.txt 0.758138 3.80283 1.48324 0.19807 6.13169
files/tasks_parameters/ExAp01/sample26.txt 0.602892 3.21645 1.29701 0.166061 5.14077
files/tasks_parameters/ExAp01/sample5.txt 0.732926 3.5889 1.52559 0.178903 5.53833
files/tasks_parameters/ExAp01/sample21.txt 0.785887 2.75242 1.55936 0.19512 6.04036
files/tasks_parameters/ExAp01/sample38.txt 0.631279 3.31563 1.37515 0.166157 5.14373
files/tasks_parameters/ExAp01/sample1.txt 0.793337 3.74964 1.51696 0.19701 6.09885
files/tasks_parameters/ExAp01/sample15.txt 0.688497 3.32916 1.48508 0.180707 5.59418
files/tasks_parameters/ExAp01/sample24.txt 0.637615 3.45951 1.59549 0.16529 5.11691
files/tasks_parameters/ExAp01/sample3.txt 0.909323 3.70014 1.70809 0.237107 7.34015
files/tasks_parameters/ExAp01/sample6.txt 0.732854 3.33003 1.58323 0.184714 5.71822
files/tasks_parameters/ExAp01/sample30.txt 0.924978 4.1841 1.4861 0.239623 7.41804
files/tasks_parameters/ExAp01/sample42.txt 0.681845 3.43221 1.70276 0.177383 5.49126
files/tasks_parameters/ExAp01/sample4.txt 0.802392 3.72477 1.6136 0.196448 6.08147
files/tasks_parameters/ExAp01/sample28.txt 0.576508 3.11323 1.45032 0.158819 4.91658
files/tasks_parameters/ExAp01/sample18.txt 0.598637 3.47418 1.45209 0.149064 4.61458
files/tasks_parameters/ExAp01/sample35.txt 0.694981 4.57086 1.49394 0.185031 5.72801
files/tasks_parameters/ExAp01/sample47.txt 0.627323 3.13768 1.52397 0.16417 5.08223
files/tasks_parameters/ExAp01/sample49.txt 0.593029 3.13288 1.49657 0.156154 4.83408
files/tasks_parameters/ExAp01/sample41.txt 0.592757 2.81964 1.49636 0.150876 4.67068
