files/tasks_parameters/ExAp01/sample8.txt 1.00966 3.76817 4.3855 0.450105 19.3444
files/tasks_parameters/ExAp01/sample12.txt 1.34074 5.03638 5.18776 0.610564 26.2406
files/tasks_parameters/ExAp01/sample2.txt 1.31996 4.58991 5.64606 0.613877 26.383
files/tasks_parameters/ExAp01/sample44.txt 1.19081 3.77401 5.66946 0.551838 23.7166
files/tasks_parameters/ExAp01/sample27.txt 1.21007 4.13937 5.56136 0.55779 23.9724
files/tasks_parameters/ExAp01/sample17.txt 1.12402 3.76163 5.38341 0.520991 22.3909
files/tasks_parameters/ExAp01/sample9.txt 1.1062 3.69889 5.2981 0.511699 21.9916
files/tasks_parameters/ExAp01/sample34.txt 1.07872 3.52435 5.83741 0.49187 21.1394
files/tasks_parameters/ExAp01/sample40.txt 1.08677 4.06185 5.0335 0.496884 21.3549
files/tasks_parameters/ExAp01/sample33.txt 1.39351 4.82091 5.83886 0.651963 28.0198
files/tasks_parameters/ExAp01/sample48.txt 0.974147 4.01134 5.07085 0.447927 19.2508
files/tasks_parameters/ExAp01/sample29.txt 1.36863 4.20847 5.0406 0.643694 27.6644
files/tasks_parameters/ExAp01/sample11.txt 1.203 3.94699 5.29198 0.557276 23.9504
files/tasks_parameters/ExAp01/sample14.txt 1.04561 3.54059 4.58345 0.466713 20.0582
files/tasks_parameters/ExAp01/sample0.txt 1.35391 4.82755 4.90216 0.623551 26.7987
files/tasks_parameters/ExAp01/sample7.txt 1.1054 3.60766 5.11185 0.509566 21.8999
files/tasks_parameters/ExAp01/sample23.txt 1.25104 3.81403 5.45799 0.582911 25.0521
files/tasks_parameters/ExAp01/sample13.txt 1.3507 4.8894 5.26818 0.624499 26.8395
files/tasks_parameters/ExAp01/sample22.txt 1.16193 3.76156 4.95746 0.534216 22.9593
files/tasks_parameters/ExAp01/sample25.txt 0.904452 2.94144 4.92622 0.403639 17.3474
files/tasks_parameters/ExAp01/sample36.txt 1.07907 3.56164 4.5806 0.501799 21.5661
files/tasks_parameters/ExAp01/sample46.txt 1.14658 3.84833 4.7121 0.530701 22.8082
files/tasks_parameters/ExAp01/sample31.txt 1.05932 3.764 5.08385 0.479734 20.6178
files/tasks_parameters/ExAp01/sample37.txt 1.39878 4.43254 5.65111 0.65143 27.9969
files/tasks_parameters/ExAp01/sample16.txt 1.15919 4.49741 4.8895 0.509171 21.8829
files/tasks_parameters/ExAp01/sample10.txt 1.33026 3.87086 6.07511 0.60993 26.2133
files/tasks_parameters/ExAp01/sample39.txt 1.01891 3.66299 4.54281 0.463671 19.9275
files/tasks_parameters/ExAp01/sample19.txt 1.32581 3.86694 5.14047 0.615987 26.4736
files/tasks_parameters/ExAp01/sample20.txt 1.24649 4.09945 5.13368 0.580369 24.9428
files/tasks_parameters/ExAp01/sample43.txt 1.15401 3.75825 5.55698 0.530892 22.8165
files/tasks_parameters/ExAp01/sample32.txt 1.278 4.0352 5.29178 0.587643 25.2555
files/tasks_parameters/ExAp01/sample45.txt 1.16942 3.94578 4.87833 0.541081 23.2544
files/tasks_parameters/ExAp01/sample26.txt 1.03149 3.50998 4.55035 0.474009 20.3718
files/tasks_parameters/ExAp01/sample5.txt 1.27463 4.00994 5.27725 0.587681 25.2571
files/tasks_parameters/ExAp01/sample21.txt 0.958404 2.8974 4.54677 0.430037 18.482
files/tasks_parameters/ExAp01/sample38.txt 1.06746 3.56689 4.78573 0.492366 21.1607
files/tasks_parameters/ExAp01/sample1.txt 1.058 3.69002 4.55048 0.481074 20.6754
files/tasks_parameters/ExAp01/sample15.txt 1.14393 3.73223 5.42493 0.524964 22.5617
files/tasks_parameters/ExAp01/sample24.txt 1.17218 4.18053 5.40377 0.542575 23.3186
files/tasks_parameters/ExAp01/sample3.txt 1.01708 3.70547 4.7118 0.470503 20.2211
files/tasks_parameters/ExAp01/sample6.txt 1.33627 4.07521 5.71419 0.626702 26.9342
files/tasks_parameters/ExAp01/sample30.txt 1.35266 3.97446 5.82388 0.626709 26.9345
files/tasks_parameters/ExAp01/sample42.txt 1.17466 4.44207 5.58473 0.537025 23.08
files/tasks_parameters/ExAp01/sample4.txt 1.21047 3.92181 4.49751 0.556974 23.9374
files/tasks_parameters/ExAp01/sample28.txt 0.954399 3.13496 4.88321 0.444588 19.1073
files/tasks_parameters/ExAp01/sample18.txt 1.16635 3.95301 4.52898 0.537438 23.0978
files/tasks_parameters/ExAp01/sample35.txt 1.6247 5.75923 6.25034 0.752488 32.3401
files/tasks_parameters/ExAp01/sample47.txt 1.16318 3.44018 5.14289 0.540033 23.2093
files/tasks_parameters/ExAp01/sample49.txt 1.08903 3.38981 4.72409 0.493041 21.1897
files/tasks_parameters/ExAp01/sample41.txt 1.05468 3.58692 5.27252 0.492391 21.1618
