digraph G {
0 ->8 0 ->10 0 ->12 0 ->19 1 ->9 1 ->10 1 ->12 1 ->20 1 ->23 1 ->25 1 ->35 2 ->10 2 ->13 2 ->28 3 ->8 3 ->15 3 ->16 3 ->17 3 ->24 3 ->26 4 ->8 4 ->9 4 ->11 4 ->20 4 ->28 5 ->11 5 ->18 6 ->8 6 ->9 6 ->21 6 ->25 6 ->36 7 ->9 7 ->10 7 ->11 7 ->12 7 ->17 7 ->22 7 ->25 7 ->27 7 ->35 8 ->22 8 ->23 8 ->31 8 ->32 8 ->45 8 ->47 9 ->24 9 ->30 9 ->32 9 ->36 9 ->40 9 ->44 9 ->45 10 ->14 10 ->23 10 ->31 10 ->33 10 ->34 10 ->40 10 ->44 11 ->27 11 ->33 11 ->34 11 ->35 11 ->38 11 ->40 11 ->41 11 ->43 11 ->49 12 ->37 12 ->40 13 ->52 13 ->55 15 ->25 15 ->43 15 ->45 16 ->43 16 ->44 16 ->45 16 ->54 17 ->28 17 ->44 17 ->48 17 ->49 17 ->50 18 ->29 20 ->32 21 ->43 21 ->46 21 ->51 21 ->53 22 ->28 23 ->57 24 ->45 25 ->52 26 ->38 26 ->40 26 ->44 26 ->51 27 ->40 27 ->51 28 ->61 29 ->41 29 ->53 29 ->62 30 ->46 30 ->51 30 ->56 30 ->59 30 ->62 31 ->42 31 ->50 32 ->38 32 ->46 32 ->56 32 ->57 33 ->37 33 ->38 33 ->40 33 ->46 33 ->53 33 ->59 34 ->46 35 ->39 35 ->44 35 ->46 35 ->50 35 ->51 35 ->59 35 ->63 35 ->66 36 ->50 37 ->53 37 ->54 37 ->57 38 ->52 38 ->66 38 ->67 39 ->70 40 ->69 41 ->65 42 ->52 43 ->61 46 ->73 47 ->61 47 ->73 47 ->75 48 ->62 48 ->70 49 ->50 49 ->57 49 ->58 50 ->62 50 ->63 50 ->66 50 ->68 50 ->77 50 ->80 50 ->82 50 ->83 51 ->63 51 ->73 51 ->75 51 ->83 51 ->90 52 ->58 52 ->70 52 ->72 52 ->76 52 ->90 53 ->60 53 ->63 53 ->76 53 ->85 54 ->69 54 ->70 54 ->71 54 ->72 54 ->74 55 ->58 55 ->74 55 ->75 55 ->78 55 ->80 55 ->84 55 ->86 55 ->87 56 ->61 56 ->64 56 ->75 56 ->86 56 ->87 57 ->73 57 ->87 57 ->89 57 ->97 58 ->94 58 ->99 59 ->78 59 ->84 59 ->87 59 ->89 59 ->96 60 ->73 60 ->74 61 ->90 61 ->92 61 ->93 61 ->95 61 ->97 62 ->69 62 ->70 62 ->84 62 ->95 63 ->68 63 ->72 63 ->76 63 ->87 64 ->81 64 ->85 64 ->94 65 ->86 65 ->93 65 ->97 66 ->68 66 ->69 66 ->75 66 ->85 66 ->89 66 ->93 67 ->83 67 ->97 68 ->81 68 ->87 68 ->93 69 ->89 70 ->85 70 ->86 70 ->93 70 ->94 70 ->96 70 ->99 71 ->80 71 ->93 71 ->96 72 ->90 72 ->91 72 ->99 73 ->83 73 ->84 73 ->90 74 ->90 74 ->95 74 ->99 75 ->81 75 ->84 75 ->91 75 ->98 75 ->99 76 ->79 76 ->81 76 ->97 77 ->88 77 ->89 78 ->96 80 ->96 81 ->99 84 ->94 85 ->91 85 ->94 86 ->99 87 ->96 89 ->91 89 ->94 90 ->94 
}
