digraph G {
0 ->20 0 ->22 0 ->25 0 ->29 0 ->30 0 ->33 0 ->37 0 ->40 1 ->14 1 ->18 1 ->21 1 ->24 1 ->31 1 ->32 1 ->39 1 ->41 1 ->47 2 ->16 2 ->18 2 ->19 2 ->20 2 ->24 2 ->26 2 ->28 2 ->30 2 ->31 2 ->32 2 ->34 2 ->35 2 ->36 2 ->46 3 ->12 3 ->13 3 ->14 3 ->16 3 ->17 3 ->18 3 ->20 3 ->23 3 ->25 3 ->28 3 ->31 3 ->35 3 ->36 3 ->46 4 ->13 4 ->13 4 ->16 4 ->19 4 ->21 4 ->23 4 ->25 4 ->29 4 ->38 4 ->48 5 ->16 5 ->20 5 ->24 5 ->25 5 ->27 5 ->29 5 ->34 5 ->48 5 ->49 6 ->14 6 ->15 6 ->18 6 ->19 6 ->23 6 ->27 6 ->29 6 ->34 7 ->12 7 ->18 7 ->22 7 ->23 7 ->29 7 ->31 7 ->34 7 ->41 8 ->12 8 ->15 8 ->34 8 ->38 8 ->40 9 ->12 9 ->15 9 ->18 9 ->21 9 ->23 9 ->33 9 ->40 9 ->47 10 ->15 10 ->15 10 ->20 10 ->21 10 ->29 10 ->31 10 ->45 11 ->12 11 ->19 11 ->20 11 ->21 11 ->22 11 ->23 11 ->26 11 ->27 11 ->30 11 ->41 11 ->42 12 ->27 12 ->45 13 ->31 13 ->45 14 ->26 14 ->30 15 ->33 15 ->39 15 ->43 15 ->49 15 ->53 16 ->26 16 ->38 17 ->45 18 ->41 18 ->46 19 ->25 19 ->40 19 ->41 19 ->42 20 ->43 20 ->48 21 ->26 21 ->27 21 ->46 21 ->53 22 ->28 22 ->42 22 ->55 23 ->27 23 ->34 23 ->40 23 ->56 24 ->47 24 ->48 24 ->55 25 ->39 25 ->41 25 ->52 26 ->40 26 ->41 26 ->43 26 ->45 26 ->49 26 ->64 27 ->45 27 ->46 28 ->50 28 ->65 30 ->48 32 ->46 32 ->48 33 ->39 33 ->44 33 ->54 33 ->57 33 ->59 34 ->53 35 ->40 35 ->54 35 ->65 36 ->46 36 ->47 36 ->63 37 ->44 37 ->45 37 ->49 37 ->62 37 ->66 39 ->52 39 ->75 41 ->52 41 ->73 42 ->64 42 ->67 43 ->72 43 ->73 44 ->52 45 ->58 45 ->63 45 ->69 47 ->51 48 ->52 48 ->57 51 ->57 51 ->75 51 ->78 51 ->80 52 ->70 54 ->65 54 ->68 54 ->70 54 ->77 55 ->75 55 ->77 55 ->78 55 ->79 56 ->60 56 ->61 56 ->68 56 ->75 56 ->76 56 ->78 56 ->79 57 ->71 57 ->82 58 ->84 58 ->86 59 ->74 59 ->85 61 ->72 61 ->76 62 ->86 63 ->68 63 ->71 63 ->85 64 ->78 65 ->72 66 ->68 66 ->76 66 ->81 67 ->76 67 ->91 67 ->95 68 ->96 68 ->97 69 ->78 70 ->89 71 ->92 71 ->95 72 ->89 74 ->90 75 ->87 77 ->84 77 ->85 77 ->88 77 ->96 78 ->98 79 ->83 79 ->91 80 ->90 81 ->93 81 ->95 82 ->85 82 ->92 82 ->95 84 ->93 85 ->91 85 ->97 86 ->92 87 ->93 89 ->94 89 ->99 
}
