digraph G {
0 ->11 0 ->14 0 ->16 0 ->17 0 ->18 0 ->24 0 ->27 0 ->29 0 ->32 0 ->33 0 ->35 1 ->13 1 ->15 1 ->16 1 ->20 1 ->33 1 ->45 2 ->10 2 ->11 2 ->13 2 ->16 2 ->18 2 ->22 2 ->31 2 ->33 2 ->45 3 ->13 3 ->14 3 ->19 3 ->22 3 ->23 3 ->34 3 ->38 4 ->15 4 ->19 4 ->20 4 ->21 4 ->23 4 ->26 4 ->27 4 ->29 4 ->36 4 ->38 4 ->39 4 ->45 5 ->14 5 ->16 5 ->19 5 ->23 5 ->24 5 ->28 5 ->36 6 ->17 6 ->18 6 ->20 6 ->21 6 ->22 6 ->25 6 ->26 6 ->29 6 ->38 7 ->10 7 ->12 7 ->18 7 ->20 7 ->36 7 ->39 7 ->40 7 ->46 8 ->10 8 ->11 8 ->15 8 ->17 8 ->19 8 ->20 8 ->21 8 ->31 8 ->36 8 ->40 9 ->10 9 ->14 9 ->16 9 ->18 9 ->19 9 ->22 9 ->27 9 ->32 9 ->34 9 ->41 9 ->45 10 ->29 10 ->42 10 ->54 10 ->55 11 ->22 11 ->34 11 ->36 11 ->52 12 ->25 12 ->30 12 ->37 12 ->48 13 ->27 13 ->37 13 ->37 13 ->43 14 ->23 14 ->24 14 ->30 14 ->37 14 ->38 14 ->50 14 ->55 15 ->23 15 ->37 16 ->50 17 ->26 17 ->33 17 ->35 17 ->36 17 ->41 17 ->52 18 ->29 18 ->33 18 ->41 18 ->47 18 ->53 19 ->37 19 ->38 19 ->41 19 ->45 19 ->49 20 ->21 20 ->25 20 ->27 20 ->53 21 ->40 21 ->44 21 ->54 21 ->63 22 ->44 22 ->53 22 ->55 22 ->57 23 ->37 23 ->42 23 ->43 23 ->52 25 ->45 25 ->51 25 ->59 26 ->44 26 ->61 27 ->42 27 ->52 29 ->38 29 ->47 29 ->68 29 ->70 30 ->38 30 ->50 30 ->52 30 ->68 31 ->50 32 ->39 32 ->51 32 ->58 33 ->54 33 ->57 34 ->49 34 ->50 34 ->55 34 ->56 34 ->68 34 ->70 34 ->82 35 ->50 35 ->55 35 ->58 35 ->61 35 ->69 35 ->79 36 ->61 36 ->62 36 ->74 36 ->79 36 ->81 37 ->67 37 ->81 38 ->55 38 ->57 38 ->58 39 ->47 39 ->57 39 ->65 39 ->66 39 ->82 40 ->79 41 ->71 42 ->55 43 ->69 44 ->68 45 ->53 45 ->56 45 ->65 45 ->68 46 ->49 46 ->50 46 ->80 47 ->58 47 ->63 47 ->77 47 ->78 48 ->79 48 ->88 49 ->63 49 ->68 49 ->70 49 ->84 50 ->63 50 ->72 50 ->73 50 ->83 51 ->61 51 ->63 51 ->73 52 ->69 52 ->89 53 ->60 53 ->61 53 ->73 53 ->77 53 ->87 54 ->58 54 ->86 55 ->63 55 ->70 55 ->88 56 ->76 56 ->85 56 ->87 56 ->88 57 ->64 57 ->74 58 ->72 58 ->82 58 ->83 59 ->72 59 ->74 59 ->79 59 ->82 59 ->83 59 ->96 60 ->76 60 ->91 61 ->74 61 ->76 61 ->89 61 ->95 62 ->72 62 ->77 63 ->75 65 ->83 65 ->84 66 ->76 66 ->86 67 ->77 67 ->89 68 ->75 68 ->79 69 ->74 69 ->90 70 ->73 70 ->77 70 ->84 71 ->84 72 ->94 73 ->84 74 ->87 74 ->92 75 ->84 76 ->92 76 ->95 77 ->85 77 ->98 78 ->86 78 ->88 78 ->93 79 ->92 83 ->84 83 ->88 84 ->93 84 ->99 85 ->96 87 ->97 88 ->95 89 ->91 90 ->97 91 ->97 92 ->98 96 ->99 
}
