files/tasks_parameters/ExJump1/sample8.txt 1.48009 4.37007 4.7242 0.633212 12.9942
files/tasks_parameters/ExJump1/sample12.txt 1.12188 3.66231 5.26401 0.481987 9.89087
files/tasks_parameters/ExJump1/sample2.txt 1.04706 3.53018 4.37278 0.432713 8.87971
files/tasks_parameters/ExJump1/sample44.txt 1.34646 4.04934 5.59556 0.589113 12.0892
files/tasks_parameters/ExJump1/sample27.txt 1.23656 3.98478 5.39885 0.534892 10.9765
files/tasks_parameters/ExJump1/sample17.txt 1.3032 4.0972 4.97986 0.511545 10.4974
files/tasks_parameters/ExJump1/sample9.txt 1.04108 3.32079 4.41476 0.451246 9.26002
files/tasks_parameters/ExJump1/sample34.txt 1.48358 4.04952 5.16038 0.565668 11.6081
files/tasks_parameters/ExJump1/sample40.txt 1.33519 3.71672 5.39874 0.56362 11.5661
files/tasks_parameters/ExJump1/sample33.txt 1.51169 4.97191 4.4842 0.637861 13.0896
files/tasks_parameters/ExJump1/sample48.txt 1.10643 3.67998 4.89308 0.485742 9.96792
files/tasks_parameters/ExJump1/sample29.txt 1.20405 3.80356 5.13683 0.524612 10.7656
files/tasks_parameters/ExJump1/sample11.txt 1.38168 3.85333 4.98513 0.549112 11.2683
files/tasks_parameters/ExJump1/sample14.txt 1.51389 4.25489 6.02238 0.624294 12.8112
files/tasks_parameters/ExJump1/sample0.txt 1.54821 4.27336 5.34554 0.628066 12.8886
files/tasks_parameters/ExJump1/sample7.txt 1.08746 3.11454 4.79696 0.475272 9.75307
files/tasks_parameters/ExJump1/sample23.txt 1.05009 3.47818 4.46712 0.435926 8.94564
files/tasks_parameters/ExJump1/sample13.txt 1.24414 3.88431 4.99534 0.554928 11.3877
files/tasks_parameters/ExJump1/sample22.txt 1.18241 3.72122 5.15643 0.52602 10.7945
files/tasks_parameters/ExJump1/sample25.txt 1.53308 4.50764 5.76618 0.655835 13.4584
files/tasks_parameters/ExJump1/sample36.txt 1.34318 3.81139 4.75593 0.536741 11.0145
files/tasks_parameters/ExJump1/sample46.txt 1.36298 4.08365 5.42668 0.58582 12.0216
files/tasks_parameters/ExJump1/sample31.txt 1.29808 4.78874 5.70662 0.55966 11.4848
files/tasks_parameters/ExJump1/sample37.txt 1.16508 3.62496 4.75301 0.488801 10.0307
files/tasks_parameters/ExJump1/sample16.txt 1.53371 4.2376 5.5065 0.671225 13.7742
files/tasks_parameters/ExJump1/sample10.txt 1.18688 4.24134 5.11127 0.534125 10.9608
files/tasks_parameters/ExJump1/sample39.txt 1.07004 4.14934 4.86337 0.485617 9.96536
files/tasks_parameters/ExJump1/sample19.txt 1.24325 4.06249 5.27688 0.563659 11.5668
files/tasks_parameters/ExJump1/sample20.txt 1.05287 3.3761 4.71265 0.452944 9.29488
files/tasks_parameters/ExJump1/sample43.txt 1.22218 3.67233 4.53299 0.527897 10.833
files/tasks_parameters/ExJump1/sample32.txt 1.09492 4.01988 4.60195 0.451749 9.27034
files/tasks_parameters/ExJump1/sample45.txt 1.20523 3.69702 4.91664 0.501624 10.2938
files/tasks_parameters/ExJump1/sample26.txt 1.05454 3.60973 4.13569 0.445984 9.15204
files/tasks_parameters/ExJump1/sample5.txt 1.14245 4.00004 4.39181 0.460599 9.45195
files/tasks_parameters/ExJump1/sample21.txt 1.46094 4.36177 5.28845 0.59866 12.2851
files/tasks_parameters/ExJump1/sample38.txt 1.25749 4.06349 4.78642 0.567678 11.6493
files/tasks_parameters/ExJump1/sample1.txt 1.32379 4.54062 5.04802 0.556163 11.413
files/tasks_parameters/ExJump1/sample15.txt 1.16968 4.26662 5.27831 0.488244 10.0193
files/tasks_parameters/ExJump1/sample24.txt 1.41212 4.69709 6.20996 0.618473 12.6917
files/tasks_parameters/ExJump1/sample3.txt 1.44997 5.02795 5.40682 0.637626 13.0847
files/tasks_parameters/ExJump1/sample6.txt 1.03001 3.4168 4.4111 0.458747 9.41396
files/tasks_parameters/ExJump1/sample30.txt 1.40804 4.61525 5.18415 0.642749 13.1899
files/tasks_parameters/ExJump1/sample42.txt 1.33281 4.35225 4.56548 0.591623 12.1407
files/tasks_parameters/ExJump1/sample4.txt 1.17863 4.21706 5.40236 0.548225 11.2501
files/tasks_parameters/ExJump1/sample28.txt 1.36935 4.16955 4.31508 0.534691 10.9724
files/tasks_parameters/ExJump1/sample18.txt 1.20233 4.03224 5.42177 0.526681 10.808
files/tasks_parameters/ExJump1/sample35.txt 1.22287 3.64414 4.96251 0.532978 10.9372
files/tasks_parameters/ExJump1/sample47.txt 1.32544 4.46006 5.20662 0.539971 11.0808
files/tasks_parameters/ExJump1/sample49.txt 1.46319 4.0372 5.16277 0.581305 11.929
files/tasks_parameters/ExJump1/sample41.txt 1.62147 4.95395 5.87492 0.688574 14.1302
