files/tasks_parameters/ExAp01/sample8.txt 1.08472 3.76817 4.3855 0.450105 31.8521
files/tasks_parameters/ExAp01/sample12.txt 1.65223 5.03638 5.18776 0.610564 43.2071
files/tasks_parameters/ExAp01/sample2.txt 1.44299 4.58991 5.64606 0.613877 43.4415
files/tasks_parameters/ExAp01/sample44.txt 1.25622 3.77401 5.66946 0.551838 39.0513
files/tasks_parameters/ExAp01/sample27.txt 1.2997 4.13937 5.56136 0.55779 39.4725
files/tasks_parameters/ExAp01/sample17.txt 1.23473 3.76163 5.38341 0.520991 36.8684
files/tasks_parameters/ExAp01/sample9.txt 1.14587 3.69889 5.2981 0.511699 36.2109
files/tasks_parameters/ExAp01/sample34.txt 1.14893 3.52435 5.83741 0.49187 34.8076
files/tasks_parameters/ExAp01/sample40.txt 1.15868 4.06185 5.0335 0.496884 35.1624
files/tasks_parameters/ExAp01/sample33.txt 1.5397 4.82091 5.83886 0.651963 46.1367
files/tasks_parameters/ExAp01/sample48.txt 1.11428 4.01134 5.07085 0.447927 31.698
files/tasks_parameters/ExAp01/sample29.txt 1.49022 4.20847 5.0406 0.643694 45.5516
files/tasks_parameters/ExAp01/sample11.txt 1.31354 3.94699 5.29198 0.557276 39.4361
files/tasks_parameters/ExAp01/sample14.txt 1.08627 3.54059 4.58345 0.466713 33.0274
files/tasks_parameters/ExAp01/sample0.txt 1.52303 4.82755 4.90216 0.623551 44.1261
files/tasks_parameters/ExAp01/sample7.txt 1.17904 3.60766 5.11185 0.509566 36.0599
files/tasks_parameters/ExAp01/sample23.txt 1.41676 3.81403 5.45799 0.582911 41.2502
files/tasks_parameters/ExAp01/sample13.txt 1.48674 4.8894 5.26818 0.624499 44.1932
files/tasks_parameters/ExAp01/sample22.txt 1.29069 3.76156 4.95746 0.534216 37.8043
files/tasks_parameters/ExAp01/sample25.txt 0.981013 2.94144 4.92622 0.403639 28.5639
files/tasks_parameters/ExAp01/sample36.txt 1.17932 3.56164 4.5806 0.501799 35.5102
files/tasks_parameters/ExAp01/sample46.txt 1.30696 3.84833 4.7121 0.530701 37.5555
files/tasks_parameters/ExAp01/sample31.txt 1.08743 3.764 5.08385 0.479734 33.9488
files/tasks_parameters/ExAp01/sample37.txt 1.52648 4.43254 5.65111 0.65143 46.099
files/tasks_parameters/ExAp01/sample16.txt 1.24849 4.49741 4.8895 0.509171 36.0319
files/tasks_parameters/ExAp01/sample10.txt 1.38452 3.87086 6.07511 0.60993 43.1622
files/tasks_parameters/ExAp01/sample39.txt 1.12429 3.66299 4.54281 0.463671 32.8121
files/tasks_parameters/ExAp01/sample19.txt 1.36654 3.86694 5.14047 0.615987 43.5909
files/tasks_parameters/ExAp01/sample20.txt 1.34073 4.09945 5.13368 0.580369 41.0703
files/tasks_parameters/ExAp01/sample43.txt 1.14204 3.75825 5.55698 0.530892 37.5691
files/tasks_parameters/ExAp01/sample32.txt 1.43835 4.0352 5.29178 0.587643 41.5851
files/tasks_parameters/ExAp01/sample45.txt 1.24067 3.94578 4.87833 0.541081 38.2901
files/tasks_parameters/ExAp01/sample26.txt 1.10116 3.50998 4.55035 0.474009 33.5437
files/tasks_parameters/ExAp01/sample5.txt 1.40071 4.00994 5.27725 0.587681 41.5877
files/tasks_parameters/ExAp01/sample21.txt 0.929546 2.8974 4.54677 0.430037 30.432
files/tasks_parameters/ExAp01/sample38.txt 1.17443 3.56689 4.78573 0.492366 34.8427
files/tasks_parameters/ExAp01/sample1.txt 1.1207 3.69002 4.55048 0.481074 34.0436
files/tasks_parameters/ExAp01/sample15.txt 1.19395 3.73223 5.42493 0.524964 37.1496
files/tasks_parameters/ExAp01/sample24.txt 1.24769 4.18053 5.40377 0.542575 38.3958
files/tasks_parameters/ExAp01/sample3.txt 1.10135 3.70547 4.7118 0.470503 33.2956
files/tasks_parameters/ExAp01/sample6.txt 1.45612 4.07521 5.71419 0.626702 44.3491
files/tasks_parameters/ExAp01/sample30.txt 1.51035 3.97446 5.82388 0.626709 44.3496
files/tasks_parameters/ExAp01/sample42.txt 1.28561 4.44207 5.58473 0.537025 38.003
files/tasks_parameters/ExAp01/sample4.txt 1.29385 3.92181 4.49751 0.556974 39.4148
files/tasks_parameters/ExAp01/sample28.txt 1.01594 3.13496 4.88321 0.444588 31.4617
files/tasks_parameters/ExAp01/sample18.txt 1.20722 3.95301 4.52898 0.537438 38.0322
files/tasks_parameters/ExAp01/sample35.txt 1.9359 5.75923 6.25034 0.752488 53.2505
files/tasks_parameters/ExAp01/sample47.txt 1.15929 3.44018 5.14289 0.540033 38.2159
files/tasks_parameters/ExAp01/sample49.txt 1.15558 3.38981 4.72409 0.493041 34.8905
files/tasks_parameters/ExAp01/sample41.txt 1.14093 3.58692 5.27252 0.492391 34.8444
