0.31763806
Task0 31 3 3 
Task1 31 7 31 
Task2 15 1 31 
Task3 31 15 1 
Task4 31 15 15 
Task5 7 31 15 
Task6 127 255 15 
Task7 7 31 1 
Task8 15 7 31 
Task9 31 1 7 
Task10 3 63 31 
Task11 63 31 1 
Task12 63 7 255 
Task13 3 31 7 
Task14 127 63 31 
Task15 7 7 31 
Task16 15 31 1 
Task17 255 15 63 
Task18 31 7 15 
Task19 31 31 63 
Task20 63 31 255 
Task21 7 15 63 
Task22 63 3 63 
Task23 15 15 63 
Task24 15 63 15 
Task25 31 31 63 
Task26 63 31 7 
Task27 15 63 7 
Task28 7 63 7 
Task29 31 255 31 
Task30 63 15 255 
Task31 63 15 31 
Task32 31 7 3 
Task33 63 7 3 
Task34 255 255 127 
Task35 31 15 63 
Task36 63 15 1 
Task37 255 255 7 
Task38 31 7 7 
Task39 15 63 1 
Task40 7 255 31 
Task41 255 255 63 
Task42 1 63 7 
Task43 31 255 63 
Task44 15 31 31 
Task45 127 15 15 
Task46 3 31 15 
Task47 31 15 7 
Task48 1 7 31 
Task49 31 7 7 
Task50 7 15 31 
Task51 31 31 3 
Task52 1 63 31 
Task53 15 15 7 
Task54 255 15 63 
Task55 15 63 1 
Task56 63 63 63 
Task57 255 255 255 
Task58 15 63 31 
Task59 31 3 1 
Task60 7 31 1 
Task61 31 63 63 
Task62 15 63 31 
Task63 1 63 7 
Task64 15 31 31 
Task65 63 31 7 
Task66 7 31 7 
Task67 31 1 31 
Task68 31 63 63 
Task69 3 31 7 
Task70 3 15 63 
Task71 3 1 63 
Task72 3 31 31 
Task73 31 7 7 
Task74 15 63 3 
Task75 255 127 63 
Task76 255 15 255 
Task77 31 63 255 
Task78 7 1 31 
Task79 7 3 63 
Task80 3 7 63 
Task81 31 63 127 
Task82 127 63 63 
Task83 15 31 31 
Task84 15 15 3 
Task85 31 63 255 
Task86 31 15 1 
Task87 15 15 31 
Task88 63 127 3 
Task89 7 31 3 
Task90 63 7 7 
Task91 1 31 3 
Task92 31 63 63 
Task93 63 15 15 
Task94 255 127 255 
Task95 31 1 7 
Task96 31 31 1 
Task97 3 63 31 
Task98 63 15 15 
Task99 63 31 31 
