Task0 0.014295369103272854 0.03099618753793895 0.11240719677482873 0.10371234939589605 0.8648518649091137 0.8689777026687877 0.540509428305695 
Task1 0.0411864258283653 0.1823355296639038 0.029225032427589673 0.10267401577359477 0.7025756358903961 0.9721550183313594 0.9250739520374072 
Task2 0.04145785951987849 0.23836362809812545 0.17264623992126793 0.11728550447763589 0.364574757095496 0.5403856543612722 0.5485786920328132 
Task3 0.05638676233422597 0.2579741095740014 0.21248502800195687 0.19377935849458125 0.4559050166789665 0.9195769112778347 0.5609434203567186 
Task4 0.06463072773961792 0.1944397152906035 0.3218014661779015 0.01063326406784497 0.5681727153260634 0.8670831288457517 0.6891596287603245 
Task5 0.1285125585207248 0.24484590152738422 0.18560820854829496 0.24459656414785366 0.5772041244582802 0.6409692547982118 0.48722409942676925 
Task6 0.1285277708338742 0.25538803109761826 0.022507710168684886 0.2910387332300481 0.7929057127565937 0.36224747351663183 0.7900737733496037 
Task7 0.009027804399857994 0.048474633758624486 0.22325395328155512 0.060983358695560895 0.5105573328311583 0.7995396910273329 0.7730521809017918 
Task8 0.1300705330876809 0.3739498643471671 0.03528825757385164 0.24121329094850025 0.7392832552876778 0.7820997609925421 0.40113078628664134 
Task9 0.0052128099494528944 0.024746586415192617 0.13702475578097206 0.07911931469626422 0.42716649154257325 0.9687604448115548 0.7173714603638796 
Task10 0.15371693275069026 0.2863812250930612 0.20821712557291117 0.3189651850702474 0.5030340103557928 0.8968912728980982 0.4920453854490122 
Task11 0.1303023280732118 0.4483406209656344 0.002143161789199111 0.17294061480476675 0.38844498659565657 0.8467880794108575 0.42894393174607603 
Task12 0.027086741015702534 0.028350814297030343 0.09634748999758722 0.06577671391533624 0.656239851329703 0.6035842473963691 0.6480478570726943 
Task13 0.013457561945866248 0.034520940034980296 0.1508199122185787 0.10073030662066657 0.9650153302771154 0.3757934469756573 0.6843763300971293 
Task14 0.09645496934661449 0.24434790908565396 0.15739168239281093 0.20120683446922702 0.7143227910116046 0.32699818597946734 0.5910555940766917 
Task15 0.07624486969480644 0.13429249507871374 0.20103384207550043 0.02266147210314653 0.41326202333002643 0.4576068030602205 0.8340893462981778 
Task16 0.04240128362225394 0.17871208528552426 0.01975846660502928 0.06485509868725832 0.5151094422204525 0.7239356343616656 0.8264792238452137 
Task17 0.12515829777021534 0.07292183643111405 0.4865870176512888 0.09834320310323284 0.41305167653062397 0.8283949126761905 0.7676830525023977 
Task18 0.056757976185064556 0.3540485893036488 0.42982168870904286 0.08015995778776229 0.7812957122525389 0.9126596367194679 0.3497728213946264 
Task19 0.044322450513143 0.14363179328037506 0.2628872697751493 0.33086788180331467 0.8695575632329766 0.5505588398609977 0.8665184466615818 
Task20 0.05130770680335536 0.1554217353038439 0.1584494472070772 0.15763219030030923 0.4408087403288682 0.885906460867828 0.9648304854388938 
Task21 0.011466497392313252 0.005522018748276406 0.0909674210341451 0.05420345991037743 0.9643428581375051 0.6737669295043806 0.5925733416971317 
Task22 0.058538867467520836 0.22161527624464836 0.02200236807890168 0.31380834056565765 0.45622995723178683 0.3090404578797167 0.45190918313837963 
Task23 0.006774942437994075 0.011968434823246108 0.013091845290929209 0.04554704847356653 0.5349182673189342 0.6020348322120215 0.8753222096521274 
Task24 0.028656987048303596 0.009648075923658947 0.024782629849026697 0.11342599259569855 0.6813586570235437 0.4605036856746332 0.3035204278209935 
Task25 0.011980622218056573 0.12917293887081807 0.2124150153251572 0.23615721487871355 0.8668093066180975 0.8967973266420863 0.8736504945434977 
Task26 0.08790741974793889 0.3210091310844501 0.45042842522079213 0.0716416777430016 0.6171730852262742 0.9896318428861097 0.8817422865159623 
Task27 0.016116827872511428 0.10595885050693112 0.055102185126007494 0.7187991224864189 0.8328402169616158 0.39838533356251127 0.4816914881895721 
Task28 0.004486402092750641 0.20099426850841373 0.3377459094338992 0.3071160693367149 0.7443185623149654 0.3491632298172999 0.8344117652983123 
Task29 0.012987410358655768 0.1822163855635148 0.1802197326775002 0.14363591616387877 0.49696772711345977 0.3375747033723837 0.6974314664225163 
Task30 0.013264205360565003 0.020519099797845754 0.018906750410124712 0.02706314184941248 0.333918971415021 0.3017663695776469 0.7962467129790691 
Task31 0.04169994850427268 0.05865698837026265 0.0908987007649161 0.03599576234219814 0.8705882790673911 0.8938875341287691 0.41077272892049044 
Task32 0.019531736888234837 0.025930158273421714 0.03802913537655455 0.02733944983349574 0.4705143339593172 0.6889759571191154 0.4684965832348962 
Task33 0.01625129043399276 0.08912372276429428 0.04499418764579513 0.03929194147975184 0.9282128238012488 0.5192454029621146 0.9287430413780058 
Task34 0.04128629270506263 0.2499691883075049 0.3127447731802844 0.20885101777033635 0.6338036338533215 0.7803975643150824 0.5633025663094373 
Task35 0.013496660856386284 0.06416409013979588 0.1832157574717153 0.35357236484075383 0.9083404220813587 0.9694397230337248 0.6554947493999677 
Task36 0.03751377767781857 0.20436620768661362 0.026814568393211998 0.21250626550868365 0.5617010097527428 0.9554000759818679 0.5581298075424823 
Task37 0.03589763305589614 0.04327241400194558 0.18122634766405743 0.0735555507788057 0.3664817094697487 0.45247615816271325 0.5482264669900061 
Task38 0.031741978171743665 0.05321370958579035 0.04288002606080107 0.03740556780414033 0.6858533370997194 0.5766218429641706 0.39127820881496894 
Task39 0.008268087225656792 0.08238913972485325 0.073603418401444 0.12865998677958215 0.862615591979093 0.3739777937959204 0.7959824613440618 
Task40 0.026371219759748304 0.1880042347422352 0.134852281336373 0.021052362876224695 0.7983925490276484 0.6301060857575658 0.8704402599815166 
Task41 0.07828508219657936 0.31417959317267663 0.11941897679754826 0.29957733427396865 0.5585917335072912 0.9956212268070534 0.6140430134320433 
Task42 0.13425511484844657 0.36462517937708294 0.18912529252570542 0.07311435322677833 0.8014343414954683 0.9403904280947517 0.6490226074848802 
Task43 0.1121412004239601 0.006023947352963907 0.37544483321842687 0.1290205905093252 0.31405839821735165 0.5621722297715787 0.9943180873245401 
Task44 0.004107777309529729 0.001697947487957187 0.02294373362656311 0.021795594930912487 0.9619366980398942 0.6758254329711015 0.9564387792440889 
Task45 0.01608656145055639 0.046535080004357375 0.025721717680566594 0.036676803330801866 0.5531019871803597 0.8038580831531366 0.9284147820522834 
Task46 0.17842802633666646 0.22373465097159356 0.39149531997411496 0.17827408359782984 0.6692605182270517 0.4138145805230117 0.38947945500968434 
Task47 0.1822413565186839 0.27427780013658776 0.22554767659227876 0.3128997208541338 0.7468403630905636 0.6889497073361469 0.9796650173438726 
Task48 0.06686771339832064 0.10007316557361769 0.0776872272752449 0.4251277419700303 0.426152811595206 0.393724884680872 0.8762951597101241 
Task49 0.039133980954156045 0.06408544650212546 0.0304577646717435 0.11615058345446347 0.33856639897093116 0.38385451044111785 0.6862089761205256 
Task50 0.055103305154561036 0.40358406245269113 0.2765378518899796 0.1778989625768929 0.7805508122508156 0.7136671323314965 0.6242994355123612 
Task51 0.1294573293317665 0.33208987691474745 0.26413750439593214 0.054932680254511194 0.6226307225935546 0.4159619394978783 0.7016020058765419 
Task52 0.032781366587219175 0.3223027305584441 0.1675568101067417 0.0784877562595774 0.7695604371835448 0.7972938609582573 0.6442567986127878 
Task53 0.09633533509787359 0.1850961630049015 0.0012611833727373585 0.5105117157502503 0.3058020500969257 0.552851431465661 0.3321879313455591 
Task54 0.03502748850094243 0.004369400818808019 0.07088360643041267 0.09115643917202228 0.4830758291958378 0.5322767701492155 0.35763634356204493 
Task55 0.04398553282924998 0.07718145949030997 0.06323535649129444 0.09693318440079332 0.40775505976481474 0.4091554955498103 0.4591359014094273 
Task56 0.005730101320504382 0.35959644476177327 0.2925384191676703 0.11187517782973903 0.40994915130605725 0.5275633195621543 0.8727584007230418 
Task57 0.1441852597629032 0.3360600203036359 0.19989436700694727 0.062085643783270465 0.46104982194085653 0.7343979276292694 0.9370327536784853 
Task58 0.12477030186897134 0.15078523795462234 0.2414410520341814 0.18079702401770584 0.5343648151992169 0.7009059834131676 0.355218642367793 
Task59 0.040901102118912167 0.19844731419807027 0.37339670391039265 0.25475378896588297 0.533398168278392 0.8881004239681105 0.33566696554225844 
Task60 0.10302638807500666 0.2568093307126674 0.3135131286232504 0.16030911048907476 0.9434355432120725 0.7745782498352509 0.7363659205964239 
Task61 0.02042575703351179 0.1902565443219055 0.1520567736716589 0.315828971269675 0.6189443680608836 0.3343478585846662 0.892764352768542 
Task62 0.11684742252437243 0.0404415110798765 0.3258981691857747 0.1310494442291453 0.3578719533445321 0.6812425441943923 0.9130249831569766 
Task63 0.020766335840321358 0.07167499295692775 0.21191945886968086 0.34843051416554116 0.5419772041215645 0.6801376173357381 0.9507778609360509 
Task64 0.04191338468154477 0.1464155740142592 0.008066568879019614 0.5310691606549719 0.7067021425636588 0.8949112373157573 0.9422340424921662 
Task65 0.005409982592319344 0.03424812902500462 0.003975506916457864 0.031457227752291386 0.6386181984795911 0.9368449184540903 0.8333465123944712 
Task66 0.05924537693499868 0.30261713178862915 0.3237993983230185 0.02256674088078781 0.42331342216250273 0.96459848428184 0.44659964824931314 
Task67 0.08952974439054939 0.0517093629378175 0.035239966025374464 0.3446007318801541 0.6709469862424677 0.7241822760963608 0.6731796342086002 
Task68 0.0016101743179191793 0.006258690108655282 0.03891860545469147 0.01992403527778752 0.5314172697570281 0.7084098980436772 0.5267022661545532 
Task69 0.05263791468076489 0.09715983643003578 0.11071258122187154 0.20386668171156072 0.607174313514333 0.4572921788815763 0.42878757769548004 
Task70 0.06518662524337766 0.01719686985173614 0.29817390120163395 0.45650020795804414 0.3604526058057385 0.9917992475390394 0.7980606312852447 
Task71 0.016733896523601834 0.15313973644365936 0.31284519547380724 0.30569573549410617 0.6697502199547192 0.4736516277068523 0.47231726890659514 
Task72 0.054608484355666356 0.19624846039279437 0.0759754892863698 0.08496514849995279 0.3469202280014538 0.31493463000492594 0.8116212246651726 
Task73 0.010554841289309513 0.01613036359598391 0.01990529900195571 0.020293059199316267 0.31987988699532605 0.7044066194474055 0.9867924285247551 
Task74 0.08897480693960179 0.33508400263414684 0.05764539052903448 0.15371651569610717 0.9773669844661157 0.7330893379860649 0.6451140489283388 
Task75 0.009168994175907212 0.04234754116214963 0.047829267417850145 0.052997778433214855 0.3035026939145784 0.8925044177596049 0.5283138280562526 
Task76 0.057418892055582926 0.09988143153620259 0.37661024001840465 0.04771417167399164 0.7422206415562231 0.892644207858299 0.8569280994618078 
Task77 0.048007894872167854 0.31861771807102807 0.3230447512243452 0.2465906595142962 0.6582033568515379 0.859782041517646 0.5858068614688363 
Task78 0.019781741183346316 0.09184713072485767 0.025982914715694062 0.004184287215796125 0.3655591937871202 0.753483723752115 0.734976562383584 
Task79 0.01164382465811059 0.10620496555824911 0.21507819282633628 0.17866829774027138 0.7450989303308067 0.7543007823421758 0.806225106185736 
Task80 0.05389352656593217 0.23387730861691722 0.09296308433519498 0.3250753274301594 0.7045941372923694 0.6549522393917719 0.5477210037012881 
Task81 0.04383427744893115 0.04519771497021672 0.05370138572750368 0.07685245506628748 0.8753114648547711 0.91755214966261 0.8873900185100536 
Task82 0.07049142933302374 0.06527087339328662 0.11755600397728727 0.4796990020538134 0.9610771602725743 0.33723031886668914 0.43513751771784304 
Task83 0.03872104984607857 0.004176762135429476 0.1865624148327402 0.046736132412888896 0.6933403038835568 0.47510468615098234 0.9748238587840572 
Task84 0.03179038249733171 0.05441529504759821 0.023483072638049468 0.051694209962202656 0.33195310484051876 0.6813250673566942 0.9944483234860775 
Task85 0.008769199906933442 0.03862193271271059 0.040354445112423115 0.03505930598672403 0.5010274621181091 0.6785124557461413 0.5380185492105154 
Task86 0.038923717247242605 0.22264572383594555 0.2573482954510287 0.26214278781781075 0.5485439007674282 0.7602490230575547 0.7637135764176028 
Task87 0.14624227455570263 0.2747090089803916 0.07715770590226226 0.37364974159935127 0.77822797359767 0.952374201153326 0.7722394168775109 
Task88 0.04638389342728429 0.21628663757753008 0.15010738303584412 0.1549642710338946 0.7097041908134976 0.5488524164715202 0.8576546165111227 
Task89 0.0009277066392065562 0.004267468096575404 0.0016999649942983674 0.0032484357599678565 0.7241243725116701 0.4815028804260742 0.6643657295500498 
Task90 0.034508700195547734 0.3925823085232429 0.33111970062177354 0.16561047942815343 0.524518440058605 0.680108479171468 0.37786206057319616 
Task91 0.06209146102909444 0.6583211471147001 0.01056703523725092 0.15529884195319046 0.39387663672877044 0.7302085475355253 0.347132773127583 
Task92 0.060293414286719166 0.14520043496981624 0.04118378259450976 0.08072717815732125 0.7472685222095576 0.9072764722131532 0.32617787526179703 
Task93 0.09965294077928391 0.4024247960578915 0.06369945880299105 0.1295478024415006 0.5632184432834879 0.7959995270861309 0.7634188599439199 
Task94 0.006034808470909202 0.09185187847361587 0.15109095803177822 0.09000328200022384 0.808609222299072 0.5040397786451077 0.8410105552628642 
Task95 0.10029710963163183 0.13526632611906275 0.39296426131674816 0.29201827077360637 0.508174152552298 0.5449517324565325 0.4964167713688673 
Task96 0.05286993391100017 0.40304197255489144 0.0772144928659039 0.2720616143232696 0.9822422276373652 0.31411255721881354 0.6453741906035153 
Task97 0.00011240463854284453 0.0011551831710608293 0.024022718394146218 0.007684783121249929 0.8101654170300934 0.840006228470044 0.7175060225218781 
Task98 0.012582723817024348 0.433492087162115 0.21373594766747975 0.10815739336030823 0.38396500626796887 0.30222281847881 0.3489673694104483 
Task99 0.0395134379700502 0.13259134041416704 0.0774588844008612 0.32677186734206504 0.44327257933022757 0.7519115105135021 0.7215016912183292 
