Task0 0.0022957886768186966 0.017371992173217894 0.00048190385464098916 0.009323791141617094 0.45416586874777987 0.4477908542493392 0.9910478906613687 
Task1 0.020935662060366223 0.2961729289979287 0.4353010229939375 0.11510970977868815 0.9630023640084096 0.6325427889460582 0.43987631735038335 
Task2 0.06927656603344058 0.3070577403566605 0.34167564157610625 0.19250186067666492 0.7344115517910919 0.7274526124113686 0.5654136361679949 
Task3 0.017728802931236968 0.16878051481419426 0.14982374704425452 0.051721776289070646 0.6803722609579981 0.8906091208728757 0.8235691154489058 
Task4 0.07805500363896403 0.0061019692898437285 0.09994219567118252 0.23249383208303226 0.4677065242090344 0.36188737866171244 0.3206781156261731 
Task5 0.11625011097119801 0.1658419854248664 0.047465577932104215 0.266280004021994 0.48112860412728664 0.6331255105692266 0.8876857008950396 
Task6 0.0022484137071483172 0.020772579874445207 0.01608646995792907 0.011729369928821858 0.8721063932943871 0.9260244368124348 0.9466562415438513 
Task7 0.14998021921350146 0.19546187216777813 0.23290642375553217 0.3525366385757866 0.30578919080177536 0.8692218943704135 0.6386046125890136 
Task8 0.008674169471026165 0.030740353418287552 0.021114663167693858 0.025955985197619835 0.41499502901987784 0.3707208586382833 0.45845413640271915 
Task9 0.0198013618491142 0.04038909423174945 0.1175501853449472 0.12390846700544607 0.6878321855726741 0.9987274487169036 0.7445362822456496 
Task10 0.0503081991130916 0.116137584787387 0.15678521182348332 0.1339665601602844 0.5322793242335208 0.8777794352582169 0.7060201132038268 
Task11 0.011362986917377216 0.21051416250923652 0.16143700690170956 0.1277312321206943 0.8726110973208736 0.7209390919371786 0.4054267115530945 
Task12 0.14446338352281612 0.31389931600313736 0.20695798612165225 0.11486163757296057 0.6795223938081771 0.5231248968066382 0.31970117521240726 
Task13 0.016017030801857377 0.2402399910596768 0.4520825520112218 0.2908482750846338 0.7989818396959657 0.30656936666720164 0.7767274144809089 
Task14 0.027994756254076027 0.06206148111887723 0.2566409485454306 0.09449442328719666 0.721742146424965 0.9855492502553702 0.6617693718750873 
Task15 0.007385733678031463 0.03675757836014455 0.0237540681220342 0.036279842602497704 0.6077716583539943 0.7778263565055944 0.7500058360865879 
Task16 0.029471263657431933 0.34705158335600295 0.1922130341482727 0.1003008262106113 0.32059342124383094 0.5328328677231915 0.7577065968782035 
Task17 0.0779302211084195 0.25215704304616926 0.28154925321980123 0.2360368665639537 0.3632186040190071 0.6618657769010572 0.6336955125684461 
Task18 0.034824631322474334 0.07377495165789429 0.04542722755005827 0.028742756354137793 0.43045535978521965 0.5244828238065934 0.9581880281524513 
Task19 0.027939600969942604 0.1764320722711954 0.2225606506024118 0.0962858719778365 0.3416922271305885 0.5861479968037039 0.9561867334985792 
Task20 0.05759477720769629 0.020657649030660783 0.16972888990378174 0.13684646653640298 0.4322959880802326 0.3004566594284033 0.5428954320984748 
Task21 0.007453470223057288 0.005272108103469475 0.049776172738599814 0.01753156431291846 0.68974371276647 0.8415516331912125 0.6929739786442561 
Task22 0.035579657665518016 0.07129370750515154 0.05821534149221835 0.02833717785557828 0.9635443924439437 0.9167531789931314 0.9344053400614072 
Task23 0.04316536686648993 0.2877846844924498 0.3216554821018126 0.13602563113370325 0.4258919242252955 0.8645252366885594 0.5143436876918017 
Task24 0.02369068861308946 0.10477724264638279 0.03160080717463326 0.12867440940134145 0.4134982278104317 0.9355840926788088 0.9088426697558367 
Task25 0.02619658609602554 0.2664544458457527 0.39333810255286067 0.07724257927247472 0.8019597618036745 0.5705034620885128 0.4156645119489589 
Task26 0.026785373975097143 0.05270132033423471 0.046014946436813364 0.056666271949563876 0.7693391497815515 0.6880076468731745 0.3294296008387319 
Task27 0.06895056087210921 0.04500481305348415 0.2348313483300056 0.1566254055171722 0.4364477663749761 0.48987845804704877 0.565070111877664 
Task28 0.007881259372878332 0.13952184297996695 0.18800825597219994 0.41009754924540903 0.5254444580548967 0.8742900465536145 0.9862451874509908 
Task29 0.056945724889441426 0.011271914236419607 0.18022925301391057 0.11123295837421387 0.878685400191836 0.608757640688476 0.31649234324477615 
Task30 0.056659634597330796 0.1122052680977229 0.060458063731488085 0.13605298259088586 0.6563061168548807 0.47068793016683763 0.48734369466883753 
Task31 0.02823211871411071 0.0673750047748515 0.5468665678557738 0.04911378822436184 0.8346597765520571 0.8174391280112909 0.8421466360446261 
Task32 0.0026130434056944726 0.026583227278767035 0.006747328220840121 0.0399756944243529 0.7457732598048246 0.8934679234173075 0.5499337534060917 
Task33 0.1029650275713545 0.13378279258325376 0.27734659374840637 0.01094588337994917 0.5434514382610679 0.8282520339383781 0.8972009644384134 
Task34 0.11834925018571935 0.2941814586738069 0.12145971025161569 0.06916906476530216 0.589114964793395 0.6452935637993398 0.6179590532213404 
Task35 0.04776708492331514 0.20712526704957182 0.14048453496745106 0.1978579037199969 0.9283491063995382 0.7929166393085598 0.3252024651927884 
Task36 0.003981726877348826 0.013907386436385347 0.016437617664752227 0.01036721411941352 0.36329503453207396 0.44482504649104837 0.7362169143260423 
Task37 0.06413453412087454 0.12229609100981313 0.04045506542492158 0.12213229769711226 0.7141274107866122 0.7633357473937912 0.4076452700446808 
Task38 0.03422812624475987 0.12551853730910673 0.02721757416381913 0.0490350728407874 0.9615421323414228 0.7997293844661466 0.8014520912878771 
Task39 0.08584155137768737 0.15062115455106467 0.18729700262846677 0.2623037938180587 0.5059585823628968 0.3693729633524082 0.9336664231355343 
Task40 0.00092282970337085 0.004298903854806219 0.0054929993721008165 0.0026058798630757287 0.5826333305433249 0.6684730886919354 0.5002257286704238 
Task41 0.067599178062962 0.39278217078782 0.2109582509911962 0.2955509678069225 0.7395625174675646 0.8482170716041957 0.9049954271375142 
Task42 0.0005094408581656383 0.0027514596190875776 0.0025585646079324433 0.0014293357509768693 0.9654127450338745 0.3918514330902084 0.6745571284070908 
Task43 0.020094460141949173 0.12908855868971886 0.027630962597512975 0.16156887625239513 0.5232723984811657 0.4796770821651368 0.6184518261125873 
Task44 0.0108833118155555 0.01859950283654305 0.016921669031191612 0.017365728933749144 0.8068021839013915 0.3968832831331802 0.8957469454693403 
Task45 0.025352043533641042 0.2820469675363522 0.27739829081420586 0.20456883462141684 0.3313098600678296 0.4900722226526987 0.8187127367836045 
Task46 0.025641719047678993 0.2156973748819686 0.3275760597761703 0.29962933615996157 0.6394866453324197 0.5495851908706897 0.3959743099885296 
Task47 3.605397683098673e-05 0.005099502329327429 0.0021710129641580546 0.005117069883683771 0.814554734684894 0.69617147816182 0.6544634042900821 
Task48 0.10003257693896687 0.2584756535601443 0.19911724080043514 0.1727709203439043 0.4240468777337422 0.8392582419432728 0.99261676717598 
Task49 0.054690483170966385 0.265853145193511 0.3443364064449238 0.08523344514161536 0.30042242630785654 0.8562413473762396 0.7198350126053549 
Task50 0.07871463905915216 0.015051624405003496 0.38257974069804324 0.27350255190321293 0.647630358146364 0.38789284261303053 0.9258175692304422 
Task51 0.0420613174603804 0.20595852886188676 0.07975127402537148 0.03222303025288924 0.6487727876308047 0.7859424138392662 0.39453156992163907 
Task52 0.11683482336383409 0.09816685900954045 0.4095534972626845 0.08884834069715228 0.5819365100747189 0.6940012181124036 0.35338501309623727 
Task53 0.013927591651089703 0.05534250690752185 0.07489325325911535 0.004318200632337437 0.6257893798742722 0.36361486587858594 0.9857085500850362 
Task54 0.0019546060143572175 0.010242883825518915 0.0031423633026018273 0.0009110807660758532 0.9192078038624498 0.38975923026463744 0.7353951478256266 
Task55 0.005509446968868177 0.08606608836359492 0.047543836334521916 0.002774149481724999 0.3596861051265931 0.3967931255262492 0.8295749289915224 
Task56 0.002593744859484127 0.014376002036296635 0.007959502455354418 0.01433693870328366 0.970483610075825 0.9735537149710172 0.5605411809040992 
Task57 0.037066895572156436 0.04781773461064341 0.1877584375063109 0.18456425664266987 0.9019048255378057 0.5912129193443878 0.8402399419630644 
Task58 0.10004940319624349 0.36648490983551996 0.03411526192849675 0.13620582437373902 0.986976769849311 0.5637801674484231 0.782885120118342 
Task59 0.03379448566032192 0.4478519449995542 0.33878179113257306 0.07245762603560471 0.7478035634737149 0.8907003509068332 0.7257515959413172 
Task60 7.528160991667336e-05 0.0012514292307837939 0.000773247616512238 0.0004096090118994234 0.477719287960908 0.4320375634898747 0.81553961201453 
Task61 0.00029561938001115303 0.5014672208127323 0.320986464564266 0.17313208710727654 0.5845309444370306 0.5977034200652267 0.5433860874020741 
Task62 0.016234016937180445 0.14840656413157588 0.10997682308833105 0.10183307688498273 0.6694061197847341 0.9683159040388418 0.7252835567278948 
Task63 0.10073184270953112 0.2843126383568573 0.2547428667858679 0.23026836883052176 0.5221857669855023 0.48785511177652086 0.41860478854877303 
Task64 0.004561354926710564 0.03480097955680312 0.019738645792598333 0.0020313098509032483 0.8646653093968131 0.5011945411020262 0.6440032191099063 
Task65 0.05754893140561164 0.10122147070962062 0.26908489931235874 0.188722138629636 0.8972192120097213 0.9426424810354967 0.5373959058782245 
Task66 0.01924856536187099 0.13433837617265476 0.18811419506807858 0.13165746997100986 0.7510904397711928 0.4165583346104407 0.9596806951099266 
Task67 0.012849391668223532 0.0364111309393914 0.0740406634541287 0.0650699715915444 0.9656111238251697 0.4341391389362675 0.7231724360899361 
Task68 0.06959048833921314 0.1368758021969914 0.11853293801690029 0.023053402011961273 0.3051415693164606 0.7119233133727438 0.5205740827525819 
Task69 0.01898295385333169 0.0777375177319962 0.134331937691037 0.005167122815997985 0.8939386695253939 0.570856236888847 0.4694274805717912 
Task70 0.05157745585325248 0.3435130922384287 0.13837149087513848 0.34953922498943685 0.6482595524432511 0.33876886400660616 0.6387316343087682 
Task71 0.06715291483291841 0.29226053940558216 0.3378262415501928 0.1250865292727876 0.7852537495693863 0.4366296278935815 0.8291042823214687 
Task72 0.17752726363611646 0.1762960053751917 0.42617585329030433 0.15321672054796243 0.9292182663588977 0.4535580516431857 0.8807974985036213 
Task73 0.05055908479199932 0.05427834743344288 0.5348460508676935 0.35875200163985727 0.8041009369069785 0.32594806257646525 0.7915264548699199 
Task74 0.013555691534090308 0.0731500527840479 0.25010828036521154 0.38166020790143135 0.563560754433591 0.5386322090392235 0.6324572342639813 
Task75 0.009235834553238594 0.013486003224452462 0.04697427038914039 0.09756786629463557 0.9993667060671731 0.8199796623774875 0.8398823056331843 
Task76 0.0005521851018884647 0.010372835400727554 0.00031782517950498866 0.012790717781757523 0.3613178923784796 0.5221070530860672 0.48106711270133956 
Task77 0.039932076504904976 0.06179809701155915 0.10177743366048095 0.12132229604767504 0.6242973467303263 0.4695664335434711 0.3158040406517474 
Task78 0.013110915992258148 0.7012748793259286 0.1661736744123389 0.002281257191863727 0.5094009611026173 0.5428231323788593 0.9476845414656878 
Task79 0.0016293638887994702 0.4102080325993599 0.13456823979905716 0.36701889720855635 0.7677533597002697 0.31369735132786897 0.49844652929039684 
Task80 0.013014728106654919 0.10383890815422493 0.016255370562291552 0.276459695277087 0.8316981851959755 0.9626008851110763 0.756510018685083 
Task81 0.014433388765029823 0.022748221823692214 0.02259579072155249 0.016755541993427003 0.30483735487523594 0.5537554124332611 0.812809418319723 
Task82 0.11389343038124429 0.08715908691981473 0.2625816641473467 0.20999618774316114 0.7149339476238256 0.9561179962259461 0.7620926958407057 
Task83 0.003506843637400235 0.12938999201761567 0.04110150962692833 0.053635845086597786 0.5183030230736732 0.5113350895973288 0.5160819414740583 
Task84 0.03334136817627676 0.06895907169208416 0.07234575659334079 0.03067932180080741 0.4300687843003258 0.950640116213954 0.46199651593171365 
Task85 0.025316785763015628 0.12338201507431103 0.05431175621576041 0.1241110924675423 0.8110142933515894 0.6422633207673173 0.7113407024132905 
Task86 0.06105774121203741 0.1482165368528624 0.15372875855818294 0.1292230191542057 0.3812424275657903 0.8774262442400742 0.5770504926848519 
Task87 0.008920188634645864 0.07708200605764613 0.17994728092933124 0.1312875937325135 0.8414331187955935 0.6652400929608133 0.5395286400789183 
Task88 0.050471356403559715 0.11358834381915828 0.108456787480107 0.03210409006137197 0.44547235684416414 0.518094569592874 0.3196218908379755 
Task89 0.03637596775515673 0.334198156116003 0.01843573854157926 0.3261682002581766 0.6908555648356203 0.6321510513182164 0.7257473720087082 
Task90 0.019246996780601114 0.12685063683424688 0.19034655509401913 0.037921465764490035 0.4895956790522949 0.31740415371185277 0.7394995496677343 
Task91 0.06041345679733502 0.15222277908043338 0.32296516320615387 0.26425545759120095 0.899652105296598 0.9049176582973155 0.43042406893505125 
Task92 0.007452727628195348 0.18950700369609536 0.08186397400408289 0.0016048953145194921 0.928843472479193 0.5108448364503915 0.4831739755319966 
Task93 0.0997300929966003 0.29731132064498356 0.29641101503114753 0.2543141440918029 0.39882038661432906 0.8752561548739466 0.8897614952379866 
Task94 0.06379050723486168 0.1279598054739761 0.2055067867730994 0.13641896069728843 0.7847880181204956 0.6188376180738542 0.8518185867967196 
Task95 0.06097860720809756 0.12322994138596396 0.0043693385240005 0.15408965554336074 0.9590228001893844 0.4337560270593904 0.9306667023716968 
Task96 0.09201269085185011 0.28883699068973356 0.1975760946690409 0.24692716533523057 0.5649657454088326 0.3662716122088992 0.5498909931775771 
Task97 0.08291902811239298 0.1438929441406559 0.0211839467790208 0.4036628513748106 0.6435151850005768 0.8639221730053925 0.7578020810960855 
Task98 0.0829649703666765 0.1178524436703777 0.11163989595431457 0.2526853713363269 0.5902408681298275 0.7391456568365783 0.7106777352704585 
Task99 0.08270815784790535 0.022478262706954674 0.24722982685405492 0.28244450882948496 0.8612150822324718 0.8546204235163593 0.6702498840844604 
