Task0 0.12726191135960963 0.2615085247462797 0.17658767146600787 0.23398530170592985 0.8124957545796383 0.7444833853045911 0.7985197991148173 
Task1 0.06644256539535386 0.052754445679618095 0.1391557470262439 0.07991208163713442 0.9029519031838866 0.7410342134073618 0.9310536660718871 
Task2 0.08731796850569062 0.24285912665776385 0.36073287534506787 0.056663518017865906 0.5100131660448853 0.42059897958652925 0.6120823699793861 
Task3 0.0026837687835408732 0.5844232990695851 0.0639019953974868 0.2846545932074129 0.9659836115510569 0.996468614024012 0.5357096334932375 
Task4 0.039648071027104104 0.06312198584290554 0.09905115859855039 0.05218420322680683 0.5780143653229235 0.7691804373338353 0.9559770415772495 
Task5 0.03558737689474554 0.006904527808837882 0.24633811189938296 0.30019416651580616 0.33160935899643823 0.8974155526143335 0.5615599028196625 
Task6 0.11980401997662385 0.10383655647307938 0.23434305251118037 0.3068883971315938 0.9629858650901368 0.9716908674976394 0.7558330703109276 
Task7 0.09533688769023077 0.20691786202192386 0.35138493891953976 0.16952621855644476 0.43828975911814594 0.5155854000094577 0.3070433153132315 
Task8 0.00018483514800763924 0.19746183861193428 0.22050740995052037 0.02344942788838741 0.5750065092379091 0.6304236200655275 0.9443241052580069 
Task9 0.04055058385970271 0.12729558110659023 0.15525405525799527 0.4013577831348075 0.8938968568146133 0.5097727766627289 0.3808158988489196 
Task10 0.0026922539032169426 0.07481808728300973 0.09535939660510218 0.04723056771830982 0.7696539681868129 0.9592218593256054 0.6516214452163667 
Task11 0.14835381343345394 0.30540430232074645 0.08301019293623627 0.2443875197234421 0.5394696113030109 0.3637681332552049 0.8623833805152972 
Task12 0.17283865396291873 0.2502094672014401 0.25689371684775625 0.2568945576206161 0.36633480616753933 0.6218782694564008 0.8659038670663808 
Task13 0.006197638240838755 0.333638421828844 0.0770826245733184 0.23236105407021748 0.5430818222796248 0.3499895388740211 0.7906783316832422 
Task14 0.1400357427472913 0.18649974628684096 0.23081046990186085 0.22992693423311839 0.9738141026426461 0.49913429335170856 0.933064259344434 
Task15 0.05132796748101295 0.0888992021134357 0.04653706902719717 0.09086580700594128 0.40532896336141355 0.5088511962223441 0.995317532728319 
Task16 0.15774332697886653 0.21116422202649754 0.27682739536944 0.31769353303044084 0.420503691399151 0.6097108189783172 0.6751224001939387 
Task17 0.005579929617209045 0.007739050627620149 0.012545000952839261 0.0055785734342371366 0.7198565931943779 0.8632069807611014 0.3607754582806037 
Task18 0.015083434275975307 0.074814194384585 0.05467753475806862 0.012564837943502756 0.5765426255563326 0.7755623721988278 0.5594664755146825 
Task19 0.10344310255226936 0.4756116213165592 0.05769895791060759 0.18529677199542452 0.9381673386058922 0.5841321157815589 0.9279264849330604 
Task20 0.0011731094411701652 0.12920847724343024 0.04173035619246424 0.01626560388837548 0.3179457058047453 0.5156254113050753 0.4375546047099156 
Task21 0.07195498385051782 0.021760680846912323 0.22752816848594976 0.547920250838193 0.727072544304944 0.7992164846174457 0.932362422166567 
Task22 0.04403397392411086 0.07713275394746885 0.05690235437494899 0.07912999619766006 0.7889794899895362 0.8821067901450101 0.7569839377243031 
Task23 0.09990076591930633 0.21655332514328246 0.0060261448880705335 0.4681489208635062 0.4684375827291978 0.6470232496428344 0.30967394278708116 
Task24 0.061131798076917376 0.00445452248187089 0.17509923575480565 0.11368668092222808 0.4976452174869845 0.4908776272958352 0.8140275864410969 
Task25 0.06078883910534786 0.10089184788683168 0.0691585330223846 0.09199923032104032 0.5306735119254644 0.5249587062785437 0.45646257765359616 
Task26 0.00047509107332864136 0.008790990401651488 0.004255501087555921 0.0006078796470330712 0.9742654615865916 0.5304121433309469 0.4240143200431159 
Task27 0.04747433355397936 0.045349269228873945 0.12555418236966528 0.11571359848333816 0.40136222126121995 0.9729955341125935 0.6084920003982768 
Task28 0.026922089897924467 0.11261176985749534 0.15490639464200873 0.022523802555491884 0.7064696045031887 0.6111033309580406 0.45870212121446663 
Task29 0.07674921904550039 0.2540078344482824 0.23539601529464352 0.03770948145381906 0.8483218194194033 0.9627898068006986 0.6929263730234729 
Task30 0.09165688544001943 0.33973073814400173 0.2090387067634531 0.00837947814547957 0.64063055343015 0.7449129271822447 0.7328008726364543 
Task31 0.0586412075800006 0.11000630516627484 0.2366830772625164 0.20184677659928799 0.930256793815152 0.6818728055196787 0.3934207219896582 
Task32 0.024995171465120026 0.17212221809268485 0.09426494967891506 0.10678173738406448 0.4621561177079149 0.9920665584791128 0.8097191261048178 
Task33 0.12015437191164532 0.18276876298237876 0.12490490194653685 0.3143004091739413 0.422317829465403 0.6811637120175803 0.40006558460745334 
Task34 0.05011978866878479 0.07890982742842372 0.11720873044163135 0.23450842758092527 0.5620967420588356 0.8414324625575831 0.9312743558813767 
Task35 0.18592241061541304 0.12024461118916104 0.42359845149231257 0.24242137279107603 0.9089276418150611 0.3328961621926368 0.5678129344109878 
Task36 0.034168784264596394 0.38656994396447814 0.17518427056152025 0.29102451719429956 0.6157270045086786 0.7239234391583709 0.4673031576044117 
Task37 0.04800726254668974 0.17873299831271286 0.08136305802953628 0.1783490600021844 0.8474462264504348 0.9256932554855526 0.551894482776953 
Task38 0.028903818930433728 0.36807232080460955 0.038795716039302604 0.34542539938410605 0.6299214519948032 0.9183651691034644 0.4310964603576086 
Task39 0.02402576916378156 0.026918064733155413 0.1247515204266322 0.1443224396308296 0.46519757719089694 0.817742300972712 0.6462557396643904 
Task40 0.0065124866129408245 0.011772076192965712 0.12626487414111454 0.08768646957840007 0.7407958895237143 0.8720422303009261 0.7857721848650885 
Task41 0.09182060012580436 0.558456565017298 0.004097426287612702 0.2078523517117194 0.7688796189450762 0.7906281227353171 0.30645561804795707 
Task42 0.16724378387989036 0.29297494266377677 0.2476795884535231 0.2580559392797596 0.6748438421321956 0.7428484073705213 0.8839569933738463 
Task43 0.07312414931874367 0.06594757397313442 0.15418738100106882 0.222207316545488 0.7432029181899327 0.44378300182203867 0.427335002545845 
Task44 0.03560502095249879 0.14682716386386002 0.13382145508564391 0.47264003678900013 0.8313944459403897 0.790780536071459 0.8624454469447527 
Task45 0.05649547069126347 0.3096371015631561 0.06688179730276035 0.1799314804594299 0.6406824913406164 0.5905032773106165 0.3570731756243368 
Task46 0.08771878093446674 0.16190802928702183 0.4489489339608488 0.020721558013842012 0.9946326076669199 0.31650265930772314 0.9517988850716264 
Task47 0.04145023355881693 0.02024104189354929 0.04787662429581293 0.2423555903059784 0.8790834903817419 0.3064538058917745 0.8058552788741671 
Task48 0.08208417743741196 0.3697104293060335 0.354054932504677 0.09479950827752301 0.4044594696826712 0.536662212785848 0.45892157218121427 
Task49 0.017604368760270408 0.062309711653238196 0.07788115992125194 0.021026479611536045 0.9871695234519777 0.3686227794378059 0.43948751082146753 
Task50 0.0035733616441501535 0.006276677425419315 0.0014082603123075814 0.007575200445035019 0.6811209194759298 0.7137077888060266 0.7639306206998775 
Task51 0.12284821132406404 0.26419822493844536 0.13771245294892118 0.09539832665963949 0.33700168737307906 0.8670484765032207 0.777260102633279 
Task52 0.0224272090869393 0.24943117863770248 0.390019113560166 0.20273148885735315 0.8314453136758879 0.8588702116147913 0.9923823001804761 
Task53 0.0733337717408582 0.2862844826272685 0.005754252593172198 0.18374169809612195 0.91269233632101 0.71978156182009 0.7836634793894999 
Task54 0.03529237945349518 0.11704062513150594 0.05835166047578049 0.09164276391548552 0.6575024913938808 0.821456598911863 0.8671174427263619 
Task55 0.04485891863970009 0.08024697175313655 0.24507479007867172 0.22197473593240075 0.42422665234939405 0.5525033704623279 0.8204042495746744 
Task56 0.02225940310716981 0.1006054017559833 0.03533976184047122 0.048971398228294584 0.49164363890544516 0.522230542765833 0.7419271657610311 
Task57 0.06668473923299593 0.1205196387031368 0.5077898880582029 0.30254763037830296 0.6160833412610482 0.8261299537759224 0.44797270022627417 
Task58 0.025180747134391477 0.5114777204588186 0.03362968672170116 0.14795651892608686 0.8229353050515238 0.5559370327378281 0.9367780936343053 
Task59 0.06324638798850775 0.07561602590051064 0.13144239900166782 0.17120979716629994 0.7296344224977237 0.8440745988979517 0.3920018892915043 
Task60 0.029758499240610525 0.08862679360424569 0.03263104365987884 0.3410682929724753 0.7817367239840324 0.9741816602503064 0.313088240238275 
Task61 0.005493670349562886 0.0062104889023391445 0.007345981712386445 0.02410282965021004 0.37979010064362506 0.5137442913302351 0.8435688139477469 
Task62 0.02388220485188798 0.1898567381235856 0.032657189340482576 0.2625362570581358 0.5473738187883026 0.9836435418099527 0.9640178515025288 
Task63 0.12054677174636941 0.17635794702492036 0.17189615854755005 0.20124112602920977 0.9616867378286642 0.5425976324529903 0.5757775252317681 
Task64 0.027464396601040598 0.19293823133254032 0.16687817315571649 0.1621896941040938 0.6490192539064249 0.4598988822254378 0.45910083395513823 
Task65 0.05591916518396258 0.07669160982760674 0.20462313531143342 0.05622024248568571 0.6336545952579657 0.7702253294480776 0.5915802398416267 
Task66 0.11808847476997558 0.2106644308115381 0.26988366206738 0.05685847975730322 0.8289214935076765 0.49008631391461366 0.36078428431289666 
Task67 0.09356966946108856 0.18291728893748083 0.3811317359731347 0.11716491376223723 0.38893444321578685 0.9373831912740942 0.700733194831282 
Task68 0.07578284602001277 0.14077916741476695 0.038681151867468816 0.17426983612990252 0.8743967099815435 0.602817537840786 0.6768294006240545 
Task69 0.014694289731154478 0.24810969872150945 0.0764335093383128 0.13794150079589432 0.6389518734598026 0.4710480886181032 0.7048498983549261 
Task70 0.04214190357680237 0.0500126813626024 0.06480720242940319 0.06825159556964587 0.5264095121761507 0.4628544476094536 0.31274292555637323 
Task71 0.087527915560357 0.07331333571951752 0.24416330145697754 0.21848398542601274 0.4048071294203731 0.5066991243424284 0.5467321150268672 
Task72 0.025128706305735438 0.23846024588772288 0.20406382894888578 0.45100729160110575 0.9423040919011465 0.9319453860369871 0.9107485814061143 
Task73 0.0063749447281732 0.15058842765532374 0.03776317091877987 0.004523295432703456 0.8383704065549655 0.8693411843614325 0.6798292916333778 
Task74 0.07993532060660463 0.11692616716115962 0.08105691742732875 0.144027970379789 0.3251290910923698 0.7866699613551065 0.9522164669671096 
Task75 0.001587847505039723 0.0639866850268809 0.15229129415455706 0.1487865603388334 0.3983112752950796 0.860210781564049 0.7768919361555994 
Task76 0.11341185170452181 0.09815325464428436 0.09122753866734286 0.4411447949864122 0.6888084851642781 0.3728228634405869 0.9294972236364527 
Task77 0.09180481306808215 0.2566726562482434 0.22757458608650616 0.06321644940369185 0.6814110789964634 0.6939805265871892 0.39010939731066213 
Task78 0.09923973892749889 0.3469782237249728 0.29624550816190964 0.11706039109832678 0.3274598497181372 0.9472391131372471 0.6515526471262321 
Task79 0.03676885839612565 0.08616040744309868 0.08764276584212345 0.030199749159999654 0.6951666510165969 0.4008505816937997 0.9403925790100878 
Task80 0.011196361732276132 0.007171063058338385 0.048221988846559496 0.004944101239348913 0.35312101197256135 0.8656516326294545 0.456770307821276 
Task81 0.003314151087506156 0.032742318154920486 0.26912797309850717 0.3028195910226598 0.5870643529434831 0.5799519988738584 0.6841166100463218 
Task82 0.07712982385667079 0.24861485607109582 0.10808267741140011 0.28570778683931836 0.4071555785147009 0.6825373278529793 0.43459798066050737 
Task83 0.06002953130864044 0.2598139113987236 0.16073852699945107 0.10599872947689253 0.5476849357742908 0.9148027281872897 0.5034412169257548 
Task84 0.0004207214922570287 0.11353357053949552 0.1590546985882413 0.04692381801062415 0.32086785504312454 0.43536939742768466 0.9401394665983329 
Task85 0.0028843234515145417 0.04637681802292257 0.039678521063846534 0.021399772858689 0.714560148199936 0.7867991319780889 0.9027933565435458 
Task86 0.06115700318529157 0.322225300802813 0.01287080888218769 0.19266613606438932 0.44962761937487505 0.6856003290725492 0.6456490240424377 
Task87 0.15080517845965066 0.28168605254629125 0.39971218145497456 0.1004370468743543 0.5103168928032602 0.35797584385883047 0.71605456485119 
Task88 0.07269795426289884 0.2771486697785532 0.16757385948133344 0.30922294664452765 0.3579631438067925 0.36453469111742837 0.32674588300031976 
Task89 0.1302866018065717 0.5081786999139662 0.048569799816733185 0.07147856157435678 0.8642455340847945 0.9662834039559409 0.4048557056848867 
Task90 0.055362479776109204 0.011975441750522963 0.09383333747525427 0.1225848799238485 0.7046260400745508 0.6425171665932612 0.7014803421623967 
Task91 0.013180925632624461 0.039727337832101806 0.0383003516951842 0.060998404387850036 0.9796428041358272 0.9891167257189806 0.43210170372484646 
Task92 0.05493479129238014 0.04252008965279813 0.11871571907655368 0.07360130111177764 0.47398980337357205 0.5782162457747435 0.7290477806679112 
Task93 0.03824675058993297 0.13574634578906047 0.22179291740263635 0.10540554782723728 0.4754684017982721 0.6641523617231919 0.718667603977569 
Task94 0.006163110780121498 0.09754820877287665 0.2324413894230297 0.27930790904883407 0.31740325265262354 0.7051187997134354 0.5076951114118717 
Task95 0.15804639950101587 0.23360812627839664 0.09869442413602725 0.3376673388388858 0.9450031780061063 0.7358684887502829 0.6217188023094578 
Task96 0.006145987584196545 0.1514948153216534 0.014376869174351279 0.01079953457184593 0.7575831969609039 0.6827582953162964 0.739298605936297 
Task97 0.04549663572833404 0.11588374626386526 0.1658717922398483 0.1465206132926541 0.872330028989325 0.9889847810095316 0.4189759126888852 
Task98 0.015246825885960874 0.294589888486233 0.2748569771326071 0.061471601537010985 0.7050713173066765 0.9957676343376405 0.4661108196158461 
Task99 0.09805879976309269 0.2087409977019139 0.18958890476285334 0.20940847328302628 0.6670615541985336 0.39567222990130047 0.5306383287078482 
