files/tasks_parameters/ExAp01/sample8.txt 1.69359 6.77015 2.19458 0.288816 4.65649
files/tasks_parameters/ExAp01/sample12.txt 2.05592 9.58351 2.46081 0.337498 5.44137
files/tasks_parameters/ExAp01/sample2.txt 1.88621 8.44418 2.50701 0.319127 5.14518
files/tasks_parameters/ExAp01/sample44.txt 1.6779 6.96299 2.23089 0.28229 4.55127
files/tasks_parameters/ExAp01/sample27.txt 1.70881 7.74306 2.16676 0.28602 4.6114
files/tasks_parameters/ExAp01/sample17.txt 1.73189 7.35053 2.25579 0.292348 4.71342
files/tasks_parameters/ExAp01/sample9.txt 1.65548 6.89392 2.21068 0.282399 4.55302
files/tasks_parameters/ExAp01/sample34.txt 1.79553 6.62788 2.3772 0.297742 4.80039
files/tasks_parameters/ExAp01/sample40.txt 1.70557 7.75686 2.17534 0.285619 4.60494
files/tasks_parameters/ExAp01/sample33.txt 2.02796 8.14826 2.6463 0.338073 5.45064
files/tasks_parameters/ExAp01/sample48.txt 1.61785 7.64107 2.14272 0.270011 4.3533
files/tasks_parameters/ExAp01/sample29.txt 1.67813 7.139 1.93769 0.286306 4.61601
files/tasks_parameters/ExAp01/sample11.txt 1.63715 6.88688 2.12981 0.280008 4.51448
files/tasks_parameters/ExAp01/sample14.txt 1.47213 6.11983 1.97599 0.247458 3.98967
files/tasks_parameters/ExAp01/sample0.txt 1.72826 8.2738 2.14256 0.289132 4.66157
files/tasks_parameters/ExAp01/sample7.txt 1.60491 6.87011 2.05821 0.269886 4.35127
files/tasks_parameters/ExAp01/sample23.txt 1.74232 6.52032 2.38087 0.291712 4.70317
files/tasks_parameters/ExAp01/sample13.txt 1.78534 8.73247 2.33415 0.295393 4.76251
files/tasks_parameters/ExAp01/sample22.txt 1.70115 6.9777 2.28948 0.283979 4.5785
files/tasks_parameters/ExAp01/sample25.txt 1.61278 6.23444 2.2122 0.267298 4.30955
files/tasks_parameters/ExAp01/sample36.txt 1.56423 6.6174 1.9458 0.253823 4.0923
files/tasks_parameters/ExAp01/sample46.txt 1.92215 7.42369 2.49128 0.327273 5.27651
files/tasks_parameters/ExAp01/sample31.txt 1.54509 7.22028 2.13584 0.25377 4.09144
files/tasks_parameters/ExAp01/sample37.txt 1.83987 8.90704 2.16981 0.295708 4.7676
files/tasks_parameters/ExAp01/sample16.txt 1.53109 8.18243 1.88294 0.24945 4.02179
files/tasks_parameters/ExAp01/sample10.txt 1.7148 6.96646 2.31217 0.285748 4.60702
files/tasks_parameters/ExAp01/sample39.txt 1.51376 6.4161 1.97266 0.251967 4.06237
files/tasks_parameters/ExAp01/sample19.txt 1.88418 8.16711 2.23199 0.308463 4.97324
files/tasks_parameters/ExAp01/sample20.txt 1.53809 7.28549 1.88944 0.25994 4.19092
files/tasks_parameters/ExAp01/sample43.txt 1.52099 6.86804 2.00142 0.25616 4.12998
files/tasks_parameters/ExAp01/sample32.txt 1.7262 8.15663 2.12995 0.281726 4.54218
files/tasks_parameters/ExAp01/sample45.txt 1.67362 7.75184 2.10599 0.274935 4.43268
files/tasks_parameters/ExAp01/sample26.txt 1.57463 7.4944 1.88956 0.267248 4.30875
files/tasks_parameters/ExAp01/sample5.txt 1.69315 8.08362 2.09961 0.28454 4.58755
files/tasks_parameters/ExAp01/sample21.txt 1.5439 6.11814 2.17119 0.26143 4.21494
files/tasks_parameters/ExAp01/sample38.txt 1.57654 7.761 1.96293 0.263659 4.25088
files/tasks_parameters/ExAp01/sample1.txt 1.72593 7.83752 2.13261 0.289228 4.66313
files/tasks_parameters/ExAp01/sample15.txt 1.71076 7.37971 2.12057 0.285825 4.60826
files/tasks_parameters/ExAp01/sample24.txt 1.77905 8.28531 2.25272 0.296628 4.78244
files/tasks_parameters/ExAp01/sample3.txt 1.80117 7.33359 2.39135 0.305084 4.91877
files/tasks_parameters/ExAp01/sample6.txt 1.70189 7.09894 2.24425 0.281804 4.54343
files/tasks_parameters/ExAp01/sample30.txt 1.86397 8.17669 2.03701 0.299204 4.82397
files/tasks_parameters/ExAp01/sample42.txt 1.78951 7.70416 2.42413 0.29743 4.79536
files/tasks_parameters/ExAp01/sample4.txt 1.89052 7.41691 2.36261 0.307803 4.9626
files/tasks_parameters/ExAp01/sample28.txt 1.58045 7.0562 2.07657 0.266428 4.29553
files/tasks_parameters/ExAp01/sample18.txt 1.62914 7.60139 2.1377 0.268016 4.32113
files/tasks_parameters/ExAp01/sample35.txt 1.9404 9.66795 2.28028 0.32244 5.19858
files/tasks_parameters/ExAp01/sample47.txt 1.51545 6.84842 2.12104 0.251655 4.05734
files/tasks_parameters/ExAp01/sample49.txt 1.52094 7.1497 2.11412 0.255889 4.12561
files/tasks_parameters/ExAp01/sample41.txt 1.53981 6.59911 2.07359 0.265885 4.28678
