0.39614083000000005
Task0 127 15 255 
Task1 63 31 255 
Task2 255 1 255 
Task3 31 255 63 
Task4 255 3 7 
Task5 255 31 127 
Task6 255 255 3 
Task7 31 255 31 
Task8 3 255 7 
Task9 15 127 7 
Task10 1 255 31 
Task11 15 127 255 
Task12 255 15 63 
Task13 3 127 255 
Task14 63 63 255 
Task15 1 255 1 
Task16 7 7 255 
Task17 127 255 127 
Task18 127 63 31 
Task19 1 255 63 
Task20 255 7 127 
Task21 7 255 7 
Task22 255 255 63 
Task23 255 255 15 
Task24 15 63 255 
Task25 63 1 63 
Task26 127 255 31 
Task27 255 255 127 
Task28 15 3 255 
Task29 255 15 15 
Task30 127 255 255 
Task31 127 63 31 
Task32 31 255 31 
Task33 255 127 15 
Task34 63 31 255 
Task35 7 255 255 
Task36 15 255 31 
Task37 63 3 255 
Task38 7 63 255 
Task39 255 31 63 
Task40 15 255 7 
Task41 31 255 15 
Task42 255 3 3 
Task43 15 63 63 
Task44 127 31 1 
Task45 255 15 1 
Task46 63 255 63 
Task47 127 255 127 
Task48 31 31 255 
Task49 255 63 255 
Task50 7 255 127 
Task51 63 255 255 
Task52 31 255 255 
Task53 1 31 255 
Task54 127 127 7 
Task55 15 1 255 
Task56 127 1 31 
Task57 15 255 127 
Task58 255 255 127 
Task59 31 63 63 
Task60 15 127 127 
Task61 63 31 255 
Task62 127 255 127 
Task63 255 3 7 
Task64 7 255 3 
Task65 63 7 63 
Task66 127 255 31 
Task67 15 63 127 
Task68 127 31 15 
Task69 127 255 15 
Task70 255 63 255 
Task71 255 7 31 
Task72 7 255 3 
Task73 127 255 63 
Task74 31 127 255 
Task75 255 127 63 
Task76 63 127 127 
Task77 63 127 31 
Task78 255 63 63 
Task79 15 255 31 
Task80 63 255 15 
Task81 255 127 31 
Task82 31 255 31 
Task83 31 255 63 
Task84 7 127 15 
Task85 255 31 63 
Task86 15 15 255 
Task87 255 7 7 
Task88 31 31 127 
Task89 7 255 63 
Task90 31 31 255 
Task91 63 127 127 
Task92 255 3 15 
Task93 127 127 127 
Task94 31 15 255 
Task95 255 3 63 
Task96 1 7 255 
Task97 255 15 15 
Task98 127 63 127 
Task99 127 127 15 
