0.36733957
Task0 63 63 255 
Task1 255 255 255 
Task2 127 15 63 
Task3 127 255 255 
Task4 63 15 7 
Task5 31 15 31 
Task6 7 31 7 
Task7 255 127 127 
Task8 7 1 63 
Task9 63 3 63 
Task10 1 1 31 
Task11 1 3 31 
Task12 31 7 7 
Task13 63 7 15 
Task14 31 3 63 
Task15 127 255 255 
Task16 63 1 3 
Task17 63 3 7 
Task18 63 15 63 
Task19 31 31 15 
Task20 7 63 7 
Task21 3 63 7 
Task22 15 63 63 
Task23 63 15 31 
Task24 63 7 7 
Task25 255 63 63 
Task26 1 31 7 
Task27 15 63 7 
Task28 63 15 1 
Task29 63 1 15 
Task30 31 15 31 
Task31 1 7 63 
Task32 63 7 3 
Task33 63 15 31 
Task34 1 1 31 
Task35 255 255 127 
Task36 127 127 255 
Task37 31 63 3 
Task38 31 3 3 
Task39 63 31 15 
Task40 255 255 127 
Task41 127 31 63 
Task42 31 7 31 
Task43 15 63 3 
Task44 31 31 127 
Task45 31 15 7 
Task46 31 63 31 
Task47 31 1 3 
Task48 15 31 31 
Task49 63 15 3 
Task50 63 7 15 
Task51 31 7 7 
Task52 15 15 63 
Task53 1 7 63 
Task54 7 63 7 
Task55 3 63 15 
Task56 255 31 31 
Task57 255 127 255 
Task58 1 63 1 
Task59 1 31 63 
Task60 63 1 7 
Task61 15 31 7 
Task62 63 3 15 
Task63 127 255 15 
Task64 63 3 127 
Task65 63 1 1 
Task66 15 3 63 
Task67 15 3 63 
Task68 63 63 255 
Task69 1 63 15 
Task70 63 15 1 
Task71 15 7 31 
Task72 31 63 127 
Task73 15 63 15 
Task74 15 31 7 
Task75 31 3 63 
Task76 1 1 63 
Task77 255 15 63 
Task78 63 15 7 
Task79 7 63 7 
Task80 7 63 7 
Task81 31 31 3 
Task82 63 15 31 
Task83 31 63 31 
Task84 1 3 31 
Task85 63 31 63 
Task86 63 31 255 
Task87 127 63 31 
Task88 63 7 7 
Task89 63 7 31 
Task90 31 7 7 
Task91 63 31 7 
Task92 63 15 3 
Task93 63 15 7 
Task94 127 7 63 
Task95 3 31 7 
Task96 3 63 127 
Task97 63 31 63 
Task98 15 3 63 
Task99 7 31 3 
