0.33058077999999996
Task0 1 255 3 
Task1 1 31 255 
Task2 255 31 31 
Task3 31 63 1 
Task4 3 15 1 
Task5 15 63 31 
Task6 15 1 7 
Task7 15 15 7 
Task8 15 255 31 
Task9 7 31 31 
Task10 63 63 63 
Task11 63 7 3 
Task12 3 15 3 
Task13 63 15 31 
Task14 127 63 255 
Task15 31 7 31 
Task16 1 31 3 
Task17 7 31 15 
Task18 127 127 15 
Task19 7 31 1 
Task20 7 255 3 
Task21 7 1 31 
Task22 31 63 15 
Task23 255 7 63 
Task24 15 15 3 
Task25 63 1 3 
Task26 255 15 1 
Task27 255 255 31 
Task28 127 7 255 
Task29 15 63 31 
Task30 63 255 63 
Task31 31 31 15 
Task32 63 1 15 
Task33 15 15 63 
Task34 15 255 1 
Task35 127 63 31 
Task36 31 15 1 
Task37 7 1 255 
Task38 1 31 15 
Task39 7 31 7 
Task40 63 1 1 
Task41 63 31 63 
Task42 3 7 255 
Task43 7 255 7 
Task44 1 15 31 
Task45 15 63 15 
Task46 15 15 15 
Task47 7 63 7 
Task48 15 15 15 
Task49 31 1 7 
Task50 31 15 15 
Task51 7 31 7 
Task52 7 31 31 
Task53 127 1 127 
Task54 15 15 31 
Task55 63 255 3 
Task56 31 255 63 
Task57 7 63 127 
Task58 63 63 15 
Task59 15 31 63 
Task60 31 15 15 
Task61 31 63 3 
Task62 15 15 15 
Task63 63 31 31 
Task64 31 3 31 
Task65 31 63 7 
Task66 15 255 63 
Task67 63 15 255 
Task68 31 7 255 
Task69 127 3 63 
Task70 127 255 255 
Task71 127 31 63 
Task72 15 255 63 
Task73 255 31 7 
Task74 63 31 63 
Task75 7 7 255 
Task76 3 63 31 
Task77 3 31 63 
Task78 15 7 7 
Task79 15 7 255 
Task80 31 31 3 
Task81 63 63 7 
Task82 127 63 255 
Task83 63 31 15 
Task84 7 3 15 
Task85 1 3 63 
Task86 15 31 255 
Task87 3 7 31 
Task88 15 3 63 
Task89 255 7 1 
Task90 1 31 3 
Task91 255 1 127 
Task92 7 15 63 
Task93 3 255 15 
Task94 7 63 127 
Task95 3 1 15 
Task96 15 31 7 
Task97 31 7 63 
Task98 15 15 63 
Task99 31 3 15 
