files/tasks_parameters/ExAp01/sample8.txt 0.787315 3.15778 1.5595 0.203411 4.97279
files/tasks_parameters/ExAp01/sample12.txt 0.809878 3.94962 1.6705 0.207924 5.08312
files/tasks_parameters/ExAp01/sample2.txt 0.796313 3.78275 1.74131 0.200098 4.89179
files/tasks_parameters/ExAp01/sample44.txt 0.683468 3.59825 1.65317 0.200005 4.88953
files/tasks_parameters/ExAp01/sample27.txt 0.69922 3.45743 1.5148 0.182129 4.4525
files/tasks_parameters/ExAp01/sample17.txt 0.925109 2.77299 1.44514 0.14646 3.5805
files/tasks_parameters/ExAp01/sample9.txt 0.745756 2.99933 1.451 0.177444 4.33796
files/tasks_parameters/ExAp01/sample34.txt 0.831645 3.02928 1.58429 0.157984 3.86223
files/tasks_parameters/ExAp01/sample40.txt 0.765128 3.86889 1.52122 0.168379 4.11637
files/tasks_parameters/ExAp01/sample33.txt 0.801522 3.63695 1.71905 0.199765 4.88366
files/tasks_parameters/ExAp01/sample48.txt 0.682426 3.39061 1.49062 0.154728 3.78264
files/tasks_parameters/ExAp01/sample29.txt 0.726966 3.30472 1.38739 0.223868 5.47291
files/tasks_parameters/ExAp01/sample11.txt 0.707448 3.10585 1.41612 0.174079 4.2557
files/tasks_parameters/ExAp01/sample14.txt 0.659564 2.70971 1.43432 0.162214 3.96566
files/tasks_parameters/ExAp01/sample0.txt 0.7437 3.6937 1.5439 0.18367 4.49018
files/tasks_parameters/ExAp01/sample7.txt 0.809856 2.70501 1.42221 0.143463 3.50725
files/tasks_parameters/ExAp01/sample23.txt 0.759293 3.2697 1.57822 0.181448 4.43587
files/tasks_parameters/ExAp01/sample13.txt 0.729548 3.84225 1.67648 0.198247 4.84655
files/tasks_parameters/ExAp01/sample22.txt 0.901802 3.09569 1.56121 0.148796 3.63762
files/tasks_parameters/ExAp01/sample25.txt 0.746637 2.73966 1.5007 0.148149 3.62179
files/tasks_parameters/ExAp01/sample36.txt 0.849347 2.85948 1.28553 0.130042 3.17914
files/tasks_parameters/ExAp01/sample46.txt 0.761979 3.58643 1.69998 0.210103 5.13638
files/tasks_parameters/ExAp01/sample31.txt 0.705039 3.4832 1.53782 0.1722 4.20977
files/tasks_parameters/ExAp01/sample37.txt 0.772494 3.95293 1.50705 0.171701 4.19758
files/tasks_parameters/ExAp01/sample16.txt 0.616502 3.31216 1.30115 0.150249 3.67314
files/tasks_parameters/ExAp01/sample10.txt 1.10417 3.17098 1.61789 0.153776 3.75937
files/tasks_parameters/ExAp01/sample39.txt 0.699412 3.26617 1.44406 0.165669 4.05011
files/tasks_parameters/ExAp01/sample19.txt 0.780372 3.63532 1.52509 0.196094 4.79392
files/tasks_parameters/ExAp01/sample20.txt 0.662661 3.20793 1.25367 0.147335 3.60191
files/tasks_parameters/ExAp01/sample43.txt 0.646596 3.11551 1.4202 0.150644 3.68281
files/tasks_parameters/ExAp01/sample32.txt 0.722684 3.5311 1.42482 0.168744 4.12529
files/tasks_parameters/ExAp01/sample45.txt 0.737612 3.80283 1.48324 0.19807 4.84223
files/tasks_parameters/ExAp01/sample26.txt 0.654987 3.21645 1.29701 0.166061 4.0597
files/tasks_parameters/ExAp01/sample5.txt 0.663783 3.5889 1.52559 0.178903 4.37365
files/tasks_parameters/ExAp01/sample21.txt 0.661242 2.75242 1.55936 0.19512 4.77011
files/tasks_parameters/ExAp01/sample38.txt 0.676658 3.31563 1.37515 0.166157 4.06204
files/tasks_parameters/ExAp01/sample1.txt 0.723901 3.74964 1.51696 0.19701 4.8163
files/tasks_parameters/ExAp01/sample15.txt 0.69299 3.32916 1.48508 0.180707 4.41776
files/tasks_parameters/ExAp01/sample24.txt 0.861271 3.45951 1.59549 0.16529 4.04086
files/tasks_parameters/ExAp01/sample3.txt 0.953801 3.70014 1.70809 0.237107 5.79656
files/tasks_parameters/ExAp01/sample6.txt 0.730089 3.33003 1.58323 0.184714 4.51572
files/tasks_parameters/ExAp01/sample30.txt 0.887127 4.1841 1.4861 0.239623 5.85807
files/tasks_parameters/ExAp01/sample42.txt 0.747833 3.43221 1.70276 0.177383 4.33648
files/tasks_parameters/ExAp01/sample4.txt 0.782408 3.72477 1.6136 0.196448 4.80257
files/tasks_parameters/ExAp01/sample28.txt 0.689545 3.11323 1.45032 0.158819 3.88265
files/tasks_parameters/ExAp01/sample18.txt 0.769617 3.47418 1.45209 0.149064 3.64417
files/tasks_parameters/ExAp01/sample35.txt 0.803356 4.57086 1.49394 0.185031 4.52345
files/tasks_parameters/ExAp01/sample47.txt 0.71183 3.13768 1.52397 0.16417 4.01347
files/tasks_parameters/ExAp01/sample49.txt 0.776571 3.13288 1.49657 0.156154 3.8175
files/tasks_parameters/ExAp01/sample41.txt 0.763205 2.81964 1.49636 0.150876 3.68847
