digraph G {
0 ->11 0 ->12 1 ->9 1 ->11 2 ->9 2 ->12 3 ->10 3 ->11 3 ->12 4 ->11 6 ->10 6 ->13 7 ->9 8 ->9 8 ->10 9 ->18 9 ->19 9 ->23 10 ->17 10 ->19 10 ->22 10 ->23 11 ->15 11 ->17 11 ->18 11 ->20 12 ->14 12 ->16 12 ->22 12 ->23 13 ->14 13 ->15 13 ->21 14 ->28 15 ->31 16 ->24 16 ->30 16 ->31 17 ->24 17 ->28 18 ->24 18 ->26 18 ->28 19 ->27 20 ->25 21 ->27 21 ->28 21 ->31 22 ->26 22 ->29 22 ->30 23 ->24 23 ->29 23 ->30 24 ->33 24 ->35 25 ->33 25 ->34 25 ->36 26 ->34 26 ->36 27 ->35 27 ->36 28 ->32 28 ->33 28 ->34 28 ->35 31 ->32 31 ->34 31 ->35 32 ->38 32 ->41 32 ->45 32 ->48 33 ->38 33 ->39 33 ->44 33 ->47 33 ->48 34 ->37 34 ->39 34 ->41 34 ->42 34 ->43 34 ->45 34 ->46 34 ->48 34 ->49 35 ->42 35 ->44 35 ->46 35 ->49 36 ->40 36 ->43 36 ->44 37 ->52 37 ->57 37 ->60 38 ->50 38 ->53 38 ->55 38 ->56 38 ->60 39 ->50 39 ->51 39 ->54 39 ->56 39 ->62 40 ->50 40 ->51 40 ->62 41 ->51 41 ->52 41 ->55 41 ->58 41 ->60 41 ->61 42 ->55 42 ->57 42 ->61 42 ->62 43 ->53 43 ->54 43 ->55 43 ->57 43 ->62 44 ->55 44 ->57 45 ->52 45 ->53 45 ->54 45 ->55 45 ->56 45 ->57 45 ->61 46 ->54 46 ->57 47 ->53 47 ->55 47 ->59 48 ->57 48 ->62 49 ->51 49 ->53 49 ->56 49 ->60 50 ->65 50 ->66 50 ->69 51 ->63 51 ->70 52 ->66 52 ->70 52 ->72 53 ->63 53 ->66 53 ->70 54 ->63 54 ->70 55 ->63 55 ->65 55 ->69 55 ->70 56 ->65 56 ->70 57 ->63 57 ->65 58 ->69 58 ->70 59 ->66 59 ->68 59 ->69 59 ->71 60 ->63 61 ->63 61 ->65 61 ->69 61 ->71 62 ->64 62 ->66 62 ->67 62 ->69 63 ->74 63 ->76 63 ->84 64 ->75 64 ->81 64 ->85 65 ->82 66 ->77 66 ->79 66 ->85 67 ->79 67 ->82 67 ->83 67 ->84 67 ->85 68 ->77 68 ->85 69 ->73 69 ->78 69 ->79 69 ->84 69 ->85 70 ->74 70 ->76 71 ->76 71 ->81 71 ->83 72 ->73 72 ->80 72 ->82 72 ->83 73 ->87 73 ->90 75 ->86 76 ->88 77 ->87 77 ->90 78 ->87 78 ->90 79 ->87 79 ->90 80 ->86 80 ->87 80 ->88 81 ->86 81 ->89 81 ->90 82 ->89 83 ->87 83 ->88 83 ->89 84 ->87 84 ->88 84 ->89 85 ->89 86 ->92 86 ->95 87 ->91 87 ->95 87 ->96 87 ->99 88 ->92 88 ->93 88 ->94 88 ->97 89 ->91 89 ->92 89 ->93 89 ->97 89 ->98 90 ->96 90 ->99 
}
