digraph G {
0 ->9 0 ->10 0 ->11 0 ->13 1 ->12 1 ->14 1 ->15 2 ->14 2 ->17 3 ->10 3 ->14 4 ->17 5 ->11 5 ->15 5 ->17 6 ->11 6 ->12 6 ->16 6 ->17 7 ->12 7 ->14 7 ->16 8 ->10 8 ->11 8 ->13 8 ->15 9 ->19 9 ->24 10 ->24 10 ->28 10 ->31 11 ->22 11 ->24 11 ->27 11 ->29 12 ->18 12 ->19 12 ->23 12 ->26 13 ->19 13 ->25 13 ->30 14 ->22 14 ->25 14 ->26 15 ->19 15 ->22 15 ->26 15 ->27 15 ->28 15 ->29 15 ->31 16 ->20 16 ->21 16 ->24 16 ->31 17 ->20 17 ->24 17 ->28 17 ->31 18 ->36 18 ->43 19 ->33 19 ->36 19 ->37 19 ->40 19 ->41 20 ->37 21 ->34 21 ->44 22 ->34 22 ->38 22 ->42 23 ->32 23 ->33 24 ->39 24 ->40 24 ->41 25 ->33 25 ->36 25 ->38 25 ->39 25 ->40 25 ->42 26 ->33 26 ->37 26 ->38 27 ->34 27 ->37 27 ->38 27 ->41 27 ->42 28 ->33 28 ->34 28 ->36 28 ->37 28 ->38 28 ->40 29 ->33 29 ->36 29 ->38 29 ->40 30 ->33 30 ->34 30 ->35 30 ->36 30 ->41 30 ->42 31 ->37 31 ->38 31 ->40 31 ->41 31 ->42 31 ->43 32 ->52 32 ->52 32 ->53 32 ->56 33 ->50 33 ->51 33 ->52 33 ->54 33 ->56 34 ->50 34 ->57 35 ->45 35 ->53 35 ->54 35 ->55 35 ->57 36 ->48 36 ->53 37 ->50 37 ->51 37 ->52 37 ->57 38 ->51 38 ->54 38 ->55 38 ->57 39 ->47 40 ->45 40 ->53 40 ->55 40 ->57 41 ->49 41 ->54 41 ->56 42 ->46 42 ->56 42 ->57 43 ->45 43 ->49 43 ->50 43 ->52 43 ->53 44 ->49 44 ->52 44 ->53 44 ->54 44 ->56 45 ->59 45 ->62 46 ->58 47 ->60 47 ->61 48 ->61 48 ->62 49 ->62 50 ->62 51 ->58 54 ->58 54 ->62 55 ->58 55 ->61 56 ->58 57 ->58 57 ->62 58 ->63 58 ->69 59 ->65 59 ->66 59 ->68 59 ->71 60 ->64 60 ->65 60 ->71 61 ->63 61 ->66 61 ->67 61 ->68 61 ->69 61 ->70 62 ->66 62 ->67 62 ->69 63 ->76 63 ->79 63 ->85 64 ->73 64 ->77 64 ->83 64 ->84 64 ->85 65 ->72 65 ->81 65 ->83 66 ->74 66 ->77 66 ->80 66 ->81 66 ->82 67 ->72 67 ->80 67 ->83 68 ->74 68 ->78 68 ->79 68 ->81 68 ->83 69 ->75 69 ->81 69 ->83 70 ->72 70 ->78 70 ->81 70 ->85 71 ->72 71 ->85 72 ->91 72 ->92 72 ->94 73 ->88 73 ->89 74 ->93 75 ->91 75 ->94 76 ->90 76 ->91 76 ->94 77 ->87 77 ->88 77 ->93 79 ->91 79 ->92 80 ->91 82 ->94 83 ->93 83 ->94 84 ->92 85 ->86 85 ->91 85 ->92 87 ->95 87 ->97 88 ->95 88 ->96 88 ->97 89 ->95 89 ->96 89 ->97 89 ->98 90 ->95 90 ->98 92 ->98 92 ->99 93 ->96 93 ->97 93 ->98 
}
