digraph G {
0 ->11 0 ->12 0 ->13 0 ->15 0 ->18 1 ->11 1 ->15 1 ->16 2 ->15 2 ->17 3 ->11 3 ->15 4 ->13 4 ->14 4 ->17 4 ->18 5 ->12 5 ->13 5 ->17 6 ->14 6 ->16 6 ->17 7 ->11 7 ->17 8 ->12 8 ->15 8 ->16 8 ->18 9 ->11 9 ->12 9 ->17 9 ->18 10 ->11 10 ->12 10 ->13 10 ->18 11 ->19 11 ->20 11 ->22 11 ->24 12 ->21 12 ->23 14 ->21 14 ->24 15 ->21 15 ->23 15 ->24 16 ->22 16 ->23 16 ->24 17 ->22 18 ->21 18 ->22 18 ->23 19 ->26 19 ->27 19 ->28 19 ->29 19 ->30 20 ->25 20 ->28 20 ->30 20 ->31 20 ->32 20 ->34 21 ->29 21 ->30 21 ->34 22 ->26 23 ->25 23 ->29 23 ->33 24 ->28 24 ->31 24 ->33 25 ->36 25 ->38 25 ->39 25 ->41 26 ->43 27 ->37 27 ->39 27 ->42 28 ->35 28 ->36 28 ->37 28 ->38 28 ->40 29 ->41 30 ->39 30 ->41 31 ->35 31 ->38 32 ->35 32 ->36 32 ->37 32 ->39 33 ->37 33 ->38 33 ->40 34 ->37 34 ->41 35 ->55 36 ->48 36 ->50 36 ->52 36 ->55 37 ->47 37 ->51 37 ->53 37 ->55 38 ->44 38 ->45 38 ->46 38 ->47 38 ->48 38 ->50 38 ->51 39 ->49 39 ->56 40 ->45 40 ->47 40 ->49 40 ->52 40 ->55 41 ->49 42 ->46 42 ->47 42 ->49 42 ->50 42 ->53 42 ->54 42 ->55 43 ->50 43 ->53 45 ->61 45 ->62 45 ->64 45 ->66 46 ->57 46 ->64 46 ->66 47 ->61 47 ->64 47 ->67 48 ->59 48 ->61 48 ->66 49 ->62 50 ->60 50 ->63 50 ->65 51 ->58 51 ->61 51 ->63 51 ->66 52 ->62 52 ->63 52 ->64 53 ->61 53 ->66 53 ->67 54 ->66 54 ->67 55 ->57 55 ->64 55 ->66 55 ->67 56 ->57 56 ->64 56 ->65 57 ->69 57 ->70 57 ->73 57 ->74 57 ->77 58 ->69 58 ->74 58 ->77 59 ->68 59 ->71 59 ->73 59 ->77 60 ->74 60 ->78 61 ->70 61 ->71 61 ->72 62 ->73 63 ->69 63 ->73 63 ->75 63 ->78 64 ->72 64 ->73 64 ->75 65 ->68 65 ->69 65 ->72 65 ->74 65 ->77 66 ->69 66 ->74 66 ->75 66 ->76 67 ->71 67 ->74 67 ->76 68 ->84 68 ->86 68 ->87 68 ->91 68 ->91 68 ->92 69 ->79 69 ->80 69 ->81 69 ->82 69 ->84 69 ->85 69 ->92 70 ->85 70 ->86 70 ->87 70 ->90 70 ->91 70 ->92 71 ->83 71 ->87 71 ->91 72 ->79 72 ->81 72 ->89 72 ->90 72 ->92 73 ->81 73 ->92 74 ->81 74 ->82 74 ->84 74 ->85 75 ->81 75 ->84 75 ->90 75 ->91 76 ->82 76 ->86 76 ->90 77 ->79 77 ->80 77 ->82 77 ->85 77 ->86 77 ->88 77 ->90 78 ->80 78 ->84 78 ->87 78 ->88 78 ->91 78 ->92 80 ->97 82 ->94 83 ->93 83 ->94 84 ->94 84 ->95 85 ->93 85 ->95 85 ->98 86 ->93 87 ->93 87 ->98 88 ->97 88 ->98 89 ->95 89 ->97 90 ->95 91 ->96 91 ->98 92 ->93 92 ->94 92 ->97 92 ->98 93 ->99 95 ->99 
}
