digraph G {
0 ->14 0 ->17 0 ->19 0 ->20 1 ->14 2 ->14 2 ->15 3 ->15 3 ->19 3 ->20 3 ->21 4 ->14 4 ->20 5 ->14 5 ->15 5 ->16 5 ->20 6 ->19 7 ->16 7 ->20 8 ->15 8 ->16 8 ->17 8 ->19 9 ->14 9 ->15 9 ->16 10 ->15 11 ->14 12 ->15 12 ->16 12 ->18 12 ->20 13 ->17 14 ->24 14 ->26 14 ->29 15 ->22 15 ->26 15 ->27 15 ->31 15 ->32 16 ->23 16 ->24 16 ->26 16 ->32 17 ->22 17 ->29 17 ->31 17 ->32 18 ->23 18 ->28 18 ->31 19 ->27 19 ->29 19 ->32 20 ->23 20 ->24 20 ->27 20 ->28 20 ->29 20 ->33 21 ->22 21 ->23 21 ->24 21 ->25 21 ->28 21 ->30 21 ->31 22 ->34 22 ->38 22 ->38 23 ->34 24 ->35 24 ->37 25 ->34 25 ->36 25 ->37 25 ->38 26 ->35 26 ->37 27 ->34 27 ->35 27 ->36 28 ->34 28 ->36 30 ->35 30 ->38 33 ->34 33 ->35 33 ->38 34 ->41 34 ->42 34 ->43 34 ->44 34 ->46 34 ->48 35 ->39 35 ->42 35 ->46 36 ->42 37 ->45 37 ->47 38 ->39 38 ->40 38 ->41 38 ->43 38 ->46 38 ->47 39 ->53 40 ->49 40 ->52 40 ->54 41 ->49 42 ->49 43 ->52 43 ->53 44 ->49 44 ->52 45 ->49 45 ->50 45 ->52 47 ->51 48 ->53 49 ->56 49 ->57 49 ->60 49 ->62 49 ->64 50 ->60 51 ->55 51 ->57 51 ->58 51 ->61 51 ->63 52 ->55 52 ->56 52 ->61 52 ->63 53 ->59 53 ->63 54 ->56 54 ->60 54 ->61 54 ->62 54 ->64 55 ->66 55 ->66 55 ->69 55 ->70 55 ->71 56 ->69 56 ->70 56 ->71 56 ->72 57 ->70 57 ->74 58 ->68 58 ->70 58 ->76 59 ->67 59 ->68 59 ->76 60 ->65 60 ->69 60 ->71 60 ->72 60 ->73 60 ->74 61 ->65 61 ->66 61 ->69 61 ->70 61 ->71 61 ->73 62 ->65 62 ->69 62 ->74 63 ->65 63 ->66 63 ->67 63 ->72 63 ->73 63 ->75 63 ->76 64 ->65 64 ->66 64 ->67 64 ->68 64 ->74 64 ->75 64 ->76 65 ->78 65 ->79 65 ->80 65 ->81 66 ->77 66 ->78 66 ->80 66 ->85 66 ->88 67 ->77 67 ->80 67 ->81 67 ->88 68 ->77 68 ->85 69 ->78 69 ->81 70 ->78 70 ->86 70 ->87 70 ->88 71 ->77 71 ->78 71 ->84 72 ->77 72 ->80 72 ->88 73 ->77 73 ->83 73 ->84 74 ->80 74 ->81 74 ->83 74 ->85 74 ->86 75 ->80 75 ->82 76 ->78 76 ->81 76 ->85 76 ->86 78 ->89 78 ->90 78 ->92 79 ->90 79 ->92 79 ->93 79 ->94 80 ->91 80 ->92 82 ->90 83 ->89 83 ->92 84 ->90 86 ->92 87 ->91 87 ->92 87 ->94 88 ->89 88 ->91 89 ->97 89 ->99 90 ->98 91 ->95 92 ->95 93 ->96 93 ->99 94 ->95 94 ->96 94 ->98 94 ->99 
}
