digraph G {
0 ->11 1 ->8 1 ->11 1 ->15 2 ->10 3 ->9 3 ->10 3 ->13 3 ->14 4 ->6 4 ->10 4 ->12 4 ->13 5 ->7 5 ->12 5 ->14 5 ->15 6 ->17 6 ->19 6 ->27 7 ->18 7 ->19 7 ->22 7 ->27 8 ->16 8 ->18 8 ->20 8 ->25 8 ->27 9 ->23 9 ->24 9 ->25 10 ->16 10 ->18 11 ->16 11 ->22 11 ->27 12 ->19 12 ->24 13 ->17 13 ->21 13 ->22 13 ->26 14 ->16 14 ->21 14 ->25 14 ->27 14 ->28 15 ->16 15 ->18 15 ->21 15 ->22 16 ->30 16 ->34 17 ->30 17 ->34 18 ->31 18 ->35 19 ->29 19 ->33 19 ->35 20 ->33 20 ->35 20 ->35 21 ->30 21 ->34 22 ->35 23 ->30 24 ->33 24 ->35 25 ->30 25 ->32 25 ->33 26 ->33 27 ->31 28 ->31 29 ->39 29 ->40 29 ->41 29 ->42 30 ->37 30 ->40 30 ->41 30 ->42 30 ->46 31 ->36 31 ->47 32 ->38 32 ->42 32 ->45 33 ->36 33 ->38 33 ->40 33 ->42 33 ->45 33 ->48 34 ->37 34 ->38 34 ->43 34 ->47 35 ->36 35 ->38 35 ->40 35 ->41 35 ->43 35 ->44 36 ->51 36 ->52 36 ->56 37 ->51 37 ->52 37 ->57 38 ->51 38 ->55 38 ->56 39 ->51 39 ->54 40 ->51 41 ->52 41 ->53 41 ->55 42 ->49 42 ->50 42 ->52 42 ->53 42 ->54 42 ->56 43 ->49 43 ->51 43 ->56 44 ->51 44 ->53 45 ->54 46 ->49 46 ->50 46 ->52 46 ->53 46 ->56 46 ->57 47 ->52 47 ->53 47 ->54 48 ->52 48 ->53 48 ->56 49 ->59 49 ->60 49 ->63 51 ->59 51 ->62 52 ->58 52 ->61 53 ->58 53 ->61 53 ->62 54 ->58 54 ->59 54 ->61 54 ->62 54 ->63 55 ->58 56 ->63 57 ->59 57 ->61 57 ->63 58 ->64 58 ->68 58 ->69 58 ->71 59 ->73 60 ->67 60 ->71 61 ->70 61 ->72 61 ->73 62 ->66 62 ->69 62 ->73 63 ->65 63 ->68 63 ->69 63 ->71 64 ->76 64 ->80 65 ->74 65 ->76 65 ->79 66 ->75 66 ->79 66 ->79 67 ->75 67 ->80 68 ->76 68 ->80 69 ->76 69 ->77 69 ->79 69 ->80 70 ->78 71 ->75 71 ->79 74 ->84 75 ->84 75 ->88 75 ->89 76 ->83 76 ->84 76 ->86 77 ->83 78 ->84 78 ->85 78 ->88 79 ->81 79 ->85 79 ->86 79 ->87 80 ->82 80 ->83 80 ->85 81 ->93 81 ->94 81 ->95 81 ->98 82 ->94 82 ->95 82 ->97 83 ->94 83 ->95 83 ->97 84 ->90 84 ->91 84 ->94 84 ->96 84 ->99 85 ->90 85 ->95 86 ->90 86 ->94 87 ->96 87 ->97 88 ->92 88 ->93 88 ->96 89 ->92 89 ->97 89 ->98 
}
