0.23284489699999997
Task0 1 15 31 
Task1 31 7 15 
Task2 3 7 3 
Task3 3 1 15 
Task4 7 7 7 
Task5 1 31 15 
Task6 15 7 1 
Task7 7 3 1 
Task8 3 3 15 
Task9 7 7 31 
Task10 3 3 7 
Task11 7 31 3 
Task12 1 7 15 
Task13 7 7 7 
Task14 31 1 7 
Task15 7 3 15 
Task16 7 15 3 
Task17 63 15 31 
Task18 7 7 3 
Task19 15 31 15 
Task20 15 3 7 
Task21 1 3 3 
Task22 1 7 15 
Task23 7 7 15 
Task24 15 3 7 
Task25 3 7 7 
Task26 7 15 15 
Task27 1 7 15 
Task28 15 63 31 
Task29 7 3 7 
Task30 3 15 1 
Task31 1 7 1 
Task32 1 3 15 
Task33 3 3 3 
Task34 7 7 3 
Task35 7 3 7 
Task36 7 1 7 
Task37 1 15 1 
Task38 1 7 7 
Task39 1 3 3 
Task40 3 1 7 
Task41 3 1 15 
Task42 7 1 7 
Task43 3 3 7 
Task44 1 7 15 
Task45 3 3 3 
Task46 7 7 1 
Task47 15 15 7 
Task48 7 3 15 
Task49 15 31 31 
Task50 1 1 7 
Task51 7 3 7 
Task52 7 3 15 
Task53 7 1 1 
Task54 7 1 3 
Task55 7 1 3 
Task56 3 1 7 
Task57 7 3 1 
Task58 7 7 7 
Task59 3 7 3 
Task60 1 3 7 
Task61 15 15 3 
Task62 63 63 3 
Task63 1 3 7 
Task64 7 1 7 
Task65 15 31 31 
Task66 7 3 7 
Task67 1 7 7 
Task68 3 3 7 
Task69 1 3 3 
Task70 3 3 3 
Task71 15 7 3 
Task72 7 7 15 
Task73 15 7 7 
Task74 1 3 7 
Task75 15 3 31 
Task76 1 3 1 
Task77 3 3 7 
Task78 7 1 1 
Task79 1 31 31 
Task80 15 7 7 
Task81 7 7 7 
Task82 3 7 1 
Task83 7 7 15 
Task84 1 3 7 
Task85 3 1 31 
Task86 7 15 7 
Task87 1 15 7 
Task88 7 15 15 
Task89 1 3 7 
Task90 7 15 63 
Task91 15 1 1 
Task92 7 3 1 
Task93 63 255 15 
Task94 1 7 7 
Task95 3 3 7 
Task96 3 1 7 
Task97 1 7 1 
Task98 3 3 1 
Task99 31 63 3 
