0.18746811593895987
Task0 1 15 31 
Task1 1 1 1 
Task2 3 3 3 
Task3 1 7 1 
Task4 15 3 7 
Task5 15 7 15 
Task6 15 1 7 
Task7 1 15 3 
Task8 3 3 15 
Task9 3 1 31 
Task10 127 255 15 
Task11 1 3 3 
Task12 3 1 1 
Task13 3 3 15 
Task14 1 15 1 
Task15 1 3 3 
Task16 1 3 3 
Task17 3 3 1 
Task18 3 1 1 
Task19 1 1 3 
Task20 1 3 3 
Task21 15 1 3 
Task22 1 1 1 
Task23 1 1 1 
Task24 1 1 3 
Task25 3 1 7 
Task26 7 1 3 
Task27 7 7 1 
Task28 3 1 1 
Task29 1 1 1 
Task30 1 3 3 
Task31 15 3 3 
Task32 3 1 3 
Task33 1 1 3 
Task34 3 1 1 
Task35 15 3 3 
Task36 7 1 1 
Task37 3 7 1 
Task38 31 63 7 
Task39 7 3 7 
Task40 3 1 1 
Task41 1 3 3 
Task42 3 7 3 
Task43 1 1 3 
Task44 15 7 31 
Task45 3 3 1 
Task46 15 7 15 
Task47 7 3 3 
Task48 63 31 15 
Task49 7 7 3 
Task50 1 3 1 
Task51 31 15 31 
Task52 1 15 7 
Task53 3 1 3 
Task54 7 3 1 
Task55 3 1 7 
Task56 1 1 3 
Task57 63 31 31 
Task58 3 1 1 
Task59 1 1 1 
Task60 3 3 1 
Task61 7 3 1 
Task62 31 31 31 
Task63 1 3 1 
Task64 1 3 3 
Task65 15 15 7 
Task66 3 1 3 
Task67 3 3 3 
Task68 1 1 1 
Task69 3 1 1 
Task70 1 1 1 
Task71 1 1 1 
Task72 3 3 1 
Task73 3 1 1 
Task74 3 1 7 
Task75 3 3 1 
Task76 1 1 1 
Task77 1 15 1 
Task78 3 3 7 
Task79 3 1 7 
Task80 1 1 1 
Task81 7 7 15 
Task82 1 3 7 
Task83 31 63 15 
Task84 3 3 3 
Task85 1 1 3 
Task86 7 1 1 
Task87 3 31 15 
Task88 3 1 1 
Task89 1 7 1 
Task90 3 7 3 
Task91 7 7 7 
Task92 1 1 1 
Task93 1 3 7 
Task94 1 1 1 
Task95 3 3 7 
Task96 3 1 7 
Task97 1 15 1 
Task98 7 15 3 
Task99 1 7 63 
