0.47421409999999997
Task0 15 63 31 
Task1 31 127 255 
Task2 3 63 63 
Task3 63 63 63 
Task4 255 31 7 
Task5 63 1 63 
Task6 255 127 15 
Task7 1 255 63 
Task8 15 255 127 
Task9 255 15 31 
Task10 7 7 63 
Task11 63 127 15 
Task12 63 255 255 
Task13 7 63 127 
Task14 255 15 31 
Task15 63 63 7 
Task16 7 7 63 
Task17 63 31 255 
Task18 63 63 255 
Task19 127 127 127 
Task20 63 15 15 
Task21 63 1 63 
Task22 255 1 1 
Task23 7 63 3 
Task24 3 31 255 
Task25 31 7 63 
Task26 63 63 127 
Task27 15 63 3 
Task28 1 255 15 
Task29 63 31 31 
Task30 1 7 63 
Task31 31 15 255 
Task32 31 15 127 
Task33 63 31 255 
Task34 7 63 255 
Task35 255 31 15 
Task36 31 15 127 
Task37 127 31 31 
Task38 255 255 127 
Task39 63 31 15 
Task40 63 127 7 
Task41 31 255 31 
Task42 31 255 255 
Task43 63 255 127 
Task44 15 127 15 
Task45 63 15 7 
Task46 63 1 15 
Task47 127 127 127 
Task48 7 63 127 
Task49 1 255 31 
Task50 255 31 15 
Task51 7 63 31 
Task52 63 127 255 
Task53 127 255 7 
Task54 63 7 127 
Task55 15 63 31 
Task56 15 31 255 
Task57 1 15 63 
Task58 3 31 127 
Task59 63 255 3 
Task60 1 1 63 
Task61 63 127 31 
Task62 31 63 7 
Task63 15 63 31 
Task64 127 255 255 
Task65 3 7 63 
Task66 63 63 31 
Task67 63 15 255 
Task68 63 63 31 
Task69 31 15 63 
Task70 127 15 255 
Task71 63 127 63 
Task72 15 31 255 
Task73 127 127 63 
Task74 63 7 1 
Task75 63 127 63 
Task76 255 3 31 
Task77 15 255 127 
Task78 1 7 63 
Task79 3 1 63 
Task80 127 15 3 
Task81 255 255 63 
Task82 63 31 127 
Task83 63 7 127 
Task84 63 1 3 
Task85 31 31 255 
Task86 31 63 255 
Task87 1 15 255 
Task88 255 1 31 
Task89 63 7 255 
Task90 63 31 63 
Task91 63 63 3 
Task92 3 63 1 
Task93 255 31 31 
Task94 15 63 7 
Task95 255 127 63 
Task96 31 127 31 
Task97 3 255 255 
Task98 31 63 7 
Task99 1 255 15 
