digraph G {
0 ->19 0 ->20 0 ->21 0 ->22 0 ->23 1 ->17 1 ->21 2 ->21 3 ->18 3 ->19 3 ->20 3 ->21 3 ->22 3 ->23 4 ->19 5 ->17 6 ->17 6 ->23 7 ->17 7 ->21 8 ->16 8 ->17 8 ->18 8 ->22 9 ->19 9 ->21 10 ->16 10 ->21 10 ->22 11 ->19 11 ->21 11 ->23 12 ->22 13 ->17 13 ->22 14 ->16 14 ->17 14 ->20 14 ->22 15 ->16 15 ->22 16 ->26 16 ->29 16 ->36 16 ->37 16 ->39 16 ->40 16 ->41 16 ->42 17 ->28 17 ->29 17 ->30 17 ->40 17 ->41 17 ->43 18 ->25 18 ->26 18 ->28 18 ->30 18 ->37 18 ->40 18 ->43 19 ->25 19 ->27 19 ->28 19 ->32 19 ->33 19 ->34 19 ->35 19 ->36 19 ->38 19 ->40 19 ->43 20 ->24 20 ->26 20 ->35 21 ->26 21 ->28 21 ->31 21 ->35 21 ->36 21 ->38 21 ->44 22 ->27 22 ->30 22 ->32 22 ->33 22 ->38 23 ->25 23 ->30 23 ->35 23 ->42 24 ->47 24 ->54 25 ->45 25 ->46 25 ->47 25 ->48 25 ->51 25 ->56 25 ->58 26 ->46 26 ->47 26 ->47 26 ->48 26 ->49 26 ->51 26 ->52 26 ->56 27 ->45 27 ->46 27 ->50 28 ->50 28 ->54 28 ->55 29 ->47 29 ->50 29 ->51 30 ->47 30 ->51 31 ->45 31 ->46 31 ->48 31 ->53 31 ->54 31 ->57 31 ->58 32 ->45 32 ->46 32 ->57 32 ->58 33 ->54 34 ->45 34 ->46 34 ->48 35 ->45 35 ->46 36 ->46 36 ->46 36 ->50 36 ->51 37 ->46 37 ->51 37 ->54 37 ->58 38 ->47 38 ->54 38 ->54 39 ->50 39 ->51 39 ->57 40 ->45 40 ->57 40 ->57 41 ->46 41 ->48 41 ->50 41 ->54 41 ->57 42 ->54 42 ->56 42 ->58 43 ->51 43 ->54 44 ->47 44 ->50 44 ->51 44 ->57 45 ->59 45 ->60 46 ->65 46 ->69 47 ->62 47 ->63 48 ->62 48 ->64 48 ->68 48 ->69 48 ->71 49 ->60 49 ->64 49 ->65 49 ->69 50 ->60 50 ->65 51 ->65 51 ->67 52 ->59 52 ->64 52 ->65 52 ->67 52 ->71 53 ->59 53 ->66 53 ->70 54 ->59 54 ->64 54 ->67 54 ->69 54 ->70 55 ->59 55 ->67 55 ->68 55 ->69 55 ->70 56 ->68 56 ->69 57 ->61 58 ->62 58 ->65 58 ->70 59 ->72 59 ->80 59 ->81 59 ->83 60 ->72 60 ->74 60 ->77 60 ->81 60 ->82 61 ->72 61 ->81 61 ->85 62 ->72 62 ->75 62 ->78 63 ->75 63 ->78 63 ->84 64 ->72 64 ->78 64 ->85 65 ->74 65 ->75 65 ->76 65 ->78 65 ->81 65 ->84 65 ->85 66 ->76 66 ->77 66 ->80 67 ->73 67 ->74 67 ->77 68 ->75 68 ->77 68 ->81 68 ->85 69 ->75 69 ->77 69 ->79 69 ->82 69 ->83 69 ->84 69 ->85 70 ->72 71 ->77 71 ->80 71 ->81 71 ->83 71 ->84 71 ->85 72 ->89 72 ->90 72 ->98 73 ->97 74 ->90 74 ->92 74 ->94 74 ->99 75 ->89 75 ->92 75 ->94 75 ->95 75 ->99 76 ->87 76 ->88 76 ->92 76 ->93 76 ->95 77 ->86 77 ->90 77 ->91 77 ->95 77 ->97 78 ->86 78 ->90 78 ->91 78 ->92 78 ->95 78 ->97 79 ->86 79 ->87 79 ->88 79 ->91 79 ->92 79 ->97 80 ->86 80 ->88 80 ->88 80 ->90 80 ->91 80 ->92 80 ->97 80 ->98 81 ->88 81 ->92 81 ->99 82 ->87 82 ->89 82 ->97 82 ->98 82 ->99 83 ->86 83 ->97 84 ->86 84 ->96 85 ->86 85 ->91 85 ->93 85 ->95 
}
