files/tasks_parameters/ExAp01/sample8.txt 2.15574 6.77015 2.19458 0.288816 6.64007
files/tasks_parameters/ExAp01/sample12.txt 2.47233 9.58351 2.46081 0.337498 7.7593
files/tasks_parameters/ExAp01/sample2.txt 2.35268 8.44418 2.50701 0.319127 7.33694
files/tasks_parameters/ExAp01/sample44.txt 2.10331 6.96299 2.23089 0.28229 6.49003
files/tasks_parameters/ExAp01/sample27.txt 2.13585 7.74306 2.16676 0.28602 6.57577
files/tasks_parameters/ExAp01/sample17.txt 2.15574 7.35053 2.25579 0.292348 6.72125
files/tasks_parameters/ExAp01/sample9.txt 2.08492 6.89392 2.21068 0.282399 6.49253
files/tasks_parameters/ExAp01/sample34.txt 2.19751 6.62788 2.3772 0.297742 6.84527
files/tasks_parameters/ExAp01/sample40.txt 2.12961 7.75686 2.17534 0.285619 6.56657
files/tasks_parameters/ExAp01/sample33.txt 2.49561 8.14826 2.6463 0.338073 7.77251
files/tasks_parameters/ExAp01/sample48.txt 1.98934 7.64107 2.14272 0.270011 6.20773
files/tasks_parameters/ExAp01/sample29.txt 2.12921 7.139 1.93769 0.286306 6.58235
files/tasks_parameters/ExAp01/sample11.txt 2.10433 6.88688 2.12981 0.280008 6.43757
files/tasks_parameters/ExAp01/sample14.txt 1.84721 6.11983 1.97599 0.247458 5.6892
files/tasks_parameters/ExAp01/sample0.txt 2.12751 8.2738 2.14256 0.289132 6.64732
files/tasks_parameters/ExAp01/sample7.txt 1.97726 6.87011 2.05821 0.269886 6.20484
files/tasks_parameters/ExAp01/sample23.txt 2.16597 6.52032 2.38087 0.291712 6.70663
files/tasks_parameters/ExAp01/sample13.txt 2.21419 8.73247 2.33415 0.295393 6.79126
files/tasks_parameters/ExAp01/sample22.txt 2.07265 6.9777 2.28948 0.283979 6.52886
files/tasks_parameters/ExAp01/sample25.txt 1.97648 6.23444 2.2122 0.267298 6.14534
files/tasks_parameters/ExAp01/sample36.txt 1.87894 6.6174 1.9458 0.253823 5.83554
files/tasks_parameters/ExAp01/sample46.txt 2.47323 7.42369 2.49128 0.327273 7.52421
files/tasks_parameters/ExAp01/sample31.txt 1.8956 7.22028 2.13584 0.25377 5.83433
files/tasks_parameters/ExAp01/sample37.txt 2.19134 8.90704 2.16981 0.295708 6.79851
files/tasks_parameters/ExAp01/sample16.txt 1.82901 8.18243 1.88294 0.24945 5.735
files/tasks_parameters/ExAp01/sample10.txt 2.12576 6.96646 2.31217 0.285748 6.56952
files/tasks_parameters/ExAp01/sample39.txt 1.85684 6.4161 1.97266 0.251967 5.79287
files/tasks_parameters/ExAp01/sample19.txt 2.27913 8.16711 2.23199 0.308463 7.09175
files/tasks_parameters/ExAp01/sample20.txt 1.9308 7.28549 1.88944 0.25994 5.97618
files/tasks_parameters/ExAp01/sample43.txt 1.91557 6.86804 2.00142 0.25616 5.88928
files/tasks_parameters/ExAp01/sample32.txt 2.06153 8.15663 2.12995 0.281726 6.47707
files/tasks_parameters/ExAp01/sample45.txt 2.07585 7.75184 2.10599 0.274935 6.32093
files/tasks_parameters/ExAp01/sample26.txt 1.9966 7.4944 1.88956 0.267248 6.1442
files/tasks_parameters/ExAp01/sample5.txt 2.12651 8.08362 2.09961 0.28454 6.54176
files/tasks_parameters/ExAp01/sample21.txt 1.93899 6.11814 2.17119 0.26143 6.01043
files/tasks_parameters/ExAp01/sample38.txt 1.94452 7.761 1.96293 0.263659 6.06168
files/tasks_parameters/ExAp01/sample1.txt 2.14765 7.83752 2.13261 0.289228 6.64954
files/tasks_parameters/ExAp01/sample15.txt 2.1349 7.37971 2.12057 0.285825 6.57131
files/tasks_parameters/ExAp01/sample24.txt 2.20728 8.28531 2.25272 0.296628 6.81967
files/tasks_parameters/ExAp01/sample3.txt 2.26421 7.33359 2.39135 0.305084 7.01408
files/tasks_parameters/ExAp01/sample6.txt 2.0958 7.09894 2.24425 0.281804 6.47886
files/tasks_parameters/ExAp01/sample30.txt 2.25491 8.17669 2.03701 0.299204 6.87889
files/tasks_parameters/ExAp01/sample42.txt 2.18382 7.70416 2.42413 0.29743 6.8381
files/tasks_parameters/ExAp01/sample4.txt 2.27743 7.41691 2.36261 0.307803 7.07658
files/tasks_parameters/ExAp01/sample28.txt 2.00031 7.0562 2.07657 0.266428 6.12534
files/tasks_parameters/ExAp01/sample18.txt 1.96396 7.60139 2.1377 0.268016 6.16186
files/tasks_parameters/ExAp01/sample35.txt 2.3947 9.66795 2.28028 0.32244 7.41309
files/tasks_parameters/ExAp01/sample47.txt 1.88743 6.84842 2.12104 0.251655 5.7857
files/tasks_parameters/ExAp01/sample49.txt 1.90068 7.1497 2.11412 0.255889 5.88305
files/tasks_parameters/ExAp01/sample41.txt 1.94514 6.59911 2.07359 0.265885 6.11287
