files/tasks_parameters/ExAp01/sample8.txt 1.09239 7.2562 4.46819 0.454772 8.44577
files/tasks_parameters/ExAp01/sample12.txt 1.63121 9.70908 5.28286 0.618515 11.4867
files/tasks_parameters/ExAp01/sample2.txt 1.45481 8.14159 5.7401 0.620531 11.5241
files/tasks_parameters/ExAp01/sample44.txt 1.35997 7.25164 5.75904 0.557631 10.356
files/tasks_parameters/ExAp01/sample27.txt 1.3183 8.10944 5.64946 0.564878 10.4906
files/tasks_parameters/ExAp01/sample17.txt 1.25303 7.11225 5.46658 0.527183 9.79055
files/tasks_parameters/ExAp01/sample9.txt 1.19882 7.62559 5.37813 0.517277 9.60657
files/tasks_parameters/ExAp01/sample34.txt 1.2448 7.04587 5.93037 0.497709 9.24317
files/tasks_parameters/ExAp01/sample40.txt 1.201 8.03037 5.123 0.502383 9.32996
files/tasks_parameters/ExAp01/sample33.txt 1.61644 9.22935 5.92956 0.659262 12.2434
files/tasks_parameters/ExAp01/sample48.txt 1.15179 8.12182 5.1577 0.452491 8.4034
files/tasks_parameters/ExAp01/sample29.txt 1.53902 8.06133 5.12331 0.650652 12.0835
files/tasks_parameters/ExAp01/sample11.txt 1.35889 7.63104 5.37897 0.563302 10.4613
files/tasks_parameters/ExAp01/sample14.txt 1.13582 6.66403 4.66322 0.471536 8.7571
files/tasks_parameters/ExAp01/sample0.txt 1.51866 9.3266 4.98971 0.6311 11.7204
files/tasks_parameters/ExAp01/sample7.txt 1.23468 7.34863 5.19436 0.515527 9.57408
files/tasks_parameters/ExAp01/sample23.txt 1.40203 6.68564 5.54308 0.588617 10.9315
files/tasks_parameters/ExAp01/sample13.txt 1.60784 9.31093 5.35591 0.632849 11.7529
files/tasks_parameters/ExAp01/sample22.txt 1.28633 7.65588 5.04866 0.540336 10.0348
files/tasks_parameters/ExAp01/sample25.txt 1.0295 6.17035 5.0141 0.408296 7.58264
files/tasks_parameters/ExAp01/sample36.txt 1.19007 7.03772 4.66274 0.507647 9.42773
files/tasks_parameters/ExAp01/sample46.txt 1.35236 7.73433 4.79934 0.536843 9.96995
files/tasks_parameters/ExAp01/sample31.txt 1.16998 6.96928 5.16482 0.485817 9.02232
files/tasks_parameters/ExAp01/sample37.txt 1.59499 9.52443 5.74224 0.65799 12.2198
files/tasks_parameters/ExAp01/sample16.txt 1.33876 8.63521 4.97261 0.516328 9.58894
files/tasks_parameters/ExAp01/sample10.txt 1.39877 7.28353 6.16876 0.615651 11.4335
files/tasks_parameters/ExAp01/sample39.txt 1.14417 6.3405 4.6137 0.468873 8.70765
files/tasks_parameters/ExAp01/sample19.txt 1.40324 8.85528 5.22306 0.622152 11.5543
files/tasks_parameters/ExAp01/sample20.txt 1.39217 8.1141 5.21177 0.586994 10.9013
files/tasks_parameters/ExAp01/sample43.txt 1.30697 7.21373 5.6367 0.53748 9.98177
files/tasks_parameters/ExAp01/sample32.txt 1.46609 8.30592 5.38137 0.593918 11.0299
files/tasks_parameters/ExAp01/sample45.txt 1.30216 7.94069 4.96323 0.547271 10.1636
files/tasks_parameters/ExAp01/sample26.txt 1.12738 7.57061 4.62637 0.480146 8.91699
files/tasks_parameters/ExAp01/sample5.txt 1.38077 8.0307 5.35681 0.59407 11.0327
files/tasks_parameters/ExAp01/sample21.txt 1.02755 5.87802 4.61744 0.434264 8.06491
files/tasks_parameters/ExAp01/sample38.txt 1.185 7.66999 4.86632 0.496808 9.22644
files/tasks_parameters/ExAp01/sample1.txt 1.14035 7.21312 4.63213 0.486293 9.03116
files/tasks_parameters/ExAp01/sample15.txt 1.28125 8.02273 5.50855 0.531063 9.86259
files/tasks_parameters/ExAp01/sample24.txt 1.31586 8.66348 5.4905 0.548998 10.1957
files/tasks_parameters/ExAp01/sample3.txt 1.18752 7.74268 4.79918 0.477387 8.86575
files/tasks_parameters/ExAp01/sample6.txt 1.51709 8.57133 5.80157 0.633604 11.7669
files/tasks_parameters/ExAp01/sample30.txt 1.68756 8.18878 5.90888 0.633576 11.7664
files/tasks_parameters/ExAp01/sample42.txt 1.30673 8.57689 5.67253 0.54426 10.1077
files/tasks_parameters/ExAp01/sample4.txt 1.30115 8.40354 4.57985 0.563519 10.4654
files/tasks_parameters/ExAp01/sample28.txt 1.11554 6.44114 4.96426 0.449721 8.35197
files/tasks_parameters/ExAp01/sample18.txt 1.37031 8.56363 4.60946 0.543766 10.0985
files/tasks_parameters/ExAp01/sample35.txt 1.94263 11.0387 6.34514 0.761377 14.1399
files/tasks_parameters/ExAp01/sample47.txt 1.32345 7.14493 5.22131 0.545046 10.1223
files/tasks_parameters/ExAp01/sample49.txt 1.30034 6.65996 4.80244 0.498533 9.25848
files/tasks_parameters/ExAp01/sample41.txt 1.18983 7.09069 5.35462 0.497129 9.23239
