files/tasks_parameters/ExAp01/sample8.txt 1.00966 3.76817 4.3855 0.450105 8.66246
files/tasks_parameters/ExAp01/sample12.txt 1.34074 5.03638 5.18776 0.610564 11.7506
files/tasks_parameters/ExAp01/sample2.txt 1.31996 4.58991 5.64606 0.613877 11.8143
files/tasks_parameters/ExAp01/sample44.txt 1.19081 3.77401 5.66946 0.551838 10.6203
files/tasks_parameters/ExAp01/sample27.txt 1.21054 4.13937 5.56136 0.55779 10.7349
files/tasks_parameters/ExAp01/sample17.txt 1.12402 3.76163 5.38341 0.520991 10.0267
files/tasks_parameters/ExAp01/sample9.txt 1.1062 3.69889 5.2981 0.511699 9.84787
files/tasks_parameters/ExAp01/sample34.txt 1.07872 3.52435 5.83741 0.49187 9.46624
files/tasks_parameters/ExAp01/sample40.txt 1.08677 4.06185 5.0335 0.496884 9.56274
files/tasks_parameters/ExAp01/sample33.txt 1.39351 4.82091 5.83886 0.651963 12.5473
files/tasks_parameters/ExAp01/sample48.txt 0.974147 4.01134 5.07085 0.447927 8.62054
files/tasks_parameters/ExAp01/sample29.txt 1.36863 4.20847 5.0406 0.643694 12.3882
files/tasks_parameters/ExAp01/sample11.txt 1.203 3.94699 5.29198 0.557276 10.725
files/tasks_parameters/ExAp01/sample14.txt 1.04561 3.54059 4.58345 0.466713 8.98209
files/tasks_parameters/ExAp01/sample0.txt 1.35391 4.82755 4.90216 0.623551 12.0005
files/tasks_parameters/ExAp01/sample7.txt 1.1054 3.60766 5.11185 0.509566 9.8068
files/tasks_parameters/ExAp01/sample23.txt 1.25104 3.81403 5.45799 0.582911 11.2184
files/tasks_parameters/ExAp01/sample13.txt 1.3507 4.8894 5.26818 0.624499 12.0187
files/tasks_parameters/ExAp01/sample22.txt 1.16193 3.76156 4.95746 0.534216 10.2812
files/tasks_parameters/ExAp01/sample25.txt 0.90558 2.94144 4.92622 0.403639 7.7682
files/tasks_parameters/ExAp01/sample36.txt 1.07907 3.56164 4.5806 0.501799 9.65732
files/tasks_parameters/ExAp01/sample46.txt 1.14658 3.84833 4.7121 0.530701 10.2136
files/tasks_parameters/ExAp01/sample31.txt 1.05379 3.764 5.08385 0.479734 9.23268
files/tasks_parameters/ExAp01/sample37.txt 1.39878 4.43254 5.65111 0.65143 12.537
files/tasks_parameters/ExAp01/sample16.txt 1.16057 4.49741 4.8895 0.509171 9.7992
files/tasks_parameters/ExAp01/sample10.txt 1.33026 3.87086 6.07511 0.60993 11.7383
files/tasks_parameters/ExAp01/sample39.txt 1.01891 3.66299 4.54281 0.463671 8.92355
files/tasks_parameters/ExAp01/sample19.txt 1.32581 3.86694 5.14047 0.615987 11.8549
files/tasks_parameters/ExAp01/sample20.txt 1.24649 4.09945 5.13368 0.580369 11.1694
files/tasks_parameters/ExAp01/sample43.txt 1.15401 3.75825 5.55698 0.530892 10.2172
files/tasks_parameters/ExAp01/sample32.txt 1.278 4.0352 5.29178 0.587643 11.3094
files/tasks_parameters/ExAp01/sample45.txt 1.16942 3.94578 4.87833 0.541081 10.4133
files/tasks_parameters/ExAp01/sample26.txt 1.03149 3.50998 4.55035 0.474009 9.1225
files/tasks_parameters/ExAp01/sample5.txt 1.27463 4.00994 5.27725 0.587681 11.3102
files/tasks_parameters/ExAp01/sample21.txt 0.958404 2.8974 4.54677 0.430037 8.27624
files/tasks_parameters/ExAp01/sample38.txt 1.06746 3.56689 4.78573 0.492366 9.47579
files/tasks_parameters/ExAp01/sample1.txt 1.058 3.69002 4.55048 0.481074 9.25846
files/tasks_parameters/ExAp01/sample15.txt 1.14393 3.73223 5.42493 0.524964 10.1032
files/tasks_parameters/ExAp01/sample24.txt 1.17218 4.18053 5.40377 0.542575 10.4421
files/tasks_parameters/ExAp01/sample3.txt 1.01708 3.70547 4.7118 0.470503 9.05503
files/tasks_parameters/ExAp01/sample6.txt 1.33627 4.07521 5.71419 0.626702 12.0611
files/tasks_parameters/ExAp01/sample30.txt 1.35266 3.97446 5.82388 0.626709 12.0613
files/tasks_parameters/ExAp01/sample42.txt 1.17604 4.44207 5.58473 0.537025 10.3353
files/tasks_parameters/ExAp01/sample4.txt 1.21047 3.92181 4.49751 0.556974 10.7192
files/tasks_parameters/ExAp01/sample28.txt 0.954399 3.13496 4.88321 0.444588 8.55628
files/tasks_parameters/ExAp01/sample18.txt 1.16635 3.95301 4.52898 0.537438 10.3432
files/tasks_parameters/ExAp01/sample35.txt 1.6247 5.75923 6.25034 0.752488 14.4819
files/tasks_parameters/ExAp01/sample47.txt 1.16318 3.44018 5.14289 0.540033 10.3932
files/tasks_parameters/ExAp01/sample49.txt 1.08903 3.38981 4.72409 0.493041 9.48878
files/tasks_parameters/ExAp01/sample41.txt 1.05468 3.58692 5.27252 0.492391 9.47626
