files/tasks_parameters/ExAp01/sample8.txt 1.11121 7.2562 4.46819 0.454772 12.966
files/tasks_parameters/ExAp01/sample12.txt 1.64179 9.70908 5.28286 0.618515 17.6344
files/tasks_parameters/ExAp01/sample2.txt 1.50039 8.14159 5.7401 0.620531 17.6919
files/tasks_parameters/ExAp01/sample44.txt 1.39817 7.25164 5.75904 0.557631 15.8986
files/tasks_parameters/ExAp01/sample27.txt 1.3223 8.10944 5.64946 0.564878 16.1052
files/tasks_parameters/ExAp01/sample17.txt 1.26975 7.11225 5.46658 0.527183 15.0305
files/tasks_parameters/ExAp01/sample9.txt 1.21424 7.62559 5.37813 0.517277 14.748
files/tasks_parameters/ExAp01/sample34.txt 1.23761 7.04587 5.93037 0.497709 14.1902
files/tasks_parameters/ExAp01/sample40.txt 1.201 8.03037 5.123 0.502383 14.3234
files/tasks_parameters/ExAp01/sample33.txt 1.63735 9.22935 5.92956 0.659262 18.7962
files/tasks_parameters/ExAp01/sample48.txt 1.15844 8.12182 5.1577 0.452491 12.9009
files/tasks_parameters/ExAp01/sample29.txt 1.55538 8.06133 5.12331 0.650652 18.5507
files/tasks_parameters/ExAp01/sample11.txt 1.35896 7.63104 5.37897 0.563302 16.0603
files/tasks_parameters/ExAp01/sample14.txt 1.13168 6.66403 4.66322 0.471536 13.4439
files/tasks_parameters/ExAp01/sample0.txt 1.64568 9.3266 4.98971 0.6311 17.9932
files/tasks_parameters/ExAp01/sample7.txt 1.30135 7.34863 5.19436 0.515527 14.6982
files/tasks_parameters/ExAp01/sample23.txt 1.40549 6.68564 5.54308 0.588617 16.782
files/tasks_parameters/ExAp01/sample13.txt 1.65096 9.31093 5.35591 0.632849 18.0431
files/tasks_parameters/ExAp01/sample22.txt 1.29523 7.65588 5.04866 0.540336 15.4055
files/tasks_parameters/ExAp01/sample25.txt 1.0295 6.17035 5.0141 0.408296 11.6409
files/tasks_parameters/ExAp01/sample36.txt 1.1881 7.03772 4.66274 0.507647 14.4735
files/tasks_parameters/ExAp01/sample46.txt 1.3517 7.73433 4.79934 0.536843 15.3059
files/tasks_parameters/ExAp01/sample31.txt 1.19045 6.96928 5.16482 0.485817 13.8511
files/tasks_parameters/ExAp01/sample37.txt 1.63295 9.52443 5.74224 0.65799 18.7599
files/tasks_parameters/ExAp01/sample16.txt 1.4392 8.63521 4.97261 0.516328 14.721
files/tasks_parameters/ExAp01/sample10.txt 1.39877 7.28353 6.16876 0.615651 17.5528
files/tasks_parameters/ExAp01/sample39.txt 1.14417 6.3405 4.6137 0.468873 13.368
files/tasks_parameters/ExAp01/sample19.txt 1.63063 8.85528 5.22306 0.622152 17.7381
files/tasks_parameters/ExAp01/sample20.txt 1.39424 8.1141 5.21177 0.586994 16.7357
files/tasks_parameters/ExAp01/sample43.txt 1.30697 7.21373 5.6367 0.53748 15.324
files/tasks_parameters/ExAp01/sample32.txt 1.60348 8.30592 5.38137 0.593918 16.9332
files/tasks_parameters/ExAp01/sample45.txt 1.42258 7.94069 4.96323 0.547271 15.6032
files/tasks_parameters/ExAp01/sample26.txt 1.16463 7.57061 4.62637 0.480146 13.6894
files/tasks_parameters/ExAp01/sample5.txt 1.49405 8.0307 5.35681 0.59407 16.9375
files/tasks_parameters/ExAp01/sample21.txt 1.02755 5.87802 4.61744 0.434264 12.3813
files/tasks_parameters/ExAp01/sample38.txt 1.18499 7.66999 4.86632 0.496808 14.1645
files/tasks_parameters/ExAp01/sample1.txt 1.15892 7.21312 4.63213 0.486293 13.8647
files/tasks_parameters/ExAp01/sample15.txt 1.28125 8.02273 5.50855 0.531063 15.1411
files/tasks_parameters/ExAp01/sample24.txt 1.32473 8.66348 5.4905 0.548998 15.6524
files/tasks_parameters/ExAp01/sample3.txt 1.18752 7.74268 4.79918 0.477387 13.6107
files/tasks_parameters/ExAp01/sample6.txt 1.5058 8.57133 5.80157 0.633604 18.0646
files/tasks_parameters/ExAp01/sample30.txt 1.69666 8.18878 5.90888 0.633576 18.0639
files/tasks_parameters/ExAp01/sample42.txt 1.30486 8.57689 5.67253 0.54426 15.5174
files/tasks_parameters/ExAp01/sample4.txt 1.34322 8.40354 4.57985 0.563519 16.0665
files/tasks_parameters/ExAp01/sample28.txt 1.07455 6.44114 4.96426 0.449721 12.822
files/tasks_parameters/ExAp01/sample18.txt 1.30933 8.56363 4.60946 0.543766 15.5033
files/tasks_parameters/ExAp01/sample35.txt 1.98297 11.0387 6.34514 0.761377 21.7076
files/tasks_parameters/ExAp01/sample47.txt 1.32345 7.14493 5.22131 0.545046 15.5398
files/tasks_parameters/ExAp01/sample49.txt 1.32767 6.65996 4.80244 0.498533 14.2137
files/tasks_parameters/ExAp01/sample41.txt 1.18983 7.09069 5.35462 0.497129 14.1736
