Task0 0.04956921638611812 0.021280489707333462 0.1615875355799788 0.15378790755653118 0.6026858938529907 0.8291547171918985 0.8615418251083196 
Task1 0.06356095969243092 0.15093278469948648 0.1316419641914808 0.12656518405309944 0.8966683317770301 0.7768023926164794 0.4076580503602436 
Task2 2.6376518089412042e-06 0.04866396471351374 0.010360148297947703 0.008046220842091912 0.4477022062506655 0.4493133800304253 0.45890729980727113 
Task3 0.14493062483590738 0.14433931155332516 0.0993959626953629 0.5729552213792449 0.36758921172657694 0.33227707400773715 0.562091478552057 
Task4 0.050589798026749344 0.10502667384570119 0.16527187803871873 0.013919077405773694 0.659999276475065 0.9966704376556119 0.5699419108228971 
Task5 0.028606788216119245 0.03594454980215103 0.07263031814197987 0.10650616546329868 0.957422256591042 0.3500119596574338 0.6268820943120158 
Task6 0.016783833359053243 0.079976129261879 0.003779374253539876 0.0147541561751178 0.8540098433042469 0.7021366863142299 0.6570421310138875 
Task7 0.10660688787122241 0.2492452077130147 0.11227615229104292 0.12402895569685707 0.3948992614638454 0.7479263693582288 0.9278619419708836 
Task8 0.07895840728128962 0.12802647382003943 0.08364059976504248 0.12631685493456798 0.730195475718025 0.5887536254978534 0.36066372177406414 
Task9 0.05320244632728123 0.04886925472236891 0.13198599774696568 0.3497815059063978 0.597617844716143 0.5659239786932917 0.9256428319674246 
Task10 0.12791686006123332 0.07463090032565148 0.48506026110031847 0.028190038737370995 0.5455234018098489 0.32539780507393057 0.6675795947914214 
Task11 0.059531235221830237 0.253943498435497 0.21140352341416843 0.08198376109622688 0.5801116999675455 0.7273881713415231 0.5700231181618372 
Task12 0.10146984497801746 0.2179898620449367 0.27283897886973396 0.18493574010873612 0.9447951908211043 0.5390885813578234 0.3186003922743899 
Task13 0.04815843706631804 0.10373037670650137 0.064299821676299 0.07505916516246697 0.5694957682141603 0.3923310352146895 0.3862339762483976 
Task14 0.018730700003695703 0.25158612336423697 0.05541222566543357 0.1493803263725694 0.5081795993426934 0.34704298439612424 0.9312557166430002 
Task15 0.022961095482675924 0.012501995588996489 0.1796323345031161 0.37795653602118856 0.49238751675992876 0.8437199809965263 0.5937663704296325 
Task16 0.09787182422314068 0.45668451047709674 0.0017695125035314817 0.1874341933277265 0.8347929868844775 0.45578536846339557 0.7609707647067321 
Task17 0.0016410496494731577 0.136792423429663 0.46056155048638564 0.23887510340613632 0.38614456564171656 0.36750988424731723 0.8963445538789263 
Task18 0.08287834678171721 0.10953698826374109 0.006464600942095501 0.2524718523728122 0.7447983903597044 0.46628040950920735 0.8474595550670521 
Task19 0.10706443350554391 0.24974200608702926 0.19754659552186776 0.1683357330088929 0.32957146159005574 0.8017518569667532 0.7731557615134373 
Task20 0.0282832687142394 0.022704828689288904 0.060494516228528354 0.05264782098615809 0.6334604526046332 0.35419830079651937 0.3825044217773969 
Task21 0.0022231843222809164 0.4136239482721368 0.28255097595740286 0.22477433626307855 0.39611343646179753 0.5924329489643554 0.524438958210578 
Task22 0.01457412730464278 0.011354851445489145 0.03822743199522082 0.04245528420668795 0.8740142937525199 0.9037458721071723 0.6261458308992237 
Task23 0.02188328486087583 0.06027863155781696 0.01666746920320431 0.07361563124831931 0.7851734168111703 0.9301496942620509 0.9980746225793842 
Task24 0.03939829439355096 0.3198162443304694 0.2366036238373213 0.26455497746440576 0.4497605156159015 0.4165485051077152 0.8578195522460832 
Task25 0.07063748282817851 0.10557269124577023 0.1910547739563893 0.02088703533247014 0.885995908608127 0.5843309407417291 0.34551452955667616 
Task26 0.019165948884056656 0.04708676495725254 0.06384787216164364 0.04587460564998812 0.3340380684136621 0.9442274867395619 0.6373804753940735 
Task27 0.10314855843663812 0.045027645420720866 0.30088729942285686 0.1346304187137844 0.3501859279194821 0.3379348613136255 0.5763790491502702 
Task28 0.03950390601138551 0.019073979465626167 0.5474108434651533 0.3841468990195454 0.5586890995223271 0.8356054989839392 0.40707630819722596 
Task29 0.05628335471267034 0.032587240706518895 0.44765582720580294 0.148756650846379 0.8979164251523744 0.7959658961368583 0.4005777434124698 
Task30 0.018697278682809782 0.08285630030886071 0.08697767234416576 0.08428512533150498 0.481201510889784 0.4038307592540988 0.3562203996136561 
Task31 0.00135405887713304 0.010813578877874144 0.13748712019665074 0.08870538511406857 0.6803930830050025 0.9068146828790369 0.9468428181919142 
Task32 0.02386534744129228 0.0611056107079024 0.038634303793079104 0.028126195873795543 0.4605799648751465 0.7017624983304667 0.5511261087602608 
Task33 0.03844100049468144 0.2978173820149218 0.16344401538815478 0.265818980883614 0.8043750700146106 0.5295558256432553 0.3360462953692031 
Task34 0.01771098436237669 0.2112389762197437 0.13850962927246888 0.14485434805613642 0.4402390921463064 0.3172321823011835 0.4342921065426928 
Task35 0.02614171076520862 0.07862318356600877 0.05696920842043157 0.035924742768151996 0.6534513618926546 0.7364088003727818 0.6147612068177086 
Task36 0.01532140411266747 0.08820846441760596 0.14318874747870436 0.20011811815664254 0.49056526375669757 0.38452132115825816 0.5217584276580396 
Task37 0.057226139587784546 0.12798327559425765 0.1378895634713592 0.13724975921029328 0.8472480398612219 0.6146118008118683 0.41223569479642047 
Task38 0.061978620722939554 0.18386916402156644 0.14173847417418511 0.031098046460996037 0.4741836834662689 0.7516627968913743 0.6169898935258942 
Task39 0.02732550932922838 0.12959126655661446 0.0067281213503880095 0.12039644077104475 0.9917750620943997 0.7214709380534149 0.7801543277004537 
Task40 0.09434948457062352 0.07712702519657842 0.2512424205600467 0.33645645206650177 0.5066316385207403 0.8620882865970785 0.38004675640787566 
Task41 0.0032752771304022897 0.010687484679861045 0.03647466694438533 0.0062329072037700895 0.6088178689292552 0.9066132999004284 0.405217506608771 
Task42 0.003969805811316276 0.46920824721689813 0.3163332002387877 0.008888118936910112 0.8898576465470387 0.37279871553556376 0.7749118212822684 
Task43 0.14716242674777036 0.16528792057474498 0.29704361615277636 0.1277502570785427 0.3218061713061815 0.45820359979835945 0.6768537575868121 
Task44 0.08450017249814087 0.42083180020881944 0.285338887797481 0.027579638246687882 0.3906099662004835 0.946490013437338 0.7839843107528274 
Task45 0.13054106363334053 0.08571842434719222 0.13843036801859682 0.4155023016597583 0.9217366528175366 0.7115579957919873 0.7287343799406213 
Task46 0.02496716611550005 0.44726114140378936 0.009640696031282151 0.25012913380437 0.4593866246455407 0.32249242328260314 0.4103252088769551 
Task47 0.003014682468694778 0.019452683527381758 0.006951800249781893 0.007997468183797382 0.9814000291617759 0.8502267393335634 0.44970081379445104 
Task48 0.09990527047577158 0.014927730128433032 0.24499032521253666 0.5321882445983458 0.805846016532199 0.7649910888796774 0.6281485329210902 
Task49 0.06579249554865364 0.22012994237074177 0.05660874903034524 0.08440369816977585 0.9717896640326003 0.9017643599656129 0.6749921848548874 
Task50 0.0435406981315837 0.18519927144379494 0.2883654092638883 0.03410182017859561 0.5854828193720986 0.889357918861317 0.38628385960394046 
Task51 0.0987621741653432 0.020846644596630208 0.2295544026461917 0.6340887258086002 0.3530084691312672 0.3660585263233992 0.8966838799087087 
Task52 0.051763776945728555 0.13751183823040805 0.12134457786571069 0.1875374060924797 0.8873540988906297 0.5749106833353831 0.42596135602572693 
Task53 0.01198197771820063 0.009448465151485369 0.04719247781394619 0.112913383349054 0.39509840079684694 0.6362316170525395 0.8309569799534462 
Task54 0.07768064955157067 0.016491347265261493 0.06811715339993919 0.36854873254925813 0.6634528681430267 0.4606016226660648 0.41973384213291476 
Task55 0.10469636157925044 0.4643301122802886 0.23088417768319422 0.018043542478371217 0.8295346537585309 0.47960043250364515 0.7788394849478752 
Task56 0.0032639275672659888 0.01349501344066987 0.017548748107657445 6.226849842176577e-05 0.9444610620697351 0.5551658475742955 0.6562615312099737 
Task57 0.13453697792262034 0.14342858603457054 0.14472526974286923 0.3180057678754376 0.4045944464726608 0.7825415414120762 0.721623407466088 
Task58 0.08092087292997366 0.13841412193747932 0.19625800572116553 0.1993120515459517 0.36348009289758926 0.44189240884672365 0.8262736800512243 
Task59 0.162359085554144 0.2116919186149034 0.539182814714701 0.06777569387002284 0.7757232263489022 0.7252988063711603 0.9740315963806667 
Task60 0.07881181755279162 0.04767191066157839 0.20277431576680197 0.09207069612012363 0.39211530377325843 0.953138681366196 0.7902620369560878 
Task61 0.013146831315010151 0.04129691833384268 0.03304726913202204 0.014867695084484345 0.9914283623966587 0.9434146759977284 0.5926072468194468 
Task62 0.016290068529521837 0.24517774565137357 0.06427712511635539 0.022033697624580337 0.4569649371724853 0.8710301720955325 0.6556745764163818 
Task63 0.02204461568397951 0.030456210902576615 0.2049167015375597 0.06869154363021897 0.3548974647182057 0.9044700194249726 0.42906803536615656 
Task64 0.06212600860328407 0.3063534557395381 0.10632074119013486 0.45446272495384366 0.503731687701049 0.9591698362766758 0.9614718745270021 
Task65 0.034242355355011744 0.11392804218622608 0.011407128095846585 0.023049163829111794 0.3723920642747809 0.4304410819538579 0.5803278954368998 
Task66 0.1363650725946656 0.012105042752376543 0.4389183056669298 0.3782424949570709 0.466460146393215 0.5507523878607892 0.5754549287623056 
Task67 0.09999781566935168 0.07281473749995097 0.3185364610880956 0.36783944885349784 0.363950747575145 0.600686905002985 0.6309085627017238 
Task68 0.006867513367108891 0.021660451163695214 0.01904010265212934 0.014692796210852673 0.9974812474036274 0.8818299279254416 0.40569327796859284 
Task69 0.023889431617503062 0.010221186621679892 0.4221228615987652 0.2700593065174543 0.7691070834355916 0.6799146277520309 0.5070713302073236 
Task70 0.14036600193625565 0.2479915007449262 0.4039339043853196 0.051487911627440576 0.9855998603690062 0.6003978209576726 0.4014125031471138 
Task71 0.0027667001859184074 0.042370930018338616 0.03064281082149944 0.014544113623629019 0.31579516417402176 0.33692376524589585 0.8481314908358784 
Task72 0.08567831652782691 0.052500997830707066 0.1241358863778942 0.2168470756428439 0.7975943221104369 0.6857896061586171 0.9150483070320887 
Task73 0.037305770959892945 0.3599246678411695 0.37402572717968974 0.14915610691027348 0.5484362370347151 0.7727134150045287 0.9193106698753604 
Task74 0.05537996632217196 0.13715662754644958 0.09597406125788852 0.005151100152042016 0.34257411704137514 0.6149338092918186 0.5110255165800008 
Task75 0.00112196400235179 0.17916763487018672 0.3441556176989778 0.17037388959815986 0.353512969712605 0.34775236047070024 0.8498917241117896 
Task76 0.06551955634513358 0.17549028814990586 0.13266806200677414 0.33576258006667403 0.6556636118126768 0.7447079755957768 0.6080555852136869 
Task77 0.004838743072449712 0.02967413248094085 0.011264238070539659 0.04626940482656782 0.3839964980159671 0.5307584660428593 0.3953197999361324 
Task78 0.0832667743252551 0.2542191054033717 0.36919188076033216 0.26523411685196163 0.5831723446913709 0.5623729910471806 0.713099426171399 
Task79 0.00020278576012973753 0.0020760079301684487 0.0018820625263034128 0.0015331959625305034 0.7927010746147403 0.5037631084945728 0.6065252863046271 
Task80 0.0018141435807950414 0.03462089429122348 0.029326250560480948 0.001689139667114073 0.7544428882029597 0.7102442721855446 0.5371407140526091 
Task81 0.04631663171983911 0.5953679001143989 0.14304345494146203 0.026775961485966122 0.8249775521473821 0.8614904981102125 0.3960646505766515 
Task82 0.03476419812936071 0.09088804233609958 0.2977271841721863 0.4227687445028442 0.3300694615495573 0.35334860783102306 0.4536735476681519 
Task83 0.07333480847154956 0.12553504381452005 0.585353789736638 0.10926862363578482 0.630311442806777 0.9049647593128594 0.8690318914857917 
Task84 0.017902350011776414 0.07791096805300397 0.03185157634226361 0.13042072992563725 0.5412331286633348 0.9876673754380829 0.9056843693767513 
Task85 0.010233603915633167 0.06010081370730768 0.13875346085067716 0.06403763301645896 0.4251080912924634 0.34128594065760376 0.678418253840322 
Task86 0.0143875372580887 0.028480261098397616 0.01483333232274529 0.023254187571293536 0.43129740139425815 0.39252634123652247 0.7133866589623683 
Task87 0.07759180719663344 0.4250505914770801 0.13709924134045756 0.22053212053262528 0.4696475327264641 0.8643907926095471 0.9039596395564045 
Task88 0.005730673115893197 0.0166300206870802 0.010934765295789389 0.02196985586341378 0.7774309920424216 0.9108036275433993 0.8724743772094581 
Task89 0.05554829289665944 0.026544209960756602 0.07093356130786933 0.2221796552009068 0.3521370381639116 0.9975630368082555 0.5128048109699779 
Task90 0.001072101979242869 0.02120340386020995 0.012530528850340275 0.020105804322018972 0.5992609610651694 0.4057177934846816 0.6653590603786806 
Task91 0.024040221581243474 0.03978084446262911 0.06520551676074392 0.09958164627156779 0.3352507638507129 0.32643567645620736 0.5118619392954258 
Task92 0.01963401633625973 0.040831268336379956 0.23946383693240256 0.21686219645721005 0.6000634341435411 0.6199583125400652 0.8434307141974549 
Task93 0.002547706489308207 0.04299125003893683 0.004912156207108828 0.011216577056519236 0.7146416129972297 0.6217698151254233 0.5658330645336784 
Task94 0.07397050647092195 0.12586634212399525 0.053238833675545744 0.22765657632516165 0.8755652121951567 0.6946918546376349 0.47032436522261734 
Task95 0.11502184044278807 0.27367543802042205 0.17521391724373525 0.0397265907348777 0.7424105365889817 0.7498128281614892 0.570168326862079 
Task96 0.008725949692057896 0.04669607179357398 0.05130775661900853 0.0003119934528917284 0.45747521836378774 0.5643747297614485 0.41692904174822276 
Task97 0.010797692313386937 0.06461624765180476 0.0032432207925646253 0.09651413301598342 0.7182784034739109 0.778618496542369 0.6694188469832596 
Task98 0.01115047789841746 0.40573381721651425 0.026016563432890407 0.45569523116070765 0.8000264934443062 0.9153703568146441 0.9397217612476887 
Task99 0.06577791768875609 0.22199150105589138 0.21801257771949462 0.028335789477860977 0.4640229842674526 0.8814952815338657 0.7683981033899451 
Task100 0.019000315260784426 0.0038916798734523373 0.043074465273862994 0.040084275102318795 0.43000946755797087 0.8605543721089668 0.517127413733163 
Task101 0.0818064843650767 0.1604707895318977 0.12263063948868073 0.13579585753447448 0.8953947183170006 0.7882009651005911 0.6817839432933788 
Task102 0.04126903386318891 0.07157968302893845 0.40973966933106215 0.01456095989107961 0.6817191764175601 0.7574277393114934 0.8989329678828928 
Task103 0.039122982321247474 0.08991327518277115 0.07384900815982896 0.2338075745847955 0.7051750805350854 0.30837282072253464 0.35427047079540547 
Task104 0.00042434055008087977 0.03575238461310028 0.01739164168392527 0.024051018341283516 0.9965634347377137 0.33812644140707404 0.32051464595557 
Task105 0.0008891219636969235 0.0019205875310876158 0.002390973601418931 0.0039501420704050084 0.708582826807787 0.9435479169335048 0.45387734214472286 
Task106 0.10342445524365203 0.20436481244402255 0.18636119213159105 0.10805039390840195 0.621655196638738 0.8220723236835956 0.8894186888453672 
Task107 0.020430481161494984 0.08400752070735083 0.05796902178906973 0.016017006514939792 0.48025058750089233 0.6779120367671307 0.6718633250864698 
Task108 0.04493212736804703 0.20361676659481512 0.15765457913408956 0.2031317086691127 0.977468287202246 0.36667271891257386 0.6718382118701494 
Task109 0.15895713594254962 0.20852908858852198 0.15672537441763196 0.29925111553542694 0.38514119981704725 0.8251015157231427 0.9142116306910213 
Task110 0.010964555541856057 0.06079362602737318 0.1532309603998279 0.20558098431756136 0.95809974017501 0.7063531603599074 0.3983981022295348 
Task111 0.018645656032781413 0.10287739910781175 0.08429248939419126 0.13300413949242873 0.8026525615895606 0.5751523126959921 0.32257917755348897 
Task112 0.018726198015859327 0.11350646795357992 0.24953998595478954 0.28581960577698073 0.7190848344352279 0.8129981083678444 0.6005006183357426 
Task113 0.003773580013037688 0.13146269293820723 0.046900181376757916 0.04008350853450028 0.7782684322499713 0.5181237476381308 0.6702329365641534 
Task114 0.04082161006850257 0.2603071983918674 0.26451120464865624 0.11942874530002927 0.3754469045559813 0.5331994268106679 0.7192947272877661 
Task115 0.030782084794988434 0.051634335858131375 0.012457822851253958 0.10932690162712853 0.5951848669736464 0.3460013661346313 0.5781414762726358 
Task116 0.11744971778962214 0.0026206751454221034 0.07471236010218354 0.6267207841084425 0.5016270287210097 0.953436559616686 0.6933665690824176 
Task117 0.0038914832543525497 0.08004701511503873 0.03347891842787582 0.0824473095466604 0.5098751830802593 0.4703008956276519 0.9490528347041778 
Task118 0.1163115028618755 0.26368689105995724 0.1137744373959014 0.31172976203265523 0.6997865582589105 0.6949555723598623 0.7295435288180613 
Task119 0.0039036422080731418 0.17866592323407196 0.02857664656369618 0.07702696002415761 0.48507173524173214 0.9126829357879398 0.7252872868647595 
Task120 0.016908950232652865 0.009003856946862645 0.03798567530208655 0.02349360435644627 0.7359326184865709 0.5941765290591599 0.6371493949064044 
Task121 0.0183300560805524 0.018297844372667186 0.08437245966656581 0.007502358134762219 0.455787109275329 0.8701827432145375 0.6676564511190158 
Task122 0.03601493013267113 0.07131614616429802 0.038539665946353066 0.04260098247112508 0.6662415051814252 0.34767753792567063 0.6446548406529793 
Task123 0.16526028896067843 0.3253048738327549 0.12249890929486887 0.2773315084593721 0.785267114779634 0.40297401308673314 0.6303453264090803 
Task124 0.0512762937475513 0.19142853428722137 0.35522531966233906 0.017811418392267245 0.5619735534312147 0.9506085965656932 0.5475971512958198 
Task125 0.0011089513765749116 0.03006457269757357 0.008220836333004744 0.01434755971676387 0.33620786358436594 0.4013099925381121 0.4048267625232361 
Task126 0.08515850092830239 0.03672627486439268 0.09779993953543185 0.2902007255114232 0.4646711989915765 0.5106610135790067 0.4101448589184455 
Task127 0.03153098714592156 0.07169904379169424 0.045181452423625056 0.17375488345555673 0.757321771676343 0.9751884823898858 0.4823635395436724 
Task128 0.036349731368957215 0.018138608842247838 0.30483503037065623 0.4062907081678626 0.8993030124978167 0.6254169175091671 0.8440158015828021 
Task129 0.08601881535738531 0.19512075728567652 0.30620445638417126 0.1841944141990707 0.4551827534291182 0.3058402350869527 0.9310650988757447 
Task130 0.000473325983989232 0.008773967153686394 0.014185512950511354 0.005504078445908952 0.9560097447054836 0.6984492218018981 0.8508503457343946 
Task131 0.07918498191066671 0.23376240556175987 0.22945161936692485 0.06064449418193283 0.32922004274170613 0.71559633044351 0.5964278088444714 
Task132 0.09356990335194292 0.12364778596691463 0.7088253726596373 0.0016944119105159346 0.8201340134887005 0.47442013500046804 0.6881721563582628 
Task133 0.02120033500597894 0.05413214144003575 0.10428058212617466 0.27041824536601244 0.31638493172496057 0.667197431633649 0.7234300349806692 
Task134 0.006121071987229103 0.2292335482605236 0.16180693505826615 0.2357758732557022 0.9217697788660477 0.9316095491149383 0.6971506853633518 
Task135 0.1491930817685251 0.0712626070526292 0.3300842146157803 0.39558794606758696 0.8174284315277827 0.9382942143736996 0.9087005565721455 
Task136 0.024177986238563282 0.009540405671580904 0.03172148083466441 0.25125506390333857 0.33136845206723814 0.6586267880360912 0.34913250030448684 
Task137 0.029022111996692437 0.07641657095163794 0.0315954817377809 0.1275453247644267 0.7717882580245923 0.6872831009393674 0.8410702758023509 
Task138 0.12023235044020021 0.12567394155268716 0.45062806963443164 0.11940446854639135 0.5146780112274263 0.8621063450618014 0.5355254983429616 
Task139 0.024970167059718964 0.24195651035815965 0.3147611036974956 0.2016228200402826 0.3769254022448173 0.7958226629052594 0.972839070682705 
Task140 0.05158558751691074 0.4625739333573392 0.25802550858736695 0.1313624652011787 0.3519660022418886 0.4567547604226048 0.5512539282183453 
Task141 0.004127214590684595 0.04651390047842427 0.03781564753897003 0.04814481781578816 0.5315097232037276 0.967462898469178 0.9031971020150813 
Task142 0.004767548891186546 0.19789216396402867 0.05970353633210193 0.6055302978354593 0.5694827875006578 0.9249934264947786 0.7030975574369656 
Task143 0.029794280361746354 0.047220269705594516 0.4036544313547218 0.20839544286626585 0.6292579598878143 0.8116941920043115 0.3366266124705978 
Task144 0.007368934084418719 0.0313555154144113 0.005213364881375074 0.035299820055754015 0.939396035552462 0.3398656098218042 0.3749162147155711 
Task145 0.12348078123652666 0.04137898304650199 0.22696543107827818 0.5733473760456644 0.502515382798559 0.8454399042458967 0.5454200446534195 
Task146 0.009530963389716592 0.02426001122149618 0.016677670950054842 0.05386682490808981 0.3326757279531077 0.8311809945743585 0.6735527387287856 
Task147 0.057443778600104814 0.12003230734206012 0.08011566902922888 0.09790571362337525 0.40533138282908976 0.906926675992042 0.3767825788460995 
Task148 0.05886473538133719 0.10649185057236542 0.3559669007039428 0.31947952630603854 0.4008793290607874 0.8953682329980399 0.7213099867388681 
Task149 0.07117274753852655 0.17312034133709112 0.0945271992668393 0.436003183105544 0.7328019325504882 0.6943799325653133 0.6845831468826167 
