Task0 0.004293121744680681 0.5656056018333232 0.1381608036743101 0.2673925458402214 0.3762715044685244 0.8255077896038225 0.30862151673491756 
Task1 0.061536415351914966 0.10568766456457568 0.08429490482520215 0.23776225669663284 0.43940749497870324 0.9846844538228368 0.9798393778370138 
Task2 0.02223349116869857 0.0726751562952709 0.0793968843292225 0.0025715005951488902 0.6881643014975252 0.8744351782081159 0.6951671432064959 
Task3 0.06872575924374118 0.4035297980510819 0.4204915206104309 0.04591592423134754 0.7768030169091689 0.39910264331479856 0.9610274105683796 
Task4 0.008958244900487564 0.020931051151131058 0.07253245185024979 0.034941351768789784 0.34176644646049875 0.7638180078749885 0.35546246504937606 
Task5 0.0007874275336461915 0.0007881480475747307 0.00041506410786047455 0.0023101247478577672 0.8302688324833469 0.7669434229003185 0.5058318030314942 
Task6 0.09217776978782155 0.011311112890833527 0.15226250231785368 0.31243108543968945 0.8125500650539697 0.6830804378304403 0.7376334908588589 
Task7 0.037047129765637 0.21896228828546635 0.0668111459942749 0.09134935032309252 0.8558728228900996 0.44332398003982526 0.9414691549140837 
Task8 0.07622050263814797 0.17258231616663783 0.21348860698206173 0.2733956334456873 0.5061289099082453 0.742113210544084 0.3118186579664657 
Task9 0.08495561659795337 0.17940152489214956 0.28201100886824176 0.18017367126892572 0.9336689117715988 0.8341786891088532 0.7424156413246947 
Task10 0.008110868641206076 0.09164125034863478 0.33713122012942054 0.18426887978540676 0.6125250238450927 0.426988482772489 0.5236737576515373 
Task11 0.007551566817934682 0.025671107780052747 0.020736368640152054 0.00946726559129896 0.6188922857827792 0.969053043239595 0.9496356176102203 
Task12 0.002948114734969541 0.12831046703645202 0.1141308369761491 0.010901297886007475 0.912922203473203 0.5753264814145265 0.5084923080432292 
Task13 0.038259758182315744 0.10279423625573197 0.06902305287653354 0.09657058698033312 0.5505147017031778 0.4655753546143815 0.6568199854694667 
Task14 0.029599420687192284 0.05821793838763273 0.02157644298357007 0.047444854570794524 0.3486518571282616 0.6504811309802734 0.8747022927735266 
Task15 0.1378874664192613 0.4227311217700562 0.0020490559019295906 0.37217139187766773 0.980703707357131 0.767851712369626 0.8934269559677313 
Task16 0.05760004243439631 0.16305517328590524 0.27931786028003736 0.13017188383614348 0.6805183345723684 0.45311351527261234 0.6326033910344537 
Task17 0.03350993556199066 0.0713840647011855 0.2904456712513918 0.39041145723355775 0.7296027125910842 0.40042779063932693 0.9121968945162124 
Task18 0.1421145691744264 0.42150784831892757 0.14430779535351373 0.22759308778264428 0.49483847546980475 0.32880060209572776 0.9706674149696681 
Task19 0.05257842874191711 0.04963304605568129 0.14166976982206467 0.023595585692177058 0.926429065783885 0.34325712143303494 0.7694166857659728 
Task20 0.08485886851447459 0.08212125491963455 0.12469908674536273 0.19307487871241596 0.8052329651402066 0.5152162119771171 0.5905739257392584 
Task21 0.1278735180483361 0.3975952394568435 0.19346096859170056 0.18504014107809047 0.6939596427770081 0.689020883361372 0.39805531220218543 
Task22 0.02637010217476796 0.10271472550314975 0.10261753564614394 0.1885339761523492 0.41687611191161666 0.5589151288323101 0.33704200907403875 
Task23 0.021414621377865036 0.039634333843260476 0.03948321296944232 0.01054073787435597 0.887623289478843 0.5102255947311083 0.48227783559830983 
Task24 0.06959598136003144 0.14692894969190454 0.20486439270979698 0.19022471192860324 0.857029119006159 0.9368986260617582 0.6454636397397111 
Task25 0.01977386175101999 0.32422030869398355 0.10246200179940596 0.15952755540135338 0.78380628379241 0.43238904307293013 0.41633175016666824 
Task26 0.020561337698221823 0.09741977147000598 0.10173630886774639 0.04932528870920412 0.38599911706111195 0.7293087792086068 0.9846169755443708 
Task27 0.04810896897745522 0.06000152174136899 0.13430156953393804 0.03664693757470789 0.3577679439885573 0.6394740359725122 0.3226592407179786 
Task28 0.04531796438855231 0.1928845532290262 0.10649609867977326 0.1825787756526733 0.8629133214896842 0.7379147603784422 0.462993982810914 
Task29 0.032274811778515766 0.04921935202246437 0.02056360960372327 0.2561573960633189 0.6314729572767053 0.44859884656549637 0.9385567701093354 
Task30 0.008852390598768582 0.02969119791280101 0.03315252619780058 0.012159639158016133 0.9067170328387915 0.9607354069604157 0.653991440808148 
Task31 0.04975157282594147 0.10950531595261148 0.05860917759468736 0.04455763437932751 0.5044163764188192 0.45082551374747115 0.9503997904429373 
Task32 0.018346908138259486 0.15432689000972458 0.0932617555572526 0.1077613492884239 0.749537407771966 0.46683121143491874 0.5493611447575755 
Task33 0.018941940196092716 0.06852210867698205 0.04771294417246264 0.017835145317696362 0.6582033141372982 0.5286553013239407 0.39208637247293315 
Task34 0.09024700006096605 0.5223107791486479 0.054596998388203415 0.2093605077160837 0.33188324429964255 0.5095491178383503 0.63023992454846 
Task35 0.014606594564553401 0.06496696022931689 0.19510999902377277 0.04244601525957157 0.4890395833641759 0.3512362463882519 0.34097466063517234 
Task36 0.11952151626154475 0.06167177478662646 0.273559462648253 0.18743314858867138 0.3313632937410122 0.39495448272494293 0.4801915031728409 
Task37 0.014337794229741971 0.2517606551414418 0.19370839514197308 0.19084205152185593 0.7227787014002456 0.8368189661770558 0.4264142580391972 
Task38 0.0156255160436026 0.08586111292995918 0.1556822230552076 0.014358197121102768 0.6733944964315909 0.3299717231550475 0.8074085812995353 
Task39 0.12686842376675364 0.3720470811608673 0.1879663484711675 0.2981466305409634 0.8882201806439975 0.4629515291413274 0.882919572629195 
Task40 4.513420925443601e-05 0.004080440194024818 0.0025502308004202046 0.0018535714566876526 0.846251727396107 0.595061489903203 0.80032117812155 
Task41 0.16515969799340097 0.3579941661956428 0.29581810046869095 0.15083172407294776 0.7786896162597658 0.5222557387380968 0.4135522267189082 
Task42 0.10046235401342099 0.28891983188271897 0.1881225627927655 0.13383859545837218 0.3444230469121421 0.5319795462862598 0.5457736200583418 
Task43 0.02737411838329625 0.47227694664213726 0.06393174275841704 0.0017919556957823885 0.5757160276469948 0.32863558282767286 0.31629114939625835 
Task44 0.18399629838084267 0.06066309347826435 0.540947381469602 0.15848902280673613 0.40445167127936876 0.8438509074538263 0.9605271934752091 
Task45 0.03495107078588474 0.28179214653834556 0.1957461268570783 0.2798440593184193 0.8898343335177121 0.3936965449189197 0.7478395441111573 
Task46 0.005650110532550037 0.007859829805871271 0.015804360845328682 0.017509705990463427 0.399175998704314 0.7833388080249315 0.6124736243247145 
Task47 0.056767886854283384 0.405182907834379 0.2227025165176175 0.16495787839346246 0.9402101886300562 0.31004970899285095 0.49665400337460575 
Task48 0.08692927150454316 0.368643045855951 0.0031984738042635055 0.06662503912989404 0.7995374370827137 0.47946659236497324 0.5867924126824164 
Task49 0.134499094467728 0.06271239153073124 0.5927865170374231 0.03353389497625524 0.39035303535661314 0.6460271103569216 0.7209800425062548 
Task50 0.09882113478677412 0.1924580270903463 0.061005238295094286 0.34399282016460836 0.8667050577815036 0.3995302166420462 0.6807481048583994 
Task51 0.099000041145823 0.2439818255438073 0.21954148134843446 0.08116546864261928 0.3472051479088632 0.6316744904476737 0.6084105923435554 
Task52 0.13560871036329647 0.15719307066422775 0.17364491486149683 0.40624330869271597 0.5022076316949575 0.3748554949000486 0.8281443624094178 
Task53 0.01489611309774455 0.16896191315870995 0.21494137198834876 0.1158553031314046 0.4955167288173997 0.5469058788557201 0.7896088365260321 
Task54 0.09180917293332909 0.2437984521168904 0.08802164775320159 0.2299341820419193 0.8958443611973663 0.4988183095599819 0.6671303240808184 
Task55 0.14027832631585901 0.28798721978855496 0.24893834159552686 0.10670544016958776 0.7501527836537218 0.997597233133688 0.5620743657686215 
Task56 0.018945706757073022 0.01604153114071612 0.0879032482282977 0.06061903624599845 0.5750921745943016 0.46757540091866623 0.7627401077117714 
Task57 0.05640156604274339 0.05737322641241442 0.24985143324279452 0.1808296684461069 0.6130985917221747 0.3600679544131069 0.8249090695506969 
Task58 0.0356021904059607 0.03288165510676362 0.33030437379389443 0.2397700990804282 0.923833382436257 0.5441785313479485 0.7947461955313604 
Task59 0.018163240667762624 0.2512783941802206 0.2848315462730333 0.07911977095100385 0.9412732405019442 0.3302655473348295 0.7635719358194608 
Task60 0.13421463929184796 0.2938125698693217 0.325838633873997 0.027527826294808107 0.7120216316654822 0.99202751573724 0.4527880178790853 
Task61 0.0793224462217211 0.09375422767711733 0.14571311265865644 0.1788807749484867 0.753959380846293 0.34163023245945084 0.3386407019346288 
Task62 0.008959789577767694 0.030072472064792237 0.00016721539877065098 0.01600865146432946 0.4445158148633814 0.6961130362503325 0.784514790756531 
Task63 0.13246222569018073 0.37072179026935864 0.29601581642956454 0.08354294435329777 0.6636638034116499 0.458979410996192 0.5080875527217581 
Task64 0.011249279857140115 0.03149154000784914 0.03503922713433595 0.01675115945669833 0.9700075037883251 0.4829396207504409 0.7417127257297048 
Task65 0.03438094817468006 0.13825148147003674 0.04811707361685489 0.08855995642466677 0.9039719141157156 0.7900122956908555 0.40459135077400665 
Task66 0.008305356009032183 0.04713214468225914 0.028610275183098104 0.10117753224747936 0.4216898054921888 0.8442362046556908 0.529206566045227 
Task67 0.007913527300019369 0.10276995192499248 0.06123586393470209 0.055710813692291916 0.8516896335484001 0.6853112330540361 0.31596527154349063 
Task68 0.05947405153400889 0.13564847337966654 0.01354108303661762 0.6133132215202286 0.32607636718301763 0.7400135903406233 0.6126138512693085 
Task69 0.0015020529335098883 0.329312934895871 0.09335059660797178 0.32431695121470644 0.9291259468407547 0.46530987853355027 0.8078714204725648 
Task70 0.0012063899305814966 0.0028867351994800606 0.004155498863308138 0.004967340653147058 0.33582109800131 0.4082759377095594 0.5473501635398517 
Task71 0.14746371697482588 0.3459738874141991 0.07632874696918249 0.3710264751639855 0.9265144217530676 0.5028891012893157 0.559790568788501 
Task72 0.013825582180416513 0.03686093397541801 0.0028375490679102533 0.023321184045832707 0.9615492413577362 0.7482785542983904 0.916951385169211 
Task73 0.09590612583522976 0.3421862721517663 0.11850452798891475 0.2930510349050769 0.8407565565676502 0.3868415542777852 0.3322266300980491 
Task74 0.0003791705347190359 0.016032735005036523 0.018683012741666855 0.015849243946790555 0.5853372295601587 0.8627720967246841 0.9503940061692269 
Task75 0.08830206648272862 0.3408043409587312 0.3091417018622527 0.10357654864783133 0.5603356433044772 0.7779564166856406 0.9613020532605956 
Task76 0.01959407654979532 0.09005476068863903 0.09126825336890677 0.07593898195493651 0.8713121087496205 0.9323293813873792 0.7243411437932263 
Task77 0.0023217938167776177 0.0025026661841340506 0.008686335946556113 0.007833567691310892 0.828495984248173 0.5077585142163505 0.635218985497009 
Task78 0.0068997328735450935 0.03735806603191243 0.022406292119819204 0.0006941384994018869 0.9051651167795145 0.7044759578266724 0.7032835568777682 
Task79 0.011223160594353203 0.027661599358393366 0.06246908344380247 0.03803925209758999 0.9555500495364551 0.5242494691015723 0.3873934047454472 
Task80 0.09105386309407404 0.1457543455194573 0.17258317881508692 0.09932738347829338 0.4282895988543898 0.8278856097576992 0.840849276775604 
Task81 0.0067197448917937904 0.04556973688664172 0.0009744812900712882 0.058209078565464055 0.7858823664419164 0.3658725976862813 0.8032878846739042 
Task82 0.038343903477257225 0.06027353042295953 0.10840705854868622 0.5551093726239713 0.7741553911171902 0.6443509369262443 0.441743835856898 
Task83 0.0010596240268238065 0.1476776915274342 0.08079557986156731 0.2881141231861126 0.7451216013872618 0.3855236853440937 0.8277850979455081 
Task84 0.007916715811381442 0.06308235950994902 0.08238656237237746 0.10993249187254972 0.8130230063883319 0.8473349251645474 0.42776372257176004 
Task85 0.03317870632993741 0.07337079732941215 0.08101126918264304 0.04553891573457888 0.4904911307884454 0.9715653461121443 0.5118619412172202 
Task86 0.044643741145263066 0.0523338905834957 0.04988878922799422 0.07686399210875537 0.7008889500111263 0.6508705436321796 0.4436913601330704 
Task87 0.004349158369051766 0.004572119461690849 0.019026355818669065 0.018861622021575358 0.6484391514993679 0.5054569487478743 0.4664478407527097 
Task88 0.006449066966992027 0.0016463758104476231 0.021476597401323932 0.02407796253226424 0.9425899847261057 0.3375942997288963 0.95043920056136 
Task89 0.028778391239350755 0.09466776826015107 0.10000931282149873 0.05737205255658598 0.6429562066987158 0.4630068674941096 0.8321982461327564 
Task90 0.1048315990695762 0.25638070318462675 0.1241570889524463 0.18213067490300966 0.4726684297466629 0.8629911146834623 0.8691331709492487 
Task91 0.04056713993452536 0.05014943410855897 0.03720829161243332 0.08896699257185792 0.3632190010746532 0.3303762048649333 0.31768081403883686 
Task92 0.029569470694266634 0.03727725566775538 0.5291944620161457 0.060726666366544876 0.4425020595200866 0.64065196681644 0.8870314844193801 
Task93 0.0051975285992164055 0.047306077566282606 0.03986377942631159 0.045929030275936276 0.8893078321031898 0.6533832811977002 0.35168965580122763 
Task94 0.0033244640079824386 0.021718371213649484 0.01960832561171 0.021670751868106124 0.6976532275612839 0.7145392808496522 0.913408139164765 
Task95 0.13431966640591286 0.3220838620625226 0.0921525329842295 0.21537965402179912 0.7937337042354269 0.9655434106232088 0.3273633174834581 
Task96 0.06467944693049665 0.1835594418042798 0.10338666917556703 0.08352531418085901 0.503818189913719 0.6086890883982334 0.33799675768332305 
Task97 0.09644127443779504 0.11895447239001031 0.18690459387784675 0.10195618681032051 0.41207900444431844 0.7555111244995611 0.6665648325835591 
Task98 0.11329551535439081 0.42423994332604886 0.308402332325847 0.07341582430979403 0.548270498612163 0.8152421481280503 0.9243945628415331 
Task99 0.01526291821711253 0.08950514515677048 0.12715258221115247 0.09056722945395901 0.47919763504681295 0.5658569121012523 0.45115743004558606 
Task100 0.007652282142638499 0.24113495594717224 0.057010466104769425 0.22729187927258163 0.7062784393670147 0.3367702606138531 0.8341389670448904 
Task101 0.050492698201824046 0.17603704870766324 0.22009417795623282 0.14256093159049987 0.9314592541950883 0.9056281813424059 0.8479243772289122 
Task102 0.05411230481247613 0.07917395821371996 0.10137115777254106 0.17655620250774037 0.3396097116863579 0.789368997520904 0.4535762053387831 
Task103 0.02388719400120741 0.11466797656317898 0.1504614217694018 0.012034553207522197 0.9880912444464776 0.6074374614154298 0.8333808981344089 
Task104 0.007412130116406718 0.12586584724958946 0.38846808931908594 0.1021116168371503 0.6656126000247499 0.7679488294637002 0.8710904475889931 
Task105 0.0076769284813449235 0.023019818601214964 0.02858379675631371 0.023653940195829448 0.4571744345107219 0.31992857790947393 0.9914585917311027 
Task106 0.01459868314843958 0.17170049687232047 0.18392265078001982 0.0055172549596017775 0.44262404144391065 0.8981459461112618 0.7058087202664993 
Task107 0.006924843577626289 0.03993989093616814 0.0005709636495931028 0.01898190050120831 0.6739834719833986 0.7958277149314875 0.9892989485023156 
Task108 0.16790989497606115 0.3170551962750033 0.23862734693148618 0.18965598399489178 0.8348647744688948 0.35020984908426855 0.7441438140345702 
Task109 0.08302101224996955 0.09844703777693448 0.039031796274104955 0.22418111697596207 0.7719109969815512 0.9364537807830637 0.3281594710272923 
Task110 0.12396354721020753 0.261745178225575 0.2862600803535721 0.0446695915745399 0.3015209043773778 0.7223606262421317 0.34046203012927523 
Task111 0.005951899877611656 0.032486919538002146 0.048058352886479604 0.019042361207901936 0.8431782042185663 0.34211731486973673 0.8663138398437171 
Task112 0.005175905683021292 0.010313997030039376 0.008728407655423346 0.011355517368695302 0.6158658072038103 0.5564284565801738 0.8338716746283186 
Task113 0.022833741283819077 0.1334301302980605 0.21183277460752672 0.10842050516887637 0.6438843900386256 0.3855020298209384 0.7430776705708191 
Task114 0.000872526862797731 0.0025874761026309398 0.004480683106124025 0.004657312263082567 0.8572926126897762 0.7846419030686304 0.44520859992121015 
Task115 0.06498432799774986 0.18397412164904675 0.20456189846573514 0.19917630116585336 0.4071367514758402 0.41004793906470294 0.5963344107307271 
Task116 0.001175795514092969 0.0009347712586353054 0.007296972925596241 0.019754081716394714 0.6235535261194342 0.6303564498146312 0.911952144308497 
Task117 0.1303219870475991 0.16933488733948485 0.32641275510577084 0.12855230683966945 0.35910112589429105 0.7035226608354186 0.9928893774969554 
Task118 0.1119973777115018 0.27394264937356977 0.21880400543324308 0.07019035176230337 0.668964374789103 0.9667536282352656 0.6727195405418531 
Task119 0.04475490964258724 0.24325919205078506 0.22319041132916118 0.004774368003312351 0.8044136077084607 0.9515869272057373 0.7400658738078956 
Task120 0.03327533889433118 0.12171745399247258 0.43942940486021626 0.2080055683681634 0.956136946524961 0.8040794069852419 0.6673794336247272 
Task121 0.10305941709092788 0.10597360198891873 0.5477689992638557 0.14700698802999676 0.7364200719878647 0.9352247101123903 0.6062605872189624 
Task122 0.005568282917796335 0.07669739590439793 0.1557657732540396 0.13235988425600267 0.926602019033544 0.5577433004526053 0.5055883627923228 
Task123 0.03908533050511181 0.4233822826257166 0.20935978718953663 0.11230721471528791 0.3153871441572137 0.8379904045632929 0.5204027266343766 
Task124 0.02853872085410753 0.08875052431595308 0.3091035643696888 0.483651639381461 0.7536657947286529 0.9798672854928527 0.7902656646279851 
Task125 0.05709695858426731 0.30156211493216634 0.42302383851868286 0.062266459128267074 0.3114996287103959 0.5380255087797522 0.45348546431182996 
Task126 0.01317861089841978 0.22605325001314247 0.08115692811306059 0.11905898491641725 0.7715050146089308 0.5697634648861845 0.969579801483105 
Task127 0.03363726753740362 0.08956690287655143 0.12411104008063825 0.12125527897598748 0.7427328609512804 0.5349748891171672 0.41627925603591764 
Task128 0.041007462150918515 0.025052587637941083 0.001933947727277815 0.17106379190228094 0.7972881640255967 0.8366028840688593 0.7772032486361116 
Task129 0.09644903211772994 0.054986251763635925 0.14806375976102285 0.20601771284907552 0.537358760945797 0.3933256344574352 0.7919283475992716 
Task130 0.038271746238169806 0.14715026312875876 0.03716887089523028 0.09729801386947838 0.5112566285603733 0.39965544909912615 0.45375786866152135 
Task131 0.0836233862155238 0.37883531541293664 0.09219049814867238 0.03169857037259148 0.8766634307506858 0.34673196207330964 0.3562588431816057 
Task132 0.08969247850681528 0.12708007091876053 0.4773967389362567 0.004162818819265649 0.339216458144471 0.43435216913783264 0.840015835393628 
Task133 0.08815173534421021 0.25012206527550185 0.2693265766009608 0.14895965703470615 0.5720934309575036 0.5632222967473328 0.454511713383577 
Task134 0.00012473126187590312 0.00038496096747254603 0.0004717176835618536 0.001742773621623994 0.5098668187242474 0.5502966300184748 0.5954692633572136 
Task135 0.05332024498736618 0.14692263326785573 0.11383439126223696 0.10294892694347178 0.4627109195094215 0.6346677295441093 0.8055924193936268 
Task136 0.07204817371772318 0.13326131359638627 0.21788042455431753 0.1462312016702625 0.7923255152437669 0.3851614748650149 0.5092323839720436 
Task137 0.07760459236284478 0.248262268542875 0.20586226473609112 0.31447430824801714 0.5181973610281202 0.5933488755853946 0.4933881122187448 
Task138 0.03275507134324084 0.16287823776602825 0.47175292671802554 0.2466276084541014 0.524648770994732 0.47152962871822 0.5594336928420588 
Task139 0.069574761523407 0.1862798022087703 0.2265898269328908 0.07521736429853496 0.7424607270540586 0.3585075333104278 0.36866984794799657 
Task140 0.02634993445862061 0.19096455642121976 0.12697302091330276 0.03404192526921003 0.8263477970674526 0.5815898511664515 0.6879851697263124 
Task141 0.0028055421100987472 0.009285531443528458 0.007807674356076315 0.026985972947502327 0.32873639608558236 0.4887860052843858 0.3117512042299471 
Task142 0.1738997664715109 0.05508367142819906 0.43632142250761485 0.2926300090411041 0.87214503316397 0.4573881326864616 0.6939178117425854 
Task143 0.11516248292854193 0.0883133082635863 0.12604249434740553 0.2488547914728051 0.7290750706726884 0.7973961182797 0.6027203691285681 
Task144 0.046589961604820665 0.1507607658150009 0.31498893281823026 0.2794029225042144 0.5534755142303213 0.7750156839127111 0.853765618242059 
Task145 0.03349182957999554 0.08070237105553309 0.05233051908472439 0.013202101510142948 0.32199099344017446 0.4948398932574246 0.3385565530570706 
Task146 0.039859900837823065 0.08542286238019625 0.07303119315037995 0.19029575227873163 0.5565830474136318 0.7755448238136864 0.7182598023088553 
Task147 0.052709778280704556 0.4073770492303786 0.03283191898677001 0.4166777298246357 0.6846600787310766 0.8429237347995557 0.5192500833883633 
Task148 0.0001569342983810284 0.001304380150353855 0.002176692982119441 0.0019138008523811023 0.7849654596435999 0.4543452876676207 0.34709756065390696 
Task149 0.034347896843492064 0.1728727853844776 0.14913322526801726 0.27464387983521416 0.7361034436016543 0.5445851718122128 0.34119850281275 
