Task0 0.023477411164976317 0.05385973087836794 0.045423127709428364 0.05732378429135255 0.8077615709886143 0.5490189882619412 0.9773917945368518 
Task1 0.07680310985044618 0.03629390784191327 0.2081903296119814 0.30330084004559976 0.3054247632810996 0.8051534584151718 0.6217485116343028 
Task2 5.0517175564275314e-05 0.00304057845782359 0.0006844451588207456 0.01301883655435736 0.49551998335171854 0.9062867898297271 0.40384555641262443 
Task3 0.0985976846745226 0.1132441963600542 0.5685407886357425 0.14450756670609252 0.8214773950705363 0.7241968624978977 0.5594561998216777 
Task4 0.18050689072888293 0.15670536334678348 0.2496660030041208 0.38400701462629233 0.3359381930605122 0.5570372115347321 0.42184084487319073 
Task5 0.08870627214722257 0.26466525272928565 0.20042388106912173 0.07330783329474812 0.4790705740361447 0.5821307703412117 0.552745641931158 
Task6 0.18763161801544967 0.4270521079788933 0.30396870182596136 0.06537471285107439 0.9181880445079644 0.993536242507093 0.7556413999532479 
Task7 0.1023747891435564 0.17570839816485587 0.10384454461485679 0.13818678379167243 0.6568919473596009 0.464368071973156 0.6977325916357937 
Task8 0.06777970253900592 0.1857209373844002 0.3005107872863128 0.14866956500601314 0.521246246126266 0.40745578323907095 0.5996929397672464 
Task9 0.013231853805789803 0.0018185451686300316 0.10901927105316205 0.04929218747563896 0.8618073785273923 0.4834974170864238 0.4426607506645509 
Task10 0.038524602234032854 0.04505817399933586 0.025657989051048276 0.08465031376149497 0.4437982408530819 0.7826833958660095 0.41168045280739396 
Task11 0.026026792720448135 0.18551033710237394 0.03831344012688544 0.2091112702501111 0.5188254127909835 0.4301730654022706 0.31715387109399135 
Task12 0.033499646106596 0.23605035034941538 0.09350551017168225 0.41418250036816834 0.4577019634488354 0.6584585927074468 0.45311996666096355 
Task13 0.004346899587313684 0.488841308173624 0.09583704035161701 0.2575826128173305 0.48825291214676186 0.5506285425547195 0.731066416662149 
Task14 0.07207229912852478 0.03620956334255262 0.20605083746884373 0.13044586682169465 0.918724946582619 0.6973198816666564 0.7663255056919146 
Task15 0.06702375525460648 0.14554526899732792 0.2567563751501366 0.4033350181564743 0.6746241534468124 0.5232866952882702 0.4619740373773972 
Task16 0.08451584218351048 0.3251549093527007 0.2549569645163394 0.01360236485028713 0.6712249437650886 0.334500895995679 0.550121136144661 
Task17 0.0037026895934496413 0.05050330930763281 0.06975065879232296 0.01783234840230191 0.33669563190247975 0.9300603157262004 0.7524183328763348 
Task18 0.012111513613332453 0.04563426127988441 0.31167397694527676 0.02109849434978861 0.7617711343273154 0.4456704601951552 0.9107177086539271 
Task19 0.006874260971365393 0.507048404240421 0.18100327853894035 0.1981982329066216 0.43135003044379727 0.6236081082168182 0.9427339647540285 
Task20 0.05449758004394506 0.192676998320836 0.201332628847789 0.11538420888832931 0.577715945565702 0.4847576896695143 0.9503039263980095 
Task21 0.04218511895775982 0.13519469016623992 0.3475984995660844 0.2565102475213181 0.401851753582089 0.7932915020409816 0.8171078640799898 
Task22 0.07183832892667498 0.03652237256978029 0.11977435387048868 0.16873046101230588 0.7144775048591792 0.9231292252901677 0.739698630795439 
Task23 0.016808319501558314 0.0690612095093632 0.023509867046035655 0.04767580885036654 0.737223289200096 0.6996284820323873 0.6364882270852479 
Task24 0.07995699003969567 0.1998108658584385 0.19583012943208866 0.043589139246186515 0.42998877471322994 0.4672760920846638 0.6143738844290851 
Task25 0.15959573641913455 0.23154834906632635 0.26168105013745663 0.30606427226763905 0.501839275102768 0.8790642893821576 0.8604340413064502 
Task26 0.03558541347995357 0.24148860929160076 0.08638297883739779 0.1707507898889826 0.7219682972227265 0.3191790332837183 0.4393094164380079 
Task27 0.0009067814772257512 0.2960149534873762 0.358881013712269 0.17072461124118896 0.4370636881733042 0.39465578598926476 0.44532835776709323 
Task28 0.04653063310078075 0.12143879815416626 0.22817100838362867 0.28239676920916157 0.9531060496802375 0.6946092797138587 0.7841854148747844 
Task29 0.025809263207316115 0.061669193407713 0.07208018668166316 0.10647074654132842 0.7937647421983643 0.36330845698460096 0.8368055600928597 
Task30 0.0176704693490983 0.042045437851239334 0.005275522265038599 0.03255873925934788 0.9785336751357783 0.6091140516168158 0.4445771687156006 
Task31 0.003673074571837884 0.005213851388902134 0.007761350016495319 0.00571167797622124 0.9731290447216971 0.8255173184029985 0.5349811669875724 
Task32 0.012565082175035488 0.028651448589883912 0.03648222950806048 0.041803062236312874 0.9479268716477012 0.791062136533319 0.575127107463373 
Task33 0.05146671376066358 0.07242560774175985 0.11270019697036557 0.10935446411093162 0.5940277837803907 0.6247219324767115 0.6139971210728751 
Task34 0.017797418685213645 0.02283876070865254 0.022576935582461717 0.02621965704518168 0.46546356723305626 0.7647535309818656 0.8168922638088816 
Task35 0.012732447832594813 0.04090238935188268 0.062467332912100125 0.001829596607710218 0.6544398231602071 0.5396190624459245 0.4354061168069385 
Task36 0.05488534812435005 0.08246624629149012 0.11778713519647674 0.27062022021640275 0.4228220118299225 0.46294877233795456 0.34454148727666895 
Task37 0.009310497167422781 0.01956925640450775 0.02227575816935072 0.04857269030781491 0.9324437274569497 0.8402368942910712 0.5257649224202433 
Task38 0.05982662180561918 0.2627715807947725 0.34514067187806136 0.1806355917469732 0.6705960439753165 0.42380741360435464 0.5370825583725152 
Task39 0.14233731889838544 0.2898347623439952 0.43258464108279776 0.09137493789250177 0.5817371844498376 0.546641216549593 0.5036744852357307 
Task40 0.03994345889010436 0.25208368679794535 0.051205831402008566 0.2363485149999981 0.6526666264426328 0.4155927131905992 0.8251994581040978 
Task41 0.02934552378280501 0.017888063595079037 0.07073063506562736 0.06575462204671692 0.4286735637852557 0.598752700635976 0.7754599660134329 
Task42 0.00730184055852839 0.03025932534545491 0.0397488441676421 0.0005235051854837362 0.7128102955197466 0.9335252553703446 0.605665607440357 
Task43 0.002479182866689153 0.2331964617237162 0.214447854835611 0.014252359002163366 0.7014485272047215 0.5632758406520962 0.4700936899442719 
Task44 0.0006124103743065144 0.008626179230107216 0.006036562478104352 0.004212706758686216 0.9617553870219151 0.613703301069989 0.47024670480664227 
Task45 0.04540320400210306 0.32995541979980963 0.19167419089181356 0.28410269549878203 0.4567483000385703 0.9712432469191143 0.8700598734692797 
Task46 0.020438788437485478 0.1158712210997577 0.02131010278189771 0.1278900436029392 0.6345553745883599 0.778225671442774 0.7593409738566101 
Task47 0.09585442117187039 0.04992218691950218 0.22259684597678583 0.3454405846200245 0.5066889773854585 0.6142214675683895 0.5739047730020768 
Task48 0.06057861825607448 0.1474599227681829 0.040523804721903346 0.21767657476822172 0.41269105629507113 0.32936561111208995 0.3300719224707946 
Task49 0.018029057378004167 0.023150581772373592 0.022483946322610214 0.04223577492267009 0.6793063270582882 0.9691577242186393 0.6908437182496366 
Task50 0.10697235724951204 0.20052128832173974 0.09027983537868624 0.1393107048357741 0.6311002308106703 0.7525803918611871 0.40759207776737333 
Task51 0.010162073187864912 0.024934935520950312 0.01959997230824784 0.04010979804974551 0.3482542384132198 0.9847289681248279 0.9829793765931569 
Task52 0.013663986675751775 0.09298569713708843 0.06923414480477816 0.00495672075504154 0.7141000874748396 0.49499468024200344 0.9662998374255451 
Task53 0.1643805991424337 0.09107084446957996 0.1163656710040344 0.5870342462568305 0.38334691338137517 0.6893773988103042 0.905700583835136 
Task54 0.03805568962860306 0.114245937799806 0.0031265586606046385 0.11749194601928033 0.7022436696712657 0.9948027648475024 0.921108907491196 
Task55 0.029578360475126853 0.026430663730147252 0.2573659857839796 0.16515550417135974 0.8472004908665862 0.5277484113024464 0.7799153074531145 
Task56 0.0018474435662159789 0.009751307907397063 0.014333851112174887 0.008444764435683386 0.4363932973266077 0.9121746140096467 0.5014280193386906 
Task57 0.11684587049136282 0.1164327703030056 0.6802485228542915 0.05336225257850622 0.9528040832785825 0.6846354514979338 0.8240637363838639 
Task58 0.06770188958833699 0.06594898430835851 0.28645553636050997 0.243668962612618 0.46453316223040775 0.5633965891269423 0.8669929381389483 
Task59 0.023151047991158184 0.0446653686602348 0.3079672711403868 0.2006594632639958 0.9548826997315478 0.8586052740166006 0.39536620561868113 
Task60 0.0003000582966244826 0.0012782722709123618 0.001331009781338709 0.00025152307892875234 0.9689850043307893 0.8605872273347099 0.8985095293559517 
Task61 0.013494839026692193 0.10117611530351975 0.2517560060397631 0.47531116159853454 0.8369118477076036 0.8054247568745851 0.3053913959288807 
Task62 0.03890878243736407 0.05382134409938178 0.3581573666163347 0.13416352653515573 0.7089752307953878 0.9529855266185501 0.41027337905200933 
Task63 0.011865043785419775 0.21353740086502837 0.12631392070934766 0.20030964094462425 0.716723522351725 0.5977944888141071 0.9514587348333583 
Task64 0.088692591322096 0.15729669409927002 0.36800086132017673 0.09692241904491251 0.3169917595005136 0.5184293649381825 0.9274865134902297 
Task65 0.00569124263976866 0.013057906473566241 0.010070019777397635 0.012341350312576889 0.8463869587930053 0.6845361381849664 0.6876467408074578 
Task66 0.09555155549719065 0.08592286825363556 0.053818565280746765 0.3774223736956359 0.4527142335914502 0.532808168638593 0.7236799154266776 
Task67 0.04640813325940783 0.2238026965181496 0.16764689050511952 0.20948019139168098 0.7878496576453338 0.9469660823801882 0.7921053763803987 
Task68 0.05143624817807906 0.07306859389648152 0.0028690103605365073 0.16491934040409745 0.6888823910413133 0.7393677248483209 0.5214753738528821 
Task69 0.00439422488405802 0.011246338125934051 0.017620631650218765 0.0013601383505868906 0.3380793553934432 0.7756116997807694 0.7721520041170491 
Task70 0.006488354898945277 0.031259517575075696 0.023495055794215076 0.039778501569341734 0.9030829952322403 0.8874640943097776 0.5620357861171473 
Task71 0.16118683922529314 0.5265511732097954 0.019072888002353895 0.12557381639069545 0.8335378731606844 0.503040663473239 0.9279250522402234 
Task72 0.00541308179296973 0.009269262402392687 0.001619867894348508 0.024695091723576108 0.4511090549130955 0.9213626306434546 0.6663028100114492 
Task73 0.041125830469271936 0.42084213726342806 0.3230382433676213 0.0012234698148940045 0.5134378920386107 0.7761537995608183 0.45555160769873687 
Task74 0.0003088681540301057 0.004046368634274432 0.014947126959638393 0.0007321358353629009 0.9297096464193773 0.7911939397798882 0.7356867604498032 
Task75 0.04340211331855308 0.1425992500801478 0.060879763986305666 0.042441182957945224 0.9651949455831805 0.374592261359272 0.8878716584453044 
Task76 0.10837006204086337 0.362001976643154 0.201991499997419 0.005686214666084179 0.5117404607225884 0.9728111961703372 0.8638491721519166 
Task77 0.07324032719408248 0.043400315990783825 0.11057606495215098 0.15579931318321974 0.4617291792891005 0.44470519573158424 0.7643616930998305 
Task78 0.003405601384908587 0.12098005139818475 0.4743957548009722 0.24967598432515703 0.9670467439286201 0.7850615962938983 0.605038866542384 
Task79 0.013661304134510848 0.3045105014544182 0.1474799140364496 0.02655997823206478 0.31292579756885447 0.468478088293379 0.8033632728858737 
Task80 0.03812211037716332 0.4022835197177077 0.07921570357982004 0.40758025686574384 0.35045896967782214 0.4676751350739031 0.5130435564042777 
Task81 0.06684880637678181 0.2553428976214213 0.18142584556308153 0.31300401058204647 0.916836285563448 0.6186924294661889 0.782016045145967 
Task82 0.018056652701787683 0.05480213231771864 0.052412623409240064 0.01866335187854153 0.45767029857150776 0.6952702935041617 0.3098036920303368 
Task83 0.029264421008184726 0.13045437664645027 0.14127490551580124 0.05461990541547778 0.7395438637147767 0.4923393732640762 0.5162223543648408 
Task84 0.03123848140763582 0.18429012661797234 0.36338317077301396 0.16800483530263388 0.4615756399561327 0.4371932236343163 0.7869839209105296 
Task85 0.09865253809017739 0.05217114728768731 0.21073752598957 0.223114369129194 0.5268069801969295 0.4882306515319263 0.6993531774838304 
Task86 0.15316606290809628 0.09990259324590765 0.08806335743445434 0.5008720735955284 0.9200906377588218 0.39210680227283695 0.7944182793612453 
Task87 0.08841886751813853 0.1289833217892893 0.1813313170055422 0.31173393162433866 0.794399942328782 0.6797364298582635 0.8316311901048377 
Task88 0.004481106886556659 0.11667748248536028 0.13694968295602067 0.26723053709515215 0.6708533256289169 0.4230598682324227 0.5542481935852417 
Task89 0.03644411158403516 0.190323264258172 0.46686763298348105 0.23332942185763253 0.5092444391279645 0.9991210202066751 0.7671773411463052 
Task90 0.003831085721884497 0.11046875290411695 0.5043876855066981 0.2722388477229798 0.5426097479880415 0.5448275671650243 0.994612726636787 
Task91 0.00720081991934151 0.06874629328068742 0.03249715091941948 0.26183930750826945 0.8724967881709726 0.5459629012850646 0.3722956219309037 
Task92 0.08844378787016871 0.02179156115573686 0.1757012791292098 0.20181772392269437 0.42276207154571765 0.417245528514632 0.6424381395544878 
Task93 0.028259018049834245 0.04553390763771024 0.038880987102310194 0.040047637860663406 0.7680874167854004 0.5429764160885133 0.6570985310085394 
Task94 0.14646096770444203 0.3053797108292105 0.030384749810650608 0.3158601442444263 0.7522743009172066 0.38081921104198574 0.9150675117449514 
Task95 0.048628798455959854 0.10018305964117687 0.36754893925948734 0.31113794366776865 0.6173768435183151 0.9269423155181644 0.9446094640321152 
Task96 0.0013338992585929612 0.0015979597433139156 0.003406123886606463 0.004452353716585975 0.7916070508631343 0.8626475575190033 0.3670559174901623 
Task97 0.061227698406059246 0.21215694273837274 0.3376277147809647 0.14090345210524344 0.43715834263093634 0.41842006278140614 0.8810009670564325 
Task98 0.097120513041779 0.2605800475848122 0.27202951715505347 0.15697672815386432 0.6618827809524948 0.9906806783875599 0.37332349327202513 
Task99 0.014363993643654007 0.03075098535776076 0.049451773960413135 0.05886551566514855 0.4181799417078704 0.77083201571167 0.7675032470644393 
Task100 0.05712924612756845 0.08603255575665121 0.10590513726674256 0.10696449515319585 0.3849972917645268 0.38754558698998065 0.821801005025967 
Task101 0.007207483720441619 0.04048035679951496 0.005366451360539698 0.07562858617555744 0.7095227380706437 0.9211451516480278 0.8085741932324746 
Task102 0.008623717648144302 0.07580703755678375 0.05629395593133995 0.07318127895403201 0.41411078281669034 0.4138370227786639 0.3839525687604748 
Task103 0.009427635471671511 0.07226992274303345 0.11343179593225972 0.15743249932294964 0.9301464029630684 0.43157421604199475 0.3259048754954629 
Task104 0.006564299743109999 0.02831473983371076 0.01437833058531068 0.033783874554458034 0.5655757140410855 0.6458873024138535 0.6469378540298243 
Task105 0.027708252229638464 0.12144101130043598 0.21038799649553563 0.16267473590616213 0.8191053151718217 0.6602789303423363 0.48137870432951224 
Task106 0.05546949135780921 0.004172281137485638 0.1820833493046823 0.0936241539627273 0.8059956042992171 0.4858764126426667 0.8891805542553131 
Task107 0.033283222149731936 0.03823404369448798 0.0031744181384723105 0.1302463087025253 0.4699340930180872 0.6113552544367796 0.9664082617107101 
Task108 0.022170750786610332 0.055443365966462516 0.07003924612059413 0.00037879088775931544 0.9749030356269492 0.3824996113159826 0.9942166559468435 
Task109 0.09481356663191914 0.11110723142381326 0.10358150868135836 0.29391085276644624 0.4442280011003006 0.7700426751041097 0.9911923764006012 
Task110 0.0027090976590040754 0.13604000848492423 0.12677675321636642 0.051165687791785285 0.6476554203628763 0.5730445300885691 0.38586516903739176 
Task111 0.04454526734550288 0.4993201717863882 0.2927692551378059 0.1413657435464453 0.5572617675039477 0.4151091431401235 0.5601437009506128 
Task112 0.11471700022373887 0.11068673701895668 0.4010056545132239 0.24596553847417268 0.9297739864819836 0.5247586555544547 0.30677328264867704 
Task113 0.13215668936188185 0.0015920136751519944 0.4167531337162655 0.36758303301628215 0.7608468291833073 0.40382935849152496 0.957085071510225 
Task114 0.03212965498591708 0.09027839113840185 0.13366538501097588 0.07149071887968303 0.974730628472716 0.5901407529861463 0.8685292201597878 
Task115 0.001998298705024106 0.006043526302854452 0.00488173465471332 0.007043230730514568 0.9091962971578855 0.7289775959150433 0.8624598488271982 
Task116 0.12050400940757454 0.07570961089920199 0.2286941815040598 0.2030224732725209 0.8432670066640282 0.3219259607734031 0.6665399028714223 
Task117 0.080676380881431 0.12408619402839355 0.4475589122338218 0.14473738434817307 0.7284648331782211 0.6892766011771931 0.6427836813614931 
Task118 0.08278293934840841 0.32991055885244513 0.07511155451377684 0.19542496960819 0.7495603069717163 0.9622131745474114 0.4860755676545304 
Task119 0.13528248990531422 0.3784432387799348 0.13294134948532102 0.12270690537136883 0.8545711329012289 0.8599780637847956 0.5953124409050898 
Task120 0.05418037135171156 0.3243210314035767 0.21609894859917853 0.10734493661669135 0.5129799092115845 0.9409615089754637 0.6410747796198457 
Task121 0.034684380446080326 0.42711131889399573 0.37438910027689426 0.1428205477883332 0.5055609278825054 0.31187627623612135 0.7709563272151094 
Task122 0.18081613175379116 0.39496460416875845 0.09132252549874846 0.3022502324416402 0.6504782442301626 0.8677135915043672 0.9081306988294284 
Task123 0.008083524802411719 0.12083078703408758 0.06580001544561893 0.003557734667720279 0.9873717931496635 0.88449894678331 0.9821990946577754 
Task124 0.004105885849554214 0.006943128063069753 0.00952601522372029 0.001985420126736396 0.7055707713907707 0.632885911136443 0.5580140441461112 
Task125 0.030359366271134267 0.025547427903496657 0.18582743331530763 0.030359716187110114 0.7411256065024432 0.9820119059639116 0.7579411886292258 
Task126 0.12282999986446357 0.2105161787407557 0.35669692384630947 0.23063515253933134 0.8631414887134587 0.4052225782324811 0.988209123208541 
Task127 0.09863102692097997 0.14118201846300343 0.3687968724084136 0.29693617307954107 0.9723780917545941 0.31357869300118346 0.7692362919880396 
Task128 0.00669573672599861 0.07881489225691538 0.0017024950528286343 0.1701770070714223 0.5656050142310322 0.8397024542949798 0.858707130113334 
Task129 0.024298932608917478 0.0846871777881772 0.05572006362973477 0.012062388977521266 0.5371765945913676 0.9304112819601271 0.3939510145746937 
Task130 0.016794559672300015 0.06613684581213851 0.10963702176028561 0.029600171685021225 0.9583218535345792 0.5803184894809821 0.453142325283727 
Task131 0.002978344904672196 0.01167720276208335 0.038220405895827085 0.001603564502360152 0.6375235397630189 0.5793009125910846 0.5546980728095481 
Task132 0.019811198325784523 0.02920363795533878 0.19669654965833444 0.02737468534815346 0.860606929327363 0.611946270725667 0.7596151388333567 
Task133 0.02116864861430066 0.018964014512278166 0.06855472601410581 0.03245767027849834 0.6144104959587045 0.5468396422485045 0.3145220302031592 
Task134 0.04425950163529815 0.1614329094567093 0.21248957211549477 0.03378738665872028 0.374821277986545 0.4681945025472838 0.5768629869131772 
Task135 0.01324688015342933 0.011447149247229282 0.06688114508824679 0.011604912703781948 0.6718509700573414 0.34418671876572915 0.32117945439379175 
Task136 0.01920178869375344 0.08687266309544832 0.010396337015503935 0.07494363290574163 0.9851671379251155 0.9457777952344946 0.5864170822425698 
Task137 0.0013430705499523005 0.003187547197899653 0.05946779072282317 0.03798145963770579 0.45976846203992416 0.6876757642232507 0.9358691994063673 
Task138 0.010730574256131168 0.24936228864038396 0.20411834729423037 0.2280351488366341 0.8668800902929086 0.41564131496815543 0.4949829309632682 
Task139 0.01463112259847695 0.27012690555837193 0.3332545400252766 0.02132184050995202 0.7867602199795676 0.3935082174967919 0.9908392793105028 
Task140 0.014383681668214729 0.039988833564934406 0.011897010135429018 0.040725736546081324 0.3333278995012572 0.5547368234280395 0.4740831366549883 
Task141 0.0626991542252915 0.047472207287225385 0.2210641464781471 0.16344131003985737 0.47831524505058154 0.7847236729732487 0.9443939664054599 
Task142 0.08579274746610027 0.1705211984201726 0.14891667521664043 0.18056103209545385 0.39105803649695103 0.5593967168608417 0.5659819311801344 
Task143 0.013053069046379621 0.07949833330049186 0.08931152668100126 0.0003326086478151089 0.7529917279706326 0.434077117292572 0.3617915564300052 
Task144 0.09663871196050478 0.20334068708125042 0.15291021634749294 0.1285511643423432 0.4394350211310766 0.6470777159841385 0.49293022848875856 
Task145 0.10781388753999366 0.39577928078955615 0.04295687528150053 0.0023603600680920274 0.41142997761256744 0.4966534441400552 0.9787728339285731 
Task146 0.1612251674097579 0.10552797195661419 0.4317037809090878 0.23222569787603167 0.9385882861811954 0.40013965286045367 0.6838597587893469 
Task147 0.10595777773299285 0.004065850944474131 0.5177075135224708 0.06987589975335223 0.9947277233999154 0.6163095718893897 0.8925323284256688 
Task148 0.003065669516230949 0.015293877271676982 0.02868785654443483 0.005626662847876988 0.7921891548456002 0.6252294039605097 0.7649892094582335 
Task149 0.0017600713179639377 0.09720273860464515 0.14835945644167012 0.07022293662763095 0.47664716701043097 0.45732638258570935 0.8178741433045731 
