files/tasks_parameters/ExAp01/sample8.txt 0.746906 3.15778 1.5595 0.203411 5.88065
files/tasks_parameters/ExAp01/sample12.txt 0.811516 3.94962 1.6705 0.207924 6.01112
files/tasks_parameters/ExAp01/sample2.txt 0.772782 3.78275 1.74131 0.200098 5.78486
files/tasks_parameters/ExAp01/sample44.txt 0.746675 3.59825 1.65317 0.200005 5.78218
files/tasks_parameters/ExAp01/sample27.txt 0.702904 3.45743 1.5148 0.182129 5.26537
files/tasks_parameters/ExAp01/sample17.txt 0.582686 2.77299 1.44514 0.14646 4.23418
files/tasks_parameters/ExAp01/sample9.txt 0.677828 2.99933 1.451 0.177444 5.12992
files/tasks_parameters/ExAp01/sample34.txt 0.615964 3.02928 1.58429 0.157984 4.56734
files/tasks_parameters/ExAp01/sample40.txt 0.664765 3.86889 1.52122 0.168379 4.86788
files/tasks_parameters/ExAp01/sample33.txt 0.751586 3.63695 1.71905 0.199765 5.77524
files/tasks_parameters/ExAp01/sample48.txt 0.615626 3.39061 1.49062 0.154728 4.47322
files/tasks_parameters/ExAp01/sample29.txt 0.814434 3.30472 1.38739 0.223868 6.47207
files/tasks_parameters/ExAp01/sample11.txt 0.650838 3.10585 1.41612 0.174079 5.03264
files/tasks_parameters/ExAp01/sample14.txt 0.611884 2.70971 1.43432 0.162214 4.68965
files/tasks_parameters/ExAp01/sample0.txt 0.716378 3.6937 1.5439 0.18367 5.30993
files/tasks_parameters/ExAp01/sample7.txt 0.582612 2.70501 1.42221 0.143463 4.14755
files/tasks_parameters/ExAp01/sample23.txt 0.712334 3.2697 1.57822 0.181448 5.24571
files/tasks_parameters/ExAp01/sample13.txt 0.756279 3.84225 1.67648 0.198247 5.73136
files/tasks_parameters/ExAp01/sample22.txt 0.596503 3.09569 1.56121 0.148796 4.30172
files/tasks_parameters/ExAp01/sample25.txt 0.535589 2.73966 1.5007 0.148149 4.283
files/tasks_parameters/ExAp01/sample36.txt 0.527619 2.85948 1.28553 0.130042 3.75955
files/tasks_parameters/ExAp01/sample46.txt 0.768998 3.58643 1.69998 0.210103 6.07411
files/tasks_parameters/ExAp01/sample31.txt 0.700194 3.4832 1.53782 0.1722 4.97833
files/tasks_parameters/ExAp01/sample37.txt 0.686459 3.95293 1.50705 0.171701 4.96391
files/tasks_parameters/ExAp01/sample16.txt 0.612062 3.31216 1.30115 0.150249 4.34373
files/tasks_parameters/ExAp01/sample10.txt 0.632329 3.17098 1.61789 0.153776 4.4457
files/tasks_parameters/ExAp01/sample39.txt 0.634278 3.26617 1.44406 0.165669 4.78951
files/tasks_parameters/ExAp01/sample19.txt 0.774909 3.63532 1.52509 0.196094 5.66913
files/tasks_parameters/ExAp01/sample20.txt 0.568754 3.20793 1.25367 0.147335 4.25949
files/tasks_parameters/ExAp01/sample43.txt 0.585023 3.11551 1.4202 0.150644 4.35516
files/tasks_parameters/ExAp01/sample32.txt 0.682383 3.5311 1.42482 0.168744 4.87843
files/tasks_parameters/ExAp01/sample45.txt 0.765069 3.80283 1.48324 0.19807 5.72625
files/tasks_parameters/ExAp01/sample26.txt 0.623357 3.21645 1.29701 0.166061 4.80086
files/tasks_parameters/ExAp01/sample5.txt 0.682525 3.5889 1.52559 0.178903 5.17213
files/tasks_parameters/ExAp01/sample21.txt 0.733425 2.75242 1.55936 0.19512 5.64096
files/tasks_parameters/ExAp01/sample38.txt 0.632046 3.31563 1.37515 0.166157 4.80362
files/tasks_parameters/ExAp01/sample1.txt 0.744422 3.74964 1.51696 0.19701 5.69558
files/tasks_parameters/ExAp01/sample15.txt 0.684261 3.32916 1.48508 0.180707 5.22429
files/tasks_parameters/ExAp01/sample24.txt 0.654566 3.45951 1.59549 0.16529 4.77858
files/tasks_parameters/ExAp01/sample3.txt 0.898017 3.70014 1.70809 0.237107 6.85481
files/tasks_parameters/ExAp01/sample6.txt 0.67917 3.33003 1.58323 0.184714 5.34013
files/tasks_parameters/ExAp01/sample30.txt 0.940163 4.1841 1.4861 0.239623 6.92755
files/tasks_parameters/ExAp01/sample42.txt 0.674509 3.43221 1.70276 0.177383 5.12817
files/tasks_parameters/ExAp01/sample4.txt 0.781152 3.72477 1.6136 0.196448 5.67935
files/tasks_parameters/ExAp01/sample28.txt 0.610081 3.11323 1.45032 0.158819 4.59149
files/tasks_parameters/ExAp01/sample18.txt 0.606935 3.47418 1.45209 0.149064 4.30946
files/tasks_parameters/ExAp01/sample35.txt 0.76324 4.57086 1.49394 0.185031 5.34927
files/tasks_parameters/ExAp01/sample47.txt 0.637332 3.13768 1.52397 0.16417 4.74619
files/tasks_parameters/ExAp01/sample49.txt 0.631194 3.13288 1.49657 0.156154 4.51444
files/tasks_parameters/ExAp01/sample41.txt 0.587022 2.81964 1.49636 0.150876 4.36185
