files/tasks_parameters/ExAp01/sample8.txt 1.06613 6.77015 2.19458 0.288816 6.46811
files/tasks_parameters/ExAp01/sample12.txt 1.25406 9.58351 2.46081 0.337498 7.55835
files/tasks_parameters/ExAp01/sample2.txt 1.12686 8.44418 2.50701 0.319127 7.14692
files/tasks_parameters/ExAp01/sample44.txt 0.998717 6.96299 2.23089 0.28229 6.32195
files/tasks_parameters/ExAp01/sample27.txt 1.03125 7.74306 2.16676 0.28602 6.40548
files/tasks_parameters/ExAp01/sample17.txt 1.06357 7.35053 2.25579 0.292348 6.54719
files/tasks_parameters/ExAp01/sample9.txt 1.03492 6.89392 2.21068 0.282399 6.32438
files/tasks_parameters/ExAp01/sample34.txt 1.03607 6.62788 2.3772 0.297742 6.66799
files/tasks_parameters/ExAp01/sample40.txt 0.998077 7.75686 2.17534 0.285619 6.39651
files/tasks_parameters/ExAp01/sample33.txt 1.23258 8.14826 2.6463 0.338073 7.57122
files/tasks_parameters/ExAp01/sample48.txt 0.954951 7.64107 2.14272 0.270011 6.04696
files/tasks_parameters/ExAp01/sample29.txt 1.08363 7.139 1.93769 0.286306 6.41188
files/tasks_parameters/ExAp01/sample11.txt 0.987139 6.88688 2.12981 0.280008 6.27085
files/tasks_parameters/ExAp01/sample14.txt 0.866996 6.11983 1.97599 0.247458 5.54187
files/tasks_parameters/ExAp01/sample0.txt 1.07499 8.2738 2.14256 0.289132 6.47517
files/tasks_parameters/ExAp01/sample7.txt 0.960453 6.87011 2.05821 0.269886 6.04414
files/tasks_parameters/ExAp01/sample23.txt 1.07897 6.52032 2.38087 0.291712 6.53294
files/tasks_parameters/ExAp01/sample13.txt 1.07188 8.73247 2.33415 0.295393 6.61538
files/tasks_parameters/ExAp01/sample22.txt 0.989089 6.9777 2.28948 0.283979 6.35977
files/tasks_parameters/ExAp01/sample25.txt 0.954442 6.23444 2.2122 0.267298 5.98619
files/tasks_parameters/ExAp01/sample36.txt 0.895459 6.6174 1.9458 0.253823 5.68441
files/tasks_parameters/ExAp01/sample46.txt 1.20868 7.42369 2.49128 0.327273 7.32935
files/tasks_parameters/ExAp01/sample31.txt 0.928186 7.22028 2.13584 0.25377 5.68323
files/tasks_parameters/ExAp01/sample37.txt 1.0976 8.90704 2.16981 0.295708 6.62245
files/tasks_parameters/ExAp01/sample16.txt 0.920367 8.18243 1.88294 0.24945 5.58648
files/tasks_parameters/ExAp01/sample10.txt 1.08019 6.96646 2.31217 0.285748 6.39939
files/tasks_parameters/ExAp01/sample39.txt 0.954203 6.4161 1.97266 0.251967 5.64285
files/tasks_parameters/ExAp01/sample19.txt 1.16242 8.16711 2.23199 0.308463 6.90809
files/tasks_parameters/ExAp01/sample20.txt 0.911229 7.28549 1.88944 0.25994 5.82141
files/tasks_parameters/ExAp01/sample43.txt 0.964449 6.86804 2.00142 0.25616 5.73676
files/tasks_parameters/ExAp01/sample32.txt 1.06024 8.15663 2.12995 0.281726 6.30932
files/tasks_parameters/ExAp01/sample45.txt 1.04578 7.75184 2.10599 0.274935 6.15723
files/tasks_parameters/ExAp01/sample26.txt 0.96025 7.4944 1.88956 0.267248 5.98508
files/tasks_parameters/ExAp01/sample5.txt 1.08816 8.08362 2.09961 0.28454 6.37234
files/tasks_parameters/ExAp01/sample21.txt 0.960276 6.11814 2.17119 0.26143 5.85477
files/tasks_parameters/ExAp01/sample38.txt 0.949686 7.761 1.96293 0.263659 5.9047
files/tasks_parameters/ExAp01/sample1.txt 1.03318 7.83752 2.13261 0.289228 6.47733
files/tasks_parameters/ExAp01/sample15.txt 1.00794 7.37971 2.12057 0.285825 6.40112
files/tasks_parameters/ExAp01/sample24.txt 1.06914 8.28531 2.25272 0.296628 6.64306
files/tasks_parameters/ExAp01/sample3.txt 1.17301 7.33359 2.39135 0.305084 6.83243
files/tasks_parameters/ExAp01/sample6.txt 1.02381 7.09894 2.24425 0.281804 6.31107
files/tasks_parameters/ExAp01/sample30.txt 1.17035 8.17669 2.03701 0.299204 6.70074
files/tasks_parameters/ExAp01/sample42.txt 1.12975 7.70416 2.42413 0.29743 6.66101
files/tasks_parameters/ExAp01/sample4.txt 1.18933 7.41691 2.36261 0.307803 6.89331
files/tasks_parameters/ExAp01/sample28.txt 0.966704 7.0562 2.07657 0.266428 5.96671
files/tasks_parameters/ExAp01/sample18.txt 0.963071 7.60139 2.1377 0.268016 6.00228
files/tasks_parameters/ExAp01/sample35.txt 1.17695 9.66795 2.28028 0.32244 7.2211
files/tasks_parameters/ExAp01/sample47.txt 0.93464 6.84842 2.12104 0.251655 5.63586
files/tasks_parameters/ExAp01/sample49.txt 0.926446 7.1497 2.11412 0.255889 5.73069
files/tasks_parameters/ExAp01/sample41.txt 0.928289 6.59911 2.07359 0.265885 5.95456
