files/tasks_parameters/ExAp01/sample8.txt 0.75592 3.15778 1.5595 0.203411 5.34425
files/tasks_parameters/ExAp01/sample12.txt 0.747382 3.94962 1.6705 0.207924 5.46281
files/tasks_parameters/ExAp01/sample2.txt 0.687557 3.78275 1.74131 0.200098 5.25719
files/tasks_parameters/ExAp01/sample44.txt 0.683408 3.59825 1.65317 0.200005 5.25476
files/tasks_parameters/ExAp01/sample27.txt 0.663525 3.45743 1.5148 0.182129 4.78509
files/tasks_parameters/ExAp01/sample17.txt 0.543272 2.77299 1.44514 0.14646 3.84796
files/tasks_parameters/ExAp01/sample9.txt 0.635364 2.99933 1.451 0.177444 4.662
files/tasks_parameters/ExAp01/sample34.txt 0.52161 3.02928 1.58429 0.157984 4.15073
files/tasks_parameters/ExAp01/sample40.txt 0.595157 3.86889 1.52122 0.168379 4.42386
files/tasks_parameters/ExAp01/sample33.txt 0.689355 3.63695 1.71905 0.199765 5.24845
files/tasks_parameters/ExAp01/sample48.txt 0.595355 3.39061 1.49062 0.154728 4.0652
files/tasks_parameters/ExAp01/sample29.txt 0.720126 3.30472 1.38739 0.223868 5.88172
files/tasks_parameters/ExAp01/sample11.txt 0.654534 3.10585 1.41612 0.174079 4.57359
files/tasks_parameters/ExAp01/sample14.txt 0.570075 2.70971 1.43432 0.162214 4.26188
files/tasks_parameters/ExAp01/sample0.txt 0.694945 3.6937 1.5439 0.18367 4.82558
files/tasks_parameters/ExAp01/sample7.txt 0.549212 2.70501 1.42221 0.143463 3.76924
files/tasks_parameters/ExAp01/sample23.txt 0.634174 3.2697 1.57822 0.181448 4.76722
files/tasks_parameters/ExAp01/sample13.txt 0.66089 3.84225 1.67648 0.198247 5.20857
files/tasks_parameters/ExAp01/sample22.txt 0.515769 3.09569 1.56121 0.148796 3.90934
files/tasks_parameters/ExAp01/sample25.txt 0.503653 2.73966 1.5007 0.148149 3.89233
files/tasks_parameters/ExAp01/sample36.txt 0.473623 2.85948 1.28553 0.130042 3.41662
files/tasks_parameters/ExAp01/sample46.txt 0.747653 3.58643 1.69998 0.210103 5.52006
files/tasks_parameters/ExAp01/sample31.txt 0.606915 3.4832 1.53782 0.1722 4.52423
files/tasks_parameters/ExAp01/sample37.txt 0.631144 3.95293 1.50705 0.171701 4.51113
files/tasks_parameters/ExAp01/sample16.txt 0.574737 3.31216 1.30115 0.150249 3.94751
files/tasks_parameters/ExAp01/sample10.txt 0.631082 3.17098 1.61789 0.153776 4.04019
files/tasks_parameters/ExAp01/sample39.txt 0.609663 3.26617 1.44406 0.165669 4.35264
files/tasks_parameters/ExAp01/sample19.txt 0.716423 3.63532 1.52509 0.196094 5.15202
files/tasks_parameters/ExAp01/sample20.txt 0.507143 3.20793 1.25367 0.147335 3.87096
files/tasks_parameters/ExAp01/sample43.txt 0.578592 3.11551 1.4202 0.150644 3.9579
files/tasks_parameters/ExAp01/sample32.txt 0.591772 3.5311 1.42482 0.168744 4.43344
files/tasks_parameters/ExAp01/sample45.txt 0.713086 3.80283 1.48324 0.19807 5.20393
files/tasks_parameters/ExAp01/sample26.txt 0.578954 3.21645 1.29701 0.166061 4.36295
files/tasks_parameters/ExAp01/sample5.txt 0.654612 3.5889 1.52559 0.178903 4.70035
files/tasks_parameters/ExAp01/sample21.txt 0.647114 2.75242 1.55936 0.19512 5.12642
files/tasks_parameters/ExAp01/sample38.txt 0.58614 3.31563 1.37515 0.166157 4.36546
files/tasks_parameters/ExAp01/sample1.txt 0.745371 3.74964 1.51696 0.19701 5.17606
files/tasks_parameters/ExAp01/sample15.txt 0.627273 3.32916 1.48508 0.180707 4.74775
files/tasks_parameters/ExAp01/sample24.txt 0.622924 3.45951 1.59549 0.16529 4.3427
files/tasks_parameters/ExAp01/sample3.txt 0.899358 3.70014 1.70809 0.237107 6.22955
files/tasks_parameters/ExAp01/sample6.txt 0.609371 3.33003 1.58323 0.184714 4.85303
files/tasks_parameters/ExAp01/sample30.txt 0.828356 4.1841 1.4861 0.239623 6.29565
files/tasks_parameters/ExAp01/sample42.txt 0.641733 3.43221 1.70276 0.177383 4.66041
files/tasks_parameters/ExAp01/sample4.txt 0.743894 3.72477 1.6136 0.196448 5.16131
files/tasks_parameters/ExAp01/sample28.txt 0.560757 3.11323 1.45032 0.158819 4.17268
files/tasks_parameters/ExAp01/sample18.txt 0.560744 3.47418 1.45209 0.149064 3.91638
files/tasks_parameters/ExAp01/sample35.txt 0.662887 4.57086 1.49394 0.185031 4.86134
files/tasks_parameters/ExAp01/sample47.txt 0.616255 3.13768 1.52397 0.16417 4.31327
files/tasks_parameters/ExAp01/sample49.txt 0.546484 3.13288 1.49657 0.156154 4.10266
files/tasks_parameters/ExAp01/sample41.txt 0.564311 2.81964 1.49636 0.150876 3.96398
