digraph G {
0 ->13 0 ->15 0 ->18 1 ->16 1 ->21 2 ->16 2 ->18 2 ->19 2 ->20 2 ->21 3 ->14 3 ->16 3 ->20 3 ->21 3 ->21 3 ->22 4 ->11 4 ->12 4 ->13 4 ->21 4 ->22 4 ->23 5 ->12 5 ->13 5 ->14 5 ->17 5 ->20 5 ->21 5 ->22 6 ->15 7 ->12 7 ->13 7 ->19 8 ->17 8 ->19 9 ->12 9 ->15 9 ->17 9 ->22 10 ->12 10 ->17 10 ->22 11 ->25 11 ->28 11 ->29 11 ->30 12 ->26 12 ->27 12 ->30 12 ->30 13 ->26 14 ->24 14 ->26 14 ->27 15 ->25 15 ->27 15 ->30 16 ->27 16 ->28 18 ->26 18 ->27 19 ->27 21 ->26 21 ->28 21 ->30 22 ->26 23 ->26 24 ->33 24 ->37 24 ->40 24 ->41 25 ->36 25 ->42 26 ->37 26 ->38 26 ->40 27 ->31 27 ->34 27 ->35 27 ->37 27 ->40 28 ->31 28 ->36 28 ->41 29 ->33 29 ->37 29 ->40 30 ->32 30 ->34 30 ->36 30 ->39 30 ->41 31 ->45 31 ->47 32 ->48 32 ->51 33 ->46 33 ->49 33 ->50 33 ->52 34 ->46 34 ->51 35 ->44 35 ->49 35 ->51 36 ->43 36 ->50 36 ->51 37 ->46 37 ->47 37 ->49 38 ->44 38 ->46 38 ->49 38 ->50 38 ->52 39 ->46 39 ->52 40 ->45 40 ->46 40 ->48 40 ->49 41 ->47 43 ->53 43 ->56 43 ->58 43 ->64 45 ->55 45 ->58 45 ->62 46 ->56 46 ->59 46 ->65 47 ->54 47 ->59 47 ->61 47 ->64 48 ->54 48 ->59 48 ->61 48 ->63 49 ->59 49 ->60 49 ->61 49 ->65 50 ->54 50 ->55 50 ->56 50 ->57 50 ->61 50 ->63 50 ->64 51 ->55 51 ->58 51 ->60 51 ->63 51 ->64 52 ->58 52 ->61 52 ->62 52 ->65 53 ->67 54 ->67 55 ->67 58 ->66 58 ->70 61 ->69 62 ->66 62 ->68 63 ->66 63 ->67 64 ->66 66 ->72 66 ->73 66 ->75 66 ->78 67 ->72 67 ->74 67 ->76 68 ->72 68 ->78 68 ->79 69 ->77 69 ->80 70 ->71 70 ->80 71 ->84 71 ->85 71 ->87 71 ->91 71 ->93 72 ->86 72 ->91 72 ->93 72 ->94 73 ->82 73 ->86 73 ->92 73 ->93 73 ->94 74 ->82 74 ->83 74 ->84 74 ->91 74 ->92 75 ->83 75 ->88 75 ->90 76 ->81 76 ->82 76 ->85 76 ->86 76 ->89 76 ->94 77 ->82 77 ->82 77 ->83 77 ->86 77 ->92 78 ->83 78 ->88 78 ->93 79 ->88 79 ->91 79 ->92 80 ->84 80 ->88 80 ->91 80 ->92 80 ->93 81 ->97 82 ->96 83 ->95 83 ->98 84 ->95 85 ->95 85 ->99 86 ->98 87 ->98 89 ->95 89 ->97 91 ->97 93 ->95 93 ->98 
}
