digraph G {
0 ->6 0 ->8 0 ->10 0 ->14 0 ->15 1 ->13 1 ->15 1 ->16 2 ->5 2 ->16 2 ->17 3 ->10 3 ->11 3 ->16 3 ->17 3 ->18 4 ->6 4 ->7 4 ->9 4 ->10 4 ->11 4 ->12 4 ->14 4 ->18 7 ->20 7 ->21 8 ->19 9 ->19 9 ->20 9 ->22 10 ->20 11 ->19 11 ->20 11 ->21 12 ->21 13 ->21 13 ->23 14 ->19 14 ->20 14 ->23 15 ->21 17 ->23 19 ->29 20 ->27 20 ->29 21 ->24 21 ->25 21 ->30 22 ->24 22 ->25 22 ->26 22 ->28 24 ->34 25 ->34 25 ->36 26 ->32 26 ->34 26 ->35 26 ->36 27 ->31 27 ->33 27 ->37 28 ->35 28 ->37 29 ->32 29 ->35 30 ->32 30 ->35 31 ->39 31 ->42 32 ->41 33 ->40 33 ->41 34 ->40 34 ->41 35 ->39 35 ->40 35 ->41 36 ->38 36 ->39 38 ->48 38 ->49 38 ->54 38 ->55 39 ->45 39 ->51 40 ->43 40 ->46 40 ->47 40 ->49 40 ->50 40 ->51 40 ->52 40 ->53 40 ->55 41 ->47 41 ->53 41 ->55 42 ->43 42 ->44 42 ->48 42 ->52 43 ->60 44 ->61 45 ->57 47 ->57 47 ->61 48 ->61 49 ->59 50 ->57 52 ->56 52 ->57 52 ->59 52 ->61 55 ->57 55 ->58 55 ->60 56 ->62 56 ->63 56 ->66 56 ->69 56 ->70 56 ->71 57 ->63 57 ->64 57 ->68 58 ->62 58 ->65 58 ->66 58 ->68 58 ->69 59 ->62 59 ->66 60 ->64 60 ->67 60 ->71 60 ->72 61 ->63 61 ->65 61 ->70 61 ->71 62 ->75 62 ->80 62 ->81 62 ->84 62 ->86 63 ->77 63 ->79 63 ->80 63 ->83 63 ->86 64 ->77 64 ->82 64 ->83 64 ->86 65 ->74 65 ->76 65 ->82 66 ->74 66 ->79 66 ->82 66 ->83 66 ->84 66 ->85 67 ->73 67 ->74 67 ->79 67 ->83 68 ->75 68 ->79 68 ->85 68 ->86 69 ->75 69 ->80 70 ->75 70 ->78 70 ->82 71 ->75 71 ->77 71 ->79 71 ->80 71 ->82 71 ->84 71 ->85 71 ->86 72 ->82 72 ->83 72 ->84 72 ->86 73 ->95 73 ->96 73 ->98 73 ->99 74 ->91 74 ->94 74 ->97 74 ->98 74 ->99 75 ->98 75 ->99 76 ->94 76 ->99 77 ->88 77 ->89 77 ->90 77 ->92 77 ->95 77 ->96 77 ->99 78 ->87 78 ->88 78 ->90 78 ->92 78 ->95 79 ->88 79 ->88 79 ->90 79 ->92 79 ->93 79 ->97 79 ->98 79 ->99 80 ->88 80 ->91 80 ->92 80 ->97 81 ->90 81 ->92 81 ->95 81 ->96 82 ->87 82 ->89 82 ->90 82 ->92 82 ->96 83 ->92 83 ->93 83 ->98 84 ->90 84 ->95 84 ->96 85 ->88 85 ->95 85 ->96 86 ->88 86 ->89 86 ->90 86 ->95 86 ->98 86 ->99 
}
