digraph G {
0 ->16 0 ->23 1 ->15 1 ->18 1 ->21 1 ->24 1 ->25 1 ->26 1 ->27 2 ->22 2 ->24 2 ->25 3 ->14 3 ->16 3 ->17 4 ->14 4 ->18 4 ->26 5 ->16 5 ->20 5 ->23 5 ->27 6 ->14 6 ->15 6 ->23 7 ->14 7 ->22 7 ->23 7 ->27 8 ->18 8 ->19 8 ->22 9 ->15 9 ->17 9 ->19 9 ->22 10 ->18 10 ->22 10 ->23 11 ->14 11 ->19 11 ->23 11 ->25 12 ->14 12 ->19 12 ->25 12 ->25 13 ->17 13 ->21 14 ->31 14 ->35 14 ->37 14 ->39 15 ->30 15 ->31 15 ->34 15 ->35 15 ->39 15 ->41 16 ->37 16 ->38 16 ->39 17 ->29 17 ->33 17 ->34 17 ->36 17 ->39 17 ->41 18 ->33 18 ->35 18 ->37 18 ->39 19 ->28 19 ->30 19 ->32 19 ->36 19 ->41 20 ->28 20 ->29 20 ->33 20 ->34 21 ->28 21 ->30 22 ->28 22 ->32 22 ->33 22 ->36 22 ->37 22 ->38 22 ->41 23 ->30 23 ->31 23 ->32 23 ->34 23 ->36 23 ->38 23 ->39 24 ->31 24 ->32 24 ->33 24 ->36 24 ->36 24 ->38 24 ->40 25 ->31 25 ->34 25 ->36 25 ->37 25 ->40 26 ->31 26 ->35 26 ->37 26 ->41 27 ->29 27 ->31 27 ->35 27 ->38 27 ->39 27 ->41 28 ->44 28 ->47 29 ->45 29 ->46 29 ->48 32 ->44 32 ->45 32 ->46 33 ->42 33 ->43 33 ->44 33 ->47 33 ->48 34 ->43 34 ->45 35 ->46 37 ->43 38 ->43 38 ->44 38 ->45 39 ->43 40 ->44 41 ->44 42 ->50 43 ->49 43 ->50 44 ->50 45 ->51 45 ->52 46 ->50 46 ->52 46 ->53 48 ->51 48 ->53 49 ->55 49 ->59 50 ->54 50 ->55 50 ->56 50 ->57 50 ->58 51 ->54 51 ->55 52 ->57 53 ->59 54 ->60 54 ->66 54 ->68 55 ->61 55 ->68 56 ->63 56 ->65 56 ->67 57 ->61 57 ->63 57 ->64 57 ->68 58 ->62 59 ->63 59 ->67 60 ->73 60 ->77 61 ->69 61 ->73 61 ->74 61 ->75 62 ->70 62 ->72 62 ->76 62 ->78 63 ->70 63 ->75 63 ->78 64 ->69 64 ->72 64 ->74 64 ->77 65 ->74 65 ->75 65 ->78 66 ->69 66 ->70 66 ->71 66 ->73 66 ->74 66 ->75 66 ->77 67 ->70 67 ->71 67 ->75 67 ->77 68 ->71 68 ->72 68 ->73 68 ->74 68 ->77 69 ->79 69 ->80 70 ->80 70 ->83 71 ->81 72 ->79 73 ->82 73 ->83 75 ->80 76 ->81 76 ->84 77 ->79 77 ->81 77 ->84 78 ->79 78 ->80 78 ->82 79 ->89 79 ->90 79 ->91 80 ->87 80 ->88 80 ->89 80 ->90 80 ->91 81 ->90 82 ->86 82 ->88 82 ->91 82 ->92 83 ->86 83 ->87 83 ->88 83 ->89 84 ->85 85 ->93 85 ->97 85 ->98 87 ->94 87 ->97 87 ->99 88 ->94 88 ->95 88 ->96 89 ->93 89 ->94 89 ->96 90 ->95 90 ->96 90 ->98 91 ->95 91 ->96 91 ->97 92 ->97 92 ->98 
}
