0 17
1 19
2 15
2 19
2 20
4 18
5 22
6 15
6 16
6 17
8 14
8 18
8 20
9 13
9 16
9 17
9 18
9 20
9 23
10 16
10 17
10 21
10 23
11 15
11 16
11 22
11 24
12 15
12 25
13 27
13 30
14 29
15 26
15 31
15 35
16 32
16 34
17 27
18 37
19 27
19 28
19 30
20 27
21 30
21 32
21 34
22 35
23 33
24 35
24 36
25 35
25 37
26 38
26 39
26 42
27 40
27 45
27 49
28 44
28 47
28 48
29 39
29 43
30 40
30 45
31 41
31 46
32 41
32 42
32 47
33 47
34 45
35 39
35 45
35 46
36 46
36 47
37 41
37 42
37 44
39 54
40 50
42 50
42 51
42 54
43 53
43 54
44 53
45 53
46 52
46 53
47 52
48 51
50 65
51 56
51 57
51 61
52 56
52 58
52 59
52 62
52 66
53 55
53 58
53 60
53 63
53 67
54 61
54 64
54 67
55 68
55 69
59 71
64 72
65 72
66 68
66 70
67 70
67 71
67 72
68 77
68 81
69 76
69 81
70 74
71 73
71 78
71 80
72 75
72 79
73 86
73 90
74 82
74 85
74 91
74 93
75 82
75 86
75 91
76 83
77 82
77 83
77 88
78 88
78 89
78 90
78 92
78 93
79 84
79 88
79 90
79 94
80 84
80 87
80 89
80 92
81 83
81 86
81 87
81 93
82 97
83 95
83 96
84 99
85 99
86 96
87 98
88 95
89 98
90 98
90 99
91 97
92 98
93 95
94 95
94 97
