0 6
0 8
0 11
0 12
1 11
2 7
4 9
5 6
5 8
5 10
5 12
5 13
5 14
6 19
6 21
6 23
7 15
7 21
7 24
8 16
10 16
10 22
10 25
11 15
11 16
12 20
12 26
13 17
13 22
14 18
14 21
15 32
15 33
16 29
16 32
17 27
17 31
18 29
18 31
19 28
19 32
20 34
21 27
21 29
21 34
21 35
22 28
22 33
23 33
24 30
26 29
26 34
27 36
27 38
27 43
28 42
28 43
29 40
29 43
29 45
32 38
32 41
33 37
33 39
33 42
33 44
33 45
34 41
34 44
35 37
35 38
35 42
35 44
37 47
38 47
38 48
39 48
40 46
42 50
42 51
43 48
44 46
45 46
45 49
46 52
46 57
47 52
49 53
49 56
50 55
51 54
52 61
52 63
52 65
53 59
53 62
53 63
54 60
54 67
55 66
56 58
56 59
56 64
56 66
58 71
59 72
59 73
61 68
62 68
62 69
62 71
63 70
63 71
67 68
68 75
68 77
68 84
68 87
69 76
69 82
69 85
70 78
70 80
70 85
71 76
71 80
71 82
71 87
72 79
72 81
72 86
73 74
73 79
73 83
74 90
74 91
75 89
75 91
75 96
75 99
76 97
76 98
78 88
78 92
78 96
79 88
79 90
79 92
79 96
80 88
80 89
80 91
80 93
80 94
80 98
80 99
81 88
81 94
81 96
82 88
82 98
83 90
83 94
84 98
85 89
85 91
85 98
86 90
87 91
87 92
87 93
87 95
87 97
87 99
