0 9
0 12
0 13
1 6
1 8
1 13
1 14
2 5
2 8
2 10
3 11
4 7
5 22
5 26
6 19
6 22
6 24
6 28
7 19
8 15
8 25
9 15
9 16
9 22
10 16
10 18
11 16
11 17
11 20
11 21
11 24
11 25
13 23
13 26
13 27
14 20
14 27
15 29
15 33
15 34
15 39
16 29
16 38
17 34
17 37
17 39
17 40
18 31
20 29
20 31
20 34
21 35
21 42
22 36
22 41
23 31
23 33
23 36
23 37
23 39
24 30
24 31
24 33
24 36
24 39
25 31
25 33
25 34
26 30
26 34
26 35
26 36
26 39
26 42
27 30
27 32
28 41
29 43
29 44
29 46
29 50
29 54
30 47
30 48
30 51
30 54
30 54
31 48
31 50
31 51
33 53
34 44
34 47
34 53
34 54
35 46
35 47
35 50
36 43
37 48
37 49
39 46
39 54
40 43
40 50
40 53
41 45
41 52
42 43
42 48
42 53
43 56
44 56
45 60
46 58
47 55
47 56
48 57
48 59
50 55
51 60
53 57
53 58
54 55
54 56
54 60
55 72
56 61
56 63
56 67
56 71
57 62
57 64
57 66
57 71
58 61
58 70
58 72
59 68
59 69
60 64
60 65
60 67
61 81
62 80
62 81
63 74
64 73
64 77
64 81
66 75
66 80
67 79
67 82
68 78
68 79
68 83
69 73
69 75
69 76
69 77
70 75
70 77
70 78
70 80
70 84
71 75
71 80
73 93
74 93
74 94
75 95
75 96
76 85
76 96
77 88
77 90
77 92
77 94
77 97
77 98
78 86
78 87
78 97
79 89
79 91
79 97
80 85
81 86
81 93
82 86
83 85
83 86
83 89
83 91
83 92
83 97
84 88
84 90
84 91
84 96
87 99
90 99
91 99
92 99
