0 5
0 10
1 7
1 8
3 10
3 11
4 6
4 8
4 9
4 12
5 16
5 17
6 14
6 19
6 23
7 15
7 21
7 24
8 13
8 15
8 20
8 24
9 17
9 18
9 21
10 18
10 21
10 22
10 24
11 20
12 16
12 23
13 25
13 28
13 29
13 33
13 36
14 26
14 34
14 35
14 36
15 33
16 35
17 27
17 32
17 34
17 36
18 25
18 31
18 34
19 28
19 29
19 31
19 32
19 33
20 28
20 34
22 31
22 35
23 28
23 30
23 36
24 25
24 30
25 37
25 40
25 44
25 48
25 50
26 41
26 42
26 47
26 48
27 37
27 42
27 43
27 47
28 39
28 40
28 43
28 50
29 42
29 44
29 46
29 48
30 37
30 46
31 38
31 49
33 39
33 49
34 38
34 41
34 44
34 45
35 39
35 47
36 37
36 40
37 54
37 55
39 55
41 53
42 53
43 52
43 54
44 53
45 51
47 55
48 54
49 51
51 59
51 62
51 66
53 57
53 58
53 63
53 65
54 56
54 57
54 63
55 58
55 59
55 60
55 61
55 62
55 64
55 66
56 76
57 67
57 71
57 76
58 67
58 71
58 72
59 67
59 72
59 76
60 68
60 69
60 72
60 77
61 68
61 69
61 79
62 72
62 73
63 69
63 70
65 71
65 74
65 75
66 75
66 78
67 84
67 85
68 82
68 83
68 85
69 85
70 80
70 84
71 84
73 83
74 81
74 84
75 81
77 80
77 82
78 83
79 83
81 90
82 86
82 87
82 89
82 90
85 88
86 93
86 95
86 96
88 91
88 93
89 94
90 92
90 94
91 99
92 98
94 97
