files/tasks_parameters/ExAp01/sample8.txt 1.08361 3.76817 4.3855 0.450105 11.2613
files/tasks_parameters/ExAp01/sample12.txt 1.49418 5.03638 5.18776 0.610564 15.2758
files/tasks_parameters/ExAp01/sample2.txt 1.38407 4.58991 5.64606 0.613877 15.3587
files/tasks_parameters/ExAp01/sample44.txt 1.24953 3.77401 5.66946 0.551838 13.8065
files/tasks_parameters/ExAp01/sample27.txt 1.29418 4.13937 5.56136 0.55779 13.9554
files/tasks_parameters/ExAp01/sample17.txt 1.19425 3.76163 5.38341 0.520991 13.0348
files/tasks_parameters/ExAp01/sample9.txt 1.16196 3.69889 5.2981 0.511699 12.8023
files/tasks_parameters/ExAp01/sample34.txt 1.13513 3.52435 5.83741 0.49187 12.3062
files/tasks_parameters/ExAp01/sample40.txt 1.15486 4.06185 5.0335 0.496884 12.4316
files/tasks_parameters/ExAp01/sample33.txt 1.55311 4.82091 5.83886 0.651963 16.3116
files/tasks_parameters/ExAp01/sample48.txt 1.07591 4.01134 5.07085 0.447927 11.2068
files/tasks_parameters/ExAp01/sample29.txt 1.46141 4.20847 5.0406 0.643694 16.1047
files/tasks_parameters/ExAp01/sample11.txt 1.31879 3.94699 5.29198 0.557276 13.9426
files/tasks_parameters/ExAp01/sample14.txt 1.08588 3.54059 4.58345 0.466713 11.6768
files/tasks_parameters/ExAp01/sample0.txt 1.50821 4.82755 4.90216 0.623551 15.6007
files/tasks_parameters/ExAp01/sample7.txt 1.15002 3.60766 5.11185 0.509566 12.7489
files/tasks_parameters/ExAp01/sample23.txt 1.4156 3.81403 5.45799 0.582911 14.584
files/tasks_parameters/ExAp01/sample13.txt 1.48754 4.8894 5.26818 0.624499 15.6244
files/tasks_parameters/ExAp01/sample22.txt 1.29069 3.76156 4.95746 0.534216 13.3656
files/tasks_parameters/ExAp01/sample25.txt 0.982879 2.94144 4.92622 0.403639 10.0987
files/tasks_parameters/ExAp01/sample36.txt 1.25826 3.56164 4.5806 0.501799 12.5546
files/tasks_parameters/ExAp01/sample46.txt 1.23268 3.84833 4.7121 0.530701 13.2777
files/tasks_parameters/ExAp01/sample31.txt 1.09929 3.764 5.08385 0.479734 12.0025
files/tasks_parameters/ExAp01/sample37.txt 1.52462 4.43254 5.65111 0.65143 16.2982
files/tasks_parameters/ExAp01/sample16.txt 1.27177 4.49741 4.8895 0.509171 12.739
files/tasks_parameters/ExAp01/sample10.txt 1.38978 3.87086 6.07511 0.60993 15.2599
files/tasks_parameters/ExAp01/sample39.txt 1.04986 3.66299 4.54281 0.463671 11.6007
files/tasks_parameters/ExAp01/sample19.txt 1.40931 3.86694 5.14047 0.615987 15.4115
files/tasks_parameters/ExAp01/sample20.txt 1.30362 4.09945 5.13368 0.580369 14.5203
files/tasks_parameters/ExAp01/sample43.txt 1.15361 3.75825 5.55698 0.530892 13.2825
files/tasks_parameters/ExAp01/sample32.txt 1.42874 4.0352 5.29178 0.587643 14.7023
files/tasks_parameters/ExAp01/sample45.txt 1.22581 3.94578 4.87833 0.541081 13.5374
files/tasks_parameters/ExAp01/sample26.txt 1.11294 3.50998 4.55035 0.474009 11.8593
files/tasks_parameters/ExAp01/sample5.txt 1.35575 4.00994 5.27725 0.587681 14.7033
files/tasks_parameters/ExAp01/sample21.txt 0.934999 2.8974 4.54677 0.430037 10.7592
files/tasks_parameters/ExAp01/sample38.txt 1.17206 3.56689 4.78573 0.492366 12.3186
files/tasks_parameters/ExAp01/sample1.txt 1.15503 3.69002 4.55048 0.481074 12.0361
files/tasks_parameters/ExAp01/sample15.txt 1.20629 3.73223 5.42493 0.524964 13.1342
files/tasks_parameters/ExAp01/sample24.txt 1.29656 4.18053 5.40377 0.542575 13.5748
files/tasks_parameters/ExAp01/sample3.txt 1.08376 3.70547 4.7118 0.470503 11.7716
files/tasks_parameters/ExAp01/sample6.txt 1.42024 4.07521 5.71419 0.626702 15.6796
files/tasks_parameters/ExAp01/sample30.txt 1.49474 3.97446 5.82388 0.626709 15.6797
files/tasks_parameters/ExAp01/sample42.txt 1.29681 4.44207 5.58473 0.537025 13.4359
files/tasks_parameters/ExAp01/sample4.txt 1.33293 3.92181 4.49751 0.556974 13.935
files/tasks_parameters/ExAp01/sample28.txt 1.06695 3.13496 4.88321 0.444588 11.1232
files/tasks_parameters/ExAp01/sample18.txt 1.22803 3.95301 4.52898 0.537438 13.4462
files/tasks_parameters/ExAp01/sample35.txt 1.80832 5.75923 6.25034 0.752488 18.8266
files/tasks_parameters/ExAp01/sample47.txt 1.16153 3.44018 5.14289 0.540033 13.5112
files/tasks_parameters/ExAp01/sample49.txt 1.22901 3.38981 4.72409 0.493041 12.3355
files/tasks_parameters/ExAp01/sample41.txt 1.10214 3.58692 5.27252 0.492391 12.3192
