files/tasks_parameters/ExAp01/sample8.txt 1.11038 7.2562 4.46819 0.454772 17.5412
files/tasks_parameters/ExAp01/sample12.txt 1.64123 9.70908 5.28286 0.618515 23.857
files/tasks_parameters/ExAp01/sample2.txt 1.50039 8.14159 5.7401 0.620531 23.9348
files/tasks_parameters/ExAp01/sample44.txt 1.38282 7.25164 5.75904 0.557631 21.5086
files/tasks_parameters/ExAp01/sample27.txt 1.31949 8.10944 5.64946 0.564878 21.7882
files/tasks_parameters/ExAp01/sample17.txt 1.26723 7.11225 5.46658 0.527183 20.3342
files/tasks_parameters/ExAp01/sample9.txt 1.22397 7.62559 5.37813 0.517277 19.9521
files/tasks_parameters/ExAp01/sample34.txt 1.23761 7.04587 5.93037 0.497709 19.1974
files/tasks_parameters/ExAp01/sample40.txt 1.201 8.03037 5.123 0.502383 19.3776
files/tasks_parameters/ExAp01/sample33.txt 1.63735 9.22935 5.92956 0.659262 25.4287
files/tasks_parameters/ExAp01/sample48.txt 1.15842 8.12182 5.1577 0.452491 17.4532
files/tasks_parameters/ExAp01/sample29.txt 1.60425 8.06133 5.12331 0.650652 25.0966
files/tasks_parameters/ExAp01/sample11.txt 1.35889 7.63104 5.37897 0.563302 21.7274
files/tasks_parameters/ExAp01/sample14.txt 1.13168 6.66403 4.66322 0.471536 18.1878
files/tasks_parameters/ExAp01/sample0.txt 1.63274 9.3266 4.98971 0.6311 24.3424
files/tasks_parameters/ExAp01/sample7.txt 1.25945 7.34863 5.19436 0.515527 19.8846
files/tasks_parameters/ExAp01/sample23.txt 1.4022 6.68564 5.54308 0.588617 22.7038
files/tasks_parameters/ExAp01/sample13.txt 1.64976 9.31093 5.35591 0.632849 24.4099
files/tasks_parameters/ExAp01/sample22.txt 1.33072 7.65588 5.04866 0.540336 20.8415
files/tasks_parameters/ExAp01/sample25.txt 1.0295 6.17035 5.0141 0.408296 15.7486
files/tasks_parameters/ExAp01/sample36.txt 1.22203 7.03772 4.66274 0.507647 19.5807
files/tasks_parameters/ExAp01/sample46.txt 1.34352 7.73433 4.79934 0.536843 20.7068
files/tasks_parameters/ExAp01/sample31.txt 1.23881 6.96928 5.16482 0.485817 18.7387
files/tasks_parameters/ExAp01/sample37.txt 1.63804 9.52443 5.74224 0.65799 25.3796
files/tasks_parameters/ExAp01/sample16.txt 1.35085 8.63521 4.97261 0.516328 19.9155
files/tasks_parameters/ExAp01/sample10.txt 1.38186 7.28353 6.16876 0.615651 23.7465
files/tasks_parameters/ExAp01/sample39.txt 1.14417 6.3405 4.6137 0.468873 18.0851
files/tasks_parameters/ExAp01/sample19.txt 1.63042 8.85528 5.22306 0.622152 23.9973
files/tasks_parameters/ExAp01/sample20.txt 1.39422 8.1141 5.21177 0.586994 22.6412
files/tasks_parameters/ExAp01/sample43.txt 1.23968 7.21373 5.6367 0.53748 20.7314
files/tasks_parameters/ExAp01/sample32.txt 1.60337 8.30592 5.38137 0.593918 22.9083
files/tasks_parameters/ExAp01/sample45.txt 1.42255 7.94069 4.96323 0.547271 21.109
files/tasks_parameters/ExAp01/sample26.txt 1.15763 7.57061 4.62637 0.480146 18.5199
files/tasks_parameters/ExAp01/sample5.txt 1.49316 8.0307 5.35681 0.59407 22.9141
files/tasks_parameters/ExAp01/sample21.txt 1.02755 5.87802 4.61744 0.434264 16.7502
files/tasks_parameters/ExAp01/sample38.txt 1.18496 7.66999 4.86632 0.496808 19.1626
files/tasks_parameters/ExAp01/sample1.txt 1.16516 7.21312 4.63213 0.486293 18.757
files/tasks_parameters/ExAp01/sample15.txt 1.26641 8.02273 5.50855 0.531063 20.4838
files/tasks_parameters/ExAp01/sample24.txt 1.3382 8.66348 5.4905 0.548998 21.1756
files/tasks_parameters/ExAp01/sample3.txt 1.16689 7.74268 4.79918 0.477387 18.4135
files/tasks_parameters/ExAp01/sample6.txt 1.60827 8.57133 5.80157 0.633604 24.439
files/tasks_parameters/ExAp01/sample30.txt 1.69528 8.18878 5.90888 0.633576 24.4379
files/tasks_parameters/ExAp01/sample42.txt 1.30427 8.57689 5.67253 0.54426 20.9929
files/tasks_parameters/ExAp01/sample4.txt 1.35055 8.40354 4.57985 0.563519 21.7357
files/tasks_parameters/ExAp01/sample28.txt 1.07441 6.44114 4.96426 0.449721 17.3464
files/tasks_parameters/ExAp01/sample18.txt 1.41445 8.56363 4.60946 0.543766 20.9738
files/tasks_parameters/ExAp01/sample35.txt 1.96269 11.0387 6.34514 0.761377 29.3674
files/tasks_parameters/ExAp01/sample47.txt 1.32078 7.14493 5.22131 0.545046 21.0232
files/tasks_parameters/ExAp01/sample49.txt 1.33715 6.65996 4.80244 0.498533 19.2291
files/tasks_parameters/ExAp01/sample41.txt 1.21663 7.09069 5.35462 0.497129 19.175
