digraph G {
0 ->11 0 ->15 0 ->23 1 ->14 1 ->21 1 ->29 1 ->39 1 ->42 1 ->45 1 ->50 2 ->30 3 ->11 3 ->14 3 ->15 3 ->16 3 ->24 3 ->44 4 ->11 4 ->15 5 ->12 5 ->18 5 ->29 5 ->38 6 ->11 6 ->15 6 ->31 6 ->39 7 ->13 7 ->14 7 ->27 7 ->40 7 ->50 8 ->11 8 ->14 8 ->19 8 ->37 8 ->38 8 ->43 8 ->48 9 ->11 9 ->17 9 ->20 9 ->28 9 ->39 10 ->15 10 ->20 10 ->25 10 ->48 11 ->28 11 ->35 12 ->18 12 ->26 12 ->35 12 ->57 13 ->22 13 ->26 13 ->37 13 ->46 13 ->57 14 ->17 14 ->38 16 ->33 17 ->44 17 ->47 17 ->48 17 ->52 17 ->58 18 ->29 18 ->34 18 ->36 18 ->58 18 ->58 19 ->44 19 ->51 20 ->35 20 ->36 20 ->38 20 ->48 20 ->55 21 ->28 21 ->35 21 ->39 22 ->36 22 ->45 23 ->33 23 ->49 23 ->62 24 ->33 24 ->36 24 ->44 24 ->46 24 ->57 24 ->67 25 ->32 25 ->34 25 ->60 25 ->69 26 ->36 26 ->44 26 ->45 27 ->65 28 ->56 28 ->60 28 ->62 29 ->45 29 ->57 29 ->63 30 ->39 31 ->50 31 ->66 32 ->41 32 ->46 32 ->68 33 ->46 34 ->55 34 ->60 34 ->65 34 ->70 35 ->64 36 ->43 36 ->50 36 ->54 36 ->70 36 ->71 36 ->80 37 ->55 37 ->77 39 ->47 39 ->73 40 ->68 41 ->73 41 ->74 42 ->79 43 ->52 43 ->72 46 ->53 46 ->84 49 ->61 50 ->57 51 ->59 51 ->72 51 ->75 51 ->93 52 ->65 52 ->66 52 ->68 52 ->80 52 ->85 52 ->86 53 ->59 53 ->72 53 ->76 53 ->84 54 ->63 54 ->65 54 ->84 54 ->89 54 ->95 55 ->85 55 ->86 55 ->96 55 ->97 56 ->63 56 ->69 56 ->87 56 ->96 57 ->68 57 ->85 58 ->81 58 ->90 59 ->91 61 ->69 62 ->92 62 ->93 63 ->89 65 ->67 66 ->78 66 ->82 66 ->99 67 ->82 68 ->86 69 ->86 69 ->97 70 ->73 70 ->79 70 ->83 70 ->94 72 ->82 72 ->86 74 ->82 74 ->88 75 ->90 76 ->92 76 ->99 78 ->82 79 ->86 79 ->99 82 ->98 83 ->88 83 ->91 84 ->92 85 ->94 
}
