digraph G {
0 ->14 0 ->15 0 ->22 0 ->24 0 ->32 0 ->37 0 ->37 0 ->39 0 ->42 0 ->48 1 ->15 1 ->16 1 ->18 1 ->19 1 ->20 1 ->33 1 ->40 1 ->41 1 ->45 1 ->48 1 ->49 1 ->65 2 ->11 2 ->12 2 ->14 2 ->15 2 ->17 2 ->22 2 ->23 2 ->58 2 ->59 2 ->63 2 ->65 3 ->11 3 ->12 3 ->14 3 ->16 3 ->19 3 ->23 3 ->51 3 ->56 3 ->58 3 ->64 4 ->10 4 ->12 4 ->14 4 ->15 4 ->17 4 ->18 4 ->23 4 ->32 4 ->39 4 ->40 4 ->41 4 ->43 4 ->58 4 ->67 5 ->11 5 ->12 5 ->18 5 ->21 5 ->22 5 ->23 5 ->32 5 ->37 5 ->42 5 ->43 5 ->46 5 ->47 5 ->50 6 ->11 6 ->13 6 ->28 6 ->29 6 ->33 6 ->38 6 ->47 6 ->51 6 ->58 7 ->10 7 ->11 7 ->25 7 ->27 7 ->29 7 ->38 7 ->40 7 ->41 7 ->46 8 ->10 8 ->14 8 ->17 8 ->19 8 ->23 8 ->24 8 ->25 8 ->26 8 ->28 8 ->30 8 ->31 8 ->37 8 ->38 8 ->44 8 ->48 8 ->52 8 ->58 9 ->12 9 ->24 9 ->25 9 ->27 9 ->33 9 ->34 9 ->37 9 ->49 9 ->66 10 ->61 10 ->63 10 ->81 11 ->30 11 ->32 11 ->45 11 ->48 11 ->51 11 ->53 11 ->62 11 ->74 12 ->77 13 ->34 13 ->50 14 ->36 14 ->43 14 ->60 16 ->61 16 ->74 17 ->48 17 ->61 18 ->62 18 ->65 19 ->34 19 ->52 19 ->79 19 ->81 20 ->30 20 ->40 20 ->51 20 ->53 21 ->40 21 ->67 22 ->34 22 ->65 23 ->34 23 ->43 23 ->85 23 ->90 24 ->71 25 ->35 25 ->78 25 ->82 25 ->88 26 ->47 26 ->79 26 ->90 27 ->34 27 ->42 27 ->77 27 ->86 28 ->50 28 ->90 29 ->52 29 ->64 29 ->76 29 ->78 29 ->85 30 ->47 30 ->49 30 ->59 31 ->48 31 ->49 31 ->58 31 ->74 31 ->79 32 ->37 32 ->48 32 ->61 32 ->88 33 ->39 33 ->62 33 ->87 34 ->66 35 ->52 35 ->59 35 ->61 35 ->68 35 ->73 36 ->51 36 ->52 36 ->79 36 ->96 37 ->96 37 ->97 38 ->65 39 ->51 39 ->82 39 ->84 39 ->92 40 ->60 40 ->62 40 ->64 40 ->86 40 ->98 41 ->57 41 ->63 41 ->84 41 ->87 42 ->69 43 ->53 43 ->60 43 ->99 44 ->54 44 ->88 45 ->77 45 ->86 45 ->87 45 ->88 46 ->55 46 ->86 46 ->98 47 ->52 47 ->64 47 ->95 48 ->60 48 ->65 48 ->85 48 ->94 49 ->64 49 ->84 50 ->85 50 ->95 51 ->69 51 ->77 51 ->90 52 ->60 52 ->61 52 ->70 52 ->81 52 ->97 53 ->60 53 ->75 53 ->77 53 ->90 54 ->73 54 ->93 55 ->87 55 ->93 56 ->66 58 ->64 58 ->91 59 ->90 60 ->80 60 ->94 61 ->72 61 ->84 61 ->91 61 ->99 62 ->73 62 ->89 63 ->73 63 ->80 63 ->97 63 ->99 64 ->71 64 ->84 65 ->74 65 ->84 65 ->85 65 ->94 66 ->71 66 ->74 67 ->88 67 ->99 68 ->92 70 ->88 71 ->87 71 ->92 71 ->96 73 ->86 74 ->89 75 ->87 76 ->91 77 ->83 77 ->94 78 ->83 78 ->94 79 ->86 81 ->84 81 ->87 83 ->93 84 ->93 85 ->93 87 ->96 89 ->95 92 ->97 
}
