digraph G {
0 ->9 0 ->14 0 ->17 0 ->24 0 ->30 1 ->10 1 ->11 1 ->16 1 ->18 1 ->22 1 ->23 1 ->26 1 ->27 1 ->36 1 ->37 1 ->39 1 ->45 1 ->52 2 ->12 2 ->13 2 ->14 2 ->16 2 ->19 2 ->20 2 ->26 2 ->28 2 ->34 2 ->39 2 ->42 3 ->11 3 ->17 3 ->21 3 ->28 3 ->31 4 ->11 4 ->19 4 ->34 4 ->47 4 ->62 5 ->11 5 ->20 5 ->21 5 ->22 5 ->24 5 ->25 5 ->27 5 ->28 5 ->31 6 ->12 6 ->15 6 ->18 6 ->20 6 ->26 6 ->27 6 ->29 6 ->31 6 ->53 6 ->61 7 ->9 7 ->10 7 ->12 7 ->21 7 ->23 7 ->26 7 ->28 7 ->32 7 ->33 7 ->34 7 ->43 7 ->50 7 ->51 8 ->9 8 ->12 8 ->13 8 ->15 8 ->16 8 ->23 8 ->32 8 ->59 9 ->22 9 ->32 9 ->49 10 ->33 10 ->34 10 ->36 11 ->66 11 ->67 12 ->31 12 ->47 12 ->54 12 ->65 13 ->31 13 ->40 13 ->46 13 ->48 13 ->49 14 ->23 14 ->24 14 ->31 14 ->44 15 ->35 15 ->41 15 ->54 15 ->56 16 ->57 16 ->60 16 ->66 16 ->69 17 ->50 17 ->58 18 ->60 18 ->64 18 ->67 21 ->31 21 ->34 21 ->71 22 ->42 22 ->71 22 ->74 23 ->32 23 ->33 23 ->34 23 ->48 23 ->63 23 ->75 24 ->43 25 ->52 25 ->75 25 ->79 26 ->38 26 ->49 26 ->64 26 ->79 27 ->32 27 ->33 28 ->32 29 ->45 29 ->52 29 ->53 30 ->50 30 ->52 30 ->53 31 ->47 31 ->50 31 ->56 31 ->57 31 ->60 31 ->66 31 ->70 32 ->51 32 ->63 32 ->66 32 ->67 32 ->68 32 ->78 32 ->80 32 ->81 33 ->39 33 ->55 33 ->67 33 ->68 33 ->69 34 ->66 34 ->74 35 ->49 35 ->66 35 ->70 35 ->78 35 ->84 35 ->87 36 ->58 36 ->94 36 ->98 38 ->87 39 ->50 39 ->71 40 ->51 42 ->64 42 ->98 43 ->82 44 ->60 44 ->72 44 ->73 44 ->85 44 ->94 46 ->51 46 ->67 47 ->67 47 ->73 47 ->77 48 ->64 48 ->68 48 ->86 49 ->70 49 ->95 50 ->64 50 ->80 51 ->96 51 ->97 51 ->99 52 ->73 52 ->86 52 ->87 52 ->99 53 ->88 54 ->93 55 ->83 57 ->69 57 ->92 58 ->75 60 ->67 60 ->69 61 ->85 63 ->77 63 ->89 64 ->70 65 ->76 65 ->97 66 ->96 66 ->99 67 ->88 67 ->91 68 ->85 70 ->90 70 ->97 71 ->85 71 ->90 71 ->92 72 ->92 75 ->98 76 ->89 76 ->93 77 ->92 78 ->89 78 ->91 79 ->93 79 ->98 80 ->90 80 ->91 82 ->98 85 ->90 88 ->92 88 ->95 89 ->90 89 ->97 
}
