files/tasks_parameters/ExAp01/sample8.txt 0.714982 3.15778 1.5595 0.203411 3.6263
files/tasks_parameters/ExAp01/sample12.txt 0.827123 3.94962 1.6705 0.207924 3.70675
files/tasks_parameters/ExAp01/sample2.txt 0.807344 3.78275 1.74131 0.200098 3.56723
files/tasks_parameters/ExAp01/sample44.txt 0.719096 3.59825 1.65317 0.200005 3.56558
files/tasks_parameters/ExAp01/sample27.txt 0.718675 3.45743 1.5148 0.182129 3.24689
files/tasks_parameters/ExAp01/sample17.txt 0.838901 2.77299 1.44514 0.14646 2.611
files/tasks_parameters/ExAp01/sample9.txt 0.734786 2.99933 1.451 0.177444 3.16336
files/tasks_parameters/ExAp01/sample34.txt 0.831645 3.02928 1.58429 0.157984 2.81644
files/tasks_parameters/ExAp01/sample40.txt 0.765297 3.86889 1.52122 0.168379 3.00177
files/tasks_parameters/ExAp01/sample33.txt 0.805067 3.63695 1.71905 0.199765 3.5613
files/tasks_parameters/ExAp01/sample48.txt 0.690173 3.39061 1.49062 0.154728 2.75841
files/tasks_parameters/ExAp01/sample29.txt 0.785367 3.30472 1.38739 0.223868 3.991
files/tasks_parameters/ExAp01/sample11.txt 0.713861 3.10585 1.41612 0.174079 3.10338
files/tasks_parameters/ExAp01/sample14.txt 0.662046 2.70971 1.43432 0.162214 2.89187
files/tasks_parameters/ExAp01/sample0.txt 0.770218 3.6937 1.5439 0.18367 3.27436
files/tasks_parameters/ExAp01/sample7.txt 0.799885 2.70501 1.42221 0.143463 2.55759
files/tasks_parameters/ExAp01/sample23.txt 0.767286 3.2697 1.57822 0.181448 3.23476
files/tasks_parameters/ExAp01/sample13.txt 0.772379 3.84225 1.67648 0.198247 3.53424
files/tasks_parameters/ExAp01/sample22.txt 0.864403 3.09569 1.56121 0.148796 2.65265
files/tasks_parameters/ExAp01/sample25.txt 0.741388 2.73966 1.5007 0.148149 2.64111
files/tasks_parameters/ExAp01/sample36.txt 0.760164 2.85948 1.28553 0.130042 2.31832
files/tasks_parameters/ExAp01/sample46.txt 0.772534 3.58643 1.69998 0.210103 3.74559
files/tasks_parameters/ExAp01/sample31.txt 0.701895 3.4832 1.53782 0.1722 3.06988
files/tasks_parameters/ExAp01/sample37.txt 0.765501 3.95293 1.50705 0.171701 3.06099
files/tasks_parameters/ExAp01/sample16.txt 0.630255 3.31216 1.30115 0.150249 2.67856
files/tasks_parameters/ExAp01/sample10.txt 0.980972 3.17098 1.61789 0.153776 2.74144
files/tasks_parameters/ExAp01/sample39.txt 0.683762 3.26617 1.44406 0.165669 2.95345
files/tasks_parameters/ExAp01/sample19.txt 0.742453 3.63532 1.52509 0.196094 3.49586
files/tasks_parameters/ExAp01/sample20.txt 0.664595 3.20793 1.25367 0.147335 2.62661
files/tasks_parameters/ExAp01/sample43.txt 0.651918 3.11551 1.4202 0.150644 2.68561
files/tasks_parameters/ExAp01/sample32.txt 0.747508 3.5311 1.42482 0.168744 3.00828
files/tasks_parameters/ExAp01/sample45.txt 0.750162 3.80283 1.48324 0.19807 3.53109
files/tasks_parameters/ExAp01/sample26.txt 0.652237 3.21645 1.29701 0.166061 2.96045
files/tasks_parameters/ExAp01/sample5.txt 0.657547 3.5889 1.52559 0.178903 3.18939
files/tasks_parameters/ExAp01/sample21.txt 0.712415 2.75242 1.55936 0.19512 3.4785
files/tasks_parameters/ExAp01/sample38.txt 0.66832 3.31563 1.37515 0.166157 2.96215
files/tasks_parameters/ExAp01/sample1.txt 0.715662 3.74964 1.51696 0.19701 3.51218
files/tasks_parameters/ExAp01/sample15.txt 0.710031 3.32916 1.48508 0.180707 3.22155
files/tasks_parameters/ExAp01/sample24.txt 0.844414 3.45951 1.59549 0.16529 2.9467
files/tasks_parameters/ExAp01/sample3.txt 0.869402 3.70014 1.70809 0.237107 4.22701
files/tasks_parameters/ExAp01/sample6.txt 0.724471 3.33003 1.58323 0.184714 3.29299
files/tasks_parameters/ExAp01/sample30.txt 0.894412 4.1841 1.4861 0.239623 4.27187
files/tasks_parameters/ExAp01/sample42.txt 0.755066 3.43221 1.70276 0.177383 3.16228
files/tasks_parameters/ExAp01/sample4.txt 0.803046 3.72477 1.6136 0.196448 3.50217
files/tasks_parameters/ExAp01/sample28.txt 0.7016 3.11323 1.45032 0.158819 2.83134
files/tasks_parameters/ExAp01/sample18.txt 0.77307 3.47418 1.45209 0.149064 2.65743
files/tasks_parameters/ExAp01/sample35.txt 0.830719 4.57086 1.49394 0.185031 3.29862
files/tasks_parameters/ExAp01/sample47.txt 0.719799 3.13768 1.52397 0.16417 2.92673
files/tasks_parameters/ExAp01/sample49.txt 0.781983 3.13288 1.49657 0.156154 2.78383
files/tasks_parameters/ExAp01/sample41.txt 0.765478 2.81964 1.49636 0.150876 2.68973
