files/tasks_parameters/ExAp01/sample8.txt 0.778166 3.15778 1.5595 0.203411 9.35249
files/tasks_parameters/ExAp01/sample12.txt 0.772514 3.94962 1.6705 0.207924 9.55998
files/tasks_parameters/ExAp01/sample2.txt 0.727762 3.78275 1.74131 0.200098 9.20014
files/tasks_parameters/ExAp01/sample44.txt 0.667218 3.59825 1.65317 0.200005 9.19589
files/tasks_parameters/ExAp01/sample27.txt 0.673912 3.45743 1.5148 0.182129 8.37395
files/tasks_parameters/ExAp01/sample17.txt 0.592531 2.77299 1.44514 0.14646 6.73397
files/tasks_parameters/ExAp01/sample9.txt 0.633567 2.99933 1.451 0.177444 8.15854
files/tasks_parameters/ExAp01/sample34.txt 0.618804 3.02928 1.58429 0.157984 7.26381
files/tasks_parameters/ExAp01/sample40.txt 0.635488 3.86889 1.52122 0.168379 7.74179
files/tasks_parameters/ExAp01/sample33.txt 0.755152 3.63695 1.71905 0.199765 9.18484
files/tasks_parameters/ExAp01/sample48.txt 0.635141 3.39061 1.49062 0.154728 7.11413
files/tasks_parameters/ExAp01/sample29.txt 0.726284 3.30472 1.38739 0.223868 10.2931
files/tasks_parameters/ExAp01/sample11.txt 0.633327 3.10585 1.41612 0.174079 8.00383
files/tasks_parameters/ExAp01/sample14.txt 0.618629 2.70971 1.43432 0.162214 7.45834
files/tasks_parameters/ExAp01/sample0.txt 0.710947 3.6937 1.5439 0.18367 8.44482
files/tasks_parameters/ExAp01/sample7.txt 0.586227 2.70501 1.42221 0.143463 6.5962
files/tasks_parameters/ExAp01/sample23.txt 0.635692 3.2697 1.57822 0.181448 8.34268
files/tasks_parameters/ExAp01/sample13.txt 0.69859 3.84225 1.67648 0.198247 9.11505
files/tasks_parameters/ExAp01/sample22.txt 0.578538 3.09569 1.56121 0.148796 6.84139
files/tasks_parameters/ExAp01/sample25.txt 0.520194 2.73966 1.5007 0.148149 6.81162
files/tasks_parameters/ExAp01/sample36.txt 0.474829 2.85948 1.28553 0.130042 5.97912
files/tasks_parameters/ExAp01/sample46.txt 0.725133 3.58643 1.69998 0.210103 9.66016
files/tasks_parameters/ExAp01/sample31.txt 0.603142 3.4832 1.53782 0.1722 7.91745
files/tasks_parameters/ExAp01/sample37.txt 0.643819 3.95293 1.50705 0.171701 7.89452
files/tasks_parameters/ExAp01/sample16.txt 0.585531 3.31216 1.30115 0.150249 6.90819
files/tasks_parameters/ExAp01/sample10.txt 0.655419 3.17098 1.61789 0.153776 7.07037
files/tasks_parameters/ExAp01/sample39.txt 0.617328 3.26617 1.44406 0.165669 7.61716
files/tasks_parameters/ExAp01/sample19.txt 0.72613 3.63532 1.52509 0.196094 9.01608
files/tasks_parameters/ExAp01/sample20.txt 0.53266 3.20793 1.25367 0.147335 6.77422
files/tasks_parameters/ExAp01/sample43.txt 0.589213 3.11551 1.4202 0.150644 6.92637
files/tasks_parameters/ExAp01/sample32.txt 0.605203 3.5311 1.42482 0.168744 7.75857
files/tasks_parameters/ExAp01/sample45.txt 0.776367 3.80283 1.48324 0.19807 9.10693
files/tasks_parameters/ExAp01/sample26.txt 0.588 3.21645 1.29701 0.166061 7.63521
files/tasks_parameters/ExAp01/sample5.txt 0.675364 3.5889 1.52559 0.178903 8.22567
files/tasks_parameters/ExAp01/sample21.txt 0.783196 2.75242 1.55936 0.19512 8.97129
files/tasks_parameters/ExAp01/sample38.txt 0.582493 3.31563 1.37515 0.166157 7.6396
files/tasks_parameters/ExAp01/sample1.txt 0.745156 3.74964 1.51696 0.19701 9.05816
files/tasks_parameters/ExAp01/sample15.txt 0.647692 3.32916 1.48508 0.180707 8.30861
files/tasks_parameters/ExAp01/sample24.txt 0.636305 3.45951 1.59549 0.16529 7.59976
files/tasks_parameters/ExAp01/sample3.txt 0.90485 3.70014 1.70809 0.237107 10.9018
files/tasks_parameters/ExAp01/sample6.txt 0.658705 3.33003 1.58323 0.184714 8.49285
files/tasks_parameters/ExAp01/sample30.txt 0.786174 4.1841 1.4861 0.239623 11.0175
files/tasks_parameters/ExAp01/sample42.txt 0.681973 3.43221 1.70276 0.177383 8.15575
files/tasks_parameters/ExAp01/sample4.txt 0.757282 3.72477 1.6136 0.196448 9.03234
files/tasks_parameters/ExAp01/sample28.txt 0.576363 3.11323 1.45032 0.158819 7.30222
files/tasks_parameters/ExAp01/sample18.txt 0.632016 3.47418 1.45209 0.149064 6.85369
files/tasks_parameters/ExAp01/sample35.txt 0.699283 4.57086 1.49394 0.185031 8.50739
files/tasks_parameters/ExAp01/sample47.txt 0.629331 3.13768 1.52397 0.16417 7.54826
files/tasks_parameters/ExAp01/sample49.txt 0.552723 3.13288 1.49657 0.156154 7.17969
files/tasks_parameters/ExAp01/sample41.txt 0.610097 2.81964 1.49636 0.150876 6.93701
