Task0 1 1 1 
Task1 1 1 1 
Task2 1 1 15 
Task3 1 1 3 
Task4 1 1 1 
Task5 1 1 1 
Task6 1 1 1 
Task7 3 1 3 
Task8 1 1 1 
Task9 3 1 1 
Task10 1 1 1 
Task11 1 1 1 
Task12 1 1 3 
Task13 1 1 1 
Task14 1 1 1 
Task15 1 1 1 
Task16 1 1 1 
Task17 1 1 1 
Task18 7 1 7 
Task19 1 3 1 
Task20 1 1 1 
Task21 1 1 3 
Task22 1 1 1 
Task23 1 1 1 
Task24 1 1 1 
Task25 1 1 3 
Task26 1 3 3 
Task27 1 1 3 
Task28 3 1 1 
Task29 1 7 15 
Task30 1 1 1 
Task31 1 1 1 
Task32 1 1 3 
Task33 1 1 1 
Task34 1 1 1 
Task35 1 3 3 
Task36 1 1 1 
Task37 1 1 1 
Task38 3 1 1 
Task39 1 1 1 
Task40 1 1 1 
Task41 1 3 1 
Task42 1 1 1 
Task43 1 1 1 
Task44 1 1 3 
Task45 3 1 1 
Task46 1 1 1 
Task47 1 1 15 
Task48 1 1 1 
Task49 1 1 1 
Task50 3 3 1 
Task51 3 1 1 
Task52 1 1 1 
Task53 3 7 7 
Task54 1 1 1 
Task55 3 1 3 
Task56 1 1 1 
Task57 3 3 1 
Task58 15 3 3 
Task59 1 1 1 
Task60 1 1 1 
Task61 1 1 1 
Task62 3 1 1 
Task63 3 1 1 
Task64 1 1 1 
Task65 1 7 3 
Task66 3 1 1 
Task67 1 1 1 
Task68 3 1 3 
Task69 1 1 1 
Task70 1 1 1 
Task71 1 1 1 
Task72 1 1 1 
Task73 3 1 3 
Task74 1 1 1 
Task75 1 1 3 
Task76 1 3 1 
Task77 1 1 1 
Task78 1 1 1 
Task79 1 1 1 
Task80 1 1 1 
Task81 3 1 1 
Task82 3 1 1 
Task83 1 1 1 
Task84 1 1 1 
Task85 255 31 255 
Task86 1 1 1 
Task87 1 3 3 
Task88 1 1 1 
Task89 1 1 1 
Task90 1 1 1 
Task91 3 1 3 
Task92 1 3 1 
Task93 1 1 1 
Task94 1 1 1 
Task95 1 15 7 
Task96 3 3 7 
Task97 1 3 1 
Task98 1 1 1 
Task99 1 3 3 
