0.43747150000000007
Task0 1 63 1 
Task1 63 31 63 
Task2 63 1 3 
Task3 15 15 63 
Task4 255 127 63 
Task5 1 3 63 
Task6 7 63 31 
Task7 15 63 7 
Task8 63 1 3 
Task9 15 3 63 
Task10 15 255 63 
Task11 127 255 255 
Task12 1 63 15 
Task13 63 1 15 
Task14 127 15 63 
Task15 7 63 15 
Task16 31 31 31 
Task17 63 3 7 
Task18 63 127 63 
Task19 63 3 7 
Task20 15 63 15 
Task21 31 255 15 
Task22 3 63 63 
Task23 255 127 255 
Task24 63 127 3 
Task25 15 31 31 
Task26 7 63 7 
Task27 63 7 15 
Task28 7 1 63 
Task29 63 7 1 
Task30 63 7 1 
Task31 31 63 3 
Task32 15 15 63 
Task33 15 31 63 
Task34 15 31 63 
Task35 63 7 1 
Task36 63 255 1 
Task37 15 31 127 
Task38 255 127 127 
Task39 63 15 7 
Task40 15 3 63 
Task41 63 63 15 
Task42 63 15 63 
Task43 63 63 63 
Task44 31 15 255 
Task45 63 15 63 
Task46 127 63 63 
Task47 3 63 15 
Task48 31 63 7 
Task49 31 31 127 
Task50 63 1 7 
Task51 63 7 1 
Task52 7 3 63 
Task53 63 1 31 
Task54 7 63 15 
Task55 63 1 15 
Task56 7 63 7 
Task57 31 3 63 
Task58 1 255 3 
Task59 7 7 63 
Task60 255 31 63 
Task61 127 63 127 
Task62 7 31 63 
Task63 255 15 31 
Task64 3 63 1 
Task65 63 7 15 
Task66 31 63 255 
Task67 63 7 63 
Task68 31 127 255 
Task69 63 63 63 
Task70 127 31 255 
Task71 15 63 15 
Task72 63 255 127 
Task73 63 63 63 
Task74 63 1 7 
Task75 1 3 63 
Task76 7 7 31 
Task77 1 7 63 
Task78 255 7 31 
Task79 63 31 15 
Task80 127 63 15 
Task81 15 63 31 
Task82 15 63 15 
Task83 7 63 1 
Task84 63 7 63 
Task85 31 3 63 
Task86 127 31 7 
Task87 15 255 31 
Task88 31 127 7 
Task89 255 63 127 
Task90 3 1 63 
Task91 63 15 7 
Task92 63 127 255 
Task93 1 63 15 
Task94 63 7 127 
Task95 15 7 63 
Task96 1 1 63 
Task97 15 63 15 
Task98 31 63 63 
Task99 63 7 7 
