0.39668238000000006
Task0 63 7 63 
Task1 63 3 1 
Task2 3 63 15 
Task3 63 127 31 
Task4 127 255 3 
Task5 63 7 63 
Task6 255 127 127 
Task7 31 15 63 
Task8 127 1 63 
Task9 3 63 15 
Task10 63 1 3 
Task11 127 127 127 
Task12 63 127 255 
Task13 15 31 127 
Task14 31 255 63 
Task15 127 7 63 
Task16 63 255 7 
Task17 127 127 15 
Task18 127 127 127 
Task19 31 63 31 
Task20 63 7 63 
Task21 63 63 127 
Task22 15 63 7 
Task23 127 127 63 
Task24 7 3 63 
Task25 15 3 63 
Task26 63 15 15 
Task27 7 63 31 
Task28 255 31 63 
Task29 1 15 63 
Task30 63 15 31 
Task31 63 7 7 
Task32 63 31 127 
Task33 15 63 7 
Task34 31 15 63 
Task35 255 255 3 
Task36 7 63 31 
Task37 3 31 63 
Task38 255 31 15 
Task39 1 63 127 
Task40 15 15 63 
Task41 255 31 63 
Task42 63 3 7 
Task43 7 31 63 
Task44 3 63 1 
Task45 127 63 15 
Task46 63 63 3 
Task47 7 63 63 
Task48 63 63 7 
Task49 31 127 63 
Task50 15 63 7 
Task51 1 15 63 
Task52 7 63 63 
Task53 63 255 63 
Task54 3 7 63 
Task55 127 255 255 
Task56 15 15 63 
Task57 1 31 255 
Task58 255 15 15 
Task59 63 127 3 
Task60 127 1 31 
Task61 31 63 127 
Task62 255 31 63 
Task63 63 255 127 
Task64 63 7 127 
Task65 15 63 31 
Task66 63 7 7 
Task67 255 255 127 
Task68 31 127 63 
Task69 31 255 15 
Task70 63 1 3 
Task71 3 127 7 
Task72 31 63 127 
Task73 63 255 255 
Task74 31 127 31 
Task75 15 255 31 
Task76 63 255 63 
Task77 31 7 255 
Task78 255 31 15 
Task79 15 63 15 
Task80 127 3 63 
Task81 15 63 127 
Task82 255 127 31 
Task83 63 127 63 
Task84 63 63 31 
Task85 31 15 63 
Task86 15 63 15 
Task87 127 255 63 
Task88 7 63 15 
Task89 31 63 127 
Task90 31 63 31 
Task91 3 63 255 
Task92 3 63 1 
Task93 3 63 7 
Task94 31 127 63 
Task95 3 63 7 
Task96 255 255 3 
Task97 63 3 255 
Task98 255 63 63 
Task99 15 7 31 
