Task0 0.005520053539632893 0.25482001659082165 0.004594507580764491 0.27764691157244936 0.6054334257047362 0.8957670472607349 0.9672358132294459 
Task1 0.01395124052595861 0.043025202774948056 0.03437447417829868 0.010319721493524297 0.33847031205793143 0.9192853611208052 0.33420833127011224 
Task2 0.05146317989801739 0.060296503306167135 0.07958563649297086 0.08119494106627126 0.778961362988263 0.4630325732297937 0.8932524045987478 
Task3 0.0021707836929582692 0.1666027408680929 0.1076847797543403 0.08768421193025326 0.44169855044710604 0.360594891635584 0.49714407810234534 
Task4 0.15791245744284702 0.28920468606955635 0.26998946988809225 0.2721584046539572 0.46779216112669725 0.7875843233188731 0.38483201481788654 
Task5 0.08622754927489001 0.1733434538252022 0.17626615008463892 0.19380074829034255 0.6308311068751565 0.5274701046460076 0.7327144924802924 
Task6 0.1471582187359348 0.2779906726956076 0.2054356957491988 0.21294313710706836 0.6631780091096449 0.8257947349915082 0.30362737351384184 
Task7 0.17808623256086434 0.008274154940712153 0.362523990255129 0.34728798376247805 0.6195774285209017 0.4354045888923863 0.6622698508096918 
Task8 0.01188017460508107 0.08176993342269735 0.12607747343827724 0.09207423177298088 0.5029593083815292 0.9671868281439795 0.4372122924246494 
Task9 0.0021850423846797606 0.08097314436577262 0.002704982057144226 0.04117662052376526 0.9627904660719688 0.40744998829910406 0.3282160859987256 
Task10 0.00369631846729182 0.07205126951005043 0.0749882152917871 0.22767010861872067 0.9956143734601488 0.896810945157384 0.34844202130168456 
Task11 0.12858775009897677 0.03577311327051165 0.5371945148778416 0.2652613210118556 0.8746633158580295 0.7629612384388549 0.9716073204300395 
Task12 0.08412508604779434 0.074311589685569 0.46895807554597 0.23174038197550476 0.4313891658458674 0.6261574930467981 0.5479844101306577 
Task13 0.018234901183562715 0.12515900415563116 0.1390145920332864 0.1441181294696995 0.5813005246539281 0.4724452574191962 0.516310700873118 
Task14 0.0787582230472581 0.13039140619403047 0.15226286729154384 0.17841475229093945 0.6728437843682019 0.8387099896441064 0.6351771801053598 
Task15 0.046269269626179256 0.25111544820563725 0.2725684189018404 0.24257167416764897 0.527902011587091 0.47539651576808584 0.9290521759754775 
Task16 0.008296593752952216 0.06439683768013447 0.035258265508879116 0.059247629073761604 0.7828988086464157 0.672053985156684 0.43754311418187575 
Task17 0.07638053564120312 0.13273903090128458 0.24938503876145013 0.31540703783202123 0.39392180867306936 0.813471594471044 0.8168148111874145 
Task18 0.04684372094937282 0.1791384497658988 0.23217595111027417 0.025361489182593618 0.8291743943006198 0.5796576933608177 0.7054591196866997 
Task19 0.0051740562826582725 0.3316954600438601 0.2093144707242697 0.1395549212399754 0.6061138375877653 0.6362111053805855 0.861559063766201 
Task20 0.03189350538670768 0.08089283582373955 0.14250353545531047 0.16499714000875915 0.8514939032508122 0.44684993249679184 0.5585545702624541 
Task21 0.03162960845678706 0.061887482534965337 0.09571638014574144 0.07081315773689571 0.38981972997473946 0.3889581146721624 0.541556014866689 
Task22 0.05748997954595662 0.008290801088847265 0.06471467764475503 0.17084476767790976 0.9278637165574124 0.6483036181513278 0.5892500469551916 
Task23 0.007845714768344609 0.19863640520933154 0.20605934754585972 0.23942587580520447 0.6781532429683362 0.6211616091856655 0.9359066735592869 
Task24 0.01955489720042606 0.05089202363286048 0.08695733654637891 0.12519292688123437 0.3333143583592849 0.8628225310185651 0.6042154138009113 
Task25 0.018839008796146268 0.21670443206004472 0.22109459920268917 0.10942285381142962 0.5126403113955171 0.8016775940115841 0.7813569691075009 
Task26 0.05445820219589357 0.3858932992612967 0.12200267875139255 0.2194599727477632 0.7917498008423969 0.9519018550918525 0.394239975957984 
Task27 0.13112267937030636 0.3543064497202427 0.09144291548396978 0.11599402606602974 0.4480050692964576 0.9578415012138137 0.4786320855198356 
Task28 0.012984336685129225 0.09218151298962678 0.08035607956542551 0.050521816809727435 0.941036068877537 0.6110625565489143 0.765964856968043 
Task29 0.013528915308773195 0.14944984939281955 0.08375276018273449 0.17291615416367007 0.43517871264803054 0.5499288772791473 0.6987653914906382 
Task30 0.10007355885209679 0.21342833981587397 0.13739132656686787 0.21169032271770793 0.4995506448180778 0.733568128093867 0.9513420712765857 
Task31 0.026773071222922835 0.37925575220157326 0.028230661960837896 0.18873527761969194 0.6736819581214379 0.44017099107713964 0.63657260872739 
Task32 0.06560763583114387 0.24845100809290746 0.13794434990641571 0.24398871066638073 0.35105144415333783 0.5842370609810741 0.3911759536317078 
Task33 0.05721841837399863 0.3130069748056058 0.07985406489489781 0.26994157200658186 0.3366728763488269 0.5477631641554621 0.6453665004832219 
Task34 0.08776196078749343 0.1441211714983649 0.14118519979011315 0.22460314724186967 0.4735936422288928 0.5908543217300117 0.8197510140558568 
Task35 0.04437789294619568 0.2508184782354642 0.012937423815368485 0.09114450585195602 0.46204063853176924 0.7539974303374375 0.5633292224593773 
Task36 0.054820344918533666 0.17880359727265904 0.3495562690860794 0.407876827345063 0.3740568269431429 0.6165916651206662 0.7195069830993813 
Task37 0.15233078070035388 0.2123350912343069 0.244511377009724 0.1819298085255676 0.7093011931901059 0.3557736893429342 0.7222917292221471 
Task38 0.028257008940032576 0.039321211782384805 0.28666175024220175 0.08320131400841295 0.8924906570542239 0.763029480975519 0.8691657004136912 
Task39 0.0008641449321471589 0.001875462381120559 0.0032027948869184776 0.00996902305828103 0.41069652925687117 0.6518151863378765 0.9621950793068164 
Task40 0.026279163125560934 0.13733476143082862 0.35901679373823137 0.12418880288404982 0.9477551145064058 0.4709597924104085 0.7025293041531498 
Task41 0.0675461183668813 0.21608958714617682 0.26713551152059917 0.27700519433403886 0.7979394204902016 0.9346600317619227 0.39808828827981135 
Task42 0.060880982917963004 0.3604208776896648 0.16284468411111516 0.27772614526566153 0.394443014488338 0.4561289309754777 0.6133246906092061 
Task43 0.048053339993501996 0.08317973805201569 0.32831307012601246 0.07145032189553648 0.7821719344562605 0.3321100942311426 0.5739109422706428 
Task44 0.01953687444800772 0.019349953495641115 0.01660749374632845 0.0736006553925673 0.528266240652242 0.7857508775334405 0.686665992915837 
Task45 0.006604406890962639 0.02365295387606264 0.006361680571090555 0.023936625560261934 0.5288632606158039 0.9274825988428368 0.5435590457468453 
Task46 0.053796641018002314 0.22044590886400953 0.09293904198560397 0.07478876570703784 0.970663291761048 0.784143113857575 0.7434147880135394 
Task47 0.007315575520093064 0.0650342721696499 0.34932414366453685 0.06989702716643145 0.9198309347064226 0.9304146098146036 0.4297099154082995 
Task48 0.06990041691502266 0.011189200521720007 0.41757782184995124 0.39291030899338275 0.7015923974000885 0.7269229925101682 0.45442592686306904 
Task49 0.0415870596466949 0.13640818172500957 0.11695222352187823 0.07607397046856555 0.47250842559450945 0.46230967125644634 0.5894614533518537 
Task50 0.1413834300152756 0.30446297107018383 0.3222432967875752 0.11536214606149686 0.7115922098899314 0.8407509808126123 0.66514916628133 
Task51 0.14230709766275676 0.011037544807319352 0.11830446087176463 0.639202618192709 0.8961160497572633 0.987898533651542 0.49756288641481156 
Task52 0.11308213284841008 0.19709599811564782 0.21234965354829546 0.08265134175988462 0.810781466298675 0.5631888423776712 0.9723395696641974 
Task53 0.024328965380654977 0.09842632206037957 0.025181555369565938 0.08704512783872323 0.5044957968738932 0.3713964689829059 0.8049613113086382 
Task54 0.024288961545865163 0.4179343779895246 0.05865064719537664 0.05912400570331053 0.31817503143643827 0.6013428337351726 0.6710233185961092 
Task55 0.15654585418753428 0.1654108968979144 0.27336605516648355 0.30182297194327795 0.46630856051978675 0.6244295950028169 0.4315333208759276 
Task56 0.05240576778285118 0.045752483737347735 0.19007480548530095 0.0033705281621268074 0.42728983552979494 0.8585434572372888 0.5973400675279505 
Task57 0.0003521789077869485 0.05993232313516747 0.04835571244330758 0.07102092363736852 0.43587783281439063 0.32734586874066435 0.40010584664338156 
Task58 0.06809267751450178 0.09313598971091165 0.10699065320097698 0.07887463583198405 0.5874363428678893 0.5935162031217136 0.41794813409837844 
Task59 0.07123972814500346 0.010866848920938754 0.25076177485361384 0.2449576999978195 0.3477756642479884 0.8456502336138205 0.6056215187554173 
Task60 0.046503388218453186 0.05161920892276597 0.07261136344721915 0.2166052300637715 0.9930165379427855 0.9057554173472331 0.6433183410631103 
Task61 0.0023921823283253197 0.08677714779561617 0.034693374069273204 0.07281990562773018 0.49799104636795427 0.832529773842817 0.8335374880072115 
Task62 0.010596439511272194 0.02172646476307808 0.09425169648035972 0.07284750034529502 0.35346935804045776 0.7076640165661108 0.916773689963494 
Task63 0.005378633856163037 0.0009505263816699673 0.06185925643784685 0.16597179564106168 0.6507534470344043 0.6801752098077527 0.7893448829945744 
Task64 0.12613425869678002 0.3278829174018084 0.2191209545936154 0.14911131487461934 0.62348510866807 0.5529937422518711 0.8120921521084443 
Task65 0.007650508886170075 0.0026010021513704954 0.48778190618818806 0.17737645593596335 0.751936667715216 0.5775407560947219 0.6492511985513267 
Task66 0.13035384335908842 0.1678172874676626 0.056807152647010015 0.33506175242761504 0.33233168509794814 0.6101512126463101 0.3780903861134022 
Task67 0.044629920283728766 0.09725623592734628 0.15980505640473422 0.1619255148986458 0.7501277407106317 0.9780413114313091 0.4125308418783044 
Task68 0.027079740764166287 0.08996999311957934 0.022166489343333224 0.04139924554889615 0.7011864579084324 0.8527380675421874 0.30203276009702895 
Task69 0.005490379200426535 0.0220519364453729 0.0164238053306252 0.013049143952216418 0.6917411455482871 0.308698228428507 0.9519169329607533 
Task70 0.10523324679288781 0.1713986904218278 0.23727537060668893 0.20749971226971853 0.5538171179457945 0.48019436904597823 0.423109060241019 
Task71 0.004525248775704399 0.01277356349416121 0.04647499749550699 0.04877887312405994 0.36933181474368826 0.6568389367479581 0.6815963396130047 
Task72 0.021589886584582357 0.035081912839432405 0.10088043947914584 0.11685142236486425 0.9972199805999888 0.6390928606451023 0.828667067052016 
Task73 0.009273533820950138 0.19583278631530246 0.10928363407046661 0.4521471135206631 0.6604923077499251 0.3527475851975953 0.338429859294113 
Task74 0.02433224480336447 0.04807488000039512 0.022941685901395854 0.055995640587107695 0.7900411508719879 0.6657641298592553 0.33193732170697643 
Task75 0.0021981091170291847 0.036794671168937525 0.04414720639507498 0.016708803749687216 0.3667484079928409 0.9938735258745417 0.8250813431166553 
Task76 0.010536886372861565 0.06555206892284073 0.07235783501179549 0.026408936129292588 0.7506441493920692 0.7365579768179766 0.7376192952234781 
Task77 0.09854981036591276 0.10386755550078902 0.14720345754675251 0.21440859503032267 0.4385901422803925 0.5580216229015857 0.9032636482229479 
Task78 0.04582394231161564 0.007235231397006193 0.19506452881951578 0.36422486031281615 0.837472531838173 0.49398968894578155 0.6089810099811537 
Task79 0.010388677258738821 0.020342321317496546 0.5710704279796657 0.24313901509070057 0.9520592903644485 0.5547932020967681 0.946245315194296 
Task80 0.03975029678817021 0.00359570570421502 0.0798284910513895 0.12072818315406109 0.8609827807840185 0.7573439256806691 0.9010535327578855 
Task81 0.027048723167030636 0.09703846872827042 0.05480395036633183 0.09168255075494107 0.5245756966059114 0.8623025339123453 0.837989699363501 
Task82 0.0022590455819126937 0.029859487691092625 0.026795652909683592 0.042783224538566915 0.6365120773822786 0.9906626813968304 0.6793847987801335 
Task83 0.0689273133712098 0.08579240655536614 0.3721847324483087 0.2704525722060824 0.6052774811739048 0.36411408779826837 0.517513176057528 
Task84 0.0012784919783345975 0.14015911130712244 0.1399685788815935 0.15445097211979775 0.48225164035839724 0.6090880502503244 0.4325157973996818 
Task85 0.11812071947589753 0.2535004230043321 0.281151017652706 0.26844438769340495 0.3285115641791011 0.556707202749682 0.8436844369213674 
Task86 0.004915816346423059 0.02017009338562664 0.012038248870379801 0.03137098116143573 0.8640771849289506 0.6062928149772715 0.37841922120791577 
Task87 0.010456736001071413 0.031827820406504344 0.05612222262950071 0.070459650081153 0.9159982763532464 0.38506256760203506 0.6340382714700823 
Task88 0.07988008364500522 0.19464919836398764 0.19040360153241873 0.03811113381984548 0.8995917522538079 0.500976041659339 0.8241683320968325 
Task89 0.018074625312091835 0.09151780821777519 0.06336489295256713 0.03443224080678565 0.8324392769282127 0.3020966063947192 0.3998772607950444 
Task90 0.1626384282219401 0.0097717091341269 0.439840699536122 0.28244029525810027 0.43860329578318413 0.7924088892372176 0.9394465066994844 
Task91 0.005190966690206992 0.008997984255518256 0.039943747490190286 0.07242404724238624 0.490360722254667 0.6477520511414834 0.886299309346108 
Task92 0.12064865994027714 0.22827730826010875 0.21396214317491707 0.2611384895091423 0.4417599415462117 0.9565980884170333 0.6275728953691677 
Task93 0.026607275391344776 0.280274118867711 0.17227081308566386 0.13566884874076676 0.7719273941371427 0.5143171442540424 0.7646962170380298 
Task94 0.07821832289940894 0.014411873559751511 0.2368271102241364 0.4132505745597955 0.7563533659744703 0.8741592686006912 0.6042709902785187 
Task95 0.03821807568839142 0.1329539075153425 0.08642736936970133 0.11249330483889154 0.3546704616690514 0.9977469381017199 0.8777720228660031 
Task96 0.048527260779879386 0.20448978124068895 0.23396795927499314 0.13075097461020704 0.7512789647220643 0.8002436703546971 0.8053390776098353 
Task97 0.0033951327888330158 0.2760446280912866 0.2912888488931877 0.19860402759507967 0.6791758318067801 0.4784388749876882 0.41698464279497394 
Task98 0.049879377590594715 0.019389707154189178 0.2408977764846818 0.37800198683231395 0.9894368773198416 0.741261682592943 0.7719897192233354 
Task99 0.030160320219097588 0.22370034683283965 0.20091718987863455 0.18414648138276316 0.35830930555561613 0.791699279656011 0.5684182906500495 
