Task0 0.0486793008712735 0.19858372516372502 0.21032136208132043 0.19090002184133611 0.4777862319180475 0.7733354858015076 0.7318735130751493 
Task1 0.049323570592718705 0.04711932181940827 0.0799726932977629 0.07142946316749026 0.36134699358187694 0.5708577806986432 0.4918055739395866 
Task2 0.04219977146355177 0.3497520674354248 0.382780233957352 0.06782563205878661 0.9622548308464034 0.5393346949825173 0.30889362942869214 
Task3 0.03499666139241246 0.1865181168247528 0.043035671964182225 0.34615671560963773 0.4392836493957892 0.9602220044707463 0.5473694227782933 
Task4 0.026568263513149788 0.01604115760646582 0.09108841304245698 0.23134783566327607 0.5213192941979133 0.3843230376498897 0.9153423806570435 
Task5 0.0068522239093178365 0.2656676201253987 0.20323349561739476 0.018744821557323436 0.6038329483098552 0.35652817438348927 0.8239145085796946 
Task6 0.09829629708803561 0.4517362289939028 0.027713820329676342 0.352786895565049 0.7384875651339181 0.8213913533024118 0.4908348280127032 
Task7 0.06523036453794562 0.07570674687108 0.24293073311026886 0.2655409664506939 0.9406632036394562 0.7106130440629622 0.8200832025459577 
Task8 0.08925305630359105 0.2520085824381203 0.34055325119378665 0.11218915737516308 0.9042190780273585 0.3929429438342307 0.4404680426149088 
Task9 0.02539714789579041 0.2932456642311512 0.4776320085457016 0.030859554207029623 0.5275460307147748 0.3506697377067683 0.907790722534169 
Task10 0.00994416465311414 0.04904768789375008 0.04772806380048422 0.06359395164752381 0.9597410488991476 0.7496294355756066 0.8359715228162052 
Task11 0.035926719674045024 0.21983148311361853 0.016781733418797115 0.13554002995034972 0.9005016785199333 0.38886800829873247 0.5855675156724844 
Task12 0.055988040358765895 0.06681347388323676 0.03580526999434826 0.12604815167196548 0.6702801283757145 0.9369100415189653 0.5571574481809054 
Task13 0.04926887722716743 0.31006597303587846 0.038681675505752335 0.3175569521500675 0.38033012609744854 0.7565964213549959 0.433697262684685 
Task14 0.06685023148993675 0.10193304143627342 0.09564038623751009 0.09093532245284867 0.6423137231811261 0.4473511691968599 0.3866518885493495 
Task15 0.005369592859770245 0.3204298433298823 0.20220659284838133 0.27401081933759763 0.34096526046202247 0.9445188705434853 0.37866749810596967 
Task16 0.06337618501395358 0.08512446889516864 0.39832819580868706 0.04859350028132858 0.6801498316143026 0.718580963348509 0.6265213343825231 
Task17 0.03665564459522131 0.07442285457009377 0.09282433183681622 0.19608027661730137 0.9258343031138374 0.8468482124238654 0.3461569506536898 
Task18 0.019516782683403514 0.11139160009820417 0.15952595046035567 0.1517480575490192 0.6520317146997281 0.3051847875481617 0.5918460744719545 
Task19 0.07362832532960802 0.14614374109361788 0.030790285879356286 0.15253389498325878 0.5445892943732746 0.30529417538779574 0.34769255818402484 
Task20 0.02037680866827143 0.0553889465536807 0.061519563958654565 0.04920932353527596 0.7173630151694772 0.6854044173185281 0.9456421530820847 
Task21 0.010889063563830044 0.29145106813581384 0.028505016789726587 0.005480848481255728 0.7470360024539688 0.8573016793021999 0.955051381872495 
Task22 0.03731748259812089 0.04026323653498009 0.07154117659998543 0.042988064710708956 0.3870304681399671 0.5193448433052034 0.5986570468148802 
Task23 0.033214881748923016 0.06557252480483312 0.037524524252442105 0.09058196533390245 0.6918681241907095 0.6483124919579634 0.4816519897310143 
Task24 0.008232966498208759 0.014282222674511314 0.021843842131723905 0.020997943556583566 0.33388573492242446 0.4736796498243837 0.5092958594738433 
Task25 0.035537608506731745 0.13451073583766168 0.020148229077467758 0.02035475964795614 0.3985210896059739 0.6476832715322336 0.721720878543289 
Task26 0.055382075892518694 0.10814392380448777 0.31509398401919775 0.3726834992060731 0.9660571367249224 0.8216393778578728 0.32504545277385166 
Task27 0.011319422605413881 0.014609105386857573 0.03453898333152159 0.010250693317903388 0.717754617200823 0.3137901177498066 0.7587363163924796 
Task28 0.03619215395490035 0.052367337780094295 0.1875885009994693 0.06789162507073096 0.8679309334346803 0.5990307757551677 0.46535219547081097 
Task29 0.02587783368999418 0.1191655253082761 0.1476474101290638 0.21252797929716818 0.5973025398129526 0.7911627789215705 0.5625250117175724 
Task30 0.00020812703615416496 0.27962724248224935 0.12900156320532888 0.10418602088991546 0.5243042814486764 0.4468091091689078 0.3673810641225217 
Task31 0.016859701028758892 0.08932118258093416 0.11167952160527869 0.06560396243804159 0.9906714702378849 0.6097720519728655 0.4278110893874201 
Task32 0.09487767123289416 0.44649577039640787 0.04846576141209862 0.13911384304636082 0.793762375421107 0.7076208888311581 0.9018593092975129 
Task33 0.05195794615349099 0.039417330934607045 0.10364110946471093 0.07858100252836493 0.49045367220528735 0.5114367405301143 0.49085730356802776 
Task34 0.06497444299200153 0.1154635794490151 0.11126601038365644 0.08836199885303501 0.5875577269245595 0.60749442839688 0.4808628014650739 
Task35 0.05239568611637995 0.21273539550695394 0.01028243093727992 0.3042893859217376 0.7862480183633825 0.7293591819649617 0.7838620951010368 
Task36 0.004975443186132224 0.014565288533615191 0.009774048589059123 0.01710146408782163 0.85513934073701 0.7617786271725482 0.8612926913330934 
Task37 0.09605102980440605 0.12739410315241514 0.3552800521790494 0.16302696762494162 0.6542462173334989 0.446248279231539 0.7766314994514346 
Task38 0.012060901894811444 0.002669255144247179 0.06450339547277485 0.06487833979676574 0.5369768569084156 0.7455974945894884 0.4136138857989222 
Task39 0.07734627730691586 0.2989454575067408 0.2360254616327981 0.3744517076371032 0.6508341290531536 0.6995021516136211 0.5581705964663604 
Task40 0.03625004500419831 0.08044457806232651 0.06322933644285589 0.03356427225606346 0.39277092206303355 0.6792541064117845 0.9418467605281855 
Task41 0.04967757194153262 0.08251931536032404 0.12054805789883663 0.04602261451445165 0.6314450300807525 0.7650300657939131 0.5641927456789556 
Task42 0.01062613395446091 0.03290490620181673 0.028257235611061072 0.003277993942190401 0.778968692695196 0.8886655281455675 0.6455644307115134 
Task43 0.004870552936787546 0.3427205576500155 0.09777196252064098 0.3334003716143161 0.42259667986336485 0.5166391890424893 0.8189729656099882 
Task44 0.06747397516651263 0.5173569750403213 0.29580194848407715 0.0854472158717251 0.7158132447131145 0.9049919002174058 0.8654812279843822 
Task45 0.07582392777897026 0.21760830044840887 0.284406590732597 0.0014365763747567967 0.7926840570847999 0.9016479397532686 0.7096734792095918 
Task46 0.0389585358134514 0.09126725086053679 0.020131641978598874 0.2544607550318744 0.32474371018252485 0.7606294065266611 0.7980850952819689 
Task47 0.034761228203763796 0.058099113702064845 0.16196156358915248 0.0289282934294893 0.30172799872340095 0.9604301064823126 0.40269344394200907 
Task48 0.07779317207181721 0.07105117227953692 0.12584676490929245 0.13005297042355807 0.6420614304565182 0.4775491549828866 0.8535533806706654 
Task49 0.015307047256814263 0.50343371368952 0.06359601206865373 0.37715531220579696 0.4300004262066264 0.6875324386899906 0.8220443616973194 
Task50 0.08938945638452112 0.18036954011831122 0.34946079284191345 0.327497110716271 0.8110137947025717 0.4935736208269166 0.5012049756351142 
Task51 0.013849249273718901 0.018244749127553077 0.18043605721984338 0.20386972768796938 0.4665299722010424 0.5668640096012723 0.4831730620090182 
Task52 0.1491486354116562 0.007789182074584922 0.11342153935283715 0.5673424144416371 0.6738847370732807 0.7227921509301009 0.7682505849147683 
Task53 0.049347833787045964 0.08891807504225237 0.08159539399647756 0.05387862103228738 0.4848753482892072 0.7872969446247717 0.43616130502858136 
Task54 0.08316131583309194 0.009838298285898082 0.14548285507203723 0.18954555744318888 0.9359390734463326 0.5146458885903888 0.6355163403714814 
Task55 0.0414306833295052 0.3320488453098563 0.15431903971275737 0.15643657094991925 0.6404868067161611 0.48837838306752634 0.4290743629124357 
Task56 0.05663257829498031 0.05395449849792064 0.06130091537404931 0.25989145526026786 0.8523280960564663 0.31362235197684063 0.62095345007553 
Task57 0.0055596038945391 0.1182612189623634 0.004395016812305872 0.0683904002793667 0.5230143458417776 0.6448619922078279 0.8108034302434843 
Task58 0.04278849551376201 0.28235241388391324 0.2756207764480696 0.1795504710989504 0.7466920321485506 0.8720896255005419 0.9226968111675935 
Task59 0.10030997943309271 0.03461996938364154 0.2448782711080033 0.22659033420158156 0.34817584324810746 0.5953581217148687 0.48801891674482256 
Task60 0.021921308143289898 0.01940954060903895 0.024099593326785726 0.04449216492300007 0.9335151069885479 0.7536155103195197 0.776977780001727 
Task61 0.09455179934181505 0.03715432101752667 0.45826429796483337 0.31778963311815966 0.6753895658229123 0.9483184363796595 0.991188053437331 
Task62 0.009505595198975475 0.12847621946348395 0.2941855086666434 0.33095231287109134 0.7306335162991761 0.723003946058725 0.6316543720477247 
Task63 0.00164663434877938 0.09540428965620809 0.010625793563000146 0.23595639572756447 0.43573186027493294 0.6821430039213353 0.9203405521330517 
Task64 0.07719181916755881 0.0500372767335153 0.07974160565787856 0.21462336929129688 0.47775917005813784 0.832627325702967 0.7457068876750368 
Task65 0.15551326188813794 0.03232341156258738 0.33947410477342693 0.4601527359205947 0.7241497211501049 0.322034331617668 0.9926690118370982 
Task66 0.00032699952618227697 0.00011166010829396204 0.0009493256658227066 0.0005184061104494967 0.8004748668519361 0.5038621585178182 0.9158709814020194 
Task67 0.08735112462538612 0.10816484537663022 0.08898123272207777 0.18834855273372192 0.6347320878181115 0.9034768635373311 0.7825175610676788 
Task68 0.0029085782308112896 0.25370671580903026 0.2148230746278366 0.016396453055812655 0.5687284982638374 0.3999867990609697 0.9536115208343596 
Task69 0.0051767333486271196 0.08615161457660774 0.18597112589974554 0.04856491952692563 0.32631920214449855 0.3118886494277304 0.5226906107160845 
Task70 0.006311773234633582 0.006490694752760279 0.044753284342395526 0.0848572029003278 0.6807257150746056 0.9972084419212959 0.8990006234800236 
Task71 0.047788659697478045 0.2943991861641437 0.32350010522208045 0.015719905201506373 0.7447026841364294 0.37839948429230746 0.7733855696479257 
Task72 0.011609660162738884 0.03609284243589048 0.015547682524326676 0.021222387044719074 0.9168528320894007 0.5757551182423539 0.35452266220035045 
Task73 0.021102628554092572 0.015470191338054181 0.24680446631158295 0.037885782495338374 0.3734959338006248 0.9714820108386224 0.8035318139986583 
Task74 0.08377002192224543 0.31028790352969704 0.24122133192897946 0.044860540337569595 0.9759936669371176 0.46188628868558734 0.6167315023457683 
Task75 0.019972296126100318 0.01819412215869631 0.09671504760568474 0.05026713619807937 0.4954653923278174 0.8914697291500766 0.46821660376673646 
Task76 0.010569188396871373 0.03365725132764996 0.05625316703657136 0.10262182802198894 0.31835734836626 0.3802333217217082 0.5646722554479122 
Task77 0.0359379505002186 0.10735699524865765 0.11666641884155682 0.10399842329630153 0.8699088942057498 0.9594174768724215 0.5013792143696298 
Task78 0.03106627584241543 0.26239998234594686 0.3082398926799297 0.37152600295745636 0.9032738382357424 0.4309373706892572 0.44533365174291484 
Task79 0.13415959646311854 0.18078250801863024 0.40711927330841513 0.1019149289460785 0.3354424207524854 0.8464703800332174 0.39816892238007473 
Task80 0.009058479632247436 0.173739430622304 0.018612065404040146 0.005236886619439091 0.32633043221214264 0.3035740602015833 0.3550099345607664 
Task81 0.012252123173904885 0.07144059346990633 0.05942733944708599 0.2575976458873724 0.7183866550266056 0.31955245340190486 0.6909816521296357 
Task82 0.1418219148768761 0.12981396166703912 0.20448757399640272 0.2866753316135721 0.665633404708498 0.8088888447163476 0.629151699056709 
Task83 0.036381171273595816 0.4250412397265387 0.03482121876797926 0.11987955085808621 0.7545220216164918 0.3070429304905237 0.5596082132186255 
Task84 0.12751641946442818 0.1445869108749937 0.2619445286616633 0.19162495743395974 0.8477209357607633 0.462080422456149 0.8281929991469827 
Task85 0.0576728637069269 0.27308165017600267 0.12680128441761887 0.33137831261917217 0.338143197915596 0.8041979434835287 0.4578983149703553 
Task86 0.020995023945672472 0.08778094850160842 0.0370876473478843 0.10614002338027746 0.4684306317739039 0.7865817999365232 0.8583226323388193 
Task87 0.1843329887562884 0.4505341731419031 0.13372593812463635 0.19464448006052817 0.4528410547512822 0.5907031563466651 0.9530224232265547 
Task88 0.11882034889960973 0.2297120346991023 0.3477506173083387 0.2760072707631342 0.43323914714387335 0.7755587455109773 0.5010979819726953 
Task89 0.017392486481526154 0.1844355781265012 0.0014400229017166874 0.017156154813571113 0.6733184794202547 0.42837476939529595 0.9329127902714414 
Task90 0.024314028098767825 0.012466451683884924 0.06445430730047697 0.18037559059479666 0.9228153709355276 0.6521703015554257 0.6755178099552719 
Task91 0.17671277708372118 0.21127809246175408 0.2554030778763347 0.24190284167269624 0.5643925907777474 0.7301655893730816 0.6701441602662199 
Task92 6.0446758064031914e-05 0.5292525761581005 0.17298044359787143 0.2514743406505888 0.8811712909694156 0.6065323270561129 0.6267554022491556 
Task93 0.12801114177934086 0.14029750136218952 0.18528619386540263 0.30958706293448723 0.30938196467096746 0.6608666969115238 0.48341764103784823 
Task94 9.162842864968779e-05 0.0014372535642356102 0.0006390567479486485 0.0014726372087949082 0.876542959579079 0.5267422220049439 0.5333308757092037 
Task95 0.023559019750371196 0.06374212775974893 0.09849533058747205 0.10688889177110206 0.31665750423734634 0.5534754328304985 0.47962568810236084 
Task96 0.008616391077860441 0.10489604589780745 0.09118018126602774 0.141457359352657 0.7612778795050796 0.7859012852988367 0.6864282532262813 
Task97 0.072444792502104 0.30457517252881516 0.0005131823061393931 0.4001902868015093 0.597150968093195 0.4112314260976822 0.8372110932850094 
Task98 0.08305700818367011 0.162661628695493 0.13689381404987375 0.04273430778075456 0.7057077202739798 0.6285779699242955 0.5982000936428148 
Task99 0.04373870411942481 0.10537190273738158 0.09493594652282593 0.00041068055574788783 0.5164053113638577 0.7731294797798903 0.8325054788684518 
