Task0 0.08412073172079418 0.15584481620980564 0.07257117959759027 0.21615333014457203 0.5630526647029637 0.9436268808180759 0.37124247256519466 
Task1 0.09535051790389966 0.32502338207842163 0.2693702498431536 0.1317629030631767 0.3916383435828399 0.5312068060688991 0.5957265637726914 
Task2 0.016641749977827035 0.10460380102832469 0.005318353391401844 0.10960456712508654 0.9831707537112793 0.8993943404455083 0.376831573706546 
Task3 0.02698508668590746 0.5056964637081524 0.43871186242175625 0.018638517641519702 0.5213406363574439 0.40134691663763356 0.6188061939850484 
Task4 0.002491864326645343 0.01414474042329147 0.020809197670789575 0.025548551622392873 0.6080650829873846 0.7379178478199874 0.6716778025534113 
Task5 0.05125366947883174 0.21614309317735658 0.14890837146294247 0.3968460222092827 0.4897756627324777 0.8351662885320053 0.33761832980820206 
Task6 0.024000048369103938 0.14813117656950534 0.11712263362220404 0.19463026827091182 0.6954404794157572 0.3151480238369017 0.6731888440154685 
Task7 0.08259635536949911 0.3589695214671351 0.3016538022697627 0.10129338521084104 0.40848614467912236 0.947419615650172 0.5413401011235953 
Task8 0.021121193269856987 0.09100709935880706 0.0020870575599887062 0.037988161394839 0.3980836780352079 0.6565715299417771 0.4799176380078186 
Task9 0.02084187503451449 0.050569047917708984 0.19967588045278725 0.20668288840517382 0.9338148805239359 0.6919229137896896 0.9392885823658967 
Task10 0.07044447704345597 0.3064762168722166 0.185090862667526 0.09773754758858678 0.8058740634672599 0.4224817775166084 0.46517484811478027 
Task11 0.07948332016809645 0.40795088268731555 0.18211875227902855 0.24789336956436708 0.9942912787585623 0.8276405355899323 0.6047549569925461 
Task12 0.007973649307120006 0.03483685990658592 0.024425926052214327 0.10710478330433139 0.3842490500312387 0.7089378969215627 0.32720747957083707 
Task13 0.027409084305695993 0.0809678384336815 0.06367601074301713 0.02282538568310652 0.9324868221458134 0.4765017278868788 0.7052174663469705 
Task14 0.005379753381981771 0.014191446744563444 0.019955700965758487 0.016965495731565267 0.5889620159166564 0.9563558209413483 0.9090578851884383 
Task15 0.12146978022550135 0.15084585743947657 0.12070921539189115 0.3101852513399683 0.41233655096536964 0.7476850550179445 0.5876812115798229 
Task16 0.08312405649125339 0.22782911467702063 0.11844410077879174 0.3284129306316171 0.7969961288237042 0.8538730709363098 0.9318681830551614 
Task17 0.0004264165071499344 0.0023314056946500145 0.0030419842044711967 0.0025338160596644625 0.9177094796691145 0.3352582374393515 0.8994487964005684 
Task18 0.0006085480770056298 0.1375613316673623 0.15018627660376646 0.20583836162787425 0.8973316069319459 0.5689252010572186 0.39728644060804025 
Task19 0.004739214324167461 0.09254468284626256 0.03442707307585602 0.10742475536430857 0.7725361463339169 0.8312164968669096 0.4172777377655802 
Task20 0.07306450139740683 0.11532464315375311 0.026763764553636896 0.17846340566651162 0.6486984594846182 0.7231666355663992 0.713081656027724 
Task21 0.01925156169238367 0.14142277524820496 0.12935958837465072 0.08069131740385858 0.6745287862118113 0.748441379528948 0.457739432815529 
Task22 0.03423248506985902 0.06386690074360883 0.07456122795813751 0.0397013568361674 0.6079491483734446 0.8693659402369998 0.7469523532401516 
Task23 0.007974336703062163 0.1020734745375996 0.05849923947591083 0.04866065869332504 0.5667679711211835 0.4915294673123778 0.9515251904093125 
Task24 0.03635197775187726 0.19385841050938635 0.005317854107244804 0.05820256633660284 0.5970032891619992 0.7991073840137444 0.8222993568259678 
Task25 0.028920816916100087 0.25615826596624525 0.04753398425436234 0.2605246487019876 0.47604138744797264 0.42263010139720114 0.6205676469095123 
Task26 0.0002073702014204094 0.012655419840606998 0.008093584706686315 0.05092633726363392 0.424627357569646 0.3578084213290367 0.563440337315931 
Task27 0.06286235811516669 0.16229412316006578 0.14430773100086997 0.15934032787567806 0.9003080446258109 0.9873314688438082 0.3994604841092036 
Task28 0.03175818150940583 0.08907625261896647 0.011515047660207974 0.0811541961585988 0.9790575126575636 0.40424209348729756 0.4719714539440664 
Task29 0.061797943916046455 0.12564636527518003 0.07740145069916049 0.444800329473445 0.6655217438425833 0.8895251263458783 0.8181971977632996 
Task30 0.16014971674157766 0.181782124343621 0.4215501777687204 0.04751723368860027 0.48658795399463406 0.9857382214761872 0.6245769932375489 
Task31 0.03566192706314484 0.10657843934331075 0.09636627673704858 0.010850178179528663 0.7989400493461054 0.5671366928853832 0.918516477276393 
Task32 0.10278675547076767 0.2588487784048632 0.15866915983673652 0.3448057375114198 0.3950398430967432 0.9535310194939186 0.40835003190626507 
Task33 0.09824169014179703 0.3652259639780515 0.13086722008207188 0.25391831005477433 0.6124636727175246 0.7364568859823903 0.6483561904952144 
Task34 0.04094444262518807 0.032591193251295975 0.16416868391534037 0.5210097332942719 0.5278482425193344 0.9795907079566974 0.40264434778592284 
Task35 0.11806945708718086 0.1433666100640411 0.22456353805508614 0.1420716742592487 0.9950535569706351 0.3730354941049891 0.7797782871875241 
Task36 0.0698045356685237 0.08154593586331818 0.2381187194628004 0.1721206653724948 0.6512423260993204 0.5591001132479596 0.5590561913773237 
Task37 0.012279611714320604 0.007648733689487791 0.04717556249195571 0.019828239107762703 0.8356284306712045 0.4929680574377464 0.5596280172151449 
Task38 0.013770560728613252 0.2785766819820969 0.42536624063940254 0.14371130533931387 0.35453543329107956 0.6482958729855639 0.4674228984159189 
Task39 0.01378781403087219 0.03241591313113512 0.02097819901411166 0.026041863283494428 0.6881424946767614 0.8464280668889463 0.7042586362806271 
Task40 0.15676766543938034 0.24408551937990194 0.21309410153854555 0.1760331816428856 0.7834626264359952 0.9361234516625501 0.46716365643804414 
Task41 0.00935678148708106 0.048894130255426424 0.04741489866210102 0.05702010787638504 0.6507389733747686 0.9150879031899071 0.45183362653724257 
Task42 0.07052568179367615 0.11088807243715666 0.07329985623402326 0.13721025534174028 0.982186132111893 0.5048429542180493 0.524827894828999 
Task43 0.020337783260689333 0.10858166778052364 0.10288980871789781 0.039716007074437426 0.8976958261581804 0.9624840479800163 0.5508203476474112 
Task44 0.05216190660632438 0.21599117525792497 0.15561949390973628 0.25106053456094146 0.6918053410529733 0.8533690793027069 0.6090752316775786 
Task45 0.1013061894654606 0.07785802189635006 0.3177999383005301 0.24451854894832126 0.3016375248011587 0.9949346718077063 0.5924932241886108 
Task46 0.03075733089105049 0.04998241248429437 0.05147022728208667 0.043532225419766465 0.6571440219165232 0.5738268985829164 0.3655414473983133 
Task47 0.0227151115754265 0.007415696134520067 0.25492237111109106 0.06613912202119401 0.7831028052186626 0.670549142086741 0.720275868296435 
Task48 0.001317113488969028 0.2732467355408265 0.21670693994695628 0.19127091276892424 0.8133110585226768 0.5421076275636348 0.6499107248443996 
Task49 0.1475078469782899 0.5436433949057711 0.036332255737972385 0.15475961692697535 0.565939587993151 0.7669213848623628 0.5942719885833547 
Task50 0.02849041417936365 0.10392201031005578 0.10151011948611187 0.11233646800933736 0.6130301790124746 0.7925746014176817 0.3082088921949894 
Task51 0.030079518766308554 0.3666035627355268 0.049750024331868904 0.22623679111212674 0.6473306572727862 0.9634191919949733 0.7858695239278116 
Task52 0.020651225140470412 0.07896548466408328 0.28594315352261157 0.06072262485483097 0.36680711920571 0.6235600713158018 0.7983136755570046 
Task53 0.07678483006278566 0.21085327835092432 0.025766333454931005 0.15936201162656757 0.9782055050133387 0.7230571617007593 0.43316192420228583 
Task54 0.01775458577825582 0.40424090790038314 0.07357028047751149 0.34035872429163855 0.921117346464007 0.7542370772476912 0.6118424575709983 
Task55 0.16682264234103883 0.30675144566049145 0.3132216629069102 0.06397692508456072 0.3499196988892519 0.6918928520781048 0.6266052048723401 
Task56 0.09824938053170065 0.2434930130743249 0.17145333808293736 0.3965748447163492 0.9170925344375418 0.672585374548285 0.42756435307209384 
Task57 0.09968276243503153 0.019778722275573778 0.1611494594726221 0.6835900503526766 0.664685733109784 0.393175777587244 0.8009440434423831 
Task58 0.05820901765366325 0.046455081509164456 0.060492324000538986 0.17708241101593744 0.9063860098846874 0.7391706495438384 0.9884759502903189 
Task59 0.05705168661373999 0.16934007999111084 0.25438860386888285 0.2413919039348981 0.7699200721406916 0.8213364186732683 0.5047150944718996 
Task60 0.028554682988090142 0.047833316062637396 0.05798862840134067 0.020025662617535165 0.8257574343454919 0.7429045341114671 0.9301503500790342 
Task61 0.004263300684716261 0.007955653160398108 0.011075881638976796 0.005576645447178403 0.8614455465311881 0.7991165641905595 0.7940917147756907 
Task62 0.04925372469869329 0.05049801728710877 0.0916605820699943 0.12464722990710962 0.7916307899919734 0.5192612239113261 0.6040071118676311 
Task63 0.0394259734390025 0.10126662568741304 0.0847927909491615 0.05396369880556289 0.5651664232579757 0.8670820734517874 0.3814633386477344 
Task64 0.001994652975848247 0.004304467202387534 0.00401859580750507 0.0013845269456479214 0.3162272090658939 0.4454357222226903 0.39621001270600353 
Task65 0.04674194496422748 0.1679223630540865 0.0009187235679547763 0.05509758337403239 0.35958210299487775 0.7198628666106157 0.6267725522160332 
Task66 0.11743199796752885 0.17673249191137738 0.15876583882049092 0.2929454229856144 0.39125220092607926 0.8183498957920272 0.7878618743564488 
Task67 0.04465401786892677 0.023654634136751274 0.3028346651096026 0.3354618845544976 0.756532223849393 0.4373202382343786 0.9742530347644895 
Task68 0.0009252967485047229 0.08572955351245953 0.04045069451986049 0.09951624370227082 0.46810725378287704 0.8585347991140451 0.9866777137574074 
Task69 0.02000656630807512 0.06305880846027058 0.06056830889962667 0.037995204154588465 0.6672887695218944 0.9492230555712895 0.9431928696209526 
Task70 0.06363362039182585 0.2561678430740022 0.07916112031785687 0.21023046136565102 0.668490072205215 0.929139876181931 0.37996385956409173 
Task71 0.033617098975421617 0.05956371291129011 0.409128855851549 0.29208711506320684 0.6897147051251752 0.8114652794757902 0.7689302488645142 
Task72 0.010595717647640035 0.4213388354822219 0.2241892792903861 0.28698066542685585 0.7193637637368572 0.647362240238549 0.5130101578336934 
Task73 0.06982480865301752 0.3407450789688263 0.34479725515660486 0.01666495939618025 0.8813682549345707 0.6646501489501486 0.5584519912096646 
Task74 0.010586661151541107 0.024450250443381085 0.06369489026556405 0.17031401844867794 0.838325750086117 0.5524975287888886 0.7735473757815308 
Task75 0.12979665492292553 0.3845189232897607 0.19630834076986492 0.07298797891681011 0.8122355972421669 0.9140379205344362 0.7996325989440374 
Task76 0.001659529359973113 0.018874389460044695 0.003502083948257404 0.003079806510654546 0.9436615060269324 0.538301657694509 0.9044899537964013 
Task77 0.10395789482957458 0.07977880376566673 0.2824520084983204 0.2387443399181768 0.37753159045266566 0.4695513578652491 0.4629350819625188 
Task78 0.03982901253917506 0.10263024797070018 0.09669050169958424 0.030106831377327038 0.5965129742628742 0.5078661081762608 0.3268765887554128 
Task79 0.005403906531915742 0.006248492688562676 0.011546639114551017 0.013121518790723558 0.8431743177244773 0.4142904477596991 0.7579780866307974 
Task80 0.007267034736674567 0.037257916363261076 0.018785397111692356 0.027147498110964455 0.9190636273915018 0.6307078132748688 0.5420714574599121 
Task81 0.009712147438254569 0.35058850632648436 0.18464438110734138 0.3349126944323836 0.5105242096800644 0.3302358118722139 0.6680315433320474 
Task82 0.014105727388155569 0.4277929877634933 0.11599497738667136 0.18100285048997405 0.5433114226378282 0.5445058850540268 0.4919475928017488 
Task83 0.021154805620021182 0.2197095974504415 0.2308851618592377 0.09541312402935866 0.4919762747589841 0.6736191250408472 0.4641474076531862 
Task84 0.04997784399648992 0.09675882552986603 0.07477086233939349 0.1348990477852796 0.5492289488595953 0.7336230400115609 0.7114578320470637 
Task85 0.04169689211550617 0.5941420357578167 0.04737064563334918 0.07033757089194276 0.6760563562993329 0.5860875736869302 0.6262365902118652 
Task86 0.0176800291013435 0.12704372034498607 0.041550989119725726 0.049067104217774736 0.6116010334781405 0.8743040468629357 0.6019283642314259 
Task87 0.11502830297567204 0.039711470098820846 0.33242885327272725 0.25161905756732883 0.9577260774337124 0.4544174406642038 0.8969720266330659 
Task88 0.00014761604777658295 1.3657688239110334e-05 0.00142136748306289 0.0009763698363943765 0.41715117794774215 0.34831470148327637 0.7505445712174899 
Task89 0.06234211132634983 0.14089492339934345 0.14649611149321823 0.07720977974123498 0.5954516516568513 0.7247276445240378 0.8471196527849374 
Task90 0.006439415735481283 0.01393553722693307 0.016938834705943706 0.0027791444520992225 0.4310023894504666 0.5579971424464274 0.9363335305551577 
Task91 0.052391531240483236 0.30550861162662735 0.1950246917941496 0.14344005932624984 0.437172257826831 0.7097233038185529 0.743650620464294 
Task92 0.05279181332899352 0.058612356847346544 0.48823450425668924 0.004990592190953689 0.5358785317871899 0.9302228394483312 0.6311025164840818 
Task93 0.08800687944148232 0.28399148320698336 0.22734511026173582 0.1621930667498322 0.49798836681789493 0.3806562576973189 0.6964717071814415 
Task94 0.03318569103075923 0.04350962821450472 0.25778434253005095 0.07703381827754499 0.4218659129692684 0.64614569513665 0.842579948819947 
Task95 0.04022930266935712 0.016807400652200405 0.13124777029682838 0.07229709905082807 0.5915018535388585 0.73797286296328 0.3368387593348238 
Task96 0.05130292841212501 0.3936239276890065 0.09096477744728072 0.024318071609104208 0.6873755421673748 0.9018283276200543 0.9938931179782506 
Task97 0.010972214259174596 0.03264109798453038 0.011224940990033953 0.06606018089882269 0.8264257511662041 0.845739186832819 0.6277842242242764 
Task98 0.019758165482978925 0.33394561561168573 0.13168384939097055 0.28990860813161284 0.5240649911160965 0.6083042776604182 0.5164165154415601 
Task99 0.03167981971037353 0.07156716080129114 0.03714251844032189 0.07487797680418723 0.6553885484018047 0.3444245242338143 0.8326275502788554 
