Task0 0.2261915765677176 0.29446904394613593 0.227057109149598 0.07073298218297822 0.5755008883307431 0.6256991183004861 0.5233885148009363 
Task1 0.218374146905699 0.15582884973159225 0.18126710813159733 0.2559479785924673 0.6250241801700841 0.6798388959515126 0.640169906482509 
Task2 0.046833138221868166 0.05091727519236844 0.041488021303018874 0.03233630082708563 0.6510300549349612 0.6645892036824453 0.5883992061602089 
Task3 0.15676828399438683 0.11544521416067498 0.18548687196564106 0.15084598126609197 0.5830564538265612 0.512454997373374 0.6764654620539697 
Task4 0.19366869673032 0.12279129174094158 0.1592698407086926 0.19124872339754914 0.698521564889063 0.637633091305761 0.5939780693021469 
Task5 0.2830768990207774 0.07395846009507563 0.3801230988882297 0.2104605558067148 0.5645702704719047 0.6799796717590227 0.510693823113034 
Task6 0.2142606364165381 0.07910908689095865 0.4642598949069311 0.18628262725936967 0.532850325178779 0.5105962970700625 0.5901627250527005 
Task7 0.16614080993312721 0.17970683365108522 0.1466587360173735 0.1407427300506856 0.6680440384801491 0.6970779535398757 0.6781441219632905 
Task8 0.20792270542713476 0.32742405771899546 0.3461167932485324 0.023175607191092896 0.6239676778859571 0.5624588362067382 0.5666433324451902 
Task9 0.16183425328291015 0.25367424391558735 0.0938563815863684 0.18961572328481266 0.5477218954517457 0.6948455038281103 0.6640712243972324 
Task10 0.1290931978843559 0.04771484287815262 0.1437341569004352 0.2530456100070819 0.5345518980793382 0.5127918429007894 0.6048183655343304 
Task11 0.14937425007612687 0.10268438978804763 0.23579063382455276 0.22320994711513126 0.6678304313719509 0.5659425737734626 0.6240817610212819 
Task12 0.16846060737618268 0.05710889672072163 0.35417814172749923 0.16560784066646295 0.6671280431405718 0.623704572330547 0.6253781951363544 
Task13 0.15241843492279783 0.2973709825278484 0.18192443364968708 0.09089607777795962 0.5855626365916312 0.5307300441792286 0.5813730630860398 
Task14 0.18483880571840897 0.15547494765309908 0.25444766918118145 0.227364760804926 0.5991141616551034 0.6376421076639321 0.6451073442664352 
Task15 0.217835701551545 0.30768538082661173 0.2658985166414127 0.0036126750369612427 0.5196294765444978 0.5296423500865803 0.6186387644463358 
Task16 0.16116121850811257 0.11683402870632212 0.08197715009783538 0.18607586177066568 0.5420629810485795 0.6633406074632933 0.5364956981093931 
Task17 0.12838147670482836 0.23124574082435653 0.11385729867671011 0.10311486403459451 0.6929379778644773 0.5085798956541946 0.6732802437071896 
Task18 0.2104504196773315 0.13523503718522673 0.2596601381668377 0.27492164633323923 0.5004324843480676 0.6264246294789902 0.650170197350401 
Task19 0.01899698972454467 0.03945965180067065 0.021081614669661297 0.011116640042156645 0.5484049219467287 0.5624584926830021 0.6605651079989515 
Task20 0.12846063137699887 0.029716523301482112 0.2695212553115744 0.13074551557473968 0.5974662325640618 0.527759071183356 0.6354378709353479 
Task21 0.1526655913145193 0.14281697925861417 0.2199923567186967 0.18013166904809969 0.6191428779899993 0.6743288001565038 0.5216952148828659 
Task22 0.24899250201428277 0.3744675317825579 0.21181864920652108 0.0595272402614891 0.5916624084697797 0.6783255418482955 0.5551406895575592 
Task23 0.2623579566842946 0.25425161830872933 0.21999707794675194 0.24341725350127827 0.5261244807544716 0.602997594418285 0.5373154224246304 
Task24 0.13739570638407653 0.17688707213875882 0.09428502276058556 0.13062914069165116 0.5219062666045977 0.6617378467696945 0.5479492937623582 
Task25 0.07950141528677407 0.06552910387368494 0.131553920203011 0.03981351581963703 0.6387385034054645 0.6743592132967997 0.6422219098777975 
Task26 0.012078581962641752 0.010789744546204377 0.012797001917490574 0.014422482660967613 0.6060865122978882 0.6048150124057227 0.5047955472768976 
Task27 0.1771774313368039 0.009073409567616968 0.02070923436059194 0.5567836658322529 0.5767408530260889 0.5018783796206902 0.5081410849218689 
Task28 0.02424531419041944 0.010834282613771312 0.041903182663715156 0.0229568511699064 0.6598303067894219 0.5592427103344393 0.5095904190518944 
Task29 0.09539415249499679 0.09675240912753734 0.10287408567411994 0.11316312995293092 0.5083699251639522 0.6882558463403239 0.6265854486152929 
Task30 0.12137165169991723 0.007944615489234953 0.2531385188826865 0.1350733083654667 0.5988187696951592 0.5822379056515457 0.5132297670504489 
Task31 0.022684778854074848 0.01912934871626318 0.027419217809878566 0.03161756970796331 0.5875705344305908 0.5108652660494496 0.5151205462185047 
Task32 0.03232542354912879 0.023037963966487548 0.05273650016955727 0.024941447095959628 0.5365085118362658 0.6510660927028377 0.6413388572007348 
Task33 0.02589100231917329 0.06640724446231427 0.0014509307953261285 0.006705797733816941 0.6942261051831031 0.5590512564997207 0.6319973975924049 
Task34 0.1095332879951376 0.09514964319196552 0.12428593507486689 0.08317086298792689 0.6355293795864246 0.5383531662175673 0.5433576090146977 
Task35 0.16681341824211712 0.2339962489594824 2.9147633261911233e-05 0.24862965994808545 0.5533901666579935 0.5388668337903992 0.679578954364138 
Task36 0.11931652406028474 0.00962652181914153 0.20535075787456464 0.1810697871708969 0.6070476479489781 0.6860555018300496 0.6253224201929475 
Task37 0.1521107032135235 0.1571308740704033 0.1392485208571468 0.16109342960879383 0.6130265099194485 0.502931895135 0.6199374741577234 
Task38 0.17252218567706182 0.15022865667702168 0.3892799347720968 0.1482051129786226 0.5895193504122254 0.5970470832822443 0.6344601840885222 
Task39 0.043161236268762615 0.05139924840624937 0.0436417598440602 0.01018458337005885 0.6469847969803647 0.6505951649755163 0.6531210093826889 
Task40 0.043239145081683354 0.04776034057690684 0.01677600247804414 0.053811700530523726 0.6708305033163843 0.5263255274935321 0.6649319649244165 
Task41 0.1840631424206069 0.07018779881249507 0.24702028235744758 0.13608674289998546 0.5437236359712627 0.6907496898625556 0.6869073897864513 
Task42 0.15194576926386472 0.18963998072808902 0.17755840567187695 0.15890335249625287 0.6735164497163455 0.6232573362746818 0.6999650166120157 
Task43 0.17238249596152758 0.21915909430705768 0.24893123126521038 0.037197255316211625 0.6269715365478823 0.6420799951686755 0.5649076730577374 
Task44 0.07497967479710856 0.0716057448896823 0.04340932680410143 0.0753475148703872 0.5021038282303069 0.6578594645708793 0.6210077699293508 
Task45 0.15729944788600392 0.171027625597494 0.034451948596777096 0.17342260647038105 0.6345237883905455 0.5994763755429688 0.5685233609345689 
Task46 0.20971318949923973 0.1870141441008031 0.19604325949278484 0.13670896076866695 0.535997452083502 0.5114089278559114 0.5734726666865804 
Task47 0.07500275213811275 0.09238153877230479 0.07654173502871917 0.09481219330770871 0.6845640605749849 0.580819264759711 0.5949613815136982 
Task48 0.22299494876870765 0.03391481778250012 0.4566146672559133 0.14524160602799457 0.6613981395233122 0.6408822152734058 0.5490614826173817 
Task49 0.06303748249342732 0.038589985489889615 0.03702632572703917 0.08591640035372552 0.5817096051859979 0.6180926117258784 0.5382161626357614 
Task50 0.052506640042510086 0.015396344574583278 0.049156482997785196 0.08161841013138867 0.5147160629539637 0.517339781494243 0.613031888195322 
Task51 0.1756518412271969 0.05139399331125431 0.3990558515489074 0.18175544115097814 0.6761618014502666 0.5105674365704355 0.5048524742696465 
Task52 0.016366570027339804 0.03121460897132216 0.016792593081588394 0.009434986053710343 0.6611760812836345 0.6569267657930138 0.5688908832328017 
Task53 0.06474894790283556 0.14297881829818723 0.05655098879266625 0.03542117578586414 0.5640941710237627 0.5063741707659953 0.6185845374757234 
Task54 0.11608107600518397 0.08831372158179798 0.11197854364562713 0.09194739698483909 0.6651828801419863 0.5628024423139935 0.6682208344924373 
Task55 0.0038372870962738357 0.005311109199989518 0.0014422690770757797 0.005164591051792623 0.6550197148505846 0.6998303232314482 0.6888491341354408 
Task56 0.20309143313273742 0.19257199503068156 0.15863263194030097 0.3033379838261988 0.5622727892405134 0.6595099071776014 0.6807785364893366 
Task57 0.20110595163896666 0.3010709984897835 0.2832860847688964 0.014124764492295619 0.6736088192621115 0.6154668883202677 0.5379141804150203 
Task58 0.1659659329353825 0.14215770007269335 0.12391176636586021 0.17134630038475018 0.5883569431046555 0.6005473380864993 0.5919142378168165 
Task59 0.25892525087985285 0.0017525779770815072 0.4524331700264363 0.22438237102433184 0.64621566373494 0.5621468440231966 0.5982798741543525 
Task60 0.024180046444922585 0.010627347093670973 0.044055825420432466 0.01090017034638537 0.6370576153902883 0.5842586189882214 0.6721033770754419 
Task61 0.18231196428460789 0.5591228310790212 0.05977552652035402 0.10716375709337746 0.5294017586283717 0.6366914500156667 0.5436537525908934 
Task62 0.21417935383834077 0.40650141902289927 0.19303178952551067 0.10424269115479864 0.5918282158590052 0.5888212134069928 0.5227045266912295 
Task63 0.19808528576663995 0.12877624495071743 0.10768727595269542 0.45698658005914805 0.5556584239721536 0.646142254608912 0.5227010772274373 
Task64 0.02428878478921498 0.05106652589329993 0.009964287735907887 0.033842974124277454 0.5738291641092926 0.61149516183475 0.6739183599595674 
Task65 0.028869208555803678 0.025201324118757692 0.023603952781923575 0.021471182629096287 0.6030537862626508 0.6077966647125047 0.5491794427342211 
Task66 0.12036442892548703 0.02016057367793998 0.30335658548474814 0.04121752127654889 0.6611168256298166 0.6067837135808613 0.511570096293074 
Task67 0.02294102568216798 0.02035817025745786 0.04534141514328501 0.0014766604482195048 0.6552122091040402 0.650660156636085 0.5829258462679666 
Task68 0.17167361540529422 0.14854998168574873 0.22290045086517063 0.036926450478057773 0.5200243012558657 0.6862885402363645 0.62233948266075 
Task69 0.18755858278336449 0.42461668659478297 0.046107729906596125 0.2651087466806833 0.6534595558003715 0.5316293320032001 0.6502329456337543 
Task70 0.040833003793616186 0.019277867104550282 0.07669830619912367 0.035652667616905644 0.6551288966699312 0.5578160313828959 0.6990053084206829 
Task71 0.19315122492554007 0.07978265602869052 0.19925611844654842 0.4109309457198789 0.5014327448364245 0.5408022945287428 0.6237123731786843 
Task72 0.08606881810145375 0.09375468684279378 0.12049992907729451 0.10270491688512698 0.508393763217712 0.5736346108153422 0.6368566064791008 
Task73 0.11367355890163736 0.2547215142360737 0.11454332017420206 0.03841585338838821 0.6100994814411618 0.6113983724267251 0.5868375821496913 
Task74 0.142364632887739 0.14656857237769144 0.23304214270772988 0.04324736214238237 0.6994753039405855 0.6342330636519581 0.6319929565416373 
Task75 0.10146724532310042 0.07961109332689373 0.16932772054999506 0.147651300173804 0.5042311799806374 0.54730602149554 0.61881126054854 
Task76 0.09789924796317828 0.0033546087949262045 0.30833239240038324 0.030931917600646543 0.6739349582207171 0.6373766510957639 0.5857863836503416 
Task77 0.1294838723906814 0.11579962921977968 0.14571879316618988 0.17167284532903515 0.5858043713657486 0.5173617883156474 0.6663345727913867 
Task78 0.06995285761817747 0.0049482839751649604 0.009897260050396461 0.20864514671472867 0.5567533186457796 0.5611105866941817 0.6956640032120868 
Task79 0.23258684716930228 0.03299849595679566 0.13644295833895498 0.5005372005486026 0.6123801114616791 0.5324223490688615 0.5813120790235418 
Task80 0.03222794566758007 0.05026387655417659 0.014592104148017437 0.017579601916849975 0.5245721113964458 0.6968877004498315 0.651218293257199 
Task81 0.12324890645761385 0.09570437232035275 0.12873433388698816 0.07203044806788117 0.6618652260066361 0.500810596423828 0.5657323148607668 
Task82 0.05254085637521562 0.02543510362129904 0.06178817587451152 0.0685381394708793 0.6929146003463889 0.5778766558445185 0.6421163711247135 
Task83 0.05773005123299394 0.08806406613772519 0.06814769951085857 0.04776514913919734 0.6064944282292901 0.6132575137370185 0.5083769233284957 
Task84 0.10248224396901179 0.011220335756110006 0.12814623961884664 0.13705180571916084 0.5571901564122894 0.6069005646796185 0.5749940027132345 
Task85 0.03867511747865095 0.0207323330933594 0.059910582854152676 0.06652283242175856 0.6610773709056419 0.5184403683760188 0.5858439354813783 
Task86 0.04861509194784409 0.055666645000709565 0.04552869599567437 0.026486664226470828 0.5600832037741252 0.5838839949296879 0.5723855532811957 
Task87 0.14011352033283195 0.28419415972701506 0.11348134382667913 0.04991768004925416 0.509666649366809 0.6093644945609172 0.5638244522764877 
Task88 0.11024787506962307 0.10750560299496882 0.11365235958323482 0.07298813345104986 0.5951316592378575 0.6422851257496641 0.6502577914130186 
Task89 0.10767695829089352 0.14161604588463605 0.018310581132704826 0.18663901888412493 0.6764302531599045 0.6726540146669109 0.68487426039662 
Task90 0.18206661734089824 0.19972485865448072 0.13925721971699753 0.2720522545552066 0.631049242524141 0.6254673744482764 0.656081638506357 
Task91 0.002847463743966997 0.0035789734597308845 0.005996533152094775 0.0004995869210518909 0.6023613404548576 0.5261205127085118 0.6235702723455666 
Task92 0.15439146040861684 0.09386114789969402 0.22332137039560765 0.2116413677990639 0.6224202831850635 0.6296987294905957 0.5322396675220084 
Task93 0.07381163357006348 0.1127052611420471 0.16436491515690546 0.005632506980658129 0.6643993662219282 0.6826703117267798 0.5305645214208083 
Task94 0.09078822382959663 0.1407192654170933 0.14508346073209263 0.046034147149598706 0.6507859985266747 0.6871435884343482 0.6733662135600902 
Task95 0.15155762391107755 0.10158104916543455 0.05435970563102441 0.2983128229818343 0.5100374518412045 0.5183876408453594 0.5196334086639766 
Task96 0.15024830549210433 0.161690218690732 0.10342071077808895 0.13925076727133692 0.5884343400355905 0.6018320964600279 0.5515155619792789 
Task97 0.0965937453242297 0.12572308132741833 0.1434971062229345 0.09876134819714112 0.5078958785781502 0.6284404806308407 0.666117292113534 
Task98 0.23402568507082736 0.051690286205548566 0.3532697010392171 0.192560374908105 0.617943503054924 0.6190876060778658 0.531919250165703 
Task99 0.09546675890285648 0.019384781338904263 0.07934000830933917 0.17319111950728078 0.5044216007335971 0.6724696742058022 0.6674375804829856 
