Task0 0.054912597862006515 0.038809763915752755 0.06280251957476657 0.0853846256460782 0.6456708483000817 0.5405114930047143 0.6463319507198821 
Task1 0.1876244029269397 0.09380410218156027 0.20732843525539943 0.17719465795622868 0.5462536705453762 0.6521191857773095 0.6103607447519669 
Task2 0.051239752946002866 0.0855057728688062 0.056738808926083455 0.006663269775553677 0.6203973205411102 0.5352795219428634 0.547603099881272 
Task3 0.14446234829165178 0.17531624874334964 0.14660829539333492 0.034654208655309195 0.558512412128308 0.5485553475438965 0.6411064750541353 
Task4 0.11928081117581879 0.12734709864623697 0.12016359747080539 0.0354734017844532 0.5957769750280583 0.6499390319775686 0.6362057660930371 
Task5 0.20474811148473468 0.06468241730282832 0.19427670405323097 0.22312424309557888 0.6004694971304778 0.6295988228082017 0.5801349098580578 
Task6 0.2415473859763081 0.19484786232664567 0.21793322876191415 0.16025406275308626 0.5533289030324037 0.5792702785870746 0.5993940357082556 
Task7 0.003262614756035646 0.0016682849657577747 0.0023298150594578118 0.004483819524329857 0.6727611281568564 0.6236166078954781 0.5182710402263394 
Task8 0.18793539750434843 0.0964198327949089 0.2386931867853985 0.12069553172834652 0.6669051549887333 0.5644703676360174 0.5139096184589994 
Task9 0.14057534104431152 0.23406112301726417 0.12421861127951979 0.0027283099899659776 0.5905710813417633 0.5984488382112914 0.5084120190714226 
Task10 0.16772861697672928 0.05289553847041004 0.23215286378336875 0.11617316609987303 0.5054222358722328 0.6268151041205693 0.6055895564015665 
Task11 0.08629213602758981 0.07080089293483038 0.07925080785730422 0.06872062005303077 0.6771127740200886 0.5557124456840318 0.6358734278823186 
Task12 0.1012678332081655 0.056074331122030315 0.14568058028532593 0.09254723604136746 0.6058124769785789 0.6135082753712956 0.544368545209989 
Task13 0.18892158261572098 0.18920804230874969 0.052814153316105575 0.2110263862978839 0.6021352156525497 0.6674521200537091 0.5490376839105704 
Task14 0.04736188999378161 0.0716035966323825 0.08320270168441228 0.020287189134908075 0.6859415597562376 0.6408559681832506 0.6005742690674506 
Task15 0.16138573589749672 0.4590445576427097 0.07087955398920599 0.07443585354252365 0.5910528118641546 0.6947678500495857 0.5603072799635891 
Task16 0.03667628231961613 0.05085020163090544 0.03038600078216178 0.0626202190656946 0.5037746873148404 0.5317903016845774 0.5731470507470332 
Task17 0.10742489242867702 0.11832123323028179 0.151743088248848 0.09049288986685351 0.6884507215383288 0.5279591834763544 0.6159660752864423 
Task18 0.2082333789723247 0.2484483769880545 0.04374119393908239 0.25846350706008325 0.5886048627343019 0.5003793477938365 0.688026901265409 
Task19 0.16819304698350332 0.18995457223665796 0.3259039765687614 0.06225127528704511 0.6966450210394943 0.5925208466058172 0.5134865617167476 
Task20 0.003477373018369493 0.0015495410648073828 0.0042033369708234965 0.005139891135143414 0.5734644514271965 0.5955882496877675 0.5026182346720318 
Task21 0.2472643405643868 0.28550331388130207 0.23520624819942654 0.06394354530723532 0.6533552335677115 0.6967362047415359 0.5725144155645567 
Task22 0.09507650437535527 0.03617687343913363 0.08040474046778683 0.11704963852636643 0.6043747293026936 0.5281761304308589 0.5731776478247403 
Task23 0.2280695133269049 0.19097904981590208 0.2159511624842262 0.1637241110268452 0.6704244550180561 0.5749932330702667 0.5600408016877437 
Task24 0.031135962549550963 0.04139843691368143 0.004515274739273896 0.041372089946895126 0.6859110260715208 0.5381423377848368 0.5401168008449859 
Task25 0.14238529782646947 0.1375896374254412 0.029770811050697978 0.29250218066583955 0.5265572007200493 0.6285770808315303 0.5593966925392506 
Task26 0.009161608867236727 0.017459098425943894 0.003212602140924108 0.012333991587929196 0.669133863744185 0.506586598638077 0.6133907575392478 
Task27 0.23746185001803152 0.3148800831617508 0.03734648418130037 0.3303619084154855 0.6398101920707756 0.6054793951892259 0.6124825250000336 
Task28 0.017723215156765098 0.0093655758586801 0.01320067954560501 0.03652403362744743 0.6469980359301049 0.6808386860089545 0.5216341591263408 
Task29 0.12086921497731147 0.20215102699844428 0.1498140648196567 0.08595297861716732 0.657337783754292 0.684931742217418 0.5261069150333149 
Task30 0.10010695598887197 0.0805053586250385 0.05230811016984446 0.2647437863202906 0.6852183120279945 0.5544457547939213 0.6965016771539526 
Task31 0.09340314674686055 0.07511279144589457 0.13331599219312576 0.11748585164806383 0.5805322221027053 0.6149905519111335 0.5630523806123143 
Task32 0.17408315780408937 0.028113043754278717 0.17010262194222342 0.26128176125227537 0.5484532640598345 0.5235755164002956 0.677879354484398 
Task33 0.15127251920745904 0.17893450864165644 0.16664745492455804 0.026123568899536535 0.5681377964509161 0.6749618402912612 0.6689821390628863 
Task34 0.22539726990194986 0.25896127245247125 0.3611050469370953 0.02779233291031456 0.5845076583000018 0.5104157294759556 0.6962524273596145 
Task35 0.1844058029208533 0.1613751254748122 0.24967285480295764 0.15299651300785788 0.5483557979390294 0.6928790940354448 0.506039250069538 
Task36 0.035446643587037203 0.012601733399279832 0.02585712043378493 0.04491980595972847 0.5656239307016984 0.6765055150183873 0.5235139390184961 
Task37 0.21656764258944736 0.2800876763565014 0.06749335145352078 0.18345716564217424 0.5478918433143452 0.5328702422909511 0.6188021115796373 
Task38 0.1790537219810511 0.04775623528306826 0.17116261448288608 0.28801536897849117 0.5918222729510109 0.6617129367356126 0.6789366191005394 
Task39 0.16300994397623006 0.22501251442844797 0.029662243863595263 0.2693714531571974 0.5465863869859189 0.5159552065839406 0.5498975018039809 
Task40 0.003438187843046104 0.0014387757910238105 0.0047048922880522336 0.003692297150104644 0.6706605741603525 0.5036834180918084 0.5808661944836503 
Task41 0.06818501939538589 0.029635925336341257 0.07080259428067272 0.07948141403091397 0.6577966976822603 0.5261044768749537 0.6289211152222816 
Task42 0.003563474974336093 0.0013774392158138519 0.0023235939605157677 0.005108510727126693 0.623642651662204 0.5132436294557348 0.5089929339504616 
Task43 0.05601502670112167 0.006737268622592554 0.1099922679742729 0.05842737551957958 0.6108507183639742 0.5994808776766334 0.6338841409706348 
Task44 0.08082387971055247 0.08679557536901264 0.08154373401259783 0.07938506709016092 0.6119900205207818 0.6651603174883534 0.5365796179412821 
Task45 0.27015301242399575 0.5302391760300111 0.05598042460058868 0.10717333821402014 0.6606266772714966 0.5230001099384435 0.5482595403326216 
Task46 0.18710863739923458 0.05291029020672831 0.28612012934044556 0.2685598172757166 0.6055152183851433 0.5580730055485386 0.5033215311262724 
Task47 0.06638029091544706 0.09188811720624206 0.052560899897044606 0.0770112126626454 0.6340017571539727 0.6972278352059611 0.6743361768213619 
Task48 0.15213411488688486 0.16384861309715415 0.1548629753118451 0.20255056211512085 0.5912798063453378 0.589044741758891 0.576939618225893 
Task49 0.13433499854962655 0.16586741825871884 0.1010841938663287 0.22529431205969364 0.6617866624254127 0.6005527909855217 0.6694670871081722 
Task50 0.09487343239416454 0.12084581043763379 0.06716455806335263 0.10103083347183707 0.5703362050240472 0.63956923062146 0.5843589757166663 
Task51 0.27097190375053803 0.2760979282652987 0.23218849732663516 0.20707639130113162 0.5216616754602 0.6368728816208401 0.5542939879926992 
Task52 0.12759781998764985 0.12790290064668658 0.03640410723142179 0.17283995468495983 0.6442171622884193 0.6316146460259328 0.6896520351871176 
Task53 0.23363537145592994 0.16776564356195967 0.18248133976799 0.385874839874801 0.6402037051248586 0.5434049205855791 0.5089568706537551 
Task54 0.019001985944777092 0.034576237517862915 0.021655400327433634 0.013964196355293168 0.5069456034267904 0.6517956033701533 0.6267624681578311 
Task55 0.014250937794211434 0.011991107567939847 0.013708422132197504 0.00896020017075798 0.5001883328502942 0.5195878481304775 0.5539733671292687 
Task56 0.19911607149908434 0.32562892807658655 0.024592994896598972 0.11633011693697856 0.6032738446230825 0.5864870418875553 0.5178051489393192 
Task57 0.20502191885301818 0.1125310201829069 0.21661952223564132 0.34179077476040703 0.5032070723019791 0.5802079688057784 0.6288749608165077 
Task58 0.04455814728145053 0.044948268405504276 0.043576840921480814 0.01792284894790425 0.6506556300251628 0.6321442644469251 0.6657733300197808 
Task59 0.05177255859083638 0.018659682125473177 0.11629862192228711 0.05567654202385469 0.6567637450745133 0.6275865962825684 0.5166664611977166 
Task60 0.07068845303264872 0.07196859654071501 0.05995288599151214 0.054630210393981485 0.5328432139587636 0.6291137689210373 0.5289379937938506 
Task61 0.12414354465343791 0.19158059397762703 0.16429881688767584 0.09886161772173392 0.6309417401099584 0.6586067487729208 0.677266774828785 
Task62 0.05608250105889418 0.04750442906747298 0.04020488546114327 0.09161001557636635 0.5374551139613335 0.6687641357916039 0.5418102902692565 
Task63 0.24034003875590798 0.19908030925962328 0.18888702655915132 0.24787463225686734 0.6062964583374668 0.685848566540305 0.6732227799517875 
Task64 0.10563011829031863 0.13864412598066675 0.07389284851351777 0.08565956108572197 0.5291522180821376 0.6249533592368692 0.6391608133685898 
Task65 0.1471823835218245 0.2072298953027237 0.21305694193114044 0.07268965551808929 0.5975567675049606 0.5190703386668452 0.6673748539042574 
Task66 0.01973122591247543 0.022788825328837338 0.00796038006444237 0.026234482366431944 0.5018290190432669 0.5498368667250323 0.6836317718134528 
Task67 0.16749373838996398 0.11929651659972178 0.29283120303124927 0.14357882048746162 0.5335158186992192 0.616867648045916 0.5405750486418055 
Task68 0.05380343391414679 0.04931376433529839 0.04040786028966633 0.04647276358712155 0.5531797479941262 0.5136871776555447 0.5833613973384508 
Task69 0.03813314335659328 0.052293313340201805 0.01080626266681031 0.05534678117074981 0.5311902741091733 0.5461913934692815 0.6261485876291413 
Task70 0.002297810098542296 0.002923460584356458 0.00016254644501066554 0.0022797702044122237 0.6616404874168497 0.5880973000606905 0.6076971672524715 
Task71 0.06448434664819994 0.0537748989952938 0.0841230420425131 0.043709203127396144 0.6234028298682746 0.5201817154570787 0.6107182459694588 
Task72 0.09417664159886258 0.0902748633353488 0.06553492193163313 0.2035548018430841 0.6363787747374993 0.6042407178028214 0.6231024401781022 
Task73 0.03185246535525112 0.03020982484230381 0.03738024211701998 0.025469549078859354 0.5674020681404006 0.5510114760727534 0.609623761907469 
Task74 0.0069572192702549015 0.011898098869063078 0.0009190216319818072 0.012895841127904583 0.6237169561372332 0.6388740291680565 0.632157444707116 
Task75 0.21388841210361054 0.23082882566515736 0.25011247206249104 0.1915556703800732 0.5705847228215657 0.6567422327006479 0.680673120573304 
Task76 0.18116914808545018 0.09221803708160083 0.004056386143831792 0.3844427390502464 0.542056694920019 0.6450674317444316 0.6777128712182167 
Task77 0.14464819014046498 0.13029695366497368 0.1259383510114029 0.09768982073672407 0.558566752860211 0.6283562152382454 0.548490502290005 
Task78 0.1770033929309246 0.19504501652368483 0.15016092887757326 0.34280566937915935 0.6657843550576756 0.6050413251562129 0.6093219352056112 
Task79 0.20631920976590323 0.2701221607774289 0.13556246505339864 0.2380810398057047 0.5953602116375197 0.547779806586063 0.689406596751571 
Task80 0.10471127774056485 0.16622959545162877 0.20258659721227232 0.005027275950541567 0.6901415053062094 0.642769797951346 0.5505335939916602 
Task81 0.20908861135598206 0.034176354505317245 0.24421184139069618 0.351186031371279 0.6119290917362973 0.694063389364074 0.6743214807038885 
Task82 0.015195392408657945 0.02975534301079859 0.004727577759766426 0.014634797927226035 0.6191118016528475 0.6942636325658573 0.5748039556775625 
Task83 0.036902592762346295 0.06610031079076463 0.04756703688759664 0.020401098841205924 0.6068100496318753 0.6662525545461204 0.6253080220563945 
Task84 0.13955035286207398 0.16166048951316592 0.11569805996181258 0.15007961593989325 0.5547635183244491 0.6541440501409758 0.6797835591399438 
Task85 0.01574106702408849 0.016057009742314984 0.009316979249829372 0.019004350372232397 0.6261880588303051 0.6961044439932694 0.6425162770956931 
Task86 0.054499463328486444 0.13089486862071556 0.006904048328520666 0.019981803051953646 0.6939951833214887 0.6133417913378113 0.5820325854406023 
Task87 0.06818297457947234 0.13892803773457943 0.025755020723920677 0.03171869126272093 0.6749091569704553 0.6908385747134245 0.5701766515455021 
Task88 0.05798068374450168 0.0943367856454648 0.019296530729138946 0.08187596009379117 0.6381273785740362 0.5275122805803957 0.5192451381146953 
Task89 0.01197969790719214 0.027027970594548638 0.0005785439618174932 0.007448739945763156 0.5048962919821629 0.5722882604793462 0.5076567171476318 
Task90 0.16650364246550864 0.25557818556983947 0.1397815976744547 0.12002596440231154 0.6528443171725874 0.5228294711992815 0.6130933022192697 
Task91 0.12616255522916328 0.12902197143719252 0.20871305100851303 0.0503417061802767 0.540333856813672 0.5742466789130699 0.6438762894668287 
Task92 0.07727509781396459 0.02427824249184642 0.06525055617086974 0.13293315207625253 0.6634795852183468 0.6907433447830201 0.618919207590824 
Task93 0.17602136261297363 0.13064196902456912 0.16420466972850697 0.20983187163501418 0.5063142194721739 0.6223959657909466 0.6886310096738846 
Task94 0.2274898718854746 0.29104682304981283 0.3627713216903279 0.03519786425565414 0.668950539873908 0.6248597229760524 0.5660015145751331 
Task95 0.18321457668449254 0.05105171773767118 0.36249986394963507 0.27935760507091606 0.6401800455813065 0.591568175639826 0.6785670706737384 
Task96 0.024027533399765506 0.04868493497873144 0.00598234495303026 0.00742751607275533 0.6794213981252057 0.554856968043074 0.5431704437212619 
Task97 0.15819313853165126 0.03946309164231768 0.24056330103321005 0.17428710570344536 0.6942640603818417 0.6039105278845607 0.5058481063873778 
Task98 0.19471738003044828 0.08697124289750496 0.3991421731913113 0.08917298132691673 0.68126288685288 0.5654791675154339 0.5924152996312729 
Task99 0.04264215436823648 0.012383499419776288 0.08400027888284096 0.03210484006697056 0.6777737447204428 0.5744744476058392 0.689516118526173 
