files/tasks_parameters/ExAp01/sample8.txt 1.47971 6.77015 2.19458 0.288816 33.9668
files/tasks_parameters/ExAp01/sample12.txt 1.59084 9.58351 2.46081 0.337498 39.6921
files/tasks_parameters/ExAp01/sample2.txt 1.66316 8.44418 2.50701 0.319127 37.5316
files/tasks_parameters/ExAp01/sample44.txt 1.42985 6.96299 2.23089 0.28229 33.1993
files/tasks_parameters/ExAp01/sample27.txt 1.54636 7.74306 2.16676 0.28602 33.6379
files/tasks_parameters/ExAp01/sample17.txt 1.36779 7.35053 2.25579 0.292348 34.3821
files/tasks_parameters/ExAp01/sample9.txt 1.31341 6.89392 2.21068 0.282399 33.212
files/tasks_parameters/ExAp01/sample34.txt 1.45543 6.62788 2.3772 0.297742 35.0165
files/tasks_parameters/ExAp01/sample40.txt 1.41197 7.75686 2.17534 0.285619 33.5908
files/tasks_parameters/ExAp01/sample33.txt 1.61807 8.14826 2.6463 0.338073 39.7597
files/tasks_parameters/ExAp01/sample48.txt 1.30756 7.64107 2.14272 0.270011 31.7552
files/tasks_parameters/ExAp01/sample29.txt 1.18303 7.139 1.93769 0.286306 33.6715
files/tasks_parameters/ExAp01/sample11.txt 1.48865 6.88688 2.12981 0.280008 32.9309
files/tasks_parameters/ExAp01/sample14.txt 1.29238 6.11983 1.97599 0.247458 29.1027
files/tasks_parameters/ExAp01/sample0.txt 1.45711 8.2738 2.14256 0.289132 34.0039
files/tasks_parameters/ExAp01/sample7.txt 1.36627 6.87011 2.05821 0.269886 31.7404
files/tasks_parameters/ExAp01/sample23.txt 1.4293 6.52032 2.38087 0.291712 34.3073
files/tasks_parameters/ExAp01/sample13.txt 1.3701 8.73247 2.33415 0.295393 34.7402
files/tasks_parameters/ExAp01/sample22.txt 1.34223 6.9777 2.28948 0.283979 33.3979
files/tasks_parameters/ExAp01/sample25.txt 1.26229 6.23444 2.2122 0.267298 31.436
files/tasks_parameters/ExAp01/sample36.txt 1.28321 6.6174 1.9458 0.253823 29.8513
files/tasks_parameters/ExAp01/sample46.txt 1.53815 7.42369 2.49128 0.327273 38.4895
files/tasks_parameters/ExAp01/sample31.txt 1.1993 7.22028 2.13584 0.25377 29.8451
files/tasks_parameters/ExAp01/sample37.txt 1.49141 8.90704 2.16981 0.295708 34.7773
files/tasks_parameters/ExAp01/sample16.txt 1.27072 8.18243 1.88294 0.24945 29.337
files/tasks_parameters/ExAp01/sample10.txt 1.35603 6.96646 2.31217 0.285748 33.6059
files/tasks_parameters/ExAp01/sample39.txt 1.2474 6.4161 1.97266 0.251967 29.633
files/tasks_parameters/ExAp01/sample19.txt 1.47838 8.16711 2.23199 0.308463 36.2773
files/tasks_parameters/ExAp01/sample20.txt 1.23703 7.28549 1.88944 0.25994 30.5707
files/tasks_parameters/ExAp01/sample43.txt 1.27219 6.86804 2.00142 0.25616 30.1262
files/tasks_parameters/ExAp01/sample32.txt 1.44284 8.15663 2.12995 0.281726 33.1329
files/tasks_parameters/ExAp01/sample45.txt 1.26272 7.75184 2.10599 0.274935 32.3342
files/tasks_parameters/ExAp01/sample26.txt 1.29026 7.4944 1.88956 0.267248 31.4302
files/tasks_parameters/ExAp01/sample5.txt 1.47171 8.08362 2.09961 0.28454 33.4639
files/tasks_parameters/ExAp01/sample21.txt 1.3165 6.11814 2.17119 0.26143 30.7459
files/tasks_parameters/ExAp01/sample38.txt 1.32996 7.761 1.96293 0.263659 31.0081
files/tasks_parameters/ExAp01/sample1.txt 1.42118 7.83752 2.13261 0.289228 34.0152
files/tasks_parameters/ExAp01/sample15.txt 1.39433 7.37971 2.12057 0.285825 33.615
files/tasks_parameters/ExAp01/sample24.txt 1.40145 8.28531 2.25272 0.296628 34.8855
files/tasks_parameters/ExAp01/sample3.txt 1.44592 7.33359 2.39135 0.305084 35.88
files/tasks_parameters/ExAp01/sample6.txt 1.31255 7.09894 2.24425 0.281804 33.1421
files/tasks_parameters/ExAp01/sample30.txt 1.29192 8.17669 2.03701 0.299204 35.1885
files/tasks_parameters/ExAp01/sample42.txt 1.63454 7.70416 2.42413 0.29743 34.9798
files/tasks_parameters/ExAp01/sample4.txt 1.51822 7.41691 2.36261 0.307803 36.1997
files/tasks_parameters/ExAp01/sample28.txt 1.30723 7.0562 2.07657 0.266428 31.3337
files/tasks_parameters/ExAp01/sample18.txt 1.45315 7.60139 2.1377 0.268016 31.5205
files/tasks_parameters/ExAp01/sample35.txt 1.49246 9.66795 2.28028 0.32244 37.9211
files/tasks_parameters/ExAp01/sample47.txt 1.18976 6.84842 2.12104 0.251655 29.5963
files/tasks_parameters/ExAp01/sample49.txt 1.32485 7.1497 2.11412 0.255889 30.0943
files/tasks_parameters/ExAp01/sample41.txt 1.24264 6.59911 2.07359 0.265885 31.2699
