files/tasks_parameters/ExAp01/sample8.txt 1.08361 3.76817 4.3855 0.450105 18.0792
files/tasks_parameters/ExAp01/sample12.txt 1.67057 5.03638 5.18776 0.610564 24.5243
files/tasks_parameters/ExAp01/sample2.txt 1.4172 4.58991 5.64606 0.613877 24.6574
files/tasks_parameters/ExAp01/sample44.txt 1.25643 3.77401 5.66946 0.551838 22.1655
files/tasks_parameters/ExAp01/sample27.txt 1.29418 4.13937 5.56136 0.55779 22.4045
files/tasks_parameters/ExAp01/sample17.txt 1.19417 3.76163 5.38341 0.520991 20.9265
files/tasks_parameters/ExAp01/sample9.txt 1.16167 3.69889 5.2981 0.511699 20.5533
files/tasks_parameters/ExAp01/sample34.txt 1.13513 3.52435 5.83741 0.49187 19.7568
files/tasks_parameters/ExAp01/sample40.txt 1.15798 4.06185 5.0335 0.496884 19.9582
files/tasks_parameters/ExAp01/sample33.txt 1.55311 4.82091 5.83886 0.651963 26.1872
files/tasks_parameters/ExAp01/sample48.txt 1.07462 4.01134 5.07085 0.447927 17.9917
files/tasks_parameters/ExAp01/sample29.txt 1.44283 4.20847 5.0406 0.643694 25.855
files/tasks_parameters/ExAp01/sample11.txt 1.31879 3.94699 5.29198 0.557276 22.3839
files/tasks_parameters/ExAp01/sample14.txt 1.07005 3.54059 4.58345 0.466713 18.7463
files/tasks_parameters/ExAp01/sample0.txt 1.50771 4.82755 4.90216 0.623551 25.0459
files/tasks_parameters/ExAp01/sample7.txt 1.15991 3.60766 5.11185 0.509566 20.4676
files/tasks_parameters/ExAp01/sample23.txt 1.4543 3.81403 5.45799 0.582911 23.4136
files/tasks_parameters/ExAp01/sample13.txt 1.4593 4.8894 5.26818 0.624499 25.084
files/tasks_parameters/ExAp01/sample22.txt 1.29087 3.76156 4.95746 0.534216 21.4577
files/tasks_parameters/ExAp01/sample25.txt 0.979152 2.94144 4.92622 0.403639 16.2128
files/tasks_parameters/ExAp01/sample36.txt 1.18876 3.56164 4.5806 0.501799 20.1556
files/tasks_parameters/ExAp01/sample46.txt 1.31107 3.84833 4.7121 0.530701 21.3165
files/tasks_parameters/ExAp01/sample31.txt 1.09399 3.764 5.08385 0.479734 19.2693
files/tasks_parameters/ExAp01/sample37.txt 1.52705 4.43254 5.65111 0.65143 26.1658
files/tasks_parameters/ExAp01/sample16.txt 1.24037 4.49741 4.8895 0.509171 20.4517
files/tasks_parameters/ExAp01/sample10.txt 1.38978 3.87086 6.07511 0.60993 24.4988
files/tasks_parameters/ExAp01/sample39.txt 1.09166 3.66299 4.54281 0.463671 18.6241
files/tasks_parameters/ExAp01/sample19.txt 1.40919 3.86694 5.14047 0.615987 24.7422
files/tasks_parameters/ExAp01/sample20.txt 1.30362 4.09945 5.13368 0.580369 23.3115
files/tasks_parameters/ExAp01/sample43.txt 1.15633 3.75825 5.55698 0.530892 21.3242
files/tasks_parameters/ExAp01/sample32.txt 1.42811 4.0352 5.29178 0.587643 23.6037
files/tasks_parameters/ExAp01/sample45.txt 1.22577 3.94578 4.87833 0.541081 21.7334
files/tasks_parameters/ExAp01/sample26.txt 1.11308 3.50998 4.55035 0.474009 19.0394
files/tasks_parameters/ExAp01/sample5.txt 1.38271 4.00994 5.27725 0.587681 23.6052
files/tasks_parameters/ExAp01/sample21.txt 0.933921 2.8974 4.54677 0.430037 17.2732
files/tasks_parameters/ExAp01/sample38.txt 1.19319 3.56689 4.78573 0.492366 19.7767
files/tasks_parameters/ExAp01/sample1.txt 1.15522 3.69002 4.55048 0.481074 19.3231
files/tasks_parameters/ExAp01/sample15.txt 1.20629 3.73223 5.42493 0.524964 21.0861
files/tasks_parameters/ExAp01/sample24.txt 1.29002 4.18053 5.40377 0.542575 21.7934
files/tasks_parameters/ExAp01/sample3.txt 1.08347 3.70547 4.7118 0.470503 18.8985
files/tasks_parameters/ExAp01/sample6.txt 1.45785 4.07521 5.71419 0.626702 25.1725
files/tasks_parameters/ExAp01/sample30.txt 1.4948 3.97446 5.82388 0.626709 25.1728
files/tasks_parameters/ExAp01/sample42.txt 1.28874 4.44207 5.58473 0.537025 21.5705
files/tasks_parameters/ExAp01/sample4.txt 1.40323 3.92181 4.49751 0.556974 22.3718
files/tasks_parameters/ExAp01/sample28.txt 1.05731 3.13496 4.88321 0.444588 17.8576
files/tasks_parameters/ExAp01/sample18.txt 1.22792 3.95301 4.52898 0.537438 21.5871
files/tasks_parameters/ExAp01/sample35.txt 1.9148 5.75923 6.25034 0.752488 30.2249
files/tasks_parameters/ExAp01/sample47.txt 1.16688 3.44018 5.14289 0.540033 21.6913
files/tasks_parameters/ExAp01/sample49.txt 1.19604 3.38981 4.72409 0.493041 19.8038
files/tasks_parameters/ExAp01/sample41.txt 1.13849 3.58692 5.27252 0.492391 19.7777
