files/tasks_parameters/ExAp01/sample8.txt 0.985045 3.76817 4.3855 0.450105 7.33872
files/tasks_parameters/ExAp01/sample12.txt 1.36454 5.03638 5.18776 0.610564 9.95491
files/tasks_parameters/ExAp01/sample2.txt 1.33727 4.58991 5.64606 0.613877 10.0089
files/tasks_parameters/ExAp01/sample44.txt 1.19004 3.77401 5.66946 0.551838 8.9974
files/tasks_parameters/ExAp01/sample27.txt 1.22433 4.13937 5.56136 0.55779 9.09445
files/tasks_parameters/ExAp01/sample17.txt 1.13736 3.76163 5.38341 0.520991 8.49447
files/tasks_parameters/ExAp01/sample9.txt 1.11739 3.69889 5.2981 0.511699 8.34298
files/tasks_parameters/ExAp01/sample34.txt 1.09054 3.52435 5.83741 0.49187 8.01967
files/tasks_parameters/ExAp01/sample40.txt 1.09675 4.06185 5.0335 0.496884 8.10142
files/tasks_parameters/ExAp01/sample33.txt 1.40945 4.82091 5.83886 0.651963 10.6299
files/tasks_parameters/ExAp01/sample48.txt 0.985807 4.01134 5.07085 0.447927 7.3032
files/tasks_parameters/ExAp01/sample29.txt 1.38479 4.20847 5.0406 0.643694 10.4951
files/tasks_parameters/ExAp01/sample11.txt 1.21736 3.94699 5.29198 0.557276 9.08607
files/tasks_parameters/ExAp01/sample14.txt 1.05277 3.54059 4.58345 0.466713 7.6095
files/tasks_parameters/ExAp01/sample0.txt 1.37516 4.82755 4.90216 0.623551 10.1666
files/tasks_parameters/ExAp01/sample7.txt 1.11738 3.60766 5.11185 0.509566 8.30819
files/tasks_parameters/ExAp01/sample23.txt 1.26572 3.81403 5.45799 0.582911 9.50405
files/tasks_parameters/ExAp01/sample13.txt 1.37093 4.8894 5.26818 0.624499 10.1821
files/tasks_parameters/ExAp01/sample22.txt 1.17746 3.76156 4.95746 0.534216 8.7101
files/tasks_parameters/ExAp01/sample25.txt 0.8805 2.94144 4.92622 0.403639 6.58111
files/tasks_parameters/ExAp01/sample36.txt 1.09348 3.56164 4.5806 0.501799 8.18155
files/tasks_parameters/ExAp01/sample46.txt 1.15741 3.84833 4.7121 0.530701 8.65278
files/tasks_parameters/ExAp01/sample31.txt 1.07024 3.764 5.08385 0.479734 7.8218
files/tasks_parameters/ExAp01/sample37.txt 1.41786 4.43254 5.65111 0.65143 10.6212
files/tasks_parameters/ExAp01/sample16.txt 1.14282 4.49741 4.8895 0.509171 8.30174
files/tasks_parameters/ExAp01/sample10.txt 1.3477 3.87086 6.07511 0.60993 9.94456
files/tasks_parameters/ExAp01/sample39.txt 1.03301 3.66299 4.54281 0.463671 7.5599
files/tasks_parameters/ExAp01/sample19.txt 1.34504 3.86694 5.14047 0.615987 10.0433
files/tasks_parameters/ExAp01/sample20.txt 1.26355 4.09945 5.13368 0.580369 9.46259
files/tasks_parameters/ExAp01/sample43.txt 1.1671 3.75825 5.55698 0.530892 8.6559
files/tasks_parameters/ExAp01/sample32.txt 1.29497 4.0352 5.29178 0.587643 9.5812
files/tasks_parameters/ExAp01/sample45.txt 1.18267 3.94578 4.87833 0.541081 8.82203
files/tasks_parameters/ExAp01/sample26.txt 1.04298 3.50998 4.55035 0.474009 7.72846
files/tasks_parameters/ExAp01/sample5.txt 1.27604 4.00994 5.27725 0.587681 9.5818
files/tasks_parameters/ExAp01/sample21.txt 0.971852 2.8974 4.54677 0.430037 7.01152
files/tasks_parameters/ExAp01/sample38.txt 1.08068 3.56689 4.78573 0.492366 8.02776
files/tasks_parameters/ExAp01/sample1.txt 1.07537 3.69002 4.55048 0.481074 7.84364
files/tasks_parameters/ExAp01/sample15.txt 1.1587 3.73223 5.42493 0.524964 8.55925
files/tasks_parameters/ExAp01/sample24.txt 1.18683 4.18053 5.40377 0.542575 8.84639
files/tasks_parameters/ExAp01/sample3.txt 1.02808 3.70547 4.7118 0.470503 7.67129
files/tasks_parameters/ExAp01/sample6.txt 1.35179 4.07521 5.71419 0.626702 10.218
files/tasks_parameters/ExAp01/sample30.txt 1.36854 3.97446 5.82388 0.626709 10.2181
files/tasks_parameters/ExAp01/sample42.txt 1.19253 4.44207 5.58473 0.537025 8.75589
files/tasks_parameters/ExAp01/sample4.txt 1.23068 3.92181 4.49751 0.556974 9.08115
files/tasks_parameters/ExAp01/sample28.txt 0.963113 3.13496 4.88321 0.444588 7.24876
files/tasks_parameters/ExAp01/sample18.txt 1.18351 3.95301 4.52898 0.537438 8.76262
files/tasks_parameters/ExAp01/sample35.txt 1.64904 5.75923 6.25034 0.752488 12.2689
files/tasks_parameters/ExAp01/sample47.txt 1.17844 3.44018 5.14289 0.540033 8.80494
files/tasks_parameters/ExAp01/sample49.txt 1.10839 3.38981 4.72409 0.493041 8.03877
files/tasks_parameters/ExAp01/sample41.txt 1.06525 3.58692 5.27252 0.492391 8.02815
