files/tasks_parameters/ExAp01/sample8.txt 0.777713 3.15778 1.5595 0.203411 8.4483
files/tasks_parameters/ExAp01/sample12.txt 0.791113 3.94962 1.6705 0.207924 8.63573
files/tasks_parameters/ExAp01/sample2.txt 0.714721 3.78275 1.74131 0.200098 8.31069
files/tasks_parameters/ExAp01/sample44.txt 0.68119 3.59825 1.65317 0.200005 8.30684
files/tasks_parameters/ExAp01/sample27.txt 0.719267 3.45743 1.5148 0.182129 7.56437
files/tasks_parameters/ExAp01/sample17.txt 0.620716 2.77299 1.44514 0.14646 6.08294
files/tasks_parameters/ExAp01/sample9.txt 0.613666 2.99933 1.451 0.177444 7.36979
files/tasks_parameters/ExAp01/sample34.txt 0.623739 3.02928 1.58429 0.157984 6.56156
files/tasks_parameters/ExAp01/sample40.txt 0.616319 3.86889 1.52122 0.168379 6.99333
files/tasks_parameters/ExAp01/sample33.txt 0.783274 3.63695 1.71905 0.199765 8.29687
files/tasks_parameters/ExAp01/sample48.txt 0.628152 3.39061 1.49062 0.154728 6.42635
files/tasks_parameters/ExAp01/sample29.txt 0.714063 3.30472 1.38739 0.223868 9.29796
files/tasks_parameters/ExAp01/sample11.txt 0.64461 3.10585 1.41612 0.174079 7.23003
files/tasks_parameters/ExAp01/sample14.txt 0.61093 2.70971 1.43432 0.162214 6.73728
files/tasks_parameters/ExAp01/sample0.txt 0.724667 3.6937 1.5439 0.18367 7.62839
files/tasks_parameters/ExAp01/sample7.txt 0.569179 2.70501 1.42221 0.143463 5.95849
files/tasks_parameters/ExAp01/sample23.txt 0.629973 3.2697 1.57822 0.181448 7.53613
files/tasks_parameters/ExAp01/sample13.txt 0.688823 3.84225 1.67648 0.198247 8.23383
files/tasks_parameters/ExAp01/sample22.txt 0.590555 3.09569 1.56121 0.148796 6.17997
files/tasks_parameters/ExAp01/sample25.txt 0.530696 2.73966 1.5007 0.148149 6.15308
files/tasks_parameters/ExAp01/sample36.txt 0.479414 2.85948 1.28553 0.130042 5.40107
files/tasks_parameters/ExAp01/sample46.txt 0.753334 3.58643 1.69998 0.210103 8.72623
files/tasks_parameters/ExAp01/sample31.txt 0.612912 3.4832 1.53782 0.1722 7.15201
files/tasks_parameters/ExAp01/sample37.txt 0.680921 3.95293 1.50705 0.171701 7.13129
files/tasks_parameters/ExAp01/sample16.txt 0.621009 3.31216 1.30115 0.150249 6.24031
files/tasks_parameters/ExAp01/sample10.txt 0.669463 3.17098 1.61789 0.153776 6.38682
files/tasks_parameters/ExAp01/sample39.txt 0.639562 3.26617 1.44406 0.165669 6.88074
files/tasks_parameters/ExAp01/sample19.txt 0.755514 3.63532 1.52509 0.196094 8.14442
files/tasks_parameters/ExAp01/sample20.txt 0.56406 3.20793 1.25367 0.147335 6.1193
files/tasks_parameters/ExAp01/sample43.txt 0.561151 3.11551 1.4202 0.150644 6.25674
files/tasks_parameters/ExAp01/sample32.txt 0.626851 3.5311 1.42482 0.168744 7.00848
files/tasks_parameters/ExAp01/sample45.txt 0.73966 3.80283 1.48324 0.19807 8.22649
files/tasks_parameters/ExAp01/sample26.txt 0.612929 3.21645 1.29701 0.166061 6.89705
files/tasks_parameters/ExAp01/sample5.txt 0.706747 3.5889 1.52559 0.178903 7.43042
files/tasks_parameters/ExAp01/sample21.txt 0.783038 2.75242 1.55936 0.19512 8.10396
files/tasks_parameters/ExAp01/sample38.txt 0.593131 3.31563 1.37515 0.166157 6.90102
files/tasks_parameters/ExAp01/sample1.txt 0.728942 3.74964 1.51696 0.19701 8.18243
files/tasks_parameters/ExAp01/sample15.txt 0.663022 3.32916 1.48508 0.180707 7.50535
files/tasks_parameters/ExAp01/sample24.txt 0.634516 3.45951 1.59549 0.16529 6.86503
files/tasks_parameters/ExAp01/sample3.txt 0.919455 3.70014 1.70809 0.237107 9.8478
files/tasks_parameters/ExAp01/sample6.txt 0.668924 3.33003 1.58323 0.184714 7.67177
files/tasks_parameters/ExAp01/sample30.txt 0.781507 4.1841 1.4861 0.239623 9.9523
files/tasks_parameters/ExAp01/sample42.txt 0.690023 3.43221 1.70276 0.177383 7.36727
files/tasks_parameters/ExAp01/sample4.txt 0.748411 3.72477 1.6136 0.196448 8.15911
files/tasks_parameters/ExAp01/sample28.txt 0.643259 3.11323 1.45032 0.158819 6.59626
files/tasks_parameters/ExAp01/sample18.txt 0.638938 3.47418 1.45209 0.149064 6.19109
files/tasks_parameters/ExAp01/sample35.txt 0.733317 4.57086 1.49394 0.185031 7.68491
files/tasks_parameters/ExAp01/sample47.txt 0.648787 3.13768 1.52397 0.16417 6.8185
files/tasks_parameters/ExAp01/sample49.txt 0.613548 3.13288 1.49657 0.156154 6.48557
files/tasks_parameters/ExAp01/sample41.txt 0.599234 2.81964 1.49636 0.150876 6.26635
