files/tasks_parameters/ExAp01/sample8.txt 1.10777 7.2562 4.46819 0.454772 17.2635
files/tasks_parameters/ExAp01/sample12.txt 1.62986 9.70908 5.28286 0.618515 23.4793
files/tasks_parameters/ExAp01/sample2.txt 1.52533 8.14159 5.7401 0.620531 23.5558
files/tasks_parameters/ExAp01/sample44.txt 1.32613 7.25164 5.75904 0.557631 21.1681
files/tasks_parameters/ExAp01/sample27.txt 1.3158 8.10944 5.64946 0.564878 21.4432
files/tasks_parameters/ExAp01/sample17.txt 1.28398 7.11225 5.46658 0.527183 20.0123
files/tasks_parameters/ExAp01/sample9.txt 1.19712 7.62559 5.37813 0.517277 19.6362
files/tasks_parameters/ExAp01/sample34.txt 1.26878 7.04587 5.93037 0.497709 18.8934
files/tasks_parameters/ExAp01/sample40.txt 1.201 8.03037 5.123 0.502383 19.0708
files/tasks_parameters/ExAp01/sample33.txt 1.61593 9.22935 5.92956 0.659262 25.0261
files/tasks_parameters/ExAp01/sample48.txt 1.15998 8.12182 5.1577 0.452491 17.1769
files/tasks_parameters/ExAp01/sample29.txt 1.4814 8.06133 5.12331 0.650652 24.6993
files/tasks_parameters/ExAp01/sample11.txt 1.36191 7.63104 5.37897 0.563302 21.3834
files/tasks_parameters/ExAp01/sample14.txt 1.13389 6.66403 4.66322 0.471536 17.8999
files/tasks_parameters/ExAp01/sample0.txt 1.6204 9.3266 4.98971 0.6311 23.957
files/tasks_parameters/ExAp01/sample7.txt 1.23247 7.34863 5.19436 0.515527 19.5698
files/tasks_parameters/ExAp01/sample23.txt 1.41687 6.68564 5.54308 0.588617 22.3444
files/tasks_parameters/ExAp01/sample13.txt 1.60689 9.31093 5.35591 0.632849 24.0234
files/tasks_parameters/ExAp01/sample22.txt 1.28373 7.65588 5.04866 0.540336 20.5116
files/tasks_parameters/ExAp01/sample25.txt 1.0303 6.17035 5.0141 0.408296 15.4992
files/tasks_parameters/ExAp01/sample36.txt 1.29498 7.03772 4.66274 0.507647 19.2707
files/tasks_parameters/ExAp01/sample46.txt 1.34254 7.73433 4.79934 0.536843 20.379
files/tasks_parameters/ExAp01/sample31.txt 1.16905 6.96928 5.16482 0.485817 18.442
files/tasks_parameters/ExAp01/sample37.txt 1.59256 9.52443 5.74224 0.65799 24.9778
files/tasks_parameters/ExAp01/sample16.txt 1.32703 8.63521 4.97261 0.516328 19.6002
files/tasks_parameters/ExAp01/sample10.txt 1.45084 7.28353 6.16876 0.615651 23.3706
files/tasks_parameters/ExAp01/sample39.txt 1.13898 6.3405 4.6137 0.468873 17.7988
files/tasks_parameters/ExAp01/sample19.txt 1.42301 8.85528 5.22306 0.622152 23.6174
files/tasks_parameters/ExAp01/sample20.txt 1.46604 8.1141 5.21177 0.586994 22.2827
files/tasks_parameters/ExAp01/sample43.txt 1.27786 7.21373 5.6367 0.53748 20.4032
files/tasks_parameters/ExAp01/sample32.txt 1.48122 8.30592 5.38137 0.593918 22.5456
files/tasks_parameters/ExAp01/sample45.txt 1.29639 7.94069 4.96323 0.547271 20.7748
files/tasks_parameters/ExAp01/sample26.txt 1.12621 7.57061 4.62637 0.480146 18.2267
files/tasks_parameters/ExAp01/sample5.txt 1.38005 8.0307 5.35681 0.59407 22.5514
files/tasks_parameters/ExAp01/sample21.txt 1.01482 5.87802 4.61744 0.434264 16.485
files/tasks_parameters/ExAp01/sample38.txt 1.17783 7.66999 4.86632 0.496808 18.8592
files/tasks_parameters/ExAp01/sample1.txt 1.13575 7.21312 4.63213 0.486293 18.4601
files/tasks_parameters/ExAp01/sample15.txt 1.26752 8.02273 5.50855 0.531063 20.1596
files/tasks_parameters/ExAp01/sample24.txt 1.31884 8.66348 5.4905 0.548998 20.8404
files/tasks_parameters/ExAp01/sample3.txt 1.1703 7.74268 4.79918 0.477387 18.122
files/tasks_parameters/ExAp01/sample6.txt 1.46475 8.57133 5.80157 0.633604 24.0521
files/tasks_parameters/ExAp01/sample30.txt 1.58203 8.18878 5.90888 0.633576 24.0511
files/tasks_parameters/ExAp01/sample42.txt 1.33387 8.57689 5.67253 0.54426 20.6605
files/tasks_parameters/ExAp01/sample4.txt 1.30055 8.40354 4.57985 0.563519 21.3916
files/tasks_parameters/ExAp01/sample28.txt 1.10384 6.44114 4.96426 0.449721 17.0718
files/tasks_parameters/ExAp01/sample18.txt 1.35374 8.56363 4.60946 0.543766 20.6418
files/tasks_parameters/ExAp01/sample35.txt 1.92545 11.0387 6.34514 0.761377 28.9025
files/tasks_parameters/ExAp01/sample47.txt 1.32523 7.14493 5.22131 0.545046 20.6904
files/tasks_parameters/ExAp01/sample49.txt 1.29617 6.65996 4.80244 0.498533 18.9247
files/tasks_parameters/ExAp01/sample41.txt 1.17668 7.09069 5.35462 0.497129 18.8714
