files/tasks_parameters/ExAp01/sample8.txt 1.08403 3.76817 4.3855 0.450105 37.4805
files/tasks_parameters/ExAp01/sample12.txt 1.57406 5.03638 5.18776 0.610564 50.842
files/tasks_parameters/ExAp01/sample2.txt 1.50974 4.58991 5.64606 0.613877 51.1179
files/tasks_parameters/ExAp01/sample44.txt 1.29404 3.77401 5.66946 0.551838 45.9518
files/tasks_parameters/ExAp01/sample27.txt 1.31945 4.13937 5.56136 0.55779 46.4474
files/tasks_parameters/ExAp01/sample17.txt 1.24055 3.76163 5.38341 0.520991 43.3832
files/tasks_parameters/ExAp01/sample9.txt 1.1767 3.69889 5.2981 0.511699 42.6095
files/tasks_parameters/ExAp01/sample34.txt 1.20273 3.52435 5.83741 0.49187 40.9583
files/tasks_parameters/ExAp01/sample40.txt 1.16887 4.06185 5.0335 0.496884 41.3758
files/tasks_parameters/ExAp01/sample33.txt 1.56423 4.82091 5.83886 0.651963 54.2893
files/tasks_parameters/ExAp01/sample48.txt 1.15306 4.01134 5.07085 0.447927 37.2991
files/tasks_parameters/ExAp01/sample29.txt 1.53998 4.20847 5.0406 0.643694 53.6007
files/tasks_parameters/ExAp01/sample11.txt 1.31664 3.94699 5.29198 0.557276 46.4046
files/tasks_parameters/ExAp01/sample14.txt 1.08746 3.54059 4.58345 0.466713 38.8635
files/tasks_parameters/ExAp01/sample0.txt 1.57735 4.82755 4.90216 0.623551 51.9234
files/tasks_parameters/ExAp01/sample7.txt 1.17706 3.60766 5.11185 0.509566 42.4318
files/tasks_parameters/ExAp01/sample23.txt 1.45401 3.81403 5.45799 0.582911 48.5393
files/tasks_parameters/ExAp01/sample13.txt 1.46204 4.8894 5.26818 0.624499 52.0023
files/tasks_parameters/ExAp01/sample22.txt 1.2919 3.76156 4.95746 0.534216 44.4845
files/tasks_parameters/ExAp01/sample25.txt 0.988888 2.94144 4.92622 0.403639 33.6112
files/tasks_parameters/ExAp01/sample36.txt 1.2096 3.56164 4.5806 0.501799 41.785
files/tasks_parameters/ExAp01/sample46.txt 1.26584 3.84833 4.7121 0.530701 44.1917
files/tasks_parameters/ExAp01/sample31.txt 1.13496 3.764 5.08385 0.479734 39.9477
files/tasks_parameters/ExAp01/sample37.txt 1.54456 4.43254 5.65111 0.65143 54.2449
files/tasks_parameters/ExAp01/sample16.txt 1.26296 4.49741 4.8895 0.509171 42.3989
files/tasks_parameters/ExAp01/sample10.txt 1.37887 3.87086 6.07511 0.60993 50.7892
files/tasks_parameters/ExAp01/sample39.txt 1.09164 3.66299 4.54281 0.463671 38.6102
files/tasks_parameters/ExAp01/sample19.txt 1.50886 3.86694 5.14047 0.615987 51.2936
files/tasks_parameters/ExAp01/sample20.txt 1.38732 4.09945 5.13368 0.580369 48.3276
files/tasks_parameters/ExAp01/sample43.txt 1.20009 3.75825 5.55698 0.530892 44.2077
files/tasks_parameters/ExAp01/sample32.txt 1.51511 4.0352 5.29178 0.587643 48.9334
files/tasks_parameters/ExAp01/sample45.txt 1.25363 3.94578 4.87833 0.541081 45.0561
files/tasks_parameters/ExAp01/sample26.txt 1.11278 3.50998 4.55035 0.474009 39.471
files/tasks_parameters/ExAp01/sample5.txt 1.4228 4.00994 5.27725 0.587681 48.9365
files/tasks_parameters/ExAp01/sample21.txt 0.947873 2.8974 4.54677 0.430037 35.8094
files/tasks_parameters/ExAp01/sample38.txt 1.18025 3.56689 4.78573 0.492366 40.9996
files/tasks_parameters/ExAp01/sample1.txt 1.19219 3.69002 4.55048 0.481074 40.0593
files/tasks_parameters/ExAp01/sample15.txt 1.19849 3.73223 5.42493 0.524964 43.714
files/tasks_parameters/ExAp01/sample24.txt 1.36832 4.18053 5.40377 0.542575 45.1805
files/tasks_parameters/ExAp01/sample3.txt 1.15844 3.70547 4.7118 0.470503 39.179
files/tasks_parameters/ExAp01/sample6.txt 1.42868 4.07521 5.71419 0.626702 52.1858
files/tasks_parameters/ExAp01/sample30.txt 1.497 3.97446 5.82388 0.626709 52.1864
files/tasks_parameters/ExAp01/sample42.txt 1.30302 4.44207 5.58473 0.537025 44.7183
files/tasks_parameters/ExAp01/sample4.txt 1.28921 3.92181 4.49751 0.556974 46.3795
files/tasks_parameters/ExAp01/sample28.txt 1.07208 3.13496 4.88321 0.444588 37.0211
files/tasks_parameters/ExAp01/sample18.txt 1.29322 3.95301 4.52898 0.537438 44.7527
files/tasks_parameters/ExAp01/sample35.txt 2.04468 5.75923 6.25034 0.752488 62.66
files/tasks_parameters/ExAp01/sample47.txt 1.19053 3.44018 5.14289 0.540033 44.9689
files/tasks_parameters/ExAp01/sample49.txt 1.16103 3.38981 4.72409 0.493041 41.0558
files/tasks_parameters/ExAp01/sample41.txt 1.14347 3.58692 5.27252 0.492391 41.0016
