files/tasks_parameters/ExAp01/sample8.txt 1.07811 7.2562 4.46819 0.454772 10.3383
files/tasks_parameters/ExAp01/sample12.txt 1.45739 9.70908 5.28286 0.618515 14.0606
files/tasks_parameters/ExAp01/sample2.txt 1.42703 8.14159 5.7401 0.620531 14.1064
files/tasks_parameters/ExAp01/sample44.txt 1.31104 7.25164 5.75904 0.557631 12.6765
files/tasks_parameters/ExAp01/sample27.txt 1.33008 8.10944 5.64946 0.564878 12.8413
files/tasks_parameters/ExAp01/sample17.txt 1.24399 7.11225 5.46658 0.527183 11.9844
files/tasks_parameters/ExAp01/sample9.txt 1.19961 7.62559 5.37813 0.517277 11.7592
files/tasks_parameters/ExAp01/sample34.txt 1.24653 7.04587 5.93037 0.497709 11.3143
files/tasks_parameters/ExAp01/sample40.txt 1.1721 8.03037 5.123 0.502383 11.4206
files/tasks_parameters/ExAp01/sample33.txt 1.49757 9.22935 5.92956 0.659262 14.9869
files/tasks_parameters/ExAp01/sample48.txt 1.07451 8.12182 5.1577 0.452491 10.2864
files/tasks_parameters/ExAp01/sample29.txt 1.4686 8.06133 5.12331 0.650652 14.7912
files/tasks_parameters/ExAp01/sample11.txt 1.29541 7.63104 5.37897 0.563302 12.8055
files/tasks_parameters/ExAp01/sample14.txt 1.12247 6.66403 4.66322 0.471536 10.7194
files/tasks_parameters/ExAp01/sample0.txt 1.46978 9.3266 4.98971 0.6311 14.3467
files/tasks_parameters/ExAp01/sample7.txt 1.21352 7.34863 5.19436 0.515527 11.7194
files/tasks_parameters/ExAp01/sample23.txt 1.37147 6.68564 5.54308 0.588617 13.3809
files/tasks_parameters/ExAp01/sample13.txt 1.47527 9.31093 5.35591 0.632849 14.3865
files/tasks_parameters/ExAp01/sample22.txt 1.2766 7.65588 5.04866 0.540336 12.2834
files/tasks_parameters/ExAp01/sample25.txt 1.03386 6.17035 5.0141 0.408296 9.28173
files/tasks_parameters/ExAp01/sample36.txt 1.2028 7.03772 4.66274 0.507647 11.5403
files/tasks_parameters/ExAp01/sample46.txt 1.259 7.73433 4.79934 0.536843 12.204
files/tasks_parameters/ExAp01/sample31.txt 1.18138 6.96928 5.16482 0.485817 11.044
files/tasks_parameters/ExAp01/sample37.txt 1.51361 9.52443 5.74224 0.65799 14.958
files/tasks_parameters/ExAp01/sample16.txt 1.33177 8.63521 4.97261 0.516328 11.7376
files/tasks_parameters/ExAp01/sample10.txt 1.42202 7.28353 6.16876 0.615651 13.9955
files/tasks_parameters/ExAp01/sample39.txt 1.11776 6.3405 4.6137 0.468873 10.6588
files/tasks_parameters/ExAp01/sample19.txt 1.41173 8.85528 5.22306 0.622152 14.1433
files/tasks_parameters/ExAp01/sample20.txt 1.34477 8.1141 5.21177 0.586994 13.344
files/tasks_parameters/ExAp01/sample43.txt 1.25871 7.21373 5.6367 0.53748 12.2184
files/tasks_parameters/ExAp01/sample32.txt 1.38484 8.30592 5.38137 0.593918 13.5014
files/tasks_parameters/ExAp01/sample45.txt 1.25153 7.94069 4.96323 0.547271 12.441
files/tasks_parameters/ExAp01/sample26.txt 1.12871 7.57061 4.62637 0.480146 10.9151
files/tasks_parameters/ExAp01/sample5.txt 1.37681 8.0307 5.35681 0.59407 13.5049
files/tasks_parameters/ExAp01/sample21.txt 1.03094 5.87802 4.61744 0.434264 9.87206
files/tasks_parameters/ExAp01/sample38.txt 1.1455 7.66999 4.86632 0.496808 11.2939
files/tasks_parameters/ExAp01/sample1.txt 1.13979 7.21312 4.63213 0.486293 11.0548
files/tasks_parameters/ExAp01/sample15.txt 1.2576 8.02273 5.50855 0.531063 12.0726
files/tasks_parameters/ExAp01/sample24.txt 1.28967 8.66348 5.4905 0.548998 12.4803
files/tasks_parameters/ExAp01/sample3.txt 1.13377 7.74268 4.79918 0.477387 10.8524
files/tasks_parameters/ExAp01/sample6.txt 1.4424 8.57133 5.80157 0.633604 14.4036
files/tasks_parameters/ExAp01/sample30.txt 1.53358 8.18878 5.90888 0.633576 14.403
files/tasks_parameters/ExAp01/sample42.txt 1.32203 8.57689 5.67253 0.54426 12.3726
files/tasks_parameters/ExAp01/sample4.txt 1.29903 8.40354 4.57985 0.563519 12.8104
files/tasks_parameters/ExAp01/sample28.txt 1.05034 6.44114 4.96426 0.449721 10.2234
files/tasks_parameters/ExAp01/sample18.txt 1.29604 8.56363 4.60946 0.543766 12.3614
files/tasks_parameters/ExAp01/sample35.txt 1.79092 11.0387 6.34514 0.761377 17.3083
files/tasks_parameters/ExAp01/sample47.txt 1.23894 7.14493 5.22131 0.545046 12.3904
files/tasks_parameters/ExAp01/sample49.txt 1.2305 6.65996 4.80244 0.498533 11.3331
files/tasks_parameters/ExAp01/sample41.txt 1.1553 7.09069 5.35462 0.497129 11.3012
