files/tasks_parameters/ExAp01/sample8.txt 1.20095 6.77015 2.19458 0.288816 11.66
files/tasks_parameters/ExAp01/sample12.txt 1.35305 9.58351 2.46081 0.337498 13.6254
files/tasks_parameters/ExAp01/sample2.txt 1.2798 8.44418 2.50701 0.319127 12.8837
files/tasks_parameters/ExAp01/sample44.txt 1.18936 6.96299 2.23089 0.28229 11.3966
files/tasks_parameters/ExAp01/sample27.txt 1.22425 7.74306 2.16676 0.28602 11.5471
files/tasks_parameters/ExAp01/sample17.txt 1.17136 7.35053 2.25579 0.292348 11.8026
files/tasks_parameters/ExAp01/sample9.txt 1.06245 6.89392 2.21068 0.282399 11.4009
files/tasks_parameters/ExAp01/sample34.txt 1.14622 6.62788 2.3772 0.297742 12.0204
files/tasks_parameters/ExAp01/sample40.txt 1.11803 7.75686 2.17534 0.285619 11.531
files/tasks_parameters/ExAp01/sample33.txt 1.28577 8.14826 2.6463 0.338073 13.6486
files/tasks_parameters/ExAp01/sample48.txt 1.04655 7.64107 2.14272 0.270011 10.9008
files/tasks_parameters/ExAp01/sample29.txt 1.04474 7.139 1.93769 0.286306 11.5587
files/tasks_parameters/ExAp01/sample11.txt 1.17464 6.88688 2.12981 0.280008 11.3044
files/tasks_parameters/ExAp01/sample14.txt 0.984192 6.11983 1.97599 0.247458 9.9903
files/tasks_parameters/ExAp01/sample0.txt 1.2179 8.2738 2.14256 0.289132 11.6728
files/tasks_parameters/ExAp01/sample7.txt 1.08234 6.87011 2.05821 0.269886 10.8958
files/tasks_parameters/ExAp01/sample23.txt 1.12528 6.52032 2.38087 0.291712 11.7769
files/tasks_parameters/ExAp01/sample13.txt 1.29215 8.73247 2.33415 0.295393 11.9255
files/tasks_parameters/ExAp01/sample22.txt 1.08933 6.9777 2.28948 0.283979 11.4647
files/tasks_parameters/ExAp01/sample25.txt 1.05198 6.23444 2.2122 0.267298 10.7913
files/tasks_parameters/ExAp01/sample36.txt 0.967244 6.6174 1.9458 0.253823 10.2473
files/tasks_parameters/ExAp01/sample46.txt 1.45452 7.42369 2.49128 0.327273 13.2126
files/tasks_parameters/ExAp01/sample31.txt 0.959307 7.22028 2.13584 0.25377 10.2451
files/tasks_parameters/ExAp01/sample37.txt 1.17861 8.90704 2.16981 0.295708 11.9383
files/tasks_parameters/ExAp01/sample16.txt 1.05003 8.18243 1.88294 0.24945 10.0707
files/tasks_parameters/ExAp01/sample10.txt 1.08894 6.96646 2.31217 0.285748 11.5361
files/tasks_parameters/ExAp01/sample39.txt 0.99596 6.4161 1.97266 0.251967 10.1723
files/tasks_parameters/ExAp01/sample19.txt 1.31039 8.16711 2.23199 0.308463 12.4532
files/tasks_parameters/ExAp01/sample20.txt 0.987756 7.28549 1.88944 0.25994 10.4942
files/tasks_parameters/ExAp01/sample43.txt 1.03618 6.86804 2.00142 0.25616 10.3416
files/tasks_parameters/ExAp01/sample32.txt 1.07622 8.15663 2.12995 0.281726 11.3738
files/tasks_parameters/ExAp01/sample45.txt 1.09429 7.75184 2.10599 0.274935 11.0996
files/tasks_parameters/ExAp01/sample26.txt 1.07995 7.4944 1.88956 0.267248 10.7893
files/tasks_parameters/ExAp01/sample5.txt 1.14965 8.08362 2.09961 0.28454 11.4874
files/tasks_parameters/ExAp01/sample21.txt 1.01653 6.11814 2.17119 0.26143 10.5544
files/tasks_parameters/ExAp01/sample38.txt 1.09019 7.761 1.96293 0.263659 10.6444
files/tasks_parameters/ExAp01/sample1.txt 1.26505 7.83752 2.13261 0.289228 11.6766
files/tasks_parameters/ExAp01/sample15.txt 1.09907 7.37971 2.12057 0.285825 11.5393
files/tasks_parameters/ExAp01/sample24.txt 1.18806 8.28531 2.25272 0.296628 11.9754
files/tasks_parameters/ExAp01/sample3.txt 1.14076 7.33359 2.39135 0.305084 12.3168
files/tasks_parameters/ExAp01/sample6.txt 1.0826 7.09894 2.24425 0.281804 11.3769
files/tasks_parameters/ExAp01/sample30.txt 1.29566 8.17669 2.03701 0.299204 12.0794
files/tasks_parameters/ExAp01/sample42.txt 1.38524 7.70416 2.42413 0.29743 12.0078
files/tasks_parameters/ExAp01/sample4.txt 1.25905 7.41691 2.36261 0.307803 12.4265
files/tasks_parameters/ExAp01/sample28.txt 0.977046 7.0562 2.07657 0.266428 10.7562
files/tasks_parameters/ExAp01/sample18.txt 1.0946 7.60139 2.1377 0.268016 10.8203
files/tasks_parameters/ExAp01/sample35.txt 1.33556 9.66795 2.28028 0.32244 13.0175
files/tasks_parameters/ExAp01/sample47.txt 1.00045 6.84842 2.12104 0.251655 10.1597
files/tasks_parameters/ExAp01/sample49.txt 1.05591 7.1497 2.11412 0.255889 10.3307
files/tasks_parameters/ExAp01/sample41.txt 1.02659 6.59911 2.07359 0.265885 10.7343
