files/tasks_parameters/ExAp01/sample8.txt 1.08361 3.76817 4.3855 0.450105 8.96962
files/tasks_parameters/ExAp01/sample12.txt 1.49418 5.03638 5.18776 0.610564 12.1672
files/tasks_parameters/ExAp01/sample2.txt 1.38528 4.58991 5.64606 0.613877 12.2332
files/tasks_parameters/ExAp01/sample44.txt 1.24953 3.77401 5.66946 0.551838 10.9969
files/tasks_parameters/ExAp01/sample27.txt 1.29418 4.13937 5.56136 0.55779 11.1155
files/tasks_parameters/ExAp01/sample17.txt 1.19497 3.76163 5.38341 0.520991 10.3822
files/tasks_parameters/ExAp01/sample9.txt 1.1433 3.69889 5.2981 0.511699 10.1971
files/tasks_parameters/ExAp01/sample34.txt 1.13513 3.52435 5.83741 0.49187 9.80191
files/tasks_parameters/ExAp01/sample40.txt 1.15486 4.06185 5.0335 0.496884 9.90182
files/tasks_parameters/ExAp01/sample33.txt 1.55311 4.82091 5.83886 0.651963 12.9922
files/tasks_parameters/ExAp01/sample48.txt 1.07617 4.01134 5.07085 0.447927 8.92622
files/tasks_parameters/ExAp01/sample29.txt 1.47207 4.20847 5.0406 0.643694 12.8274
files/tasks_parameters/ExAp01/sample11.txt 1.31879 3.94699 5.29198 0.557276 11.1053
files/tasks_parameters/ExAp01/sample14.txt 1.06547 3.54059 4.58345 0.466713 9.30059
files/tasks_parameters/ExAp01/sample0.txt 1.49721 4.82755 4.90216 0.623551 12.426
files/tasks_parameters/ExAp01/sample7.txt 1.15002 3.60766 5.11185 0.509566 10.1545
files/tasks_parameters/ExAp01/sample23.txt 1.41571 3.81403 5.45799 0.582911 11.6162
files/tasks_parameters/ExAp01/sample13.txt 1.46373 4.8894 5.26818 0.624499 12.4449
files/tasks_parameters/ExAp01/sample22.txt 1.29069 3.76156 4.95746 0.534216 10.6458
files/tasks_parameters/ExAp01/sample25.txt 0.976769 2.94144 4.92622 0.403639 8.04366
files/tasks_parameters/ExAp01/sample36.txt 1.25826 3.56164 4.5806 0.501799 9.99976
files/tasks_parameters/ExAp01/sample46.txt 1.23268 3.84833 4.7121 0.530701 10.5757
files/tasks_parameters/ExAp01/sample31.txt 1.07702 3.764 5.08385 0.479734 9.56006
files/tasks_parameters/ExAp01/sample37.txt 1.52462 4.43254 5.65111 0.65143 12.9816
files/tasks_parameters/ExAp01/sample16.txt 1.27342 4.49741 4.8895 0.509171 10.1467
files/tasks_parameters/ExAp01/sample10.txt 1.38978 3.87086 6.07511 0.60993 12.1546
files/tasks_parameters/ExAp01/sample39.txt 1.04986 3.66299 4.54281 0.463671 9.23997
files/tasks_parameters/ExAp01/sample19.txt 1.41045 3.86694 5.14047 0.615987 12.2753
files/tasks_parameters/ExAp01/sample20.txt 1.30362 4.09945 5.13368 0.580369 11.5655
files/tasks_parameters/ExAp01/sample43.txt 1.17153 3.75825 5.55698 0.530892 10.5795
files/tasks_parameters/ExAp01/sample32.txt 1.42929 4.0352 5.29178 0.587643 11.7105
files/tasks_parameters/ExAp01/sample45.txt 1.22625 3.94578 4.87833 0.541081 10.7826
files/tasks_parameters/ExAp01/sample26.txt 1.11082 3.50998 4.55035 0.474009 9.44598
files/tasks_parameters/ExAp01/sample5.txt 1.35621 4.00994 5.27725 0.587681 11.7112
files/tasks_parameters/ExAp01/sample21.txt 0.935493 2.8974 4.54677 0.430037 8.56971
files/tasks_parameters/ExAp01/sample38.txt 1.17031 3.56689 4.78573 0.492366 9.81179
files/tasks_parameters/ExAp01/sample1.txt 1.15559 3.69002 4.55048 0.481074 9.58676
files/tasks_parameters/ExAp01/sample15.txt 1.20629 3.73223 5.42493 0.524964 10.4614
files/tasks_parameters/ExAp01/sample24.txt 1.24322 4.18053 5.40377 0.542575 10.8123
files/tasks_parameters/ExAp01/sample3.txt 1.08376 3.70547 4.7118 0.470503 9.37611
files/tasks_parameters/ExAp01/sample6.txt 1.38737 4.07521 5.71419 0.626702 12.4888
files/tasks_parameters/ExAp01/sample30.txt 1.49674 3.97446 5.82388 0.626709 12.489
files/tasks_parameters/ExAp01/sample42.txt 1.29681 4.44207 5.58473 0.537025 10.7017
files/tasks_parameters/ExAp01/sample4.txt 1.33726 3.92181 4.49751 0.556974 11.0993
files/tasks_parameters/ExAp01/sample28.txt 1.06779 3.13496 4.88321 0.444588 8.85968
files/tasks_parameters/ExAp01/sample18.txt 1.22803 3.95301 4.52898 0.537438 10.71
files/tasks_parameters/ExAp01/sample35.txt 1.81064 5.75923 6.25034 0.752488 14.9955
files/tasks_parameters/ExAp01/sample47.txt 1.16153 3.44018 5.14289 0.540033 10.7617
files/tasks_parameters/ExAp01/sample49.txt 1.23045 3.38981 4.72409 0.493041 9.82525
files/tasks_parameters/ExAp01/sample41.txt 1.10214 3.58692 5.27252 0.492391 9.81228
