Task0 3 3 1 
Task1 1 1 1 
Task2 1 1 1 
Task3 3 1 1 
Task4 1 1 3 
Task5 1 1 3 
Task6 1 1 1 
Task7 1 1 1 
Task8 1 1 1 
Task9 1 1 1 
Task10 1 1 3 
Task11 1 1 1 
Task12 1 1 1 
Task13 1 1 1 
Task14 1 1 1 
Task15 1 3 1 
Task16 1 1 1 
Task17 1 1 3 
Task18 1 1 1 
Task19 1 1 1 
Task20 3 3 1 
Task21 3 15 7 
Task22 1 1 1 
Task23 1 1 1 
Task24 1 1 1 
Task25 1 1 1 
Task26 1 1 1 
Task27 1 1 1 
Task28 3 3 1 
Task29 1 1 1 
Task30 1 1 1 
Task31 3 1 1 
Task32 1 1 1 
Task33 1 1 3 
Task34 1 1 1 
Task35 1 1 1 
Task36 1 1 1 
Task37 1 1 1 
Task38 1 1 1 
Task39 3 1 3 
Task40 1 1 1 
Task41 1 1 1 
Task42 1 1 1 
Task43 3 1 1 
Task44 1 1 1 
Task45 1 1 3 
Task46 1 1 1 
Task47 3 31 7 
Task48 1 1 1 
Task49 3 1 1 
Task50 1 1 1 
Task51 1 7 7 
Task52 1 1 1 
Task53 1 1 1 
Task54 1 1 1 
Task55 3 1 3 
Task56 1 1 1 
Task57 3 15 7 
Task58 3 1 1 
Task59 3 3 3 
Task60 1 3 1 
Task61 1 1 1 
Task62 1 1 1 
Task63 1 1 3 
Task64 1 1 1 
Task65 1 1 1 
Task66 1 1 3 
Task67 1 1 1 
Task68 7 1 7 
Task69 1 3 1 
Task70 1 1 1 
Task71 1 1 1 
Task72 1 1 1 
Task73 1 3 1 
Task74 1 1 1 
Task75 1 1 1 
Task76 1 3 1 
Task77 1 1 3 
Task78 1 1 3 
Task79 3 1 1 
Task80 3 1 1 
Task81 3 1 1 
Task82 1 3 1 
Task83 1 3 1 
Task84 3 1 1 
Task85 1 1 1 
Task86 1 1 1 
Task87 1 1 1 
Task88 1 1 3 
Task89 1 1 1 
Task90 1 1 1 
Task91 1 1 1 
Task92 1 1 1 
Task93 1 1 1 
Task94 3 3 1 
Task95 3 1 3 
Task96 1 1 1 
Task97 1 1 1 
Task98 1 1 1 
Task99 3 1 1 
