files/tasks_parameters/ExAp01/sample8.txt 1.08987 7.2562 4.46819 0.454772 11.8217
files/tasks_parameters/ExAp01/sample12.txt 1.62899 9.70908 5.28286 0.618515 16.0781
files/tasks_parameters/ExAp01/sample2.txt 1.45229 8.14159 5.7401 0.620531 16.1305
files/tasks_parameters/ExAp01/sample44.txt 1.37778 7.25164 5.75904 0.557631 14.4954
files/tasks_parameters/ExAp01/sample27.txt 1.3183 8.10944 5.64946 0.564878 14.6838
files/tasks_parameters/ExAp01/sample17.txt 1.25146 7.11225 5.46658 0.527183 13.704
files/tasks_parameters/ExAp01/sample9.txt 1.19656 7.62559 5.37813 0.517277 13.4465
files/tasks_parameters/ExAp01/sample34.txt 1.2448 7.04587 5.93037 0.497709 12.9378
files/tasks_parameters/ExAp01/sample40.txt 1.201 8.03037 5.123 0.502383 13.0593
files/tasks_parameters/ExAp01/sample33.txt 1.61561 9.22935 5.92956 0.659262 17.1373
files/tasks_parameters/ExAp01/sample48.txt 1.15873 8.12182 5.1577 0.452491 11.7624
files/tasks_parameters/ExAp01/sample29.txt 1.52736 8.06133 5.12331 0.650652 16.9135
files/tasks_parameters/ExAp01/sample11.txt 1.35889 7.63104 5.37897 0.563302 14.6429
files/tasks_parameters/ExAp01/sample14.txt 1.13168 6.66403 4.66322 0.471536 12.2574
files/tasks_parameters/ExAp01/sample0.txt 1.61847 9.3266 4.98971 0.6311 16.4052
files/tasks_parameters/ExAp01/sample7.txt 1.26704 7.34863 5.19436 0.515527 13.401
files/tasks_parameters/ExAp01/sample23.txt 1.40203 6.68564 5.54308 0.588617 15.3009
files/tasks_parameters/ExAp01/sample13.txt 1.60627 9.31093 5.35591 0.632849 16.4507
files/tasks_parameters/ExAp01/sample22.txt 1.28633 7.65588 5.04866 0.540336 14.0459
files/tasks_parameters/ExAp01/sample25.txt 1.0295 6.17035 5.0141 0.408296 10.6135
files/tasks_parameters/ExAp01/sample36.txt 1.19007 7.03772 4.66274 0.507647 13.1961
files/tasks_parameters/ExAp01/sample46.txt 1.37122 7.73433 4.79934 0.536843 13.9551
files/tasks_parameters/ExAp01/sample31.txt 1.16998 6.96928 5.16482 0.485817 12.6287
files/tasks_parameters/ExAp01/sample37.txt 1.59369 9.52443 5.74224 0.65799 17.1042
files/tasks_parameters/ExAp01/sample16.txt 1.34501 8.63521 4.97261 0.516328 13.4218
files/tasks_parameters/ExAp01/sample10.txt 1.39877 7.28353 6.16876 0.615651 16.0037
files/tasks_parameters/ExAp01/sample39.txt 1.14417 6.3405 4.6137 0.468873 12.1882
files/tasks_parameters/ExAp01/sample19.txt 1.40069 8.85528 5.22306 0.622152 16.1727
files/tasks_parameters/ExAp01/sample20.txt 1.39217 8.1141 5.21177 0.586994 15.2587
files/tasks_parameters/ExAp01/sample43.txt 1.30771 7.21373 5.6367 0.53748 13.9716
files/tasks_parameters/ExAp01/sample32.txt 1.47006 8.30592 5.38137 0.593918 15.4387
files/tasks_parameters/ExAp01/sample45.txt 1.29578 7.94069 4.96323 0.547271 14.2261
files/tasks_parameters/ExAp01/sample26.txt 1.12456 7.57061 4.62637 0.480146 12.4812
files/tasks_parameters/ExAp01/sample5.txt 1.38077 8.0307 5.35681 0.59407 15.4427
files/tasks_parameters/ExAp01/sample21.txt 1.02755 5.87802 4.61744 0.434264 11.2886
files/tasks_parameters/ExAp01/sample38.txt 1.18363 7.66999 4.86632 0.496808 12.9144
files/tasks_parameters/ExAp01/sample1.txt 1.18315 7.21312 4.63213 0.486293 12.641
files/tasks_parameters/ExAp01/sample15.txt 1.28125 8.02273 5.50855 0.531063 13.8048
files/tasks_parameters/ExAp01/sample24.txt 1.31426 8.66348 5.4905 0.548998 14.271
files/tasks_parameters/ExAp01/sample3.txt 1.18752 7.74268 4.79918 0.477387 12.4095
files/tasks_parameters/ExAp01/sample6.txt 1.51709 8.57133 5.80157 0.633604 16.4703
files/tasks_parameters/ExAp01/sample30.txt 1.58117 8.18878 5.90888 0.633576 16.4696
files/tasks_parameters/ExAp01/sample42.txt 1.30673 8.57689 5.67253 0.54426 14.1479
files/tasks_parameters/ExAp01/sample4.txt 1.29715 8.40354 4.57985 0.563519 14.6485
files/tasks_parameters/ExAp01/sample28.txt 1.05736 6.44114 4.96426 0.449721 11.6904
files/tasks_parameters/ExAp01/sample18.txt 1.36715 8.56363 4.60946 0.543766 14.135
files/tasks_parameters/ExAp01/sample35.txt 1.93853 11.0387 6.34514 0.761377 19.7918
files/tasks_parameters/ExAp01/sample47.txt 1.32345 7.14493 5.22131 0.545046 14.1683
files/tasks_parameters/ExAp01/sample49.txt 1.29868 6.65996 4.80244 0.498533 12.9592
files/tasks_parameters/ExAp01/sample41.txt 1.18983 7.09069 5.35462 0.497129 12.9227
