files/tasks_parameters/ExAp01/sample8.txt 1.16168 6.77015 2.19458 0.288816 6.49248
files/tasks_parameters/ExAp01/sample12.txt 1.36149 9.58351 2.46081 0.337498 7.58684
files/tasks_parameters/ExAp01/sample2.txt 1.21945 8.44418 2.50701 0.319127 7.17386
files/tasks_parameters/ExAp01/sample44.txt 1.08375 6.96299 2.23089 0.28229 6.34578
files/tasks_parameters/ExAp01/sample27.txt 1.14298 7.74306 2.16676 0.28602 6.42962
files/tasks_parameters/ExAp01/sample17.txt 1.12147 7.35053 2.25579 0.292348 6.57186
files/tasks_parameters/ExAp01/sample9.txt 1.14345 6.89392 2.21068 0.282399 6.34822
files/tasks_parameters/ExAp01/sample34.txt 1.10677 6.62788 2.3772 0.297742 6.69312
files/tasks_parameters/ExAp01/sample40.txt 1.0334 7.75686 2.17534 0.285619 6.42061
files/tasks_parameters/ExAp01/sample33.txt 1.27953 8.14826 2.6463 0.338073 7.59976
files/tasks_parameters/ExAp01/sample48.txt 1.01076 7.64107 2.14272 0.270011 6.06975
files/tasks_parameters/ExAp01/sample29.txt 1.23293 7.139 1.93769 0.286306 6.43604
files/tasks_parameters/ExAp01/sample11.txt 1.06856 6.88688 2.12981 0.280008 6.29448
files/tasks_parameters/ExAp01/sample14.txt 0.877942 6.11983 1.97599 0.247458 5.56275
files/tasks_parameters/ExAp01/sample0.txt 1.1417 8.2738 2.14256 0.289132 6.49957
files/tasks_parameters/ExAp01/sample7.txt 1.01847 6.87011 2.05821 0.269886 6.06692
files/tasks_parameters/ExAp01/sample23.txt 1.14016 6.52032 2.38087 0.291712 6.55757
files/tasks_parameters/ExAp01/sample13.txt 1.17787 8.73247 2.33415 0.295393 6.64031
files/tasks_parameters/ExAp01/sample22.txt 1.06841 6.9777 2.28948 0.283979 6.38374
files/tasks_parameters/ExAp01/sample25.txt 0.938965 6.23444 2.2122 0.267298 6.00875
files/tasks_parameters/ExAp01/sample36.txt 0.947762 6.6174 1.9458 0.253823 5.70584
files/tasks_parameters/ExAp01/sample46.txt 1.34362 7.42369 2.49128 0.327273 7.35697
files/tasks_parameters/ExAp01/sample31.txt 1.00197 7.22028 2.13584 0.25377 5.70465
files/tasks_parameters/ExAp01/sample37.txt 1.14083 8.90704 2.16981 0.295708 6.64741
files/tasks_parameters/ExAp01/sample16.txt 0.994862 8.18243 1.88294 0.24945 5.60754
files/tasks_parameters/ExAp01/sample10.txt 1.07194 6.96646 2.31217 0.285748 6.42351
files/tasks_parameters/ExAp01/sample39.txt 0.954853 6.4161 1.97266 0.251967 5.66412
files/tasks_parameters/ExAp01/sample19.txt 1.29902 8.16711 2.23199 0.308463 6.93413
files/tasks_parameters/ExAp01/sample20.txt 1.01841 7.28549 1.88944 0.25994 5.84335
files/tasks_parameters/ExAp01/sample43.txt 0.958396 6.86804 2.00142 0.25616 5.75838
files/tasks_parameters/ExAp01/sample32.txt 1.10935 8.15663 2.12995 0.281726 6.3331
files/tasks_parameters/ExAp01/sample45.txt 1.16793 7.75184 2.10599 0.274935 6.18043
files/tasks_parameters/ExAp01/sample26.txt 1.03414 7.4944 1.88956 0.267248 6.00763
files/tasks_parameters/ExAp01/sample5.txt 1.164 8.08362 2.09961 0.28454 6.39636
files/tasks_parameters/ExAp01/sample21.txt 1.05701 6.11814 2.17119 0.26143 5.87684
files/tasks_parameters/ExAp01/sample38.txt 1.01257 7.761 1.96293 0.263659 5.92695
files/tasks_parameters/ExAp01/sample1.txt 1.15 7.83752 2.13261 0.289228 6.50174
files/tasks_parameters/ExAp01/sample15.txt 1.10441 7.37971 2.12057 0.285825 6.42525
files/tasks_parameters/ExAp01/sample24.txt 1.12054 8.28531 2.25272 0.296628 6.6681
files/tasks_parameters/ExAp01/sample3.txt 1.26904 7.33359 2.39135 0.305084 6.85818
files/tasks_parameters/ExAp01/sample6.txt 1.02877 7.09894 2.24425 0.281804 6.33485
files/tasks_parameters/ExAp01/sample30.txt 1.34992 8.17669 2.03701 0.299204 6.726
files/tasks_parameters/ExAp01/sample42.txt 1.11265 7.70416 2.42413 0.29743 6.68611
files/tasks_parameters/ExAp01/sample4.txt 1.24435 7.41691 2.36261 0.307803 6.91929
files/tasks_parameters/ExAp01/sample28.txt 1.08726 7.0562 2.07657 0.266428 5.9892
files/tasks_parameters/ExAp01/sample18.txt 1.01257 7.60139 2.1377 0.268016 6.0249
files/tasks_parameters/ExAp01/sample35.txt 1.31266 9.66795 2.28028 0.32244 7.24832
files/tasks_parameters/ExAp01/sample47.txt 0.99038 6.84842 2.12104 0.251655 5.6571
files/tasks_parameters/ExAp01/sample49.txt 0.996654 7.1497 2.11412 0.255889 5.75229
files/tasks_parameters/ExAp01/sample41.txt 0.99874 6.59911 2.07359 0.265885 5.977
