0.36425701
Task0 63 31 255 
Task1 127 31 31 
Task2 63 1 7 
Task3 15 63 255 
Task4 15 15 63 
Task5 15 7 63 
Task6 63 15 255 
Task7 7 63 63 
Task8 63 255 3 
Task9 31 127 63 
Task10 63 31 7 
Task11 63 255 3 
Task12 63 15 31 
Task13 1 255 255 
Task14 15 15 63 
Task15 255 15 31 
Task16 63 31 63 
Task17 255 3 15 
Task18 63 127 127 
Task19 127 255 127 
Task20 63 255 31 
Task21 127 31 15 
Task22 3 1 255 
Task23 3 63 31 
Task24 127 255 255 
Task25 31 3 127 
Task26 31 255 127 
Task27 3 31 7 
Task28 15 255 15 
Task29 127 31 63 
Task30 255 7 7 
Task31 63 7 7 
Task32 255 7 31 
Task33 7 15 63 
Task34 255 255 255 
Task35 31 255 63 
Task36 31 31 127 
Task37 1 127 31 
Task38 63 31 63 
Task39 15 127 15 
Task40 15 127 7 
Task41 255 255 15 
Task42 31 3 63 
Task43 255 63 255 
Task44 31 63 31 
Task45 31 255 127 
Task46 7 31 63 
Task47 3 31 255 
Task48 63 31 63 
Task49 7 255 7 
Task50 7 255 1 
Task51 255 31 3 
Task52 63 63 31 
Task53 3 3 255 
Task54 31 63 127 
Task55 31 63 15 
Task56 15 63 15 
Task57 63 3 31 
Task58 3 255 31 
Task59 7 15 63 
Task60 31 63 63 
Task61 63 63 127 
Task62 63 7 7 
Task63 63 3 255 
Task64 255 63 31 
Task65 255 31 31 
Task66 127 255 255 
Task67 63 255 31 
Task68 63 7 255 
Task69 63 3 63 
Task70 63 127 127 
Task71 255 63 31 
Task72 15 31 31 
Task73 127 127 127 
Task74 255 63 255 
Task75 255 15 127 
Task76 127 127 31 
Task77 127 255 15 
Task78 7 255 15 
Task79 127 15 255 
Task80 15 3 255 
Task81 1 255 31 
Task82 255 127 255 
Task83 31 255 63 
Task84 3 255 63 
Task85 7 127 15 
Task86 127 127 15 
Task87 127 7 255 
Task88 3 31 255 
Task89 31 127 15 
Task90 63 1 31 
Task91 63 63 63 
Task92 255 15 7 
Task93 15 31 63 
Task94 255 1 7 
Task95 63 63 63 
Task96 31 63 63 
Task97 7 31 63 
Task98 255 3 31 
Task99 63 63 3 
