files/tasks_parameters/ExAp01/sample8.txt 0.803481 3.15778 1.5595 0.203411 5.95851
files/tasks_parameters/ExAp01/sample12.txt 0.809671 3.94962 1.6705 0.207924 6.0907
files/tasks_parameters/ExAp01/sample2.txt 0.794723 3.78275 1.74131 0.200098 5.86145
files/tasks_parameters/ExAp01/sample44.txt 0.672124 3.59825 1.65317 0.200005 5.85874
files/tasks_parameters/ExAp01/sample27.txt 0.697662 3.45743 1.5148 0.182129 5.33508
files/tasks_parameters/ExAp01/sample17.txt 0.925109 2.77299 1.44514 0.14646 4.29024
files/tasks_parameters/ExAp01/sample9.txt 0.743799 2.99933 1.451 0.177444 5.19784
files/tasks_parameters/ExAp01/sample34.txt 0.831645 3.02928 1.58429 0.157984 4.6278
files/tasks_parameters/ExAp01/sample40.txt 0.765116 3.86889 1.52122 0.168379 4.93232
files/tasks_parameters/ExAp01/sample33.txt 0.80077 3.63695 1.71905 0.199765 5.8517
files/tasks_parameters/ExAp01/sample48.txt 0.682426 3.39061 1.49062 0.154728 4.53244
files/tasks_parameters/ExAp01/sample29.txt 0.80202 3.30472 1.38739 0.223868 6.55776
files/tasks_parameters/ExAp01/sample11.txt 0.707448 3.10585 1.41612 0.174079 5.09927
files/tasks_parameters/ExAp01/sample14.txt 0.666112 2.70971 1.43432 0.162214 4.75174
files/tasks_parameters/ExAp01/sample0.txt 0.743113 3.6937 1.5439 0.18367 5.38023
files/tasks_parameters/ExAp01/sample7.txt 0.809856 2.70501 1.42221 0.143463 4.20246
files/tasks_parameters/ExAp01/sample23.txt 0.759063 3.2697 1.57822 0.181448 5.31516
files/tasks_parameters/ExAp01/sample13.txt 0.729548 3.84225 1.67648 0.198247 5.80724
files/tasks_parameters/ExAp01/sample22.txt 0.901802 3.09569 1.56121 0.148796 4.35867
files/tasks_parameters/ExAp01/sample25.txt 0.746637 2.73966 1.5007 0.148149 4.33971
files/tasks_parameters/ExAp01/sample36.txt 0.850926 2.85948 1.28553 0.130042 3.80932
files/tasks_parameters/ExAp01/sample46.txt 0.761085 3.58643 1.69998 0.210103 6.15453
files/tasks_parameters/ExAp01/sample31.txt 0.704306 3.4832 1.53782 0.1722 5.04424
files/tasks_parameters/ExAp01/sample37.txt 0.772494 3.95293 1.50705 0.171701 5.02963
files/tasks_parameters/ExAp01/sample16.txt 0.615232 3.31216 1.30115 0.150249 4.40123
files/tasks_parameters/ExAp01/sample10.txt 1.13118 3.17098 1.61789 0.153776 4.50456
files/tasks_parameters/ExAp01/sample39.txt 0.717141 3.26617 1.44406 0.165669 4.85292
files/tasks_parameters/ExAp01/sample19.txt 0.749667 3.63532 1.52509 0.196094 5.74418
files/tasks_parameters/ExAp01/sample20.txt 0.662661 3.20793 1.25367 0.147335 4.31588
files/tasks_parameters/ExAp01/sample43.txt 0.646585 3.11551 1.4202 0.150644 4.41282
files/tasks_parameters/ExAp01/sample32.txt 0.722684 3.5311 1.42482 0.168744 4.94301
files/tasks_parameters/ExAp01/sample45.txt 0.765434 3.80283 1.48324 0.19807 5.80206
files/tasks_parameters/ExAp01/sample26.txt 0.653864 3.21645 1.29701 0.166061 4.86442
files/tasks_parameters/ExAp01/sample5.txt 0.663783 3.5889 1.52559 0.178903 5.2406
files/tasks_parameters/ExAp01/sample21.txt 0.65853 2.75242 1.55936 0.19512 5.71564
files/tasks_parameters/ExAp01/sample38.txt 0.676658 3.31563 1.37515 0.166157 4.86722
files/tasks_parameters/ExAp01/sample1.txt 0.693764 3.74964 1.51696 0.19701 5.77099
files/tasks_parameters/ExAp01/sample15.txt 0.696455 3.32916 1.48508 0.180707 5.29345
files/tasks_parameters/ExAp01/sample24.txt 0.861271 3.45951 1.59549 0.16529 4.84184
files/tasks_parameters/ExAp01/sample3.txt 0.96376 3.70014 1.70809 0.237107 6.94556
files/tasks_parameters/ExAp01/sample6.txt 0.730089 3.33003 1.58323 0.184714 5.41083
files/tasks_parameters/ExAp01/sample30.txt 0.88171 4.1841 1.4861 0.239623 7.01926
files/tasks_parameters/ExAp01/sample42.txt 0.747833 3.43221 1.70276 0.177383 5.19606
files/tasks_parameters/ExAp01/sample4.txt 0.813016 3.72477 1.6136 0.196448 5.75454
files/tasks_parameters/ExAp01/sample28.txt 0.689545 3.11323 1.45032 0.158819 4.65227
files/tasks_parameters/ExAp01/sample18.txt 0.769617 3.47418 1.45209 0.149064 4.36652
files/tasks_parameters/ExAp01/sample35.txt 0.803051 4.57086 1.49394 0.185031 5.42009
files/tasks_parameters/ExAp01/sample47.txt 0.718749 3.13768 1.52397 0.16417 4.80902
files/tasks_parameters/ExAp01/sample49.txt 0.776571 3.13288 1.49657 0.156154 4.57421
files/tasks_parameters/ExAp01/sample41.txt 0.763263 2.81964 1.49636 0.150876 4.4196
