0.37507901000000005
Task0 63 15 7 
Task1 63 63 1 
Task2 255 63 127 
Task3 63 63 31 
Task4 127 63 15 
Task5 3 3 63 
Task6 7 15 63 
Task7 31 3 15 
Task8 3 63 3 
Task9 63 63 15 
Task10 63 31 63 
Task11 31 63 7 
Task12 63 3 7 
Task13 15 15 63 
Task14 63 1 127 
Task15 63 255 15 
Task16 127 3 63 
Task17 15 15 31 
Task18 7 63 63 
Task19 15 63 7 
Task20 255 1 63 
Task21 31 63 63 
Task22 63 7 3 
Task23 127 7 63 
Task24 7 63 127 
Task25 31 63 15 
Task26 7 1 31 
Task27 3 31 7 
Task28 255 31 127 
Task29 255 255 127 
Task30 15 31 7 
Task31 63 31 31 
Task32 15 63 15 
Task33 255 63 3 
Task34 31 63 255 
Task35 15 127 63 
Task36 31 7 63 
Task37 3 63 15 
Task38 63 15 1 
Task39 63 15 7 
Task40 7 63 15 
Task41 15 63 63 
Task42 7 15 31 
Task43 1 63 7 
Task44 3 31 3 
Task45 63 7 1 
Task46 63 15 7 
Task47 63 63 7 
Task48 63 127 63 
Task49 31 3 255 
Task50 31 63 31 
Task51 15 15 63 
Task52 63 31 7 
Task53 31 63 127 
Task54 15 255 31 
Task55 31 63 31 
Task56 15 63 127 
Task57 31 255 63 
Task58 63 3 127 
Task59 31 63 31 
Task60 63 31 31 
Task61 63 15 1 
Task62 63 31 31 
Task63 1 3 63 
Task64 31 3 15 
Task65 31 63 3 
Task66 3 63 15 
Task67 63 31 7 
Task68 1 63 31 
Task69 31 7 15 
Task70 31 31 15 
Task71 63 31 7 
Task72 7 15 63 
Task73 63 63 63 
Task74 31 63 31 
Task75 63 15 7 
Task76 7 15 63 
Task77 15 31 63 
Task78 7 15 63 
Task79 31 7 63 
Task80 1 63 1 
Task81 3 31 63 
Task82 3 63 7 
Task83 63 15 3 
Task84 63 3 3 
Task85 63 31 63 
Task86 255 31 15 
Task87 63 63 15 
Task88 63 3 15 
Task89 15 15 63 
Task90 63 255 63 
Task91 3 7 63 
Task92 31 7 63 
Task93 7 63 7 
Task94 127 63 127 
Task95 31 31 15 
Task96 31 3 31 
Task97 255 31 7 
Task98 63 15 3 
Task99 15 127 63 
