0.33231358
Task0 3 31 1 
Task1 63 7 7 
Task2 15 31 31 
Task3 1 63 15 
Task4 7 31 3 
Task5 7 7 31 
Task6 15 15 63 
Task7 255 255 127 
Task8 63 255 3 
Task9 63 7 15 
Task10 255 31 15 
Task11 1 7 31 
Task12 255 255 255 
Task13 15 3 63 
Task14 7 3 31 
Task15 15 31 7 
Task16 63 63 63 
Task17 7 3 63 
Task18 31 63 127 
Task19 127 63 31 
Task20 63 255 31 
Task21 31 3 1 
Task22 63 7 1 
Task23 1 63 255 
Task24 15 127 255 
Task25 7 63 63 
Task26 7 255 127 
Task27 15 31 63 
Task28 3 3 31 
Task29 31 1 31 
Task30 1 3 63 
Task31 31 31 1 
Task32 31 7 63 
Task33 3 31 255 
Task34 7 63 3 
Task35 63 7 7 
Task36 31 15 15 
Task37 63 1 7 
Task38 1 3 63 
Task39 31 63 63 
Task40 31 31 1 
Task41 3 7 31 
Task42 63 63 31 
Task43 7 63 7 
Task44 7 1 63 
Task45 31 63 7 
Task46 1 15 63 
Task47 127 127 255 
Task48 63 15 7 
Task49 63 7 1 
Task50 15 31 63 
Task51 3 7 31 
Task52 63 31 7 
Task53 1 15 31 
Task54 31 127 1 
Task55 63 31 3 
Task56 127 15 255 
Task57 15 15 63 
Task58 3 127 63 
Task59 63 7 31 
Task60 63 31 63 
Task61 15 255 127 
Task62 63 63 15 
Task63 15 63 31 
Task64 63 31 15 
Task65 1 63 15 
Task66 31 63 7 
Task67 1 15 63 
Task68 31 31 15 
Task69 255 127 31 
Task70 15 1 31 
Task71 7 31 31 
Task72 15 63 63 
Task73 3 31 3 
Task74 63 127 63 
Task75 15 31 15 
Task76 255 31 255 
Task77 31 255 127 
Task78 15 127 31 
Task79 63 63 31 
Task80 31 63 127 
Task81 31 31 63 
Task82 63 7 1 
Task83 127 255 127 
Task84 15 63 7 
Task85 31 31 15 
Task86 3 3 31 
Task87 31 1 1 
Task88 63 63 31 
Task89 63 1 3 
Task90 31 3 31 
Task91 63 127 63 
Task92 31 7 127 
Task93 31 15 15 
Task94 7 63 63 
Task95 255 3 255 
Task96 127 255 127 
Task97 7 7 31 
Task98 3 3 31 
Task99 63 15 7 
