0.5042915520000001
Task0 31 255 7 
Task1 255 31 255 
Task2 255 63 31 
Task3 255 63 63 
Task4 31 255 15 
Task5 31 31 255 
Task6 7 15 255 
Task7 255 63 127 
Task8 1 255 255 
Task9 63 255 63 
Task10 255 31 15 
Task11 255 15 3 
Task12 255 255 255 
Task13 7 255 15 
Task14 15 255 63 
Task15 3 3 255 
Task16 255 255 127 
Task17 255 63 31 
Task18 255 63 1 
Task19 15 255 15 
Task20 255 127 15 
Task21 7 63 255 
Task22 127 15 255 
Task23 255 255 63 
Task24 31 127 255 
Task25 3 255 255 
Task26 255 31 31 
Task27 127 63 255 
Task28 127 255 127 
Task29 31 255 127 
Task30 127 255 127 
Task31 255 255 63 
Task32 255 127 31 
Task33 255 31 63 
Task34 3 15 255 
Task35 1 255 255 
Task36 255 63 255 
Task37 63 7 255 
Task38 31 127 255 
Task39 63 255 31 
Task40 255 255 255 
Task41 31 255 1 
Task42 255 127 31 
Task43 255 31 127 
Task44 255 255 15 
Task45 15 15 255 
Task46 63 255 63 
Task47 255 31 255 
Task48 31 127 255 
Task49 255 255 255 
Task50 255 31 31 
Task51 3 255 31 
Task52 255 255 15 
Task53 127 127 255 
Task54 255 255 63 
Task55 127 255 31 
Task56 31 255 7 
Task57 1 255 15 
Task58 127 31 255 
Task59 255 63 63 
Task60 1 255 7 
Task61 127 31 255 
Task62 63 255 255 
Task63 31 255 127 
Task64 255 127 7 
Task65 63 31 255 
Task66 31 255 7 
Task67 127 255 31 
Task68 255 31 7 
Task69 3 255 31 
Task70 127 255 1 
Task71 255 63 15 
Task72 255 255 127 
Task73 1 63 255 
Task74 255 127 255 
Task75 7 255 31 
Task76 31 255 63 
Task77 63 15 255 
Task78 63 255 31 
Task79 255 7 63 
Task80 15 63 255 
Task81 3 15 255 
Task82 127 255 63 
Task83 3 255 3 
Task84 3 31 255 
Task85 127 255 7 
Task86 255 63 7 
Task87 31 255 15 
Task88 7 255 3 
Task89 255 15 7 
Task90 1 255 127 
Task91 255 31 255 
Task92 31 255 63 
Task93 255 15 7 
Task94 63 63 255 
Task95 3 255 31 
Task96 255 63 255 
Task97 255 127 255 
Task98 7 255 7 
Task99 31 255 3 
