files/tasks_parameters/ExAp01/sample8.txt 0.795373 3.15778 1.5595 0.203411 4.84889
files/tasks_parameters/ExAp01/sample12.txt 0.806027 3.94962 1.6705 0.207924 4.95646
files/tasks_parameters/ExAp01/sample2.txt 0.768264 3.78275 1.74131 0.200098 4.7699
files/tasks_parameters/ExAp01/sample44.txt 0.685881 3.59825 1.65317 0.200005 4.7677
files/tasks_parameters/ExAp01/sample27.txt 0.680558 3.45743 1.5148 0.182129 4.34156
files/tasks_parameters/ExAp01/sample17.txt 0.925109 2.77299 1.44514 0.14646 3.49129
files/tasks_parameters/ExAp01/sample9.txt 0.720744 2.99933 1.451 0.177444 4.22987
files/tasks_parameters/ExAp01/sample34.txt 0.831645 3.02928 1.58429 0.157984 3.76599
files/tasks_parameters/ExAp01/sample40.txt 0.764924 3.86889 1.52122 0.168379 4.0138
files/tasks_parameters/ExAp01/sample33.txt 0.80358 3.63695 1.71905 0.199765 4.76197
files/tasks_parameters/ExAp01/sample48.txt 0.682426 3.39061 1.49062 0.154728 3.68839
files/tasks_parameters/ExAp01/sample29.txt 0.740073 3.30472 1.38739 0.223868 5.33654
files/tasks_parameters/ExAp01/sample11.txt 0.707448 3.10585 1.41612 0.174079 4.14966
files/tasks_parameters/ExAp01/sample14.txt 0.662588 2.70971 1.43432 0.162214 3.86685
files/tasks_parameters/ExAp01/sample0.txt 0.745305 3.6937 1.5439 0.18367 4.3783
files/tasks_parameters/ExAp01/sample7.txt 0.809856 2.70501 1.42221 0.143463 3.41986
files/tasks_parameters/ExAp01/sample23.txt 0.760806 3.2697 1.57822 0.181448 4.32534
files/tasks_parameters/ExAp01/sample13.txt 0.730563 3.84225 1.67648 0.198247 4.72579
files/tasks_parameters/ExAp01/sample22.txt 0.901802 3.09569 1.56121 0.148796 3.54698
files/tasks_parameters/ExAp01/sample25.txt 0.746637 2.73966 1.5007 0.148149 3.53155
files/tasks_parameters/ExAp01/sample36.txt 0.850926 2.85948 1.28553 0.130042 3.09993
files/tasks_parameters/ExAp01/sample46.txt 0.757968 3.58643 1.69998 0.210103 5.0084
files/tasks_parameters/ExAp01/sample31.txt 0.707021 3.4832 1.53782 0.1722 4.10488
files/tasks_parameters/ExAp01/sample37.txt 0.773671 3.95293 1.50705 0.171701 4.09299
files/tasks_parameters/ExAp01/sample16.txt 0.609625 3.31216 1.30115 0.150249 3.58162
files/tasks_parameters/ExAp01/sample10.txt 1.10417 3.17098 1.61789 0.153776 3.6657
files/tasks_parameters/ExAp01/sample39.txt 0.700049 3.26617 1.44406 0.165669 3.94919
files/tasks_parameters/ExAp01/sample19.txt 0.773158 3.63532 1.52509 0.196094 4.67447
files/tasks_parameters/ExAp01/sample20.txt 0.662661 3.20793 1.25367 0.147335 3.51216
files/tasks_parameters/ExAp01/sample43.txt 0.647068 3.11551 1.4202 0.150644 3.59104
files/tasks_parameters/ExAp01/sample32.txt 0.722684 3.5311 1.42482 0.168744 4.0225
files/tasks_parameters/ExAp01/sample45.txt 0.766247 3.80283 1.48324 0.19807 4.72158
files/tasks_parameters/ExAp01/sample26.txt 0.630298 3.21645 1.29701 0.166061 3.95855
files/tasks_parameters/ExAp01/sample5.txt 0.632267 3.5889 1.52559 0.178903 4.26468
files/tasks_parameters/ExAp01/sample21.txt 0.667322 2.75242 1.55936 0.19512 4.65125
files/tasks_parameters/ExAp01/sample38.txt 0.677393 3.31563 1.37515 0.166157 3.96082
files/tasks_parameters/ExAp01/sample1.txt 0.708625 3.74964 1.51696 0.19701 4.69629
files/tasks_parameters/ExAp01/sample15.txt 0.693319 3.32916 1.48508 0.180707 4.30768
files/tasks_parameters/ExAp01/sample24.txt 0.861271 3.45951 1.59549 0.16529 3.94017
files/tasks_parameters/ExAp01/sample3.txt 0.885602 3.70014 1.70809 0.237107 5.65213
files/tasks_parameters/ExAp01/sample6.txt 0.730089 3.33003 1.58323 0.184714 4.4032
files/tasks_parameters/ExAp01/sample30.txt 0.894357 4.1841 1.4861 0.239623 5.7121
files/tasks_parameters/ExAp01/sample42.txt 0.747833 3.43221 1.70276 0.177383 4.22843
files/tasks_parameters/ExAp01/sample4.txt 0.767527 3.72477 1.6136 0.196448 4.68291
files/tasks_parameters/ExAp01/sample28.txt 0.689545 3.11323 1.45032 0.158819 3.78591
files/tasks_parameters/ExAp01/sample18.txt 0.769617 3.47418 1.45209 0.149064 3.55336
files/tasks_parameters/ExAp01/sample35.txt 0.804215 4.57086 1.49394 0.185031 4.41074
files/tasks_parameters/ExAp01/sample47.txt 0.712647 3.13768 1.52397 0.16417 3.91347
files/tasks_parameters/ExAp01/sample49.txt 0.776571 3.13288 1.49657 0.156154 3.72238
files/tasks_parameters/ExAp01/sample41.txt 0.761185 2.81964 1.49636 0.150876 3.59656
