files/tasks_parameters/ExJump4/sample8.txt 0.646915 1.83248 1.56347 0.120081 2.46418
files/tasks_parameters/ExJump4/sample12.txt 0.606872 2.03458 1.47299 0.104561 2.14569
files/tasks_parameters/ExJump4/sample2.txt 0.611323 2.47345 1.43525 0.114517 2.35
files/tasks_parameters/ExJump4/sample44.txt 0.594011 2.41974 1.46707 0.114308 2.34573
files/tasks_parameters/ExJump4/sample27.txt 0.617688 1.6826 1.34842 0.0994059 2.03991
files/tasks_parameters/ExJump4/sample17.txt 0.622231 2.89162 1.42837 0.099788 2.04775
files/tasks_parameters/ExJump4/sample9.txt 0.683075 2.31702 1.39737 0.121513 2.49358
files/tasks_parameters/ExJump4/sample34.txt 0.667244 1.96701 1.62779 0.129774 2.6631
files/tasks_parameters/ExJump4/sample40.txt 0.663591 1.98705 1.56433 0.109034 2.23748
files/tasks_parameters/ExJump4/sample33.txt 0.591805 2.16925 1.28846 0.0972346 1.99535
files/tasks_parameters/ExJump4/sample48.txt 0.628939 2.31751 1.36843 0.108212 2.22063
files/tasks_parameters/ExJump4/sample29.txt 0.655754 2.70277 1.46859 0.125243 2.57012
files/tasks_parameters/ExJump4/sample11.txt 0.656803 2.38816 1.5273 0.127513 2.61669
files/tasks_parameters/ExJump4/sample14.txt 0.61097 2.31186 1.28239 0.113151 2.32198
files/tasks_parameters/ExJump4/sample0.txt 0.617892 2.42598 1.35751 0.0987481 2.02641
files/tasks_parameters/ExJump4/sample7.txt 0.699751 2.8238 1.52907 0.157604 3.23419
files/tasks_parameters/ExJump4/sample23.txt 0.660464 2.95721 1.49896 0.143912 2.95323
files/tasks_parameters/ExJump4/sample13.txt 0.7357 2.35132 1.69698 0.124095 2.54656
files/tasks_parameters/ExJump4/sample22.txt 0.667726 1.98669 1.50392 0.107422 2.2044
files/tasks_parameters/ExJump4/sample25.txt 0.609589 2.14361 1.31824 0.120007 2.46267
files/tasks_parameters/ExJump4/sample36.txt 0.587214 2.10753 1.58868 0.100141 2.055
files/tasks_parameters/ExJump4/sample46.txt 0.704595 2.3755 1.56153 0.124727 2.55953
files/tasks_parameters/ExJump4/sample31.txt 0.647596 1.97085 1.5669 0.11368 2.33283
files/tasks_parameters/ExJump4/sample37.txt 0.618505 2.24919 1.38714 0.124007 2.54474
files/tasks_parameters/ExJump4/sample16.txt 0.572104 2.27401 1.23929 0.104367 2.14171
files/tasks_parameters/ExJump4/sample10.txt 0.553986 2.78688 1.39476 0.0946927 1.94319
files/tasks_parameters/ExJump4/sample39.txt 0.810183 2.37506 1.70917 0.145183 2.9793
files/tasks_parameters/ExJump4/sample19.txt 0.541094 1.83369 1.28 0.0897498 1.84176
files/tasks_parameters/ExJump4/sample20.txt 0.636018 2.48388 1.47683 0.117623 2.41374
files/tasks_parameters/ExJump4/sample43.txt 0.707831 2.50733 1.58285 0.125412 2.57357
files/tasks_parameters/ExJump4/sample32.txt 0.744349 2.85735 1.69438 0.137974 2.83136
files/tasks_parameters/ExJump4/sample45.txt 0.647481 3.08194 1.62848 0.120523 2.47325
files/tasks_parameters/ExJump4/sample26.txt 0.718778 2.5546 1.81867 0.143078 2.9361
files/tasks_parameters/ExJump4/sample5.txt 0.619506 2.23561 1.38919 0.102912 2.11186
files/tasks_parameters/ExJump4/sample21.txt 0.689575 2.92651 1.6811 0.118487 2.43147
files/tasks_parameters/ExJump4/sample38.txt 0.723316 2.74988 1.67823 0.14817 3.0406
files/tasks_parameters/ExJump4/sample1.txt 0.690178 2.43722 1.5925 0.115034 2.36061
files/tasks_parameters/ExJump4/sample15.txt 0.63788 2.27831 1.16788 0.1129 2.31683
files/tasks_parameters/ExJump4/sample24.txt 0.729766 2.54362 1.6777 0.14475 2.97041
files/tasks_parameters/ExJump4/sample3.txt 0.669157 2.71342 1.4898 0.117886 2.41914
files/tasks_parameters/ExJump4/sample6.txt 0.747436 2.84343 1.67605 0.123282 2.52987
files/tasks_parameters/ExJump4/sample30.txt 0.772087 2.60941 1.77479 0.150139 3.08101
files/tasks_parameters/ExJump4/sample42.txt 0.661963 2.42623 1.58702 0.115413 2.36839
files/tasks_parameters/ExJump4/sample4.txt 0.65439 2.04052 1.46636 0.112837 2.31552
files/tasks_parameters/ExJump4/sample28.txt 0.535283 2.14791 1.10729 0.0890727 1.82786
files/tasks_parameters/ExJump4/sample18.txt 0.649243 2.13854 1.50938 0.110206 2.26155
files/tasks_parameters/ExJump4/sample35.txt 0.779059 2.93731 1.64311 0.13217 2.71226
files/tasks_parameters/ExJump4/sample47.txt 0.689752 2.35264 1.43329 0.11613 2.38311
files/tasks_parameters/ExJump4/sample49.txt 0.611554 2.19826 1.52756 0.102574 2.10492
files/tasks_parameters/ExJump4/sample41.txt 0.657451 1.91443 1.40853 0.122296 2.50965
