files/tasks_parameters/ExAp01/sample8.txt 0.847878 3.15778 1.5595 0.203411 3.30279
files/tasks_parameters/ExAp01/sample12.txt 0.963762 3.94962 1.6705 0.207924 3.37606
files/tasks_parameters/ExAp01/sample2.txt 0.912456 3.78275 1.74131 0.200098 3.24898
files/tasks_parameters/ExAp01/sample44.txt 0.872207 3.59825 1.65317 0.200005 3.24748
files/tasks_parameters/ExAp01/sample27.txt 0.807875 3.45743 1.5148 0.182129 2.95722
files/tasks_parameters/ExAp01/sample17.txt 0.801879 2.77299 1.44514 0.14646 2.37807
files/tasks_parameters/ExAp01/sample9.txt 0.788567 2.99933 1.451 0.177444 2.88115
files/tasks_parameters/ExAp01/sample34.txt 0.831645 3.02928 1.58429 0.157984 2.56518
files/tasks_parameters/ExAp01/sample40.txt 0.782249 3.86889 1.52122 0.168379 2.73397
files/tasks_parameters/ExAp01/sample33.txt 0.837395 3.63695 1.71905 0.199765 3.24358
files/tasks_parameters/ExAp01/sample48.txt 0.718978 3.39061 1.49062 0.154728 2.51232
files/tasks_parameters/ExAp01/sample29.txt 0.92522 3.30472 1.38739 0.223868 3.63495
files/tasks_parameters/ExAp01/sample11.txt 0.761116 3.10585 1.41612 0.174079 2.82651
files/tasks_parameters/ExAp01/sample14.txt 0.684998 2.70971 1.43432 0.162214 2.63388
files/tasks_parameters/ExAp01/sample0.txt 0.851074 3.6937 1.5439 0.18367 2.98225
files/tasks_parameters/ExAp01/sample7.txt 0.788843 2.70501 1.42221 0.143463 2.32941
files/tasks_parameters/ExAp01/sample23.txt 0.825696 3.2697 1.57822 0.181448 2.94618
files/tasks_parameters/ExAp01/sample13.txt 0.889507 3.84225 1.67648 0.198247 3.21894
files/tasks_parameters/ExAp01/sample22.txt 0.829101 3.09569 1.56121 0.148796 2.416
files/tasks_parameters/ExAp01/sample25.txt 0.733938 2.73966 1.5007 0.148149 2.40549
files/tasks_parameters/ExAp01/sample36.txt 0.716 2.85948 1.28553 0.130042 2.1115
files/tasks_parameters/ExAp01/sample46.txt 0.8798 3.58643 1.69998 0.210103 3.41144
files/tasks_parameters/ExAp01/sample31.txt 0.836187 3.4832 1.53782 0.1722 2.79601
files/tasks_parameters/ExAp01/sample37.txt 0.815965 3.95293 1.50705 0.171701 2.78791
files/tasks_parameters/ExAp01/sample16.txt 0.727211 3.31216 1.30115 0.150249 2.43959
files/tasks_parameters/ExAp01/sample10.txt 0.868545 3.17098 1.61789 0.153776 2.49687
files/tasks_parameters/ExAp01/sample39.txt 0.726635 3.26617 1.44406 0.165669 2.68996
files/tasks_parameters/ExAp01/sample19.txt 0.889918 3.63532 1.52509 0.196094 3.18398
files/tasks_parameters/ExAp01/sample20.txt 0.671463 3.20793 1.25367 0.147335 2.39228
files/tasks_parameters/ExAp01/sample43.txt 0.670886 3.11551 1.4202 0.150644 2.44601
files/tasks_parameters/ExAp01/sample32.txt 0.81612 3.5311 1.42482 0.168744 2.7399
files/tasks_parameters/ExAp01/sample45.txt 0.891936 3.80283 1.48324 0.19807 3.21607
files/tasks_parameters/ExAp01/sample26.txt 0.733469 3.21645 1.29701 0.166061 2.69634
files/tasks_parameters/ExAp01/sample5.txt 0.795842 3.5889 1.52559 0.178903 2.90485
files/tasks_parameters/ExAp01/sample21.txt 0.826141 2.75242 1.55936 0.19512 3.16817
files/tasks_parameters/ExAp01/sample38.txt 0.745038 3.31563 1.37515 0.166157 2.69789
files/tasks_parameters/ExAp01/sample1.txt 0.876921 3.74964 1.51696 0.19701 3.19884
files/tasks_parameters/ExAp01/sample15.txt 0.803735 3.32916 1.48508 0.180707 2.93415
files/tasks_parameters/ExAp01/sample24.txt 0.834759 3.45951 1.59549 0.16529 2.68382
files/tasks_parameters/ExAp01/sample3.txt 1.01361 3.70014 1.70809 0.237107 3.84991
files/tasks_parameters/ExAp01/sample6.txt 0.794572 3.33003 1.58323 0.184714 2.99921
files/tasks_parameters/ExAp01/sample30.txt 1.10166 4.1841 1.4861 0.239623 3.89076
files/tasks_parameters/ExAp01/sample42.txt 0.793448 3.43221 1.70276 0.177383 2.88016
files/tasks_parameters/ExAp01/sample4.txt 0.92764 3.72477 1.6136 0.196448 3.18973
files/tasks_parameters/ExAp01/sample28.txt 0.740363 3.11323 1.45032 0.158819 2.57874
files/tasks_parameters/ExAp01/sample18.txt 0.760803 3.47418 1.45209 0.149064 2.42035
files/tasks_parameters/ExAp01/sample35.txt 0.915582 4.57086 1.49394 0.185031 3.00434
files/tasks_parameters/ExAp01/sample47.txt 0.753462 3.13768 1.52397 0.16417 2.66563
files/tasks_parameters/ExAp01/sample49.txt 0.800325 3.13288 1.49657 0.156154 2.53547
files/tasks_parameters/ExAp01/sample41.txt 0.776718 2.81964 1.49636 0.150876 2.44977
