0.31230823
Task0 31 63 31 
Task1 31 31 31 
Task2 7 3 31 
Task3 15 127 127 
Task4 255 63 63 
Task5 31 255 3 
Task6 1 31 63 
Task7 127 255 15 
Task8 7 15 31 
Task9 63 7 7 
Task10 63 63 31 
Task11 63 31 31 
Task12 63 63 63 
Task13 3 255 15 
Task14 63 7 3 
Task15 31 63 7 
Task16 15 255 1 
Task17 7 255 1 
Task18 31 15 31 
Task19 31 255 15 
Task20 31 255 63 
Task21 31 7 15 
Task22 3 31 31 
Task23 63 7 63 
Task24 1 255 255 
Task25 255 127 255 
Task26 63 63 63 
Task27 7 7 31 
Task28 127 15 15 
Task29 255 31 127 
Task30 255 255 255 
Task31 3 15 255 
Task32 63 7 15 
Task33 255 31 3 
Task34 7 7 31 
Task35 15 15 31 
Task36 15 255 15 
Task37 127 63 63 
Task38 63 255 255 
Task39 255 7 7 
Task40 7 31 7 
Task41 31 7 1 
Task42 31 7 7 
Task43 63 1 31 
Task44 63 15 31 
Task45 63 7 63 
Task46 31 15 3 
Task47 63 63 1 
Task48 3 31 15 
Task49 7 15 63 
Task50 31 3 3 
Task51 1 255 3 
Task52 1 31 1 
Task53 7 31 15 
Task54 255 3 127 
Task55 255 255 1 
Task56 15 15 31 
Task57 15 255 1 
Task58 7 31 15 
Task59 7 15 63 
Task60 127 255 63 
Task61 7 1 31 
Task62 15 7 63 
Task63 31 63 15 
Task64 31 31 15 
Task65 7 255 63 
Task66 1 1 255 
Task67 7 15 31 
Task68 15 63 15 
Task69 127 255 127 
Task70 31 7 63 
Task71 63 15 7 
Task72 15 15 255 
Task73 255 7 63 
Task74 127 255 63 
Task75 31 31 7 
Task76 255 127 1 
Task77 63 31 3 
Task78 3 31 31 
Task79 31 1 63 
Task80 127 15 255 
Task81 3 31 3 
Task82 31 1 7 
Task83 1 31 1 
Task84 255 127 127 
Task85 127 7 63 
Task86 15 31 255 
Task87 255 15 63 
Task88 255 255 31 
Task89 63 31 3 
Task90 15 31 3 
Task91 255 15 63 
Task92 127 255 31 
Task93 255 3 7 
Task94 255 255 255 
Task95 3 255 31 
Task96 3 255 63 
Task97 7 7 15 
Task98 1 63 63 
Task99 15 1 255 
