files/tasks_parameters/ExAp01/sample8.txt 1.08438 7.2562 4.46819 0.454772 9.50627
files/tasks_parameters/ExAp01/sample12.txt 1.45739 9.70908 5.28286 0.618515 12.929
files/tasks_parameters/ExAp01/sample2.txt 1.42703 8.14159 5.7401 0.620531 12.9712
files/tasks_parameters/ExAp01/sample44.txt 1.31104 7.25164 5.75904 0.557631 11.6564
files/tasks_parameters/ExAp01/sample27.txt 1.33008 8.10944 5.64946 0.564878 11.8079
files/tasks_parameters/ExAp01/sample17.txt 1.24399 7.11225 5.46658 0.527183 11.0199
files/tasks_parameters/ExAp01/sample9.txt 1.19966 7.62559 5.37813 0.517277 10.8128
files/tasks_parameters/ExAp01/sample34.txt 1.24653 7.04587 5.93037 0.497709 10.4038
files/tasks_parameters/ExAp01/sample40.txt 1.17795 8.03037 5.123 0.502383 10.5015
files/tasks_parameters/ExAp01/sample33.txt 1.49757 9.22935 5.92956 0.659262 13.7808
files/tasks_parameters/ExAp01/sample48.txt 1.07604 8.12182 5.1577 0.452491 9.45857
files/tasks_parameters/ExAp01/sample29.txt 1.4686 8.06133 5.12331 0.650652 13.6008
files/tasks_parameters/ExAp01/sample11.txt 1.29541 7.63104 5.37897 0.563302 11.7749
files/tasks_parameters/ExAp01/sample14.txt 1.12247 6.66403 4.66322 0.471536 9.85669
files/tasks_parameters/ExAp01/sample0.txt 1.46978 9.3266 4.98971 0.6311 13.1921
files/tasks_parameters/ExAp01/sample7.txt 1.20632 7.34863 5.19436 0.515527 10.7763
files/tasks_parameters/ExAp01/sample23.txt 1.37212 6.68564 5.54308 0.588617 12.3041
files/tasks_parameters/ExAp01/sample13.txt 1.47527 9.31093 5.35591 0.632849 13.2287
files/tasks_parameters/ExAp01/sample22.txt 1.2766 7.65588 5.04866 0.540336 11.2948
files/tasks_parameters/ExAp01/sample25.txt 1.03386 6.17035 5.0141 0.408296 8.53476
files/tasks_parameters/ExAp01/sample36.txt 1.20385 7.03772 4.66274 0.507647 10.6115
files/tasks_parameters/ExAp01/sample46.txt 1.25959 7.73433 4.79934 0.536843 11.2218
files/tasks_parameters/ExAp01/sample31.txt 1.18138 6.96928 5.16482 0.485817 10.1552
files/tasks_parameters/ExAp01/sample37.txt 1.51361 9.52443 5.74224 0.65799 13.7542
files/tasks_parameters/ExAp01/sample16.txt 1.33186 8.63521 4.97261 0.516328 10.793
files/tasks_parameters/ExAp01/sample10.txt 1.42202 7.28353 6.16876 0.615651 12.8692
files/tasks_parameters/ExAp01/sample39.txt 1.11776 6.3405 4.6137 0.468873 9.80103
files/tasks_parameters/ExAp01/sample19.txt 1.41173 8.85528 5.22306 0.622152 13.0051
files/tasks_parameters/ExAp01/sample20.txt 1.34477 8.1141 5.21177 0.586994 12.2701
files/tasks_parameters/ExAp01/sample43.txt 1.25871 7.21373 5.6367 0.53748 11.2351
files/tasks_parameters/ExAp01/sample32.txt 1.38484 8.30592 5.38137 0.593918 12.4149
files/tasks_parameters/ExAp01/sample45.txt 1.25153 7.94069 4.96323 0.547271 11.4398
files/tasks_parameters/ExAp01/sample26.txt 1.12871 7.57061 4.62637 0.480146 10.0367
files/tasks_parameters/ExAp01/sample5.txt 1.37681 8.0307 5.35681 0.59407 12.4181
files/tasks_parameters/ExAp01/sample21.txt 1.03094 5.87802 4.61744 0.434264 9.07758
files/tasks_parameters/ExAp01/sample38.txt 1.14567 7.66999 4.86632 0.496808 10.385
files/tasks_parameters/ExAp01/sample1.txt 1.13979 7.21312 4.63213 0.486293 10.1652
files/tasks_parameters/ExAp01/sample15.txt 1.2576 8.02273 5.50855 0.531063 11.101
files/tasks_parameters/ExAp01/sample24.txt 1.29446 8.66348 5.4905 0.548998 11.4759
files/tasks_parameters/ExAp01/sample3.txt 1.13377 7.74268 4.79918 0.477387 9.97899
files/tasks_parameters/ExAp01/sample6.txt 1.4424 8.57133 5.80157 0.633604 13.2445
files/tasks_parameters/ExAp01/sample30.txt 1.5341 8.18878 5.90888 0.633576 13.2439
files/tasks_parameters/ExAp01/sample42.txt 1.32203 8.57689 5.67253 0.54426 11.3769
files/tasks_parameters/ExAp01/sample4.txt 1.29903 8.40354 4.57985 0.563519 11.7794
files/tasks_parameters/ExAp01/sample28.txt 1.05034 6.44114 4.96426 0.449721 9.40069
files/tasks_parameters/ExAp01/sample18.txt 1.29604 8.56363 4.60946 0.543766 11.3665
files/tasks_parameters/ExAp01/sample35.txt 1.79092 11.0387 6.34514 0.761377 15.9153
files/tasks_parameters/ExAp01/sample47.txt 1.23894 7.14493 5.22131 0.545046 11.3933
files/tasks_parameters/ExAp01/sample49.txt 1.2305 6.65996 4.80244 0.498533 10.421
files/tasks_parameters/ExAp01/sample41.txt 1.1553 7.09069 5.35462 0.497129 10.3917
