0.31596734
Task0 15 15 15 
Task1 7 31 15 
Task2 63 31 3 
Task3 7 3 31 
Task4 3 7 31 
Task5 31 63 3 
Task6 7 63 15 
Task7 15 63 7 
Task8 63 3 7 
Task9 63 63 3 
Task10 15 15 15 
Task11 255 15 255 
Task12 63 63 63 
Task13 3 15 3 
Task14 127 31 3 
Task15 31 15 31 
Task16 1 3 31 
Task17 63 7 31 
Task18 1 15 63 
Task19 15 31 63 
Task20 15 15 3 
Task21 63 7 15 
Task22 31 7 15 
Task23 63 63 63 
Task24 15 15 7 
Task25 31 15 15 
Task26 15 7 31 
Task27 15 1 15 
Task28 1 15 3 
Task29 127 127 255 
Task30 3 31 31 
Task31 31 31 63 
Task32 3 3 15 
Task33 3 31 3 
Task34 3 31 15 
Task35 3 15 63 
Task36 15 15 15 
Task37 15 7 7 
Task38 255 255 127 
Task39 3 3 15 
Task40 15 15 3 
Task41 31 15 31 
Task42 127 7 255 
Task43 3 31 7 
Task44 31 1 31 
Task45 127 31 3 
Task46 1 15 31 
Task47 3 63 15 
Task48 7 1 15 
Task49 31 15 15 
Task50 3 15 15 
Task51 15 7 63 
Task52 31 63 63 
Task53 15 31 127 
Task54 15 3 3 
Task55 1 31 15 
Task56 255 127 15 
Task57 31 3 255 
Task58 127 63 63 
Task59 3 31 7 
Task60 15 15 31 
Task61 3 15 15 
Task62 31 63 7 
Task63 1 63 15 
Task64 15 15 31 
Task65 31 3 15 
Task66 1 3 31 
Task67 15 31 1 
Task68 15 1 1 
Task69 63 1 15 
Task70 255 7 127 
Task71 15 7 31 
Task72 3 3 63 
Task73 31 7 3 
Task74 1 63 15 
Task75 7 15 31 
Task76 63 255 63 
Task77 63 1 7 
Task78 63 7 15 
Task79 31 31 3 
Task80 1 7 63 
Task81 255 1 15 
Task82 15 63 15 
Task83 15 15 31 
Task84 255 255 127 
Task85 3 1 15 
Task86 1 31 15 
Task87 15 3 31 
Task88 31 7 31 
Task89 63 7 15 
Task90 15 1 31 
Task91 7 31 1 
Task92 31 3 15 
Task93 15 1 255 
Task94 15 63 1 
Task95 63 7 3 
Task96 63 31 1 
Task97 31 1 15 
Task98 7 15 31 
Task99 31 15 63 
