files/tasks_parameters/ExAp01/sample8.txt 0.80027 3.15778 1.5595 0.203411 4.77336
files/tasks_parameters/ExAp01/sample12.txt 0.809462 3.94962 1.6705 0.207924 4.87926
files/tasks_parameters/ExAp01/sample2.txt 0.814543 3.78275 1.74131 0.200098 4.6956
files/tasks_parameters/ExAp01/sample44.txt 0.671198 3.59825 1.65317 0.200005 4.69343
files/tasks_parameters/ExAp01/sample27.txt 0.6805 3.45743 1.5148 0.182129 4.27393
files/tasks_parameters/ExAp01/sample17.txt 0.825598 2.77299 1.44514 0.14646 3.43691
files/tasks_parameters/ExAp01/sample9.txt 0.742188 2.99933 1.451 0.177444 4.16399
files/tasks_parameters/ExAp01/sample34.txt 0.82455 3.02928 1.58429 0.157984 3.70733
files/tasks_parameters/ExAp01/sample40.txt 0.765105 3.86889 1.52122 0.168379 3.95128
files/tasks_parameters/ExAp01/sample33.txt 0.807489 3.63695 1.71905 0.199765 4.6878
files/tasks_parameters/ExAp01/sample48.txt 0.682426 3.39061 1.49062 0.154728 3.63094
files/tasks_parameters/ExAp01/sample29.txt 0.841011 3.30472 1.38739 0.223868 5.25342
files/tasks_parameters/ExAp01/sample11.txt 0.707448 3.10585 1.41612 0.174079 4.08503
files/tasks_parameters/ExAp01/sample14.txt 0.684889 2.70971 1.43432 0.162214 3.80661
files/tasks_parameters/ExAp01/sample0.txt 0.74388 3.6937 1.5439 0.18367 4.3101
files/tasks_parameters/ExAp01/sample7.txt 0.778871 2.70501 1.42221 0.143463 3.36659
files/tasks_parameters/ExAp01/sample23.txt 0.758686 3.2697 1.57822 0.181448 4.25797
files/tasks_parameters/ExAp01/sample13.txt 0.729548 3.84225 1.67648 0.198247 4.65218
files/tasks_parameters/ExAp01/sample22.txt 0.786619 3.09569 1.56121 0.148796 3.49173
files/tasks_parameters/ExAp01/sample25.txt 0.727641 2.73966 1.5007 0.148149 3.47654
files/tasks_parameters/ExAp01/sample36.txt 0.751568 2.85948 1.28553 0.130042 3.05164
files/tasks_parameters/ExAp01/sample46.txt 0.760816 3.58643 1.69998 0.210103 4.93039
files/tasks_parameters/ExAp01/sample31.txt 0.683855 3.4832 1.53782 0.1722 4.04094
files/tasks_parameters/ExAp01/sample37.txt 0.765986 3.95293 1.50705 0.171701 4.02923
files/tasks_parameters/ExAp01/sample16.txt 0.613636 3.31216 1.30115 0.150249 3.52583
files/tasks_parameters/ExAp01/sample10.txt 0.953229 3.17098 1.61789 0.153776 3.6086
files/tasks_parameters/ExAp01/sample39.txt 0.728882 3.26617 1.44406 0.165669 3.88767
files/tasks_parameters/ExAp01/sample19.txt 0.743421 3.63532 1.52509 0.196094 4.60166
files/tasks_parameters/ExAp01/sample20.txt 0.662661 3.20793 1.25367 0.147335 3.45745
files/tasks_parameters/ExAp01/sample43.txt 0.646585 3.11551 1.4202 0.150644 3.53511
files/tasks_parameters/ExAp01/sample32.txt 0.722684 3.5311 1.42482 0.168744 3.95985
files/tasks_parameters/ExAp01/sample45.txt 0.792722 3.80283 1.48324 0.19807 4.64803
files/tasks_parameters/ExAp01/sample26.txt 0.652707 3.21645 1.29701 0.166061 3.89689
files/tasks_parameters/ExAp01/sample5.txt 0.681578 3.5889 1.52559 0.178903 4.19825
files/tasks_parameters/ExAp01/sample21.txt 0.745655 2.75242 1.55936 0.19512 4.5788
files/tasks_parameters/ExAp01/sample38.txt 0.676658 3.31563 1.37515 0.166157 3.89913
files/tasks_parameters/ExAp01/sample1.txt 0.69325 3.74964 1.51696 0.19701 4.62314
files/tasks_parameters/ExAp01/sample15.txt 0.69633 3.32916 1.48508 0.180707 4.24058
files/tasks_parameters/ExAp01/sample24.txt 0.811179 3.45951 1.59549 0.16529 3.8788
files/tasks_parameters/ExAp01/sample3.txt 0.972852 3.70014 1.70809 0.237107 5.56409
files/tasks_parameters/ExAp01/sample6.txt 0.712932 3.33003 1.58323 0.184714 4.33461
files/tasks_parameters/ExAp01/sample30.txt 0.962889 4.1841 1.4861 0.239623 5.62313
files/tasks_parameters/ExAp01/sample42.txt 0.747833 3.43221 1.70276 0.177383 4.16257
files/tasks_parameters/ExAp01/sample4.txt 0.812239 3.72477 1.6136 0.196448 4.60996
files/tasks_parameters/ExAp01/sample28.txt 0.689545 3.11323 1.45032 0.158819 3.72694
files/tasks_parameters/ExAp01/sample18.txt 0.764248 3.47418 1.45209 0.149064 3.49801
files/tasks_parameters/ExAp01/sample35.txt 0.802742 4.57086 1.49394 0.185031 4.34203
files/tasks_parameters/ExAp01/sample47.txt 0.697539 3.13768 1.52397 0.16417 3.85251
files/tasks_parameters/ExAp01/sample49.txt 0.766167 3.13288 1.49657 0.156154 3.6644
files/tasks_parameters/ExAp01/sample41.txt 0.763147 2.81964 1.49636 0.150876 3.54054
