files/tasks_parameters/ExAp01/sample8.txt 1.1178 7.2562 4.46819 0.454772 10.0568
files/tasks_parameters/ExAp01/sample12.txt 1.64179 9.70908 5.28286 0.618515 13.6777
files/tasks_parameters/ExAp01/sample2.txt 1.52666 8.14159 5.7401 0.620531 13.7223
files/tasks_parameters/ExAp01/sample44.txt 1.39817 7.25164 5.75904 0.557631 12.3314
files/tasks_parameters/ExAp01/sample27.txt 1.3183 8.10944 5.64946 0.564878 12.4916
files/tasks_parameters/ExAp01/sample17.txt 1.26975 7.11225 5.46658 0.527183 11.6581
files/tasks_parameters/ExAp01/sample9.txt 1.21424 7.62559 5.37813 0.517277 11.439
files/tasks_parameters/ExAp01/sample34.txt 1.2448 7.04587 5.93037 0.497709 11.0063
files/tasks_parameters/ExAp01/sample40.txt 1.22744 8.03037 5.123 0.502383 11.1096
files/tasks_parameters/ExAp01/sample33.txt 1.63735 9.22935 5.92956 0.659262 14.5788
files/tasks_parameters/ExAp01/sample48.txt 1.15844 8.12182 5.1577 0.452491 10.0063
files/tasks_parameters/ExAp01/sample29.txt 1.55538 8.06133 5.12331 0.650652 14.3884
files/tasks_parameters/ExAp01/sample11.txt 1.35889 7.63104 5.37897 0.563302 12.4568
files/tasks_parameters/ExAp01/sample14.txt 1.13168 6.66403 4.66322 0.471536 10.4275
files/tasks_parameters/ExAp01/sample0.txt 1.64568 9.3266 4.98971 0.6311 13.956
files/tasks_parameters/ExAp01/sample7.txt 1.30135 7.34863 5.19436 0.515527 11.4003
files/tasks_parameters/ExAp01/sample23.txt 1.40549 6.68564 5.54308 0.588617 13.0166
files/tasks_parameters/ExAp01/sample13.txt 1.65236 9.31093 5.35591 0.632849 13.9947
files/tasks_parameters/ExAp01/sample22.txt 1.29523 7.65588 5.04866 0.540336 11.9489
files/tasks_parameters/ExAp01/sample25.txt 1.0295 6.17035 5.0141 0.408296 9.02899
files/tasks_parameters/ExAp01/sample36.txt 1.19007 7.03772 4.66274 0.507647 11.226
files/tasks_parameters/ExAp01/sample46.txt 1.35236 7.73433 4.79934 0.536843 11.8717
files/tasks_parameters/ExAp01/sample31.txt 1.19045 6.96928 5.16482 0.485817 10.7433
files/tasks_parameters/ExAp01/sample37.txt 1.63295 9.52443 5.74224 0.65799 14.5507
files/tasks_parameters/ExAp01/sample16.txt 1.4392 8.63521 4.97261 0.516328 11.418
files/tasks_parameters/ExAp01/sample10.txt 1.39877 7.28353 6.16876 0.615651 13.6144
files/tasks_parameters/ExAp01/sample39.txt 1.14417 6.3405 4.6137 0.468873 10.3686
files/tasks_parameters/ExAp01/sample19.txt 1.63063 8.85528 5.22306 0.622152 13.7582
files/tasks_parameters/ExAp01/sample20.txt 1.39424 8.1141 5.21177 0.586994 12.9807
files/tasks_parameters/ExAp01/sample43.txt 1.30697 7.21373 5.6367 0.53748 11.8857
files/tasks_parameters/ExAp01/sample32.txt 1.60348 8.30592 5.38137 0.593918 13.1338
files/tasks_parameters/ExAp01/sample45.txt 1.42258 7.94069 4.96323 0.547271 12.1023
files/tasks_parameters/ExAp01/sample26.txt 1.12689 7.57061 4.62637 0.480146 10.6179
files/tasks_parameters/ExAp01/sample5.txt 1.49405 8.0307 5.35681 0.59407 13.1372
files/tasks_parameters/ExAp01/sample21.txt 1.02755 5.87802 4.61744 0.434264 9.60325
files/tasks_parameters/ExAp01/sample38.txt 1.18499 7.66999 4.86632 0.496808 10.9863
files/tasks_parameters/ExAp01/sample1.txt 1.18398 7.21312 4.63213 0.486293 10.7538
files/tasks_parameters/ExAp01/sample15.txt 1.28125 8.02273 5.50855 0.531063 11.7438
files/tasks_parameters/ExAp01/sample24.txt 1.3882 8.66348 5.4905 0.548998 12.1405
files/tasks_parameters/ExAp01/sample3.txt 1.18752 7.74268 4.79918 0.477387 10.5569
files/tasks_parameters/ExAp01/sample6.txt 1.5058 8.57133 5.80157 0.633604 14.0114
files/tasks_parameters/ExAp01/sample30.txt 1.64711 8.18878 5.90888 0.633576 14.0108
files/tasks_parameters/ExAp01/sample42.txt 1.30673 8.57689 5.67253 0.54426 12.0357
files/tasks_parameters/ExAp01/sample4.txt 1.34322 8.40354 4.57985 0.563519 12.4616
files/tasks_parameters/ExAp01/sample28.txt 1.07455 6.44114 4.96426 0.449721 9.94507
files/tasks_parameters/ExAp01/sample18.txt 1.30933 8.56363 4.60946 0.543766 12.0248
files/tasks_parameters/ExAp01/sample35.txt 1.98297 11.0387 6.34514 0.761377 16.837
files/tasks_parameters/ExAp01/sample47.txt 1.32345 7.14493 5.22131 0.545046 12.0531
files/tasks_parameters/ExAp01/sample49.txt 1.32767 6.65996 4.80244 0.498533 11.0245
files/tasks_parameters/ExAp01/sample41.txt 1.18983 7.09069 5.35462 0.497129 10.9934
