files/tasks_parameters/ExAp01/sample8.txt 1.16275 6.77015 2.19458 0.288816 8.93043
files/tasks_parameters/ExAp01/sample12.txt 1.33385 9.58351 2.46081 0.337498 10.4357
files/tasks_parameters/ExAp01/sample2.txt 1.14494 8.44418 2.50701 0.319127 9.86767
files/tasks_parameters/ExAp01/sample44.txt 1.06953 6.96299 2.23089 0.28229 8.72864
files/tasks_parameters/ExAp01/sample27.txt 1.03715 7.74306 2.16676 0.28602 8.84396
files/tasks_parameters/ExAp01/sample17.txt 1.10084 7.35053 2.25579 0.292348 9.03962
files/tasks_parameters/ExAp01/sample9.txt 1.03323 6.89392 2.21068 0.282399 8.732
files/tasks_parameters/ExAp01/sample34.txt 1.09236 6.62788 2.3772 0.297742 9.20641
files/tasks_parameters/ExAp01/sample40.txt 1.04614 7.75686 2.17534 0.285619 8.83158
files/tasks_parameters/ExAp01/sample33.txt 1.345 8.14826 2.6463 0.338073 10.4535
files/tasks_parameters/ExAp01/sample48.txt 1.02641 7.64107 2.14272 0.270011 8.34896
files/tasks_parameters/ExAp01/sample29.txt 0.989032 7.139 1.93769 0.286306 8.8528
files/tasks_parameters/ExAp01/sample11.txt 1.05428 6.88688 2.12981 0.280008 8.65808
files/tasks_parameters/ExAp01/sample14.txt 0.897212 6.11983 1.97599 0.247458 7.65159
files/tasks_parameters/ExAp01/sample0.txt 1.03386 8.2738 2.14256 0.289132 8.94019
files/tasks_parameters/ExAp01/sample7.txt 1.01249 6.87011 2.05821 0.269886 8.34508
files/tasks_parameters/ExAp01/sample23.txt 1.11293 6.52032 2.38087 0.291712 9.01996
files/tasks_parameters/ExAp01/sample13.txt 1.17699 8.73247 2.33415 0.295393 9.13378
files/tasks_parameters/ExAp01/sample22.txt 1.05983 6.9777 2.28948 0.283979 8.78086
files/tasks_parameters/ExAp01/sample25.txt 1.08236 6.23444 2.2122 0.267298 8.26506
files/tasks_parameters/ExAp01/sample36.txt 0.9885 6.6174 1.9458 0.253823 7.8484
files/tasks_parameters/ExAp01/sample46.txt 1.20312 7.42369 2.49128 0.327273 10.1195
files/tasks_parameters/ExAp01/sample31.txt 0.966669 7.22028 2.13584 0.25377 7.84677
files/tasks_parameters/ExAp01/sample37.txt 1.16883 8.90704 2.16981 0.295708 9.14353
files/tasks_parameters/ExAp01/sample16.txt 1.08756 8.18243 1.88294 0.24945 7.71319
files/tasks_parameters/ExAp01/sample10.txt 1.08597 6.96646 2.31217 0.285748 8.83556
files/tasks_parameters/ExAp01/sample39.txt 0.965541 6.4161 1.97266 0.251967 7.79101
files/tasks_parameters/ExAp01/sample19.txt 1.19213 8.16711 2.23199 0.308463 9.53792
files/tasks_parameters/ExAp01/sample20.txt 0.916194 7.28549 1.88944 0.25994 8.03755
files/tasks_parameters/ExAp01/sample43.txt 0.943611 6.86804 2.00142 0.25616 7.92068
files/tasks_parameters/ExAp01/sample32.txt 1.02008 8.15663 2.12995 0.281726 8.71121
files/tasks_parameters/ExAp01/sample45.txt 1.01348 7.75184 2.10599 0.274935 8.50121
files/tasks_parameters/ExAp01/sample26.txt 0.989333 7.4944 1.88956 0.267248 8.26352
files/tasks_parameters/ExAp01/sample5.txt 1.23177 8.08362 2.09961 0.28454 8.79821
files/tasks_parameters/ExAp01/sample21.txt 0.90773 6.11814 2.17119 0.26143 8.08361
files/tasks_parameters/ExAp01/sample38.txt 0.999172 7.761 1.96293 0.263659 8.15254
files/tasks_parameters/ExAp01/sample1.txt 1.04034 7.83752 2.13261 0.289228 8.94317
files/tasks_parameters/ExAp01/sample15.txt 1.00665 7.37971 2.12057 0.285825 8.83795
files/tasks_parameters/ExAp01/sample24.txt 1.08775 8.28531 2.25272 0.296628 9.17199
files/tasks_parameters/ExAp01/sample3.txt 1.11891 7.33359 2.39135 0.305084 9.43346
files/tasks_parameters/ExAp01/sample6.txt 1.06207 7.09894 2.24425 0.281804 8.71361
files/tasks_parameters/ExAp01/sample30.txt 1.15923 8.17669 2.03701 0.299204 9.25164
files/tasks_parameters/ExAp01/sample42.txt 1.11169 7.70416 2.42413 0.29743 9.19677
files/tasks_parameters/ExAp01/sample4.txt 1.15597 7.41691 2.36261 0.307803 9.51751
files/tasks_parameters/ExAp01/sample28.txt 0.981906 7.0562 2.07657 0.266428 8.23817
files/tasks_parameters/ExAp01/sample18.txt 1.12812 7.60139 2.1377 0.268016 8.28727
files/tasks_parameters/ExAp01/sample35.txt 1.24126 9.66795 2.28028 0.32244 9.97009
files/tasks_parameters/ExAp01/sample47.txt 0.9506 6.84842 2.12104 0.251655 7.78137
files/tasks_parameters/ExAp01/sample49.txt 0.982014 7.1497 2.11412 0.255889 7.91229
files/tasks_parameters/ExAp01/sample41.txt 0.969024 6.59911 2.07359 0.265885 8.22139
