files/tasks_parameters/ExAp01/sample8.txt 1.08756 3.76817 4.3855 0.450105 26.9547
files/tasks_parameters/ExAp01/sample12.txt 1.54936 5.03638 5.18776 0.610564 36.5639
files/tasks_parameters/ExAp01/sample2.txt 1.43554 4.58991 5.64606 0.613877 36.7623
files/tasks_parameters/ExAp01/sample44.txt 1.29746 3.77401 5.66946 0.551838 33.047
files/tasks_parameters/ExAp01/sample27.txt 1.30617 4.13937 5.56136 0.55779 33.4034
files/tasks_parameters/ExAp01/sample17.txt 1.20569 3.76163 5.38341 0.520991 31.1998
files/tasks_parameters/ExAp01/sample9.txt 1.18988 3.69889 5.2981 0.511699 30.6433
files/tasks_parameters/ExAp01/sample34.txt 1.13513 3.52435 5.83741 0.49187 29.4558
files/tasks_parameters/ExAp01/sample40.txt 1.1689 4.06185 5.0335 0.496884 29.7561
files/tasks_parameters/ExAp01/sample33.txt 1.55311 4.82091 5.83886 0.651963 39.043
files/tasks_parameters/ExAp01/sample48.txt 1.08819 4.01134 5.07085 0.447927 26.8243
files/tasks_parameters/ExAp01/sample29.txt 1.55186 4.20847 5.0406 0.643694 38.5479
files/tasks_parameters/ExAp01/sample11.txt 1.34715 3.94699 5.29198 0.557276 33.3727
files/tasks_parameters/ExAp01/sample14.txt 1.09134 3.54059 4.58345 0.466713 27.9493
files/tasks_parameters/ExAp01/sample0.txt 1.55893 4.82755 4.90216 0.623551 37.3416
files/tasks_parameters/ExAp01/sample7.txt 1.17688 3.60766 5.11185 0.509566 30.5155
files/tasks_parameters/ExAp01/sample23.txt 1.45394 3.81403 5.45799 0.582911 34.9079
files/tasks_parameters/ExAp01/sample13.txt 1.4773 4.8894 5.26818 0.624499 37.3984
files/tasks_parameters/ExAp01/sample22.txt 1.29087 3.76156 4.95746 0.534216 31.9918
files/tasks_parameters/ExAp01/sample25.txt 1.03517 2.94144 4.92622 0.403639 24.1721
files/tasks_parameters/ExAp01/sample36.txt 1.20967 3.56164 4.5806 0.501799 30.0504
files/tasks_parameters/ExAp01/sample46.txt 1.24408 3.84833 4.7121 0.530701 31.7812
files/tasks_parameters/ExAp01/sample31.txt 1.13488 3.764 5.08385 0.479734 28.7291
files/tasks_parameters/ExAp01/sample37.txt 1.52556 4.43254 5.65111 0.65143 39.0112
files/tasks_parameters/ExAp01/sample16.txt 1.30858 4.49741 4.8895 0.509171 30.4919
files/tasks_parameters/ExAp01/sample10.txt 1.37558 3.87086 6.07511 0.60993 36.5259
files/tasks_parameters/ExAp01/sample39.txt 1.09164 3.66299 4.54281 0.463671 27.7671
files/tasks_parameters/ExAp01/sample19.txt 1.52413 3.86694 5.14047 0.615987 36.8886
files/tasks_parameters/ExAp01/sample20.txt 1.38695 4.09945 5.13368 0.580369 34.7556
files/tasks_parameters/ExAp01/sample43.txt 1.1552 3.75825 5.55698 0.530892 31.7927
files/tasks_parameters/ExAp01/sample32.txt 1.51497 4.0352 5.29178 0.587643 35.1913
files/tasks_parameters/ExAp01/sample45.txt 1.24045 3.94578 4.87833 0.541081 32.4029
files/tasks_parameters/ExAp01/sample26.txt 1.11259 3.50998 4.55035 0.474009 28.3862
files/tasks_parameters/ExAp01/sample5.txt 1.41297 4.00994 5.27725 0.587681 35.1935
files/tasks_parameters/ExAp01/sample21.txt 0.936791 2.8974 4.54677 0.430037 25.753
files/tasks_parameters/ExAp01/sample38.txt 1.16772 3.56689 4.78573 0.492366 29.4856
files/tasks_parameters/ExAp01/sample1.txt 1.16246 3.69002 4.55048 0.481074 28.8093
files/tasks_parameters/ExAp01/sample15.txt 1.19455 3.73223 5.42493 0.524964 31.4377
files/tasks_parameters/ExAp01/sample24.txt 1.37104 4.18053 5.40377 0.542575 32.4923
files/tasks_parameters/ExAp01/sample3.txt 1.15298 3.70547 4.7118 0.470503 28.1763
files/tasks_parameters/ExAp01/sample6.txt 1.45728 4.07521 5.71419 0.626702 37.5303
files/tasks_parameters/ExAp01/sample30.txt 1.49351 3.97446 5.82388 0.626709 37.5307
files/tasks_parameters/ExAp01/sample42.txt 1.28507 4.44207 5.58473 0.537025 32.1599
files/tasks_parameters/ExAp01/sample4.txt 1.28884 3.92181 4.49751 0.556974 33.3546
files/tasks_parameters/ExAp01/sample28.txt 1.07188 3.13496 4.88321 0.444588 26.6243
files/tasks_parameters/ExAp01/sample18.txt 1.2855 3.95301 4.52898 0.537438 32.1847
files/tasks_parameters/ExAp01/sample35.txt 2.04424 5.75923 6.25034 0.752488 45.063
files/tasks_parameters/ExAp01/sample47.txt 1.15735 3.44018 5.14289 0.540033 32.3401
files/tasks_parameters/ExAp01/sample49.txt 1.16108 3.38981 4.72409 0.493041 29.526
files/tasks_parameters/ExAp01/sample41.txt 1.14347 3.58692 5.27252 0.492391 29.487
