files/tasks_parameters/ExAp01/sample8.txt 1.04764 6.77015 2.19458 0.288816 6.08072
files/tasks_parameters/ExAp01/sample12.txt 1.26691 9.58351 2.46081 0.337498 7.10567
files/tasks_parameters/ExAp01/sample2.txt 1.1777 8.44418 2.50701 0.319127 6.71889
files/tasks_parameters/ExAp01/sample44.txt 1.02622 6.96299 2.23089 0.28229 5.94333
files/tasks_parameters/ExAp01/sample27.txt 1.08647 7.74306 2.16676 0.28602 6.02185
files/tasks_parameters/ExAp01/sample17.txt 1.08859 7.35053 2.25579 0.292348 6.15507
files/tasks_parameters/ExAp01/sample9.txt 1.06859 6.89392 2.21068 0.282399 5.94561
files/tasks_parameters/ExAp01/sample34.txt 1.06883 6.62788 2.3772 0.297742 6.26864
files/tasks_parameters/ExAp01/sample40.txt 1.02595 7.75686 2.17534 0.285619 6.01341
files/tasks_parameters/ExAp01/sample33.txt 1.23058 8.14826 2.6463 0.338073 7.11777
files/tasks_parameters/ExAp01/sample48.txt 0.984006 7.64107 2.14272 0.270011 5.6848
files/tasks_parameters/ExAp01/sample29.txt 1.0891 7.139 1.93769 0.286306 6.02786
files/tasks_parameters/ExAp01/sample11.txt 1.00696 6.88688 2.12981 0.280008 5.89528
files/tasks_parameters/ExAp01/sample14.txt 0.899111 6.11983 1.97599 0.247458 5.20996
files/tasks_parameters/ExAp01/sample0.txt 1.08096 8.2738 2.14256 0.289132 6.08736
files/tasks_parameters/ExAp01/sample7.txt 1.02279 6.87011 2.05821 0.269886 5.68215
files/tasks_parameters/ExAp01/sample23.txt 1.12183 6.52032 2.38087 0.291712 6.14168
files/tasks_parameters/ExAp01/sample13.txt 1.11057 8.73247 2.33415 0.295393 6.21918
files/tasks_parameters/ExAp01/sample22.txt 1.08336 6.9777 2.28948 0.283979 5.97888
files/tasks_parameters/ExAp01/sample25.txt 0.962302 6.23444 2.2122 0.267298 5.62767
files/tasks_parameters/ExAp01/sample36.txt 0.941401 6.6174 1.9458 0.253823 5.34397
files/tasks_parameters/ExAp01/sample46.txt 1.25924 7.42369 2.49128 0.327273 6.89039
files/tasks_parameters/ExAp01/sample31.txt 0.971824 7.22028 2.13584 0.25377 5.34286
files/tasks_parameters/ExAp01/sample37.txt 1.1376 8.90704 2.16981 0.295708 6.22582
files/tasks_parameters/ExAp01/sample16.txt 0.938579 8.18243 1.88294 0.24945 5.2519
files/tasks_parameters/ExAp01/sample10.txt 1.10185 6.96646 2.31217 0.285748 6.01612
files/tasks_parameters/ExAp01/sample39.txt 0.91849 6.4161 1.97266 0.251967 5.30489
files/tasks_parameters/ExAp01/sample19.txt 1.16971 8.16711 2.23199 0.308463 6.49436
files/tasks_parameters/ExAp01/sample20.txt 0.939962 7.28549 1.88944 0.25994 5.47276
files/tasks_parameters/ExAp01/sample43.txt 0.928292 6.86804 2.00142 0.25616 5.39318
files/tasks_parameters/ExAp01/sample32.txt 1.06939 8.15663 2.12995 0.281726 5.93145
files/tasks_parameters/ExAp01/sample45.txt 1.08447 7.75184 2.10599 0.274935 5.78846
files/tasks_parameters/ExAp01/sample26.txt 0.984323 7.4944 1.88956 0.267248 5.62662
files/tasks_parameters/ExAp01/sample5.txt 1.07165 8.08362 2.09961 0.28454 5.9907
files/tasks_parameters/ExAp01/sample21.txt 0.971202 6.11814 2.17119 0.26143 5.50412
files/tasks_parameters/ExAp01/sample38.txt 0.977783 7.761 1.96293 0.263659 5.55106
files/tasks_parameters/ExAp01/sample1.txt 1.08976 7.83752 2.13261 0.289228 6.08939
files/tasks_parameters/ExAp01/sample15.txt 1.05311 7.37971 2.12057 0.285825 6.01775
files/tasks_parameters/ExAp01/sample24.txt 1.08672 8.28531 2.25272 0.296628 6.2452
files/tasks_parameters/ExAp01/sample3.txt 1.13312 7.33359 2.39135 0.305084 6.42323
files/tasks_parameters/ExAp01/sample6.txt 1.04492 7.09894 2.24425 0.281804 5.93309
files/tasks_parameters/ExAp01/sample30.txt 1.20533 8.17669 2.03701 0.299204 6.29943
files/tasks_parameters/ExAp01/sample42.txt 1.1249 7.70416 2.42413 0.29743 6.26207
files/tasks_parameters/ExAp01/sample4.txt 1.16946 7.41691 2.36261 0.307803 6.48046
files/tasks_parameters/ExAp01/sample28.txt 0.994911 7.0562 2.07657 0.266428 5.60936
files/tasks_parameters/ExAp01/sample18.txt 0.983283 7.60139 2.1377 0.268016 5.64279
files/tasks_parameters/ExAp01/sample35.txt 1.22181 9.66795 2.28028 0.32244 6.78863
files/tasks_parameters/ExAp01/sample47.txt 0.918308 6.84842 2.12104 0.251655 5.29832
files/tasks_parameters/ExAp01/sample49.txt 0.95673 7.1497 2.11412 0.255889 5.38747
files/tasks_parameters/ExAp01/sample41.txt 0.964468 6.59911 2.07359 0.265885 5.59794
