files/tasks_parameters/ExAp01/sample8.txt 1.09897 7.2562 4.46819 0.454772 8.78679
files/tasks_parameters/ExAp01/sample12.txt 1.53916 9.70908 5.28286 0.618515 11.9505
files/tasks_parameters/ExAp01/sample2.txt 1.48331 8.14159 5.7401 0.620531 11.9895
files/tasks_parameters/ExAp01/sample44.txt 1.33391 7.25164 5.75904 0.557631 10.7741
files/tasks_parameters/ExAp01/sample27.txt 1.38167 8.10944 5.64946 0.564878 10.9142
files/tasks_parameters/ExAp01/sample17.txt 1.27515 7.11225 5.46658 0.527183 10.1859
files/tasks_parameters/ExAp01/sample9.txt 1.24695 7.62559 5.37813 0.517277 9.99446
files/tasks_parameters/ExAp01/sample34.txt 1.28077 7.04587 5.93037 0.497709 9.61638
files/tasks_parameters/ExAp01/sample40.txt 1.21937 8.03037 5.123 0.502383 9.70668
files/tasks_parameters/ExAp01/sample33.txt 1.56811 9.22935 5.92956 0.659262 12.7378
files/tasks_parameters/ExAp01/sample48.txt 1.11284 8.12182 5.1577 0.452491 8.7427
files/tasks_parameters/ExAp01/sample29.txt 1.53396 8.06133 5.12331 0.650652 12.5714
files/tasks_parameters/ExAp01/sample11.txt 1.34918 7.63104 5.37897 0.563302 10.8837
files/tasks_parameters/ExAp01/sample14.txt 1.16422 6.66403 4.66322 0.471536 9.11069
files/tasks_parameters/ExAp01/sample0.txt 1.54185 9.3266 4.98971 0.6311 12.1937
files/tasks_parameters/ExAp01/sample7.txt 1.2513 7.34863 5.19436 0.515527 9.96065
files/tasks_parameters/ExAp01/sample23.txt 1.39155 6.68564 5.54308 0.588617 11.3728
files/tasks_parameters/ExAp01/sample13.txt 1.55062 9.31093 5.35591 0.632849 12.2275
files/tasks_parameters/ExAp01/sample22.txt 1.32637 7.65588 5.04866 0.540336 10.44
files/tasks_parameters/ExAp01/sample25.txt 1.01018 6.17035 5.0141 0.408296 7.8888
files/tasks_parameters/ExAp01/sample36.txt 1.21833 7.03772 4.66274 0.507647 9.8084
files/tasks_parameters/ExAp01/sample46.txt 1.30004 7.73433 4.79934 0.536843 10.3725
files/tasks_parameters/ExAp01/sample31.txt 1.21437 6.96928 5.16482 0.485817 9.38662
files/tasks_parameters/ExAp01/sample37.txt 1.5634 9.52443 5.74224 0.65799 12.7132
files/tasks_parameters/ExAp01/sample16.txt 1.32816 8.63521 4.97261 0.516328 9.97612
files/tasks_parameters/ExAp01/sample10.txt 1.48087 7.28353 6.16876 0.615651 11.8952
files/tasks_parameters/ExAp01/sample39.txt 1.15822 6.3405 4.6137 0.468873 9.05924
files/tasks_parameters/ExAp01/sample19.txt 1.48159 8.85528 5.22306 0.622152 12.0208
files/tasks_parameters/ExAp01/sample20.txt 1.4069 8.1141 5.21177 0.586994 11.3415
files/tasks_parameters/ExAp01/sample43.txt 1.31587 7.21373 5.6367 0.53748 10.3848
files/tasks_parameters/ExAp01/sample32.txt 1.42738 8.30592 5.38137 0.593918 11.4753
files/tasks_parameters/ExAp01/sample45.txt 1.31718 7.94069 4.96323 0.547271 10.574
files/tasks_parameters/ExAp01/sample26.txt 1.17573 7.57061 4.62637 0.480146 9.27704
files/tasks_parameters/ExAp01/sample5.txt 1.4149 8.0307 5.35681 0.59407 11.4782
files/tasks_parameters/ExAp01/sample21.txt 1.07619 5.87802 4.61744 0.434264 8.39055
files/tasks_parameters/ExAp01/sample38.txt 1.19152 7.66999 4.86632 0.496808 9.59898
files/tasks_parameters/ExAp01/sample1.txt 1.21248 7.21312 4.63213 0.486293 9.39582
files/tasks_parameters/ExAp01/sample15.txt 1.3066 8.02273 5.50855 0.531063 10.2608
files/tasks_parameters/ExAp01/sample24.txt 1.32867 8.66348 5.4905 0.548998 10.6073
files/tasks_parameters/ExAp01/sample3.txt 1.17873 7.74268 4.79918 0.477387 9.22373
files/tasks_parameters/ExAp01/sample6.txt 1.50001 8.57133 5.80157 0.633604 12.242
files/tasks_parameters/ExAp01/sample30.txt 1.53926 8.18878 5.90888 0.633576 12.2415
files/tasks_parameters/ExAp01/sample42.txt 1.35346 8.57689 5.67253 0.54426 10.5158
files/tasks_parameters/ExAp01/sample4.txt 1.37205 8.40354 4.57985 0.563519 10.8879
files/tasks_parameters/ExAp01/sample28.txt 1.07716 6.44114 4.96426 0.449721 8.6892
files/tasks_parameters/ExAp01/sample18.txt 1.32345 8.56363 4.60946 0.543766 10.5063
files/tasks_parameters/ExAp01/sample35.txt 1.83902 11.0387 6.34514 0.761377 14.7108
files/tasks_parameters/ExAp01/sample47.txt 1.29093 7.14493 5.22131 0.545046 10.531
files/tasks_parameters/ExAp01/sample49.txt 1.23289 6.65996 4.80244 0.498533 9.63231
files/tasks_parameters/ExAp01/sample41.txt 1.17954 7.09069 5.35462 0.497129 9.60517
