files/tasks_parameters/ExAp01/sample8.txt 1.06296 3.76817 4.3855 0.450105 7.76555
files/tasks_parameters/ExAp01/sample12.txt 1.48298 5.03638 5.18776 0.610564 10.5339
files/tasks_parameters/ExAp01/sample2.txt 1.34653 4.58991 5.64606 0.613877 10.5911
files/tasks_parameters/ExAp01/sample44.txt 1.19215 3.77401 5.66946 0.551838 9.52071
files/tasks_parameters/ExAp01/sample27.txt 1.2307 4.13937 5.56136 0.55779 9.6234
files/tasks_parameters/ExAp01/sample17.txt 1.11664 3.76163 5.38341 0.520991 8.98853
files/tasks_parameters/ExAp01/sample9.txt 1.09113 3.69889 5.2981 0.511699 8.82822
files/tasks_parameters/ExAp01/sample34.txt 1.11095 3.52435 5.83741 0.49187 8.48611
files/tasks_parameters/ExAp01/sample40.txt 1.12748 4.06185 5.0335 0.496884 8.57262
files/tasks_parameters/ExAp01/sample33.txt 1.44192 4.82091 5.83886 0.651963 11.2481
files/tasks_parameters/ExAp01/sample48.txt 1.02789 4.01134 5.07085 0.447927 7.72798
files/tasks_parameters/ExAp01/sample29.txt 1.39304 4.20847 5.0406 0.643694 11.1055
files/tasks_parameters/ExAp01/sample11.txt 1.23304 3.94699 5.29198 0.557276 9.61454
files/tasks_parameters/ExAp01/sample14.txt 1.04866 3.54059 4.58345 0.466713 8.05209
files/tasks_parameters/ExAp01/sample0.txt 1.44617 4.82755 4.90216 0.623551 10.758
files/tasks_parameters/ExAp01/sample7.txt 1.0988 3.60766 5.11185 0.509566 8.79141
files/tasks_parameters/ExAp01/sample23.txt 1.33388 3.81403 5.45799 0.582911 10.0568
files/tasks_parameters/ExAp01/sample13.txt 1.41349 4.8894 5.26818 0.624499 10.7743
files/tasks_parameters/ExAp01/sample22.txt 1.2913 3.76156 4.95746 0.534216 9.2167
files/tasks_parameters/ExAp01/sample25.txt 0.950455 2.94144 4.92622 0.403639 6.96389
files/tasks_parameters/ExAp01/sample36.txt 1.15079 3.56164 4.5806 0.501799 8.65741
files/tasks_parameters/ExAp01/sample46.txt 1.19353 3.84833 4.7121 0.530701 9.15605
files/tasks_parameters/ExAp01/sample31.txt 1.05286 3.764 5.08385 0.479734 8.27673
files/tasks_parameters/ExAp01/sample37.txt 1.48997 4.43254 5.65111 0.65143 11.239
files/tasks_parameters/ExAp01/sample16.txt 1.22294 4.49741 4.8895 0.509171 8.78459
files/tasks_parameters/ExAp01/sample10.txt 1.31264 3.87086 6.07511 0.60993 10.523
files/tasks_parameters/ExAp01/sample39.txt 1.0225 3.66299 4.54281 0.463671 7.9996
files/tasks_parameters/ExAp01/sample19.txt 1.3099 3.86694 5.14047 0.615987 10.6275
files/tasks_parameters/ExAp01/sample20.txt 1.24492 4.09945 5.13368 0.580369 10.013
files/tasks_parameters/ExAp01/sample43.txt 1.14771 3.75825 5.55698 0.530892 9.15935
files/tasks_parameters/ExAp01/sample32.txt 1.35397 4.0352 5.29178 0.587643 10.1385
files/tasks_parameters/ExAp01/sample45.txt 1.21201 3.94578 4.87833 0.541081 9.33513
files/tasks_parameters/ExAp01/sample26.txt 1.05239 3.50998 4.55035 0.474009 8.17796
files/tasks_parameters/ExAp01/sample5.txt 1.27087 4.00994 5.27725 0.587681 10.1391
files/tasks_parameters/ExAp01/sample21.txt 0.955825 2.8974 4.54677 0.430037 7.41932
files/tasks_parameters/ExAp01/sample38.txt 1.08043 3.56689 4.78573 0.492366 8.49467
files/tasks_parameters/ExAp01/sample1.txt 1.04934 3.69002 4.55048 0.481074 8.29985
files/tasks_parameters/ExAp01/sample15.txt 1.14539 3.73223 5.42493 0.524964 9.05707
files/tasks_parameters/ExAp01/sample24.txt 1.16726 4.18053 5.40377 0.542575 9.36091
files/tasks_parameters/ExAp01/sample3.txt 1.07741 3.70547 4.7118 0.470503 8.11747
files/tasks_parameters/ExAp01/sample6.txt 1.34936 4.07521 5.71419 0.626702 10.8123
files/tasks_parameters/ExAp01/sample30.txt 1.39963 3.97446 5.82388 0.626709 10.8125
files/tasks_parameters/ExAp01/sample42.txt 1.19047 4.44207 5.58473 0.537025 9.26515
files/tasks_parameters/ExAp01/sample4.txt 1.25744 3.92181 4.49751 0.556974 9.60933
files/tasks_parameters/ExAp01/sample28.txt 1.02065 3.13496 4.88321 0.444588 7.67037
files/tasks_parameters/ExAp01/sample18.txt 1.18167 3.95301 4.52898 0.537438 9.27228
files/tasks_parameters/ExAp01/sample35.txt 1.74254 5.75923 6.25034 0.752488 12.9825
files/tasks_parameters/ExAp01/sample47.txt 1.13469 3.44018 5.14289 0.540033 9.31706
files/tasks_parameters/ExAp01/sample49.txt 1.15107 3.38981 4.72409 0.493041 8.50632
files/tasks_parameters/ExAp01/sample41.txt 1.05366 3.58692 5.27252 0.492391 8.49509
