files/tasks_parameters/ExAp01/sample8.txt 1.0213 3.76817 4.3855 0.450105 8.01702
files/tasks_parameters/ExAp01/sample12.txt 1.47973 5.03638 5.18776 0.610564 10.875
files/tasks_parameters/ExAp01/sample2.txt 1.34315 4.58991 5.64606 0.613877 10.934
files/tasks_parameters/ExAp01/sample44.txt 1.20486 3.77401 5.66946 0.551838 9.82902
files/tasks_parameters/ExAp01/sample27.txt 1.22949 4.13937 5.56136 0.55779 9.93503
files/tasks_parameters/ExAp01/sample17.txt 1.11533 3.76163 5.38341 0.520991 9.2796
files/tasks_parameters/ExAp01/sample9.txt 1.09037 3.69889 5.2981 0.511699 9.1141
files/tasks_parameters/ExAp01/sample34.txt 1.11081 3.52435 5.83741 0.49187 8.76091
files/tasks_parameters/ExAp01/sample40.txt 1.12545 4.06185 5.0335 0.496884 8.85022
files/tasks_parameters/ExAp01/sample33.txt 1.4592 4.82091 5.83886 0.651963 11.6124
files/tasks_parameters/ExAp01/sample48.txt 1.05743 4.01134 5.07085 0.447927 7.97823
files/tasks_parameters/ExAp01/sample29.txt 1.38981 4.20847 5.0406 0.643694 11.4651
files/tasks_parameters/ExAp01/sample11.txt 1.24476 3.94699 5.29198 0.557276 9.92588
files/tasks_parameters/ExAp01/sample14.txt 1.01925 3.54059 4.58345 0.466713 8.31283
files/tasks_parameters/ExAp01/sample0.txt 1.44238 4.82755 4.90216 0.623551 11.1063
files/tasks_parameters/ExAp01/sample7.txt 1.09905 3.60766 5.11185 0.509566 9.07609
files/tasks_parameters/ExAp01/sample23.txt 1.27974 3.81403 5.45799 0.582911 10.3825
files/tasks_parameters/ExAp01/sample13.txt 1.40923 4.8894 5.26818 0.624499 11.1232
files/tasks_parameters/ExAp01/sample22.txt 1.28118 3.76156 4.95746 0.534216 9.51516
files/tasks_parameters/ExAp01/sample25.txt 0.952807 2.94144 4.92622 0.403639 7.18939
files/tasks_parameters/ExAp01/sample36.txt 1.15113 3.56164 4.5806 0.501799 8.93775
files/tasks_parameters/ExAp01/sample46.txt 1.21572 3.84833 4.7121 0.530701 9.45254
files/tasks_parameters/ExAp01/sample31.txt 1.05094 3.764 5.08385 0.479734 8.54475
files/tasks_parameters/ExAp01/sample37.txt 1.49022 4.43254 5.65111 0.65143 11.6029
files/tasks_parameters/ExAp01/sample16.txt 1.22565 4.49741 4.8895 0.509171 9.06906
files/tasks_parameters/ExAp01/sample10.txt 1.30071 3.87086 6.07511 0.60993 10.8637
files/tasks_parameters/ExAp01/sample39.txt 1.02085 3.66299 4.54281 0.463671 8.25865
files/tasks_parameters/ExAp01/sample19.txt 1.30562 3.86694 5.14047 0.615987 10.9716
files/tasks_parameters/ExAp01/sample20.txt 1.24212 4.09945 5.13368 0.580369 10.3372
files/tasks_parameters/ExAp01/sample43.txt 1.14686 3.75825 5.55698 0.530892 9.45595
files/tasks_parameters/ExAp01/sample32.txt 1.34285 4.0352 5.29178 0.587643 10.4668
files/tasks_parameters/ExAp01/sample45.txt 1.21039 3.94578 4.87833 0.541081 9.63743
files/tasks_parameters/ExAp01/sample26.txt 1.02351 3.50998 4.55035 0.474009 8.44278
files/tasks_parameters/ExAp01/sample5.txt 1.30141 4.00994 5.27725 0.587681 10.4674
files/tasks_parameters/ExAp01/sample21.txt 0.953588 2.8974 4.54677 0.430037 7.65958
files/tasks_parameters/ExAp01/sample38.txt 1.09736 3.56689 4.78573 0.492366 8.76975
files/tasks_parameters/ExAp01/sample1.txt 1.04771 3.69002 4.55048 0.481074 8.56861
files/tasks_parameters/ExAp01/sample15.txt 1.12996 3.73223 5.42493 0.524964 9.35036
files/tasks_parameters/ExAp01/sample24.txt 1.17066 4.18053 5.40377 0.542575 9.66404
files/tasks_parameters/ExAp01/sample3.txt 1.00918 3.70547 4.7118 0.470503 8.38033
files/tasks_parameters/ExAp01/sample6.txt 1.30643 4.07521 5.71419 0.626702 11.1625
files/tasks_parameters/ExAp01/sample30.txt 1.39749 3.97446 5.82388 0.626709 11.1626
files/tasks_parameters/ExAp01/sample42.txt 1.19829 4.44207 5.58473 0.537025 9.56518
files/tasks_parameters/ExAp01/sample4.txt 1.2541 3.92181 4.49751 0.556974 9.92051
files/tasks_parameters/ExAp01/sample28.txt 1.0139 3.13496 4.88321 0.444588 7.91875
files/tasks_parameters/ExAp01/sample18.txt 1.20817 3.95301 4.52898 0.537438 9.57253
files/tasks_parameters/ExAp01/sample35.txt 1.73304 5.75923 6.25034 0.752488 13.4029
files/tasks_parameters/ExAp01/sample47.txt 1.13282 3.44018 5.14289 0.540033 9.61877
files/tasks_parameters/ExAp01/sample49.txt 1.12668 3.38981 4.72409 0.493041 8.78177
files/tasks_parameters/ExAp01/sample41.txt 1.05849 3.58692 5.27252 0.492391 8.77018
