0.36289691999999996
Task0 15 255 31 
Task1 255 63 31 
Task2 63 7 255 
Task3 31 15 7 
Task4 7 63 1 
Task5 7 63 127 
Task6 7 3 31 
Task7 63 1 127 
Task8 31 255 31 
Task9 15 255 15 
Task10 127 15 127 
Task11 63 255 15 
Task12 31 255 63 
Task13 15 31 15 
Task14 255 127 63 
Task15 31 63 63 
Task16 31 31 31 
Task17 255 31 127 
Task18 7 127 31 
Task19 7 31 7 
Task20 255 127 63 
Task21 31 3 255 
Task22 15 255 15 
Task23 255 31 15 
Task24 255 1 63 
Task25 15 255 255 
Task26 15 127 63 
Task27 127 1 127 
Task28 63 63 3 
Task29 63 127 15 
Task30 127 3 15 
Task31 63 1 15 
Task32 63 63 15 
Task33 255 127 127 
Task34 63 15 3 
Task35 7 31 3 
Task36 255 63 15 
Task37 127 63 63 
Task38 15 63 31 
Task39 63 255 255 
Task40 63 63 63 
Task41 63 7 63 
Task42 255 63 15 
Task43 31 3 15 
Task44 3 31 7 
Task45 31 31 31 
Task46 255 255 31 
Task47 31 31 127 
Task48 3 31 63 
Task49 255 3 31 
Task50 255 15 7 
Task51 7 31 7 
Task52 31 127 1 
Task53 31 15 3 
Task54 3 31 1 
Task55 1 1 31 
Task56 255 31 63 
Task57 127 63 31 
Task58 63 1 255 
Task59 1 15 255 
Task60 3 255 3 
Task61 127 31 255 
Task62 31 31 7 
Task63 31 3 1 
Task64 3 1 31 
Task65 1 31 31 
Task66 7 63 31 
Task67 3 31 63 
Task68 127 255 63 
Task69 31 7 7 
Task70 31 63 127 
Task71 15 63 1 
Task72 255 63 15 
Task73 63 127 63 
Task74 31 1 63 
Task75 31 63 63 
Task76 127 7 31 
Task77 3 63 31 
Task78 31 15 63 
Task79 63 7 63 
Task80 63 15 63 
Task81 31 63 127 
Task82 3 31 7 
Task83 127 127 255 
Task84 15 63 31 
Task85 7 31 255 
Task86 7 1 255 
Task87 255 31 127 
Task88 1 7 63 
Task89 3 31 3 
Task90 63 3 7 
Task91 7 31 31 
Task92 63 63 31 
Task93 255 255 3 
Task94 255 15 31 
Task95 31 3 31 
Task96 31 63 255 
Task97 63 31 63 
Task98 3 7 31 
Task99 255 63 127 
