files/tasks_parameters/ExAp01/sample8.txt 0.937683 3.15778 1.5595 0.203411 15.8304
files/tasks_parameters/ExAp01/sample12.txt 0.933051 3.94962 1.6705 0.207924 16.1816
files/tasks_parameters/ExAp01/sample2.txt 0.942509 3.78275 1.74131 0.200098 15.5725
files/tasks_parameters/ExAp01/sample44.txt 0.875342 3.59825 1.65317 0.200005 15.5653
files/tasks_parameters/ExAp01/sample27.txt 0.867431 3.45743 1.5148 0.182129 14.1741
files/tasks_parameters/ExAp01/sample17.txt 0.756565 2.77299 1.44514 0.14646 11.3982
files/tasks_parameters/ExAp01/sample9.txt 0.858527 2.99933 1.451 0.177444 13.8095
files/tasks_parameters/ExAp01/sample34.txt 0.765361 3.02928 1.58429 0.157984 12.295
files/tasks_parameters/ExAp01/sample40.txt 0.763203 3.86889 1.52122 0.168379 13.1041
files/tasks_parameters/ExAp01/sample33.txt 0.973517 3.63695 1.71905 0.199765 15.5466
files/tasks_parameters/ExAp01/sample48.txt 0.768501 3.39061 1.49062 0.154728 12.0417
files/tasks_parameters/ExAp01/sample29.txt 0.867105 3.30472 1.38739 0.223868 17.4225
files/tasks_parameters/ExAp01/sample11.txt 0.835864 3.10585 1.41612 0.174079 13.5476
files/tasks_parameters/ExAp01/sample14.txt 0.704581 2.70971 1.43432 0.162214 12.6243
files/tasks_parameters/ExAp01/sample0.txt 0.863934 3.6937 1.5439 0.18367 14.294
files/tasks_parameters/ExAp01/sample7.txt 0.773612 2.70501 1.42221 0.143463 11.165
files/tasks_parameters/ExAp01/sample23.txt 0.813637 3.2697 1.57822 0.181448 14.1212
files/tasks_parameters/ExAp01/sample13.txt 0.938568 3.84225 1.67648 0.198247 15.4285
files/tasks_parameters/ExAp01/sample22.txt 0.728214 3.09569 1.56121 0.148796 11.58
files/tasks_parameters/ExAp01/sample25.txt 0.706429 2.73966 1.5007 0.148149 11.5296
files/tasks_parameters/ExAp01/sample36.txt 0.586351 2.85948 1.28553 0.130042 10.1205
files/tasks_parameters/ExAp01/sample46.txt 0.893362 3.58643 1.69998 0.210103 16.3512
files/tasks_parameters/ExAp01/sample31.txt 0.712053 3.4832 1.53782 0.1722 13.4014
files/tasks_parameters/ExAp01/sample37.txt 0.838637 3.95293 1.50705 0.171701 13.3626
files/tasks_parameters/ExAp01/sample16.txt 0.726653 3.31216 1.30115 0.150249 11.6931
files/tasks_parameters/ExAp01/sample10.txt 0.798149 3.17098 1.61789 0.153776 11.9676
files/tasks_parameters/ExAp01/sample39.txt 0.818355 3.26617 1.44406 0.165669 12.8931
files/tasks_parameters/ExAp01/sample19.txt 0.9548 3.63532 1.52509 0.196094 15.261
files/tasks_parameters/ExAp01/sample20.txt 0.665556 3.20793 1.25367 0.147335 11.4663
files/tasks_parameters/ExAp01/sample43.txt 0.663253 3.11551 1.4202 0.150644 11.7239
files/tasks_parameters/ExAp01/sample32.txt 0.711094 3.5311 1.42482 0.168744 13.1325
files/tasks_parameters/ExAp01/sample45.txt 0.901725 3.80283 1.48324 0.19807 15.4148
files/tasks_parameters/ExAp01/sample26.txt 0.760064 3.21645 1.29701 0.166061 12.9237
files/tasks_parameters/ExAp01/sample5.txt 0.905184 3.5889 1.52559 0.178903 13.9231
files/tasks_parameters/ExAp01/sample21.txt 0.890643 2.75242 1.55936 0.19512 15.1852
files/tasks_parameters/ExAp01/sample38.txt 0.719749 3.31563 1.37515 0.166157 12.9311
files/tasks_parameters/ExAp01/sample1.txt 0.913597 3.74964 1.51696 0.19701 15.3322
files/tasks_parameters/ExAp01/sample15.txt 0.820131 3.32916 1.48508 0.180707 14.0635
files/tasks_parameters/ExAp01/sample24.txt 0.75489 3.45951 1.59549 0.16529 12.8637
files/tasks_parameters/ExAp01/sample3.txt 1.07919 3.70014 1.70809 0.237107 18.4528
files/tasks_parameters/ExAp01/sample6.txt 0.884377 3.33003 1.58323 0.184714 14.3753
files/tasks_parameters/ExAp01/sample30.txt 0.944587 4.1841 1.4861 0.239623 18.6486
files/tasks_parameters/ExAp01/sample42.txt 0.828281 3.43221 1.70276 0.177383 13.8048
files/tasks_parameters/ExAp01/sample4.txt 0.888231 3.72477 1.6136 0.196448 15.2885
files/tasks_parameters/ExAp01/sample28.txt 0.776956 3.11323 1.45032 0.158819 12.36
files/tasks_parameters/ExAp01/sample18.txt 0.766285 3.47418 1.45209 0.149064 11.6008
files/tasks_parameters/ExAp01/sample35.txt 0.879402 4.57086 1.49394 0.185031 14.3999
files/tasks_parameters/ExAp01/sample47.txt 0.733327 3.13768 1.52397 0.16417 12.7765
files/tasks_parameters/ExAp01/sample49.txt 0.70686 3.13288 1.49657 0.156154 12.1526
files/tasks_parameters/ExAp01/sample41.txt 0.738705 2.81964 1.49636 0.150876 11.7419
