files/tasks_parameters/ExAp01/sample8.txt 1.08784 3.76817 4.3855 0.450105 24.8011
files/tasks_parameters/ExAp01/sample12.txt 1.54974 5.03638 5.18776 0.610564 33.6425
files/tasks_parameters/ExAp01/sample2.txt 1.43701 4.58991 5.64606 0.613877 33.8251
files/tasks_parameters/ExAp01/sample44.txt 1.2932 3.77401 5.66946 0.551838 30.4066
files/tasks_parameters/ExAp01/sample27.txt 1.29418 4.13937 5.56136 0.55779 30.7346
files/tasks_parameters/ExAp01/sample17.txt 1.20639 3.76163 5.38341 0.520991 28.707
files/tasks_parameters/ExAp01/sample9.txt 1.19085 3.69889 5.2981 0.511699 28.195
files/tasks_parameters/ExAp01/sample34.txt 1.13513 3.52435 5.83741 0.49187 27.1024
files/tasks_parameters/ExAp01/sample40.txt 1.169 4.06185 5.0335 0.496884 27.3787
files/tasks_parameters/ExAp01/sample33.txt 1.55311 4.82091 5.83886 0.651963 35.9236
files/tasks_parameters/ExAp01/sample48.txt 1.08848 4.01134 5.07085 0.447927 24.6811
files/tasks_parameters/ExAp01/sample29.txt 1.48618 4.20847 5.0406 0.643694 35.468
files/tasks_parameters/ExAp01/sample11.txt 1.34761 3.94699 5.29198 0.557276 30.7063
files/tasks_parameters/ExAp01/sample14.txt 1.09227 3.54059 4.58345 0.466713 25.7162
files/tasks_parameters/ExAp01/sample0.txt 1.53414 4.82755 4.90216 0.623551 34.3581
files/tasks_parameters/ExAp01/sample7.txt 1.1774 3.60766 5.11185 0.509566 28.0774
files/tasks_parameters/ExAp01/sample23.txt 1.45412 3.81403 5.45799 0.582911 32.1188
files/tasks_parameters/ExAp01/sample13.txt 1.51795 4.8894 5.26818 0.624499 34.4103
files/tasks_parameters/ExAp01/sample22.txt 1.29087 3.76156 4.95746 0.534216 29.4357
files/tasks_parameters/ExAp01/sample25.txt 0.981688 2.94144 4.92622 0.403639 22.2408
files/tasks_parameters/ExAp01/sample36.txt 1.20991 3.56164 4.5806 0.501799 27.6495
files/tasks_parameters/ExAp01/sample46.txt 1.24441 3.84833 4.7121 0.530701 29.242
files/tasks_parameters/ExAp01/sample31.txt 1.13511 3.764 5.08385 0.479734 26.4337
files/tasks_parameters/ExAp01/sample37.txt 1.52576 4.43254 5.65111 0.65143 35.8943
files/tasks_parameters/ExAp01/sample16.txt 1.3009 4.49741 4.8895 0.509171 28.0557
files/tasks_parameters/ExAp01/sample10.txt 1.37558 3.87086 6.07511 0.60993 33.6076
files/tasks_parameters/ExAp01/sample39.txt 1.09165 3.66299 4.54281 0.463671 25.5486
files/tasks_parameters/ExAp01/sample19.txt 1.5246 3.86694 5.14047 0.615987 33.9413
files/tasks_parameters/ExAp01/sample20.txt 1.38743 4.09945 5.13368 0.580369 31.9787
files/tasks_parameters/ExAp01/sample43.txt 1.15578 3.75825 5.55698 0.530892 29.2525
files/tasks_parameters/ExAp01/sample32.txt 1.51535 4.0352 5.29178 0.587643 32.3796
files/tasks_parameters/ExAp01/sample45.txt 1.23284 3.94578 4.87833 0.541081 29.814
files/tasks_parameters/ExAp01/sample26.txt 1.11284 3.50998 4.55035 0.474009 26.1182
files/tasks_parameters/ExAp01/sample5.txt 1.41365 4.00994 5.27725 0.587681 32.3816
files/tasks_parameters/ExAp01/sample21.txt 0.936671 2.8974 4.54677 0.430037 23.6954
files/tasks_parameters/ExAp01/sample38.txt 1.16387 3.56689 4.78573 0.492366 27.1297
files/tasks_parameters/ExAp01/sample1.txt 1.16267 3.69002 4.55048 0.481074 26.5075
files/tasks_parameters/ExAp01/sample15.txt 1.19475 3.73223 5.42493 0.524964 28.9259
files/tasks_parameters/ExAp01/sample24.txt 1.37399 4.18053 5.40377 0.542575 29.8963
files/tasks_parameters/ExAp01/sample3.txt 1.15316 3.70547 4.7118 0.470503 25.9251
files/tasks_parameters/ExAp01/sample6.txt 1.4578 4.07521 5.71419 0.626702 34.5317
files/tasks_parameters/ExAp01/sample30.txt 1.49422 3.97446 5.82388 0.626709 34.5321
files/tasks_parameters/ExAp01/sample42.txt 1.28874 4.44207 5.58473 0.537025 29.5905
files/tasks_parameters/ExAp01/sample4.txt 1.28987 3.92181 4.49751 0.556974 30.6897
files/tasks_parameters/ExAp01/sample28.txt 1.06951 3.13496 4.88321 0.444588 24.4971
files/tasks_parameters/ExAp01/sample18.txt 1.25559 3.95301 4.52898 0.537438 29.6132
files/tasks_parameters/ExAp01/sample35.txt 2.04558 5.75923 6.25034 0.752488 41.4626
files/tasks_parameters/ExAp01/sample47.txt 1.15789 3.44018 5.14289 0.540033 29.7562
files/tasks_parameters/ExAp01/sample49.txt 1.16163 3.38981 4.72409 0.493041 27.1669
files/tasks_parameters/ExAp01/sample41.txt 1.14347 3.58692 5.27252 0.492391 27.1311
