files/tasks_parameters/ExAp01/sample8.txt 0.768646 3.15778 1.5595 0.203411 4.032
files/tasks_parameters/ExAp01/sample12.txt 0.884082 3.94962 1.6705 0.207924 4.12145
files/tasks_parameters/ExAp01/sample2.txt 0.852401 3.78275 1.74131 0.200098 3.96632
files/tasks_parameters/ExAp01/sample44.txt 0.785675 3.59825 1.65317 0.200005 3.96448
files/tasks_parameters/ExAp01/sample27.txt 0.753174 3.45743 1.5148 0.182129 3.61014
files/tasks_parameters/ExAp01/sample17.txt 0.925109 2.77299 1.44514 0.14646 2.90311
files/tasks_parameters/ExAp01/sample9.txt 0.745822 2.99933 1.451 0.177444 3.51727
files/tasks_parameters/ExAp01/sample34.txt 0.831645 3.02928 1.58429 0.157984 3.13154
files/tasks_parameters/ExAp01/sample40.txt 0.772186 3.86889 1.52122 0.168379 3.3376
files/tasks_parameters/ExAp01/sample33.txt 0.81259 3.63695 1.71905 0.199765 3.95972
files/tasks_parameters/ExAp01/sample48.txt 0.702273 3.39061 1.49062 0.154728 3.06701
files/tasks_parameters/ExAp01/sample29.txt 0.844543 3.30472 1.38739 0.223868 4.4375
files/tasks_parameters/ExAp01/sample11.txt 0.72408 3.10585 1.41612 0.174079 3.45057
files/tasks_parameters/ExAp01/sample14.txt 0.667057 2.70971 1.43432 0.162214 3.2154
files/tasks_parameters/ExAp01/sample0.txt 0.799154 3.6937 1.5439 0.18367 3.64069
files/tasks_parameters/ExAp01/sample7.txt 0.809856 2.70501 1.42221 0.143463 2.84372
files/tasks_parameters/ExAp01/sample23.txt 0.792176 3.2697 1.57822 0.181448 3.59666
files/tasks_parameters/ExAp01/sample13.txt 0.822976 3.84225 1.67648 0.198247 3.92964
files/tasks_parameters/ExAp01/sample22.txt 0.901802 3.09569 1.56121 0.148796 2.94942
files/tasks_parameters/ExAp01/sample25.txt 0.746637 2.73966 1.5007 0.148149 2.93659
files/tasks_parameters/ExAp01/sample36.txt 0.839188 2.85948 1.28553 0.130042 2.57769
files/tasks_parameters/ExAp01/sample46.txt 0.819015 3.58643 1.69998 0.210103 4.16464
files/tasks_parameters/ExAp01/sample31.txt 0.75956 3.4832 1.53782 0.1722 3.41333
files/tasks_parameters/ExAp01/sample37.txt 0.791245 3.95293 1.50705 0.171701 3.40344
files/tasks_parameters/ExAp01/sample16.txt 0.668206 3.31216 1.30115 0.150249 2.97822
files/tasks_parameters/ExAp01/sample10.txt 1.10417 3.17098 1.61789 0.153776 3.04814
files/tasks_parameters/ExAp01/sample39.txt 0.707512 3.26617 1.44406 0.165669 3.28387
files/tasks_parameters/ExAp01/sample19.txt 0.80194 3.63532 1.52509 0.196094 3.88697
files/tasks_parameters/ExAp01/sample20.txt 0.667417 3.20793 1.25367 0.147335 2.92047
files/tasks_parameters/ExAp01/sample43.txt 0.657924 3.11551 1.4202 0.150644 2.98606
files/tasks_parameters/ExAp01/sample32.txt 0.77207 3.5311 1.42482 0.168744 3.34483
files/tasks_parameters/ExAp01/sample45.txt 0.805914 3.80283 1.48324 0.19807 3.92613
files/tasks_parameters/ExAp01/sample26.txt 0.687283 3.21645 1.29701 0.166061 3.29165
files/tasks_parameters/ExAp01/sample5.txt 0.718656 3.5889 1.52559 0.178903 3.54621
files/tasks_parameters/ExAp01/sample21.txt 0.760945 2.75242 1.55936 0.19512 3.86766
files/tasks_parameters/ExAp01/sample38.txt 0.701025 3.31563 1.37515 0.166157 3.29355
files/tasks_parameters/ExAp01/sample1.txt 0.785349 3.74964 1.51696 0.19701 3.90511
files/tasks_parameters/ExAp01/sample15.txt 0.747313 3.32916 1.48508 0.180707 3.58197
files/tasks_parameters/ExAp01/sample24.txt 0.861271 3.45951 1.59549 0.16529 3.27637
files/tasks_parameters/ExAp01/sample3.txt 0.915854 3.70014 1.70809 0.237107 4.69992
files/tasks_parameters/ExAp01/sample6.txt 0.76463 3.33003 1.58323 0.184714 3.66139
files/tasks_parameters/ExAp01/sample30.txt 0.983848 4.1841 1.4861 0.239623 4.74979
files/tasks_parameters/ExAp01/sample42.txt 0.771251 3.43221 1.70276 0.177383 3.51607
files/tasks_parameters/ExAp01/sample4.txt 0.856649 3.72477 1.6136 0.196448 3.89398
files/tasks_parameters/ExAp01/sample28.txt 0.720131 3.11323 1.45032 0.158819 3.1481
files/tasks_parameters/ExAp01/sample18.txt 0.779204 3.47418 1.45209 0.149064 2.95473
files/tasks_parameters/ExAp01/sample35.txt 0.864569 4.57086 1.49394 0.185031 3.66766
files/tasks_parameters/ExAp01/sample47.txt 0.734235 3.13768 1.52397 0.16417 3.25417
files/tasks_parameters/ExAp01/sample49.txt 0.789667 3.13288 1.49657 0.156154 3.09527
files/tasks_parameters/ExAp01/sample41.txt 0.770126 2.81964 1.49636 0.150876 2.99065
