files/tasks_parameters/ExAp01/sample8.txt 1.53237 6.77015 2.19458 0.288816 6.75104
files/tasks_parameters/ExAp01/sample12.txt 1.75137 9.58351 2.46081 0.337498 7.88898
files/tasks_parameters/ExAp01/sample2.txt 1.67888 8.44418 2.50701 0.319127 7.45955
files/tasks_parameters/ExAp01/sample44.txt 1.5007 6.96299 2.23089 0.28229 6.5985
files/tasks_parameters/ExAp01/sample27.txt 1.50176 7.74306 2.16676 0.28602 6.68567
files/tasks_parameters/ExAp01/sample17.txt 1.54133 7.35053 2.25579 0.292348 6.83358
files/tasks_parameters/ExAp01/sample9.txt 1.48698 6.89392 2.21068 0.282399 6.60103
files/tasks_parameters/ExAp01/sample34.txt 1.57007 6.62788 2.3772 0.297742 6.95967
files/tasks_parameters/ExAp01/sample40.txt 1.5077 7.75686 2.17534 0.285619 6.67631
files/tasks_parameters/ExAp01/sample33.txt 1.77496 8.14826 2.6463 0.338073 7.90241
files/tasks_parameters/ExAp01/sample48.txt 1.41312 7.64107 2.14272 0.270011 6.31147
files/tasks_parameters/ExAp01/sample29.txt 1.48289 7.139 1.93769 0.286306 6.69235
files/tasks_parameters/ExAp01/sample11.txt 1.46871 6.88688 2.12981 0.280008 6.54516
files/tasks_parameters/ExAp01/sample14.txt 1.31196 6.11983 1.97599 0.247458 5.78429
files/tasks_parameters/ExAp01/sample0.txt 1.51487 8.2738 2.14256 0.289132 6.75841
files/tasks_parameters/ExAp01/sample7.txt 1.42771 6.87011 2.05821 0.269886 6.30854
files/tasks_parameters/ExAp01/sample23.txt 1.54043 6.52032 2.38087 0.291712 6.81872
files/tasks_parameters/ExAp01/sample13.txt 1.55207 8.73247 2.33415 0.295393 6.90476
files/tasks_parameters/ExAp01/sample22.txt 1.47255 6.9777 2.28948 0.283979 6.63797
files/tasks_parameters/ExAp01/sample25.txt 1.40953 6.23444 2.2122 0.267298 6.24805
files/tasks_parameters/ExAp01/sample36.txt 1.32927 6.6174 1.9458 0.253823 5.93307
files/tasks_parameters/ExAp01/sample46.txt 1.72119 7.42369 2.49128 0.327273 7.64996
files/tasks_parameters/ExAp01/sample31.txt 1.32261 7.22028 2.13584 0.25377 5.93183
files/tasks_parameters/ExAp01/sample37.txt 1.6158 8.90704 2.16981 0.295708 6.91213
files/tasks_parameters/ExAp01/sample16.txt 1.30645 8.18243 1.88294 0.24945 5.83085
files/tasks_parameters/ExAp01/sample10.txt 1.50844 6.96646 2.31217 0.285748 6.67932
files/tasks_parameters/ExAp01/sample39.txt 1.32682 6.4161 1.97266 0.251967 5.88969
files/tasks_parameters/ExAp01/sample19.txt 1.62446 8.16711 2.23199 0.308463 7.21027
files/tasks_parameters/ExAp01/sample20.txt 1.37757 7.28549 1.88944 0.25994 6.07606
files/tasks_parameters/ExAp01/sample43.txt 1.34656 6.86804 2.00142 0.25616 5.98771
files/tasks_parameters/ExAp01/sample32.txt 1.48034 8.15663 2.12995 0.281726 6.58531
files/tasks_parameters/ExAp01/sample45.txt 1.44947 7.75184 2.10599 0.274935 6.42656
files/tasks_parameters/ExAp01/sample26.txt 1.40058 7.4944 1.88956 0.267248 6.24688
files/tasks_parameters/ExAp01/sample5.txt 1.49851 8.08362 2.09961 0.28454 6.65109
files/tasks_parameters/ExAp01/sample21.txt 1.37455 6.11814 2.17119 0.26143 6.11088
files/tasks_parameters/ExAp01/sample38.txt 1.37954 7.761 1.96293 0.263659 6.16299
files/tasks_parameters/ExAp01/sample1.txt 1.51708 7.83752 2.13261 0.289228 6.76067
files/tasks_parameters/ExAp01/sample15.txt 1.50193 7.37971 2.12057 0.285825 6.68113
files/tasks_parameters/ExAp01/sample24.txt 1.55362 8.28531 2.25272 0.296628 6.93365
files/tasks_parameters/ExAp01/sample3.txt 1.59784 7.33359 2.39135 0.305084 7.13131
files/tasks_parameters/ExAp01/sample6.txt 1.47957 7.09894 2.24425 0.281804 6.58713
files/tasks_parameters/ExAp01/sample30.txt 1.56806 8.17669 2.03701 0.299204 6.99386
files/tasks_parameters/ExAp01/sample42.txt 1.55559 7.70416 2.42413 0.29743 6.95238
files/tasks_parameters/ExAp01/sample4.txt 1.60953 7.41691 2.36261 0.307803 7.19484
files/tasks_parameters/ExAp01/sample28.txt 1.39756 7.0562 2.07657 0.266428 6.22771
files/tasks_parameters/ExAp01/sample18.txt 1.40878 7.60139 2.1377 0.268016 6.26484
files/tasks_parameters/ExAp01/sample35.txt 1.69018 9.66795 2.28028 0.32244 7.53698
files/tasks_parameters/ExAp01/sample47.txt 1.33226 6.84842 2.12104 0.251655 5.88239
files/tasks_parameters/ExAp01/sample49.txt 1.33514 7.1497 2.11412 0.255889 5.98137
files/tasks_parameters/ExAp01/sample41.txt 1.39337 6.59911 2.07359 0.265885 6.21503
