files/tasks_parameters/ExAp01/sample8.txt 1.11028 7.2562 4.46819 0.454772 16.8412
files/tasks_parameters/ExAp01/sample12.txt 1.64043 9.70908 5.28286 0.618515 22.9049
files/tasks_parameters/ExAp01/sample2.txt 1.50039 8.14159 5.7401 0.620531 22.9796
files/tasks_parameters/ExAp01/sample44.txt 1.38258 7.25164 5.75904 0.557631 20.6502
files/tasks_parameters/ExAp01/sample27.txt 1.31937 8.10944 5.64946 0.564878 20.9186
files/tasks_parameters/ExAp01/sample17.txt 1.2671 7.11225 5.46658 0.527183 19.5227
files/tasks_parameters/ExAp01/sample9.txt 1.22362 7.62559 5.37813 0.517277 19.1558
files/tasks_parameters/ExAp01/sample34.txt 1.23761 7.04587 5.93037 0.497709 18.4312
files/tasks_parameters/ExAp01/sample40.txt 1.201 8.03037 5.123 0.502383 18.6043
files/tasks_parameters/ExAp01/sample33.txt 1.63735 9.22935 5.92956 0.659262 24.4138
files/tasks_parameters/ExAp01/sample48.txt 1.15839 8.12182 5.1577 0.452491 16.7567
files/tasks_parameters/ExAp01/sample29.txt 1.55476 8.06133 5.12331 0.650652 24.095
files/tasks_parameters/ExAp01/sample11.txt 1.35889 7.63104 5.37897 0.563302 20.8602
files/tasks_parameters/ExAp01/sample14.txt 1.13168 6.66403 4.66322 0.471536 17.462
files/tasks_parameters/ExAp01/sample0.txt 1.63257 9.3266 4.98971 0.6311 23.3709
files/tasks_parameters/ExAp01/sample7.txt 1.25928 7.34863 5.19436 0.515527 19.0911
files/tasks_parameters/ExAp01/sample23.txt 1.40209 6.68564 5.54308 0.588617 21.7977
files/tasks_parameters/ExAp01/sample13.txt 1.64943 9.31093 5.35591 0.632849 23.4357
files/tasks_parameters/ExAp01/sample22.txt 1.33059 7.65588 5.04866 0.540336 20.0098
files/tasks_parameters/ExAp01/sample25.txt 1.0295 6.17035 5.0141 0.408296 15.12
files/tasks_parameters/ExAp01/sample36.txt 1.21896 7.03772 4.66274 0.507647 18.7992
files/tasks_parameters/ExAp01/sample46.txt 1.34866 7.73433 4.79934 0.536843 19.8804
files/tasks_parameters/ExAp01/sample31.txt 1.19045 6.96928 5.16482 0.485817 17.9908
files/tasks_parameters/ExAp01/sample37.txt 1.64096 9.52443 5.74224 0.65799 24.3667
files/tasks_parameters/ExAp01/sample16.txt 1.43366 8.63521 4.97261 0.516328 19.1207
files/tasks_parameters/ExAp01/sample10.txt 1.39877 7.28353 6.16876 0.615651 22.7988
files/tasks_parameters/ExAp01/sample39.txt 1.14417 6.3405 4.6137 0.468873 17.3634
files/tasks_parameters/ExAp01/sample19.txt 1.63011 8.85528 5.22306 0.622152 23.0396
files/tasks_parameters/ExAp01/sample20.txt 1.39419 8.1141 5.21177 0.586994 21.7376
files/tasks_parameters/ExAp01/sample43.txt 1.24124 7.21373 5.6367 0.53748 19.904
files/tasks_parameters/ExAp01/sample32.txt 1.60321 8.30592 5.38137 0.593918 21.994
files/tasks_parameters/ExAp01/sample45.txt 1.42252 7.94069 4.96323 0.547271 20.2666
files/tasks_parameters/ExAp01/sample26.txt 1.16408 7.57061 4.62637 0.480146 17.7808
files/tasks_parameters/ExAp01/sample5.txt 1.49363 8.0307 5.35681 0.59407 21.9996
files/tasks_parameters/ExAp01/sample21.txt 1.02755 5.87802 4.61744 0.434264 16.0817
files/tasks_parameters/ExAp01/sample38.txt 1.18492 7.66999 4.86632 0.496808 18.3978
files/tasks_parameters/ExAp01/sample1.txt 1.16507 7.21312 4.63213 0.486293 18.0085
files/tasks_parameters/ExAp01/sample15.txt 1.26633 8.02273 5.50855 0.531063 19.6664
files/tasks_parameters/ExAp01/sample24.txt 1.33809 8.66348 5.4905 0.548998 20.3305
files/tasks_parameters/ExAp01/sample3.txt 1.1668 7.74268 4.79918 0.477387 17.6786
files/tasks_parameters/ExAp01/sample6.txt 1.60813 8.57133 5.80157 0.633604 23.4637
files/tasks_parameters/ExAp01/sample30.txt 1.69492 8.18878 5.90888 0.633576 23.4627
files/tasks_parameters/ExAp01/sample42.txt 1.30419 8.57689 5.67253 0.54426 20.1551
files/tasks_parameters/ExAp01/sample4.txt 1.34993 8.40354 4.57985 0.563519 20.8683
files/tasks_parameters/ExAp01/sample28.txt 1.0744 6.44114 4.96426 0.449721 16.6541
files/tasks_parameters/ExAp01/sample18.txt 1.31379 8.56363 4.60946 0.543766 20.1368
files/tasks_parameters/ExAp01/sample35.txt 1.98239 11.0387 6.34514 0.761377 28.1954
files/tasks_parameters/ExAp01/sample47.txt 1.32259 7.14493 5.22131 0.545046 20.1842
files/tasks_parameters/ExAp01/sample49.txt 1.33662 6.65996 4.80244 0.498533 18.4617
files/tasks_parameters/ExAp01/sample41.txt 1.21649 7.09069 5.35462 0.497129 18.4097
