files/tasks_parameters/ExAp01/sample8.txt 1.08301 7.2562 4.46819 0.454772 9.35681
files/tasks_parameters/ExAp01/sample12.txt 1.46933 9.70908 5.28286 0.618515 12.7258
files/tasks_parameters/ExAp01/sample2.txt 1.4346 8.14159 5.7401 0.620531 12.7672
files/tasks_parameters/ExAp01/sample44.txt 1.30833 7.25164 5.75904 0.557631 11.4731
files/tasks_parameters/ExAp01/sample27.txt 1.33463 8.10944 5.64946 0.564878 11.6222
files/tasks_parameters/ExAp01/sample17.txt 1.23526 7.11225 5.46658 0.527183 10.8466
files/tasks_parameters/ExAp01/sample9.txt 1.20665 7.62559 5.37813 0.517277 10.6428
files/tasks_parameters/ExAp01/sample34.txt 1.24997 7.04587 5.93037 0.497709 10.2402
files/tasks_parameters/ExAp01/sample40.txt 1.19376 8.03037 5.123 0.502383 10.3364
files/tasks_parameters/ExAp01/sample33.txt 1.51141 9.22935 5.92956 0.659262 13.5641
files/tasks_parameters/ExAp01/sample48.txt 1.07807 8.12182 5.1577 0.452491 9.30986
files/tasks_parameters/ExAp01/sample29.txt 1.48203 8.06133 5.12331 0.650652 13.387
files/tasks_parameters/ExAp01/sample11.txt 1.30332 7.63104 5.37897 0.563302 11.5898
files/tasks_parameters/ExAp01/sample14.txt 1.12715 6.66403 4.66322 0.471536 9.70172
files/tasks_parameters/ExAp01/sample0.txt 1.48081 9.3266 4.98971 0.6311 12.9847
files/tasks_parameters/ExAp01/sample7.txt 1.21626 7.34863 5.19436 0.515527 10.6068
files/tasks_parameters/ExAp01/sample23.txt 1.36181 6.68564 5.54308 0.588617 12.1106
files/tasks_parameters/ExAp01/sample13.txt 1.48904 9.31093 5.35591 0.632849 13.0207
files/tasks_parameters/ExAp01/sample22.txt 1.27414 7.65588 5.04866 0.540336 11.1173
files/tasks_parameters/ExAp01/sample25.txt 1.03212 6.17035 5.0141 0.408296 8.40057
files/tasks_parameters/ExAp01/sample36.txt 1.17505 7.03772 4.66274 0.507647 10.4447
files/tasks_parameters/ExAp01/sample46.txt 1.25096 7.73433 4.79934 0.536843 11.0454
files/tasks_parameters/ExAp01/sample31.txt 1.17353 6.96928 5.16482 0.485817 9.99555
files/tasks_parameters/ExAp01/sample37.txt 1.52963 9.52443 5.74224 0.65799 13.5379
files/tasks_parameters/ExAp01/sample16.txt 1.31826 8.63521 4.97261 0.516328 10.6233
files/tasks_parameters/ExAp01/sample10.txt 1.43099 7.28353 6.16876 0.615651 12.6668
files/tasks_parameters/ExAp01/sample39.txt 1.11994 6.3405 4.6137 0.468873 9.64693
files/tasks_parameters/ExAp01/sample19.txt 1.42697 8.85528 5.22306 0.622152 12.8006
files/tasks_parameters/ExAp01/sample20.txt 1.35624 8.1141 5.21177 0.586994 12.0772
files/tasks_parameters/ExAp01/sample43.txt 1.26651 7.21373 5.6367 0.53748 11.0585
files/tasks_parameters/ExAp01/sample32.txt 1.40187 8.30592 5.38137 0.593918 12.2197
files/tasks_parameters/ExAp01/sample45.txt 1.26616 7.94069 4.96323 0.547271 11.2599
files/tasks_parameters/ExAp01/sample26.txt 1.131 7.57061 4.62637 0.480146 9.87886
files/tasks_parameters/ExAp01/sample5.txt 1.38428 8.0307 5.35681 0.59407 12.2228
files/tasks_parameters/ExAp01/sample21.txt 1.03864 5.87802 4.61744 0.434264 8.93486
files/tasks_parameters/ExAp01/sample38.txt 1.15853 7.66999 4.86632 0.496808 10.2217
files/tasks_parameters/ExAp01/sample1.txt 1.15647 7.21312 4.63213 0.486293 10.0053
files/tasks_parameters/ExAp01/sample15.txt 1.26164 8.02273 5.50855 0.531063 10.9265
files/tasks_parameters/ExAp01/sample24.txt 1.29045 8.66348 5.4905 0.548998 11.2955
files/tasks_parameters/ExAp01/sample3.txt 1.13867 7.74268 4.79918 0.477387 9.8221
files/tasks_parameters/ExAp01/sample6.txt 1.4514 8.57133 5.80157 0.633604 13.0362
files/tasks_parameters/ExAp01/sample30.txt 1.48865 8.18878 5.90888 0.633576 13.0357
files/tasks_parameters/ExAp01/sample42.txt 1.32862 8.57689 5.67253 0.54426 11.198
files/tasks_parameters/ExAp01/sample4.txt 1.31556 8.40354 4.57985 0.563519 11.5942
files/tasks_parameters/ExAp01/sample28.txt 1.05779 6.44114 4.96426 0.449721 9.25289
files/tasks_parameters/ExAp01/sample18.txt 1.26714 8.56363 4.60946 0.543766 11.1878
files/tasks_parameters/ExAp01/sample35.txt 1.77872 11.0387 6.34514 0.761377 15.6651
files/tasks_parameters/ExAp01/sample47.txt 1.24832 7.14493 5.22131 0.545046 11.2142
files/tasks_parameters/ExAp01/sample49.txt 1.23071 6.65996 4.80244 0.498533 10.2572
files/tasks_parameters/ExAp01/sample41.txt 1.15045 7.09069 5.35462 0.497129 10.2283
