files/tasks_parameters/ExAp01/sample8.txt 1.00553 3.76817 4.3855 0.450105 14.2154
files/tasks_parameters/ExAp01/sample12.txt 1.34714 5.03638 5.18776 0.610564 19.283
files/tasks_parameters/ExAp01/sample2.txt 1.29804 4.58991 5.64606 0.613877 19.3877
files/tasks_parameters/ExAp01/sample44.txt 1.17822 3.77401 5.66946 0.551838 17.4283
files/tasks_parameters/ExAp01/sample27.txt 1.19675 4.13937 5.56136 0.55779 17.6163
files/tasks_parameters/ExAp01/sample17.txt 1.10848 3.76163 5.38341 0.520991 16.4541
files/tasks_parameters/ExAp01/sample9.txt 1.09599 3.69889 5.2981 0.511699 16.1607
files/tasks_parameters/ExAp01/sample34.txt 1.08862 3.52435 5.83741 0.49187 15.5344
files/tasks_parameters/ExAp01/sample40.txt 1.066 4.06185 5.0335 0.496884 15.6928
files/tasks_parameters/ExAp01/sample33.txt 1.40992 4.82091 5.83886 0.651963 20.5905
files/tasks_parameters/ExAp01/sample48.txt 0.973289 4.01134 5.07085 0.447927 14.1466
files/tasks_parameters/ExAp01/sample29.txt 1.35335 4.20847 5.0406 0.643694 20.3294
files/tasks_parameters/ExAp01/sample11.txt 1.20477 3.94699 5.29198 0.557276 17.6001
files/tasks_parameters/ExAp01/sample14.txt 1.02476 3.54059 4.58345 0.466713 14.7399
files/tasks_parameters/ExAp01/sample0.txt 1.33153 4.82755 4.90216 0.623551 19.6932
files/tasks_parameters/ExAp01/sample7.txt 1.11235 3.60766 5.11185 0.509566 16.0933
files/tasks_parameters/ExAp01/sample23.txt 1.2785 3.81403 5.45799 0.582911 18.4097
files/tasks_parameters/ExAp01/sample13.txt 1.35337 4.8894 5.26818 0.624499 19.7231
files/tasks_parameters/ExAp01/sample22.txt 1.15515 3.76156 4.95746 0.534216 16.8718
files/tasks_parameters/ExAp01/sample25.txt 0.901426 2.94144 4.92622 0.403639 12.7479
files/tasks_parameters/ExAp01/sample36.txt 1.10854 3.56164 4.5806 0.501799 15.848
files/tasks_parameters/ExAp01/sample46.txt 1.18466 3.84833 4.7121 0.530701 16.7608
files/tasks_parameters/ExAp01/sample31.txt 1.07576 3.764 5.08385 0.479734 15.1511
files/tasks_parameters/ExAp01/sample37.txt 1.39348 4.43254 5.65111 0.65143 20.5737
files/tasks_parameters/ExAp01/sample16.txt 1.19847 4.49741 4.8895 0.509171 16.0808
files/tasks_parameters/ExAp01/sample10.txt 1.3117 3.87086 6.07511 0.60993 19.263
files/tasks_parameters/ExAp01/sample39.txt 1.01932 3.66299 4.54281 0.463671 14.6438
files/tasks_parameters/ExAp01/sample19.txt 1.30854 3.86694 5.14047 0.615987 19.4543
files/tasks_parameters/ExAp01/sample20.txt 1.22401 4.09945 5.13368 0.580369 18.3294
files/tasks_parameters/ExAp01/sample43.txt 1.14256 3.75825 5.55698 0.530892 16.7668
files/tasks_parameters/ExAp01/sample32.txt 1.29569 4.0352 5.29178 0.587643 18.5591
files/tasks_parameters/ExAp01/sample45.txt 1.1775 3.94578 4.87833 0.541081 17.0886
files/tasks_parameters/ExAp01/sample26.txt 1.02106 3.50998 4.55035 0.474009 14.9703
files/tasks_parameters/ExAp01/sample5.txt 1.28031 4.00994 5.27725 0.587681 18.5603
files/tasks_parameters/ExAp01/sample21.txt 0.945781 2.8974 4.54677 0.430037 13.5816
files/tasks_parameters/ExAp01/sample38.txt 1.0543 3.56689 4.78573 0.492366 15.5501
files/tasks_parameters/ExAp01/sample1.txt 1.04847 3.69002 4.55048 0.481074 15.1934
files/tasks_parameters/ExAp01/sample15.txt 1.12904 3.73223 5.42493 0.524964 16.5796
files/tasks_parameters/ExAp01/sample24.txt 1.15901 4.18053 5.40377 0.542575 17.1358
files/tasks_parameters/ExAp01/sample3.txt 1.00693 3.70547 4.7118 0.470503 14.8596
files/tasks_parameters/ExAp01/sample6.txt 1.31727 4.07521 5.71419 0.626702 19.7927
files/tasks_parameters/ExAp01/sample30.txt 1.35841 3.97446 5.82388 0.626709 19.7929
files/tasks_parameters/ExAp01/sample42.txt 1.17957 4.44207 5.58473 0.537025 16.9605
files/tasks_parameters/ExAp01/sample4.txt 1.19839 3.92181 4.49751 0.556974 17.5905
files/tasks_parameters/ExAp01/sample28.txt 0.953895 3.13496 4.88321 0.444588 14.0411
files/tasks_parameters/ExAp01/sample18.txt 1.16674 3.95301 4.52898 0.537438 16.9735
files/tasks_parameters/ExAp01/sample35.txt 1.66441 5.75923 6.25034 0.752488 23.7653
files/tasks_parameters/ExAp01/sample47.txt 1.14416 3.44018 5.14289 0.540033 17.0555
files/tasks_parameters/ExAp01/sample49.txt 1.12576 3.38981 4.72409 0.493041 15.5714
files/tasks_parameters/ExAp01/sample41.txt 1.06704 3.58692 5.27252 0.492391 15.5508
