files/tasks_parameters/ExAp01/sample8.txt 0.867984 3.15778 1.5595 0.203411 7.71967
files/tasks_parameters/ExAp01/sample12.txt 0.991641 3.94962 1.6705 0.207924 7.89094
files/tasks_parameters/ExAp01/sample2.txt 0.937228 3.78275 1.74131 0.200098 7.59392
files/tasks_parameters/ExAp01/sample44.txt 0.894265 3.59825 1.65317 0.200005 7.59041
files/tasks_parameters/ExAp01/sample27.txt 0.828954 3.45743 1.5148 0.182129 6.91198
files/tasks_parameters/ExAp01/sample17.txt 0.725239 2.77299 1.44514 0.14646 5.55831
files/tasks_parameters/ExAp01/sample9.txt 0.809301 2.99933 1.451 0.177444 6.73418
files/tasks_parameters/ExAp01/sample34.txt 0.750248 3.02928 1.58429 0.157984 5.99565
files/tasks_parameters/ExAp01/sample40.txt 0.803702 3.86889 1.52122 0.168379 6.39018
files/tasks_parameters/ExAp01/sample33.txt 0.857354 3.63695 1.71905 0.199765 7.5813
files/tasks_parameters/ExAp01/sample48.txt 0.740489 3.39061 1.49062 0.154728 5.8721
files/tasks_parameters/ExAp01/sample29.txt 0.94692 3.30472 1.38739 0.223868 8.49605
files/tasks_parameters/ExAp01/sample11.txt 0.78053 3.10585 1.41612 0.174079 6.60647
files/tasks_parameters/ExAp01/sample14.txt 0.701838 2.70971 1.43432 0.162214 6.15622
files/tasks_parameters/ExAp01/sample0.txt 0.875112 3.6937 1.5439 0.18367 6.97047
files/tasks_parameters/ExAp01/sample7.txt 0.71645 2.70501 1.42221 0.143463 5.44459
files/tasks_parameters/ExAp01/sample23.txt 0.848388 3.2697 1.57822 0.181448 6.88617
files/tasks_parameters/ExAp01/sample13.txt 0.913025 3.84225 1.67648 0.198247 7.52369
files/tasks_parameters/ExAp01/sample22.txt 0.726584 3.09569 1.56121 0.148796 5.64698
files/tasks_parameters/ExAp01/sample25.txt 0.635901 2.73966 1.5007 0.148149 5.6224
files/tasks_parameters/ExAp01/sample36.txt 0.640051 2.85948 1.28553 0.130042 4.93525
files/tasks_parameters/ExAp01/sample46.txt 0.901926 3.58643 1.69998 0.210103 7.97363
files/tasks_parameters/ExAp01/sample31.txt 0.860404 3.4832 1.53782 0.1722 6.53518
files/tasks_parameters/ExAp01/sample37.txt 0.840462 3.95293 1.50705 0.171701 6.51624
files/tasks_parameters/ExAp01/sample16.txt 0.748597 3.31216 1.30115 0.150249 5.70211
files/tasks_parameters/ExAp01/sample10.txt 0.77832 3.17098 1.61789 0.153776 5.83598
files/tasks_parameters/ExAp01/sample39.txt 0.747363 3.26617 1.44406 0.165669 6.28731
files/tasks_parameters/ExAp01/sample19.txt 0.915594 3.63532 1.52509 0.196094 7.442
files/tasks_parameters/ExAp01/sample20.txt 0.688706 3.20793 1.25367 0.147335 5.59154
files/tasks_parameters/ExAp01/sample43.txt 0.688439 3.11551 1.4202 0.150644 5.71712
files/tasks_parameters/ExAp01/sample32.txt 0.840066 3.5311 1.42482 0.168744 6.40403
files/tasks_parameters/ExAp01/sample45.txt 0.915723 3.80283 1.48324 0.19807 7.51699
files/tasks_parameters/ExAp01/sample26.txt 0.752968 3.21645 1.29701 0.166061 6.30221
files/tasks_parameters/ExAp01/sample5.txt 0.818021 3.5889 1.52559 0.178903 6.78958
files/tasks_parameters/ExAp01/sample21.txt 0.846677 2.75242 1.55936 0.19512 7.40503
files/tasks_parameters/ExAp01/sample38.txt 0.76511 3.31563 1.37515 0.166157 6.30583
files/tasks_parameters/ExAp01/sample1.txt 0.900434 3.74964 1.51696 0.19701 7.47673
files/tasks_parameters/ExAp01/sample15.txt 0.824822 3.32916 1.48508 0.180707 6.85805
files/tasks_parameters/ExAp01/sample24.txt 0.800132 3.45951 1.59549 0.16529 6.27295
files/tasks_parameters/ExAp01/sample3.txt 1.03846 3.70014 1.70809 0.237107 8.99847
files/tasks_parameters/ExAp01/sample6.txt 0.815978 3.33003 1.58323 0.184714 7.01012
files/tasks_parameters/ExAp01/sample30.txt 1.13239 4.1841 1.4861 0.239623 9.09396
files/tasks_parameters/ExAp01/sample42.txt 0.814522 3.43221 1.70276 0.177383 6.73187
files/tasks_parameters/ExAp01/sample4.txt 0.953647 3.72477 1.6136 0.196448 7.45542
files/tasks_parameters/ExAp01/sample28.txt 0.736103 3.11323 1.45032 0.158819 6.02736
files/tasks_parameters/ExAp01/sample18.txt 0.743674 3.47418 1.45209 0.149064 5.65714
files/tasks_parameters/ExAp01/sample35.txt 0.942838 4.57086 1.49394 0.185031 7.02212
files/tasks_parameters/ExAp01/sample47.txt 0.773768 3.13768 1.52397 0.16417 6.23044
files/tasks_parameters/ExAp01/sample49.txt 0.77823 3.13288 1.49657 0.156154 5.92622
files/tasks_parameters/ExAp01/sample41.txt 0.696574 2.81964 1.49636 0.150876 5.72591
