digraph G {
0 ->7 1 ->8 2 ->6 3 ->7 4 ->6 4 ->9 5 ->7 6 ->11 6 ->13 6 ->14 6 ->16 7 ->10 7 ->12 7 ->13 8 ->10 8 ->14 8 ->15 9 ->12 9 ->15 9 ->16 10 ->17 11 ->18 12 ->22 13 ->20 13 ->23 14 ->17 14 ->19 15 ->17 15 ->19 16 ->17 16 ->19 16 ->21 17 ->26 17 ->28 18 ->25 19 ->24 19 ->25 19 ->28 20 ->27 21 ->26 22 ->24 23 ->24 23 ->28 24 ->34 24 ->35 24 ->37 25 ->30 25 ->31 25 ->37 26 ->29 26 ->31 26 ->33 26 ->36 27 ->31 27 ->32 27 ->35 27 ->38 28 ->35 29 ->39 30 ->39 32 ->40 34 ->42 35 ->40 35 ->42 38 ->39 38 ->41 39 ->43 39 ->44 40 ->43 40 ->45 40 ->48 41 ->44 41 ->45 41 ->47 41 ->49 42 ->46 42 ->49 
}
