0 15
1 9
1 14
1 15
1 16
1 18
1 19
2 9
2 14
2 16
3 9
3 13
3 14
4 14
4 15
4 16
4 20
5 8
5 11
5 12
5 13
5 15
5 16
5 17
6 8
6 10
6 13
7 13
7 17
7 19
8 25
9 22
10 21
10 25
11 23
11 26
12 22
13 22
14 22
14 25
15 23
16 23
17 22
17 25
19 26
20 22
20 23
20 24
20 26
21 29
22 29
22 30
22 31
23 27
24 30
24 32
25 32
26 28
26 29
26 30
26 32
27 34
27 36
27 37
28 36
28 37
29 35
29 37
30 33
30 34
30 35
30 36
31 35
32 33
33 40
33 44
33 45
33 50
33 51
34 40
34 42
34 44
34 48
34 52
35 38
35 39
35 40
35 41
35 44
35 46
35 47
35 50
35 52
36 38
36 39
36 43
37 48
37 49
38 53
39 53
40 56
40 58
41 53
41 56
41 58
42 55
42 58
44 57
44 58
45 55
46 55
46 56
47 54
47 55
48 53
49 56
50 53
50 56
51 55
51 56
52 53
52 55
52 56
53 59
53 61
53 63
53 64
53 66
53 67
53 68
54 59
54 60
54 61
54 66
54 67
54 69
54 72
55 60
55 61
55 62
55 63
55 67
55 68
56 65
56 71
57 65
57 70
57 71
57 72
58 62
58 63
58 66
58 72
59 77
59 78
60 74
60 76
60 79
60 81
60 82
60 83
60 86
61 76
61 77
61 80
61 81
62 77
62 79
62 82
62 83
63 73
63 74
63 81
63 85
63 86
64 74
64 75
64 79
65 76
65 77
65 86
66 76
66 81
66 85
66 86
67 75
67 77
67 79
67 81
67 83
67 86
68 73
68 76
68 79
68 84
68 85
69 73
69 76
69 79
69 84
69 85
70 76
70 77
70 79
70 84
70 85
71 77
71 82
71 83
71 84
71 85
72 73
72 74
72 83
72 84
73 87
73 88
73 90
74 89
75 89
76 89
78 87
80 87
80 91
81 89
82 87
83 89
83 91
85 87
85 88
85 91
86 88
86 91
87 93
87 94
87 95
87 97
88 96
88 97
89 92
89 96
90 95
90 96
91 93
91 94
92 98
94 98
96 99
