files/tasks_parameters/ExAp01/sample8.txt 1.08361 3.76817 4.3855 0.450105 9.51651
files/tasks_parameters/ExAp01/sample12.txt 1.49418 5.03638 5.18776 0.610564 12.9091
files/tasks_parameters/ExAp01/sample2.txt 1.38418 4.58991 5.64606 0.613877 12.9791
files/tasks_parameters/ExAp01/sample44.txt 1.24953 3.77401 5.66946 0.551838 11.6674
files/tasks_parameters/ExAp01/sample27.txt 1.29418 4.13937 5.56136 0.55779 11.7933
files/tasks_parameters/ExAp01/sample17.txt 1.19467 3.76163 5.38341 0.520991 11.0152
files/tasks_parameters/ExAp01/sample9.txt 1.1433 3.69889 5.2981 0.511699 10.8188
files/tasks_parameters/ExAp01/sample34.txt 1.13513 3.52435 5.83741 0.49187 10.3995
files/tasks_parameters/ExAp01/sample40.txt 1.15486 4.06185 5.0335 0.496884 10.5055
files/tasks_parameters/ExAp01/sample33.txt 1.55311 4.82091 5.83886 0.651963 13.7844
files/tasks_parameters/ExAp01/sample48.txt 1.06937 4.01134 5.07085 0.447927 9.47046
files/tasks_parameters/ExAp01/sample29.txt 1.47156 4.20847 5.0406 0.643694 13.6095
files/tasks_parameters/ExAp01/sample11.txt 1.31879 3.94699 5.29198 0.557276 11.7824
files/tasks_parameters/ExAp01/sample14.txt 1.08396 3.54059 4.58345 0.466713 9.86766
files/tasks_parameters/ExAp01/sample0.txt 1.50811 4.82755 4.90216 0.623551 13.1836
files/tasks_parameters/ExAp01/sample7.txt 1.15002 3.60766 5.11185 0.509566 10.7737
files/tasks_parameters/ExAp01/sample23.txt 1.41564 3.81403 5.45799 0.582911 12.3244
files/tasks_parameters/ExAp01/sample13.txt 1.46327 4.8894 5.26818 0.624499 13.2037
files/tasks_parameters/ExAp01/sample22.txt 1.29069 3.76156 4.95746 0.534216 11.2949
files/tasks_parameters/ExAp01/sample25.txt 0.976769 2.94144 4.92622 0.403639 8.53409
files/tasks_parameters/ExAp01/sample36.txt 1.25826 3.56164 4.5806 0.501799 10.6095
files/tasks_parameters/ExAp01/sample46.txt 1.23268 3.84833 4.7121 0.530701 11.2205
files/tasks_parameters/ExAp01/sample31.txt 1.07256 3.764 5.08385 0.479734 10.1429
files/tasks_parameters/ExAp01/sample37.txt 1.52462 4.43254 5.65111 0.65143 13.7731
files/tasks_parameters/ExAp01/sample16.txt 1.27275 4.49741 4.8895 0.509171 10.7653
files/tasks_parameters/ExAp01/sample10.txt 1.38978 3.87086 6.07511 0.60993 12.8957
files/tasks_parameters/ExAp01/sample39.txt 1.04986 3.66299 4.54281 0.463671 9.80334
files/tasks_parameters/ExAp01/sample19.txt 1.40998 3.86694 5.14047 0.615987 13.0237
files/tasks_parameters/ExAp01/sample20.txt 1.30362 4.09945 5.13368 0.580369 12.2707
files/tasks_parameters/ExAp01/sample43.txt 1.1546 3.75825 5.55698 0.530892 11.2246
files/tasks_parameters/ExAp01/sample32.txt 1.42906 4.0352 5.29178 0.587643 12.4245
files/tasks_parameters/ExAp01/sample45.txt 1.22607 3.94578 4.87833 0.541081 11.44
files/tasks_parameters/ExAp01/sample26.txt 1.11073 3.50998 4.55035 0.474009 10.0219
files/tasks_parameters/ExAp01/sample5.txt 1.35602 4.00994 5.27725 0.587681 12.4252
files/tasks_parameters/ExAp01/sample21.txt 0.935245 2.8974 4.54677 0.430037 9.09222
files/tasks_parameters/ExAp01/sample38.txt 1.17206 3.56689 4.78573 0.492366 10.41
files/tasks_parameters/ExAp01/sample1.txt 1.15536 3.69002 4.55048 0.481074 10.1713
files/tasks_parameters/ExAp01/sample15.txt 1.20629 3.73223 5.42493 0.524964 11.0992
files/tasks_parameters/ExAp01/sample24.txt 1.27552 4.18053 5.40377 0.542575 11.4716
files/tasks_parameters/ExAp01/sample3.txt 1.08376 3.70547 4.7118 0.470503 9.94778
files/tasks_parameters/ExAp01/sample6.txt 1.38737 4.07521 5.71419 0.626702 13.2503
files/tasks_parameters/ExAp01/sample30.txt 1.49598 3.97446 5.82388 0.626709 13.2504
files/tasks_parameters/ExAp01/sample42.txt 1.29681 4.44207 5.58473 0.537025 11.3542
files/tasks_parameters/ExAp01/sample4.txt 1.40697 3.92181 4.49751 0.556974 11.776
files/tasks_parameters/ExAp01/sample28.txt 1.02415 3.13496 4.88321 0.444588 9.39987
files/tasks_parameters/ExAp01/sample18.txt 1.22803 3.95301 4.52898 0.537438 11.363
files/tasks_parameters/ExAp01/sample35.txt 1.80969 5.75923 6.25034 0.752488 15.9097
files/tasks_parameters/ExAp01/sample47.txt 1.16153 3.44018 5.14289 0.540033 11.4178
files/tasks_parameters/ExAp01/sample49.txt 1.22986 3.38981 4.72409 0.493041 10.4243
files/tasks_parameters/ExAp01/sample41.txt 1.10214 3.58692 5.27252 0.492391 10.4105
