files/tasks_parameters/ExAp01/sample8.txt 1.11181 7.2562 4.46819 0.454772 11.7274
files/tasks_parameters/ExAp01/sample12.txt 1.64123 9.70908 5.28286 0.618515 15.9499
files/tasks_parameters/ExAp01/sample2.txt 1.50039 8.14159 5.7401 0.620531 16.0019
files/tasks_parameters/ExAp01/sample44.txt 1.39812 7.25164 5.75904 0.557631 14.3799
files/tasks_parameters/ExAp01/sample27.txt 1.3183 8.10944 5.64946 0.564878 14.5668
files/tasks_parameters/ExAp01/sample17.txt 1.26966 7.11225 5.46658 0.527183 13.5947
files/tasks_parameters/ExAp01/sample9.txt 1.21411 7.62559 5.37813 0.517277 13.3393
files/tasks_parameters/ExAp01/sample34.txt 1.2448 7.04587 5.93037 0.497709 12.8347
files/tasks_parameters/ExAp01/sample40.txt 1.201 8.03037 5.123 0.502383 12.9552
files/tasks_parameters/ExAp01/sample33.txt 1.63735 9.22935 5.92956 0.659262 17.0007
files/tasks_parameters/ExAp01/sample48.txt 1.15842 8.12182 5.1577 0.452491 11.6686
files/tasks_parameters/ExAp01/sample29.txt 1.55512 8.06133 5.12331 0.650652 16.7787
files/tasks_parameters/ExAp01/sample11.txt 1.35889 7.63104 5.37897 0.563302 14.5261
files/tasks_parameters/ExAp01/sample14.txt 1.13168 6.66403 4.66322 0.471536 12.1597
files/tasks_parameters/ExAp01/sample0.txt 1.64548 9.3266 4.98971 0.6311 16.2745
files/tasks_parameters/ExAp01/sample7.txt 1.30132 7.34863 5.19436 0.515527 13.2941
files/tasks_parameters/ExAp01/sample23.txt 1.40541 6.68564 5.54308 0.588617 15.1789
files/tasks_parameters/ExAp01/sample13.txt 1.65219 9.31093 5.35591 0.632849 16.3196
files/tasks_parameters/ExAp01/sample22.txt 1.29523 7.65588 5.04866 0.540336 13.9339
files/tasks_parameters/ExAp01/sample25.txt 1.0295 6.17035 5.0141 0.408296 10.5289
files/tasks_parameters/ExAp01/sample36.txt 1.19007 7.03772 4.66274 0.507647 13.0909
files/tasks_parameters/ExAp01/sample46.txt 1.3517 7.73433 4.79934 0.536843 13.8438
files/tasks_parameters/ExAp01/sample31.txt 1.19045 6.96928 5.16482 0.485817 12.528
files/tasks_parameters/ExAp01/sample37.txt 1.63286 9.52443 5.74224 0.65799 16.9679
files/tasks_parameters/ExAp01/sample16.txt 1.43905 8.63521 4.97261 0.516328 13.3148
files/tasks_parameters/ExAp01/sample10.txt 1.39877 7.28353 6.16876 0.615651 15.8761
files/tasks_parameters/ExAp01/sample39.txt 1.14417 6.3405 4.6137 0.468873 12.091
files/tasks_parameters/ExAp01/sample19.txt 1.63042 8.85528 5.22306 0.622152 16.0437
files/tasks_parameters/ExAp01/sample20.txt 1.39422 8.1141 5.21177 0.586994 15.1371
files/tasks_parameters/ExAp01/sample43.txt 1.30697 7.21373 5.6367 0.53748 13.8602
files/tasks_parameters/ExAp01/sample32.txt 1.60337 8.30592 5.38137 0.593918 15.3156
files/tasks_parameters/ExAp01/sample45.txt 1.42255 7.94069 4.96323 0.547271 14.1127
files/tasks_parameters/ExAp01/sample26.txt 1.12609 7.57061 4.62637 0.480146 12.3817
files/tasks_parameters/ExAp01/sample5.txt 1.49388 8.0307 5.35681 0.59407 15.3195
files/tasks_parameters/ExAp01/sample21.txt 1.02755 5.87802 4.61744 0.434264 11.1986
files/tasks_parameters/ExAp01/sample38.txt 1.18496 7.66999 4.86632 0.496808 12.8114
files/tasks_parameters/ExAp01/sample1.txt 1.18258 7.21312 4.63213 0.486293 12.5403
files/tasks_parameters/ExAp01/sample15.txt 1.28125 8.02273 5.50855 0.531063 13.6948
files/tasks_parameters/ExAp01/sample24.txt 1.32473 8.66348 5.4905 0.548998 14.1573
files/tasks_parameters/ExAp01/sample3.txt 1.18752 7.74268 4.79918 0.477387 12.3106
files/tasks_parameters/ExAp01/sample6.txt 1.50555 8.57133 5.80157 0.633604 16.339
files/tasks_parameters/ExAp01/sample30.txt 1.69649 8.18878 5.90888 0.633576 16.3383
files/tasks_parameters/ExAp01/sample42.txt 1.30482 8.57689 5.67253 0.54426 14.0351
files/tasks_parameters/ExAp01/sample4.txt 1.35055 8.40354 4.57985 0.563519 14.5317
files/tasks_parameters/ExAp01/sample28.txt 1.07441 6.44114 4.96426 0.449721 11.5972
files/tasks_parameters/ExAp01/sample18.txt 1.3282 8.56363 4.60946 0.543766 14.0224
files/tasks_parameters/ExAp01/sample35.txt 1.98273 11.0387 6.34514 0.761377 19.634
files/tasks_parameters/ExAp01/sample47.txt 1.32345 7.14493 5.22131 0.545046 14.0553
files/tasks_parameters/ExAp01/sample49.txt 1.32739 6.65996 4.80244 0.498533 12.8559
files/tasks_parameters/ExAp01/sample41.txt 1.18983 7.09069 5.35462 0.497129 12.8197
