files/tasks_parameters/ExAp01/sample8.txt 1.09153 6.77015 2.19458 0.288816 8.16975
files/tasks_parameters/ExAp01/sample12.txt 1.19386 9.58351 2.46081 0.337498 9.54682
files/tasks_parameters/ExAp01/sample2.txt 1.12788 8.44418 2.50701 0.319127 9.02716
files/tasks_parameters/ExAp01/sample44.txt 1.06718 6.96299 2.23089 0.28229 7.98515
files/tasks_parameters/ExAp01/sample27.txt 1.11076 7.74306 2.16676 0.28602 8.09064
files/tasks_parameters/ExAp01/sample17.txt 1.00364 7.35053 2.25579 0.292348 8.26964
files/tasks_parameters/ExAp01/sample9.txt 0.995461 6.89392 2.21068 0.282399 7.98822
files/tasks_parameters/ExAp01/sample34.txt 1.03282 6.62788 2.3772 0.297742 8.42222
files/tasks_parameters/ExAp01/sample40.txt 0.929845 7.75686 2.17534 0.285619 8.07931
files/tasks_parameters/ExAp01/sample33.txt 1.1816 8.14826 2.6463 0.338073 9.56308
files/tasks_parameters/ExAp01/sample48.txt 0.943064 7.64107 2.14272 0.270011 7.63781
files/tasks_parameters/ExAp01/sample29.txt 1.01404 7.139 1.93769 0.286306 8.09873
files/tasks_parameters/ExAp01/sample11.txt 0.998421 6.88688 2.12981 0.280008 7.9206
files/tasks_parameters/ExAp01/sample14.txt 0.858948 6.11983 1.97599 0.247458 6.99983
files/tasks_parameters/ExAp01/sample0.txt 1.08 8.2738 2.14256 0.289132 8.17867
files/tasks_parameters/ExAp01/sample7.txt 0.980787 6.87011 2.05821 0.269886 7.63425
files/tasks_parameters/ExAp01/sample23.txt 1.0535 6.52032 2.38087 0.291712 8.25165
files/tasks_parameters/ExAp01/sample13.txt 1.08731 8.73247 2.33415 0.295393 8.35577
files/tasks_parameters/ExAp01/sample22.txt 0.979558 6.9777 2.28948 0.283979 8.03292
files/tasks_parameters/ExAp01/sample25.txt 0.95441 6.23444 2.2122 0.267298 7.56105
files/tasks_parameters/ExAp01/sample36.txt 0.954749 6.6174 1.9458 0.253823 7.17988
files/tasks_parameters/ExAp01/sample46.txt 1.2075 7.42369 2.49128 0.327273 9.25757
files/tasks_parameters/ExAp01/sample31.txt 0.887553 7.22028 2.13584 0.25377 7.17839
files/tasks_parameters/ExAp01/sample37.txt 1.00874 8.90704 2.16981 0.295708 8.3647
files/tasks_parameters/ExAp01/sample16.txt 0.981541 8.18243 1.88294 0.24945 7.05619
files/tasks_parameters/ExAp01/sample10.txt 1.08314 6.96646 2.31217 0.285748 8.08295
files/tasks_parameters/ExAp01/sample39.txt 0.931892 6.4161 1.97266 0.251967 7.12738
files/tasks_parameters/ExAp01/sample19.txt 1.1209 8.16711 2.23199 0.308463 8.72549
files/tasks_parameters/ExAp01/sample20.txt 0.944648 7.28549 1.88944 0.25994 7.35292
files/tasks_parameters/ExAp01/sample43.txt 0.914697 6.86804 2.00142 0.25616 7.246
files/tasks_parameters/ExAp01/sample32.txt 1.01025 8.15663 2.12995 0.281726 7.9692
files/tasks_parameters/ExAp01/sample45.txt 0.978537 7.75184 2.10599 0.274935 7.77709
files/tasks_parameters/ExAp01/sample26.txt 0.948471 7.4944 1.88956 0.267248 7.55965
files/tasks_parameters/ExAp01/sample5.txt 1.05525 8.08362 2.09961 0.28454 8.04879
files/tasks_parameters/ExAp01/sample21.txt 0.879408 6.11814 2.17119 0.26143 7.39506
files/tasks_parameters/ExAp01/sample38.txt 0.928576 7.761 1.96293 0.263659 7.45812
files/tasks_parameters/ExAp01/sample1.txt 1.04571 7.83752 2.13261 0.289228 8.1814
files/tasks_parameters/ExAp01/sample15.txt 1.03051 7.37971 2.12057 0.285825 8.08515
files/tasks_parameters/ExAp01/sample24.txt 1.02679 8.28531 2.25272 0.296628 8.39073
files/tasks_parameters/ExAp01/sample3.txt 1.10506 7.33359 2.39135 0.305084 8.62993
files/tasks_parameters/ExAp01/sample6.txt 0.999219 7.09894 2.24425 0.281804 7.9714
files/tasks_parameters/ExAp01/sample30.txt 1.10609 8.17669 2.03701 0.299204 8.46359
files/tasks_parameters/ExAp01/sample42.txt 1.10788 7.70416 2.42413 0.29743 8.4134
files/tasks_parameters/ExAp01/sample4.txt 1.16149 7.41691 2.36261 0.307803 8.70682
files/tasks_parameters/ExAp01/sample28.txt 0.976046 7.0562 2.07657 0.266428 7.53645
files/tasks_parameters/ExAp01/sample18.txt 0.932026 7.60139 2.1377 0.268016 7.58137
files/tasks_parameters/ExAp01/sample35.txt 1.15628 9.66795 2.28028 0.32244 9.12085
files/tasks_parameters/ExAp01/sample47.txt 0.93043 6.84842 2.12104 0.251655 7.11856
files/tasks_parameters/ExAp01/sample49.txt 0.994669 7.1497 2.11412 0.255889 7.23833
files/tasks_parameters/ExAp01/sample41.txt 0.980657 6.59911 2.07359 0.265885 7.5211
