files/tasks_parameters/ExAp01/sample8.txt 1.08772 3.76817 4.3855 0.450105 15.8747
files/tasks_parameters/ExAp01/sample12.txt 1.49787 5.03638 5.18776 0.610564 21.5339
files/tasks_parameters/ExAp01/sample2.txt 1.43758 4.58991 5.64606 0.613877 21.6507
files/tasks_parameters/ExAp01/sample44.txt 1.29132 3.77401 5.66946 0.551838 19.4626
files/tasks_parameters/ExAp01/sample27.txt 1.29418 4.13937 5.56136 0.55779 19.6725
files/tasks_parameters/ExAp01/sample17.txt 1.2041 3.76163 5.38341 0.520991 18.3747
files/tasks_parameters/ExAp01/sample9.txt 1.16046 3.69889 5.2981 0.511699 18.047
files/tasks_parameters/ExAp01/sample34.txt 1.13513 3.52435 5.83741 0.49187 17.3477
files/tasks_parameters/ExAp01/sample40.txt 1.16895 4.06185 5.0335 0.496884 17.5245
files/tasks_parameters/ExAp01/sample33.txt 1.55311 4.82091 5.83886 0.651963 22.9939
files/tasks_parameters/ExAp01/sample48.txt 1.1158 4.01134 5.07085 0.447927 15.7978
files/tasks_parameters/ExAp01/sample29.txt 1.48144 4.20847 5.0406 0.643694 22.7023
files/tasks_parameters/ExAp01/sample11.txt 1.31879 3.94699 5.29198 0.557276 19.6544
files/tasks_parameters/ExAp01/sample14.txt 1.08636 3.54059 4.58345 0.466713 16.4604
files/tasks_parameters/ExAp01/sample0.txt 1.53387 4.82755 4.90216 0.623551 21.9919
files/tasks_parameters/ExAp01/sample7.txt 1.15513 3.60766 5.11185 0.509566 17.9718
files/tasks_parameters/ExAp01/sample23.txt 1.45515 3.81403 5.45799 0.582911 20.5586
files/tasks_parameters/ExAp01/sample13.txt 1.51168 4.8894 5.26818 0.624499 22.0253
files/tasks_parameters/ExAp01/sample22.txt 1.29323 3.76156 4.95746 0.534216 18.8411
files/tasks_parameters/ExAp01/sample25.txt 0.977718 2.94144 4.92622 0.403639 14.2359
files/tasks_parameters/ExAp01/sample36.txt 1.25826 3.56164 4.5806 0.501799 17.6978
files/tasks_parameters/ExAp01/sample46.txt 1.28132 3.84833 4.7121 0.530701 18.7172
files/tasks_parameters/ExAp01/sample31.txt 1.09389 3.764 5.08385 0.479734 16.9196
files/tasks_parameters/ExAp01/sample37.txt 1.52643 4.43254 5.65111 0.65143 22.9751
files/tasks_parameters/ExAp01/sample16.txt 1.23921 4.49741 4.8895 0.509171 17.9578
files/tasks_parameters/ExAp01/sample10.txt 1.38978 3.87086 6.07511 0.60993 21.5115
files/tasks_parameters/ExAp01/sample39.txt 1.09164 3.66299 4.54281 0.463671 16.3531
files/tasks_parameters/ExAp01/sample19.txt 1.40865 3.86694 5.14047 0.615987 21.7251
files/tasks_parameters/ExAp01/sample20.txt 1.30941 4.09945 5.13368 0.580369 20.4689
files/tasks_parameters/ExAp01/sample43.txt 1.15554 3.75825 5.55698 0.530892 18.7239
files/tasks_parameters/ExAp01/sample32.txt 1.50165 4.0352 5.29178 0.587643 20.7255
files/tasks_parameters/ExAp01/sample45.txt 1.23223 3.94578 4.87833 0.541081 19.0833
files/tasks_parameters/ExAp01/sample26.txt 1.11274 3.50998 4.55035 0.474009 16.7177
files/tasks_parameters/ExAp01/sample5.txt 1.38255 4.00994 5.27725 0.587681 20.7268
files/tasks_parameters/ExAp01/sample21.txt 0.933921 2.8974 4.54677 0.430037 15.1669
files/tasks_parameters/ExAp01/sample38.txt 1.17009 3.56689 4.78573 0.492366 17.3652
files/tasks_parameters/ExAp01/sample1.txt 1.15862 3.69002 4.55048 0.481074 16.9669
files/tasks_parameters/ExAp01/sample15.txt 1.20629 3.73223 5.42493 0.524964 18.5148
files/tasks_parameters/ExAp01/sample24.txt 1.31054 4.18053 5.40377 0.542575 19.136
files/tasks_parameters/ExAp01/sample3.txt 1.10212 3.70547 4.7118 0.470503 16.5941
files/tasks_parameters/ExAp01/sample6.txt 1.41995 4.07521 5.71419 0.626702 22.103
files/tasks_parameters/ExAp01/sample30.txt 1.49393 3.97446 5.82388 0.626709 22.1033
files/tasks_parameters/ExAp01/sample42.txt 1.29681 4.44207 5.58473 0.537025 18.9402
files/tasks_parameters/ExAp01/sample4.txt 1.36789 3.92181 4.49751 0.556974 19.6438
files/tasks_parameters/ExAp01/sample28.txt 1.0631 3.13496 4.88321 0.444588 15.6801
files/tasks_parameters/ExAp01/sample18.txt 1.22991 3.95301 4.52898 0.537438 18.9548
files/tasks_parameters/ExAp01/sample35.txt 1.90946 5.75923 6.25034 0.752488 26.5393
files/tasks_parameters/ExAp01/sample47.txt 1.16153 3.44018 5.14289 0.540033 19.0463
files/tasks_parameters/ExAp01/sample49.txt 1.19873 3.38981 4.72409 0.493041 17.389
files/tasks_parameters/ExAp01/sample41.txt 1.10214 3.58692 5.27252 0.492391 17.366
