files/tasks_parameters/ExAp01/sample8.txt 1.11057 7.2562 4.46819 0.454772 16.0393
files/tasks_parameters/ExAp01/sample12.txt 1.64268 9.70908 5.28286 0.618515 21.8142
files/tasks_parameters/ExAp01/sample2.txt 1.50039 8.14159 5.7401 0.620531 21.8854
files/tasks_parameters/ExAp01/sample44.txt 1.38324 7.25164 5.75904 0.557631 19.6669
files/tasks_parameters/ExAp01/sample27.txt 1.31972 8.10944 5.64946 0.564878 19.9226
files/tasks_parameters/ExAp01/sample17.txt 1.26746 7.11225 5.46658 0.527183 18.5931
files/tasks_parameters/ExAp01/sample9.txt 1.2246 7.62559 5.37813 0.517277 18.2437
files/tasks_parameters/ExAp01/sample34.txt 1.23761 7.04587 5.93037 0.497709 17.5536
files/tasks_parameters/ExAp01/sample40.txt 1.201 8.03037 5.123 0.502383 17.7184
files/tasks_parameters/ExAp01/sample33.txt 1.63735 9.22935 5.92956 0.659262 23.2514
files/tasks_parameters/ExAp01/sample48.txt 1.15848 8.12182 5.1577 0.452491 15.9588
files/tasks_parameters/ExAp01/sample29.txt 1.55578 8.06133 5.12331 0.650652 22.9477
files/tasks_parameters/ExAp01/sample11.txt 1.36212 7.63104 5.37897 0.563302 19.867
files/tasks_parameters/ExAp01/sample14.txt 1.13168 6.66403 4.66322 0.471536 16.6305
files/tasks_parameters/ExAp01/sample0.txt 1.63305 9.3266 4.98971 0.6311 22.2581
files/tasks_parameters/ExAp01/sample7.txt 1.25975 7.34863 5.19436 0.515527 18.182
files/tasks_parameters/ExAp01/sample23.txt 1.40241 6.68564 5.54308 0.588617 20.7598
files/tasks_parameters/ExAp01/sample13.txt 1.65034 9.31093 5.35591 0.632849 22.3198
files/tasks_parameters/ExAp01/sample22.txt 1.33095 7.65588 5.04866 0.540336 19.057
files/tasks_parameters/ExAp01/sample25.txt 1.0295 6.17035 5.0141 0.408296 14.4001
files/tasks_parameters/ExAp01/sample36.txt 1.22276 7.03772 4.66274 0.507647 17.9041
files/tasks_parameters/ExAp01/sample46.txt 1.3491 7.73433 4.79934 0.536843 18.9338
files/tasks_parameters/ExAp01/sample31.txt 1.19045 6.96928 5.16482 0.485817 17.1342
files/tasks_parameters/ExAp01/sample37.txt 1.6413 9.52443 5.74224 0.65799 23.2065
files/tasks_parameters/ExAp01/sample16.txt 1.43426 8.63521 4.97261 0.516328 18.2102
files/tasks_parameters/ExAp01/sample10.txt 1.39877 7.28353 6.16876 0.615651 21.7132
files/tasks_parameters/ExAp01/sample39.txt 1.14417 6.3405 4.6137 0.468873 16.5366
files/tasks_parameters/ExAp01/sample19.txt 1.63097 8.85528 5.22306 0.622152 21.9425
files/tasks_parameters/ExAp01/sample20.txt 1.39428 8.1141 5.21177 0.586994 20.7025
files/tasks_parameters/ExAp01/sample43.txt 1.24124 7.21373 5.6367 0.53748 18.9562
files/tasks_parameters/ExAp01/sample32.txt 1.60366 8.30592 5.38137 0.593918 20.9468
files/tasks_parameters/ExAp01/sample45.txt 1.42262 7.94069 4.96323 0.547271 19.3016
files/tasks_parameters/ExAp01/sample26.txt 1.16499 7.57061 4.62637 0.480146 16.9341
files/tasks_parameters/ExAp01/sample5.txt 1.49433 8.0307 5.35681 0.59407 20.9521
files/tasks_parameters/ExAp01/sample21.txt 1.02755 5.87802 4.61744 0.434264 15.316
files/tasks_parameters/ExAp01/sample38.txt 1.18504 7.66999 4.86632 0.496808 17.5218
files/tasks_parameters/ExAp01/sample1.txt 1.16534 7.21312 4.63213 0.486293 17.151
files/tasks_parameters/ExAp01/sample15.txt 1.26654 8.02273 5.50855 0.531063 18.7299
files/tasks_parameters/ExAp01/sample24.txt 1.33839 8.66348 5.4905 0.548998 19.3625
files/tasks_parameters/ExAp01/sample3.txt 1.16705 7.74268 4.79918 0.477387 16.8368
files/tasks_parameters/ExAp01/sample6.txt 1.60853 8.57133 5.80157 0.633604 22.3464
files/tasks_parameters/ExAp01/sample30.txt 1.69579 8.18878 5.90888 0.633576 22.3455
files/tasks_parameters/ExAp01/sample42.txt 1.30441 8.57689 5.67253 0.54426 19.1954
files/tasks_parameters/ExAp01/sample4.txt 1.34361 8.40354 4.57985 0.563519 19.8746
files/tasks_parameters/ExAp01/sample28.txt 1.07476 6.44114 4.96426 0.449721 15.8611
files/tasks_parameters/ExAp01/sample18.txt 1.3281 8.56363 4.60946 0.543766 19.178
files/tasks_parameters/ExAp01/sample35.txt 1.98334 11.0387 6.34514 0.761377 26.8528
files/tasks_parameters/ExAp01/sample47.txt 1.32259 7.14493 5.22131 0.545046 19.2231
files/tasks_parameters/ExAp01/sample49.txt 1.33809 6.65996 4.80244 0.498533 17.5827
files/tasks_parameters/ExAp01/sample41.txt 1.21687 7.09069 5.35462 0.497129 17.5331
