0 54
0 58
0 65
0 70
0 76
0 78
0 79
1 54
1 66
1 67
1 68
1 75
1 80
2 53
2 54
2 63
2 68
2 77
2 78
2 81
3 54
3 55
3 56
3 58
3 66
3 68
3 78
4 55
4 56
4 60
4 63
4 65
4 69
4 70
4 75
4 76
4 78
4 79
4 80
5 56
5 57
5 67
5 68
5 73
5 79
5 80
6 56
6 59
6 61
6 62
6 66
6 69
6 70
6 73
6 74
6 81
7 54
7 75
7 76
7 79
8 57
8 59
8 61
8 65
8 69
8 72
8 78
9 58
9 66
9 67
9 71
9 77
10 53
10 54
10 57
10 58
10 63
10 65
10 66
10 70
10 71
10 77
10 81
11 54
11 55
11 56
11 57
11 66
11 69
11 70
11 71
11 78
12 53
12 54
12 55
12 56
12 57
12 58
12 63
12 66
12 70
12 74
13 53
13 54
13 55
13 57
13 57
13 62
13 63
13 66
13 75
13 77
14 54
14 55
14 56
14 58
14 62
14 68
14 70
14 71
14 78
15 55
15 57
15 58
15 58
15 68
15 70
15 76
15 77
15 78
16 58
16 61
16 68
16 74
16 77
17 57
17 58
17 61
17 65
17 70
17 76
18 54
18 58
18 68
18 77
18 80
19 53
19 56
19 60
19 61
19 64
19 66
19 68
19 71
19 76
19 77
20 53
20 55
20 62
20 66
20 70
20 75
20 79
21 53
21 55
21 57
21 61
21 62
21 63
21 65
21 66
21 70
21 74
21 79
22 66
22 67
22 73
22 81
23 53
23 57
23 58
23 66
23 68
23 69
23 71
23 75
23 78
24 53
24 54
24 55
24 57
24 58
24 61
24 70
24 71
24 74
24 75
24 78
24 80
25 54
25 55
25 56
25 57
25 59
25 61
25 68
25 71
25 76
25 78
25 79
26 53
26 54
26 57
26 59
26 60
26 64
26 65
26 66
26 68
26 69
26 78
26 79
27 54
27 56
27 58
27 59
27 65
27 66
27 67
27 75
27 79
28 57
28 58
28 76
28 77
28 78
29 53
29 54
29 55
29 57
29 69
29 77
29 80
30 54
30 68
30 70
30 71
30 73
30 78
31 54
31 57
31 58
31 60
31 61
31 62
31 68
31 70
31 72
31 73
31 75
31 78
32 53
32 54
32 62
32 67
32 70
32 78
33 61
33 62
33 65
33 67
33 69
33 71
34 55
34 58
34 64
34 67
34 70
34 71
34 73
34 74
34 77
34 78
34 79
34 81
35 53
35 55
35 57
35 62
35 63
35 66
35 70
35 71
35 74
35 78
35 79
36 54
36 55
36 57
36 58
36 61
36 70
36 70
36 71
36 72
36 74
36 79
36 81
37 55
37 57
37 59
37 66
37 70
37 71
37 75
38 55
38 68
38 71
38 76
38 79
39 54
39 68
39 69
39 71
39 73
39 75
39 78
39 79
40 53
40 54
40 55
40 59
40 66
40 69
40 71
40 76
40 79
41 53
41 55
41 58
41 63
41 67
41 76
42 55
42 62
42 71
42 76
43 55
43 57
43 59
43 60
43 61
43 62
43 68
43 71
43 74
43 76
43 78
44 54
44 55
44 57
44 61
44 62
44 66
44 69
44 70
44 72
45 53
45 54
45 55
45 57
45 58
46 53
46 54
46 58
46 67
46 79
47 53
47 62
47 66
47 70
47 71
47 77
47 79
48 53
48 54
48 55
48 65
48 66
48 68
48 74
48 75
48 79
48 80
49 53
49 55
49 57
49 61
49 65
49 66
49 68
49 76
50 54
50 55
50 57
50 61
50 62
50 66
50 67
50 70
50 75
50 76
50 77
50 79
51 53
51 55
51 58
51 65
51 66
51 71
51 75
51 76
52 58
52 61
52 64
52 65
52 75
52 76
52 78
52 79
52 80
53 82
53 86
53 88
53 90
53 95
54 86
54 88
54 98
55 82
55 85
55 88
55 89
55 94
55 95
55 96
55 97
55 99
56 86
56 95
56 96
56 97
56 99
57 85
57 86
57 89
57 94
57 96
57 97
57 98
58 82
58 85
58 86
58 89
58 91
58 92
58 93
58 95
58 96
59 85
59 86
59 86
59 87
59 89
59 96
59 97
59 98
60 85
60 87
60 88
60 89
60 90
61 85
61 94
61 97
62 85
62 88
62 91
62 92
62 94
62 97
63 86
63 88
63 92
63 97
63 99
64 90
64 92
64 93
64 95
64 97
64 98
65 88
65 90
65 91
65 92
65 95
65 96
66 85
66 89
66 93
66 95
66 97
67 82
67 95
67 96
67 98
68 92
68 96
68 97
69 82
69 85
69 86
70 86
70 89
70 99
71 83
71 87
71 89
71 90
71 91
71 94
71 95
71 96
71 97
71 98
72 82
72 89
72 96
73 82
73 88
73 91
73 94
73 97
73 98
74 82
74 85
75 86
75 88
75 90
75 93
75 96
75 97
75 98
76 82
76 86
76 87
76 92
76 93
76 97
76 98
77 82
77 84
77 86
77 90
77 92
77 98
77 98
78 83
78 86
78 88
78 90
78 92
78 94
79 83
79 85
79 88
79 89
79 90
79 92
79 98
80 84
80 87
80 90
80 92
80 98
80 99
81 82
81 85
81 88
81 90
81 98
