0 13
0 14
0 34
0 38
0 41
1 10
1 11
1 14
1 21
1 41
2 10
2 19
2 22
2 33
2 35
3 12
3 13
3 14
3 16
3 17
3 18
3 33
3 36
3 42
4 13
4 20
4 24
4 28
4 40
5 11
5 28
5 37
6 12
6 14
6 26
6 29
7 10
7 14
7 23
7 32
7 33
8 12
8 28
8 42
9 11
9 13
9 15
9 20
9 21
9 25
9 39
11 15
11 24
12 32
12 38
12 40
12 49
13 19
13 41
13 53
14 22
14 27
14 34
14 41
14 43
15 44
15 61
16 24
16 32
16 39
16 42
16 58
16 64
17 26
17 40
17 45
17 55
17 63
17 64
18 29
18 34
18 38
18 62
18 64
19 53
19 54
19 62
20 30
20 49
20 67
21 58
21 70
21 74
22 32
22 46
22 51
22 57
22 58
22 66
22 70
22 75
23 37
23 50
23 60
24 43
24 48
24 54
24 61
24 68
25 34
25 70
26 31
26 44
26 48
26 54
26 59
27 69
30 79
31 61
32 44
32 69
32 71
34 64
35 49
36 55
36 61
36 76
37 44
37 67
37 75
38 43
38 52
38 53
38 64
39 44
40 46
40 61
40 62
40 65
40 71
40 74
40 82
41 50
41 55
41 58
41 62
41 63
41 67
41 69
41 72
41 73
41 75
42 60
42 70
42 80
43 45
43 46
43 47
43 52
43 57
43 73
43 77
43 82
43 88
44 51
44 56
44 60
44 62
44 76
45 71
45 72
46 62
46 79
48 64
48 82
49 67
49 79
51 61
51 67
51 97
53 57
53 58
53 98
55 74
55 78
55 81
55 82
56 87
57 71
57 78
57 95
58 76
59 75
59 90
59 94
60 93
60 96
60 97
61 73
61 77
61 97
61 98
62 70
62 92
63 70
63 82
64 81
64 83
65 84
66 86
67 71
68 95
70 95
71 93
72 79
74 85
74 89
74 96
75 87
75 95
76 86
78 87
80 90
80 97
81 91
83 84
83 91
83 95
84 98
88 96
90 98
91 99
