0 13
0 14
0 17
0 18
0 20
0 23
0 25
0 27
0 31
0 32
0 34
0 43
0 56
1 14
1 16
1 17
1 19
1 21
1 29
1 32
1 33
1 37
1 48
2 16
2 20
2 27
2 32
3 17
3 21
3 23
3 25
3 29
3 30
3 43
4 15
4 18
4 19
4 20
4 23
4 24
4 30
4 31
4 38
4 41
4 43
4 52
5 21
5 40
5 42
6 15
6 16
6 23
6 27
6 32
6 33
6 49
6 55
7 13
7 14
7 24
7 25
7 27
7 29
7 30
7 41
7 48
7 54
7 55
8 16
8 22
8 23
8 26
8 29
8 41
8 42
8 47
9 15
9 16
9 19
9 20
9 21
9 24
9 29
9 47
9 50
10 13
10 17
10 18
10 19
10 20
10 22
10 24
10 31
10 32
11 18
11 21
11 22
11 25
11 28
11 29
12 14
12 18
12 22
12 25
12 29
12 30
12 31
12 32
12 36
12 38
12 40
13 58
14 39
14 63
15 31
15 48
16 62
16 68
17 62
18 63
19 51
19 74
20 75
21 27
21 32
21 35
21 57
21 58
21 60
22 27
22 30
22 45
22 58
23 39
23 71
24 40
24 42
24 66
25 51
25 61
26 28
26 34
27 38
27 53
27 79
27 82
28 57
28 78
28 79
29 51
29 56
29 67
29 76
30 37
30 41
30 51
30 55
30 73
30 78
31 45
31 53
31 67
31 73
31 76
32 36
32 45
32 65
32 80
33 45
33 65
33 72
33 77
33 79
34 48
34 49
34 54
34 68
34 78
34 85
34 88
35 48
35 61
35 79
36 44
36 49
36 75
36 78
36 79
36 92
37 61
37 82
37 92
38 51
38 52
38 65
38 66
38 87
38 91
39 47
39 69
40 45
40 52
40 58
41 50
41 62
42 46
42 54
42 84
43 65
43 74
43 84
43 88
44 83
44 98
45 59
45 64
45 82
45 83
46 92
47 87
49 56
49 68
49 70
49 84
50 81
50 84
51 90
51 98
52 65
52 70
52 78
52 86
52 90
53 77
54 77
55 90
55 98
56 72
56 85
56 99
57 78
57 80
60 62
60 76
60 77
60 83
60 97
61 77
61 78
61 82
61 89
61 92
61 97
62 80
63 91
63 96
64 81
65 99
66 76
66 94
66 96
67 87
67 88
67 95
69 96
71 76
71 79
72 76
72 77
72 80
73 86
74 86
78 96
79 90
80 93
80 96
80 97
81 89
83 86
83 88
90 96
94 99
