files/tasks_parameters/ExAp01/sample8.txt 1.17023 6.77015 2.19458 0.288816 9.53593
files/tasks_parameters/ExAp01/sample12.txt 1.30667 9.58351 2.46081 0.337498 11.1433
files/tasks_parameters/ExAp01/sample2.txt 1.22817 8.44418 2.50701 0.319127 10.5367
files/tasks_parameters/ExAp01/sample44.txt 1.07717 6.96299 2.23089 0.28229 9.32046
files/tasks_parameters/ExAp01/sample27.txt 1.17772 7.74306 2.16676 0.28602 9.44359
files/tasks_parameters/ExAp01/sample17.txt 1.11865 7.35053 2.25579 0.292348 9.65252
files/tasks_parameters/ExAp01/sample9.txt 1.17215 6.89392 2.21068 0.282399 9.32404
files/tasks_parameters/ExAp01/sample34.txt 1.1449 6.62788 2.3772 0.297742 9.83062
files/tasks_parameters/ExAp01/sample40.txt 0.97856 7.75686 2.17534 0.285619 9.43037
files/tasks_parameters/ExAp01/sample33.txt 1.29767 8.14826 2.6463 0.338073 11.1623
files/tasks_parameters/ExAp01/sample48.txt 0.962583 7.64107 2.14272 0.270011 8.91503
files/tasks_parameters/ExAp01/sample29.txt 1.10485 7.139 1.93769 0.286306 9.45303
files/tasks_parameters/ExAp01/sample11.txt 1.06606 6.88688 2.12981 0.280008 9.24511
files/tasks_parameters/ExAp01/sample14.txt 0.95523 6.11983 1.97599 0.247458 8.17037
files/tasks_parameters/ExAp01/sample0.txt 1.18878 8.2738 2.14256 0.289132 9.54634
files/tasks_parameters/ExAp01/sample7.txt 1.03731 6.87011 2.05821 0.269886 8.91088
files/tasks_parameters/ExAp01/sample23.txt 1.07978 6.52032 2.38087 0.291712 9.63152
files/tasks_parameters/ExAp01/sample13.txt 1.09561 8.73247 2.33415 0.295393 9.75306
files/tasks_parameters/ExAp01/sample22.txt 1.10025 6.9777 2.28948 0.283979 9.37622
files/tasks_parameters/ExAp01/sample25.txt 1.02069 6.23444 2.2122 0.267298 8.82544
files/tasks_parameters/ExAp01/sample36.txt 1.00511 6.6174 1.9458 0.253823 8.38053
files/tasks_parameters/ExAp01/sample46.txt 1.28857 7.42369 2.49128 0.327273 10.8057
files/tasks_parameters/ExAp01/sample31.txt 0.932118 7.22028 2.13584 0.25377 8.37879
files/tasks_parameters/ExAp01/sample37.txt 1.19158 8.90704 2.16981 0.295708 9.76347
files/tasks_parameters/ExAp01/sample16.txt 1.07595 8.18243 1.88294 0.24945 8.23615
files/tasks_parameters/ExAp01/sample10.txt 1.1062 6.96646 2.31217 0.285748 9.43462
files/tasks_parameters/ExAp01/sample39.txt 1.00361 6.4161 1.97266 0.251967 8.31925
files/tasks_parameters/ExAp01/sample19.txt 1.25723 8.16711 2.23199 0.308463 10.1846
files/tasks_parameters/ExAp01/sample20.txt 0.9425 7.28549 1.88944 0.25994 8.5825
files/tasks_parameters/ExAp01/sample43.txt 0.935187 6.86804 2.00142 0.25616 8.45771
files/tasks_parameters/ExAp01/sample32.txt 1.03337 8.15663 2.12995 0.281726 9.30184
files/tasks_parameters/ExAp01/sample45.txt 1.06881 7.75184 2.10599 0.274935 9.0776
files/tasks_parameters/ExAp01/sample26.txt 0.943339 7.4944 1.88956 0.267248 8.8238
files/tasks_parameters/ExAp01/sample5.txt 1.1894 8.08362 2.09961 0.28454 9.39474
files/tasks_parameters/ExAp01/sample21.txt 0.903085 6.11814 2.17119 0.26143 8.63169
files/tasks_parameters/ExAp01/sample38.txt 0.998499 7.761 1.96293 0.263659 8.7053
files/tasks_parameters/ExAp01/sample1.txt 1.09916 7.83752 2.13261 0.289228 9.54952
files/tasks_parameters/ExAp01/sample15.txt 0.961638 7.37971 2.12057 0.285825 9.43717
files/tasks_parameters/ExAp01/sample24.txt 1.15513 8.28531 2.25272 0.296628 9.79386
files/tasks_parameters/ExAp01/sample3.txt 1.29367 7.33359 2.39135 0.305084 10.0731
files/tasks_parameters/ExAp01/sample6.txt 1.02254 7.09894 2.24425 0.281804 9.30441
files/tasks_parameters/ExAp01/sample30.txt 1.28118 8.17669 2.03701 0.299204 9.87891
files/tasks_parameters/ExAp01/sample42.txt 1.12624 7.70416 2.42413 0.29743 9.82032
files/tasks_parameters/ExAp01/sample4.txt 1.11174 7.41691 2.36261 0.307803 10.1628
files/tasks_parameters/ExAp01/sample28.txt 0.996484 7.0562 2.07657 0.266428 8.79672
files/tasks_parameters/ExAp01/sample18.txt 1.13121 7.60139 2.1377 0.268016 8.84916
files/tasks_parameters/ExAp01/sample35.txt 1.26041 9.66795 2.28028 0.32244 10.6461
files/tasks_parameters/ExAp01/sample47.txt 0.997702 6.84842 2.12104 0.251655 8.30895
files/tasks_parameters/ExAp01/sample49.txt 1.10412 7.1497 2.11412 0.255889 8.44875
files/tasks_parameters/ExAp01/sample41.txt 1.04545 6.59911 2.07359 0.265885 8.77881
