0 11
0 12
0 16
2 8
2 13
2 15
3 12
3 13
3 14
4 13
5 10
5 14
5 15
6 8
6 9
6 10
6 13
6 14
7 8
7 12
7 16
8 17
8 21
9 18
10 19
12 17
12 20
14 17
14 18
15 17
15 18
15 21
16 17
16 19
16 21
17 23
17 24
17 27
17 29
17 30
18 25
18 26
18 27
18 30
19 26
20 22
20 23
20 27
20 28
21 22
21 23
21 24
21 30
21 31
22 36
23 33
23 36
23 39
24 35
24 36
24 38
26 35
26 37
27 38
28 36
29 34
29 36
29 37
30 32
31 32
31 35
32 42
33 40
33 42
34 40
34 42
35 41
36 43
37 40
39 40
41 44
41 45
41 46
41 47
42 46
42 47
43 45
44 48
44 49
47 48
