0 6
0 7
0 10
1 3
1 4
1 6
1 7
1 8
1 9
2 5
3 13
3 14
3 16
4 12
4 13
4 15
5 12
5 15
5 16
6 13
6 14
7 13
7 16
8 15
9 11
9 14
10 12
10 14
10 15
10 16
10 17
12 18
15 19
15 20
16 19
16 21
17 18
17 20
18 27
19 22
19 24
20 23
20 24
20 25
21 22
21 25
21 26
21 27
22 31
22 32
22 32
22 35
23 31
23 34
24 30
24 34
25 29
25 35
26 28
26 30
27 28
27 30
27 32
27 33
28 36
28 40
29 36
29 38
29 40
30 40
31 38
31 43
32 38
32 39
32 42
33 38
33 42
33 44
34 36
34 37
34 41
35 37
35 41
36 45
36 46
36 47
36 48
37 48
38 47
39 46
39 49
40 45
41 49
42 48
43 47
43 49
44 45
44 47
44 49
