0 8
1 6
1 7
1 10
2 4
2 5
2 8
2 9
2 10
3 4
3 6
4 15
4 17
5 11
5 14
5 16
6 12
6 14
6 15
6 16
7 15
7 17
7 18
8 16
8 17
9 12
9 13
10 11
10 12
10 13
10 14
11 19
11 22
12 22
13 20
13 23
14 21
17 19
18 23
19 25
19 31
20 30
21 27
21 30
22 26
22 27
22 28
22 31
23 24
23 25
23 28
23 29
25 32
25 36
26 33
26 34
27 35
28 32
28 34
29 32
30 34
30 36
30 37
31 33
31 34
31 37
32 40
34 41
34 42
35 40
36 39
37 38
37 39
37 40
37 43
38 44
38 45
39 45
39 46
41 47
42 47
44 49
46 48
47 48
