files/tasks_parameters/ExAp01/sample8.txt 1.08762 3.76817 4.3855 0.450105 11.675
files/tasks_parameters/ExAp01/sample12.txt 1.49418 5.03638 5.18776 0.610564 15.8371
files/tasks_parameters/ExAp01/sample2.txt 1.39234 4.58991 5.64606 0.613877 15.923
files/tasks_parameters/ExAp01/sample44.txt 1.28672 3.77401 5.66946 0.551838 14.3138
files/tasks_parameters/ExAp01/sample27.txt 1.29418 4.13937 5.56136 0.55779 14.4682
files/tasks_parameters/ExAp01/sample17.txt 1.20384 3.76163 5.38341 0.520991 13.5137
files/tasks_parameters/ExAp01/sample9.txt 1.16012 3.69889 5.2981 0.511699 13.2727
files/tasks_parameters/ExAp01/sample34.txt 1.13513 3.52435 5.83741 0.49187 12.7583
files/tasks_parameters/ExAp01/sample40.txt 1.16957 4.06185 5.0335 0.496884 12.8884
files/tasks_parameters/ExAp01/sample33.txt 1.55311 4.82091 5.83886 0.651963 16.9109
files/tasks_parameters/ExAp01/sample48.txt 1.08638 4.01134 5.07085 0.447927 11.6185
files/tasks_parameters/ExAp01/sample29.txt 1.52253 4.20847 5.0406 0.643694 16.6964
files/tasks_parameters/ExAp01/sample11.txt 1.31879 3.94699 5.29198 0.557276 14.4548
files/tasks_parameters/ExAp01/sample14.txt 1.08582 3.54059 4.58345 0.466713 12.1058
files/tasks_parameters/ExAp01/sample0.txt 1.53372 4.82755 4.90216 0.623551 16.1739
files/tasks_parameters/ExAp01/sample7.txt 1.15002 3.60766 5.11185 0.509566 13.2173
files/tasks_parameters/ExAp01/sample23.txt 1.39278 3.81403 5.45799 0.582911 15.1198
files/tasks_parameters/ExAp01/sample13.txt 1.48673 4.8894 5.26818 0.624499 16.1985
files/tasks_parameters/ExAp01/sample22.txt 1.29069 3.76156 4.95746 0.534216 13.8567
files/tasks_parameters/ExAp01/sample25.txt 0.982879 2.94144 4.92622 0.403639 10.4697
files/tasks_parameters/ExAp01/sample36.txt 1.25826 3.56164 4.5806 0.501799 13.0158
files/tasks_parameters/ExAp01/sample46.txt 1.23268 3.84833 4.7121 0.530701 13.7655
files/tasks_parameters/ExAp01/sample31.txt 1.09913 3.764 5.08385 0.479734 12.4435
files/tasks_parameters/ExAp01/sample37.txt 1.5241 4.43254 5.65111 0.65143 16.897
files/tasks_parameters/ExAp01/sample16.txt 1.27104 4.49741 4.8895 0.509171 13.2071
files/tasks_parameters/ExAp01/sample10.txt 1.38978 3.87086 6.07511 0.60993 15.8206
files/tasks_parameters/ExAp01/sample39.txt 1.04986 3.66299 4.54281 0.463671 12.0269
files/tasks_parameters/ExAp01/sample19.txt 1.40851 3.86694 5.14047 0.615987 15.9777
files/tasks_parameters/ExAp01/sample20.txt 1.30941 4.09945 5.13368 0.580369 15.0538
files/tasks_parameters/ExAp01/sample43.txt 1.15242 3.75825 5.55698 0.530892 13.7705
files/tasks_parameters/ExAp01/sample32.txt 1.42834 4.0352 5.29178 0.587643 15.2425
files/tasks_parameters/ExAp01/sample45.txt 1.23218 3.94578 4.87833 0.541081 14.0348
files/tasks_parameters/ExAp01/sample26.txt 1.11264 3.50998 4.55035 0.474009 12.295
files/tasks_parameters/ExAp01/sample5.txt 1.35542 4.00994 5.27725 0.587681 15.2435
files/tasks_parameters/ExAp01/sample21.txt 0.933921 2.8974 4.54677 0.430037 11.1545
files/tasks_parameters/ExAp01/sample38.txt 1.16969 3.56689 4.78573 0.492366 12.7712
files/tasks_parameters/ExAp01/sample1.txt 1.15462 3.69002 4.55048 0.481074 12.4783
files/tasks_parameters/ExAp01/sample15.txt 1.20629 3.73223 5.42493 0.524964 13.6167
files/tasks_parameters/ExAp01/sample24.txt 1.29593 4.18053 5.40377 0.542575 14.0735
files/tasks_parameters/ExAp01/sample3.txt 1.08376 3.70547 4.7118 0.470503 12.2041
files/tasks_parameters/ExAp01/sample6.txt 1.41989 4.07521 5.71419 0.626702 16.2556
files/tasks_parameters/ExAp01/sample30.txt 1.49366 3.97446 5.82388 0.626709 16.2558
files/tasks_parameters/ExAp01/sample42.txt 1.29681 4.44207 5.58473 0.537025 13.9296
files/tasks_parameters/ExAp01/sample4.txt 1.32117 3.92181 4.49751 0.556974 14.447
files/tasks_parameters/ExAp01/sample28.txt 1.07689 3.13496 4.88321 0.444588 11.5319
files/tasks_parameters/ExAp01/sample18.txt 1.22803 3.95301 4.52898 0.537438 13.9403
files/tasks_parameters/ExAp01/sample35.txt 1.90912 5.75923 6.25034 0.752488 19.5183
files/tasks_parameters/ExAp01/sample47.txt 1.16153 3.44018 5.14289 0.540033 14.0076
files/tasks_parameters/ExAp01/sample49.txt 1.19873 3.38981 4.72409 0.493041 12.7887
files/tasks_parameters/ExAp01/sample41.txt 1.10214 3.58692 5.27252 0.492391 12.7718
