files/tasks_parameters/ExAp01/sample8.txt 1.1005 7.2562 4.46819 0.454772 17.546
files/tasks_parameters/ExAp01/sample12.txt 1.62827 9.70908 5.28286 0.618515 23.8635
files/tasks_parameters/ExAp01/sample2.txt 1.488 8.14159 5.7401 0.620531 23.9413
files/tasks_parameters/ExAp01/sample44.txt 1.36201 7.25164 5.75904 0.557631 21.5145
files/tasks_parameters/ExAp01/sample27.txt 1.31297 8.10944 5.64946 0.564878 21.7941
files/tasks_parameters/ExAp01/sample17.txt 1.28166 7.11225 5.46658 0.527183 20.3398
files/tasks_parameters/ExAp01/sample9.txt 1.1954 7.62559 5.37813 0.517277 19.9576
files/tasks_parameters/ExAp01/sample34.txt 1.24641 7.04587 5.93037 0.497709 19.2026
files/tasks_parameters/ExAp01/sample40.txt 1.201 8.03037 5.123 0.502383 19.3829
files/tasks_parameters/ExAp01/sample33.txt 1.61534 9.22935 5.92956 0.659262 25.4357
files/tasks_parameters/ExAp01/sample48.txt 1.15971 8.12182 5.1577 0.452491 17.458
files/tasks_parameters/ExAp01/sample29.txt 1.47703 8.06133 5.12331 0.650652 25.1035
files/tasks_parameters/ExAp01/sample11.txt 1.35889 7.63104 5.37897 0.563302 21.7333
files/tasks_parameters/ExAp01/sample14.txt 1.13168 6.66403 4.66322 0.471536 18.1928
files/tasks_parameters/ExAp01/sample0.txt 1.61517 9.3266 4.98971 0.6311 24.3491
files/tasks_parameters/ExAp01/sample7.txt 1.2296 7.34863 5.19436 0.515527 19.8901
files/tasks_parameters/ExAp01/sample23.txt 1.41683 6.68564 5.54308 0.588617 22.71
files/tasks_parameters/ExAp01/sample13.txt 1.60576 9.31093 5.35591 0.632849 24.4166
files/tasks_parameters/ExAp01/sample22.txt 1.28633 7.65588 5.04866 0.540336 20.8472
files/tasks_parameters/ExAp01/sample25.txt 1.06564 6.17035 5.0141 0.408296 15.7529
files/tasks_parameters/ExAp01/sample36.txt 1.29352 7.03772 4.66274 0.507647 19.5861
files/tasks_parameters/ExAp01/sample46.txt 1.34495 7.73433 4.79934 0.536843 20.7125
files/tasks_parameters/ExAp01/sample31.txt 1.16854 6.96928 5.16482 0.485817 18.7438
files/tasks_parameters/ExAp01/sample37.txt 1.59217 9.52443 5.74224 0.65799 25.3866
files/tasks_parameters/ExAp01/sample16.txt 1.33663 8.63521 4.97261 0.516328 19.921
files/tasks_parameters/ExAp01/sample10.txt 1.38186 7.28353 6.16876 0.615651 23.7531
files/tasks_parameters/ExAp01/sample39.txt 1.14417 6.3405 4.6137 0.468873 18.0901
files/tasks_parameters/ExAp01/sample19.txt 1.41962 8.85528 5.22306 0.622152 24.0039
files/tasks_parameters/ExAp01/sample20.txt 1.39217 8.1141 5.21177 0.586994 22.6474
files/tasks_parameters/ExAp01/sample43.txt 1.27521 7.21373 5.6367 0.53748 20.7371
files/tasks_parameters/ExAp01/sample32.txt 1.45063 8.30592 5.38137 0.593918 22.9146
files/tasks_parameters/ExAp01/sample45.txt 1.30628 7.94069 4.96323 0.547271 21.1148
files/tasks_parameters/ExAp01/sample26.txt 1.12332 7.57061 4.62637 0.480146 18.525
files/tasks_parameters/ExAp01/sample5.txt 1.38005 8.0307 5.35681 0.59407 22.9204
files/tasks_parameters/ExAp01/sample21.txt 1.01482 5.87802 4.61744 0.434264 16.7548
files/tasks_parameters/ExAp01/sample38.txt 1.18096 7.66999 4.86632 0.496808 19.1679
files/tasks_parameters/ExAp01/sample1.txt 1.16233 7.21312 4.63213 0.486293 18.7622
files/tasks_parameters/ExAp01/sample15.txt 1.26686 8.02273 5.50855 0.531063 20.4895
files/tasks_parameters/ExAp01/sample24.txt 1.31859 8.66348 5.4905 0.548998 21.1814
files/tasks_parameters/ExAp01/sample3.txt 1.1695 7.74268 4.79918 0.477387 18.4185
files/tasks_parameters/ExAp01/sample6.txt 1.46475 8.57133 5.80157 0.633604 24.4457
files/tasks_parameters/ExAp01/sample30.txt 1.58045 8.18878 5.90888 0.633576 24.4447
files/tasks_parameters/ExAp01/sample42.txt 1.33317 8.57689 5.67253 0.54426 20.9986
files/tasks_parameters/ExAp01/sample4.txt 1.29825 8.40354 4.57985 0.563519 21.7417
files/tasks_parameters/ExAp01/sample28.txt 1.05355 6.44114 4.96426 0.449721 17.3512
files/tasks_parameters/ExAp01/sample18.txt 1.28939 8.56363 4.60946 0.543766 20.9796
files/tasks_parameters/ExAp01/sample35.txt 1.92896 11.0387 6.34514 0.761377 29.3755
files/tasks_parameters/ExAp01/sample47.txt 1.32389 7.14493 5.22131 0.545046 21.029
files/tasks_parameters/ExAp01/sample49.txt 1.29327 6.65996 4.80244 0.498533 19.2344
files/tasks_parameters/ExAp01/sample41.txt 1.17558 7.09069 5.35462 0.497129 19.1802
