files/tasks_parameters/ExAp01/sample8.txt 1.08791 3.76817 4.3855 0.450105 15.5862
files/tasks_parameters/ExAp01/sample12.txt 1.49812 5.03638 5.18776 0.610564 21.1425
files/tasks_parameters/ExAp01/sample2.txt 1.43858 4.58991 5.64606 0.613877 21.2572
files/tasks_parameters/ExAp01/sample44.txt 1.25801 3.77401 5.66946 0.551838 19.1089
files/tasks_parameters/ExAp01/sample27.txt 1.29418 4.13937 5.56136 0.55779 19.315
files/tasks_parameters/ExAp01/sample17.txt 1.20458 3.76163 5.38341 0.520991 18.0408
files/tasks_parameters/ExAp01/sample9.txt 1.16106 3.69889 5.2981 0.511699 17.719
files/tasks_parameters/ExAp01/sample34.txt 1.13513 3.52435 5.83741 0.49187 17.0324
files/tasks_parameters/ExAp01/sample40.txt 1.15783 4.06185 5.0335 0.496884 17.206
files/tasks_parameters/ExAp01/sample33.txt 1.55311 4.82091 5.83886 0.651963 22.576
files/tasks_parameters/ExAp01/sample48.txt 1.07734 4.01134 5.07085 0.447927 15.5107
files/tasks_parameters/ExAp01/sample29.txt 1.54537 4.20847 5.0406 0.643694 22.2897
files/tasks_parameters/ExAp01/sample11.txt 1.31879 3.94699 5.29198 0.557276 19.2972
files/tasks_parameters/ExAp01/sample14.txt 1.08636 3.54059 4.58345 0.466713 16.1613
files/tasks_parameters/ExAp01/sample0.txt 1.53432 4.82755 4.90216 0.623551 21.5922
files/tasks_parameters/ExAp01/sample7.txt 1.15381 3.60766 5.11185 0.509566 17.6451
files/tasks_parameters/ExAp01/sample23.txt 1.45515 3.81403 5.45799 0.582911 20.1849
files/tasks_parameters/ExAp01/sample13.txt 1.51186 4.8894 5.26818 0.624499 21.625
files/tasks_parameters/ExAp01/sample22.txt 1.29323 3.76156 4.95746 0.534216 18.4987
files/tasks_parameters/ExAp01/sample25.txt 0.983594 2.94144 4.92622 0.403639 13.9771
files/tasks_parameters/ExAp01/sample36.txt 1.25826 3.56164 4.5806 0.501799 17.3762
files/tasks_parameters/ExAp01/sample46.txt 1.28158 3.84833 4.7121 0.530701 18.377
files/tasks_parameters/ExAp01/sample31.txt 1.09394 3.764 5.08385 0.479734 16.6121
files/tasks_parameters/ExAp01/sample37.txt 1.52708 4.43254 5.65111 0.65143 22.5576
files/tasks_parameters/ExAp01/sample16.txt 1.23967 4.49741 4.8895 0.509171 17.6315
files/tasks_parameters/ExAp01/sample10.txt 1.38978 3.87086 6.07511 0.60993 21.1205
files/tasks_parameters/ExAp01/sample39.txt 1.09165 3.66299 4.54281 0.463671 16.0559
files/tasks_parameters/ExAp01/sample19.txt 1.40892 3.86694 5.14047 0.615987 21.3303
files/tasks_parameters/ExAp01/sample20.txt 1.30944 4.09945 5.13368 0.580369 20.0969
files/tasks_parameters/ExAp01/sample43.txt 1.15593 3.75825 5.55698 0.530892 18.3836
files/tasks_parameters/ExAp01/sample32.txt 1.5018 4.0352 5.29178 0.587643 20.3488
files/tasks_parameters/ExAp01/sample45.txt 1.23233 3.94578 4.87833 0.541081 18.7364
files/tasks_parameters/ExAp01/sample26.txt 1.11291 3.50998 4.55035 0.474009 16.4139
files/tasks_parameters/ExAp01/sample5.txt 1.3826 4.00994 5.27725 0.587681 20.3501
files/tasks_parameters/ExAp01/sample21.txt 0.933921 2.8974 4.54677 0.430037 14.8912
files/tasks_parameters/ExAp01/sample38.txt 1.17028 3.56689 4.78573 0.492366 17.0496
files/tasks_parameters/ExAp01/sample1.txt 1.15877 3.69002 4.55048 0.481074 16.6585
files/tasks_parameters/ExAp01/sample15.txt 1.20629 3.73223 5.42493 0.524964 18.1784
files/tasks_parameters/ExAp01/sample24.txt 1.30068 4.18053 5.40377 0.542575 18.7882
files/tasks_parameters/ExAp01/sample3.txt 1.10212 3.70547 4.7118 0.470503 16.2925
files/tasks_parameters/ExAp01/sample6.txt 1.42007 4.07521 5.71419 0.626702 21.7013
files/tasks_parameters/ExAp01/sample30.txt 1.49438 3.97446 5.82388 0.626709 21.7016
files/tasks_parameters/ExAp01/sample42.txt 1.29681 4.44207 5.58473 0.537025 18.596
files/tasks_parameters/ExAp01/sample4.txt 1.36852 3.92181 4.49751 0.556974 19.2868
files/tasks_parameters/ExAp01/sample28.txt 1.05728 3.13496 4.88321 0.444588 15.3951
files/tasks_parameters/ExAp01/sample18.txt 1.23024 3.95301 4.52898 0.537438 18.6103
files/tasks_parameters/ExAp01/sample35.txt 1.90982 5.75923 6.25034 0.752488 26.057
files/tasks_parameters/ExAp01/sample47.txt 1.16153 3.44018 5.14289 0.540033 18.7002
files/tasks_parameters/ExAp01/sample49.txt 1.19873 3.38981 4.72409 0.493041 17.0729
files/tasks_parameters/ExAp01/sample41.txt 1.10214 3.58692 5.27252 0.492391 17.0504
