files/tasks_parameters/ExAp01/sample8.txt 1.95337 6.77015 2.19458 0.288816 5.74676
files/tasks_parameters/ExAp01/sample12.txt 2.23327 9.58351 2.46081 0.337498 6.71542
files/tasks_parameters/ExAp01/sample2.txt 2.15627 8.44418 2.50701 0.319127 6.34988
files/tasks_parameters/ExAp01/sample44.txt 1.88721 6.96299 2.23089 0.28229 5.61691
files/tasks_parameters/ExAp01/sample27.txt 1.89394 7.74306 2.16676 0.28602 5.69112
files/tasks_parameters/ExAp01/sample17.txt 1.95102 7.35053 2.25579 0.292348 5.81703
files/tasks_parameters/ExAp01/sample9.txt 1.88642 6.89392 2.21068 0.282399 5.61907
files/tasks_parameters/ExAp01/sample34.txt 2.00289 6.62788 2.3772 0.297742 5.92435
files/tasks_parameters/ExAp01/sample40.txt 1.92345 7.75686 2.17534 0.285619 5.68315
files/tasks_parameters/ExAp01/sample33.txt 2.26945 8.14826 2.6463 0.338073 6.72686
files/tasks_parameters/ExAp01/sample48.txt 1.80107 7.64107 2.14272 0.270011 5.37258
files/tasks_parameters/ExAp01/sample29.txt 1.86826 7.139 1.93769 0.286306 5.69681
files/tasks_parameters/ExAp01/sample11.txt 1.87986 6.88688 2.12981 0.280008 5.57151
files/tasks_parameters/ExAp01/sample14.txt 1.64568 6.11983 1.97599 0.247458 4.92382
files/tasks_parameters/ExAp01/sample0.txt 1.93736 8.2738 2.14256 0.289132 5.75304
files/tasks_parameters/ExAp01/sample7.txt 1.8113 6.87011 2.05821 0.269886 5.37008
files/tasks_parameters/ExAp01/sample23.txt 1.96762 6.52032 2.38087 0.291712 5.80437
files/tasks_parameters/ExAp01/sample13.txt 1.98115 8.73247 2.33415 0.295393 5.87761
files/tasks_parameters/ExAp01/sample22.txt 1.89436 6.9777 2.28948 0.283979 5.65051
files/tasks_parameters/ExAp01/sample25.txt 1.7855 6.23444 2.2122 0.267298 5.31859
files/tasks_parameters/ExAp01/sample36.txt 1.67545 6.6174 1.9458 0.253823 5.05047
files/tasks_parameters/ExAp01/sample46.txt 2.19111 7.42369 2.49128 0.327273 6.51196
files/tasks_parameters/ExAp01/sample31.txt 1.70251 7.22028 2.13584 0.25377 5.04942
files/tasks_parameters/ExAp01/sample37.txt 1.97665 8.90704 2.16981 0.295708 5.88389
files/tasks_parameters/ExAp01/sample16.txt 1.64799 8.18243 1.88294 0.24945 4.96346
files/tasks_parameters/ExAp01/sample10.txt 1.92003 6.96646 2.31217 0.285748 5.68571
files/tasks_parameters/ExAp01/sample39.txt 1.68874 6.4161 1.97266 0.251967 5.01354
files/tasks_parameters/ExAp01/sample19.txt 2.07496 8.16711 2.23199 0.308463 6.13768
files/tasks_parameters/ExAp01/sample20.txt 1.70592 7.28549 1.88944 0.25994 5.17219
files/tasks_parameters/ExAp01/sample43.txt 1.71077 6.86804 2.00142 0.25616 5.09698
files/tasks_parameters/ExAp01/sample32.txt 1.86592 8.15663 2.12995 0.281726 5.60569
files/tasks_parameters/ExAp01/sample45.txt 1.81849 7.75184 2.10599 0.274935 5.47055
files/tasks_parameters/ExAp01/sample26.txt 1.80114 7.4944 1.88956 0.267248 5.3176
files/tasks_parameters/ExAp01/sample5.txt 1.90666 8.08362 2.09961 0.28454 5.66168
files/tasks_parameters/ExAp01/sample21.txt 1.75894 6.11814 2.17119 0.26143 5.20183
files/tasks_parameters/ExAp01/sample38.txt 1.75423 7.761 1.96293 0.263659 5.24619
files/tasks_parameters/ExAp01/sample1.txt 1.92913 7.83752 2.13261 0.289228 5.75496
files/tasks_parameters/ExAp01/sample15.txt 1.91673 7.37971 2.12057 0.285825 5.68725
files/tasks_parameters/ExAp01/sample24.txt 2.00247 8.28531 2.25272 0.296628 5.9022
files/tasks_parameters/ExAp01/sample3.txt 2.04982 7.33359 2.39135 0.305084 6.07046
files/tasks_parameters/ExAp01/sample6.txt 1.85517 7.09894 2.24425 0.281804 5.60724
files/tasks_parameters/ExAp01/sample30.txt 1.97573 8.17669 2.03701 0.299204 5.95346
files/tasks_parameters/ExAp01/sample42.txt 1.98379 7.70416 2.42413 0.29743 5.91815
files/tasks_parameters/ExAp01/sample4.txt 2.04946 7.41691 2.36261 0.307803 6.12455
files/tasks_parameters/ExAp01/sample28.txt 1.77295 7.0562 2.07657 0.266428 5.30129
files/tasks_parameters/ExAp01/sample18.txt 1.80677 7.60139 2.1377 0.268016 5.33288
files/tasks_parameters/ExAp01/sample35.txt 2.15863 9.66795 2.28028 0.32244 6.41579
files/tasks_parameters/ExAp01/sample47.txt 1.6686 6.84842 2.12104 0.251655 5.00733
files/tasks_parameters/ExAp01/sample49.txt 1.68625 7.1497 2.11412 0.255889 5.09158
files/tasks_parameters/ExAp01/sample41.txt 1.75114 6.59911 2.07359 0.265885 5.29049
