files/tasks_parameters/ExAp01/sample8.txt 1.00746 3.76817 4.3855 0.450105 12.4913
files/tasks_parameters/ExAp01/sample12.txt 1.33308 5.03638 5.18776 0.610564 16.9443
files/tasks_parameters/ExAp01/sample2.txt 1.31461 4.58991 5.64606 0.613877 17.0363
files/tasks_parameters/ExAp01/sample44.txt 1.18791 3.77401 5.66946 0.551838 15.3146
files/tasks_parameters/ExAp01/sample27.txt 1.20717 4.13937 5.56136 0.55779 15.4797
files/tasks_parameters/ExAp01/sample17.txt 1.11977 3.76163 5.38341 0.520991 14.4585
files/tasks_parameters/ExAp01/sample9.txt 1.1037 3.69889 5.2981 0.511699 14.2007
files/tasks_parameters/ExAp01/sample34.txt 1.0764 3.52435 5.83741 0.49187 13.6504
files/tasks_parameters/ExAp01/sample40.txt 1.08169 4.06185 5.0335 0.496884 13.7895
files/tasks_parameters/ExAp01/sample33.txt 1.38877 4.82091 5.83886 0.651963 18.0932
files/tasks_parameters/ExAp01/sample48.txt 0.973027 4.01134 5.07085 0.447927 12.4308
files/tasks_parameters/ExAp01/sample29.txt 1.36342 4.20847 5.0406 0.643694 17.8638
files/tasks_parameters/ExAp01/sample11.txt 1.19904 3.94699 5.29198 0.557276 15.4655
files/tasks_parameters/ExAp01/sample14.txt 1.03999 3.54059 4.58345 0.466713 12.9522
files/tasks_parameters/ExAp01/sample0.txt 1.34707 4.82755 4.90216 0.623551 17.3047
files/tasks_parameters/ExAp01/sample7.txt 1.10262 3.60766 5.11185 0.509566 14.1414
files/tasks_parameters/ExAp01/sample23.txt 1.24671 3.81403 5.45799 0.582911 16.1769
files/tasks_parameters/ExAp01/sample13.txt 1.34428 4.8894 5.26818 0.624499 17.3311
files/tasks_parameters/ExAp01/sample22.txt 1.15797 3.76156 4.95746 0.534216 14.8255
files/tasks_parameters/ExAp01/sample25.txt 0.903713 2.94144 4.92622 0.403639 11.2018
files/tasks_parameters/ExAp01/sample36.txt 1.07529 3.56164 4.5806 0.501799 13.9259
files/tasks_parameters/ExAp01/sample46.txt 1.14208 3.84833 4.7121 0.530701 14.728
files/tasks_parameters/ExAp01/sample31.txt 1.05572 3.764 5.08385 0.479734 13.3135
files/tasks_parameters/ExAp01/sample37.txt 1.39713 4.43254 5.65111 0.65143 18.0785
files/tasks_parameters/ExAp01/sample16.txt 1.15917 4.49741 4.8895 0.509171 14.1305
files/tasks_parameters/ExAp01/sample10.txt 1.32559 3.87086 6.07511 0.60993 16.9267
files/tasks_parameters/ExAp01/sample39.txt 1.00983 3.66299 4.54281 0.463671 12.8678
files/tasks_parameters/ExAp01/sample19.txt 1.31961 3.86694 5.14047 0.615987 17.0948
files/tasks_parameters/ExAp01/sample20.txt 1.241 4.09945 5.13368 0.580369 16.1064
files/tasks_parameters/ExAp01/sample43.txt 1.15118 3.75825 5.55698 0.530892 14.7333
files/tasks_parameters/ExAp01/sample32.txt 1.28775 4.0352 5.29178 0.587643 16.3082
files/tasks_parameters/ExAp01/sample45.txt 1.16601 3.94578 4.87833 0.541081 15.016
files/tasks_parameters/ExAp01/sample26.txt 1.02885 3.50998 4.55035 0.474009 13.1547
files/tasks_parameters/ExAp01/sample5.txt 1.28804 4.00994 5.27725 0.587681 16.3093
files/tasks_parameters/ExAp01/sample21.txt 0.953588 2.8974 4.54677 0.430037 11.9344
files/tasks_parameters/ExAp01/sample38.txt 1.06424 3.56689 4.78573 0.492366 13.6641
files/tasks_parameters/ExAp01/sample1.txt 1.05298 3.69002 4.55048 0.481074 13.3507
files/tasks_parameters/ExAp01/sample15.txt 1.14007 3.73223 5.42493 0.524964 14.5688
files/tasks_parameters/ExAp01/sample24.txt 1.16844 4.18053 5.40377 0.542575 15.0575
files/tasks_parameters/ExAp01/sample3.txt 1.01441 3.70547 4.7118 0.470503 13.0574
files/tasks_parameters/ExAp01/sample6.txt 1.33148 4.07521 5.71419 0.626702 17.3922
files/tasks_parameters/ExAp01/sample30.txt 1.34837 3.97446 5.82388 0.626709 17.3924
files/tasks_parameters/ExAp01/sample42.txt 1.17153 4.44207 5.58473 0.537025 14.9035
files/tasks_parameters/ExAp01/sample4.txt 1.20396 3.92181 4.49751 0.556974 15.4571
files/tasks_parameters/ExAp01/sample28.txt 0.952847 3.13496 4.88321 0.444588 12.3382
files/tasks_parameters/ExAp01/sample18.txt 1.16104 3.95301 4.52898 0.537438 14.9149
files/tasks_parameters/ExAp01/sample35.txt 1.61653 5.75923 6.25034 0.752488 20.883
files/tasks_parameters/ExAp01/sample47.txt 1.15853 3.44018 5.14289 0.540033 14.987
files/tasks_parameters/ExAp01/sample49.txt 1.08302 3.38981 4.72409 0.493041 13.6829
files/tasks_parameters/ExAp01/sample41.txt 1.05198 3.58692 5.27252 0.492391 13.6648
