files/tasks_parameters/ExAp01/sample8.txt 1.12094 7.2562 4.46819 0.454772 30.2613
files/tasks_parameters/ExAp01/sample12.txt 1.67139 9.70908 5.28286 0.618515 41.1569
files/tasks_parameters/ExAp01/sample2.txt 1.53169 8.14159 5.7401 0.620531 41.2911
files/tasks_parameters/ExAp01/sample44.txt 1.37334 7.25164 5.75904 0.557631 37.1056
files/tasks_parameters/ExAp01/sample27.txt 1.32232 8.10944 5.64946 0.564878 37.5879
files/tasks_parameters/ExAp01/sample17.txt 1.2502 7.11225 5.46658 0.527183 35.0796
files/tasks_parameters/ExAp01/sample9.txt 1.23153 7.62559 5.37813 0.517277 34.4204
files/tasks_parameters/ExAp01/sample34.txt 1.23485 7.04587 5.93037 0.497709 33.1184
files/tasks_parameters/ExAp01/sample40.txt 1.22221 8.03037 5.123 0.502383 33.4293
files/tasks_parameters/ExAp01/sample33.txt 1.6434 9.22935 5.92956 0.659262 43.8683
files/tasks_parameters/ExAp01/sample48.txt 1.26128 8.12182 5.1577 0.452491 30.1094
files/tasks_parameters/ExAp01/sample29.txt 1.59627 8.06133 5.12331 0.650652 43.2954
files/tasks_parameters/ExAp01/sample11.txt 1.39276 7.63104 5.37897 0.563302 37.483
files/tasks_parameters/ExAp01/sample14.txt 1.14463 6.66403 4.66322 0.471536 31.3768
files/tasks_parameters/ExAp01/sample0.txt 1.58535 9.3266 4.98971 0.6311 41.9944
files/tasks_parameters/ExAp01/sample7.txt 1.29203 7.34863 5.19436 0.515527 34.304
files/tasks_parameters/ExAp01/sample23.txt 1.41973 6.68564 5.54308 0.588617 39.1675
files/tasks_parameters/ExAp01/sample13.txt 1.7025 9.31093 5.35591 0.632849 42.1108
files/tasks_parameters/ExAp01/sample22.txt 1.32126 7.65588 5.04866 0.540336 35.9548
files/tasks_parameters/ExAp01/sample25.txt 1.09001 6.17035 5.0141 0.408296 27.1687
files/tasks_parameters/ExAp01/sample36.txt 1.23113 7.03772 4.66274 0.507647 33.7796
files/tasks_parameters/ExAp01/sample46.txt 1.4144 7.73433 4.79934 0.536843 35.7224
files/tasks_parameters/ExAp01/sample31.txt 1.25699 6.96928 5.16482 0.485817 32.3271
files/tasks_parameters/ExAp01/sample37.txt 1.6365 9.52443 5.74224 0.65799 43.7837
files/tasks_parameters/ExAp01/sample16.txt 1.36344 8.63521 4.97261 0.516328 34.3573
files/tasks_parameters/ExAp01/sample10.txt 1.41536 7.28353 6.16876 0.615651 40.9664
files/tasks_parameters/ExAp01/sample39.txt 1.13497 6.3405 4.6137 0.468873 31.1996
files/tasks_parameters/ExAp01/sample19.txt 1.64595 8.85528 5.22306 0.622152 41.399
files/tasks_parameters/ExAp01/sample20.txt 1.40173 8.1141 5.21177 0.586994 39.0595
files/tasks_parameters/ExAp01/sample43.txt 1.34196 7.21373 5.6367 0.53748 35.7648
files/tasks_parameters/ExAp01/sample32.txt 1.6158 8.30592 5.38137 0.593918 39.5203
files/tasks_parameters/ExAp01/sample45.txt 1.44705 7.94069 4.96323 0.547271 36.4163
files/tasks_parameters/ExAp01/sample26.txt 1.17113 7.57061 4.62637 0.480146 31.9497
files/tasks_parameters/ExAp01/sample5.txt 1.47558 8.0307 5.35681 0.59407 39.5303
files/tasks_parameters/ExAp01/sample21.txt 1.10196 5.87802 4.61744 0.434264 28.8966
files/tasks_parameters/ExAp01/sample38.txt 1.2254 7.66999 4.86632 0.496808 33.0584
files/tasks_parameters/ExAp01/sample1.txt 1.21558 7.21312 4.63213 0.486293 32.3587
files/tasks_parameters/ExAp01/sample15.txt 1.2466 8.02273 5.50855 0.531063 35.3377
files/tasks_parameters/ExAp01/sample24.txt 1.4297 8.66348 5.4905 0.548998 36.5312
files/tasks_parameters/ExAp01/sample3.txt 1.18428 7.74268 4.79918 0.477387 31.7661
files/tasks_parameters/ExAp01/sample6.txt 1.63313 8.57133 5.80157 0.633604 42.161
files/tasks_parameters/ExAp01/sample30.txt 1.72063 8.18878 5.90888 0.633576 42.1592
files/tasks_parameters/ExAp01/sample42.txt 1.3252 8.57689 5.67253 0.54426 36.2159
files/tasks_parameters/ExAp01/sample4.txt 1.38876 8.40354 4.57985 0.563519 37.4975
files/tasks_parameters/ExAp01/sample28.txt 1.11659 6.44114 4.96426 0.449721 29.9252
files/tasks_parameters/ExAp01/sample18.txt 1.36216 8.56363 4.60946 0.543766 36.1831
files/tasks_parameters/ExAp01/sample35.txt 2.01603 11.0387 6.34514 0.761377 50.6632
files/tasks_parameters/ExAp01/sample47.txt 1.3322 7.14493 5.22131 0.545046 36.2682
files/tasks_parameters/ExAp01/sample49.txt 1.34563 6.65996 4.80244 0.498533 33.1732
files/tasks_parameters/ExAp01/sample41.txt 1.21439 7.09069 5.35462 0.497129 33.0797
