files/tasks_parameters/ExAp01/sample8.txt 0.816195 3.15778 1.5595 0.203411 5.73486
files/tasks_parameters/ExAp01/sample12.txt 0.753048 3.94962 1.6705 0.207924 5.86209
files/tasks_parameters/ExAp01/sample2.txt 0.691667 3.78275 1.74131 0.200098 5.64145
files/tasks_parameters/ExAp01/sample44.txt 0.699172 3.59825 1.65317 0.200005 5.63884
files/tasks_parameters/ExAp01/sample27.txt 0.72606 3.45743 1.5148 0.182129 5.13483
files/tasks_parameters/ExAp01/sample17.txt 0.592682 2.77299 1.44514 0.14646 4.12921
files/tasks_parameters/ExAp01/sample9.txt 0.612521 2.99933 1.451 0.177444 5.00275
files/tasks_parameters/ExAp01/sample34.txt 0.571742 3.02928 1.58429 0.157984 4.45411
files/tasks_parameters/ExAp01/sample40.txt 0.603124 3.86889 1.52122 0.168379 4.7472
files/tasks_parameters/ExAp01/sample33.txt 0.762778 3.63695 1.71905 0.199765 5.63207
files/tasks_parameters/ExAp01/sample48.txt 0.59153 3.39061 1.49062 0.154728 4.36232
files/tasks_parameters/ExAp01/sample29.txt 0.720996 3.30472 1.38739 0.223868 6.31162
files/tasks_parameters/ExAp01/sample11.txt 0.682736 3.10585 1.41612 0.174079 4.90788
files/tasks_parameters/ExAp01/sample14.txt 0.565198 2.70971 1.43432 0.162214 4.57339
files/tasks_parameters/ExAp01/sample0.txt 0.72081 3.6937 1.5439 0.18367 5.17829
files/tasks_parameters/ExAp01/sample7.txt 0.539745 2.70501 1.42221 0.143463 4.04473
files/tasks_parameters/ExAp01/sample23.txt 0.668267 3.2697 1.57822 0.181448 5.11566
files/tasks_parameters/ExAp01/sample13.txt 0.728459 3.84225 1.67648 0.198247 5.58927
files/tasks_parameters/ExAp01/sample22.txt 0.578661 3.09569 1.56121 0.148796 4.19508
files/tasks_parameters/ExAp01/sample25.txt 0.520995 2.73966 1.5007 0.148149 4.17682
files/tasks_parameters/ExAp01/sample36.txt 0.509496 2.85948 1.28553 0.130042 3.66634
files/tasks_parameters/ExAp01/sample46.txt 0.771583 3.58643 1.69998 0.210103 5.92353
files/tasks_parameters/ExAp01/sample31.txt 0.590417 3.4832 1.53782 0.1722 4.85491
files/tasks_parameters/ExAp01/sample37.txt 0.664321 3.95293 1.50705 0.171701 4.84085
files/tasks_parameters/ExAp01/sample16.txt 0.620177 3.31216 1.30115 0.150249 4.23604
files/tasks_parameters/ExAp01/sample10.txt 0.637034 3.17098 1.61789 0.153776 4.33549
files/tasks_parameters/ExAp01/sample39.txt 0.672204 3.26617 1.44406 0.165669 4.67078
files/tasks_parameters/ExAp01/sample19.txt 0.782433 3.63532 1.52509 0.196094 5.52858
files/tasks_parameters/ExAp01/sample20.txt 0.517893 3.20793 1.25367 0.147335 4.1539
files/tasks_parameters/ExAp01/sample43.txt 0.55087 3.11551 1.4202 0.150644 4.24719
files/tasks_parameters/ExAp01/sample32.txt 0.620114 3.5311 1.42482 0.168744 4.75748
files/tasks_parameters/ExAp01/sample45.txt 0.771639 3.80283 1.48324 0.19807 5.58429
files/tasks_parameters/ExAp01/sample26.txt 0.641137 3.21645 1.29701 0.166061 4.68184
files/tasks_parameters/ExAp01/sample5.txt 0.681519 3.5889 1.52559 0.178903 5.04391
files/tasks_parameters/ExAp01/sample21.txt 0.709171 2.75242 1.55936 0.19512 5.50112
files/tasks_parameters/ExAp01/sample38.txt 0.650401 3.31563 1.37515 0.166157 4.68454
files/tasks_parameters/ExAp01/sample1.txt 0.75948 3.74964 1.51696 0.19701 5.55438
files/tasks_parameters/ExAp01/sample15.txt 0.705144 3.32916 1.48508 0.180707 5.09477
files/tasks_parameters/ExAp01/sample24.txt 0.682142 3.45951 1.59549 0.16529 4.66011
files/tasks_parameters/ExAp01/sample3.txt 0.986198 3.70014 1.70809 0.237107 6.68487
files/tasks_parameters/ExAp01/sample6.txt 0.651802 3.33003 1.58323 0.184714 5.20774
files/tasks_parameters/ExAp01/sample30.txt 0.904341 4.1841 1.4861 0.239623 6.75581
files/tasks_parameters/ExAp01/sample42.txt 0.726713 3.43221 1.70276 0.177383 5.00104
files/tasks_parameters/ExAp01/sample4.txt 0.746811 3.72477 1.6136 0.196448 5.53855
files/tasks_parameters/ExAp01/sample28.txt 0.551382 3.11323 1.45032 0.158819 4.47766
files/tasks_parameters/ExAp01/sample18.txt 0.627734 3.47418 1.45209 0.149064 4.20263
files/tasks_parameters/ExAp01/sample35.txt 0.690343 4.57086 1.49394 0.185031 5.21666
files/tasks_parameters/ExAp01/sample47.txt 0.617929 3.13768 1.52397 0.16417 4.62852
files/tasks_parameters/ExAp01/sample49.txt 0.583751 3.13288 1.49657 0.156154 4.40253
files/tasks_parameters/ExAp01/sample41.txt 0.5511 2.81964 1.49636 0.150876 4.25371
