0.297592271
Task0 31 63 31 
Task1 31 31 63 
Task2 1 15 15 
Task3 1 31 7 
Task4 255 127 63 
Task5 63 63 31 
Task6 7 31 3 
Task7 15 15 31 
Task8 127 63 15 
Task9 15 255 7 
Task10 31 31 15 
Task11 255 1 7 
Task12 31 127 63 
Task13 63 15 15 
Task14 31 1 63 
Task15 31 31 63 
Task16 127 31 3 
Task17 31 15 3 
Task18 63 127 255 
Task19 127 255 255 
Task20 255 63 31 
Task21 127 31 31 
Task22 31 7 15 
Task23 3 63 7 
Task24 31 63 1 
Task25 3 31 127 
Task26 1 3 31 
Task27 15 15 63 
Task28 7 127 255 
Task29 7 15 31 
Task30 63 31 63 
Task31 3 255 15 
Task32 31 31 63 
Task33 1 15 63 
Task34 7 1 31 
Task35 3 7 31 
Task36 3 31 7 
Task37 255 1 31 
Task38 15 7 31 
Task39 7 15 63 
Task40 31 255 63 
Task41 15 63 255 
Task42 63 15 31 
Task43 7 3 255 
Task44 127 255 255 
Task45 31 15 31 
Task46 7 63 15 
Task47 31 31 15 
Task48 31 31 31 
Task49 31 3 7 
Task50 3 7 31 
Task51 15 63 7 
Task52 15 255 127 
Task53 3 31 7 
Task54 31 3 31 
Task55 63 1 15 
Task56 63 31 31 
Task57 63 15 15 
Task58 127 31 1 
Task59 31 127 15 
Task60 15 31 1 
Task61 7 127 63 
Task62 3 127 31 
Task63 31 3 15 
Task64 3 15 31 
Task65 255 31 1 
Task66 63 15 7 
Task67 31 127 63 
Task68 63 7 31 
Task69 255 15 127 
Task70 31 15 255 
Task71 127 63 63 
Task72 7 63 7 
Task73 15 255 3 
Task74 255 7 127 
Task75 31 7 15 
Task76 63 255 127 
Task77 3 7 31 
Task78 3 3 31 
Task79 63 31 31 
Task80 15 3 63 
Task81 31 15 31 
Task82 255 255 255 
Task83 31 31 127 
Task84 1 63 7 
Task85 3 15 31 
Task86 7 31 7 
Task87 31 3 7 
Task88 127 3 63 
Task89 7 1 63 
Task90 31 15 31 
Task91 31 1 1 
Task92 255 1 15 
Task93 63 15 7 
Task94 7 63 7 
Task95 1 31 255 
Task96 7 255 255 
Task97 31 255 63 
Task98 15 31 127 
Task99 127 255 31 
