files/tasks_parameters/Expden0.4/sample8.txt 0.779379 3.40483 1.51964 0.134157 2.75303
files/tasks_parameters/Expden0.4/sample12.txt 0.74842 3.45662 1.55046 0.17087 3.50643
files/tasks_parameters/Expden0.4/sample2.txt 0.709048 3.51634 1.50021 0.192292 3.94602
files/tasks_parameters/Expden0.4/sample44.txt 0.69041 3.27092 1.36437 0.150993 3.09853
files/tasks_parameters/Expden0.4/sample27.txt 0.658146 2.74097 1.37642 0.151769 3.11446
files/tasks_parameters/Expden0.4/sample17.txt 0.854264 3.59278 1.72781 0.200578 4.11606
files/tasks_parameters/Expden0.4/sample9.txt 0.628179 2.61128 1.22362 0.141323 2.9001
files/tasks_parameters/Expden0.4/sample34.txt 0.763377 3.16789 1.78449 0.185913 3.81513
files/tasks_parameters/Expden0.4/sample40.txt 0.731946 3.45826 1.4056 0.14217 2.91747
files/tasks_parameters/Expden0.4/sample33.txt 0.731378 2.99414 1.47267 0.150548 3.0894
files/tasks_parameters/Expden0.4/sample48.txt 0.63117 2.95038 1.21006 0.126435 2.59457
files/tasks_parameters/Expden0.4/sample29.txt 0.657488 3.09903 1.32783 0.14964 3.07077
files/tasks_parameters/Expden0.4/sample11.txt 0.614704 3.07228 1.44533 0.176882 3.6298
files/tasks_parameters/Expden0.4/sample14.txt 0.733454 2.94849 1.43925 0.146929 3.01513
files/tasks_parameters/Expden0.4/sample0.txt 0.651539 3.36062 1.46895 0.196601 4.03444
files/tasks_parameters/Expden0.4/sample7.txt 0.853193 2.87619 1.72838 0.158852 3.2598
files/tasks_parameters/Expden0.4/sample23.txt 0.756294 4.15293 1.93646 0.217509 4.46351
files/tasks_parameters/Expden0.4/sample13.txt 0.688943 3.52802 1.45478 0.166466 3.41605
files/tasks_parameters/Expden0.4/sample22.txt 0.701839 3.65939 1.38865 0.190915 3.91777
files/tasks_parameters/Expden0.4/sample25.txt 0.746515 2.93305 1.44484 0.135552 2.78167
files/tasks_parameters/Expden0.4/sample36.txt 0.720515 4.03604 1.38365 0.190747 3.91432
files/tasks_parameters/Expden0.4/sample46.txt 0.712908 3.22449 1.32508 0.132289 2.71469
files/tasks_parameters/Expden0.4/sample31.txt 0.787581 3.29954 1.88859 0.227182 4.662
files/tasks_parameters/Expden0.4/sample37.txt 0.692041 3.08923 1.47949 0.162903 3.34293
files/tasks_parameters/Expden0.4/sample16.txt 0.723477 3.82929 1.48214 0.179321 3.67984
files/tasks_parameters/Expden0.4/sample10.txt 0.685598 4.02265 1.36 0.193648 3.97385
files/tasks_parameters/Expden0.4/sample39.txt 0.758341 3.44082 1.59634 0.169375 3.47574
files/tasks_parameters/Expden0.4/sample19.txt 0.654451 3.98901 1.47514 0.182547 3.74605
files/tasks_parameters/Expden0.4/sample20.txt 0.883848 4.08021 1.64296 0.230272 4.72541
files/tasks_parameters/Expden0.4/sample43.txt 0.731442 3.42165 1.38026 0.161315 3.31035
files/tasks_parameters/Expden0.4/sample32.txt 0.680557 3.42319 1.45596 0.159646 3.2761
files/tasks_parameters/Expden0.4/sample45.txt 0.720039 3.58051 1.62918 0.192619 3.95274
files/tasks_parameters/Expden0.4/sample26.txt 0.803957 3.01355 1.63927 0.168315 3.45399
files/tasks_parameters/Expden0.4/sample5.txt 0.628287 3.08545 1.38146 0.168564 3.45911
files/tasks_parameters/Expden0.4/sample21.txt 0.821218 3.34618 1.46075 0.14302 2.93493
files/tasks_parameters/Expden0.4/sample38.txt 0.726186 3.45563 1.49939 0.16877 3.46334
files/tasks_parameters/Expden0.4/sample1.txt 0.59348 3.22766 1.27236 0.165624 3.39877
files/tasks_parameters/Expden0.4/sample15.txt 0.693677 2.75076 1.15114 0.116386 2.38836
files/tasks_parameters/Expden0.4/sample24.txt 0.822912 3.4452 1.51743 0.172505 3.53998
files/tasks_parameters/Expden0.4/sample3.txt 0.735899 3.37864 1.57815 0.16805 3.44856
files/tasks_parameters/Expden0.4/sample6.txt 0.644795 2.78411 1.21012 0.108217 2.22072
files/tasks_parameters/Expden0.4/sample30.txt 0.811455 3.52698 1.66471 0.205392 4.21485
files/tasks_parameters/Expden0.4/sample42.txt 0.715996 3.0782 1.43264 0.166622 3.41925
files/tasks_parameters/Expden0.4/sample4.txt 0.775879 3.4427 1.78518 0.203419 4.17436
files/tasks_parameters/Expden0.4/sample28.txt 0.816971 3.29502 1.48216 0.148981 3.05724
files/tasks_parameters/Expden0.4/sample18.txt 0.617368 3.94226 1.49115 0.18396 3.77505
files/tasks_parameters/Expden0.4/sample35.txt 0.760342 2.74189 1.69381 0.165985 3.40619
files/tasks_parameters/Expden0.4/sample47.txt 0.721208 3.21264 1.39602 0.153527 3.15053
files/tasks_parameters/Expden0.4/sample49.txt 0.751424 3.71444 1.51092 0.164774 3.38133
files/tasks_parameters/Expden0.4/sample41.txt 0.731661 2.96698 1.2928 0.124654 2.55803
