0 4
1 4
1 5
1 6
1 7
3 5
3 6
4 8
4 9
4 11
4 13
5 9
5 10
5 12
6 10
6 14
7 8
7 11
7 13
7 14
8 17
8 21
9 15
9 18
9 19
9 20
9 21
10 15
10 17
10 20
11 17
12 16
12 17
12 19
13 15
13 19
13 20
13 21
14 15
14 16
14 19
14 20
14 21
15 22
15 23
15 29
16 23
17 26
18 23
18 24
18 25
18 26
19 22
19 26
19 28
19 29
21 22
21 27
22 33
23 31
23 35
23 36
24 30
24 31
24 33
24 34
24 35
25 30
25 33
25 36
26 31
26 32
26 33
26 36
27 30
27 32
27 36
28 32
28 37
29 35
30 38
30 39
30 42
32 42
32 43
33 38
33 40
33 43
33 44
33 45
34 41
34 44
34 45
35 38
35 42
36 43
36 44
36 45
37 39
37 44
37 45
38 49
38 50
39 47
40 48
40 51
41 47
41 52
42 46
42 47
42 52
43 46
43 51
43 52
44 46
44 48
44 49
44 50
44 52
45 46
45 49
45 51
46 54
46 56
46 57
46 58
46 64
46 65
47 54
47 59
47 60
47 61
47 63
47 64
48 53
48 55
48 59
48 64
48 66
49 53
49 57
49 58
49 62
49 63
49 65
49 66
49 67
50 53
50 56
51 54
51 61
51 62
51 67
52 61
52 65
53 68
53 69
53 71
53 74
53 75
53 77
53 79
53 80
54 68
54 71
54 72
54 74
54 76
54 77
54 80
55 68
55 70
55 72
55 75
55 77
55 77
56 70
56 71
56 72
56 75
56 78
56 79
57 70
57 73
57 76
57 80
58 70
58 71
58 72
58 75
58 76
58 78
59 70
59 72
59 76
59 80
59 81
60 68
60 70
60 79
60 81
61 69
61 73
61 74
61 79
61 81
62 70
62 74
62 78
62 79
62 81
63 69
63 72
63 77
63 79
63 81
64 73
64 76
64 81
65 72
65 74
65 78
65 79
65 80
65 81
66 68
66 72
66 75
66 76
66 80
66 81
67 71
67 75
67 80
68 89
68 90
68 92
69 83
69 84
69 85
69 87
69 91
70 85
70 89
71 87
71 90
71 91
72 84
72 88
72 91
73 84
73 88
73 89
73 90
74 84
74 85
74 86
74 90
76 82
76 85
76 88
76 91
77 84
77 88
78 84
78 88
78 90
79 83
79 84
79 90
80 82
80 87
80 92
81 86
81 87
81 90
81 92
82 95
82 96
82 97
83 97
85 93
85 95
85 97
86 93
86 94
86 99
87 93
87 94
88 95
88 99
89 97
90 93
91 95
91 97
92 93
92 95
92 97
92 98
92 99
