files/tasks_parameters/ExAp01/sample8.txt 0.933105 3.15778 1.5595 0.203411 11.4805
files/tasks_parameters/ExAp01/sample12.txt 0.898676 3.94962 1.6705 0.207924 11.7352
files/tasks_parameters/ExAp01/sample2.txt 0.858736 3.78275 1.74131 0.200098 11.2935
files/tasks_parameters/ExAp01/sample44.txt 0.898154 3.59825 1.65317 0.200005 11.2883
files/tasks_parameters/ExAp01/sample27.txt 0.875169 3.45743 1.5148 0.182129 10.2793
files/tasks_parameters/ExAp01/sample17.txt 0.739268 2.77299 1.44514 0.14646 8.26619
files/tasks_parameters/ExAp01/sample9.txt 0.753505 2.99933 1.451 0.177444 10.0149
files/tasks_parameters/ExAp01/sample34.txt 0.745208 3.02928 1.58429 0.157984 8.9166
files/tasks_parameters/ExAp01/sample40.txt 0.739796 3.86889 1.52122 0.168379 9.50333
files/tasks_parameters/ExAp01/sample33.txt 0.946816 3.63695 1.71905 0.199765 11.2747
files/tasks_parameters/ExAp01/sample48.txt 0.748569 3.39061 1.49062 0.154728 8.73286
files/tasks_parameters/ExAp01/sample29.txt 0.867105 3.30472 1.38739 0.223868 12.6351
files/tasks_parameters/ExAp01/sample11.txt 0.855541 3.10585 1.41612 0.174079 9.825
files/tasks_parameters/ExAp01/sample14.txt 0.661192 2.70971 1.43432 0.162214 9.15538
files/tasks_parameters/ExAp01/sample0.txt 0.854211 3.6937 1.5439 0.18367 10.3663
files/tasks_parameters/ExAp01/sample7.txt 0.702864 2.70501 1.42221 0.143463 8.09707
files/tasks_parameters/ExAp01/sample23.txt 0.732221 3.2697 1.57822 0.181448 10.241
files/tasks_parameters/ExAp01/sample13.txt 0.960821 3.84225 1.67648 0.198247 11.1891
files/tasks_parameters/ExAp01/sample22.txt 0.629596 3.09569 1.56121 0.148796 8.39805
files/tasks_parameters/ExAp01/sample25.txt 0.717622 2.73966 1.5007 0.148149 8.36151
files/tasks_parameters/ExAp01/sample36.txt 0.616954 2.85948 1.28553 0.130042 7.33959
files/tasks_parameters/ExAp01/sample46.txt 0.934002 3.58643 1.69998 0.210103 11.8582
files/tasks_parameters/ExAp01/sample31.txt 0.641866 3.4832 1.53782 0.1722 9.71896
files/tasks_parameters/ExAp01/sample37.txt 0.821906 3.95293 1.50705 0.171701 9.69081
files/tasks_parameters/ExAp01/sample16.txt 0.718649 3.31216 1.30115 0.150249 8.48005
files/tasks_parameters/ExAp01/sample10.txt 0.796947 3.17098 1.61789 0.153776 8.67914
files/tasks_parameters/ExAp01/sample39.txt 0.812271 3.26617 1.44406 0.165669 9.35034
files/tasks_parameters/ExAp01/sample19.txt 0.908467 3.63532 1.52509 0.196094 11.0676
files/tasks_parameters/ExAp01/sample20.txt 0.645012 3.20793 1.25367 0.147335 8.31561
files/tasks_parameters/ExAp01/sample43.txt 0.655002 3.11551 1.4202 0.150644 8.50237
files/tasks_parameters/ExAp01/sample32.txt 0.702514 3.5311 1.42482 0.168744 9.52392
files/tasks_parameters/ExAp01/sample45.txt 0.914982 3.80283 1.48324 0.19807 11.1791
files/tasks_parameters/ExAp01/sample26.txt 0.730042 3.21645 1.29701 0.166061 9.3725
files/tasks_parameters/ExAp01/sample5.txt 0.887673 3.5889 1.52559 0.178903 10.0973
files/tasks_parameters/ExAp01/sample21.txt 0.860986 2.75242 1.55936 0.19512 11.0126
files/tasks_parameters/ExAp01/sample38.txt 0.708645 3.31563 1.37515 0.166157 9.37789
files/tasks_parameters/ExAp01/sample1.txt 0.914185 3.74964 1.51696 0.19701 11.1192
files/tasks_parameters/ExAp01/sample15.txt 0.826634 3.32916 1.48508 0.180707 10.1991
files/tasks_parameters/ExAp01/sample24.txt 0.753856 3.45951 1.59549 0.16529 9.32899
files/tasks_parameters/ExAp01/sample3.txt 1.0556 3.70014 1.70809 0.237107 13.3823
files/tasks_parameters/ExAp01/sample6.txt 0.81189 3.33003 1.58323 0.184714 10.4253
files/tasks_parameters/ExAp01/sample30.txt 0.944587 4.1841 1.4861 0.239623 13.5243
files/tasks_parameters/ExAp01/sample42.txt 0.828557 3.43221 1.70276 0.177383 10.0115
files/tasks_parameters/ExAp01/sample4.txt 0.849747 3.72477 1.6136 0.196448 11.0875
files/tasks_parameters/ExAp01/sample28.txt 0.743147 3.11323 1.45032 0.158819 8.96375
files/tasks_parameters/ExAp01/sample18.txt 0.747545 3.47418 1.45209 0.149064 8.41316
files/tasks_parameters/ExAp01/sample35.txt 0.82064 4.57086 1.49394 0.185031 10.4431
files/tasks_parameters/ExAp01/sample47.txt 0.748323 3.13768 1.52397 0.16417 9.26576
files/tasks_parameters/ExAp01/sample49.txt 0.722649 3.13288 1.49657 0.156154 8.81334
files/tasks_parameters/ExAp01/sample41.txt 0.653007 2.81964 1.49636 0.150876 8.51544
