0.33058077999999996
Task0 1 15 1 
Task1 1 15 63 
Task2 63 7 15 
Task3 15 31 1 
Task4 3 15 1 
Task5 15 63 31 
Task6 15 1 7 
Task7 15 15 7 
Task8 3 63 7 
Task9 3 15 15 
Task10 31 31 31 
Task11 31 7 1 
Task12 3 15 3 
Task13 31 15 15 
Task14 127 63 255 
Task15 31 7 31 
Task16 1 15 1 
Task17 7 31 15 
Task18 31 63 7 
Task19 3 15 1 
Task20 3 31 1 
Task21 7 1 31 
Task22 15 31 7 
Task23 31 3 15 
Task24 15 15 3 
Task25 15 1 1 
Task26 31 7 1 
Task27 63 127 15 
Task28 31 3 31 
Task29 7 15 15 
Task30 15 63 15 
Task31 31 31 15 
Task32 31 1 15 
Task33 7 7 31 
Task34 7 31 1 
Task35 63 31 31 
Task36 31 15 1 
Task37 3 1 15 
Task38 1 31 15 
Task39 7 31 7 
Task40 31 1 1 
Task41 15 15 15 
Task42 1 3 63 
Task43 3 31 3 
Task44 1 7 15 
Task45 7 31 7 
Task46 15 15 15 
Task47 7 31 3 
Task48 3 7 3 
Task49 31 1 7 
Task50 31 15 15 
Task51 7 31 7 
Task52 3 15 15 
Task53 31 1 63 
Task54 15 15 31 
Task55 15 63 1 
Task56 15 63 15 
Task57 3 15 31 
Task58 15 31 7 
Task59 15 15 31 
Task60 31 15 15 
Task61 31 63 3 
Task62 15 15 15 
Task63 31 15 15 
Task64 31 3 31 
Task65 7 15 3 
Task66 7 63 15 
Task67 15 7 63 
Task68 15 3 63 
Task69 63 1 31 
Task70 127 255 255 
Task71 63 15 31 
Task72 7 63 31 
Task73 31 7 3 
Task74 63 31 63 
Task75 1 3 31 
Task76 3 31 15 
Task77 1 15 15 
Task78 15 7 7 
Task79 7 3 31 
Task80 15 15 3 
Task81 15 15 3 
Task82 63 31 63 
Task83 31 15 15 
Task84 7 3 15 
Task85 1 3 31 
Task86 3 7 63 
Task87 3 7 31 
Task88 7 1 15 
Task89 31 3 1 
Task90 1 31 3 
Task91 255 1 127 
Task92 3 7 15 
Task93 1 31 3 
Task94 7 15 31 
Task95 3 1 15 
Task96 15 31 7 
Task97 15 3 31 
Task98 7 7 31 
Task99 31 3 15 
