files/tasks_parameters/ExAp01/sample8.txt 0.869053 3.15778 1.5595 0.203411 12.2594
files/tasks_parameters/ExAp01/sample12.txt 0.795011 3.94962 1.6705 0.207924 12.5313
files/tasks_parameters/ExAp01/sample2.txt 0.829083 3.78275 1.74131 0.200098 12.0597
files/tasks_parameters/ExAp01/sample44.txt 0.853382 3.59825 1.65317 0.200005 12.0541
files/tasks_parameters/ExAp01/sample27.txt 0.837446 3.45743 1.5148 0.182129 10.9767
files/tasks_parameters/ExAp01/sample17.txt 0.675656 2.77299 1.44514 0.14646 8.82696
files/tasks_parameters/ExAp01/sample9.txt 0.691548 2.99933 1.451 0.177444 10.6943
files/tasks_parameters/ExAp01/sample34.txt 0.653497 3.02928 1.58429 0.157984 9.52149
files/tasks_parameters/ExAp01/sample40.txt 0.692709 3.86889 1.52122 0.168379 10.148
files/tasks_parameters/ExAp01/sample33.txt 0.818211 3.63695 1.71905 0.199765 12.0396
files/tasks_parameters/ExAp01/sample48.txt 0.719208 3.39061 1.49062 0.154728 9.32529
files/tasks_parameters/ExAp01/sample29.txt 0.798395 3.30472 1.38739 0.223868 13.4923
files/tasks_parameters/ExAp01/sample11.txt 0.764457 3.10585 1.41612 0.174079 10.4915
files/tasks_parameters/ExAp01/sample14.txt 0.632678 2.70971 1.43432 0.162214 9.77648
files/tasks_parameters/ExAp01/sample0.txt 0.775236 3.6937 1.5439 0.18367 11.0696
files/tasks_parameters/ExAp01/sample7.txt 0.654542 2.70501 1.42221 0.143463 8.64637
files/tasks_parameters/ExAp01/sample23.txt 0.747447 3.2697 1.57822 0.181448 10.9357
files/tasks_parameters/ExAp01/sample13.txt 0.812798 3.84225 1.67648 0.198247 11.9481
files/tasks_parameters/ExAp01/sample22.txt 0.631294 3.09569 1.56121 0.148796 8.96777
files/tasks_parameters/ExAp01/sample25.txt 0.604589 2.73966 1.5007 0.148149 8.92875
files/tasks_parameters/ExAp01/sample36.txt 0.528068 2.85948 1.28553 0.130042 7.8375
files/tasks_parameters/ExAp01/sample46.txt 0.920038 3.58643 1.69998 0.210103 12.6627
files/tasks_parameters/ExAp01/sample31.txt 0.647026 3.4832 1.53782 0.1722 10.3783
files/tasks_parameters/ExAp01/sample37.txt 0.71121 3.95293 1.50705 0.171701 10.3482
files/tasks_parameters/ExAp01/sample16.txt 0.685874 3.31216 1.30115 0.150249 9.05533
files/tasks_parameters/ExAp01/sample10.txt 0.754135 3.17098 1.61789 0.153776 9.26793
files/tasks_parameters/ExAp01/sample39.txt 0.71428 3.26617 1.44406 0.165669 9.98466
files/tasks_parameters/ExAp01/sample19.txt 0.875144 3.63532 1.52509 0.196094 11.8184
files/tasks_parameters/ExAp01/sample20.txt 0.595124 3.20793 1.25367 0.147335 8.87973
files/tasks_parameters/ExAp01/sample43.txt 0.676927 3.11551 1.4202 0.150644 9.07917
files/tasks_parameters/ExAp01/sample32.txt 0.689482 3.5311 1.42482 0.168744 10.17
files/tasks_parameters/ExAp01/sample45.txt 0.870227 3.80283 1.48324 0.19807 11.9375
files/tasks_parameters/ExAp01/sample26.txt 0.72399 3.21645 1.29701 0.166061 10.0083
files/tasks_parameters/ExAp01/sample5.txt 0.789419 3.5889 1.52559 0.178903 10.7823
files/tasks_parameters/ExAp01/sample21.txt 0.825971 2.75242 1.55936 0.19512 11.7597
files/tasks_parameters/ExAp01/sample38.txt 0.697139 3.31563 1.37515 0.166157 10.0141
files/tasks_parameters/ExAp01/sample1.txt 0.897691 3.74964 1.51696 0.19701 11.8735
files/tasks_parameters/ExAp01/sample15.txt 0.759202 3.32916 1.48508 0.180707 10.891
files/tasks_parameters/ExAp01/sample24.txt 0.734192 3.45951 1.59549 0.16529 9.96186
files/tasks_parameters/ExAp01/sample3.txt 0.969927 3.70014 1.70809 0.237107 14.2902
files/tasks_parameters/ExAp01/sample6.txt 0.776542 3.33003 1.58323 0.184714 11.1325
files/tasks_parameters/ExAp01/sample30.txt 0.930225 4.1841 1.4861 0.239623 14.4418
files/tasks_parameters/ExAp01/sample42.txt 0.795096 3.43221 1.70276 0.177383 10.6907
files/tasks_parameters/ExAp01/sample4.txt 0.830457 3.72477 1.6136 0.196448 11.8397
files/tasks_parameters/ExAp01/sample28.txt 0.684004 3.11323 1.45032 0.158819 9.57184
files/tasks_parameters/ExAp01/sample18.txt 0.67271 3.47418 1.45209 0.149064 8.9839
files/tasks_parameters/ExAp01/sample35.txt 0.733328 4.57086 1.49394 0.185031 11.1516
files/tasks_parameters/ExAp01/sample47.txt 0.642295 3.13768 1.52397 0.16417 9.89434
files/tasks_parameters/ExAp01/sample49.txt 0.693222 3.13288 1.49657 0.156154 9.41123
files/tasks_parameters/ExAp01/sample41.txt 0.648683 2.81964 1.49636 0.150876 9.09312
