files/tasks_parameters/ExAp01/sample8.txt 0.902868 3.15778 1.5595 0.203411 3.2578
files/tasks_parameters/ExAp01/sample12.txt 1.03913 3.94962 1.6705 0.207924 3.33008
files/tasks_parameters/ExAp01/sample2.txt 0.979345 3.78275 1.74131 0.200098 3.20473
files/tasks_parameters/ExAp01/sample44.txt 0.931635 3.59825 1.65317 0.200005 3.20325
files/tasks_parameters/ExAp01/sample27.txt 0.864729 3.45743 1.5148 0.182129 2.91694
files/tasks_parameters/ExAp01/sample17.txt 0.804303 2.77299 1.44514 0.14646 2.34568
files/tasks_parameters/ExAp01/sample9.txt 0.844472 2.99933 1.451 0.177444 2.84191
files/tasks_parameters/ExAp01/sample34.txt 0.784771 3.02928 1.58429 0.157984 2.53024
files/tasks_parameters/ExAp01/sample40.txt 0.84015 3.86889 1.52122 0.168379 2.69674
files/tasks_parameters/ExAp01/sample33.txt 0.891084 3.63695 1.71905 0.199765 3.1994
files/tasks_parameters/ExAp01/sample48.txt 0.777258 3.39061 1.49062 0.154728 2.4781
files/tasks_parameters/ExAp01/sample29.txt 0.983575 3.30472 1.38739 0.223868 3.58544
files/tasks_parameters/ExAp01/sample11.txt 0.813443 3.10585 1.41612 0.174079 2.78802
files/tasks_parameters/ExAp01/sample14.txt 0.730392 2.70971 1.43432 0.162214 2.598
files/tasks_parameters/ExAp01/sample0.txt 0.916084 3.6937 1.5439 0.18367 2.94163
files/tasks_parameters/ExAp01/sample7.txt 0.796304 2.70501 1.42221 0.143463 2.29769
files/tasks_parameters/ExAp01/sample23.txt 0.887011 3.2697 1.57822 0.181448 2.90605
files/tasks_parameters/ExAp01/sample13.txt 0.952937 3.84225 1.67648 0.198247 3.17509
files/tasks_parameters/ExAp01/sample22.txt 0.810153 3.09569 1.56121 0.148796 2.3831
files/tasks_parameters/ExAp01/sample25.txt 0.720305 2.73966 1.5007 0.148149 2.37273
files/tasks_parameters/ExAp01/sample36.txt 0.718611 2.85948 1.28553 0.130042 2.08274
files/tasks_parameters/ExAp01/sample46.txt 0.939461 3.58643 1.69998 0.210103 3.36497
files/tasks_parameters/ExAp01/sample31.txt 0.901637 3.4832 1.53782 0.1722 2.75793
files/tasks_parameters/ExAp01/sample37.txt 0.882339 3.95293 1.50705 0.171701 2.74994
files/tasks_parameters/ExAp01/sample16.txt 0.785085 3.31216 1.30115 0.150249 2.40636
files/tasks_parameters/ExAp01/sample10.txt 0.849272 3.17098 1.61789 0.153776 2.46286
files/tasks_parameters/ExAp01/sample39.txt 0.776484 3.26617 1.44406 0.165669 2.65332
files/tasks_parameters/ExAp01/sample19.txt 0.959355 3.63532 1.52509 0.196094 3.14062
files/tasks_parameters/ExAp01/sample20.txt 0.719351 3.20793 1.25367 0.147335 2.3597
files/tasks_parameters/ExAp01/sample43.txt 0.7185 3.11551 1.4202 0.150644 2.4127
files/tasks_parameters/ExAp01/sample32.txt 0.880929 3.5311 1.42482 0.168744 2.70258
files/tasks_parameters/ExAp01/sample45.txt 0.956122 3.80283 1.48324 0.19807 3.17227
files/tasks_parameters/ExAp01/sample26.txt 0.788177 3.21645 1.29701 0.166061 2.65961
files/tasks_parameters/ExAp01/sample5.txt 0.855915 3.5889 1.52559 0.178903 2.86529
files/tasks_parameters/ExAp01/sample21.txt 0.882192 2.75242 1.55936 0.19512 3.12502
files/tasks_parameters/ExAp01/sample38.txt 0.799261 3.31563 1.37515 0.166157 2.66114
files/tasks_parameters/ExAp01/sample1.txt 0.940429 3.74964 1.51696 0.19701 3.15528
files/tasks_parameters/ExAp01/sample15.txt 0.860605 3.32916 1.48508 0.180707 2.89418
files/tasks_parameters/ExAp01/sample24.txt 0.874635 3.45951 1.59549 0.16529 2.64727
files/tasks_parameters/ExAp01/sample3.txt 1.0805 3.70014 1.70809 0.237107 3.79747
files/tasks_parameters/ExAp01/sample6.txt 0.852399 3.33003 1.58323 0.184714 2.95836
files/tasks_parameters/ExAp01/sample30.txt 1.18469 4.1841 1.4861 0.239623 3.83777
files/tasks_parameters/ExAp01/sample42.txt 0.850345 3.43221 1.70276 0.177383 2.84094
files/tasks_parameters/ExAp01/sample4.txt 0.997879 3.72477 1.6136 0.196448 3.14628
files/tasks_parameters/ExAp01/sample28.txt 0.784884 3.11323 1.45032 0.158819 2.54362
files/tasks_parameters/ExAp01/sample18.txt 0.781934 3.47418 1.45209 0.149064 2.38738
files/tasks_parameters/ExAp01/sample35.txt 0.989338 4.57086 1.49394 0.185031 2.96342
files/tasks_parameters/ExAp01/sample47.txt 0.808815 3.13768 1.52397 0.16417 2.62932
files/tasks_parameters/ExAp01/sample49.txt 0.83292 3.13288 1.49657 0.156154 2.50094
files/tasks_parameters/ExAp01/sample41.txt 0.749918 2.81964 1.49636 0.150876 2.41641
