files/tasks_parameters/ExAp01/sample8.txt 0.761405 3.15778 1.5595 0.203411 3.94737
files/tasks_parameters/ExAp01/sample12.txt 0.802414 3.94962 1.6705 0.207924 4.03495
files/tasks_parameters/ExAp01/sample2.txt 0.771251 3.78275 1.74131 0.200098 3.88307
files/tasks_parameters/ExAp01/sample44.txt 0.684703 3.59825 1.65317 0.200005 3.88128
files/tasks_parameters/ExAp01/sample27.txt 0.711201 3.45743 1.5148 0.182129 3.53437
files/tasks_parameters/ExAp01/sample17.txt 0.669653 2.77299 1.44514 0.14646 2.84218
files/tasks_parameters/ExAp01/sample9.txt 0.678952 2.99933 1.451 0.177444 3.44345
files/tasks_parameters/ExAp01/sample34.txt 0.681368 3.02928 1.58429 0.157984 3.06581
files/tasks_parameters/ExAp01/sample40.txt 0.730391 3.86889 1.52122 0.168379 3.26755
files/tasks_parameters/ExAp01/sample33.txt 0.788348 3.63695 1.71905 0.199765 3.87662
files/tasks_parameters/ExAp01/sample48.txt 0.663527 3.39061 1.49062 0.154728 3.00264
files/tasks_parameters/ExAp01/sample29.txt 0.728354 3.30472 1.38739 0.223868 4.34436
files/tasks_parameters/ExAp01/sample11.txt 0.720284 3.10585 1.41612 0.174079 3.37815
files/tasks_parameters/ExAp01/sample14.txt 0.663147 2.70971 1.43432 0.162214 3.14792
files/tasks_parameters/ExAp01/sample0.txt 0.726834 3.6937 1.5439 0.18367 3.56428
files/tasks_parameters/ExAp01/sample7.txt 0.626028 2.70501 1.42221 0.143463 2.78404
files/tasks_parameters/ExAp01/sample23.txt 0.712886 3.2697 1.57822 0.181448 3.52117
files/tasks_parameters/ExAp01/sample13.txt 0.732855 3.84225 1.67648 0.198247 3.84716
files/tasks_parameters/ExAp01/sample22.txt 0.649997 3.09569 1.56121 0.148796 2.88752
files/tasks_parameters/ExAp01/sample25.txt 0.626762 2.73966 1.5007 0.148149 2.87496
files/tasks_parameters/ExAp01/sample36.txt 0.612395 2.85948 1.28553 0.130042 2.52359
files/tasks_parameters/ExAp01/sample46.txt 0.76008 3.58643 1.69998 0.210103 4.07723
files/tasks_parameters/ExAp01/sample31.txt 0.69029 3.4832 1.53782 0.1722 3.34169
files/tasks_parameters/ExAp01/sample37.txt 0.737786 3.95293 1.50705 0.171701 3.33201
files/tasks_parameters/ExAp01/sample16.txt 0.592687 3.31216 1.30115 0.150249 2.91572
files/tasks_parameters/ExAp01/sample10.txt 0.697877 3.17098 1.61789 0.153776 2.98417
files/tasks_parameters/ExAp01/sample39.txt 0.697067 3.26617 1.44406 0.165669 3.21495
files/tasks_parameters/ExAp01/sample19.txt 0.735239 3.63532 1.52509 0.196094 3.80539
files/tasks_parameters/ExAp01/sample20.txt 0.618953 3.20793 1.25367 0.147335 2.85917
files/tasks_parameters/ExAp01/sample43.txt 0.637454 3.11551 1.4202 0.150644 2.92339
files/tasks_parameters/ExAp01/sample32.txt 0.722113 3.5311 1.42482 0.168744 3.27463
files/tasks_parameters/ExAp01/sample45.txt 0.749092 3.80283 1.48324 0.19807 3.84373
files/tasks_parameters/ExAp01/sample26.txt 0.604398 3.21645 1.29701 0.166061 3.22257
files/tasks_parameters/ExAp01/sample5.txt 0.674723 3.5889 1.52559 0.178903 3.47178
files/tasks_parameters/ExAp01/sample21.txt 0.653526 2.75242 1.55936 0.19512 3.78648
files/tasks_parameters/ExAp01/sample38.txt 0.641683 3.31563 1.37515 0.166157 3.22442
files/tasks_parameters/ExAp01/sample1.txt 0.727414 3.74964 1.51696 0.19701 3.82315
files/tasks_parameters/ExAp01/sample15.txt 0.695979 3.32916 1.48508 0.180707 3.50679
files/tasks_parameters/ExAp01/sample24.txt 0.740459 3.45951 1.59549 0.16529 3.20761
files/tasks_parameters/ExAp01/sample3.txt 0.88245 3.70014 1.70809 0.237107 4.60127
files/tasks_parameters/ExAp01/sample6.txt 0.700301 3.33003 1.58323 0.184714 3.58455
files/tasks_parameters/ExAp01/sample30.txt 0.790987 4.1841 1.4861 0.239623 4.6501
files/tasks_parameters/ExAp01/sample42.txt 0.734917 3.43221 1.70276 0.177383 3.44227
files/tasks_parameters/ExAp01/sample4.txt 0.76233 3.72477 1.6136 0.196448 3.81225
files/tasks_parameters/ExAp01/sample28.txt 0.643929 3.11323 1.45032 0.158819 3.08203
files/tasks_parameters/ExAp01/sample18.txt 0.634744 3.47418 1.45209 0.149064 2.89272
files/tasks_parameters/ExAp01/sample35.txt 0.754923 4.57086 1.49394 0.185031 3.59069
files/tasks_parameters/ExAp01/sample47.txt 0.673562 3.13768 1.52397 0.16417 3.18587
files/tasks_parameters/ExAp01/sample49.txt 0.661396 3.13288 1.49657 0.156154 3.03031
files/tasks_parameters/ExAp01/sample41.txt 0.633921 2.81964 1.49636 0.150876 2.92788
