0.33675869
Task0 63 255 15 
Task1 127 127 31 
Task2 255 255 3 
Task3 15 63 15 
Task4 15 63 127 
Task5 3 7 255 
Task6 3 15 255 
Task7 63 63 255 
Task8 63 63 31 
Task9 31 63 31 
Task10 63 255 255 
Task11 7 63 3 
Task12 127 63 63 
Task13 63 15 3 
Task14 1 31 31 
Task15 63 31 63 
Task16 255 7 15 
Task17 255 1 3 
Task18 15 63 31 
Task19 1 15 255 
Task20 31 3 31 
Task21 63 3 63 
Task22 63 31 7 
Task23 127 255 63 
Task24 15 15 31 
Task25 7 255 15 
Task26 255 127 255 
Task27 63 15 63 
Task28 127 255 15 
Task29 63 255 63 
Task30 63 15 7 
Task31 3 63 3 
Task32 15 15 63 
Task33 255 7 63 
Task34 255 31 63 
Task35 7 63 63 
Task36 15 63 255 
Task37 63 63 15 
Task38 31 255 63 
Task39 15 63 15 
Task40 127 31 31 
Task41 15 255 15 
Task42 31 1 63 
Task43 15 127 63 
Task44 255 31 255 
Task45 63 1 15 
Task46 31 63 255 
Task47 15 255 31 
Task48 15 63 15 
Task49 15 63 7 
Task50 255 31 3 
Task51 15 63 15 
Task52 31 15 127 
Task53 1 15 63 
Task54 127 63 15 
Task55 31 15 63 
Task56 63 255 31 
Task57 7 63 31 
Task58 255 15 63 
Task59 15 31 255 
Task60 127 255 63 
Task61 63 127 63 
Task62 255 1 1 
Task63 63 31 31 
Task64 7 255 31 
Task65 31 31 127 
Task66 127 31 31 
Task67 3 31 127 
Task68 15 255 255 
Task69 31 15 255 
Task70 63 7 255 
Task71 3 63 15 
Task72 255 7 31 
Task73 63 7 15 
Task74 63 63 7 
Task75 63 3 31 
Task76 63 255 31 
Task77 255 7 7 
Task78 15 15 63 
Task79 255 1 1 
Task80 31 15 63 
Task81 63 255 31 
Task82 31 127 63 
Task83 63 127 31 
Task84 7 7 63 
Task85 63 255 127 
Task86 255 15 127 
Task87 15 1 255 
Task88 15 3 63 
Task89 31 7 255 
Task90 7 15 255 
Task91 63 15 31 
Task92 1 31 63 
Task93 7 63 1 
Task94 63 63 63 
Task95 3 7 255 
Task96 15 63 63 
Task97 3 31 63 
Task98 31 15 63 
Task99 1 31 63 
