0.29812760999999993
Task0 31 63 127 
Task1 255 63 31 
Task2 31 63 255 
Task3 7 15 31 
Task4 1 31 31 
Task5 63 255 255 
Task6 63 1 63 
Task7 31 7 63 
Task8 127 15 31 
Task9 63 7 7 
Task10 1 63 7 
Task11 15 31 3 
Task12 7 15 255 
Task13 3 7 63 
Task14 255 63 1 
Task15 127 1 255 
Task16 3 63 255 
Task17 63 7 63 
Task18 63 15 31 
Task19 255 7 31 
Task20 63 15 63 
Task21 255 31 31 
Task22 63 127 15 
Task23 15 63 3 
Task24 7 255 63 
Task25 15 255 255 
Task26 63 15 7 
Task27 255 15 7 
Task28 255 63 63 
Task29 15 15 31 
Task30 31 15 31 
Task31 63 255 31 
Task32 127 127 15 
Task33 63 31 1 
Task34 63 31 15 
Task35 15 255 1 
Task36 15 3 31 
Task37 3 63 127 
Task38 127 255 255 
Task39 7 7 31 
Task40 3 63 63 
Task41 7 255 15 
Task42 15 7 63 
Task43 3 1 31 
Task44 15 7 63 
Task45 7 3 31 
Task46 31 127 7 
Task47 63 3 15 
Task48 7 15 63 
Task49 63 255 31 
Task50 7 31 63 
Task51 127 255 63 
Task52 255 127 127 
Task53 15 31 15 
Task54 127 31 3 
Task55 7 127 255 
Task56 63 15 63 
Task57 7 63 255 
Task58 3 63 63 
Task59 63 7 63 
Task60 63 15 1 
Task61 15 31 63 
Task62 63 1 15 
Task63 255 3 15 
Task64 31 31 15 
Task65 255 15 255 
Task66 3 15 127 
Task67 15 3 255 
Task68 31 63 63 
Task69 63 127 255 
Task70 15 15 31 
Task71 31 63 63 
Task72 15 31 15 
Task73 3 3 63 
Task74 31 15 255 
Task75 255 31 127 
Task76 7 15 63 
Task77 1 63 7 
Task78 7 31 7 
Task79 31 7 63 
Task80 7 7 255 
Task81 31 63 15 
Task82 3 255 31 
Task83 63 31 1 
Task84 63 255 255 
Task85 3 63 31 
Task86 7 63 31 
Task87 31 63 31 
Task88 31 15 15 
Task89 7 63 15 
Task90 255 31 31 
Task91 63 7 3 
Task92 7 15 255 
Task93 63 31 31 
Task94 255 3 31 
Task95 15 63 63 
Task96 255 63 7 
Task97 63 63 63 
Task98 127 3 127 
Task99 63 15 15 
