files/tasks_parameters/ExAp01/sample8.txt 1.09113 7.2562 4.46819 0.454772 8.66686
files/tasks_parameters/ExAp01/sample12.txt 1.6301 9.70908 5.28286 0.618515 11.7874
files/tasks_parameters/ExAp01/sample2.txt 1.45355 8.14159 5.7401 0.620531 11.8258
files/tasks_parameters/ExAp01/sample44.txt 1.35997 7.25164 5.75904 0.557631 10.6271
files/tasks_parameters/ExAp01/sample27.txt 1.3183 8.10944 5.64946 0.564878 10.7652
files/tasks_parameters/ExAp01/sample17.txt 1.25224 7.11225 5.46658 0.527183 10.0468
files/tasks_parameters/ExAp01/sample9.txt 1.19769 7.62559 5.37813 0.517277 9.85805
files/tasks_parameters/ExAp01/sample34.txt 1.2448 7.04587 5.93037 0.497709 9.48513
files/tasks_parameters/ExAp01/sample40.txt 1.201 8.03037 5.123 0.502383 9.5742
files/tasks_parameters/ExAp01/sample33.txt 1.61602 9.22935 5.92956 0.659262 12.5639
files/tasks_parameters/ExAp01/sample48.txt 1.1516 8.12182 5.1577 0.452491 8.62338
files/tasks_parameters/ExAp01/sample29.txt 1.53857 8.06133 5.12331 0.650652 12.3999
files/tasks_parameters/ExAp01/sample11.txt 1.35889 7.63104 5.37897 0.563302 10.7352
files/tasks_parameters/ExAp01/sample14.txt 1.13507 6.66403 4.66322 0.471536 8.98634
files/tasks_parameters/ExAp01/sample0.txt 1.51651 9.3266 4.98971 0.6311 12.0272
files/tasks_parameters/ExAp01/sample7.txt 1.23308 7.34863 5.19436 0.515527 9.8247
files/tasks_parameters/ExAp01/sample23.txt 1.40203 6.68564 5.54308 0.588617 11.2176
files/tasks_parameters/ExAp01/sample13.txt 1.60706 9.31093 5.35591 0.632849 12.0606
files/tasks_parameters/ExAp01/sample22.txt 1.28633 7.65588 5.04866 0.540336 10.2975
files/tasks_parameters/ExAp01/sample25.txt 1.0295 6.17035 5.0141 0.408296 7.78113
files/tasks_parameters/ExAp01/sample36.txt 1.19007 7.03772 4.66274 0.507647 9.67453
files/tasks_parameters/ExAp01/sample46.txt 1.35236 7.73433 4.79934 0.536843 10.2309
files/tasks_parameters/ExAp01/sample31.txt 1.16998 6.96928 5.16482 0.485817 9.2585
files/tasks_parameters/ExAp01/sample37.txt 1.59434 9.52443 5.74224 0.65799 12.5397
files/tasks_parameters/ExAp01/sample16.txt 1.33905 8.63521 4.97261 0.516328 9.83996
files/tasks_parameters/ExAp01/sample10.txt 1.39877 7.28353 6.16876 0.615651 11.7328
files/tasks_parameters/ExAp01/sample39.txt 1.14417 6.3405 4.6137 0.468873 8.93559
files/tasks_parameters/ExAp01/sample19.txt 1.40196 8.85528 5.22306 0.622152 11.8567
files/tasks_parameters/ExAp01/sample20.txt 1.39217 8.1141 5.21177 0.586994 11.1867
files/tasks_parameters/ExAp01/sample43.txt 1.30697 7.21373 5.6367 0.53748 10.2431
files/tasks_parameters/ExAp01/sample32.txt 1.46585 8.30592 5.38137 0.593918 11.3186
files/tasks_parameters/ExAp01/sample45.txt 1.29656 7.94069 4.96323 0.547271 10.4297
files/tasks_parameters/ExAp01/sample26.txt 1.12597 7.57061 4.62637 0.480146 9.15042
files/tasks_parameters/ExAp01/sample5.txt 1.38077 8.0307 5.35681 0.59407 11.3215
files/tasks_parameters/ExAp01/sample21.txt 1.02755 5.87802 4.61744 0.434264 8.27603
files/tasks_parameters/ExAp01/sample38.txt 1.18472 7.66999 4.86632 0.496808 9.46796
files/tasks_parameters/ExAp01/sample1.txt 1.14035 7.21312 4.63213 0.486293 9.26758
files/tasks_parameters/ExAp01/sample15.txt 1.28125 8.02273 5.50855 0.531063 10.1208
files/tasks_parameters/ExAp01/sample24.txt 1.31506 8.66348 5.4905 0.548998 10.4626
files/tasks_parameters/ExAp01/sample3.txt 1.18752 7.74268 4.79918 0.477387 9.09784
files/tasks_parameters/ExAp01/sample6.txt 1.51709 8.57133 5.80157 0.633604 12.075
files/tasks_parameters/ExAp01/sample30.txt 1.58227 8.18878 5.90888 0.633576 12.0744
files/tasks_parameters/ExAp01/sample42.txt 1.30673 8.57689 5.67253 0.54426 10.3723
files/tasks_parameters/ExAp01/sample4.txt 1.29846 8.40354 4.57985 0.563519 10.7393
files/tasks_parameters/ExAp01/sample28.txt 1.11472 6.44114 4.96426 0.449721 8.5706
files/tasks_parameters/ExAp01/sample18.txt 1.36873 8.56363 4.60946 0.543766 10.3629
files/tasks_parameters/ExAp01/sample35.txt 1.94058 11.0387 6.34514 0.761377 14.51
files/tasks_parameters/ExAp01/sample47.txt 1.32345 7.14493 5.22131 0.545046 10.3873
files/tasks_parameters/ExAp01/sample49.txt 1.29951 6.65996 4.80244 0.498533 9.50084
files/tasks_parameters/ExAp01/sample41.txt 1.18983 7.09069 5.35462 0.497129 9.47407
