files/tasks_parameters/ExAp01/sample8.txt 1.08361 3.76817 4.3855 0.450105 16.8131
files/tasks_parameters/ExAp01/sample12.txt 1.50473 5.03638 5.18776 0.610564 22.8069
files/tasks_parameters/ExAp01/sample2.txt 1.45265 4.58991 5.64606 0.613877 22.9306
files/tasks_parameters/ExAp01/sample44.txt 1.26074 3.77401 5.66946 0.551838 20.6132
files/tasks_parameters/ExAp01/sample27.txt 1.29418 4.13937 5.56136 0.55779 20.8356
files/tasks_parameters/ExAp01/sample17.txt 1.19488 3.76163 5.38341 0.520991 19.461
files/tasks_parameters/ExAp01/sample9.txt 1.1433 3.69889 5.2981 0.511699 19.1139
files/tasks_parameters/ExAp01/sample34.txt 1.13513 3.52435 5.83741 0.49187 18.3732
files/tasks_parameters/ExAp01/sample40.txt 1.1586 4.06185 5.0335 0.496884 18.5605
files/tasks_parameters/ExAp01/sample33.txt 1.55311 4.82091 5.83886 0.651963 24.3533
files/tasks_parameters/ExAp01/sample48.txt 1.06949 4.01134 5.07085 0.447927 16.7318
files/tasks_parameters/ExAp01/sample29.txt 1.48253 4.20847 5.0406 0.643694 24.0444
files/tasks_parameters/ExAp01/sample11.txt 1.31904 3.94699 5.29198 0.557276 20.8164
files/tasks_parameters/ExAp01/sample14.txt 1.08444 3.54059 4.58345 0.466713 17.4335
files/tasks_parameters/ExAp01/sample0.txt 1.49656 4.82755 4.90216 0.623551 23.292
files/tasks_parameters/ExAp01/sample7.txt 1.15469 3.60766 5.11185 0.509566 19.0342
files/tasks_parameters/ExAp01/sample23.txt 1.41681 3.81403 5.45799 0.582911 21.774
files/tasks_parameters/ExAp01/sample13.txt 1.46074 4.8894 5.26818 0.624499 23.3274
files/tasks_parameters/ExAp01/sample22.txt 1.29087 3.76156 4.95746 0.534216 19.955
files/tasks_parameters/ExAp01/sample25.txt 0.976769 2.94144 4.92622 0.403639 15.0775
files/tasks_parameters/ExAp01/sample36.txt 1.19007 3.56164 4.5806 0.501799 18.7441
files/tasks_parameters/ExAp01/sample46.txt 1.2676 3.84833 4.7121 0.530701 19.8237
files/tasks_parameters/ExAp01/sample31.txt 1.07256 3.764 5.08385 0.479734 17.9199
files/tasks_parameters/ExAp01/sample37.txt 1.52763 4.43254 5.65111 0.65143 24.3334
files/tasks_parameters/ExAp01/sample16.txt 1.24327 4.49741 4.8895 0.509171 19.0195
files/tasks_parameters/ExAp01/sample10.txt 1.38978 3.87086 6.07511 0.60993 22.7832
files/tasks_parameters/ExAp01/sample39.txt 1.12287 3.66299 4.54281 0.463671 17.3199
files/tasks_parameters/ExAp01/sample19.txt 1.41031 3.86694 5.14047 0.615987 23.0095
files/tasks_parameters/ExAp01/sample20.txt 1.30362 4.09945 5.13368 0.580369 21.679
files/tasks_parameters/ExAp01/sample43.txt 1.15798 3.75825 5.55698 0.530892 19.8308
files/tasks_parameters/ExAp01/sample32.txt 1.4284 4.0352 5.29178 0.587643 21.9507
files/tasks_parameters/ExAp01/sample45.txt 1.22619 3.94578 4.87833 0.541081 20.2114
files/tasks_parameters/ExAp01/sample26.txt 1.11079 3.50998 4.55035 0.474009 17.706
files/tasks_parameters/ExAp01/sample5.txt 1.37999 4.00994 5.27725 0.587681 21.9521
files/tasks_parameters/ExAp01/sample21.txt 0.935417 2.8974 4.54677 0.430037 16.0635
files/tasks_parameters/ExAp01/sample38.txt 1.1774 3.56689 4.78573 0.492366 18.3918
files/tasks_parameters/ExAp01/sample1.txt 1.15623 3.69002 4.55048 0.481074 17.9699
files/tasks_parameters/ExAp01/sample15.txt 1.20629 3.73223 5.42493 0.524964 19.6094
files/tasks_parameters/ExAp01/sample24.txt 1.27063 4.18053 5.40377 0.542575 20.2672
files/tasks_parameters/ExAp01/sample3.txt 1.0835 3.70547 4.7118 0.470503 17.5751
files/tasks_parameters/ExAp01/sample6.txt 1.45612 4.07521 5.71419 0.626702 23.4097
files/tasks_parameters/ExAp01/sample30.txt 1.49652 3.97446 5.82388 0.626709 23.41
files/tasks_parameters/ExAp01/sample42.txt 1.28874 4.44207 5.58473 0.537025 20.0599
files/tasks_parameters/ExAp01/sample4.txt 1.40848 3.92181 4.49751 0.556974 20.8051
files/tasks_parameters/ExAp01/sample28.txt 1.02108 3.13496 4.88321 0.444588 16.6071
files/tasks_parameters/ExAp01/sample18.txt 1.22792 3.95301 4.52898 0.537438 20.0753
files/tasks_parameters/ExAp01/sample35.txt 1.91671 5.75923 6.25034 0.752488 28.1083
files/tasks_parameters/ExAp01/sample47.txt 1.16056 3.44018 5.14289 0.540033 20.1723
files/tasks_parameters/ExAp01/sample49.txt 1.22923 3.38981 4.72409 0.493041 18.417
files/tasks_parameters/ExAp01/sample41.txt 1.13952 3.58692 5.27252 0.492391 18.3927
