files/tasks_parameters/ExAp01/sample8.txt 1.1723 6.77015 2.19458 0.288816 21.3775
files/tasks_parameters/ExAp01/sample12.txt 1.23074 9.58351 2.46081 0.337498 24.9808
files/tasks_parameters/ExAp01/sample2.txt 1.18148 8.44418 2.50701 0.319127 23.621
files/tasks_parameters/ExAp01/sample44.txt 1.06723 6.96299 2.23089 0.28229 20.8944
files/tasks_parameters/ExAp01/sample27.txt 1.20076 7.74306 2.16676 0.28602 21.1705
files/tasks_parameters/ExAp01/sample17.txt 1.09056 7.35053 2.25579 0.292348 21.6388
files/tasks_parameters/ExAp01/sample9.txt 1.06252 6.89392 2.21068 0.282399 20.9025
files/tasks_parameters/ExAp01/sample34.txt 1.14975 6.62788 2.3772 0.297742 22.0381
files/tasks_parameters/ExAp01/sample40.txt 1.12826 7.75686 2.17534 0.285619 21.1408
files/tasks_parameters/ExAp01/sample33.txt 1.37785 8.14826 2.6463 0.338073 25.0233
files/tasks_parameters/ExAp01/sample48.txt 1.03986 7.64107 2.14272 0.270011 19.9856
files/tasks_parameters/ExAp01/sample29.txt 1.0353 7.139 1.93769 0.286306 21.1916
files/tasks_parameters/ExAp01/sample11.txt 1.04381 6.88688 2.12981 0.280008 20.7255
files/tasks_parameters/ExAp01/sample14.txt 0.936387 6.11983 1.97599 0.247458 18.3162
files/tasks_parameters/ExAp01/sample0.txt 1.21705 8.2738 2.14256 0.289132 21.4008
files/tasks_parameters/ExAp01/sample7.txt 1.02706 6.87011 2.05821 0.269886 19.9763
files/tasks_parameters/ExAp01/sample23.txt 1.11067 6.52032 2.38087 0.291712 21.5918
files/tasks_parameters/ExAp01/sample13.txt 1.18393 8.73247 2.33415 0.295393 21.8642
files/tasks_parameters/ExAp01/sample22.txt 1.13651 6.9777 2.28948 0.283979 21.0194
files/tasks_parameters/ExAp01/sample25.txt 1.05658 6.23444 2.2122 0.267298 19.7847
files/tasks_parameters/ExAp01/sample36.txt 0.979352 6.6174 1.9458 0.253823 18.7873
files/tasks_parameters/ExAp01/sample46.txt 1.27965 7.42369 2.49128 0.327273 24.2239
files/tasks_parameters/ExAp01/sample31.txt 0.986596 7.22028 2.13584 0.25377 18.7834
files/tasks_parameters/ExAp01/sample37.txt 1.12259 8.90704 2.16981 0.295708 21.8876
files/tasks_parameters/ExAp01/sample16.txt 0.991396 8.18243 1.88294 0.24945 18.4636
files/tasks_parameters/ExAp01/sample10.txt 1.14896 6.96646 2.31217 0.285748 21.1504
files/tasks_parameters/ExAp01/sample39.txt 1.00321 6.4161 1.97266 0.251967 18.65
files/tasks_parameters/ExAp01/sample19.txt 1.20608 8.16711 2.23199 0.308463 22.8317
files/tasks_parameters/ExAp01/sample20.txt 0.970053 7.28549 1.88944 0.25994 19.2401
files/tasks_parameters/ExAp01/sample43.txt 0.954457 6.86804 2.00142 0.25616 18.9603
files/tasks_parameters/ExAp01/sample32.txt 1.05351 8.15663 2.12995 0.281726 20.8527
files/tasks_parameters/ExAp01/sample45.txt 1.08805 7.75184 2.10599 0.274935 20.35
files/tasks_parameters/ExAp01/sample26.txt 1.02609 7.4944 1.88956 0.267248 19.781
files/tasks_parameters/ExAp01/sample5.txt 1.07435 8.08362 2.09961 0.28454 21.061
files/tasks_parameters/ExAp01/sample21.txt 0.967845 6.11814 2.17119 0.26143 19.3504
files/tasks_parameters/ExAp01/sample38.txt 1.04625 7.761 1.96293 0.263659 19.5154
files/tasks_parameters/ExAp01/sample1.txt 1.07158 7.83752 2.13261 0.289228 21.4079
files/tasks_parameters/ExAp01/sample15.txt 1.08858 7.37971 2.12057 0.285825 21.1561
files/tasks_parameters/ExAp01/sample24.txt 1.10198 8.28531 2.25272 0.296628 21.9557
files/tasks_parameters/ExAp01/sample3.txt 1.20471 7.33359 2.39135 0.305084 22.5816
files/tasks_parameters/ExAp01/sample6.txt 1.07583 7.09894 2.24425 0.281804 20.8585
files/tasks_parameters/ExAp01/sample30.txt 1.1999 8.17669 2.03701 0.299204 22.1464
files/tasks_parameters/ExAp01/sample42.txt 1.17784 7.70416 2.42413 0.29743 22.015
files/tasks_parameters/ExAp01/sample4.txt 1.16449 7.41691 2.36261 0.307803 22.7828
files/tasks_parameters/ExAp01/sample28.txt 1.00785 7.0562 2.07657 0.266428 19.7203
files/tasks_parameters/ExAp01/sample18.txt 1.07426 7.60139 2.1377 0.268016 19.8379
files/tasks_parameters/ExAp01/sample35.txt 1.21399 9.66795 2.28028 0.32244 23.8662
files/tasks_parameters/ExAp01/sample47.txt 0.969704 6.84842 2.12104 0.251655 18.6269
files/tasks_parameters/ExAp01/sample49.txt 1.06082 7.1497 2.11412 0.255889 18.9403
files/tasks_parameters/ExAp01/sample41.txt 1.00573 6.59911 2.07359 0.265885 19.6802
