files/tasks_parameters/ExAp01/sample8.txt 1.11069 7.2562 4.46819 0.454772 16.2369
files/tasks_parameters/ExAp01/sample12.txt 1.64361 9.70908 5.28286 0.618515 22.0831
files/tasks_parameters/ExAp01/sample2.txt 1.50039 8.14159 5.7401 0.620531 22.155
files/tasks_parameters/ExAp01/sample44.txt 1.38351 7.25164 5.75904 0.557631 19.9093
files/tasks_parameters/ExAp01/sample27.txt 1.31986 8.10944 5.64946 0.564878 20.1681
files/tasks_parameters/ExAp01/sample17.txt 1.26761 7.11225 5.46658 0.527183 18.8222
files/tasks_parameters/ExAp01/sample9.txt 1.22501 7.62559 5.37813 0.517277 18.4685
files/tasks_parameters/ExAp01/sample34.txt 1.23761 7.04587 5.93037 0.497709 17.7699
files/tasks_parameters/ExAp01/sample40.txt 1.201 8.03037 5.123 0.502383 17.9367
files/tasks_parameters/ExAp01/sample33.txt 1.63735 9.22935 5.92956 0.659262 23.5379
files/tasks_parameters/ExAp01/sample48.txt 1.15851 8.12182 5.1577 0.452491 16.1554
files/tasks_parameters/ExAp01/sample29.txt 1.59989 8.06133 5.12331 0.650652 23.2305
files/tasks_parameters/ExAp01/sample11.txt 1.36227 7.63104 5.37897 0.563302 20.1118
files/tasks_parameters/ExAp01/sample14.txt 1.13168 6.66403 4.66322 0.471536 16.8354
files/tasks_parameters/ExAp01/sample0.txt 1.6449 9.3266 4.98971 0.6311 22.5324
files/tasks_parameters/ExAp01/sample7.txt 1.25994 7.34863 5.19436 0.515527 18.4061
files/tasks_parameters/ExAp01/sample23.txt 1.40254 6.68564 5.54308 0.588617 21.0156
files/tasks_parameters/ExAp01/sample13.txt 1.65071 9.31093 5.35591 0.632849 22.5948
files/tasks_parameters/ExAp01/sample22.txt 1.3311 7.65588 5.04866 0.540336 19.2918
files/tasks_parameters/ExAp01/sample25.txt 1.0295 6.17035 5.0141 0.408296 14.5775
files/tasks_parameters/ExAp01/sample36.txt 1.22216 7.03772 4.66274 0.507647 18.1247
files/tasks_parameters/ExAp01/sample46.txt 1.34398 7.73433 4.79934 0.536843 19.1671
files/tasks_parameters/ExAp01/sample31.txt 1.23898 6.96928 5.16482 0.485817 17.3453
files/tasks_parameters/ExAp01/sample37.txt 1.64144 9.52443 5.74224 0.65799 23.4924
files/tasks_parameters/ExAp01/sample16.txt 1.35127 8.63521 4.97261 0.516328 18.4346
files/tasks_parameters/ExAp01/sample10.txt 1.38186 7.28353 6.16876 0.615651 21.9808
files/tasks_parameters/ExAp01/sample39.txt 1.14417 6.3405 4.6137 0.468873 16.7403
files/tasks_parameters/ExAp01/sample19.txt 1.63133 8.85528 5.22306 0.622152 22.2129
files/tasks_parameters/ExAp01/sample20.txt 1.39431 8.1141 5.21177 0.586994 20.9576
files/tasks_parameters/ExAp01/sample43.txt 1.24124 7.21373 5.6367 0.53748 19.1898
files/tasks_parameters/ExAp01/sample32.txt 1.60384 8.30592 5.38137 0.593918 21.2049
files/tasks_parameters/ExAp01/sample45.txt 1.42266 7.94069 4.96323 0.547271 19.5394
files/tasks_parameters/ExAp01/sample26.txt 1.15806 7.57061 4.62637 0.480146 17.1428
files/tasks_parameters/ExAp01/sample5.txt 1.49389 8.0307 5.35681 0.59407 21.2103
files/tasks_parameters/ExAp01/sample21.txt 1.02755 5.87802 4.61744 0.434264 15.5047
files/tasks_parameters/ExAp01/sample38.txt 1.18509 7.66999 4.86632 0.496808 17.7377
files/tasks_parameters/ExAp01/sample1.txt 1.16545 7.21312 4.63213 0.486293 17.3623
files/tasks_parameters/ExAp01/sample15.txt 1.26663 8.02273 5.50855 0.531063 18.9607
files/tasks_parameters/ExAp01/sample24.txt 1.33852 8.66348 5.4905 0.548998 19.6011
files/tasks_parameters/ExAp01/sample3.txt 1.16716 7.74268 4.79918 0.477387 17.0443
files/tasks_parameters/ExAp01/sample6.txt 1.60869 8.57133 5.80157 0.633604 22.6218
files/tasks_parameters/ExAp01/sample30.txt 1.69613 8.18878 5.90888 0.633576 22.6208
files/tasks_parameters/ExAp01/sample42.txt 1.3045 8.57689 5.67253 0.54426 19.4319
files/tasks_parameters/ExAp01/sample4.txt 1.34401 8.40354 4.57985 0.563519 20.1195
files/tasks_parameters/ExAp01/sample28.txt 1.07499 6.44114 4.96426 0.449721 16.0566
files/tasks_parameters/ExAp01/sample18.txt 1.30902 8.56363 4.60946 0.543766 19.4143
files/tasks_parameters/ExAp01/sample35.txt 1.98373 11.0387 6.34514 0.761377 27.1837
files/tasks_parameters/ExAp01/sample47.txt 1.32259 7.14493 5.22131 0.545046 19.46
files/tasks_parameters/ExAp01/sample49.txt 1.3387 6.65996 4.80244 0.498533 17.7993
files/tasks_parameters/ExAp01/sample41.txt 1.21703 7.09069 5.35462 0.497129 17.7492
