files/tasks_parameters/ExAp01/sample8.txt 0.781729 3.15778 1.5595 0.203411 9.18921
files/tasks_parameters/ExAp01/sample12.txt 0.768221 3.94962 1.6705 0.207924 9.39308
files/tasks_parameters/ExAp01/sample2.txt 0.720377 3.78275 1.74131 0.200098 9.03952
files/tasks_parameters/ExAp01/sample44.txt 0.667794 3.59825 1.65317 0.200005 9.03534
files/tasks_parameters/ExAp01/sample27.txt 0.729366 3.45743 1.5148 0.182129 8.22776
files/tasks_parameters/ExAp01/sample17.txt 0.635212 2.77299 1.44514 0.14646 6.6164
files/tasks_parameters/ExAp01/sample9.txt 0.620033 2.99933 1.451 0.177444 8.01611
files/tasks_parameters/ExAp01/sample34.txt 0.619076 3.02928 1.58429 0.157984 7.137
files/tasks_parameters/ExAp01/sample40.txt 0.639693 3.86889 1.52122 0.168379 7.60663
files/tasks_parameters/ExAp01/sample33.txt 0.792303 3.63695 1.71905 0.199765 9.02449
files/tasks_parameters/ExAp01/sample48.txt 0.62375 3.39061 1.49062 0.154728 6.98993
files/tasks_parameters/ExAp01/sample29.txt 0.714063 3.30472 1.38739 0.223868 10.1134
files/tasks_parameters/ExAp01/sample11.txt 0.663518 3.10585 1.41612 0.174079 7.8641
files/tasks_parameters/ExAp01/sample14.txt 0.61093 2.70971 1.43432 0.162214 7.32813
files/tasks_parameters/ExAp01/sample0.txt 0.73421 3.6937 1.5439 0.18367 8.29739
files/tasks_parameters/ExAp01/sample7.txt 0.580824 2.70501 1.42221 0.143463 6.48104
files/tasks_parameters/ExAp01/sample23.txt 0.640849 3.2697 1.57822 0.181448 8.19704
files/tasks_parameters/ExAp01/sample13.txt 0.688823 3.84225 1.67648 0.198247 8.95592
files/tasks_parameters/ExAp01/sample22.txt 0.59048 3.09569 1.56121 0.148796 6.72195
files/tasks_parameters/ExAp01/sample25.txt 0.531674 2.73966 1.5007 0.148149 6.6927
files/tasks_parameters/ExAp01/sample36.txt 0.479414 2.85948 1.28553 0.130042 5.87473
files/tasks_parameters/ExAp01/sample46.txt 0.778705 3.58643 1.69998 0.210103 9.49151
files/tasks_parameters/ExAp01/sample31.txt 0.612912 3.4832 1.53782 0.1722 7.77923
files/tasks_parameters/ExAp01/sample37.txt 0.71439 3.95293 1.50705 0.171701 7.75669
files/tasks_parameters/ExAp01/sample16.txt 0.621466 3.31216 1.30115 0.150249 6.78758
files/tasks_parameters/ExAp01/sample10.txt 0.69657 3.17098 1.61789 0.153776 6.94694
files/tasks_parameters/ExAp01/sample39.txt 0.64005 3.26617 1.44406 0.165669 7.48418
files/tasks_parameters/ExAp01/sample19.txt 0.755514 3.63532 1.52509 0.196094 8.85868
files/tasks_parameters/ExAp01/sample20.txt 0.56406 3.20793 1.25367 0.147335 6.65596
files/tasks_parameters/ExAp01/sample43.txt 0.575334 3.11551 1.4202 0.150644 6.80545
files/tasks_parameters/ExAp01/sample32.txt 0.622043 3.5311 1.42482 0.168744 7.62312
files/tasks_parameters/ExAp01/sample45.txt 0.748057 3.80283 1.48324 0.19807 8.94794
files/tasks_parameters/ExAp01/sample26.txt 0.609308 3.21645 1.29701 0.166061 7.50191
files/tasks_parameters/ExAp01/sample5.txt 0.706747 3.5889 1.52559 0.178903 8.08206
files/tasks_parameters/ExAp01/sample21.txt 0.805103 2.75242 1.55936 0.19512 8.81467
files/tasks_parameters/ExAp01/sample38.txt 0.583992 3.31563 1.37515 0.166157 7.50623
files/tasks_parameters/ExAp01/sample1.txt 0.724404 3.74964 1.51696 0.19701 8.90002
files/tasks_parameters/ExAp01/sample15.txt 0.663022 3.32916 1.48508 0.180707 8.16356
files/tasks_parameters/ExAp01/sample24.txt 0.655022 3.45951 1.59549 0.16529 7.46709
files/tasks_parameters/ExAp01/sample3.txt 0.915194 3.70014 1.70809 0.237107 10.7114
files/tasks_parameters/ExAp01/sample6.txt 0.707059 3.33003 1.58323 0.184714 8.34458
files/tasks_parameters/ExAp01/sample30.txt 0.781507 4.1841 1.4861 0.239623 10.8251
files/tasks_parameters/ExAp01/sample42.txt 0.703818 3.43221 1.70276 0.177383 8.01337
files/tasks_parameters/ExAp01/sample4.txt 0.751729 3.72477 1.6136 0.196448 8.87466
files/tasks_parameters/ExAp01/sample28.txt 0.641348 3.11323 1.45032 0.158819 7.17474
files/tasks_parameters/ExAp01/sample18.txt 0.638938 3.47418 1.45209 0.149064 6.73404
files/tasks_parameters/ExAp01/sample35.txt 0.720711 4.57086 1.49394 0.185031 8.35887
files/tasks_parameters/ExAp01/sample47.txt 0.626172 3.13768 1.52397 0.16417 7.41648
files/tasks_parameters/ExAp01/sample49.txt 0.593912 3.13288 1.49657 0.156154 7.05435
files/tasks_parameters/ExAp01/sample41.txt 0.627923 2.81964 1.49636 0.150876 6.8159
