Task0 0.020772339665335246 0.22293694805664632 0.0691307985226335 0.034961872247516575 0.642219565287357 0.9937372506270081 0.427765212470398 
Task1 0.0025615810984330007 0.05297829990245391 0.01583066406758721 0.07671505873026836 0.42771475245565704 0.982783318317747 0.3781339522889362 
Task2 0.022109489225277106 0.4256715846069067 0.022402874424604355 0.42498683163699025 0.6199031329071844 0.8866481095222849 0.7992086517399951 
Task3 0.0034721400237906304 0.13335830068332713 0.04453051392853504 0.13506702972325496 0.8355744621517442 0.33122080185793407 0.65306237251644 
Task4 0.0951006587574883 0.24191542029687763 0.1766613764704919 0.19939735111854587 0.5223583035397485 0.883866468864118 0.40891468018046967 
Task5 0.11320001878369204 0.2014289429351502 0.3227334012504057 0.2589652397747984 0.6658051613253332 0.7934578922084446 0.6273124696984669 
Task6 0.008431334332748995 0.019357970250941072 0.016374370885788796 0.01207331462734039 0.6254714697623844 0.9691114091441717 0.5197446393366792 
Task7 0.05697169108613713 0.25371690881548664 0.21621938607061605 0.027986365103433476 0.9750707685320095 0.9259213537843491 0.3500780492852123 
Task8 0.02628389327456295 0.5362062579602662 0.2564055161185268 0.12659856665570055 0.884070029739632 0.3041405993178045 0.4286952240533813 
Task9 0.051740991356654026 0.48488959034690265 0.17763813321968577 0.026753029199777848 0.8170283609153599 0.48599880259976785 0.4971274627983834 
Task10 0.00039370302497003317 0.003984108945299872 0.004120730394810812 0.0020119977495564297 0.33006490115225134 0.4830082016421343 0.840172076975988 
Task11 0.03238394013140238 0.019882319232251314 0.04091456407691945 0.07335162158339643 0.677085895151635 0.9129039625639639 0.4393087656466811 
Task12 0.0630900110232327 0.0046090554882137185 0.24754442799217075 0.25684699155249346 0.763747542323974 0.9630519387507073 0.9414337289940256 
Task13 0.17296701885414878 0.38252088282155494 0.10459436986273572 0.29182142297365316 0.9597220712780941 0.42123471642411403 0.3511797941059521 
Task14 0.015358693521115028 0.35279998906665155 0.24372414442257873 0.15458858930681263 0.7191450658434583 0.8405899853563252 0.4926572080344255 
Task15 0.0287342445809051 0.23412277397855566 0.47944723469154793 0.2310794516052753 0.6548595322441245 0.6520275034111852 0.3920263050689026 
Task16 0.030996809552965302 0.24664849168320668 0.11365194670712765 0.03744117894224322 0.36455465736634857 0.679174610862644 0.6357058216396714 
Task17 0.056971714069101405 0.1046682602508125 0.2848262675856942 0.2542395673315375 0.6883128322023353 0.7586769590945299 0.575979821717052 
Task18 0.006560571484728589 0.5096022161313398 0.11251164515378531 0.0034958367566504983 0.5096447709182421 0.6263982357284188 0.42475759688028436 
Task19 0.0248401051116392 0.02533778510350293 0.1559773521542082 0.18359694485200262 0.61326139351099 0.6069740636672598 0.5321496493650693 
Task20 0.07608333967430819 0.08680562527086204 0.09239468926530164 0.19593694944755324 0.3278156911028205 0.33551144724680665 0.9645398995580181 
Task21 0.10282839094380494 0.22166911068382925 0.19571327514490508 0.03778948701124201 0.3782483775155464 0.49222247942584396 0.7503208579570908 
Task22 0.12193990795765458 0.3570077347620712 0.3654031228428172 0.08382254312821158 0.852219174177955 0.8770426764240591 0.7598616957554691 
Task23 0.08238605901016915 0.22484712556708716 0.17908811650523268 0.41036597340978054 0.30038946002267297 0.4604945263539829 0.43743825096411826 
Task24 0.03618676925654047 0.08554700856474204 0.05773687218850617 0.0024006933843895325 0.7040726242608528 0.9588053036163666 0.3551766837978005 
Task25 0.0920527239010651 0.17579707130473365 0.15359928340703866 0.1726435929143032 0.7209066892699652 0.9210222508792283 0.8061234539413431 
Task26 0.06771935142566335 0.16421929707938884 0.12355782064592619 0.16602443071268175 0.3239246453862803 0.3613223033288725 0.8985111100579055 
Task27 0.04223741732486522 0.08294548463850884 0.42754424803959107 0.18634803883054812 0.43542779795377134 0.8098580429439688 0.7089187720187689 
Task28 0.03296117565715306 0.2602967447684535 0.42335101070202924 0.09844020474241479 0.9096102894837381 0.813988243742721 0.5042964099457 
Task29 0.09963707400194523 0.24457979592257473 0.11898574109032635 0.2715522293525111 0.8948634794261914 0.5616575112626381 0.36729919196826455 
Task30 0.008602148339532021 0.041585155526582956 0.5804197139448439 0.19147673067393892 0.8818184974212386 0.9295385492254244 0.6783637980474349 
Task31 0.06299978733971542 0.5467112513692066 0.055441753941276664 0.2748613484795567 0.5861938772585158 0.3769437655617911 0.8589620658368227 
Task32 0.06880534364096254 0.08645879765611994 0.16728135311958578 0.14778567113070945 0.47751394404531583 0.48038689414003766 0.8024270265012814 
Task33 0.1053434324362582 0.35568614127524634 0.2802039066144702 0.22891167882595237 0.6728149781526206 0.9912989930056502 0.7325340220464025 
Task34 0.038362520361277075 0.09334424044317495 0.1278374247889202 0.1548733729901298 0.9904774080575953 0.5177128123102062 0.37719380563874494 
Task35 0.004856470534604164 0.007858159033200753 0.023480724571565737 0.05670092160686928 0.8219837421549314 0.7308997782736648 0.30833176384413474 
Task36 0.04159331767309043 0.00700311797230152 0.10511511842607031 0.06563190247573308 0.5516876756411216 0.7135136013165382 0.4058577610562376 
Task37 0.025380457036564018 0.17184341287769808 0.0320122351285752 0.20164763385314946 0.7988751645254434 0.7385008016257265 0.4663639923382333 
Task38 0.0548885717239592 0.29457141690349414 0.028893791215030783 0.046812201187512135 0.8316243724360386 0.8793990340824578 0.5116377841337547 
Task39 0.0739871379651668 0.24273208225312562 0.053121036771777305 0.2854897259691754 0.3689590355974025 0.4518542372186482 0.4826365410667104 
Task40 0.0007083467845546206 0.060207614590632536 0.35097855470351935 0.4731304785208753 0.6257215656063633 0.9279878388656295 0.9489397092915457 
Task41 0.04985101504498871 0.014380386345650059 0.1743392368226725 0.1042743441694218 0.9553933155318615 0.35095167499554647 0.7338371883089068 
Task42 0.07217329650681158 0.16970650492069764 0.13075092108771355 0.3637844534885792 0.6992126951432851 0.5630145309893979 0.8540284611813929 
Task43 0.039378768739008294 0.08380216050438374 0.03950487758297752 0.06267101014343589 0.7259923727353998 0.7235338175925498 0.9490831979273324 
Task44 0.05392251040046526 0.08139958680899753 0.0988231520555258 0.06027076916143788 0.9819996629256411 0.40410653025942567 0.5038074647783957 
Task45 0.12392005572096343 0.3222363342824974 0.19203106462703703 0.04566345126492514 0.42535821022215364 0.5513322545719637 0.47901844136378313 
Task46 0.09375559120569647 0.14722537891011694 0.19164875023958322 0.16851164450868636 0.969396812761198 0.8374657061904345 0.8548714743006331 
Task47 0.11020036666832274 0.2530736097963598 0.3005170725017833 0.2559901278776233 0.5420198728941279 0.8677293467880174 0.7460023299169026 
Task48 0.05791464327790861 0.10943957542250948 0.1410741102754462 0.12979638538384636 0.31221493199808276 0.5861800503660406 0.34604478002558436 
Task49 6.341698221476525e-05 0.05713947937042045 0.06415937154914991 0.05393539211362657 0.8075483514797761 0.8570993899952539 0.33305987066404535 
Task50 0.04571811238996715 0.33841139442947504 0.05535472824784132 0.17834573112159485 0.37716548085957924 0.8178949385576537 0.8934676474231245 
Task51 0.007307274584032521 0.06471732583380156 0.2766572829445664 0.15436052397395336 0.36076381726461904 0.7331524293824025 0.5003356051436372 
Task52 0.057800774954999204 0.21297938070131825 0.20312611647859133 0.11263566995475226 0.6764179800563611 0.3164886443100172 0.8229948017698312 
Task53 0.0031594339599943775 0.006264290432730133 0.012143765328574278 0.01966083797385338 0.7782559184419084 0.5031947854004997 0.5336938317510675 
Task54 0.14987790544620352 0.27460295979354166 0.04993701729167277 0.4202613648185584 0.7863285528517514 0.48427438780635124 0.8047640450819498 
Task55 0.1020349060203877 0.2150364224121769 0.4039998753364866 0.2583055588444395 0.5639894152839832 0.9049819652249684 0.6893665576834876 
Task56 0.1283323687612394 0.2066233496648309 0.28899090982515796 0.023686471639659118 0.8654474034017683 0.9802657038926457 0.3423376401912759 
Task57 0.01631510373308701 0.2381653449506862 0.3248506205966962 0.3342938753249327 0.6072164319400823 0.9743507414323169 0.7305564717574676 
Task58 0.11341200757916681 0.02222313170404353 0.3703224678500971 0.3547522141525186 0.4510656761767682 0.47007047841039196 0.35413132595838737 
Task59 0.008959849123934894 0.02567993900706561 0.020550198182226226 0.07388236264646994 0.33280259223839903 0.6226650887054193 0.6376477387062813 
Task60 0.005575292429743518 0.1149195745816175 0.157907622329682 0.18829351734233188 0.8191435393706286 0.9581307858202741 0.9354992341696349 
Task61 0.004312802421925981 0.014582531697574577 0.09976347956693131 0.01954860478490169 0.40137443945709556 0.9956447717362218 0.7226743752382634 
Task62 0.004227892020270973 0.15277811884196352 0.04814035681701286 0.10143273313756271 0.3456002373978811 0.3706482639468964 0.4219623224564258 
Task63 0.002870926923785834 0.31087543814232643 0.013794414469881429 0.4161331112949396 0.43900018023082465 0.9726767412322612 0.37799781701901897 
Task64 0.03653351482664897 0.03935682244070693 0.2535692332520001 0.23569649012932242 0.7950065985214756 0.7130432138089614 0.5132164352717598 
Task65 0.05078255661567184 0.3015647907757023 0.06802292758187815 0.22190949124588458 0.8860130902716563 0.303097677083356 0.7076579119560474 
Task66 0.013532568266671648 0.11086635028376433 0.10755356120980965 0.056582888754634984 0.4209036053041596 0.3155929467433996 0.723534996892166 
Task67 0.006953136478601428 0.06871948294331204 0.03267151062315708 0.06562750507545084 0.89623220250479 0.37414494160735134 0.9833461566895325 
Task68 0.16274008444974375 0.241878198203194 0.2867559390464659 0.1593366540004156 0.7661802277950784 0.6174949092430619 0.7334367450504319 
Task69 0.03588256416400042 0.1807423742672125 0.17170765303897048 0.5929749318836977 0.49202494440313993 0.3556507794443449 0.7844022032547873 
Task70 0.16901202930850345 0.3471722325206861 0.022784743449070378 0.3083489176198823 0.7902767105836705 0.7188944056407975 0.8128304006460849 
Task71 0.07088990050956079 0.055969027844170294 0.026832652728338992 0.22354008935950528 0.5267984967296849 0.5358113705671966 0.9453496366749892 
Task72 0.053465464629898755 0.254197452791799 0.10933995014413804 0.22696055914708566 0.383163464199295 0.3843931693409639 0.7951584369500386 
Task73 0.022075601061976504 0.053096963345434706 0.027158498627943187 0.050091326663284585 0.8544454518085709 0.5291013378221981 0.7861066389931455 
Task74 0.04278865003027992 0.250641498803865 0.049667460890995836 0.20247158904527363 0.3167297353013337 0.9634265459749485 0.5084793679818091 
Task75 0.045722344774925525 0.09714007265057961 0.14271447213869395 0.13366588666638957 0.35343538895885424 0.998502525893803 0.9063365672939647 
Task76 0.09139650935414922 0.40811622648000323 0.22959192199323514 0.022513615872946098 0.9971885000632752 0.5133430779746737 0.6972738209856664 
Task77 0.08437266221916537 0.10228722933087489 0.09330359666682683 0.14762564961380678 0.7330675633716521 0.7870960056946591 0.3237083137323144 
Task78 0.09372705846574744 0.24495575250499585 0.1593161761419631 0.17058885161054282 0.7590061400342569 0.9093496725422416 0.6248057077862643 
Task79 0.06990848596330364 0.26590758266476455 0.3648233085209699 0.20315774006925302 0.605180337353832 0.9323743345473268 0.595496958064452 
Task80 0.06898997620719385 0.3510224616137964 0.2931563718362467 0.12231689226053157 0.6441322236378539 0.7435210811711782 0.7638916996325822 
Task81 0.08288950815894365 0.20062060511478394 0.0826798875147799 0.5869760259476554 0.34264271538579133 0.666601757104615 0.5393040556396438 
Task82 0.12755596177270687 0.16372205832075615 0.3283141339724434 0.223468076069292 0.6543608148354807 0.8881334178798761 0.6783454680537686 
Task83 0.004274290939737447 0.015467178572514657 0.00043879528855196234 0.04925206452163009 0.6243105844399838 0.5922176312032337 0.45846928472348925 
Task84 0.01528961739147307 0.1583422668649962 0.10152655326610784 0.09617654918101674 0.8377335686971652 0.5708591625608284 0.5872304041476293 
Task85 0.05941829062056744 0.10505108610402317 0.08920404910308463 0.11191737338706666 0.8370657577783611 0.5854574725483104 0.44025385762004265 
Task86 0.011315339149088385 0.12125432173593934 0.005944349361702306 0.0007798063857750426 0.4553901423041926 0.938538548701481 0.7432315778764569 
Task87 0.037301399447206736 0.048839177601583926 0.11084107213665988 0.10445375277908857 0.5972579290857861 0.3172382033978906 0.5509540210057267 
Task88 0.01912679668907255 0.10935603027511523 0.1615448689162503 0.20845100505792527 0.6779567501254402 0.3370829935759395 0.5312194319646573 
Task89 0.13123523508923313 0.2555378142383301 0.13305787400490585 0.17971691736766676 0.45659226933108404 0.7731649841830042 0.3851602135327138 
Task90 0.03998066952720974 0.09232201646507966 0.07713096269181653 0.06834478012407254 0.9555180116214734 0.4862778606083468 0.3307575702306662 
Task91 0.03294764311597984 0.37302334743384385 0.00414797553416088 0.05154868884976525 0.34548500971455676 0.6622471316859246 0.46346958831747664 
Task92 0.05724828234052905 0.020644451274484308 0.2723102622116711 0.17706932664422595 0.6458367124162628 0.8054150557745299 0.8094364059226078 
Task93 0.04275703473387345 0.21073816975369214 0.0734666160329559 0.4137230478623425 0.5410885425587034 0.37416939532203347 0.5881720592175552 
Task94 0.1287870436458249 0.19662745447071403 0.20807746737788846 0.15850816001489978 0.900223874991859 0.6637545604723252 0.890705171415388 
Task95 0.15327007262391068 0.2666050569115787 0.05623161169129561 0.32642357934678407 0.3063516111786433 0.45542290531147794 0.8642049367603812 
Task96 0.09021651039341215 0.30573497142728473 0.2093116713460481 0.3526329845481672 0.9292604415624353 0.36005057334669166 0.6520589692579437 
Task97 0.046107485620483994 0.10019789309319484 0.10149448876408557 0.24801435678895845 0.8936945605040709 0.934488078028191 0.34946860517223965 
Task98 0.007386331435039574 0.3780589160305842 0.4717922972411862 0.1283264761213299 0.3300276742678187 0.867349362023718 0.856301755434717 
Task99 0.06339948715915007 0.3158253708286361 0.06656597223454006 0.24717050827353965 0.3185393241129943 0.8931395304023495 0.5590228760643654 
