Task0 0.07401581043285287 0.06452445384460487 0.17701457009643334 0.2187881380685742 0.43939593668133403 0.681436096388033 0.8314439409981798 
Task1 0.003981157861379232 0.2568964881164022 0.2417344908899743 0.34572421430232736 0.9029697292056367 0.302539793606661 0.5278344336359679 
Task2 0.02041963439054133 0.0637732250371327 0.02442949377096683 0.11164932571949397 0.4455035187598527 0.4547707635102192 0.336324426253447 
Task3 0.1316726448382745 0.2504685894829413 0.037530244498180314 0.390167265124732 0.8661170639174294 0.6475444550739521 0.5222108776971847 
Task4 0.13161432677104487 0.17692604365255507 0.03312168678145598 0.33121852645941247 0.33265177713764016 0.794858775549571 0.9835120889355089 
Task5 0.06456514883115191 0.10525333809166508 0.2071680286718111 0.008589361894030765 0.33279124898942175 0.91234799137459 0.5632275808460837 
Task6 0.09336932272209562 0.21774544172904037 0.08528522672890748 0.2616903243827328 0.7367500766770058 0.5546062854179457 0.5996384024220522 
Task7 0.0029765185700524016 0.009652769688678871 0.00415950144096671 0.01580158121347276 0.7106072054222043 0.7695236474347655 0.8910890207560009 
Task8 0.0628026287659554 0.06882791918609478 0.6518206002319967 0.04620464273428892 0.6085845992769661 0.8005229621995194 0.5691307211573242 
Task9 0.004306285671698697 0.00424427051956693 0.008851124824409008 0.014562296206930385 0.923023679220234 0.6536563175644254 0.9407563072447924 
Task10 0.03884661876881809 0.05156066528590187 0.16282416430206248 0.08989424428022906 0.4675137156389075 0.7595432660205728 0.771247967837551 
Task11 0.009752196452437661 0.16518100873965946 0.17726044710833094 0.00881461137566524 0.7817921345702619 0.860388287971811 0.6499504094625118 
Task12 0.03668807971390218 0.006917121790972041 0.033020830734318475 0.1536773737493647 0.7744203641426088 0.7454884648252733 0.6149686001764579 
Task13 0.0003858997476756144 0.011561063215121728 0.007691247756111258 0.019720789485856746 0.7911327577761358 0.8947123852296734 0.5432219957861395 
Task14 0.03356404686378158 0.10261531558305238 0.2256573204635602 0.22324370645766733 0.9453859807321097 0.8905863036214674 0.8600971271804267 
Task15 0.07429311985131519 0.081091692565093 0.16138286196272408 0.29414703588292745 0.44423968897826027 0.631552304698035 0.3543878702663401 
Task16 0.1346974815524982 0.19950721962425974 0.28763562462756354 0.1591464856842401 0.574728199034392 0.5999960643375395 0.4780546235406935 
Task17 0.04351358514527512 0.06113969676494068 0.16887537748820378 0.07090495988225347 0.3836894662642519 0.5731772970032533 0.9444091102638514 
Task18 0.003896249399336612 0.1588059531057248 0.6264213447083623 0.14257873562823586 0.9721892259942497 0.3448480431321057 0.8993631833214102 
Task19 0.0490099421797686 0.1388362379084462 0.20092389865113455 0.2886650747183234 0.4661873966894874 0.7879028818159359 0.6583593465481263 
Task20 0.014039447395793495 0.28340908843260304 0.2639307153112065 0.27902660833832915 0.7853101747112705 0.9558228960148365 0.6912038184125662 
Task21 0.00015107553066883028 0.014707358185281792 0.0202810577161318 0.013480759397212244 0.570707684432065 0.9197524955178891 0.49916403490557604 
Task22 0.05329995237663488 0.11767287228398692 0.14418614314613476 0.05643812005258397 0.3795989425385943 0.5682444931002908 0.648199339540012 
Task23 4.0411464557137384e-05 0.0039971193527357195 0.004399100489976662 0.003098685636601258 0.9708094287420757 0.7101108574496192 0.8596541290683399 
Task24 0.05144293790123294 0.19719692950522064 0.33612877557606263 0.37266816456195445 0.846227722267094 0.7283574222491342 0.4153689552646404 
Task25 0.1055389936817912 0.4151674939206772 0.1345562424586129 0.033732081180198804 0.836861914780012 0.80976189224625 0.9736295059099385 
Task26 0.010943688677954358 0.008639993347243222 0.024949448659282475 0.024426776890054246 0.49554676326646574 0.4287893575410693 0.7885998695719405 
Task27 0.03342409711390372 0.04332399971105866 0.07518795516963407 0.0829618799321329 0.49738150019132893 0.8866692972624626 0.5448317335026622 
Task28 0.13568303606511922 0.08490191990986272 0.3093306925620485 0.19890342881241502 0.38212515122149987 0.44294765504323874 0.5618029135913969 
Task29 0.03004350317818751 0.16753346654881904 0.13773808530185058 0.11069086495302703 0.6359125233202612 0.73077496436843 0.7876160737600525 
Task30 0.12265060477197391 0.3774127777096652 0.23104082360209952 0.17774365214292828 0.31596527669185714 0.3950001634982727 0.428642759635671 
Task31 0.11807430974315908 0.2670030449640614 0.17736681941653148 0.3540579378154061 0.9481990070105011 0.45292741888699445 0.7084019840936939 
Task32 0.005212082657437803 0.06679135789494163 0.03804862737084252 0.0035597779096030757 0.7909228150353322 0.720118104680906 0.9137062192940766 
Task33 0.07203635440194797 0.22947422071240867 0.22472756844106653 0.2155855592196383 0.9250979895367539 0.9141406266513845 0.7044900727194696 
Task34 0.02136460377420775 0.035003181915054124 0.030124576235633235 0.07657125474322142 0.9691589411958454 0.54144769760006 0.6527140481635401 
Task35 0.03568010193040105 0.18543930876339174 0.27710308790358135 0.31278327334804007 0.9851661392698936 0.643355411198063 0.6966624951629008 
Task36 0.013237625696455174 0.1742686916361515 0.22874502863141838 0.03114179500494182 0.3176582206707411 0.7595192971411842 0.5155097967889214 
Task37 0.046248657650778076 0.05860706977146439 0.24252797750705196 0.2162993179281773 0.9388018630103916 0.5086503661410593 0.5111183966954708 
Task38 0.0717230679932281 0.3135622788078729 0.24805168143869774 0.13561441820397274 0.6464778662914469 0.39542022945507993 0.37032364389613026 
Task39 0.013467186291335498 0.17014931362264743 0.2208609166830423 0.24684520736618668 0.6507224808682827 0.5384686335906841 0.6732569481029878 
Task40 0.07421357262685525 0.05457910255518116 0.0854387326473205 0.7263074538725744 0.5753948326296573 0.9953446349009627 0.6957168568270256 
Task41 0.00629212757082468 0.008507903102463783 0.060161619517248646 0.08014351528794364 0.37370058440497744 0.7669847027085381 0.440677324375603 
Task42 0.03369488470778451 0.2961752563353975 0.14726548718032034 0.34322458638606246 0.8298002864629823 0.45225539777210233 0.8141056222480907 
Task43 0.18509301688482133 0.025989573250548615 0.26952062742842003 0.48001007359839437 0.6400067904385207 0.3833333699937292 0.41565178814709836 
Task44 0.06796252626283644 0.30175209516476675 0.12334021171520633 0.33547759710416253 0.6893759934274242 0.4188692813372661 0.4489179442104505 
Task45 0.03251648485267155 0.012864319432588665 0.18836043639279512 0.14893124104204838 0.6578443509029601 0.5479424659221874 0.624552749420286 
Task46 0.02317034188857162 0.18842664308321797 0.0798568590792507 0.05382408266231872 0.6963341446021403 0.351883737612716 0.3570442548450099 
Task47 0.027049041188914203 0.1934298846625482 0.2405017464085549 0.028396257879103142 0.7631703958334084 0.5122707109409916 0.8948443867670737 
Task48 0.0994526163445725 0.1662867029548186 0.16424266464372403 0.09182741997646596 0.8953809355424427 0.8324072334954322 0.6548579415186855 
Task49 0.05062374298218059 0.17661549269486 0.3443219187598383 0.15635023943807055 0.408175415990683 0.5943664840500307 0.43465043251634805 
Task50 0.08786792346420753 0.06480675432166813 0.07561853173129501 0.2378198948719977 0.8773938911354178 0.35461726002777816 0.8067153346238543 
Task51 0.01308890996780641 0.06023265764882012 0.0317333604863818 0.11125662484156229 0.6002144806382859 0.7393922225259524 0.7824157122407975 
Task52 0.009434163940423995 0.04535262964831943 0.006620993722889264 0.017034910050636363 0.30539845345629923 0.6537580094574509 0.9776622558688981 
Task53 0.07608334278955214 0.2078789604579092 0.08901828400192482 0.20546888420852344 0.7917456244666883 0.8447113855119954 0.9082415444404364 
Task54 0.13954863094805034 0.28216884890735555 0.03728384039519305 0.33287730492351514 0.9323134234315815 0.6514129579394152 0.5418838961211758 
Task55 0.011628386616333784 0.0831171380447934 0.15646989704884376 0.18494138458701637 0.41907476324684834 0.8915716909118898 0.5965222672835135 
Task56 0.01661796562653752 0.04779342753100516 0.01834139208390682 0.03609954630526587 0.41930753779105273 0.39868836110452816 0.672633167336907 
Task57 0.01436643141334477 0.24398558509393123 0.29042134302230976 0.003644568127652984 0.7439121309491701 0.7716375120042824 0.8508865765913114 
Task58 7.177674581946292e-05 0.020324081117541234 0.03607571660989446 0.0022537673754429973 0.6389710113881559 0.7543418082694907 0.44718305158176896 
Task59 0.06373524522332027 0.09406637356428008 0.1650608739032034 0.11026856054306716 0.6329467241886073 0.5379353231330909 0.6806199610851335 
Task60 0.06385814062611657 0.2872942495034435 0.3076389636429699 0.18143650817923962 0.4237866989771269 0.7594391223660043 0.617684109142133 
Task61 0.13222090345257556 0.17019840781953008 0.40705673766266975 0.1004237830991778 0.8708801708896923 0.33119379882847205 0.6136054611862203 
Task62 0.0030392302177201617 0.04444326234413304 0.18647162860528815 0.04604062020944364 0.3327204533271908 0.827420391798094 0.44883605592127007 
Task63 0.06427783412563919 0.10076934578259769 0.10603304041020156 0.10872183240090763 0.8373954457627613 0.9182374998763065 0.5435108411553704 
Task64 0.012595337064900573 0.02177908153844159 0.07579238379804633 0.13115437612385078 0.6901333340708753 0.4235730006519422 0.7309355909767659 
Task65 0.0022750961356065263 0.005619306581557946 0.0024743553378735158 0.008860845180341154 0.5520712068273326 0.6915228547025568 0.9831253362484216 
Task66 0.1315295731270822 0.6608677746644318 0.029658414549496036 0.14142586600081095 0.9277151590134063 0.30364160275587976 0.538167454846598 
Task67 0.03997650364730846 0.06455370782524207 0.0655957265603732 0.05008475234652881 0.41185654102326574 0.5313128126191665 0.8748547085205924 
Task68 0.13348733887414746 0.3107394089853101 0.13145343833229983 0.33089373246993387 0.48844146729263005 0.6598314950627835 0.8064889680465126 
Task69 0.013311755984889278 0.05221697009910265 0.10568868392293258 0.007041221805740265 0.9731788836382669 0.6568702757099514 0.48596124706672994 
Task70 0.0028248004537418775 0.0065484795830014365 0.006428350500832818 0.0025466710263230834 0.8187665818185126 0.8636948679790015 0.6550462523446505 
Task71 0.0036707931466992564 0.21890857575074396 0.4294330468181428 0.0963955503749609 0.42465972866940355 0.49512417070470977 0.5933152803268382 
Task72 0.009481789902656313 0.11646832428970957 0.04508259295198945 0.07646476432657862 0.8934934540053399 0.9976476283044173 0.7299656226910448 
Task73 0.030013897361539862 0.0227956295791968 0.0615585996339738 0.08791097205731185 0.8439550217228609 0.3564520806695721 0.6459690314949059 
Task74 0.043021662143446146 0.2679019718124525 0.11943173659518476 0.2016513453597659 0.6873333496881548 0.9261949225881498 0.9701572829967922 
Task75 0.002004227638469993 0.08909221429891544 0.14003534410026808 0.10294481449181091 0.3901296311132801 0.6389878170710407 0.5255541014665612 
Task76 0.004143017308869893 0.03089164349076819 0.17712313176864236 0.10646577417196362 0.6238251865683746 0.670107413414872 0.9922415703053371 
Task77 0.024492847534623784 0.0755598861054345 0.06778752799593461 0.07508989812562512 0.8119236529223008 0.4767398275319875 0.6709932660549119 
Task78 0.0028954493990231097 0.08430791037896576 0.05664677469935416 0.3968203890933587 0.8809140062070868 0.5832292960771903 0.9416261464386846 
Task79 0.01766609235144061 0.11106093414465275 0.029008800260232465 0.0017031872189710836 0.5923086067519235 0.3836533057017511 0.8094106934112919 
Task80 0.0034585245898107833 0.03783115235618409 0.023682838354118597 0.05781299146976628 0.489342452747203 0.9158798177569392 0.5192701170734075 
Task81 0.023287681058605493 0.19083426574225085 0.22464784582331815 0.4814878726789013 0.8703356539325218 0.883438521521196 0.8759791718161452 
Task82 0.013059302096848305 0.12033627075317586 0.20840216250330154 0.15798440999905825 0.8079509179579718 0.9631206387622666 0.750218586136367 
Task83 0.008065372353993149 0.009285497661982507 0.014215680319221978 0.018355405405805807 0.90197438630975 0.8686892980103007 0.8539485908561133 
Task84 0.027838275241268813 0.1014448401469768 0.040721902369523874 0.09433715665240824 0.6067515712118133 0.9661762522033732 0.6610318188420314 
Task85 0.035414595383868056 0.15304320677435995 0.18179804141188916 0.22186618199660943 0.9156131414014221 0.5281728459081549 0.6670210545211057 
Task86 0.10827168336475458 0.14335153517680138 0.1764930397322737 0.1532710326111463 0.7497103554929812 0.8587921788926223 0.6098445364623444 
Task87 0.055573621505056695 0.12860005448293277 0.27471158575307275 0.23604900611609744 0.36587979959655015 0.5676477088198837 0.7377392084388354 
Task88 0.004276764382489678 0.035092954523225285 0.008361310087059603 0.0009336204768616555 0.5508370553158732 0.6408465581238406 0.47350640628799096 
Task89 0.0002481852062950338 0.011658814172392758 0.00598436108088257 0.0035126118307136495 0.5166383469188047 0.9203278797607064 0.8258713535329423 
Task90 0.013375573156855149 0.27038743438377016 0.04700528012860536 0.03733947270386421 0.5663892626589089 0.9573752663880783 0.9325894286978234 
Task91 0.14485648399072584 0.2639625154636337 0.053382858376496124 0.5134202938475759 0.39647395348100695 0.5544301590468844 0.6052675521927255 
Task92 0.010295863945954027 0.046839245985415646 0.0404359489567664 0.06352164043293829 0.49518393402284744 0.9427102958743527 0.5911974721898188 
Task93 0.009188647207757486 0.198872066358983 0.19006238292913014 0.06656875498907878 0.6462179586125272 0.4651899950859849 0.779295075696464 
Task94 0.017005729507329582 0.45159677003139304 0.2896904141117154 0.10681205789821047 0.3191297174006341 0.709069171421361 0.369717698972906 
Task95 0.0061199812467247665 0.04506877107630216 0.02649889748813897 0.008660564248642411 0.8674628899699652 0.6827042913931525 0.3709141541452327 
Task96 0.0713507183044154 0.15718885838789884 0.032671318026371805 0.12687784003735092 0.34849865977199124 0.929478245890285 0.911539793084335 
Task97 0.15879014590339174 0.1192977922874388 0.37472376898593196 0.23491664076222304 0.891691808085302 0.303344299477965 0.9967667463236609 
Task98 0.029542838483811965 0.17512064509635983 0.1597241556033058 0.29198752034496744 0.853311758352012 0.5724949024944621 0.6966926203331132 
Task99 0.0086971355955295 0.08769880131023429 0.0897847092400429 0.07167238386770963 0.7348717612063775 0.5431779250502495 0.977927752101496 
