0.39649407999999997
Task0 31 63 63 
Task1 255 127 63 
Task2 31 31 63 
Task3 255 31 3 
Task4 7 63 15 
Task5 63 31 31 
Task6 63 7 1 
Task7 63 15 1 
Task8 31 63 31 
Task9 63 7 7 
Task10 63 31 7 
Task11 7 63 7 
Task12 31 3 255 
Task13 7 3 63 
Task14 3 63 31 
Task15 31 31 15 
Task16 7 15 63 
Task17 31 15 15 
Task18 63 63 63 
Task19 7 3 63 
Task20 255 255 127 
Task21 7 63 7 
Task22 255 127 3 
Task23 127 255 15 
Task24 31 255 7 
Task25 63 63 7 
Task26 127 63 31 
Task27 63 1 255 
Task28 31 63 31 
Task29 63 127 255 
Task30 7 31 31 
Task31 255 15 31 
Task32 255 7 31 
Task33 7 31 63 
Task34 255 255 15 
Task35 15 31 7 
Task36 1 63 7 
Task37 255 127 127 
Task38 31 15 63 
Task39 31 31 15 
Task40 31 63 63 
Task41 255 7 15 
Task42 127 127 127 
Task43 63 1 31 
Task44 63 31 127 
Task45 255 127 15 
Task46 127 15 255 
Task47 7 63 15 
Task48 1 1 63 
Task49 7 63 63 
Task50 255 7 1 
Task51 15 7 63 
Task52 15 255 63 
Task53 7 63 7 
Task54 63 1 7 
Task55 31 31 63 
Task56 31 63 63 
Task57 7 31 1 
Task58 127 15 63 
Task59 15 255 7 
Task60 15 7 31 
Task61 255 15 63 
Task62 255 63 31 
Task63 31 1 63 
Task64 3 7 63 
Task65 31 63 3 
Task66 31 31 7 
Task67 1 15 63 
Task68 1 31 31 
Task69 255 63 15 
Task70 7 63 3 
Task71 255 127 255 
Task72 255 255 63 
Task73 15 63 15 
Task74 127 15 255 
Task75 63 7 3 
Task76 127 3 31 
Task77 3 63 31 
Task78 15 7 31 
Task79 7 255 3 
Task80 1 31 15 
Task81 63 7 15 
Task82 15 7 63 
Task83 15 63 1 
Task84 63 63 31 
Task85 255 255 127 
Task86 1 7 63 
Task87 255 255 255 
Task88 31 31 255 
Task89 127 63 63 
Task90 63 3 31 
Task91 255 63 31 
Task92 3 63 3 
Task93 31 255 7 
Task94 127 63 255 
Task95 63 3 7 
Task96 63 255 7 
Task97 31 127 255 
Task98 63 31 7 
Task99 255 63 15 
