files/tasks_parameters/ExAp01/sample8.txt 1.08018 3.76817 4.3855 0.450105 25.0647
files/tasks_parameters/ExAp01/sample12.txt 1.49408 5.03638 5.18776 0.610564 34.0001
files/tasks_parameters/ExAp01/sample2.txt 1.446 4.58991 5.64606 0.613877 34.1845
files/tasks_parameters/ExAp01/sample44.txt 1.24969 3.77401 5.66946 0.551838 30.7298
files/tasks_parameters/ExAp01/sample27.txt 1.30776 4.13937 5.56136 0.55779 31.0612
files/tasks_parameters/ExAp01/sample17.txt 1.19413 3.76163 5.38341 0.520991 29.0121
files/tasks_parameters/ExAp01/sample9.txt 1.14321 3.69889 5.2981 0.511699 28.4946
files/tasks_parameters/ExAp01/sample34.txt 1.12903 3.52435 5.83741 0.49187 27.3904
files/tasks_parameters/ExAp01/sample40.txt 1.15895 4.06185 5.0335 0.496884 27.6696
files/tasks_parameters/ExAp01/sample33.txt 1.55857 4.82091 5.83886 0.651963 36.3054
files/tasks_parameters/ExAp01/sample48.txt 1.10302 4.01134 5.07085 0.447927 24.9434
files/tasks_parameters/ExAp01/sample29.txt 1.4482 4.20847 5.0406 0.643694 35.8449
files/tasks_parameters/ExAp01/sample11.txt 1.3362 3.94699 5.29198 0.557276 31.0326
files/tasks_parameters/ExAp01/sample14.txt 1.08537 3.54059 4.58345 0.466713 25.9895
files/tasks_parameters/ExAp01/sample0.txt 1.46657 4.82755 4.90216 0.623551 34.7232
files/tasks_parameters/ExAp01/sample7.txt 1.2177 3.60766 5.11185 0.509566 28.3758
files/tasks_parameters/ExAp01/sample23.txt 1.41577 3.81403 5.45799 0.582911 32.4602
files/tasks_parameters/ExAp01/sample13.txt 1.49904 4.8894 5.26818 0.624499 34.776
files/tasks_parameters/ExAp01/sample22.txt 1.26823 3.76156 4.95746 0.534216 29.7485
files/tasks_parameters/ExAp01/sample25.txt 0.91881 2.94144 4.92622 0.403639 22.4772
files/tasks_parameters/ExAp01/sample36.txt 1.26663 3.56164 4.5806 0.501799 27.9433
files/tasks_parameters/ExAp01/sample46.txt 1.29476 3.84833 4.7121 0.530701 29.5528
files/tasks_parameters/ExAp01/sample31.txt 1.07256 3.764 5.08385 0.479734 26.7146
files/tasks_parameters/ExAp01/sample37.txt 1.52453 4.43254 5.65111 0.65143 36.2757
files/tasks_parameters/ExAp01/sample16.txt 1.2429 4.49741 4.8895 0.509171 28.3538
files/tasks_parameters/ExAp01/sample10.txt 1.37558 3.87086 6.07511 0.60993 33.9647
files/tasks_parameters/ExAp01/sample39.txt 1.12287 3.66299 4.54281 0.463671 25.8201
files/tasks_parameters/ExAp01/sample19.txt 1.37717 3.86694 5.14047 0.615987 34.302
files/tasks_parameters/ExAp01/sample20.txt 1.30947 4.09945 5.13368 0.580369 32.3186
files/tasks_parameters/ExAp01/sample43.txt 1.17494 3.75825 5.55698 0.530892 29.5634
files/tasks_parameters/ExAp01/sample32.txt 1.43445 4.0352 5.29178 0.587643 32.7237
files/tasks_parameters/ExAp01/sample45.txt 1.23948 3.94578 4.87833 0.541081 30.1308
files/tasks_parameters/ExAp01/sample26.txt 1.11232 3.50998 4.55035 0.474009 26.3958
files/tasks_parameters/ExAp01/sample5.txt 1.37999 4.00994 5.27725 0.587681 32.7257
files/tasks_parameters/ExAp01/sample21.txt 0.936146 2.8974 4.54677 0.430037 23.9472
files/tasks_parameters/ExAp01/sample38.txt 1.16814 3.56689 4.78573 0.492366 27.418
files/tasks_parameters/ExAp01/sample1.txt 1.14146 3.69002 4.55048 0.481074 26.7892
files/tasks_parameters/ExAp01/sample15.txt 1.20629 3.73223 5.42493 0.524964 29.2333
files/tasks_parameters/ExAp01/sample24.txt 1.2395 4.18053 5.40377 0.542575 30.214
files/tasks_parameters/ExAp01/sample3.txt 1.08565 3.70547 4.7118 0.470503 26.2006
files/tasks_parameters/ExAp01/sample6.txt 1.35759 4.07521 5.71419 0.626702 34.8987
files/tasks_parameters/ExAp01/sample30.txt 1.46756 3.97446 5.82388 0.626709 34.8991
files/tasks_parameters/ExAp01/sample42.txt 1.28649 4.44207 5.58473 0.537025 29.9049
files/tasks_parameters/ExAp01/sample4.txt 1.36204 3.92181 4.49751 0.556974 31.0158
files/tasks_parameters/ExAp01/sample28.txt 1.01644 3.13496 4.88321 0.444588 24.7575
files/tasks_parameters/ExAp01/sample18.txt 1.20806 3.95301 4.52898 0.537438 29.9279
files/tasks_parameters/ExAp01/sample35.txt 1.79181 5.75923 6.25034 0.752488 41.9032
files/tasks_parameters/ExAp01/sample47.txt 1.15825 3.44018 5.14289 0.540033 30.0724
files/tasks_parameters/ExAp01/sample49.txt 1.11582 3.38981 4.72409 0.493041 27.4556
files/tasks_parameters/ExAp01/sample41.txt 1.10214 3.58692 5.27252 0.492391 27.4194
