files/tasks_parameters/ExAp01/sample8.txt 0.787854 3.15778 1.5595 0.203411 3.99834
files/tasks_parameters/ExAp01/sample12.txt 0.806027 3.94962 1.6705 0.207924 4.08705
files/tasks_parameters/ExAp01/sample2.txt 0.769303 3.78275 1.74131 0.200098 3.93321
files/tasks_parameters/ExAp01/sample44.txt 0.688634 3.59825 1.65317 0.200005 3.93139
files/tasks_parameters/ExAp01/sample27.txt 0.71136 3.45743 1.5148 0.182129 3.58
files/tasks_parameters/ExAp01/sample17.txt 0.768416 2.77299 1.44514 0.14646 2.87888
files/tasks_parameters/ExAp01/sample9.txt 0.734167 2.99933 1.451 0.177444 3.48791
files/tasks_parameters/ExAp01/sample34.txt 0.809445 3.02928 1.58429 0.157984 3.1054
files/tasks_parameters/ExAp01/sample40.txt 0.747968 3.86889 1.52122 0.168379 3.30974
files/tasks_parameters/ExAp01/sample33.txt 0.786306 3.63695 1.71905 0.199765 3.92667
files/tasks_parameters/ExAp01/sample48.txt 0.673837 3.39061 1.49062 0.154728 3.04141
files/tasks_parameters/ExAp01/sample29.txt 0.750453 3.30472 1.38739 0.223868 4.40046
files/tasks_parameters/ExAp01/sample11.txt 0.707448 3.10585 1.41612 0.174079 3.42177
files/tasks_parameters/ExAp01/sample14.txt 0.656215 2.70971 1.43432 0.162214 3.18856
files/tasks_parameters/ExAp01/sample0.txt 0.745925 3.6937 1.5439 0.18367 3.6103
files/tasks_parameters/ExAp01/sample7.txt 0.767579 2.70501 1.42221 0.143463 2.81998
files/tasks_parameters/ExAp01/sample23.txt 0.761502 3.2697 1.57822 0.181448 3.56663
files/tasks_parameters/ExAp01/sample13.txt 0.731366 3.84225 1.67648 0.198247 3.89683
files/tasks_parameters/ExAp01/sample22.txt 0.740817 3.09569 1.56121 0.148796 2.92481
files/tasks_parameters/ExAp01/sample25.txt 0.721425 2.73966 1.5007 0.148149 2.91208
files/tasks_parameters/ExAp01/sample36.txt 0.646063 2.85948 1.28553 0.130042 2.55617
files/tasks_parameters/ExAp01/sample46.txt 0.752361 3.58643 1.69998 0.210103 4.12988
files/tasks_parameters/ExAp01/sample31.txt 0.707276 3.4832 1.53782 0.1722 3.38484
files/tasks_parameters/ExAp01/sample37.txt 0.745977 3.95293 1.50705 0.171701 3.37503
files/tasks_parameters/ExAp01/sample16.txt 0.604027 3.31216 1.30115 0.150249 2.95336
files/tasks_parameters/ExAp01/sample10.txt 0.813113 3.17098 1.61789 0.153776 3.0227
files/tasks_parameters/ExAp01/sample39.txt 0.683908 3.26617 1.44406 0.165669 3.25646
files/tasks_parameters/ExAp01/sample19.txt 0.733154 3.63532 1.52509 0.196094 3.85452
files/tasks_parameters/ExAp01/sample20.txt 0.660052 3.20793 1.25367 0.147335 2.89609
files/tasks_parameters/ExAp01/sample43.txt 0.638423 3.11551 1.4202 0.150644 2.96114
files/tasks_parameters/ExAp01/sample32.txt 0.721438 3.5311 1.42482 0.168744 3.31691
files/tasks_parameters/ExAp01/sample45.txt 0.735406 3.80283 1.48324 0.19807 3.89336
files/tasks_parameters/ExAp01/sample26.txt 0.629223 3.21645 1.29701 0.166061 3.26418
files/tasks_parameters/ExAp01/sample5.txt 0.630437 3.5889 1.52559 0.178903 3.51661
files/tasks_parameters/ExAp01/sample21.txt 0.660305 2.75242 1.55936 0.19512 3.83537
files/tasks_parameters/ExAp01/sample38.txt 0.643248 3.31563 1.37515 0.166157 3.26605
files/tasks_parameters/ExAp01/sample1.txt 0.734797 3.74964 1.51696 0.19701 3.87251
files/tasks_parameters/ExAp01/sample15.txt 0.693493 3.32916 1.48508 0.180707 3.55207
files/tasks_parameters/ExAp01/sample24.txt 0.780358 3.45951 1.59549 0.16529 3.24902
files/tasks_parameters/ExAp01/sample3.txt 0.898655 3.70014 1.70809 0.237107 4.66068
files/tasks_parameters/ExAp01/sample6.txt 0.708926 3.33003 1.58323 0.184714 3.63083
files/tasks_parameters/ExAp01/sample30.txt 0.939724 4.1841 1.4861 0.239623 4.71014
files/tasks_parameters/ExAp01/sample42.txt 0.745367 3.43221 1.70276 0.177383 3.48672
files/tasks_parameters/ExAp01/sample4.txt 0.768157 3.72477 1.6136 0.196448 3.86147
files/tasks_parameters/ExAp01/sample28.txt 0.685445 3.11323 1.45032 0.158819 3.12182
files/tasks_parameters/ExAp01/sample18.txt 0.72604 3.47418 1.45209 0.149064 2.93007
files/tasks_parameters/ExAp01/sample35.txt 0.787567 4.57086 1.49394 0.185031 3.63705
files/tasks_parameters/ExAp01/sample47.txt 0.699382 3.13768 1.52397 0.16417 3.227
files/tasks_parameters/ExAp01/sample49.txt 0.736707 3.13288 1.49657 0.156154 3.06944
files/tasks_parameters/ExAp01/sample41.txt 0.761359 2.81964 1.49636 0.150876 2.96569
