files/tasks_parameters/ExAp01/sample8.txt 0.762647 3.15778 1.5595 0.203411 7.05158
files/tasks_parameters/ExAp01/sample12.txt 0.771827 3.94962 1.6705 0.207924 7.20803
files/tasks_parameters/ExAp01/sample2.txt 0.721591 3.78275 1.74131 0.200098 6.93672
files/tasks_parameters/ExAp01/sample44.txt 0.695927 3.59825 1.65317 0.200005 6.93351
files/tasks_parameters/ExAp01/sample27.txt 0.706069 3.45743 1.5148 0.182129 6.31379
files/tasks_parameters/ExAp01/sample17.txt 0.545399 2.77299 1.44514 0.14646 5.07727
files/tasks_parameters/ExAp01/sample9.txt 0.642246 2.99933 1.451 0.177444 6.15137
files/tasks_parameters/ExAp01/sample34.txt 0.598383 3.02928 1.58429 0.157984 5.47677
files/tasks_parameters/ExAp01/sample40.txt 0.627837 3.86889 1.52122 0.168379 5.83715
files/tasks_parameters/ExAp01/sample33.txt 0.700566 3.63695 1.71905 0.199765 6.92518
files/tasks_parameters/ExAp01/sample48.txt 0.626739 3.39061 1.49062 0.154728 5.36391
files/tasks_parameters/ExAp01/sample29.txt 0.756579 3.30472 1.38739 0.223868 7.76077
files/tasks_parameters/ExAp01/sample11.txt 0.625072 3.10585 1.41612 0.174079 6.03472
files/tasks_parameters/ExAp01/sample14.txt 0.576271 2.70971 1.43432 0.162214 5.62343
files/tasks_parameters/ExAp01/sample0.txt 0.678809 3.6937 1.5439 0.18367 6.36722
files/tasks_parameters/ExAp01/sample7.txt 0.566186 2.70501 1.42221 0.143463 4.9734
files/tasks_parameters/ExAp01/sample23.txt 0.647133 3.2697 1.57822 0.181448 6.29021
files/tasks_parameters/ExAp01/sample13.txt 0.676807 3.84225 1.67648 0.198247 6.87256
files/tasks_parameters/ExAp01/sample22.txt 0.571536 3.09569 1.56121 0.148796 5.15827
files/tasks_parameters/ExAp01/sample25.txt 0.512549 2.73966 1.5007 0.148149 5.13582
files/tasks_parameters/ExAp01/sample36.txt 0.535037 2.85948 1.28553 0.130042 4.50813
files/tasks_parameters/ExAp01/sample46.txt 0.765843 3.58643 1.69998 0.210103 7.28356
files/tasks_parameters/ExAp01/sample31.txt 0.62771 3.4832 1.53782 0.1722 5.9696
files/tasks_parameters/ExAp01/sample37.txt 0.691086 3.95293 1.50705 0.171701 5.9523
files/tasks_parameters/ExAp01/sample16.txt 0.588568 3.31216 1.30115 0.150249 5.20863
files/tasks_parameters/ExAp01/sample10.txt 0.670298 3.17098 1.61789 0.153776 5.33091
files/tasks_parameters/ExAp01/sample39.txt 0.589073 3.26617 1.44406 0.165669 5.74318
files/tasks_parameters/ExAp01/sample19.txt 0.728914 3.63532 1.52509 0.196094 6.79794
files/tasks_parameters/ExAp01/sample20.txt 0.506431 3.20793 1.25367 0.147335 5.10763
files/tasks_parameters/ExAp01/sample43.txt 0.569357 3.11551 1.4202 0.150644 5.22234
files/tasks_parameters/ExAp01/sample32.txt 0.642267 3.5311 1.42482 0.168744 5.8498
files/tasks_parameters/ExAp01/sample45.txt 0.754811 3.80283 1.48324 0.19807 6.86644
files/tasks_parameters/ExAp01/sample26.txt 0.613799 3.21645 1.29701 0.166061 5.75679
files/tasks_parameters/ExAp01/sample5.txt 0.657896 3.5889 1.52559 0.178903 6.20198
files/tasks_parameters/ExAp01/sample21.txt 0.695 2.75242 1.55936 0.19512 6.76417
files/tasks_parameters/ExAp01/sample38.txt 0.596803 3.31563 1.37515 0.166157 5.7601
files/tasks_parameters/ExAp01/sample1.txt 0.753089 3.74964 1.51696 0.19701 6.82967
files/tasks_parameters/ExAp01/sample15.txt 0.649186 3.32916 1.48508 0.180707 6.26453
files/tasks_parameters/ExAp01/sample24.txt 0.644814 3.45951 1.59549 0.16529 5.73007
files/tasks_parameters/ExAp01/sample3.txt 0.913777 3.70014 1.70809 0.237107 8.21971
files/tasks_parameters/ExAp01/sample6.txt 0.643427 3.33003 1.58323 0.184714 6.40343
files/tasks_parameters/ExAp01/sample30.txt 0.830911 4.1841 1.4861 0.239623 8.30693
files/tasks_parameters/ExAp01/sample42.txt 0.669464 3.43221 1.70276 0.177383 6.14927
files/tasks_parameters/ExAp01/sample4.txt 0.732087 3.72477 1.6136 0.196448 6.8102
files/tasks_parameters/ExAp01/sample28.txt 0.568718 3.11323 1.45032 0.158819 5.50573
files/tasks_parameters/ExAp01/sample18.txt 0.551201 3.47418 1.45209 0.149064 5.16755
files/tasks_parameters/ExAp01/sample35.txt 0.677206 4.57086 1.49394 0.185031 6.4144
files/tasks_parameters/ExAp01/sample47.txt 0.622674 3.13768 1.52397 0.16417 5.69123
files/tasks_parameters/ExAp01/sample49.txt 0.570165 3.13288 1.49657 0.156154 5.41334
files/tasks_parameters/ExAp01/sample41.txt 0.57419 2.81964 1.49636 0.150876 5.23036
