Task0 0.037551749487489114 0.12367544296318615 0.00021376808901527953 0.0736006053438323 0.3815212154227383 0.8183478252202248 0.31268957735381514 
Task1 0.10273546779386547 0.2004154788442483 0.05869959669585778 0.27389510156048125 0.4055881666172907 0.8651637473774374 0.8174585365582341 
Task2 0.00872874472425557 0.07116604253694583 0.1233234066733038 0.3592752651066672 0.3952707186608146 0.7632779018016406 0.6442824327578388 
Task3 0.08770864750414344 0.19958313170104425 0.1726949329196979 0.2294662202244357 0.92680687941723 0.36529959201805967 0.6453242683717775 
Task4 0.03976155680907563 0.11858860068832776 0.217718104173176 0.3068183451355391 0.7941874184850541 0.39420091276275926 0.8993416621048111 
Task5 0.052931136506837936 0.2555829883926333 0.24044066331740058 0.31110572349697646 0.4164419630520457 0.5451621155888874 0.4826207513450169 
Task6 0.09707015835420733 0.12212747650644853 0.04022762751284101 0.3320885475945524 0.7136168267156895 0.8124300536739408 0.7082096796086804 
Task7 0.0384728894000942 0.06688879250242616 0.07020501006930972 0.025635001321806683 0.9503538025953091 0.6957649874179659 0.6564449580355769 
Task8 0.03495703180762993 0.11942292576556214 0.3999455724073188 0.40856750261906616 0.4223539755872884 0.9148309033776587 0.4733997857826653 
Task9 0.03278717905045295 0.14588080358768388 0.031216058487615373 0.18324659249427774 0.39048590319354165 0.9940907523241 0.6684060242113128 
Task10 0.006866081219950973 0.05629652078479759 0.03986048482254082 0.009698027005137494 0.6773432910339803 0.3538640924786986 0.8707188157066061 
Task11 0.0031903215482479786 0.025800356113255127 0.0938891628443199 0.09663540842042793 0.4345919652404975 0.7056227037202276 0.3189220821282612 
Task12 0.12173239685486693 0.04292070018432678 0.32795526206871456 0.3665617150534821 0.9805029349469119 0.8417347975300022 0.7788616822118438 
Task13 0.02215906701563785 0.2958561490827496 0.11237772562385455 0.035565429935403466 0.8578669865969264 0.5612518744552784 0.7654482110460182 
Task14 0.004574992516447069 0.30288428879061974 0.17653994353692615 0.12932480384689019 0.4441265978400659 0.5684072812641161 0.5320201744844191 
Task15 0.16065752498407898 0.09542286602316048 0.3266713025714127 0.24907955692224515 0.3671537748742565 0.3183757621467771 0.5246537874893225 
Task16 0.052357122863161715 0.6854297177345463 0.0587131773991925 0.09271578927586269 0.5322983517145119 0.5508967540219585 0.5944582524649713 
Task17 0.11213005249751842 0.2527087227856627 0.27028021146240755 0.024540322333875847 0.8997710499108917 0.31718118576572424 0.611841099714423 
Task18 0.03585745369447703 0.05948928179953083 0.02197889394797558 0.0654816199400926 0.5281249337522929 0.7159021553476161 0.6666419975888 
Task19 0.005369623982592176 0.023016447854813857 0.03308630947289847 5.3877161119046984e-05 0.4850305122533858 0.6707581523397618 0.38546065411541086 
Task20 0.039492334363390995 0.5558314379779855 0.023220803858984704 0.20257375832768296 0.3202946755933826 0.39811293424115496 0.9036947388362466 
Task21 0.0422423665752585 0.3528113818673778 0.2618685643123264 0.028333789855785992 0.41472186531225735 0.7710705488317284 0.7966890342745115 
Task22 0.05592111390382995 0.36720637068160106 0.2996524273053026 0.05487135155391091 0.9657541149424342 0.5711839729951647 0.692048689078173 
Task23 0.024570382942619998 0.06319041005684753 0.21399943691676396 0.17522660735610576 0.48235656047363545 0.5006493880616605 0.847689944904723 
Task24 0.014736601464296423 0.018817265741555556 0.055758371006700565 0.03543201330843135 0.6351998488305415 0.8484837225460762 0.4741413548474749 
Task25 0.0035531044069983223 0.05265272186004438 0.05313982157666204 0.04032428851903254 0.8793309341884274 0.963528938062832 0.582088278117482 
Task26 0.08453031462708821 0.07766561146973251 0.08574405235142385 0.20061421667705506 0.9043669408659007 0.9100947983770951 0.353289555123525 
Task27 0.0351558834885191 0.20441590411542562 0.16071599595122812 0.4331806581181536 0.8116539239686322 0.6322255468657334 0.7150792581306323 
Task28 0.11230049805064024 0.19726024826653316 0.17619560202297319 0.22626044628946526 0.48774325414314706 0.5847289402481399 0.6434580738233752 
Task29 0.07316691506232655 0.2825873904106358 0.32793577132517127 0.14817799373145674 0.9972118412039437 0.33655409927401897 0.4158829306738919 
Task30 0.0376039608451737 0.13327688369819116 0.07550758292000326 0.03192838970222443 0.9298352382524873 0.9050241712725691 0.4992098408797706 
Task31 0.003202082095135393 0.0911596493460258 0.05299134500666899 0.22059328136012282 0.7603726479763753 0.5933029832572334 0.8173473207899062 
Task32 0.04718039271942901 0.07931437421356007 0.10234564259021031 0.08892250207554851 0.7529649261944353 0.6794145281216726 0.37518215566265034 
Task33 0.034736660874681476 0.08608826931906624 0.09426447848490176 0.0548022925231698 0.6891696443305171 0.5983846077297803 0.8983049310096904 
Task34 0.1009315343509912 0.24635751981140835 0.3209137048697227 0.009108015742007475 0.3803471992641073 0.7355378664862354 0.3101179178405119 
Task35 0.02307026938438538 0.12917190718138344 0.10931154962452104 0.054300398665378835 0.3639761283580826 0.8287298898656124 0.7745736796687022 
Task36 0.009056306997986296 0.05710959706648916 0.08924590701915702 0.26628841369443085 0.8888108093682063 0.3652735936864804 0.47869699783532393 
Task37 0.021486864874220097 0.07440448197755793 0.03859165683559998 0.025316791642147365 0.9395463511299778 0.5004322304935027 0.43543118015643534 
Task38 0.1319261819979281 0.06587566539803667 0.2826404955954733 0.2431028565115321 0.4393357768666717 0.8891944139290242 0.5337586040786356 
Task39 0.03600659605295862 0.188187017405552 0.3529359106329382 0.38368263891301363 0.696284876418487 0.6054638148685736 0.849672827935885 
Task40 0.13642924863090974 0.22644152253787306 0.03096360557715115 0.34322351988785715 0.5178076454599674 0.5220360182354954 0.9503844312062371 
Task41 0.05514273351781043 0.15436300236499964 0.0036870388700867333 0.7679260033872944 0.6371985607194943 0.7877817825095497 0.36205340563151955 
Task42 0.10998497313337088 0.28502430331517953 0.05736480087227055 0.18182136662455964 0.7600166810606288 0.38555765140334214 0.805494573725487 
Task43 0.1445356297476584 0.3944002198874852 0.26336622526732273 0.005712148161850012 0.9829370070333043 0.9482633860493166 0.3883072978021729 
Task44 0.014950469340699568 0.015267784919474411 0.0831099781845994 0.04488593059726246 0.9422000416299419 0.9979352358953453 0.9144900020845967 
Task45 0.010074291475832074 0.05290063697595275 0.06877758339130319 0.12985189823973628 0.8413507496491341 0.3921878135518278 0.7862759547198178 
Task46 0.04422056902365997 0.1026694552249115 0.4776752431611309 0.11981112140957496 0.6510082132198294 0.9170857762245925 0.9154267412316295 
Task47 0.039759269603579124 0.055914842438773316 0.41011628510498443 0.38663611943449383 0.7281530636636027 0.6436682731178363 0.36538056316480716 
Task48 0.1517719288652679 0.27375074760855633 0.21616374933008428 0.26626204130307835 0.7565989695623276 0.913269139844668 0.8588009741915723 
Task49 0.1207951305442315 0.09695452655719612 0.23078928685497563 0.26896873318728487 0.4729954653667514 0.6069695395766921 0.4034064551724324 
Task50 0.023660553074927964 0.18734602726441166 0.293932645298599 0.0026494241239926894 0.7486323183514678 0.683522130172289 0.36423677850827557 
Task51 0.0010681408110845877 0.0012810633727863786 0.004718306534983353 0.007370589922706939 0.9395312428533702 0.5495396980072362 0.9294043253216444 
Task52 0.0018157910515057643 0.014610425424689124 0.01399889377422908 0.024610388369818072 0.8928962774912916 0.4959005655883125 0.6778883915393361 
Task53 0.14382705610368324 0.16488671964327783 0.2848050308126362 0.16379160013039748 0.3943461435927067 0.9098048383580384 0.8120240107396515 
Task54 0.007681238712947036 0.15010264164357673 0.06915509448261066 0.004658258498683909 0.35042910574403274 0.7731996678260185 0.5612268268856306 
Task55 0.1630506762932624 0.0022732206398160147 0.39801728159614097 0.3807218925865648 0.8957627515133304 0.5471565637154456 0.8402899180187853 
Task56 0.000993479788346293 0.011163445855155916 0.003324954766673183 0.010605736464702425 0.46947155279393527 0.679555085989745 0.42810499399329094 
Task57 0.002228320733898877 0.007765818849240901 0.01627063181267284 0.007897250538968736 0.7754750005731741 0.46597543021287346 0.9082575379396189 
Task58 0.014848744630587682 0.08769225741351437 0.41572912967425835 0.19837659577295624 0.9516740641112906 0.3912984225204804 0.738337179813238 
Task59 0.014286225191760468 0.057448660832433274 0.11075324447334231 0.08307768334026834 0.7661229460110213 0.5614527642535208 0.9471351349968604 
Task60 0.00040500312264493313 0.0017343187021734844 0.006027979767872155 0.0018379530925564727 0.9287553170139855 0.47619506310302695 0.7972944905041197 
Task61 0.039936538710531475 0.47746061093629494 0.020427776470612707 0.1401033213734431 0.4491506961950765 0.4335644149090996 0.5643984929564536 
Task62 0.14721847470331761 0.2687520603603171 0.23559789326907973 0.2136869555436359 0.638623511884308 0.6099599129133197 0.6503194061246973 
Task63 0.1384429807807384 0.25422024403600274 0.2889500133106434 0.11838021596858261 0.6930807034686544 0.40357405113979866 0.6198506861175261 
Task64 0.013671463432142887 0.03871598006338615 0.02221668733472274 0.024551795366073846 0.5552411486629292 0.6854158995443984 0.5217059840131064 
Task65 0.04891784371766061 0.07127255134774116 0.07834198158911991 0.12930278506126264 0.47940255700456186 0.7773923657295678 0.6423707612351393 
Task66 0.029535517382772436 0.17367123559563832 0.08768614685768118 0.046667765664657634 0.8222175604052457 0.6108184367093419 0.381657231189361 
Task67 0.017753364325538864 0.3145486736435725 0.2253865884189541 0.3193783508930447 0.8743689905685281 0.5623999516787164 0.5451413731088628 
Task68 0.008283131284113255 0.2307965134408601 0.14082756566876933 0.15230525709864678 0.8033950533252794 0.6990978191585677 0.8525523999056561 
Task69 0.028754380263708475 0.09591140569588165 0.1186937761422919 0.1065848485069232 0.8420870104106877 0.5488159910100818 0.456475583472522 
Task70 0.17264333990859423 0.2328566241755518 0.37218909464398137 0.2110353147931024 0.6592332895980129 0.8784320243145243 0.3210647098037319 
Task71 0.04773764625396611 0.43131048425899965 0.06882479881460313 0.3897616122947054 0.35527967505858427 0.6916211962970271 0.7316785438456093 
Task72 0.018036854043630004 0.0449648792786686 0.03902120839652516 0.046452174384936866 0.31650727752582386 0.5721742685628468 0.3138878337449488 
Task73 0.013610594135820511 0.20222165784308085 0.003828365030123329 0.367486405282441 0.8432072625867071 0.9394397477508372 0.45090590706309086 
Task74 0.14454217744229925 0.3027009452388423 0.06349485619814803 0.23552573564355145 0.5291436633979111 0.9602345356410986 0.6415708457203346 
Task75 0.05887292208436041 0.11033111831372087 0.4652352195198854 0.16655958021288622 0.5333461426569894 0.758295757967997 0.6215967937398308 
Task76 0.005318931872226141 0.006007303298315206 0.0007887664139118926 0.0171399580228375 0.49817238396126073 0.6478954085950718 0.34483606774677844 
Task77 0.025548723331528512 0.22894354062375896 0.1513133264689272 0.009170323039646315 0.4842037585952963 0.6117051096569752 0.32186515938688376 
Task78 0.00012362032624356391 0.008580183556068786 0.005694659083575858 0.002125351282471596 0.6291115037846375 0.5162908054644075 0.8438277155002618 
Task79 0.061333376097710626 0.27089050849963636 0.33442842175800935 0.08419606238415554 0.4901292988409156 0.8322838790853986 0.6444155003924694 
Task80 0.017700388986653277 0.39761547967610356 0.11655475698175193 0.21668101297991615 0.7864489634092564 0.3646402109288502 0.9601267972242287 
Task81 0.005455905119838446 0.17974447863290577 0.15782332405656097 0.19910139587003015 0.7680241181246175 0.4295495845365678 0.3062496748586178 
Task82 0.03930689387142078 0.07529712194385034 0.17757885367659915 0.20501716841583464 0.8573271848283168 0.8021880126833174 0.8038718055889016 
Task83 0.0053736435570130225 0.059826566765035304 0.03932276564058366 0.037874744259455306 0.7507462339472684 0.8211863899085872 0.6340533089951501 
Task84 0.016556317480937166 0.31400480920144935 0.10364589608606084 0.5132223423979909 0.9310913877687015 0.7364314510339866 0.33468205474167106 
Task85 0.038365367149857006 0.006219996861033181 0.1624614381744714 0.2725534814473702 0.3859533905332737 0.5412497996017327 0.7557726384855057 
Task86 0.04655857289130293 0.13998970554726137 0.35042543943612176 0.27785412146851585 0.5995966187945883 0.4536440818989114 0.6811735645990591 
Task87 0.027976171350837468 0.060795570021819 0.033592060708777696 0.07686036027155706 0.7957072115171386 0.3483024667358917 0.667631961443153 
Task88 0.017280122019976606 0.4317971457541023 0.3337225304881391 0.15027161404515935 0.3875644863594857 0.8302364328602565 0.7551751787071307 
Task89 0.05704725016107517 0.29352556479484415 0.5156058309089573 0.07395211262067714 0.46515647216865463 0.8709860967160012 0.8891980998427464 
Task90 0.11464243946009472 0.41901456670255083 0.044660709255349804 0.2591259809019381 0.4210269045763533 0.7929387015237213 0.8746697652300102 
Task91 0.014848030009648116 0.037976511803464036 0.05792789243789556 0.010661310757536346 0.8895018103206285 0.6931132430263124 0.6330281252451471 
Task92 0.08036436367187946 0.16053963764593948 0.1521781736194073 0.33361717552368736 0.8445312510954635 0.597789662520845 0.727963423807769 
Task93 6.469170940141598e-06 2.926184900680114e-05 1.8271900715250857e-05 3.518233231266132e-05 0.9619587352426495 0.7799018102482538 0.9788261171063506 
Task94 0.05082320349520768 0.21047491024037007 0.23442003085405394 0.2423642137158957 0.8180918391509657 0.4306788874092672 0.8774964165785608 
Task95 0.010447026339650167 0.21528999850585057 0.23311055453088006 0.34981998889943683 0.35007751851671565 0.9690875317917944 0.7093336125723508 
Task96 0.004280818445065037 0.217096145373305 0.09703408253914975 0.2500798379299647 0.5269589998025197 0.9580533176684876 0.8502950010593477 
Task97 0.025537254391408044 0.22397015391915961 0.25563532978876424 0.13431833414713862 0.8329510569124459 0.4447776048677642 0.7903629065992412 
Task98 0.04655212704479147 0.07559088508095374 0.037000440271683595 0.09647006767440465 0.8855991421306446 0.3925506906871392 0.6297634225453699 
Task99 0.035788020769762556 0.15044908706454385 0.11771078773404968 0.028205018709366002 0.93480757193129 0.8357936685722782 0.5792887573651166 
