Task0 0.02368404406126357 0.11944053294562484 0.4879599533533024 0.36041612552507085 0.9422492418474429 0.9036694252952655 0.9343932491175915 
Task1 0.0499677472148273 0.45178092682058213 0.3290846367138469 0.02995716526258397 0.6388439185939407 0.6271480491153838 0.6382214596486075 
Task2 0.025963629133987667 0.5156234997902118 0.1362107392991645 0.01781474722412978 0.7965416135166055 0.9998177239586625 0.81879590486965 
Task3 0.16667597934388584 0.4636962366228831 0.33213312676576207 0.027977262661477757 0.5896851196733466 0.6034803871083634 0.9168370196627309 
Task4 0.025384760926437232 0.1098099954132466 0.062154369553208716 0.06712348700065922 0.8252788136887619 0.8260499649969324 0.9397569321209336 
Task5 0.08520322650158024 0.17916806869189614 0.03653454836758404 0.18261089220257798 0.8957801189134336 0.9332043119761466 0.3678551662425697 
Task6 9.895480752064105e-05 0.004746762190529785 0.010305198248967145 0.006016787886516203 0.8032566650382169 0.5360078231056509 0.4418577090873158 
Task7 0.08668387816840267 0.21660791099874652 0.07327650998338187 0.3118857306861309 0.7909491509820035 0.49871471962075237 0.7522109394192474 
Task8 0.011183427435290563 0.030880108738136233 0.07026136196817016 0.338721873207919 0.3644290330669817 0.9221264221997363 0.37293081320933624 
Task9 0.12262024692166196 0.09122881490910018 0.222089921670875 0.2322415611741381 0.9911325864750613 0.43674410673158304 0.8338473268574174 
Task10 0.004965630568971882 0.0070616126874526826 0.02644777949508149 0.04543472573374529 0.5539089654462472 0.9457054483351288 0.6688563726205905 
Task11 0.053007606052730236 0.13485949924553148 0.16183548800278544 0.06249622335699465 0.47481877436344266 0.5410024240437401 0.33336534496567416 
Task12 0.03592600151100371 0.0009910928943167932 0.08808090244745558 0.11054999727864293 0.9086876733184079 0.43171477597191044 0.3135259931809121 
Task13 0.12985731855630123 0.2685690265238897 0.2366130291054158 0.28969715542240926 0.9551511808801865 0.5683683502908818 0.5539238036285863 
Task14 0.027380185660315533 0.22579096397934514 0.47808080617709775 0.16011596885877166 0.5941190735436657 0.5445104861890646 0.9898637283486207 
Task15 0.05329337415905463 0.19318748172770106 0.2826109563538551 0.11076466210016228 0.8500535530620059 0.5304092098349561 0.4752149132300747 
Task16 0.0036683680434388822 0.013923736012164225 0.009283329486048118 0.006820423304548795 0.9722365999060831 0.6548771504787682 0.9314506058574286 
Task17 0.02294487173563758 0.2829363749594242 0.035413117733596025 0.1176550204645206 0.7369043812991685 0.44531153566035975 0.905408815182758 
Task18 0.009081516013080122 0.16896830016821016 0.03287582220018613 0.1777370869045401 0.5297376842939565 0.4876543958778259 0.5826611947734233 
Task19 0.009089565460190784 0.01807367162613102 0.06330529509752304 0.004110947208927165 0.8677260811763663 0.7474139512964105 0.6379448738296087 
Task20 0.0055248553288472484 0.13727193333183219 0.08172462062929975 0.01804877193369244 0.48663017249844764 0.4418437304933055 0.47033418599661375 
Task21 0.020347055747040224 0.1524687247118528 0.2060991737817944 0.003022289030080796 0.3861939552837245 0.8531355055582883 0.6036340432389218 
Task22 0.0011094498831177664 0.0070653639182224354 0.007720014730942378 0.011656865396792613 0.5584076885038799 0.7761788809720274 0.8736662496994774 
Task23 0.05508365818772959 0.2371810493184887 0.2898540880439293 0.28392385816593757 0.5383075930363403 0.5117331536233458 0.8545784633797893 
Task24 0.04493814362401768 0.22293206475539598 0.18442662945440186 0.2033429738711722 0.7236124248163736 0.36869226047099 0.8933182754797009 
Task25 0.02179019154968872 0.18499743142212904 0.3334088042525971 0.0005266861868909367 0.8017023902451819 0.44990466768982645 0.7323460096380383 
Task26 0.12525238816064774 0.06087580582688402 0.41876338025198523 0.1636971363310923 0.5725189749771074 0.9511510705176991 0.6282397989354804 
Task27 0.0025730814576263887 0.003131197021811815 0.0010630824693729475 0.007717711738629886 0.7263825132762709 0.5454321138307341 0.5654644283143406 
Task28 0.15772022061562074 0.09653493687536392 0.11443977204084249 0.5478998230397475 0.7613041414170194 0.9349651049100236 0.8967464062751735 
Task29 0.09007941076337979 0.26761541034220404 0.10444184259576979 0.3711677907693074 0.9571757860662282 0.8245080520241217 0.41700785055542294 
Task30 0.14491061890933568 0.012881185209473373 0.18631218484977677 0.5098454390578627 0.9030028897663827 0.3183367524027303 0.884100318218628 
Task31 0.029058255815087593 0.0851966195079443 0.10470317623265361 0.0394259485019318 0.43665025921660505 0.9826951951954404 0.7559512341862786 
Task32 0.030132995688519324 0.1929340048517119 0.17223119821676028 0.18201175208874118 0.4260401858392152 0.73418199377295 0.8194138663186774 
Task33 0.04294573229397694 0.10634831984508493 0.15294984165097794 0.0006607362412695062 0.6476210136211982 0.4737732501681223 0.7714203199641981 
Task34 0.03240979718074413 0.0541854179727929 0.08885569144733108 0.10361335215786485 0.3247278716360085 0.8544582267166987 0.9611833596031851 
Task35 0.08096545209679 0.14331635120427524 0.0804384791823903 0.2575735549188783 0.7297991198039377 0.3542639906677182 0.5901591016394621 
Task36 0.04311757525808923 0.4645100849646593 0.05929040305524461 0.34828324803883953 0.7092220053691066 0.6841319492659631 0.9784307985221268 
Task37 0.0047906810370031945 0.014168701873140035 0.017025601798938184 0.011040782935131546 0.9431886845892397 0.9786877216021206 0.6570499511982878 
Task38 0.03059881334614685 0.10917850639396298 0.2250640532617109 0.5922862885708917 0.48081063403473845 0.995697001230444 0.8759002235171238 
Task39 0.0017744465176717347 0.0011124637770624243 0.005563545471411928 0.0008541394423894614 0.5927421763335752 0.707273883587012 0.3999767854546266 
Task40 0.1748313158830803 0.3139972600850706 0.19945924402343018 0.2896232963008441 0.9576296862517331 0.319338024189101 0.5840339435300865 
Task41 0.007736075284780737 0.062156217668915804 0.007556681953306742 0.04819827610760532 0.6875859348141415 0.30559008881591654 0.4931215021061589 
Task42 0.030490267279889485 0.08304918558010616 0.0753537691489212 0.03360168414389247 0.7652569906309988 0.6957376014427642 0.6732203590171624 
Task43 0.14347327306306606 0.2493423454182083 0.1573717764336916 0.2278961564973822 0.5512799135519674 0.6161426302185153 0.7075526551044793 
Task44 0.06172658704864352 0.28603685034867965 0.30168152193312875 0.024348158138842668 0.37894246799328324 0.6043592723401914 0.34805285798369723 
Task45 0.07081199015457718 0.14650608601805565 0.16131430320939416 0.007227367022733294 0.9524647324375475 0.6642465082734397 0.6379112383970416 
Task46 0.027160375796751367 0.05944388472731181 0.08809526471049457 0.09754751497513654 0.869658000024472 0.5999734941166033 0.7044952528192867 
Task47 0.033184925351877184 0.18770050794204682 0.08803015886000837 0.036028500982537105 0.7585653228908313 0.37898387487634705 0.36581515511469753 
Task48 0.08470045311727192 0.17716825760400873 0.06897001628019848 0.20735194103935883 0.6883337281735958 0.3819002960905661 0.635882218065882 
Task49 0.011560540717720363 0.03111722048664499 0.008118014309139238 0.027145843796371832 0.32521850332529517 0.9544673023254677 0.6737584762368222 
Task50 0.010083493109990755 0.021848329820158285 0.011460585511117902 0.015984824579618334 0.718789673494864 0.9460352924206781 0.7627519471776006 
Task51 0.08783073548142475 0.0904306829335546 0.12954443710114869 0.19179754600865875 0.7760586541228106 0.3021507206625466 0.6452014132026133 
Task52 0.03900222846911432 0.05112059348956659 0.04832301955645564 0.08194454900462607 0.7987828342195644 0.5984573841313288 0.917439439262776 
Task53 0.0012066708373812908 0.026940804609621043 0.0322370542251003 0.002678621133376116 0.7173576734229022 0.3573674631224022 0.5788076393924796 
Task54 0.08504380337976147 0.018992553733265295 0.12268812179908443 0.3198075558276885 0.5530359334009565 0.9010069986173366 0.40965460232681733 
Task55 0.05111884069573678 0.36226535390332143 0.0346142564786676 0.43010848688330783 0.5667686798682499 0.6956185950383436 0.9997115138875712 
Task56 0.014715069298750466 0.04453794071576037 0.053309789425030916 0.11438428538557198 0.5785484461162385 0.42297021968991266 0.6555443794375935 
Task57 0.02700727840406379 0.03359778651381834 0.05205808594177304 0.029807803190353137 0.5643040539541613 0.9796747548223175 0.81591783313018 
Task58 0.006258018552034523 0.027570922824771693 0.011953101535729602 0.01079434963502615 0.6347627462120693 0.7515002034561693 0.3976410533551211 
Task59 0.0006267398595716694 0.0006544176410827433 0.00022701177716516862 0.0025614030877632262 0.8003714078017501 0.7593555166369383 0.8059966647512751 
Task60 0.04173337420908496 0.07590634304787655 0.03525099087841554 0.09249465858147146 0.4336264236336672 0.5926546350583619 0.7377071936454027 
Task61 0.025799413851938655 0.14723130875462195 0.11118484189108521 0.021029555172002806 0.6271073645955294 0.9861537653116377 0.3287479940855914 
Task62 0.1202817522883248 0.3050210054824518 0.37048439986180914 0.06049873684674444 0.574726041929928 0.3796512064161521 0.441751544370545 
Task63 0.0038031635253987428 0.14517673877346685 0.04679530314975269 0.12809483213204423 0.35969699133522115 0.825354656857626 0.8765621360402993 
Task64 0.06873846604905653 0.07356285453662352 0.0038010919265592967 0.3845882160593054 0.9244709577044314 0.7439705706748239 0.5435734672615891 
Task65 0.093803236488182 0.18355387279577734 0.1541791394435441 0.05486400202611828 0.905683903596531 0.8401562301648635 0.8830079693526083 
Task66 0.007611699050484026 0.11827573423387915 0.1014765435009795 0.007305550802242422 0.9583471874333211 0.95069864975817 0.4185249045741919 
Task67 0.06812484943962814 0.19465208506797096 0.2197600962677324 0.1071362192271093 0.5467763237210597 0.4564621570584173 0.3658281936772751 
Task68 0.004840672216308851 0.01784542732885053 0.027802713579065212 0.038722373255957065 0.7787255393557024 0.6545642978663286 0.9709225539948021 
Task69 0.009621844686341962 0.015774610836667122 0.017636096809262508 0.007984196029265544 0.8550728013585247 0.4112961397114039 0.8944151697619145 
Task70 0.058917509062178554 0.08053521871796826 0.2915492594332113 0.2641538123127327 0.7658559075624216 0.7462401917872452 0.9490884771374224 
Task71 0.006994635293674378 0.0044634661448390315 0.020187882537756302 0.051339645501414906 0.7747452913400475 0.8931581389713783 0.7541245236494113 
Task72 0.06855181640008579 0.10297035902495141 0.228903988205229 0.08896049198025865 0.7511040528508417 0.6081335483161272 0.6345069067579554 
Task73 0.013332991670160346 0.19000171551498032 0.17378034521268193 0.12581571017352428 0.6986095245914461 0.4646078444753353 0.7417857082535635 
Task74 9.529861702585873e-05 0.011313237191766226 0.01714955246360269 0.010842809182818028 0.572311656328723 0.3993808695736484 0.3431110611009046 
Task75 0.0036581871414753057 0.015425356317117903 0.13753647609934908 0.09409786428116992 0.6386884025778405 0.6249213708528149 0.31562811474070035 
Task76 0.01078940842325304 0.05534436714391859 0.4788579671253206 0.2789415577846401 0.8518516549173716 0.63873541394175 0.5944087760056935 
Task77 0.03157659252263833 0.13988447557472566 0.15467014490601363 0.008485712596782581 0.5631770903567797 0.7447097447978538 0.8649617492025863 
Task78 0.07448790471321348 0.1483654163134515 0.2560158019815433 0.033604345483325034 0.6148557780642807 0.5835490829468537 0.7178189522599228 
Task79 0.05799115949692114 0.18686641573474191 0.08618340934308782 0.14914901896386068 0.5955178108793873 0.33555344934396947 0.668290100487307 
Task80 0.09134910256029026 0.25661164799926295 0.2329617186962106 0.38897647709563854 0.7959806505822701 0.54284741747434 0.4205832451295545 
Task81 0.1515956518977268 0.2537106697480733 0.25399196647930633 0.24422697955011535 0.887675271096573 0.5758088102333505 0.30548688056311857 
Task82 0.04302656520187132 0.33240568706760637 0.227431849509605 0.08677849432677015 0.5013151826103508 0.7047093184234721 0.6109715012118948 
Task83 0.025715100080602366 0.06979866271158479 0.2522825549615955 0.1383058591667022 0.42800704694676905 0.695753246128818 0.815356522599185 
Task84 0.06835951163055407 0.44912525569911815 0.27264700666048225 0.0033434344441136124 0.4429703960012214 0.7006546845698847 0.6853109371700462 
Task85 0.004746241897731626 0.07831302866596669 0.10200396145410512 0.09377267198928675 0.4085531563873156 0.6229734731348642 0.44886868457596996 
Task86 0.0004883213753561513 0.00038175617689688925 0.0009130705448859847 0.000874106150353055 0.3024415775515462 0.7429842601041436 0.7607855134123345 
Task87 0.00467117773004196 0.014213200767604333 0.007336600633885083 0.0014795001444585757 0.8583664616374715 0.3969104889730376 0.8753492341986064 
Task88 0.00855443233006428 0.05803011776767728 0.0018492945077829505 0.05496198374678504 0.49091556247647883 0.8422884253164706 0.9478282263449775 
Task89 0.06459306463206274 0.1063429492496242 0.11439632304889882 0.1051063511185031 0.8973431489116961 0.6239896971600734 0.8427697675418977 
Task90 0.00022663717798035557 0.5855531072657114 0.028018350282151896 0.20919565809983387 0.9141748042453748 0.44822622844182936 0.9944553403019094 
Task91 0.0058947137874160345 0.126585493365789 0.2986984200199863 0.07367964885449294 0.736368899918906 0.8322418195548997 0.7487700911665578 
Task92 0.04453671568283702 0.20328770160581025 0.12830593383987612 0.016087550059111486 0.7893173178353352 0.9318233118593333 0.3048060410574531 
Task93 0.012258778145063596 0.02577460392151753 0.033739985899465516 0.022879211750106397 0.570820711954471 0.32700761355546953 0.8949558445414552 
Task94 0.016587603619386555 0.2519334401202399 0.2582884448507374 0.1800348606905084 0.9927443350250598 0.951795622457769 0.6984890991711739 
Task95 0.06607288143431117 0.2678185290309065 0.04485622368677714 0.19375646718437628 0.5652370492128758 0.5951596821681668 0.7241930544646491 
Task96 0.0007340584775686034 0.09855251850163323 0.35738265914089634 0.17008027085651736 0.7071425635228386 0.5353727226030264 0.7107676900445089 
Task97 0.14724693648217585 0.21334379032445772 0.26100809547651954 0.15197889314873095 0.4764285317005677 0.9910427231617618 0.9605876834393141 
Task98 0.06023626222364347 0.2284084325894162 0.21777499427328192 0.29494426165490123 0.4747178552385302 0.7673976120177832 0.49567421919788873 
Task99 0.006746684470465069 0.20661146799548505 0.1488276609220833 0.22442043874793058 0.9415095180933324 0.6858866242620547 0.7047766392677932 
