Task0 0.043528880081697675 0.18712167546260441 0.1187959879856591 0.018160559575947418 0.9808121091700739 0.5405986585012322 0.6421560387420528 
Task1 0.01900252940340745 0.085547911981033 0.05434201578228173 0.1009701935093704 0.5009467003496901 0.8328649352628279 0.8810000936462727 
Task2 0.18173236475996044 0.015032918094254876 0.411698520879313 0.33031372881907267 0.6543089392710886 0.9520760793770884 0.4205042732606409 
Task3 0.1687735470789167 0.023461812224916518 0.33749039712789375 0.39993019819266085 0.8568489077883732 0.664974472249269 0.8599646469576971 
Task4 0.07644593931658056 0.15061970093080584 0.21675736640556645 0.20779073913648638 0.8732630465400442 0.40349886781673483 0.3139906132952978 
Task5 0.18722837105657167 0.610699326407353 0.11331549704055408 0.0515292452267757 0.9246807860040567 0.8351749983930816 0.979302423585718 
Task6 0.014618844531712171 0.4464434612922866 0.09947483917692464 0.2934998159620806 0.37022934896359794 0.6854682922736917 0.3942734209454025 
Task7 0.14626865373306455 0.3541200261385819 0.005858152242699246 0.4148695237392962 0.4556323795171427 0.6922121526238422 0.792914823128106 
Task8 0.047302786351783095 0.12958484981257154 0.08769837803513217 0.12469142494987175 0.8684787096740298 0.43402134545766813 0.3318753418057732 
Task9 0.08379437441493226 0.15716044432233123 0.039538548421542564 0.3750107062794116 0.6741981770482743 0.6051128577193039 0.6092442669541969 
Task10 0.08230085205145608 0.16712108812890691 0.1634939563592578 0.1637064113676801 0.40741000777179215 0.9262359232857413 0.9304942774532248 
Task11 0.034480565249769876 0.028685713765403967 0.13524381540973515 0.18434964891696168 0.36286440077769855 0.8182546912487263 0.9825163725930481 
Task12 0.012778210434494676 0.22230320886520655 0.09684191580397707 0.16920925240454854 0.7031028347279766 0.5661761434385322 0.6401956177334054 
Task13 0.023734950745731176 0.10057660369762872 0.2511073808272426 0.13495789993061877 0.8336562061277382 0.9755202447913054 0.920594194495429 
Task14 0.021998075255630904 0.07787158859236311 0.1965018753380142 0.16153794671515637 0.6432238300056063 0.33263854490316824 0.7415842961516146 
Task15 0.1302938621346848 0.118063448211726 0.5494573456893819 0.02324093452986426 0.7307413065713217 0.7812231328396828 0.7321360411706055 
Task16 0.0025282314840467195 0.07623743700385774 0.09455579192861197 0.141412958043595 0.475699600952764 0.9584058759768306 0.4867714442303264 
Task17 0.04439023307624567 0.12630476869108961 0.026417792522932044 0.04312007821014871 0.9765201410976141 0.7887094808160726 0.7993858415952713 
Task18 0.04959542849294248 0.04350712346827231 0.2091582847518067 0.032345685987099554 0.6103830919961564 0.7611591089291462 0.7413657323079981 
Task19 0.02011917957026273 0.20589910371797188 0.004691995196912379 0.1699875144884035 0.9831417683199137 0.3120597082902083 0.8102415045303808 
Task20 0.013914488755638109 0.24254119429778587 0.16700506942531618 0.08250429777298192 0.4692112506390894 0.8747519841157554 0.406916697917337 
Task21 0.029634529825336303 0.20671313645345538 0.08794442427361564 0.06494396692895066 0.6963485610575009 0.8579045190364292 0.5313967894650303 
Task22 0.02257360059246198 0.12430224777629553 0.09804510352342125 0.09493319058192161 0.9315404358896109 0.7502742115966399 0.3053262998606839 
Task23 0.001322372441871687 0.0431843081138856 0.09765726776255094 0.08539184354490138 0.36071990368416507 0.67478287905436 0.6425258905013114 
Task24 0.013917050413799124 0.13787893240508872 0.11724482799763776 0.06829761754294562 0.5297875937137466 0.6857616417440227 0.8171712988369639 
Task25 0.011722487697286179 0.16219223428861496 0.15231534455609114 0.11305917856997096 0.4616317939496792 0.46940735881747586 0.30077890825276254 
Task26 0.019192689546166937 0.28545137306569335 0.10324893034578304 0.38775954339316276 0.8886788453958276 0.5436840095874171 0.9599202588383484 
Task27 9.041088237851441e-05 0.00021407754537109067 7.369375774053419e-05 0.000215902356881614 0.8527210076645078 0.6247274097348849 0.30822239531521345 
Task28 0.052815085649262294 0.12071603011085395 0.02519050687163173 0.11403390207153961 0.8980477307831156 0.37160105741655153 0.9891589237321878 
Task29 0.06024044110002781 0.040491243978003674 0.17155890048068223 0.1825548306266811 0.48152962862537857 0.49744887643319957 0.4095109826068344 
Task30 0.032915340202600916 0.08049062698565657 0.042247720201719074 0.08272309512087206 0.44251972471856116 0.8152202388895828 0.9293015756350129 
Task31 0.0014888156696121397 0.08704179522567007 0.011134043619079739 0.03826625522463773 0.3478908024148448 0.5084567350857925 0.9474531272871394 
Task32 0.04908707730742932 0.1394679999430439 0.11679729156797583 0.0880120630216547 0.8247958548146952 0.5587558702550757 0.7046552712402137 
Task33 0.03795779692631631 0.09384250289319129 0.10240485841788326 0.33045626013062424 0.4367312696578445 0.635926750927873 0.38250996977127993 
Task34 0.09778805293470386 0.0847965245640648 0.34478762077920855 0.4269211383257203 0.30829313985158174 0.32034439048400026 0.31877325496025616 
Task35 0.02819074589327412 0.04847888292473212 0.060858365130591646 0.22166200881906492 0.904058279214818 0.9158040501889266 0.9147824968992895 
Task36 0.002615941111520731 0.03764659964542471 0.004980251420680846 0.0010497660833814638 0.345803067856746 0.6604012407560866 0.8861934835638365 
Task37 0.021109314180179695 0.13780008055391843 0.008790768340464711 0.16564088424977874 0.477021329961243 0.7029464479219045 0.4615930781592791 
Task38 0.06240930066792704 0.2937229558471862 0.18707584475925704 0.1773897710137187 0.6893444593055171 0.36601689304929835 0.6660245890321621 
Task39 0.0753099771792301 0.19519660227232383 0.2179107862381935 0.24858751553019867 0.3939469595935574 0.9659634417704714 0.5257462679784436 
Task40 0.042759359930707376 0.3521072701762392 0.006914253956303341 0.3951349780718818 0.9722220286460495 0.42273479793723306 0.9965954421198246 
Task41 0.03419452730395812 0.010409715046130388 0.11027092504743577 0.09477474891087352 0.309968778251209 0.6691462833913691 0.8604048347996349 
Task42 0.05342994847370964 0.1301289314015378 0.09420487893754245 0.08971543388890742 0.7780071926893752 0.42349671337035766 0.8948354162784933 
Task43 0.10297773121024548 0.24133635074260135 0.13570993115531937 0.11126226607391254 0.3667669038856134 0.7048210209446514 0.8224069964603058 
Task44 0.12957424414796256 0.20358219730122787 0.08102736861928973 0.3317488252557852 0.978848980728668 0.9873916397682769 0.6205125250873791 
Task45 0.11019541809709145 0.28670725051885443 0.12901934547982974 0.2832450625092284 0.6876274058349225 0.800978541883326 0.9237265487464434 
Task46 0.036972385857195283 0.0038397542783103525 0.0398961196807996 0.475905309842133 0.46529568875519234 0.6443908056055062 0.7367710982642214 
Task47 0.08757990247561896 0.25979585567307795 0.1614540208295031 0.25697079339524204 0.9016499677036154 0.47103094418011227 0.5430156588825551 
Task48 0.0073053352508161955 0.021203210366839313 0.018771591010179084 0.0006947910569325974 0.31547540347712105 0.9979881509145878 0.6521977045096692 
Task49 0.015488641914527266 0.18404068781566235 0.09456360837518805 0.4786996803112845 0.5436666106857002 0.4627591212271466 0.31063655916718064 
Task50 0.026951906645052523 0.0032769140287351737 0.11185318052002756 0.2358806700514561 0.6888963165256725 0.5978477653408205 0.3162564175829114 
Task51 0.009007376011701611 0.0041334279102739745 0.06061406865115205 0.06908099439131841 0.5061005357280751 0.6997126508863356 0.8176377033572 
Task52 0.09853952794871133 0.19291528897019572 0.16823303040756227 0.12006328480548145 0.5885863171693431 0.41279035838853506 0.5678105057603722 
Task53 0.022898780338999267 0.0793465417556611 0.19103384995665468 0.23808915989154333 0.7906337139924708 0.8419058709431912 0.5914894894166349 
Task54 0.013779748594663986 0.4442839778612107 0.26477812440290605 0.220247174713079 0.5937599201713155 0.6874994688668412 0.6439997553483398 
Task55 0.041313340283952976 0.20346571946881548 0.004205225799745502 0.0661128003791338 0.9516152085456144 0.5320081492442668 0.4122013634889645 
Task56 0.0011163054417610229 0.1469969800814106 0.07567379915817968 0.10311048937509128 0.4207158644608876 0.8945872986379473 0.36142463773523226 
Task57 0.021736684604751182 0.12694093349079213 0.2063563139720513 0.16907229911083088 0.49074290067743304 0.32039130106443153 0.6379505565189039 
Task58 0.035893570099142916 0.23415918535278804 0.18235292888075869 0.08633371122760328 0.3852566643076168 0.8772141804420188 0.74905876438475 
Task59 0.019431862332644417 0.1188513948084764 0.14999563500700086 0.09247169931000758 0.9974537281166405 0.9561049501710479 0.7961563036452508 
Task60 0.0013847429415143847 0.17658076901772368 0.19176079652972933 0.05581142287714091 0.3575249139046585 0.7354187342420706 0.5259567389295289 
Task61 0.05381024728256609 0.2497062146549626 0.019320657465037243 0.26619159383219204 0.7845938652368166 0.5407532578346199 0.767750892348456 
Task62 0.002452476566174277 0.0047923291614427295 0.009402806886930893 0.008007292821461447 0.894507176134367 0.32572040997907176 0.5688465457626388 
Task63 0.02099558829893448 0.1885592870313738 0.35090523503342647 0.10818892587995199 0.8673199937139568 0.9605848667884831 0.8661745571148065 
Task64 0.026001369581870465 0.16469481032383318 0.004251825788173117 0.10730342974533552 0.4887025945850621 0.32350817769455625 0.8911945080815289 
Task65 0.019036820971951973 0.12503756269742003 0.30155755281885277 0.2199682083073957 0.6413020171026123 0.6674852259451114 0.6403197650816405 
Task66 0.009172456639968617 0.1250340638505709 0.18315533176277546 0.07260083074768081 0.5070391796957883 0.5744786553079444 0.5993167428953374 
Task67 0.00602556904810083 0.008034256401858517 0.11502855643027254 0.00651499678795116 0.7822169743276173 0.7469616830720036 0.37104027669463224 
Task68 0.03963256590938832 0.02812262952732848 0.346654051639847 0.18250317626943363 0.46686799474017315 0.9494235030286216 0.9545640170549428 
Task69 0.0981069443590664 0.11434610690567248 0.3845372029768847 0.3693831078536843 0.9992573891094265 0.4264236195496934 0.6017548749338595 
Task70 0.03425035191466641 0.036618310911917466 0.44773718169447563 0.47655794655899514 0.5223870122188714 0.6516699411117344 0.569582177889367 
Task71 0.0295713210818698 0.20306153920246617 0.31933422713847 0.04853362930369239 0.6970622299509706 0.38494201285793694 0.6981220203609841 
Task72 0.03843839173239751 0.06365620805473078 0.003963078020855995 0.241280058125502 0.6596424025014598 0.6558878610462563 0.7696668664573956 
Task73 0.10328499273790821 0.020957469455244286 0.09598792677828462 0.4066628470146128 0.850263089061065 0.9913943858996261 0.44922161219862256 
Task74 0.01831949341623893 0.014599504792751234 0.03633031311353211 0.03009373241955519 0.49936735927107767 0.7597717143423355 0.5237022412173269 
Task75 0.0011140553777057582 0.0139602994011808 0.0562755789518805 0.05010752480279067 0.7620518021404656 0.75923908517799 0.5160260161909673 
Task76 0.09275769623809986 0.17383298659230872 0.275550907146747 0.1506605670440911 0.8268676157107309 0.8056119187155406 0.6419441743958627 
Task77 0.004971498979383089 0.018956208248586154 0.018891303825981698 0.021002815415582885 0.9841225418374706 0.967985502693772 0.4227904438955653 
Task78 0.03991741642851099 0.24130165163249517 0.04575555096921904 0.5722339054318105 0.4314970829848364 0.38470299006557096 0.45127740541727873 
Task79 0.15068996478172164 0.19246704786819455 0.08308031967540805 0.4734410765469465 0.6429155988661401 0.9282896925595665 0.4567500334515652 
Task80 0.049246991499891084 0.40086761681980665 0.020553421327556328 0.5119782098486516 0.43159441581462704 0.4606317016228146 0.6464447602694452 
Task81 0.00329829378561647 0.1997295983971401 0.5067764829136202 0.01032899130833098 0.5297756083274057 0.9947342215438961 0.5856353651356792 
Task82 0.0806862760570998 0.23531073326557805 0.23249355489029822 0.3012567160143642 0.42930889211261203 0.6618087736268866 0.5013979560656658 
Task83 0.13733404600419746 0.23882218983819065 0.21644966476565794 0.09661451775880388 0.6660458768457628 0.9326104625692737 0.9971581159410736 
Task84 0.019463292752562585 0.0283243464420555 0.8528068344887247 0.09298231053590099 0.5126749826682222 0.7827342167941801 0.9504985954653278 
Task85 0.17042770180163175 0.2801351700369305 0.20663243184934535 0.22408049713718342 0.7427287560339796 0.7547284213538598 0.3144275325532685 
Task86 0.023687242389446684 0.2272853941496073 0.19998476956036582 0.02356745015208448 0.3719258219291173 0.4184857234455527 0.6101763665803397 
Task87 0.007061445598028385 0.026640257250991273 0.025986307789538435 0.023226641098290323 0.36205569583173686 0.3053859582967036 0.6797328517613321 
Task88 0.010738828389515296 0.18433071017986954 0.18475672745324703 0.17683846376363627 0.8647004938080942 0.5181898186175262 0.7042422985086491 
Task89 0.07810170256690874 0.28296530276084864 0.3580261713792709 0.11699204935621857 0.46631849581800733 0.8349820017762686 0.3507483870585879 
Task90 0.02420749765114879 0.06485942705192894 0.04698656686252726 0.023003310986811517 0.589702912699906 0.3754972386707362 0.9381035394413535 
Task91 0.12540576113686655 0.24454419536251168 0.2612814681370508 0.30878970274573336 0.5178527142531921 0.32195436442633474 0.9137055125492992 
Task92 0.004703586489254898 0.02613778470409708 0.022175407029945977 0.05145698193820483 0.9107541648281072 0.6404104401889575 0.4729335941920168 
Task93 0.001989663855046309 0.04663532083512078 0.19780347151238906 0.18080492710900553 0.5322592915778288 0.4248737951602822 0.7902170417427599 
Task94 0.09419831351759207 0.39442409849480414 0.004743419220042276 0.26883992652569033 0.4355934431834313 0.7733927085400992 0.6881440443798741 
Task95 0.019141995017855188 0.05346045858433637 0.0833238702561184 0.03409555894452262 0.8753999320983334 0.7525582708145435 0.9332260111468307 
Task96 0.04185185361722906 0.0845740673803953 0.20776581216490478 0.061796665707676245 0.973375444079811 0.48591200190474426 0.7638671306865026 
Task97 0.025831879003403627 0.09839068211801606 0.005209366376094295 0.45105114306289623 0.9508609074981882 0.8243427203938403 0.5427839364007456 
Task98 0.10618929193044248 0.2179680012720791 0.4967922333448604 0.1759476839454424 0.9073968889517561 0.6351366408772658 0.8247631998206506 
Task99 0.005406258709692552 0.1179820202301844 0.3074175980336386 0.2811474606413472 0.5472772792702014 0.30165567163596285 0.6694533699762448 
