Task0 0.0072788892475424034 0.04130086845238551 0.02524656445723337 0.025419251190644313 0.6787814314016949 0.6763239003466257 0.9462057128274008 
Task1 0.13071878126466033 0.20845826044675622 0.1441407760225871 0.18646872228830771 0.4408081675664455 0.6433567163317979 0.47369729385822573 
Task2 0.11689932387199492 0.23678559837109395 0.2713733444804455 0.06536688692399145 0.6959528607868515 0.8655747039658324 0.6089370287111723 
Task3 0.022081933757786464 0.04209121743240498 0.03822708104547486 0.021587248387300736 0.9667653204315754 0.6708258910856679 0.566513695319018 
Task4 0.0057163915404477815 0.004996007827479546 0.01236692115063691 0.03961906267737389 0.43743991834235274 0.4183275530368738 0.6181943947448636 
Task5 0.0169515774638017 0.15970285386146021 0.10767867602392325 0.2049823237652104 0.8072097064064736 0.9915718635189352 0.343836647528762 
Task6 0.043849535265537455 0.0481408297503363 0.07999580972197427 0.057618149755714124 0.5198690705940103 0.5248499362384693 0.7445790370502702 
Task7 0.001366817928636945 0.002909205345531553 0.0013098183246329034 0.004652102373719578 0.3372809616813411 0.7974034921196769 0.37148263238242385 
Task8 0.1062321693527057 0.1550490496100029 0.11780734506035553 0.20675410449717935 0.6922456656919256 0.3658306833294971 0.8338232647189912 
Task9 0.12006285249027049 0.33447569627020796 0.15867014599829257 0.08523939975424263 0.9898403943290006 0.8881641828745812 0.9047682420509009 
Task10 0.03771967408203489 0.047778662508388775 0.185916691649492 0.05097453921507357 0.36170851064712106 0.4490009753460198 0.6626175019694469 
Task11 0.14202749740859114 0.2751764819211408 0.2930464134753778 0.14618908438681794 0.9229622847307717 0.6294765143242957 0.976619088115593 
Task12 0.03838995395473989 0.1287726425444192 0.10670862181791475 0.10755022860428964 0.8712155804486283 0.8789585648390505 0.34721129077116997 
Task13 0.001649395149428383 0.004190903186665726 0.0011475117302989432 0.0041733816170862375 0.416077248647016 0.4662320847147309 0.7064732814758484 
Task14 0.045608990238274624 0.2633708147251158 0.2762112861164073 0.16635298497532958 0.8236742998219082 0.7345292626899674 0.4817856007547866 
Task15 0.06071717165186601 0.16820697684502217 0.09677468204279405 0.04558674476430588 0.3415947364289273 0.40515645050366367 0.8933598414833654 
Task16 0.012886252687672415 0.055839460972148806 0.09800838648712351 0.09691241831339201 0.3633694589027924 0.46949671119312675 0.7313386878029948 
Task17 0.06846793314403905 0.13666854170670806 0.23502549692431127 0.4216773685659155 0.8399339457094102 0.4437992182813727 0.9272322099645103 
Task18 0.026874425960881614 0.11647434328858161 0.12990847784846268 0.05366581983746069 0.9782444143914635 0.690275963580529 0.9876795663076299 
Task19 0.03826603745258674 0.21645147859232694 0.09257301955166738 0.029049248519668485 0.39818141217935554 0.5518587169410891 0.35413693834545557 
Task20 0.03150462020131639 0.09335194207608921 0.004588224650109489 0.2538979257309311 0.987060677289745 0.4709739173209382 0.6761626013939275 
Task21 0.004610060997839117 0.059413265989106435 0.05715613068784801 0.016527542644016218 0.30898874314442193 0.46557531333622404 0.833714197344221 
Task22 0.0037803195465404135 0.019406984180690003 0.15318020431023838 0.1261676508700946 0.9225450380294831 0.5745058856248955 0.7211599154722932 
Task23 0.05839739719683484 0.11985061734994883 0.4040488280870065 0.020717002237249208 0.38213877650465966 0.8383336840642739 0.5250228106737691 
Task24 0.012485142818865858 0.15205741618030072 0.12408958686665464 0.06286251605480618 0.4942409319107358 0.7024119302131 0.6154345685684062 
Task25 0.025267863424058363 0.06395471794873807 0.11282923890696546 0.028956808811244183 0.318707099154742 0.918284673784046 0.5332552814438809 
Task26 0.08155070127178145 0.1171784860491049 0.2939701551781341 0.33428932048106624 0.878433577240739 0.4074873965713766 0.8994868642556932 
Task27 0.0350204102490443 0.37607778892175425 0.3513691782863586 0.20350337675425095 0.8728422045591364 0.4374252832952297 0.718197893325774 
Task28 0.10847285544558369 0.5013277260025325 0.12012495688733674 0.24419862551517066 0.33361280038629954 0.5279476206536897 0.7398013622696706 
Task29 0.03443298649953047 0.11827684539667603 0.08593492280677274 0.06250148914764138 0.32177508301938135 0.8692931437990363 0.7316971544631863 
Task30 0.0781946770263896 0.14741413994119607 0.043003551300247224 0.1234907902476324 0.47929541635684403 0.8785600231666058 0.37800577435841093 
Task31 0.0040604966309330205 0.00914260708844737 0.009809574357371016 0.001393810150060609 0.7523708335646973 0.7470059488748928 0.7668775366065674 
Task32 0.04721550670122987 0.2406781593443989 0.10020992276028705 0.0880789154571382 0.5160951759019654 0.6721723078450275 0.5292514081027409 
Task33 0.11679384601839099 0.25362055650441356 0.1366280334403551 0.3085001178116223 0.9939595814054072 0.8841479190360104 0.4367816764589922 
Task34 0.07715080293271234 0.003057502714917786 0.16452210319041094 0.15804546572667924 0.8476699824193079 0.314686563036401 0.6822298254627832 
Task35 0.07015689307602917 0.06023594884994133 0.4838187524716815 0.17977404891617216 0.8167280707185005 0.42449837751435837 0.5380497188750283 
Task36 0.038641806987663695 0.062239658223180304 0.11713734376401892 0.06697954377653557 0.8210366645679423 0.8416358532730501 0.7442069354615776 
Task37 0.00741524514171001 0.06560461186335288 0.15707992571631416 0.06818773884184576 0.3541608992447437 0.4670930366552586 0.9208728378807869 
Task38 0.0677399030332181 0.06245989949394155 0.2970317115847201 0.2570632122316415 0.6137933817563626 0.9846245366313884 0.4896570160599611 
Task39 0.010833018351524821 0.22347826469019885 0.027623479817882993 0.17717525071265447 0.6223274756266262 0.744335152216989 0.6676492668513829 
Task40 0.07861516253326893 0.07014014636209902 0.2364893720375513 0.0797509808734402 0.8633448958122654 0.9038259334882282 0.31183819048696815 
Task41 0.058049274900232754 0.12635603838149928 0.19368049248701666 0.08066859603267466 0.7668562162538157 0.725834273957283 0.35624704871601853 
Task42 0.11357173782805328 0.4791703819114499 0.010229240630613057 0.15491865787353382 0.422592470206074 0.3608586856784481 0.5493520411169337 
Task43 0.037598985356699255 0.05740681549764119 0.08097477844881885 0.016413587229523203 0.8437104598521015 0.7876118558472809 0.41365770814239106 
Task44 0.010967543158093259 0.01657975002425038 0.027781352606111625 0.0012739740338491502 0.3826928120983422 0.7558846872229458 0.695974649957193 
Task45 0.01375098139743287 0.09262094813886775 0.3223984370304567 0.18222321775594097 0.8626006689684595 0.7483789516787716 0.8469124948446913 
Task46 0.11515818317873737 0.10718733930001338 0.2541541945070702 0.1342258813329774 0.37223138130694544 0.8480622125630977 0.5463520720678895 
Task47 0.013220890016357217 0.09335919525826863 0.3036242974524629 0.22816442532057318 0.6849175990625755 0.46080485834978974 0.7799612350577694 
Task48 0.12388452627402542 0.2319946557120853 0.14372090664988757 0.12179122257866715 0.8495304034233393 0.7977654296014741 0.34432462150544263 
Task49 0.05509437654861137 0.5025607542705782 0.07488511875812971 0.1794624080225832 0.5538345537891725 0.6305328353107552 0.6458484174427478 
Task50 0.05524784285560673 0.2058885604273648 0.29537510266919936 0.040987768022555715 0.3964788421050642 0.6798631626871716 0.8838347311814574 
Task51 0.005266004328898853 0.04313256135769394 0.0016327482746340935 0.027517104478630053 0.6572436718501578 0.6746310525780821 0.3286418139739731 
Task52 0.040299460583569285 0.1853509489566337 0.1329065215315725 0.02784082642812718 0.7278824996776088 0.4337245702251479 0.6877812767523723 
Task53 0.04090145747968633 0.2018981211626138 0.2180564937137905 0.11747577223955291 0.5964564159062848 0.7825381316320255 0.3626309098027421 
Task54 0.04477177341664496 0.022346320955884163 0.08798172574271139 0.10229482902564345 0.8442596678159409 0.3669748160708959 0.6720285594377655 
Task55 0.0077356499011038945 0.029936443589984662 0.015426011407138666 0.022866717257508187 0.9292221628352526 0.7259699676394389 0.3684107710708243 
Task56 0.05234708277424357 0.11670665071387042 0.11941861597596266 0.06729782258816316 0.3906263248714615 0.7777499952137905 0.7740795655401066 
Task57 0.038665635339572166 0.2968353069235433 0.5091336715130584 0.01895171026883136 0.512386635808026 0.7704355459142946 0.3373985909369719 
Task58 0.060519485697021515 0.20704768442853705 0.08147256864211738 0.1570749298565737 0.9486864471781962 0.5562043419450489 0.7107254734788989 
Task59 0.0992596422694962 0.2297298681064182 0.1634948476743877 0.07697634565118983 0.8950757310923929 0.8231950483507762 0.6638123177442543 
Task60 0.03657513984183337 0.3042491500053516 0.06583148436751608 0.11232489232869196 0.6421444619635406 0.5457804124734998 0.885266951270697 
Task61 0.16304753344710204 0.25748334566663506 0.24933744221792006 0.2135961844897968 0.33066867442381226 0.973309064239263 0.5364209873862201 
Task62 0.018977489177073665 0.10884659245218997 0.005206149392224801 0.03738982372841572 0.43807790186460516 0.8248501545509317 0.9509661260977336 
Task63 0.0870747648973237 0.1563868363295806 0.1611197388405011 0.22816613139053413 0.8752393332303159 0.311217188507466 0.7435358317401712 
Task64 0.0854832167448069 0.18675846338054672 0.12030247038196387 0.16283704129180968 0.5224138504223186 0.368435441016943 0.6944332518738352 
Task65 0.01762097223451885 0.06039001184238551 0.0748879100706923 0.04884427207964745 0.7926060741015908 0.32207856433891485 0.6622467418070359 
Task66 0.10762538707170681 0.19150560512889145 0.1726476778790301 0.13191957872445384 0.3572113680587745 0.4160116225799493 0.34199019413154413 
Task67 0.10570043483112262 0.3553298012198308 0.10708738409217336 0.08564370095645626 0.640339173371204 0.7988819651155441 0.5775652661798283 
Task68 0.012644280286306235 0.08672887893701214 0.07973687582608334 0.17649368907056048 0.8965139999006111 0.33195790172452116 0.36487367432745904 
Task69 0.03521174065253005 0.14699953299463803 0.13826363467890315 0.07154611766775792 0.5659857735863945 0.5470140820997378 0.7903651891102812 
Task70 0.004421303553166806 0.014869041910110752 0.01217707786907032 0.003841226601756996 0.888570769133971 0.9432163358097823 0.9427397204831154 
Task71 0.02066384069758205 0.27885896127431675 0.05030510935016032 0.5679595592124995 0.5722096221237409 0.7196193166960299 0.40103471118244494 
Task72 0.003387070078690476 0.11746435842643235 0.032197716678683166 0.0726142251185606 0.4434430029935701 0.7047544399432807 0.8552433996951616 
Task73 0.1188578930139117 0.23052787663268198 0.24728658613113152 0.34971346058459085 0.7909496885852687 0.6091112930781675 0.8567948520029878 
Task74 0.02833488353881238 0.029113485466838517 0.08397484477264666 0.1064605267929232 0.5960756462967185 0.3258924879899008 0.8699457482373985 
Task75 0.08974622830953058 0.2403646981261442 0.32637158122964094 0.1555543102978812 0.9398564793145874 0.6271409937198851 0.9734088214045538 
Task76 0.000949326403229878 0.2660995820947742 0.13541525213951155 0.263747646643882 0.4329087869442839 0.500065815705201 0.48882175861169497 
Task77 0.020074627741071365 0.060871305520169776 0.06826868855137119 0.05280096301990503 0.41698098634541636 0.7679452797706652 0.8547281943623553 
Task78 0.00010158598879171911 0.014672508766938454 0.0009254531444561514 0.019877568232686077 0.8009584757130586 0.5016690212253825 0.3193369630873227 
Task79 0.05404273195775591 0.3028739962013553 0.11180048084729986 0.08470544761158863 0.5206496956317701 0.839725370320566 0.8220279994626984 
Task80 0.18530063159536608 0.45342223921242863 0.06602725817710138 0.2564697156820751 0.621529406564548 0.8161262040770219 0.933635092812626 
Task81 0.07437942876658596 0.2392488373144726 0.23114903578095095 0.15116680340954095 0.9311375576282139 0.8764861921457741 0.9768179842029927 
Task82 0.11492851818466789 0.17370682575744098 0.21907657224837265 0.12000154724135004 0.8707061897136812 0.7373354271743466 0.684947893825429 
Task83 0.08594864544647506 0.01070127917936544 0.2916200587054148 0.0639564212929834 0.4597335860613502 0.6591390508081874 0.3225017385939168 
Task84 0.004953696064997896 0.017815607168137564 0.027964334527675338 0.009946797643728694 0.3482800615721176 0.5876497942032524 0.7477452530633375 
Task85 0.10309643820396876 0.21923480365407735 0.021906473176444657 0.18320439626564364 0.9890709216772389 0.9826117758554602 0.3284725980723813 
Task86 0.02600549484032816 0.0706889629766786 0.03997919870003451 0.09473509927427587 0.8275917700008233 0.8108659167924259 0.792075595294886 
Task87 0.00375613680923534 0.14868833115959 0.1836043912896292 0.05460045946485725 0.509216820723865 0.9463232786962315 0.45871710216678097 
Task88 0.10547806713635852 0.20874446796899396 0.09306967178877588 0.21674935970702813 0.6415701877543327 0.950968469065592 0.774812147505121 
Task89 0.039117311968171656 0.029760279349594142 0.3556135128347774 0.3865697747377949 0.9673384185202427 0.641393706115845 0.7969878354060977 
Task90 0.010018921474031361 0.02989229343124644 0.065146855194153 0.04677838428975212 0.5482301707739824 0.6647837767112807 0.9380977474087993 
Task91 0.07265751228785833 0.31099603466371 0.2735505613947633 0.31422335782743477 0.4172038672247776 0.42376150911082205 0.9814984175031538 
Task92 0.07042193162637442 0.06167725464247451 0.27590360208030423 0.5228976612803121 0.7540147557663177 0.7798014037283731 0.36804128665434754 
Task93 0.04979419382711633 0.31924713008265304 0.3695680434994832 0.25918176595169934 0.8325062764779252 0.5668899253107749 0.3064859276234195 
Task94 0.023865576107044758 0.10413608978666443 0.1673261173078184 0.07170336898263822 0.5732660402575571 0.6922937900052479 0.3973063245681725 
Task95 0.08106250249348688 0.19203857729087406 0.1049124577932431 0.1451334402142746 0.3462628403419332 0.3547886638109115 0.49112556890565773 
Task96 0.007767893326319868 0.01603902380874048 0.04687629881659782 0.07037651436121772 0.5970245970955856 0.33722196672869664 0.588536680929215 
Task97 0.09326556021428452 0.1500237002071587 0.16787746382028762 0.06755478288358642 0.39854439203229947 0.4003856058314841 0.7255793145476084 
Task98 0.09214606837126209 0.3167805289705904 0.12466445050213083 0.032631873823325434 0.5612236004779176 0.9077489794477602 0.9696700512556267 
Task99 0.05512118499607764 0.2602721447275119 0.09400436727681953 0.0046062885246937095 0.45086622732286047 0.565691133600699 0.5889837424738434 
