Task0 0.042189662447817064 0.02854859161216193 0.32812462300326073 0.5841429753698145 0.8135276707986874 0.4666968825704707 0.8916745069979137 
Task1 0.029775959923774548 0.09336950866209046 0.392786862593583 0.21986409160962772 0.9257880970557082 0.30356070132421004 0.9975128196990644 
Task2 0.09953965044859492 0.18139371443193153 0.15433104621593216 0.15042695961124136 0.9927983402170315 0.42361763953560877 0.9560169535307528 
Task3 0.024768918697984647 0.12885993141525118 0.008085370615788267 0.031154904585743746 0.6676588540379578 0.8437938621129699 0.7166758891542236 
Task4 0.03197227399692404 0.16696317399351115 0.02401446445900036 0.14014044841378187 0.4041251659826464 0.9233014102617432 0.848856839282017 
Task5 0.06712812811535955 0.34079622339098975 0.22437892088242176 0.0872650075611905 0.4983724982833535 0.5982812091306842 0.31176422948600935 
Task6 0.028733600564871262 0.18791171141750598 0.5039576151491635 0.2557550351065384 0.4647241937142621 0.473993751997552 0.5700354623601852 
Task7 0.007964080853242494 0.03693443124462786 0.03195339317361276 0.03841669504458622 0.9224143935431983 0.6149493377133036 0.6057065748948179 
Task8 0.10486361923345165 0.08299219976037009 0.47155029954047933 0.1976463556675923 0.3233811006179853 0.6194047322401045 0.6295908324533295 
Task9 0.04333447126184909 0.03750086626089199 0.08698242927970858 0.263694353513314 0.35651375840565436 0.6890885752823503 0.55544914269354 
Task10 0.1085257821807426 0.2689164694846461 0.11597092329424137 0.17249467111709496 0.3574034650574773 0.3233415208273455 0.5579258777703306 
Task11 0.08882000019962427 0.18887770524628292 0.24920886156313607 0.003622229726916477 0.7753621741192755 0.7385544536010853 0.7638416437852359 
Task12 0.1388971698275775 0.1871310580296837 0.2631622342653238 0.20047774314983188 0.8144036231299296 0.8461369374370715 0.8490037184060455 
Task13 0.00034583096766992383 0.007387667352792581 0.002759173479231279 0.012744727917504507 0.40096498965173516 0.6288072471923276 0.7954701854634635 
Task14 0.10769384922411133 0.2779692724571525 0.055731867644948516 0.14161497900494627 0.37425307859817786 0.44929797340315464 0.8640772886477195 
Task15 0.013141677936623915 0.07806283028311549 0.3501625299056875 0.20020755893360795 0.9134577408604054 0.7122448989776188 0.9552044776416737 
Task16 0.005444389610990253 0.3676960945113306 0.35873468527607705 0.18942738957113167 0.7920669347296974 0.40869659300202466 0.986859960562477 
Task17 0.019114724057646852 0.012158688423578276 0.08837157585123684 0.04255486773294958 0.7056424841514384 0.8025224826593114 0.48482722491132624 
Task18 0.08031707161361562 0.08378531687481558 0.19543212310998756 0.11042326300457526 0.5031831897448976 0.9284577976899555 0.573772024452774 
Task19 0.07900330584165334 0.3019071787650329 0.10128627075690867 0.2391455287566833 0.38044883324029294 0.3655381089284623 0.6239736417370793 
Task20 0.09318672745198218 0.22750308788261916 0.30306770635676455 0.11486552069587334 0.8591765387077841 0.45208693568603775 0.7436221580338374 
Task21 0.0008560855197419803 0.0029280876232078918 0.005341299629050093 0.0026855442155214394 0.6301900661497108 0.30285088795135245 0.6506228703272141 
Task22 0.0008558531315564392 0.0781661095027104 0.2232179112197457 0.2640769179861806 0.6240972145210104 0.8332781503951145 0.4255881826578126 
Task23 0.11345644682564246 0.2185098022506159 0.31548795079861536 0.18454437599930237 0.5618794833863192 0.7940154382942584 0.9612048296293989 
Task24 0.03834728447139986 0.08472543856074888 0.08341675301723359 0.11602884184358206 0.7108466270145088 0.3695362714515007 0.9499054209627569 
Task25 0.003427695913188072 0.38284483527008395 0.28283114245372853 0.10392322754528686 0.9044051644629914 0.704789733208379 0.3770541352707572 
Task26 0.07116550880222534 0.16056822912426305 0.07677339416960605 0.15461335124106856 0.47470172137954325 0.897076999026996 0.46047064855148134 
Task27 0.053978639804870464 0.1353230979681467 0.0722060477170822 0.2612366069587386 0.7263688104134682 0.45090051133728004 0.9214423343477343 
Task28 0.08754628291047604 0.23110383038185464 0.2151622081108739 0.4198122490772412 0.308648007572512 0.7019649078590996 0.8972831670088237 
Task29 0.004584267641451818 0.1600764437927795 0.19739251661438229 0.061270954779489385 0.6986853315074099 0.8706643660479576 0.7767694540888926 
Task30 0.005525366037984665 0.03237729496600139 0.03454538345367634 0.05976236109927314 0.7467049708007171 0.7218073689758948 0.7560020407266683 
Task31 0.05299867532474069 0.06890793521609676 0.03341843284008122 0.12719725253237626 0.757211428819051 0.3057114988691051 0.6993719433969053 
Task32 0.08333317073329682 0.12973598241904644 0.23245655954458733 0.28757551385440905 0.7397654016756594 0.6950268209309568 0.5847850780215846 
Task33 0.015060538088921193 0.057747113473524875 0.24960843682970515 0.14112483983647262 0.5678416558553758 0.5326552477474515 0.5991570311265026 
Task34 0.023367949956731037 0.08262209212704727 0.01813276724969309 0.07883435678274255 0.9470536688452575 0.5168082620352179 0.416586810153885 
Task35 0.04149016360680953 0.29347114454868556 0.45420363808509795 0.02439411198406228 0.8020899862258157 0.6372814448661774 0.6463577035051138 
Task36 0.06324555250328215 0.07930733756726889 0.20029336111738347 0.0657257703861463 0.3441546689436375 0.41889544297707876 0.9338783974583063 
Task37 0.028819770222223626 0.1471795235222953 0.024455070892347372 0.017943029074902066 0.3925128038893233 0.8540215598097838 0.768038961565829 
Task38 0.06633798454209909 0.3459548425752561 0.17941845137104176 0.1124358244613269 0.5680071403374776 0.42121302182365306 0.8858770913934941 
Task39 0.05540243070081079 0.6322931991782297 0.14128522459112883 0.1438326512807848 0.7801149286936333 0.5678144995025824 0.47571873471020604 
Task40 0.0025187888376665335 0.19630361412441263 0.08975210498030302 0.009091677145943021 0.5052690893477148 0.9552782757756353 0.7656765588273395 
Task41 0.006648107993839602 0.05806872029207908 0.052221059665446476 0.08773615008629013 0.8567668212971122 0.3305411059663413 0.9666067069334687 
Task42 0.11190035088102639 0.09385219806638204 0.3211397115724472 0.069659508462837 0.7991216048420933 0.881155131190847 0.4698425847884678 
Task43 0.04269928171109677 0.06971788372000247 0.19816495371522083 0.18483792510617425 0.7012115451073317 0.591728302545061 0.711452732678869 
Task44 0.06499096206880099 0.12631934121122101 0.2795153794043042 0.09579635610751205 0.42990172445723396 0.41873128053885755 0.3063766155586563 
Task45 0.12362558819474435 0.3676340539488416 0.04277112598563956 0.09872509886132837 0.6322142037291106 0.9281519310028499 0.830903877907462 
Task46 0.017955945820102816 0.11568960220383773 0.004919643965604437 0.02861448427026537 0.7159398708139513 0.3913165355929561 0.46292363551397886 
Task47 0.04373932676927306 0.06777237436451401 0.26183171836180624 0.37503101543786105 0.6318268734573511 0.37718821872484776 0.9139408122031707 
Task48 0.015124779749390761 0.18803447724046715 0.277114082466361 0.2723277756458912 0.3483020519634585 0.825882192591487 0.747050441744509 
Task49 0.05277862511397555 0.07856151087557751 0.1196259726186448 0.0651442493131899 0.5465414900764222 0.3052704124415174 0.6562970176400797 
Task50 0.09947793461178525 0.11875524566757996 0.2660717802058047 0.29666139058798796 0.5878196617372345 0.8991901369110997 0.5110354364162102 
Task51 0.11686756941325731 0.234405993428651 0.10647769177199794 0.2574945197085103 0.35086305699432085 0.359468772141855 0.5264435414440095 
Task52 0.07317846586840296 0.062092738428648195 0.33257060329361576 0.3574788452694852 0.8849426842849328 0.45175035095734695 0.906587398244389 
Task53 0.0407150857697098 0.3708865687122231 0.32497279176689925 0.06825977458099848 0.5820583909114944 0.7720607119261783 0.8361130481710219 
Task54 0.032167930536880225 0.21363066315300094 0.0026005378832509307 0.1991568704101372 0.3370603951473824 0.8641448998382399 0.3909587820114848 
Task55 0.008186109725393763 0.013377757196630296 0.017565735539421014 0.022186023705771787 0.4621578983243562 0.5185955157664297 0.7274615202780493 
Task56 0.019884763725655393 0.1918431179749917 0.035654661319287566 0.10520512425603099 0.5723010482324584 0.7366893438962863 0.7383881532262835 
Task57 0.002775421651356489 0.006257098618743911 0.0048382581978041505 0.0034175537392660826 0.4448800515921984 0.3823819427841871 0.3845941988275796 
Task58 0.04273691179159641 0.05629394016388417 0.19569994915486943 0.07914394349151883 0.904079857472823 0.7487608126582911 0.3073906917201405 
Task59 0.008827454003072553 0.009750858280159922 0.15373577687865234 0.11148798959578633 0.4609832571115396 0.8004464228104624 0.31278272153794795 
Task60 0.01671133421839657 0.24317807412178016 0.27385710768625304 0.13992541740556577 0.6936597102155817 0.9270601797825413 0.9463793508425626 
Task61 0.006922809586300879 0.0035859632844429134 0.01729236899364773 0.012221066845265475 0.9840970349963662 0.8052831416057618 0.5520167752224792 
Task62 0.00466021723159054 0.024200635522863688 0.049663347564063154 0.030428872110832096 0.6313874082168448 0.41792095310404404 0.40002639748602586 
Task63 0.052507778741226696 0.1923226652138589 0.14482184504437945 0.15053540021397085 0.33983516996809504 0.528465397428682 0.7956409271272087 
Task64 0.004060038471616679 0.0962426470071823 0.0568381947113583 0.060189918907806235 0.31547437988529264 0.6466141301943624 0.49552821837927924 
Task65 0.0045150843275203025 0.008625703005496052 0.011303810992384249 0.007366031870973047 0.9052841055892331 0.6617141138499785 0.9853680389774839 
Task66 0.1264208947464905 0.20173530077967905 0.11201036894123627 0.44496877521010697 0.30795019347193253 0.8315625224207124 0.8789131262481489 
Task67 0.005011833309692099 0.005047179839611439 0.02118925559739846 0.024797226155030713 0.5615640125940842 0.8183994935953998 0.5325704339968147 
Task68 0.09556730625991154 0.3743188716284254 0.16825597846694437 0.21933548477654413 0.5045437443092105 0.49829255205484163 0.4549725857607301 
Task69 0.09852374701940186 0.37888716068610145 0.19052769379289922 0.1296381760916228 0.7323346437622367 0.4094626609875757 0.45754040846888594 
Task70 0.0018868613826111811 0.035270161076510084 0.01645401017665747 0.014270994775088834 0.5274408378905945 0.8204136686629477 0.39730208249256493 
Task71 0.07786617959053291 0.15957510870359384 0.062326573225038796 0.2455028278662128 0.4026940696112846 0.3452703716667844 0.3554382157354403 
Task72 0.09876869598794659 0.15084809382454514 0.1397302647246333 0.3308351083053099 0.6999763743010621 0.6342093628376995 0.31617843183267974 
Task73 0.002334993072115548 0.33127272276231085 0.29317726180275205 0.19098605421398893 0.4909451715390099 0.38267798731869207 0.9302540237201216 
Task74 0.009446025712726326 0.03683767055399579 0.05206762140072416 0.10859940859415253 0.885706172083055 0.5716769995438034 0.3332298635918321 
Task75 0.008591275944806754 0.11753127880129276 0.10158776275012568 0.0042350048327961425 0.7824059083032735 0.5288098421898585 0.7020024415195656 
Task76 0.0228444762141723 0.10049154676973593 0.04866738102050942 0.0028102445372132877 0.8467410388160312 0.3774158544777471 0.3415457837172845 
Task77 0.08125242339095151 0.22003590984605445 0.19414759103551615 0.130894567841982 0.8058698784517064 0.3945535886712442 0.6722663043049922 
Task78 0.06686355555317154 0.2635451811485091 0.036240650173686564 0.09647461554561663 0.8469376348979354 0.33489448448735026 0.35368015017922516 
Task79 0.02033423345764055 0.4761367834408518 0.1913935619106584 0.013631959008745214 0.9030567188736536 0.9513416895959921 0.9106700338181326 
Task80 0.015671428424565138 0.05631473134714779 0.08832555227027504 0.15678330475174643 0.37528505471897045 0.5603958722265526 0.467250330193256 
Task81 0.0035681288024655335 0.340121393936418 0.1670312772625393 0.0868572611086952 0.9022322828456424 0.5272628548877494 0.3413739067958184 
Task82 0.015636097088029956 0.08374117209824375 0.07350398487908669 0.1037792846391007 0.7119032485992803 0.7716226395276908 0.3481230629095705 
Task83 0.03861007873171368 0.060581625615818126 0.029462533112894557 0.5812666882953991 0.9048608085433407 0.9832513085235528 0.5069515363076084 
Task84 0.05472848186384256 0.38006357219127024 0.04487110670814618 0.27091966306039994 0.6632043070962703 0.7486363812794066 0.5304255062841378 
Task85 0.005184113360290597 0.012467778967691644 0.03560849853221718 0.0009490955390589503 0.8559759409454293 0.7213605422463991 0.4770522915753277 
Task86 0.09913869536117959 0.39191745975685865 0.14705181819376248 0.14952586099027546 0.48859340846994415 0.5473928069868126 0.7116389800983816 
Task87 0.1834908977861739 0.09235248766997323 0.6506866551820444 0.062136423815449954 0.8053327530300556 0.6290113139969273 0.7183431233768209 
Task88 0.09268134575482165 0.1841596994505604 0.18259162022611336 0.5023202515752009 0.5211669672283605 0.7769839958507234 0.8312681245853475 
Task89 0.005872738571808223 0.13531640237105344 0.12292983287992108 0.5132840652721401 0.8599864071583492 0.6516415552783328 0.8583069610983751 
Task90 0.0009970693469331174 0.026168258171442048 0.03601882921112255 0.002667880454968918 0.9702341372374899 0.3805816882753911 0.4109684115020637 
Task91 0.062120918314304725 0.276392272222849 0.05055214484127141 0.057006715430202304 0.4869171338530642 0.43334524105307715 0.6688455069925912 
Task92 0.074669235345827 0.24264053115854686 0.2115437681322126 0.09326608013049704 0.4677969794564988 0.600256464246166 0.48569627757697337 
Task93 0.09245808829880811 0.1117324694231163 0.2327695768825622 0.14676339633369972 0.6863835792966955 0.6024061304382838 0.8212248092695482 
Task94 0.0316555806671399 0.03792772598084337 0.06100049179745161 0.19134028183080154 0.5016018854822897 0.9733323685417674 0.7636089171768793 
Task95 0.11242013685124791 0.4103321188523405 0.002363064647272519 0.4231696614983579 0.6451875048464528 0.3503883619039988 0.3918839811332372 
Task96 0.024533558170960767 0.2151902859793606 0.17049603077014727 0.11608640241041165 0.5070509802898252 0.9202131118601526 0.7306213513589648 
Task97 0.024279515175517862 0.016078117240428662 0.22965928976461059 0.024849924005212087 0.5452978141860607 0.7573569757854075 0.47640756392202965 
Task98 0.01506785407308741 0.00809166551081589 0.10649269836090475 0.0788683818929033 0.34851688923653434 0.9657563364307891 0.9300472904465664 
Task99 0.14274793894368157 0.3868993804445841 0.0808946537081001 0.19897461783147188 0.5399471366700281 0.800762279044446 0.49448366735227334 
