files/tasks_parameters/ExAp01/sample8.txt 4.76827 6.77015 2.19458 0.288816 7.48923
files/tasks_parameters/ExAp01/sample12.txt 5.54521 9.58351 2.46081 0.337498 8.75159
files/tasks_parameters/ExAp01/sample2.txt 5.18949 8.44418 2.50701 0.319127 8.27521
files/tasks_parameters/ExAp01/sample44.txt 4.70352 6.96299 2.23089 0.28229 7.32
files/tasks_parameters/ExAp01/sample27.txt 4.75867 7.74306 2.16676 0.28602 7.41671
files/tasks_parameters/ExAp01/sample17.txt 4.79093 7.35053 2.25579 0.292348 7.58079
files/tasks_parameters/ExAp01/sample9.txt 4.5566 6.89392 2.21068 0.282399 7.32281
files/tasks_parameters/ExAp01/sample34.txt 4.94791 6.62788 2.3772 0.297742 7.72067
files/tasks_parameters/ExAp01/sample40.txt 4.72295 7.75686 2.17534 0.285619 7.40632
files/tasks_parameters/ExAp01/sample33.txt 5.11366 8.14826 2.6463 0.338073 8.76649
files/tasks_parameters/ExAp01/sample48.txt 4.36917 7.64107 2.14272 0.270011 7.00159
files/tasks_parameters/ExAp01/sample29.txt 3.60619 7.139 1.93769 0.286306 7.42412
files/tasks_parameters/ExAp01/sample11.txt 4.38188 6.88688 2.12981 0.280008 7.26083
files/tasks_parameters/ExAp01/sample14.txt 4.02649 6.11983 1.97599 0.247458 6.41676
files/tasks_parameters/ExAp01/sample0.txt 4.67235 8.2738 2.14256 0.289132 7.4974
files/tasks_parameters/ExAp01/sample7.txt 4.29351 6.87011 2.05821 0.269886 6.99833
files/tasks_parameters/ExAp01/sample23.txt 4.72632 6.52032 2.38087 0.291712 7.5643
files/tasks_parameters/ExAp01/sample13.txt 4.81484 8.73247 2.33415 0.295393 7.65975
files/tasks_parameters/ExAp01/sample22.txt 4.55821 6.9777 2.28948 0.283979 7.36379
files/tasks_parameters/ExAp01/sample25.txt 4.0384 6.23444 2.2122 0.267298 6.93123
files/tasks_parameters/ExAp01/sample36.txt 4.02581 6.6174 1.9458 0.253823 6.58181
files/tasks_parameters/ExAp01/sample46.txt 5.45316 7.42369 2.49128 0.327273 8.48643
files/tasks_parameters/ExAp01/sample31.txt 4.08545 7.22028 2.13584 0.25377 6.58044
files/tasks_parameters/ExAp01/sample37.txt 4.85015 8.90704 2.16981 0.295708 7.66793
files/tasks_parameters/ExAp01/sample16.txt 4.02845 8.18243 1.88294 0.24945 6.46842
files/tasks_parameters/ExAp01/sample10.txt 4.6334 6.96646 2.31217 0.285748 7.40966
files/tasks_parameters/ExAp01/sample39.txt 4.02447 6.4161 1.97266 0.251967 6.53369
files/tasks_parameters/ExAp01/sample19.txt 5.14527 8.16711 2.23199 0.308463 7.99867
files/tasks_parameters/ExAp01/sample20.txt 4.28388 7.28549 1.88944 0.25994 6.74044
files/tasks_parameters/ExAp01/sample43.txt 4.12145 6.86804 2.00142 0.25616 6.64243
files/tasks_parameters/ExAp01/sample32.txt 4.50411 8.15663 2.12995 0.281726 7.30538
files/tasks_parameters/ExAp01/sample45.txt 4.60208 7.75184 2.10599 0.274935 7.12927
files/tasks_parameters/ExAp01/sample26.txt 4.49102 7.4944 1.88956 0.267248 6.92994
files/tasks_parameters/ExAp01/sample5.txt 4.72432 8.08362 2.09961 0.28454 7.37834
files/tasks_parameters/ExAp01/sample21.txt 4.05818 6.11814 2.17119 0.26143 6.77907
files/tasks_parameters/ExAp01/sample38.txt 4.41868 7.761 1.96293 0.263659 6.83687
files/tasks_parameters/ExAp01/sample1.txt 4.69499 7.83752 2.13261 0.289228 7.4999
files/tasks_parameters/ExAp01/sample15.txt 4.71952 7.37971 2.12057 0.285825 7.41167
files/tasks_parameters/ExAp01/sample24.txt 4.92604 8.28531 2.25272 0.296628 7.6918
files/tasks_parameters/ExAp01/sample3.txt 5.0242 7.33359 2.39135 0.305084 7.91107
files/tasks_parameters/ExAp01/sample6.txt 4.63628 7.09894 2.24425 0.281804 7.3074
files/tasks_parameters/ExAp01/sample30.txt 4.56808 8.17669 2.03701 0.299204 7.75859
files/tasks_parameters/ExAp01/sample42.txt 4.87864 7.70416 2.42413 0.29743 7.71258
files/tasks_parameters/ExAp01/sample4.txt 5.09558 7.41691 2.36261 0.307803 7.98156
files/tasks_parameters/ExAp01/sample28.txt 4.56457 7.0562 2.07657 0.266428 6.90868
files/tasks_parameters/ExAp01/sample18.txt 4.29752 7.60139 2.1377 0.268016 6.94986
files/tasks_parameters/ExAp01/sample35.txt 5.10707 9.66795 2.28028 0.32244 8.3611
files/tasks_parameters/ExAp01/sample47.txt 4.09968 6.84842 2.12104 0.251655 6.5256
files/tasks_parameters/ExAp01/sample49.txt 4.21905 7.1497 2.11412 0.255889 6.63539
files/tasks_parameters/ExAp01/sample41.txt 4.25564 6.59911 2.07359 0.265885 6.89461
