Task0 0.038521007722697544 0.23117385092170678 0.16523801342741865 0.23072113033709948 0.7998633760881225 0.875936883402815 0.9346984987316893 
Task1 0.13714360869076286 0.340101655233539 0.05401989896900888 0.3818038340034462 0.3013084678400887 0.6470667679585036 0.5562914268361786 
Task2 0.11062272804345163 0.41736865770989534 0.10270517823163383 0.13809262778321194 0.9331075606675809 0.3420201042506951 0.9488053790416477 
Task3 0.046916059678949365 0.07775747619520625 0.10288055699165376 0.047022958418205946 0.599970132241064 0.9579501610774148 0.9016172268685319 
Task4 0.08182086400264228 0.12146025993087838 0.2537923412286065 0.22837735207714296 0.454810215525039 0.7391576783238449 0.6119504600419108 
Task5 0.06864224964491912 0.4053125800256113 0.08143906094556425 0.3181679399190944 0.5546143984953247 0.412220417748138 0.6591351344723164 
Task6 0.058371946223901475 0.3411753641756635 0.16063157654969595 0.33251152394103145 0.8943523089695156 0.499526585408672 0.9693434964821648 
Task7 0.05962681854199899 0.09719199322056207 0.1961294180776148 0.11863451247009249 0.5014770214420483 0.3146186063840472 0.5167109434009143 
Task8 0.0029068271465171177 0.007949255680075706 0.012713779235500959 0.011822552324101223 0.7436034144620165 0.7950074535945465 0.32771343130548924 
Task9 0.03311889686750937 0.2107078198228605 0.011634417176725934 0.10528150056799422 0.3792712169315779 0.8145452316144011 0.47285889360569944 
Task10 0.0017636528862985184 0.2414216969262362 0.12143740321546985 0.02341200798136309 0.8545743331154965 0.5225967324391884 0.4903504904011896 
Task11 0.0004508295466814725 0.000849358240145715 0.023171344476565953 0.025168473579226153 0.3781448436851076 0.323334917224253 0.44115494069758115 
Task12 0.03595267212898135 0.1825803708754229 0.11128048395238939 0.185961676529846 0.7065538777113778 0.8572731342211459 0.5045188541489005 
Task13 0.012136906748590914 0.01185592492622046 0.04533643549856713 0.02330555418754787 0.4612052848591329 0.8700748983320314 0.6878825860152052 
Task14 0.0006867789572945435 0.014356400360875463 0.019211173535472574 0.017030316001278197 0.7765866783913871 0.6885503795357791 0.5788454313912086 
Task15 0.019505915033152868 0.06416296925237848 0.011952931724764906 0.018117888431086117 0.37751209683527415 0.634108148501222 0.7387586049677155 
Task16 0.021786474798067782 0.11957016519146293 0.1266682017356358 0.14863678247607312 0.5937856232109053 0.5874381136880953 0.520482244139472 
Task17 0.056434228997253644 0.25139966903307026 0.4178782281660053 0.0949344360468854 0.6770716980732687 0.3161581962826271 0.8360012801856411 
Task18 0.08886688442874402 0.21335106256048872 0.15133732000827935 0.21347242146973402 0.3334731949916729 0.9014243989309387 0.33435447320755723 
Task19 0.02007734766009777 0.17941347551674686 0.06941468862025299 0.44085668828188984 0.572666730529077 0.4747238876442941 0.5193545590686286 
Task20 0.13917443773979774 0.4114583250954891 0.2237874028553796 0.034755976075802726 0.6748647295200971 0.9138935058234621 0.4076396411287338 
Task21 0.04856689805855046 0.10180234464513369 0.31777157487867846 0.12617840381369066 0.6484084373430012 0.4490185548940864 0.6288614053674024 
Task22 0.0238651603381901 0.08191333492191215 0.1881738815421468 0.32804556491801745 0.30534259921982587 0.9751264213258233 0.5687041995981637 
Task23 0.0041328728677570295 0.19737207480233834 0.11420505996816399 0.18439867699254966 0.9391237786953577 0.5860571066926971 0.6533192269430101 
Task24 0.04044490312351536 0.010571890787920332 0.16675622787866418 0.31708643527978986 0.5052067461236474 0.8559447646965588 0.5902836773017347 
Task25 0.0030934342342385217 0.14441877987260315 0.04438082215785756 0.01595567217334157 0.326469650401432 0.8997524327250057 0.6793417480825457 
Task26 0.008847130941315128 0.10398974384997829 0.051615953023975376 0.14629592533922833 0.682923269567583 0.5691440684529198 0.3015275343625207 
Task27 0.07627057443481437 0.05238425393220782 0.16370929740677326 0.12469673116857775 0.507105900011656 0.8682872632736891 0.6712308467353636 
Task28 0.04068660282831516 0.17668502993764654 0.13916798568864147 0.03675717579165527 0.308494059355045 0.41378470278361223 0.5459420718568361 
Task29 0.023583511695190355 0.39694558859053825 0.2544285179130371 0.22827836300506418 0.3985898363848729 0.8518898894623845 0.731422880895703 
Task30 0.0741045559738263 0.005476714588637111 0.17075815129038457 0.1806927674526444 0.7322898642287339 0.7483299022642198 0.7328488166837315 
Task31 0.14380511168405669 0.14942387984481997 0.09788976746999983 0.33389997062043375 0.5538320852070142 0.8616376002367665 0.6838652694876213 
Task32 0.11177246714671579 0.05978351392600888 0.22527723469908886 0.16744934379563745 0.4530922284308491 0.9373259979499495 0.40831894437937266 
Task33 0.07241059857645615 0.08496434092320346 0.28979140055637426 0.5450084233343407 0.9801473507923104 0.522058107206349 0.9676339227274167 
Task34 0.05185778261188536 0.13923229908853724 0.026899857979963738 0.07762078349563825 0.476475697106441 0.9221628699747673 0.32967451470624165 
Task35 0.03491020173967051 0.12522767323555517 0.025958596609514654 0.0017221297205806797 0.8340113894917476 0.8365563114078105 0.9464620595683289 
Task36 0.08217268244237207 0.09375449287176958 0.21871926517234147 0.12666534535397564 0.6072332129345457 0.8182615731299188 0.463736458988635 
Task37 0.01904633087181792 0.1762953073236242 0.045077009120306 0.1703844985788254 0.9422393776092612 0.6355094849316749 0.7333460991646689 
Task38 0.0032469379223510693 0.020248887298646694 0.0507504854232112 0.06983088508037028 0.5140263947769501 0.5584683687250249 0.6246571822582476 
Task39 0.06125329918598196 0.13699257566078152 0.05768785889208996 0.10247251782951039 0.9473688154347295 0.5388495721245831 0.46893248868548487 
Task40 0.026814770216067815 0.10719178831694695 0.0831590071215611 0.05399237395616569 0.5658602826763428 0.3716260639396373 0.3709261631835173 
Task41 0.10355796278701915 0.14218583655195446 0.21825397252478662 0.18159071873526705 0.31381323085185386 0.7417869457635979 0.6173047403908527 
Task42 0.03313285785507415 0.028091357446262986 0.024380311209296016 0.09411463795534131 0.4118431424225127 0.8056896979895933 0.6526875455650709 
Task43 0.016769621927889982 0.07877307758601734 0.012352122461398902 0.035787907508231194 0.7432537935028347 0.5557340031559339 0.9692658211218939 
Task44 0.13459936542052695 0.3127822327422913 0.08122599112385498 0.33105541681470135 0.9666093107768388 0.8735872286205912 0.3930008093377303 
Task45 0.021039399528173502 0.077032215462931 0.04786402751776265 0.03272319061447625 0.36277669424694353 0.8318931404467413 0.3605939178391143 
Task46 0.08730088756819473 0.03587498447037411 0.1336230967959634 0.26396151926885647 0.9888029359059409 0.5886322039121475 0.9040299816442698 
Task47 0.01775400105560011 0.18615608098986067 0.15342884850753322 0.16818026420468304 0.5867408048844681 0.9635035905325646 0.4990054904563783 
Task48 0.003961361493777591 0.007841427911528413 0.10168848133732639 0.03766573489175833 0.6353930861721535 0.40687345457928076 0.6316401653137189 
Task49 0.019837756223178283 0.13432927251446397 0.19206812083297614 0.08459877205289311 0.6793944697330068 0.7769231834365875 0.8583855032102035 
Task50 0.026770251808559225 0.03377148632400061 0.03821562019177716 0.036153162549839774 0.6872271225167363 0.6845810844730202 0.5193034183512848 
Task51 0.00875944691126727 0.015104167462654056 0.012273706247462955 0.05046161552404896 0.31749112045447475 0.4956853138830368 0.3991090933209487 
Task52 0.14850218785119207 0.3117361615137979 0.2507733418335197 0.1518446887168823 0.530070545878217 0.5875586736401196 0.4592805051397215 
Task53 0.06797447682249061 0.16644290941132395 0.05377136360046028 0.05659633295570039 0.5306978885238025 0.6062902549498324 0.5167371557036375 
Task54 0.07188610497708404 0.07637466585081565 0.23608421529433013 0.20667675979437233 0.33224723052973215 0.5981446886597086 0.4782235808063443 
Task55 0.0318447723284619 0.25612808954685556 0.10451804389853626 0.007902713744255174 0.847919888032278 0.9187058870276246 0.7546214467756034 
Task56 0.027047387192632374 0.2793649497524866 0.2345221760750072 0.09323238861795559 0.9430415847060287 0.7892460017278595 0.4619261180774036 
Task57 0.01679927546595421 0.09752138344922703 0.3471045523236284 0.21411483913602322 0.7160932547460259 0.9009923783856773 0.8693635459245059 
Task58 0.17274065610095019 0.41648353518934156 0.027217948099458125 0.3216736619067549 0.5905716049751377 0.7112862546744697 0.3652048286088946 
Task59 0.09633406699052913 0.1688117045699498 0.19874723548322384 0.2940643110475222 0.599736651540961 0.7471986964795183 0.7464113214105774 
Task60 0.00047753014812524546 0.08956824681625285 0.06475584762376653 0.3521422598058673 0.9646751556620654 0.6951523589729096 0.9561109571533026 
Task61 0.04750629368006041 0.09309280172238774 0.2022788891890913 0.1037097255637282 0.524129753374267 0.9522312614400075 0.8836671918049588 
Task62 0.026637516510396766 0.019111150948430623 0.12549217787317452 0.09129582963730888 0.4847604678996613 0.4190638727228649 0.42525028536419274 
Task63 0.047457968921601604 0.13011144539762162 0.22443358240834813 0.23697156869248362 0.7863915784429356 0.8534663896272852 0.8609866645495212 
Task64 0.0022168086956732332 0.19206535286750653 0.07316423431373185 0.13243628815870281 0.9440168985745507 0.6513379229236251 0.7016525612430613 
Task65 0.07346229299083545 0.1893573488351936 0.22902452727091466 0.238706737422454 0.33834498251923706 0.8521630983704593 0.3605066490457063 
Task66 0.087016732117065 0.1797453135353161 0.278940460992798 0.21505654118983386 0.4759676577969102 0.4021198613279661 0.7601244102646456 
Task67 0.009486851487475715 0.023603450205458187 0.029763999176885922 0.011016373677316093 0.6314398883432992 0.6979164467241357 0.8394912698060468 
Task68 0.049253514420881356 0.3545346443944289 0.1626193174096589 0.03903298957642193 0.5713453661608107 0.5463434671455971 0.5830451030066888 
Task69 0.08355831221825945 0.03361977753395144 0.20177702539292386 0.3397093140820712 0.7206661605474433 0.7255730168594168 0.5050494304688613 
Task70 0.16418062884271292 0.2892662083387841 0.19477288062483092 0.302026145096804 0.9448235277472103 0.3017339792547284 0.6646890404157406 
Task71 0.06800344898482416 0.22239773918873113 0.09861341766743466 0.0321543185800297 0.9332192260090972 0.7867741144947465 0.5069317152931341 
Task72 0.0033576611769767155 0.11359782342871204 0.17590850131269045 0.0037982088757555583 0.6989104782182247 0.9356011869164302 0.3851419596775484 
Task73 0.009552920528352103 0.0737730650472334 0.06379735223478505 0.02897579993419721 0.7942249034757332 0.3787177568581433 0.42003053803630735 
Task74 0.10025906735782102 0.4243665230266299 0.19056752333024665 0.07031951744188406 0.5063657743876768 0.3629131558167762 0.5440867152387303 
Task75 0.013069362283710318 0.05541907296246549 0.005344468006799867 0.07936332229868168 0.7342964719621702 0.7692625909693078 0.6588493504867396 
Task76 0.014555543457474741 0.10294204413496737 0.033897424939022265 0.1795309399135985 0.6296504167158414 0.8880132211305969 0.5105431222154366 
Task77 0.00129906366685259 0.028904359694732536 0.07078207411267251 0.013024339887507666 0.7903858851477203 0.6843205695456426 0.4154657890598239 
Task78 0.004303326198442446 0.46974599653669 0.029725763160597912 0.2088816204847874 0.5613804983307535 0.9623187462884621 0.5353044066744931 
Task79 0.004753705929236983 0.008527928225420976 0.006314873110153861 0.006812101092503132 0.994046692536471 0.6928613461772544 0.3354157451842602 
Task80 0.05734904825972346 0.21575569273743275 0.1542334332273132 0.19040692904016002 0.4539651543684216 0.6962443348684009 0.9665575792357806 
Task81 0.0895431923931719 0.14726327569421718 0.41781266720807714 0.15890268850341138 0.9540473608576112 0.8066608535361572 0.8950590699870655 
Task82 0.07174082642964853 0.11987928710715495 0.3698520633541573 0.29817173755891974 0.8920163866324411 0.42600567657836663 0.7586455846059874 
Task83 0.00893964988767574 0.08752416640743513 0.11796656083406394 0.08867460669323247 0.5083054478799818 0.8772670140471182 0.7577157019449933 
Task84 0.10287937160039486 0.16786545608283474 0.07407859658139529 0.20418281056026613 0.8649333437565725 0.8612131189233174 0.969120980445598 
Task85 0.008955168621785324 0.14934712911511971 0.08880610004783784 0.16340822712510616 0.43681020558696143 0.9580629366732025 0.6362449159709118 
Task86 0.12163787563306142 0.24397547042018855 0.137740709860863 0.2640343549404682 0.8655672020089702 0.8970976885985122 0.5002318805576321 
Task87 0.041454689148893976 0.18577594355826962 0.33654489203843346 0.1054371355235212 0.927883533688511 0.7045563689172347 0.49950227411188114 
Task88 0.03762023642310619 0.09008395260596533 0.318200972112857 0.5383282811571932 0.9853845091334572 0.7266441253854241 0.6849954145642095 
Task89 0.0018852332247513675 0.027983613697416414 0.016800374174065054 0.005751965447930333 0.46191460258510053 0.37453936645467123 0.8016938719556972 
Task90 0.0009262529955328403 0.008405237961603185 0.001507753039480866 0.011652890824053581 0.5096336099660872 0.3797621637066256 0.3592987625577592 
Task91 0.01978078684432136 0.09200516546218324 0.028039329076009503 0.100958020253559 0.4574398348776111 0.5557718944760923 0.38169451587441283 
Task92 0.14152048104624318 0.34875155565749455 0.2675912473816876 0.16127484990939034 0.8270342004740074 0.5924447335816165 0.8585480050938663 
Task93 0.009670287693383845 0.16460015760495258 0.5771313033607951 0.12929285170697927 0.92284777197152 0.5925433584651038 0.666474450372017 
Task94 0.11697328604003147 0.20544942461561452 0.21041942051928939 0.1609572088091163 0.38199486931362653 0.7058048734460594 0.9660257104818015 
Task95 0.06318931354916395 0.07416675816043652 0.2899025977406161 0.07100840942984595 0.922244460805433 0.788717554245701 0.8251570703447579 
Task96 0.0013625459666228314 0.0034179481148514618 0.00291456325504035 0.0030154463918853455 0.7113497324232005 0.3568714626466969 0.5552713571458197 
Task97 0.010751587874483702 0.05584133170724638 0.06055167112185501 0.01826388844487723 0.9473081394748326 0.8901170649856005 0.5888372201560981 
Task98 0.021596423379058247 0.039755152758582414 0.04690049166319657 0.038211552348016924 0.7146891274838507 0.6278806785453875 0.5957412926165735 
Task99 0.12174159000652064 0.22089827929523467 0.21245061444534535 0.05584477062569761 0.7273791908971231 0.9038398795258853 0.5159944229246884 
