Task0 0.14345676810015523 0.05090966963384621 0.5666295139687931 0.19664705541044283 0.4501285893424405 0.4491162432714336 0.38601376516877944 
Task1 0.017909615482329316 0.06037940221286393 0.04696568001395515 0.05425095359911241 0.6929847250469152 0.5368178816002042 0.7723561625733772 
Task2 0.04090851189110111 0.03838409013956759 0.6097480378705905 0.22423868141163988 0.976699577452955 0.6467720118197073 0.45149940289231605 
Task3 0.06767476295667592 0.01788663239672692 0.21517507348752882 0.17057538136006872 0.320425910454813 0.584081492270756 0.8437987807290235 
Task4 0.06065674402455143 0.287760738211905 0.21427856478247467 0.06817233961820214 0.4772016348873367 0.383972384195537 0.662782829646763 
Task5 0.011776965343271717 0.05009650335614991 0.14058946527564153 0.050851802039679025 0.8240277946686299 0.5869889277183029 0.9452324562621395 
Task6 0.011245904828742765 0.13613700195660342 0.25583873151395853 0.17678243043622696 0.42724208000526226 0.4989743570931221 0.5653129203525751 
Task7 0.05858085034553873 0.14760582581282441 0.4460865695975041 0.1941163215357163 0.6087791855337907 0.7009763756720253 0.8063241661478122 
Task8 0.027959920797494757 0.10429723911438984 0.13992866527377465 0.16020452888679115 0.9219518845242896 0.3700638725376305 0.5334444032440838 
Task9 0.08928670175413916 0.0692885110410863 0.1602348523292602 0.5776945156361282 0.3647632814180497 0.7553711630674265 0.8536055369424747 
Task10 0.028067290325026754 0.2399620857023483 0.22463363091565897 0.28388671214326633 0.6446218334182072 0.8315281199262279 0.9232872473703002 
Task11 0.009065330056294764 0.14932324290186694 0.15872002666757462 0.14745613882885386 0.47093284876670494 0.5592673505297472 0.7350022900488344 
Task12 0.014106475959515944 0.053149644171123056 0.0577071745905725 0.01476671533603235 0.7547565333366347 0.859287550919225 0.4116036720362489 
Task13 0.11409070995413272 0.43689411095399006 0.24974358531500784 0.06586016905392296 0.3039906840116073 0.6919120030799432 0.9154688572391323 
Task14 0.09029677702762971 0.10384888472896255 0.24511710498944334 0.2629356963780166 0.6977334267392052 0.3883957315988728 0.31377659387523293 
Task15 0.0735740608527603 0.17065447291703165 0.2836758930936682 0.2298365913914629 0.8407333937537467 0.4866245742799905 0.7180300314640726 
Task16 0.08009202212143482 0.4051054407979639 0.21361172762633002 0.038584005406878355 0.5250670043795556 0.49462646899325957 0.5739495429467592 
Task17 0.07645482098571554 0.11512353833534066 0.17873414948115154 0.0422129346626088 0.8465571060857258 0.5433833380759279 0.7201179117659579 
Task18 0.012206251254815096 0.05564668064947903 0.08524877213453903 0.06036289419017003 0.3255368024985437 0.5004614822455584 0.8651472707725234 
Task19 0.0945669154908973 0.15968769433398375 0.2600389140381805 0.08575767476415795 0.33738917243815436 0.3656576566516177 0.36724094155825016 
Task20 0.12724015509512632 0.2407302535620356 0.31890691834589835 0.03065101503385368 0.6541893417188096 0.35191493166646526 0.9790420994187248 
Task21 0.0414461662958493 0.12473107721879863 0.10420942148564659 0.06916907245209512 0.6043054108897487 0.40988282127810377 0.6418968587181126 
Task22 0.10100489063706662 0.12302120815977294 0.2319127995551623 0.11722937357295388 0.5240065744092051 0.3376556329244882 0.6286062494589546 
Task23 0.03422266338774288 0.19533537408544668 0.030153043956684455 0.17887218718302308 0.6005972237248272 0.9017700279440419 0.6954854025576729 
Task24 0.08679790905707488 0.03330777712249475 0.37004155826512874 0.02941809055456613 0.9449849621549076 0.5426645711598994 0.5969123440523716 
Task25 0.09193053527053997 0.09218981154147754 0.1359541823910852 0.15799581314905792 0.7995074011696921 0.8301624126874734 0.7859696941994505 
Task26 0.04776038358309306 0.17133823063204418 0.07193527077507086 0.17562347011980814 0.8447801041482095 0.5179249603038703 0.643777405753309 
Task27 0.07591611136776603 0.1647219363929985 0.30632093368784363 0.28275216475790055 0.40080337078872913 0.6144424791873725 0.43202890991667164 
Task28 0.0891425691715187 0.2569164496165385 0.39521680959889144 0.25424594683415175 0.9374083093577514 0.5647810726899751 0.7416774283723442 
Task29 0.1331774984279122 0.3410447365130198 0.19344337633831318 0.3280115900450707 0.4906709035764228 0.674350220460899 0.9829077042662606 
Task30 0.015330015430224126 0.007166431577649023 0.17953381471652263 0.010512477189495757 0.9301729649274346 0.7676653832775011 0.4042307931998405 
Task31 0.0210034775582573 0.18235992552694288 0.2557094057846173 0.13754723410821246 0.794657516952575 0.690496133529399 0.5378603959748163 
Task32 0.013484142771339733 0.06614172334230144 0.1097807854578736 0.09837427871296152 0.8876065246106555 0.47849162212019297 0.882286134971888 
Task33 0.003585013281441732 0.0040494713718370115 0.0012725477461684274 0.00911898181675925 0.783529326285143 0.7776265843242414 0.4888068584809827 
Task34 0.05716531349586821 0.19654101373308644 0.08288271310939076 0.33365306728037936 0.9595729022201249 0.74481102424155 0.880583271210162 
Task35 0.06330368579707914 0.09289102804334376 0.20337612062144636 0.30267189427376445 0.8144225893470871 0.6442723579306322 0.8489018290820778 
Task36 0.09652390907742363 0.1912747412979583 0.0572049990053638 0.24276323337158492 0.6529539722542155 0.7344021455291865 0.882649332399096 
Task37 0.02607225575714239 0.030437957263592583 0.02906488317969376 0.15795575642067342 0.4597234370931186 0.4084271794393222 0.3848981085678533 
Task38 0.02579892499316605 0.24334807523299914 0.3673647387060395 0.05664488494299955 0.8828011083805478 0.9516543740221166 0.6209869109046894 
Task39 0.004334849274809489 0.027420082571774966 0.008503858774032265 0.015286420600083499 0.8058697443507523 0.8556728129342872 0.3360510490018593 
Task40 0.07237139510469663 0.14192900112667756 0.1261548626988022 0.07232267640290171 0.9413880803021162 0.5510037199035097 0.8691101423558869 
Task41 0.01984765656927352 0.005307329116552088 0.0068284671260078 0.0914397960296009 0.41652535375823185 0.8855770142838335 0.6500898927443258 
Task42 0.09608563412494546 0.29684559535757427 0.05345123332168833 0.4322903518350157 0.8286096364255362 0.8312498257873051 0.7949388189678148 
Task43 0.07096631581688617 0.039922063238358285 0.10000495299776901 0.5147560997998395 0.7500695477210578 0.5573978134866877 0.753973350759068 
Task44 0.10329515690079485 0.10864362627339258 0.24323710237324297 0.2276925530705283 0.36003401590073586 0.8491727305672923 0.5440414430961296 
Task45 0.06203648391590781 0.18339025271016038 0.26673902584317083 0.1710221007035133 0.46876634801910827 0.910842810820258 0.8892479524817134 
Task46 0.15928293216482506 0.29594147582604735 0.22178776948729367 0.251793045581993 0.5317254984828664 0.375921728636145 0.4499775412608241 
Task47 0.007876302703277787 0.008645244424145517 0.12911886260803615 0.1261466340286228 0.7363819500777768 0.30855314496067066 0.6531398350293642 
Task48 0.024609096428805276 0.27341049197155987 0.10888831410623591 0.0866290982835704 0.8496867439696603 0.9543592931785045 0.7854077301745729 
Task49 0.01934116156760089 0.046891635865155205 0.0556888369702949 0.008011002278361294 0.9267813510351068 0.5668698900472415 0.9307366432791591 
Task50 0.017550660561267663 0.016853229439809853 0.035929280071145285 0.04659958563977189 0.7172510174646716 0.8148287401057903 0.5507100430329147 
Task51 0.005818202165719901 0.0381675692536296 0.0391993877872723 0.00447796660314663 0.4134804590287714 0.7519752429265025 0.8786009276589917 
Task52 0.08108593097211954 0.20410561544195027 0.18505455117419678 0.25976301062465185 0.6182263598440918 0.6078064149644631 0.7162658914291684 
Task53 0.006949201578698018 0.32534770715586675 0.16180563288774755 0.003988817563634159 0.5550572881780622 0.9425680857148235 0.7524647008501062 
Task54 0.013067338211972979 0.0604029567050846 0.03906448415399949 0.08648585409467764 0.5682505587769799 0.7035169245385449 0.4171750396574116 
Task55 0.11932491699793361 0.029399440523379523 0.3449193569014191 0.19950402610279497 0.3710164103602965 0.5223327245762488 0.381282550483637 
Task56 0.023752374108281918 0.03130563500761961 0.05282357399627563 0.03339742482597935 0.6318368873338995 0.47500428246621157 0.6674862708519411 
Task57 0.07154053417885864 0.06084303292309118 0.15156889551187755 0.0826690472136134 0.8535937253843784 0.374000238335201 0.8734971544142063 
Task58 0.010004152615558527 0.007271412278803774 0.11550927067089885 0.02215338887180357 0.4943165811138842 0.3310744804611867 0.5040581595982381 
Task59 0.02829393726337669 0.1418322127554591 0.06863036750915393 0.013577050294546384 0.6088837098864093 0.6995381263478078 0.3866150528250083 
Task60 0.0047427216685610105 0.012032095158774871 0.020834986746955064 0.01672528238696397 0.903133531264326 0.8935112262016296 0.7765865597133299 
Task61 0.11093660455111427 0.23353075493163272 0.3080468958102357 0.22339047261387127 0.46984183322136486 0.6882239063227424 0.6443804835463951 
Task62 0.0893480850519104 0.3300672881535196 0.13463470617732123 0.029942376326776075 0.5438594214464653 0.6664363531478839 0.5399242094555862 
Task63 0.12055207025598971 0.1425754132580566 0.28424949228699503 0.190038161797257 0.38207281842867247 0.37755708875809724 0.7068135436971978 
Task64 0.00858465585126804 0.21623192516920356 0.13067512925579233 0.19090841149309998 0.8681497967896703 0.4716838175494832 0.6611736676126636 
Task65 0.018476838532104807 0.06413867612056649 0.07451873575394258 0.09987182149732632 0.317013579099002 0.8241222885119617 0.979952096195833 
Task66 0.05311504557470237 0.30670369024824035 0.40088613392355865 0.1314450989604284 0.5712919121481301 0.6445954067422681 0.3588637185706768 
Task67 0.17096467540511925 0.24995303967676238 0.20251978628691825 0.25916041652191374 0.8319842034908456 0.8512862467773687 0.6920434268717162 
Task68 0.0412257343441965 0.2274028758993188 0.029777383226599313 0.09370727191637997 0.4735993656000493 0.8769953005651225 0.6856478420675852 
Task69 0.022696859011299808 0.031260704698336396 0.3417962955466412 0.3327716243664383 0.8263044919978917 0.4894684681147776 0.6002558650018173 
Task70 0.06518646680250947 0.09693979059994656 0.10669695080645857 0.13295120564061447 0.7309802629866677 0.9177170527626977 0.8474533480065756 
Task71 0.03567014011396824 0.18516241005474243 0.20980515149396545 0.005594265188556161 0.7855764295375032 0.3236267883643616 0.5122105428907501 
Task72 0.09582755426389092 0.23671898029988983 0.17122661681199108 0.45587984423916766 0.7750271795011884 0.6845430631460109 0.5061195325739243 
Task73 0.1210509298126709 0.16427664376459133 0.18494074179700262 0.13933736380093564 0.5664734038101891 0.459085270421175 0.947791266684916 
Task74 0.14421571326791216 0.2352444674920824 0.18205444813063187 0.32346436983390436 0.9225400500740266 0.690509352525098 0.7655495807146768 
Task75 0.02767607525723396 0.046359167443705086 0.04009419519298129 0.05117811745615114 0.8734246580250957 0.4304245457774323 0.5855259186221233 
Task76 0.12020266127451099 0.11543181012591214 0.31403310211448326 0.21046294935808071 0.5179943621398682 0.9570662480054648 0.3014853127062021 
Task77 0.11381126072407155 0.12293352474336663 0.2878935281530385 0.2322453159666452 0.6515815222365043 0.8184341161597373 0.756056410641941 
Task78 0.10839683847473215 0.15902637020802407 0.03205635715843209 0.25940680330035937 0.5268073783866802 0.9080356557279758 0.5865459422278771 
Task79 0.16051876710229818 0.13477397006776534 0.3460900382918828 0.27815786359760036 0.9384048059301697 0.7940233192298107 0.8502791563204621 
Task80 0.10921013442319837 0.12379769263432153 0.3934873518041078 0.23614052625914642 0.6567751476929267 0.7356549259685639 0.9096389797518811 
Task81 0.04972609350070506 0.2679134103264457 0.24452002688881963 0.3715749770198271 0.4080084144662778 0.5242377027562211 0.7210507115036622 
Task82 0.02645097021656271 0.08206779512525848 0.09814314461088815 0.02022258085841538 0.4185953252035962 0.5610505548899454 0.32156635764982217 
Task83 0.000546152996803134 0.01976879884152674 0.014023523213916698 0.025004354962019082 0.9055041960238792 0.8775177063454926 0.7135256195099942 
Task84 0.10440047032738753 0.27640529997307794 0.2683597034115182 0.2814777903136745 0.32244138493565405 0.34447068292200267 0.5287621675512366 
Task85 0.00011039363796095598 0.0031805717859253414 0.000899624403910855 0.003736025587395308 0.8494950023816707 0.35939687042848445 0.4749118242515523 
Task86 0.015188836985142874 0.019738119632244252 0.21039217845700434 0.45338048848475165 0.441606607334745 0.7744743217202015 0.888073222163819 
Task87 0.06776113421047866 0.08587545582044251 0.17770512402715133 0.5632735012648777 0.8548691609668364 0.709882140920622 0.9193709303409767 
Task88 0.08116634876573053 0.304063128645162 0.15340701684307023 0.1289837770738779 0.6390484224368185 0.3171354215650534 0.9257296435077058 
Task89 0.0057817868458274 0.20110151304707347 0.045033118690468624 0.15060392489423188 0.4468623517014032 0.5528328364493609 0.6561438855747816 
Task90 0.09650888662221134 0.22998209789091478 0.09639915083645471 0.22241526129998201 0.7650251719900202 0.6948579391202583 0.6159064108944842 
Task91 0.013289176383025044 0.2894684485793346 0.13105808085688841 0.33366323882020305 0.36371985463457096 0.7102513891715592 0.6149903184411294 
Task92 0.009990927709548117 0.07763697305055568 0.04187067828952958 0.14552905582035303 0.7243444731978249 0.6109919187346884 0.6420307637719749 
Task93 0.02616863370954447 0.12839776955157023 0.19848668126480548 0.1044219891154588 0.6936454367714082 0.9401138875462285 0.954245902907418 
Task94 0.011034688178742128 0.03711086867696174 0.09017903722161369 0.15898215052604822 0.5619694521897877 0.5181572124107199 0.9571128589406945 
Task95 0.02426633648539159 0.11345065890952204 0.0248168752047693 0.09046899939411192 0.5501112078609594 0.7527215186231251 0.8486692163945595 
Task96 0.10911267071467852 0.15508749684701403 0.25387033045410357 0.3013725229814186 0.47709891344704 0.6479494156998682 0.974650400597179 
Task97 0.05762226959220135 0.2850574485144848 0.09921853375806879 0.30029110048642343 0.5991930915187271 0.8708765524171489 0.39055851798575963 
Task98 0.022228620278590808 0.04062618628217673 0.036710510700463043 0.06682406100574893 0.6678023702719249 0.3540287061984597 0.8275291602769625 
Task99 0.0022523016536245017 0.20694342583439826 0.2527617253785437 0.1280492935346237 0.6339321765572273 0.7524181913171327 0.34210302999792175 
