Task0 0.09480202494848922 0.3797475435021465 0.07292106441271777 0.42635252848522565 0.8113104585736763 0.39260108198695837 0.4257132870120519 
Task1 0.005389202706860781 0.025486098530704323 0.02274162352029943 0.011831996486973822 0.4748995242420072 0.8529988527424794 0.5895353918990168 
Task2 0.07958430606498473 0.2406617400716041 0.1782208349006935 0.28900333084620566 0.7456507318042103 0.829426649397442 0.40879405697998317 
Task3 0.08008307242293738 0.1336217734102797 0.08637787155518863 0.24137161941447222 0.3516772716936587 0.913777906779619 0.5563714812006656 
Task4 0.01864062347848581 0.020839293736272597 0.06431216031456889 0.07340307374746968 0.36941114385528484 0.6258004794300356 0.8326115033979968 
Task5 0.08228148961207077 0.2096835788093834 0.1428757557366087 0.07466274143590089 0.503508808034322 0.8165787327909901 0.6482537066689636 
Task6 0.07581350268742673 0.7544717737900359 0.06520742495750759 0.09851521057567528 0.5278376215198074 0.805990395869753 0.42608028475761106 
Task7 0.013176577738627186 0.02061313206313872 0.025273015598831786 0.008030761764018807 0.9232829985685147 0.5911091326826773 0.4266511092177995 
Task8 0.08652817095625756 0.04300354072186879 0.35654917393649943 0.11576344756189594 0.5693959112684202 0.4341309463509277 0.5919174523954369 
Task9 0.002604183105990144 0.008198985798491978 0.007257498535653452 0.007501099122036332 0.7695088285468445 0.8179645936811957 0.5998101678760717 
Task10 0.014048437681102612 0.04132634979795254 0.05937413407619632 0.003993532914756386 0.8159615826195705 0.7351736541177052 0.8773159550451723 
Task11 0.03370912085305958 0.06907963492144542 0.030901982622426896 0.05657371262210167 0.45212622932785484 0.8116964353406382 0.8616392372112212 
Task12 0.0016296295215218139 0.019241506702819964 0.0156286173323447 0.014164691740346706 0.44975003928910473 0.40226258026827794 0.5727277352108007 
Task13 0.06594641024720173 0.11256505020657442 0.3429782500849259 0.0526430978517948 0.8776328961661763 0.45137887508888674 0.811970173033032 
Task14 0.009659419592429544 0.006032154985705679 0.12766623395507315 0.1935761927173181 0.4341283090257854 0.3037232446143585 0.6725188608933691 
Task15 0.0031891026752380917 0.2876419959188997 0.23939115261128835 0.08201573454363291 0.6030398918710818 0.5376935709688971 0.6941962362337899 
Task16 0.004515251822479829 0.00958950633755275 0.03494736348513774 0.01924960854799645 0.45616624677841255 0.591442400182336 0.953804739740542 
Task17 0.02533385217892985 0.13147879065605814 0.063013629111258 0.018299801221917617 0.5872094290048668 0.7379826274666206 0.5349074246695043 
Task18 0.05619317641248945 0.0898493474925854 0.11174358233820521 0.03984504757505301 0.9968938942066197 0.38523670385872993 0.7459437488498664 
Task19 0.01809356133777195 0.13239148461378794 0.09317890042645646 0.2513246656089535 0.9699075606666123 0.9410357970074428 0.9255482369260224 
Task20 0.04186700599967596 0.2460291914666248 0.29985077570173646 0.25949523334708985 0.7847238631667306 0.896144665030141 0.37969640876031574 
Task21 0.0010112978011372817 0.028252048178194943 0.04338521910685111 0.06021161683668764 0.9990577526265068 0.6876386814144555 0.726272087670792 
Task22 0.0008640473830325419 0.15922048172909195 0.10989603684366175 0.11409524232309474 0.8691984071786405 0.609550539160448 0.581740515836037 
Task23 0.0012868087338993822 0.20376281724542844 0.1135441788160157 0.038221519970042236 0.6004611036381533 0.344108088404075 0.5763829544906418 
Task24 0.0038318172332285345 0.010851417326104803 0.011681665520823014 0.027969413887386274 0.5349338870579282 0.4873256080019581 0.6173331871119753 
Task25 0.0019418106550599093 0.13707979010361282 0.0025432544347947545 0.1333234139752456 0.7900723171591467 0.4797244644991453 0.5553257503213433 
Task26 0.020993510543003906 0.1394508123258726 0.09858023627734554 0.03568902614585761 0.32986449527140427 0.6098097691844055 0.6930029098954855 
Task27 0.025446587896390642 0.09423131760021221 0.13192091062186426 0.045365111419324984 0.8553591972550227 0.5614965048574512 0.65560787384501 
Task28 0.04545700580827661 0.036612004771739697 0.10064649049951149 0.05910555981393495 0.5165886950390386 0.3169788461880378 0.6033628469563701 
Task29 0.007379518006608222 0.00685676171884526 0.02021367286209867 0.02180991880476521 0.6554233810801899 0.5646763930091058 0.8494641242089342 
Task30 0.004183197650460321 0.020402211854003913 0.02160405079554921 0.029401954677220885 0.7167887241716446 0.6762187821441584 0.840453383467886 
Task31 0.020832133007717475 0.07437148376917455 0.03758195350494684 0.03899231073557666 0.7158496286253628 0.604406168136219 0.8682258520925819 
Task32 0.03917211272544675 0.019054551487438554 0.013999461397262143 0.2147248500758377 0.7472577404617835 0.7668222247956332 0.9827269791768629 
Task33 0.05316190180068331 0.18185733726320286 0.12696828822562314 0.0013669793876283267 0.4150011258409045 0.33735686056804837 0.323272138810206 
Task34 0.030610237031916652 0.049814785174540695 0.07020436530758836 0.11968946820062593 0.40033448968499763 0.8211197539049271 0.8143710167313616 
Task35 0.01922131677365016 0.14270605598201774 0.015277322117336034 0.05364321990998047 0.9862449437573353 0.8185643657756954 0.6216898201570984 
Task36 0.07610653780523739 0.39198982641430885 0.19175201177094223 0.02032826091396282 0.965127126235015 0.5935017623763892 0.904529760589015 
Task37 0.0017393783514890238 0.016715848619360887 0.2071714316091962 0.06151458291925596 0.3593907206622531 0.7980671407067231 0.97630506333491 
Task38 0.08300981210610077 0.20826046476498367 0.09556105805091027 0.16818834061820084 0.8504719181439742 0.6006627502377802 0.42490617996859126 
Task39 0.007035856216898385 0.0784847592446673 0.02660902346696186 0.06292588870784223 0.6754128468318856 0.48630690361954176 0.6472192614882724 
Task40 0.0010213292846418876 0.0035541034100020326 0.0013154683991014582 0.007908389534437591 0.3253260558249402 0.8492807036757177 0.8553137792867698 
Task41 0.01693390096302353 0.03348280726145784 0.02660499266193916 0.010983828783496517 0.9499441535989925 0.821462384080081 0.9859677842224497 
Task42 0.06602852147970106 0.08478115852437984 0.02599876539226894 0.21895290410080226 0.9192872259134783 0.42670089505604025 0.42499990817680705 
Task43 0.0346245097392378 0.14491232659049214 0.1294886562336284 0.09549985050226438 0.7155345033857103 0.5628854631176798 0.6186239655341677 
Task44 0.07442712493632327 0.1851630106881292 0.051259199473724884 0.09135871041855813 0.6777354206495069 0.3324495193318367 0.9992263688291345 
Task45 0.08783110802532437 0.2706679711388618 0.06404922448923339 0.1928620498679351 0.8508080335401063 0.6568957866718006 0.8938832069648655 
Task46 0.02729602179973301 0.21398427156771727 0.013161086336014562 0.33991804784167085 0.9586894258330154 0.9259092054118871 0.35283613801708996 
Task47 0.0776054496595923 0.20563586777656828 0.15192886286760365 0.20940832487983443 0.7380442940182 0.4730565765040077 0.9376903439231916 
Task48 0.004430871686273608 0.2520811672587486 0.04545955150666284 0.2295791905527758 0.6576014786751003 0.45466329273275485 0.4936366851233047 
Task49 0.04347688888068027 0.12313978978107101 0.15957781523870504 0.029248310209898137 0.9696505947378655 0.3242386362063463 0.39902319717552426 
Task50 0.03580561394674775 0.04989105376882196 0.057476793665615755 0.18116407942928445 0.9149118922231105 0.6122221412012803 0.44259480329284573 
Task51 0.003441000697133178 0.03607818795270123 0.02952022382856133 0.05779903275072062 0.7313768610451231 0.8215301583767736 0.8124713755834134 
Task52 0.008842354122274037 0.04013443970792163 0.06739733837651574 0.02622034866825998 0.8313117105429499 0.9737803590533602 0.9332476837984982 
Task53 0.07702812642902654 0.1422817005888879 0.14130637041811686 0.06738185411034205 0.37526827789043576 0.6258031575519458 0.353129654450335 
Task54 0.06290894674272177 0.10102279041936393 0.18512699218876236 0.2943605671039277 0.8100680796327109 0.9520922401750187 0.9079099865139197 
Task55 0.02725116415536081 0.18912411091645243 0.4533207562732114 0.31608919141650405 0.8677021333926689 0.8676393770241839 0.8745551356547996 
Task56 0.005210690279619622 0.04747823306472296 0.16732743658925656 0.09815957148400091 0.9633568370352985 0.3942504053703632 0.810779458707894 
Task57 0.04694209737486402 0.13729600042500228 0.014010777542826444 0.28049439068065984 0.30119143792507835 0.3399463551721719 0.8636974766794987 
Task58 0.1287763050017758 0.18061596526569604 0.24078231966019698 0.24739100552574045 0.618970791313824 0.9197425183854724 0.5802923735156611 
Task59 0.019425455157941793 0.06665338204719459 0.05178960383724308 0.0462822347324088 0.9636854513695297 0.5129907005773704 0.9739824738824718 
Task60 0.1314638658977281 0.03976818022031519 0.23928210219043586 0.36667840154113196 0.8139061645017691 0.4681044929316582 0.3098958183374285 
Task61 0.022420484280810987 0.054639795342303656 0.08678338600779348 0.12223695593206152 0.4326294541069492 0.9965550396333593 0.6713868907434704 
Task62 0.012464276732318738 0.07412480335219043 0.09175230929195992 0.08380145690033773 0.3826150906293137 0.7116983144827849 0.577755416945878 
Task63 0.0005983881050616222 0.3137055741677015 0.34069457790910107 0.23692156444154397 0.686757897056647 0.5135212820578914 0.8983407809885078 
Task64 0.15407684445490194 0.3672954070657461 0.1655227730289928 0.2737923511521293 0.5288885839406134 0.9841440399850787 0.8238513460780157 
Task65 0.06672320498855089 0.13006879918383232 0.3074670229082637 0.006195641097165593 0.47936198834035976 0.9647743421084947 0.5231549106826388 
Task66 0.06306237392011019 0.12472796340501562 0.013113808141545053 0.17738663683820638 0.6237526680429133 0.443654254831527 0.3486745999006126 
Task67 0.053454072007121226 0.20264286108325255 0.22905512726949637 0.1985616126577658 0.9339925303137844 0.3857617819929111 0.8569979805227028 
Task68 0.0007221336801835348 0.0025763820340351214 8.138268729239948e-05 0.0018687752106726736 0.7001097552984784 0.7644433090823837 0.8816250046324403 
Task69 0.023617306350717945 0.007800163988127216 0.08706517002786895 0.057639655103316215 0.6328336096008309 0.7122624128315806 0.6633196094180465 
Task70 0.07895846401667803 0.06157539910423993 0.07030934079436992 0.22911560821631 0.519648397810612 0.5151884357596193 0.3974331138964049 
Task71 0.13405270724544474 0.018385990503797765 0.24290399447059588 0.28936426905066087 0.732199154512791 0.7134579207823807 0.8194178283098761 
Task72 0.029862900648665768 0.0678087388483079 0.2776210505803861 0.26456004280762657 0.7749696088957696 0.9791173194838949 0.6823925598639196 
Task73 0.0639729768451987 0.09695488675700482 0.09123148770668693 0.15078635208836627 0.8234717571160355 0.5563080439209633 0.4307088109085079 
Task74 0.03942599084137371 0.17999461346496046 0.24606627273558 0.10658831620846008 0.790949553962393 0.6083075430625916 0.8188261974152677 
Task75 0.08821479657784848 0.21992060462732896 0.26569503394941607 0.13900194906686145 0.9910331408964184 0.7684554831108652 0.7005915004173912 
Task76 0.08737502417825502 0.19454444410655372 0.1648674936887387 0.23775305648626857 0.4056332403908244 0.5109485402058568 0.86893958107196 
Task77 0.12072146753227242 0.1224541305350655 0.283146354553449 0.2658626210813441 0.990150629658906 0.9059172334768015 0.4174032451495562 
Task78 0.018511225759770305 0.3131399276109368 0.3880473906389743 0.2784320758415605 0.604053931917099 0.8519339274567757 0.482826139177481 
Task79 0.11103568781137631 0.2207977652317054 0.31619507891925447 0.07100660510157085 0.49363973937232064 0.9340221246522209 0.8773665879790999 
Task80 0.028131813801292913 0.013524765013476693 0.0538945050634349 0.06719218118116949 0.3000439307352839 0.35747190343924007 0.37637685528632303 
Task81 0.004994141461524543 0.047742411010570765 0.001009612640081048 0.03467094972804173 0.6983186556975326 0.4970858944789256 0.46974498261701825 
Task82 0.11393216110272925 0.18477300879509942 0.17700109925719187 0.16513085965351113 0.849483404994406 0.7904160580286321 0.8513016696692164 
Task83 0.04067666227823915 0.0025310416669639957 0.04806548430430246 0.12382476955010445 0.9284299365383817 0.8853735494923729 0.5594725615662735 
Task84 0.0684869974716984 0.34702324544308777 0.10507972494545947 0.009877494649454428 0.9096347075548012 0.6315940274602131 0.5333919866603303 
Task85 0.006339854056428314 0.016032494307789386 0.00827473784915483 0.005991871544981048 0.7318884629641808 0.8806444880440585 0.8724390239371833 
Task86 0.1222729914963574 0.15022576182136266 0.09303013586725277 0.34417039970114155 0.36793620215855233 0.6772514563190214 0.7061483734590893 
Task87 0.16875053501314838 0.2934292961592506 0.3406476665325831 0.1952356246656344 0.9141706095406608 0.5593342069954532 0.6299225509149279 
Task88 0.14540086395083124 0.310876697085146 0.1414789428195285 0.3065366182663126 0.6253674255303474 0.8147302713133446 0.5740909318284564 
Task89 0.1518612935664235 0.3192142941840496 0.13039135472908522 0.2531911184210903 0.9299502053745552 0.508551058936265 0.7925190198018148 
Task90 0.060076786641790614 0.06605032143888831 0.3297273363800468 0.08236564827986528 0.3047568391900646 0.9674624850237887 0.44201052681103636 
Task91 0.0006189733383384816 0.053546550223961584 0.06337033193190925 0.06190732661306652 0.9727764579770874 0.6311125748343456 0.758149490997472 
Task92 0.04933074701144088 0.09490618409011593 0.07610146752004164 0.13000428027751296 0.7352317603733899 0.3670681952307841 0.7155065869730743 
Task93 0.10976881346249001 0.20658306590334605 0.2902500791159861 0.3106052970871026 0.5638344907095518 0.8345233294371341 0.894880205594353 
Task94 0.016256418802431248 0.24319477246399718 0.024202544251906582 0.6700348974285344 0.699197007371807 0.5895896506535568 0.7154127925197702 
Task95 0.1306316004123949 0.20538904341722483 0.3718099418438321 0.02322141918720995 0.6110906996098195 0.7123671800253445 0.5898588868508496 
Task96 0.12624393004931656 0.19667988973273198 0.1262052454817719 0.3031578645403092 0.9860011079682143 0.5135501580874791 0.7661994609671525 
Task97 0.043113387256960595 0.10345845029144494 0.05503684717134559 0.08066329167224506 0.330019292373195 0.3702655480294509 0.4202786395854479 
Task98 0.13823780451530626 0.309953902033295 0.27128549197782836 0.20187433684574485 0.698546174578225 0.6984572601936938 0.6991887653380655 
Task99 0.0002475166381897154 0.019210299489942923 0.04110528520207951 0.004723536365324404 0.7446875382710441 0.6782422868930675 0.7393516577324992 
