Task0 0.0625595061315773 0.11532638588565143 0.2714577088433148 0.08545149638202777 0.8174338709339495 0.6984426079727001 0.837514821661745 
Task1 0.048312660579339764 0.16282058822972748 0.15681019063471113 0.07034357532504762 0.38794337337440205 0.8087084693829085 0.5750448748582311 
Task2 0.06292843164405673 0.0641230350282824 0.1730402260918134 0.03131469077243827 0.9963174743932268 0.6831571883980863 0.6675053332378413 
Task3 0.0010920318674930121 0.02796884527195242 0.0065829230556894505 0.0024854974605123216 0.9635816295708388 0.5974484972487288 0.582733582519897 
Task4 0.01719146017289779 0.0983429831271432 0.12482993568847923 0.09950747840242785 0.45751261509670454 0.80122238335819 0.6875368887138624 
Task5 0.04479198686178703 0.22323146635290714 0.28573589285038475 0.102376534591279 0.8216080225071896 0.4730254818526203 0.7747740617440773 
Task6 0.06447052090979183 0.15136354616148784 0.052702979647594 0.06596447480168574 0.385761374319816 0.5973139943543299 0.6210013559050739 
Task7 0.13401323315950464 0.10223373645313139 0.22211890354546077 0.3130134727730217 0.7505559892529585 0.7881824051195431 0.9728476908350177 
Task8 0.004693145738613228 0.029843720398600563 0.02644542782283135 0.01432528835461047 0.7196084539555901 0.3112549470260201 0.3649939778375456 
Task9 0.002777992977841301 0.19323427888950967 0.3730512848345565 0.06946652740187792 0.7897601536027637 0.6929289121971836 0.3460144274512368 
Task10 0.14262920547693994 0.2290285434138419 0.2133220485303109 0.2770650129855932 0.8605015021707558 0.7683686986063671 0.41515305566039795 
Task11 0.047946053919472174 0.16760146829885667 0.06878496860116355 0.015086645139195031 0.586827236424827 0.6679918989692999 0.7268483821113227 
Task12 0.0080284421770193 0.07854855878864171 0.12019183549901788 0.16892134567779543 0.988215767956941 0.9895606632591567 0.7972966954422607 
Task13 0.08733585844089273 0.23031382467892833 0.017127241159494183 0.1221189624022264 0.834251772008086 0.5575047102090387 0.4021952840031612 
Task14 0.1405409026280676 0.12681420353893033 0.4079239855569987 0.14457096238413328 0.3717741930213821 0.5877594009243841 0.4431128653148459 
Task15 0.0015614956913029916 0.07754493367641176 0.1624249841620878 0.10116526973826849 0.8716606408941721 0.47879945639848387 0.4194303034578624 
Task16 0.05049138790697476 0.2762763321535993 0.0873879387193202 0.1475388462605182 0.7075102141061411 0.3527789423746212 0.46737733941399806 
Task17 0.10059636836709888 0.07405005464747046 0.3822393929724558 0.3289369975422706 0.8150641277553605 0.6107500290548218 0.7422069791130956 
Task18 0.04767290045210484 0.16688946979196467 0.22472049879737047 0.3297875460075472 0.7992834316938616 0.6404268020890564 0.48888856061513464 
Task19 0.062916650562987 0.2659650378352477 0.2247458908383243 0.2426331550975688 0.802471617284916 0.9169311256468253 0.9524888277630212 
Task20 0.047388688823366734 0.24960427934201904 0.06418890789713133 0.08850675411717915 0.6149775867450399 0.4724360010636688 0.5643931152167694 
Task21 0.07180082162623648 0.23798841424506031 0.25352229431427936 0.21793571247721003 0.39371722955571864 0.4960563081850492 0.9278894150375911 
Task22 0.09373416768191827 0.04851237987708054 0.19630395514535046 0.15372431336039202 0.8338881997177405 0.8964512746987869 0.506662183249343 
Task23 0.08111277553460687 0.28390360835833 0.40628188976219876 0.08350584463161204 0.6560563718661145 0.7946978243221827 0.4835147264729254 
Task24 0.0421808190022192 0.05707568002621256 0.07607552077069198 0.08563449710552495 0.5790916334972627 0.8190630089231741 0.33597834103998503 
Task25 0.12557329845684018 0.006173152033869666 0.34783332788481447 0.46119573686637777 0.5651687945337973 0.49926635132272185 0.8521860432839006 
Task26 0.10699475123033239 0.26159067591941615 0.16079764709935446 0.165253936124978 0.9581017413487574 0.6955742300069641 0.3312514610444581 
Task27 0.044354492007086035 0.05265560113020765 0.28206967103547925 0.23394882655461519 0.6726646003425744 0.4019475538392837 0.836164190012991 
Task28 0.07386768136725905 0.3753325221123635 0.00036451414723984887 0.19815757396661202 0.6612430458650217 0.388740090847288 0.5691031441562073 
Task29 0.004439412510449749 0.1678269875257491 0.01709214233313413 0.007842433874503226 0.3916126182116263 0.4488687424115883 0.37162739131556083 
Task30 0.07516615490624651 0.22680726247021138 0.2906929880124514 0.27067179990505513 0.47436435690175965 0.39957211560363004 0.7071075747801799 
Task31 0.048009586518745456 0.005627556934396071 0.10863029985107407 0.08268874128573388 0.7902313337420782 0.38256875689958514 0.4183822571976798 
Task32 0.06360120642924343 0.07493558858764493 0.0552745783201363 0.27077030395655344 0.7768054342858279 0.7070352488768228 0.6623056474442922 
Task33 0.040626381594140754 0.07185684679186409 0.09029328262513034 0.06931436102071326 0.6430496430302357 0.7895183611481791 0.6852614114720477 
Task34 0.011365480999499368 0.05394130601963149 0.06588286292801238 0.024695073852746816 0.7990972718144549 0.7954227666767615 0.4884619216802433 
Task35 0.04498525803070795 0.14417283638007153 0.1560105455799401 0.166971090368228 0.787335921577073 0.869080787361532 0.8989813981087402 
Task36 0.10024679109280628 0.2550694020871083 0.2120243213923519 0.19275844931179392 0.8233839222425781 0.5672732812082107 0.5428101078592826 
Task37 0.032072633392092556 0.08792874861180774 0.05132535633784332 0.06191334928398316 0.6844293754680792 0.3957887711865851 0.8254880125713071 
Task38 0.01665783457788814 0.016237426639503914 0.02671300922034863 0.03493423343067533 0.5832334283311695 0.39306703879163524 0.9751737191494223 
Task39 0.0015585763006512765 0.12139510082909435 0.20129197464258688 0.26617919376970534 0.65890770360663 0.9794119331837021 0.47016170094304915 
Task40 0.14084972491097164 0.17728185037859948 0.05445637587263159 0.3470355767601587 0.6015581474464727 0.7340313865428305 0.4322410944800865 
Task41 0.08521583609309946 0.18748512362368025 0.2483327621287985 0.06366666672661396 0.438417291112181 0.7701380532754889 0.5394328109570374 
Task42 0.024773969825560287 0.061754902892639574 0.011167320262436962 0.060942090343057524 0.4229896375809551 0.9444540088554216 0.3539602755191248 
Task43 0.037174292627476714 0.5334109914345564 0.2214715610469584 0.02980343517869454 0.5842378354398909 0.40296959471979155 0.7811539230606752 
Task44 0.031057146418382593 0.1870065659583284 0.01396705590316973 0.11897889447648374 0.9780975401938374 0.987946213293166 0.6416844308758244 
Task45 0.09261177606116953 0.1553368980086991 0.31679998261427195 0.10300949892039188 0.6128173573130796 0.48575797053261155 0.8883215959688378 
Task46 0.09430849654830589 0.20691919276657056 0.19597864464374262 0.13695352202098562 0.3332373349254202 0.39083115296557813 0.8099553407095423 
Task47 0.10265128411232173 0.006497716535735606 0.18602269821357623 0.25887985079434406 0.5796636790356446 0.8772336371241873 0.5147089838601674 
Task48 0.09832400086139409 0.1347137896992777 0.27117770358090715 0.41719796315917895 0.4073997168579606 0.9995901255980668 0.9645938310766313 
Task49 0.1190176894837289 0.12647197814307048 0.3018353737192838 0.0885937903033997 0.5842667503353081 0.5018686771508948 0.8507321880017411 
Task50 0.00497139642063564 0.13023680762357437 0.06472129388357382 0.05528794327603865 0.8456716865553422 0.894705019078897 0.3104303249193409 
Task51 0.013913615373904236 0.1625340014892369 0.2378673228977889 0.16331567279672568 0.5160705058725403 0.6989876566665107 0.9115962004741927 
Task52 0.09422415523594234 0.1010998879963378 0.0019206770079997274 0.4846504726514303 0.9522298719518898 0.9744561202641331 0.9181938111768773 
Task53 0.08213841606829059 0.37681903069883405 0.21523458212819152 0.05331152201414283 0.6011009145707918 0.802574260663165 0.3296075825091589 
Task54 0.08027075603510095 0.3179832041901889 0.01747198627011794 0.12014257818012844 0.5134675524428245 0.9746835646671037 0.7042163097533267 
Task55 0.0347392353747331 0.18814392368459404 0.011728456645407264 0.20250416363882154 0.3893747717559896 0.6497819324713215 0.7777978694801608 
Task56 0.00309885518777491 0.013515629898578076 0.00236203683750842 0.009801740520546436 0.6644724496584365 0.9994734709613964 0.8278118647088644 
Task57 0.08760935560807163 0.0703236564739773 0.2839843584681284 0.15311774488922467 0.7218364113181673 0.4731014405201182 0.36206262039168924 
Task58 0.03883688925806215 0.15608061594084643 0.09192863517025553 0.1359074699901276 0.9189080616851377 0.4413862360458169 0.5387425648353495 
Task59 0.1921846723928715 0.2889843913109068 0.26494408037003586 0.24942095519181626 0.30672786825621506 0.9299764716824244 0.9412469073143832 
Task60 0.08573555785988812 0.10218130740530446 0.5085321231803563 0.08407710015842013 0.33212130277896107 0.9830490847327988 0.6754197292757682 
Task61 0.008849721807803048 0.03132281938323981 0.01363421822456698 0.027256872971448205 0.6185767275565797 0.839408407962799 0.4389145315814772 
Task62 0.0705874465680833 0.09750939658121775 0.15741503237315327 0.5973635302486665 0.9890474574139736 0.36350901340436703 0.3815219168947686 
Task63 0.07651022864521106 0.16835263557242347 0.10148264937677916 0.06709653809385464 0.4406226258485947 0.7665946699154162 0.42847604615257023 
Task64 0.12295081074560842 0.1887337781307139 0.3193252503228619 0.2567718689261129 0.7223602381674374 0.57673481082655 0.7660857753551118 
Task65 0.1466891136493241 0.2095480282022053 0.2545073361588291 0.3652155990175383 0.8619878836854356 0.8172568148023422 0.3041567649294449 
Task66 0.02138797417312998 0.037974172165449196 0.12293552707498717 0.03825905082333164 0.5029803542663984 0.7583618161296903 0.7988949871944186 
Task67 0.01957686881747292 0.11896428806143941 0.06491853680278703 0.10424893921031005 0.3504750589717986 0.6393694289240032 0.7217458079926261 
Task68 0.06047934302767985 0.05233595490889609 0.14444943161761767 0.09055975360571823 0.9056957153037855 0.8553880988845515 0.3497550016093968 
Task69 0.08927223230411756 0.34219145113173394 0.3387121206758181 0.22400348212618537 0.7417228544091186 0.6992476102129112 0.6868413339452011 
Task70 0.08023679650333454 0.07078048145462434 0.28637935335354897 0.17709190121611873 0.6521687319159712 0.5393772637690613 0.8330394398005492 
Task71 0.013715135241849023 0.018882723468923338 0.03268997376754078 0.0336506255792294 0.7680206221555079 0.35182419602653725 0.5807697842580202 
Task72 0.00987776536993906 0.010033707137572142 0.012281234617604728 0.05952756359746322 0.8093283730655958 0.6191477565513215 0.767291599622197 
Task73 0.020427188912430314 0.02167747947455121 0.3740071352304025 0.3052437951137629 0.32855780109056776 0.7562827242414749 0.3665494396988801 
Task74 0.04075009139469096 0.320650599571876 0.11460484382978421 0.14759535167677548 0.3845939163301179 0.8154153991628728 0.4699995963438748 
Task75 0.0439607424815257 0.07431389303796819 0.045745938252572255 0.17750098995964372 0.4030501149208587 0.9585387549913187 0.8977158374459242 
Task76 0.05400069265644222 0.17778299773239734 0.11872698560157131 0.6362318584667808 0.7184503694560188 0.9109965789022223 0.6302866510045739 
Task77 0.16377771398459895 0.3607949950525465 0.07308558280465084 0.30004347129744036 0.3114135001323939 0.3257436232529305 0.6548319090030289 
Task78 0.1286067025145148 0.13754308559956016 0.27616721731450883 0.22869766847974404 0.4138293960311922 0.8129557934201752 0.3723903898806827 
Task79 0.08030666389879115 0.09534655113748247 0.15889848457727665 0.13778205945930183 0.6107321167102246 0.3605527685747452 0.8041944606108873 
Task80 0.07075987227118499 0.13464051623347617 0.07778722456089171 0.10733537306154214 0.3326557439091625 0.8766983445142116 0.8379671386633452 
Task81 0.16681648279431024 0.624764529503366 0.07622168770975674 0.0824932595131533 0.6200286191270898 0.4255143148415431 0.8006028711940656 
Task82 0.05795301160713649 0.11673217452305051 0.007080064980540687 0.7485505024766597 0.3712662455705987 0.599847180046778 0.6191006593402353 
Task83 0.022675933338619222 0.010751758007645907 0.15466675648221612 0.08702396148235984 0.9456626683128109 0.9649125751082124 0.7368140633370506 
Task84 0.06994014070952366 0.2205087014074886 0.1213907960894712 0.3319230046946311 0.581220533274354 0.6832350515591696 0.5072498429492078 
Task85 0.015221170395409978 0.0394047240732004 0.07661315992244058 0.027118714622933724 0.5989129599272953 0.3874753831509279 0.7779703380982976 
Task86 0.007530662637459252 0.5006953274246274 0.30339557956426566 0.1320347728263587 0.8155309746662895 0.9661963931709636 0.5988568706590764 
Task87 0.15850696767891953 0.5264511464780096 0.11145518492278135 0.03516346019356206 0.40009119927825576 0.6446990914440971 0.8172930258084965 
Task88 0.01001962742126314 0.008181996507597093 0.09891896882670022 0.060284120100227524 0.575998875448748 0.6911849503484252 0.4022610482913679 
Task89 0.05251697638090589 0.09857464579582521 0.3928932962153187 0.11464463156874351 0.5352015855601756 0.4755007681117639 0.40835822197249194 
Task90 0.004826547184834627 0.11550442822197377 0.06571143961881305 0.07674726298010641 0.4800484439915548 0.38838958051886585 0.6729708831505234 
Task91 0.0016581676689491568 0.0009218456343178066 0.03289811319059174 0.0304382078818817 0.38252953976546183 0.7632687358905459 0.6914134574668536 
Task92 0.06214597881456204 0.4101276447623009 0.04828173073753208 0.29270473033194716 0.8568586214376266 0.46471899691142415 0.7031632007700924 
Task93 0.1473501515950883 0.29446181330812204 0.4216204822691473 0.012204493231248361 0.5628153297331688 0.8208809227036755 0.5479546374077193 
Task94 0.025963058792154985 0.17419874194019833 0.23071981569846658 0.1370078381044186 0.5129443488842365 0.6605642100290071 0.40956782725490604 
Task95 0.03982180165878137 0.09311172832033436 0.11328049095289672 0.06335493340039418 0.7603696747186629 0.5674332135679173 0.6069733938450171 
Task96 0.057055089324172345 0.09106550294251971 0.08386069286577584 0.06844555190026297 0.7339843633230032 0.5785417371134751 0.6113473340545651 
Task97 0.00016597270878137847 0.0004733655902582216 0.0004337615722648564 0.000523000841984183 0.9429414697248426 0.7529271159937312 0.9585735014232715 
Task98 0.0157262267568073 0.06821408331426036 0.16866304709973903 0.3577928673426691 0.7687782635153513 0.6383964910952706 0.6519393277856153 
Task99 0.059103474418408644 0.19309621083446588 0.1800568503462456 0.03409055914244863 0.9591652341953163 0.39713861874369294 0.9861773291665772 
