Task0 0.004956586286332367 0.08155090864877629 0.21998470532905218 0.11664703184970221 0.7995719474739436 0.47545080234837006 0.4927092905372704 
Task1 0.060230212576231526 0.08756696135963447 0.08680822198773093 0.10243116107133982 0.9458158102499736 0.8410918812909547 0.9948083011557107 
Task2 0.009999594939892144 0.006724391205285266 0.0334828527724257 0.024987746091292524 0.6842391897550932 0.35224442766497177 0.9724792957522901 
Task3 0.0226388751760603 0.5578861985566775 0.09591403607146405 0.11766283087482168 0.7653279323210695 0.8566760009949304 0.3577801657083394 
Task4 0.05308279099406317 0.14245241446839352 0.09033779562890198 0.16093630240890175 0.8834806008286611 0.7535658124058684 0.5887838855887101 
Task5 0.008812534470497709 0.3593617948445006 0.23580870278877675 0.3039656647492612 0.7213419829326012 0.6002050780329798 0.3433764121882928 
Task6 0.03811221628617414 0.16720384250249942 0.08411098397010038 0.10361577601216294 0.5530086151602089 0.9484847169632795 0.6116567446602068 
Task7 0.03750957452974583 0.32501355399329757 0.3388156299358087 0.186497659039299 0.8774821105821462 0.3273179415631425 0.9149679193418649 
Task8 0.12043109775047485 0.2373364948164752 0.20386691269763754 0.10817257846803953 0.44324471072348914 0.7236995468478971 0.9734758452578027 
Task9 0.0011493523964373924 0.005968866977563053 0.009274551231088538 0.01508395691831249 0.6827025991601083 0.3871642770382441 0.646909913038455 
Task10 0.10608185861822682 0.042490384955797746 0.4137064265712946 0.3248430085229985 0.4705748971558385 0.688416021907035 0.690113793407245 
Task11 0.04867891856387671 0.14454034689247836 0.092268062826198 0.07427616696435438 0.9805169014902464 0.539578572503671 0.536349926223768 
Task12 0.08638289675042976 0.2695125591382048 0.3771194600807456 0.0064948087743604685 0.38228379182955097 0.36990256147945044 0.5210998541718577 
Task13 0.07275479433885475 0.15083664128408067 0.13542742407721214 0.3136843677962762 0.42396839605843656 0.4015443410010687 0.6231850205027933 
Task14 0.005996651850958019 0.1181555881940126 0.06975098547819256 0.010714726558688919 0.9663157925617547 0.4787560405864305 0.8390567633951462 
Task15 0.0010121451073007472 0.006740016340498021 0.0062966270597581584 0.005067734896680601 0.3469324348684746 0.6836135496009059 0.31262619649066287 
Task16 0.04581539774320216 0.17779094067049048 0.01257645762026732 0.025270159666770414 0.4391453835989526 0.6577326328372055 0.6247449901255833 
Task17 0.0966059039282496 0.26130589974441604 0.02787694979793389 0.2938651428439804 0.7584434598659568 0.9958503562083643 0.39093923074345804 
Task18 0.04500235584557504 0.03713442799992858 0.013079371605036201 0.2953535355893363 0.49397496069419333 0.5789150700747577 0.4930756563591341 
Task19 0.0459115107810418 0.0326299430264836 0.07291465614928858 0.09056095963679316 0.8796801653779898 0.3949197315470837 0.6703627383672895 
Task20 0.020837529333645594 0.14015866644274924 0.13286395940330245 0.17217989307636364 0.6298385289695446 0.8976764923120626 0.6716358434215888 
Task21 0.09570546800527555 0.158252926487335 0.21032370441437262 0.18583774870227965 0.5982154511125259 0.6141404575221348 0.48851607901534455 
Task22 0.005828171415733216 0.022731993031568358 0.0024881532178909612 0.009851099708343662 0.5746548362156823 0.46152699618009135 0.8743434051353032 
Task23 0.019779686620352517 0.058950406715239954 0.02273794777990913 0.01571519566588748 0.9178571625821137 0.37741670284982365 0.6477678033485729 
Task24 0.04359577457430784 0.001979660840296489 0.14561095055136478 0.10559338214021478 0.34714681437233547 0.5020726148038606 0.4283790155654229 
Task25 0.03714322983467631 0.369309242752279 0.3398699735707143 0.14039606265996224 0.5353568730936491 0.687400044195884 0.8840547778288359 
Task26 0.02314130390021307 0.17708783764055752 0.09745136775205268 0.22409164455097008 0.883709880521649 0.9108229502566716 0.8232875101084287 
Task27 0.06968725453228689 0.07371108565333018 0.06637997409169458 0.28916335457663406 0.4220933550614052 0.4754620298413881 0.5671859414912575 
Task28 0.022441106827583702 0.04945211438520376 0.05170013584896518 0.02614494804578051 0.40651432281766847 0.858524437794236 0.5226060461269543 
Task29 0.0923464461091582 0.1961092161889372 0.07482586245758174 0.3125764526000485 0.6449663430586567 0.9232689364534945 0.614667128575805 
Task30 0.033503768245396595 0.09514648123050772 0.14366133750247612 0.1378253878087785 0.8495044404284122 0.8068754916224152 0.5368634140304565 
Task31 0.0083607981229308 0.055255494651167365 0.45843438894647126 0.15546709370557132 0.3350492467301347 0.5936233570499514 0.7662790043338106 
Task32 0.13229371298043432 0.2512270361363282 0.25560764463709346 0.12640730329732497 0.5201299695696314 0.5236737128303431 0.45588302142761566 
Task33 0.010688047624914503 0.016269960546530057 0.006793258232400988 0.02264040244967165 0.9919121138093514 0.8501176241909574 0.884768768908405 
Task34 0.013866187359270834 0.025948090350974413 0.0053803945651514605 0.032356677613813715 0.6748370971992146 0.7065487190277855 0.5531351056714319 
Task35 0.03886700171184022 0.09932397690291586 0.16268249341503682 0.18362488326780274 0.6585684018416873 0.3283018824739967 0.6571569800105204 
Task36 0.020878985133967482 0.07480484015519427 0.13109215621569983 0.051968249443406334 0.3925729757231774 0.9738951091284411 0.7508491213616286 
Task37 0.05048400235805721 0.09624537038260185 0.07761866774474367 0.16218476974163276 0.5727971630031228 0.3717404449034075 0.7231652540082409 
Task38 0.005299568185646018 0.009376521549970537 0.00572038400211269 0.007965950576527594 0.910059147250593 0.5830642270207994 0.6110053567568976 
Task39 0.017772047486068587 0.07518566253127734 0.026489117701058367 0.04362217329031052 0.32855784068111454 0.9850357781398966 0.3785947292029843 
Task40 0.044367455830195045 0.13847037005773996 0.0953159011623052 0.012066454902780164 0.6470664967909114 0.9358361552646832 0.542028792902034 
Task41 0.023871362899177774 0.0027643052684715084 0.04425474941501309 0.08845993000901928 0.3534012170518959 0.9732126938811605 0.3476090593975279 
Task42 0.05855293341825453 0.1738526487690599 0.005983400893011178 0.1630652813769173 0.5990061994860761 0.5395368693616738 0.8282940167881674 
Task43 0.03272728508850466 0.006845470228311069 0.1088766572538914 0.04589497951228157 0.812322036590668 0.6627693942423795 0.70461175693648 
Task44 0.05608599476551666 0.093725453595138 0.06960049940956539 0.06514498066880679 0.8485056984164632 0.5820646683718849 0.5199599308947218 
Task45 0.05851711396886471 0.2019981412434104 0.06816610924486391 0.03741982305030288 0.7912495814890281 0.6511510463832095 0.7031269942054574 
Task46 0.138458095385946 0.24642624023688764 0.27174078006521485 0.1936338206637463 0.7092190599586896 0.9004494764144064 0.303570624791489 
Task47 0.07672271271592193 0.1364919342948372 0.061941583940699076 0.12249377837411572 0.8130605645656825 0.6440529881396208 0.4303833509185597 
Task48 0.04044787343173818 0.17923476386311346 0.213905708104323 0.13066374378539114 0.683788955831048 0.6457985031223763 0.6578356370169445 
Task49 0.01749601214848654 0.13901118011686878 0.10254242077326906 0.11669844966588663 0.3056853438365519 0.5494278118966642 0.8157459556860189 
Task50 0.051088546407433606 0.15882042067594107 0.10081545809325693 0.4100524123722075 0.39909295850402915 0.9950430708192319 0.3479643977584425 
Task51 0.13717979847991207 0.3379620669992912 0.2957985217567459 0.0007288637661953323 0.6944853270848896 0.9273183931742965 0.8188060015183982 
Task52 0.06114689170577825 0.3046906283366401 0.32793270914457046 0.07405172708846834 0.968670322322106 0.8108834882884848 0.8695314248081443 
Task53 0.08204594816965421 0.4047735730035543 0.019746478415583444 0.08881058647996631 0.8212207759140318 0.4433427072516107 0.5760466854709942 
Task54 0.15619579893236116 0.34645274389941716 0.41195251539992117 0.08170807774667514 0.3938602209177624 0.49427170431115985 0.9246278798412881 
Task55 0.028660599863928396 0.23035732994814961 0.1397514725255445 0.037482562181816566 0.7607332514127314 0.30539695726681004 0.7823181854075191 
Task56 0.0022062941009536948 0.022435407593818874 0.020249869353485137 0.013781099766660958 0.3286526949369427 0.7820081636400849 0.9511656184190385 
Task57 0.0539994259918897 0.05529048930008732 0.13106488255098553 0.13747509183973336 0.5600413879561099 0.3558383052107312 0.4353815561057943 
Task58 0.02978561956384904 0.32101446793280936 0.15895026398693943 0.33086549047255565 0.3286562949262426 0.9717466187135786 0.9747829001385986 
Task59 0.05257915268032945 0.025470636520327862 0.04999011468417914 0.1686277983397901 0.8272793311085427 0.587509049891388 0.5345135513254269 
Task60 0.0038781144546833585 0.010856423097186601 0.005442693739584926 0.004392419107299585 0.8518202407345721 0.6318691141902136 0.7678556814179848 
Task61 0.0016795052931985667 0.5378941510755137 0.2249117145903777 0.012371714390353407 0.6123227023186596 0.6046708931818934 0.6523887318791004 
Task62 0.006192838241087738 0.05633459189101262 0.053457361878059016 0.03463003390339031 0.9900866287978631 0.5752272365275912 0.6004344090424261 
Task63 0.028891045239222087 0.04278749314249872 0.049826287758597126 0.02713269031366211 0.5676144450169824 0.6469029771405068 0.4446121278101496 
Task64 0.03573356905454833 0.03687338198661252 0.08741506633021193 0.06088557344097556 0.8664568437467066 0.7777617756508777 0.5011759730164647 
Task65 0.123062456594837 0.09404921645179466 0.2057222479122009 0.19589606500185816 0.6293664419128391 0.3297475118891792 0.6001990356295592 
Task66 0.03434393455728383 0.1497258809988797 0.4307787783900701 0.12053934295507622 0.7253193748373987 0.6978792772892117 0.4042220175024843 
Task67 0.033584799950615356 0.13920101916087885 0.12714220993217407 0.18833142757119303 0.6038815263765893 0.31523702646451723 0.3556445516867275 
Task68 0.02572581319343401 0.18559517998156516 0.23100335202384753 0.10984135905224966 0.31910880781830825 0.6384030568060004 0.3777706094634543 
Task69 0.01589689262505898 0.09428548971104742 0.13077659460125018 0.12611354210565298 0.3487266876548465 0.9310946317130122 0.31849983745412325 
Task70 0.08571809940574768 0.05004582493586729 0.27061581637353666 0.3306287931941358 0.9681203521498731 0.657505551565114 0.524859713457049 
Task71 0.1210114310639042 0.22186125265047085 0.16703672666423008 0.4221557648730772 0.6958759263497518 0.5449957108629793 0.9154409125586798 
Task72 0.023944717209609147 0.2178225126814473 0.2284354146350177 0.15424014714370293 0.4403398427875988 0.9557968368033078 0.7828411727456086 
Task73 0.003074755703324842 0.06939856862016165 0.08513378288733098 0.07898121868674027 0.7128476327470186 0.773419374625774 0.8638418939830128 
Task74 0.08849127358497093 0.24007663850815714 0.07357963430130718 0.09247705210313545 0.586670407956259 0.4552408244070361 0.7147102411560069 
Task75 0.0448443717616529 0.1932451722157863 0.043112447070844516 0.08372680275901459 0.6495560952526378 0.6851426733657822 0.415431740800876 
Task76 0.005459306580286412 0.0684057738984835 0.04399604786541696 0.0539671760438398 0.31315303071185224 0.3034323562604713 0.8638243204094829 
Task77 0.025913006017310666 0.038930187479929615 0.012159787301792083 0.05394295440675498 0.9423315087763529 0.9824251546167402 0.63225991192678 
Task78 0.13343486784489358 0.16067551457649498 0.1112239300774334 0.3032098917394238 0.6649128112435103 0.8166490926103547 0.9738594553295805 
Task79 0.006243399778746865 0.20295589496273825 0.18332478879770797 0.11366959123461445 0.8867889205042694 0.6151362295875435 0.43871321783891815 
Task80 0.0558351380033918 0.6659760994434605 0.07623244699820944 0.0575391360530731 0.836106889965972 0.8216441559358072 0.7474143272057643 
Task81 0.18899061422176702 0.35656643843446223 0.35349514451648695 0.06701079476411444 0.31221337640266117 0.32506896546999964 0.6469916872458483 
Task82 0.014521704032019628 0.04169259274071141 0.15304658331487117 0.08071424555680266 0.5912079148584919 0.7155498276039225 0.6765619040259236 
Task83 0.1198195102170381 0.2878753561838845 0.17635618419836283 0.18705379078108428 0.822388597318731 0.6532799546384153 0.8290692327315661 
Task84 0.02429624166027963 0.08169508811231578 0.019806258378395385 0.04120984250201013 0.551871688781999 0.9233252768186795 0.4308734247532594 
Task85 0.08632323673662988 0.0007987206326672325 0.30529899052074166 0.2142106733662053 0.6037375302292045 0.9080933518026892 0.7002961362660775 
Task86 0.031715793534406234 0.3946659370378208 0.24603938155804506 0.1329391100225354 0.5738126682858258 0.9029937268811901 0.7641050848650875 
Task87 0.008473018736020348 0.2959407797129412 0.18322997742668198 0.42899338512984553 0.6635667251521258 0.3337744238138253 0.8467601086964025 
Task88 0.056295452992399034 0.17523326351675483 0.06331942279724512 0.17551042470403003 0.7786023800543169 0.4534352232207883 0.48248625876414386 
Task89 0.04007380543646295 0.011606173600742644 0.3357174822716348 0.01862089876391481 0.7314057272167289 0.49611292762177706 0.30260039107988085 
Task90 0.0028718101470290498 0.006221149295411842 0.0126918700112637 0.02312537886086157 0.8015044604681778 0.7531826842088227 0.47270991878287233 
Task91 0.08457224448649459 0.09861248730191208 0.13013212747229017 0.2563268087933272 0.7395115565069804 0.4598009294836371 0.347768181226213 
Task92 0.009518743400624632 0.11592556234603182 0.134124178132998 0.0419609543890585 0.5702679648680693 0.3799611461201172 0.7756851725790399 
Task93 0.0006906475027322321 0.004844018501439386 0.0052376925737677195 0.006072603372688565 0.9430372905381157 0.3668205812981555 0.5736948979947198 
Task94 0.022239282733529535 0.08068069926917948 0.061940580407111534 0.08092381691956534 0.36782266095551164 0.5745300288462949 0.5737915041120156 
Task95 0.03689808520933606 0.19278008319716244 0.03711447992165491 0.06364794537669484 0.48724604386999726 0.5368621406130893 0.9973859162968701 
Task96 0.010737963159803183 0.03013803520378534 0.004712490472962761 0.03074016133820226 0.5755351608958599 0.9929087038796851 0.7052319774130043 
Task97 0.056323584029396336 0.20126331776860348 0.23606540735212705 0.24389588374160415 0.7674049465688637 0.8750025615823565 0.7796477249571478 
Task98 0.022361043727540157 0.4240718577737997 0.018629944936161 0.1707209144374792 0.5493308462460135 0.3272221520359144 0.40670228268314357 
Task99 0.00023965284137592027 0.036469881957241 0.05084755662296408 0.04608993410331505 0.7909565172789603 0.9768677800903838 0.5129643821867963 
