files/tasks_parameters/ExAp01/sample8.txt 0.890374 3.15778 1.5595 0.203411 8.92812
files/tasks_parameters/ExAp01/sample12.txt 0.832043 3.94962 1.6705 0.207924 9.12619
files/tasks_parameters/ExAp01/sample2.txt 0.789621 3.78275 1.74131 0.200098 8.78268
files/tasks_parameters/ExAp01/sample44.txt 0.835879 3.59825 1.65317 0.200005 8.77862
files/tasks_parameters/ExAp01/sample27.txt 0.787856 3.45743 1.5148 0.182129 7.99398
files/tasks_parameters/ExAp01/sample17.txt 0.688974 2.77299 1.44514 0.14646 6.42841
files/tasks_parameters/ExAp01/sample9.txt 0.716943 2.99933 1.451 0.177444 7.78835
files/tasks_parameters/ExAp01/sample34.txt 0.738081 3.02928 1.58429 0.157984 6.93422
files/tasks_parameters/ExAp01/sample40.txt 0.682809 3.86889 1.52122 0.168379 7.3905
files/tasks_parameters/ExAp01/sample33.txt 0.780661 3.63695 1.71905 0.199765 8.76808
files/tasks_parameters/ExAp01/sample48.txt 0.687931 3.39061 1.49062 0.154728 6.79133
files/tasks_parameters/ExAp01/sample29.txt 0.83183 3.30472 1.38739 0.223868 9.82602
files/tasks_parameters/ExAp01/sample11.txt 0.743624 3.10585 1.41612 0.174079 7.64066
files/tasks_parameters/ExAp01/sample14.txt 0.628885 2.70971 1.43432 0.162214 7.11991
files/tasks_parameters/ExAp01/sample0.txt 0.762797 3.6937 1.5439 0.18367 8.06163
files/tasks_parameters/ExAp01/sample7.txt 0.667841 2.70501 1.42221 0.143463 6.29689
files/tasks_parameters/ExAp01/sample23.txt 0.722124 3.2697 1.57822 0.181448 7.96413
files/tasks_parameters/ExAp01/sample13.txt 0.860062 3.84225 1.67648 0.198247 8.70146
files/tasks_parameters/ExAp01/sample22.txt 0.604015 3.09569 1.56121 0.148796 6.53096
files/tasks_parameters/ExAp01/sample25.txt 0.609926 2.73966 1.5007 0.148149 6.50254
files/tasks_parameters/ExAp01/sample36.txt 0.569022 2.85948 1.28553 0.130042 5.70781
files/tasks_parameters/ExAp01/sample46.txt 0.879386 3.58643 1.69998 0.210103 9.22183
files/tasks_parameters/ExAp01/sample31.txt 0.678711 3.4832 1.53782 0.1722 7.5582
files/tasks_parameters/ExAp01/sample37.txt 0.803545 3.95293 1.50705 0.171701 7.5363
files/tasks_parameters/ExAp01/sample16.txt 0.690292 3.31216 1.30115 0.150249 6.59473
files/tasks_parameters/ExAp01/sample10.txt 0.730884 3.17098 1.61789 0.153776 6.74955
files/tasks_parameters/ExAp01/sample39.txt 0.714942 3.26617 1.44406 0.165669 7.27153
files/tasks_parameters/ExAp01/sample19.txt 0.853505 3.63532 1.52509 0.196094 8.60697
files/tasks_parameters/ExAp01/sample20.txt 0.593339 3.20793 1.25367 0.147335 6.46684
files/tasks_parameters/ExAp01/sample43.txt 0.649016 3.11551 1.4202 0.150644 6.61209
files/tasks_parameters/ExAp01/sample32.txt 0.687663 3.5311 1.42482 0.168744 7.40652
files/tasks_parameters/ExAp01/sample45.txt 0.824762 3.80283 1.48324 0.19807 8.6937
files/tasks_parameters/ExAp01/sample26.txt 0.691327 3.21645 1.29701 0.166061 7.28876
files/tasks_parameters/ExAp01/sample5.txt 0.764829 3.5889 1.52559 0.178903 7.85242
files/tasks_parameters/ExAp01/sample21.txt 0.816627 2.75242 1.55936 0.19512 8.56422
files/tasks_parameters/ExAp01/sample38.txt 0.682623 3.31563 1.37515 0.166157 7.29295
files/tasks_parameters/ExAp01/sample1.txt 0.848331 3.74964 1.51696 0.19701 8.64714
files/tasks_parameters/ExAp01/sample15.txt 0.727914 3.32916 1.48508 0.180707 7.93161
files/tasks_parameters/ExAp01/sample24.txt 0.715706 3.45951 1.59549 0.16529 7.25492
files/tasks_parameters/ExAp01/sample3.txt 1.01663 3.70014 1.70809 0.237107 10.4071
files/tasks_parameters/ExAp01/sample6.txt 0.811483 3.33003 1.58323 0.184714 8.10748
files/tasks_parameters/ExAp01/sample30.txt 0.890323 4.1841 1.4861 0.239623 10.5175
files/tasks_parameters/ExAp01/sample42.txt 0.856561 3.43221 1.70276 0.177383 7.78569
files/tasks_parameters/ExAp01/sample4.txt 0.858854 3.72477 1.6136 0.196448 8.6225
files/tasks_parameters/ExAp01/sample28.txt 0.748825 3.11323 1.45032 0.158819 6.97088
files/tasks_parameters/ExAp01/sample18.txt 0.696929 3.47418 1.45209 0.149064 6.54271
files/tasks_parameters/ExAp01/sample35.txt 0.745601 4.57086 1.49394 0.185031 8.12137
files/tasks_parameters/ExAp01/sample47.txt 0.704552 3.13768 1.52397 0.16417 7.20575
files/tasks_parameters/ExAp01/sample49.txt 0.673189 3.13288 1.49657 0.156154 6.85391
files/tasks_parameters/ExAp01/sample41.txt 0.603445 2.81964 1.49636 0.150876 6.62224
