files/tasks_parameters/ExAp01/sample8.txt 3.03753 6.77015 2.19458 0.288816 7.12257
files/tasks_parameters/ExAp01/sample12.txt 3.57143 9.58351 2.46081 0.337498 8.32313
files/tasks_parameters/ExAp01/sample2.txt 3.37825 8.44418 2.50701 0.319127 7.87008
files/tasks_parameters/ExAp01/sample44.txt 3.00166 6.96299 2.23089 0.28229 6.96163
files/tasks_parameters/ExAp01/sample27.txt 3.03103 7.74306 2.16676 0.28602 7.0536
files/tasks_parameters/ExAp01/sample17.txt 3.10698 7.35053 2.25579 0.292348 7.20966
files/tasks_parameters/ExAp01/sample9.txt 2.98021 6.89392 2.21068 0.282399 6.96431
files/tasks_parameters/ExAp01/sample34.txt 3.13185 6.62788 2.3772 0.297742 7.34268
files/tasks_parameters/ExAp01/sample40.txt 3.00987 7.75686 2.17534 0.285619 7.04373
files/tasks_parameters/ExAp01/sample33.txt 3.62502 8.14826 2.6463 0.338073 8.33731
files/tasks_parameters/ExAp01/sample48.txt 2.88205 7.64107 2.14272 0.270011 6.65881
files/tasks_parameters/ExAp01/sample29.txt 2.67788 7.139 1.93769 0.286306 7.06066
files/tasks_parameters/ExAp01/sample11.txt 2.95367 6.88688 2.12981 0.280008 6.90536
files/tasks_parameters/ExAp01/sample14.txt 2.64377 6.11983 1.97599 0.247458 6.10261
files/tasks_parameters/ExAp01/sample0.txt 2.99388 8.2738 2.14256 0.289132 7.13035
files/tasks_parameters/ExAp01/sample7.txt 2.84233 6.87011 2.05821 0.269886 6.65571
files/tasks_parameters/ExAp01/sample23.txt 3.10511 6.52032 2.38087 0.291712 7.19397
files/tasks_parameters/ExAp01/sample13.txt 3.15401 8.73247 2.33415 0.295393 7.28475
files/tasks_parameters/ExAp01/sample22.txt 2.95814 6.9777 2.28948 0.283979 7.00328
files/tasks_parameters/ExAp01/sample25.txt 2.78496 6.23444 2.2122 0.267298 6.59189
files/tasks_parameters/ExAp01/sample36.txt 2.70463 6.6174 1.9458 0.253823 6.25958
files/tasks_parameters/ExAp01/sample46.txt 3.49943 7.42369 2.49128 0.327273 8.07096
files/tasks_parameters/ExAp01/sample31.txt 2.7276 7.22028 2.13584 0.25377 6.25828
files/tasks_parameters/ExAp01/sample37.txt 3.13406 8.90704 2.16981 0.295708 7.29253
files/tasks_parameters/ExAp01/sample16.txt 2.63724 8.18243 1.88294 0.24945 6.15174
files/tasks_parameters/ExAp01/sample10.txt 3.05357 6.96646 2.31217 0.285748 7.0469
files/tasks_parameters/ExAp01/sample39.txt 2.70679 6.4161 1.97266 0.251967 6.21381
files/tasks_parameters/ExAp01/sample19.txt 3.26854 8.16711 2.23199 0.308463 7.60708
files/tasks_parameters/ExAp01/sample20.txt 2.76561 7.28549 1.88944 0.25994 6.41044
files/tasks_parameters/ExAp01/sample43.txt 2.71368 6.86804 2.00142 0.25616 6.31723
files/tasks_parameters/ExAp01/sample32.txt 2.95911 8.15663 2.12995 0.281726 6.94772
files/tasks_parameters/ExAp01/sample45.txt 2.91728 7.75184 2.10599 0.274935 6.78024
files/tasks_parameters/ExAp01/sample26.txt 2.83326 7.4944 1.88956 0.267248 6.59067
files/tasks_parameters/ExAp01/sample5.txt 3.03443 8.08362 2.09961 0.28454 7.01712
files/tasks_parameters/ExAp01/sample21.txt 2.74857 6.11814 2.17119 0.26143 6.44718
files/tasks_parameters/ExAp01/sample38.txt 2.77025 7.761 1.96293 0.263659 6.50216
files/tasks_parameters/ExAp01/sample1.txt 3.04953 7.83752 2.13261 0.289228 7.13273
files/tasks_parameters/ExAp01/sample15.txt 2.98311 7.37971 2.12057 0.285825 7.04881
files/tasks_parameters/ExAp01/sample24.txt 3.15509 8.28531 2.25272 0.296628 7.31523
files/tasks_parameters/ExAp01/sample3.txt 3.27943 7.33359 2.39135 0.305084 7.52376
files/tasks_parameters/ExAp01/sample6.txt 3.00847 7.09894 2.24425 0.281804 6.94964
files/tasks_parameters/ExAp01/sample30.txt 3.16319 8.17669 2.03701 0.299204 7.37875
files/tasks_parameters/ExAp01/sample42.txt 3.17139 7.70416 2.42413 0.29743 7.33499
files/tasks_parameters/ExAp01/sample4.txt 3.29682 7.41691 2.36261 0.307803 7.5908
files/tasks_parameters/ExAp01/sample28.txt 2.81291 7.0562 2.07657 0.266428 6.57044
files/tasks_parameters/ExAp01/sample18.txt 2.79784 7.60139 2.1377 0.268016 6.60961
files/tasks_parameters/ExAp01/sample35.txt 3.43858 9.66795 2.28028 0.32244 7.95176
files/tasks_parameters/ExAp01/sample47.txt 2.6566 6.84842 2.12104 0.251655 6.20612
files/tasks_parameters/ExAp01/sample49.txt 2.71604 7.1497 2.11412 0.255889 6.31054
files/tasks_parameters/ExAp01/sample41.txt 2.83454 6.59911 2.07359 0.265885 6.55706
