0.39218885000000003
Task0 63 7 31 
Task1 63 1 31 
Task2 63 63 127 
Task3 63 7 3 
Task4 15 7 63 
Task5 63 63 7 
Task6 7 15 63 
Task7 63 63 31 
Task8 3 63 63 
Task9 63 7 15 
Task10 63 15 3 
Task11 7 63 1 
Task12 63 15 1 
Task13 3 15 63 
Task14 127 15 63 
Task15 63 3 15 
Task16 31 255 15 
Task17 31 15 255 
Task18 31 15 63 
Task19 127 255 127 
Task20 127 127 63 
Task21 15 63 7 
Task22 31 63 15 
Task23 15 63 1 
Task24 63 15 3 
Task25 7 63 3 
Task26 255 127 255 
Task27 15 15 63 
Task28 15 15 63 
Task29 63 1 7 
Task30 63 7 7 
Task31 31 31 15 
Task32 31 15 63 
Task33 63 63 15 
Task34 63 127 1 
Task35 127 255 7 
Task36 31 63 63 
Task37 255 255 255 
Task38 255 7 31 
Task39 15 3 63 
Task40 31 31 7 
Task41 255 31 255 
Task42 31 63 31 
Task43 7 15 63 
Task44 7 63 15 
Task45 31 63 1 
Task46 63 127 255 
Task47 15 7 255 
Task48 15 255 255 
Task49 1 3 63 
Task50 63 15 63 
Task51 3 255 255 
Task52 7 63 63 
Task53 3 31 7 
Task54 255 15 31 
Task55 63 15 255 
Task56 1 15 63 
Task57 63 15 15 
Task58 63 1 7 
Task59 63 15 15 
Task60 255 127 255 
Task61 3 15 63 
Task62 63 7 7 
Task63 255 3 63 
Task64 15 31 63 
Task65 63 31 7 
Task66 15 31 31 
Task67 15 63 7 
Task68 7 7 63 
Task69 31 255 63 
Task70 15 63 7 
Task71 1 31 7 
Task72 3 15 63 
Task73 31 255 3 
Task74 63 7 15 
Task75 7 63 63 
Task76 1 31 255 
Task77 31 63 31 
Task78 7 1 63 
Task79 1 31 63 
Task80 63 3 7 
Task81 63 15 7 
Task82 31 3 7 
Task83 127 127 255 
Task84 7 15 63 
Task85 63 1 15 
Task86 3 63 15 
Task87 63 7 7 
Task88 31 31 63 
Task89 63 7 15 
Task90 255 63 15 
Task91 31 63 7 
Task92 31 31 63 
Task93 1 63 3 
Task94 3 63 63 
Task95 7 7 63 
Task96 7 63 15 
Task97 7 15 63 
Task98 31 15 31 
Task99 15 15 31 
