files/tasks_parameters/ExAp01/sample8.txt 1.00693 3.76817 4.3855 0.450105 11.1552
files/tasks_parameters/ExAp01/sample12.txt 1.31757 5.03638 5.18776 0.610564 15.132
files/tasks_parameters/ExAp01/sample2.txt 1.30349 4.58991 5.64606 0.613877 15.2141
files/tasks_parameters/ExAp01/sample44.txt 1.17828 3.77401 5.66946 0.551838 13.6765
files/tasks_parameters/ExAp01/sample27.txt 1.20018 4.13937 5.56136 0.55779 13.824
files/tasks_parameters/ExAp01/sample17.txt 1.1124 3.76163 5.38341 0.520991 12.912
files/tasks_parameters/ExAp01/sample9.txt 1.09853 3.69889 5.2981 0.511699 12.6817
files/tasks_parameters/ExAp01/sample34.txt 1.0829 3.52435 5.83741 0.49187 12.1903
files/tasks_parameters/ExAp01/sample40.txt 1.07116 4.06185 5.0335 0.496884 12.3146
files/tasks_parameters/ExAp01/sample33.txt 1.37894 4.82091 5.83886 0.651963 16.1579
files/tasks_parameters/ExAp01/sample48.txt 0.980455 4.01134 5.07085 0.447927 11.1012
files/tasks_parameters/ExAp01/sample29.txt 1.35275 4.20847 5.0406 0.643694 15.953
files/tasks_parameters/ExAp01/sample11.txt 1.20711 3.94699 5.29198 0.557276 13.8113
files/tasks_parameters/ExAp01/sample14.txt 1.03226 3.54059 4.58345 0.466713 11.5668
files/tasks_parameters/ExAp01/sample0.txt 1.34415 4.82755 4.90216 0.623551 15.4538
files/tasks_parameters/ExAp01/sample7.txt 1.09687 3.60766 5.11185 0.509566 12.6288
files/tasks_parameters/ExAp01/sample23.txt 1.26413 3.81403 5.45799 0.582911 14.4466
files/tasks_parameters/ExAp01/sample13.txt 1.33469 4.8894 5.26818 0.624499 15.4773
files/tasks_parameters/ExAp01/sample22.txt 1.151 3.76156 4.95746 0.534216 13.2398
files/tasks_parameters/ExAp01/sample25.txt 0.902179 2.94144 4.92622 0.403639 10.0036
files/tasks_parameters/ExAp01/sample36.txt 1.06838 3.56164 4.5806 0.501799 12.4364
files/tasks_parameters/ExAp01/sample46.txt 1.13274 3.84833 4.7121 0.530701 13.1527
files/tasks_parameters/ExAp01/sample31.txt 1.0479 3.764 5.08385 0.479734 11.8895
files/tasks_parameters/ExAp01/sample37.txt 1.391 4.43254 5.65111 0.65143 16.1448
files/tasks_parameters/ExAp01/sample16.txt 1.19083 4.49741 4.8895 0.509171 12.6191
files/tasks_parameters/ExAp01/sample10.txt 1.31728 3.87086 6.07511 0.60993 15.1162
files/tasks_parameters/ExAp01/sample39.txt 0.998116 3.66299 4.54281 0.463671 11.4914
files/tasks_parameters/ExAp01/sample19.txt 1.30676 3.86694 5.14047 0.615987 15.2664
files/tasks_parameters/ExAp01/sample20.txt 1.2296 4.09945 5.13368 0.580369 14.3836
files/tasks_parameters/ExAp01/sample43.txt 1.1453 3.75825 5.55698 0.530892 13.1574
files/tasks_parameters/ExAp01/sample32.txt 1.2951 4.0352 5.29178 0.587643 14.5639
files/tasks_parameters/ExAp01/sample45.txt 1.18093 3.94578 4.87833 0.541081 13.4099
files/tasks_parameters/ExAp01/sample26.txt 1.0234 3.50998 4.55035 0.474009 11.7476
files/tasks_parameters/ExAp01/sample5.txt 1.27822 4.00994 5.27725 0.587681 14.5648
files/tasks_parameters/ExAp01/sample21.txt 0.944391 2.8974 4.54677 0.430037 10.6578
files/tasks_parameters/ExAp01/sample38.txt 1.05758 3.56689 4.78573 0.492366 12.2026
files/tasks_parameters/ExAp01/sample1.txt 1.05341 3.69002 4.55048 0.481074 11.9227
files/tasks_parameters/ExAp01/sample15.txt 1.13206 3.73223 5.42493 0.524964 13.0105
files/tasks_parameters/ExAp01/sample24.txt 1.16116 4.18053 5.40377 0.542575 13.4469
files/tasks_parameters/ExAp01/sample3.txt 1.00946 3.70547 4.7118 0.470503 11.6607
files/tasks_parameters/ExAp01/sample6.txt 1.32155 4.07521 5.71419 0.626702 15.5319
files/tasks_parameters/ExAp01/sample30.txt 1.36691 3.97446 5.82388 0.626709 15.5321
files/tasks_parameters/ExAp01/sample42.txt 1.18009 4.44207 5.58473 0.537025 13.3094
files/tasks_parameters/ExAp01/sample4.txt 1.19083 3.92181 4.49751 0.556974 13.8038
files/tasks_parameters/ExAp01/sample28.txt 0.959217 3.13496 4.88321 0.444588 11.0185
files/tasks_parameters/ExAp01/sample18.txt 1.15028 3.95301 4.52898 0.537438 13.3196
files/tasks_parameters/ExAp01/sample35.txt 1.65882 5.75923 6.25034 0.752488 18.6493
files/tasks_parameters/ExAp01/sample47.txt 1.14889 3.44018 5.14289 0.540033 13.3839
files/tasks_parameters/ExAp01/sample49.txt 1.07057 3.38981 4.72409 0.493041 12.2193
files/tasks_parameters/ExAp01/sample41.txt 1.06081 3.58692 5.27252 0.492391 12.2032
