0.19534728611951
Task0 7 7 15 
Task1 1 3 3 
Task2 7 3 1 
Task3 255 15 127 
Task4 1 1 1 
Task5 7 7 7 
Task6 1 1 1 
Task7 3 3 15 
Task8 1 7 3 
Task9 3 7 7 
Task10 1 1 1 
Task11 3 1 3 
Task12 1 3 3 
Task13 3 7 7 
Task14 3 1 3 
Task15 3 1 3 
Task16 3 7 7 
Task17 3 7 3 
Task18 3 1 1 
Task19 1 1 1 
Task20 3 3 7 
Task21 3 7 1 
Task22 1 1 1 
Task23 1 1 3 
Task24 1 3 3 
Task25 3 1 1 
Task26 3 1 3 
Task27 1 1 7 
Task28 1 3 1 
Task29 1 1 3 
Task30 1 3 1 
Task31 127 63 7 
Task32 1 1 1 
Task33 3 3 1 
Task34 3 1 7 
Task35 7 7 1 
Task36 1 1 1 
Task37 1 3 1 
Task38 7 1 3 
Task39 3 7 3 
Task40 31 3 1 
Task41 15 1 1 
Task42 1 3 7 
Task43 3 1 1 
Task44 1 1 1 
Task45 15 1 1 
Task46 3 3 3 
Task47 3 7 3 
Task48 1 3 1 
Task49 3 7 1 
Task50 1 15 3 
Task51 7 7 3 
Task52 3 3 1 
Task53 3 3 3 
Task54 1 3 3 
Task55 3 7 1 
Task56 3 1 3 
Task57 15 15 1 
Task58 3 1 7 
Task59 31 7 1 
Task60 7 1 15 
Task61 1 7 7 
Task62 7 7 1 
Task63 15 3 15 
Task64 1 1 3 
Task65 7 1 7 
Task66 3 3 1 
Task67 7 7 1 
Task68 3 1 3 
Task69 1 1 1 
Task70 1 1 1 
Task71 7 3 3 
Task72 7 3 3 
Task73 1 1 1 
Task74 3 15 7 
Task75 3 15 1 
Task76 1 1 1 
Task77 1 1 1 
Task78 1 1 3 
Task79 1 1 1 
Task80 3 1 3 
Task81 1 7 3 
Task82 7 15 3 
Task83 3 1 3 
Task84 1 1 1 
Task85 1 3 1 
Task86 3 1 1 
Task87 7 7 1 
Task88 1 1 1 
Task89 3 3 3 
Task90 3 1 1 
Task91 1 1 1 
Task92 1 1 7 
Task93 1 3 1 
Task94 7 3 3 
Task95 3 3 3 
Task96 3 3 1 
Task97 7 1 3 
Task98 15 1 3 
Task99 1 3 15 
