0.2317591
Task0 1 3 3 
Task1 7 15 7 
Task2 3 7 3 
Task3 3 7 1 
Task4 3 7 3 
Task5 15 1 3 
Task6 3 1 3 
Task7 3 7 1 
Task8 3 7 3 
Task9 3 7 7 
Task10 1 7 7 
Task11 7 7 7 
Task12 7 3 3 
Task13 3 3 1 
Task14 7 7 3 
Task15 1 1 15 
Task16 15 7 7 
Task17 15 7 15 
Task18 3 7 15 
Task19 3 7 1 
Task20 1 7 15 
Task21 7 3 7 
Task22 3 7 1 
Task23 3 3 3 
Task24 1 7 3 
Task25 3 7 1 
Task26 1 3 7 
Task27 1 7 15 
Task28 7 15 7 
Task29 7 1 1 
Task30 1 7 7 
Task31 1 3 7 
Task32 7 15 1 
Task33 7 15 3 
Task34 1 7 1 
Task35 1 3 7 
Task36 7 3 3 
Task37 1 7 1 
Task38 3 7 7 
Task39 7 1 7 
Task40 15 31 15 
Task41 3 7 7 
Task42 15 3 7 
Task43 7 3 7 
Task44 3 7 7 
Task45 31 1 31 
Task46 1 1 7 
Task47 3 7 7 
Task48 3 7 3 
Task49 1 1 7 
Task50 7 7 3 
Task51 15 3 1 
Task52 15 3 3 
Task53 31 7 15 
Task54 7 3 15 
Task55 1 3 7 
Task56 1 1 3 
Task57 7 3 7 
Task58 15 15 3 
Task59 7 31 1 
Task60 3 7 3 
Task61 15 7 1 
Task62 7 7 3 
Task63 1 3 7 
Task64 1 7 7 
Task65 3 7 7 
Task66 31 3 7 
Task67 7 3 7 
Task68 3 7 7 
Task69 3 3 15 
Task70 1 1 15 
Task71 7 15 7 
Task72 3 15 1 
Task73 3 1 7 
Task74 7 3 7 
Task75 1 3 3 
Task76 7 1 1 
Task77 7 3 15 
Task78 7 1 1 
Task79 7 1 1 
Task80 7 3 3 
Task81 1 1 7 
Task82 1 7 15 
Task83 7 7 7 
Task84 3 7 7 
Task85 3 7 7 
Task86 1 3 3 
Task87 7 3 7 
Task88 7 1 3 
Task89 1 31 7 
Task90 3 7 1 
Task91 7 7 1 
Task92 7 7 7 
Task93 15 7 15 
Task94 7 3 1 
Task95 3 3 3 
Task96 3 3 7 
Task97 127 7 255 
Task98 31 7 3 
Task99 3 15 15 
