Task0 1 1 3 
Task1 3 7 3 
Task2 3 3 1 
Task3 1 1 1 
Task4 1 7 1 
Task5 3 3 1 
Task6 1 1 1 
Task7 1 1 1 
Task8 1 1 3 
Task9 3 3 1 
Task10 1 1 1 
Task11 1 3 3 
Task12 1 1 1 
Task13 3 3 3 
Task14 1 1 1 
Task15 1 1 3 
Task16 1 1 1 
Task17 1 3 1 
Task18 3 1 1 
Task19 1 1 3 
Task20 1 1 1 
Task21 1 1 1 
Task22 1 3 1 
Task23 3 1 1 
Task24 1 1 1 
Task25 1 1 1 
Task26 1 1 1 
Task27 1 1 1 
Task28 7 15 1 
Task29 7 1 1 
Task30 1 1 1 
Task31 1 3 1 
Task32 1 1 1 
Task33 1 1 1 
Task34 1 1 1 
Task35 1 3 3 
Task36 1 1 1 
Task37 1 1 1 
Task38 7 1 1 
Task39 1 1 3 
Task40 3 1 1 
Task41 1 1 1 
Task42 1 1 1 
Task43 3 1 1 
Task44 7 1 7 
Task45 3 15 1 
Task46 1 1 1 
Task47 1 7 1 
Task48 1 1 3 
Task49 3 1 1 
Task50 1 1 1 
Task51 1 1 1 
Task52 3 1 1 
Task53 1 1 1 
Task54 1 1 3 
Task55 1 1 1 
Task56 1 1 1 
Task57 1 1 1 
Task58 1 1 1 
Task59 1 3 1 
Task60 1 1 1 
Task61 1 1 1 
Task62 1 1 1 
Task63 1 1 1 
Task64 3 3 3 
Task65 1 1 1 
Task66 1 1 1 
Task67 3 3 3 
Task68 1 3 1 
Task69 15 1 15 
Task70 3 3 1 
Task71 1 3 1 
Task72 1 7 3 
Task73 1 1 1 
Task74 1 1 1 
Task75 1 1 1 
Task76 1 3 1 
Task77 1 3 1 
Task78 1 7 1 
Task79 1 3 3 
Task80 1 1 1 
Task81 1 1 1 
Task82 3 1 1 
Task83 1 1 1 
Task84 1 1 1 
Task85 1 1 1 
Task86 1 1 1 
Task87 7 1 7 
Task88 1 1 1 
Task89 1 1 3 
Task90 1 1 1 
Task91 1 1 1 
Task92 1 1 1 
Task93 1 1 1 
Task94 1 3 1 
Task95 1 3 1 
Task96 1 1 1 
Task97 1 1 3 
Task98 1 1 1 
Task99 1 1 1 
