files/tasks_parameters/ExAp01/sample8.txt 0.79422 3.15778 1.5595 0.203411 5.0483
files/tasks_parameters/ExAp01/sample12.txt 0.804858 3.94962 1.6705 0.207924 5.1603
files/tasks_parameters/ExAp01/sample2.txt 0.812353 3.78275 1.74131 0.200098 4.96607
files/tasks_parameters/ExAp01/sample44.txt 0.686261 3.59825 1.65317 0.200005 4.96377
files/tasks_parameters/ExAp01/sample27.txt 0.731747 3.45743 1.5148 0.182129 4.52011
files/tasks_parameters/ExAp01/sample17.txt 0.669653 2.77299 1.44514 0.14646 3.63487
files/tasks_parameters/ExAp01/sample9.txt 0.715465 2.99933 1.451 0.177444 4.40383
files/tasks_parameters/ExAp01/sample34.txt 0.67876 3.02928 1.58429 0.157984 3.92087
files/tasks_parameters/ExAp01/sample40.txt 0.730572 3.86889 1.52122 0.168379 4.17888
files/tasks_parameters/ExAp01/sample33.txt 0.789229 3.63695 1.71905 0.199765 4.95781
files/tasks_parameters/ExAp01/sample48.txt 0.712727 3.39061 1.49062 0.154728 3.84008
files/tasks_parameters/ExAp01/sample29.txt 0.841011 3.30472 1.38739 0.223868 5.55601
files/tasks_parameters/ExAp01/sample11.txt 0.718658 3.10585 1.41612 0.174079 4.32032
files/tasks_parameters/ExAp01/sample14.txt 0.697815 2.70971 1.43432 0.162214 4.02587
files/tasks_parameters/ExAp01/sample0.txt 0.72186 3.6937 1.5439 0.18367 4.55836
files/tasks_parameters/ExAp01/sample7.txt 0.624021 2.70501 1.42221 0.143463 3.56051
files/tasks_parameters/ExAp01/sample23.txt 0.707717 3.2697 1.57822 0.181448 4.50323
files/tasks_parameters/ExAp01/sample13.txt 0.729548 3.84225 1.67648 0.198247 4.92014
files/tasks_parameters/ExAp01/sample22.txt 0.665295 3.09569 1.56121 0.148796 3.69286
files/tasks_parameters/ExAp01/sample25.txt 0.623999 2.73966 1.5007 0.148149 3.67679
files/tasks_parameters/ExAp01/sample36.txt 0.607623 2.85948 1.28553 0.130042 3.22742
files/tasks_parameters/ExAp01/sample46.txt 0.781951 3.58643 1.69998 0.210103 5.21438
files/tasks_parameters/ExAp01/sample31.txt 0.683855 3.4832 1.53782 0.1722 4.2737
files/tasks_parameters/ExAp01/sample37.txt 0.73781 3.95293 1.50705 0.171701 4.26132
files/tasks_parameters/ExAp01/sample16.txt 0.610953 3.31216 1.30115 0.150249 3.72891
files/tasks_parameters/ExAp01/sample10.txt 0.697877 3.17098 1.61789 0.153776 3.81646
files/tasks_parameters/ExAp01/sample39.txt 0.706414 3.26617 1.44406 0.165669 4.1116
files/tasks_parameters/ExAp01/sample19.txt 0.73837 3.63532 1.52509 0.196094 4.86672
files/tasks_parameters/ExAp01/sample20.txt 0.619271 3.20793 1.25367 0.147335 3.6566
files/tasks_parameters/ExAp01/sample43.txt 0.641002 3.11551 1.4202 0.150644 3.73873
files/tasks_parameters/ExAp01/sample32.txt 0.720401 3.5311 1.42482 0.168744 4.18793
files/tasks_parameters/ExAp01/sample45.txt 0.772733 3.80283 1.48324 0.19807 4.91576
files/tasks_parameters/ExAp01/sample26.txt 0.609702 3.21645 1.29701 0.166061 4.12135
files/tasks_parameters/ExAp01/sample5.txt 0.694729 3.5889 1.52559 0.178903 4.44006
files/tasks_parameters/ExAp01/sample21.txt 0.765859 2.75242 1.55936 0.19512 4.84254
files/tasks_parameters/ExAp01/sample38.txt 0.655145 3.31563 1.37515 0.166157 4.12372
files/tasks_parameters/ExAp01/sample1.txt 0.69325 3.74964 1.51696 0.19701 4.88943
files/tasks_parameters/ExAp01/sample15.txt 0.69633 3.32916 1.48508 0.180707 4.48484
files/tasks_parameters/ExAp01/sample24.txt 0.746102 3.45951 1.59549 0.16529 4.10221
files/tasks_parameters/ExAp01/sample3.txt 0.972852 3.70014 1.70809 0.237107 5.88458
files/tasks_parameters/ExAp01/sample6.txt 0.713587 3.33003 1.58323 0.184714 4.58429
files/tasks_parameters/ExAp01/sample30.txt 0.962889 4.1841 1.4861 0.239623 5.94702
files/tasks_parameters/ExAp01/sample42.txt 0.739997 3.43221 1.70276 0.177383 4.40233
files/tasks_parameters/ExAp01/sample4.txt 0.793169 3.72477 1.6136 0.196448 4.87549
files/tasks_parameters/ExAp01/sample28.txt 0.643929 3.11323 1.45032 0.158819 3.94161
files/tasks_parameters/ExAp01/sample18.txt 0.641011 3.47418 1.45209 0.149064 3.6995
files/tasks_parameters/ExAp01/sample35.txt 0.757706 4.57086 1.49394 0.185031 4.59213
files/tasks_parameters/ExAp01/sample47.txt 0.678392 3.13768 1.52397 0.16417 4.07441
files/tasks_parameters/ExAp01/sample49.txt 0.654159 3.13288 1.49657 0.156154 3.87547
files/tasks_parameters/ExAp01/sample41.txt 0.636984 2.81964 1.49636 0.150876 3.74447
