files/tasks_parameters/ExAp01/sample8.txt 1.08361 3.76817 4.3855 0.450105 9.3343
files/tasks_parameters/ExAp01/sample12.txt 1.49418 5.03638 5.18776 0.610564 12.6619
files/tasks_parameters/ExAp01/sample2.txt 1.36778 4.58991 5.64606 0.613877 12.7306
files/tasks_parameters/ExAp01/sample44.txt 1.24953 3.77401 5.66946 0.551838 11.444
files/tasks_parameters/ExAp01/sample27.txt 1.29418 4.13937 5.56136 0.55779 11.5675
files/tasks_parameters/ExAp01/sample17.txt 1.19433 3.76163 5.38341 0.520991 10.8043
files/tasks_parameters/ExAp01/sample9.txt 1.1433 3.69889 5.2981 0.511699 10.6116
files/tasks_parameters/ExAp01/sample34.txt 1.13513 3.52435 5.83741 0.49187 10.2004
files/tasks_parameters/ExAp01/sample40.txt 1.15486 4.06185 5.0335 0.496884 10.3044
files/tasks_parameters/ExAp01/sample33.txt 1.55857 4.82091 5.83886 0.651963 13.5204
files/tasks_parameters/ExAp01/sample48.txt 1.06962 4.01134 5.07085 0.447927 9.28914
files/tasks_parameters/ExAp01/sample29.txt 1.41949 4.20847 5.0406 0.643694 13.349
files/tasks_parameters/ExAp01/sample11.txt 1.31879 3.94699 5.29198 0.557276 11.5568
files/tasks_parameters/ExAp01/sample14.txt 1.085 3.54059 4.58345 0.466713 9.67873
files/tasks_parameters/ExAp01/sample0.txt 1.4772 4.82755 4.90216 0.623551 12.9312
files/tasks_parameters/ExAp01/sample7.txt 1.15002 3.60766 5.11185 0.509566 10.5674
files/tasks_parameters/ExAp01/sample23.txt 1.41575 3.81403 5.45799 0.582911 12.0884
files/tasks_parameters/ExAp01/sample13.txt 1.49914 4.8894 5.26818 0.624499 12.9509
files/tasks_parameters/ExAp01/sample22.txt 1.24462 3.76156 4.95746 0.534216 11.0786
files/tasks_parameters/ExAp01/sample25.txt 0.976769 2.94144 4.92622 0.403639 8.37069
files/tasks_parameters/ExAp01/sample36.txt 1.25826 3.56164 4.5806 0.501799 10.4063
files/tasks_parameters/ExAp01/sample46.txt 1.23268 3.84833 4.7121 0.530701 11.0057
files/tasks_parameters/ExAp01/sample31.txt 1.07702 3.764 5.08385 0.479734 9.94875
files/tasks_parameters/ExAp01/sample37.txt 1.52462 4.43254 5.65111 0.65143 13.5094
files/tasks_parameters/ExAp01/sample16.txt 1.23049 4.49741 4.8895 0.509171 10.5592
files/tasks_parameters/ExAp01/sample10.txt 1.38978 3.87086 6.07511 0.60993 12.6487
files/tasks_parameters/ExAp01/sample39.txt 1.04986 3.66299 4.54281 0.463671 9.61564
files/tasks_parameters/ExAp01/sample19.txt 1.3771 3.86694 5.14047 0.615987 12.7744
files/tasks_parameters/ExAp01/sample20.txt 1.30362 4.09945 5.13368 0.580369 12.0357
files/tasks_parameters/ExAp01/sample43.txt 1.17167 3.75825 5.55698 0.530892 11.0097
files/tasks_parameters/ExAp01/sample32.txt 1.4294 4.0352 5.29178 0.587643 12.1866
files/tasks_parameters/ExAp01/sample45.txt 1.21753 3.94578 4.87833 0.541081 11.221
files/tasks_parameters/ExAp01/sample26.txt 1.10296 3.50998 4.55035 0.474009 9.83003
files/tasks_parameters/ExAp01/sample5.txt 1.3563 4.00994 5.27725 0.587681 12.1873
files/tasks_parameters/ExAp01/sample21.txt 0.935615 2.8974 4.54677 0.430037 8.91813
files/tasks_parameters/ExAp01/sample38.txt 1.16594 3.56689 4.78573 0.492366 10.2107
files/tasks_parameters/ExAp01/sample1.txt 1.14145 3.69002 4.55048 0.481074 9.97653
files/tasks_parameters/ExAp01/sample15.txt 1.20629 3.73223 5.42493 0.524964 10.8867
files/tasks_parameters/ExAp01/sample24.txt 1.27092 4.18053 5.40377 0.542575 11.252
files/tasks_parameters/ExAp01/sample3.txt 1.08376 3.70547 4.7118 0.470503 9.75732
files/tasks_parameters/ExAp01/sample6.txt 1.38737 4.07521 5.71419 0.626702 12.9966
files/tasks_parameters/ExAp01/sample30.txt 1.46731 3.97446 5.82388 0.626709 12.9967
files/tasks_parameters/ExAp01/sample42.txt 1.29681 4.44207 5.58473 0.537025 11.1368
files/tasks_parameters/ExAp01/sample4.txt 1.30174 3.92181 4.49751 0.556974 11.5506
files/tasks_parameters/ExAp01/sample28.txt 1.01644 3.13496 4.88321 0.444588 9.21989
files/tasks_parameters/ExAp01/sample18.txt 1.22803 3.95301 4.52898 0.537438 11.1454
files/tasks_parameters/ExAp01/sample35.txt 1.79155 5.75923 6.25034 0.752488 15.6051
files/tasks_parameters/ExAp01/sample47.txt 1.16153 3.44018 5.14289 0.540033 11.1992
files/tasks_parameters/ExAp01/sample49.txt 1.23074 3.38981 4.72409 0.493041 10.2247
files/tasks_parameters/ExAp01/sample41.txt 1.10214 3.58692 5.27252 0.492391 10.2112
