digraph G {
0 ->23 0 ->24 0 ->29 0 ->32 1 ->21 1 ->23 1 ->27 1 ->31 1 ->32 2 ->17 2 ->21 2 ->23 2 ->31 3 ->22 3 ->24 3 ->25 3 ->27 3 ->28 3 ->30 3 ->32 3 ->33 4 ->19 4 ->28 4 ->33 5 ->20 5 ->25 5 ->32 5 ->34 6 ->25 6 ->28 6 ->29 6 ->32 6 ->34 7 ->23 7 ->25 7 ->32 7 ->34 8 ->19 8 ->26 8 ->28 8 ->34 9 ->33 10 ->23 11 ->22 11 ->23 11 ->25 11 ->26 11 ->32 11 ->34 12 ->23 12 ->25 12 ->25 12 ->27 12 ->33 13 ->18 13 ->19 13 ->21 13 ->22 13 ->23 13 ->33 14 ->19 14 ->21 14 ->21 14 ->29 15 ->19 15 ->21 15 ->26 15 ->27 15 ->29 16 ->19 16 ->21 16 ->27 16 ->29 17 ->36 17 ->41 17 ->45 17 ->51 17 ->53 18 ->41 18 ->44 18 ->45 18 ->47 18 ->51 18 ->53 19 ->45 19 ->50 19 ->52 20 ->38 20 ->41 20 ->44 20 ->45 20 ->48 20 ->52 20 ->53 21 ->38 21 ->41 21 ->48 22 ->38 22 ->42 22 ->44 22 ->47 22 ->48 22 ->50 23 ->38 23 ->40 23 ->41 23 ->44 23 ->51 23 ->52 24 ->37 24 ->38 24 ->41 24 ->44 24 ->51 25 ->37 25 ->38 25 ->45 25 ->47 25 ->48 25 ->51 26 ->38 26 ->41 26 ->44 26 ->46 26 ->51 26 ->51 27 ->40 27 ->50 28 ->37 28 ->40 28 ->45 28 ->51 28 ->52 29 ->35 29 ->37 29 ->38 29 ->40 29 ->46 29 ->47 29 ->48 29 ->53 30 ->35 30 ->38 30 ->43 30 ->48 30 ->52 30 ->53 31 ->37 31 ->39 31 ->43 31 ->44 31 ->50 32 ->36 32 ->37 32 ->47 33 ->35 33 ->37 33 ->44 33 ->45 33 ->47 33 ->48 33 ->49 33 ->52 34 ->37 34 ->40 34 ->42 34 ->44 34 ->45 34 ->46 34 ->47 34 ->48 34 ->50 35 ->54 35 ->55 35 ->57 35 ->61 35 ->67 35 ->69 35 ->70 35 ->71 35 ->72 35 ->78 35 ->80 35 ->83 36 ->56 36 ->62 36 ->65 36 ->71 36 ->72 36 ->80 36 ->85 37 ->54 37 ->56 37 ->58 37 ->62 37 ->63 37 ->65 37 ->67 37 ->71 37 ->76 37 ->77 37 ->79 37 ->80 37 ->81 37 ->85 38 ->54 38 ->55 38 ->56 38 ->58 38 ->59 38 ->62 38 ->67 38 ->69 38 ->70 38 ->76 39 ->54 39 ->57 39 ->59 39 ->65 39 ->68 39 ->70 39 ->77 39 ->78 39 ->80 39 ->84 40 ->54 40 ->58 40 ->59 40 ->64 40 ->65 40 ->66 40 ->67 40 ->78 40 ->80 40 ->81 41 ->54 41 ->57 41 ->58 41 ->65 41 ->68 41 ->70 41 ->78 41 ->79 42 ->54 42 ->56 42 ->58 42 ->61 42 ->72 42 ->73 42 ->78 42 ->82 42 ->85 43 ->54 43 ->57 43 ->58 43 ->66 43 ->68 43 ->72 43 ->75 43 ->79 43 ->80 43 ->83 44 ->54 44 ->57 44 ->58 44 ->66 44 ->69 44 ->72 44 ->74 44 ->78 44 ->80 44 ->81 44 ->83 45 ->54 45 ->57 45 ->58 45 ->62 45 ->63 45 ->66 45 ->70 45 ->81 45 ->83 46 ->56 46 ->60 46 ->67 46 ->68 46 ->73 46 ->81 47 ->56 47 ->57 47 ->68 47 ->72 47 ->81 47 ->81 47 ->83 48 ->56 48 ->57 48 ->58 48 ->61 48 ->62 48 ->65 48 ->67 48 ->69 48 ->70 48 ->72 48 ->75 48 ->76 48 ->77 48 ->81 49 ->56 49 ->57 49 ->58 49 ->60 49 ->61 49 ->62 49 ->65 49 ->71 49 ->85 50 ->56 50 ->61 50 ->62 50 ->70 50 ->71 50 ->72 50 ->80 50 ->81 51 ->67 51 ->71 51 ->74 51 ->75 51 ->83 52 ->57 52 ->59 52 ->60 52 ->62 52 ->64 52 ->66 52 ->67 52 ->68 52 ->69 52 ->71 52 ->73 52 ->75 52 ->78 53 ->56 53 ->65 53 ->67 53 ->69 53 ->71 53 ->73 53 ->75 53 ->78 53 ->80 53 ->81 53 ->83 54 ->86 54 ->87 54 ->88 54 ->91 54 ->95 54 ->98 55 ->86 55 ->88 55 ->91 55 ->93 55 ->95 56 ->88 56 ->91 56 ->94 56 ->95 56 ->98 57 ->87 57 ->94 57 ->98 58 ->86 58 ->87 58 ->94 58 ->95 58 ->99 59 ->87 59 ->98 60 ->90 60 ->92 60 ->97 61 ->86 61 ->87 61 ->90 61 ->92 62 ->90 62 ->95 62 ->96 63 ->89 63 ->92 63 ->97 63 ->98 64 ->90 64 ->94 64 ->95 64 ->98 65 ->86 65 ->87 65 ->88 65 ->90 65 ->95 65 ->97 65 ->98 65 ->99 66 ->90 66 ->91 66 ->95 66 ->97 66 ->98 67 ->88 67 ->95 67 ->96 67 ->98 68 ->87 68 ->88 68 ->89 68 ->90 68 ->91 68 ->92 68 ->93 69 ->87 69 ->88 69 ->96 69 ->99 70 ->87 70 ->94 70 ->95 70 ->99 71 ->87 71 ->88 71 ->92 71 ->94 71 ->95 71 ->96 72 ->88 72 ->90 72 ->98 73 ->94 73 ->97 74 ->87 74 ->90 74 ->92 75 ->86 75 ->87 75 ->88 76 ->89 76 ->95 76 ->97 76 ->99 77 ->86 77 ->90 77 ->91 77 ->93 77 ->95 77 ->99 78 ->86 78 ->88 78 ->91 78 ->95 78 ->97 79 ->86 79 ->91 79 ->95 79 ->97 80 ->86 80 ->88 80 ->90 80 ->91 80 ->97 80 ->98 81 ->86 81 ->90 81 ->91 81 ->98 82 ->86 82 ->87 82 ->89 82 ->95 82 ->96 82 ->97 83 ->86 83 ->87 83 ->89 83 ->91 83 ->94 83 ->96 83 ->99 84 ->86 84 ->87 84 ->89 84 ->90 84 ->91 84 ->92 84 ->94 84 ->96 84 ->97 85 ->86 85 ->87 85 ->90 85 ->91 
}
