digraph G {
0 ->40 0 ->48 0 ->49 1 ->35 1 ->36 1 ->40 1 ->46 1 ->47 1 ->48 2 ->34 2 ->35 2 ->36 2 ->39 2 ->40 2 ->42 2 ->45 2 ->47 2 ->48 3 ->45 3 ->47 3 ->48 3 ->51 4 ->41 4 ->46 4 ->49 5 ->37 5 ->41 5 ->43 5 ->46 6 ->35 6 ->44 6 ->45 6 ->48 7 ->33 7 ->34 7 ->36 7 ->45 8 ->40 8 ->41 8 ->43 8 ->44 8 ->47 9 ->43 9 ->44 9 ->47 10 ->34 10 ->39 10 ->41 10 ->43 10 ->44 10 ->45 10 ->46 10 ->47 11 ->42 11 ->44 11 ->49 12 ->35 12 ->39 12 ->44 12 ->46 12 ->47 12 ->48 13 ->35 13 ->39 13 ->40 13 ->43 13 ->44 13 ->46 13 ->48 14 ->35 14 ->39 14 ->43 14 ->43 14 ->44 14 ->47 14 ->51 15 ->39 15 ->39 15 ->40 15 ->41 15 ->44 15 ->45 15 ->48 15 ->51 16 ->37 16 ->39 16 ->40 16 ->44 16 ->48 17 ->33 17 ->39 17 ->42 17 ->47 17 ->48 18 ->40 18 ->42 18 ->47 18 ->48 19 ->40 19 ->41 19 ->43 19 ->44 19 ->49 19 ->51 20 ->38 20 ->42 20 ->43 20 ->44 20 ->51 21 ->35 21 ->40 21 ->42 21 ->45 21 ->46 21 ->49 22 ->39 22 ->45 22 ->46 22 ->48 23 ->36 23 ->45 23 ->46 23 ->48 23 ->49 24 ->36 24 ->40 24 ->43 24 ->45 24 ->47 25 ->35 25 ->36 25 ->48 25 ->49 26 ->33 26 ->45 27 ->34 27 ->36 27 ->39 27 ->40 27 ->41 27 ->44 27 ->46 27 ->47 28 ->37 28 ->45 28 ->47 29 ->33 29 ->35 29 ->40 29 ->41 29 ->45 29 ->47 29 ->50 29 ->51 30 ->33 30 ->35 30 ->39 30 ->40 30 ->41 30 ->43 30 ->45 30 ->47 30 ->49 31 ->36 31 ->39 31 ->42 31 ->43 31 ->47 32 ->36 32 ->40 32 ->43 32 ->48 32 ->49 33 ->56 33 ->64 33 ->71 33 ->72 33 ->74 34 ->52 34 ->60 34 ->65 34 ->67 34 ->69 34 ->72 34 ->74 35 ->53 35 ->57 35 ->64 35 ->66 35 ->69 36 ->53 36 ->55 36 ->56 36 ->64 36 ->68 36 ->69 36 ->71 36 ->73 37 ->62 37 ->68 37 ->69 38 ->52 38 ->55 38 ->61 38 ->68 38 ->70 38 ->73 38 ->74 39 ->59 39 ->61 39 ->65 39 ->68 40 ->52 40 ->54 40 ->55 40 ->61 40 ->68 41 ->53 41 ->54 41 ->58 41 ->62 41 ->66 41 ->67 42 ->58 42 ->62 42 ->64 42 ->65 42 ->69 42 ->72 43 ->55 43 ->56 43 ->58 43 ->71 43 ->72 43 ->74 44 ->52 44 ->53 44 ->56 44 ->61 44 ->69 44 ->71 44 ->74 45 ->52 45 ->54 45 ->56 45 ->61 45 ->64 45 ->66 45 ->67 45 ->68 45 ->71 46 ->52 46 ->56 46 ->60 46 ->63 46 ->64 46 ->68 46 ->75 47 ->56 47 ->59 47 ->61 47 ->64 47 ->64 47 ->65 47 ->68 47 ->69 48 ->53 48 ->58 48 ->59 48 ->61 48 ->64 48 ->68 48 ->71 48 ->75 49 ->54 49 ->59 49 ->60 49 ->61 49 ->66 49 ->67 50 ->53 50 ->64 50 ->66 50 ->74 51 ->59 51 ->63 51 ->68 51 ->74 52 ->76 52 ->78 52 ->80 52 ->82 52 ->85 52 ->92 52 ->95 52 ->99 53 ->76 53 ->79 53 ->80 53 ->93 53 ->94 53 ->96 53 ->99 54 ->76 54 ->79 54 ->80 54 ->85 54 ->93 54 ->98 55 ->80 55 ->82 55 ->84 56 ->88 56 ->89 56 ->90 56 ->91 56 ->92 56 ->93 56 ->96 57 ->77 57 ->80 57 ->83 57 ->84 57 ->94 57 ->99 58 ->90 58 ->91 58 ->92 58 ->94 58 ->99 59 ->76 59 ->79 59 ->83 59 ->99 60 ->76 60 ->97 60 ->98 61 ->78 61 ->83 61 ->85 61 ->92 61 ->97 62 ->76 62 ->77 62 ->80 62 ->82 62 ->83 62 ->91 62 ->95 62 ->97 63 ->76 63 ->77 63 ->79 63 ->80 63 ->81 63 ->83 63 ->84 63 ->86 63 ->90 63 ->91 63 ->92 63 ->93 63 ->95 63 ->97 64 ->77 64 ->79 64 ->85 64 ->95 64 ->98 65 ->78 65 ->79 65 ->80 65 ->83 65 ->85 66 ->80 66 ->81 66 ->90 66 ->91 66 ->95 66 ->96 67 ->79 67 ->91 67 ->93 67 ->99 68 ->79 68 ->83 68 ->85 68 ->87 68 ->88 68 ->92 68 ->97 69 ->79 69 ->85 69 ->86 69 ->99 70 ->76 70 ->79 70 ->81 70 ->84 70 ->86 70 ->87 70 ->90 70 ->91 70 ->94 70 ->95 71 ->76 71 ->79 71 ->80 71 ->85 71 ->90 71 ->99 72 ->78 72 ->79 72 ->85 72 ->87 72 ->97 72 ->99 73 ->76 73 ->85 73 ->98 73 ->99 74 ->76 74 ->84 74 ->94 75 ->76 75 ->80 75 ->90 75 ->92 75 ->97 
}
