digraph G {
0 ->33 0 ->35 0 ->37 0 ->40 0 ->41 0 ->42 0 ->48 0 ->50 0 ->56 1 ->33 1 ->35 1 ->37 1 ->39 1 ->40 1 ->48 2 ->32 2 ->35 2 ->40 2 ->46 2 ->52 3 ->29 3 ->30 3 ->33 3 ->34 3 ->35 3 ->37 3 ->39 3 ->48 3 ->50 4 ->29 4 ->30 4 ->33 4 ->35 4 ->42 4 ->50 4 ->57 5 ->32 5 ->42 5 ->48 5 ->51 5 ->54 5 ->57 6 ->33 6 ->42 6 ->47 6 ->48 6 ->51 6 ->52 6 ->57 7 ->39 7 ->47 7 ->47 7 ->50 7 ->51 7 ->55 7 ->57 8 ->33 8 ->48 8 ->50 8 ->50 8 ->56 9 ->29 9 ->33 9 ->42 9 ->47 9 ->50 9 ->57 9 ->58 10 ->35 10 ->40 10 ->42 10 ->50 10 ->51 10 ->58 11 ->33 11 ->34 11 ->36 11 ->39 11 ->41 11 ->46 11 ->51 11 ->57 12 ->29 12 ->31 12 ->33 12 ->40 12 ->41 12 ->46 12 ->50 12 ->51 12 ->54 12 ->56 12 ->58 13 ->29 13 ->34 13 ->37 13 ->38 13 ->40 13 ->41 13 ->43 13 ->45 13 ->46 13 ->50 13 ->56 14 ->32 14 ->37 14 ->41 14 ->42 14 ->46 14 ->51 14 ->54 14 ->56 15 ->29 15 ->37 15 ->41 15 ->43 15 ->45 15 ->48 15 ->49 15 ->58 16 ->29 16 ->31 16 ->33 16 ->35 16 ->44 16 ->45 16 ->47 16 ->48 16 ->51 17 ->29 17 ->32 17 ->40 17 ->41 17 ->42 17 ->45 17 ->48 17 ->54 17 ->58 18 ->29 18 ->34 18 ->37 18 ->39 18 ->40 18 ->41 18 ->42 18 ->45 18 ->46 19 ->30 19 ->32 19 ->34 19 ->35 19 ->42 19 ->45 19 ->47 19 ->50 19 ->53 19 ->54 20 ->29 20 ->34 20 ->35 20 ->37 20 ->38 20 ->41 20 ->50 20 ->54 20 ->55 20 ->56 21 ->52 21 ->55 21 ->57 22 ->29 22 ->33 22 ->34 22 ->35 22 ->37 22 ->38 22 ->39 22 ->45 22 ->47 22 ->51 22 ->54 22 ->55 22 ->57 22 ->58 23 ->33 23 ->37 23 ->54 24 ->29 24 ->32 24 ->33 24 ->37 24 ->47 24 ->48 24 ->50 24 ->57 24 ->58 25 ->32 25 ->37 25 ->39 25 ->42 25 ->53 25 ->56 25 ->57 26 ->29 26 ->33 26 ->35 26 ->39 26 ->40 26 ->41 26 ->48 26 ->49 26 ->50 27 ->29 27 ->33 27 ->35 27 ->36 27 ->41 27 ->42 27 ->52 28 ->35 28 ->43 29 ->59 29 ->61 29 ->67 29 ->68 30 ->61 30 ->63 30 ->67 30 ->68 30 ->69 30 ->74 31 ->60 31 ->61 31 ->67 31 ->71 32 ->61 32 ->66 32 ->67 32 ->71 32 ->73 33 ->61 33 ->63 33 ->71 33 ->72 34 ->60 34 ->66 34 ->68 34 ->72 35 ->62 35 ->66 35 ->69 35 ->70 35 ->72 36 ->60 36 ->63 36 ->64 36 ->66 36 ->67 36 ->69 36 ->71 37 ->60 37 ->61 37 ->65 37 ->66 37 ->71 38 ->61 38 ->63 38 ->66 38 ->71 38 ->72 39 ->60 39 ->65 39 ->66 39 ->71 40 ->63 40 ->65 40 ->66 40 ->69 40 ->71 41 ->60 41 ->65 41 ->68 41 ->71 41 ->72 41 ->74 42 ->60 42 ->65 42 ->69 42 ->72 42 ->73 42 ->74 43 ->60 43 ->62 43 ->65 43 ->72 43 ->74 44 ->60 44 ->65 44 ->69 45 ->63 45 ->65 45 ->68 45 ->69 45 ->71 45 ->73 46 ->60 46 ->61 46 ->63 46 ->69 46 ->73 47 ->59 47 ->60 47 ->61 47 ->65 47 ->67 47 ->69 48 ->59 48 ->60 48 ->68 48 ->69 48 ->72 48 ->74 49 ->59 49 ->66 49 ->68 49 ->71 50 ->63 50 ->66 50 ->67 50 ->68 50 ->69 51 ->59 51 ->66 51 ->67 51 ->68 51 ->69 52 ->63 52 ->65 52 ->67 52 ->68 52 ->69 52 ->71 52 ->74 53 ->59 53 ->60 53 ->63 53 ->65 53 ->67 53 ->68 53 ->69 53 ->71 54 ->61 54 ->64 54 ->65 54 ->65 54 ->68 54 ->69 54 ->74 55 ->61 55 ->64 55 ->65 55 ->66 55 ->68 55 ->71 55 ->74 56 ->61 56 ->66 56 ->68 56 ->71 56 ->72 56 ->74 57 ->61 57 ->66 58 ->65 58 ->66 59 ->76 59 ->84 60 ->78 60 ->80 60 ->84 61 ->79 61 ->83 61 ->84 62 ->76 62 ->80 62 ->87 63 ->81 63 ->82 64 ->78 64 ->81 64 ->87 65 ->79 65 ->80 65 ->81 65 ->82 66 ->78 66 ->79 66 ->80 66 ->85 67 ->75 67 ->79 67 ->80 67 ->81 67 ->82 67 ->83 67 ->85 68 ->76 68 ->78 68 ->79 68 ->80 68 ->81 68 ->83 68 ->86 68 ->87 69 ->77 69 ->78 69 ->87 70 ->78 70 ->78 70 ->81 70 ->82 70 ->87 71 ->78 71 ->82 71 ->83 71 ->87 72 ->76 72 ->82 72 ->84 72 ->85 73 ->76 73 ->77 73 ->80 73 ->81 73 ->82 73 ->84 73 ->87 74 ->75 74 ->76 74 ->77 74 ->81 74 ->82 74 ->83 74 ->84 74 ->87 75 ->88 75 ->90 75 ->93 75 ->95 75 ->96 75 ->98 76 ->88 77 ->88 77 ->90 77 ->91 77 ->92 77 ->98 78 ->88 78 ->91 78 ->93 78 ->94 78 ->95 78 ->98 79 ->88 79 ->89 79 ->94 79 ->98 80 ->89 80 ->91 80 ->98 81 ->91 81 ->92 82 ->91 82 ->92 82 ->97 83 ->95 83 ->98 84 ->92 85 ->89 85 ->92 85 ->93 86 ->92 87 ->99 
}
