0.21484360000000002
Task0 63 31 7 
Task1 3 1 7 
Task2 7 7 1 
Task3 1 3 3 
Task4 1 7 1 
Task5 63 63 31 
Task6 1 1 3 
Task7 7 3 3 
Task8 1 1 3 
Task9 1 7 3 
Task10 7 3 3 
Task11 3 1 3 
Task12 3 3 1 
Task13 7 31 1 
Task14 15 7 1 
Task15 3 3 15 
Task16 7 1 3 
Task17 15 7 63 
Task18 7 15 7 
Task19 7 63 15 
Task20 31 1 15 
Task21 1 1 1 
Task22 1 1 3 
Task23 255 63 7 
Task24 3 1 1 
Task25 7 63 15 
Task26 1 1 1 
Task27 1 3 3 
Task28 15 63 63 
Task29 15 3 7 
Task30 1 7 15 
Task31 1 3 3 
Task32 1 1 1 
Task33 7 7 15 
Task34 7 7 1 
Task35 3 1 1 
Task36 7 15 15 
Task37 15 31 1 
Task38 3 3 3 
Task39 15 63 15 
Task40 1 3 7 
Task41 3 1 3 
Task42 1 7 1 
Task43 3 7 15 
Task44 15 31 3 
Task45 127 15 255 
Task46 1 3 1 
Task47 3 3 3 
Task48 7 7 3 
Task49 7 1 1 
Task50 7 3 15 
Task51 1 7 3 
Task52 1 1 1 
Task53 3 3 3 
Task54 3 1 3 
Task55 7 1 3 
Task56 31 15 31 
Task57 1 31 1 
Task58 1 3 3 
Task59 3 1 15 
Task60 3 3 1 
Task61 1 1 3 
Task62 3 7 7 
Task63 3 1 3 
Task64 1 1 7 
Task65 3 7 3 
Task66 3 1 15 
Task67 7 3 1 
Task68 3 1 3 
Task69 7 7 1 
Task70 3 7 1 
Task71 3 3 15 
Task72 15 31 63 
Task73 3 3 3 
Task74 1 1 1 
Task75 1 1 1 
Task76 1 1 3 
Task77 15 3 15 
Task78 1 1 7 
Task79 1 3 3 
Task80 3 3 7 
Task81 7 3 3 
Task82 15 63 1 
Task83 3 3 1 
Task84 15 63 15 
Task85 3 1 3 
Task86 7 7 7 
Task87 3 1 1 
Task88 7 3 3 
Task89 1 1 1 
Task90 7 7 7 
Task91 3 1 15 
Task92 3 3 3 
Task93 1 3 7 
Task94 63 127 255 
Task95 1 7 7 
Task96 15 31 15 
Task97 3 63 7 
Task98 3 3 1 
Task99 3 7 7 
