0.20514743
Task0 7 7 15 
Task1 15 7 7 
Task2 3 3 1 
Task3 3 3 7 
Task4 31 7 7 
Task5 3 7 3 
Task6 3 15 7 
Task7 7 3 7 
Task8 7 1 7 
Task9 1 31 3 
Task10 1 1 3 
Task11 15 7 1 
Task12 7 3 3 
Task13 31 15 7 
Task14 3 15 3 
Task15 7 1 1 
Task16 1 15 15 
Task17 3 3 7 
Task18 7 1 7 
Task19 15 7 7 
Task20 1 1 1 
Task21 1 3 1 
Task22 7 31 15 
Task23 1 1 3 
Task24 15 1 3 
Task25 3 1 3 
Task26 3 1 3 
Task27 7 31 15 
Task28 255 63 127 
Task29 7 15 31 
Task30 3 7 3 
Task31 31 15 7 
Task32 7 3 3 
Task33 1 3 3 
Task34 7 3 3 
Task35 7 3 1 
Task36 15 3 15 
Task37 7 3 1 
Task38 3 3 3 
Task39 15 31 7 
Task40 7 7 3 
Task41 63 63 15 
Task42 3 1 3 
Task43 3 3 1 
Task44 15 3 7 
Task45 1 1 1 
Task46 31 15 7 
Task47 3 3 3 
Task48 1 3 3 
Task49 1 7 7 
Task50 1 1 7 
Task51 7 31 63 
Task52 15 3 3 
Task53 3 3 3 
Task54 7 1 1 
Task55 7 3 1 
Task56 15 63 31 
Task57 63 63 63 
Task58 15 63 15 
Task59 3 7 7 
Task60 7 1 3 
Task61 3 1 7 
Task62 1 7 3 
Task63 7 3 3 
Task64 15 3 31 
Task65 7 1 1 
Task66 1 1 3 
Task67 3 1 3 
Task68 7 7 7 
Task69 15 1 31 
Task70 7 7 1 
Task71 7 3 1 
Task72 3 3 1 
Task73 1 3 7 
Task74 7 3 1 
Task75 3 3 7 
Task76 3 3 3 
Task77 3 7 7 
Task78 3 3 3 
Task79 1 1 1 
Task80 3 1 3 
Task81 3 3 7 
Task82 3 3 7 
Task83 1 1 7 
Task84 3 1 7 
Task85 7 15 3 
Task86 1 3 1 
Task87 1 7 7 
Task88 7 1 1 
Task89 127 255 127 
Task90 1 7 3 
Task91 7 15 7 
Task92 7 15 7 
Task93 15 15 3 
Task94 7 15 1 
Task95 7 15 1 
Task96 1 7 1 
Task97 3 3 7 
Task98 3 3 1 
Task99 3 3 3 
