Task0 1 1 1 
Task1 1 1 1 
Task2 1 3 1 
Task3 1 1 1 
Task4 1 1 1 
Task5 3 1 1 
Task6 1 1 1 
Task7 1 1 1 
Task8 1 3 1 
Task9 1 1 1 
Task10 1 1 1 
Task11 255 63 31 
Task12 1 1 1 
Task13 1 1 1 
Task14 1 1 1 
Task15 1 1 1 
Task16 1 1 1 
Task17 1 1 1 
Task18 1 1 3 
Task19 1 1 1 
Task20 1 1 1 
Task21 1 1 1 
Task22 1 1 1 
Task23 1 3 3 
Task24 1 1 1 
Task25 3 1 1 
Task26 1 1 1 
Task27 1 7 3 
Task28 1 1 1 
Task29 1 1 3 
Task30 1 1 3 
Task31 1 1 1 
Task32 1 1 1 
Task33 3 1 1 
Task34 1 1 1 
Task35 1 1 3 
Task36 3 1 3 
Task37 1 1 1 
Task38 1 3 3 
Task39 1 3 1 
Task40 3 1 1 
Task41 3 3 1 
Task42 1 1 1 
Task43 1 3 1 
Task44 1 1 1 
Task45 1 1 1 
Task46 1 1 1 
Task47 1 1 1 
Task48 1 1 1 
Task49 1 1 1 
Task50 7 1 1 
Task51 3 1 7 
Task52 1 7 3 
Task53 1 1 1 
Task54 1 1 1 
Task55 1 1 1 
Task56 1 1 1 
Task57 1 1 1 
Task58 3 3 15 
Task59 1 3 3 
Task60 1 3 3 
Task61 1 1 1 
Task62 1 1 1 
Task63 1 1 7 
Task64 1 1 1 
Task65 1 3 1 
Task66 1 1 1 
Task67 1 1 1 
Task68 3 3 1 
Task69 1 3 3 
Task70 1 1 1 
Task71 1 1 1 
Task72 3 3 1 
Task73 1 1 1 
Task74 1 1 1 
Task75 1 1 1 
Task76 1 1 1 
Task77 3 1 1 
Task78 3 3 7 
Task79 3 1 3 
Task80 1 1 1 
Task81 1 1 3 
Task82 3 1 3 
Task83 1 1 1 
Task84 1 1 3 
Task85 1 1 1 
Task86 1 1 3 
Task87 1 3 3 
Task88 1 1 3 
Task89 3 1 3 
Task90 1 3 1 
Task91 1 1 1 
Task92 1 1 1 
Task93 1 1 1 
Task94 1 1 1 
Task95 3 1 1 
Task96 1 1 1 
Task97 3 3 1 
Task98 1 1 1 
Task99 1 3 1 
