files/tasks_parameters/ExAp01/sample8.txt 0.788617 3.15778 1.5595 0.203411 4.60086
files/tasks_parameters/ExAp01/sample12.txt 0.809974 3.94962 1.6705 0.207924 4.70293
files/tasks_parameters/ExAp01/sample2.txt 0.76664 3.78275 1.74131 0.200098 4.52591
files/tasks_parameters/ExAp01/sample44.txt 0.686719 3.59825 1.65317 0.200005 4.52382
files/tasks_parameters/ExAp01/sample27.txt 0.699594 3.45743 1.5148 0.182129 4.11948
files/tasks_parameters/ExAp01/sample17.txt 0.925109 2.77299 1.44514 0.14646 3.3127
files/tasks_parameters/ExAp01/sample9.txt 0.740219 2.99933 1.451 0.177444 4.01351
files/tasks_parameters/ExAp01/sample34.txt 0.831645 3.02928 1.58429 0.157984 3.57336
files/tasks_parameters/ExAp01/sample40.txt 0.764924 3.86889 1.52122 0.168379 3.80849
files/tasks_parameters/ExAp01/sample33.txt 0.801869 3.63695 1.71905 0.199765 4.51839
files/tasks_parameters/ExAp01/sample48.txt 0.682426 3.39061 1.49062 0.154728 3.49972
files/tasks_parameters/ExAp01/sample29.txt 0.733528 3.30472 1.38739 0.223868 5.06357
files/tasks_parameters/ExAp01/sample11.txt 0.707448 3.10585 1.41612 0.174079 3.9374
files/tasks_parameters/ExAp01/sample14.txt 0.666642 2.70971 1.43432 0.162214 3.66905
files/tasks_parameters/ExAp01/sample0.txt 0.743971 3.6937 1.5439 0.18367 4.15434
files/tasks_parameters/ExAp01/sample7.txt 0.809856 2.70501 1.42221 0.143463 3.24493
files/tasks_parameters/ExAp01/sample23.txt 0.759551 3.2697 1.57822 0.181448 4.1041
files/tasks_parameters/ExAp01/sample13.txt 0.729548 3.84225 1.67648 0.198247 4.48406
files/tasks_parameters/ExAp01/sample22.txt 0.879891 3.09569 1.56121 0.148796 3.36555
files/tasks_parameters/ExAp01/sample25.txt 0.746637 2.73966 1.5007 0.148149 3.3509
files/tasks_parameters/ExAp01/sample36.txt 0.75928 2.85948 1.28553 0.130042 2.94136
files/tasks_parameters/ExAp01/sample46.txt 0.762393 3.58643 1.69998 0.210103 4.75221
files/tasks_parameters/ExAp01/sample31.txt 0.705376 3.4832 1.53782 0.1722 3.89491
files/tasks_parameters/ExAp01/sample37.txt 0.772494 3.95293 1.50705 0.171701 3.88362
files/tasks_parameters/ExAp01/sample16.txt 0.598086 3.31216 1.30115 0.150249 3.39841
files/tasks_parameters/ExAp01/sample10.txt 1.08636 3.17098 1.61789 0.153776 3.4782
files/tasks_parameters/ExAp01/sample39.txt 0.700083 3.26617 1.44406 0.165669 3.74718
files/tasks_parameters/ExAp01/sample19.txt 0.761943 3.63532 1.52509 0.196094 4.43537
files/tasks_parameters/ExAp01/sample20.txt 0.662661 3.20793 1.25367 0.147335 3.33251
files/tasks_parameters/ExAp01/sample43.txt 0.646674 3.11551 1.4202 0.150644 3.40736
files/tasks_parameters/ExAp01/sample32.txt 0.722684 3.5311 1.42482 0.168744 3.81675
files/tasks_parameters/ExAp01/sample45.txt 0.731975 3.80283 1.48324 0.19807 4.48006
files/tasks_parameters/ExAp01/sample26.txt 0.634603 3.21645 1.29701 0.166061 3.75606
files/tasks_parameters/ExAp01/sample5.txt 0.636522 3.5889 1.52559 0.178903 4.04653
files/tasks_parameters/ExAp01/sample21.txt 0.659926 2.75242 1.55936 0.19512 4.41333
files/tasks_parameters/ExAp01/sample38.txt 0.676658 3.31563 1.37515 0.166157 3.75822
files/tasks_parameters/ExAp01/sample1.txt 0.724178 3.74964 1.51696 0.19701 4.45607
files/tasks_parameters/ExAp01/sample15.txt 0.693046 3.32916 1.48508 0.180707 4.08734
files/tasks_parameters/ExAp01/sample24.txt 0.843979 3.45951 1.59549 0.16529 3.73863
files/tasks_parameters/ExAp01/sample3.txt 0.916744 3.70014 1.70809 0.237107 5.36301
files/tasks_parameters/ExAp01/sample6.txt 0.730089 3.33003 1.58323 0.184714 4.17797
files/tasks_parameters/ExAp01/sample30.txt 0.893262 4.1841 1.4861 0.239623 5.41992
files/tasks_parameters/ExAp01/sample42.txt 0.747833 3.43221 1.70276 0.177383 4.01214
files/tasks_parameters/ExAp01/sample4.txt 0.782775 3.72477 1.6136 0.196448 4.44337
files/tasks_parameters/ExAp01/sample28.txt 0.689545 3.11323 1.45032 0.158819 3.59225
files/tasks_parameters/ExAp01/sample18.txt 0.769617 3.47418 1.45209 0.149064 3.3716
files/tasks_parameters/ExAp01/sample35.txt 0.803499 4.57086 1.49394 0.185031 4.18512
files/tasks_parameters/ExAp01/sample47.txt 0.711968 3.13768 1.52397 0.16417 3.71329
files/tasks_parameters/ExAp01/sample49.txt 0.776571 3.13288 1.49657 0.156154 3.53198
files/tasks_parameters/ExAp01/sample41.txt 0.763258 2.81964 1.49636 0.150876 3.41259
