Task0 0.009006959816796781 0.35464154156744915 0.2738382869670414 0.15986929043238635 0.5424268868164327 0.8229563583334829 0.9496682550921138 
Task1 0.02229636789484947 0.08943906443164115 0.22603577377195164 0.10991702528175328 0.37503275628083654 0.717298831567587 0.9755309530084433 
Task2 0.15926943454261666 0.046808402309289954 0.6056739372192267 0.08496397034809823 0.7411099938899066 0.3657771862260375 0.36576463933161724 
Task3 0.05757193220191784 0.30818603288735813 0.4606376174752214 0.014461650723404709 0.5181454168717772 0.5383954049691223 0.49113848544099675 
Task4 0.08588184872297569 0.08673566009709688 0.22933131510644694 0.17349629428675795 0.9724978094480501 0.4751770512442874 0.7106145928189392 
Task5 0.03466092504652827 0.20488629682837545 0.016287149076108814 0.09990212345307284 0.8894238989198322 0.4770434128129751 0.8456298835302982 
Task6 0.13908854429425152 0.08734784177785972 0.24844815641948909 0.2258006547553288 0.501954303665071 0.8158785478682489 0.4122876245380874 
Task7 0.03674278656502437 0.19086856649389727 0.1698223132081595 0.10086986735840142 0.5393011986066827 0.3930461024419707 0.9844638117698374 
Task8 0.005491037885988116 0.032579279665265484 0.07799914060153992 0.03511584663344674 0.49623035430683926 0.9936702332086078 0.3723700511721792 
Task9 0.015592558520223159 0.10357827492193668 0.08590424300995236 0.06720909625061688 0.5860758776244176 0.8947278596364028 0.9283183856362205 
Task10 0.0016109488488382315 0.0003136430069346375 0.041443849805926934 0.02215671113524802 0.7743351462311798 0.9698166431886404 0.9274563779695957 
Task11 0.06260172150979627 0.21867756318144915 0.09016526523412294 0.06879557396792103 0.8611115481749398 0.5427060418960278 0.8327468771871185 
Task12 0.011882137878463046 0.024478060410574477 0.013261300253277805 0.01490754599129664 0.7469974927564385 0.8841680263941889 0.42224853453873173 
Task13 0.0025816154906878478 0.004893915991499301 0.002807942240936772 0.004796617878805992 0.6279708715855639 0.3331119474564085 0.792179341161624 
Task14 0.04296430132998667 0.03844914104719491 0.0014018446124862839 0.8256010748034012 0.4698286697350074 0.5058330022423951 0.9566796623314044 
Task15 0.009248332744930969 0.11004635286907676 0.09504768841303685 0.01704426036050449 0.9637016920616392 0.8363304472602382 0.6899037272689909 
Task16 0.05691050609422437 0.042746493827133684 0.13054999281449572 0.055927905233767644 0.9038654612307802 0.6783704736381146 0.5815533619237002 
Task17 0.039696612749813 0.09696729613490201 0.03952834773840999 0.1562725776105941 0.5704966731604066 0.8818553689247997 0.47358350608372934 
Task18 0.14532195349000265 0.07876601949018462 0.4833490651145212 0.07295125756604678 0.5293560310250884 0.35629272732214357 0.5750216627039019 
Task19 0.040740564824504236 0.10462822937344533 0.02634371589824525 0.0717733491962146 0.47878405723628853 0.5333634168423282 0.9805309489540197 
Task20 0.08420031112438793 0.5252096450256715 0.03280757265109252 0.1043246058147484 0.9901665966737785 0.6882768538103292 0.5641512415171701 
Task21 0.023841798814217816 0.18589912910253786 0.07996711054416085 0.1523655410420048 0.7420005261967838 0.7757497899103507 0.6205027896351398 
Task22 0.06208478183673482 0.1838940537689531 0.05170638307345175 0.13986055890363452 0.3863263546176174 0.46325752338752696 0.6781917033408276 
Task23 0.010058450949020054 0.03016050631291103 0.03755947101205069 0.06966459312387947 0.7369177158902539 0.47362234662196057 0.8978728693494016 
Task24 0.1120752549244241 0.061233391145042296 0.42782733350428015 0.2228001574790995 0.7807201251036467 0.5881878830571908 0.5391850221371751 
Task25 0.003461014525819042 0.34102350748332594 0.22870608991617516 0.2609340048389742 0.9835941951929235 0.71649630737039 0.5760111892930448 
Task26 0.10187226479723575 0.2960623786079094 0.27148796078832627 0.31902816112747107 0.30315118596470114 0.9613889895334351 0.41893316197894964 
Task27 0.12352581925398823 0.2799975251336634 0.25903988397231276 0.2736322257438413 0.5784896553434095 0.8665454652582922 0.3695614273743205 
Task28 0.04587040988465923 0.07238628029167549 0.19391822108461404 0.2913339431755737 0.4279050424762918 0.5262188706465212 0.9636509871645977 
Task29 0.08078592600382818 0.2441932692410474 0.11315811502576041 0.22312894745060674 0.8288483282404282 0.8723803860374093 0.4426021587708705 
Task30 0.037091261759586054 0.21099433068841122 0.44398872175907705 0.16198068293452517 0.9894109344301045 0.3584742144397388 0.3735906335359912 
Task31 0.011522202005389545 0.17696606588687885 0.016533640423768797 0.08047728459989113 0.32161696168660914 0.5140696650261888 0.5796841059961664 
Task32 0.06651595755419515 0.23725984198825228 0.12636224668807292 0.41165536129563374 0.9391471246228724 0.7106270645129923 0.9231800483427197 
Task33 0.055501909409262785 0.3211813819861212 0.24985582610795767 0.24540357328603402 0.455007117563337 0.5014267777828028 0.7119720018800675 
Task34 0.019144646856784703 0.06165401703919563 0.007075931592005139 0.12787956686210847 0.9581426556077905 0.5384013175760406 0.3043286767924865 
Task35 0.044314916151048316 0.07453920116337939 0.07568418000916773 0.0463370801648834 0.4059867548447371 0.9674430638718288 0.47448877927580047 
Task36 0.09664189041375951 0.2881714578045763 0.250437710154286 0.3473272561736308 0.5316393013454246 0.9447717023585378 0.7972428109363789 
Task37 0.04424679657753009 0.0897757505205367 0.1373116717981873 0.011813507868462024 0.9340664823492417 0.7571274334949218 0.9685118376882502 
Task38 0.045444127382452015 0.09222782578816809 0.06788627558244681 0.06194770623566762 0.5744522777947506 0.4043273362636797 0.33564182026877853 
Task39 0.046494218228732946 0.14494054250959149 0.23361447442637331 0.22384186990476082 0.4028025382671891 0.36903988806159665 0.8552693199618999 
Task40 0.04500032209393791 0.10597724288822472 0.06986782689998558 0.008821039090409457 0.531816504986165 0.9212140660966321 0.35792072423268184 
Task41 0.014251391250683396 0.02772879161009973 0.03170037434873339 0.006876174523444113 0.6034655692753454 0.38635288651808664 0.6666747497560528 
Task42 0.09594310657573832 0.21863736636283465 0.16435040025954273 0.08410808036959232 0.8116634714741087 0.4267661597712513 0.7866280704689796 
Task43 0.029828468306843645 0.20741209849438494 0.05709698435109126 0.12544507512634742 0.5142556277311323 0.43223333435559125 0.4686379434852953 
Task44 0.05661780099150462 0.13370751530497338 0.15543611792862275 0.1230579685128821 0.7604481579580802 0.743104585945358 0.8941613024469193 
Task45 0.10501484299897534 0.019296100060557896 0.45038734666969593 0.10616569207419206 0.33533200090467685 0.6445693296485986 0.6129370276742974 
Task46 0.07527514443689289 0.3322061881168297 0.39828473631632705 0.11818308173494475 0.4835252414781851 0.5155528022473518 0.831452954116058 
Task47 0.049964335550560304 0.02903482214155599 0.1732752830304376 0.25681493749641676 0.7066325346580631 0.8141516916046645 0.8864916326645962 
Task48 0.09561197122772722 0.21108123218835792 0.1999418576522993 0.06282214312091976 0.32194548601173595 0.46947418351080106 0.5910619576189422 
Task49 0.011311588867589026 0.017664692979472672 0.012639785955059562 0.041915597172541195 0.9972910134501147 0.3391465463404233 0.9071689549154418 
Task50 0.07436388632889003 0.11450865443869522 0.10460376883366553 0.11293957527033284 0.8703142412814748 0.8124282719624627 0.9752071892864711 
Task51 0.07612772551313358 0.17976280375358214 0.31144864261458877 0.34762347208329647 0.5310292701877328 0.8127438704548184 0.8925342118945927 
Task52 0.005591424696821554 0.0922525268851072 0.10476238010991722 0.24629724381657989 0.4618235707022368 0.6600093064016661 0.48576181034393395 
Task53 0.01526161284442318 0.059376585563196006 0.09574387977088651 0.00760539411121708 0.5021119996456282 0.8151951940509714 0.5334063273284101 
Task54 0.057289955524705276 0.19019141315422744 0.007731964927669036 0.19935181593952214 0.3172329635488301 0.3417291352604299 0.4095862257077531 
Task55 0.15080491563897533 0.15169694860383895 0.12001040231222157 0.5071256691066516 0.8827929892772068 0.39465813476936207 0.6780935056088995 
Task56 0.08872773698911537 0.26054548145264683 0.35400097189571017 0.2714328175706948 0.46420767420596387 0.7870561947241574 0.5230288156922303 
Task57 0.039833021387589235 0.10701600095056948 0.22095302629191457 0.07289199436484212 0.8311129676430615 0.5275010702527053 0.7034308245118274 
Task58 0.05122606066783933 0.181825663826044 0.429139030315157 0.14317708575273894 0.49678330347318234 0.9917721621199416 0.5525221845174313 
Task59 0.09419334863478884 0.1493845372261427 0.17602138090745534 0.18090529756655688 0.30097756830629263 0.5609219910726319 0.8756529655393128 
Task60 0.020470236220769645 0.01083007057016328 0.17933310667660554 0.20316711629492465 0.47378551763410753 0.8911790751409157 0.38282638299355365 
Task61 0.04794046400902981 0.1788697390959736 0.0683245607644467 0.18896342474616032 0.94900798336776 0.6760980012872705 0.8098353672708449 
Task62 0.1148155722326362 0.1632034895634841 0.4268049407498321 0.1861076970176013 0.6829054965404876 0.31770760576204443 0.39340987720066645 
Task63 0.09649261710448326 0.10416959722113729 0.5907855094865764 0.11940367646008412 0.6673978027705288 0.953361448622762 0.734965537738006 
Task64 0.01510762509395693 0.14140217237796426 0.20025745642744114 0.030978324236849892 0.9805566907990719 0.34555061872744053 0.841708087942624 
Task65 0.07540051474592442 0.0649825593441709 0.19143776334686052 0.0549618127586176 0.7486866270495846 0.3068947417184572 0.5424658679588196 
Task66 0.08791577321705153 0.1978411542596177 0.13634607245004052 0.20834630492523287 0.3677472509027191 0.5038034940943674 0.4027463323942379 
Task67 0.00793830396499216 0.0030387483328308644 0.043385639317733316 0.011270716827234187 0.42969212453569394 0.5990153197109028 0.5752451864350236 
Task68 0.008804601045312417 0.023840208841488266 3.312559348864513e-05 0.019763076485041026 0.4037283702285531 0.48243072785684277 0.8600767790976371 
Task69 0.05040048793275842 0.1358487750488127 0.05597245457739474 0.136443646219182 0.666328976295584 0.9732077742171816 0.813650883643261 
Task70 0.03187645886311874 0.061536867759146525 0.0253172048602715 0.041796178040042424 0.5004216474365946 0.8105128497366407 0.3886740620228494 
Task71 0.055526417719510925 0.19311120077026844 0.15093826144552727 0.06083474260266109 0.42738469256225853 0.9546713994710694 0.967800759396136 
Task72 0.08204391341452255 0.1571628440745069 0.28050957282445765 0.25070314045152053 0.9888836496837226 0.5909133452365196 0.6137517187890152 
Task73 0.16404148100881585 0.20990316922676108 0.3504387475020446 0.22534028430950231 0.7384555579245505 0.921982881567107 0.3367265909184191 
Task74 0.023912624034227233 0.03278169803668915 0.11232782593427987 0.09872442655317314 0.8603989150146096 0.5657872475720704 0.6295859260633916 
Task75 0.06573857974545524 0.10553800323551644 0.10688712645450062 0.05901555795539637 0.3137110903153769 0.7139029185953953 0.8718161107231912 
Task76 0.06239751453088184 0.15462697703918993 0.1397812801832026 0.22182019113667015 0.3826553655087795 0.32142925691848057 0.37738019958403907 
Task77 0.01417441167194473 0.3042764183688244 0.2075614128256939 0.2548018451755357 0.6771561744507306 0.4904225307194913 0.8676052486852697 
Task78 0.08870535547923601 0.3720212316222849 0.026663561350421597 0.2744317738526465 0.3768574148421103 0.6794101561376735 0.6486535525363742 
Task79 0.01763317288860265 0.004439936751403623 0.10903080493586105 0.06818809501673219 0.47180327284046464 0.5429753404224256 0.8921993975571696 
Task80 0.017891134941482534 0.0052911153538305195 0.0818492678227295 0.0603298690699071 0.9440037920999658 0.6118153587829553 0.9185241610730568 
Task81 0.0006996380305422994 0.01103533486360199 0.05882166430355018 0.048971573207348115 0.470500104621572 0.6982564238941835 0.4667492143368712 
Task82 0.002436123986993434 0.00726723808739867 0.004953133129809939 0.0011605028767002674 0.4336910743987556 0.7027135199807681 0.8291384196121705 
Task83 0.0468046472801787 0.2045731700366206 0.11896519791224897 0.0808952712630322 0.31904282943812784 0.7619692058892227 0.8662823421698849 
Task84 0.009259110809434652 0.013592456429042173 0.011206272172770567 0.023660205291234696 0.8478432858230951 0.48843442573564877 0.7022201949312543 
Task85 0.020739714506744594 0.26003110220457404 0.05856977781678154 0.2530432114884962 0.70635058266525 0.9895486701516101 0.422937193709193 
Task86 0.0050362813159687886 0.11059869433687546 0.15073435122505102 0.17865242623954117 0.9960120104532304 0.44128846877386024 0.9345375890048837 
Task87 0.08951678219996836 0.02838142386639371 0.3949645401858169 0.3975360393673335 0.9178463942253974 0.32420035480401577 0.5500580144153194 
Task88 0.04494687349181192 0.06329133029481222 0.2119077371106301 0.17937728710484613 0.700522469951405 0.6156603406065845 0.49002901230412554 
Task89 0.01185092614789678 0.025085132149637708 0.06988679433656743 0.28333816391513816 0.38914828449440075 0.41921719370086874 0.8012905605252025 
Task90 0.01292407152375866 0.33310505597946094 0.2461850244378235 0.32742925737305467 0.6207980134808009 0.3825014451656262 0.8445331298340175 
Task91 0.05066354827655309 0.015073047923573106 0.33249627891276146 0.08423111981522804 0.47022175070524913 0.30327249063640505 0.9110775605330812 
Task92 0.025047674150485876 0.1232312152515534 0.0852158844273946 0.03686081028871811 0.813042994506965 0.7337427329950201 0.6551672006667748 
Task93 0.15009938285502705 0.10047518212503039 0.4647327369218843 0.26667671304915486 0.8042794999509306 0.975055502620217 0.8815507579391455 
Task94 0.029465487510988497 0.08142544535938287 0.22863016831307084 0.14309523576973054 0.624149256604053 0.6337747132906661 0.8521951639669383 
Task95 0.0470743937971168 0.0620232495178806 0.08953892293442686 0.21202751732412073 0.89724309007184 0.40305935623876993 0.9120979887839813 
Task96 0.10390677644258495 0.24140556890056994 0.3135646706320429 0.2263282197370716 0.6630261880041295 0.9851645866711893 0.8722406233042004 
Task97 0.010868770851636718 0.2089921548468848 0.31308580662109486 0.3516776464101711 0.7305566239408412 0.7631877679227754 0.7304086793754619 
Task98 0.014670135355611715 0.03246318056874812 0.023649347693223997 0.004924516641165843 0.8713589094963807 0.3780627304178439 0.38626252693876884 
Task99 0.0076017827005919 0.10279354921328934 0.28142116850496174 0.29300351232550365 0.8692613166565801 0.9614098225751415 0.9354463530589885 
