Task0 0.004809963558693424 0.017394278648109926 0.01590105862889407 0.011708361989697812 0.9353990106690564 0.5919603822612154 0.36980160250179506 
Task1 0.005408530217895175 0.009011306399189024 0.0046307479734580045 0.009710848399008829 0.43336813104594485 0.6623888103274174 0.4772137566625211 
Task2 0.011466944706015413 0.1986780973851913 0.11386495043460251 0.394611964166076 0.9728039850417454 0.8456804163896505 0.5307463657954933 
Task3 0.012704768275781932 0.030250764520693845 0.0026391879309667085 0.02180676186094404 0.7356027679936201 0.9016362693039452 0.8844808448775963 
Task4 0.07968599471757899 0.038684614569187016 0.31788686956355205 0.22987732475798878 0.3573050969580511 0.8840995001093686 0.8257805296402463 
Task5 0.0167741076746803 0.04970791933783953 0.034195527050533636 0.04335924912507869 0.8974722508426429 0.9782035409194796 0.5891032290113614 
Task6 0.05997647907259241 0.04026822414279797 0.006160908792830411 0.19363804531986864 0.6335467440773942 0.728799068579995 0.6730722572763099 
Task7 0.06851776600729412 0.2761489006339374 0.03532365357133987 0.2872260536473157 0.7456881898162547 0.5108464406621721 0.6273647918795366 
Task8 0.013238249277938768 0.01909163399768645 0.09949747863042366 0.07801508612467074 0.32606924417318434 0.39302726112739117 0.547118161318527 
Task9 0.013635343915285541 0.07904741365624798 0.48058110107272295 0.38552026074822976 0.6499272258647983 0.38646512315886955 0.5860646254339825 
Task10 0.001793696366103638 0.20874324632209817 0.20470787461020612 0.03868022857366942 0.7826996679731315 0.7053099692815206 0.3071203661824075 
Task11 0.05377342159818801 0.24817774996196515 0.19271530502931208 0.0648966797232012 0.40218861892043156 0.9378454862004779 0.3186038219481595 
Task12 0.02333586810418918 0.2616753500696021 0.1435461873696871 0.023781378531374204 0.7519951840191054 0.66067772360425 0.4133032144865359 
Task13 0.012907300425139944 0.04989048259113987 0.10650107651789188 0.10297269611390031 0.8214360744860001 0.5070557654581513 0.7907642290303802 
Task14 0.07349215299129866 0.13851348130772753 0.10350368118294874 0.23608538230671888 0.9603250196177346 0.7808418524081759 0.9074601642753977 
Task15 0.12696043031774 0.1664897125841338 0.20541344549196305 0.23945777341338573 0.74803734303115 0.3825329795511087 0.39134656123138495 
Task16 0.15333359724252926 0.08354099822374064 0.1090033240962356 0.49475984142292523 0.5673666194739211 0.39236096305186413 0.9917885702720162 
Task17 0.057331368455153284 0.005953379353085801 0.08289747586055204 0.14346772824686702 0.43588503656754307 0.5838149853762391 0.5899848475168636 
Task18 0.013487800551743177 0.03931617884927085 0.033090741186925954 0.26957567067120736 0.5299550905143277 0.5734438566581207 0.5295991821499884 
Task19 0.06781046085487094 0.12516688336529058 0.08832544523869393 0.3473265558647073 0.7599698671474268 0.8857195679857512 0.5666340828242997 
Task20 0.004877060374922217 0.02339857425566134 0.011574717267702303 0.01844297826704836 0.5348744700472388 0.9596684749140341 0.716859613357391 
Task21 0.024044842672097146 0.090908724902167 0.15817883804233773 0.0771664669623449 0.6789305379337967 0.6955853048190443 0.8932599947560027 
Task22 0.0051991366604451274 0.020469352942324985 0.013177679863084338 0.013975662903107096 0.4449430872853629 0.9819549111842019 0.8291170746500813 
Task23 0.012095830306152779 0.019669019784927765 0.030731537433119602 0.008966612103361499 0.508847815384133 0.42129695548220897 0.6265031308436846 
Task24 0.13729914414902777 0.11721167525278738 0.5359867459074893 0.014062798414439377 0.4094040428478284 0.5630861998424688 0.45260743135553194 
Task25 0.05751151787080876 0.3896770592801323 0.2257421539717535 0.09430028190398822 0.37980233809342373 0.45246746644152636 0.9257335968565177 
Task26 0.10830100036330233 0.11712466054582982 0.35681199031569644 0.14744547207688125 0.41256589129508225 0.37186043307649785 0.6803574495403479 
Task27 0.08568144279095559 0.2558019924184527 0.06192055760106452 0.2048404031360027 0.3861954087977459 0.5509969799372079 0.7431070499774712 
Task28 0.019745908363282667 0.02011279158633503 0.25129642218250814 0.01544388610945217 0.5061228275026576 0.5488127043403948 0.5321176906935421 
Task29 0.07217542748683684 0.0732415716414552 0.09611851947983063 0.20822908835773243 0.41241434767062995 0.6814921812919169 0.9907573998592427 
Task30 0.005173231036729293 0.013726385456807181 0.005063996828089815 0.010401761192353408 0.386462620049421 0.7341021095704534 0.33198321467458525 
Task31 0.015299231990414577 0.01824909285616063 0.05600195692122078 0.018936727930034668 0.9042399527669722 0.8415468504359622 0.684133038407027 
Task32 0.0021779403629024765 0.0015753531897458868 0.006557003519658112 0.009005789594504474 0.784742982811497 0.7355158630641899 0.6171755143122036 
Task33 0.011377760371308752 0.009522543929519414 0.02403331066595256 0.022936258579917882 0.434488057688553 0.7532936693566381 0.3108712331875434 
Task34 0.006434392338601662 0.2389726320763851 0.06673677720661256 0.010208318902981746 0.7832667357531782 0.7616171670674468 0.7237885955590877 
Task35 0.03050994023663729 0.14608292570373752 0.046014708787004345 0.07006098707528595 0.7413242119115531 0.3839830437836522 0.39875460556445985 
Task36 0.05906616268673531 0.6248471692591527 0.034210351421359884 0.18321800293831814 0.37014850483418676 0.6104479288927996 0.5097958795001465 
Task37 0.08392610392256965 0.24090167568555054 0.05177580601848258 0.20577201786142177 0.9035234788732072 0.8327061535099343 0.42874303801583147 
Task38 0.058162253941264445 0.2874023058958908 0.055124746284577475 0.3075729435234638 0.8537332798922064 0.4628985834850836 0.8080433629477206 
Task39 0.010096553974798148 0.022098835712820356 0.0601837381447448 0.0814388074277644 0.9420778922775361 0.6723431645786242 0.47958680460310005 
Task40 0.010411004542952004 0.1443160855182415 0.18717910286122325 0.10694160380570149 0.7767237427312159 0.7292084764153539 0.6987661396439179 
Task41 0.09559075584518942 0.11312132586493073 0.1651408379881327 0.33190877781864575 0.35157902520889733 0.37630975887747325 0.33259097542748667 
Task42 0.0018421421363885102 0.001157221204839413 0.013926547317562554 0.0040235401089533185 0.7201331447227297 0.5822125667400179 0.6318405418841546 
Task43 0.1006809975346431 0.08502845341100877 0.13673816240952383 0.20733474708437086 0.6033174529285306 0.8352955966309219 0.3488072269093757 
Task44 0.03193538712568574 0.1671413063002398 0.011033213508766924 0.42706771219200357 0.9916830415328395 0.6379392168213027 0.8959783589144943 
Task45 0.12956711621121372 0.08086931555744643 0.16570840605593784 0.32702634707010814 0.977499467109717 0.484749906915928 0.7636374515207796 
Task46 0.061376981765277255 0.10133772160020234 0.12204551339440153 0.1968928165502831 0.3532302085002958 0.9602423381899394 0.4160472330914215 
Task47 0.0006764976480056721 0.00808223482961662 0.005428073150767442 0.003749474007834613 0.46096728614372384 0.31981987034832743 0.5518678531701691 
Task48 0.02531456555234451 0.04684752778628116 0.40550920788450434 0.47797277444640013 0.9971035635237131 0.8939459883882914 0.6816371850930152 
Task49 0.09942987098906433 0.15714431188568243 0.03315759242665205 0.36375468436472547 0.5487832932941046 0.9214815193047488 0.8318873853499371 
Task50 0.08397682686207035 0.19308159822060098 0.13859947906520287 0.15820736749670977 0.9683353870017366 0.5597453479418284 0.4866263128951819 
Task51 0.022296982085346317 0.04227327999260604 0.10471380261254254 0.0888606103814426 0.5249600625915148 0.890714723534964 0.3262476751736514 
Task52 0.09796289470221237 0.320059872551455 0.17724161165977168 0.2177298403021486 0.44137909106944445 0.5478038099495504 0.8480058444886813 
Task53 0.02544558306446255 0.0013877773779685549 0.15349704340301737 0.37443432867530946 0.5213764968696731 0.8554166225105455 0.7985601137203793 
Task54 0.050210005216812785 0.09579009657566132 0.01247896826881622 0.11722994376627663 0.639840834699003 0.4811965018450488 0.5634182480875483 
Task55 0.08117861829163937 0.23970138838231717 0.34285575741967367 0.060205891091226746 0.8132465618119338 0.3836584552703105 0.7413598191653287 
Task56 0.04256707945894836 0.3296000793928487 0.3612432368508419 0.17128661864323233 0.43103564664450766 0.958594803625654 0.8879191896753269 
Task57 0.010265137188083393 0.01321315219738427 0.013310848928492982 0.01657502801751891 0.6679925408750131 0.9397232405321558 0.39186632977588776 
Task58 0.00691533648086319 0.05864281611348678 0.026043095717559497 0.14532564899605455 0.36897645345574537 0.521658788830833 0.5546324264041028 
Task59 0.09154252239031252 0.1745082694650039 0.0006348604172079401 0.5311911535526206 0.5099646031186524 0.7284568502183496 0.893693978574412 
Task60 0.17662195892307814 0.30638600694949897 0.317752423950493 0.18063269414280167 0.9905113634116844 0.9985599925270532 0.854284783436821 
Task61 0.022439229882836437 0.007993842557239754 0.037589709623306086 0.11674706918002133 0.3716150861404468 0.6581643971929272 0.7155192201866032 
Task62 0.060256250163454796 0.06558785969340905 0.021722265034536104 0.32109142497176973 0.685677692918433 0.809890348200156 0.6968841215883992 
Task63 0.03359744092277097 0.13195348323425798 0.21516277687441387 0.09187246432008918 0.6564119334163622 0.6078539153151952 0.3102883954357773 
Task64 0.08946307637669183 0.5782464711847806 0.08536149348203875 0.03972359334021559 0.6811484164333976 0.6869538577390417 0.5238590544148471 
Task65 0.0795680638335805 0.2058295961175508 0.11451070393634502 0.10986267466645737 0.9351436781083551 0.877349951668754 0.35713705045045097 
Task66 0.017449465783556987 0.07647286725365618 0.10705952792921668 0.14005572002096486 0.4659374347554817 0.7815661711677286 0.9010927398937427 
Task67 0.046150007896106085 0.28402138482962924 0.537062270748745 0.09357103320179755 0.8988180467172859 0.5510997919670739 0.545525953112469 
Task68 0.0021213807077267353 0.022406306027755514 0.026778223742692352 0.009206217589003383 0.8490180390401623 0.604503897161494 0.362122484034949 
Task69 0.0010092303692286555 0.13143751761874867 0.2523340980303452 0.20413982824434507 0.596358334519709 0.3016879795811263 0.7213339656645386 
Task70 0.07761892785588376 0.09921184114903892 0.2808290006229359 0.22734867870150968 0.5777337285573307 0.34853552256848286 0.7854341783201861 
Task71 0.0005917925484621394 0.15897024626017145 0.3109064225045459 0.047697963692406135 0.48848694022850975 0.4698995212225433 0.444207305297035 
Task72 0.0063219139803774235 0.020330013561209948 0.049608098992643665 0.025857233394772763 0.6109446407507055 0.5498567043439826 0.5455724132456394 
Task73 0.044270708205769775 0.47336496445053294 0.003723153318949284 0.2386676279022146 0.4623268100563186 0.36281283186428803 0.5310649232337331 
Task74 0.03856241903914029 0.12992858606030863 0.2781927656658405 0.29276066599241135 0.5031867059818376 0.6782669841977358 0.9160882164979454 
Task75 0.03912607188322869 0.23200736463299867 0.08361744551066498 0.09031829763579796 0.5899211184874131 0.7620312505900533 0.8843470426296345 
Task76 0.18399378501315056 0.282489367593348 0.46503650482846615 0.06799982457616974 0.6039998913308413 0.3413231113347687 0.9563164687656407 
Task77 0.05183388695674166 0.07024756679272233 0.14664443384922568 0.20004416693739308 0.35398874903913913 0.8657739473016297 0.580010155381661 
Task78 0.03738612058967773 0.24400999599134438 0.2438301097153011 0.24408134092635586 0.5753960040985331 0.44575491929280403 0.9809223153391011 
Task79 0.05725431174020372 0.13785102343163433 0.22961777139531156 0.10809519536080797 0.8286367709311999 0.8104348640641972 0.5639592502349888 
Task80 0.11512445238623033 0.107355889147093 0.24108728378071434 0.26442945482516517 0.7423495632096258 0.5829715672164886 0.8343006783440514 
Task81 0.0009192419887536317 0.010798821236320958 0.003516777258111116 0.007869135182828703 0.7192966635086833 0.6497899074176456 0.9275301164187031 
Task82 0.0720508239106961 0.06573571939922317 0.08375284651913342 0.22150839708535267 0.8623039650863484 0.46065870030203326 0.725113840998322 
Task83 0.015618753965143159 0.1753544270018397 0.09905603943334118 0.5792884742105541 0.7344771772114544 0.7691950713933979 0.6342232432477534 
Task84 0.021612770459059568 0.05155374615819574 0.14016330269002564 0.13531717143991626 0.5515311611489546 0.4132466665173993 0.38973652300466105 
Task85 0.036690854782921445 0.08972263068898535 0.09918807231843282 0.09587472310908146 0.5123462491930881 0.5140301113536457 0.6065576762124312 
Task86 0.08003807707959014 0.09117002847465883 0.23734741981874338 0.01096370374236956 0.6978581753207437 0.32570333003961827 0.7531731127635013 
Task87 0.04420073451446136 0.21689916925034697 0.09517792043371498 0.4099266864028566 0.4962265607080937 0.5893135283148028 0.4511016395411588 
Task88 0.002458421004797853 0.1100579359865811 0.06692949448515963 0.027538473123581913 0.5342593668938336 0.40278409215325434 0.8628848149045301 
Task89 0.054377271800016995 0.186473879044483 0.25426117787852665 0.2534989545337203 0.5776010610575967 0.7159468914980857 0.44451486148085273 
Task90 0.05407723676510228 0.08949534190711189 0.0993077346181486 0.10675913522881303 0.8282691331338359 0.5833756061456132 0.948315232117986 
Task91 0.05627420497055434 0.25099394126154245 0.0399504267646738 0.19364308327854526 0.8893954963471644 0.550822228603044 0.6131856730560235 
Task92 0.010175413843664806 0.3659678087230148 0.07785539971762555 0.059474033758774324 0.3032315706739076 0.6907335465343674 0.5631401120988341 
Task93 0.15163089065687424 0.22460069946605138 0.47539048337453044 0.027745614552479883 0.6177654734691498 0.5733225062005071 0.5974770615534488 
Task94 0.06084067441598538 0.11984151816226564 0.14296745054331356 0.0389277905826231 0.8296868480694488 0.7568153681542591 0.9085078982397661 
Task95 0.09739266066306417 0.16654908432153187 0.1984186401432291 0.27253356354714786 0.7141096035846386 0.5795032638718562 0.6279994889216474 
Task96 0.007554427054833376 0.030235656008783054 0.021767280108237842 0.02496064907686941 0.8236452757410933 0.9570890667118281 0.871125672869349 
Task97 0.023373962217033015 0.00032660888423240224 0.10288486620904269 0.2650936686662517 0.35503032346935554 0.8157498081281063 0.3419216114052806 
Task98 0.003576201504537783 0.002979130211795887 0.033933630719326015 0.03734033483216537 0.924780790044669 0.943750916067847 0.38048082225930174 
Task99 0.0020269096252507656 0.10586222073510228 0.004686751862406266 0.030139687454311028 0.9381820321241845 0.8249627666736996 0.7382043872810232 
