0 10
0 11
0 12
0 13
0 14
0 18
0 18
1 9
1 10
1 11
1 13
1 14
1 16
1 18
2 8
2 11
2 14
2 15
2 16
2 18
3 8
3 9
3 10
3 11
3 13
3 14
3 16
4 8
4 10
4 11
4 13
4 14
4 16
5 11
5 12
5 13
5 13
5 16
5 18
6 10
6 11
6 13
6 14
6 16
6 17
6 18
7 10
7 11
7 13
7 14
7 16
7 17
7 18
8 19
8 20
8 21
8 22
8 23
8 26
8 28
8 29
9 25
9 26
9 27
9 29
9 30
10 22
10 23
10 27
10 29
10 30
11 20
11 23
11 26
11 28
11 29
11 30
12 20
12 21
12 25
12 26
12 30
12 30
13 20
13 22
13 23
13 24
13 25
13 27
13 28
13 29
13 30
14 20
14 23
14 23
14 27
14 28
14 30
15 20
15 24
15 25
15 28
15 28
16 23
16 25
16 26
17 22
17 23
17 25
17 28
17 29
17 30
18 23
18 23
18 26
18 28
18 29
18 30
19 31
19 33
19 34
19 35
19 40
19 42
19 43
20 31
20 33
20 34
20 35
20 40
20 41
20 42
20 43
21 33
21 34
21 34
21 35
21 39
21 40
21 41
21 42
21 43
22 33
22 35
22 36
22 37
22 38
22 40
22 41
22 42
23 31
23 34
23 36
23 37
23 38
23 40
23 41
23 42
24 31
24 34
24 37
24 37
24 40
24 41
24 41
24 42
25 31
25 33
25 34
25 37
25 41
25 42
26 31
26 36
26 37
26 40
26 41
26 42
27 31
27 41
28 31
28 32
28 34
28 35
28 37
28 38
28 43
28 44
29 31
29 34
29 34
29 36
29 40
29 42
29 44
30 31
30 33
30 35
30 36
30 41
30 42
30 43
31 46
31 47
31 48
31 50
31 51
32 46
32 47
32 48
32 50
32 51
33 46
33 47
33 48
33 50
33 51
34 46
34 47
34 50
34 50
34 51
35 45
35 47
35 50
35 51
35 51
36 48
36 51
37 46
37 48
37 50
37 51
38 46
38 48
38 49
38 50
38 51
39 48
39 48
39 50
39 51
40 45
40 47
40 51
40 51
41 46
41 48
41 51
42 46
42 47
42 48
42 50
43 46
43 48
43 48
43 50
44 46
44 48
44 50
44 50
45 52
45 56
45 57
45 58
45 59
45 62
46 52
46 53
46 56
46 60
46 62
47 52
47 53
47 54
47 56
47 60
47 61
48 52
48 53
48 54
48 56
48 57
48 58
48 61
49 53
49 55
49 60
49 62
50 52
50 54
50 62
50 62
51 52
51 53
51 54
51 55
51 59
51 62
52 63
52 64
52 67
52 68
53 63
53 65
53 66
53 68
53 70
54 63
54 64
54 65
54 66
54 68
54 70
55 63
55 65
55 66
55 66
55 67
55 70
56 64
56 66
56 67
56 70
57 63
57 64
57 66
57 67
57 70
58 63
58 64
58 65
58 67
58 70
59 63
59 64
59 65
59 67
60 64
60 65
60 65
60 66
60 67
61 63
61 64
61 65
61 66
61 67
61 69
61 70
62 65
62 66
62 67
62 68
63 75
63 76
63 78
64 71
64 72
64 73
64 74
64 75
64 76
64 77
64 78
65 71
65 72
65 73
65 74
65 75
65 76
65 77
65 78
66 71
66 72
66 74
66 75
66 76
66 77
66 78
67 72
67 74
67 78
68 71
68 72
68 73
68 74
68 75
68 76
68 77
69 76
69 78
70 71
70 76
70 78
71 79
71 80
71 82
71 83
71 84
71 90
71 91
72 79
72 81
72 82
72 83
72 87
72 89
72 91
73 79
73 80
73 82
73 83
73 84
73 85
73 87
73 88
73 90
73 91
74 79
74 83
74 84
74 85
74 87
74 88
74 89
75 82
75 83
75 85
75 85
75 87
75 88
75 91
76 79
76 82
76 83
76 84
76 85
76 87
76 88
76 89
76 91
77 79
77 80
77 84
77 85
77 86
77 87
77 88
77 89
77 91
78 79
78 83
78 84
78 85
78 86
78 90
78 91
79 92
79 96
79 97
80 92
80 94
80 97
81 97
82 92
82 96
82 97
83 94
83 96
83 97
84 93
84 96
84 97
85 94
85 96
85 97
86 94
86 95
86 96
86 97
87 92
87 95
87 96
87 97
88 96
88 97
89 94
89 96
90 92
90 94
90 96
90 97
91 92
91 97
93 98
93 99
96 98
