files/tasks_parameters/ExAp01/sample8.txt 0.789305 3.15778 1.5595 0.203411 5.71502
files/tasks_parameters/ExAp01/sample12.txt 0.806027 3.94962 1.6705 0.207924 5.84181
files/tasks_parameters/ExAp01/sample2.txt 0.770311 3.78275 1.74131 0.200098 5.62192
files/tasks_parameters/ExAp01/sample44.txt 0.689298 3.59825 1.65317 0.200005 5.61932
files/tasks_parameters/ExAp01/sample27.txt 0.680558 3.45743 1.5148 0.182129 5.11706
files/tasks_parameters/ExAp01/sample17.txt 0.925109 2.77299 1.44514 0.14646 4.11492
files/tasks_parameters/ExAp01/sample9.txt 0.719348 2.99933 1.451 0.177444 4.98543
files/tasks_parameters/ExAp01/sample34.txt 0.831645 3.02928 1.58429 0.157984 4.43869
files/tasks_parameters/ExAp01/sample40.txt 0.764924 3.86889 1.52122 0.168379 4.73077
files/tasks_parameters/ExAp01/sample33.txt 0.804827 3.63695 1.71905 0.199765 5.61257
files/tasks_parameters/ExAp01/sample48.txt 0.682426 3.39061 1.49062 0.154728 4.34723
files/tasks_parameters/ExAp01/sample29.txt 0.714368 3.30472 1.38739 0.223868 6.28978
files/tasks_parameters/ExAp01/sample11.txt 0.707448 3.10585 1.41612 0.174079 4.89089
files/tasks_parameters/ExAp01/sample14.txt 0.663833 2.70971 1.43432 0.162214 4.55756
files/tasks_parameters/ExAp01/sample0.txt 0.74698 3.6937 1.5439 0.18367 5.16037
files/tasks_parameters/ExAp01/sample7.txt 0.809856 2.70501 1.42221 0.143463 4.03073
files/tasks_parameters/ExAp01/sample23.txt 0.756523 3.2697 1.57822 0.181448 5.09796
files/tasks_parameters/ExAp01/sample13.txt 0.732139 3.84225 1.67648 0.198247 5.56993
files/tasks_parameters/ExAp01/sample22.txt 0.901802 3.09569 1.56121 0.148796 4.18056
files/tasks_parameters/ExAp01/sample25.txt 0.746637 2.73966 1.5007 0.148149 4.16237
files/tasks_parameters/ExAp01/sample36.txt 0.850926 2.85948 1.28553 0.130042 3.65365
files/tasks_parameters/ExAp01/sample46.txt 0.752752 3.58643 1.69998 0.210103 5.90303
files/tasks_parameters/ExAp01/sample31.txt 0.693404 3.4832 1.53782 0.1722 4.83811
files/tasks_parameters/ExAp01/sample37.txt 0.775322 3.95293 1.50705 0.171701 4.82409
files/tasks_parameters/ExAp01/sample16.txt 0.61011 3.31216 1.30115 0.150249 4.22138
files/tasks_parameters/ExAp01/sample10.txt 1.13118 3.17098 1.61789 0.153776 4.32049
files/tasks_parameters/ExAp01/sample39.txt 0.699747 3.26617 1.44406 0.165669 4.65461
files/tasks_parameters/ExAp01/sample19.txt 0.740681 3.63532 1.52509 0.196094 5.50945
files/tasks_parameters/ExAp01/sample20.txt 0.662661 3.20793 1.25367 0.147335 4.13952
files/tasks_parameters/ExAp01/sample43.txt 0.64758 3.11551 1.4202 0.150644 4.23249
files/tasks_parameters/ExAp01/sample32.txt 0.722684 3.5311 1.42482 0.168744 4.74102
files/tasks_parameters/ExAp01/sample45.txt 0.767123 3.80283 1.48324 0.19807 5.56497
files/tasks_parameters/ExAp01/sample26.txt 0.63186 3.21645 1.29701 0.166061 4.66564
files/tasks_parameters/ExAp01/sample5.txt 0.634621 3.5889 1.52559 0.178903 5.02645
files/tasks_parameters/ExAp01/sample21.txt 0.662968 2.75242 1.55936 0.19512 5.48208
files/tasks_parameters/ExAp01/sample38.txt 0.662065 3.31563 1.37515 0.166157 4.66832
files/tasks_parameters/ExAp01/sample1.txt 0.726038 3.74964 1.51696 0.19701 5.53516
files/tasks_parameters/ExAp01/sample15.txt 0.693661 3.32916 1.48508 0.180707 5.07714
files/tasks_parameters/ExAp01/sample24.txt 0.861271 3.45951 1.59549 0.16529 4.64398
files/tasks_parameters/ExAp01/sample3.txt 0.90462 3.70014 1.70809 0.237107 6.66174
files/tasks_parameters/ExAp01/sample6.txt 0.730089 3.33003 1.58323 0.184714 5.18972
files/tasks_parameters/ExAp01/sample30.txt 0.811362 4.1841 1.4861 0.239623 6.73242
files/tasks_parameters/ExAp01/sample42.txt 0.747833 3.43221 1.70276 0.177383 4.98373
files/tasks_parameters/ExAp01/sample4.txt 0.785048 3.72477 1.6136 0.196448 5.51939
files/tasks_parameters/ExAp01/sample28.txt 0.689545 3.11323 1.45032 0.158819 4.46216
files/tasks_parameters/ExAp01/sample18.txt 0.769617 3.47418 1.45209 0.149064 4.18808
files/tasks_parameters/ExAp01/sample35.txt 0.805149 4.57086 1.49394 0.185031 5.1986
files/tasks_parameters/ExAp01/sample47.txt 0.71522 3.13768 1.52397 0.16417 4.61251
files/tasks_parameters/ExAp01/sample49.txt 0.776571 3.13288 1.49657 0.156154 4.38729
files/tasks_parameters/ExAp01/sample41.txt 0.761529 2.81964 1.49636 0.150876 4.23899
