Task0 0.00970024273609796 0.12233364640803829 0.07483697395756823 0.1146075420160981 0.9364509240233807 0.3597842609188881 0.9839854692080381 
Task1 0.12500125840728446 0.13013311208811792 0.45535533055971683 0.18963745672536272 0.5157468195111051 0.6384779859932029 0.821976087161592 
Task2 0.023603348459189107 0.06157534255956436 0.060097662764389735 0.0761184399027024 0.7443351819601256 0.5468858595377782 0.6886169804871152 
Task3 0.010560671675814037 0.06412753265863845 0.0806753438600069 0.08715710111813747 0.9584900389083428 0.884728221652848 0.7382175223402447 
Task4 0.06480118067500253 0.46550926375613694 0.19761877266236857 0.03871418253772793 0.3824150902609203 0.6426296653913308 0.6066434735661896 
Task5 0.0950900737224963 0.2471077585922856 0.11977611463784602 0.05704027872404855 0.5185617704087692 0.3799780795871899 0.9866292782832182 
Task6 0.00654233868705254 0.04873044338435377 0.005310489892060773 0.03995939186198433 0.5229506448716044 0.7719449488244126 0.8727230827596641 
Task7 0.06143121930941355 0.3612514434078468 0.07741388242532816 0.3650522008794898 0.39032470135679415 0.4112753173238644 0.3066829937500155 
Task8 0.0026491554959720436 0.004948337586008483 0.01689348169511813 0.017490435232651095 0.9335832120426812 0.8161303640436834 0.45428885768498894 
Task9 0.009485402556359698 0.06705777035648369 0.1319456058057053 0.11063324779704148 0.47768447365096894 0.8175798785056536 0.8339768950009772 
Task10 0.03687667600521055 0.2538283974935455 0.1909263901112264 0.1610862768539594 0.6926757753662083 0.5953062813467491 0.5355552527710556 
Task11 0.027929695596583596 0.01197271283861051 0.38709405764341526 0.3076896411553659 0.6386239740469948 0.33623728494167815 0.3828747364690051 
Task12 0.09043187142252945 0.25602237909109227 0.30683893661478157 0.16569537757141187 0.746340578148869 0.8693890572008274 0.44065470085270153 
Task13 0.012040089160328567 0.20403351666016373 0.025959992619966836 0.13551167076020768 0.6094879653920519 0.3808438956294063 0.8474086484875609 
Task14 0.060648306811316485 0.10578213799465597 0.11188275653823132 0.08714036095726244 0.8640564134019466 0.5691114816322439 0.55606204446613 
Task15 0.06308759343489763 0.12459887071230129 0.15951882931690425 0.061117551476185764 0.38025835587321577 0.4093580260805205 0.3997949165401207 
Task16 0.09744175655296058 0.18148242617526628 0.4102959021868253 0.26309697437793744 0.4045637123091713 0.49907362126009636 0.6645544380010273 
Task17 0.0035125331871673202 0.04622826030960774 0.10656108157376899 0.06581061936921183 0.4133524816999168 0.5631031771142414 0.3450481590550212 
Task18 0.017355876370883417 0.1795865641507813 0.10047675912777719 0.14666291924686486 0.6754808369917409 0.4171294606212036 0.8998575983863126 
Task19 0.04409200017335025 0.19315365152675745 0.24786275563340485 0.07508024366617075 0.8083606352662303 0.8904320822304366 0.525879025954541 
Task20 0.008335530971382853 0.013403848448073113 0.07717275779527108 0.018781088028029885 0.4087682837136847 0.7486689775806421 0.5791413828219919 
Task21 0.10838207638001217 0.20770947784561883 0.17762004223763517 0.11751558677882533 0.3477024862486817 0.4643383674695136 0.4297971151537381 
Task22 0.0032075069244801102 0.01724255548181648 0.0005717759480542738 0.009600275133220182 0.8578520145377786 0.7138347607771798 0.8684674513487294 
Task23 0.01811144738409611 0.12057323715538104 0.09647444947401808 0.08904714857773394 0.3775010829907033 0.7871899411708865 0.7247070018328088 
Task24 0.022703527624483792 0.02604435951107588 0.6234435547995036 0.04254511416280516 0.8927257670835602 0.7321852147632035 0.8480785293914799 
Task25 0.00010687474681605584 0.0002590601010151609 0.00015992301814918413 6.588261469660456e-05 0.5109568836668121 0.8695759787233837 0.9390723201024387 
Task26 0.024233042782367226 0.11962551941704617 0.007557739758685364 0.17713788235035044 0.6750508882076824 0.845840233378149 0.8221900683094576 
Task27 0.020433143661955658 0.018495077905715168 0.03289216345537082 0.03525874756127137 0.6030592523332454 0.6444884522567692 0.6090536593934675 
Task28 0.01221138816985216 0.03155403239242214 0.013852511287138212 0.0037684001570010037 0.4155598237050079 0.8043843034936939 0.8439165646453544 
Task29 0.06780197112890382 0.14464816953423312 0.013040518121348826 0.23768931864413306 0.4521946539530613 0.6078465184936537 0.434219762557687 
Task30 0.172444964060556 0.20376125036487808 0.46685377058998373 0.1512475955573422 0.5912171371441335 0.46189033212400904 0.6899164288745215 
Task31 0.09072248174758714 0.04055632207656619 0.09375202142705824 0.22883044255856458 0.8057378570846923 0.39451688605642454 0.8366737600030629 
Task32 0.04980451348769453 0.20006292798235634 0.16182928573301802 0.32285129766573795 0.5902999514683931 0.6967587006959817 0.6398336566977845 
Task33 0.027380346335444318 0.057545699140812596 0.1675759624867304 0.09036373417210404 0.5564936184793535 0.9954550297663851 0.5407700263023527 
Task34 0.06087646927694476 0.11385236015555714 0.02610120017185854 0.2117741753917987 0.5619401930133838 0.720189230205696 0.5243010044828516 
Task35 0.05098440050662154 0.3153092764295764 0.25958191695510174 0.312086052972366 0.47683576824399115 0.895772453331303 0.832292814198401 
Task36 0.1007409979156713 0.3020315341815033 0.25438813488765877 0.21265799855293183 0.48558263723635303 0.8563154175931429 0.8835434835362732 
Task37 0.07416650195439159 0.3717221426482237 0.03917438429499013 0.008057814515765722 0.7427284470521135 0.8350685106513815 0.3758423127364931 
Task38 0.011807601744056413 0.05705842803586379 0.07531555894796492 0.05668276024158546 0.5047360913507658 0.44630153291643476 0.4965029881940878 
Task39 0.07197702568314822 0.21716267949328852 0.25159822689975586 0.12193415867492138 0.6473985345931461 0.33084694075524795 0.7262648223871033 
Task40 0.004233822741847013 0.14492874168967734 0.1982120185583885 0.20288994499312485 0.9922929629167045 0.38030444401629526 0.6797039077710323 
Task41 0.01649622804285869 0.12337436175990654 0.1291447132713736 0.11872829215081149 0.7904348562138183 0.5519166800656201 0.6915795528682289 
Task42 0.05788872935948263 0.25683498741687083 0.20968627123397016 0.11728355196688219 0.8874836040915373 0.9899647862057908 0.7898787944987213 
Task43 0.0023507063623413285 0.14970271002908764 0.11560362159221549 0.031158660243751083 0.7930478896683997 0.4158892932099984 0.5186543637164431 
Task44 0.12559531152528178 0.1984116273606741 0.1988699024870482 0.382021087632161 0.36898134395497006 0.9986271614593927 0.6348749953532977 
Task45 0.033469746980693806 0.07666223654306897 0.5326210630589591 0.006168150793260906 0.5607848165827274 0.7140223939247778 0.906227613244063 
Task46 0.058235147558755605 0.07173787528377036 0.3380902301796175 0.04270935486410461 0.985536982487875 0.9206384390435152 0.9861202619101435 
Task47 0.008478538430434366 0.1605454482444367 0.0105773675370674 0.26013342587329924 0.4763473721012818 0.7224891529934667 0.7081787342223038 
Task48 0.0335886278112655 0.5135595449392985 0.16782486669414537 0.0674679076157897 0.34175340422499223 0.5580431220306408 0.7699049945163638 
Task49 0.007737286560687253 0.04663410061684392 0.002141412503785407 0.04432795598848597 0.3133823022696726 0.40554160284867014 0.7849758189490421 
