Task0 0.008040125503690654 0.4021055820158739 0.047183667905148684 0.36971182126161234 0.7893772529329566 0.5500800691853657 0.6260084454762173 
Task1 0.014013331588651494 0.03234370379979127 0.0003958793661636279 0.03402005881604877 0.9529137912253915 0.5683650814561483 0.3771062648344548 
Task2 0.018904932038956136 0.015890751602293637 0.13221007336939422 0.18417532752162555 0.3518233108320847 0.8445717056489697 0.4392224045419792 
Task3 0.003255370158136529 0.08432509191876074 0.1769171474097619 0.007137869552072064 0.9770617684596556 0.360416730217224 0.951263012701705 
Task4 0.05486654367380939 0.3284838607166394 0.3745418118504432 0.010911536730866648 0.7676159136969474 0.3148811584250532 0.5885769093812456 
Task5 0.018039463891273533 0.0040153973042577635 0.07274532308590462 0.09148875375995523 0.646232782144999 0.9057856373870778 0.9461750782652121 
Task6 0.01658853214281768 0.06589443308104309 0.1890605687284812 0.24767515549833677 0.43336935726282866 0.8130120794169009 0.7696813471188159 
Task7 0.008054250034765061 0.01831313130644794 0.10381928845540334 0.08768332092273753 0.5014519595061084 0.672557509242246 0.45558043782934027 
Task8 0.024133444607686832 0.330989556833274 0.2903364494867772 0.12439568215633441 0.9731899541897244 0.5602535998804946 0.8431829272018527 
Task9 0.0032739716014325124 0.045326861923631716 0.16558199402207893 0.19755984690549724 0.4482603715090666 0.6243946200720306 0.7741614517574538 
Task10 0.1694576028608697 0.3995080809607588 0.08925740598783101 0.33428710890879787 0.3161865664140355 0.44061414058674525 0.8658222565479614 
Task11 0.17102502803512074 0.23087815681900994 0.1480735431176231 0.37002860557884604 0.9545204814856099 0.7879414601822095 0.3008877594655586 
Task12 0.021342527735109 0.08322191193862427 0.15075086856749245 0.03585125161989326 0.594736796146581 0.6064949233590432 0.7753835858768817 
Task13 0.009309305816254592 0.00028959486372614476 0.01970246011383987 0.039151869379526985 0.3718466049476753 0.3790836733003743 0.6834463326988758 
Task14 0.05102598304857667 0.27232692913694573 0.058513196764758885 0.054447134936209104 0.3333070334138783 0.5386987599617099 0.5455236579764331 
Task15 0.13425779942273214 0.31198016862520256 0.06472236340567225 0.18540494667637947 0.5233692479242233 0.727477941641729 0.6417696940987576 
Task16 0.0005706546939831285 0.03048183810081768 0.01816444725184552 0.026788771167110096 0.4191675728173031 0.5722531121293046 0.8340360992196234 
Task17 0.0019874611100580562 0.004750309210890015 0.002088460605847006 0.0017231655287622257 0.7333283739653549 0.5976124394319972 0.9735725926095311 
Task18 0.00139969472228674 0.05273909810595631 0.004114923591286244 0.03713558195453546 0.8602569617214415 0.4010206036717583 0.5108089097211319 
Task19 0.027236294032025807 0.05169779984611242 0.11593459693995406 0.39731637076423726 0.8791831625160826 0.6271062011495955 0.886240604761108 
Task20 0.014426022562906997 0.03789431520713003 0.06277815046675143 0.09096838391115625 0.6145078232194333 0.6161913241624863 0.6940080169222718 
Task21 0.08971911635668729 0.7040964515081867 0.08770734557628666 0.05790788118076086 0.44774971802077357 0.8212209190815287 0.45295095441437844 
Task22 0.00917401475312455 0.008164296213782124 0.050811214616268884 0.06294916394541362 0.30279921481935274 0.5586521099792872 0.4778889011769871 
Task23 0.04559927073727982 0.2184635813923523 0.16000692144924006 0.2554244406403143 0.4290368430346543 0.837748975404615 0.3888147992709642 
Task24 0.005976053505015275 0.011986232016676774 0.015092318890158251 0.024058626168327504 0.750572391109239 0.8977204823476062 0.5094355595242477 
Task25 0.03426611300907837 0.1753504242183157 0.30791409860588964 0.13356528345664556 0.8275993226193235 0.4079287484798725 0.7040238874230172 
Task26 0.0026991817555468327 0.007833441381263342 0.0018521457433901128 0.0048601130997715835 0.7833782966080709 0.8319701900609533 0.5656622777433282 
Task27 0.04804896896081185 0.0819522573598994 0.02788290145878278 0.08598673573501965 0.5192092545051332 0.9604716116981498 0.6913192005021997 
Task28 0.0011241708281108354 0.01659435499962041 0.01758726336488727 0.013390009876406034 0.5174024107841464 0.7406174029585424 0.7491160649117823 
Task29 0.05415255545558152 0.1500119792783184 0.18839130094502102 0.20190116615016865 0.7624161195406378 0.5742234236494527 0.6339575982483561 
Task30 0.04250019950560798 0.15284695816544525 0.3646901914986006 0.17478540461778144 0.7538172812775997 0.7256833935367224 0.6636233460464811 
Task31 0.012156336906765337 0.021118134806295638 0.015286031166289696 0.01416438650190331 0.5166372067667919 0.6533332830572821 0.6958103957112576 
Task32 0.09797676007159044 0.3993152290016514 0.1154878420913479 0.20417473839791495 0.6583115141683981 0.3200123613008481 0.36288324150346984 
Task33 0.08005523818429916 0.18804796153464198 0.546792764210861 0.1510049525499561 0.9474691566610822 0.3742308088022335 0.9413080651727055 
Task34 0.0021384955696803053 0.15754965650260455 0.0013998536505485902 0.13979577551934502 0.824559023804116 0.9314472828632043 0.8535457165439522 
Task35 0.02575087455161105 0.06784832856020373 0.15788478972818396 0.21406003982558303 0.840702607956948 0.3584863302455088 0.8367952828453631 
Task36 0.05068159756505214 0.0038420009303396533 0.40398553011560207 0.21249602952029975 0.382935354001738 0.6436893204957371 0.4074459191807185 
Task37 0.0066410345891959495 0.1592251738779123 0.2839028310862211 0.1138125157676653 0.529810743897119 0.6084597464379704 0.6258599492995591 
Task38 0.09380139301963607 0.28558672981264055 0.1083738811868038 0.01664067927372619 0.6475016425224249 0.5294552656597596 0.571464583141863 
Task39 0.08091698828825389 0.007137012174171934 0.18257677018009208 0.17341519322381968 0.5360450416645101 0.432600245280924 0.7620445126821478 
Task40 0.003962742419948728 0.04967945999318845 0.027454350491857075 0.012047661508865652 0.4818401000361663 0.9205537566769504 0.6274087050517341 
Task41 0.05237982144048616 0.21543968493644103 0.3380217610226918 0.1386501739685844 0.6092962697528949 0.6622712651700662 0.9634047797642726 
Task42 0.09314396227952232 0.27562614526782614 0.16816795282295688 0.06912217716546804 0.6113449593204832 0.7867097634545472 0.5753376193829112 
Task43 0.05505809191892324 0.10733190623255247 0.1400989389165544 0.3108930887704819 0.9329553514370152 0.9620925367634523 0.7037631497207841 
Task44 0.007016474155212115 0.016971323160986186 0.03592229773787951 0.05577092981649149 0.5149876158141995 0.36659696802417396 0.7044069138278315 
Task45 0.018709277817358656 0.06263075046565111 0.02800338502623183 0.061045834661187154 0.8974101100262308 0.8685207853014563 0.8797554068517848 
Task46 0.004778661760319178 0.15848016704927576 0.027302448109647073 0.06909695496128716 0.4371718511327157 0.9246633362289081 0.9234791769720614 
Task47 0.14085805164026238 0.049169683496640304 0.5068387939347793 0.0845732612705236 0.7461294322433439 0.4290816826471196 0.5478832844621941 
Task48 0.11063067114322842 0.27488968209151254 0.17738404589190182 0.03661366253672635 0.7742068788009591 0.8406452236890078 0.8478533922413038 
Task49 0.005841760069634858 0.006121711038033666 0.004414519267934958 0.027975400116199162 0.7890232278481284 0.45212456423553454 0.6117470030115948 
