files/tasks_parameters/ExAp01/sample8.txt 0.728519 3.15778 1.5595 0.203411 6.42774
files/tasks_parameters/ExAp01/sample12.txt 0.790508 3.94962 1.6705 0.207924 6.57034
files/tasks_parameters/ExAp01/sample2.txt 0.711294 3.78275 1.74131 0.200098 6.32304
files/tasks_parameters/ExAp01/sample44.txt 0.694585 3.59825 1.65317 0.200005 6.32011
files/tasks_parameters/ExAp01/sample27.txt 0.693614 3.45743 1.5148 0.182129 5.75522
files/tasks_parameters/ExAp01/sample17.txt 0.549457 2.77299 1.44514 0.14646 4.62809
files/tasks_parameters/ExAp01/sample9.txt 0.6722 2.99933 1.451 0.177444 5.60717
files/tasks_parameters/ExAp01/sample34.txt 0.605639 3.02928 1.58429 0.157984 4.99225
files/tasks_parameters/ExAp01/sample40.txt 0.644057 3.86889 1.52122 0.168379 5.32075
files/tasks_parameters/ExAp01/sample33.txt 0.71634 3.63695 1.71905 0.199765 6.31252
files/tasks_parameters/ExAp01/sample48.txt 0.572192 3.39061 1.49062 0.154728 4.88937
files/tasks_parameters/ExAp01/sample29.txt 0.770012 3.30472 1.38739 0.223868 7.07418
files/tasks_parameters/ExAp01/sample11.txt 0.62722 3.10585 1.41612 0.174079 5.50084
files/tasks_parameters/ExAp01/sample14.txt 0.588347 2.70971 1.43432 0.162214 5.12594
files/tasks_parameters/ExAp01/sample0.txt 0.688938 3.6937 1.5439 0.18367 5.80392
files/tasks_parameters/ExAp01/sample7.txt 0.55529 2.70501 1.42221 0.143463 4.53341
files/tasks_parameters/ExAp01/sample23.txt 0.66221 3.2697 1.57822 0.181448 5.73373
files/tasks_parameters/ExAp01/sample13.txt 0.692437 3.84225 1.67648 0.198247 6.26456
files/tasks_parameters/ExAp01/sample22.txt 0.589558 3.09569 1.56121 0.148796 4.70192
files/tasks_parameters/ExAp01/sample25.txt 0.521729 2.73966 1.5007 0.148149 4.68146
files/tasks_parameters/ExAp01/sample36.txt 0.506349 2.85948 1.28553 0.130042 4.1093
files/tasks_parameters/ExAp01/sample46.txt 0.746668 3.58643 1.69998 0.210103 6.6392
files/tasks_parameters/ExAp01/sample31.txt 0.639974 3.4832 1.53782 0.1722 5.44147
files/tasks_parameters/ExAp01/sample37.txt 0.664539 3.95293 1.50705 0.171701 5.42571
files/tasks_parameters/ExAp01/sample16.txt 0.598824 3.31216 1.30115 0.150249 4.74783
files/tasks_parameters/ExAp01/sample10.txt 0.61458 3.17098 1.61789 0.153776 4.8593
files/tasks_parameters/ExAp01/sample39.txt 0.604816 3.26617 1.44406 0.165669 5.23509
files/tasks_parameters/ExAp01/sample19.txt 0.717821 3.63532 1.52509 0.196094 6.19654
files/tasks_parameters/ExAp01/sample20.txt 0.52283 3.20793 1.25367 0.147335 4.65576
files/tasks_parameters/ExAp01/sample43.txt 0.57733 3.11551 1.4202 0.150644 4.76033
files/tasks_parameters/ExAp01/sample32.txt 0.649013 3.5311 1.42482 0.168744 5.33228
files/tasks_parameters/ExAp01/sample45.txt 0.771886 3.80283 1.48324 0.19807 6.25898
files/tasks_parameters/ExAp01/sample26.txt 0.609072 3.21645 1.29701 0.166061 5.24749
files/tasks_parameters/ExAp01/sample5.txt 0.689742 3.5889 1.52559 0.178903 5.6533
files/tasks_parameters/ExAp01/sample21.txt 0.685743 2.75242 1.55936 0.19512 6.16575
files/tasks_parameters/ExAp01/sample38.txt 0.58699 3.31563 1.37515 0.166157 5.25051
files/tasks_parameters/ExAp01/sample1.txt 0.742908 3.74964 1.51696 0.19701 6.22546
files/tasks_parameters/ExAp01/sample15.txt 0.63175 3.32916 1.48508 0.180707 5.71031
files/tasks_parameters/ExAp01/sample24.txt 0.626899 3.45951 1.59549 0.16529 5.22314
files/tasks_parameters/ExAp01/sample3.txt 0.889664 3.70014 1.70809 0.237107 7.49252
files/tasks_parameters/ExAp01/sample6.txt 0.658567 3.33003 1.58323 0.184714 5.83693
files/tasks_parameters/ExAp01/sample30.txt 0.858613 4.1841 1.4861 0.239623 7.57203
files/tasks_parameters/ExAp01/sample42.txt 0.65949 3.43221 1.70276 0.177383 5.60525
files/tasks_parameters/ExAp01/sample4.txt 0.748724 3.72477 1.6136 0.196448 6.20771
files/tasks_parameters/ExAp01/sample28.txt 0.585499 3.11323 1.45032 0.158819 5.01864
files/tasks_parameters/ExAp01/sample18.txt 0.558886 3.47418 1.45209 0.149064 4.71038
files/tasks_parameters/ExAp01/sample35.txt 0.70113 4.57086 1.49394 0.185031 5.84692
files/tasks_parameters/ExAp01/sample47.txt 0.608188 3.13768 1.52397 0.16417 5.18774
files/tasks_parameters/ExAp01/sample49.txt 0.57763 3.13288 1.49657 0.156154 4.93443
files/tasks_parameters/ExAp01/sample41.txt 0.590858 2.81964 1.49636 0.150876 4.76764
