digraph G {
0 ->12 0 ->14 1 ->10 1 ->13 1 ->14 1 ->15 1 ->16 2 ->10 2 ->18 3 ->13 3 ->14 3 ->18 4 ->12 4 ->15 4 ->17 5 ->14 5 ->16 5 ->18 6 ->11 6 ->13 7 ->17 8 ->12 8 ->17 9 ->12 9 ->13 9 ->16 9 ->19 10 ->21 10 ->24 10 ->26 10 ->28 10 ->29 11 ->22 11 ->26 11 ->27 11 ->28 12 ->22 12 ->25 12 ->28 13 ->20 13 ->21 13 ->22 13 ->25 13 ->28 14 ->20 14 ->23 14 ->28 15 ->20 15 ->22 15 ->27 16 ->26 17 ->20 17 ->23 17 ->26 18 ->22 20 ->33 20 ->34 21 ->32 21 ->36 21 ->39 22 ->30 22 ->31 22 ->37 23 ->30 23 ->32 23 ->33 23 ->36 23 ->37 23 ->38 23 ->39 24 ->30 24 ->32 24 ->33 24 ->35 25 ->30 25 ->32 25 ->37 26 ->30 26 ->33 26 ->36 26 ->39 27 ->35 27 ->36 27 ->36 28 ->31 28 ->34 28 ->37 29 ->31 29 ->33 30 ->41 30 ->48 30 ->49 31 ->42 31 ->47 31 ->49 32 ->40 32 ->44 32 ->49 33 ->40 33 ->44 34 ->40 34 ->45 35 ->41 35 ->44 35 ->45 36 ->41 36 ->46 36 ->49 37 ->41 37 ->47 37 ->48 38 ->47 38 ->48 39 ->41 39 ->43 39 ->44 39 ->46 39 ->49 40 ->51 41 ->50 41 ->53 41 ->57 42 ->50 42 ->55 42 ->56 42 ->59 43 ->52 43 ->53 43 ->56 44 ->51 44 ->59 45 ->51 45 ->54 46 ->58 47 ->53 47 ->58 48 ->54 48 ->56 48 ->58 48 ->59 49 ->54 49 ->58 49 ->58 49 ->59 50 ->63 50 ->64 50 ->67 50 ->68 51 ->63 51 ->66 52 ->60 52 ->62 52 ->63 52 ->66 53 ->60 53 ->61 53 ->62 53 ->63 54 ->65 55 ->69 56 ->66 56 ->69 57 ->65 57 ->67 57 ->68 58 ->61 58 ->64 58 ->66 59 ->67 60 ->74 61 ->74 61 ->75 62 ->71 62 ->73 62 ->74 62 ->78 63 ->71 63 ->73 63 ->76 63 ->78 64 ->70 64 ->75 66 ->78 67 ->72 67 ->74 67 ->78 67 ->79 68 ->76 69 ->73 69 ->74 69 ->76 69 ->77 69 ->78 70 ->81 70 ->81 70 ->87 70 ->88 70 ->89 71 ->81 71 ->83 71 ->84 71 ->85 71 ->89 72 ->80 72 ->87 73 ->82 73 ->86 74 ->81 74 ->84 74 ->88 74 ->89 75 ->82 75 ->88 76 ->83 76 ->86 77 ->83 77 ->86 77 ->88 77 ->89 78 ->80 78 ->83 78 ->84 78 ->87 78 ->88 79 ->80 79 ->81 79 ->83 80 ->91 80 ->92 80 ->93 80 ->95 81 ->90 81 ->91 81 ->92 81 ->98 83 ->94 83 ->96 83 ->99 84 ->90 84 ->93 84 ->94 84 ->96 84 ->99 85 ->93 85 ->94 85 ->96 86 ->97 87 ->91 87 ->93 87 ->95 87 ->96 88 ->91 88 ->92 88 ->95 89 ->92 89 ->95 89 ->95 89 ->96 
}
