digraph G {
0 ->11 0 ->13 1 ->10 1 ->12 1 ->13 1 ->16 1 ->19 2 ->15 2 ->17 3 ->12 3 ->15 3 ->16 4 ->15 4 ->15 4 ->16 4 ->19 5 ->14 5 ->18 5 ->19 6 ->17 7 ->12 7 ->16 7 ->17 8 ->12 10 ->27 10 ->28 11 ->21 11 ->23 11 ->25 11 ->28 12 ->21 12 ->28 13 ->23 13 ->24 13 ->25 13 ->28 14 ->24 14 ->29 15 ->20 15 ->24 15 ->29 16 ->21 16 ->22 16 ->23 16 ->27 16 ->28 17 ->23 18 ->23 18 ->24 18 ->26 19 ->25 19 ->26 20 ->30 20 ->31 20 ->33 20 ->34 20 ->35 20 ->38 21 ->30 21 ->31 21 ->32 21 ->33 22 ->35 22 ->37 23 ->31 23 ->32 23 ->33 23 ->36 23 ->37 24 ->31 24 ->32 24 ->33 24 ->34 25 ->30 25 ->32 25 ->36 26 ->37 27 ->32 27 ->33 28 ->30 28 ->36 28 ->37 28 ->39 29 ->30 29 ->38 29 ->39 30 ->40 30 ->41 30 ->42 30 ->43 30 ->44 30 ->47 30 ->48 31 ->40 31 ->41 31 ->46 31 ->48 32 ->42 32 ->46 32 ->48 33 ->40 33 ->42 34 ->40 34 ->43 34 ->47 35 ->43 35 ->49 36 ->45 37 ->42 37 ->44 37 ->45 37 ->47 38 ->42 38 ->45 38 ->48 39 ->41 39 ->47 39 ->48 40 ->51 40 ->52 40 ->54 40 ->58 41 ->54 42 ->50 42 ->59 43 ->56 43 ->58 43 ->59 44 ->50 44 ->53 44 ->56 44 ->59 45 ->50 45 ->55 45 ->56 45 ->57 45 ->58 46 ->55 46 ->55 46 ->57 46 ->58 46 ->59 47 ->50 47 ->51 47 ->52 47 ->53 47 ->54 47 ->57 48 ->54 48 ->57 49 ->52 49 ->54 49 ->55 49 ->57 49 ->58 50 ->61 50 ->62 50 ->64 50 ->69 51 ->61 51 ->69 52 ->64 52 ->66 52 ->67 53 ->60 53 ->63 53 ->64 54 ->60 54 ->61 54 ->63 54 ->64 54 ->65 54 ->67 55 ->60 55 ->61 55 ->65 56 ->63 56 ->64 56 ->65 56 ->68 57 ->60 57 ->62 57 ->65 57 ->69 58 ->60 58 ->63 58 ->67 59 ->61 59 ->63 59 ->65 60 ->71 60 ->74 61 ->76 62 ->72 62 ->74 62 ->78 62 ->79 63 ->72 63 ->73 64 ->76 64 ->77 64 ->79 65 ->71 65 ->73 65 ->76 65 ->77 65 ->78 65 ->79 66 ->73 67 ->70 67 ->72 67 ->73 68 ->71 68 ->72 68 ->75 69 ->76 70 ->80 70 ->85 70 ->88 71 ->89 72 ->80 73 ->84 73 ->85 73 ->87 74 ->80 74 ->82 74 ->86 75 ->85 75 ->89 76 ->80 76 ->83 76 ->86 76 ->88 76 ->89 77 ->80 77 ->88 78 ->81 78 ->85 78 ->89 79 ->86 79 ->87 80 ->94 80 ->98 81 ->90 81 ->96 82 ->92 82 ->96 82 ->97 82 ->99 83 ->90 83 ->94 83 ->97 84 ->90 84 ->94 84 ->95 84 ->96 84 ->98 84 ->99 85 ->90 85 ->91 85 ->98 86 ->93 86 ->95 86 ->99 87 ->91 87 ->92 87 ->95 88 ->96 88 ->99 89 ->94 89 ->98 89 ->99 
}
