Task0 0.14664381046285863 0.16707573886318117 0.21951740718183946 0.19511373014790515 0.1514196943144336 0.676467947425611 0.8146074302143163 0.5499636441691909 0.7172044339745758 
Task1 0.019282468445341455 0.021300967376079595 0.014459161991323452 0.026822250478103445 0.04099052109527378 0.8289595629511759 0.8869478432652422 0.5772311099714544 0.364479645422516 
Task2 0.11660273701760772 0.0938391163321322 0.10421637758574608 0.1995555147221071 0.11050919856911 0.8459827645857938 0.8812000012608918 0.8033438708493674 0.48836996722143267 
Task3 0.0007167508569643306 0.0014525298422379273 0.004510456069847018 0.0038069188963510536 0.004841235194055854 0.46294876751296254 0.788848265487714 0.4325265665418969 0.9730990456326332 
Task4 0.00034190173021585933 0.01354830044699545 0.01301056758435622 0.01778993638673721 0.008850704792434312 0.4702321505968513 0.9101132988060392 0.5951302033432688 0.5461569782976021 
Task5 0.05682102234042945 0.007284398531509201 0.1707168508900055 0.05252305156544778 0.5001117173711537 0.7436954514467321 0.4612996276261043 0.3048598332779996 0.7425748473338911 
Task6 0.04926013953896861 0.08692575116168555 0.49609736108880936 0.12018924350707208 0.21323275151300639 0.79044476536348 0.5327852592534856 0.44965582419999583 0.3480164626718673 
Task7 0.00042797155013171386 0.010461695022991067 0.020242074438001967 0.003981875192010187 0.019556728111728473 0.8632535365849561 0.9321542210092755 0.7401761234271436 0.8919195453809341 
Task8 0.013742314089404488 0.040185663748592705 0.006807424718671066 0.02800252333417642 0.04066210848670831 0.4258423833341732 0.8057095271551584 0.5096076171692743 0.33648377221057885 
Task9 0.12726645055260483 0.14067772625894623 0.17259603862852926 0.08494822259336063 0.14734567633022774 0.6046681125440365 0.4217425394060884 0.37983812053242544 0.6139434983981074 
Task10 0.006348686600534611 0.04400625556634335 0.24135718233070216 0.23689158983384118 0.22921409842760115 0.8057372828448977 0.5381292053993045 0.4806466557746135 0.8530542516556141 
Task11 0.06310897041304511 0.08232338100026768 0.21920914961611337 0.12716040951799726 0.3022415050801305 0.8328996772719672 0.7520069245340856 0.8721780774570365 0.6310919389109434 
Task12 0.011829533068349688 0.02424957634755413 0.10232238675470252 0.29266833107306606 0.1509777535554175 0.8793294763927548 0.7595097126510457 0.6464563608533641 0.7060761305530643 
Task13 0.04223359077217117 0.046966944183295896 0.12546098874829165 0.07908468642900368 0.06716482624294942 0.9072933494792725 0.8530239823468742 0.8843652491455587 0.40705840701659635 
Task14 0.04929468181928363 0.08543363687590468 0.08641884376581943 0.02172333591391067 0.09533814732121851 0.7311883790716505 0.7807168429564466 0.7246974847325953 0.34631470557962835 
Task15 0.06860363517660613 0.06714716869971937 0.11548783711037805 0.01586194971336477 0.0800236130854111 0.9686705482021607 0.8170076126931294 0.5079393391561464 0.3847034588409718 
Task16 0.0014512132859225639 0.00380773068608872 0.01239214909590315 0.01225923171407989 0.009880135354701192 0.5165126725060862 0.6273493750386764 0.5272826787426859 0.7083739873141026 
Task17 0.08825963486222657 0.11171172973561597 0.08614551504713548 0.17433741734819724 0.22772195442862184 0.5712774602102517 0.8319410552408042 0.5571024307580859 0.5763220827916105 
Task18 0.00033811656298578496 0.06576495785818486 0.03785524250893597 0.09134720581593546 0.024512325357645 0.9378537016935298 0.30838982676811166 0.32258521892974307 0.6428283865254729 
Task19 0.09811453543665409 0.21395845971728855 0.0370365437137915 0.1824048403604095 0.05407232795560376 0.9925151389184599 0.7281941812803098 0.5248826213502498 0.5524074683533883 
Task20 0.11512709893689956 0.162186672967117 0.20534107731648701 0.4525555357353094 0.06213999710821443 0.6109400846234029 0.5947330186909219 0.7777799713974705 0.5788427441303684 
Task21 0.10765867800362036 0.10724149694078476 0.18293313446181303 0.31687942254177165 0.26438242962106095 0.43716138436603014 0.4652286823785214 0.9994144050825091 0.6335679752084789 
Task22 0.12134082452776578 0.2632388378045177 0.19461228328072058 0.03290424941453511 0.17844193630945793 0.33897234448986635 0.9470952646117905 0.8267591065981481 0.7105319628207938 
Task23 0.004400413666117338 0.03347508183954823 0.022144946055216375 0.08230161028783384 0.06867828007082445 0.5474607843350493 0.7663532398554486 0.8407345426282036 0.7612626217326504 
Task24 0.01175461057026475 0.17898438882289583 0.009900175730682033 0.030041463871683074 0.15167908301266467 0.4913656035991284 0.6917258478521486 0.8002003283553119 0.9622249005699004 
Task25 0.1344414631688956 0.06921278371413181 0.22315706713694897 0.09607221642656005 0.22244605310665247 0.5707274849134047 0.5122209977938721 0.9082079974047996 0.4513874608319617 
Task26 0.004110046907515239 0.06872100152185379 0.0777840711843488 0.03228259003362791 0.020487168461589076 0.6671567681014484 0.49672872948243174 0.9942867336958632 0.9448959797491105 
Task27 0.007706895003499334 0.0068568471900338004 0.03246340510144148 0.04325209616954595 0.023285972612592215 0.9335300725289875 0.8932346539785749 0.5608726852273609 0.4896031396786349 
Task28 0.08819431449357976 0.14271501977093062 0.09665675813205124 0.1291580024261035 0.22844390623558514 0.9915946658402841 0.49203218417045747 0.5794050862193674 0.3173954920939075 
Task29 0.0015032268562363092 0.12665076255959287 0.13142681588714086 0.09864173916672564 0.0908365865519847 0.44711235442500896 0.32156176576482154 0.5745251872096084 0.4531938304571006 
Task30 0.002087718800764102 0.12063225318148572 0.15554043376328192 0.09572784371657193 0.041981964701312505 0.9079255775122952 0.7426544430877373 0.7558236035702031 0.4612227858765206 
Task31 0.009145680010608594 0.048829838896756836 0.04850512381502621 0.017410087068020583 0.044699617348537043 0.4684677695258232 0.3460286294102846 0.6621906129657285 0.30917233527573384 
Task32 0.03845957597794617 0.03343523008268221 0.07715063817303894 0.034203551341356976 0.055097534345438695 0.30519675343074665 0.6983888120409211 0.9534923386345644 0.6377134783793177 
Task33 0.07469732700299195 0.33207723484836155 0.1275917381750414 0.19968626764900974 0.0762213524376111 0.8781818437825073 0.8654069430700075 0.6389323321718317 0.9578517413702905 
Task34 0.12209749751907598 0.06512047150400524 0.07708465189054428 0.1554283433407981 0.20529986960560584 0.9585646754611126 0.46927830799257636 0.4797362125339237 0.9768759541903538 
Task35 0.09089645677737099 0.1108227282319435 0.06074774396354798 0.009322106146879235 0.18379332087002687 0.825217644172 0.532158801111488 0.9932832573342372 0.9529555882375047 
Task36 0.08245459499001254 0.26086257687067155 0.1938438868349692 0.2096325031585719 0.1096581358183585 0.5083453373903559 0.9058432209705141 0.9694719928230542 0.803363757943927 
Task37 0.05497800818912906 0.011604482514655276 0.3154751607367922 0.06446956297728795 0.06577582575465825 0.3545338196282659 0.5958325326621673 0.8268665683340022 0.6370510800107809 
Task38 0.00393825044732966 0.011772403817432418 0.002062017385346492 0.015012372187213135 0.008922933957676203 0.5430336246075786 0.9423390807341674 0.8925407943625201 0.832913533671755 
Task39 0.03403217371456054 0.16554302426901638 0.09484105127301617 0.30441698185947036 0.22277357477289988 0.890561835377419 0.7432638546733141 0.7757035719158923 0.5496242898751488 
Task40 0.05110566545921562 0.31828314328198826 0.02788744647489253 0.2403590462959621 0.24502656617981425 0.8949217617659975 0.3443383114683307 0.767036110930656 0.7205964042533692 
Task41 0.000798721586241114 1.8911824892466863e-05 0.00012896860106735496 0.003795949155733519 0.0012995926972801677 0.7515692751520704 0.549509384182655 0.48594339919908935 0.431816165615846 
Task42 0.0013583691330746176 0.1805362355858172 0.1712676015627237 0.1823422235592291 0.06139993270294059 0.94440340245897 0.8598187662996104 0.5336693107553176 0.5231499226455494 
Task43 0.10011453252743606 0.2221394910338048 0.0660997454994193 0.15674432664877602 0.14312119302194332 0.5798723991321353 0.5987103018169813 0.6926614611129366 0.8017188211897965 
Task44 0.032009341194735225 0.009390289744718406 0.08999160860982827 0.08941027962579351 0.014405907704309506 0.37963724118890685 0.3627557020251109 0.6315809495188117 0.6815262125903121 
Task45 0.021509151243770164 0.14544279093866602 0.11601321476035663 0.1601172566214216 0.20027985857381736 0.772383934079572 0.7733715126779197 0.937748627913433 0.9818841856828029 
Task46 0.02795121444043898 0.37618311690736395 0.19854916014953392 0.2939915480402308 0.023104949424483483 0.5963638243061735 0.8071967863803016 0.5062398988025412 0.6846982928928 
Task47 0.037524392369313306 0.041128641258365926 0.24321938558590267 0.08835280578581009 0.197166277367459 0.6490644708003085 0.38336452448876546 0.3719153571556515 0.8661556016404319 
Task48 0.06621257063282808 0.025098038941540647 0.24158796974951086 0.5033143877915769 0.06563536137312313 0.38386558095375023 0.8483810570302959 0.46556448488446794 0.7108330840697041 
Task49 0.004500863740375589 0.004471793733124796 0.006485804999467834 0.006515365978976902 0.006069618196910708 0.673001427651018 0.463384242559316 0.41325069638810913 0.41738333002219163 
Task50 0.005915648758158119 0.0016151329368379206 0.011689667351805016 0.008257336211869984 0.008808118080845275 0.9656890378446381 0.44563862124196363 0.33543658175013275 0.5897209838920217 
Task51 0.007244057383366405 0.06378959414786418 0.05598341143379948 0.01757193636865147 0.03609551794996034 0.8902477892493337 0.4539419565861869 0.9096831637577465 0.9380755665365337 
Task52 0.024845524303838164 0.06688902924063665 0.35454249049977654 0.26000863740159924 0.2844331740512058 0.9986609604458865 0.7880513481346023 0.4680865015833875 0.30727022607728605 
Task53 0.020993731351725067 0.24240632894188655 0.16214694265941054 0.09535329847723875 0.15643138486587504 0.8846077457841028 0.5805401431111603 0.3377554947921906 0.5648074902975531 
Task54 0.1432899985660906 0.26324659182452986 0.03591288412095098 0.11500307859526385 0.2876993571217166 0.3862017358157821 0.44182062310569076 0.4085558340736791 0.7137416775938321 
Task55 0.15255020667263655 0.049461580245913066 0.10089603735329682 0.3780328291139844 0.18135811937173738 0.38472116132935985 0.5309348354935015 0.7779888883313448 0.8906126744054317 
Task56 0.03492074391402852 0.12812196762054492 0.1280858278565566 0.03608655533444233 0.12554269791053274 0.30961238163045407 0.5136600857781959 0.6645880801940534 0.9077038685237908 
Task57 0.02914519195849756 0.046368367854031825 0.1011434751701596 0.028711233436884528 0.04361264953817192 0.4238645322158244 0.3117683028159624 0.31912386673889065 0.7465478752092001 
Task58 0.13916277147226716 0.25433771417124157 0.015623786099942357 0.18627477377366608 0.21512347570247625 0.7111134486252018 0.8744929493002742 0.368777848349645 0.8187363434428543 
Task59 0.06605180551759718 0.06534183609362307 0.09433786878266787 0.4039833973850572 0.24503335070180232 0.5928493231453631 0.7050459944555098 0.4543769667729318 0.9048061206008438 
Task60 0.09642287790349038 0.3447641640073448 0.3649929788399245 0.1099782454493746 0.05129535981441105 0.8480897436888784 0.6964391400737924 0.7519084482240543 0.7090825796105026 
Task61 0.020045219802962443 0.18721387373618154 0.009085658787217432 0.10549443782156435 0.16651029072373752 0.7029846204071044 0.5958555538860777 0.35943020941999226 0.8498441433040564 
Task62 0.01622672143708669 0.14946568810414626 0.13154654014028833 0.24783897575576977 0.04100596869236164 0.835186623544866 0.6459880961037506 0.5288988672040742 0.53114738497731 
Task63 0.07568870930299942 0.12151435239852405 0.14896254327359193 0.06964653217039228 0.14147308021576602 0.9513827742772138 0.6557021607946663 0.6004809287387392 0.6397149087622696 
Task64 7.753993354035721e-06 5.887575072606548e-05 5.1611984987926174e-05 6.417163716492612e-05 6.071939923496066e-06 0.9435582138958043 0.520858881020314 0.9719172401088505 0.6133584779976706 
Task65 0.0070666971610422805 0.08221389794582962 0.06325149751444498 0.021638473909934033 0.03592913341760934 0.5981304185426364 0.7032234765954832 0.3982363697108841 0.7507210803794973 
Task66 0.12874767304252263 0.1929544497161485 0.2240691663148448 0.2153808722435299 0.06827152605706874 0.4538633425819594 0.34360889335070677 0.9819268125983469 0.31397284874569553 
Task67 0.03353368511954987 0.2676066430826317 0.09731036551898765 0.2561955188704993 0.20934976185567664 0.693524072966051 0.3305441574817975 0.6301473690646648 0.691961839509505 
Task68 0.020973324743962136 0.35882517027744903 0.42791979831938265 0.018090076553934353 0.14924844347310096 0.9703343459436402 0.799977097068953 0.697255576372175 0.8952478007506568 
Task69 0.04926872339165299 0.05871055388059675 0.11728681547322056 0.3073435284421724 0.1993123492673544 0.859893629640242 0.8016510480432635 0.7818847056307113 0.9201666424494148 
Task70 0.048537388478283344 0.05329297322026713 0.1554772752426612 0.004998554962416063 0.0375511644813205 0.8259809104584421 0.7538088154274335 0.9198749506553625 0.8757876728223246 
Task71 0.16684139074341636 0.27080472442855347 0.1985311073818408 0.1563007455138962 0.11681642025667119 0.6745351373132604 0.864965093888096 0.5618088129397891 0.3794876347908704 
Task72 0.05014488470556419 0.19951185818590908 0.14663950639684598 0.01149142392149465 0.08996117691763689 0.6350689383563553 0.829486569548556 0.5530197395796919 0.42669126548716196 
Task73 0.0248267204734377 0.08615551060548635 0.1342493206868193 0.1734613937473375 0.2134304803874716 0.37805864371937176 0.4323218409885168 0.4913284160611625 0.7095579650266588 
Task74 0.13738161885684527 0.12697416790755936 0.10644292863581765 0.2021263923702925 0.34486768324198924 0.331032252720316 0.37691536409861204 0.3501660951555379 0.7903014921293874 
Task75 0.11144456565253395 0.19809759655311987 0.042988287869927325 0.22940800220714713 0.08931149416757646 0.6245650164119247 0.7021849360086516 0.586377930863238 0.37321386344359564 
Task76 0.013264152073025325 0.08766552597557076 0.03862905051394007 0.14153732940907382 0.09162200668829874 0.40892607634675504 0.3205557872385971 0.7628395463951705 0.6817074316170513 
Task77 0.03129014693582798 0.16549723074083278 0.13174215227587485 0.13211416412275315 0.21744351362099024 0.850291471583577 0.8750667853234144 0.9743511056168133 0.7186909916786051 
Task78 0.06233676203405125 0.17273268019935575 0.09539226739800181 0.06396113009302308 0.23268527084564095 0.3168230017214752 0.9246740497956238 0.3552562664454686 0.63691648915153 
Task79 0.020907403050623594 0.10296500605776064 0.023213159161043197 0.18263366462953018 0.20361398901266334 0.8583973776086189 0.631536478833394 0.8942430769804823 0.5111451826561209 
Task80 0.14481307368703272 0.3021654716483973 0.09832525112305687 0.19099599168609654 0.12412521399623858 0.41175201448598286 0.8773021853589977 0.5474449729048516 0.3154282895405149 
Task81 0.017177822930939144 0.013717270759715648 0.1387298807639738 0.13936641942905612 0.18843218027857267 0.48078825019602445 0.33774343740429136 0.8329182722245523 0.860566688145012 
Task82 0.017595766607553506 0.09292455913286113 0.02574041514335818 0.04226316368123512 0.023480280397450034 0.8890835776618182 0.6734537508256253 0.47725842180474287 0.6732671966879491 
Task83 0.11588395713684092 0.1696406942899393 0.25320312827503716 0.0405743087616051 0.16544986337217 0.40631194712691004 0.6993239612679543 0.5342509137331285 0.9367919458611591 
Task84 0.1053152083301195 0.29773916101006737 0.1553120721080529 0.028737705917636396 0.028623330913224932 0.8697950619468111 0.5325950096284406 0.5692612696379855 0.7603868482104476 
Task85 0.008984472124083433 0.030114851052932805 0.08926419377198248 0.08857147273889712 0.030951178220104503 0.5105490306147525 0.7258310363590321 0.6994544000897218 0.31899083103416814 
Task86 0.11227383205427999 0.2750096871142462 0.054070750017585816 0.22985489850759935 0.15581807381575216 0.3411032598336091 0.39732821071950175 0.8917786797472842 0.84762868559156 
Task87 0.04642064338296362 0.0992236634947985 0.07441851945491201 0.002787627228027525 0.10232579286539102 0.7416806154100752 0.7653827546366752 0.955955070906858 0.7411005095965346 
Task88 0.03264273246853843 0.2897832696918139 0.18562364428653014 0.041484710206759264 0.2869377526918978 0.611916148811607 0.8693827525892688 0.389476638692235 0.8924030923630488 
Task89 0.00566981454732711 0.185332500845528 0.02691583037517486 0.15618912842052216 0.1621699049832306 0.6085865935476247 0.3037008982009754 0.8163774110760749 0.8707290821978635 
Task90 0.01855705662760997 0.16271890498459604 0.23382637368998316 0.007702435784838658 0.3015513627153548 0.44779857108165233 0.4843416002500284 0.5611129653704237 0.3304628843615108 
Task91 0.041920070436844585 0.2586283943041698 0.3563360366771907 0.23179135060920997 0.020327366326613295 0.5301814356963788 0.5940545172517082 0.5137643714804446 0.9697991564284378 
Task92 0.006185584867782051 0.008802088715344533 0.016502860765778535 0.03604103206429668 0.019005408026758198 0.41192793779516607 0.9380183264345916 0.30099060242503484 0.3730829913662228 
Task93 0.11943656841226734 0.15973488040477468 0.04805333554903924 0.3138217281126898 0.2909380981080672 0.46074438970670717 0.9327641993792062 0.9506773506563524 0.3418439870823866 
Task94 0.008726768520441866 0.0003026195183550852 0.012710083978785005 0.01207300963579486 0.011494399262588868 0.5991165616169534 0.3030133834020697 0.8811679370709085 0.7965168608648314 
Task95 0.14773607386056445 0.5421454627218089 0.04246356132981684 0.11092708450042507 0.03768811031972042 0.8427154775488706 0.5145390559812754 0.7700947661332568 0.7214909734774411 
Task96 0.1689190374523194 0.10797688800603178 0.43783902494272964 0.13906580188913734 0.003925092231158398 0.3196317517748844 0.9437503017425899 0.48740957548303776 0.6148297862404581 
Task97 0.017936691449407363 0.04133384974380473 0.07898860960555537 0.03132166030418005 0.08021213880782907 0.48214955890290634 0.3245805362634421 0.5537941805296303 0.48620262872056574 
Task98 0.0010992662798088506 0.44537456063341624 0.07624111910943888 0.0968428319509928 0.051820968591744086 0.8947316799299678 0.5395827583730592 0.7276413348705149 0.9494225875548761 
Task99 0.01004814464923067 0.10007952151295793 0.05907906292949436 0.003854763813148273 0.1363874665010136 0.5206733236504808 0.9652766531638832 0.7361868459892065 0.6892950633762933 
