files/tasks_parameters/ExAp01/sample8.txt 1.12039 7.2562 4.46819 0.454772 24.4444
files/tasks_parameters/ExAp01/sample12.txt 1.6001 9.70908 5.28286 0.618515 33.2457
files/tasks_parameters/ExAp01/sample2.txt 1.52451 8.14159 5.7401 0.620531 33.354
files/tasks_parameters/ExAp01/sample44.txt 1.32494 7.25164 5.75904 0.557631 29.9731
files/tasks_parameters/ExAp01/sample27.txt 1.31145 8.10944 5.64946 0.564878 30.3627
files/tasks_parameters/ExAp01/sample17.txt 1.25737 7.11225 5.46658 0.527183 28.3365
files/tasks_parameters/ExAp01/sample9.txt 1.21351 7.62559 5.37813 0.517277 27.8041
files/tasks_parameters/ExAp01/sample34.txt 1.21054 7.04587 5.93037 0.497709 26.7523
files/tasks_parameters/ExAp01/sample40.txt 1.21304 8.03037 5.123 0.502383 27.0035
files/tasks_parameters/ExAp01/sample33.txt 1.60796 9.22935 5.92956 0.659262 35.4359
files/tasks_parameters/ExAp01/sample48.txt 1.14342 8.12182 5.1577 0.452491 24.3217
files/tasks_parameters/ExAp01/sample29.txt 1.48978 8.06133 5.12331 0.650652 34.9731
files/tasks_parameters/ExAp01/sample11.txt 1.37889 7.63104 5.37897 0.563302 30.2779
files/tasks_parameters/ExAp01/sample14.txt 1.19378 6.66403 4.66322 0.471536 25.3455
files/tasks_parameters/ExAp01/sample0.txt 1.63861 9.3266 4.98971 0.6311 33.9221
files/tasks_parameters/ExAp01/sample7.txt 1.27985 7.34863 5.19436 0.515527 27.71
files/tasks_parameters/ExAp01/sample23.txt 1.40496 6.68564 5.54308 0.588617 31.6387
files/tasks_parameters/ExAp01/sample13.txt 1.56945 9.31093 5.35591 0.632849 34.0161
files/tasks_parameters/ExAp01/sample22.txt 1.283 7.65588 5.04866 0.540336 29.0435
files/tasks_parameters/ExAp01/sample25.txt 1.10027 6.17035 5.0141 0.408296 21.9462
files/tasks_parameters/ExAp01/sample36.txt 1.32517 7.03772 4.66274 0.507647 27.2864
files/tasks_parameters/ExAp01/sample46.txt 1.33 7.73433 4.79934 0.536843 28.8558
files/tasks_parameters/ExAp01/sample31.txt 1.14875 6.96928 5.16482 0.485817 26.1131
files/tasks_parameters/ExAp01/sample37.txt 1.58865 9.52443 5.74224 0.65799 35.3675
files/tasks_parameters/ExAp01/sample16.txt 1.33268 8.63521 4.97261 0.516328 27.753
files/tasks_parameters/ExAp01/sample10.txt 1.46555 7.28353 6.16876 0.615651 33.0917
files/tasks_parameters/ExAp01/sample39.txt 1.12705 6.3405 4.6137 0.468873 25.2023
files/tasks_parameters/ExAp01/sample19.txt 1.44575 8.85528 5.22306 0.622152 33.4412
files/tasks_parameters/ExAp01/sample20.txt 1.37037 8.1141 5.21177 0.586994 31.5514
files/tasks_parameters/ExAp01/sample43.txt 1.26636 7.21373 5.6367 0.53748 28.89
files/tasks_parameters/ExAp01/sample32.txt 1.46074 8.30592 5.38137 0.593918 31.9236
files/tasks_parameters/ExAp01/sample45.txt 1.3225 7.94069 4.96323 0.547271 29.4163
files/tasks_parameters/ExAp01/sample26.txt 1.10655 7.57061 4.62637 0.480146 25.8082
files/tasks_parameters/ExAp01/sample5.txt 1.37181 8.0307 5.35681 0.59407 31.9317
files/tasks_parameters/ExAp01/sample21.txt 1.0269 5.87802 4.61744 0.434264 23.3421
files/tasks_parameters/ExAp01/sample38.txt 1.17562 7.66999 4.86632 0.496808 26.7038
files/tasks_parameters/ExAp01/sample1.txt 1.17969 7.21312 4.63213 0.486293 26.1387
files/tasks_parameters/ExAp01/sample15.txt 1.21957 8.02273 5.50855 0.531063 28.545
files/tasks_parameters/ExAp01/sample24.txt 1.34714 8.66348 5.4905 0.548998 29.5091
files/tasks_parameters/ExAp01/sample3.txt 1.15955 7.74268 4.79918 0.477387 25.6599
files/tasks_parameters/ExAp01/sample6.txt 1.50686 8.57133 5.80157 0.633604 34.0567
files/tasks_parameters/ExAp01/sample30.txt 1.69047 8.18878 5.90888 0.633576 34.0552
files/tasks_parameters/ExAp01/sample42.txt 1.32849 8.57689 5.67253 0.54426 29.2544
files/tasks_parameters/ExAp01/sample4.txt 1.29741 8.40354 4.57985 0.563519 30.2896
files/tasks_parameters/ExAp01/sample28.txt 1.11403 6.44114 4.96426 0.449721 24.1729
files/tasks_parameters/ExAp01/sample18.txt 1.33102 8.56363 4.60946 0.543766 29.2279
files/tasks_parameters/ExAp01/sample35.txt 1.916 11.0387 6.34514 0.761377 40.9246
files/tasks_parameters/ExAp01/sample47.txt 1.30737 7.14493 5.22131 0.545046 29.2966
files/tasks_parameters/ExAp01/sample49.txt 1.29001 6.65996 4.80244 0.498533 26.7966
files/tasks_parameters/ExAp01/sample41.txt 1.1783 7.09069 5.35462 0.497129 26.7211
