files/tasks_parameters/ExAp01/sample8.txt 1.27829 6.77015 2.19458 0.288816 13.356
files/tasks_parameters/ExAp01/sample12.txt 1.39416 9.58351 2.46081 0.337498 15.6073
files/tasks_parameters/ExAp01/sample2.txt 1.37982 8.44418 2.50701 0.319127 14.7577
files/tasks_parameters/ExAp01/sample44.txt 1.12321 6.96299 2.23089 0.28229 13.0543
files/tasks_parameters/ExAp01/sample27.txt 1.18469 7.74306 2.16676 0.28602 13.2267
files/tasks_parameters/ExAp01/sample17.txt 1.28017 7.35053 2.25579 0.292348 13.5193
files/tasks_parameters/ExAp01/sample9.txt 1.14801 6.89392 2.21068 0.282399 13.0593
files/tasks_parameters/ExAp01/sample34.txt 1.2594 6.62788 2.3772 0.297742 13.7688
files/tasks_parameters/ExAp01/sample40.txt 1.15758 7.75686 2.17534 0.285619 13.2082
files/tasks_parameters/ExAp01/sample33.txt 1.52617 8.14826 2.6463 0.338073 15.6339
files/tasks_parameters/ExAp01/sample48.txt 1.10923 7.64107 2.14272 0.270011 12.4864
files/tasks_parameters/ExAp01/sample29.txt 1.10315 7.139 1.93769 0.286306 13.2399
files/tasks_parameters/ExAp01/sample11.txt 1.20361 6.88688 2.12981 0.280008 12.9487
files/tasks_parameters/ExAp01/sample14.txt 1.07242 6.11983 1.97599 0.247458 11.4434
files/tasks_parameters/ExAp01/sample0.txt 1.23048 8.2738 2.14256 0.289132 13.3706
files/tasks_parameters/ExAp01/sample7.txt 1.09441 6.87011 2.05821 0.269886 12.4806
files/tasks_parameters/ExAp01/sample23.txt 1.30247 6.52032 2.38087 0.291712 13.4899
files/tasks_parameters/ExAp01/sample13.txt 1.3785 8.73247 2.33415 0.295393 13.6602
files/tasks_parameters/ExAp01/sample22.txt 1.19728 6.9777 2.28948 0.283979 13.1324
files/tasks_parameters/ExAp01/sample25.txt 1.1122 6.23444 2.2122 0.267298 12.3609
files/tasks_parameters/ExAp01/sample36.txt 0.998601 6.6174 1.9458 0.253823 11.7378
files/tasks_parameters/ExAp01/sample46.txt 1.51012 7.42369 2.49128 0.327273 15.1344
files/tasks_parameters/ExAp01/sample31.txt 1.0106 7.22028 2.13584 0.25377 11.7353
files/tasks_parameters/ExAp01/sample37.txt 1.34154 8.90704 2.16981 0.295708 13.6747
files/tasks_parameters/ExAp01/sample16.txt 1.16171 8.18243 1.88294 0.24945 11.5356
files/tasks_parameters/ExAp01/sample10.txt 1.08723 6.96646 2.31217 0.285748 13.2141
files/tasks_parameters/ExAp01/sample39.txt 1.06474 6.4161 1.97266 0.251967 11.652
files/tasks_parameters/ExAp01/sample19.txt 1.31622 8.16711 2.23199 0.308463 14.2646
files/tasks_parameters/ExAp01/sample20.txt 1.04631 7.28549 1.88944 0.25994 12.0207
files/tasks_parameters/ExAp01/sample43.txt 1.12121 6.86804 2.00142 0.25616 11.8459
files/tasks_parameters/ExAp01/sample32.txt 1.13188 8.15663 2.12995 0.281726 13.0282
files/tasks_parameters/ExAp01/sample45.txt 1.12205 7.75184 2.10599 0.274935 12.7141
files/tasks_parameters/ExAp01/sample26.txt 1.16811 7.4944 1.88956 0.267248 12.3586
files/tasks_parameters/ExAp01/sample5.txt 1.26932 8.08362 2.09961 0.28454 13.1583
files/tasks_parameters/ExAp01/sample21.txt 1.10839 6.11814 2.17119 0.26143 12.0896
files/tasks_parameters/ExAp01/sample38.txt 1.05369 7.761 1.96293 0.263659 12.1927
files/tasks_parameters/ExAp01/sample1.txt 1.18377 7.83752 2.13261 0.289228 13.3751
files/tasks_parameters/ExAp01/sample15.txt 1.20774 7.37971 2.12057 0.285825 13.2177
files/tasks_parameters/ExAp01/sample24.txt 1.28686 8.28531 2.25272 0.296628 13.7173
files/tasks_parameters/ExAp01/sample3.txt 1.24869 7.33359 2.39135 0.305084 14.1083
files/tasks_parameters/ExAp01/sample6.txt 1.1732 7.09894 2.24425 0.281804 13.0318
files/tasks_parameters/ExAp01/sample30.txt 1.33034 8.17669 2.03701 0.299204 13.8364
files/tasks_parameters/ExAp01/sample42.txt 1.35335 7.70416 2.42413 0.29743 13.7544
files/tasks_parameters/ExAp01/sample4.txt 1.3355 7.41691 2.36261 0.307803 14.234
files/tasks_parameters/ExAp01/sample28.txt 1.25318 7.0562 2.07657 0.266428 12.3207
files/tasks_parameters/ExAp01/sample18.txt 1.21685 7.60139 2.1377 0.268016 12.3942
files/tasks_parameters/ExAp01/sample35.txt 1.36231 9.66795 2.28028 0.32244 14.9109
files/tasks_parameters/ExAp01/sample47.txt 1.03869 6.84842 2.12104 0.251655 11.6375
files/tasks_parameters/ExAp01/sample49.txt 1.14736 7.1497 2.11412 0.255889 11.8333
files/tasks_parameters/ExAp01/sample41.txt 1.15966 6.59911 2.07359 0.265885 12.2956
