files/tasks_parameters/ExAp01/sample8.txt 1.11746 7.2562 4.46819 0.454772 10.8545
files/tasks_parameters/ExAp01/sample12.txt 1.63917 9.70908 5.28286 0.618515 14.7627
files/tasks_parameters/ExAp01/sample2.txt 1.52651 8.14159 5.7401 0.620531 14.8108
files/tasks_parameters/ExAp01/sample44.txt 1.39793 7.25164 5.75904 0.557631 13.3095
files/tasks_parameters/ExAp01/sample27.txt 1.3183 8.10944 5.64946 0.564878 13.4825
files/tasks_parameters/ExAp01/sample17.txt 1.26933 7.11225 5.46658 0.527183 12.5828
files/tasks_parameters/ExAp01/sample9.txt 1.21364 7.62559 5.37813 0.517277 12.3463
files/tasks_parameters/ExAp01/sample34.txt 1.2448 7.04587 5.93037 0.497709 11.8793
files/tasks_parameters/ExAp01/sample40.txt 1.22744 8.03037 5.123 0.502383 11.9908
files/tasks_parameters/ExAp01/sample33.txt 1.63735 9.22935 5.92956 0.659262 15.7352
files/tasks_parameters/ExAp01/sample48.txt 1.16577 8.12182 5.1577 0.452491 10.8
files/tasks_parameters/ExAp01/sample29.txt 1.55419 8.06133 5.12331 0.650652 15.5297
files/tasks_parameters/ExAp01/sample11.txt 1.35889 7.63104 5.37897 0.563302 13.4448
files/tasks_parameters/ExAp01/sample14.txt 1.13168 6.66403 4.66322 0.471536 11.2546
files/tasks_parameters/ExAp01/sample0.txt 1.64474 9.3266 4.98971 0.6311 15.063
files/tasks_parameters/ExAp01/sample7.txt 1.30119 7.34863 5.19436 0.515527 12.3046
files/tasks_parameters/ExAp01/sample23.txt 1.40512 6.68564 5.54308 0.588617 14.0491
files/tasks_parameters/ExAp01/sample13.txt 1.65156 9.31093 5.35591 0.632849 15.1048
files/tasks_parameters/ExAp01/sample22.txt 1.29523 7.65588 5.04866 0.540336 12.8967
files/tasks_parameters/ExAp01/sample25.txt 1.0295 6.17035 5.0141 0.408296 9.74518
files/tasks_parameters/ExAp01/sample36.txt 1.19007 7.03772 4.66274 0.507647 12.1165
files/tasks_parameters/ExAp01/sample46.txt 1.35236 7.73433 4.79934 0.536843 12.8133
files/tasks_parameters/ExAp01/sample31.txt 1.19045 6.96928 5.16482 0.485817 11.5955
files/tasks_parameters/ExAp01/sample37.txt 1.63255 9.52443 5.74224 0.65799 15.7048
files/tasks_parameters/ExAp01/sample16.txt 1.43851 8.63521 4.97261 0.516328 12.3237
files/tasks_parameters/ExAp01/sample10.txt 1.39877 7.28353 6.16876 0.615651 14.6943
files/tasks_parameters/ExAp01/sample39.txt 1.14417 6.3405 4.6137 0.468873 11.191
files/tasks_parameters/ExAp01/sample19.txt 1.62963 8.85528 5.22306 0.622152 14.8495
files/tasks_parameters/ExAp01/sample20.txt 1.39413 8.1141 5.21177 0.586994 14.0103
files/tasks_parameters/ExAp01/sample43.txt 1.30697 7.21373 5.6367 0.53748 12.8285
files/tasks_parameters/ExAp01/sample32.txt 1.60296 8.30592 5.38137 0.593918 14.1756
files/tasks_parameters/ExAp01/sample45.txt 1.42246 7.94069 4.96323 0.547271 13.0622
files/tasks_parameters/ExAp01/sample26.txt 1.15371 7.57061 4.62637 0.480146 11.4601
files/tasks_parameters/ExAp01/sample5.txt 1.49324 8.0307 5.35681 0.59407 14.1792
files/tasks_parameters/ExAp01/sample21.txt 1.02755 5.87802 4.61744 0.434264 10.365
files/tasks_parameters/ExAp01/sample38.txt 1.18497 7.66999 4.86632 0.496808 11.8578
files/tasks_parameters/ExAp01/sample1.txt 1.18341 7.21312 4.63213 0.486293 11.6068
files/tasks_parameters/ExAp01/sample15.txt 1.28125 8.02273 5.50855 0.531063 12.6754
files/tasks_parameters/ExAp01/sample24.txt 1.38777 8.66348 5.4905 0.548998 13.1034
files/tasks_parameters/ExAp01/sample3.txt 1.18752 7.74268 4.79918 0.477387 11.3942
files/tasks_parameters/ExAp01/sample6.txt 1.50467 8.57133 5.80157 0.633604 15.1228
files/tasks_parameters/ExAp01/sample30.txt 1.64672 8.18878 5.90888 0.633576 15.1222
files/tasks_parameters/ExAp01/sample42.txt 1.30673 8.57689 5.67253 0.54426 12.9903
files/tasks_parameters/ExAp01/sample4.txt 1.34898 8.40354 4.57985 0.563519 13.45
files/tasks_parameters/ExAp01/sample28.txt 1.0744 6.44114 4.96426 0.449721 10.7339
files/tasks_parameters/ExAp01/sample18.txt 1.32704 8.56363 4.60946 0.543766 12.9786
files/tasks_parameters/ExAp01/sample35.txt 1.98187 11.0387 6.34514 0.761377 18.1725
files/tasks_parameters/ExAp01/sample47.txt 1.32345 7.14493 5.22131 0.545046 13.0091
files/tasks_parameters/ExAp01/sample49.txt 1.32635 6.65996 4.80244 0.498533 11.899
files/tasks_parameters/ExAp01/sample41.txt 1.18983 7.09069 5.35462 0.497129 11.8654
