files/tasks_parameters/ExAp01/sample8.txt 2.41476 6.77015 2.19458 0.288816 6.0837
files/tasks_parameters/ExAp01/sample12.txt 2.83139 9.58351 2.46081 0.337498 7.10915
files/tasks_parameters/ExAp01/sample2.txt 2.65788 8.44418 2.50701 0.319127 6.72217
files/tasks_parameters/ExAp01/sample44.txt 2.37053 6.96299 2.23089 0.28229 5.94623
files/tasks_parameters/ExAp01/sample27.txt 2.36429 7.74306 2.16676 0.28602 6.02479
files/tasks_parameters/ExAp01/sample17.txt 2.43693 7.35053 2.25579 0.292348 6.15808
files/tasks_parameters/ExAp01/sample9.txt 2.37173 6.89392 2.21068 0.282399 5.94852
files/tasks_parameters/ExAp01/sample34.txt 2.49139 6.62788 2.3772 0.297742 6.2717
files/tasks_parameters/ExAp01/sample40.txt 2.40612 7.75686 2.17534 0.285619 6.01635
files/tasks_parameters/ExAp01/sample33.txt 2.86723 8.14826 2.6463 0.338073 7.12125
files/tasks_parameters/ExAp01/sample48.txt 2.2573 7.64107 2.14272 0.270011 5.68758
files/tasks_parameters/ExAp01/sample29.txt 2.22584 7.139 1.93769 0.286306 6.03081
files/tasks_parameters/ExAp01/sample11.txt 2.31746 6.88688 2.12981 0.280008 5.89816
files/tasks_parameters/ExAp01/sample14.txt 2.07966 6.11983 1.97599 0.247458 5.21251
files/tasks_parameters/ExAp01/sample0.txt 2.43243 8.2738 2.14256 0.289132 6.09034
files/tasks_parameters/ExAp01/sample7.txt 2.28465 6.87011 2.05821 0.269886 5.68493
files/tasks_parameters/ExAp01/sample23.txt 2.45288 6.52032 2.38087 0.291712 6.14468
files/tasks_parameters/ExAp01/sample13.txt 2.47873 8.73247 2.33415 0.295393 6.22222
files/tasks_parameters/ExAp01/sample22.txt 2.38397 6.9777 2.28948 0.283979 5.9818
files/tasks_parameters/ExAp01/sample25.txt 2.25289 6.23444 2.2122 0.267298 5.63042
files/tasks_parameters/ExAp01/sample36.txt 2.08093 6.6174 1.9458 0.253823 5.34658
files/tasks_parameters/ExAp01/sample46.txt 2.7654 7.42369 2.49128 0.327273 6.89375
files/tasks_parameters/ExAp01/sample31.txt 2.14275 7.22028 2.13584 0.25377 5.34547
files/tasks_parameters/ExAp01/sample37.txt 2.44884 8.90704 2.16981 0.295708 6.22886
files/tasks_parameters/ExAp01/sample16.txt 2.08858 8.18243 1.88294 0.24945 5.25447
files/tasks_parameters/ExAp01/sample10.txt 2.39393 6.96646 2.31217 0.285748 6.01906
files/tasks_parameters/ExAp01/sample39.txt 2.10023 6.4161 1.97266 0.251967 5.30749
files/tasks_parameters/ExAp01/sample19.txt 2.59832 8.16711 2.23199 0.308463 6.49753
files/tasks_parameters/ExAp01/sample20.txt 2.18361 7.28549 1.88944 0.25994 5.47543
files/tasks_parameters/ExAp01/sample43.txt 2.14227 6.86804 2.00142 0.25616 5.39582
files/tasks_parameters/ExAp01/sample32.txt 2.37148 8.15663 2.12995 0.281726 5.93435
files/tasks_parameters/ExAp01/sample45.txt 2.29377 7.75184 2.10599 0.274935 5.79129
files/tasks_parameters/ExAp01/sample26.txt 2.26012 7.4944 1.88956 0.267248 5.62937
files/tasks_parameters/ExAp01/sample5.txt 2.38609 8.08362 2.09961 0.28454 5.99362
files/tasks_parameters/ExAp01/sample21.txt 2.19409 6.11814 2.17119 0.26143 5.50681
files/tasks_parameters/ExAp01/sample38.txt 2.20904 7.761 1.96293 0.263659 5.55377
files/tasks_parameters/ExAp01/sample1.txt 2.42322 7.83752 2.13261 0.289228 6.09237
files/tasks_parameters/ExAp01/sample15.txt 2.41698 7.37971 2.12057 0.285825 6.02069
files/tasks_parameters/ExAp01/sample24.txt 2.4888 8.28531 2.25272 0.296628 6.24825
files/tasks_parameters/ExAp01/sample3.txt 2.51888 7.33359 2.39135 0.305084 6.42637
files/tasks_parameters/ExAp01/sample6.txt 2.33903 7.09894 2.24425 0.281804 5.93599
files/tasks_parameters/ExAp01/sample30.txt 2.51358 8.17669 2.03701 0.299204 6.30251
files/tasks_parameters/ExAp01/sample42.txt 2.46628 7.70416 2.42413 0.29743 6.26513
files/tasks_parameters/ExAp01/sample4.txt 2.56371 7.41691 2.36261 0.307803 6.48363
files/tasks_parameters/ExAp01/sample28.txt 2.25353 7.0562 2.07657 0.266428 5.6121
files/tasks_parameters/ExAp01/sample18.txt 2.23632 7.60139 2.1377 0.268016 5.64555
files/tasks_parameters/ExAp01/sample35.txt 2.66323 9.66795 2.28028 0.32244 6.79194
files/tasks_parameters/ExAp01/sample47.txt 2.08051 6.84842 2.12104 0.251655 5.30091
files/tasks_parameters/ExAp01/sample49.txt 2.13046 7.1497 2.11412 0.255889 5.3901
files/tasks_parameters/ExAp01/sample41.txt 2.21053 6.59911 2.07359 0.265885 5.60067
