files/tasks_parameters/ExAp01/sample8.txt 1.26754 6.77015 2.19458 0.288816 7.60392
files/tasks_parameters/ExAp01/sample12.txt 1.49773 9.58351 2.46081 0.337498 8.88562
files/tasks_parameters/ExAp01/sample2.txt 1.33268 8.44418 2.50701 0.319127 8.40194
files/tasks_parameters/ExAp01/sample44.txt 1.17935 6.96299 2.23089 0.28229 7.4321
files/tasks_parameters/ExAp01/sample27.txt 1.2182 7.74306 2.16676 0.28602 7.53029
files/tasks_parameters/ExAp01/sample17.txt 1.24132 7.35053 2.25579 0.292348 7.69689
files/tasks_parameters/ExAp01/sample9.txt 1.27948 6.89392 2.21068 0.282399 7.43496
files/tasks_parameters/ExAp01/sample34.txt 1.21201 6.62788 2.3772 0.297742 7.8389
files/tasks_parameters/ExAp01/sample40.txt 1.11609 7.75686 2.17534 0.285619 7.51975
files/tasks_parameters/ExAp01/sample33.txt 1.40702 8.14826 2.6463 0.338073 8.90075
files/tasks_parameters/ExAp01/sample48.txt 1.08324 7.64107 2.14272 0.270011 7.10882
files/tasks_parameters/ExAp01/sample29.txt 1.34379 7.139 1.93769 0.286306 7.53782
files/tasks_parameters/ExAp01/sample11.txt 1.17672 6.88688 2.12981 0.280008 7.37203
files/tasks_parameters/ExAp01/sample14.txt 0.940822 6.11983 1.97599 0.247458 6.51503
files/tasks_parameters/ExAp01/sample0.txt 1.24157 8.2738 2.14256 0.289132 7.61222
files/tasks_parameters/ExAp01/sample7.txt 1.09457 6.87011 2.05821 0.269886 7.10551
files/tasks_parameters/ExAp01/sample23.txt 1.24249 6.52032 2.38087 0.291712 7.68015
files/tasks_parameters/ExAp01/sample13.txt 1.29856 8.73247 2.33415 0.295393 7.77706
files/tasks_parameters/ExAp01/sample22.txt 1.12804 6.9777 2.28948 0.283979 7.47657
files/tasks_parameters/ExAp01/sample25.txt 1.02692 6.23444 2.2122 0.267298 7.03738
files/tasks_parameters/ExAp01/sample36.txt 1.01918 6.6174 1.9458 0.253823 6.68261
files/tasks_parameters/ExAp01/sample46.txt 1.4552 7.42369 2.49128 0.327273 8.6164
files/tasks_parameters/ExAp01/sample31.txt 1.08808 7.22028 2.13584 0.25377 6.68122
files/tasks_parameters/ExAp01/sample37.txt 1.22482 8.90704 2.16981 0.295708 7.78536
files/tasks_parameters/ExAp01/sample16.txt 1.08424 8.18243 1.88294 0.24945 6.56748
files/tasks_parameters/ExAp01/sample10.txt 1.13394 6.96646 2.31217 0.285748 7.52314
files/tasks_parameters/ExAp01/sample39.txt 1.06374 6.4161 1.97266 0.251967 6.63375
files/tasks_parameters/ExAp01/sample19.txt 1.44302 8.16711 2.23199 0.308463 8.12117
files/tasks_parameters/ExAp01/sample20.txt 1.12216 7.28549 1.88944 0.25994 6.84366
files/tasks_parameters/ExAp01/sample43.txt 1.06036 6.86804 2.00142 0.25616 6.74415
files/tasks_parameters/ExAp01/sample32.txt 1.19511 8.15663 2.12995 0.281726 7.41726
files/tasks_parameters/ExAp01/sample45.txt 1.28835 7.75184 2.10599 0.274935 7.23845
files/tasks_parameters/ExAp01/sample26.txt 1.13768 7.4944 1.88956 0.267248 7.03607
files/tasks_parameters/ExAp01/sample5.txt 1.25743 8.08362 2.09961 0.28454 7.49134
files/tasks_parameters/ExAp01/sample21.txt 1.17595 6.11814 2.17119 0.26143 6.88289
files/tasks_parameters/ExAp01/sample38.txt 1.12211 7.761 1.96293 0.263659 6.94158
files/tasks_parameters/ExAp01/sample1.txt 1.28032 7.83752 2.13261 0.289228 7.61476
files/tasks_parameters/ExAp01/sample15.txt 1.20514 7.37971 2.12057 0.285825 7.52518
files/tasks_parameters/ExAp01/sample24.txt 1.20151 8.28531 2.25272 0.296628 7.8096
files/tasks_parameters/ExAp01/sample3.txt 1.39333 7.33359 2.39135 0.305084 8.03223
files/tasks_parameters/ExAp01/sample6.txt 1.13358 7.09894 2.24425 0.281804 7.41931
files/tasks_parameters/ExAp01/sample30.txt 1.48125 8.17669 2.03701 0.299204 7.87741
files/tasks_parameters/ExAp01/sample42.txt 1.18629 7.70416 2.42413 0.29743 7.8307
files/tasks_parameters/ExAp01/sample4.txt 1.36703 7.41691 2.36261 0.307803 8.10379
files/tasks_parameters/ExAp01/sample28.txt 1.21249 7.0562 2.07657 0.266428 7.01448
files/tasks_parameters/ExAp01/sample18.txt 1.11832 7.60139 2.1377 0.268016 7.05629
files/tasks_parameters/ExAp01/sample35.txt 1.47355 9.66795 2.28028 0.32244 8.48915
files/tasks_parameters/ExAp01/sample47.txt 1.09609 6.84842 2.12104 0.251655 6.62553
files/tasks_parameters/ExAp01/sample49.txt 1.0727 7.1497 2.11412 0.255889 6.73701
files/tasks_parameters/ExAp01/sample41.txt 1.09828 6.59911 2.07359 0.265885 7.0002
