files/tasks_parameters/ExAp01/sample8.txt 0.97887 3.76817 4.3855 0.450105 11.8503
files/tasks_parameters/ExAp01/sample12.txt 1.3541 5.03638 5.18776 0.610564 16.0749
files/tasks_parameters/ExAp01/sample2.txt 1.3293 4.58991 5.64606 0.613877 16.1621
files/tasks_parameters/ExAp01/sample44.txt 1.18376 3.77401 5.66946 0.551838 14.5287
files/tasks_parameters/ExAp01/sample27.txt 1.21641 4.13937 5.56136 0.55779 14.6854
files/tasks_parameters/ExAp01/sample17.txt 1.13144 3.76163 5.38341 0.520991 13.7166
files/tasks_parameters/ExAp01/sample9.txt 1.11055 3.69889 5.2981 0.511699 13.472
files/tasks_parameters/ExAp01/sample34.txt 1.08277 3.52435 5.83741 0.49187 12.9499
files/tasks_parameters/ExAp01/sample40.txt 1.09561 4.06185 5.0335 0.496884 13.0819
files/tasks_parameters/ExAp01/sample33.txt 1.40176 4.82091 5.83886 0.651963 17.1648
files/tasks_parameters/ExAp01/sample48.txt 0.979259 4.01134 5.07085 0.447927 11.793
files/tasks_parameters/ExAp01/sample29.txt 1.3777 4.20847 5.0406 0.643694 16.9471
files/tasks_parameters/ExAp01/sample11.txt 1.20988 3.94699 5.29198 0.557276 14.6719
files/tasks_parameters/ExAp01/sample14.txt 1.04464 3.54059 4.58345 0.466713 12.2876
files/tasks_parameters/ExAp01/sample0.txt 1.36584 4.82755 4.90216 0.623551 16.4168
files/tasks_parameters/ExAp01/sample7.txt 1.11023 3.60766 5.11185 0.509566 13.4158
files/tasks_parameters/ExAp01/sample23.txt 1.25844 3.81403 5.45799 0.582911 15.3468
files/tasks_parameters/ExAp01/sample13.txt 1.36206 4.8894 5.26818 0.624499 16.4417
files/tasks_parameters/ExAp01/sample22.txt 1.16884 3.76156 4.95746 0.534216 14.0648
files/tasks_parameters/ExAp01/sample25.txt 0.905741 2.94144 4.92622 0.403639 10.627
files/tasks_parameters/ExAp01/sample36.txt 1.08667 3.56164 4.5806 0.501799 13.2113
files/tasks_parameters/ExAp01/sample46.txt 1.15028 3.84833 4.7121 0.530701 13.9722
files/tasks_parameters/ExAp01/sample31.txt 1.06217 3.764 5.08385 0.479734 12.6304
files/tasks_parameters/ExAp01/sample37.txt 1.40949 4.43254 5.65111 0.65143 17.1508
files/tasks_parameters/ExAp01/sample16.txt 1.12902 4.49741 4.8895 0.509171 13.4054
files/tasks_parameters/ExAp01/sample10.txt 1.33839 3.87086 6.07511 0.60993 16.0582
files/tasks_parameters/ExAp01/sample39.txt 1.02532 3.66299 4.54281 0.463671 12.2075
files/tasks_parameters/ExAp01/sample19.txt 1.3366 3.86694 5.14047 0.615987 16.2176
files/tasks_parameters/ExAp01/sample20.txt 1.25607 4.09945 5.13368 0.580369 15.2799
files/tasks_parameters/ExAp01/sample43.txt 1.15895 3.75825 5.55698 0.530892 13.9773
files/tasks_parameters/ExAp01/sample32.txt 1.28566 4.0352 5.29178 0.587643 15.4714
files/tasks_parameters/ExAp01/sample45.txt 1.17536 3.94578 4.87833 0.541081 14.2455
files/tasks_parameters/ExAp01/sample26.txt 1.03607 3.50998 4.55035 0.474009 12.4797
files/tasks_parameters/ExAp01/sample5.txt 1.26871 4.00994 5.27725 0.587681 15.4724
files/tasks_parameters/ExAp01/sample21.txt 0.963715 2.8974 4.54677 0.430037 11.322
files/tasks_parameters/ExAp01/sample38.txt 1.0737 3.56689 4.78573 0.492366 12.963
files/tasks_parameters/ExAp01/sample1.txt 1.06675 3.69002 4.55048 0.481074 12.6657
files/tasks_parameters/ExAp01/sample15.txt 1.15066 3.73223 5.42493 0.524964 13.8212
files/tasks_parameters/ExAp01/sample24.txt 1.17869 4.18053 5.40377 0.542575 14.2849
files/tasks_parameters/ExAp01/sample3.txt 1.02174 3.70547 4.7118 0.470503 12.3873
files/tasks_parameters/ExAp01/sample6.txt 1.34463 4.07521 5.71419 0.626702 16.4997
files/tasks_parameters/ExAp01/sample30.txt 1.36183 3.97446 5.82388 0.626709 16.4999
files/tasks_parameters/ExAp01/sample42.txt 1.1839 4.44207 5.58473 0.537025 14.1387
files/tasks_parameters/ExAp01/sample4.txt 1.22182 3.92181 4.49751 0.556974 14.6639
files/tasks_parameters/ExAp01/sample28.txt 0.957731 3.13496 4.88321 0.444588 11.7051
files/tasks_parameters/ExAp01/sample18.txt 1.1756 3.95301 4.52898 0.537438 14.1496
files/tasks_parameters/ExAp01/sample35.txt 1.63825 5.75923 6.25034 0.752488 19.8114
files/tasks_parameters/ExAp01/sample47.txt 1.17128 3.44018 5.14289 0.540033 14.2179
files/tasks_parameters/ExAp01/sample49.txt 1.09949 3.38981 4.72409 0.493041 12.9807
files/tasks_parameters/ExAp01/sample41.txt 1.05939 3.58692 5.27252 0.492391 12.9636
