files/tasks_parameters/ExAp01/sample8.txt 1.09072 7.2562 4.46819 0.454772 9.05123
files/tasks_parameters/ExAp01/sample12.txt 1.59622 9.70908 5.28286 0.618515 12.3102
files/tasks_parameters/ExAp01/sample2.txt 1.42031 8.14159 5.7401 0.620531 12.3503
files/tasks_parameters/ExAp01/sample44.txt 1.32264 7.25164 5.75904 0.557631 11.0984
files/tasks_parameters/ExAp01/sample27.txt 1.32149 8.10944 5.64946 0.564878 11.2427
files/tasks_parameters/ExAp01/sample17.txt 1.24874 7.11225 5.46658 0.527183 10.4924
files/tasks_parameters/ExAp01/sample9.txt 1.18642 7.62559 5.37813 0.517277 10.2952
files/tasks_parameters/ExAp01/sample34.txt 1.24003 7.04587 5.93037 0.497709 9.9058
files/tasks_parameters/ExAp01/sample40.txt 1.20459 8.03037 5.123 0.502383 9.99881
files/tasks_parameters/ExAp01/sample33.txt 1.53791 9.22935 5.92956 0.659262 13.1211
files/tasks_parameters/ExAp01/sample48.txt 1.08738 8.12182 5.1577 0.452491 9.00582
files/tasks_parameters/ExAp01/sample29.txt 1.4523 8.06133 5.12331 0.650652 12.9498
files/tasks_parameters/ExAp01/sample11.txt 1.30459 7.63104 5.37897 0.563302 11.2113
files/tasks_parameters/ExAp01/sample14.txt 1.12507 6.66403 4.66322 0.471536 9.38488
files/tasks_parameters/ExAp01/sample0.txt 1.4466 9.3266 4.98971 0.6311 12.5606
files/tasks_parameters/ExAp01/sample7.txt 1.26128 7.34863 5.19436 0.515527 10.2604
files/tasks_parameters/ExAp01/sample23.txt 1.34139 6.68564 5.54308 0.588617 11.7151
files/tasks_parameters/ExAp01/sample13.txt 1.46182 9.31093 5.35591 0.632849 12.5955
files/tasks_parameters/ExAp01/sample22.txt 1.27561 7.65588 5.04866 0.540336 10.7542
files/tasks_parameters/ExAp01/sample25.txt 1.01203 6.17035 5.0141 0.408296 8.12622
files/tasks_parameters/ExAp01/sample36.txt 1.21708 7.03772 4.66274 0.507647 10.1036
files/tasks_parameters/ExAp01/sample46.txt 1.27373 7.73433 4.79934 0.536843 10.6847
files/tasks_parameters/ExAp01/sample31.txt 1.17365 6.96928 5.16482 0.485817 9.66912
files/tasks_parameters/ExAp01/sample37.txt 1.55068 9.52443 5.74224 0.65799 13.0958
files/tasks_parameters/ExAp01/sample16.txt 1.35543 8.63521 4.97261 0.516328 10.2764
files/tasks_parameters/ExAp01/sample10.txt 1.40507 7.28353 6.16876 0.615651 12.2532
files/tasks_parameters/ExAp01/sample39.txt 1.11366 6.3405 4.6137 0.468873 9.33188
files/tasks_parameters/ExAp01/sample19.txt 1.38295 8.85528 5.22306 0.622152 12.3826
files/tasks_parameters/ExAp01/sample20.txt 1.36864 8.1141 5.21177 0.586994 11.6828
files/tasks_parameters/ExAp01/sample43.txt 1.24492 7.21373 5.6367 0.53748 10.6973
files/tasks_parameters/ExAp01/sample32.txt 1.36696 8.30592 5.38137 0.593918 11.8206
files/tasks_parameters/ExAp01/sample45.txt 1.27144 7.94069 4.96323 0.547271 10.8922
files/tasks_parameters/ExAp01/sample26.txt 1.12194 7.57061 4.62637 0.480146 9.55624
files/tasks_parameters/ExAp01/sample5.txt 1.35405 8.0307 5.35681 0.59407 11.8236
files/tasks_parameters/ExAp01/sample21.txt 1.03582 5.87802 4.61744 0.434264 8.64307
files/tasks_parameters/ExAp01/sample38.txt 1.16024 7.66999 4.86632 0.496808 9.88786
files/tasks_parameters/ExAp01/sample1.txt 1.11321 7.21312 4.63213 0.486293 9.67859
files/tasks_parameters/ExAp01/sample15.txt 1.26738 8.02273 5.50855 0.531063 10.5696
files/tasks_parameters/ExAp01/sample24.txt 1.31668 8.66348 5.4905 0.548998 10.9266
files/tasks_parameters/ExAp01/sample3.txt 1.12842 7.74268 4.79918 0.477387 9.50132
files/tasks_parameters/ExAp01/sample6.txt 1.44908 8.57133 5.80157 0.633604 12.6105
files/tasks_parameters/ExAp01/sample30.txt 1.53213 8.18878 5.90888 0.633576 12.6099
files/tasks_parameters/ExAp01/sample42.txt 1.33268 8.57689 5.67253 0.54426 10.8323
files/tasks_parameters/ExAp01/sample4.txt 1.2813 8.40354 4.57985 0.563519 11.2156
files/tasks_parameters/ExAp01/sample28.txt 1.04252 6.44114 4.96426 0.449721 8.9507
files/tasks_parameters/ExAp01/sample18.txt 1.313 8.56363 4.60946 0.543766 10.8225
files/tasks_parameters/ExAp01/sample35.txt 1.83713 11.0387 6.34514 0.761377 15.1535
files/tasks_parameters/ExAp01/sample47.txt 1.28763 7.14493 5.22131 0.545046 10.8479
files/tasks_parameters/ExAp01/sample49.txt 1.25147 6.65996 4.80244 0.498533 9.9222
files/tasks_parameters/ExAp01/sample41.txt 1.16333 7.09069 5.35462 0.497129 9.89424
