files/tasks_parameters/ExAp01/sample8.txt 1.08283 3.76817 4.3855 0.450105 30.2744
files/tasks_parameters/ExAp01/sample12.txt 1.64843 5.03638 5.18776 0.610564 41.067
files/tasks_parameters/ExAp01/sample2.txt 1.42228 4.58991 5.64606 0.613877 41.2898
files/tasks_parameters/ExAp01/sample44.txt 1.25656 3.77401 5.66946 0.551838 37.1169
files/tasks_parameters/ExAp01/sample27.txt 1.30619 4.13937 5.56136 0.55779 37.5173
files/tasks_parameters/ExAp01/sample17.txt 1.23233 3.76163 5.38341 0.520991 35.0422
files/tasks_parameters/ExAp01/sample9.txt 1.15613 3.69889 5.2981 0.511699 34.4172
files/tasks_parameters/ExAp01/sample34.txt 1.13196 3.52435 5.83741 0.49187 33.0835
files/tasks_parameters/ExAp01/sample40.txt 1.1581 4.06185 5.0335 0.496884 33.4207
files/tasks_parameters/ExAp01/sample33.txt 1.55857 4.82091 5.83886 0.651963 43.8514
files/tasks_parameters/ExAp01/sample48.txt 1.13442 4.01134 5.07085 0.447927 30.1279
files/tasks_parameters/ExAp01/sample29.txt 1.48366 4.20847 5.0406 0.643694 43.2953
files/tasks_parameters/ExAp01/sample11.txt 1.31213 3.94699 5.29198 0.557276 37.4827
files/tasks_parameters/ExAp01/sample14.txt 1.08418 3.54059 4.58345 0.466713 31.3915
files/tasks_parameters/ExAp01/sample0.txt 1.51734 4.82755 4.90216 0.623551 41.9404
files/tasks_parameters/ExAp01/sample7.txt 1.15412 3.60766 5.11185 0.509566 34.2737
files/tasks_parameters/ExAp01/sample23.txt 1.39278 3.81403 5.45799 0.582911 39.207
files/tasks_parameters/ExAp01/sample13.txt 1.48332 4.8894 5.26818 0.624499 42.0042
files/tasks_parameters/ExAp01/sample22.txt 1.2931 3.76156 4.95746 0.534216 35.9317
files/tasks_parameters/ExAp01/sample25.txt 0.985216 2.94144 4.92622 0.403639 27.149
files/tasks_parameters/ExAp01/sample36.txt 1.19377 3.56164 4.5806 0.501799 33.7513
files/tasks_parameters/ExAp01/sample46.txt 1.27205 3.84833 4.7121 0.530701 35.6953
files/tasks_parameters/ExAp01/sample31.txt 1.09403 3.764 5.08385 0.479734 32.2672
files/tasks_parameters/ExAp01/sample37.txt 1.52634 4.43254 5.65111 0.65143 43.8156
files/tasks_parameters/ExAp01/sample16.txt 1.25467 4.49741 4.8895 0.509171 34.2471
files/tasks_parameters/ExAp01/sample10.txt 1.37894 3.87086 6.07511 0.60993 41.0243
files/tasks_parameters/ExAp01/sample39.txt 1.09167 3.66299 4.54281 0.463671 31.1868
files/tasks_parameters/ExAp01/sample19.txt 1.36554 3.86694 5.14047 0.615987 41.4317
files/tasks_parameters/ExAp01/sample20.txt 1.34016 4.09945 5.13368 0.580369 39.036
files/tasks_parameters/ExAp01/sample43.txt 1.14194 3.75825 5.55698 0.530892 35.7082
files/tasks_parameters/ExAp01/sample32.txt 1.43604 4.0352 5.29178 0.587643 39.5253
files/tasks_parameters/ExAp01/sample45.txt 1.24027 3.94578 4.87833 0.541081 36.3935
files/tasks_parameters/ExAp01/sample26.txt 1.11368 3.50998 4.55035 0.474009 31.8822
files/tasks_parameters/ExAp01/sample5.txt 1.40219 4.00994 5.27725 0.587681 39.5278
files/tasks_parameters/ExAp01/sample21.txt 0.930095 2.8974 4.54677 0.430037 28.9246
files/tasks_parameters/ExAp01/sample38.txt 1.18496 3.56689 4.78573 0.492366 33.1169
files/tasks_parameters/ExAp01/sample1.txt 1.16388 3.69002 4.55048 0.481074 32.3573
files/tasks_parameters/ExAp01/sample15.txt 1.19433 3.73223 5.42493 0.524964 35.3094
files/tasks_parameters/ExAp01/sample24.txt 1.28953 4.18053 5.40377 0.542575 36.494
files/tasks_parameters/ExAp01/sample3.txt 1.09929 3.70547 4.7118 0.470503 31.6463
files/tasks_parameters/ExAp01/sample6.txt 1.47202 4.07521 5.71419 0.626702 42.1524
files/tasks_parameters/ExAp01/sample30.txt 1.5 3.97446 5.82388 0.626709 42.1529
files/tasks_parameters/ExAp01/sample42.txt 1.30392 4.44207 5.58473 0.537025 36.1206
files/tasks_parameters/ExAp01/sample4.txt 1.28703 3.92181 4.49751 0.556974 37.4624
files/tasks_parameters/ExAp01/sample28.txt 1.05733 3.13496 4.88321 0.444588 29.9033
files/tasks_parameters/ExAp01/sample18.txt 1.23021 3.95301 4.52898 0.537438 36.1484
files/tasks_parameters/ExAp01/sample35.txt 1.92094 5.75923 6.25034 0.752488 50.6128
files/tasks_parameters/ExAp01/sample47.txt 1.19053 3.44018 5.14289 0.540033 36.323
files/tasks_parameters/ExAp01/sample49.txt 1.11501 3.38981 4.72409 0.493041 33.1623
files/tasks_parameters/ExAp01/sample41.txt 1.14039 3.58692 5.27252 0.492391 33.1185
