files/tasks_parameters/ExAp01/sample8.txt 0.791465 3.15778 1.5595 0.203411 4.43535
files/tasks_parameters/ExAp01/sample12.txt 0.806027 3.94962 1.6705 0.207924 4.53375
files/tasks_parameters/ExAp01/sample2.txt 0.7723 3.78275 1.74131 0.200098 4.3631
files/tasks_parameters/ExAp01/sample44.txt 0.69082 3.59825 1.65317 0.200005 4.36108
files/tasks_parameters/ExAp01/sample27.txt 0.681226 3.45743 1.5148 0.182129 3.97129
files/tasks_parameters/ExAp01/sample17.txt 0.925109 2.77299 1.44514 0.14646 3.19354
files/tasks_parameters/ExAp01/sample9.txt 0.728395 2.99933 1.451 0.177444 3.86913
files/tasks_parameters/ExAp01/sample34.txt 0.831645 3.02928 1.58429 0.157984 3.44481
files/tasks_parameters/ExAp01/sample40.txt 0.764924 3.86889 1.52122 0.168379 3.67149
files/tasks_parameters/ExAp01/sample33.txt 0.805353 3.63695 1.71905 0.199765 4.35585
files/tasks_parameters/ExAp01/sample48.txt 0.682426 3.39061 1.49062 0.154728 3.37383
files/tasks_parameters/ExAp01/sample29.txt 0.736993 3.30472 1.38739 0.223868 4.88142
files/tasks_parameters/ExAp01/sample11.txt 0.707448 3.10585 1.41612 0.174079 3.79576
files/tasks_parameters/ExAp01/sample14.txt 0.664688 2.70971 1.43432 0.162214 3.53706
files/tasks_parameters/ExAp01/sample0.txt 0.7486 3.6937 1.5439 0.18367 4.0049
files/tasks_parameters/ExAp01/sample7.txt 0.809856 2.70501 1.42221 0.143463 3.1282
files/tasks_parameters/ExAp01/sample23.txt 0.75565 3.2697 1.57822 0.181448 3.95646
files/tasks_parameters/ExAp01/sample13.txt 0.733647 3.84225 1.67648 0.198247 4.32275
files/tasks_parameters/ExAp01/sample22.txt 0.901802 3.09569 1.56121 0.148796 3.24448
files/tasks_parameters/ExAp01/sample25.txt 0.746637 2.73966 1.5007 0.148149 3.23036
files/tasks_parameters/ExAp01/sample36.txt 0.849347 2.85948 1.28553 0.130042 2.83555
files/tasks_parameters/ExAp01/sample46.txt 0.753045 3.58643 1.69998 0.210103 4.58126
files/tasks_parameters/ExAp01/sample31.txt 0.691311 3.4832 1.53782 0.1722 3.7548
files/tasks_parameters/ExAp01/sample37.txt 0.776948 3.95293 1.50705 0.171701 3.74392
files/tasks_parameters/ExAp01/sample16.txt 0.606127 3.31216 1.30115 0.150249 3.27616
files/tasks_parameters/ExAp01/sample10.txt 1.10417 3.17098 1.61789 0.153776 3.35307
files/tasks_parameters/ExAp01/sample39.txt 0.699279 3.26617 1.44406 0.165669 3.61238
files/tasks_parameters/ExAp01/sample19.txt 0.744508 3.63532 1.52509 0.196094 4.27581
files/tasks_parameters/ExAp01/sample20.txt 0.662661 3.20793 1.25367 0.147335 3.21263
files/tasks_parameters/ExAp01/sample43.txt 0.648094 3.11551 1.4202 0.150644 3.28478
files/tasks_parameters/ExAp01/sample32.txt 0.722684 3.5311 1.42482 0.168744 3.67944
files/tasks_parameters/ExAp01/sample45.txt 0.748982 3.80283 1.48324 0.19807 4.3189
files/tasks_parameters/ExAp01/sample26.txt 0.63282 3.21645 1.29701 0.166061 3.62094
files/tasks_parameters/ExAp01/sample5.txt 0.636311 3.5889 1.52559 0.178903 3.90096
files/tasks_parameters/ExAp01/sample21.txt 0.680268 2.75242 1.55936 0.19512 4.25457
files/tasks_parameters/ExAp01/sample38.txt 0.664457 3.31563 1.37515 0.166157 3.62303
files/tasks_parameters/ExAp01/sample1.txt 0.729041 3.74964 1.51696 0.19701 4.29577
files/tasks_parameters/ExAp01/sample15.txt 0.698554 3.32916 1.48508 0.180707 3.9403
files/tasks_parameters/ExAp01/sample24.txt 0.861271 3.45951 1.59549 0.16529 3.60413
files/tasks_parameters/ExAp01/sample3.txt 0.902298 3.70014 1.70809 0.237107 5.17009
files/tasks_parameters/ExAp01/sample6.txt 0.730089 3.33003 1.58323 0.184714 4.02767
files/tasks_parameters/ExAp01/sample30.txt 0.810147 4.1841 1.4861 0.239623 5.22495
files/tasks_parameters/ExAp01/sample42.txt 0.747833 3.43221 1.70276 0.177383 3.86781
files/tasks_parameters/ExAp01/sample4.txt 0.785506 3.72477 1.6136 0.196448 4.28353
files/tasks_parameters/ExAp01/sample28.txt 0.689545 3.11323 1.45032 0.158819 3.46303
files/tasks_parameters/ExAp01/sample18.txt 0.769617 3.47418 1.45209 0.149064 3.25032
files/tasks_parameters/ExAp01/sample35.txt 0.806087 4.57086 1.49394 0.185031 4.03457
files/tasks_parameters/ExAp01/sample47.txt 0.716344 3.13768 1.52397 0.16417 3.57971
files/tasks_parameters/ExAp01/sample49.txt 0.776571 3.13288 1.49657 0.156154 3.40492
files/tasks_parameters/ExAp01/sample41.txt 0.761871 2.81964 1.49636 0.150876 3.28983
