files/tasks_parameters/ExAp01/sample8.txt 3.17302 6.77015 2.19458 0.288816 6.2976
files/tasks_parameters/ExAp01/sample12.txt 3.82498 9.58351 2.46081 0.337498 7.35911
files/tasks_parameters/ExAp01/sample2.txt 3.57623 8.44418 2.50701 0.319127 6.95853
files/tasks_parameters/ExAp01/sample44.txt 3.12961 6.96299 2.23089 0.28229 6.1553
files/tasks_parameters/ExAp01/sample27.txt 3.18971 7.74306 2.16676 0.28602 6.23662
files/tasks_parameters/ExAp01/sample17.txt 3.26671 7.35053 2.25579 0.292348 6.3746
files/tasks_parameters/ExAp01/sample9.txt 3.14719 6.89392 2.21068 0.282399 6.15767
files/tasks_parameters/ExAp01/sample34.txt 3.35828 6.62788 2.3772 0.297742 6.49222
files/tasks_parameters/ExAp01/sample40.txt 3.24667 7.75686 2.17534 0.285619 6.22789
files/tasks_parameters/ExAp01/sample33.txt 3.81989 8.14826 2.6463 0.338073 7.37164
files/tasks_parameters/ExAp01/sample48.txt 2.97441 7.64107 2.14272 0.270011 5.88756
files/tasks_parameters/ExAp01/sample29.txt 3.02272 7.139 1.93769 0.286306 6.24286
files/tasks_parameters/ExAp01/sample11.txt 3.14747 6.88688 2.12981 0.280008 6.10555
files/tasks_parameters/ExAp01/sample14.txt 2.74382 6.11983 1.97599 0.247458 5.39578
files/tasks_parameters/ExAp01/sample0.txt 3.24796 8.2738 2.14256 0.289132 6.30448
files/tasks_parameters/ExAp01/sample7.txt 3.09318 6.87011 2.05821 0.269886 5.88482
files/tasks_parameters/ExAp01/sample23.txt 3.24999 6.52032 2.38087 0.291712 6.36073
files/tasks_parameters/ExAp01/sample13.txt 3.3689 8.73247 2.33415 0.295393 6.441
files/tasks_parameters/ExAp01/sample22.txt 3.20764 6.9777 2.28948 0.283979 6.19213
files/tasks_parameters/ExAp01/sample25.txt 2.91341 6.23444 2.2122 0.267298 5.82839
files/tasks_parameters/ExAp01/sample36.txt 2.75895 6.6174 1.9458 0.253823 5.53457
files/tasks_parameters/ExAp01/sample46.txt 3.6702 7.42369 2.49128 0.327273 7.13614
files/tasks_parameters/ExAp01/sample31.txt 2.80166 7.22028 2.13584 0.25377 5.53342
files/tasks_parameters/ExAp01/sample37.txt 3.28272 8.90704 2.16981 0.295708 6.44787
files/tasks_parameters/ExAp01/sample16.txt 2.80467 8.18243 1.88294 0.24945 5.43922
files/tasks_parameters/ExAp01/sample10.txt 3.21346 6.96646 2.31217 0.285748 6.2307
files/tasks_parameters/ExAp01/sample39.txt 2.83193 6.4161 1.97266 0.251967 5.4941
files/tasks_parameters/ExAp01/sample19.txt 3.39971 8.16711 2.23199 0.308463 6.72599
files/tasks_parameters/ExAp01/sample20.txt 2.835 7.28549 1.88944 0.25994 5.66795
files/tasks_parameters/ExAp01/sample43.txt 2.84857 6.86804 2.00142 0.25616 5.58554
files/tasks_parameters/ExAp01/sample32.txt 3.12338 8.15663 2.12995 0.281726 6.14301
files/tasks_parameters/ExAp01/sample45.txt 3.05025 7.75184 2.10599 0.274935 5.99492
files/tasks_parameters/ExAp01/sample26.txt 2.98344 7.4944 1.88956 0.267248 5.82731
files/tasks_parameters/ExAp01/sample5.txt 3.19769 8.08362 2.09961 0.28454 6.20436
files/tasks_parameters/ExAp01/sample21.txt 2.91305 6.11814 2.17119 0.26143 5.70044
files/tasks_parameters/ExAp01/sample38.txt 2.94486 7.761 1.96293 0.263659 5.74905
files/tasks_parameters/ExAp01/sample1.txt 3.28448 7.83752 2.13261 0.289228 6.30658
files/tasks_parameters/ExAp01/sample15.txt 3.26687 7.37971 2.12057 0.285825 6.23239
files/tasks_parameters/ExAp01/sample24.txt 3.31648 8.28531 2.25272 0.296628 6.46794
files/tasks_parameters/ExAp01/sample3.txt 3.43181 7.33359 2.39135 0.305084 6.65233
files/tasks_parameters/ExAp01/sample6.txt 3.19827 7.09894 2.24425 0.281804 6.1447
files/tasks_parameters/ExAp01/sample30.txt 3.27231 8.17669 2.03701 0.299204 6.52411
files/tasks_parameters/ExAp01/sample42.txt 3.35015 7.70416 2.42413 0.29743 6.48542
files/tasks_parameters/ExAp01/sample4.txt 3.47168 7.41691 2.36261 0.307803 6.7116
files/tasks_parameters/ExAp01/sample28.txt 2.99926 7.0562 2.07657 0.266428 5.80943
files/tasks_parameters/ExAp01/sample18.txt 3.00846 7.60139 2.1377 0.268016 5.84405
files/tasks_parameters/ExAp01/sample35.txt 3.61333 9.66795 2.28028 0.32244 7.03075
files/tasks_parameters/ExAp01/sample47.txt 2.8435 6.84842 2.12104 0.251655 5.4873
files/tasks_parameters/ExAp01/sample49.txt 2.86724 7.1497 2.11412 0.255889 5.57962
files/tasks_parameters/ExAp01/sample41.txt 2.92361 6.59911 2.07359 0.265885 5.79759
