files/tasks_parameters/ExAp01/sample8.txt 0.804513 3.15778 1.5595 0.203411 3.41543
files/tasks_parameters/ExAp01/sample12.txt 0.916646 3.94962 1.6705 0.207924 3.4912
files/tasks_parameters/ExAp01/sample2.txt 0.879328 3.78275 1.74131 0.200098 3.35979
files/tasks_parameters/ExAp01/sample44.txt 0.824768 3.59825 1.65317 0.200005 3.35824
files/tasks_parameters/ExAp01/sample27.txt 0.774671 3.45743 1.5148 0.182129 3.05808
files/tasks_parameters/ExAp01/sample17.txt 0.673134 2.77299 1.44514 0.14646 2.45917
files/tasks_parameters/ExAp01/sample9.txt 0.759292 2.99933 1.451 0.177444 2.97941
files/tasks_parameters/ExAp01/sample34.txt 0.716988 3.02928 1.58429 0.157984 2.65267
files/tasks_parameters/ExAp01/sample40.txt 0.768288 3.86889 1.52122 0.168379 2.82722
files/tasks_parameters/ExAp01/sample33.txt 0.820234 3.63695 1.71905 0.199765 3.35421
files/tasks_parameters/ExAp01/sample48.txt 0.697638 3.39061 1.49062 0.154728 2.59801
files/tasks_parameters/ExAp01/sample29.txt 0.878384 3.30472 1.38739 0.223868 3.75892
files/tasks_parameters/ExAp01/sample11.txt 0.740725 3.10585 1.41612 0.174079 2.92291
files/tasks_parameters/ExAp01/sample14.txt 0.674395 2.70971 1.43432 0.162214 2.72371
files/tasks_parameters/ExAp01/sample0.txt 0.817311 3.6937 1.5439 0.18367 3.08396
files/tasks_parameters/ExAp01/sample7.txt 0.672036 2.70501 1.42221 0.143463 2.40886
files/tasks_parameters/ExAp01/sample23.txt 0.796655 3.2697 1.57822 0.181448 3.04666
files/tasks_parameters/ExAp01/sample13.txt 0.852928 3.84225 1.67648 0.198247 3.32872
files/tasks_parameters/ExAp01/sample22.txt 0.70875 3.09569 1.56121 0.148796 2.4984
files/tasks_parameters/ExAp01/sample25.txt 0.631732 2.73966 1.5007 0.148149 2.48753
files/tasks_parameters/ExAp01/sample36.txt 0.611811 2.85948 1.28553 0.130042 2.18351
files/tasks_parameters/ExAp01/sample46.txt 0.843089 3.58643 1.69998 0.210103 3.52779
files/tasks_parameters/ExAp01/sample31.txt 0.793952 3.4832 1.53782 0.1722 2.89137
files/tasks_parameters/ExAp01/sample37.txt 0.788263 3.95293 1.50705 0.171701 2.88299
files/tasks_parameters/ExAp01/sample16.txt 0.691158 3.31216 1.30115 0.150249 2.5228
files/tasks_parameters/ExAp01/sample10.txt 0.730584 3.17098 1.61789 0.153776 2.58202
files/tasks_parameters/ExAp01/sample39.txt 0.71195 3.26617 1.44406 0.165669 2.78171
files/tasks_parameters/ExAp01/sample19.txt 0.841476 3.63532 1.52509 0.196094 3.29258
files/tasks_parameters/ExAp01/sample20.txt 0.657555 3.20793 1.25367 0.147335 2.47388
files/tasks_parameters/ExAp01/sample43.txt 0.651965 3.11551 1.4202 0.150644 2.52944
files/tasks_parameters/ExAp01/sample32.txt 0.791707 3.5311 1.42482 0.168744 2.83335
files/tasks_parameters/ExAp01/sample45.txt 0.840932 3.80283 1.48324 0.19807 3.32576
files/tasks_parameters/ExAp01/sample26.txt 0.694441 3.21645 1.29701 0.166061 2.7883
files/tasks_parameters/ExAp01/sample5.txt 0.75255 3.5889 1.52559 0.178903 3.00393
files/tasks_parameters/ExAp01/sample21.txt 0.782655 2.75242 1.55936 0.19512 3.27622
files/tasks_parameters/ExAp01/sample38.txt 0.71618 3.31563 1.37515 0.166157 2.7899
files/tasks_parameters/ExAp01/sample1.txt 0.826587 3.74964 1.51696 0.19701 3.30794
files/tasks_parameters/ExAp01/sample15.txt 0.772703 3.32916 1.48508 0.180707 3.03422
files/tasks_parameters/ExAp01/sample24.txt 0.756447 3.45951 1.59549 0.16529 2.77535
files/tasks_parameters/ExAp01/sample3.txt 0.96007 3.70014 1.70809 0.237107 3.98121
files/tasks_parameters/ExAp01/sample6.txt 0.772295 3.33003 1.58323 0.184714 3.1015
files/tasks_parameters/ExAp01/sample30.txt 1.03678 4.1841 1.4861 0.239623 4.02346
files/tasks_parameters/ExAp01/sample42.txt 0.777512 3.43221 1.70276 0.177383 2.9784
files/tasks_parameters/ExAp01/sample4.txt 0.888541 3.72477 1.6136 0.196448 3.29852
files/tasks_parameters/ExAp01/sample28.txt 0.699798 3.11323 1.45032 0.158819 2.66669
files/tasks_parameters/ExAp01/sample18.txt 0.702429 3.47418 1.45209 0.149064 2.5029
files/tasks_parameters/ExAp01/sample35.txt 0.875999 4.57086 1.49394 0.185031 3.10681
files/tasks_parameters/ExAp01/sample47.txt 0.731565 3.13768 1.52397 0.16417 2.75654
files/tasks_parameters/ExAp01/sample49.txt 0.734017 3.13288 1.49657 0.156154 2.62195
files/tasks_parameters/ExAp01/sample41.txt 0.673525 2.81964 1.49636 0.150876 2.53332
