files/tasks_parameters/ExAp01/sample8.txt 1.37043 6.77015 2.19458 0.288816 4.84945
files/tasks_parameters/ExAp01/sample12.txt 1.66988 9.58351 2.46081 0.337498 5.66686
files/tasks_parameters/ExAp01/sample2.txt 1.55475 8.44418 2.50701 0.319127 5.35839
files/tasks_parameters/ExAp01/sample44.txt 1.34501 6.96299 2.23089 0.28229 4.73987
files/tasks_parameters/ExAp01/sample27.txt 1.37931 7.74306 2.16676 0.28602 4.80249
files/tasks_parameters/ExAp01/sample17.txt 1.40402 7.35053 2.25579 0.292348 4.90874
files/tasks_parameters/ExAp01/sample9.txt 1.38508 6.89392 2.21068 0.282399 4.74169
files/tasks_parameters/ExAp01/sample34.txt 1.39983 6.62788 2.3772 0.297742 4.99931
files/tasks_parameters/ExAp01/sample40.txt 1.3674 7.75686 2.17534 0.285619 4.79577
files/tasks_parameters/ExAp01/sample33.txt 1.59655 8.14826 2.6463 0.338073 5.67651
files/tasks_parameters/ExAp01/sample48.txt 1.31014 7.64107 2.14272 0.270011 4.5337
files/tasks_parameters/ExAp01/sample29.txt 1.38513 7.139 1.93769 0.286306 4.80729
files/tasks_parameters/ExAp01/sample11.txt 1.31489 6.88688 2.12981 0.280008 4.70156
files/tasks_parameters/ExAp01/sample14.txt 1.18404 6.11983 1.97599 0.247458 4.155
files/tasks_parameters/ExAp01/sample0.txt 1.39323 8.2738 2.14256 0.289132 4.85475
files/tasks_parameters/ExAp01/sample7.txt 1.3062 6.87011 2.05821 0.269886 4.53159
files/tasks_parameters/ExAp01/sample23.txt 1.37326 6.52032 2.38087 0.291712 4.89806
files/tasks_parameters/ExAp01/sample13.txt 1.46981 8.73247 2.33415 0.295393 4.95987
files/tasks_parameters/ExAp01/sample22.txt 1.38661 6.9777 2.28948 0.283979 4.76823
files/tasks_parameters/ExAp01/sample25.txt 1.26403 6.23444 2.2122 0.267298 4.48814
files/tasks_parameters/ExAp01/sample36.txt 1.22353 6.6174 1.9458 0.253823 4.26188
files/tasks_parameters/ExAp01/sample46.txt 1.56222 7.42369 2.49128 0.327273 5.49516
files/tasks_parameters/ExAp01/sample31.txt 1.27237 7.22028 2.13584 0.25377 4.26099
files/tasks_parameters/ExAp01/sample37.txt 1.44744 8.90704 2.16981 0.295708 4.96517
files/tasks_parameters/ExAp01/sample16.txt 1.24543 8.18243 1.88294 0.24945 4.18845
files/tasks_parameters/ExAp01/sample10.txt 1.38912 6.96646 2.31217 0.285748 4.79793
files/tasks_parameters/ExAp01/sample39.txt 1.21972 6.4161 1.97266 0.251967 4.23072
files/tasks_parameters/ExAp01/sample19.txt 1.51926 8.16711 2.23199 0.308463 5.17933
files/tasks_parameters/ExAp01/sample20.txt 1.25302 7.28549 1.88944 0.25994 4.36459
files/tasks_parameters/ExAp01/sample43.txt 1.23243 6.86804 2.00142 0.25616 4.30113
files/tasks_parameters/ExAp01/sample32.txt 1.36811 8.15663 2.12995 0.281726 4.7304
files/tasks_parameters/ExAp01/sample45.txt 1.37391 7.75184 2.10599 0.274935 4.61637
files/tasks_parameters/ExAp01/sample26.txt 1.25832 7.4944 1.88956 0.267248 4.4873
files/tasks_parameters/ExAp01/sample5.txt 1.38063 8.08362 2.09961 0.28454 4.77765
files/tasks_parameters/ExAp01/sample21.txt 1.26783 6.11814 2.17119 0.26143 4.38961
files/tasks_parameters/ExAp01/sample38.txt 1.30331 7.761 1.96293 0.263659 4.42704
files/tasks_parameters/ExAp01/sample1.txt 1.405 7.83752 2.13261 0.289228 4.85636
files/tasks_parameters/ExAp01/sample15.txt 1.3801 7.37971 2.12057 0.285825 4.79923
files/tasks_parameters/ExAp01/sample24.txt 1.40704 8.28531 2.25272 0.296628 4.98062
files/tasks_parameters/ExAp01/sample3.txt 1.4692 7.33359 2.39135 0.305084 5.1226
files/tasks_parameters/ExAp01/sample6.txt 1.34748 7.09894 2.24425 0.281804 4.73171
files/tasks_parameters/ExAp01/sample30.txt 1.53079 8.17669 2.03701 0.299204 5.02387
files/tasks_parameters/ExAp01/sample42.txt 1.40288 7.70416 2.42413 0.29743 4.99408
files/tasks_parameters/ExAp01/sample4.txt 1.49843 7.41691 2.36261 0.307803 5.16825
files/tasks_parameters/ExAp01/sample28.txt 1.29811 7.0562 2.07657 0.266428 4.47353
files/tasks_parameters/ExAp01/sample18.txt 1.28412 7.60139 2.1377 0.268016 4.5002
files/tasks_parameters/ExAp01/sample35.txt 1.58439 9.66795 2.28028 0.32244 5.41401
files/tasks_parameters/ExAp01/sample47.txt 1.24091 6.84842 2.12104 0.251655 4.22548
files/tasks_parameters/ExAp01/sample49.txt 1.23783 7.1497 2.11412 0.255889 4.29657
files/tasks_parameters/ExAp01/sample41.txt 1.29342 6.59911 2.07359 0.265885 4.46442
