files/tasks_parameters/ExAp01/sample8.txt 0.808699 3.15778 1.5595 0.203411 5.78211
files/tasks_parameters/ExAp01/sample12.txt 0.740032 3.94962 1.6705 0.207924 5.91038
files/tasks_parameters/ExAp01/sample2.txt 0.739635 3.78275 1.74131 0.200098 5.68792
files/tasks_parameters/ExAp01/sample44.txt 0.698491 3.59825 1.65317 0.200005 5.68529
files/tasks_parameters/ExAp01/sample27.txt 0.708648 3.45743 1.5148 0.182129 5.17713
files/tasks_parameters/ExAp01/sample17.txt 0.590654 2.77299 1.44514 0.14646 4.16322
files/tasks_parameters/ExAp01/sample9.txt 0.656014 2.99933 1.451 0.177444 5.04396
files/tasks_parameters/ExAp01/sample34.txt 0.58109 3.02928 1.58429 0.157984 4.4908
files/tasks_parameters/ExAp01/sample40.txt 0.63311 3.86889 1.52122 0.168379 4.7863
files/tasks_parameters/ExAp01/sample33.txt 0.704675 3.63695 1.71905 0.199765 5.67846
files/tasks_parameters/ExAp01/sample48.txt 0.58885 3.39061 1.49062 0.154728 4.39826
files/tasks_parameters/ExAp01/sample29.txt 0.817925 3.30472 1.38739 0.223868 6.36362
files/tasks_parameters/ExAp01/sample11.txt 0.648987 3.10585 1.41612 0.174079 4.94831
files/tasks_parameters/ExAp01/sample14.txt 0.593947 2.70971 1.43432 0.162214 4.61106
files/tasks_parameters/ExAp01/sample0.txt 0.672245 3.6937 1.5439 0.18367 5.22095
files/tasks_parameters/ExAp01/sample7.txt 0.573241 2.70501 1.42221 0.143463 4.07805
files/tasks_parameters/ExAp01/sample23.txt 0.677004 3.2697 1.57822 0.181448 5.1578
files/tasks_parameters/ExAp01/sample13.txt 0.678061 3.84225 1.67648 0.198247 5.63531
files/tasks_parameters/ExAp01/sample22.txt 0.548591 3.09569 1.56121 0.148796 4.22964
files/tasks_parameters/ExAp01/sample25.txt 0.549095 2.73966 1.5007 0.148149 4.21123
files/tasks_parameters/ExAp01/sample36.txt 0.496343 2.85948 1.28553 0.130042 3.69654
files/tasks_parameters/ExAp01/sample46.txt 0.762526 3.58643 1.69998 0.210103 5.97232
files/tasks_parameters/ExAp01/sample31.txt 0.582178 3.4832 1.53782 0.1722 4.89491
files/tasks_parameters/ExAp01/sample37.txt 0.648128 3.95293 1.50705 0.171701 4.88073
files/tasks_parameters/ExAp01/sample16.txt 0.612287 3.31216 1.30115 0.150249 4.27093
files/tasks_parameters/ExAp01/sample10.txt 0.651728 3.17098 1.61789 0.153776 4.3712
files/tasks_parameters/ExAp01/sample39.txt 0.654015 3.26617 1.44406 0.165669 4.70925
files/tasks_parameters/ExAp01/sample19.txt 0.790831 3.63532 1.52509 0.196094 5.57412
files/tasks_parameters/ExAp01/sample20.txt 0.546142 3.20793 1.25367 0.147335 4.18811
files/tasks_parameters/ExAp01/sample43.txt 0.54012 3.11551 1.4202 0.150644 4.28218
files/tasks_parameters/ExAp01/sample32.txt 0.608933 3.5311 1.42482 0.168744 4.79667
files/tasks_parameters/ExAp01/sample45.txt 0.79582 3.80283 1.48324 0.19807 5.63029
files/tasks_parameters/ExAp01/sample26.txt 0.630404 3.21645 1.29701 0.166061 4.72041
files/tasks_parameters/ExAp01/sample5.txt 0.677324 3.5889 1.52559 0.178903 5.08546
files/tasks_parameters/ExAp01/sample21.txt 0.716273 2.75242 1.55936 0.19512 5.54643
files/tasks_parameters/ExAp01/sample38.txt 0.611896 3.31563 1.37515 0.166157 4.72313
files/tasks_parameters/ExAp01/sample1.txt 0.722665 3.74964 1.51696 0.19701 5.60014
files/tasks_parameters/ExAp01/sample15.txt 0.697244 3.32916 1.48508 0.180707 5.13674
files/tasks_parameters/ExAp01/sample24.txt 0.662267 3.45951 1.59549 0.16529 4.6985
files/tasks_parameters/ExAp01/sample3.txt 0.956291 3.70014 1.70809 0.237107 6.73994
files/tasks_parameters/ExAp01/sample6.txt 0.682631 3.33003 1.58323 0.184714 5.25064
files/tasks_parameters/ExAp01/sample30.txt 0.920174 4.1841 1.4861 0.239623 6.81146
files/tasks_parameters/ExAp01/sample42.txt 0.678961 3.43221 1.70276 0.177383 5.04223
files/tasks_parameters/ExAp01/sample4.txt 0.760574 3.72477 1.6136 0.196448 5.58418
files/tasks_parameters/ExAp01/sample28.txt 0.569445 3.11323 1.45032 0.158819 4.51454
files/tasks_parameters/ExAp01/sample18.txt 0.604794 3.47418 1.45209 0.149064 4.23725
files/tasks_parameters/ExAp01/sample35.txt 0.766707 4.57086 1.49394 0.185031 5.25963
files/tasks_parameters/ExAp01/sample47.txt 0.613734 3.13768 1.52397 0.16417 4.66665
files/tasks_parameters/ExAp01/sample49.txt 0.620325 3.13288 1.49657 0.156154 4.43879
files/tasks_parameters/ExAp01/sample41.txt 0.549018 2.81964 1.49636 0.150876 4.28876
