digraph G {
0 ->10 0 ->12 0 ->13 0 ->14 0 ->16 0 ->19 1 ->8 1 ->10 1 ->15 1 ->18 2 ->7 2 ->8 2 ->13 2 ->17 3 ->7 3 ->11 3 ->12 3 ->16 3 ->20 4 ->9 4 ->16 4 ->19 4 ->20 5 ->12 5 ->14 5 ->18 5 ->21 5 ->22 6 ->11 6 ->12 6 ->13 6 ->14 6 ->19 7 ->26 8 ->18 8 ->21 8 ->25 8 ->26 9 ->18 9 ->21 10 ->24 10 ->34 11 ->21 11 ->22 12 ->21 12 ->22 12 ->29 13 ->18 13 ->27 13 ->31 14 ->22 14 ->25 14 ->31 15 ->20 15 ->21 16 ->18 16 ->25 17 ->22 17 ->23 17 ->26 17 ->28 18 ->39 19 ->30 19 ->33 19 ->36 19 ->37 19 ->39 20 ->32 20 ->37 20 ->38 20 ->41 21 ->23 21 ->24 21 ->29 21 ->30 21 ->32 21 ->36 21 ->38 22 ->27 22 ->29 22 ->30 22 ->38 22 ->41 23 ->43 23 ->45 23 ->47 24 ->39 24 ->44 25 ->42 26 ->37 26 ->41 26 ->48 27 ->36 28 ->46 29 ->46 29 ->48 30 ->35 30 ->40 31 ->45 32 ->39 33 ->42 33 ->46 34 ->36 34 ->45 36 ->44 36 ->50 37 ->45 37 ->55 38 ->52 39 ->42 39 ->47 39 ->49 39 ->50 39 ->51 39 ->53 39 ->57 40 ->42 40 ->52 41 ->44 41 ->53 41 ->54 42 ->49 42 ->51 42 ->61 43 ->62 43 ->63 43 ->64 44 ->51 44 ->62 44 ->64 45 ->50 45 ->53 45 ->56 45 ->58 45 ->60 45 ->61 45 ->63 46 ->56 46 ->58 46 ->63 47 ->58 47 ->59 47 ->63 48 ->61 50 ->61 50 ->62 51 ->60 51 ->70 54 ->65 54 ->70 56 ->61 56 ->63 59 ->66 60 ->74 60 ->82 61 ->67 61 ->71 61 ->75 61 ->79 61 ->81 62 ->69 62 ->71 62 ->82 63 ->70 63 ->73 63 ->76 64 ->68 64 ->72 64 ->82 65 ->68 65 ->74 65 ->78 65 ->82 66 ->77 66 ->87 67 ->78 67 ->80 67 ->83 67 ->89 67 ->93 67 ->94 68 ->77 68 ->85 68 ->86 68 ->91 68 ->94 69 ->77 69 ->91 69 ->92 69 ->93 70 ->80 70 ->87 70 ->89 70 ->92 70 ->93 70 ->94 71 ->86 71 ->92 72 ->73 72 ->86 72 ->93 73 ->84 73 ->88 74 ->84 74 ->85 74 ->97 74 ->98 75 ->94 75 ->95 76 ->97 77 ->91 77 ->93 78 ->91 78 ->92 79 ->91 79 ->95 79 ->96 80 ->85 80 ->94 80 ->95 81 ->86 81 ->89 81 ->90 81 ->96 82 ->95 83 ->84 83 ->85 83 ->89 83 ->99 84 ->99 85 ->96 86 ->96 92 ->99 
}
