digraph G {
0 ->9 0 ->14 0 ->16 0 ->17 0 ->20 0 ->27 0 ->28 1 ->9 1 ->10 1 ->11 1 ->13 1 ->14 1 ->15 1 ->17 1 ->20 1 ->22 1 ->28 2 ->9 2 ->13 2 ->14 2 ->16 2 ->17 2 ->18 2 ->21 2 ->27 3 ->12 3 ->13 3 ->14 3 ->16 3 ->17 3 ->21 3 ->25 3 ->30 4 ->19 4 ->28 5 ->9 5 ->16 5 ->19 5 ->21 6 ->16 6 ->19 6 ->19 6 ->21 6 ->32 7 ->9 7 ->11 7 ->12 7 ->13 7 ->14 7 ->15 7 ->27 7 ->30 8 ->15 8 ->24 8 ->25 8 ->28 8 ->29 8 ->30 9 ->29 9 ->32 9 ->35 9 ->37 10 ->20 10 ->24 10 ->36 10 ->37 11 ->20 11 ->24 11 ->31 11 ->35 12 ->24 12 ->26 12 ->31 12 ->38 13 ->31 14 ->22 14 ->31 14 ->33 15 ->20 15 ->22 15 ->31 15 ->35 15 ->38 16 ->20 16 ->22 16 ->23 16 ->29 16 ->35 17 ->23 17 ->29 17 ->30 18 ->24 18 ->29 19 ->22 19 ->35 19 ->36 19 ->37 20 ->37 20 ->39 21 ->35 22 ->43 23 ->35 24 ->41 24 ->42 24 ->46 25 ->38 25 ->46 26 ->40 26 ->43 27 ->39 27 ->47 28 ->39 28 ->45 29 ->34 29 ->36 29 ->37 29 ->38 29 ->40 30 ->44 31 ->36 32 ->36 33 ->47 33 ->49 33 ->50 33 ->51 33 ->53 33 ->57 34 ->41 34 ->45 34 ->47 34 ->56 35 ->44 35 ->46 35 ->50 35 ->51 35 ->53 35 ->56 35 ->57 36 ->53 36 ->55 36 ->56 37 ->48 37 ->49 38 ->55 38 ->57 39 ->68 40 ->52 40 ->53 40 ->57 40 ->59 40 ->66 40 ->69 41 ->51 41 ->58 42 ->52 42 ->59 43 ->54 43 ->55 43 ->59 43 ->63 43 ->67 43 ->68 44 ->61 44 ->63 45 ->57 45 ->61 45 ->64 46 ->59 46 ->63 46 ->68 46 ->69 47 ->53 47 ->59 48 ->73 49 ->61 49 ->63 49 ->73 49 ->78 50 ->60 50 ->64 50 ->76 51 ->67 51 ->68 51 ->69 51 ->73 51 ->74 51 ->75 51 ->78 52 ->62 52 ->68 52 ->70 52 ->71 52 ->76 53 ->69 53 ->71 53 ->73 53 ->74 53 ->76 54 ->74 54 ->76 55 ->65 55 ->66 55 ->70 56 ->61 56 ->63 56 ->65 56 ->67 56 ->70 56 ->76 57 ->61 57 ->69 57 ->78 60 ->70 60 ->75 60 ->78 61 ->73 61 ->78 61 ->82 62 ->74 62 ->81 63 ->70 63 ->71 63 ->72 63 ->82 64 ->76 64 ->78 67 ->79 67 ->80 68 ->72 68 ->83 69 ->77 71 ->81 72 ->88 73 ->81 73 ->85 74 ->82 74 ->83 75 ->81 76 ->82 76 ->87 76 ->89 77 ->80 77 ->83 77 ->86 77 ->90 78 ->84 78 ->89 79 ->91 79 ->97 79 ->98 80 ->88 80 ->94 80 ->95 80 ->97 81 ->87 81 ->90 82 ->93 83 ->85 83 ->94 83 ->98 84 ->87 84 ->97 85 ->93 85 ->96 85 ->99 86 ->96 88 ->91 88 ->95 89 ->92 90 ->92 90 ->94 
}
