digraph G {
0 ->8 0 ->11 0 ->16 0 ->19 1 ->10 1 ->11 1 ->14 1 ->19 2 ->6 2 ->9 2 ->10 2 ->13 3 ->13 3 ->14 3 ->22 4 ->8 4 ->12 4 ->16 5 ->7 5 ->8 5 ->11 5 ->14 5 ->17 5 ->22 7 ->15 7 ->22 8 ->17 8 ->22 8 ->23 8 ->28 9 ->17 9 ->23 9 ->25 10 ->15 10 ->17 10 ->20 12 ->24 13 ->15 13 ->21 13 ->22 13 ->29 14 ->15 14 ->18 14 ->20 14 ->21 14 ->27 15 ->31 16 ->25 16 ->34 16 ->35 17 ->32 17 ->33 18 ->36 19 ->25 19 ->26 20 ->33 21 ->31 22 ->24 22 ->30 22 ->37 24 ->41 25 ->46 25 ->48 26 ->37 26 ->39 27 ->35 27 ->40 27 ->42 27 ->49 27 ->50 28 ->33 28 ->35 28 ->42 29 ->39 30 ->32 30 ->38 30 ->42 30 ->45 30 ->49 31 ->41 31 ->44 31 ->54 31 ->57 31 ->58 32 ->39 32 ->41 32 ->42 32 ->54 32 ->56 32 ->61 33 ->43 34 ->51 34 ->52 34 ->55 34 ->57 34 ->61 35 ->48 35 ->50 35 ->53 35 ->58 36 ->47 36 ->48 36 ->57 36 ->58 36 ->61 37 ->43 37 ->54 37 ->57 37 ->58 38 ->53 38 ->58 38 ->62 38 ->68 40 ->58 40 ->61 40 ->66 40 ->70 41 ->57 41 ->61 43 ->52 43 ->54 43 ->60 43 ->61 43 ->64 44 ->60 45 ->57 45 ->59 45 ->62 45 ->64 46 ->55 46 ->60 46 ->70 47 ->57 47 ->58 47 ->59 47 ->64 48 ->54 50 ->53 50 ->54 51 ->52 51 ->61 51 ->63 51 ->65 52 ->67 52 ->73 52 ->76 53 ->69 53 ->70 55 ->63 55 ->69 56 ->65 56 ->77 57 ->63 57 ->65 57 ->69 58 ->63 58 ->65 58 ->66 58 ->77 59 ->63 59 ->66 60 ->64 60 ->75 60 ->76 61 ->64 61 ->66 61 ->72 62 ->75 65 ->72 65 ->75 65 ->76 65 ->85 66 ->71 66 ->85 67 ->72 67 ->79 67 ->81 67 ->84 68 ->76 69 ->74 69 ->77 70 ->75 70 ->81 71 ->78 71 ->82 72 ->85 72 ->87 73 ->81 73 ->84 73 ->86 73 ->88 73 ->89 74 ->86 75 ->78 75 ->84 75 ->93 76 ->80 76 ->83 76 ->91 77 ->79 77 ->91 77 ->92 78 ->89 79 ->87 80 ->92 80 ->94 81 ->91 81 ->92 81 ->98 82 ->89 82 ->90 82 ->91 82 ->99 83 ->87 83 ->92 83 ->95 83 ->98 84 ->86 85 ->86 85 ->97 85 ->99 87 ->96 88 ->96 90 ->94 90 ->97 90 ->99 91 ->94 91 ->96 91 ->97 91 ->99 92 ->96 93 ->97 
}
