files/tasks_parameters/ExAp01/sample8.txt 1.24979 6.77015 2.19458 0.288816 10.4524
files/tasks_parameters/ExAp01/sample12.txt 1.25533 9.58351 2.46081 0.337498 12.2142
files/tasks_parameters/ExAp01/sample2.txt 1.23758 8.44418 2.50701 0.319127 11.5494
files/tasks_parameters/ExAp01/sample44.txt 1.19058 6.96299 2.23089 0.28229 10.2162
files/tasks_parameters/ExAp01/sample27.txt 1.14703 7.74306 2.16676 0.28602 10.3512
files/tasks_parameters/ExAp01/sample17.txt 1.07573 7.35053 2.25579 0.292348 10.5802
files/tasks_parameters/ExAp01/sample9.txt 1.13775 6.89392 2.21068 0.282399 10.2201
files/tasks_parameters/ExAp01/sample34.txt 1.11011 6.62788 2.3772 0.297742 10.7754
files/tasks_parameters/ExAp01/sample40.txt 1.14901 7.75686 2.17534 0.285619 10.3367
files/tasks_parameters/ExAp01/sample33.txt 1.23137 8.14826 2.6463 0.338073 12.235
files/tasks_parameters/ExAp01/sample48.txt 0.958962 7.64107 2.14272 0.270011 9.77183
files/tasks_parameters/ExAp01/sample29.txt 1.01127 7.139 1.93769 0.286306 10.3615
files/tasks_parameters/ExAp01/sample11.txt 1.09669 6.88688 2.12981 0.280008 10.1336
files/tasks_parameters/ExAp01/sample14.txt 0.904163 6.11983 1.97599 0.247458 8.95561
files/tasks_parameters/ExAp01/sample0.txt 1.13301 8.2738 2.14256 0.289132 10.4638
files/tasks_parameters/ExAp01/sample7.txt 1.04026 6.87011 2.05821 0.269886 9.76729
files/tasks_parameters/ExAp01/sample23.txt 1.07451 6.52032 2.38087 0.291712 10.5572
files/tasks_parameters/ExAp01/sample13.txt 1.17687 8.73247 2.33415 0.295393 10.6904
files/tasks_parameters/ExAp01/sample22.txt 1.08577 6.9777 2.28948 0.283979 10.2773
files/tasks_parameters/ExAp01/sample25.txt 1.0846 6.23444 2.2122 0.267298 9.67363
files/tasks_parameters/ExAp01/sample36.txt 0.98636 6.6174 1.9458 0.253823 9.18596
files/tasks_parameters/ExAp01/sample46.txt 1.32443 7.42369 2.49128 0.327273 11.8442
files/tasks_parameters/ExAp01/sample31.txt 0.898893 7.22028 2.13584 0.25377 9.18405
files/tasks_parameters/ExAp01/sample37.txt 1.13338 8.90704 2.16981 0.295708 10.7018
files/tasks_parameters/ExAp01/sample16.txt 1.11131 8.18243 1.88294 0.24945 9.0277
files/tasks_parameters/ExAp01/sample10.txt 1.09698 6.96646 2.31217 0.285748 10.3414
files/tasks_parameters/ExAp01/sample39.txt 0.963893 6.4161 1.97266 0.251967 9.11879
files/tasks_parameters/ExAp01/sample19.txt 1.2267 8.16711 2.23199 0.308463 11.1634
files/tasks_parameters/ExAp01/sample20.txt 0.977337 7.28549 1.88944 0.25994 9.40735
files/tasks_parameters/ExAp01/sample43.txt 0.941006 6.86804 2.00142 0.25616 9.27056
files/tasks_parameters/ExAp01/sample32.txt 1.09434 8.15663 2.12995 0.281726 10.1958
files/tasks_parameters/ExAp01/sample45.txt 1.08312 7.75184 2.10599 0.274935 9.95003
files/tasks_parameters/ExAp01/sample26.txt 1.0425 7.4944 1.88956 0.267248 9.67183
files/tasks_parameters/ExAp01/sample5.txt 1.11827 8.08362 2.09961 0.28454 10.2976
files/tasks_parameters/ExAp01/sample21.txt 1.13229 6.11814 2.17119 0.26143 9.46126
files/tasks_parameters/ExAp01/sample38.txt 1.04659 7.761 1.96293 0.263659 9.54194
files/tasks_parameters/ExAp01/sample1.txt 1.11762 7.83752 2.13261 0.289228 10.4673
files/tasks_parameters/ExAp01/sample15.txt 1.07023 7.37971 2.12057 0.285825 10.3442
files/tasks_parameters/ExAp01/sample24.txt 1.06095 8.28531 2.25272 0.296628 10.7351
files/tasks_parameters/ExAp01/sample3.txt 1.17519 7.33359 2.39135 0.305084 11.0412
files/tasks_parameters/ExAp01/sample6.txt 1.09459 7.09894 2.24425 0.281804 10.1986
files/tasks_parameters/ExAp01/sample30.txt 1.21986 8.17669 2.03701 0.299204 10.8283
files/tasks_parameters/ExAp01/sample42.txt 1.20917 7.70416 2.42413 0.29743 10.7641
files/tasks_parameters/ExAp01/sample4.txt 1.17371 7.41691 2.36261 0.307803 11.1395
files/tasks_parameters/ExAp01/sample28.txt 0.955816 7.0562 2.07657 0.266428 9.64215
files/tasks_parameters/ExAp01/sample18.txt 1.06619 7.60139 2.1377 0.268016 9.69963
files/tasks_parameters/ExAp01/sample35.txt 1.30663 9.66795 2.28028 0.32244 11.6692
files/tasks_parameters/ExAp01/sample47.txt 0.947373 6.84842 2.12104 0.251655 9.1075
files/tasks_parameters/ExAp01/sample49.txt 1.05387 7.1497 2.11412 0.255889 9.26074
files/tasks_parameters/ExAp01/sample41.txt 1.0112 6.59911 2.07359 0.265885 9.62252
