files/tasks_parameters/ExAp01/sample8.txt 0.778574 3.15778 1.5595 0.203411 8.00072
files/tasks_parameters/ExAp01/sample12.txt 0.775281 3.94962 1.6705 0.207924 8.17821
files/tasks_parameters/ExAp01/sample2.txt 0.723015 3.78275 1.74131 0.200098 7.87039
files/tasks_parameters/ExAp01/sample44.txt 0.70586 3.59825 1.65317 0.200005 7.86675
files/tasks_parameters/ExAp01/sample27.txt 0.745397 3.45743 1.5148 0.182129 7.16361
files/tasks_parameters/ExAp01/sample17.txt 0.622131 2.77299 1.44514 0.14646 5.76066
files/tasks_parameters/ExAp01/sample9.txt 0.610933 2.99933 1.451 0.177444 6.97934
files/tasks_parameters/ExAp01/sample34.txt 0.598237 3.02928 1.58429 0.157984 6.21393
files/tasks_parameters/ExAp01/sample40.txt 0.646627 3.86889 1.52122 0.168379 6.62282
files/tasks_parameters/ExAp01/sample33.txt 0.809356 3.63695 1.71905 0.199765 7.8573
files/tasks_parameters/ExAp01/sample48.txt 0.630197 3.39061 1.49062 0.154728 6.08588
files/tasks_parameters/ExAp01/sample29.txt 0.760911 3.30472 1.38739 0.223868 8.80535
files/tasks_parameters/ExAp01/sample11.txt 0.657625 3.10585 1.41612 0.174079 6.84699
files/tasks_parameters/ExAp01/sample14.txt 0.580508 2.70971 1.43432 0.162214 6.38034
files/tasks_parameters/ExAp01/sample0.txt 0.712674 3.6937 1.5439 0.18367 7.22424
files/tasks_parameters/ExAp01/sample7.txt 0.601641 2.70501 1.42221 0.143463 5.64281
files/tasks_parameters/ExAp01/sample23.txt 0.638761 3.2697 1.57822 0.181448 7.13686
files/tasks_parameters/ExAp01/sample13.txt 0.709182 3.84225 1.67648 0.198247 7.7976
files/tasks_parameters/ExAp01/sample22.txt 0.559766 3.09569 1.56121 0.148796 5.85256
files/tasks_parameters/ExAp01/sample25.txt 0.508139 2.73966 1.5007 0.148149 5.82709
files/tasks_parameters/ExAp01/sample36.txt 0.513139 2.85948 1.28553 0.130042 5.11492
files/tasks_parameters/ExAp01/sample46.txt 0.799265 3.58643 1.69998 0.210103 8.26392
files/tasks_parameters/ExAp01/sample31.txt 0.643546 3.4832 1.53782 0.1722 6.77309
files/tasks_parameters/ExAp01/sample37.txt 0.691745 3.95293 1.50705 0.171701 6.75347
files/tasks_parameters/ExAp01/sample16.txt 0.602137 3.31216 1.30115 0.150249 5.9097
files/tasks_parameters/ExAp01/sample10.txt 0.662538 3.17098 1.61789 0.153776 6.04845
files/tasks_parameters/ExAp01/sample39.txt 0.627799 3.26617 1.44406 0.165669 6.5162
files/tasks_parameters/ExAp01/sample19.txt 0.771935 3.63532 1.52509 0.196094 7.71293
files/tasks_parameters/ExAp01/sample20.txt 0.51814 3.20793 1.25367 0.147335 5.7951
files/tasks_parameters/ExAp01/sample43.txt 0.586806 3.11551 1.4202 0.150644 5.92526
files/tasks_parameters/ExAp01/sample32.txt 0.606587 3.5311 1.42482 0.168744 6.63717
files/tasks_parameters/ExAp01/sample45.txt 0.757346 3.80283 1.48324 0.19807 7.79065
files/tasks_parameters/ExAp01/sample26.txt 0.644366 3.21645 1.29701 0.166061 6.53164
files/tasks_parameters/ExAp01/sample5.txt 0.740969 3.5889 1.52559 0.178903 7.03676
files/tasks_parameters/ExAp01/sample21.txt 0.800392 2.75242 1.55936 0.19512 7.67462
files/tasks_parameters/ExAp01/sample38.txt 0.586964 3.31563 1.37515 0.166157 6.5354
files/tasks_parameters/ExAp01/sample1.txt 0.783711 3.74964 1.51696 0.19701 7.74893
files/tasks_parameters/ExAp01/sample15.txt 0.707712 3.32916 1.48508 0.180707 7.10772
files/tasks_parameters/ExAp01/sample24.txt 0.67156 3.45951 1.59549 0.16529 6.50132
files/tasks_parameters/ExAp01/sample3.txt 0.909439 3.70014 1.70809 0.237107 9.32607
files/tasks_parameters/ExAp01/sample6.txt 0.715735 3.33003 1.58323 0.184714 7.26532
files/tasks_parameters/ExAp01/sample30.txt 0.903312 4.1841 1.4861 0.239623 9.42503
files/tasks_parameters/ExAp01/sample42.txt 0.679648 3.43221 1.70276 0.177383 6.97695
files/tasks_parameters/ExAp01/sample4.txt 0.774665 3.72477 1.6136 0.196448 7.72684
files/tasks_parameters/ExAp01/sample28.txt 0.622544 3.11323 1.45032 0.158819 6.24679
files/tasks_parameters/ExAp01/sample18.txt 0.622955 3.47418 1.45209 0.149064 5.86309
files/tasks_parameters/ExAp01/sample35.txt 0.702712 4.57086 1.49394 0.185031 7.27776
files/tasks_parameters/ExAp01/sample47.txt 0.633734 3.13768 1.52397 0.16417 6.45726
files/tasks_parameters/ExAp01/sample49.txt 0.614985 3.13288 1.49657 0.156154 6.14197
files/tasks_parameters/ExAp01/sample41.txt 0.548311 2.81964 1.49636 0.150876 5.93436
