digraph G {
0 ->9 0 ->10 0 ->11 0 ->13 0 ->14 0 ->15 0 ->16 0 ->18 0 ->19 1 ->9 1 ->10 1 ->11 1 ->13 1 ->15 1 ->16 1 ->17 1 ->18 2 ->9 2 ->10 2 ->11 2 ->12 2 ->13 2 ->15 2 ->17 2 ->18 2 ->19 3 ->9 3 ->10 3 ->11 3 ->13 3 ->13 3 ->14 3 ->15 3 ->16 3 ->17 3 ->18 3 ->19 4 ->9 4 ->10 4 ->11 4 ->12 4 ->15 4 ->16 4 ->18 4 ->19 5 ->9 5 ->10 5 ->11 5 ->12 5 ->13 5 ->15 5 ->16 5 ->18 5 ->19 6 ->9 6 ->10 6 ->11 6 ->12 6 ->14 6 ->16 6 ->18 6 ->18 6 ->19 7 ->9 7 ->10 7 ->11 7 ->12 7 ->13 7 ->14 7 ->15 7 ->16 7 ->17 7 ->19 8 ->9 8 ->10 8 ->11 8 ->12 8 ->13 8 ->14 8 ->15 8 ->17 8 ->19 8 ->19 9 ->20 9 ->21 9 ->24 9 ->27 10 ->24 10 ->26 10 ->29 11 ->23 11 ->24 11 ->26 11 ->27 11 ->29 11 ->30 12 ->21 12 ->24 12 ->29 12 ->30 13 ->23 13 ->24 13 ->25 13 ->29 13 ->30 14 ->20 14 ->24 14 ->25 14 ->26 14 ->29 14 ->30 15 ->23 15 ->24 15 ->25 15 ->28 15 ->29 15 ->30 16 ->20 16 ->24 16 ->26 16 ->29 16 ->29 16 ->30 17 ->20 17 ->24 17 ->26 17 ->29 17 ->30 18 ->24 18 ->25 18 ->26 18 ->29 19 ->20 19 ->22 19 ->23 19 ->24 19 ->26 19 ->27 19 ->29 19 ->30 20 ->35 20 ->39 20 ->41 20 ->43 20 ->44 21 ->33 21 ->35 21 ->36 21 ->38 21 ->39 21 ->42 21 ->43 22 ->32 22 ->35 22 ->36 22 ->38 22 ->39 22 ->41 22 ->42 23 ->32 23 ->33 23 ->34 23 ->35 23 ->36 23 ->39 23 ->40 23 ->41 23 ->44 24 ->35 24 ->36 24 ->39 24 ->41 24 ->43 25 ->35 25 ->36 25 ->38 25 ->39 25 ->41 25 ->43 25 ->44 26 ->32 26 ->35 26 ->36 26 ->37 26 ->39 26 ->41 26 ->43 26 ->44 27 ->32 27 ->35 27 ->38 27 ->39 27 ->39 27 ->43 27 ->43 27 ->44 28 ->31 28 ->35 28 ->41 28 ->43 28 ->44 29 ->34 29 ->35 29 ->36 29 ->37 29 ->39 29 ->41 29 ->43 29 ->44 30 ->31 30 ->32 30 ->33 30 ->35 30 ->37 30 ->38 30 ->39 30 ->41 30 ->44 31 ->45 31 ->48 32 ->45 32 ->48 32 ->50 33 ->45 33 ->50 34 ->45 34 ->46 34 ->48 34 ->50 35 ->45 35 ->46 35 ->47 35 ->49 36 ->45 36 ->47 37 ->45 37 ->47 37 ->48 37 ->49 37 ->50 38 ->45 38 ->49 38 ->50 39 ->45 39 ->48 39 ->49 39 ->50 40 ->45 40 ->46 40 ->48 40 ->49 40 ->50 41 ->45 41 ->46 41 ->48 41 ->49 41 ->50 42 ->45 42 ->46 42 ->48 42 ->49 42 ->50 43 ->45 43 ->47 43 ->48 43 ->49 43 ->50 44 ->45 44 ->46 44 ->48 45 ->51 45 ->52 45 ->53 45 ->54 45 ->55 45 ->56 45 ->57 45 ->58 45 ->59 46 ->51 46 ->52 46 ->56 46 ->57 46 ->58 46 ->59 47 ->52 47 ->54 47 ->55 47 ->56 47 ->57 47 ->59 48 ->55 48 ->56 48 ->57 48 ->59 49 ->51 49 ->52 49 ->53 49 ->54 49 ->55 49 ->56 49 ->57 49 ->59 50 ->51 50 ->52 50 ->53 50 ->54 50 ->55 50 ->56 50 ->57 50 ->58 50 ->59 50 ->60 51 ->61 51 ->62 51 ->64 51 ->65 52 ->61 52 ->62 52 ->63 52 ->65 52 ->66 53 ->61 53 ->62 53 ->63 53 ->65 54 ->61 54 ->62 54 ->63 54 ->64 55 ->61 55 ->62 55 ->63 55 ->64 56 ->61 56 ->62 56 ->63 56 ->64 56 ->65 57 ->61 57 ->62 57 ->63 57 ->64 57 ->65 58 ->61 58 ->62 58 ->63 58 ->64 59 ->61 59 ->62 59 ->63 60 ->61 60 ->63 60 ->65 61 ->67 61 ->68 61 ->69 61 ->70 62 ->67 62 ->68 62 ->69 62 ->70 62 ->71 63 ->67 63 ->68 63 ->69 63 ->70 64 ->67 64 ->68 64 ->69 64 ->70 65 ->67 65 ->69 65 ->70 65 ->71 66 ->67 66 ->69 66 ->71 67 ->73 67 ->74 67 ->75 67 ->77 67 ->78 68 ->72 68 ->74 68 ->75 68 ->77 68 ->78 69 ->72 69 ->75 69 ->77 70 ->72 70 ->73 70 ->74 70 ->75 70 ->76 70 ->77 71 ->72 71 ->74 71 ->74 72 ->79 72 ->80 72 ->84 72 ->85 72 ->86 72 ->88 73 ->79 73 ->80 73 ->84 73 ->88 74 ->80 74 ->82 74 ->83 74 ->84 74 ->85 74 ->87 74 ->88 74 ->89 75 ->79 75 ->81 75 ->82 75 ->83 75 ->84 75 ->85 75 ->88 75 ->89 76 ->79 76 ->80 76 ->84 76 ->85 76 ->89 77 ->79 77 ->80 77 ->83 77 ->84 77 ->85 77 ->88 77 ->89 78 ->79 78 ->81 78 ->84 78 ->85 78 ->85 78 ->88 79 ->90 79 ->91 79 ->92 79 ->93 79 ->94 79 ->96 80 ->90 80 ->91 80 ->92 80 ->93 80 ->96 80 ->99 81 ->90 81 ->91 81 ->92 81 ->93 81 ->95 81 ->97 81 ->98 81 ->99 82 ->91 82 ->91 82 ->92 82 ->93 82 ->94 82 ->95 82 ->96 82 ->98 82 ->99 83 ->90 83 ->92 83 ->93 83 ->94 83 ->97 83 ->98 83 ->99 84 ->90 84 ->91 84 ->92 84 ->94 84 ->96 84 ->99 85 ->91 85 ->92 85 ->93 85 ->95 85 ->96 86 ->90 86 ->91 86 ->92 86 ->93 86 ->94 86 ->96 86 ->97 86 ->98 87 ->90 87 ->91 87 ->93 87 ->94 87 ->98 88 ->90 88 ->91 88 ->92 88 ->93 88 ->94 88 ->97 88 ->98 88 ->99 89 ->90 89 ->91 89 ->92 89 ->93 89 ->98 
}
