digraph G {
0 ->7 0 ->9 0 ->9 0 ->11 0 ->12 0 ->14 0 ->15 1 ->7 1 ->12 1 ->13 1 ->14 1 ->15 1 ->16 2 ->7 2 ->8 2 ->9 2 ->10 2 ->14 2 ->15 3 ->7 3 ->9 3 ->12 3 ->13 3 ->14 3 ->15 3 ->16 4 ->7 4 ->10 4 ->12 4 ->13 4 ->14 4 ->15 4 ->16 5 ->7 5 ->8 5 ->10 5 ->11 5 ->12 5 ->14 5 ->15 6 ->7 6 ->8 6 ->9 6 ->12 6 ->13 6 ->14 6 ->15 7 ->18 7 ->23 7 ->24 8 ->20 8 ->23 9 ->18 9 ->20 9 ->22 9 ->23 10 ->18 10 ->20 10 ->22 10 ->23 10 ->24 11 ->18 11 ->20 11 ->22 11 ->23 11 ->24 12 ->17 12 ->18 12 ->20 12 ->21 12 ->23 13 ->17 13 ->18 13 ->19 13 ->20 13 ->22 13 ->23 14 ->19 14 ->20 14 ->22 14 ->23 14 ->24 15 ->18 15 ->20 15 ->23 15 ->24 16 ->17 16 ->18 16 ->19 16 ->23 16 ->24 17 ->27 17 ->27 17 ->29 17 ->30 17 ->31 17 ->32 18 ->27 18 ->28 19 ->26 19 ->27 19 ->28 19 ->32 20 ->25 20 ->29 20 ->32 21 ->27 21 ->32 22 ->26 22 ->27 22 ->31 22 ->32 23 ->25 23 ->27 23 ->28 23 ->32 24 ->25 24 ->27 24 ->28 24 ->29 25 ->33 25 ->34 25 ->35 25 ->37 26 ->33 26 ->36 26 ->37 27 ->33 27 ->34 27 ->35 27 ->37 27 ->38 28 ->33 28 ->34 28 ->37 28 ->37 29 ->34 29 ->34 29 ->35 30 ->34 30 ->35 30 ->35 30 ->37 31 ->33 31 ->34 31 ->35 31 ->37 32 ->33 32 ->34 32 ->35 32 ->37 33 ->39 33 ->40 33 ->41 33 ->42 34 ->39 34 ->40 34 ->42 34 ->42 34 ->43 35 ->39 35 ->40 35 ->41 36 ->39 36 ->40 36 ->41 36 ->42 37 ->39 37 ->40 37 ->42 38 ->39 38 ->40 38 ->42 39 ->44 39 ->45 39 ->47 39 ->49 39 ->50 39 ->51 39 ->52 39 ->53 39 ->56 40 ->44 40 ->46 40 ->47 40 ->48 40 ->50 40 ->51 40 ->52 40 ->53 40 ->55 41 ->44 41 ->46 41 ->49 41 ->50 41 ->52 41 ->53 41 ->54 41 ->55 41 ->56 42 ->44 42 ->45 42 ->46 42 ->47 42 ->50 42 ->52 42 ->54 42 ->56 43 ->44 43 ->46 43 ->47 43 ->49 43 ->50 43 ->56 44 ->57 44 ->59 44 ->60 44 ->61 44 ->62 44 ->66 44 ->67 44 ->68 45 ->57 45 ->59 45 ->60 45 ->61 45 ->65 45 ->66 45 ->68 46 ->57 46 ->59 46 ->60 46 ->61 46 ->62 46 ->65 46 ->66 46 ->68 47 ->57 47 ->59 47 ->60 47 ->61 47 ->63 47 ->64 47 ->66 48 ->57 48 ->59 48 ->60 48 ->61 48 ->64 48 ->65 48 ->66 48 ->68 49 ->57 49 ->58 49 ->59 49 ->60 49 ->61 49 ->64 49 ->65 49 ->66 49 ->68 50 ->57 50 ->59 50 ->60 50 ->61 50 ->61 50 ->62 50 ->64 50 ->65 50 ->66 50 ->68 51 ->57 51 ->59 51 ->61 51 ->62 51 ->63 51 ->65 51 ->66 51 ->68 52 ->57 52 ->59 52 ->60 52 ->62 52 ->63 52 ->64 52 ->65 52 ->66 52 ->68 53 ->57 53 ->59 53 ->61 53 ->63 53 ->64 53 ->65 53 ->65 53 ->66 53 ->68 54 ->57 54 ->59 54 ->60 54 ->61 54 ->62 54 ->63 54 ->65 54 ->66 54 ->67 55 ->57 55 ->59 55 ->60 55 ->61 55 ->62 55 ->63 55 ->64 55 ->65 55 ->66 55 ->67 55 ->68 56 ->57 56 ->59 56 ->60 56 ->61 56 ->62 56 ->64 56 ->65 56 ->65 56 ->66 57 ->69 57 ->70 57 ->72 57 ->73 57 ->74 57 ->74 57 ->75 57 ->76 58 ->69 58 ->70 58 ->73 58 ->74 59 ->69 59 ->72 59 ->73 59 ->74 59 ->75 60 ->70 60 ->72 60 ->74 60 ->75 60 ->76 61 ->70 61 ->72 61 ->73 61 ->74 61 ->76 62 ->70 62 ->72 62 ->73 62 ->74 63 ->70 63 ->72 63 ->73 63 ->74 64 ->69 64 ->70 64 ->72 64 ->73 64 ->75 64 ->76 65 ->69 65 ->70 65 ->72 65 ->73 65 ->74 66 ->69 66 ->70 66 ->72 66 ->73 66 ->74 67 ->70 67 ->70 67 ->71 67 ->72 67 ->73 67 ->74 67 ->76 68 ->69 68 ->70 68 ->72 68 ->72 68 ->73 68 ->74 68 ->76 69 ->81 69 ->82 69 ->83 70 ->80 70 ->81 70 ->83 71 ->77 71 ->79 71 ->80 71 ->81 71 ->84 72 ->77 72 ->79 72 ->81 72 ->82 73 ->77 73 ->79 73 ->80 73 ->83 74 ->77 74 ->78 74 ->79 74 ->81 74 ->83 74 ->84 75 ->81 75 ->82 75 ->83 76 ->81 76 ->82 76 ->83 77 ->85 77 ->86 77 ->91 77 ->92 78 ->87 78 ->90 78 ->91 78 ->92 78 ->93 79 ->85 79 ->87 79 ->89 79 ->91 79 ->92 79 ->94 80 ->85 80 ->86 80 ->87 80 ->90 80 ->92 80 ->93 81 ->85 81 ->87 81 ->90 81 ->90 81 ->91 81 ->94 82 ->85 82 ->87 82 ->88 82 ->89 82 ->90 82 ->91 83 ->85 83 ->86 83 ->87 83 ->89 83 ->90 83 ->91 84 ->86 84 ->87 84 ->89 84 ->89 84 ->90 84 ->92 84 ->93 84 ->94 85 ->95 85 ->96 85 ->97 85 ->99 86 ->95 86 ->96 86 ->97 87 ->95 87 ->96 88 ->95 88 ->96 89 ->95 89 ->96 89 ->97 89 ->99 90 ->96 90 ->97 90 ->99 91 ->95 92 ->96 92 ->98 92 ->99 93 ->96 93 ->97 93 ->99 94 ->96 94 ->97 94 ->98 94 ->99 
}
