digraph G {
0 ->13 0 ->18 0 ->20 0 ->22 0 ->23 1 ->12 1 ->15 1 ->16 1 ->17 1 ->18 1 ->19 1 ->21 1 ->22 1 ->23 2 ->14 2 ->17 2 ->19 2 ->21 2 ->22 2 ->23 3 ->14 3 ->16 3 ->17 3 ->19 3 ->21 3 ->22 3 ->23 4 ->12 4 ->14 4 ->15 4 ->16 4 ->17 4 ->19 4 ->21 4 ->22 4 ->23 5 ->14 5 ->17 5 ->18 5 ->20 5 ->22 5 ->23 6 ->11 6 ->12 6 ->14 6 ->19 6 ->20 6 ->22 6 ->23 7 ->14 7 ->16 7 ->20 7 ->22 7 ->23 8 ->12 8 ->13 8 ->14 8 ->18 8 ->20 8 ->22 8 ->23 9 ->12 9 ->14 9 ->14 9 ->17 9 ->20 9 ->22 9 ->23 10 ->14 10 ->14 10 ->16 10 ->20 10 ->21 10 ->22 10 ->23 11 ->25 11 ->28 11 ->32 11 ->32 11 ->34 11 ->35 12 ->25 12 ->28 12 ->34 13 ->24 13 ->25 13 ->28 13 ->33 13 ->34 14 ->24 14 ->25 14 ->29 14 ->33 14 ->34 14 ->35 15 ->24 15 ->25 15 ->29 15 ->34 16 ->25 16 ->27 16 ->28 16 ->29 16 ->32 16 ->33 16 ->34 17 ->25 17 ->26 17 ->28 17 ->33 17 ->34 17 ->35 18 ->25 18 ->28 18 ->28 18 ->29 18 ->34 19 ->27 19 ->28 19 ->29 19 ->31 19 ->34 20 ->24 20 ->25 20 ->29 20 ->30 20 ->33 20 ->34 21 ->24 21 ->25 21 ->31 21 ->34 22 ->25 22 ->27 22 ->29 22 ->34 23 ->25 23 ->26 23 ->29 23 ->32 23 ->34 24 ->36 24 ->37 24 ->40 24 ->43 25 ->36 25 ->37 25 ->38 25 ->40 25 ->43 26 ->36 26 ->37 26 ->39 26 ->40 26 ->42 26 ->43 27 ->37 27 ->38 27 ->40 27 ->41 27 ->43 27 ->43 28 ->37 28 ->38 28 ->39 28 ->40 28 ->43 29 ->37 29 ->38 29 ->40 30 ->37 30 ->40 30 ->40 30 ->43 31 ->36 31 ->37 31 ->40 31 ->43 32 ->36 32 ->37 32 ->40 32 ->43 33 ->36 33 ->37 33 ->38 33 ->40 33 ->43 34 ->36 34 ->37 34 ->38 34 ->40 34 ->42 34 ->43 35 ->36 35 ->37 35 ->38 35 ->43 36 ->45 36 ->47 36 ->49 36 ->50 36 ->50 36 ->54 36 ->56 37 ->44 37 ->45 37 ->47 37 ->48 37 ->51 37 ->54 37 ->56 38 ->45 38 ->45 38 ->47 38 ->48 38 ->50 38 ->51 38 ->52 38 ->54 38 ->56 39 ->44 39 ->45 39 ->47 39 ->48 39 ->50 39 ->52 39 ->53 39 ->54 39 ->55 39 ->56 40 ->44 40 ->45 40 ->46 40 ->47 40 ->48 40 ->50 40 ->51 40 ->52 40 ->53 40 ->54 40 ->56 41 ->45 41 ->46 41 ->46 41 ->47 41 ->48 41 ->49 41 ->50 41 ->52 41 ->54 41 ->54 41 ->56 42 ->44 42 ->45 42 ->46 42 ->47 42 ->48 42 ->49 42 ->50 42 ->52 42 ->54 42 ->56 43 ->46 43 ->47 43 ->48 43 ->49 43 ->50 43 ->51 43 ->56 44 ->57 44 ->59 44 ->62 44 ->62 44 ->64 44 ->65 44 ->69 44 ->70 45 ->57 45 ->58 45 ->61 45 ->62 45 ->63 45 ->64 45 ->66 45 ->69 45 ->70 46 ->57 46 ->59 46 ->60 46 ->62 46 ->63 46 ->64 46 ->65 46 ->66 46 ->68 46 ->69 46 ->70 47 ->57 47 ->58 47 ->59 47 ->62 47 ->64 47 ->64 47 ->65 47 ->66 47 ->68 47 ->69 48 ->57 48 ->59 48 ->61 48 ->62 48 ->65 48 ->66 48 ->69 48 ->70 49 ->57 49 ->58 49 ->59 49 ->62 49 ->64 49 ->66 49 ->69 50 ->57 50 ->59 50 ->59 50 ->60 50 ->65 50 ->69 51 ->57 51 ->59 51 ->62 51 ->64 51 ->65 51 ->66 51 ->69 52 ->59 52 ->59 52 ->61 52 ->64 52 ->66 52 ->67 52 ->68 52 ->69 53 ->57 53 ->58 53 ->59 53 ->62 53 ->65 53 ->66 53 ->67 53 ->69 53 ->70 54 ->57 54 ->59 54 ->64 54 ->66 54 ->67 54 ->68 54 ->69 54 ->70 55 ->57 55 ->61 55 ->62 55 ->64 55 ->66 55 ->68 55 ->69 55 ->70 56 ->57 56 ->59 56 ->60 56 ->62 56 ->64 56 ->67 56 ->69 57 ->71 57 ->75 57 ->77 57 ->78 57 ->80 57 ->83 58 ->74 58 ->78 58 ->80 58 ->82 59 ->71 59 ->78 59 ->81 59 ->83 60 ->73 60 ->74 60 ->76 60 ->77 60 ->78 60 ->83 61 ->71 61 ->72 61 ->73 61 ->74 61 ->76 61 ->78 61 ->79 61 ->83 62 ->71 62 ->75 62 ->76 62 ->77 62 ->78 62 ->78 62 ->81 62 ->83 63 ->74 63 ->76 63 ->76 63 ->78 63 ->78 63 ->83 64 ->76 64 ->78 64 ->83 65 ->77 65 ->78 65 ->80 65 ->81 65 ->82 65 ->83 66 ->72 66 ->76 66 ->77 66 ->78 66 ->82 66 ->83 67 ->71 67 ->74 67 ->78 67 ->79 67 ->80 67 ->83 68 ->71 68 ->72 68 ->76 68 ->77 68 ->80 68 ->82 68 ->83 69 ->74 69 ->81 69 ->83 70 ->71 70 ->72 70 ->74 70 ->76 70 ->80 70 ->83 71 ->85 71 ->85 71 ->86 71 ->91 71 ->92 72 ->84 72 ->85 72 ->86 72 ->87 72 ->91 73 ->84 73 ->85 73 ->86 73 ->87 73 ->88 73 ->91 74 ->84 74 ->86 74 ->88 74 ->90 75 ->84 75 ->85 75 ->88 75 ->90 76 ->84 76 ->85 76 ->88 76 ->90 76 ->91 76 ->92 77 ->84 77 ->85 77 ->88 77 ->89 77 ->92 78 ->84 78 ->85 78 ->86 78 ->88 78 ->91 78 ->92 79 ->84 79 ->85 79 ->88 79 ->90 79 ->92 79 ->92 80 ->84 80 ->85 80 ->89 80 ->91 80 ->92 81 ->84 81 ->85 81 ->87 81 ->90 81 ->91 81 ->92 82 ->84 82 ->85 82 ->86 82 ->89 82 ->90 82 ->91 82 ->92 83 ->84 83 ->85 83 ->88 83 ->90 83 ->91 83 ->91 83 ->92 84 ->93 84 ->94 84 ->95 84 ->96 84 ->97 84 ->99 85 ->93 85 ->96 85 ->97 86 ->93 86 ->94 86 ->95 86 ->96 86 ->97 87 ->93 87 ->94 87 ->96 87 ->97 87 ->97 87 ->99 88 ->93 88 ->94 88 ->95 88 ->96 89 ->93 89 ->96 89 ->99 90 ->93 90 ->95 90 ->96 90 ->97 90 ->98 90 ->99 91 ->93 91 ->95 91 ->96 91 ->97 91 ->99 91 ->99 92 ->93 92 ->94 92 ->95 92 ->96 92 ->97 92 ->98 92 ->99 
}
