digraph G {
0 ->15 0 ->16 0 ->17 0 ->19 0 ->20 0 ->23 1 ->15 1 ->17 1 ->17 1 ->20 2 ->15 2 ->17 2 ->18 2 ->20 2 ->21 2 ->22 3 ->14 3 ->15 3 ->17 3 ->18 3 ->22 3 ->22 4 ->15 4 ->15 4 ->17 4 ->18 4 ->19 4 ->21 4 ->23 5 ->15 5 ->17 5 ->18 5 ->18 5 ->20 6 ->15 6 ->17 6 ->18 6 ->20 6 ->21 7 ->15 7 ->16 7 ->18 7 ->20 8 ->17 8 ->18 8 ->23 9 ->14 9 ->16 9 ->17 9 ->18 9 ->20 9 ->23 10 ->14 10 ->15 10 ->17 10 ->18 10 ->20 10 ->21 10 ->22 11 ->15 11 ->17 11 ->18 11 ->19 11 ->20 11 ->22 11 ->23 12 ->15 12 ->16 12 ->18 12 ->20 12 ->21 12 ->22 13 ->15 13 ->17 13 ->18 13 ->19 13 ->22 13 ->23 14 ->24 14 ->29 14 ->30 14 ->31 14 ->32 14 ->33 14 ->34 15 ->27 15 ->28 15 ->29 15 ->31 15 ->32 15 ->33 15 ->34 16 ->26 16 ->29 16 ->30 16 ->31 16 ->32 16 ->33 16 ->34 17 ->24 17 ->25 17 ->27 17 ->28 17 ->30 17 ->31 17 ->32 17 ->33 17 ->34 18 ->25 18 ->27 18 ->28 18 ->28 18 ->29 18 ->30 18 ->31 18 ->33 18 ->34 19 ->24 19 ->25 19 ->26 19 ->27 19 ->28 19 ->30 19 ->31 19 ->32 19 ->33 19 ->34 20 ->24 20 ->26 20 ->27 20 ->28 20 ->29 20 ->30 20 ->31 20 ->32 20 ->33 20 ->34 21 ->24 21 ->27 21 ->29 21 ->30 21 ->31 21 ->33 21 ->34 22 ->24 22 ->25 22 ->27 22 ->28 22 ->29 22 ->30 22 ->31 22 ->32 22 ->33 22 ->34 23 ->24 23 ->27 23 ->27 23 ->28 23 ->29 23 ->30 23 ->31 23 ->33 23 ->34 24 ->35 24 ->36 24 ->37 24 ->38 24 ->39 24 ->40 24 ->41 24 ->42 25 ->36 25 ->37 25 ->38 25 ->38 25 ->39 25 ->40 25 ->42 25 ->43 26 ->36 26 ->38 26 ->39 26 ->40 26 ->42 26 ->45 27 ->37 27 ->38 27 ->39 27 ->40 27 ->41 28 ->36 28 ->39 28 ->39 28 ->40 28 ->41 28 ->42 29 ->36 29 ->38 29 ->40 29 ->40 29 ->42 30 ->36 30 ->38 30 ->39 30 ->40 30 ->42 30 ->44 31 ->36 31 ->38 31 ->39 31 ->40 31 ->41 31 ->42 31 ->43 31 ->44 32 ->36 32 ->38 32 ->39 32 ->40 32 ->41 32 ->42 32 ->44 33 ->36 33 ->38 33 ->40 33 ->41 33 ->42 33 ->42 33 ->43 34 ->36 34 ->38 34 ->39 34 ->41 34 ->42 34 ->44 35 ->47 35 ->50 35 ->58 36 ->47 36 ->49 36 ->52 36 ->53 36 ->54 36 ->58 36 ->59 37 ->46 37 ->47 37 ->49 37 ->52 37 ->54 37 ->58 38 ->46 38 ->48 38 ->49 38 ->50 38 ->52 38 ->54 38 ->55 38 ->56 38 ->58 38 ->59 39 ->46 39 ->48 39 ->49 39 ->50 39 ->52 39 ->54 39 ->55 39 ->56 39 ->58 40 ->48 40 ->49 40 ->49 40 ->50 40 ->52 40 ->53 40 ->54 40 ->55 40 ->58 40 ->59 41 ->46 41 ->47 41 ->48 41 ->49 41 ->52 41 ->53 41 ->54 41 ->55 41 ->56 41 ->57 41 ->58 41 ->59 42 ->46 42 ->48 42 ->48 42 ->50 42 ->54 42 ->55 42 ->58 42 ->59 43 ->48 43 ->49 43 ->50 43 ->50 43 ->51 43 ->54 43 ->55 43 ->58 43 ->59 44 ->46 44 ->50 44 ->52 44 ->56 44 ->58 44 ->59 45 ->52 45 ->53 45 ->59 46 ->61 46 ->62 46 ->63 47 ->61 47 ->62 47 ->64 48 ->61 48 ->62 48 ->63 48 ->64 49 ->61 49 ->62 49 ->64 49 ->64 50 ->61 50 ->62 50 ->64 51 ->60 51 ->61 51 ->62 52 ->60 52 ->61 52 ->62 52 ->64 53 ->60 53 ->61 53 ->62 53 ->64 54 ->61 54 ->61 54 ->62 54 ->63 54 ->64 55 ->61 55 ->62 55 ->62 55 ->64 56 ->64 57 ->61 57 ->62 57 ->63 57 ->64 58 ->61 58 ->62 58 ->64 58 ->64 59 ->61 59 ->62 59 ->64 60 ->65 60 ->67 60 ->69 61 ->66 61 ->67 62 ->68 62 ->70 63 ->65 63 ->67 63 ->68 63 ->69 63 ->70 64 ->65 64 ->67 64 ->68 64 ->69 65 ->71 65 ->72 65 ->74 65 ->75 65 ->77 65 ->78 66 ->72 66 ->73 66 ->74 66 ->75 66 ->77 66 ->78 67 ->71 67 ->72 67 ->74 67 ->75 67 ->78 68 ->71 68 ->74 68 ->75 68 ->75 68 ->77 68 ->78 69 ->72 69 ->73 69 ->76 69 ->78 70 ->71 70 ->72 70 ->73 70 ->74 70 ->75 70 ->76 70 ->77 70 ->78 71 ->79 71 ->81 71 ->83 71 ->84 71 ->85 71 ->85 72 ->79 72 ->82 72 ->84 72 ->84 72 ->85 73 ->79 73 ->83 73 ->84 74 ->79 74 ->80 74 ->82 74 ->83 74 ->84 75 ->79 75 ->80 75 ->82 75 ->83 76 ->79 76 ->82 76 ->82 76 ->84 76 ->85 77 ->79 77 ->81 77 ->82 77 ->83 77 ->84 77 ->85 78 ->79 78 ->80 78 ->82 78 ->83 78 ->84 78 ->85 79 ->86 79 ->88 79 ->91 79 ->92 79 ->93 79 ->94 79 ->96 80 ->86 80 ->90 80 ->91 80 ->92 80 ->93 80 ->94 80 ->96 81 ->86 81 ->87 81 ->88 81 ->90 81 ->91 81 ->92 81 ->96 82 ->86 82 ->88 82 ->90 82 ->90 82 ->92 82 ->94 82 ->96 83 ->88 83 ->88 83 ->89 83 ->90 83 ->91 83 ->92 83 ->95 84 ->87 84 ->88 84 ->89 84 ->90 84 ->91 84 ->92 84 ->93 84 ->96 85 ->87 85 ->88 85 ->89 85 ->90 85 ->91 85 ->92 85 ->94 85 ->96 86 ->97 86 ->99 87 ->97 88 ->97 88 ->99 89 ->97 90 ->97 90 ->98 91 ->97 92 ->97 93 ->97 94 ->97 95 ->97 96 ->97 96 ->99 
}
