files/tasks_parameters/ExAp01/sample8.txt 4.94669 6.77015 2.19458 0.288816 9.09606
files/tasks_parameters/ExAp01/sample12.txt 5.90497 9.58351 2.46081 0.337498 10.6293
files/tasks_parameters/ExAp01/sample2.txt 5.76136 8.44418 2.50701 0.319127 10.0507
files/tasks_parameters/ExAp01/sample44.txt 5.06428 6.96299 2.23089 0.28229 8.89052
files/tasks_parameters/ExAp01/sample27.txt 4.93397 7.74306 2.16676 0.28602 9.00798
files/tasks_parameters/ExAp01/sample17.txt 5.28124 7.35053 2.25579 0.292348 9.20727
files/tasks_parameters/ExAp01/sample9.txt 5.11517 6.89392 2.21068 0.282399 8.89394
files/tasks_parameters/ExAp01/sample34.txt 5.10634 6.62788 2.3772 0.297742 9.37715
files/tasks_parameters/ExAp01/sample40.txt 5.07757 7.75686 2.17534 0.285619 8.99537
files/tasks_parameters/ExAp01/sample33.txt 5.66376 8.14826 2.6463 0.338073 10.6474
files/tasks_parameters/ExAp01/sample48.txt 4.58112 7.64107 2.14272 0.270011 8.5038
files/tasks_parameters/ExAp01/sample29.txt 3.69534 7.139 1.93769 0.286306 9.01698
files/tasks_parameters/ExAp01/sample11.txt 4.8166 6.88688 2.12981 0.280008 8.81866
files/tasks_parameters/ExAp01/sample14.txt 4.24547 6.11983 1.97599 0.247458 7.79349
files/tasks_parameters/ExAp01/sample0.txt 5.10913 8.2738 2.14256 0.289132 9.10599
files/tasks_parameters/ExAp01/sample7.txt 4.59137 6.87011 2.05821 0.269886 8.49984
files/tasks_parameters/ExAp01/sample23.txt 4.95703 6.52032 2.38087 0.291712 9.18724
files/tasks_parameters/ExAp01/sample13.txt 5.42808 8.73247 2.33415 0.295393 9.30317
files/tasks_parameters/ExAp01/sample22.txt 4.73105 6.9777 2.28948 0.283979 8.94371
files/tasks_parameters/ExAp01/sample25.txt 4.28931 6.23444 2.2122 0.267298 8.41834
files/tasks_parameters/ExAp01/sample36.txt 4.56327 6.6174 1.9458 0.253823 7.99396
files/tasks_parameters/ExAp01/sample46.txt 5.61025 7.42369 2.49128 0.327273 10.3072
files/tasks_parameters/ExAp01/sample31.txt 4.49304 7.22028 2.13584 0.25377 7.99229
files/tasks_parameters/ExAp01/sample37.txt 5.32082 8.90704 2.16981 0.295708 9.3131
files/tasks_parameters/ExAp01/sample16.txt 4.39793 8.18243 1.88294 0.24945 7.85623
files/tasks_parameters/ExAp01/sample10.txt 5.19941 6.96646 2.31217 0.285748 8.99942
files/tasks_parameters/ExAp01/sample39.txt 4.63636 6.4161 1.97266 0.251967 7.9355
files/tasks_parameters/ExAp01/sample19.txt 5.46677 8.16711 2.23199 0.308463 9.7148
files/tasks_parameters/ExAp01/sample20.txt 4.72085 7.28549 1.88944 0.25994 8.18661
files/tasks_parameters/ExAp01/sample43.txt 4.5684 6.86804 2.00142 0.25616 8.06757
files/tasks_parameters/ExAp01/sample32.txt 4.79247 8.15663 2.12995 0.281726 8.87276
files/tasks_parameters/ExAp01/sample45.txt 4.86 7.75184 2.10599 0.274935 8.65887
files/tasks_parameters/ExAp01/sample26.txt 4.9125 7.4944 1.88956 0.267248 8.41678
files/tasks_parameters/ExAp01/sample5.txt 5.05274 8.08362 2.09961 0.28454 8.96138
files/tasks_parameters/ExAp01/sample21.txt 4.69613 6.11814 2.17119 0.26143 8.23353
files/tasks_parameters/ExAp01/sample38.txt 4.76902 7.761 1.96293 0.263659 8.30374
files/tasks_parameters/ExAp01/sample1.txt 5.07904 7.83752 2.13261 0.289228 9.10902
files/tasks_parameters/ExAp01/sample15.txt 5.33406 7.37971 2.12057 0.285825 9.00186
files/tasks_parameters/ExAp01/sample24.txt 5.23012 8.28531 2.25272 0.296628 9.34209
files/tasks_parameters/ExAp01/sample3.txt 5.44999 7.33359 2.39135 0.305084 9.60841
files/tasks_parameters/ExAp01/sample6.txt 4.98817 7.09894 2.24425 0.281804 8.87521
files/tasks_parameters/ExAp01/sample30.txt 4.61891 8.17669 2.03701 0.299204 9.42322
files/tasks_parameters/ExAp01/sample42.txt 5.48456 7.70416 2.42413 0.29743 9.36733
files/tasks_parameters/ExAp01/sample4.txt 5.44033 7.41691 2.36261 0.307803 9.69402
files/tasks_parameters/ExAp01/sample28.txt 4.89901 7.0562 2.07657 0.266428 8.39095
files/tasks_parameters/ExAp01/sample18.txt 4.88356 7.60139 2.1377 0.268016 8.44096
files/tasks_parameters/ExAp01/sample35.txt 5.60196 9.66795 2.28028 0.32244 10.155
files/tasks_parameters/ExAp01/sample47.txt 4.58554 6.84842 2.12104 0.251655 7.92568
files/tasks_parameters/ExAp01/sample49.txt 4.4252 7.1497 2.11412 0.255889 8.05903
files/tasks_parameters/ExAp01/sample41.txt 4.57322 6.59911 2.07359 0.265885 8.37386
