0.32414929
Task0 63 3 7 
Task1 3 31 15 
Task2 15 15 63 
Task3 7 7 31 
Task4 63 63 31 
Task5 31 63 3 
Task6 31 7 7 
Task7 7 31 15 
Task8 31 3 15 
Task9 31 7 3 
Task10 1 3 31 
Task11 127 31 7 
Task12 7 1 31 
Task13 31 31 3 
Task14 3 31 3 
Task15 31 31 1 
Task16 15 15 63 
Task17 15 31 15 
Task18 31 15 31 
Task19 31 15 31 
Task20 3 3 15 
Task21 31 15 1 
Task22 15 7 7 
Task23 31 31 31 
Task24 1 31 7 
Task25 7 7 31 
Task26 31 31 15 
Task27 31 31 3 
Task28 31 63 63 
Task29 15 31 7 
Task30 31 31 15 
Task31 31 3 3 
Task32 31 15 31 
Task33 255 31 63 
Task34 63 7 7 
Task35 7 31 3 
Task36 7 31 63 
Task37 63 15 1 
Task38 3 31 7 
Task39 15 31 15 
Task40 15 31 1 
Task41 31 7 3 
Task42 3 15 15 
Task43 7 31 15 
Task44 31 3 7 
Task45 1 31 31 
Task46 255 255 255 
Task47 31 15 15 
Task48 63 15 7 
Task49 15 31 7 
Task50 31 1 7 
Task51 15 31 1 
Task52 31 31 31 
Task53 31 15 31 
Task54 15 15 63 
Task55 63 3 63 
Task56 63 15 7 
Task57 31 1 7 
Task58 15 31 63 
Task59 31 7 1 
Task60 31 63 31 
Task61 3 7 31 
Task62 31 7 15 
Task63 31 1 3 
Task64 63 15 15 
Task65 31 15 7 
Task66 31 63 1 
Task67 15 15 15 
Task68 15 3 31 
Task69 7 31 3 
Task70 31 63 7 
Task71 31 15 31 
Task72 63 255 31 
Task73 31 3 7 
Task74 63 1 31 
Task75 31 31 3 
Task76 7 15 31 
Task77 63 31 63 
Task78 31 31 7 
Task79 63 7 15 
Task80 31 15 1 
Task81 15 63 31 
Task82 15 31 15 
Task83 15 3 31 
Task84 3 1 31 
Task85 7 7 31 
Task86 1 31 15 
Task87 1 15 31 
Task88 127 255 63 
Task89 3 31 63 
Task90 7 7 31 
Task91 7 7 31 
Task92 3 31 15 
Task93 31 31 31 
Task94 31 31 31 
Task95 31 31 15 
Task96 31 1 15 
Task97 63 31 15 
Task98 1 7 31 
Task99 15 1 63 
