0.38864789000000005
Task0 63 1 15 
Task1 255 31 63 
Task2 31 3 3 
Task3 63 3 63 
Task4 15 3 63 
Task5 63 31 15 
Task6 63 3 15 
Task7 1 1 63 
Task8 3 63 31 
Task9 31 7 31 
Task10 63 31 15 
Task11 15 63 3 
Task12 1 31 1 
Task13 31 1 3 
Task14 31 7 31 
Task15 127 31 7 
Task16 1 31 63 
Task17 7 31 63 
Task18 127 15 31 
Task19 31 63 7 
Task20 63 63 1 
Task21 31 31 63 
Task22 31 15 7 
Task23 255 63 127 
Task24 63 1 15 
Task25 63 63 15 
Task26 1 63 1 
Task27 1 255 255 
Task28 31 1 15 
Task29 3 63 1 
Task30 63 127 15 
Task31 127 127 127 
Task32 3 7 63 
Task33 15 31 1 
Task34 15 31 63 
Task35 3 31 31 
Task36 1 31 31 
Task37 31 127 31 
Task38 31 7 63 
Task39 63 7 7 
Task40 15 1 127 
Task41 7 63 31 
Task42 31 15 31 
Task43 3 31 31 
Task44 31 63 63 
Task45 63 7 31 
Task46 7 63 7 
Task47 1 31 63 
Task48 3 7 63 
Task49 63 3 63 
Task50 127 31 255 
Task51 15 31 63 
Task52 31 3 63 
Task53 127 255 255 
Task54 15 63 31 
Task55 31 7 7 
Task56 63 7 7 
Task57 63 3 31 
Task58 1 31 15 
Task59 255 31 3 
Task60 3 63 15 
Task61 7 3 63 
Task62 63 3 15 
Task63 63 63 31 
Task64 31 31 127 
Task65 63 1 7 
Task66 63 7 31 
Task67 63 15 15 
Task68 3 7 31 
Task69 15 63 3 
Task70 31 63 7 
Task71 3 31 3 
Task72 7 31 31 
Task73 63 63 31 
Task74 63 7 63 
Task75 127 31 31 
Task76 1 7 63 
Task77 7 31 31 
Task78 127 63 63 
Task79 7 255 63 
Task80 3 7 31 
Task81 63 63 15 
Task82 63 1 3 
Task83 63 31 15 
Task84 63 31 127 
Task85 3 1 63 
Task86 127 127 127 
Task87 63 3 7 
Task88 63 127 31 
Task89 1 31 63 
Task90 7 1 31 
Task91 31 3 31 
Task92 31 3 1 
Task93 63 3 15 
Task94 15 31 31 
Task95 63 7 1 
Task96 1 63 15 
Task97 31 63 63 
Task98 31 15 31 
Task99 63 63 63 
