0.4230869499999999
Task0 63 31 31 
Task1 63 15 3 
Task2 7 63 3 
Task3 7 31 63 
Task4 3 63 63 
Task5 63 3 127 
Task6 63 31 63 
Task7 127 31 31 
Task8 31 7 63 
Task9 15 63 15 
Task10 15 3 63 
Task11 15 3 63 
Task12 3 63 15 
Task13 3 3 63 
Task14 1 7 63 
Task15 63 3 15 
Task16 7 1 63 
Task17 31 63 63 
Task18 127 31 63 
Task19 3 31 255 
Task20 15 31 63 
Task21 63 3 7 
Task22 255 15 127 
Task23 31 127 15 
Task24 31 15 63 
Task25 63 31 31 
Task26 7 63 7 
Task27 3 63 31 
Task28 31 7 31 
Task29 63 63 63 
Task30 7 7 63 
Task31 63 3 31 
Task32 31 7 3 
Task33 31 31 15 
Task34 15 7 63 
Task35 31 7 15 
Task36 15 31 63 
Task37 15 63 255 
Task38 31 63 63 
Task39 3 7 63 
Task40 31 1 63 
Task41 7 7 63 
Task42 31 31 63 
Task43 7 31 3 
Task44 255 255 255 
Task45 255 255 31 
Task46 7 31 31 
Task47 7 63 15 
Task48 31 63 7 
Task49 31 3 63 
Task50 63 31 63 
Task51 31 1 31 
Task52 63 15 7 
Task53 63 1 15 
Task54 1 31 31 
Task55 7 63 15 
Task56 3 7 63 
Task57 15 63 31 
Task58 63 127 31 
Task59 31 63 3 
Task60 7 63 63 
Task61 63 7 7 
Task62 255 127 63 
Task63 127 63 7 
Task64 31 63 7 
Task65 15 1 63 
Task66 7 7 127 
Task67 7 63 1 
Task68 63 63 255 
Task69 31 63 1 
Task70 63 7 3 
Task71 1 63 15 
Task72 31 3 63 
Task73 63 31 7 
Task74 31 63 31 
Task75 31 63 63 
Task76 15 31 63 
Task77 7 3 63 
Task78 3 63 3 
Task79 63 15 31 
Task80 31 63 31 
Task81 255 31 63 
Task82 31 255 63 
Task83 255 127 255 
Task84 127 255 63 
Task85 127 255 3 
Task86 127 7 255 
Task87 255 63 7 
Task88 63 7 15 
Task89 63 63 63 
Task90 63 63 31 
Task91 1 7 63 
Task92 15 63 3 
Task93 127 127 255 
Task94 31 1 63 
Task95 15 63 15 
Task96 7 7 63 
Task97 63 3 7 
Task98 15 127 15 
Task99 63 7 1 
