0.4037552
Task0 31 15 3 
Task1 15 15 255 
Task2 63 15 1 
Task3 15 63 3 
Task4 31 7 7 
Task5 1 15 31 
Task6 31 63 127 
Task7 1 7 63 
Task8 63 3 15 
Task9 63 7 7 
Task10 127 127 31 
Task11 31 63 3 
Task12 7 63 15 
Task13 7 31 7 
Task14 1 63 7 
Task15 255 63 255 
Task16 31 31 3 
Task17 1 7 63 
Task18 15 3 63 
Task19 255 255 15 
Task20 31 3 1 
Task21 7 255 15 
Task22 31 7 15 
Task23 63 3 31 
Task24 63 3 63 
Task25 63 31 31 
Task26 63 1 7 
Task27 127 255 31 
Task28 15 127 15 
Task29 255 63 15 
Task30 63 7 7 
Task31 63 63 31 
Task32 31 1 15 
Task33 7 63 1 
Task34 255 255 127 
Task35 15 15 63 
Task36 63 7 1 
Task37 63 63 63 
Task38 63 1 63 
Task39 3 3 31 
Task40 15 15 63 
Task41 7 15 63 
Task42 7 31 31 
Task43 15 7 63 
Task44 31 7 255 
Task45 31 127 63 
Task46 1 63 15 
Task47 63 15 31 
Task48 31 31 3 
Task49 15 7 31 
Task50 7 31 31 
Task51 63 7 1 
Task52 127 255 15 
Task53 7 31 3 
Task54 15 15 31 
Task55 15 31 3 
Task56 31 15 63 
Task57 7 15 31 
Task58 63 63 15 
Task59 31 7 15 
Task60 15 63 1 
Task61 3 63 63 
Task62 31 15 15 
Task63 15 31 31 
Task64 63 15 7 
Task65 7 15 63 
Task66 31 1 31 
Task67 7 63 63 
Task68 7 63 31 
Task69 31 31 1 
Task70 31 31 63 
Task71 7 63 3 
Task72 3 63 1 
Task73 15 7 31 
Task74 255 15 127 
Task75 15 31 63 
Task76 31 63 31 
Task77 63 31 255 
Task78 63 31 15 
Task79 31 63 15 
Task80 63 3 3 
Task81 63 255 63 
Task82 63 15 1 
Task83 63 31 3 
Task84 15 15 255 
Task85 7 63 63 
Task86 7 3 63 
Task87 31 1 7 
Task88 1 63 7 
Task89 31 7 31 
Task90 15 31 63 
Task91 31 31 15 
Task92 15 63 31 
Task93 3 63 7 
Task94 1 7 63 
Task95 15 7 63 
Task96 31 7 255 
Task97 63 3 31 
Task98 1 7 63 
Task99 31 15 7 
