Task0 1 1 1 
Task1 1 1 3 
Task2 3 3 1 
Task3 3 1 1 
Task4 1 3 3 
Task5 1 1 1 
Task6 1 1 1 
Task7 1 1 1 
Task8 1 1 3 
Task9 1 3 1 
Task10 1 1 1 
Task11 1 3 3 
Task12 3 1 3 
Task13 1 3 1 
Task14 1 1 1 
Task15 1 1 1 
Task16 3 1 3 
Task17 1 1 1 
Task18 3 1 3 
Task19 1 1 3 
Task20 1 7 7 
Task21 3 3 1 
Task22 1 1 1 
Task23 1 3 1 
Task24 1 1 3 
Task25 3 3 1 
Task26 1 1 3 
Task27 15 3 3 
Task28 1 1 3 
Task29 1 1 1 
Task30 1 3 3 
Task31 1 1 3 
Task32 1 1 1 
Task33 1 1 1 
Task34 1 1 1 
Task35 3 3 3 
Task36 1 3 3 
Task37 1 15 15 
Task38 1 1 1 
Task39 1 1 1 
Task40 1 1 1 
Task41 1 1 1 
Task42 3 1 3 
Task43 1 1 1 
Task44 3 1 3 
Task45 3 1 3 
Task46 1 3 7 
Task47 1 1 1 
Task48 1 1 1 
Task49 3 1 1 
Task50 1 1 3 
Task51 1 1 1 
Task52 1 1 1 
Task53 1 1 1 
Task54 1 1 1 
Task55 1 1 1 
Task56 1 1 1 
Task57 1 3 1 
Task58 3 1 3 
Task59 1 1 1 
Task60 1 1 1 
Task61 3 3 1 
Task62 3 1 3 
Task63 3 3 1 
Task64 1 1 1 
Task65 7 1 7 
Task66 1 1 1 
Task67 1 1 1 
Task68 1 1 1 
Task69 1 1 1 
Task70 1 1 1 
Task71 7 7 1 
Task72 1 1 1 
Task73 3 1 1 
Task74 1 1 1 
Task75 1 1 3 
Task76 1 1 1 
Task77 1 1 1 
Task78 1 1 1 
Task79 3 3 1 
Task80 3 3 1 
Task81 1 1 1 
Task82 1 1 1 
Task83 1 1 1 
Task84 1 1 3 
Task85 1 1 1 
Task86 1 1 1 
Task87 1 1 1 
Task88 1 1 1 
Task89 1 1 1 
Task90 1 1 1 
Task91 1 1 3 
Task92 3 1 3 
Task93 1 1 7 
Task94 1 1 3 
Task95 1 1 1 
Task96 1 1 1 
Task97 1 1 3 
Task98 1 1 1 
Task99 1 1 1 
