Task0 1 1 1 
Task1 1 1 1 
Task2 1 1 1 
Task3 1 1 3 
Task4 3 3 1 
Task5 1 1 1 
Task6 3 3 1 
Task7 1 1 1 
Task8 1 1 1 
Task9 3 1 1 
Task10 3 1 1 
Task11 1 1 1 
Task12 1 1 1 
Task13 1 1 1 
Task14 3 1 3 
Task15 1 1 1 
Task16 1 1 1 
Task17 1 1 1 
Task18 1 1 1 
Task19 1 1 1 
Task20 1 1 1 
Task21 1 1 1 
Task22 1 1 1 
Task23 1 1 3 
Task24 1 1 1 
Task25 1 1 1 
Task26 1 1 1 
Task27 1 15 7 
Task28 1 1 1 
Task29 1 1 1 
Task30 1 1 1 
Task31 3 3 1 
Task32 7 1 1 
Task33 1 1 1 
Task34 1 1 1 
Task35 1 3 1 
Task36 1 1 1 
Task37 1 1 1 
Task38 3 1 1 
Task39 1 1 1 
Task40 7 1 15 
Task41 1 1 1 
Task42 1 1 1 
Task43 3 1 3 
Task44 1 1 1 
Task45 1 1 1 
Task46 1 3 1 
Task47 1 1 1 
Task48 1 1 1 
Task49 3 1 1 
Task50 1 1 1 
Task51 1 1 1 
Task52 3 3 1 
Task53 1 1 1 
Task54 1 3 3 
Task55 3 3 3 
Task56 1 1 1 
Task57 3 3 1 
Task58 1 1 3 
Task59 1 1 1 
Task60 1 1 3 
Task61 1 1 1 
Task62 1 1 1 
Task63 3 1 1 
Task64 1 1 1 
Task65 3 1 7 
Task66 1 3 1 
Task67 1 3 1 
Task68 1 1 1 
Task69 1 1 3 
Task70 3 1 3 
Task71 1 1 1 
Task72 1 1 1 
Task73 1 1 3 
Task74 1 3 7 
Task75 1 1 1 
Task76 1 1 1 
Task77 1 1 1 
Task78 1 1 3 
Task79 1 1 1 
Task80 1 3 1 
Task81 3 1 1 
Task82 1 1 1 
Task83 1 1 1 
Task84 1 1 1 
Task85 1 1 1 
Task86 3 1 1 
Task87 1 1 1 
Task88 7 1 7 
Task89 1 1 1 
Task90 1 3 7 
Task91 1 3 1 
Task92 1 3 1 
Task93 1 3 1 
Task94 1 1 1 
Task95 1 1 1 
Task96 3 3 1 
Task97 3 1 1 
Task98 1 1 3 
Task99 1 3 3 
