Task0 0.029596131258434747 0.06031949565139532 0.08369190353420615 0.0808037030811619 0.4478302719042886 0.704489969948608 0.38627848468681236 
Task1 0.13118144379082003 0.17992903759804238 0.27980983565960205 0.17492086102783158 0.310524574250557 0.6297906883016364 0.3052488641440545 
Task2 0.05749768893679549 0.05693973688254415 0.12669835131569776 0.05912131399351169 0.34566016907867914 0.39153688150972304 0.8848171335029327 
Task3 0.016159047386444844 0.04764886834108068 0.25078736160993154 0.2076832707640818 0.46817265366348026 0.4165925971080738 0.421190235225751 
Task4 0.11150221406263573 0.5131166959355515 0.18504802560782185 0.06604120854431528 0.40854151654825044 0.5401516110720843 0.7616331955019374 
Task5 0.07302512964572375 0.12598477141976727 0.02843516116189252 0.15227777867468353 0.7063244731515712 0.8627147552770313 0.7933371099547564 
Task6 0.01772521875555306 0.09654886336950498 0.22419868773561197 0.07396531639498212 0.512991355731186 0.9158908199907403 0.4795624019451674 
Task7 0.10045408478204826 0.17561531504478187 0.10249286741118131 0.32513673424994716 0.6799953044346833 0.7820128094792451 0.6260824854584911 
Task8 0.14159844329114524 0.2918728478056241 0.254075474158847 0.2676809704424999 0.9750254120788464 0.8278565593879028 0.38725328332288866 
Task9 0.1310156341665482 0.28369314408240787 0.027194839682264896 0.24636551880363036 0.6602859679908867 0.5399282363589942 0.45019379717436203 
Task10 0.005598973580686378 0.10436480062389202 0.05693321191299946 0.04644578431609951 0.49127456153336735 0.6494309405998719 0.949058675638323 
Task11 0.01850887241390787 0.015106208399665299 0.09917921759347631 0.054578116191177126 0.6084594103587174 0.41338316408835385 0.9534177771560468 
Task12 0.015651661321974812 0.019625050539860085 0.025931459782798757 0.02683904346400124 0.5016144352688285 0.8155337558092248 0.43948229149726165 
Task13 0.003075613154421052 0.020910133472171848 0.0060485666155958824 0.04456913121516689 0.3837321847446687 0.649859921662051 0.4174464550495591 
Task14 0.137355757427938 0.010913088308149807 0.2682461810696447 0.34621580674416774 0.3398479953785738 0.6494636206141033 0.5991067171271118 
Task15 0.026504374615124882 0.10539438379080912 0.2538939794934092 0.0777781348478088 0.7947672962136052 0.5502740953538734 0.7317577818928507 
Task16 0.057267252923621906 0.057338125757472054 0.2609899054658965 0.3892988057085989 0.46198195552189003 0.6282250591369415 0.722801869269686 
Task17 0.044395295908723 0.10030556191073445 0.08709704157477115 0.09476741336547498 0.4316396658247642 0.656914163622315 0.6908505653063642 
Task18 0.012134457583087566 0.2644705257860085 0.13392384451120204 0.11414208759416114 0.6825965034250692 0.8546568433647626 0.582291856562887 
Task19 0.06197541801763765 0.16369535153522138 0.4145222437964042 0.1855563809503497 0.7259612206487702 0.9911435004641802 0.3201036151809164 
Task20 0.0120439162985319 0.03485928226158268 0.04200271793759809 0.02806390258293561 0.494746011474817 0.4425415756905652 0.7434831451359653 
Task21 0.04792514505060528 0.17522122719115363 0.06913511879765995 0.19174188957319413 0.745090282233231 0.3654420929605108 0.7538088374514829 
Task22 0.01994684685034373 0.03832587576292734 0.010171392664334452 0.17409020936991004 0.8426327912711269 0.7053772302395231 0.5328139045621505 
Task23 0.03262538070302349 0.15366386085771155 0.2858350312941114 0.19802299488959502 0.790480886097767 0.3883668626357035 0.5890385461913344 
Task24 0.004325417059035613 0.0768223393835201 0.032290129085984484 0.06375633823667691 0.5205141126246255 0.9766961406271246 0.7637421353564328 
Task25 0.03976343193910874 0.13411933153111705 0.05282396813806092 0.08142826704420801 0.32613709956027864 0.8643213850248972 0.6247973905092845 
Task26 0.03360238758258345 0.23910221653611125 0.19179530336303952 0.07750418023409933 0.8786491810928765 0.8861865455377114 0.5965864863520012 
Task27 0.055219774115371906 0.17185968170656302 0.09287050251972903 0.16506592413715818 0.7918735089492371 0.34899214419373015 0.7927114646487061 
Task28 0.03303938285279475 0.12325124717591439 0.016932279962314098 0.10167309546218431 0.684424958704362 0.752284586960239 0.42378771953170474 
Task29 0.0487713561376581 0.06047400596483587 0.3435466776482459 0.46978680099558145 0.5640598148916796 0.8307910736868802 0.9460699929271004 
Task30 0.005891763225375056 0.05686955380142356 0.053286149071237444 0.03619566135077578 0.7511359771795204 0.6513933606519058 0.8234901506715884 
Task31 0.07566423855578779 0.18600572560947326 0.017381718247321893 0.14555257611816938 0.7645950316883412 0.49438448284214853 0.49530256297173003 
Task32 0.001003332286802545 0.0010397116869389166 0.002685493286326268 0.0015648562878011127 0.6223848610972016 0.34924219690471314 0.7930394237593255 
Task33 0.0449564395538749 0.2097543970020421 0.07444524176848472 0.21268915819150588 0.793366518791365 0.7910342437584315 0.34333649296001534 
Task34 0.028886498061479873 0.3475189928325416 0.2263242778866641 0.10797148476767658 0.7705070903318388 0.7690575055994444 0.4291860997588691 
Task35 0.03897472463168703 0.050620177792784604 0.0980488275327774 0.073801934101234 0.8983734457578858 0.6738255347720407 0.66880630960238 
Task36 0.006585323064386315 0.0036154707877338217 0.0023740064813422787 0.053776466132642815 0.591529231029823 0.927075745808086 0.9327084889251713 
Task37 0.05653789109795723 0.1323508247053588 0.13682374106528353 0.01534254200378886 0.6591861102415648 0.5845918185624298 0.6966699764928618 
Task38 0.006319895345627829 0.028862365967548525 0.08791420316906486 0.0005874428653743907 0.9508112131344388 0.8743429479861315 0.8494419575674248 
Task39 0.11712762782210018 0.14856601471235859 0.4392160709828368 0.07633984937875679 0.9156107257745802 0.3084439807523245 0.9011608602296772 
Task40 0.026912974511061994 0.17695393710945737 0.3605818368411351 0.00022382472681183922 0.7178258801779474 0.914355165467378 0.7929201568500139 
Task41 0.051042161508835754 0.11009665267167335 0.19727024008671076 0.022782229804050137 0.32899929316238813 0.8359057902373273 0.5620421210947828 
Task42 0.016411237028264417 0.11606590691839981 0.043542107096071966 0.07303694451232436 0.6202253020691348 0.49617539054160253 0.7324591396213697 
Task43 0.03040356594144915 0.11019505904956785 0.027650037541810644 0.14301083627475009 0.853482956445544 0.41481169954284713 0.7358034356733221 
Task44 0.028147316126099855 0.041212758540532815 0.045648537697149966 0.04768106392612975 0.6910596816971357 0.44730573837151133 0.5310146100517699 
Task45 0.09523252767922635 0.1877030876150014 0.37657320315093246 0.17636521296631677 0.5411007502671538 0.8150927416665281 0.9283159637824907 
Task46 2.832346416097118e-06 1.536026711011188e-05 1.1419677266075587e-05 5.744369995293124e-06 0.7486610318026937 0.36954988661428434 0.7751686289844479 
Task47 0.03209072764344897 0.11367160687434255 0.09898378319500094 0.01176852993302886 0.5236430369950198 0.45589618080886013 0.7449649876527175 
Task48 0.003967201913092684 0.0029293901535643978 0.007945376710618028 0.016333090907714683 0.479358640612242 0.5523858806758364 0.8752371559179901 
Task49 0.002472429371767403 0.055733097938718286 0.028613525871897767 0.024615090986291804 0.4249213846865184 0.6699124189884708 0.5510175744709263 
Task50 0.04096063471049281 0.07795188360523365 0.19120886058735082 0.09220088438722086 0.5616159302367567 0.7411954768235787 0.37763620448232216 
Task51 0.1559228318342452 0.32471378319795585 0.09598754551537085 0.3353470902920502 0.9368965405450944 0.34613370601255916 0.5370422754803459 
Task52 0.0013111024411929621 0.012576169178854086 0.017913144618749672 0.0028050002202300974 0.3370760195358587 0.5823063491375093 0.7033392895053026 
Task53 0.0709803537383191 0.07567795410044753 0.04154375289860358 0.2506243164018163 0.4239442734694804 0.3442153610092939 0.30033528376868834 
Task54 0.05410168511626869 0.4706375689123955 0.02284276565820064 0.02738513039566225 0.8224005860883117 0.46403671030886084 0.5795554919247695 
Task55 0.03467679146555864 0.04158664170016754 0.13299516362778965 0.03538229956836288 0.5654134699735227 0.37809292995649413 0.6607448025313303 
Task56 0.010216675756840612 0.017459772826734193 0.059115340308597955 0.15907366631842101 0.3173662008602247 0.5719791760041951 0.7646658246007514 
Task57 0.021962665307270056 0.1309086822629807 0.013593890045371013 0.14230606615668878 0.7488201103289573 0.3869500425332077 0.5948768880687043 
Task58 0.011516705486931919 0.07872682574750063 0.07290760381607485 0.046397383821759675 0.5465198340985371 0.6985714398835907 0.6847622419725736 
Task59 0.03124624510186793 0.05556348621792103 0.12233443722515414 0.1711068424791872 0.6311636325719869 0.6758272586427658 0.46041393485439935 
Task60 0.06807886956879262 0.017907414590830468 0.1432990380510416 0.26956604792252925 0.6552765973491671 0.742811847133405 0.6317697918490591 
Task61 0.0530975434269144 0.0639468729892842 0.2627218180318795 0.07189673238096042 0.8368771396568091 0.7804324989367781 0.3754506812999429 
Task62 0.08063454851809766 0.2180084044950194 0.18252679213237127 0.20077826005561827 0.4588875368654018 0.9130420286292211 0.6983544780711282 
Task63 0.010506831869607793 0.03128577540891777 0.013423995449028232 0.0873183635236261 0.9449652017769312 0.6903718812140027 0.8372144775936681 
Task64 0.027730649139523098 0.12697427868351038 0.054188092996820925 0.21887027124105152 0.7581813232574197 0.6698051871405224 0.4963708386699437 
Task65 0.09420045704598104 0.23789202402255152 0.1800766741120073 0.1902100998092052 0.8781740948245613 0.9414577099920207 0.4954171746030853 
Task66 0.05863196734656838 0.10228142693251933 0.043532157366682374 0.4072050466933676 0.455446220561123 0.3795072457440222 0.5687320547596004 
Task67 0.01046358263074305 0.11139756478382781 0.14890028604392366 0.12528995965910983 0.939867123352309 0.5875201846036682 0.5973872316518078 
Task68 0.003796066225807041 0.21034170791996804 0.2201965288988151 0.23783582347325677 0.8724456852705202 0.5250494504458687 0.4023525839088628 
Task69 0.11544154991685289 0.281092158794615 0.26419127990369057 0.04757931244329811 0.442252175692368 0.3931648219189775 0.6710203519561464 
Task70 0.024983035410276105 0.12657469452174955 0.052292936457165 0.012738240032429765 0.7479615419078054 0.5192071588935265 0.5725061377481979 
Task71 0.032500846531596794 0.09688125161234346 0.20444791013019972 0.13381463841854918 0.9585689901971657 0.8399750997841424 0.3473310650288899 
Task72 0.03598226192136841 0.15812451368806602 0.12024863395981751 0.19270908630715777 0.5383957445244043 0.3050016071973431 0.9557315939469304 
Task73 0.029864702734833607 0.05291038604224354 0.08565847982209301 0.1936880772665347 0.7367395141589083 0.7709678379124949 0.4313369999494775 
Task74 0.0045414846970432176 0.002643447460916315 0.0019234470571091841 0.015016530460496858 0.463426484646568 0.6463471638022906 0.45694462449970275 
Task75 0.11011713408727294 0.21322940776317886 0.13732193243710092 0.30213738877265717 0.9963181301062531 0.6880441449436746 0.8502525477284506 
Task76 0.04098606967174346 0.15392541596536105 0.16084925022560645 0.05019295734255491 0.6325563119370112 0.39487520043273183 0.3323941333363718 
Task77 0.012374892008351481 0.027007337743518288 0.17816127223094172 0.3474802822676906 0.8580645287766386 0.7559447862116038 0.3224693083529452 
Task78 0.029189909946730385 0.13137037422075998 0.018553022174687107 0.0859499625361011 0.882102412321282 0.9631843215540037 0.6047448888630004 
Task79 0.03532434382563629 0.19640922875571531 0.14740784557586767 0.19376682366500841 0.5569993562508523 0.7059956903685078 0.6763686930814902 
Task80 0.010357173441501864 0.03921991581363348 0.1772102005336794 0.32002605934674405 0.5614698778308295 0.36847376306169743 0.5441458991515867 
Task81 0.079241673125408 0.2914424762742856 0.09936898831910215 0.4696913816597401 0.8655902798232806 0.5925088222843108 0.34612573035259353 
Task82 0.0011677407241372539 0.15376179146686622 0.32141970099498884 0.1311987443451902 0.4045966993681552 0.356911949890704 0.9186248766483958 
Task83 0.03269220755872995 0.2135476340522961 0.20608822390931358 0.12098810713854699 0.4433360488224255 0.5060705268549082 0.7700767844784793 
Task84 0.012951285704998408 0.34345469294473374 0.509960913684493 0.030692862363504873 0.9479026141309239 0.8455134918204938 0.4379763254761606 
Task85 0.0002856300521548882 0.05763600646276497 0.08589706655120004 0.08896824434969863 0.8422259188621386 0.7334091406707441 0.30130381031691217 
Task86 0.008914845005955092 0.009937777074027848 0.18883083162128916 0.09513068173070302 0.621097870085332 0.4020167490214214 0.7035952939864853 
Task87 0.018048066422083703 0.18246372165329597 0.18352839446135702 0.032632844100552054 0.5015434654787343 0.3814571139703846 0.46742147577000626 
Task88 0.0593871916918994 0.1954532586246568 0.2392649560878197 0.012282559800849257 0.6886384350166825 0.47668415259400754 0.7595737534489317 
Task89 0.01441082810812101 0.14894871808089788 0.023451941358171326 0.053928658486638525 0.6481088721022363 0.6589610625909995 0.8906009640324353 
Task90 0.001673444352953222 0.0012758145274620683 0.004624616905904976 0.003396554880344099 0.44119544048281606 0.48364531518223064 0.9622816260334646 
Task91 0.007353633825202935 0.018482504517776204 0.018034788028451185 0.021085417456802796 0.4107009503531187 0.6894587637763199 0.49426542261733475 
Task92 0.02010396040920327 0.021662338767283768 0.05639537403462577 0.006527158318029871 0.9948126616930095 0.6450783810039755 0.3424256154243463 
Task93 0.1410591138215137 0.37259911860345146 0.2811878472483163 0.09970225514492335 0.346663208193658 0.3293430186182125 0.7478226586428331 
Task94 0.008589100535661668 0.011217442341935476 0.0177720775340203 0.007443035036236632 0.6824039695547616 0.9327837679903628 0.6776111630598427 
Task95 0.032081804679185096 0.026501184683048636 0.08649134185080952 0.09524922093830863 0.3944810606013262 0.9331649085013176 0.5918646850873421 
Task96 0.042259537335652256 0.08977299100014077 0.011270410601870458 0.10200018419582874 0.5534466526340863 0.6725831246333227 0.6456963439722927 
Task97 0.06536947508968823 0.07564031527409136 0.1051969162878722 0.09109546964923074 0.9614819626037541 0.4249075830531371 0.9267357660449391 
Task98 0.16628455700053052 0.4000117559382572 0.13558082089113435 0.21030240498823144 0.859634287512886 0.4491722225621611 0.6521882436565009 
Task99 0.005721352719338892 0.25039063725403427 0.13520887788622485 0.13519834792495922 0.5350755542623862 0.3262712066497459 0.9747463459252119 
