Task0 0.013908452971876092 0.07000169020531444 0.20600012439019313 0.2701461218506533 0.7561515839165114 0.5951167310691381 0.4392007941865161 
Task1 0.005228379074076616 0.4867037316504288 0.19253764658387965 0.006619640788913451 0.7056580273484213 0.856541661340825 0.4706606538554126 
Task2 0.019144662600106423 0.055701553984988536 0.03553152931125222 0.0943877594069657 0.8053599549422452 0.810645285185283 0.4316303460004628 
Task3 0.026657321215481988 0.23067371025295294 0.19720102549389343 0.5384644019388717 0.7018806973906235 0.805559768065198 0.9513871684127908 
Task4 0.038344777690981914 0.03267298031727172 0.09276568036234856 0.04041564992188528 0.5111044858487219 0.8825787611709046 0.6045623293651304 
Task5 0.07648248006224719 0.19674147334176514 0.16758003931130747 0.2220615630859122 0.6577009006590144 0.6996139889866471 0.7403050515080513 
Task6 0.000754374328314963 0.5713430706162294 0.06938115601430707 0.12037556951469859 0.4833538162338564 0.398664778822446 0.5872659256199435 
Task7 0.0003334549429008772 0.01641272322635991 0.03198659672867325 0.020135354198523196 0.9161250251793642 0.6354692070378365 0.572463241316522 
Task8 0.1348379102017995 0.20926397521770038 0.5535364416606231 0.04316525786228775 0.5276125257690949 0.7119449114949308 0.602758602056844 
Task9 0.014278023129193379 0.03122437270391919 0.07614583709601906 0.01614665386681799 0.688557928220985 0.6548555836393739 0.8189974358993215 
Task10 0.113015703078178 0.19505390509930198 0.1122412417806708 0.24577372724955812 0.7563497046503846 0.43921421079944056 0.5227511798440052 
Task11 0.043005252045454474 0.052612784147279594 0.12391245290154221 0.05377528116029507 0.843731892495698 0.6660637959168672 0.8359106516710928 
Task12 0.043849984040548434 0.3594477196420426 0.30401883989876355 0.11212424744443804 0.5301356015685679 0.4407515733036783 0.9011144411099818 
Task13 0.010179003254942072 0.02420950398971708 0.04752014385935475 0.031274646669583704 0.55467685768378 0.5534888020387961 0.8446359348377126 
Task14 0.004357829952753942 0.12875645111582643 0.13316847359201944 0.2787125206743834 0.851247468538785 0.5653924022719723 0.4383313285065034 
Task15 0.010902703105001533 0.0586625142365447 0.04783476134810244 0.07195829710449643 0.600188789240057 0.3805157345475907 0.35561282979898534 
Task16 0.013632559925445648 0.13842046247144038 0.05032556165665083 0.03792322902524478 0.9506606673514817 0.5057752483360431 0.5773065276482849 
Task17 0.013747771549660054 0.3674257812667892 0.2606428311424003 0.22056087638517186 0.39949621157165277 0.9515606461582089 0.9184362213377477 
Task18 0.05936357689146769 0.416600277772405 0.13112001688813069 0.068322898361538 0.4786517706852029 0.9386132827229225 0.6746084574243432 
Task19 0.008202650462649737 0.0560429006488452 0.03422113192119107 0.03313333582816716 0.7000983073529465 0.6508629279694644 0.904879570978603 
Task20 0.012959032674378505 0.30430225634010016 0.07927368569778652 0.08208546774094169 0.4329022200280238 0.6003854329747844 0.7206800078044846 
Task21 0.0031440441936435902 0.24317819703497073 0.5455530750929823 0.050052651493234165 0.49796553483203476 0.4406019129122091 0.4530755501591591 
Task22 0.011103162539683836 0.014429136150024639 0.018643485016533602 0.015613596635472807 0.887096645352641 0.9014599042048181 0.9681332383645733 
Task23 0.08750440302081951 0.2043028092038944 0.1200034563018423 0.372684397401192 0.6239677625957005 0.4244761355706551 0.8928585378567746 
Task24 0.02162693750350357 0.08724910372239401 0.01264310330772955 0.0461908839438909 0.39423249511875275 0.342748607148571 0.7661620609552758 
Task25 0.05979507990315662 0.331575073189862 0.03245872631841008 0.552059189165862 0.3566589379866887 0.7622725780374585 0.5642181766448844 
Task26 0.12376527469723798 0.21926969064194538 0.021196786098475542 0.2611994739240692 0.3847414908395828 0.806013906031932 0.6277164232572607 
Task27 0.0003192449989978858 0.30226219924458186 0.4803856450951667 0.11245843774595382 0.49208991693824566 0.5753649226152734 0.8885879031258879 
Task28 0.06988400654976479 0.4028131301988655 0.12011518433934185 0.07382253171904855 0.4365736210452419 0.9325636423360433 0.7907434094677253 
Task29 0.05133669873101869 0.17869776400294088 0.1334317356503635 0.10379257281796632 0.6145977766100159 0.41157365348288777 0.5863025193084819 
Task30 0.13433771766053035 0.18319783968347264 0.2671972112422938 0.3606766214233909 0.7197955275131039 0.7087892244213969 0.9491911010447218 
Task31 0.02888921219075265 0.026346878408455947 0.08846929151322133 0.0166249906349851 0.834890084771658 0.36609523666135524 0.9897505646201727 
Task32 0.014935164268612272 0.01703507727792911 0.19707395606830935 0.020489557193018013 0.7071147870326857 0.738839768175175 0.40604357920677114 
Task33 0.001414294081872452 0.2731187280400223 0.3442414338096978 0.14558128689852495 0.6057734526273943 0.3602085394857776 0.45980920712786955 
Task34 0.03412161198120487 0.20758355318280147 0.292050479971878 0.3988241432124246 0.5625242503116721 0.3061078382204291 0.4617919917184027 
Task35 0.0858857627884411 0.08998834376445779 0.1533246340108137 0.23169389804009718 0.866121601814096 0.7296987143184837 0.3164509505189124 
Task36 0.06287513863282927 0.15056565365791036 0.02316252836106121 0.07950997570077872 0.8987108259854513 0.5683430596669774 0.7194936601522539 
Task37 0.003076461701174792 0.19070009137662294 0.06936049192213087 0.053961632610184856 0.7526707232580472 0.8954909143634602 0.7034817759837264 
Task38 0.02827697210443333 0.11687331491430834 0.4476126030334646 0.0658722226434199 0.60534135722932 0.9244726823927045 0.5112410103314919 
Task39 0.10755901829396874 0.29739946398880546 0.1434299368366681 0.18570890364762915 0.32080306624604205 0.7665829522691949 0.4224503594229249 
Task40 0.0026290318299604007 0.009645951384906223 0.007873893470309201 0.008232162256455417 0.39050284359156295 0.830803316975296 0.964788432789679 
Task41 0.028189582912471662 0.2862672064093862 0.24163856175957593 0.35134129317995766 0.8702149689859391 0.32179083240937334 0.40916049454889525 
Task42 0.19187411310003394 0.192620482012698 0.4017122083387146 0.20063895338094537 0.5493451803299936 0.5778174013498816 0.746670748711047 
Task43 0.02355404993040664 0.05606436406055603 0.014907164836174408 0.05628405093791622 0.7079840337851968 0.6291221942511132 0.6774559389309445 
Task44 0.047514634014086066 0.01571932856064989 0.30701681810903036 0.479040902266712 0.6929492240500477 0.4418875152587568 0.32709794280427384 
Task45 0.00657730198032075 0.027542958073462638 0.00908171368640539 0.017355769274675602 0.7049405198066616 0.45835971382570484 0.8796661217849968 
Task46 0.0013107619387142193 0.0265855766400053 0.00244843501882647 0.011951846776103685 0.5221146947740511 0.6896019068046957 0.3322736371520965 
Task47 0.15994507796387022 0.17686909779615226 0.4672789540952742 0.10781089594667016 0.8160976043950376 0.8659988502833755 0.41046348604481997 
Task48 0.03809051711955796 0.09771924129891378 0.00315401809460785 0.08729196136089509 0.8682853443327385 0.8605980013159833 0.9727482335678665 
Task49 0.10075316721404506 0.2580435091967698 0.18977898183924735 0.07457510896036632 0.9699119423812164 0.6976945768866006 0.6326636503590148 
Task50 0.08420322059476322 0.07134335712838524 0.12202513810896061 0.15368636653950574 0.30663784723504395 0.7035491480531304 0.5553089886038156 
Task51 0.016401791257950823 0.11893473777690343 0.09262959064056069 0.12048922473429237 0.43618947190192486 0.9226527415999055 0.32823399486131727 
Task52 0.016150182275320973 0.004362170714786901 0.02715665884889858 0.03782042629957345 0.9133405548669837 0.3274775406142889 0.44854199316506826 
Task53 0.007160794608307973 0.04405032273306877 0.11261848907077289 0.10086638923355437 0.40559555246391954 0.5211947125201261 0.4211513518168489 
Task54 0.04387934738934285 0.2055147571592613 0.14668291812036074 0.25341685891657145 0.48194326988928426 0.8118164555409699 0.8046573703738289 
Task55 0.011170853107863222 0.020276711895784297 0.024636087430839792 0.02858152524186742 0.5296423048319266 0.6030932783436963 0.8140649726901577 
Task56 0.0840598814197839 0.40807809552159163 0.1606612590252405 0.006250983518472595 0.3133447963270982 0.729368277094514 0.7737578126362786 
Task57 0.014763871482584734 0.15720015129925957 0.18897109809879017 0.10257643508374557 0.63504788999374 0.7060866959149914 0.9515999636659382 
Task58 0.05872176794157097 0.11126207010158075 0.06977190904886697 0.2374043408801466 0.43128948463176964 0.8280705427029686 0.7983547725111959 
Task59 0.0017134615630755735 0.0271740826488485 0.0022250668430028515 0.038401151015934755 0.40655071560838546 0.43587707107761864 0.978604825316691 
Task60 0.04608164604048034 0.18249852866620048 0.1500867984053403 0.3433605399392088 0.685928068787877 0.6374271246468177 0.7938736926507989 
Task61 0.019018744994136652 0.05753746134120364 0.014825484872028602 0.01805531975590396 0.672537865770064 0.3131971198523112 0.8978841661353139 
Task62 0.04389281886723197 0.04358946146605752 0.20570606558637494 0.21374345227958863 0.8666689926915403 0.5977174482448335 0.8963501162381418 
Task63 0.0763571958403674 0.16526713325416623 0.21538308942289794 0.01969503447610379 0.5775526469423825 0.44790495680846326 0.5023344445575294 
Task64 0.03561781475361395 0.6560317647992248 0.03440214775398552 0.06658932860124735 0.9453598240564083 0.9475301889966514 0.6735994695844485 
Task65 0.139209941271738 0.2857244405146524 0.18230673429727726 0.14282508648480352 0.8861832090182127 0.5368515022221323 0.95196712474675 
Task66 0.004086922922556707 0.035760613691992994 0.16645475526672904 0.004302000358015618 0.6743065762340765 0.7536981277385465 0.5785736977987452 
Task67 0.0348774630446488 0.12213614244001476 0.2204430355413013 0.1268795867131365 0.6304225652450219 0.9797721337148404 0.5126862382377748 
Task68 0.029093426718411072 0.08144416957469021 0.39331894355104213 0.34508668938260245 0.5382522855234253 0.6623442234633435 0.5041624793119782 
Task69 0.09899023283034236 0.3816676902304579 0.35774878176866576 0.005702078546595413 0.6731560888177909 0.7304667043729569 0.9483807391342827 
Task70 0.016325033265992724 0.04782650140278774 0.011993933972772269 0.05610481172830746 0.5371908781433998 0.5196494144725715 0.7557682526802132 
Task71 0.059709813856691635 0.057715055326871545 0.11947457766725193 0.08242908957672533 0.7573134644070033 0.43815641591521404 0.8501930017443922 
Task72 0.010942879441556532 0.459074965519266 0.32358375079834595 0.053876714622805834 0.6035203599430619 0.39647858308478606 0.6987017001636757 
Task73 0.030518389966330713 0.2492998443020747 0.22427293703176981 0.10360515514180026 0.8253586129726083 0.894822796792325 0.6970792106981605 
Task74 0.007175228797924935 0.020510243366951175 0.06661485874528358 0.015636150077300633 0.44195829503916706 0.7223378328458423 0.8049025502130982 
Task75 0.16304342167890395 0.22524083047911275 0.11935079954808152 0.32047734348966983 0.8908750620878161 0.48382591357439786 0.49999421293273794 
Task76 0.09068187381566035 0.39859100282913407 0.08230011792659542 0.22501010750928693 0.561735847427199 0.7102686377090721 0.9167849769529217 
Task77 0.06880318092366357 0.21164705869776482 0.15564616258588093 0.27384815004285085 0.36963325433694455 0.9584699527885072 0.668047620982513 
Task78 0.01686293386493746 0.34663856373480484 0.3098381820947942 0.03643671628535336 0.35804745916529884 0.9913244447577976 0.6479826990315339 
Task79 0.1395495639218808 0.295487362694129 0.16631020430290852 0.32980123096481706 0.31031721831971 0.6833916751509004 0.5380413701753023 
Task80 0.017177147300650352 0.027387937071328354 0.025375432339568772 0.022459012719835927 0.47037124072930536 0.44203604188239976 0.9023563621421675 
Task81 0.011726332853260154 0.26725990169047803 0.15789604594403675 0.42606457458138786 0.38926798252043143 0.4130148821930373 0.669744098526706 
Task82 0.023628896098329993 0.07758409808878404 0.0026858189777221827 0.1866488811170837 0.8850306697281969 0.7670456482322427 0.3915693492850643 
Task83 0.02950277869245941 0.1707511587689891 0.3297017245281802 0.31653381295002714 0.8984869526044721 0.43147621703155387 0.9375462789289624 
Task84 0.03556606090783588 0.060828051799451166 0.0496685005620145 0.22622346161263956 0.6396819744598333 0.7704750407223031 0.5190520354427426 
Task85 0.028278062150401344 0.1599666476123942 0.15504891720626604 0.051507383426224046 0.7128311364297304 0.4528800859986631 0.7601852472733397 
Task86 0.004870496504741222 0.3294162559944261 0.2408309291382334 0.04321917691347925 0.6560958602844581 0.38297076376528905 0.46648550442510606 
Task87 5.96726958866251e-05 0.0007986256678865311 0.0005138977495350729 0.00042435973271366776 0.39408597539510715 0.40726705296810994 0.9649683827285491 
Task88 0.06766793481364057 0.15897289987444044 0.27391201425354517 0.33276127204905287 0.8456751492941905 0.7203678818514966 0.8338834507128845 
Task89 0.15279797124730324 0.12515112249576332 0.4698408767296286 0.1780185950535918 0.6465166105722058 0.8811847538292215 0.5842945696322017 
Task90 8.504364262962836e-05 0.038290841309126945 0.25436606450492977 0.18601890618778058 0.42876889952596675 0.9048401263923509 0.7741066865474449 
Task91 0.0007861798352055395 0.1623404621626554 0.13313984707781304 0.08438457556175838 0.9470085855334869 0.5668235284636526 0.5636499863490744 
Task92 0.10250316210990652 0.15910156747638857 0.11023239977755417 0.154965196983666 0.3027652129688466 0.7995836766111629 0.5095472266342578 
Task93 0.0025718156344628016 0.005429698295005147 0.005032527485525681 0.0014138760454225536 0.4235101424891348 0.5834719175249403 0.5836538129712879 
Task94 0.008627721504571969 0.046286413898123185 0.0753698665382497 0.0793915898904148 0.4563233056008972 0.6575425576718387 0.4374834402077068 
Task95 0.011507230423541475 0.3329376560395588 0.12997850889957083 0.4412762034653149 0.40507663084185264 0.7025556277948177 0.7339844402851241 
Task96 0.03303084010336084 0.04842427360296162 0.15617854721029048 0.030640631494112003 0.6427655323089757 0.5949362612853214 0.7395732447916401 
Task97 0.09419556512995059 0.08154404283656334 0.3020671181181714 0.2913968666985849 0.3592999706888757 0.9533743057758541 0.7546016271081066 
Task98 0.04836088767549107 0.31276254146090504 0.02960619068906686 0.2586565607093819 0.948673634698644 0.908180263316132 0.8117450125878602 
Task99 0.12683882042906022 0.31927990371277365 0.16092691140808504 0.03642606296102977 0.7766155119810666 0.8467649681579883 0.7766102254745842 
