Task0 0.10445827939287107 0.1165636766610232 0.28442428787066426 0.2740913286898989 0.3088483537332583 0.5719510026327621 0.4910634083189186 
Task1 0.03264235001667002 0.061652287394408575 0.10833741182745818 0.013733933466866837 0.7632649087016434 0.533360010228588 0.6785889880830943 
Task2 0.019658664828267437 0.03828514093008064 0.01753238684334337 0.02421899454333111 0.3930416835230901 0.802077841736377 0.6150642724067843 
Task3 0.052831155976261285 0.153335791186836 0.2915853002416797 0.1359166310620181 0.7716647046195289 0.7223063040724721 0.38482339824833917 
Task4 0.024538696931626785 0.192826413726235 0.10629367350619841 0.19161024637151894 0.7735720465595561 0.49256934299227495 0.4627052255806394 
Task5 0.04922465869118227 0.24232305142946411 0.32726905090311187 0.12215163784190156 0.6597064378734192 0.9830233601778962 0.9292671510747945 
Task6 0.054688559503365465 0.2947301786619969 0.07127361339083263 0.10944432165461042 0.7171014498696433 0.6366250415754413 0.8861122328118114 
Task7 0.039042827685786964 0.07101174013570861 0.04771929738411439 0.07673660611116097 0.8239473474327526 0.3790338590767601 0.41379596203924524 
Task8 0.02218166456227586 0.24267531377148346 0.30952022137970703 0.27487806088344907 0.903643661153126 0.7343232816518661 0.9563459905243428 
Task9 0.06788746155126915 0.0016242579444410007 0.21773733521507935 0.11134047816048921 0.6778553372135564 0.7775159345032477 0.7492289452071841 
Task10 0.022507775005275243 0.14163167432778814 0.0907946161054418 0.01111341619326378 0.8575991122884485 0.561195667186078 0.9633474267858231 
Task11 0.11269309860611865 0.08707554109781304 0.12358942379123164 0.40487507618125734 0.5678537366985104 0.7752612691854235 0.9915269012238335 
Task12 0.004972539698491801 0.07665381392552995 0.06294253730846594 0.09249771747294523 0.658152285703928 0.8378828178633353 0.8609655868056678 
Task13 0.06295537859284622 0.2669420873079488 0.2169148257870475 0.31533633293584656 0.34310332945386857 0.34855510609337836 0.3319060293903801 
Task14 0.00011740844414713836 0.005537032281901418 0.005964498112630878 0.004360864333030781 0.6898860159768581 0.4951562511184692 0.7104396437934928 
Task15 0.08182855668458486 0.05900283494104812 0.011485756914545661 0.28881914755998395 0.5328338510175439 0.7850715947078317 0.664004720148115 
Task16 0.005532744917511389 0.010151269478311686 0.024509632594520377 0.006387424907846268 0.4091560500967177 0.6075819566078507 0.6222898800071452 
Task17 0.07988832573690725 0.04661087607813766 0.2380848192471206 0.27481413057417026 0.6234651885759799 0.8170712629621171 0.544381656525136 
Task18 0.12215638587949816 0.1843055026867182 0.06852756290870013 0.2600240840064965 0.30032956384020093 0.6674634688191314 0.8165524209773856 
Task19 0.1390794877275516 0.3392933529936892 0.09763272228069748 0.18731086684382722 0.3800969363397376 0.5967033557948962 0.7959718506191329 
Task20 0.06363646822904516 0.3306033602163608 0.0032491576827045 0.4459811964194207 0.40248187076824016 0.5784584485594799 0.5529379700512116 
Task21 0.13217027858704725 0.5721375048563373 0.03958664903773929 0.03195188512343476 0.38718021267235736 0.8075102858525798 0.5465318161637693 
Task22 0.005795015106793474 0.03802620084708453 0.026104807920953276 0.044603337345837865 0.872221978827934 0.7140871417690728 0.7217332801498579 
Task23 0.011815606908528599 0.18294143846325972 0.4054089997851904 0.36223623951940986 0.3888683897153723 0.6787724855882551 0.6273450445156892 
Task24 0.006922837093824678 0.05189061752162441 0.043203076018714114 0.0031173818690275142 0.3084469215085411 0.5685399954340862 0.3392009759566466 
Task25 0.15316910982974224 0.27325076679878935 0.43235550826745456 0.026239997880332138 0.6792280378368819 0.3805136445207648 0.9966579042860195 
Task26 0.09086189666182713 0.3176560821574815 0.09129621199766792 0.12270418766053595 0.5188395674958979 0.30829015860561687 0.8047736533089638 
Task27 0.10267487146443495 0.196018810955072 0.4675150769145333 0.2269526026904713 0.3936886106482711 0.5444361626328728 0.3383198152712544 
Task28 0.08312932615419312 0.15606626019824005 0.05175861019883577 0.12977039480007413 0.7763371687274716 0.8173029878420419 0.380357305155882 
Task29 0.008039927575828085 0.05581117134289047 0.02010972646761448 0.09115287505638454 0.6844498265201322 0.8306522543838004 0.5083764787228063 
Task30 0.1225743855271883 0.3574095313148829 0.0027309561600108822 0.4796556059266286 0.6950568541299709 0.704439906291777 0.9472953234130161 
Task31 0.021300998510929873 0.04114844098163766 0.045352844617245244 0.038647870573937454 0.6111116211642883 0.8557579982255694 0.5536236977931563 
Task32 0.006701249397569488 0.055333967198480896 0.022991084453533307 0.005381029473100223 0.7033642562885285 0.6781019538812756 0.3008158139799488 
Task33 0.03034613718175611 0.032570267939151 0.05766315544989646 0.053952579422538144 0.6140412831190243 0.3289539922616872 0.362486054904565 
Task34 0.13106052398945717 0.23787145562517792 0.14758283605060024 0.3463252595566432 0.5219224645669338 0.4077573447942985 0.6026493390830184 
Task35 0.047422426506822 0.13271173235257103 0.04068134150597883 0.12124921082179924 0.8579358186422414 0.43005656644009793 0.9317054889596936 
Task36 0.034483336540223605 0.2567306049290351 0.1532443905210554 0.14061152137204985 0.6624837531125098 0.6850441541962639 0.9324370044848178 
Task37 0.03855807684537426 0.005605184104269788 0.3398053541931431 0.10827054560087752 0.8602304553310172 0.7472823124047571 0.541132927221454 
Task38 0.0006186832672868773 0.0044254893486524475 0.0017737908210578605 0.008195199620677343 0.6410351547964472 0.9706140164653894 0.8011105629979287 
Task39 0.013684486274847363 0.3711159127821389 0.2700349230117365 0.13625470609362508 0.8330361132509905 0.8222026803092992 0.3453248908781521 
Task40 0.031591580783933634 0.23396296885986356 0.009403560648529886 0.21693275268460685 0.45078365225284506 0.975836303723685 0.5512667000186753 
Task41 0.01727415447672973 0.21729586826174033 0.0545731023506166 0.1112153718295945 0.8883283731259815 0.722183916159022 0.43144467858146296 
Task42 0.03834213474007017 0.1469817842484 0.10990538450062488 0.019805021319268208 0.7697806506620797 0.5821505283889667 0.3353197268838122 
Task43 0.09954492984233741 0.2948526007057747 0.2386619492817136 0.02068068145831212 0.6106937521268425 0.6134984561927482 0.3006273558817562 
Task44 0.00019371864181284905 0.0005648436587016047 0.0012669034213042473 7.35148683099952e-05 0.8791750019006674 0.9924638698553381 0.5767222863474141 
Task45 0.004474280794652854 0.17753848452129564 0.13702373542214324 0.10824419891137604 0.5730887289285764 0.9799156936793874 0.9778527992700361 
Task46 0.11609444368372014 0.09826783455324488 0.18889598640226857 0.543950265690294 0.7795997081976795 0.6915458693988632 0.5086234052565481 
Task47 0.12345298941486603 0.09478183051152755 0.5820937306993753 0.06936801879870275 0.7250073722721655 0.41221440396756204 0.7270768362962707 
Task48 0.04250218619491263 0.07366630609846869 0.13770711600341043 0.08786857575866096 0.3868434761677795 0.7919991222274223 0.6499139535486345 
Task49 0.10499840818724562 0.2237206519548949 0.21600582415953845 0.2368363117520398 0.4791441777412968 0.9134013819038929 0.6971158656534553 
Task50 0.13921555263528454 0.03261653140140353 0.08281652744784901 0.5808320437550661 0.7237784313416931 0.7199486708664344 0.7078314517864676 
Task51 0.08967563979384889 0.26055024665748294 0.07128588831684117 0.2126353184883405 0.9132198618793645 0.49192505371071804 0.7073432456965874 
Task52 0.005612943951516659 0.014960499546215252 0.016791547354380258 0.016983102751555484 0.8811364568966351 0.4249441785578654 0.4022547801194378 
Task53 0.00020341909442863444 0.015316302637480421 0.07369868054826473 0.02169466969191733 0.8680926215984457 0.9128243301857171 0.5314605299716775 
Task54 0.03522797561610093 0.12145413622360998 0.13387685119041734 0.04909020823234582 0.42533214735656794 0.5134421530590547 0.5710843869746194 
Task55 0.0020424404433381027 0.005271684124100873 0.005453136013117042 0.005428000401529885 0.7413452551550204 0.3978000682211635 0.5846009923714541 
Task56 0.0507639936113787 0.20752917996579598 0.2912392602418765 0.345170551355161 0.893992146642044 0.9935665628541244 0.5469802961329597 
Task57 0.01741815223378377 0.013846825604451433 0.03540279283759726 0.02631839284807463 0.37147385069759076 0.3669603472449082 0.724526830018646 
Task58 0.038155297966009215 0.3920315872972414 0.3187396763431777 0.057829418761556464 0.7793682601598374 0.44252480942829175 0.9058374317313567 
Task59 0.0612575248220638 0.11495334020639357 0.06070266645089929 0.07284706738241957 0.5114228684944193 0.751703228283122 0.33083798957799865 
Task60 0.05513290077835128 0.25707854426147975 0.22220400585487216 0.4148772305771577 0.5544263045326554 0.709434888046431 0.8800326583775928 
Task61 0.01055030924879766 0.16957053207725264 0.009764367963760331 0.20884571853758838 0.6268935483862454 0.8064340674968851 0.3607933063869636 
Task62 0.11891475163899101 0.20281828639440086 0.20950782082009647 0.11580333493985646 0.3923944491852026 0.6933308842937864 0.43099157472793953 
Task63 0.09590582755832637 0.037291180217760234 0.43221501230833614 0.29956049669157386 0.7453942941244318 0.35803045685719403 0.42760960593870007 
Task64 0.051603461173229004 0.09171050424401091 0.09747552398060978 0.13595939409980098 0.9195865391814739 0.39619280456760453 0.7011564062498961 
Task65 0.001132568116653584 0.0022099789368762064 0.019907930585134237 0.01340941141837562 0.42172583339875735 0.9941197707009739 0.46228223262727564 
Task66 0.1457781426303547 0.23574033543758838 0.03581790008207926 0.3934861502532923 0.9479169905791847 0.5763151436477391 0.38065569772777363 
Task67 0.12466674529682625 0.2692994082307617 0.26325189833948126 0.27238330564795044 0.6733384856724256 0.43859408643450437 0.5306734109662286 
Task68 0.003143419922645516 0.01369924155254908 0.01580517812218941 0.005664891400622804 0.476542431546203 0.5153848220582424 0.7824117071525944 
Task69 0.04508391155439197 0.07282268181483546 0.3927508016519335 0.1640581387019207 0.8982516688546514 0.34182188312397077 0.6322096254829082 
Task70 0.0012678051783826493 0.4468783684574283 0.49296586635938383 0.052390892724106276 0.8806617892110273 0.6430591273417087 0.38751161066176754 
Task71 0.052727196402066065 0.3106173893724879 0.3241515637020022 0.14873271000193272 0.7730677597697203 0.6580304661391736 0.867038971273989 
Task72 0.022151441484274653 0.10197128823230858 0.29529535468369555 0.04240033205785613 0.5133051112386459 0.5147206371422682 0.7790860446822819 
Task73 0.012856449884113424 0.3040531817804122 0.08946096962943861 0.11058566372069265 0.6592069834111527 0.9383582397251169 0.4141464616748828 
Task74 0.1420426456256966 0.017625921217048698 0.30954707866842873 0.31479024955110785 0.4159091396667794 0.650113719850244 0.6002167385835986 
Task75 0.05355254325792693 0.08446627714811747 0.1235084337284283 0.13680467280181643 0.7034530308862064 0.7199849057727634 0.7796227953891174 
Task76 0.08103582135715422 0.2079341679133557 0.051280935548845 0.20805211903378507 0.32552439002216643 0.9017685712199712 0.9172580400697306 
Task77 0.009922212395382043 0.043410611237098905 0.11977147978785724 0.08723064857066977 0.3551498514295683 0.9556310313970833 0.5029143476669795 
Task78 0.006164935776644838 0.030625511362229185 0.0516355284802876 0.020255171861569703 0.3951008190291412 0.8464488975904791 0.5912771367224037 
Task79 0.07908818368065582 0.06698894709747205 0.11921971584727033 0.16629586679829195 0.6446890594206262 0.5977386328783094 0.7175548163765095 
Task80 0.01420380389072991 0.10125818730339196 0.3720620422819306 0.4786428323007277 0.48763949940928375 0.861157076863259 0.6344139217184299 
Task81 0.06955985126248607 0.1755150272166983 0.2606305464168125 0.43111177046080895 0.39236547570681146 0.7606518167802132 0.5664397240033952 
Task82 0.10657291358928836 0.26827724197354597 0.2053044456181147 0.1271828831304837 0.6288464262349394 0.980551065892157 0.365323559751432 
Task83 0.01727626168597477 0.42153089894002554 0.09317924721106649 0.39470224060572034 0.7692157282619552 0.950457455484454 0.7226514442697966 
Task84 0.0722742202548393 0.08726975783702598 0.09753771602856205 0.2289605901037514 0.4100772129398251 0.4687136998699116 0.3435988774289017 
Task85 0.060133674247062084 0.1484467968230587 0.173549194122371 0.13087631489418844 0.643528288386948 0.7676988293135047 0.9972704335900051 
Task86 0.12827753984996904 0.0609564484744624 0.26260613211642136 0.21481509864562714 0.9805277516177373 0.5628444615259822 0.5637871376555147 
Task87 0.016799069457021917 0.26711405683834966 0.12934310826075532 0.16153551525313478 0.8420338190019054 0.5927823760116075 0.6506666943549698 
Task88 0.14266934453126365 0.16042807467314874 0.3159373289030457 0.25064674240441415 0.7618015482006545 0.6204955977650399 0.8562284177222979 
Task89 0.06386891633707058 0.29403799190758906 0.011611511530264965 0.29100184460798123 0.5861142151030014 0.35385228917341527 0.56669243812329 
Task90 0.02683478824192151 0.21302721088457413 0.10313467902299317 0.2997370203192427 0.35890588396857415 0.9216929086808867 0.3126780078461979 
Task91 0.13863523854514945 0.25027153920161016 0.1037279082721501 0.21185410282227948 0.4894139491863958 0.3590635933906525 0.6813701638736129 
Task92 0.07823392109835306 0.2859079602762777 0.30975862811751237 0.01686178942588475 0.6348965368764095 0.6168109747941217 0.7828444689388918 
Task93 0.04991296081743824 0.15335034229603042 0.03016729489724856 0.04906662339391416 0.4531554359974855 0.9873148073658236 0.7907460003404008 
Task94 0.009674346547165195 0.2221590381900215 0.11003742589037994 0.21942064668607944 0.43312205641786494 0.3963677749227051 0.9790507431938138 
Task95 0.12352713881409484 0.3124052051695522 0.07112734732785254 0.2167931689939528 0.38366928525294086 0.37023435547119726 0.6972478460543639 
Task96 0.02380993168733094 0.1679261730585274 0.2212824410480874 0.00960472712332993 0.5035580829319556 0.767693754789619 0.6821102810385549 
Task97 0.0624461168025897 0.35586493524943824 0.3229035912497138 0.1878484527600784 0.4459965577786269 0.8787019186032416 0.5525466127858873 
Task98 0.005563076048377652 0.02021548541584001 0.0221584089920984 0.005760914161232705 0.5876412562913391 0.3527405782319171 0.5632498277109126 
Task99 0.11917681299213417 0.17281919179773134 0.028638308063651263 0.27833848337552186 0.8918393901180601 0.48314734339164817 0.31435224977824666 
