Task0 0.14285124175516303 0.029067655087743723 0.04824737776023773 0.5812455960792452 0.5363913101613298 0.5473085059268545 0.35913549286007046 
Task1 0.15059717834824746 0.03555809914989659 0.30214618115230124 0.47661017931100186 0.3268532927598165 0.48782016944346207 0.5303129189684367 
Task2 0.02770068373045577 0.11056925358171388 0.12170447596250404 0.3013754755663038 0.5927989482445344 0.8486299963173334 0.7020076499328356 
Task3 0.00038140233653037917 0.0007208508805730175 0.0013148008467327485 0.0006103973769829174 0.9942269965017687 0.5863582634623108 0.43385879961412394 
Task4 0.030166443858963585 0.1418215964180653 0.05357730524760838 0.03292631834973644 0.7377684054542932 0.6416325855423366 0.8161882486488414 
Task5 0.0357726918227787 0.04384575622944859 0.05243420333932769 0.07626937700864322 0.7162107705846779 0.6258401058684493 0.4361381753237967 
Task6 0.03734498127911979 0.19450318336872552 0.49282947527205195 0.1456393867312955 0.4512487602317095 0.9905822578136774 0.5018551104374587 
Task7 0.0026956105462671172 0.037829277624394295 0.031208335901425657 0.034206148714681285 0.9989730377076134 0.4103088391543386 0.7122150068786637 
Task8 0.06616367951854887 0.0841477342763909 0.14422721574326977 0.1745441934534162 0.8166522056140235 0.9382161046230708 0.754368089472834 
Task9 0.08194463991714691 0.1711465564122066 0.13238217819933906 0.03253758376562107 0.4187723560507238 0.6990499056977937 0.6463020516071779 
Task10 0.005939179672935335 0.012643890260011172 0.00017834256054869455 0.02030268685579158 0.38988897125296407 0.5722660933874508 0.4881739988901801 
Task11 0.014374819744518251 0.06852249789947833 0.14112350891718714 0.06979823458038868 0.3804942105343302 0.7754103125886596 0.5834100717568933 
Task12 0.006443402970854162 0.08615867587858171 0.06614782525536608 0.07600096548434629 0.8950651771832876 0.39786114354344304 0.3076139761723261 
Task13 0.05948849216797904 0.28401018613411894 0.2761424642173156 0.0718181034772616 0.6854837906655363 0.8310244088252521 0.3685471578484037 
Task14 0.09983176330075051 0.007235818068313441 0.7755428044057688 0.07883173066063914 0.5753007951986703 0.4884315426733172 0.8857638217515342 
Task15 0.005098002963702239 0.04819415037423914 0.08398146781219806 0.03577128300035789 0.6844708988953296 0.8691836247493014 0.6504538362266616 
Task16 0.041163913558223936 0.03862521391322463 0.14101029637799897 0.03368457086894401 0.5011269633522587 0.3021819068182385 0.807858130972624 
Task17 0.07480997403774564 0.47683558661012937 0.25703295085619626 0.1017730437417014 0.4107291686976875 0.6419040923971506 0.3102362925151946 
Task18 0.061730062078216456 0.14171416897863595 0.1109675756579895 0.046654755561168514 0.8347681859534688 0.9103230858612599 0.6551152087062799 
Task19 0.01612346293262068 0.007562408785580051 0.16892654939708704 0.5271964333268375 0.4702503392851969 0.44543180538826 0.7582177247608828 
Task20 0.09335030388377578 0.15094138044729524 0.05726423112539852 0.5940581851505278 0.5311111595325826 0.3803427923601337 0.7546580659691415 
Task21 0.12847909751460046 0.3019468611080791 0.20394825636133554 0.19461965251044358 0.6440201609350888 0.9489213799267988 0.42234908138398336 
Task22 0.09719439014326568 0.27078930791643613 0.12141520607435734 0.12533078911373696 0.6416608329616836 0.8213649639080054 0.9331775195812977 
Task23 0.0005689956803305227 0.001236640286994256 0.0046929755210838265 0.0027871259574875087 0.598401364891147 0.6513643466753758 0.4513346728027411 
Task24 0.05928882288760233 0.15562678247195902 0.20051724073835983 0.12246438388503021 0.6319292473274615 0.48454281663769777 0.33417740916301947 
Task25 0.11385808507626041 0.1894855631108853 0.046958329936428504 0.2734326851515519 0.34258187636104026 0.4802056554388885 0.572449807021316 
Task26 0.04820171186941836 0.03979171242698604 0.34213372640957035 0.14886928154356371 0.41520073644094213 0.5647693912711748 0.8984457139373685 
Task27 0.13338699928093192 0.14573999906182397 0.3381937639539241 0.11696148964003941 0.7632636100874421 0.3478216863036353 0.7272533179296925 
Task28 0.051963309281420386 0.10854780196312577 0.2120487393049216 0.35333072611424526 0.38613076015427455 0.7114161152849301 0.33858968450610727 
Task29 0.017428868035225215 0.08140994937427025 0.22879107694492515 0.27291242840679536 0.6683089764585672 0.3598941188523826 0.8552139278419171 
Task30 0.006992516933055546 0.03709490098376937 0.05135149001938781 0.05810018013056101 0.48692547469668723 0.6327731920925792 0.8965542103928743 
Task31 0.06143466466184624 0.11757631010438888 0.14379929562982133 0.152407464811623 0.8155024854550381 0.40741817305870026 0.5782536425187597 
Task32 0.03897468597352969 0.21704681246794597 0.20017691507698812 0.13362366933837347 0.33027630699812033 0.9687947077748007 0.49660622656035125 
Task33 0.11859291082020103 0.24912341222262102 0.007855992592533027 0.22923861422151123 0.9193223425185113 0.7033851730137967 0.38808792627675714 
Task34 0.11431850524176938 0.1864299657191386 0.2434576408735236 0.23008532782406405 0.5174686520262751 0.8267020569516292 0.9086290189359572 
Task35 0.12442959487405458 0.42911490463943675 0.1504514009063593 0.16001352837597682 0.31334739682222246 0.9336482688044716 0.7020521397022317 
Task36 0.05010048773332127 0.046098221467950486 0.09823613683103519 0.14032535211582622 0.35757806037215256 0.42715873678839844 0.40243819417298343 
Task37 0.0010646463768846728 0.029299994406595295 0.015261606751513355 0.029300717466490565 0.6465460351936309 0.32850041930406876 0.6364518096600709 
Task38 0.012148373482434185 0.014083062616354286 0.03666736322444507 0.043636250408885593 0.5314586317514125 0.49414560865824125 0.5409582494312514 
Task39 0.0007994346397719838 0.003625304367368013 0.003570115027541611 0.002923099218636073 0.32338265388701976 0.3571578376207087 0.5621633786960304 
Task40 0.009962170822059692 0.1302613782463139 0.09306530780853482 0.11711847531272894 0.9421777301454413 0.5613690670637772 0.7092187680765922 
Task41 0.06834007807902834 0.20703538933283344 0.2464337957296511 0.15836451042029667 0.6716971314760579 0.8521658769027294 0.7233786409972252 
Task42 0.014865375773957488 0.07033138152132709 0.08643951942494768 0.04275978630621394 0.6136621648382994 0.5471739248300287 0.6232938142238473 
Task43 0.0038978605800985625 0.05487084567126329 0.01623886945362194 0.04068847893395227 0.3420673714940365 0.920767066006658 0.39391186816294915 
Task44 0.02496126874865964 0.009742909716984405 0.12337780450141159 0.05468077158145368 0.6390727473646448 0.34505569605449915 0.9202429771486251 
Task45 0.034840980888820906 0.11247261371739745 0.22989216310159227 0.3237852722785218 0.32740932101242404 0.4966660091272672 0.420967662305449 
Task46 0.025357025624690027 0.09284914470688141 0.03273375820180315 0.12242932061748443 0.3349474544742505 0.5688404185787455 0.9083859093469697 
Task47 0.16797503530738173 0.00910284855608249 0.1197300977778854 0.6448039316068249 0.5332480691706528 0.39742716642982456 0.5508534971857 
Task48 0.011303173722529071 0.07422624564875195 0.09499527216080447 0.07674980879471952 0.4836846174246797 0.3723411635819096 0.602014210040573 
Task49 0.04179314141186629 0.266869949602835 0.2753058266564178 0.2225939343616053 0.5563647337709617 0.591096619945635 0.896729593379374 
Task50 0.013035324108283492 0.028854850018675916 0.025862207040403873 0.07662260990941226 0.7962981442465642 0.8940639815690472 0.9020512685834712 
Task51 0.10992202314822126 0.22742482823276003 0.1681993510909653 0.15120474283869156 0.39103455309006874 0.6509856011322015 0.31871973455288377 
Task52 0.007465595214987122 0.34842301926638775 0.0033457576816442918 0.18470001364485408 0.5415753280865586 0.9389554506196158 0.47815656626537184 
Task53 0.03632132816188381 0.15045671987645995 0.007691444368819039 0.1151760942052769 0.7116482431822229 0.37612478679068256 0.4966541355394787 
Task54 0.13767654357076578 0.10610714996801009 0.31114497469595503 0.1691437279572784 0.5661506050918785 0.8370871943511007 0.5067184912179419 
Task55 0.10409364944110451 0.18857850272490068 0.22560808523056528 0.4051560997867742 0.7365903350454175 0.8294238405380454 0.32589957333885744 
Task56 0.006869170218694297 0.14103402892762562 0.1402165242759853 0.18051233590922713 0.9385369296529036 0.5530152702507178 0.9979925326089722 
Task57 0.03196795700107142 0.09902763676158635 0.0814049648587964 0.03581202008224155 0.9810768313272029 0.41051445281084853 0.8802421433555208 
Task58 0.07816398950263329 0.25752586202512057 0.2053947570599133 0.24103427701572253 0.5922510134483137 0.5331928145896924 0.6394763159982444 
Task59 0.03586957076017345 0.0246138094044214 0.06088652134585954 0.06364348333038614 0.5140024350024999 0.5295493553084593 0.398356149350434 
Task60 0.005957077323679384 0.0003593515619365604 0.059762039004038266 0.04187839883154033 0.9528812827947608 0.5155237872219157 0.5831407595625276 
Task61 0.052942566593877534 0.07520058465784467 0.1608649367565761 0.4545479217411286 0.3533753449970029 0.9714194864800416 0.574977588204562 
Task62 0.03152725721664043 0.11315166809519858 0.011820772640020077 0.07910327471292362 0.9092223485439217 0.8191527818869453 0.701166725528528 
Task63 0.05877170185129128 0.11104389265749465 0.17144494252126646 0.41412456539709375 0.8109957864834949 0.8026868304087076 0.8621406416009905 
Task64 0.003947267732406241 0.0015413426719437173 0.01738906884172037 0.012622921974603225 0.6194714905098347 0.3930238058165095 0.9712558625817811 
Task65 0.007034209999413576 0.016888186488285363 0.027955823117983055 0.014513996703554978 0.695040712062682 0.9539949510802905 0.38410843882586526 
Task66 0.004575112242263976 0.0009174794622019356 0.013051767573953559 0.014809203254275033 0.5405065023632618 0.5845911789401654 0.714343788537686 
Task67 0.0025073209290106626 0.017941275863574867 0.006802121566316885 0.0338467274282957 0.32448073493402335 0.3968958134587484 0.430904953504346 
Task68 0.0443554044450998 0.21710706702023994 0.1893578079140181 0.20965900392956036 0.33729026818783403 0.4651274934607318 0.7059744143772522 
Task69 0.006699998079753268 0.014469593314319584 0.05247901607826954 0.07694075981046408 0.43338525296108843 0.9096350291478144 0.665991370304231 
Task70 0.05296969969738218 0.39035325506490953 0.3871960193416744 0.021417077240337538 0.7370928105893263 0.8037784279243012 0.8414945422227105 
Task71 0.07467026856895834 0.3609337984619345 0.039374729847231844 0.29666874809638 0.5218096115638937 0.9849225035466103 0.9916412633452003 
Task72 0.0007046440419482638 0.0009942091521054782 0.0033094266400442206 0.0008453740214514052 0.9291773052530061 0.6433026275817628 0.8511231869447136 
Task73 0.0652362739524422 0.09351484217436212 0.20914431724351584 0.022354881327446008 0.38655853448044086 0.9973604248999994 0.46685561836548306 
Task74 0.07007279281634457 0.08675872595837816 0.28793258053496706 0.11818281340968487 0.6867003397224465 0.7904854998900415 0.9025509222087649 
Task75 0.1188667563587248 0.13491745633431404 0.36515723523120974 0.0661498709242171 0.8316327953243954 0.6513603876612601 0.38018550917981 
Task76 0.18053260011319813 0.18024500999561352 0.3515086842740201 0.21569041479873866 0.5138752476659739 0.8671899627400257 0.8422459897155057 
Task77 0.15448969356216816 0.2660494055515274 0.04033833035018776 0.31782450757934766 0.4039178408002878 0.4419146911111693 0.872951171942572 
Task78 0.08182308464955801 0.20066486477164747 0.3088545092465887 0.07776894551845123 0.6320725170875126 0.9966611429714569 0.942998499320912 
Task79 0.07957206050114086 0.1790978597102718 0.22116747505149154 0.07268978977102099 0.3171224302848294 0.4801043410974144 0.649572923381637 
Task80 0.023141572640994403 0.035149837149989545 0.2952999251381321 0.056828406698206754 0.3541100006608375 0.32291304610063165 0.3146337863437022 
Task81 0.0006782647260893301 0.004600279808960488 0.10816516148155307 0.5307214516272661 0.4137425920262369 0.46835282448416826 0.8021081543644046 
Task82 0.0006086207117519056 0.02390398158000534 0.022380933618617295 0.010524595966301233 0.5659702444416024 0.3302001658393988 0.5821852783423183 
Task83 0.004870865800222892 0.0019136585659667745 0.024038386525842743 0.026637404842551247 0.5129989901479695 0.5960281311127461 0.5734488333169996 
Task84 0.15086969204563672 0.3023413715622604 0.12257250057827261 0.3764503323126822 0.30326563563448106 0.8762601212997971 0.821334481602878 
Task85 0.0035537950947552885 0.023305509103001203 0.060781281836657076 0.025103612029847597 0.3852496971892101 0.9075747953862188 0.8396605416247245 
Task86 0.029684843382193096 0.042307696291483184 0.15641910467380057 0.06854127166309408 0.6223465188276924 0.4846930383888255 0.5219891712019631 
Task87 0.09057591044485033 0.1408050500231285 0.11027076651845129 0.12205146656439414 0.40467531069545803 0.34679397800862755 0.619541404608513 
Task88 0.040938928848540466 0.3294580422435418 0.1698744269688729 0.3522198723943076 0.8821193702879975 0.35641358076943036 0.59503228468805 
Task89 0.021050526041583747 0.036940848880141895 0.05553124927298703 0.010243257458734277 0.32797286335954107 0.3878036183763889 0.669870631575278 
Task90 0.010973177709429049 0.2129021292786327 0.1638732079728908 0.2773228681683314 0.9215774761674003 0.5121450515320987 0.5041816767960637 
Task91 0.09796501562163429 0.04023507996161733 0.34389690820594476 0.09353814643909057 0.6612035667230614 0.6707306322673059 0.41616653937979475 
Task92 0.029303040382526412 0.2528494379950262 0.017598189381211386 0.18480366094854075 0.6181578088772424 0.7701922590490431 0.5822891488658424 
Task93 0.028420385936425943 0.27077907862789513 0.2656162764345479 0.07816401694282342 0.9491215059241618 0.9043077332545364 0.8990348276468849 
Task94 0.0032067407775903025 0.08651870603783085 0.2898418339566261 0.30505236131880614 0.7553740579455424 0.5355462897255859 0.7804673142000973 
Task95 0.01748823142851387 0.04933537002107305 0.38363293957329847 0.08401348690320125 0.739637749029852 0.40635355663996403 0.6443305842755508 
Task96 0.03221168044722376 0.2607529485800975 0.11484309293135088 0.285974633725968 0.8814637903169398 0.6670951641986418 0.5115792065254623 
Task97 0.0686959189630963 0.25684485554116043 0.12901772362847397 0.2948962381489292 0.8899960725606286 0.9480874748215748 0.45055159956430746 
Task98 0.010521053559932372 0.1861882223884436 0.4626808976654947 0.26880879981966826 0.816090965058524 0.606183957792281 0.4465893134220753 
Task99 0.07070535228161204 0.07652858838692632 0.07006206357670466 0.15651390050716016 0.4884722795894915 0.4010928806665997 0.8716225642782274 
