0.3869098899999999
Task0 7 255 127 
Task1 127 63 127 
Task2 255 15 31 
Task3 255 127 255 
Task4 63 63 63 
Task5 255 15 15 
Task6 3 127 63 
Task7 255 63 255 
Task8 255 63 127 
Task9 7 15 63 
Task10 255 255 127 
Task11 15 15 63 
Task12 255 15 127 
Task13 3 15 255 
Task14 255 3 31 
Task15 63 15 15 
Task16 127 7 63 
Task17 1 7 63 
Task18 63 3 1 
Task19 63 31 31 
Task20 63 1 15 
Task21 255 31 127 
Task22 1 63 127 
Task23 127 127 63 
Task24 31 7 63 
Task25 255 31 127 
Task26 255 127 127 
Task27 3 15 255 
Task28 63 255 31 
Task29 31 63 255 
Task30 127 63 3 
Task31 63 31 7 
Task32 31 31 255 
Task33 255 3 127 
Task34 31 255 255 
Task35 15 63 63 
Task36 31 127 31 
Task37 63 15 127 
Task38 31 63 63 
Task39 63 7 31 
Task40 15 63 15 
Task41 15 127 15 
Task42 31 3 255 
Task43 255 255 127 
Task44 127 15 63 
Task45 31 127 63 
Task46 127 31 3 
Task47 255 255 255 
Task48 7 127 31 
Task49 255 63 63 
Task50 31 15 127 
Task51 31 15 127 
Task52 255 255 15 
Task53 31 63 63 
Task54 255 15 15 
Task55 15 63 31 
Task56 63 7 31 
Task57 255 31 3 
Task58 63 3 1 
Task59 63 127 63 
Task60 31 15 255 
Task61 1 63 63 
Task62 63 31 3 
Task63 1 31 127 
Task64 3 1 255 
Task65 63 1 127 
Task66 63 3 255 
Task67 15 63 3 
Task68 63 255 15 
Task69 31 3 63 
Task70 3 63 63 
Task71 1 255 15 
Task72 255 7 7 
Task73 63 7 3 
Task74 127 63 255 
Task75 15 31 255 
Task76 31 31 255 
Task77 1 127 255 
Task78 63 63 7 
Task79 255 7 7 
Task80 7 3 63 
Task81 15 31 127 
Task82 7 127 127 
Task83 15 15 255 
Task84 63 255 255 
Task85 127 31 15 
Task86 63 31 63 
Task87 1 3 63 
Task88 63 15 63 
Task89 63 31 63 
Task90 127 255 255 
Task91 127 7 15 
Task92 63 3 63 
Task93 127 255 1 
Task94 255 63 127 
Task95 63 15 255 
Task96 7 1 63 
Task97 63 63 127 
Task98 63 63 15 
Task99 63 31 31 
