0.32011491
Task0 63 7 15 
Task1 3 31 31 
Task2 31 7 63 
Task3 15 63 3 
Task4 15 3 31 
Task5 3 31 15 
Task6 15 3 7 
Task7 31 7 7 
Task8 31 3 31 
Task9 15 3 63 
Task10 63 63 31 
Task11 31 31 7 
Task12 31 7 3 
Task13 63 255 127 
Task14 63 31 1 
Task15 255 255 127 
Task16 63 15 31 
Task17 7 7 63 
Task18 7 63 3 
Task19 15 7 63 
Task20 63 15 63 
Task21 63 7 31 
Task22 7 31 1 
Task23 31 7 15 
Task24 255 63 31 
Task25 15 31 63 
Task26 31 3 1 
Task27 15 7 63 
Task28 15 1 63 
Task29 255 255 63 
Task30 63 15 3 
Task31 15 31 15 
Task32 7 31 15 
Task33 31 31 15 
Task34 15 15 1 
Task35 31 3 15 
Task36 15 63 1 
Task37 63 1 15 
Task38 15 63 15 
Task39 7 31 7 
Task40 255 127 255 
Task41 7 31 3 
Task42 63 31 15 
Task43 31 3 31 
Task44 7 7 31 
Task45 31 7 3 
Task46 31 15 63 
Task47 31 31 3 
Task48 15 31 7 
Task49 63 31 7 
Task50 15 3 31 
Task51 31 31 63 
Task52 31 31 255 
Task53 31 1 1 
Task54 15 1 63 
Task55 7 31 31 
Task56 31 31 7 
Task57 15 63 31 
Task58 63 3 3 
Task59 7 31 1 
Task60 7 31 31 
Task61 31 63 7 
Task62 31 7 3 
Task63 63 127 63 
Task64 31 7 31 
Task65 7 1 31 
Task66 31 15 7 
Task67 1 3 31 
Task68 31 31 7 
Task69 15 31 3 
Task70 1 63 7 
Task71 15 63 15 
Task72 7 31 7 
Task73 31 7 15 
Task74 31 7 15 
Task75 3 63 255 
Task76 31 63 31 
Task77 1 7 63 
Task78 3 3 63 
Task79 31 15 63 
Task80 15 15 63 
Task81 7 1 31 
Task82 15 31 7 
Task83 15 31 15 
Task84 1 31 1 
Task85 31 31 1 
Task86 7 7 31 
Task87 31 15 31 
Task88 3 31 31 
Task89 7 1 31 
Task90 31 31 15 
Task91 31 1 31 
Task92 7 15 63 
Task93 31 1 7 
Task94 63 63 63 
Task95 63 7 15 
Task96 1 63 15 
Task97 63 31 15 
Task98 7 7 31 
Task99 31 15 7 
