0.34887329999999994
Task0 63 63 127 
Task1 15 31 7 
Task2 15 7 31 
Task3 15 63 15 
Task4 63 31 31 
Task5 31 1 31 
Task6 15 31 15 
Task7 63 63 7 
Task8 7 63 7 
Task9 63 1 15 
Task10 3 63 31 
Task11 7 63 63 
Task12 7 63 31 
Task13 7 31 31 
Task14 15 63 63 
Task15 31 1 1 
Task16 3 31 63 
Task17 31 15 31 
Task18 1 7 63 
Task19 63 63 31 
Task20 31 63 7 
Task21 7 3 63 
Task22 7 63 7 
Task23 15 31 31 
Task24 31 31 63 
Task25 31 255 127 
Task26 1 63 1 
Task27 1 63 63 
Task28 63 31 63 
Task29 7 63 7 
Task30 63 3 3 
Task31 3 63 255 
Task32 31 63 127 
Task33 31 31 7 
Task34 7 63 31 
Task35 15 31 3 
Task36 31 63 3 
Task37 63 31 7 
Task38 63 3 1 
Task39 31 7 31 
Task40 63 127 63 
Task41 31 31 63 
Task42 31 15 255 
Task43 31 63 15 
Task44 63 7 7 
Task45 63 1 31 
Task46 63 31 3 
Task47 31 63 3 
Task48 1 63 31 
Task49 31 7 3 
Task50 15 31 31 
Task51 255 63 63 
Task52 63 3 15 
Task53 31 1 255 
Task54 1 31 31 
Task55 7 3 31 
Task56 1 31 1 
Task57 31 63 7 
Task58 15 15 63 
Task59 1 7 63 
Task60 15 1 63 
Task61 63 127 255 
Task62 63 1 7 
Task63 31 15 15 
Task64 1 63 7 
Task65 63 1 1 
Task66 7 31 63 
Task67 15 31 63 
Task68 1 3 31 
Task69 63 63 3 
Task70 31 63 63 
Task71 3 1 63 
Task72 1 31 3 
Task73 127 63 63 
Task74 31 31 63 
Task75 63 1 7 
Task76 7 31 31 
Task77 15 63 255 
Task78 255 31 31 
Task79 127 63 7 
Task80 7 31 31 
Task81 1 63 1 
Task82 31 3 31 
Task83 63 7 63 
Task84 255 63 255 
Task85 31 31 15 
Task86 7 7 63 
Task87 1 1 31 
Task88 7 15 31 
Task89 31 3 63 
Task90 63 15 127 
Task91 3 31 15 
Task92 3 7 63 
Task93 31 63 7 
Task94 63 63 15 
Task95 15 31 7 
Task96 63 1 1 
Task97 31 31 255 
Task98 31 1 7 
Task99 7 7 63 
