0.37385474999999996
Task0 15 63 1 
Task1 1 15 63 
Task2 3 63 1 
Task3 15 31 7 
Task4 1 15 31 
Task5 15 63 7 
Task6 15 31 63 
Task7 3 63 7 
Task8 15 7 63 
Task9 1 63 1 
Task10 1 7 63 
Task11 63 1 7 
Task12 63 31 15 
Task13 63 63 31 
Task14 15 63 15 
Task15 31 31 15 
Task16 63 255 63 
Task17 63 3 3 
Task18 15 63 31 
Task19 127 255 63 
Task20 31 31 63 
Task21 3 3 31 
Task22 63 15 31 
Task23 63 31 1 
Task24 63 7 63 
Task25 63 31 15 
Task26 63 7 31 
Task27 127 255 127 
Task28 31 63 15 
Task29 31 3 3 
Task30 31 31 15 
Task31 63 63 15 
Task32 127 31 255 
Task33 63 15 7 
Task34 63 1 7 
Task35 31 1 63 
Task36 7 31 63 
Task37 63 15 31 
Task38 31 63 7 
Task39 15 31 31 
Task40 7 63 15 
Task41 31 31 31 
Task42 63 3 63 
Task43 63 63 7 
Task44 31 63 63 
Task45 31 31 63 
Task46 63 255 31 
Task47 7 31 63 
Task48 7 15 63 
Task49 3 31 31 
Task50 1 31 7 
Task51 15 63 1 
Task52 63 255 1 
Task53 255 3 127 
Task54 15 3 31 
Task55 63 7 15 
Task56 63 31 31 
Task57 31 63 15 
Task58 63 7 31 
Task59 15 3 63 
Task60 31 3 63 
Task61 63 63 31 
Task62 63 15 7 
Task63 31 1 1 
Task64 255 127 63 
Task65 31 31 7 
Task66 63 7 7 
Task67 63 3 31 
Task68 31 63 31 
Task69 31 63 63 
Task70 63 7 15 
Task71 1 255 255 
Task72 31 31 63 
Task73 15 31 63 
Task74 31 7 31 
Task75 15 15 31 
Task76 15 63 1 
Task77 1 31 7 
Task78 31 15 7 
Task79 15 7 63 
Task80 63 7 31 
Task81 15 7 63 
Task82 15 63 3 
Task83 31 1 7 
Task84 127 31 15 
Task85 3 3 63 
Task86 31 7 31 
Task87 3 63 3 
Task88 63 63 127 
Task89 63 63 1 
Task90 31 7 7 
Task91 3 31 7 
Task92 7 63 63 
Task93 1 63 3 
Task94 31 31 3 
Task95 255 255 255 
Task96 31 31 63 
Task97 7 31 63 
Task98 15 31 7 
Task99 3 7 63 
