files/tasks_parameters/ExAp01/sample8.txt 1.12029 7.2562 4.46819 0.454772 19.835
files/tasks_parameters/ExAp01/sample12.txt 1.62067 9.70908 5.28286 0.618515 26.9766
files/tasks_parameters/ExAp01/sample2.txt 1.54388 8.14159 5.7401 0.620531 27.0646
files/tasks_parameters/ExAp01/sample44.txt 1.36195 7.25164 5.75904 0.557631 24.3212
files/tasks_parameters/ExAp01/sample27.txt 1.31703 8.10944 5.64946 0.564878 24.6373
files/tasks_parameters/ExAp01/sample17.txt 1.28143 7.11225 5.46658 0.527183 22.9932
files/tasks_parameters/ExAp01/sample9.txt 1.19522 7.62559 5.37813 0.517277 22.5611
files/tasks_parameters/ExAp01/sample34.txt 1.26878 7.04587 5.93037 0.497709 21.7077
files/tasks_parameters/ExAp01/sample40.txt 1.201 8.03037 5.123 0.502383 21.9115
files/tasks_parameters/ExAp01/sample33.txt 1.6199 9.22935 5.92956 0.659262 28.7538
files/tasks_parameters/ExAp01/sample48.txt 1.15968 8.12182 5.1577 0.452491 19.7355
files/tasks_parameters/ExAp01/sample29.txt 1.58288 8.06133 5.12331 0.650652 28.3783
files/tasks_parameters/ExAp01/sample11.txt 1.36191 7.63104 5.37897 0.563302 24.5685
files/tasks_parameters/ExAp01/sample14.txt 1.13066 6.66403 4.66322 0.471536 20.5661
files/tasks_parameters/ExAp01/sample0.txt 1.63122 9.3266 4.98971 0.6311 27.5255
files/tasks_parameters/ExAp01/sample7.txt 1.22931 7.34863 5.19436 0.515527 22.4848
files/tasks_parameters/ExAp01/sample23.txt 1.41671 6.68564 5.54308 0.588617 25.6727
files/tasks_parameters/ExAp01/sample13.txt 1.69536 9.31093 5.35591 0.632849 27.6018
files/tasks_parameters/ExAp01/sample22.txt 1.29263 7.65588 5.04866 0.540336 23.5668
files/tasks_parameters/ExAp01/sample25.txt 1.09421 6.17035 5.0141 0.408296 17.8079
files/tasks_parameters/ExAp01/sample36.txt 1.30569 7.03772 4.66274 0.507647 22.1411
files/tasks_parameters/ExAp01/sample46.txt 1.35798 7.73433 4.79934 0.536843 23.4145
files/tasks_parameters/ExAp01/sample31.txt 1.16849 6.96928 5.16482 0.485817 21.189
files/tasks_parameters/ExAp01/sample37.txt 1.63429 9.52443 5.74224 0.65799 28.6983
files/tasks_parameters/ExAp01/sample16.txt 1.35521 8.63521 4.97261 0.516328 22.5197
files/tasks_parameters/ExAp01/sample10.txt 1.38491 7.28353 6.16876 0.615651 26.8517
files/tasks_parameters/ExAp01/sample39.txt 1.13898 6.3405 4.6137 0.468873 20.45
files/tasks_parameters/ExAp01/sample19.txt 1.61229 8.85528 5.22306 0.622152 27.1353
files/tasks_parameters/ExAp01/sample20.txt 1.39319 8.1141 5.21177 0.586994 25.6018
files/tasks_parameters/ExAp01/sample43.txt 1.27428 7.21373 5.6367 0.53748 23.4423
files/tasks_parameters/ExAp01/sample32.txt 1.48079 8.30592 5.38137 0.593918 25.9038
files/tasks_parameters/ExAp01/sample45.txt 1.41746 7.94069 4.96323 0.547271 23.8693
files/tasks_parameters/ExAp01/sample26.txt 1.12134 7.57061 4.62637 0.480146 20.9416
files/tasks_parameters/ExAp01/sample5.txt 1.48434 8.0307 5.35681 0.59407 25.9105
files/tasks_parameters/ExAp01/sample21.txt 1.01482 5.87802 4.61744 0.434264 18.9405
files/tasks_parameters/ExAp01/sample38.txt 1.18344 7.66999 4.86632 0.496808 21.6684
files/tasks_parameters/ExAp01/sample1.txt 1.16287 7.21312 4.63213 0.486293 21.2098
files/tasks_parameters/ExAp01/sample15.txt 1.27809 8.02273 5.50855 0.531063 23.1624
files/tasks_parameters/ExAp01/sample24.txt 1.31487 8.66348 5.4905 0.548998 23.9446
files/tasks_parameters/ExAp01/sample3.txt 1.16941 7.74268 4.79918 0.477387 20.8213
files/tasks_parameters/ExAp01/sample6.txt 1.53398 8.57133 5.80157 0.633604 27.6348
files/tasks_parameters/ExAp01/sample30.txt 1.59988 8.18878 5.90888 0.633576 27.6335
files/tasks_parameters/ExAp01/sample42.txt 1.32976 8.57689 5.67253 0.54426 23.738
files/tasks_parameters/ExAp01/sample4.txt 1.28595 8.40354 4.57985 0.563519 24.578
files/tasks_parameters/ExAp01/sample28.txt 1.10043 6.44114 4.96426 0.449721 19.6147
files/tasks_parameters/ExAp01/sample18.txt 1.32333 8.56363 4.60946 0.543766 23.7165
files/tasks_parameters/ExAp01/sample35.txt 1.9616 11.0387 6.34514 0.761377 33.2076
files/tasks_parameters/ExAp01/sample47.txt 1.32375 7.14493 5.22131 0.545046 23.7723
files/tasks_parameters/ExAp01/sample49.txt 1.29297 6.65996 4.80244 0.498533 21.7436
files/tasks_parameters/ExAp01/sample41.txt 1.19852 7.09069 5.35462 0.497129 21.6824
