files/tasks_parameters/ExAp01/sample8.txt 1.07531 3.76817 4.3855 0.450105 32.8961
files/tasks_parameters/ExAp01/sample12.txt 1.43334 5.03638 5.18776 0.610564 44.6234
files/tasks_parameters/ExAp01/sample2.txt 1.36503 4.58991 5.64606 0.613877 44.8655
files/tasks_parameters/ExAp01/sample44.txt 1.23777 3.77401 5.66946 0.551838 40.3313
files/tasks_parameters/ExAp01/sample27.txt 1.28669 4.13937 5.56136 0.55779 40.7663
files/tasks_parameters/ExAp01/sample17.txt 1.12052 3.76163 5.38341 0.520991 38.0769
files/tasks_parameters/ExAp01/sample9.txt 1.08923 3.69889 5.2981 0.511699 37.3978
files/tasks_parameters/ExAp01/sample34.txt 1.12612 3.52435 5.83741 0.49187 35.9486
files/tasks_parameters/ExAp01/sample40.txt 1.16568 4.06185 5.0335 0.496884 36.315
files/tasks_parameters/ExAp01/sample33.txt 1.49438 4.82091 5.83886 0.651963 47.649
files/tasks_parameters/ExAp01/sample48.txt 1.07113 4.01134 5.07085 0.447927 32.737
files/tasks_parameters/ExAp01/sample29.txt 1.39588 4.20847 5.0406 0.643694 47.0447
files/tasks_parameters/ExAp01/sample11.txt 1.25656 3.94699 5.29198 0.557276 40.7288
files/tasks_parameters/ExAp01/sample14.txt 1.10681 3.54059 4.58345 0.466713 34.11
files/tasks_parameters/ExAp01/sample0.txt 1.44535 4.82755 4.90216 0.623551 45.5725
files/tasks_parameters/ExAp01/sample7.txt 1.19068 3.60766 5.11185 0.509566 37.2418
files/tasks_parameters/ExAp01/sample23.txt 1.43041 3.81403 5.45799 0.582911 42.6023
files/tasks_parameters/ExAp01/sample13.txt 1.4177 4.8894 5.26818 0.624499 45.6418
files/tasks_parameters/ExAp01/sample22.txt 1.2576 3.76156 4.95746 0.534216 39.0434
files/tasks_parameters/ExAp01/sample25.txt 0.984641 2.94144 4.92622 0.403639 29.5002
files/tasks_parameters/ExAp01/sample36.txt 1.2249 3.56164 4.5806 0.501799 36.6742
files/tasks_parameters/ExAp01/sample46.txt 1.22998 3.84833 4.7121 0.530701 38.7865
files/tasks_parameters/ExAp01/sample31.txt 1.05825 3.764 5.08385 0.479734 35.0616
files/tasks_parameters/ExAp01/sample37.txt 1.5053 4.43254 5.65111 0.65143 47.6101
files/tasks_parameters/ExAp01/sample16.txt 1.22658 4.49741 4.8895 0.509171 37.213
files/tasks_parameters/ExAp01/sample10.txt 1.41803 3.87086 6.07511 0.60993 44.577
files/tasks_parameters/ExAp01/sample39.txt 1.12143 3.66299 4.54281 0.463671 33.8876
files/tasks_parameters/ExAp01/sample19.txt 1.33761 3.86694 5.14047 0.615987 45.0197
files/tasks_parameters/ExAp01/sample20.txt 1.33942 4.09945 5.13368 0.580369 42.4165
files/tasks_parameters/ExAp01/sample43.txt 1.17361 3.75825 5.55698 0.530892 38.8005
files/tasks_parameters/ExAp01/sample32.txt 1.40931 4.0352 5.29178 0.587643 42.9482
files/tasks_parameters/ExAp01/sample45.txt 1.28349 3.94578 4.87833 0.541081 39.5452
files/tasks_parameters/ExAp01/sample26.txt 1.06587 3.50998 4.55035 0.474009 34.6432
files/tasks_parameters/ExAp01/sample5.txt 1.35991 4.00994 5.27725 0.587681 42.9509
files/tasks_parameters/ExAp01/sample21.txt 0.939831 2.8974 4.54677 0.430037 31.4295
files/tasks_parameters/ExAp01/sample38.txt 1.285 3.56689 4.78573 0.492366 35.9848
files/tasks_parameters/ExAp01/sample1.txt 1.12907 3.69002 4.55048 0.481074 35.1595
files/tasks_parameters/ExAp01/sample15.txt 1.15344 3.73223 5.42493 0.524964 38.3672
files/tasks_parameters/ExAp01/sample24.txt 1.24678 4.18053 5.40377 0.542575 39.6544
files/tasks_parameters/ExAp01/sample3.txt 1.09857 3.70547 4.7118 0.470503 34.3869
files/tasks_parameters/ExAp01/sample6.txt 1.3989 4.07521 5.71419 0.626702 45.8028
files/tasks_parameters/ExAp01/sample30.txt 1.42002 3.97446 5.82388 0.626709 45.8033
files/tasks_parameters/ExAp01/sample42.txt 1.25341 4.44207 5.58473 0.537025 39.2487
files/tasks_parameters/ExAp01/sample4.txt 1.3617 3.92181 4.49751 0.556974 40.7067
files/tasks_parameters/ExAp01/sample28.txt 1.00689 3.13496 4.88321 0.444588 32.4929
files/tasks_parameters/ExAp01/sample18.txt 1.21304 3.95301 4.52898 0.537438 39.2789
files/tasks_parameters/ExAp01/sample35.txt 1.9165 5.75923 6.25034 0.752488 54.9959
files/tasks_parameters/ExAp01/sample47.txt 1.15816 3.44018 5.14289 0.540033 39.4686
files/tasks_parameters/ExAp01/sample49.txt 1.2029 3.38981 4.72409 0.493041 36.0341
files/tasks_parameters/ExAp01/sample41.txt 1.10804 3.58692 5.27252 0.492391 35.9866
