files/tasks_parameters/ExAp01/sample8.txt 1.11732 7.2562 4.46819 0.454772 11.1036
files/tasks_parameters/ExAp01/sample12.txt 1.63801 9.70908 5.28286 0.618515 15.1016
files/tasks_parameters/ExAp01/sample2.txt 1.52644 8.14159 5.7401 0.620531 15.1508
files/tasks_parameters/ExAp01/sample44.txt 1.39782 7.25164 5.75904 0.557631 13.615
files/tasks_parameters/ExAp01/sample27.txt 1.3183 8.10944 5.64946 0.564878 13.792
files/tasks_parameters/ExAp01/sample17.txt 1.26915 7.11225 5.46658 0.527183 12.8716
files/tasks_parameters/ExAp01/sample9.txt 1.21337 7.62559 5.37813 0.517277 12.6298
files/tasks_parameters/ExAp01/sample34.txt 1.2448 7.04587 5.93037 0.497709 12.152
files/tasks_parameters/ExAp01/sample40.txt 1.22744 8.03037 5.123 0.502383 12.2661
files/tasks_parameters/ExAp01/sample33.txt 1.63735 9.22935 5.92956 0.659262 16.0964
files/tasks_parameters/ExAp01/sample48.txt 1.16572 8.12182 5.1577 0.452491 11.0479
files/tasks_parameters/ExAp01/sample29.txt 1.55367 8.06133 5.12331 0.650652 15.8862
files/tasks_parameters/ExAp01/sample11.txt 1.35889 7.63104 5.37897 0.563302 13.7535
files/tasks_parameters/ExAp01/sample14.txt 1.13168 6.66403 4.66322 0.471536 11.513
files/tasks_parameters/ExAp01/sample0.txt 1.64433 9.3266 4.98971 0.6311 15.4088
files/tasks_parameters/ExAp01/sample7.txt 1.30111 7.34863 5.19436 0.515527 12.587
files/tasks_parameters/ExAp01/sample23.txt 1.40496 6.68564 5.54308 0.588617 14.3716
files/tasks_parameters/ExAp01/sample13.txt 1.65121 9.31093 5.35591 0.632849 15.4515
files/tasks_parameters/ExAp01/sample22.txt 1.29523 7.65588 5.04866 0.540336 13.1928
files/tasks_parameters/ExAp01/sample25.txt 1.0295 6.17035 5.0141 0.408296 9.96889
files/tasks_parameters/ExAp01/sample36.txt 1.19007 7.03772 4.66274 0.507647 12.3946
files/tasks_parameters/ExAp01/sample46.txt 1.35236 7.73433 4.79934 0.536843 13.1075
files/tasks_parameters/ExAp01/sample31.txt 1.19045 6.96928 5.16482 0.485817 11.8616
files/tasks_parameters/ExAp01/sample37.txt 1.63237 9.52443 5.74224 0.65799 16.0654
files/tasks_parameters/ExAp01/sample16.txt 1.4382 8.63521 4.97261 0.516328 12.6066
files/tasks_parameters/ExAp01/sample10.txt 1.39877 7.28353 6.16876 0.615651 15.0316
files/tasks_parameters/ExAp01/sample39.txt 1.14417 6.3405 4.6137 0.468873 11.4479
files/tasks_parameters/ExAp01/sample19.txt 1.62918 8.85528 5.22306 0.622152 15.1904
files/tasks_parameters/ExAp01/sample20.txt 1.39409 8.1141 5.21177 0.586994 14.3319
files/tasks_parameters/ExAp01/sample43.txt 1.30697 7.21373 5.6367 0.53748 13.123
files/tasks_parameters/ExAp01/sample32.txt 1.60273 8.30592 5.38137 0.593918 14.501
files/tasks_parameters/ExAp01/sample45.txt 1.4224 7.94069 4.96323 0.547271 13.3621
files/tasks_parameters/ExAp01/sample26.txt 1.15342 7.57061 4.62637 0.480146 11.7232
files/tasks_parameters/ExAp01/sample5.txt 1.49289 8.0307 5.35681 0.59407 14.5047
files/tasks_parameters/ExAp01/sample21.txt 1.02755 5.87802 4.61744 0.434264 10.6029
files/tasks_parameters/ExAp01/sample38.txt 1.1849 7.66999 4.86632 0.496808 12.13
files/tasks_parameters/ExAp01/sample1.txt 1.18316 7.21312 4.63213 0.486293 11.8733
files/tasks_parameters/ExAp01/sample15.txt 1.28125 8.02273 5.50855 0.531063 12.9663
files/tasks_parameters/ExAp01/sample24.txt 1.38758 8.66348 5.4905 0.548998 13.4042
files/tasks_parameters/ExAp01/sample3.txt 1.18752 7.74268 4.79918 0.477387 11.6558
files/tasks_parameters/ExAp01/sample6.txt 1.50417 8.57133 5.80157 0.633604 15.47
files/tasks_parameters/ExAp01/sample30.txt 1.64654 8.18878 5.90888 0.633576 15.4693
files/tasks_parameters/ExAp01/sample42.txt 1.30673 8.57689 5.67253 0.54426 13.2886
files/tasks_parameters/ExAp01/sample4.txt 1.3481 8.40354 4.57985 0.563519 13.7588
files/tasks_parameters/ExAp01/sample28.txt 1.0744 6.44114 4.96426 0.449721 10.9803
files/tasks_parameters/ExAp01/sample18.txt 1.32639 8.56363 4.60946 0.543766 13.2765
files/tasks_parameters/ExAp01/sample35.txt 1.98138 11.0387 6.34514 0.761377 18.5897
files/tasks_parameters/ExAp01/sample47.txt 1.32345 7.14493 5.22131 0.545046 13.3077
files/tasks_parameters/ExAp01/sample49.txt 1.3056 6.65996 4.80244 0.498533 12.1721
files/tasks_parameters/ExAp01/sample41.txt 1.18983 7.09069 5.35462 0.497129 12.1378
