0.36733957
Task0 63 63 255 
Task1 255 255 255 
Task2 255 31 255 
Task3 127 255 255 
Task4 255 31 15 
Task5 31 15 31 
Task6 7 31 7 
Task7 255 127 127 
Task8 15 3 255 
Task9 255 15 255 
Task10 7 7 255 
Task11 3 7 255 
Task12 31 7 7 
Task13 63 7 15 
Task14 31 3 63 
Task15 127 255 255 
Task16 255 1 7 
Task17 255 3 15 
Task18 63 15 63 
Task19 63 63 31 
Task20 15 255 15 
Task21 15 255 31 
Task22 15 127 127 
Task23 255 31 127 
Task24 255 15 63 
Task25 255 63 63 
Task26 1 31 7 
Task27 15 255 15 
Task28 255 31 1 
Task29 63 1 15 
Task30 31 15 31 
Task31 3 15 255 
Task32 255 15 7 
Task33 63 15 31 
Task34 3 1 255 
Task35 255 255 127 
Task36 127 127 255 
Task37 63 127 7 
Task38 31 3 3 
Task39 63 31 15 
Task40 255 255 127 
Task41 127 31 63 
Task42 63 15 63 
Task43 127 255 7 
Task44 63 63 255 
Task45 31 15 7 
Task46 31 63 31 
Task47 255 3 7 
Task48 15 31 31 
Task49 63 15 3 
Task50 63 7 15 
Task51 31 7 7 
Task52 31 63 255 
Task53 1 15 255 
Task54 15 255 31 
Task55 3 63 15 
Task56 255 31 31 
Task57 255 127 255 
Task58 1 255 3 
Task59 1 31 63 
Task60 255 1 15 
Task61 15 31 7 
Task62 63 3 15 
Task63 127 255 15 
Task64 255 3 255 
Task65 255 3 3 
Task66 15 3 63 
Task67 31 7 255 
Task68 63 63 255 
Task69 1 63 15 
Task70 127 31 1 
Task71 31 15 255 
Task72 63 127 255 
Task73 31 255 15 
Task74 15 31 7 
Task75 127 7 255 
Task76 3 1 255 
Task77 255 15 63 
Task78 255 63 15 
Task79 15 255 15 
Task80 7 63 7 
Task81 31 31 3 
Task82 255 31 63 
Task83 63 127 63 
Task84 1 3 31 
Task85 127 63 127 
Task86 63 31 255 
Task87 127 63 31 
Task88 127 15 7 
Task89 63 7 31 
Task90 31 7 7 
Task91 63 31 7 
Task92 255 31 7 
Task93 63 15 7 
Task94 255 15 255 
Task95 3 31 7 
Task96 3 255 255 
Task97 63 31 63 
Task98 31 3 127 
Task99 15 255 7 
