files/tasks_parameters/ExAp01/sample8.txt 0.83117 3.15778 1.5595 0.203411 7.15125
files/tasks_parameters/ExAp01/sample12.txt 0.787618 3.94962 1.6705 0.207924 7.3099
files/tasks_parameters/ExAp01/sample2.txt 0.765363 3.78275 1.74131 0.200098 7.03476
files/tasks_parameters/ExAp01/sample44.txt 0.728537 3.59825 1.65317 0.200005 7.0315
files/tasks_parameters/ExAp01/sample27.txt 0.746192 3.45743 1.5148 0.182129 6.40302
files/tasks_parameters/ExAp01/sample17.txt 0.586463 2.77299 1.44514 0.14646 5.14903
files/tasks_parameters/ExAp01/sample9.txt 0.686337 2.99933 1.451 0.177444 6.23831
files/tasks_parameters/ExAp01/sample34.txt 0.569604 3.02928 1.58429 0.157984 5.55417
files/tasks_parameters/ExAp01/sample40.txt 0.648521 3.86889 1.52122 0.168379 5.91965
files/tasks_parameters/ExAp01/sample33.txt 0.773562 3.63695 1.71905 0.199765 7.02306
files/tasks_parameters/ExAp01/sample48.txt 0.597523 3.39061 1.49062 0.154728 5.43972
files/tasks_parameters/ExAp01/sample29.txt 0.727816 3.30472 1.38739 0.223868 7.87045
files/tasks_parameters/ExAp01/sample11.txt 0.679775 3.10585 1.41612 0.174079 6.12001
files/tasks_parameters/ExAp01/sample14.txt 0.579584 2.70971 1.43432 0.162214 5.70291
files/tasks_parameters/ExAp01/sample0.txt 0.746527 3.6937 1.5439 0.18367 6.45721
files/tasks_parameters/ExAp01/sample7.txt 0.644325 2.70501 1.42221 0.143463 5.04369
files/tasks_parameters/ExAp01/sample23.txt 0.684554 3.2697 1.57822 0.181448 6.37911
files/tasks_parameters/ExAp01/sample13.txt 0.741729 3.84225 1.67648 0.198247 6.9697
files/tasks_parameters/ExAp01/sample22.txt 0.593312 3.09569 1.56121 0.148796 5.23117
files/tasks_parameters/ExAp01/sample25.txt 0.509276 2.73966 1.5007 0.148149 5.2084
files/tasks_parameters/ExAp01/sample36.txt 0.504797 2.85948 1.28553 0.130042 4.57185
files/tasks_parameters/ExAp01/sample46.txt 0.76553 3.58643 1.69998 0.210103 7.3865
files/tasks_parameters/ExAp01/sample31.txt 0.610795 3.4832 1.53782 0.1722 6.05397
files/tasks_parameters/ExAp01/sample37.txt 0.705906 3.95293 1.50705 0.171701 6.03643
files/tasks_parameters/ExAp01/sample16.txt 0.649548 3.31216 1.30115 0.150249 5.28225
files/tasks_parameters/ExAp01/sample10.txt 0.684292 3.17098 1.61789 0.153776 5.40626
files/tasks_parameters/ExAp01/sample39.txt 0.649492 3.26617 1.44406 0.165669 5.82435
files/tasks_parameters/ExAp01/sample19.txt 0.846866 3.63532 1.52509 0.196094 6.89402
files/tasks_parameters/ExAp01/sample20.txt 0.515927 3.20793 1.25367 0.147335 5.17981
files/tasks_parameters/ExAp01/sample43.txt 0.634287 3.11551 1.4202 0.150644 5.29615
files/tasks_parameters/ExAp01/sample32.txt 0.60595 3.5311 1.42482 0.168744 5.93248
files/tasks_parameters/ExAp01/sample45.txt 0.774784 3.80283 1.48324 0.19807 6.96349
files/tasks_parameters/ExAp01/sample26.txt 0.659667 3.21645 1.29701 0.166061 5.83815
files/tasks_parameters/ExAp01/sample5.txt 0.743454 3.5889 1.52559 0.178903 6.28964
files/tasks_parameters/ExAp01/sample21.txt 0.779382 2.75242 1.55936 0.19512 6.85977
files/tasks_parameters/ExAp01/sample38.txt 0.639686 3.31563 1.37515 0.166157 5.84151
files/tasks_parameters/ExAp01/sample1.txt 0.854785 3.74964 1.51696 0.19701 6.92619
files/tasks_parameters/ExAp01/sample15.txt 0.732526 3.32916 1.48508 0.180707 6.35306
files/tasks_parameters/ExAp01/sample24.txt 0.698262 3.45951 1.59549 0.16529 5.81105
files/tasks_parameters/ExAp01/sample3.txt 0.874552 3.70014 1.70809 0.237107 8.33588
files/tasks_parameters/ExAp01/sample6.txt 0.706826 3.33003 1.58323 0.184714 6.49393
files/tasks_parameters/ExAp01/sample30.txt 0.91199 4.1841 1.4861 0.239623 8.42434
files/tasks_parameters/ExAp01/sample42.txt 0.727281 3.43221 1.70276 0.177383 6.23618
files/tasks_parameters/ExAp01/sample4.txt 0.763171 3.72477 1.6136 0.196448 6.90645
files/tasks_parameters/ExAp01/sample28.txt 0.630465 3.11323 1.45032 0.158819 5.58354
files/tasks_parameters/ExAp01/sample18.txt 0.658865 3.47418 1.45209 0.149064 5.24058
files/tasks_parameters/ExAp01/sample35.txt 0.71531 4.57086 1.49394 0.185031 6.50505
files/tasks_parameters/ExAp01/sample47.txt 0.639033 3.13768 1.52397 0.16417 5.77167
files/tasks_parameters/ExAp01/sample49.txt 0.614491 3.13288 1.49657 0.156154 5.48985
files/tasks_parameters/ExAp01/sample41.txt 0.570799 2.81964 1.49636 0.150876 5.30429
