files/tasks_parameters/ExAp01/sample8.txt 1.75297 6.77015 2.19458 0.288816 5.0309
files/tasks_parameters/ExAp01/sample12.txt 2.03008 9.58351 2.46081 0.337498 5.87889
files/tasks_parameters/ExAp01/sample2.txt 1.94573 8.44418 2.50701 0.319127 5.55889
files/tasks_parameters/ExAp01/sample44.txt 1.72891 6.96299 2.23089 0.28229 4.91722
files/tasks_parameters/ExAp01/sample27.txt 1.71543 7.74306 2.16676 0.28602 4.98219
files/tasks_parameters/ExAp01/sample17.txt 1.78272 7.35053 2.25579 0.292348 5.09241
files/tasks_parameters/ExAp01/sample9.txt 1.73326 6.89392 2.21068 0.282399 4.91911
files/tasks_parameters/ExAp01/sample34.txt 1.81034 6.62788 2.3772 0.297742 5.18637
files/tasks_parameters/ExAp01/sample40.txt 1.7325 7.75686 2.17534 0.285619 4.97521
files/tasks_parameters/ExAp01/sample33.txt 2.04056 8.14826 2.6463 0.338073 5.8889
files/tasks_parameters/ExAp01/sample48.txt 1.65052 7.64107 2.14272 0.270011 4.70333
files/tasks_parameters/ExAp01/sample29.txt 1.68521 7.139 1.93769 0.286306 4.98717
files/tasks_parameters/ExAp01/sample11.txt 1.69709 6.88688 2.12981 0.280008 4.87747
files/tasks_parameters/ExAp01/sample14.txt 1.49988 6.11983 1.97599 0.247458 4.31047
files/tasks_parameters/ExAp01/sample0.txt 1.76915 8.2738 2.14256 0.289132 5.03639
files/tasks_parameters/ExAp01/sample7.txt 1.65115 6.87011 2.05821 0.269886 4.70114
files/tasks_parameters/ExAp01/sample23.txt 1.77855 6.52032 2.38087 0.291712 5.08133
files/tasks_parameters/ExAp01/sample13.txt 1.78209 8.73247 2.33415 0.295393 5.14545
files/tasks_parameters/ExAp01/sample22.txt 1.74701 6.9777 2.28948 0.283979 4.94664
files/tasks_parameters/ExAp01/sample25.txt 1.60761 6.23444 2.2122 0.267298 4.65606
files/tasks_parameters/ExAp01/sample36.txt 1.55238 6.6174 1.9458 0.253823 4.42134
files/tasks_parameters/ExAp01/sample46.txt 1.98889 7.42369 2.49128 0.327273 5.70077
files/tasks_parameters/ExAp01/sample31.txt 1.55508 7.22028 2.13584 0.25377 4.42042
files/tasks_parameters/ExAp01/sample37.txt 1.79701 8.90704 2.16981 0.295708 5.15095
files/tasks_parameters/ExAp01/sample16.txt 1.48936 8.18243 1.88294 0.24945 4.34517
files/tasks_parameters/ExAp01/sample10.txt 1.74536 6.96646 2.31217 0.285748 4.97745
files/tasks_parameters/ExAp01/sample39.txt 1.53337 6.4161 1.97266 0.251967 4.38901
files/tasks_parameters/ExAp01/sample19.txt 1.86622 8.16711 2.23199 0.308463 5.37312
files/tasks_parameters/ExAp01/sample20.txt 1.58838 7.28549 1.88944 0.25994 4.5279
files/tasks_parameters/ExAp01/sample43.txt 1.55996 6.86804 2.00142 0.25616 4.46206
files/tasks_parameters/ExAp01/sample32.txt 1.72627 8.15663 2.12995 0.281726 4.9074
files/tasks_parameters/ExAp01/sample45.txt 1.69892 7.75184 2.10599 0.274935 4.7891
files/tasks_parameters/ExAp01/sample26.txt 1.61679 7.4944 1.88956 0.267248 4.6552
files/tasks_parameters/ExAp01/sample5.txt 1.73308 8.08362 2.09961 0.28454 4.95641
files/tasks_parameters/ExAp01/sample21.txt 1.59891 6.11814 2.17119 0.26143 4.55385
files/tasks_parameters/ExAp01/sample38.txt 1.59581 7.761 1.96293 0.263659 4.59268
files/tasks_parameters/ExAp01/sample1.txt 1.73053 7.83752 2.13261 0.289228 5.03807
files/tasks_parameters/ExAp01/sample15.txt 1.73123 7.37971 2.12057 0.285825 4.9788
files/tasks_parameters/ExAp01/sample24.txt 1.79271 8.28531 2.25272 0.296628 5.16698
files/tasks_parameters/ExAp01/sample3.txt 1.83391 7.33359 2.39135 0.305084 5.31427
files/tasks_parameters/ExAp01/sample6.txt 1.70157 7.09894 2.24425 0.281804 4.90876
files/tasks_parameters/ExAp01/sample30.txt 1.8148 8.17669 2.03701 0.299204 5.21185
files/tasks_parameters/ExAp01/sample42.txt 1.82875 7.70416 2.42413 0.29743 5.18094
files/tasks_parameters/ExAp01/sample4.txt 1.87546 7.41691 2.36261 0.307803 5.36162
files/tasks_parameters/ExAp01/sample28.txt 1.63919 7.0562 2.07657 0.266428 4.64091
files/tasks_parameters/ExAp01/sample18.txt 1.63156 7.60139 2.1377 0.268016 4.66858
files/tasks_parameters/ExAp01/sample35.txt 1.9777 9.66795 2.28028 0.32244 5.61658
files/tasks_parameters/ExAp01/sample47.txt 1.50894 6.84842 2.12104 0.251655 4.38358
files/tasks_parameters/ExAp01/sample49.txt 1.55626 7.1497 2.11412 0.255889 4.45734
files/tasks_parameters/ExAp01/sample41.txt 1.60826 6.59911 2.07359 0.265885 4.63146
