1 13
1 19
2 12
2 13
2 21
3 17
3 18
3 19
4 15
4 16
4 20
5 20
6 18
6 20
7 20
7 22
7 23
8 14
8 17
8 18
8 23
9 19
9 20
9 21
9 22
10 14
10 19
10 21
10 22
10 23
11 13
11 14
11 16
12 28
13 25
14 25
15 25
15 26
15 27
16 25
17 26
17 28
18 27
18 28
21 24
22 27
22 28
23 27
24 33
24 34
24 37
24 38
25 32
25 39
26 29
26 30
26 32
26 35
26 39
27 31
27 36
27 37
28 31
28 36
29 45
29 47
30 44
31 42
31 44
32 40
32 47
32 48
33 44
33 47
33 48
34 40
34 43
34 48
35 44
35 45
36 41
36 43
36 45
36 47
36 48
37 45
37 46
40 49
40 54
40 57
41 49
41 56
41 60
42 49
42 55
43 49
43 50
43 55
43 59
44 51
44 52
44 53
44 56
45 51
45 56
46 58
47 52
47 53
47 57
47 58
48 50
48 51
48 57
48 58
49 65
51 62
51 65
53 61
53 66
54 61
54 62
54 66
55 61
55 64
55 66
56 61
56 62
56 66
58 63
59 65
60 61
60 64
61 72
62 68
62 69
62 70
63 71
63 73
64 69
65 67
65 73
67 74
67 75
67 78
68 75
68 75
68 80
69 76
69 77
69 80
70 78
70 81
72 79
73 80
74 83
74 85
75 83
75 86
79 82
79 85
79 86
80 83
81 84
82 87
82 91
82 92
82 93
82 96
83 89
83 90
83 93
83 96
83 97
84 95
85 91
85 94
86 88
86 90
86 92
86 97
86 98
88 99
89 99
90 99
