0 9
0 16
0 19
1 12
1 13
1 19
2 13
2 14
3 16
3 19
4 8
4 9
4 10
4 14
5 8
5 15
5 16
5 18
6 9
6 10
6 12
6 15
6 17
6 18
6 20
7 11
7 12
7 14
7 20
9 22
9 25
9 26
9 27
9 28
9 29
10 30
11 28
11 30
12 23
12 24
12 28
12 29
12 30
13 23
13 27
14 24
14 26
17 29
18 23
18 30
19 22
19 24
19 28
19 29
20 21
20 22
20 23
20 25
20 29
21 31
21 34
21 36
22 35
22 36
22 37
23 37
24 37
25 34
25 36
25 38
26 33
26 34
26 35
26 38
27 31
27 33
27 38
28 32
28 35
29 33
30 31
30 32
31 41
31 42
31 47
31 48
32 39
32 41
32 47
33 41
33 43
34 43
34 44
35 39
35 45
36 39
36 42
36 43
36 46
36 49
37 40
37 41
37 48
38 47
39 50
39 53
39 61
40 58
40 61
41 52
42 51
42 54
43 54
43 59
43 60
44 50
45 54
45 56
45 60
45 61
46 50
46 52
46 54
47 50
47 51
47 55
48 54
48 57
50 65
50 67
51 65
52 62
52 64
53 67
55 65
55 67
57 63
57 65
58 67
59 63
59 66
60 63
62 69
62 71
62 73
62 76
63 71
63 72
63 74
64 68
64 70
64 72
64 74
64 76
65 70
65 75
67 69
67 70
68 81
68 86
69 77
69 87
69 88
70 83
70 85
70 87
71 82
71 84
71 89
72 79
72 80
73 79
73 82
73 83
73 84
73 85
73 86
73 88
74 82
74 87
75 78
75 84
75 87
76 80
77 92
77 93
80 90
81 90
81 94
82 90
82 92
82 93
82 94
85 90
86 90
86 91
88 94
90 95
90 97
90 98
91 95
93 96
93 99
94 98
