0 12
0 15
0 17
1 7
1 9
1 15
1 16
1 17
2 11
3 8
3 11
3 14
3 19
4 7
4 11
4 13
4 14
4 19
5 7
5 10
5 17
5 18
5 19
5 20
6 10
6 10
6 12
6 14
7 23
7 24
7 25
7 29
7 30
8 25
8 27
8 29
8 30
8 30
8 32
9 21
9 23
9 25
9 27
9 29
9 30
10 21
10 29
11 25
11 26
11 30
11 31
11 32
12 21
12 30
14 23
14 25
14 26
14 28
14 31
15 21
15 22
15 26
16 24
16 31
18 23
18 26
18 27
18 31
18 32
19 29
20 22
21 39
21 41
22 39
22 41
22 42
23 34
23 35
23 38
23 42
24 34
24 39
24 45
25 39
25 42
26 33
26 34
26 35
27 35
27 38
27 40
27 41
27 42
27 44
28 33
28 41
28 44
29 36
29 43
29 45
30 42
30 45
31 34
31 37
31 45
32 33
32 34
32 37
32 38
32 39
32 44
32 45
33 46
34 50
34 52
34 53
35 48
35 49
35 52
35 53
36 48
36 49
37 48
37 51
38 47
39 47
39 49
40 49
40 53
41 49
42 48
42 50
43 47
43 48
43 50
43 53
45 48
45 50
45 53
46 54
46 57
46 59
46 65
47 56
47 59
48 58
48 60
48 62
49 58
49 60
50 56
51 55
51 56
51 57
51 60
51 61
51 63
52 58
52 61
52 65
52 66
53 61
53 63
53 64
54 69
55 70
56 72
57 69
57 70
58 70
59 68
59 70
61 67
62 72
63 69
64 68
64 69
64 70
65 69
66 69
66 71
67 76
67 82
67 83
68 73
68 76
68 78
68 79
69 75
69 76
69 78
69 80
69 81
70 75
70 77
70 79
70 81
71 73
71 74
71 83
72 73
72 80
72 81
72 82
73 85
73 92
73 94
74 90
74 94
75 84
75 89
75 92
75 93
75 94
76 84
76 88
76 89
76 93
77 85
77 88
77 92
77 94
78 88
78 93
79 84
79 85
79 87
79 89
80 85
80 88
80 89
80 91
80 94
81 84
81 86
81 87
81 89
81 92
82 90
83 84
84 99
85 98
86 97
87 96
89 97
90 95
91 99
92 98
92 99
93 95
93 98
93 99
94 97
