0 11
0 13
1 11
1 13
1 14
2 11
2 13
3 12
3 14
4 11
4 14
4 15
4 16
5 12
5 15
6 13
7 11
7 17
8 16
9 12
9 15
9 16
9 18
10 15
10 16
11 20
11 22
11 25
11 26
12 24
13 21
13 22
13 25
13 27
13 30
14 22
14 22
14 25
14 26
14 27
14 28
14 29
15 19
15 21
15 24
16 28
18 19
18 23
18 25
18 27
18 28
19 33
19 38
19 39
19 41
20 32
20 35
20 42
20 44
21 32
22 43
23 34
23 36
24 32
24 34
24 41
25 33
25 34
25 36
25 37
25 44
26 37
26 44
27 33
27 39
28 31
28 34
28 36
28 42
29 35
29 39
29 40
29 41
30 36
30 38
31 45
31 56
32 45
32 49
32 51
33 45
33 48
33 52
33 54
34 47
34 58
35 45
35 57
36 46
36 47
36 50
36 51
36 52
36 57
37 47
37 51
37 52
37 55
38 47
38 51
38 56
39 49
39 51
39 54
40 48
41 45
41 48
41 58
42 46
42 50
42 58
43 48
44 47
44 49
44 50
44 53
45 66
45 71
45 72
46 59
46 65
46 72
47 61
47 62
47 64
47 70
47 71
48 62
48 64
48 70
49 59
49 67
49 70
49 72
50 60
50 61
50 62
50 67
50 70
50 72
51 61
51 65
51 66
51 67
51 69
52 59
52 66
52 67
52 69
52 69
52 72
53 66
53 67
53 69
53 70
53 71
54 59
54 61
54 62
54 66
54 68
54 70
54 72
55 61
55 64
56 60
56 62
56 69
57 65
57 68
58 61
58 63
59 77
60 82
61 73
61 78
61 80
62 79
62 80
62 84
62 85
62 86
63 76
63 79
63 81
63 84
64 80
64 85
65 75
65 83
65 86
66 75
66 86
67 78
67 82
67 86
68 74
69 78
69 79
69 81
69 83
70 73
70 84
71 82
71 86
72 80
73 90
74 88
74 89
74 90
74 92
75 88
76 88
77 90
78 87
78 90
78 92
79 89
79 91
80 89
80 90
81 88
81 92
82 92
82 92
83 89
84 91
85 87
85 88
85 89
86 91
87 93
88 95
88 97
89 93
89 96
89 97
90 94
90 95
92 97
93 98
93 99
96 99
