0 12
0 14
0 15
1 12
2 13
2 15
3 13
3 16
5 13
5 15
8 14
8 15
9 12
9 13
10 12
10 14
12 17
12 19
13 18
13 24
13 25
13 27
14 20
14 25
14 26
15 17
15 22
15 23
15 24
15 27
16 19
16 21
16 22
16 23
17 28
17 30
18 29
18 30
18 34
19 30
19 31
20 33
20 35
21 29
21 34
22 29
22 31
22 32
22 33
23 29
23 33
24 31
24 35
25 31
25 35
26 30
27 28
27 35
28 42
28 44
28 49
29 37
29 43
29 44
30 40
30 45
30 48
31 36
31 39
32 36
32 38
32 40
32 45
32 46
32 47
33 36
33 37
33 41
33 45
33 47
33 48
34 37
34 46
34 48
35 39
35 44
36 50
36 54
37 50
37 51
38 50
38 52
38 54
39 50
39 51
39 52
39 54
40 51
40 52
40 54
41 50
41 51
42 53
46 51
46 52
47 54
48 52
50 62
51 55
52 57
53 56
53 58
53 59
53 60
53 61
54 55
54 56
54 59
55 63
55 66
55 67
55 70
55 71
55 72
56 74
57 74
57 76
58 63
58 68
58 70
59 65
59 67
59 68
59 71
59 75
60 65
60 70
60 72
60 73
60 76
61 64
61 65
61 72
61 73
62 65
62 66
62 69
62 71
62 75
63 82
63 87
63 88
64 77
64 82
64 87
64 88
65 87
66 84
67 83
67 84
68 77
68 87
69 77
69 78
69 80
69 88
70 79
71 77
72 77
72 79
72 81
72 85
73 84
73 86
74 86
75 81
75 82
75 86
75 88
76 82
76 88
77 90
77 92
77 94
78 93
78 94
79 90
79 91
80 90
81 92
81 94
82 89
83 91
83 92
84 89
84 91
84 93
87 90
87 94
88 92
88 93
88 94
89 98
90 99
91 95
91 96
91 99
93 96
94 97
94 98
