Task0 0.02594116783946869 0.05088815086549354 0.05406456093124814 0.0893267201407135 0.6832392048785592 0.6995892957967027 0.8617203909537596 
Task1 0.02877678005624891 0.1545238320262217 0.09037144447700916 0.06531337739477452 0.6815387532088343 0.3725490199530224 0.7178528061716033 
Task2 0.012220001708719338 0.015241453975860894 0.06811210269894057 0.08251268543820209 0.6729489139612191 0.3723588450883496 0.8579795909667296 
Task3 0.09622603274339905 0.028282794243509067 0.06886753615551043 0.34647959917496096 0.33144086241884874 0.8764013391791734 0.5694933015400025 
Task4 0.07686027251929818 0.4281877036146251 0.12867731396526508 0.34808073198455974 0.5498721672446805 0.970648884590612 0.35882003955785596 
Task5 0.06221247571531121 0.2938018892978827 0.007219780813833437 0.04636437424199244 0.572079890411052 0.6095440976357858 0.6144957719645684 
Task6 0.016516766245993207 0.039729875792695324 0.05829688222654379 0.11222474315509186 0.7635582008159887 0.39086888055002833 0.31518408945556936 
Task7 0.08587879743560718 0.38008620253170244 0.3250521110393096 0.14074687969327937 0.975892291823518 0.374653078313188 0.8856570428433994 
Task8 0.08798598080177691 0.012122299691375396 0.2557069355638846 0.5114096970300304 0.3078210403773341 0.45844360360195135 0.35894179621022904 
Task9 0.1053440354224789 0.2936155049578257 0.2852545277699148 0.1905908305621855 0.6958868897780197 0.9078142728852969 0.9845907653929289 
Task10 0.014447943601138574 0.13092513071911496 0.13836554086187228 0.5332706525887587 0.3093620418511077 0.9511098755313332 0.9357481111383681 
Task11 0.012120922739933182 0.15310694676279682 0.08442088156220252 0.01454836011379045 0.855800498424993 0.41236969302423165 0.7591045376847514 
Task12 0.0008875141799785974 0.03794585522969838 0.02022330350307452 0.03264615294771191 0.6692874399063947 0.8105596162499491 0.9771775203791608 
Task13 0.10487091306706821 0.3350200213227272 0.2905904782417224 0.05216898786252087 0.650414977478319 0.6209906634932134 0.7500450079578946 
Task14 0.045173507902015006 0.10971391900351452 0.13300105677516305 0.08295049964366112 0.3395837787337654 0.8597367885448659 0.360802883875469 
Task15 0.11072846335685242 0.21174954748483596 0.161657582999951 0.18180579922348739 0.8618192574567836 0.4933500056811847 0.9084229469888652 
Task16 0.03309986567555222 0.0380872298183304 0.06481461711952992 0.045060572823271604 0.7432917515907067 0.9505922498376491 0.6401623683063115 
Task17 0.15433556309569973 0.22940099192220884 0.4194913145322183 0.06019374245577431 0.6635203862088997 0.5945056420764039 0.5184516225664162 
Task18 0.05978211611786755 0.2167961552103809 0.18865336902103705 0.04145137997535094 0.6826735285178219 0.9725103819491301 0.5521408257469307 
Task19 0.013175251762922868 0.1347739904467741 0.2876777654599114 0.21019540367407344 0.34733458040265264 0.9479596298766373 0.8353076879968437 
Task20 0.003913618781454893 0.01193221537928838 0.014935757276479148 0.019715481250108753 0.8887457988252827 0.5182849225236577 0.7519574939651605 
Task21 0.01537856564542339 0.09879977518886598 0.0670193605020087 0.10354073333629395 0.8815288128161884 0.6434738514796563 0.36315444222471804 
Task22 0.005053350573565628 0.025256754843563402 0.012776852087139098 0.006221484835127004 0.563888278931648 0.551503119793099 0.31451058491019057 
Task23 0.13242306115273553 0.3372956600437343 0.015985603623953484 0.3915847786951785 0.407417164549563 0.7495935363947761 0.5955374931893263 
Task24 0.17846455119272348 0.25513890294338737 0.31904417578795 0.2210714606099658 0.4318214513770957 0.3247386415371174 0.3212197868239061 
Task25 0.034841435729324 0.04988876573617249 0.1802856035866703 0.3738704470290036 0.6901798808771658 0.42709794865548756 0.8540842231895902 
Task26 0.0046257880652859065 0.028079668625923367 0.01718646368817142 0.019019100513640235 0.5966149487118806 0.850991824853512 0.8988508733218692 
Task27 0.0683864835539954 0.12146826904658448 0.20051921603598097 0.13423842716974627 0.9151340025193677 0.38761091181290125 0.6954024508617243 
Task28 0.04891288176176983 0.1170819116520457 0.06487513547942839 0.13668421413464754 0.619380071665034 0.9339558614978121 0.349223130333116 
Task29 0.023810287383397355 0.04980578433166542 0.2964758094348272 0.09073030562233822 0.9692749143856874 0.723455933406999 0.5119265329512817 
Task30 0.002907574202227227 0.010087095842008287 0.0038785387337070282 0.006929739006755396 0.3236852311283366 0.356824974927429 0.3909022207274816 
Task31 0.0033046018997902435 0.06498000588421045 0.020796220784149888 0.023023886524117576 0.6956749381929266 0.8074540975613322 0.517345215969219 
Task32 0.0090573064269034 0.11411030302248301 0.11628532796291859 0.15722002823648876 0.6757280618834749 0.687279040130145 0.4583056744266345 
Task33 0.000515022660101063 0.05382141968273529 0.033171661890790786 0.03107425517135271 0.5851398850150308 0.9462431857216285 0.7944612705264866 
Task34 0.032928450553439084 0.2197677870046641 0.3447908312098298 0.18351286373222622 0.8446058145584827 0.5162399815865721 0.9627113736172512 
Task35 0.05492103584921184 0.1871396976642711 0.16733048844972542 0.2317136306557079 0.9613542891123616 0.30535263146611524 0.9270809316397257 
Task36 0.016132947344412035 0.04575795259817111 0.032213667252584025 0.060482206301276625 0.5679799982966283 0.9533926487367681 0.528816518604273 
Task37 0.027057116529679483 0.007451791454113266 0.1667769561504341 0.5835838281931226 0.38996668314196614 0.5716128101053495 0.5043729936844231 
Task38 0.038928983237656464 0.09859427869786369 0.44650612760234465 0.04154790239660941 0.6156261481474183 0.9463535180162512 0.8258943739659372 
Task39 0.07299056215758115 0.5342971284172047 0.08680923036152004 0.11495772739266322 0.6023056121479025 0.3269221129008738 0.8195764837367798 
Task40 0.08998000784952297 0.03534039589854167 0.36586563378511056 0.209559502804552 0.9111219399817134 0.402760441953798 0.5976962806476023 
Task41 0.041633897282370824 0.002509642614523365 0.3262983792787462 0.3199152456220635 0.42262345516296507 0.4334670135214536 0.37381477708424793 
Task42 0.07063714500214527 0.03617281155491457 0.12491987104615314 0.1454227308760275 0.9335741583158859 0.546055792419301 0.8627671772361871 
Task43 0.0410304701030419 0.4850240298071447 0.04778878227141098 0.10520076108004847 0.8956873108111392 0.39308958675188815 0.9176692088327194 
Task44 0.1196881252703125 0.34025725120732564 0.09502863640032125 0.3165674071506342 0.6981482093513265 0.4441218124978953 0.7123642186811271 
Task45 0.0035555235449428193 0.009146339042962706 0.006218167551706913 0.0010863884486390322 0.4471456733261785 0.5105401815509475 0.40112034577545724 
Task46 0.02923458835101338 0.010974258594315566 0.06996270961628738 0.054753146754496766 0.8899644389132839 0.992525957903865 0.696064303072303 
Task47 0.01762057063780424 0.388877060840108 0.02644660236596233 0.25746020738124703 0.9913256893138813 0.9992486049903497 0.761249339220825 
Task48 0.04763567966544295 0.11957174875670161 0.09196310888501402 0.07717919927412228 0.4217654023655176 0.4357523867601505 0.8281777455274355 
Task49 0.012678477943595183 0.011591038771296178 0.02389593370167534 0.028516887164820058 0.986881536974437 0.5013302902779856 0.8816691697794137 
Task50 0.025824023891217983 0.03546187240946512 0.08902644635174654 0.06380327974108134 0.7811742344127026 0.6206978121843467 0.34288595752073175 
Task51 0.06745403911318121 0.08884643387154172 0.19980464703521647 0.04883037120787918 0.5616772736759974 0.7908611931861721 0.5192625115965341 
Task52 0.03273029212025098 0.2025721856276873 0.060646573772005816 0.20172572129894617 0.34471005679677624 0.32854002779048547 0.4851405486402808 
Task53 0.0007529161073542464 0.025626550771380683 0.015843756015676915 0.0005436201569943623 0.9308105064210077 0.5224879742910529 0.47494576254117393 
Task54 0.02737167462402372 0.09715807993440626 0.08464733977612889 0.10530704484156198 0.6709004118646311 0.5687196299353778 0.8183604102186435 
Task55 0.022217921564076898 0.3461738310118888 0.23413818775539882 0.2647693003603361 0.8052976393272919 0.5033484014991767 0.7652771126208116 
Task56 0.08342226108641951 0.12258313560261859 0.05559153488506735 0.20229445092463375 0.5452620613730763 0.6569847440137079 0.46840679726799855 
Task57 0.025870239473036048 0.057814330146850904 0.3344879638470019 0.33256693164453477 0.8804910593755373 0.9041685470630638 0.8415439834884366 
Task58 0.1652879935131229 0.3106646279532045 0.16584726320312612 0.23977099153078354 0.8840743055466063 0.38460526435381603 0.9003512855676414 
Task59 0.052031430555355904 0.15433549065222796 0.20250046139872588 0.07316733690464092 0.45519976872706236 0.3721862986073887 0.8105582267836591 
Task60 0.041243045356775844 0.069301630298631 0.15645936026428525 0.031134182189719434 0.7585465520282186 0.4712938303651738 0.7629539574351015 
Task61 0.09881808331252018 0.16161919072171596 0.20799395680696664 0.07057523291430967 0.44937011641277325 0.4110744968438182 0.38982770667997646 
Task62 0.013419900477843263 0.00534601655380799 0.11662535908365955 0.04924204321568233 0.5622042452206865 0.4320879064747619 0.7793202591361665 
Task63 0.009910980261996619 0.03921431411113993 0.03146885695338459 0.023100122721827043 0.8968839196944076 0.9039079947449911 0.6312465169937926 
Task64 0.06177516217635621 0.11986232648444185 0.18644639083981077 0.4880947774285796 0.9139369924890428 0.5941264223169551 0.8770663909040015 
Task65 0.017288625251972355 0.18209367194363257 0.2370177107008424 0.06585345573978288 0.667839428250355 0.7283645959798559 0.5324201775235918 
Task66 0.024421797060088814 0.040675713438909515 0.041198200462529685 0.045733523397700315 0.9431192777040223 0.5450964372415055 0.4241558448325867 
Task67 0.0906873555202748 0.15074965680242838 0.04261316157452569 0.2149403847905449 0.46286451779356236 0.4237084500764493 0.9920579177570419 
Task68 0.0063783951314054935 0.29888847563390775 0.4059681027604954 0.06280835388552404 0.9262843626700323 0.743331025459153 0.5102605168673778 
Task69 0.029997117673416403 0.28919895526116307 0.2606254110369443 0.21062483102198426 0.6728669800437455 0.8496387488167201 0.45990703391864535 
Task70 0.017481769646944697 0.026591945050237473 0.02562175866702917 0.03202586752589952 0.7192006437916113 0.3698821660555384 0.4525861345209882 
Task71 0.11498610810194045 0.26816108336858235 0.16897957112522738 0.3808467300797043 0.503854835124173 0.39061266193057886 0.464480021025945 
Task72 0.01664721804018981 0.05361231241736397 0.1374286787305827 0.47438138075266106 0.4187477568661552 0.5680470669931417 0.9883183331469345 
Task73 0.01693575187199831 0.14598710314903515 0.22242095343047563 0.010456248471846948 0.3083727792849692 0.8344023127707345 0.3123315559384968 
Task74 0.05345449888715938 0.08448238070273198 0.04056657777437101 0.16185464673985692 0.4448521240567733 0.854678416842392 0.5265808421449006 
Task75 0.003446517619844426 0.003891224679929198 0.006054879860142711 0.007769522345360865 0.5541539635920492 0.9043403527866416 0.6392562626243721 
Task76 0.14733304267190467 0.15424864205010547 0.10107983699803097 0.4618772296895847 0.9302193801210683 0.9259985780536388 0.5876842816315984 
Task77 0.03910839342679041 0.09883702666819853 0.04128033163212248 0.12215544096056707 0.8378619520546278 0.9597565464855795 0.762656146912164 
Task78 0.019163726125388247 0.04719869905030004 0.004685524337534878 0.04817631839535638 0.7065617102326093 0.902596872540461 0.3655135824339726 
Task79 0.04656351881534987 0.31833023766439217 0.2242505491975649 0.1368067822206186 0.9510934613886461 0.6921100374438918 0.3652373189871962 
Task80 0.011476952804062105 0.04022271323550731 0.01271625345729686 0.009353689407794949 0.4288722339934813 0.6781983641015622 0.5813311034265817 
Task81 0.0033402426168145775 0.024576118777877756 0.012081156822347797 0.032808874438157595 0.4577999704086523 0.43942842015938877 0.3039360420890407 
Task82 0.018732037134811894 0.03127545048579138 0.040337622699402435 0.06500845272367572 0.7634256741349765 0.5054628171236134 0.7711635135918697 
Task83 0.08765319266621596 0.06879743722366531 0.16138874187719343 0.12185402100933226 0.6792440452211195 0.6618473125515243 0.9299808458236949 
Task84 0.004607523629582053 0.016231727449121536 0.02466853071942866 0.08808154808617746 0.9993040567858851 0.3083115311908431 0.9125765420083836 
Task85 0.005709554972310611 0.0013608670918455663 0.0018183998634610234 0.02001678804494056 0.8444478459911526 0.6760220681662211 0.6780251078415495 
Task86 0.01094988861509429 0.08500816328470338 0.3057991752094056 0.3605071933346563 0.42847587335747905 0.9882324967697569 0.5872528905039145 
Task87 0.012538121813107036 0.01664687874464702 0.027983008725548514 0.04153631338460383 0.40247948608129225 0.4615499849427504 0.76825957308466 
Task88 0.0964858057964851 0.2329801434879817 0.15379791045690788 0.14734310023638655 0.9562610863207963 0.3773336282201085 0.44642908709923546 
Task89 0.0515927425778453 0.18718909350456758 0.3797319239525709 0.359798229049978 0.6533771152066662 0.8026677860405196 0.9868846385758498 
Task90 0.02634943150776607 0.014829322004771769 0.6990044608161716 0.00012529429292797953 0.8800449366907093 0.6593036662544505 0.5195601859486596 
Task91 0.15421083392629592 0.28356753778108185 0.27881025790425773 0.21203237018005636 0.7076402524733865 0.868367983341302 0.49112003534212284 
Task92 0.09596112387501539 0.37399037918496764 0.14484303043537083 0.20220237707488814 0.7061227195895953 0.9534681160577236 0.5499005551457592 
Task93 0.06044100383719449 0.0973480303096325 0.1263299121623971 0.14650962206758328 0.9673687650811784 0.5928760745487565 0.4784553344541504 
Task94 0.02407545092230739 0.04570488728561085 0.04422566005665203 0.007838402758178155 0.447582022678984 0.5247465511454569 0.3042538235898144 
Task95 0.032023627400383475 0.24432099849186378 0.04100174298377922 0.07250804821522608 0.9663144984395071 0.7389180427072765 0.7547357221952857 
Task96 0.13879087817887245 0.27042265764664075 0.2858798487299431 0.19269744342628298 0.936601591394113 0.5581810001589038 0.8996107031481468 
Task97 0.08765575080538243 0.23215908285510253 0.09965669779380124 0.1424178113304154 0.7621995027628401 0.8029906549753256 0.5234970708538927 
Task98 0.05855635990016021 0.330647930313353 0.05032059339210407 0.30517301479736075 0.33887876464569167 0.9915789130640948 0.7293535443056647 
Task99 0.018822548354358013 0.18215188930079468 0.14434266400314905 0.22954805600952338 0.620550947234423 0.4791100583643825 0.9083402451261942 
