Task0 0.003614785326015819 0.04181152058880474 0.1312422551978156 0.042347077400897194 0.972678814861968 0.8961154434343839 0.8883199384670986 
Task1 0.015196306421616951 0.1568028789957709 0.14321948474744886 0.05401307644423693 0.8256558745591698 0.8111739899303712 0.8543201455948946 
Task2 0.010704548570316549 0.014980104299426136 0.03417456299672742 0.004598932084862096 0.9594211236594612 0.6503345918659678 0.6339458062254162 
Task3 0.11706140361081295 0.04085737351549211 0.5825507121608912 0.23272735174846215 0.6607950398083509 0.6153587688682209 0.7723686957632281 
Task4 0.0067104968240768986 0.03290450072282119 0.018516014269997508 0.0019929717452250814 0.35137894052021434 0.303072296771301 0.42252763438878116 
Task5 0.035370140397581205 0.6134786768156544 0.027964565277985385 0.23710306169541748 0.6843735886850497 0.9333999978150389 0.8421093482940705 
Task6 0.03741012558037488 0.10981485586617248 0.11723666510495831 0.10680990882685211 0.6830629684187721 0.5136056476334906 0.6118088439109001 
Task7 0.029040141214212518 0.4248730387054314 0.29303387768382355 0.25191180711122074 0.6375830392236734 0.7030495863554554 0.9476194360004924 
Task8 0.006854273909581443 0.08419880379892447 0.212106665320273 0.13430388015010258 0.6934081503188256 0.7093420329026017 0.747856445873236 
Task9 0.10834349613187688 0.18401211065017156 0.4299109495448839 0.25359927073925886 0.5565490033616909 0.367565760397802 0.5614349751302654 
Task10 0.01043056533188907 0.027762132776006473 0.03408777288666705 0.02348969325649486 0.4545798207108993 0.776158118090309 0.702530027743064 
Task11 0.026948230548102765 0.006029534456707614 0.07884042728795583 0.11710193233200643 0.4658234317001496 0.43184153072017106 0.3699326774248903 
Task12 0.0156071300413148 0.41460302896212703 0.364372945714639 0.1598662325300424 0.4343753203588259 0.5469887505536726 0.5443171032608822 
Task13 0.06952242392410302 0.1941885544614186 0.32880036512187355 0.11533560920122458 0.7900899129134128 0.5023525416933752 0.7482478569168279 
Task14 0.12968185915127312 0.023852935942272287 0.33125728637103985 0.31884176057762237 0.7615748185435136 0.36409125167137296 0.3005421933991626 
Task15 0.025519736784377217 0.23208419706837655 0.05679041203043751 0.22358128937666055 0.8651537663488391 0.9790144412854269 0.5651628529966137 
Task16 0.12343638427775963 0.0015114351116751466 0.19070718027810674 0.3141973370082912 0.9391854912911766 0.5004737234116844 0.3983359269993054 
Task17 0.07522140029788862 0.3326960375980115 0.1557717392996541 0.13432683077480478 0.6543536409269264 0.6007716550193496 0.537877957763479 
Task18 0.025044005901946473 0.16208670720064133 0.11375343723122072 0.09534678702141375 0.5350892794266265 0.9664868224945486 0.33734191072541514 
Task19 0.06729408503973226 0.20686221145549644 0.07773803324086227 0.10772051704979899 0.8430027039840384 0.7048377754133179 0.9734429705616261 
Task20 0.012323457656262166 0.043268328782675884 0.0007570809991777474 0.015696482749818767 0.45119789633924623 0.7335534708206397 0.8829958454265576 
Task21 0.08373138541162183 0.3820351626418488 0.06403863122364868 0.15022317281167016 0.6159607672900589 0.43530823816863107 0.3664303824240397 
Task22 0.02178519958765904 0.09613287120855245 0.1348185911309899 0.23275384910000527 0.5094294831466954 0.6624106742064007 0.6246561002705027 
Task23 0.001974437988855909 0.07326038842171727 0.03366977682677331 0.05512548418865697 0.7887545773293552 0.7745738894537795 0.3427539507518449 
Task24 0.011344476965017483 0.04723505379169184 0.19800462635469177 0.2236532180989752 0.45486384504849653 0.5534174128160163 0.702450625423926 
Task25 0.03548734996734835 0.07362432143746253 0.06502508148026691 0.08181709822432427 0.9775506717779541 0.9750859829729519 0.9384435592902145 
Task26 0.052588945149995604 0.17867113861016998 0.20385938845293258 0.14864288525057706 0.3685845663846124 0.8986384076298257 0.3018721667926624 
Task27 0.024731894243711573 0.4186911249286456 0.11653410398265285 0.03875247260544076 0.5438194792523198 0.32539471289358 0.9027650497915318 
Task28 0.07285053608076901 0.16611294753634326 0.09884502133840281 0.2355023599884933 0.5965925202922937 0.7702062039567752 0.4472309734140474 
Task29 0.08565821222982253 0.2520663873062916 0.21545683102233038 0.20117079222587428 0.3824915234370674 0.5836770357981851 0.708741867768067 
Task30 0.053314665657870484 0.06643773619291375 0.17969043865182 0.11569768327655232 0.9266420176370285 0.6368168075430459 0.6274892799074416 
Task31 0.035531026428963 0.07299911539215581 0.19922038354969562 0.10413964414319181 0.7305712490125909 0.30000169923875036 0.7977243981028697 
Task32 0.004927492403768596 0.007393666099353548 0.006693530428698688 0.007914935155502748 0.9998507802171122 0.5675088846765173 0.7597330471590236 
Task33 0.046315638294682535 0.24374947506309863 0.008788778301606726 0.19996872571215984 0.9543468560327422 0.5323644030677279 0.582344901629126 
Task34 0.04446086799211191 0.028883820389460798 0.0851841818961525 0.08378315977671479 0.818660707161484 0.7548399164861894 0.8360543612552003 
Task35 0.16665926706824985 0.10601086394313884 0.20036754977731377 0.40900987412880807 0.438529531476674 0.4759137303828419 0.8903585447704578 
Task36 0.024697824216647804 0.023035026460929232 0.07946344216664915 0.11821478354826222 0.5523290364459341 0.638861004850211 0.6841563665337252 
Task37 0.04972825393542553 0.321272599449087 0.022392793432168594 0.33516074939023965 0.5937320809881347 0.3187306903810167 0.5544426582039607 
Task38 0.0006291762047427675 0.10621787546699489 0.34538858509921205 0.2348156792039097 0.8575132809906161 0.48978188450912985 0.630054011799384 
Task39 0.033932964415293004 0.08044780548411745 0.38062424643808507 0.32811493982230666 0.8505976779703721 0.81009546735566 0.9914750469344844 
Task40 0.00617781059694922 0.02231088275159437 0.028106128907615536 0.01018126350030764 0.8292618729024868 0.9403641216832923 0.6589058072221707 
Task41 0.053355207573192974 0.1312138472161036 0.08637257629614127 0.00870461553873242 0.7807950356842964 0.7707272226527073 0.8763374840185578 
Task42 0.0021045316964992426 0.03322616587323292 0.04205496229916469 0.046744364570700685 0.3006506846619661 0.8726567414808533 0.6553609290028557 
Task43 0.00918085956306535 0.033031615639234416 0.04187935317504431 0.011531068274319272 0.8622999242698557 0.6818692516288002 0.4432993243529567 
Task44 0.1178952551354156 0.047729558097396776 0.31447191237582817 0.22350443741239356 0.7812817129133467 0.7713119342918936 0.3061314617678289 
Task45 0.06326469984844671 0.19048808589913074 0.3033415292889015 0.05167211722147257 0.5752784570861781 0.3312082373287781 0.423279871684596 
Task46 0.04243609523693852 0.2241051596063106 0.0041742348922648225 0.05136883600736582 0.3129534383774257 0.867458043743947 0.42929213777602593 
Task47 0.12083658822749728 0.3207329350364282 0.3899378659606813 0.06906887130571543 0.6810515802390167 0.7923734227957835 0.749530618864739 
Task48 0.03803912317160714 0.3674018288832842 0.2989809969228904 0.18431701898420824 0.907547960670475 0.3029931982082192 0.782990627586104 
Task49 0.04906719629348955 0.07148766175784414 0.05542951340523067 0.09821297630622454 0.6293758754597392 0.9073944379957841 0.7314579689481269 
Task50 0.08554441814583047 0.1824950954945295 0.3312634511493658 0.30949694716799037 0.7990287516869247 0.9451825554435878 0.8362217362147395 
Task51 0.0015367140931558869 0.002904487900624901 0.0022257480996738417 0.0011929728984958555 0.8631378912714924 0.854659564623921 0.668959807002666 
Task52 0.07650346447186944 0.22458528874718106 0.30782916769474805 0.09665061415294919 0.6413546347071579 0.8562397448986638 0.5771825352530147 
Task53 0.09685872189566633 0.16858154265903977 0.09491278416483122 0.2121470112589652 0.5300903557180913 0.5172040541299918 0.6639386676559905 
Task54 0.06392082721072771 0.20256291556097916 0.16564497339376122 0.2872899815757442 0.904076539049989 0.6727143242262041 0.31791896070814935 
Task55 0.020245225332738582 0.05739503064332049 0.0292590839699139 0.07838314867771971 0.46113539622347177 0.9924452179182486 0.5728473791405804 
Task56 0.01316851570605937 0.06829077978504093 0.03141235955223402 0.012464908333405259 0.7815326589187613 0.5835463893996583 0.42207088892341926 
Task57 0.001846353095984458 0.04019626146102783 0.1815020157869685 0.3244120331029309 0.3756084526982529 0.707825863015989 0.4589005923968308 
Task58 0.01659178763217197 0.07133506407350938 0.02620877732359062 0.12841445345849414 0.3631369524547582 0.6846099688233274 0.5670203382123307 
Task59 0.005874588792427429 0.010389726328326573 0.005365619809607407 0.022774298296104948 0.715339772766085 0.7272639024928904 0.8750469220809072 
Task60 0.09011934017646882 0.18494660383483408 0.19871741100049922 0.3221255294354994 0.7257705637856372 0.3016010111589264 0.8766487096651494 
Task61 0.06600631856511636 0.33752997144877844 0.05941083652245034 0.052049934377273344 0.5732780273957914 0.7087234863797813 0.32462238109063957 
Task62 0.06410393382485169 0.09058552660314806 0.10111172942656983 0.12390676940460654 0.9366195273349722 0.8395110115187028 0.8373056915979056 
Task63 0.015696611631879964 0.1185229247595682 0.015482411943504077 0.053554724730268635 0.46061091582511343 0.6456809263337495 0.5212879282344637 
Task64 0.0008505789174188782 0.0036190595421708104 0.013640223474654663 0.005676954169389516 0.9887262814936177 0.4423460678064883 0.4684734028098679 
Task65 0.11030549908299203 0.21291219415069557 0.1255857451322154 0.1394784048408728 0.4229135977224645 0.6130298917025897 0.7796077213027937 
Task66 0.008190432802235489 0.05435084112526167 0.06620872836768404 0.08923060710176943 0.8570638446714456 0.8448122788902721 0.6125795883729549 
Task67 0.0037203565727299127 0.013000109498952825 0.03190505071651903 0.02004093167510807 0.41388310284507435 0.9333485888122934 0.7729202096279628 
Task68 0.12299386495063308 0.5107071914390933 0.020701932542550424 0.29275961441590487 0.726030691050952 0.5297499696004401 0.8460082473561568 
Task69 0.01562927652266627 0.10277635331144185 0.018416329130017478 0.11161374446767149 0.5849256852701012 0.8101148694388685 0.6097853855485118 
Task70 0.023914244900619837 0.3292726196142707 0.03761816313653336 0.35551197215835384 0.4830631142764543 0.33389800126742575 0.7530989452068616 
Task71 0.04477285792668802 0.22861620592479914 0.1697706382761525 0.2602664005267243 0.36304345662958815 0.4364213311825782 0.9799856709661656 
Task72 0.09328289378217396 0.08587986178561732 0.35038212843206684 0.3394698196035923 0.7187764016297091 0.4492323503848924 0.7452234563205371 
Task73 0.06317936628683768 0.29664716791648216 0.3217593602489897 0.09424099379796508 0.7108753088667696 0.5613785913891842 0.57994585550739 
Task74 0.008894978912169331 0.06348530019581257 0.03529175508693057 0.013782337321016863 0.3352846893803756 0.9322900525002988 0.7714839359117623 
Task75 0.03383951116769573 0.0998281054669509 0.17667669791296015 0.1584498698651653 0.8952871235984201 0.4983767656582743 0.7283122566052582 
Task76 0.07592542086878132 0.05903416715806333 0.2446363418534417 0.4653439971588077 0.7661467596355666 0.6452034780642734 0.316489143736816 
Task77 0.050444085050327235 0.1002769916549433 0.16089913032826716 0.14957099468349275 0.3221021300174019 0.8319247452850278 0.5489586714060966 
Task78 0.1522614144492453 0.14251505985477247 0.17098217751495692 0.3099113895266161 0.30496418929079666 0.910777882684862 0.559809156108281 
Task79 0.01759759809314908 0.03374632998230343 0.06761197108211195 0.05971376367027297 0.5929013539315338 0.5136194488108472 0.35527848051668376 
Task80 0.03739769158068661 0.12397849664514682 0.0631536184950196 0.12471204497746749 0.5545036618755228 0.6453753283111818 0.5380381835970317 
Task81 0.04455411226349246 0.20921488305228678 0.2147719681041979 0.004727758383672252 0.35561383530699786 0.8404964771147523 0.451161820160629 
Task82 0.03165254066950453 0.43493378796344984 0.11433087055338592 0.0333044781037579 0.7886148910702511 0.6319442016798209 0.4422507876612821 
Task83 0.17233744280682045 0.4248181372753343 0.17903658400719913 0.08947384465171848 0.5578700644771293 0.9131210584356713 0.9528897350019894 
Task84 0.033030855509971396 0.009652429297861285 0.3851452230779804 0.3276676936593938 0.9319513989621024 0.8353498270376061 0.4239913242211871 
Task85 0.04270538880868804 0.22902790979912208 0.2718882837828391 0.13887747404339792 0.6664150941188447 0.5259805445366463 0.5730906639548546 
Task86 0.04725924166493734 0.0065536764600435055 0.020791115054094783 0.23353204566086433 0.5310653820785471 0.45952952091340177 0.985009013963795 
Task87 0.1030485349830917 0.24355195399824145 0.22079409484685592 0.07553664561892155 0.7235601720783302 0.8960841545364648 0.4631848050175533 
Task88 0.06824474240777566 0.10774117773016441 0.10604439683003022 0.118191170927227 0.6022838785539572 0.37945037300168916 0.4381315196514679 
Task89 0.04015075495464024 0.17074293846958805 0.061588025708449914 0.1598910336812982 0.7161458273334902 0.40690412062795445 0.7443830588422357 
Task90 0.025986301546788174 0.09750995122632314 0.02198437295571012 0.04175367788455267 0.9172040775828891 0.40210081239033635 0.8580794844569184 
Task91 0.09734557026206098 0.16537727708747443 0.2665581100586673 0.20609716622782775 0.7698919730078303 0.9761574559051462 0.7294206921868631 
Task92 0.015809877093094116 0.25657571835717913 0.19354886904811625 0.1194567821659908 0.5301443153542911 0.9903824503548821 0.5253464461527279 
Task93 0.01688862317859656 0.04539652033864605 0.00815958206398437 0.03441345055328902 0.5787081645218197 0.4543831108891276 0.8360742429413666 
Task94 0.030060191926112076 0.07400404479802065 0.1415576327263485 0.10176039144556136 0.6469882563886049 0.41958808290894045 0.4608974549676004 
Task95 0.004431896472813276 0.049784374688400995 0.004910713649143852 0.004187261594976212 0.9148522457775705 0.6581296891977525 0.6266544875488389 
Task96 0.039952845058800965 0.07675068317475471 0.10468778627751442 0.17362330826175862 0.8441373108920884 0.4288619694494809 0.6569071850853374 
Task97 0.024094571223385344 0.06241395323794507 0.03008505120030325 0.0519147580771286 0.40997699831191914 0.9503544703488471 0.3692161633148532 
Task98 0.09259620659956204 0.005222118664158528 0.22615660753870948 0.5051096337708899 0.7305172037644073 0.6373190642989952 0.3877322483601519 
Task99 0.049793558885507995 0.09327584132945374 0.09367280793568676 0.31814731350942516 0.5661333435617253 0.6851028390340963 0.8055188959685256 
