Task0 0.09226439441144055 0.20672777250432964 0.06974161184618176 0.21096371075717024 0.4705912998913568 0.9569883114748883 0.3352067129886058 
Task1 0.018600227822805293 0.003547487297009584 0.22122544027223665 0.022025869701986705 0.5221206958751933 0.5906904568746223 0.7695388908574944 
Task2 0.0667235144519065 0.08530363964882728 0.0014468628458831107 0.19466000192327904 0.6888573895293968 0.8612276902752929 0.9956029662751107 
Task3 0.06092778239077297 0.29608945203151904 0.17816798690760915 0.21298919145117973 0.3722317833238431 0.6178611717438459 0.5674509222336542 
Task4 0.10074772404660265 0.0031489669010036155 0.35914798934393033 0.1835496263707712 0.6961219477416283 0.7107237326344057 0.8367074854057464 
Task5 0.09694008749203654 0.3882955402158833 0.05099703981100881 0.22028985779516777 0.5770760043343277 0.8706157700370625 0.8364690880959447 
Task6 0.0016305167538706975 0.06731051478253083 0.014082984857505532 0.01015929739083615 0.9653041388911354 0.514731326008127 0.4957259544614301 
Task7 0.03315230638306857 0.05064034973581412 0.11142668025805633 0.12121589499261198 0.9300678126219135 0.44135589913673257 0.8819231483637209 
Task8 0.017808404748167816 0.04052587783397756 0.07105034393890483 0.09940760852858023 0.8230092789174888 0.6621952434675565 0.505140752376994 
Task9 0.08098637469505582 0.10722632201181607 0.03755769799113608 0.29072524104410447 0.961475846232033 0.3873795960897201 0.5346368436172895 
Task10 0.03130802587035442 0.40283035295351943 0.1341895325821392 0.0890979320133919 0.7721412675952136 0.41620689231524965 0.9709354018142147 
Task11 0.0020212580889626673 0.07814081169599466 0.3221119189759562 0.29339390086996153 0.4320845203206821 0.6221159572290875 0.9774904804717695 
Task12 0.08653318930823618 0.1355307431714676 0.15675798487765463 0.2325933923452501 0.4145046307739129 0.5142945649828832 0.363385620599987 
Task13 0.09306699895868843 0.12892349507665612 0.3666524679602398 0.20132292813314118 0.35605239546882667 0.33185507661646957 0.4516722355686944 
Task14 0.14376487684465422 0.1485780812395162 0.058327420193647485 0.40254847902661767 0.5433634746508058 0.9208851374449152 0.5762634177818722 
Task15 0.0038620875381029534 0.052398190655682846 0.2886909964208753 0.4243266399436382 0.6622644448928807 0.9102127850925723 0.9745178441125584 
Task16 0.05062214857376846 0.23500004127367088 0.1661499027336907 0.10158517309671383 0.4278371328167987 0.34800834352007093 0.8293106610384462 
Task17 0.08029424093960627 0.28652265883668004 0.25900436029057466 0.04690997112261434 0.9322087746503309 0.5481217319929996 0.8745381353065433 
Task18 0.0028111439429072383 0.23379985016527513 0.0778311052308111 0.12106795365917496 0.8462074945142259 0.347613674081657 0.6145232565831289 
Task19 0.1358529816992213 0.3520966374260764 0.19496177182694005 0.013238049075134607 0.5194714784804135 0.4480639985067646 0.7901694130424641 
Task20 0.04781676675275821 0.06154863671882363 0.2793746140552915 0.3691017874184073 0.805473820011738 0.6159231952063389 0.990497704470098 
Task21 0.002595241298450568 0.04196981597954169 0.03454518442217678 0.05052783662463619 0.5984925155418699 0.958257495579337 0.9694171984863842 
Task22 0.015492369180065208 0.23223107758589265 0.33882166840657363 0.1878916313006741 0.9504001171002405 0.3410927092229691 0.963786788104356 
Task23 0.11179968503533634 0.2955151118777882 0.09900371175641744 0.22126435112889623 0.6262758848833676 0.540388437446171 0.81880179333896 
Task24 0.03350224639816962 0.019337915582804076 0.04539531552534088 0.08491817140911573 0.7450689001391172 0.4993620696838885 0.8727704865786663 
Task25 0.15317381870270158 0.24386345361487544 0.23036991655133365 0.18695994611109212 0.5161389425574885 0.40095281618302275 0.6621400143036443 
Task26 0.048892956657804805 0.29229118599857 0.038813920194265036 0.21785198799284616 0.6417622336380884 0.8398629690651374 0.31544812523819443 
Task27 0.028107447906703237 0.11378293775501226 0.1445972975990955 0.09714017532872081 0.8145830854644238 0.9672770638869328 0.6696323656624115 
Task28 0.07478213498680082 0.4339384925078537 0.01956768173455378 0.25849632208444695 0.3460731647900461 0.764729460719926 0.6095472663226009 
Task29 0.01854629161543857 0.06928038708587679 0.49395597162609167 0.09865053198754883 0.696273080313091 0.9396992210143362 0.8034913127272307 
Task30 0.10443867505756053 0.33182882028905836 0.25922188255566425 0.09425770287262587 0.9944329715643843 0.9230729869290153 0.6019212457278108 
Task31 0.015982234938541992 0.17330193611656733 0.2386067905127105 0.03472812247974449 0.8578804793771 0.9220585270896411 0.3716794099957338 
Task32 0.09560191166133646 0.1107007779411684 0.5275642504978391 0.0778334721125035 0.6840609384767187 0.836146491531436 0.3739327781572379 
Task33 0.11530363023101681 0.25974627194461297 0.12073886577469113 0.39691125033952757 0.4365085189794441 0.686715272312439 0.3388892088619625 
Task34 0.10878165099301383 0.052322014386572926 0.33917002932921675 0.09586011312266551 0.5941942585951514 0.748133777865027 0.6259356163900784 
Task35 0.016724507039408726 0.002781995886564041 0.3777908392461513 0.17030894912424482 0.35100285637408896 0.48800868848095513 0.4926288772718582 
Task36 0.024756458430082402 0.049179795892894215 0.022640980003688926 0.05544646947274568 0.3226056304114086 0.6647807458525323 0.5357009870574594 
Task37 0.14982182695615337 0.3731959127013278 0.14679492549805565 0.23098446920896398 0.8139367918189291 0.4716495918753485 0.6608587629865814 
Task38 0.0005070419378923382 0.018841855056603286 0.0326974066154234 0.0187009089286726 0.42522068074226116 0.7679744414191776 0.896161743135385 
Task39 0.09562238146667346 0.08002791619529846 0.16871849402060057 0.20390137390334412 0.34816339802526 0.7728093184554397 0.9823906320270297 
Task40 0.08521416793084419 0.2955412196344704 0.1284991267472186 0.08508519077969734 0.9469719693598613 0.32258076537471725 0.6261259346040838 
Task41 0.049002867676752535 0.1718105929250627 0.25998286006844457 0.0654636029358007 0.8117720976102492 0.4117447957862041 0.36998246388780576 
Task42 0.032211460274917725 0.18966483838465475 0.7060288073923406 0.0552291086857008 0.48869687786750343 0.4611911109793513 0.8646797853342312 
Task43 0.00421172494546269 0.03180223411184809 0.027957936955182127 0.029964692323602944 0.33769995604310393 0.38972149600121436 0.669353521170007 
Task44 0.01188613417839703 0.114887381582926 0.08054679916133624 0.02120679172287739 0.5976850317671806 0.5691024767095372 0.865593394561075 
Task45 0.10563612834891462 0.22416020123453592 0.11678098276488912 0.16395287237909506 0.9894603119427188 0.4053291277446956 0.845941100548981 
Task46 0.04843263461846662 0.0857966861730322 0.14496391434414432 0.11865078125386606 0.3576618408905387 0.529925008176364 0.40727947238551465 
Task47 0.052522346488682786 0.220787407309405 0.09336454979202372 0.07000752310795026 0.46339369703783284 0.6625887212387884 0.34694360833011595 
Task48 0.0005567019737631435 0.13795527946666583 0.0796213393858791 0.13172186657601476 0.607093416619056 0.7128540996879758 0.6707060894316191 
Task49 0.11684007469049483 0.3686449912939373 0.2644182110335679 0.05891875453023428 0.3982283885096064 0.9655046873875401 0.5497376497433268 
Task50 0.0003059278779005226 0.014531180210685116 0.004826071197718056 0.00723607154704951 0.7020422121229674 0.7911022804503158 0.5951352343939085 
Task51 0.04327649670333499 0.18188912686303083 0.18538203087406546 0.09156137985512475 0.9990063923738763 0.5461147984362522 0.7232998072158756 
Task52 0.012752806613592913 0.05428497288644071 0.09714434046295094 0.00386031309333548 0.5561100016043898 0.5269072389444994 0.6155710397039595 
Task53 0.04277636312458017 0.07746405733674325 0.10987874500128668 0.03524966196693328 0.855873489974385 0.7058012661593688 0.5042843953516917 
Task54 0.005973754638356868 0.06523160357718003 0.0167409617169873 0.15749949248457187 0.7760855136598221 0.8504026095702848 0.9535147047060464 
Task55 0.019470691433506476 0.04432915014966885 0.06345813344020619 0.17993193730430795 0.5942185623607622 0.9102235285628075 0.37191195987414427 
Task56 0.021458583578770545 0.11731343857818272 0.062085293263962095 0.4415769401972921 0.6937347228553783 0.352839436654344 0.5272808683572905 
Task57 0.04636665839319087 0.15982018673130458 0.6057297483171188 0.009844910212483916 0.46797316509929276 0.7482130374749221 0.6655225309119251 
Task58 0.007623246215407567 0.03832216043639479 0.04702432008665554 0.023969973296379437 0.5925881538542088 0.46028885874004016 0.9787722825776033 
Task59 0.022470825842801096 0.5186602669060186 0.4160392969272569 0.04272177933145037 0.4537933703448537 0.726847471821888 0.9022793393810908 
Task60 0.022586451214049383 0.2827755193963739 0.04966935966073462 0.5107468031322634 0.8854684552220768 0.5391775118367946 0.3764183743537073 
Task61 0.02865628880212673 0.1372338021682516 0.30777985926289353 0.48446341518690506 0.509331864101898 0.601046067604627 0.8167515176735614 
Task62 0.014157456449557498 0.023517118772989447 0.24868116030871468 0.24270450769799815 0.476703866716126 0.637544354125901 0.7140585140993512 
Task63 0.007319292876759268 0.016788465962494 0.032173820072733075 0.02768272615416526 0.7881887229658524 0.3577018129129577 0.5333456620567064 
Task64 0.011289348538902396 0.13228293259608867 0.14333302509597737 0.11843888213806525 0.3613140630356321 0.5224244335785834 0.6975352569128572 
Task65 0.06465680332628239 0.17488008137997307 0.053959932922818754 0.03794139891884387 0.9622462406587764 0.9555352198412943 0.7776351775311259 
Task66 0.012354010060266759 0.2801159197298069 0.24432198092747123 0.06547991872553059 0.9032224642054565 0.8052545725899114 0.8268211399052348 
Task67 0.12760917597747 0.46003605511120804 0.22481074687501987 0.11653317434643658 0.5012669852964533 0.8845117583686795 0.5557497813892194 
Task68 0.021264107542127417 0.21755719928786302 0.24081669757065385 0.14570490807041134 0.6927656030355873 0.33342295910940795 0.7499102480867536 
Task69 0.021843644198015683 0.0427997045991158 0.12819972834726512 0.14223936731888492 0.8783318530245223 0.8652335818335741 0.3281634614022214 
Task70 0.019635803969633308 0.10212557845058165 0.14920283969558895 0.005116848382689213 0.46906241098822116 0.9798098035050793 0.7371780280024307 
Task71 0.07635417676307685 0.3280103969223919 0.06312191726707067 0.2295658477937701 0.953320796385096 0.9304146180892365 0.30116503122134236 
Task72 0.11282803960663848 0.0967948475112283 0.33910275719769467 0.3489421524697529 0.6225325845379224 0.5433442535397907 0.714743054232583 
Task73 0.03377171423627718 0.021348532587702748 0.35090963554016424 0.3211248954551389 0.6375856332748224 0.8587536822488631 0.40902486005845756 
Task74 0.00031418475198449346 0.021100740447324566 0.03368799519945445 0.0537889564245756 0.43809678984154554 0.48717041724921706 0.9148534613727335 
Task75 0.00199390191797173 0.18520781597056565 0.3073324520214932 0.01832214774834447 0.7814939830326169 0.920301957279156 0.9804446177170454 
Task76 0.019576623587779386 0.04453555408728779 0.04261835302047781 0.00669338638356027 0.6203877733487186 0.8455862169759452 0.6562699671093402 
Task77 0.03248711277556416 0.13146831781768084 0.24397342582750464 0.5294295759004997 0.885008999852603 0.7102549014409909 0.3853654098595797 
Task78 0.02139062827509444 0.15514236957698943 0.09276578458767085 0.1119465537566512 0.7974110814611333 0.7204126014562227 0.6064562300064615 
Task79 0.039250176775614556 0.21447628268303096 0.04074278093071009 0.18784923875800233 0.5062760603396268 0.7552010891946555 0.6303323393915404 
Task80 0.021137645620891713 0.047772085919150914 0.12613582704335918 0.22329051397931968 0.7176638672910947 0.4395561552638811 0.7147683229431375 
Task81 0.04261698577088906 0.08539227445745187 0.20615233170599256 0.13652715502743332 0.9508746625027227 0.7772899965286475 0.7956814481385514 
Task82 0.09760787021342399 0.15887350423471863 0.21856949718250276 0.048465354636668026 0.5226451927017582 0.3689254289175997 0.6961359806991121 
Task83 0.02708458418111535 0.5237481519823495 0.049539595255846905 0.2970605913719233 0.8074896912808154 0.49159601353971505 0.32377938722305294 
Task84 0.10954196855003479 0.11862058724170141 0.12982657693171498 0.21562347073684177 0.5751622505568805 0.3526540926947783 0.9268411427601164 
Task85 0.0046717525292522865 0.14851015234545206 0.25078453444356674 0.13272917684040475 0.9088921599514892 0.7615220281223427 0.47415214611800804 
Task86 0.018970984222833207 0.03990407631361803 0.015832047837882546 0.05022400132056807 0.8200958603917508 0.4917545696104928 0.7002786381090389 
Task87 0.08018201621452194 0.02163629401208735 0.17894802446986371 0.5979432595174166 0.47194456290715514 0.4994315695616497 0.7924431741152465 
Task88 0.005862813666421607 0.13623808976903398 0.01875494942971384 0.127850068056414 0.38530047328965683 0.5303443484151333 0.635068658486815 
Task89 0.027111136591409467 0.00892412658558394 0.0005181953929552742 0.1180528716794837 0.9211985191069116 0.8607529323294771 0.7306813276807262 
Task90 0.02391480454378411 0.19462861218621452 0.2602832129300048 0.034051178119734536 0.4129791535369849 0.9669425092111312 0.9063312698249724 
Task91 0.01596246715747469 0.20461284572665475 0.14090493323085612 0.163163683632669 0.5826220917999114 0.7714320036466755 0.7720272983466101 
Task92 0.0310513319677563 0.04604727284032337 0.1578320895055629 0.13231889865872062 0.6164368083758038 0.9021288814729318 0.9983268398037519 
Task93 0.16182628087867781 0.003027685828595637 0.09962417385198401 0.553808224879367 0.9264092394601717 0.578979056501557 0.8857783933136092 
Task94 0.041586212231440475 0.17489360846937 0.1524344407326504 0.02451925397811028 0.7383234274051155 0.509833650954646 0.7341253905074003 
Task95 0.06484710316864187 0.33005952080782286 0.31319753146833323 0.18566689120258012 0.8917957694119678 0.5621845081253765 0.5270942137351763 
Task96 0.04121456302967253 0.2106014440274827 0.05480848583052486 0.2758839530833828 0.48221085798464736 0.8575521885514445 0.30464188624265 
Task97 0.06188494273284884 0.16898969431046965 0.14625862943878915 0.02041753750477988 0.5744943355381138 0.34011955108011793 0.5375467320731491 
Task98 0.000270641184486874 0.007766744073402323 0.0888338613811496 0.28856393638914013 0.832765319422438 0.8970605047614708 0.734975251536677 
Task99 0.011489868321880575 0.2038324510881428 0.18505732963012758 0.45016286505429376 0.901392881322866 0.3452972749114643 0.36953738833255684 
