Task0 0.04128328834282532 0.135277395939898 0.0913769747152208 0.14066462908080318 0.909094122324084 0.5696499399943238 0.6373406892336841 
Task1 0.03228770984176507 0.4837387054781426 0.1551718803314041 0.2740264537524369 0.35378383408940783 0.8686356832177349 0.3624905142091479 
Task2 0.05328609873921712 0.06948257024348178 0.08033380493452366 0.1287874795491191 0.711516176768192 0.4743238147539399 0.8301152662312943 
Task3 0.07736716886741705 0.19525355716944684 0.1278004575968831 0.02270460539929137 0.3177856424943635 0.8157815413479175 0.6576940888159559 
Task4 0.14850374500046634 0.28060393272445083 0.1280522132445114 0.21681903732982155 0.4693908837865663 0.5542426436097925 0.40230035627322225 
Task5 0.0028810343246965502 0.027261831951696184 0.009883501514709537 0.004683166299916027 0.6925223003114509 0.795759212605096 0.7956366649558685 
Task6 0.0074126492645961925 0.14256491081259523 0.16445010517955783 0.1553985485798127 0.6670464971457253 0.8886886778982754 0.7412408523878908 
Task7 0.03597150677336477 0.23396988474503383 0.17677198171644595 0.06216617169518416 0.9904548591582252 0.8812713695092054 0.6254227237259036 
Task8 0.062120441925784316 0.2493503215965192 0.09136149959475286 0.39560023799432764 0.46057430984765424 0.9633103756220638 0.40360383765706354 
Task9 0.05572738434657137 0.28558155929926804 0.0396483724945676 0.18903527221333413 0.5691867446357028 0.43013257921835035 0.7793256850947695 
Task10 0.03825905429248191 0.12743089635684315 0.15408127414830236 0.05183568881439794 0.8356914273245197 0.8270234407190862 0.9949231423289715 
Task11 0.01986912599473386 0.0008404539623573806 0.052000876793398425 0.07823008158747395 0.5032879776883712 0.7275773708605533 0.48328818141462826 
Task12 0.06953302071314865 0.2283246438989069 0.18509644035559444 0.13219839027141736 0.8656746026323876 0.3833954267513657 0.8275228661630571 
Task13 0.029609115392141748 0.12061825217676304 0.08007292976205997 0.06533539694366466 0.9199856920246103 0.8039455660702362 0.6573005728265349 
Task14 0.009204258159657029 0.09036571809682899 0.11867849410503807 0.12679062685145745 0.455499075820067 0.7596285365331374 0.3981584394131942 
Task15 0.078003468607574 0.1404823331880843 0.19729599481796126 0.16390329593575229 0.5699469297496742 0.8913766437151223 0.7697227322029305 
Task16 0.007678430035294443 0.022169385979258802 0.07619662465514435 0.014034177623875344 0.711956153070777 0.38100251849581607 0.7490349897877597 
Task17 0.006711768561697438 0.04535592004803534 0.05545153388952223 0.05334423070695354 0.4459443313866324 0.8946360025150843 0.426859989872338 
Task18 0.009116117406285467 0.0060166755085872764 0.01741655877114703 0.01996591940914541 0.44042512186520716 0.6920793491779138 0.6672523085743663 
Task19 0.0005026972324751334 0.002919262429058216 0.001152231508189639 0.0005199112878555867 0.7457397166382826 0.5302818214595427 0.765135365614509 
Task20 0.013277500744784959 0.3723621403568571 0.02089404393661148 0.18652369197184843 0.922476090097595 0.47636068200659076 0.6639562669126441 
Task21 0.13502708444893236 0.24414344402923926 0.2798166356039251 0.023777534546207683 0.8337719478672521 0.42531968193800185 0.35157679552910837 
Task22 0.05365823984376389 0.11031902475062096 0.0934810523372973 0.10158063782226706 0.9625652548383825 0.3714235945504425 0.892325993578188 
Task23 0.12740616163510168 0.21138165058438804 0.4682322333614609 0.15400872359578488 0.451089081425998 0.5373545966486672 0.44572580382079335 
Task24 0.012531523324545168 0.09211826101410012 0.014465042585701136 0.07402763884521608 0.6845949349733684 0.4134945075220812 0.37869605638504844 
Task25 0.17197201217963998 0.5067812707178866 0.18973137792004158 0.08543947802430861 0.5894130480848946 0.454853831586592 0.912590681176328 
Task26 0.1199702482230648 0.23242440210156493 0.3858859149376735 0.20324733999922637 0.4909563978135667 0.40246097233819156 0.9224083224943254 
Task27 0.09854204096576644 0.2099090906009998 0.42600068215211545 0.22062754169546983 0.4045423033310567 0.8874818585614119 0.5667411442455812 
Task28 0.04931255670336976 0.068942401509026 0.09953288116740046 0.054639170752186904 0.44717609281613213 0.6044021106852531 0.6587971481774949 
Task29 0.002495332366976764 0.06569988700348947 0.1807769921039591 0.05186421984494869 0.5432257945149377 0.9716645238421431 0.5743226416393524 
Task30 0.09187827148247062 0.21564020964487837 0.20116192194617302 0.035062346655520556 0.30947091443761576 0.4298525824403416 0.48320199729385005 
Task31 0.0037803417725197166 0.004781662004866819 0.006612351806238694 0.004890206349091989 0.838585312194716 0.6824639246809148 0.6846373960340715 
Task32 0.04952463191572262 0.2243197743888552 0.13981628325603665 0.18285285925509073 0.3094325087584224 0.7882763051125246 0.6705486420659439 
Task33 0.012661146872082477 0.07828864740784955 0.02970293087866991 0.1477702619288278 0.9358425033708329 0.5541175936667516 0.6754624791493802 
Task34 0.018418705483519898 0.0913340380339117 0.052505019262990775 0.3428948518742963 0.47483195659551863 0.956790186029906 0.7337478736640319 
Task35 0.021781629559825613 0.16734013795923486 0.1533212097494332 0.21216726074586897 0.878767927988636 0.5712503964053537 0.8410805080331665 
Task36 0.011351557704451396 0.057913160845153085 0.07306163630673451 0.054646203522721905 0.9361216774831669 0.5372681029008612 0.60507686637555 
Task37 0.10050372338894811 0.2439209380927891 0.2169069662047575 0.23460436739363005 0.804074626017639 0.6920700896686023 0.7378127200156984 
Task38 0.045078456399318755 0.14326440219667344 0.13518855768858126 0.007159992974411065 0.31667660052548297 0.8932560456070433 0.47954843971804406 
Task39 0.0010072913537620873 0.03667657554372389 0.05720535033255283 0.09154218698088705 0.8793828911290729 0.7636075001481175 0.4883357865077451 
Task40 0.013297673411455534 0.04233298788142906 0.037825353095100225 0.0025126377288118024 0.33228165560580986 0.33482075614662093 0.5292450997470577 
Task41 0.009905282623128243 0.01959963991240469 0.033685428602027376 0.008800630447558551 0.8393517006976325 0.6478924646374618 0.749053901556993 
Task42 0.03580730894396725 0.06893161150112691 0.08553237189156801 0.06496557261571323 0.9702069812556846 0.9888157777245568 0.47656999098961605 
Task43 0.009615902279482183 0.11988177703129024 0.0038668742034636684 0.0719665858309761 0.838486427951906 0.38245088580419473 0.9199797698835153 
Task44 0.1496204205395521 0.014602882663745768 0.5713115053868845 0.18636746133387533 0.35579418822154196 0.42087236247548004 0.30369743563056295 
Task45 0.08579434626149901 0.097518920270507 0.11354011112089978 0.15765529130970113 0.5345484811588339 0.8334560823690067 0.9770908908509321 
Task46 0.014421559611580217 0.06337042366010659 0.09035883130204231 0.05064208971822555 0.8369423946450119 0.7409893010887748 0.41742052111102923 
Task47 0.049800217526714534 0.08508385820409008 0.08117867351501372 0.1225817441641344 0.9851981600537794 0.6343840265111776 0.8884321195885978 
Task48 0.1026139797961738 0.311807710934976 0.16635367020045425 0.26165898771870827 0.722224807212164 0.5669346480932587 0.7381917748946828 
Task49 0.016033939519631883 0.04678574621541693 0.028854022994764864 0.06385588247047363 0.5629365769511555 0.4843830540137537 0.38391730226257875 
Task50 0.003158662425896073 0.17779237752030758 0.1461541973466837 0.0950101647643133 0.4624214344121204 0.987451217167544 0.7363874468542313 
Task51 0.007653568927938907 0.07295277931050508 0.011531634699764178 0.14092287066513567 0.4970804597514285 0.4950985733103849 0.5813479454020232 
Task52 0.00997836217634223 0.017498668749102945 0.028891531032251755 0.19706233772522797 0.8098380019569771 0.4785049028151633 0.4963116035582428 
Task53 0.016618051840915124 0.04861821159169004 0.022958583263099033 0.03258961513874503 0.437120198122965 0.5184319664821118 0.9079285661460148 
Task54 0.07939097870428276 0.1345796289487334 0.11700645357221762 0.4948409741350139 0.49287070708356445 0.5072858896120649 0.9529739317576438 
Task55 0.09378200867622133 0.43503168675748916 0.030439447106322168 0.04248133431627314 0.9462000611336177 0.5295044340590068 0.5806856247431598 
Task56 0.00810762761412758 0.16402472237453694 0.10473270293610741 0.05793924489391051 0.9472481216533333 0.6778890183202264 0.33942344365124366 
Task57 0.13070301312690566 0.3885254756195749 0.08069595451607785 0.3428912596789302 0.7892040053202777 0.9838979493452036 0.3120062279234514 
Task58 0.0042469989054520615 0.0167358958582786 0.015414091492379477 0.007594170986011626 0.47366243644155964 0.8775704136239084 0.8221736538069919 
Task59 0.01436620490668081 0.07137682419337477 0.07106316263014531 0.23412785562654023 0.8349908949102378 0.530666006356335 0.46227650337910264 
Task60 0.05351287303030612 0.06414229826441166 0.08532394520608351 0.07681005665976147 0.66148465589814 0.39400542589513377 0.45829716734071513 
Task61 0.07144175662347083 0.23656804701434683 0.20105576960235688 0.4420723478594699 0.836996842232518 0.902712884815162 0.3276374779311933 
Task62 0.08820176627921417 0.027627649539641117 0.15709963883056974 0.2778374812264714 0.3661193630479296 0.33673595126946243 0.9276213474656845 
Task63 0.001548713991954946 0.010369533971792137 0.0005719386690375908 0.006252515486753096 0.3846990493773042 0.8495115968434945 0.4967146564467487 
Task64 0.11960449742207181 0.2283770904170311 0.06601945366637751 0.21762461277196968 0.3511532948633477 0.7013637750674682 0.34076858355364564 
Task65 0.1165411117713816 0.3594264606187735 0.06072821324902561 0.4591981552368111 0.326123183880543 0.44818811735045216 0.683002231933685 
Task66 0.042946575602191686 0.47944048162048986 0.05139436784083041 0.1938293452607685 0.943735562742261 0.9109186182746647 0.6548603594854056 
Task67 0.0604278868378705 0.010845279397324725 0.399820489394808 0.01171947657519821 0.635048916443265 0.5217387000149981 0.4524454124182209 
Task68 0.025874929436186474 0.06564137317614992 0.0708096500602079 0.3875483146502572 0.4365088750052541 0.4949879216901583 0.9551385666104026 
Task69 0.067959779336746 0.26304994109393687 0.31688996307929207 0.14254494712427804 0.6394935765815617 0.7581741497821002 0.6008929704169033 
Task70 0.06463414572744121 0.08321415147508113 0.05050417023869849 0.15931358182425087 0.5216225122201024 0.9445478941601322 0.45610932056534187 
Task71 0.09974473060799054 0.11129248314892028 0.0780495552000443 0.5160704555965695 0.323003925865788 0.8799212284573092 0.9537212600887199 
Task72 0.0177896206025248 0.20758809715415452 0.06973256730363213 0.5234408925399556 0.40385200971523794 0.8226875914782474 0.997086740600921 
Task73 0.024479052384372747 0.13866523459700683 0.036947333302903555 0.09836705138994037 0.8118787532786327 0.9519663849890434 0.5976871967438724 
Task74 0.06253995123220203 0.14233638682666463 0.04394532452782594 0.30225884253725027 0.7500348421361087 0.6282369581062379 0.8591967893507872 
Task75 0.014190046277148576 0.1207473517207291 0.08714030174023012 0.001984098102709656 0.39668537006027815 0.9314136739430419 0.87225679488101 
Task76 0.15361550972234025 0.3406726598536283 0.1652014154905826 0.23736054062056708 0.46699568887855525 0.5684541729844546 0.41037602767724113 
Task77 0.0036347087695875473 0.0816633639331659 0.41582958901026307 0.30008165793294345 0.7519308923928794 0.46384114704243834 0.4951505398315779 
Task78 0.06814959050679112 0.33824878348117465 0.3262371235581661 0.1330667848407225 0.6236002312962905 0.49267684887130897 0.5285923970784486 
Task79 0.0008323637612222456 0.0005630611834057702 0.0022015936639849867 0.002565819576825499 0.7192631085345891 0.5453264543806484 0.9710281184861773 
Task80 0.02938789560000236 0.1621544353413536 0.16386114109428915 0.33440124603111643 0.7356605961558889 0.8252180102183555 0.48351450781779826 
Task81 0.02346843175544294 0.03252128281436729 0.08317633343339492 0.06460563862146965 0.807368495525157 0.5753169404040015 0.6786040749445278 
Task82 0.06448771834834251 0.0998809686418042 0.05030628946754266 0.22249678920006052 0.4944746881026493 0.7336850719442983 0.8567349666514916 
Task83 0.026303006014449307 0.24392651044021987 0.18308673594854538 0.054734268823485456 0.9540878398997241 0.5765275556331457 0.7013713650429967 
Task84 0.003050327303985974 0.0004839896076199483 0.004962725985929277 0.012729819837176108 0.719039594456496 0.5100668386999305 0.399906242471899 
Task85 0.08720495503968856 0.06907311651801844 0.3836328741467358 0.09822277027107935 0.8585148166432623 0.7088819448397017 0.9891399020348779 
Task86 0.10953500815353648 0.2724435539395512 0.20200240803078715 0.2306267299178845 0.41035528223630174 0.3130891094493766 0.5432783879154126 
Task87 0.09790792325693881 0.3816015540862549 0.08573691065870914 0.061681010516189586 0.6082487744115566 0.800671133617356 0.6729093824772854 
Task88 0.0010123559443540797 0.4856374918668814 0.11774703105613143 0.13342122642484397 0.8441423894500399 0.6917697131525706 0.9149526911909149 
Task89 0.09541121557042023 0.2658173550067158 0.3388515612747705 0.17103745733850262 0.6833131151444998 0.9749345214767018 0.39121419427960513 
Task90 0.10176866943612228 0.10501625588029612 0.3493361472206482 0.01459769399125122 0.7753636705013435 0.8575169607831643 0.7052952480830557 
Task91 0.02295821222146018 0.16689248053864786 0.2401884501600341 0.009664298327146019 0.9424043857409994 0.9651399205164048 0.6219595325600087 
Task92 0.03486897470259539 0.07388624298767883 0.08523897689648528 0.02178398367572463 0.9899399982076829 0.8986228161368373 0.6272827379046739 
Task93 0.004212106692832277 0.19700173641181823 0.12689715807325072 0.061521522108777926 0.5256188532643972 0.9404525726712023 0.4904338840254306 
Task94 0.0704059682800391 0.0392753933255863 0.15913947631579176 0.1321189429562157 0.7035420227820248 0.6921917946598027 0.90083397316461 
Task95 0.001837197520819246 0.003557030024377077 0.0038562337922548686 0.0014683651167861924 0.8448483204540667 0.30841480767594165 0.6846736930903761 
Task96 0.03422049302911606 0.08527693173517539 0.12251709462799587 0.01808342122511811 0.4688346598468473 0.5717927029635005 0.45277572871351707 
Task97 0.009936515414222415 0.10499166506877962 0.16792467273388711 0.2367062915022202 0.5178733789016139 0.5336405388823467 0.3200571595905182 
Task98 0.13279150295246034 0.5948443350263003 0.1590372768248485 0.024193831711602734 0.71289921076303 0.942328925084881 0.747719750401231 
Task99 0.0322983863780149 0.077131821203247 0.0682457346061208 0.10032621105657837 0.7791412790354182 0.7986426885028617 0.41204477320922317 
