Task0 0.0072299806929609495 0.03639173765005041 0.030118669332997908 0.029435115883601426 0.7935192655818761 0.4263575574129074 0.6329406367848056 
Task1 0.14120148285983736 0.15535945758931272 0.26071231383590304 0.25808991789969166 0.7109227266561973 0.849956616220291 0.8822206888934618 
Task2 0.014178643164614065 0.04125201904602844 0.007247507427806217 0.027898715910826734 0.8986484380360871 0.36240864529237826 0.6193432381331461 
Task3 0.07354276459624279 0.22479769886562917 0.21011977268123788 0.11387953337634614 0.4953401013136395 0.7888407527278729 0.6106711263831406 
Task4 0.04654336518159957 0.2930483243757899 0.1379636932365611 0.08922304397676023 0.9737231741298293 0.8522532110122834 0.5825155929967745 
Task5 0.008217149919563894 0.11674353139105637 0.1607423175402456 0.046633890118473194 0.6112693610329218 0.3793240345221301 0.5860320338762459 
Task6 0.008410567380935747 0.06530386002987049 0.13501443365070423 0.04607149710692228 0.3798085382659366 0.4163045872700147 0.5818029966312496 
Task7 0.058837101052091 0.07044343325129038 0.3032067185658922 0.26408777934382177 0.5649913520649084 0.8729620565192824 0.6625814251325379 
Task8 0.07741879574736076 0.2298197658895846 0.24534157664210762 0.11868289699149978 0.7381591792350042 0.9561947802095623 0.579214645732776 
Task9 0.10275016292279676 0.10905389113521259 0.080447955729638 0.2771151201353345 0.8437987177794677 0.5698108667827742 0.353701810891498 
Task10 0.038734018267793095 0.2098334067568011 0.1836650055720189 0.20246209741343357 0.5546372689453529 0.6499256794395365 0.7397797416478096 
Task11 0.13836096545510929 0.45607623418581206 0.25493231232211705 0.02294918222188963 0.9265748888569183 0.8558707265835237 0.5391706947974153 
Task12 0.01062801455237275 0.04525056534729718 0.002889098937910882 0.03679480606119847 0.33162598737463717 0.8805845542938893 0.9141058031580174 
Task13 0.08662232513918477 0.2395039974300252 0.18230063802254437 0.09519983213610574 0.7810652880569782 0.9011802543428442 0.4122477748246843 
Task14 0.025266796998358914 0.02756343292138858 0.031497289209051135 0.27480838446445943 0.9732963648257238 0.494323418338 0.7416168455846698 
Task15 0.00012059490869940636 0.006718011848758681 0.00993877746471611 0.008898495470049648 0.7550188353335978 0.7888324721782887 0.9906562452885497 
Task16 0.030328045020524348 0.08078379434691237 0.09872853524221079 0.03700594401587523 0.8010198121033072 0.33839150598938394 0.4991467254601108 
Task17 0.0145252135418971 0.23697149982526888 0.29356151517728013 0.26930401820532396 0.5039564659137994 0.5255614378022201 0.8238293554562333 
Task18 0.050020969659372985 0.26602355539937256 0.31181067806256696 0.15533817864556038 0.631052612610229 0.730927931939297 0.8903001211685502 
Task19 0.07091130603776244 0.29192902206718624 0.15402285235612112 0.11615537256704929 0.7406463344722645 0.6864323907380154 0.9835408524982512 
Task20 0.12281984427605204 0.1918133527778034 0.20381698866591116 0.14818045029036575 0.54268712610526 0.8139032047965524 0.3394029818880998 
Task21 0.018736216502017306 0.15950520816517053 0.17268794977397298 0.2736450093451958 0.544292432696935 0.33573720452554445 0.9733935618775651 
Task22 0.010803288058504184 0.05426263187350318 0.1556380176647163 0.06818074450674697 0.6284063665693814 0.6909888715103256 0.7194968376576054 
Task23 0.0005492144787097815 0.1775113232599882 0.15929039761857072 0.17931405079171328 0.9289199743247505 0.5297729317381746 0.9073257776124699 
Task24 0.19924669131281567 0.07488650581790898 0.20845439708271474 0.5143379264114831 0.6720778274002794 0.7129809894303373 0.9777274168409591 
Task25 0.05326860313159111 0.08257927382658553 0.3733200548192077 0.2681720297786301 0.4862436077094481 0.4894042680913634 0.4484687064293693 
Task26 0.07549724644399844 0.08889087417163508 0.033031842041123506 0.18515903032854258 0.9047525546455748 0.3649112387227936 0.39989263730481367 
Task27 0.05705671971542579 0.47093875732310436 0.33717096475727737 0.11195239382887787 0.9765905210923882 0.7978570518192358 0.7212468210046084 
Task28 0.07091592813723785 0.6517385823835207 0.1909686459362436 0.06370998862482255 0.4185316020071371 0.8970493966353479 0.5528263425276457 
Task29 0.07505047483491176 0.15043838328413056 0.23883106093685114 0.45455437515153785 0.44632191356116824 0.5479386302519051 0.6547608884154226 
Task30 0.00013749434358706426 0.03663116718435512 0.01734387289995206 0.025476591297252747 0.38400556253352625 0.8890978004895755 0.8429476044658362 
Task31 0.001778466262096264 0.039048069135754815 0.004698413710472677 0.02149601100112472 0.9837576007287852 0.334833556915912 0.3871397862324117 
Task32 0.062124655080613086 0.25334729323474214 0.2800273865175136 0.27213403446677825 0.8238041531381279 0.9968748270113255 0.5378462606361556 
Task33 0.012050792384715974 0.052902863952178227 0.004643612598343771 0.00900539528905432 0.30914186408532984 0.6291008360170531 0.42904396686269874 
Task34 0.03956608058076294 0.2473913177148914 0.2186403416131608 0.10765147398703685 0.7728527685172744 0.5802387807634956 0.451135351839537 
Task35 0.12693096971920007 0.19026000261808287 0.35682899839550836 0.2086431929414502 0.7279098130536918 0.8102146497670768 0.4934832484220322 
Task36 0.0010962064505378416 0.007902327183668078 0.01576357812519957 0.0006558858851959072 0.71875426625082 0.7457921737287991 0.8912875806158445 
Task37 0.013465634616047963 0.03652277377707176 0.058121534406076515 0.10047072914344328 0.93434249214046 0.5525408844041192 0.44543519143183097 
Task38 0.0834486829691791 0.36773284112087945 0.420614391260396 0.08572277485214987 0.8029787180670642 0.7346569044901634 0.6589687127143445 
Task39 0.07063699356733252 0.20913256836583138 0.33012399658317493 0.30439118157392514 0.5161362530109499 0.46825498395272 0.7993164070713872 
Task40 0.03367285733636295 0.129719096349792 0.07468319743447793 0.08497126030636054 0.7339756827119566 0.848560181541226 0.4447576430561238 
Task41 0.030558235505111622 0.09430701620056862 0.09014914970815613 0.19411268360145412 0.44296731241268494 0.7740890712962807 0.509705628711733 
Task42 0.023243141822921535 0.16734195298628826 0.17537415997307948 0.11367263637610098 0.8046836130971318 0.7331664211164011 0.4000871500812171 
Task43 0.012962790729375593 0.09596479603759848 0.08633718672789212 0.013573497405926461 0.5620387103413371 0.7205015589196749 0.9637128603722871 
Task44 0.023577120264543894 0.1791400165280314 0.19522689348386868 0.2439054919648648 0.48315872066928994 0.40258774081722726 0.6136493228364107 
Task45 0.00751584111052744 0.21698793372191316 0.10031733540512171 0.257550866409128 0.5896144495795963 0.780158314616356 0.9311390829968254 
Task46 0.048393829237361775 0.1985201195967749 0.06902702323023117 0.09876102828279128 0.8160763687266885 0.7110772647387438 0.8585005922602629 
Task47 0.0713471017359229 0.27112481310609776 0.05471794870567721 0.2926287969140402 0.6002459158907147 0.4238065641494828 0.3396689078558338 
Task48 0.0032478617004465895 0.1230671503732844 0.10866339437908466 0.019835554414779594 0.3306595706195776 0.3949849602645855 0.7546933872063912 
Task49 0.0072040663602584605 0.22765707540873323 0.11516096756442065 0.15811681883517462 0.8217361479168874 0.8175510233252568 0.7126026648208297 
Task50 0.039713169029640616 0.1021835632944264 0.08341932225623105 0.12413020176521908 0.8557183498358025 0.985307899426487 0.46164548018485946 
Task51 0.09792044995246826 0.18121389746240557 0.19395663922284867 0.2463588810067166 0.9789950343684708 0.8215603755681817 0.8547795584187428 
Task52 0.06619798214010075 0.25074203420466734 0.1845482351123705 0.0060682245857698455 0.8930589517901495 0.8326838904281515 0.6506059764686216 
Task53 0.023215177315304737 0.07501961380330202 0.011116594709555155 0.0749640146548413 0.6407808940998276 0.48117390218844114 0.45758165498702863 
Task54 0.033138993950113126 0.036035821885992025 0.09370117633517033 0.024645302800224887 0.3245697398284465 0.7132170573113972 0.958547998784431 
Task55 0.008441825466987423 0.10191420362981406 0.05183008089054477 0.30226303743696536 0.9775862663988417 0.5821215509352246 0.5824931618287772 
Task56 0.14442739283954487 0.13205515952758787 0.3015087373805421 0.1564615862511474 0.45710983455368204 0.403785565508187 0.7622896817623749 
Task57 0.05965100316573496 0.12523022464716785 0.10949162899045285 0.12281917255875074 0.9043917872970053 0.47796549208956646 0.5111067649086278 
Task58 0.008264044066367158 0.12428853860441291 0.15724356512546192 0.3729265083081082 0.8294322873323854 0.9739840057780702 0.37971000315919456 
Task59 0.006784841254626753 0.09666575636574448 0.04795344871433082 0.05344800386283411 0.6176115092177478 0.5571929618950646 0.9368261201606121 
Task60 0.041123335927954724 0.2890556756808383 0.3548291091786682 0.18389676320363835 0.7180545530126793 0.9709952748490887 0.7590834445945207 
Task61 0.10536808629456167 0.17401739427393945 0.4016827587553265 0.2814928009134257 0.4513418982698374 0.44228999636223465 0.9616323795212793 
Task62 0.04779441752900076 0.027635424538582504 0.0635728274900118 0.14516685656285078 0.45305499761833296 0.8187859208959705 0.5893365524183274 
Task63 0.12698569302821167 0.013522517266145883 0.266341661181673 0.2540227905003928 0.8729987699340527 0.6331271061288253 0.5320800838307356 
Task64 0.05501525869734434 0.11517409428101827 0.0827374731216371 0.05191581562256354 0.34534443248346347 0.3950195968218191 0.9774018686767494 
Task65 0.08905367505368691 0.0035824880244017224 0.25421637314521084 0.4702396103638349 0.795021040356475 0.6943907700630119 0.3060271523586561 
Task66 0.0399494519816853 0.1776146462611132 0.008330171731065018 0.08685005031312522 0.3967672657648157 0.37794471962693943 0.9433684481629423 
Task67 0.017051441986463987 0.06333910905502725 0.05381668185383802 0.042952149313738086 0.6150157608638651 0.5551831141412504 0.9501203052912635 
Task68 0.01874164177631548 0.06396852083014996 0.09769307108727295 0.06585808042553813 0.4316492992467842 0.6892680603579125 0.467515773900791 
Task69 0.1355257356945857 0.039829120109735446 0.2808313311288638 0.25606752200074484 0.9904365039982468 0.4879709433961873 0.5128709652606737 
Task70 0.025982477777721762 0.20271627675876672 0.16101382227286207 0.17151587138720106 0.5745083971623537 0.3781674012019297 0.8355671568186505 
Task71 0.08599504235472755 0.2967214720566975 0.03359270228590975 0.21287736558589732 0.664161132046913 0.6484096966019234 0.49730866425913733 
Task72 0.04076178183382979 0.17527890409653246 0.16086023457526308 0.07882400159519008 0.3002472614596824 0.3802656073480597 0.3738855186192626 
Task73 0.011490081480706493 0.07597091839619749 0.051666841551653554 0.07372028024478136 0.9984460790376639 0.9841446200019393 0.9226623248369035 
Task74 0.011848175213976086 0.10242078516145026 0.0539487230026409 0.10020340459059558 0.7885404520758826 0.7829127205833292 0.3563187369652484 
Task75 0.040887400219399 0.12520287780976322 0.16664106057047648 0.03116131490052619 0.4160124494143643 0.3572693415894847 0.5263170511393469 
Task76 0.14302738661520772 0.41816185724193145 0.09865835911275186 0.11883582837646209 0.39068200899297967 0.3933628327916495 0.9402988951935631 
Task77 0.026480595998562232 0.0830930565222419 0.02364116735686794 0.08817485294070376 0.5608848429369397 0.6354307736590444 0.7023641188826015 
Task78 0.13798196307565158 0.5962226031631034 0.011111889499215717 0.24497705455323696 0.9022821610067229 0.8267998712277218 0.8049153062884931 
Task79 0.10351339919091597 0.21493972626649765 0.1887120234581606 0.22569469122279096 0.8026118072084463 0.5439748613411995 0.8845419948137501 
Task80 0.011384987898286757 0.003084566773614822 0.02095430469154111 0.02265895939154476 0.9180146703340588 0.31513078859319177 0.5014039119517049 
Task81 0.05702996390690189 0.07434158940707956 0.14152383682796268 0.13741274096380213 0.8184816786477564 0.45420640366376597 0.8843885931297857 
Task82 0.028901792253556272 0.05471391899165186 0.01334860658654134 0.04793648619944296 0.8570476912856466 0.5110690271233662 0.8836375874573268 
Task83 0.028859153917621495 0.09147749605079014 0.056353083153453574 0.1052469912573748 0.4058797080371454 0.8884783043432678 0.9329554688152397 
Task84 0.0030956588187702515 0.22889182727463425 0.04679510662371518 0.3979480372948051 0.7069555538110572 0.9407009390993883 0.34689032928070074 
Task85 0.0613632635143448 0.24615389578124405 0.013872861057388365 0.2664437338882066 0.6278178755245106 0.9135306665242111 0.9331716406252151 
Task86 0.07028292607089102 0.2631240494171854 0.29825405658458115 0.2866288033292334 0.7518564329745776 0.8211495114556087 0.4629229376634787 
Task87 0.07170436483234442 0.10982279220769561 0.057069647797889006 0.37977945072934266 0.9719958495781738 0.30598642286183236 0.33987052894088277 
Task88 0.05328647922919718 0.1089762415580559 0.22766321447650606 0.11366656031968464 0.686850731122699 0.408115030203002 0.9266634355825001 
Task89 0.008198166463105833 0.08039846458298873 0.1332022260755989 0.4617435432290335 0.7620742671045532 0.8804779327304357 0.40635442732818566 
Task90 0.01295152854555937 0.007156572146015955 0.05741900929316582 0.04841620488940673 0.38019571858126333 0.3581350875451803 0.994549306737011 
Task91 0.11046491670755283 0.14941112657993127 0.5550268759373936 0.010293732286830736 0.946177630701017 0.40485313526833 0.6579612749603334 
Task92 0.14955006139073573 0.40834636874559427 0.01197935055176107 0.19186794531014764 0.5265014724779244 0.60199270192744 0.48597975667870985 
Task93 0.04306812172773399 0.33463455195711056 0.13903745455529523 0.03317517580636736 0.6733724038948057 0.7457355776068927 0.9671741515152725 
Task94 0.10430414321569026 0.30305683070235356 0.46056456325704676 0.05449336737219263 0.5535109242151594 0.6269807135402667 0.9079169389439048 
Task95 0.05031396124473697 0.0667626663708306 0.05774260204033148 0.0983352368171437 0.594344525784164 0.6745523839826668 0.3824441206410746 
Task96 0.0724299141079484 0.2458830879515817 0.017586259227568398 0.16999741689312142 0.3771402529372222 0.4038183419421978 0.49329430776846295 
Task97 0.001115490251141859 0.007190725162241927 0.005652497079445747 0.0008973040519861863 0.801711621239932 0.7029886609785931 0.6514864472293005 
Task98 0.03808508231966292 0.5581012982311505 0.00629873560180434 0.33530943358924253 0.6229715935785256 0.6479957151558291 0.7652920182192915 
Task99 0.024601330579979812 0.016763552609815834 0.05168725806194526 0.04026910318770691 0.7972490501441591 0.8158110879396925 0.44235713961943823 
