Task0 0.002905793381406166 0.010306614061349459 0.005998290300684688 0.01981301338144769 0.30767353044211276 0.3712632204649871 0.9863878012345293 
Task1 0.17971620191194804 0.37771087250910484 0.05376374537885011 0.384753229779447 0.37101684227836307 0.5650142514350704 0.5334028102905708 
Task2 0.018554153443667527 0.01836152997218226 0.05053973679610193 0.008279142030192562 0.8478259050763426 0.5368231385347608 0.7134299745693033 
Task3 0.024668205352049333 0.027711512365072057 0.09056596091666509 0.10353579418996038 0.4060174946196131 0.5874841284952185 0.8869883632109654 
Task4 0.1113256572302067 0.3032128222757724 0.034261268873384966 0.24421575853522848 0.6722819063274909 0.6131223068043357 0.301729845668196 
Task5 0.03221258296522849 0.1061724242385708 0.1781090002188788 0.038368672853535464 0.581457920183892 0.7225192856233211 0.48577689741711266 
Task6 0.03712451832648548 0.085135614072811 0.13281394399399962 0.06494478162938347 0.7832295816754653 0.7662676283064489 0.41350522852617916 
Task7 0.0769896818065777 0.09116531754770416 0.27547305409849343 0.17491430859979826 0.5876723219967148 0.7228463420028202 0.7898633366189125 
Task8 0.05436983273278665 0.036406088374439254 0.1691048291076604 0.04619222785302664 0.6570460200952786 0.44312621384972667 0.8041438559037313 
Task9 0.15188179386509976 0.16262264250843192 0.2712526248853384 0.217215559786381 0.7670787764114646 0.40212651098218355 0.45111118302175923 
Task10 0.049010262171869004 0.2793640759258368 0.2311583132925742 0.3121689601297265 0.9790914723151747 0.47095020602479815 0.5687968719614739 
Task11 0.006154852084571419 0.007269385561573674 0.013974844200916584 0.015135535157807817 0.3460438384676959 0.7578395488097924 0.38027345581090943 
Task12 0.007794842614418636 0.08467547158111353 0.13904512733859065 0.14125578906487135 0.32043779606893974 0.3583228403706212 0.42618321804021286 
Task13 0.03480806755728376 0.4288307020427087 0.13162950940347257 0.14178053890209816 0.9219689236700186 0.5658887388654708 0.3748233942151296 
Task14 0.027254273395469323 0.29159932207125927 0.23580397092078503 0.3837249682754244 0.48397817897791895 0.9748780649193938 0.5195963887892617 
Task15 0.16484887221764066 0.00355902684962441 0.48604094380610374 0.20330154516800225 0.504202762829296 0.30749981702900137 0.9788878169037143 
Task16 0.040414689246333624 0.0982505666513017 0.04401885265220986 0.14928779276233103 0.8102051393639846 0.7271174179533303 0.9200647175700547 
Task17 0.08065353097329965 0.275316231305189 0.09187923178868836 0.33185399824164435 0.6376189872612916 0.47866579715457036 0.8504303183970021 
Task18 0.10067452461506769 0.21341050492517138 0.24676980572997062 0.1198103799091008 0.3809076935476343 0.3959517743064678 0.5255319670318792 
Task19 0.06474718685044628 0.14576264259884028 0.1054206764526796 0.05209288697202583 0.665842424250676 0.6752785567921488 0.8607372253582748 
Task20 0.008563672198172325 0.04245851166536837 0.05432813032206931 0.009361745409941094 0.660920228168953 0.7709132192659244 0.3174188807347614 
Task21 0.09974668460669092 0.6176625769709981 0.07026866876233241 0.07872716670965145 0.7913679008766301 0.9282817837879431 0.46300586421649914 
Task22 0.026506450285201266 0.02760320548411978 0.02742356820412629 0.07530400896659147 0.4123100660044489 0.7359328261995229 0.36657776609625226 
Task23 0.03997587380446803 0.12477439546670878 0.11048796226626317 0.08344813463912132 0.6389993386112242 0.8561161260536116 0.602391487177178 
Task24 0.01079536442867427 0.25520685987924896 0.12317831019547865 0.4077832240931685 0.8845497693961937 0.42734511410223164 0.6988409725240542 
Task25 0.09273830522567994 0.396415449599585 0.05606208060298131 0.16064018616655268 0.33780241799617994 0.4025979723843602 0.6345384875558303 
Task26 0.013141263772762932 0.024366781338777385 0.05880081543892157 2.826495851575073e-05 0.5646523284959006 0.9339348305886956 0.38626361769000267 
Task27 0.03564552831033209 0.25853987591092414 0.1618582811635381 0.23352412130488254 0.734910028874606 0.5104670853456791 0.4823311336826722 
Task28 0.0698018454810601 0.13762909384566033 0.30052833478958074 0.41365780754102277 0.6842483943132152 0.31895517645644855 0.6387846132659288 
Task29 0.013814121548028259 0.0023654181184913393 0.051381034767774184 0.15400576908408256 0.6364330977801119 0.4193000251188108 0.9965736340736511 
Task30 0.028200411247751394 0.2567708659724148 0.12122376299936813 0.056473030904741976 0.46283893863824893 0.6320065538652366 0.45010691451039775 
Task31 0.17468658052082964 0.22312830985464926 0.3338570412160267 0.25108054349995834 0.42185893433263466 0.6054699752132784 0.8164601147719965 
Task32 0.07025176188959333 0.02431427985054706 0.24583287911124405 0.382718805048944 0.716622581062974 0.5042465188372027 0.5832218905875339 
Task33 0.01467355515835327 0.12940399121386226 0.21166802177532215 0.13075473350032119 0.8008111687234034 0.7187236788623681 0.4737619838319851 
Task34 0.05173235122240001 0.10088149348111758 0.2599278807210735 0.265236594021163 0.4307468048552707 0.5260848949596904 0.7780559091732846 
Task35 0.007117954620399485 0.011837299174552457 0.3080373857383394 0.42685605528679316 0.7028593088879842 0.7755750909794342 0.4598165333292437 
Task36 0.06191847163845251 0.20114708666175535 0.1838236608801612 0.1859160639482774 0.3737438779309611 0.5137478422010145 0.5250010160505381 
Task37 0.0009245980665686135 0.003382490203951686 0.0029206538957144306 0.005011138158260207 0.4535920904745525 0.4391221493434534 0.8910106179493908 
Task38 0.14349705350144795 0.5316869662544712 0.09210515866770752 0.16228687048458934 0.5718819712207948 0.4135691055513388 0.5544093273817683 
Task39 0.02393276705232317 0.44242154141633805 0.1868568339197602 0.10968874116043988 0.3728386651728642 0.7579164192863543 0.7685746419156136 
Task40 0.041735101822298774 0.06080772732549546 0.0226047393863416 0.13653618397902606 0.8158691404188851 0.6188495511301517 0.9951910036644458 
Task41 0.05794386093239767 0.12893548395533727 0.10333288598202377 0.12765819540730966 0.4266088429199955 0.6035830089378946 0.3963365733251098 
Task42 0.04676734605318326 0.45637346216430497 0.07808790785577299 0.17036930093765207 0.30041408220939186 0.4289243828566623 0.5676189147001656 
Task43 0.06715688110775443 0.1039412021935655 0.20518517193551358 0.35354039898531636 0.7385165949618475 0.4098772941088474 0.33383244188172406 
Task44 0.030885815173388703 0.3628749506408303 0.008929870633360832 0.08528977904591589 0.9498531698605088 0.5505314083853741 0.7481826526979164 
Task45 0.01087599111373499 0.21583420504701495 0.01792764058593311 0.2831035735940922 0.65109173574985 0.6138777322407893 0.5479884791520611 
Task46 0.006288410862829307 0.1782363870621558 0.22314358262075082 0.053411274292914306 0.6157177168092205 0.5984419317508904 0.6009972623648757 
Task47 0.16412272357347515 0.016205594985788132 0.4853933410733108 0.29259608390770725 0.9168571167247621 0.7691765382417239 0.40780144684244657 
Task48 0.002913751418506815 0.005945309050372693 0.004513437170663588 0.006843763698502007 0.4053806144738535 0.4334413266977645 0.5482219106997931 
Task49 0.045294048538338454 0.4350137250085221 0.059712506721933054 0.4091865393783802 0.6511529304247317 0.3978465269871938 0.8552396821935924 
Task50 0.0009915111222403902 0.2872176494276606 0.23762186491541817 0.2505958205913478 0.9456708391638791 0.9515920563782607 0.8402301823913267 
Task51 0.00010322201386180988 0.11112203559955272 0.3305294994349727 0.4991271485607133 0.5874697873869549 0.597501613575141 0.6141775940090084 
Task52 0.010789548591707134 0.1448875307192757 0.15564268310591953 0.10719976186431597 0.9597859743734749 0.300027080360938 0.8668878268798086 
Task53 0.032344954270309 0.1632929668547921 0.32583455231476105 0.3781960625362472 0.4326810514162805 0.7402819168861993 0.36826724245928205 
Task54 0.010648395095178134 0.010991918074886878 0.06340247704581914 0.03136066112370092 0.7023990725646001 0.5770158226476182 0.7899682318940386 
Task55 0.04669510298534562 0.036995369830242424 0.551113847328464 0.10092421360979863 0.4364707288201063 0.462685581643119 0.5208791277699791 
Task56 0.011253131879319714 0.04040868577749652 0.00444030895573433 0.025823671226159445 0.9384175706316387 0.33233241526980817 0.5936169494176788 
Task57 0.11995717289967729 0.1903550725320116 0.45225576553864055 0.1553983162447796 0.5055898316574503 0.9868785273463663 0.34280878941711995 
Task58 0.029116019014492164 0.14323659365548022 0.19125289796865008 0.5997348021284348 0.4391908135167278 0.6020210182935157 0.7552675967993476 
Task59 0.03575809150291445 0.02892524485381144 0.0381272169361672 0.08756510545861554 0.9719194564386444 0.33701381117512386 0.6452539728899713 
Task60 0.05410182635973078 0.09973053520653362 0.22308311231415817 0.17098221516830747 0.8289406219498847 0.5341155912728508 0.386889705899053 
Task61 0.02605729009928432 0.2787938967143682 0.10402399216240314 0.3738958682937954 0.396859021358066 0.6809114322089511 0.7739513754291614 
Task62 0.007656154608058292 0.032457706211881175 0.1514283731154171 0.12263474154458098 0.39770181053663395 0.7644144456540856 0.6705100176296757 
Task63 0.0016598449752717364 0.012186456730035641 0.046318448884597185 0.023588301506949457 0.6853837939635608 0.43200340349939365 0.9267287516569054 
Task64 0.09683193191271737 0.27952706170787445 0.16025968633103244 0.4550440309559041 0.7869141741341209 0.6265721359343348 0.9695496269305612 
Task65 0.041826419726818866 0.08347936597834998 0.06822878053518669 0.02764034571963123 0.8567285786479901 0.37308803111550143 0.817447826055123 
Task66 0.07767454513235034 0.5793643722492726 0.0715212810429635 0.015646210495904644 0.756802825233709 0.7736603238862734 0.8415332459285114 
Task67 0.0737600042589391 0.15698704118719725 0.251959408935531 0.04096647453883591 0.38850083983127515 0.7776086482469675 0.7234318263372543 
Task68 0.10925817694187318 0.25738616982973034 0.008771151863554602 0.17593966910495373 0.9601041440979341 0.5683099440524966 0.5888833368776164 
Task69 0.0012077002038646334 0.1981479839871981 0.2055448678360269 0.05919032589958486 0.6612474222010857 0.6637350028124218 0.9572274918760235 
Task70 0.1167659899237283 0.239413197275799 0.1722136933842803 0.17527370108405294 0.6350775432237702 0.45802943549191977 0.8594285230408254 
Task71 0.02759679800141301 0.13642420511188108 0.18400818375529818 0.007428118922356377 0.5222268141564741 0.9235699770863914 0.5628616903969084 
Task72 0.043481463274159374 0.2027823114432964 0.06704682749551052 0.19123794910615613 0.39660889167439956 0.6077853058728064 0.7793637953486507 
Task73 0.004767822881727545 0.009115584569094132 0.04056919137545873 0.003538384266854149 0.8128381932843927 0.4686094054444783 0.606235584029089 
Task74 0.07604188666067285 0.1522383580973017 0.1618316312714545 0.18869150557746248 0.9901605170718173 0.3937013651739511 0.3529715791123149 
Task75 0.025230902416554478 0.15850427865472352 0.17335799654828815 0.21278002220527062 0.44019071487941647 0.5895400753096843 0.3126586422164438 
Task76 0.027793204645161572 0.09362863285018748 0.08094251202911668 0.04532098108126066 0.7832964844424082 0.7429805065180679 0.6542048606995585 
Task77 0.006348051703847066 0.07426445597902193 0.038988735456396834 0.04971843270553508 0.35747859699901297 0.41078115749218685 0.34209339393091087 
Task78 0.15070457873483473 0.19641569592675812 0.2830958178809357 0.2585115111063382 0.8006221214506024 0.30803245102897137 0.8317236616388883 
Task79 0.14462825550712105 0.027686055587305296 0.3539169987666603 0.2080559809450496 0.5006779248769504 0.453749070904414 0.9556890100614637 
Task80 0.06176458134997454 0.12538921565485264 0.02164604347480626 0.25286912464966566 0.622601796372022 0.9499503845207897 0.3370323165399429 
Task81 0.045415235772658866 0.10626307266246314 0.15807012051453276 0.2107934236681996 0.8219181810212188 0.4024866771935829 0.45102520882536656 
Task82 0.0947856720044928 0.09247516494404158 0.407510389430939 0.38102364452729753 0.8703473996596285 0.564712594563903 0.9300464076817221 
Task83 0.06335157757814011 0.4098814500371454 0.025349770148050815 0.2534299647274613 0.8565336621240944 0.5854775564364355 0.8520106237121261 
Task84 0.013425004539549064 0.044652798558253166 0.06170061955426611 0.12142560735237647 0.861829330355625 0.3059768292472386 0.4917382135354229 
Task85 0.056585145952444835 0.20066791868100248 0.15571960272606844 0.15859978593703145 0.5658014138936571 0.5674393807721161 0.8994735904359465 
Task86 0.0535713333676495 0.3027592950578585 0.19493650796407597 0.10428086274016189 0.3030409875290633 0.8888454759481015 0.35480588305717947 
Task87 0.17894141038883077 0.3147383396067398 0.1659332800274312 0.2854661004757121 0.4518364253212336 0.3822803530813432 0.7622673498886104 
Task88 0.04018577611937822 0.11108487977950249 0.016629723732683968 0.13217544558043534 0.6477136073414692 0.383503039807097 0.746412138410357 
Task89 0.010143994633714808 0.008684223856682757 0.00953716528564663 0.05847725022307066 0.79741267672557 0.49475103613658566 0.5175206592363029 
Task90 0.06675411344659302 0.0827838263196771 0.19015251137516018 0.3304429678083672 0.4303129808291953 0.3367195493207946 0.565396180760209 
Task91 0.10570417837789124 0.22231416216782524 0.17256902444931096 0.2057185478465187 0.4062537715932392 0.8883987315617166 0.4879941916689017 
Task92 0.0003750648062160141 0.02755693520903802 0.044212726126876156 0.07326744386552674 0.6225103735527413 0.5606431608159006 0.8589617503023383 
Task93 0.057325367807555754 0.09087670707036581 0.1138973325289944 0.05788384895529933 0.9012934374894415 0.6005239787976714 0.7531578982688257 
Task94 0.06509611346222803 0.13661606875331114 0.08320088969824699 0.4011008159248683 0.7655451307618044 0.7703244027176712 0.6522805681517344 
Task95 0.040592397275312116 0.163473288037059 0.03773152768735189 0.1343137185292767 0.318960204564843 0.3754391762118071 0.4928386127081076 
Task96 0.08593689791695579 0.24596552987300266 0.33848261040336 0.09740729855187172 0.447942508506267 0.7645475147501217 0.9689825785943327 
Task97 0.033636069311467225 0.1990497397770999 0.023794723720520605 0.3536501422184857 0.7692671745134487 0.405365678587721 0.575036193677646 
Task98 0.0010064989405031747 0.0021570347573815177 0.006343688300497061 0.013889060892360272 0.5179797415408849 0.33502983946246456 0.5292580720227457 
Task99 0.049228430572209346 0.4041992946383586 0.03905642385969897 0.4409893343091652 0.8087839319796759 0.46151190667630104 0.8614772107198381 
