0.44748367000000006
Task0 3 63 7 
Task1 63 31 31 
Task2 255 15 15 
Task3 127 255 63 
Task4 3 63 255 
Task5 1 63 127 
Task6 63 15 3 
Task7 63 63 31 
Task8 3 31 63 
Task9 127 3 63 
Task10 15 63 31 
Task11 63 1 7 
Task12 127 127 31 
Task13 63 31 63 
Task14 63 63 1 
Task15 63 63 127 
Task16 255 127 127 
Task17 255 127 63 
Task18 63 63 15 
Task19 15 31 255 
Task20 63 15 255 
Task21 3 3 63 
Task22 63 31 31 
Task23 15 63 63 
Task24 127 63 15 
Task25 63 63 127 
Task26 63 127 15 
Task27 7 255 1 
Task28 63 255 31 
Task29 15 63 255 
Task30 63 63 31 
Task31 255 15 3 
Task32 63 31 1 
Task33 255 63 31 
Task34 7 63 127 
Task35 7 31 127 
Task36 31 63 63 
Task37 1 255 31 
Task38 31 255 255 
Task39 7 127 63 
Task40 7 255 3 
Task41 127 255 127 
Task42 7 63 15 
Task43 63 127 63 
Task44 63 1 255 
Task45 15 1 63 
Task46 7 63 1 
Task47 63 255 255 
Task48 63 31 255 
Task49 3 15 255 
Task50 7 63 15 
Task51 3 7 63 
Task52 1 7 63 
Task53 7 15 255 
Task54 63 127 15 
Task55 15 7 63 
Task56 63 63 31 
Task57 63 7 3 
Task58 1 255 127 
Task59 3 63 255 
Task60 31 255 1 
Task61 15 63 127 
Task62 127 255 31 
Task63 255 127 255 
Task64 7 255 15 
Task65 7 127 31 
Task66 31 63 63 
Task67 1 3 63 
Task68 63 31 255 
Task69 7 127 31 
Task70 7 15 63 
Task71 63 15 127 
Task72 63 7 7 
Task73 127 63 63 
Task74 127 7 63 
Task75 31 1 63 
Task76 255 255 7 
Task77 15 31 255 
Task78 7 255 31 
Task79 31 63 63 
Task80 1 63 255 
Task81 63 63 31 
Task82 15 15 63 
Task83 255 7 15 
Task84 15 63 3 
Task85 255 31 15 
Task86 63 255 255 
Task87 63 63 63 
Task88 255 31 63 
Task89 31 15 255 
Task90 63 1 1 
Task91 1 63 255 
Task92 63 15 15 
Task93 7 15 63 
Task94 15 63 63 
Task95 63 1 7 
Task96 15 63 255 
Task97 7 7 255 
Task98 127 255 63 
Task99 31 63 255 
