0.3580900530000001
Task0 3 15 31 
Task1 15 127 31 
Task2 255 255 127 
Task3 15 15 31 
Task4 31 15 63 
Task5 63 7 7 
Task6 255 127 127 
Task7 15 15 63 
Task8 15 31 1 
Task9 31 63 63 
Task10 3 31 1 
Task11 31 1 7 
Task12 3 31 3 
Task13 7 3 63 
Task14 63 31 31 
Task15 15 31 7 
Task16 7 31 7 
Task17 31 63 31 
Task18 7 127 31 
Task19 1 31 31 
Task20 63 15 31 
Task21 31 63 255 
Task22 15 3 31 
Task23 15 63 7 
Task24 15 255 63 
Task25 1 31 15 
Task26 31 3 63 
Task27 15 63 255 
Task28 15 31 63 
Task29 7 7 31 
Task30 255 31 31 
Task31 31 15 63 
Task32 7 31 7 
Task33 31 63 15 
Task34 1 3 31 
Task35 7 15 31 
Task36 1 7 63 
Task37 15 15 63 
Task38 31 3 31 
Task39 63 15 3 
Task40 3 63 31 
Task41 15 15 63 
Task42 15 7 15 
Task43 3 15 31 
Task44 31 15 63 
Task45 31 63 15 
Task46 7 63 7 
Task47 7 63 7 
Task48 31 7 7 
Task49 31 127 255 
Task50 31 3 31 
Task51 63 15 1 
Task52 31 15 127 
Task53 7 7 31 
Task54 31 31 255 
Task55 63 1 7 
Task56 63 1 31 
Task57 31 7 7 
Task58 1 31 31 
Task59 1 31 3 
Task60 63 7 255 
Task61 63 7 7 
Task62 15 63 63 
Task63 31 63 31 
Task64 7 63 7 
Task65 7 31 15 
Task66 15 63 15 
Task67 63 31 15 
Task68 7 31 15 
Task69 63 15 3 
Task70 7 31 1 
Task71 63 15 1 
Task72 15 255 255 
Task73 31 7 31 
Task74 31 63 15 
Task75 31 1 1 
Task76 7 63 15 
Task77 63 7 63 
Task78 15 31 31 
Task79 31 63 15 
Task80 1 3 31 
Task81 15 63 7 
Task82 31 63 7 
Task83 31 31 3 
Task84 255 255 255 
Task85 7 15 31 
Task86 63 63 31 
Task87 31 31 1 
Task88 7 15 31 
Task89 31 7 1 
Task90 7 1 31 
Task91 7 255 255 
Task92 15 63 31 
Task93 7 63 1 
Task94 1 31 15 
Task95 1 7 31 
Task96 15 1 63 
Task97 127 255 255 
Task98 63 1 31 
Task99 31 3 7 
