0.34069546
Task0 31 15 15 
Task1 63 15 1 
Task2 63 63 31 
Task3 255 15 31 
Task4 63 7 3 
Task5 63 63 15 
Task6 63 7 31 
Task7 15 3 31 
Task8 31 1 3 
Task9 1 31 3 
Task10 31 63 127 
Task11 7 63 31 
Task12 63 15 7 
Task13 15 31 31 
Task14 31 1 3 
Task15 31 7 3 
Task16 1 3 31 
Task17 7 15 63 
Task18 63 31 15 
Task19 63 7 31 
Task20 7 63 63 
Task21 7 63 31 
Task22 3 63 31 
Task23 31 7 63 
Task24 31 31 63 
Task25 1 31 1 
Task26 3 63 1 
Task27 31 63 7 
Task28 31 63 7 
Task29 63 7 15 
Task30 1 15 63 
Task31 63 7 7 
Task32 255 63 63 
Task33 31 1 7 
Task34 1 3 63 
Task35 63 15 3 
Task36 63 63 7 
Task37 31 31 31 
Task38 31 15 15 
Task39 63 15 63 
Task40 1 15 63 
Task41 31 7 1 
Task42 1 63 63 
Task43 31 31 7 
Task44 63 7 3 
Task45 63 7 3 
Task46 7 31 1 
Task47 255 255 255 
Task48 31 15 1 
Task49 63 31 3 
Task50 31 31 31 
Task51 15 255 63 
Task52 15 63 7 
Task53 3 3 31 
Task54 31 3 7 
Task55 7 63 31 
Task56 1 31 3 
Task57 31 3 15 
Task58 63 31 3 
Task59 3 63 3 
Task60 31 1 31 
Task61 63 1 1 
Task62 1 63 7 
Task63 3 63 31 
Task64 7 31 63 
Task65 63 255 63 
Task66 3 31 7 
Task67 63 63 127 
Task68 3 63 1 
Task69 31 15 63 
Task70 7 7 31 
Task71 3 31 7 
Task72 7 1 31 
Task73 15 31 7 
Task74 31 7 15 
Task75 7 31 63 
Task76 15 7 63 
Task77 31 63 31 
Task78 15 63 31 
Task79 3 31 15 
Task80 15 31 15 
Task81 31 7 31 
Task82 31 31 1 
Task83 31 3 7 
Task84 15 31 31 
Task85 31 63 7 
Task86 63 63 7 
Task87 63 15 63 
Task88 63 15 63 
Task89 15 31 31 
Task90 63 255 31 
Task91 63 15 7 
Task92 255 127 31 
Task93 31 15 15 
Task94 7 31 15 
Task95 31 31 15 
Task96 127 31 31 
Task97 1 7 63 
Task98 127 255 31 
Task99 63 255 3 
