0.36318543200000003
Task0 31 31 7 
Task1 7 31 31 
Task2 1 15 63 
Task3 63 15 3 
Task4 63 255 255 
Task5 7 63 7 
Task6 15 63 3 
Task7 1 63 15 
Task8 31 15 63 
Task9 127 63 255 
Task10 31 31 63 
Task11 1 15 63 
Task12 63 31 15 
Task13 127 63 31 
Task14 7 7 31 
Task15 3 31 63 
Task16 31 31 1 
Task17 63 31 63 
Task18 63 63 1 
Task19 127 63 7 
Task20 63 31 63 
Task21 63 63 63 
Task22 7 3 63 
Task23 31 63 31 
Task24 63 15 3 
Task25 63 63 255 
Task26 63 15 15 
Task27 127 63 255 
Task28 63 63 63 
Task29 15 7 63 
Task30 3 31 3 
Task31 63 63 63 
Task32 63 7 15 
Task33 63 7 15 
Task34 7 7 63 
Task35 7 31 31 
Task36 63 7 15 
Task37 63 31 255 
Task38 63 31 63 
Task39 63 127 255 
Task40 31 63 1 
Task41 15 31 15 
Task42 127 31 31 
Task43 1 63 7 
Task44 3 31 63 
Task45 1 7 63 
Task46 15 31 31 
Task47 7 31 1 
Task48 63 15 3 
Task49 1 1 63 
Task50 63 7 1 
Task51 63 7 1 
Task52 15 63 15 
Task53 31 1 63 
Task54 15 1 31 
Task55 7 31 15 
Task56 1 31 31 
Task57 63 15 7 
Task58 31 31 15 
Task59 31 63 63 
Task60 1 31 3 
Task61 31 63 7 
Task62 3 31 15 
Task63 15 63 1 
Task64 7 63 15 
Task65 7 3 63 
Task66 255 255 127 
Task67 15 7 63 
Task68 31 31 15 
Task69 31 7 63 
Task70 7 3 63 
Task71 3 63 3 
Task72 7 7 63 
Task73 31 63 3 
Task74 63 31 63 
Task75 15 15 63 
Task76 31 31 3 
Task77 7 7 255 
Task78 63 31 63 
Task79 31 31 63 
Task80 255 255 255 
Task81 7 31 1 
Task82 31 63 7 
Task83 63 7 15 
Task84 15 31 31 
Task85 3 63 7 
Task86 31 63 3 
Task87 3 63 31 
Task88 31 63 31 
Task89 3 1 63 
Task90 15 63 15 
Task91 63 7 63 
Task92 63 31 7 
Task93 255 7 255 
Task94 31 3 31 
Task95 3 63 1 
Task96 31 63 31 
Task97 3 255 15 
Task98 3 15 63 
Task99 31 63 7 
