0.37582730000000003
Task0 31 15 7 
Task1 63 63 31 
Task2 7 63 1 
Task3 31 63 255 
Task4 15 31 63 
Task5 127 127 31 
Task6 31 3 63 
Task7 31 15 15 
Task8 127 31 15 
Task9 31 3 63 
Task10 63 7 15 
Task11 31 31 3 
Task12 15 255 63 
Task13 31 31 127 
Task14 63 15 127 
Task15 31 31 31 
Task16 63 31 7 
Task17 7 63 7 
Task18 63 255 7 
Task19 3 3 63 
Task20 63 7 15 
Task21 7 31 63 
Task22 1 3 63 
Task23 127 15 7 
Task24 31 63 31 
Task25 31 63 15 
Task26 31 63 7 
Task27 127 127 127 
Task28 63 15 63 
Task29 7 63 7 
Task30 7 31 255 
Task31 31 63 255 
Task32 63 1 3 
Task33 7 127 63 
Task34 127 31 63 
Task35 7 63 1 
Task36 63 127 3 
Task37 63 63 31 
Task38 63 15 15 
Task39 31 63 255 
Task40 15 63 31 
Task41 63 63 3 
Task42 15 127 63 
Task43 3 63 3 
Task44 1 63 15 
Task45 63 1 15 
Task46 15 63 31 
Task47 1 255 63 
Task48 1 63 7 
Task49 63 7 1 
Task50 15 15 255 
Task51 63 31 7 
Task52 3 31 63 
Task53 15 63 1 
Task54 63 31 15 
Task55 31 15 63 
Task56 31 255 63 
Task57 63 31 255 
Task58 1 15 63 
Task59 127 63 15 
Task60 63 3 7 
Task61 3 31 63 
Task62 63 31 3 
Task63 31 63 3 
Task64 1 63 7 
Task65 255 63 127 
Task66 255 127 63 
Task67 15 63 7 
Task68 31 63 63 
Task69 3 1 63 
Task70 31 7 31 
Task71 63 3 7 
Task72 255 63 7 
Task73 63 3 31 
Task74 3 15 63 
Task75 31 63 31 
Task76 7 63 3 
Task77 63 31 7 
Task78 15 1 63 
Task79 31 31 63 
Task80 3 31 31 
Task81 15 63 7 
Task82 63 63 15 
Task83 63 7 15 
Task84 15 1 63 
Task85 63 7 15 
Task86 63 7 63 
Task87 3 31 63 
Task88 15 63 7 
Task89 7 63 1 
Task90 31 255 63 
Task91 15 7 63 
Task92 63 15 1 
Task93 63 3 7 
Task94 15 7 63 
Task95 31 31 7 
Task96 1 63 31 
Task97 3 63 3 
Task98 15 63 15 
Task99 127 127 255 
