Task0 1 1 3 
Task1 1 1 1 
Task2 1 1 1 
Task3 1 1 1 
Task4 1 1 1 
Task5 1 1 3 
Task6 1 1 1 
Task7 1 1 1 
Task8 1 1 1 
Task9 3 1 1 
Task10 1 1 1 
Task11 1 1 1 
Task12 1 1 1 
Task13 1 1 1 
Task14 1 1 1 
Task15 3 1 1 
Task16 1 1 1 
Task17 1 1 1 
Task18 1 1 1 
Task19 1 1 1 
Task20 1 1 1 
Task21 1 1 1 
Task22 1 1 1 
Task23 1 3 1 
Task24 1 3 1 
Task25 3 1 3 
Task26 1 1 1 
Task27 1 1 1 
Task28 1 1 3 
Task29 1 1 7 
Task30 3 3 1 
Task31 1 1 1 
Task32 1 1 1 
Task33 1 1 1 
Task34 1 1 3 
Task35 1 1 1 
Task36 1 1 1 
Task37 3 1 1 
Task38 1 1 1 
Task39 7 7 7 
Task40 1 1 1 
Task41 1 1 1 
Task42 3 1 3 
Task43 1 3 1 
Task44 7 1 15 
Task45 1 1 3 
Task46 1 1 1 
Task47 1 1 1 
Task48 1 3 1 
Task49 1 1 3 
Task50 7 1 1 
Task51 1 1 1 
Task52 1 1 1 
Task53 1 1 1 
Task54 1 1 1 
Task55 3 1 1 
Task56 3 1 3 
Task57 1 1 1 
Task58 1 3 3 
Task59 1 1 1 
Task60 3 1 1 
Task61 1 1 1 
Task62 1 3 1 
Task63 1 1 1 
Task64 1 3 1 
Task65 1 1 1 
Task66 1 1 1 
Task67 3 1 1 
Task68 1 3 3 
Task69 1 1 1 
Task70 3 1 3 
Task71 1 3 1 
Task72 7 1 7 
Task73 1 1 1 
Task74 1 1 1 
Task75 1 1 1 
Task76 1 1 1 
Task77 1 1 1 
Task78 1 1 1 
Task79 7 1 3 
Task80 1 1 1 
Task81 1 1 1 
Task82 1 1 1 
Task83 1 3 1 
Task84 1 1 3 
Task85 1 3 3 
Task86 3 7 63 
Task87 1 1 1 
Task88 1 1 1 
Task89 1 1 1 
Task90 3 1 1 
Task91 1 1 1 
Task92 1 1 1 
Task93 3 1 3 
Task94 3 3 1 
Task95 1 1 1 
Task96 1 1 1 
Task97 1 1 3 
Task98 3 1 1 
Task99 1 1 1 
