0.4967233
Task0 63 127 127 
Task1 255 15 7 
Task2 7 1 63 
Task3 63 63 255 
Task4 127 255 15 
Task5 31 1 255 
Task6 255 15 15 
Task7 255 127 255 
Task8 255 63 1 
Task9 127 255 127 
Task10 31 31 255 
Task11 63 1 31 
Task12 255 3 31 
Task13 63 63 3 
Task14 7 15 127 
Task15 15 31 127 
Task16 255 127 127 
Task17 3 127 63 
Task18 255 1 3 
Task19 63 255 1 
Task20 255 255 63 
Task21 127 63 31 
Task22 63 255 255 
Task23 127 3 7 
Task24 255 63 255 
Task25 63 7 127 
Task26 255 127 255 
Task27 255 1 3 
Task28 255 63 63 
Task29 255 255 63 
Task30 63 255 63 
Task31 3 31 63 
Task32 63 127 63 
Task33 31 255 63 
Task34 255 31 15 
Task35 7 63 7 
Task36 63 15 127 
Task37 1 31 63 
Task38 63 3 63 
Task39 255 127 1 
Task40 255 31 31 
Task41 255 127 15 
Task42 255 255 255 
Task43 15 127 127 
Task44 63 127 31 
Task45 15 15 255 
Task46 255 15 3 
Task47 7 255 7 
Task48 1 1 255 
Task49 63 31 15 
Task50 3 15 63 
Task51 3 15 63 
Task52 7 15 63 
Task53 127 63 7 
Task54 31 255 31 
Task55 63 63 127 
Task56 127 15 127 
Task57 31 255 15 
Task58 127 63 63 
Task59 63 63 255 
Task60 31 255 1 
Task61 127 127 63 
Task62 255 7 15 
Task63 63 63 31 
Task64 255 255 63 
Task65 3 3 63 
Task66 1 127 63 
Task67 255 15 15 
Task68 15 127 63 
Task69 255 255 255 
Task70 31 63 15 
Task71 63 1 7 
Task72 7 255 31 
Task73 31 63 255 
Task74 255 63 31 
Task75 15 255 3 
Task76 127 31 127 
Task77 3 127 15 
Task78 255 3 255 
Task79 63 31 255 
Task80 7 31 63 
Task81 31 7 63 
Task82 63 1 15 
Task83 255 7 31 
Task84 7 63 31 
Task85 3 127 31 
Task86 63 15 63 
Task87 63 255 127 
Task88 255 15 1 
Task89 63 1 1 
Task90 15 127 63 
Task91 255 63 31 
Task92 31 63 63 
Task93 63 63 63 
Task94 15 31 255 
Task95 7 31 63 
Task96 15 63 255 
Task97 7 63 31 
Task98 7 255 7 
Task99 127 63 63 
