0.35751459999999996
Task0 31 3 63 
Task1 31 3 1 
Task2 31 255 31 
Task3 63 31 31 
Task4 31 7 3 
Task5 7 31 31 
Task6 63 63 127 
Task7 31 31 31 
Task8 63 63 127 
Task9 255 7 7 
Task10 31 7 1 
Task11 63 31 63 
Task12 31 15 31 
Task13 31 15 15 
Task14 7 7 63 
Task15 15 31 3 
Task16 63 7 7 
Task17 31 63 7 
Task18 63 31 63 
Task19 15 15 31 
Task20 31 3 1 
Task21 31 1 31 
Task22 1 31 7 
Task23 31 15 31 
Task24 15 63 15 
Task25 63 7 63 
Task26 31 3 15 
Task27 7 63 15 
Task28 15 63 15 
Task29 31 63 15 
Task30 7 15 63 
Task31 31 1 3 
Task32 31 31 7 
Task33 63 15 15 
Task34 3 31 15 
Task35 31 1 15 
Task36 7 15 31 
Task37 31 7 7 
Task38 7 31 1 
Task39 7 31 7 
Task40 63 63 63 
Task41 31 7 31 
Task42 1 7 31 
Task43 31 3 63 
Task44 31 7 15 
Task45 63 1 31 
Task46 3 7 255 
Task47 7 1 63 
Task48 3 31 7 
Task49 31 63 3 
Task50 31 3 3 
Task51 63 15 3 
Task52 31 7 1 
Task53 63 1 7 
Task54 1 31 31 
Task55 15 63 3 
Task56 63 63 7 
Task57 31 63 1 
Task58 15 3 31 
Task59 1 7 31 
Task60 15 15 63 
Task61 15 31 31 
Task62 31 15 63 
Task63 63 31 15 
Task64 3 7 31 
Task65 31 1 31 
Task66 31 15 15 
Task67 63 63 31 
Task68 63 7 1 
Task69 1 31 31 
Task70 31 63 3 
Task71 31 15 63 
Task72 3 31 15 
Task73 63 63 63 
Task74 31 63 31 
Task75 31 31 63 
Task76 3 63 15 
Task77 31 31 31 
Task78 63 255 127 
Task79 7 63 3 
Task80 63 31 15 
Task81 31 63 3 
Task82 31 31 15 
Task83 31 31 7 
Task84 7 31 31 
Task85 63 7 7 
Task86 255 15 15 
Task87 255 1 255 
Task88 63 15 7 
Task89 127 127 255 
Task90 15 31 3 
Task91 15 31 3 
Task92 3 7 31 
Task93 15 1 31 
Task94 63 31 15 
Task95 1 1 63 
Task96 31 1 3 
Task97 1 7 31 
Task98 15 63 1 
Task99 31 7 1 
