Task0 3 1 1 
Task1 1 3 1 
Task2 1 1 1 
Task3 1 1 1 
Task4 3 3 1 
Task5 1 1 1 
Task6 3 1 1 
Task7 3 1 1 
Task8 1 1 1 
Task9 3 1 1 
Task10 1 1 1 
Task11 1 1 3 
Task12 1 1 1 
Task13 1 1 1 
Task14 1 1 1 
Task15 1 3 1 
Task16 1 3 1 
Task17 1 1 1 
Task18 1 1 1 
Task19 1 3 1 
Task20 3 1 1 
Task21 1 1 1 
Task22 1 1 1 
Task23 1 1 1 
Task24 7 3 1 
Task25 1 3 1 
Task26 7 15 7 
Task27 7 1 1 
Task28 3 1 1 
Task29 3 1 1 
Task30 1 1 1 
Task31 1 3 1 
Task32 1 1 1 
Task33 1 7 1 
Task34 3 1 3 
Task35 1 1 1 
Task36 1 3 1 
Task37 1 1 1 
Task38 1 1 1 
Task39 7 3 3 
Task40 3 1 3 
Task41 3 1 1 
Task42 3 1 1 
Task43 1 1 1 
Task44 1 1 1 
Task45 3 1 1 
Task46 1 1 1 
Task47 1 1 1 
Task48 1 1 1 
Task49 1 1 1 
Task50 1 1 1 
Task51 1 1 1 
Task52 1 1 1 
Task53 1 1 1 
Task54 1 1 1 
Task55 1 1 1 
Task56 1 1 1 
Task57 1 1 1 
Task58 1 1 1 
Task59 3 1 1 
Task60 1 1 1 
Task61 1 1 1 
Task62 1 1 1 
Task63 1 7 1 
Task64 1 3 1 
Task65 1 3 7 
Task66 1 1 1 
Task67 1 1 1 
Task68 1 1 1 
Task69 1 1 1 
Task70 3 1 1 
Task71 1 1 1 
Task72 1 1 1 
Task73 1 1 1 
Task74 7 1 15 
Task75 1 1 7 
Task76 1 1 3 
Task77 1 1 3 
Task78 1 1 1 
Task79 1 1 1 
Task80 63 255 63 
Task81 1 1 1 
Task82 3 1 1 
Task83 1 1 1 
Task84 1 1 1 
Task85 3 7 1 
Task86 1 1 1 
Task87 1 1 1 
Task88 1 1 3 
Task89 3 1 1 
Task90 1 1 1 
Task91 1 1 1 
Task92 1 1 1 
Task93 1 1 1 
Task94 1 1 1 
Task95 1 1 1 
Task96 1 1 1 
Task97 1 1 7 
Task98 1 1 1 
Task99 1 1 1 
