files/tasks_parameters/Expden0.3/sample8.txt 0.836308 2.83977 3.93041 0.364463 7.47916
files/tasks_parameters/Expden0.3/sample12.txt 0.975991 2.79314 5.01422 0.399726 8.20279
files/tasks_parameters/Expden0.3/sample2.txt 0.972716 3.44741 5.14965 0.434922 8.92503
files/tasks_parameters/Expden0.3/sample44.txt 1.27367 3.56437 5.37401 0.526223 10.7986
files/tasks_parameters/Expden0.3/sample27.txt 1.23762 4.2278 4.82967 0.509186 10.449
files/tasks_parameters/Expden0.3/sample17.txt 0.993314 3.23395 5.09379 0.420361 8.62623
files/tasks_parameters/Expden0.3/sample9.txt 1.00941 3.52911 4.85811 0.447057 9.17406
files/tasks_parameters/Expden0.3/sample34.txt 1.33526 4.18938 5.78413 0.541973 11.1218
files/tasks_parameters/Expden0.3/sample40.txt 1.12489 3.56979 5.24219 0.50562 10.3758
files/tasks_parameters/Expden0.3/sample33.txt 1.13082 3.46413 5.76098 0.475556 9.75889
files/tasks_parameters/Expden0.3/sample48.txt 0.777691 2.79455 4.446 0.3251 6.67138
files/tasks_parameters/Expden0.3/sample29.txt 1.028 3.492 5.1547 0.456626 9.37044
files/tasks_parameters/Expden0.3/sample11.txt 0.986693 3.65373 5.47179 0.433658 8.89909
files/tasks_parameters/Expden0.3/sample14.txt 1.32399 4.4215 5.25964 0.535931 10.9979
files/tasks_parameters/Expden0.3/sample0.txt 0.917295 3.848 5.05913 0.415155 8.51939
files/tasks_parameters/Expden0.3/sample7.txt 1.10258 3.03412 4.45399 0.386741 7.93632
files/tasks_parameters/Expden0.3/sample23.txt 1.12701 3.44845 4.91 0.477082 9.7902
files/tasks_parameters/Expden0.3/sample13.txt 1.14348 3.82913 5.35206 0.514488 10.5578
files/tasks_parameters/Expden0.3/sample22.txt 0.888531 3.18271 5.20829 0.367271 7.53677
files/tasks_parameters/Expden0.3/sample25.txt 1.04934 3.0643 4.78774 0.436003 8.94722
files/tasks_parameters/Expden0.3/sample36.txt 1.2796 3.95981 4.77709 0.545287 11.1898
files/tasks_parameters/Expden0.3/sample46.txt 1.10326 4.03753 4.75111 0.479458 9.83896
files/tasks_parameters/Expden0.3/sample31.txt 1.46007 3.83959 5.28545 0.614239 12.6048
files/tasks_parameters/Expden0.3/sample37.txt 1.27625 3.79818 5.51381 0.532025 10.9177
files/tasks_parameters/Expden0.3/sample16.txt 0.939434 3.18394 4.37115 0.395648 8.11909
files/tasks_parameters/Expden0.3/sample10.txt 0.937203 3.34026 4.67497 0.389347 7.9898
files/tasks_parameters/Expden0.3/sample39.txt 1.01668 3.50308 4.85207 0.44065 9.04258
files/tasks_parameters/Expden0.3/sample19.txt 1.17833 3.96941 5.46365 0.504877 10.3606
files/tasks_parameters/Expden0.3/sample20.txt 1.11534 3.56605 4.92882 0.475754 9.76295
files/tasks_parameters/Expden0.3/sample43.txt 1.07861 3.64809 4.58757 0.468445 9.61296
files/tasks_parameters/Expden0.3/sample32.txt 1.00519 3.19566 4.65976 0.432883 8.88321
files/tasks_parameters/Expden0.3/sample45.txt 1.25734 3.30046 5.66255 0.507067 10.4055
files/tasks_parameters/Expden0.3/sample26.txt 0.962557 3.31443 4.50544 0.429586 8.81554
files/tasks_parameters/Expden0.3/sample5.txt 0.993943 3.22245 5.49392 0.433884 8.90375
files/tasks_parameters/Expden0.3/sample21.txt 0.966967 3.51908 5.01243 0.428952 8.80253
files/tasks_parameters/Expden0.3/sample38.txt 1.18824 3.83639 5.28442 0.469861 9.64203
files/tasks_parameters/Expden0.3/sample1.txt 1.24943 3.70731 5.42012 0.534967 10.9781
files/tasks_parameters/Expden0.3/sample15.txt 1.68252 4.00164 5.37087 0.639036 13.1137
files/tasks_parameters/Expden0.3/sample24.txt 0.903621 3.26547 4.33355 0.405516 8.3216
files/tasks_parameters/Expden0.3/sample3.txt 1.11651 3.42923 4.7939 0.476842 9.78529
files/tasks_parameters/Expden0.3/sample6.txt 1.1402 3.67646 5.75488 0.519356 10.6577
files/tasks_parameters/Expden0.3/sample30.txt 1.12692 4.01191 4.86609 0.466101 9.56487
files/tasks_parameters/Expden0.3/sample42.txt 1.16847 3.53231 4.70073 0.495293 10.1639
files/tasks_parameters/Expden0.3/sample4.txt 1.23518 3.88637 5.46218 0.49965 10.2533
files/tasks_parameters/Expden0.3/sample28.txt 1.29553 3.64215 4.76532 0.530351 10.8833
files/tasks_parameters/Expden0.3/sample18.txt 1.15685 3.27837 4.5573 0.457689 9.39225
files/tasks_parameters/Expden0.3/sample35.txt 1.00609 3.29798 4.86177 0.449305 9.2202
files/tasks_parameters/Expden0.3/sample47.txt 0.975071 3.48674 4.29551 0.427394 8.77055
files/tasks_parameters/Expden0.3/sample49.txt 0.896552 3.49906 4.75284 0.406762 8.34717
files/tasks_parameters/Expden0.3/sample41.txt 1.14481 3.20013 5.10772 0.506862 10.4013
