files/tasks_parameters/ExAp01/sample8.txt 1.08361 3.76817 4.3855 0.450105 17.2597
files/tasks_parameters/ExAp01/sample12.txt 1.50473 5.03638 5.18776 0.610564 23.4126
files/tasks_parameters/ExAp01/sample2.txt 1.45265 4.58991 5.64606 0.613877 23.5396
files/tasks_parameters/ExAp01/sample44.txt 1.2595 3.77401 5.66946 0.551838 21.1607
files/tasks_parameters/ExAp01/sample27.txt 1.29418 4.13937 5.56136 0.55779 21.3889
files/tasks_parameters/ExAp01/sample17.txt 1.19467 3.76163 5.38341 0.520991 19.9779
files/tasks_parameters/ExAp01/sample9.txt 1.1433 3.69889 5.2981 0.511699 19.6216
files/tasks_parameters/ExAp01/sample34.txt 1.13513 3.52435 5.83741 0.49187 18.8612
files/tasks_parameters/ExAp01/sample40.txt 1.15842 4.06185 5.0335 0.496884 19.0535
files/tasks_parameters/ExAp01/sample33.txt 1.55311 4.82091 5.83886 0.651963 25.0001
files/tasks_parameters/ExAp01/sample48.txt 1.06937 4.01134 5.07085 0.447927 17.1762
files/tasks_parameters/ExAp01/sample29.txt 1.48131 4.20847 5.0406 0.643694 24.683
files/tasks_parameters/ExAp01/sample11.txt 1.31892 3.94699 5.29198 0.557276 21.3692
files/tasks_parameters/ExAp01/sample14.txt 1.08396 3.54059 4.58345 0.466713 17.8965
files/tasks_parameters/ExAp01/sample0.txt 1.50811 4.82755 4.90216 0.623551 23.9106
files/tasks_parameters/ExAp01/sample7.txt 1.15448 3.60766 5.11185 0.509566 19.5397
files/tasks_parameters/ExAp01/sample23.txt 1.41661 3.81403 5.45799 0.582911 22.3522
files/tasks_parameters/ExAp01/sample13.txt 1.45987 4.8894 5.26818 0.624499 23.947
files/tasks_parameters/ExAp01/sample22.txt 1.29087 3.76156 4.95746 0.534216 20.485
files/tasks_parameters/ExAp01/sample25.txt 0.98274 2.94144 4.92622 0.403639 15.4779
files/tasks_parameters/ExAp01/sample36.txt 1.18969 3.56164 4.5806 0.501799 19.2419
files/tasks_parameters/ExAp01/sample46.txt 1.26691 3.84833 4.7121 0.530701 20.3502
files/tasks_parameters/ExAp01/sample31.txt 1.07256 3.764 5.08385 0.479734 18.3958
files/tasks_parameters/ExAp01/sample37.txt 1.52746 4.43254 5.65111 0.65143 24.9797
files/tasks_parameters/ExAp01/sample16.txt 1.24244 4.49741 4.8895 0.509171 19.5246
files/tasks_parameters/ExAp01/sample10.txt 1.38978 3.87086 6.07511 0.60993 23.3883
files/tasks_parameters/ExAp01/sample39.txt 1.12287 3.66299 4.54281 0.463671 17.7799
files/tasks_parameters/ExAp01/sample19.txt 1.40998 3.86694 5.14047 0.615987 23.6206
files/tasks_parameters/ExAp01/sample20.txt 1.30362 4.09945 5.13368 0.580369 22.2547
files/tasks_parameters/ExAp01/sample43.txt 1.1575 3.75825 5.55698 0.530892 20.3575
files/tasks_parameters/ExAp01/sample32.txt 1.42827 4.0352 5.29178 0.587643 22.5337
files/tasks_parameters/ExAp01/sample45.txt 1.22607 3.94578 4.87833 0.541081 20.7482
files/tasks_parameters/ExAp01/sample26.txt 1.11073 3.50998 4.55035 0.474009 18.1763
files/tasks_parameters/ExAp01/sample5.txt 1.37999 4.00994 5.27725 0.587681 22.5351
files/tasks_parameters/ExAp01/sample21.txt 0.935245 2.8974 4.54677 0.430037 16.4902
files/tasks_parameters/ExAp01/sample38.txt 1.17206 3.56689 4.78573 0.492366 18.8802
files/tasks_parameters/ExAp01/sample1.txt 1.15594 3.69002 4.55048 0.481074 18.4472
files/tasks_parameters/ExAp01/sample15.txt 1.20629 3.73223 5.42493 0.524964 20.1302
files/tasks_parameters/ExAp01/sample24.txt 1.27037 4.18053 5.40377 0.542575 20.8055
files/tasks_parameters/ExAp01/sample3.txt 1.0835 3.70547 4.7118 0.470503 18.0419
files/tasks_parameters/ExAp01/sample6.txt 1.45612 4.07521 5.71419 0.626702 24.0314
files/tasks_parameters/ExAp01/sample30.txt 1.49598 3.97446 5.82388 0.626709 24.0317
files/tasks_parameters/ExAp01/sample42.txt 1.28874 4.44207 5.58473 0.537025 20.5927
files/tasks_parameters/ExAp01/sample4.txt 1.40697 3.92181 4.49751 0.556974 21.3577
files/tasks_parameters/ExAp01/sample28.txt 1.02057 3.13496 4.88321 0.444588 17.0481
files/tasks_parameters/ExAp01/sample18.txt 1.22792 3.95301 4.52898 0.537438 20.6085
files/tasks_parameters/ExAp01/sample35.txt 1.91616 5.75923 6.25034 0.752488 28.8548
files/tasks_parameters/ExAp01/sample47.txt 1.16011 3.44018 5.14289 0.540033 20.708
files/tasks_parameters/ExAp01/sample49.txt 1.22835 3.38981 4.72409 0.493041 18.9061
files/tasks_parameters/ExAp01/sample41.txt 1.13922 3.58692 5.27252 0.492391 18.8811
