0 8
0 13
0 18
0 20
0 21
0 24
0 26
0 30
0 32
0 33
0 36
1 6
1 9
1 10
1 12
1 18
1 19
1 20
1 21
1 24
1 32
1 34
2 7
2 11
2 12
2 15
2 16
2 17
2 19
2 24
2 25
2 28
2 29
2 32
2 37
3 5
3 10
3 13
3 14
3 15
3 16
3 17
3 21
3 28
3 32
3 35
3 36
4 7
4 8
4 9
4 15
4 16
4 17
4 18
4 20
4 24
4 25
4 35
4 36
5 22
5 23
5 27
6 43
6 46
7 24
7 36
9 24
9 33
10 38
12 50
13 21
13 46
15 21
15 38
16 35
17 19
17 21
17 25
17 28
17 43
18 34
18 57
19 34
20 51
21 40
21 49
21 62
22 34
22 36
22 40
23 31
23 38
23 53
23 57
23 61
24 33
24 41
24 56
26 54
26 55
26 68
27 44
27 58
28 40
28 42
28 43
28 53
28 59
28 69
29 35
29 39
29 67
30 38
30 45
30 48
30 60
30 62
31 57
32 35
32 56
32 60
32 63
33 39
33 54
33 55
33 56
33 67
34 42
34 46
34 52
34 54
34 62
34 65
35 47
35 58
35 62
35 64
35 66
35 69
35 70
35 78
36 51
36 56
36 64
36 73
36 75
36 77
36 78
36 79
37 45
37 51
37 55
37 58
37 71
37 75
38 45
38 55
38 81
39 59
40 64
40 73
40 74
41 90
42 58
42 80
42 88
43 58
43 60
44 62
44 66
45 58
45 66
45 75
47 57
47 84
47 90
48 53
48 57
48 59
48 66
49 57
50 58
50 62
50 68
50 71
50 77
50 90
51 56
51 62
51 72
52 57
53 67
53 73
53 74
53 79
53 84
53 92
54 63
54 65
54 67
54 78
54 80
54 85
54 87
54 90
55 92
56 82
56 91
58 65
58 66
58 79
58 83
58 85
59 77
59 81
60 65
60 95
61 63
61 64
61 70
61 76
61 79
61 86
61 89
61 90
62 68
62 75
62 97
63 77
63 89
64 83
64 88
65 81
65 88
67 82
67 85
68 83
68 88
69 81
70 78
72 79
72 97
73 85
73 89
74 94
75 96
77 86
78 86
78 99
79 91
79 93
80 86
80 96
84 94
85 91
86 93
87 96
88 98
89 97
90 99
