0 9
0 10
0 12
0 13
0 14
0 19
0 20
0 33
0 37
0 43
0 49
1 12
1 13
1 14
1 15
1 17
1 19
1 20
1 21
1 22
1 24
1 26
2 10
2 11
2 12
2 13
2 19
2 23
2 26
2 43
2 52
3 9
3 12
3 16
3 22
3 23
3 25
3 49
3 52
3 52
4 9
4 15
4 18
4 22
4 24
4 26
4 29
4 34
4 38
5 13
5 18
5 22
5 23
5 24
5 26
5 36
5 40
6 15
6 16
6 18
6 23
6 27
6 41
6 42
7 9
7 12
7 23
7 24
7 25
7 26
7 42
7 47
7 48
8 15
8 16
8 19
8 25
8 26
8 31
8 35
9 24
9 26
9 28
9 48
9 55
9 59
10 49
10 58
12 30
12 51
13 25
13 44
13 48
13 58
14 50
14 52
14 55
15 64
16 42
16 52
17 60
17 61
18 57
19 24
20 46
21 56
21 65
22 24
22 53
23 40
23 41
23 47
23 49
23 65
23 66
23 70
24 28
24 29
24 36
24 47
24 48
24 49
24 53
24 58
24 61
24 62
24 67
24 70
24 72
24 74
25 36
25 39
25 40
25 47
25 53
25 54
25 56
25 59
25 67
25 72
25 74
26 32
26 59
26 67
26 74
27 43
27 52
27 65
27 66
27 71
28 68
29 55
29 64
29 68
29 78
30 43
30 60
30 62
30 73
31 47
31 73
32 71
33 69
35 51
35 56
35 62
35 63
36 42
36 62
36 63
37 42
37 68
37 70
38 51
39 70
40 43
40 45
40 51
40 72
40 75
41 58
42 58
42 68
42 71
42 84
43 60
43 61
43 71
44 61
44 74
44 78
44 84
45 55
45 73
45 75
46 65
46 68
46 82
47 60
48 60
48 73
49 55
49 76
49 80
50 67
50 73
50 74
50 75
51 71
51 77
52 61
52 62
52 71
52 77
52 89
53 72
53 75
53 79
53 83
54 69
54 88
55 67
55 81
57 71
57 74
57 89
57 90
57 92
58 67
58 84
58 95
60 79
61 67
62 95
62 99
63 95
64 90
64 98
65 89
66 69
66 74
67 82
67 86
67 98
68 87
68 96
71 77
71 91
71 96
72 83
72 96
73 85
74 76
74 77
74 98
75 93
75 99
76 96
77 93
77 95
80 97
80 99
84 98
85 98
86 95
86 99
88 99
90 94
