0 8
0 9
0 10
0 11
0 13
0 15
0 20
0 27
0 39
1 7
1 9
1 11
1 15
1 21
1 24
1 25
1 27
1 31
1 37
1 38
2 8
2 9
2 12
2 15
2 16
2 20
2 22
2 24
2 36
3 12
3 18
3 23
3 28
3 29
3 33
3 39
3 40
4 8
4 12
4 17
4 18
4 31
4 33
4 34
4 38
4 40
5 6
5 11
5 14
5 16
5 19
5 22
5 26
5 29
5 31
5 34
5 39
6 15
6 34
6 46
7 23
7 26
7 30
9 19
9 23
9 25
9 35
10 14
10 19
11 14
11 17
11 24
11 27
11 32
11 45
12 46
13 17
13 22
13 32
14 35
14 57
15 35
15 38
15 41
15 57
16 26
16 34
16 43
16 44
17 34
17 35
17 36
18 35
18 37
18 42
18 46
18 48
18 51
18 52
18 53
18 59
19 32
19 34
19 43
19 54
20 21
20 26
20 28
20 50
22 54
22 63
23 39
24 42
24 52
24 53
24 65
26 58
27 49
27 57
27 62
28 52
29 39
29 61
29 69
29 71
30 39
30 40
30 53
30 64
31 46
31 55
31 56
31 63
31 67
32 38
32 64
33 44
33 68
34 47
34 50
34 54
34 64
34 75
34 79
35 57
35 65
35 70
35 71
36 53
36 56
36 67
36 75
37 54
37 58
37 62
37 73
37 80
38 58
38 63
38 64
38 67
38 79
38 82
39 52
39 56
39 75
39 80
40 61
40 68
40 76
40 79
40 80
41 50
41 66
41 77
41 78
41 87
41 89
42 50
42 73
43 59
43 65
43 66
43 67
43 85
43 87
44 62
44 76
44 89
45 61
45 66
45 69
45 78
45 81
45 85
45 89
45 90
45 91
46 90
47 76
47 85
48 53
48 58
48 62
48 65
48 86
49 65
49 69
49 85
49 92
51 76
51 90
51 94
53 78
53 88
53 93
54 86
54 87
55 68
55 73
55 90
55 95
55 98
56 68
57 60
57 66
57 99
58 61
58 64
58 75
58 84
58 92
58 94
58 98
59 68
59 86
59 91
60 72
60 93
61 75
63 73
63 74
63 76
63 82
63 83
63 85
65 76
65 80
66 86
67 77
67 86
68 74
68 78
68 87
68 91
69 75
69 87
69 95
70 73
70 81
70 83
70 99
71 83
73 87
73 92
75 88
75 95
75 97
76 84
76 86
76 90
78 99
79 85
81 91
84 95
86 97
89 93
90 96
91 96
