0 9
0 16
0 19
0 25
0 27
0 29
0 33
1 11
1 13
1 25
1 34
1 37
2 14
2 18
3 11
3 13
3 14
3 15
3 16
3 18
3 22
3 25
3 28
4 8
4 9
4 13
4 14
4 18
4 27
4 29
5 8
5 9
5 13
5 14
5 15
5 17
5 18
5 21
5 29
5 41
6 8
6 10
6 12
6 21
6 24
6 27
6 29
7 9
7 10
7 11
7 16
7 17
7 20
7 24
7 26
7 27
8 22
8 26
8 42
9 28
10 46
10 49
10 50
11 17
11 21
11 25
11 36
11 39
11 50
12 17
12 29
13 16
13 23
13 27
13 44
14 22
14 23
14 37
15 36
15 42
15 46
16 38
16 39
16 44
16 46
16 58
17 47
17 58
18 28
18 30
18 50
18 57
18 58
19 35
19 48
19 50
19 53
20 26
20 32
20 40
20 45
20 51
21 42
22 31
22 54
22 56
23 25
23 38
23 56
24 40
25 39
25 44
25 47
25 48
25 52
25 63
26 38
26 42
26 54
26 58
26 62
27 31
27 45
27 48
27 54
27 57
27 59
27 63
28 48
28 50
28 55
29 35
29 44
29 46
29 48
29 60
29 63
30 47
30 51
31 59
34 43
34 55
35 61
35 66
36 55
37 46
37 70
38 46
38 47
38 51
38 60
38 63
39 57
40 67
41 62
42 64
43 52
43 54
43 57
44 70
45 52
45 69
46 52
46 56
46 77
47 55
47 61
47 64
47 68
49 60
51 65
51 66
51 81
54 74
54 85
55 60
56 62
56 79
56 83
57 65
57 77
58 65
58 78
59 69
59 76
59 81
59 82
59 91
59 92
59 94
60 69
60 74
61 71
61 72
61 74
61 79
61 86
62 78
62 79
62 80
62 82
63 66
63 72
63 73
63 76
64 87
64 89
64 90
64 94
65 83
65 84
65 95
65 99
66 75
66 81
66 97
67 83
68 77
68 89
69 76
69 82
69 84
70 75
70 97
71 88
71 89
71 91
72 87
75 96
75 98
76 90
76 94
77 94
77 95
78 79
78 81
78 82
78 86
79 88
79 90
80 99
81 98
84 97
85 93
86 87
86 96
92 99
