0 12
0 13
0 17
1 12
2 12
2 13
2 15
2 18
3 12
3 14
3 15
3 20
4 11
4 14
4 15
4 17
4 19
4 20
5 11
5 17
5 18
5 19
5 20
6 11
6 18
7 13
7 18
8 13
8 14
8 17
8 18
8 20
9 11
9 13
9 17
9 20
10 11
10 12
10 16
10 18
11 23
11 28
11 29
11 30
12 22
12 23
12 28
12 29
12 30
12 31
13 22
13 26
13 29
13 31
13 33
14 22
14 25
14 30
14 31
14 33
15 31
15 32
16 22
16 24
16 28
16 29
16 31
16 32
17 23
17 24
17 28
18 21
18 27
18 30
18 33
19 28
19 33
20 23
20 27
20 29
20 32
20 33
21 39
21 40
22 38
22 39
23 37
23 39
23 41
23 42
24 37
24 39
24 40
24 42
25 36
25 38
25 39
25 41
25 42
26 42
27 40
27 41
28 35
28 42
28 43
29 34
29 38
29 42
30 38
30 42
31 37
31 40
31 41
31 43
32 35
32 37
32 38
32 43
33 37
34 44
34 49
34 52
34 56
35 46
35 47
35 50
35 52
36 44
36 45
36 48
36 51
37 47
37 48
37 49
37 52
37 53
38 45
38 52
38 55
39 44
39 47
39 49
39 55
39 56
40 45
40 47
40 54
40 55
40 56
41 45
41 46
41 47
41 52
41 53
41 54
41 56
42 44
42 46
42 49
42 53
42 55
43 48
43 56
44 58
44 60
44 61
44 62
44 63
45 57
45 59
45 62
45 64
46 66
47 59
48 57
48 66
49 61
50 58
50 59
50 61
51 58
51 59
51 60
51 61
51 65
51 66
52 59
52 61
52 63
52 65
52 66
53 58
53 66
54 58
54 59
54 66
55 57
55 65
56 58
57 70
57 75
59 67
59 68
59 74
60 68
60 72
60 75
61 67
61 68
61 71
61 74
62 67
62 68
62 69
62 71
62 74
62 75
63 69
63 75
63 77
64 71
64 74
64 75
65 71
65 72
65 73
65 74
65 76
66 67
66 68
66 71
66 73
66 78
67 79
67 84
67 85
67 88
68 79
68 88
69 84
70 80
70 82
70 85
70 88
71 82
71 88
72 80
72 81
72 82
72 83
72 85
73 80
73 83
73 85
73 88
74 84
74 85
74 86
75 81
76 81
76 82
76 86
77 80
77 82
77 84
77 86
77 87
78 82
78 83
78 84
79 91
79 92
80 89
80 91
80 93
81 89
81 91
81 92
81 95
81 97
82 89
82 92
82 97
82 98
83 92
83 95
83 98
83 99
84 96
85 90
85 96
86 89
86 93
86 94
86 96
86 97
86 98
87 93
87 95
88 90
88 91
88 94
88 95
