0 8
1 11
1 12
1 13
2 8
2 9
2 11
2 12
2 16
3 10
4 9
4 13
4 15
5 9
5 10
5 11
5 12
6 8
6 9
6 10
6 12
6 14
7 8
7 10
7 14
8 17
8 18
8 21
8 26
8 29
9 18
9 22
9 25
10 18
10 19
10 23
10 24
10 30
11 21
11 22
11 23
11 28
11 29
12 19
12 21
12 23
12 27
12 30
13 19
13 21
13 22
13 24
13 26
14 17
14 23
14 25
14 26
15 18
15 20
15 25
15 26
15 27
15 29
15 30
16 19
16 29
17 31
18 31
18 37
18 39
19 31
19 32
19 33
19 36
19 37
19 40
20 31
20 33
20 35
20 37
20 38
20 40
23 33
23 37
23 41
24 33
24 41
25 31
25 33
25 34
25 37
26 33
26 37
26 40
27 31
27 35
27 36
28 35
28 37
28 39
28 40
29 34
29 35
30 31
30 32
30 41
31 42
31 48
31 49
31 52
32 42
32 44
32 46
32 49
33 44
33 46
33 47
33 48
33 51
34 44
34 50
35 44
35 47
36 42
36 52
37 43
37 44
37 45
37 48
37 49
38 43
38 48
38 52
40 42
40 43
40 51
41 42
41 44
41 47
41 52
42 53
42 54
42 59
43 59
44 56
44 58
44 60
45 53
45 55
45 56
45 58
46 54
46 56
46 57
46 58
46 59
47 58
47 61
48 58
48 61
49 53
49 54
49 56
51 53
51 54
52 61
53 67
54 63
54 64
54 68
55 62
55 64
56 64
56 70
57 63
57 66
57 68
57 69
58 66
58 68
58 69
58 70
59 63
59 65
59 68
59 70
60 63
60 65
60 69
61 63
61 64
61 66
61 68
62 71
62 73
62 76
62 81
63 81
64 71
64 76
64 80
64 81
65 72
65 73
65 75
65 77
65 79
66 72
66 75
66 76
66 79
66 81
67 75
67 77
67 78
68 75
68 77
69 72
69 74
69 75
69 76
69 78
70 71
70 76
71 87
71 88
71 89
72 83
72 84
72 91
73 87
73 88
73 90
74 85
74 87
74 90
75 84
75 85
75 90
75 91
76 91
77 82
77 85
77 87
78 84
78 88
79 83
79 89
79 90
81 86
81 89
82 94
82 95
82 96
82 98
83 92
83 94
83 95
83 98
83 99
84 96
84 97
84 99
85 92
85 94
85 96
85 98
86 96
86 98
87 92
88 96
88 99
89 92
90 92
90 93
90 95
91 93
91 99
