files/tasks_parameters/ExAp01/sample8.txt 0.803481 3.15778 1.5595 0.203411 4.592
files/tasks_parameters/ExAp01/sample12.txt 0.809671 3.94962 1.6705 0.207924 4.69387
files/tasks_parameters/ExAp01/sample2.txt 0.794723 3.78275 1.74131 0.200098 4.51719
files/tasks_parameters/ExAp01/sample44.txt 0.672124 3.59825 1.65317 0.200005 4.51511
files/tasks_parameters/ExAp01/sample27.txt 0.697662 3.45743 1.5148 0.182129 4.11154
files/tasks_parameters/ExAp01/sample17.txt 0.825598 2.77299 1.44514 0.14646 3.30632
files/tasks_parameters/ExAp01/sample9.txt 0.743799 2.99933 1.451 0.177444 4.00578
files/tasks_parameters/ExAp01/sample34.txt 0.82455 3.02928 1.58429 0.157984 3.56647
files/tasks_parameters/ExAp01/sample40.txt 0.765116 3.86889 1.52122 0.168379 3.80116
files/tasks_parameters/ExAp01/sample33.txt 0.80077 3.63695 1.71905 0.199765 4.50968
files/tasks_parameters/ExAp01/sample48.txt 0.682426 3.39061 1.49062 0.154728 3.49298
files/tasks_parameters/ExAp01/sample29.txt 0.80202 3.30472 1.38739 0.223868 5.05382
files/tasks_parameters/ExAp01/sample11.txt 0.707448 3.10585 1.41612 0.174079 3.92982
files/tasks_parameters/ExAp01/sample14.txt 0.666112 2.70971 1.43432 0.162214 3.66198
files/tasks_parameters/ExAp01/sample0.txt 0.744589 3.6937 1.5439 0.18367 4.14634
files/tasks_parameters/ExAp01/sample7.txt 0.799885 2.70501 1.42221 0.143463 3.23868
files/tasks_parameters/ExAp01/sample23.txt 0.759063 3.2697 1.57822 0.181448 4.09619
files/tasks_parameters/ExAp01/sample13.txt 0.729548 3.84225 1.67648 0.198247 4.47542
files/tasks_parameters/ExAp01/sample22.txt 0.814374 3.09569 1.56121 0.148796 3.35907
files/tasks_parameters/ExAp01/sample25.txt 0.727641 2.73966 1.5007 0.148149 3.34445
files/tasks_parameters/ExAp01/sample36.txt 0.751568 2.85948 1.28553 0.130042 2.9357
files/tasks_parameters/ExAp01/sample46.txt 0.761085 3.58643 1.69998 0.210103 4.74306
files/tasks_parameters/ExAp01/sample31.txt 0.707034 3.4832 1.53782 0.1722 3.8874
files/tasks_parameters/ExAp01/sample37.txt 0.765986 3.95293 1.50705 0.171701 3.87614
files/tasks_parameters/ExAp01/sample16.txt 0.615232 3.31216 1.30115 0.150249 3.39186
files/tasks_parameters/ExAp01/sample10.txt 0.958999 3.17098 1.61789 0.153776 3.47149
files/tasks_parameters/ExAp01/sample39.txt 0.729503 3.26617 1.44406 0.165669 3.73996
files/tasks_parameters/ExAp01/sample19.txt 0.743408 3.63532 1.52509 0.196094 4.42682
files/tasks_parameters/ExAp01/sample20.txt 0.662661 3.20793 1.25367 0.147335 3.32609
files/tasks_parameters/ExAp01/sample43.txt 0.646585 3.11551 1.4202 0.150644 3.40079
files/tasks_parameters/ExAp01/sample32.txt 0.722684 3.5311 1.42482 0.168744 3.80939
files/tasks_parameters/ExAp01/sample45.txt 0.765434 3.80283 1.48324 0.19807 4.47143
files/tasks_parameters/ExAp01/sample26.txt 0.653864 3.21645 1.29701 0.166061 3.74882
files/tasks_parameters/ExAp01/sample5.txt 0.660529 3.5889 1.52559 0.178903 4.03874
files/tasks_parameters/ExAp01/sample21.txt 0.65853 2.75242 1.55936 0.19512 4.40483
files/tasks_parameters/ExAp01/sample38.txt 0.676658 3.31563 1.37515 0.166157 3.75098
files/tasks_parameters/ExAp01/sample1.txt 0.693764 3.74964 1.51696 0.19701 4.44748
files/tasks_parameters/ExAp01/sample15.txt 0.696455 3.32916 1.48508 0.180707 4.07946
files/tasks_parameters/ExAp01/sample24.txt 0.837006 3.45951 1.59549 0.16529 3.73142
files/tasks_parameters/ExAp01/sample3.txt 0.940794 3.70014 1.70809 0.237107 5.35268
files/tasks_parameters/ExAp01/sample6.txt 0.707905 3.33003 1.58323 0.184714 4.16992
files/tasks_parameters/ExAp01/sample30.txt 0.88171 4.1841 1.4861 0.239623 5.40948
files/tasks_parameters/ExAp01/sample42.txt 0.747833 3.43221 1.70276 0.177383 4.00441
files/tasks_parameters/ExAp01/sample4.txt 0.813016 3.72477 1.6136 0.196448 4.43481
files/tasks_parameters/ExAp01/sample28.txt 0.689545 3.11323 1.45032 0.158819 3.58533
files/tasks_parameters/ExAp01/sample18.txt 0.764248 3.47418 1.45209 0.149064 3.36511
files/tasks_parameters/ExAp01/sample35.txt 0.803051 4.57086 1.49394 0.185031 4.17706
files/tasks_parameters/ExAp01/sample47.txt 0.693855 3.13768 1.52397 0.16417 3.70613
files/tasks_parameters/ExAp01/sample49.txt 0.766167 3.13288 1.49657 0.156154 3.52517
files/tasks_parameters/ExAp01/sample41.txt 0.763263 2.81964 1.49636 0.150876 3.40602
