files/tasks_parameters/ExAp01/sample8.txt 0.778166 3.15778 1.5595 0.203411 13.1073
files/tasks_parameters/ExAp01/sample12.txt 0.764805 3.94962 1.6705 0.207924 13.3981
files/tasks_parameters/ExAp01/sample2.txt 0.730216 3.78275 1.74131 0.200098 12.8938
files/tasks_parameters/ExAp01/sample44.txt 0.69738 3.59825 1.65317 0.200005 12.8878
files/tasks_parameters/ExAp01/sample27.txt 0.706307 3.45743 1.5148 0.182129 11.7359
files/tasks_parameters/ExAp01/sample17.txt 0.598929 2.77299 1.44514 0.14646 9.43748
files/tasks_parameters/ExAp01/sample9.txt 0.630802 2.99933 1.451 0.177444 11.434
files/tasks_parameters/ExAp01/sample34.txt 0.630544 3.02928 1.58429 0.157984 10.1801
files/tasks_parameters/ExAp01/sample40.txt 0.650668 3.86889 1.52122 0.168379 10.8499
files/tasks_parameters/ExAp01/sample33.txt 0.751597 3.63695 1.71905 0.199765 12.8723
files/tasks_parameters/ExAp01/sample48.txt 0.638023 3.39061 1.49062 0.154728 9.97028
files/tasks_parameters/ExAp01/sample29.txt 0.726284 3.30472 1.38739 0.223868 14.4255
files/tasks_parameters/ExAp01/sample11.txt 0.642205 3.10585 1.41612 0.174079 11.2172
files/tasks_parameters/ExAp01/sample14.txt 0.623761 2.70971 1.43432 0.162214 10.4527
files/tasks_parameters/ExAp01/sample0.txt 0.677482 3.6937 1.5439 0.18367 11.8352
files/tasks_parameters/ExAp01/sample7.txt 0.595057 2.70501 1.42221 0.143463 9.24441
files/tasks_parameters/ExAp01/sample23.txt 0.640109 3.2697 1.57822 0.181448 11.6921
files/tasks_parameters/ExAp01/sample13.txt 0.69319 3.84225 1.67648 0.198247 12.7745
files/tasks_parameters/ExAp01/sample22.txt 0.584217 3.09569 1.56121 0.148796 9.58803
files/tasks_parameters/ExAp01/sample25.txt 0.529355 2.73966 1.5007 0.148149 9.54631
files/tasks_parameters/ExAp01/sample36.txt 0.496033 2.85948 1.28553 0.130042 8.37958
files/tasks_parameters/ExAp01/sample46.txt 0.743047 3.58643 1.69998 0.210103 13.5385
files/tasks_parameters/ExAp01/sample31.txt 0.637502 3.4832 1.53782 0.1722 11.0961
files/tasks_parameters/ExAp01/sample37.txt 0.687649 3.95293 1.50705 0.171701 11.064
files/tasks_parameters/ExAp01/sample16.txt 0.601475 3.31216 1.30115 0.150249 9.68165
files/tasks_parameters/ExAp01/sample10.txt 0.675897 3.17098 1.61789 0.153776 9.90895
files/tasks_parameters/ExAp01/sample39.txt 0.633316 3.26617 1.44406 0.165669 10.6753
files/tasks_parameters/ExAp01/sample19.txt 0.728723 3.63532 1.52509 0.196094 12.6358
files/tasks_parameters/ExAp01/sample20.txt 0.532174 3.20793 1.25367 0.147335 9.49391
files/tasks_parameters/ExAp01/sample43.txt 0.614288 3.11551 1.4202 0.150644 9.70714
files/tasks_parameters/ExAp01/sample32.txt 0.616266 3.5311 1.42482 0.168744 10.8734
files/tasks_parameters/ExAp01/sample45.txt 0.762953 3.80283 1.48324 0.19807 12.7631
files/tasks_parameters/ExAp01/sample26.txt 0.588 3.21645 1.29701 0.166061 10.7006
files/tasks_parameters/ExAp01/sample5.txt 0.676213 3.5889 1.52559 0.178903 11.5281
files/tasks_parameters/ExAp01/sample21.txt 0.780952 2.75242 1.55936 0.19512 12.573
files/tasks_parameters/ExAp01/sample38.txt 0.575305 3.31563 1.37515 0.166157 10.7067
files/tasks_parameters/ExAp01/sample1.txt 0.751881 3.74964 1.51696 0.19701 12.6948
files/tasks_parameters/ExAp01/sample15.txt 0.667945 3.32916 1.48508 0.180707 11.6443
files/tasks_parameters/ExAp01/sample24.txt 0.634853 3.45951 1.59549 0.16529 10.6509
files/tasks_parameters/ExAp01/sample3.txt 0.903412 3.70014 1.70809 0.237107 15.2786
files/tasks_parameters/ExAp01/sample6.txt 0.730244 3.33003 1.58323 0.184714 11.9025
files/tasks_parameters/ExAp01/sample30.txt 0.786174 4.1841 1.4861 0.239623 15.4407
files/tasks_parameters/ExAp01/sample42.txt 0.724004 3.43221 1.70276 0.177383 11.4301
files/tasks_parameters/ExAp01/sample4.txt 0.747512 3.72477 1.6136 0.196448 12.6586
files/tasks_parameters/ExAp01/sample28.txt 0.576632 3.11323 1.45032 0.158819 10.2339
files/tasks_parameters/ExAp01/sample18.txt 0.645248 3.47418 1.45209 0.149064 9.60528
files/tasks_parameters/ExAp01/sample35.txt 0.742568 4.57086 1.49394 0.185031 11.9229
files/tasks_parameters/ExAp01/sample47.txt 0.643051 3.13768 1.52397 0.16417 10.5787
files/tasks_parameters/ExAp01/sample49.txt 0.58384 3.13288 1.49657 0.156154 10.0622
files/tasks_parameters/ExAp01/sample41.txt 0.577876 2.81964 1.49636 0.150876 9.72205
