files/tasks_parameters/ExAp01/sample8.txt 2.07889 6.77015 2.19458 0.288816 5.68242
files/tasks_parameters/ExAp01/sample12.txt 2.39543 9.58351 2.46081 0.337498 6.64023
files/tasks_parameters/ExAp01/sample2.txt 2.28944 8.44418 2.50701 0.319127 6.27878
files/tasks_parameters/ExAp01/sample44.txt 2.03054 6.96299 2.23089 0.28229 5.55402
files/tasks_parameters/ExAp01/sample27.txt 2.01128 7.74306 2.16676 0.28602 5.62739
files/tasks_parameters/ExAp01/sample17.txt 2.06826 7.35053 2.25579 0.292348 5.75189
files/tasks_parameters/ExAp01/sample9.txt 2.04142 6.89392 2.21068 0.282399 5.55615
files/tasks_parameters/ExAp01/sample34.txt 2.08701 6.62788 2.3772 0.297742 5.85802
files/tasks_parameters/ExAp01/sample40.txt 2.05757 7.75686 2.17534 0.285619 5.61951
files/tasks_parameters/ExAp01/sample33.txt 2.43095 8.14826 2.6463 0.338073 6.65153
files/tasks_parameters/ExAp01/sample48.txt 1.92905 7.64107 2.14272 0.270011 5.31243
files/tasks_parameters/ExAp01/sample29.txt 1.95376 7.139 1.93769 0.286306 5.63302
files/tasks_parameters/ExAp01/sample11.txt 2.00539 6.88688 2.12981 0.280008 5.50912
files/tasks_parameters/ExAp01/sample14.txt 1.75005 6.11983 1.97599 0.247458 4.86869
files/tasks_parameters/ExAp01/sample0.txt 2.0711 8.2738 2.14256 0.289132 5.68862
files/tasks_parameters/ExAp01/sample7.txt 1.95416 6.87011 2.05821 0.269886 5.30995
files/tasks_parameters/ExAp01/sample23.txt 2.08652 6.52032 2.38087 0.291712 5.73938
files/tasks_parameters/ExAp01/sample13.txt 2.12573 8.73247 2.33415 0.295393 5.8118
files/tasks_parameters/ExAp01/sample22.txt 2.02489 6.9777 2.28948 0.283979 5.58724
files/tasks_parameters/ExAp01/sample25.txt 1.9255 6.23444 2.2122 0.267298 5.25904
files/tasks_parameters/ExAp01/sample36.txt 1.79694 6.6174 1.9458 0.253823 4.99392
files/tasks_parameters/ExAp01/sample46.txt 2.33615 7.42369 2.49128 0.327273 6.43904
files/tasks_parameters/ExAp01/sample31.txt 1.82995 7.22028 2.13584 0.25377 4.99288
files/tasks_parameters/ExAp01/sample37.txt 2.12151 8.90704 2.16981 0.295708 5.81801
files/tasks_parameters/ExAp01/sample16.txt 1.78708 8.18243 1.88294 0.24945 4.90788
files/tasks_parameters/ExAp01/sample10.txt 2.03447 6.96646 2.31217 0.285748 5.62204
files/tasks_parameters/ExAp01/sample39.txt 1.79526 6.4161 1.97266 0.251967 4.9574
files/tasks_parameters/ExAp01/sample19.txt 2.23639 8.16711 2.23199 0.308463 6.06895
files/tasks_parameters/ExAp01/sample20.txt 1.89547 7.28549 1.88944 0.25994 5.11427
files/tasks_parameters/ExAp01/sample43.txt 1.81455 6.86804 2.00142 0.25616 5.03991
files/tasks_parameters/ExAp01/sample32.txt 2.0101 8.15663 2.12995 0.281726 5.54292
files/tasks_parameters/ExAp01/sample45.txt 1.94515 7.75184 2.10599 0.274935 5.4093
files/tasks_parameters/ExAp01/sample26.txt 1.89409 7.4944 1.88956 0.267248 5.25806
files/tasks_parameters/ExAp01/sample5.txt 2.01433 8.08362 2.09961 0.28454 5.59828
files/tasks_parameters/ExAp01/sample21.txt 1.87075 6.11814 2.17119 0.26143 5.14359
files/tasks_parameters/ExAp01/sample38.txt 1.88497 7.761 1.96293 0.263659 5.18745
files/tasks_parameters/ExAp01/sample1.txt 2.07743 7.83752 2.13261 0.289228 5.69052
files/tasks_parameters/ExAp01/sample15.txt 2.06637 7.37971 2.12057 0.285825 5.62357
files/tasks_parameters/ExAp01/sample24.txt 2.11639 8.28531 2.25272 0.296628 5.83612
files/tasks_parameters/ExAp01/sample3.txt 2.18251 7.33359 2.39135 0.305084 6.00249
files/tasks_parameters/ExAp01/sample6.txt 2.00258 7.09894 2.24425 0.281804 5.54445
files/tasks_parameters/ExAp01/sample30.txt 2.11439 8.17669 2.03701 0.299204 5.8868
files/tasks_parameters/ExAp01/sample42.txt 2.14589 7.70416 2.42413 0.29743 5.85189
files/tasks_parameters/ExAp01/sample4.txt 2.22047 7.41691 2.36261 0.307803 6.05597
files/tasks_parameters/ExAp01/sample28.txt 1.90003 7.0562 2.07657 0.266428 5.24193
files/tasks_parameters/ExAp01/sample18.txt 1.92034 7.60139 2.1377 0.268016 5.27317
files/tasks_parameters/ExAp01/sample35.txt 2.2685 9.66795 2.28028 0.32244 6.34395
files/tasks_parameters/ExAp01/sample47.txt 1.81442 6.84842 2.12104 0.251655 4.95126
files/tasks_parameters/ExAp01/sample49.txt 1.82851 7.1497 2.11412 0.255889 5.03457
files/tasks_parameters/ExAp01/sample41.txt 1.90995 6.59911 2.07359 0.265885 5.23125
