digraph G {
0 ->18 0 ->23 1 ->16 1 ->18 1 ->19 1 ->20 1 ->21 1 ->22 2 ->13 2 ->15 2 ->16 2 ->20 2 ->22 3 ->16 3 ->17 3 ->19 3 ->20 3 ->22 4 ->13 4 ->16 4 ->18 4 ->22 5 ->14 5 ->20 6 ->13 6 ->20 7 ->13 7 ->14 7 ->19 8 ->16 8 ->22 9 ->18 10 ->12 10 ->22 11 ->13 11 ->14 11 ->18 13 ->25 13 ->26 14 ->24 14 ->27 15 ->25 15 ->26 16 ->25 17 ->24 17 ->26 18 ->25 18 ->26 18 ->28 18 ->29 19 ->26 19 ->29 20 ->25 21 ->26 21 ->27 22 ->25 22 ->29 23 ->27 23 ->29 24 ->33 24 ->34 25 ->31 25 ->32 25 ->33 25 ->38 25 ->39 26 ->40 26 ->41 27 ->30 27 ->35 27 ->36 27 ->41 28 ->30 28 ->34 28 ->36 28 ->37 29 ->30 29 ->36 29 ->37 29 ->39 30 ->43 30 ->51 31 ->45 31 ->47 31 ->48 31 ->51 32 ->42 32 ->43 32 ->47 32 ->48 32 ->50 33 ->42 33 ->45 33 ->48 33 ->49 33 ->50 33 ->52 34 ->42 34 ->48 34 ->49 35 ->47 36 ->42 36 ->47 36 ->50 37 ->44 37 ->50 38 ->42 38 ->50 38 ->52 39 ->46 39 ->48 39 ->51 39 ->52 40 ->43 41 ->43 41 ->45 41 ->49 41 ->51 42 ->55 42 ->57 42 ->58 43 ->53 43 ->56 43 ->57 44 ->55 44 ->56 44 ->57 45 ->55 45 ->56 46 ->55 47 ->57 47 ->58 47 ->59 48 ->58 50 ->54 50 ->55 52 ->55 53 ->60 53 ->66 54 ->60 54 ->61 54 ->65 55 ->60 55 ->63 55 ->64 55 ->65 55 ->66 56 ->60 56 ->61 56 ->64 56 ->65 56 ->67 56 ->68 57 ->68 58 ->62 58 ->67 59 ->62 59 ->67 60 ->70 60 ->71 61 ->71 61 ->73 62 ->73 63 ->71 63 ->72 64 ->69 64 ->70 64 ->71 64 ->73 65 ->69 65 ->72 66 ->69 66 ->70 66 ->72 67 ->69 67 ->73 68 ->70 68 ->71 69 ->76 69 ->77 69 ->78 69 ->80 70 ->74 70 ->75 70 ->76 70 ->79 70 ->81 71 ->75 71 ->77 72 ->75 73 ->74 73 ->77 73 ->81 74 ->83 75 ->82 75 ->84 75 ->86 75 ->87 75 ->90 76 ->83 76 ->84 76 ->85 76 ->87 76 ->88 76 ->89 76 ->90 76 ->92 77 ->83 77 ->88 77 ->91 78 ->84 78 ->85 78 ->87 78 ->88 78 ->90 79 ->82 79 ->85 79 ->87 80 ->82 80 ->85 81 ->82 81 ->83 81 ->88 81 ->90 81 ->92 82 ->93 82 ->96 82 ->98 83 ->95 83 ->97 83 ->98 84 ->95 84 ->97 85 ->95 85 ->98 86 ->95 86 ->97 86 ->99 87 ->94 87 ->95 88 ->93 88 ->94 89 ->94 90 ->94 91 ->93 91 ->94 91 ->96 91 ->97 92 ->94 92 ->96 
}
