files/tasks_parameters/ExAp01/sample8.txt 1.10197 6.77015 2.19458 0.288816 8.2588
files/tasks_parameters/ExAp01/sample12.txt 1.28789 9.58351 2.46081 0.337498 9.65088
files/tasks_parameters/ExAp01/sample2.txt 1.16118 8.44418 2.50701 0.319127 9.12555
files/tasks_parameters/ExAp01/sample44.txt 1.02938 6.96299 2.23089 0.28229 8.07219
files/tasks_parameters/ExAp01/sample27.txt 1.11285 7.74306 2.16676 0.28602 8.17883
files/tasks_parameters/ExAp01/sample17.txt 1.07552 7.35053 2.25579 0.292348 8.35978
files/tasks_parameters/ExAp01/sample9.txt 1.11187 6.89392 2.21068 0.282399 8.07529
files/tasks_parameters/ExAp01/sample34.txt 1.10846 6.62788 2.3772 0.297742 8.51402
files/tasks_parameters/ExAp01/sample40.txt 1.00431 7.75686 2.17534 0.285619 8.16738
files/tasks_parameters/ExAp01/sample33.txt 1.27575 8.14826 2.6463 0.338073 9.66731
files/tasks_parameters/ExAp01/sample48.txt 1.03339 7.64107 2.14272 0.270011 7.72106
files/tasks_parameters/ExAp01/sample29.txt 1.16612 7.139 1.93769 0.286306 8.18701
files/tasks_parameters/ExAp01/sample11.txt 1.02648 6.88688 2.12981 0.280008 8.00693
files/tasks_parameters/ExAp01/sample14.txt 0.833431 6.11983 1.97599 0.247458 7.07613
files/tasks_parameters/ExAp01/sample0.txt 1.09655 8.2738 2.14256 0.289132 8.26782
files/tasks_parameters/ExAp01/sample7.txt 0.971614 6.87011 2.05821 0.269886 7.71747
files/tasks_parameters/ExAp01/sample23.txt 1.07939 6.52032 2.38087 0.291712 8.34159
files/tasks_parameters/ExAp01/sample13.txt 1.12293 8.73247 2.33415 0.295393 8.44685
files/tasks_parameters/ExAp01/sample22.txt 1.00195 6.9777 2.28948 0.283979 8.12048
files/tasks_parameters/ExAp01/sample25.txt 0.896607 6.23444 2.2122 0.267298 7.64347
files/tasks_parameters/ExAp01/sample36.txt 0.916132 6.6174 1.9458 0.253823 7.25814
files/tasks_parameters/ExAp01/sample46.txt 1.2705 7.42369 2.49128 0.327273 9.35848
files/tasks_parameters/ExAp01/sample31.txt 0.970007 7.22028 2.13584 0.25377 7.25663
files/tasks_parameters/ExAp01/sample37.txt 1.10068 8.90704 2.16981 0.295708 8.45587
files/tasks_parameters/ExAp01/sample16.txt 0.943307 8.18243 1.88294 0.24945 7.1331
files/tasks_parameters/ExAp01/sample10.txt 1.04258 6.96646 2.31217 0.285748 8.17106
files/tasks_parameters/ExAp01/sample39.txt 0.910219 6.4161 1.97266 0.251967 7.20507
files/tasks_parameters/ExAp01/sample19.txt 1.2423 8.16711 2.23199 0.308463 8.8206
files/tasks_parameters/ExAp01/sample20.txt 0.971285 7.28549 1.88944 0.25994 7.43307
files/tasks_parameters/ExAp01/sample43.txt 0.914377 6.86804 2.00142 0.25616 7.32499
files/tasks_parameters/ExAp01/sample32.txt 1.0628 8.15663 2.12995 0.281726 8.05606
files/tasks_parameters/ExAp01/sample45.txt 1.11693 7.75184 2.10599 0.274935 7.86186
files/tasks_parameters/ExAp01/sample26.txt 0.981435 7.4944 1.88956 0.267248 7.64205
files/tasks_parameters/ExAp01/sample5.txt 1.08395 8.08362 2.09961 0.28454 8.13652
files/tasks_parameters/ExAp01/sample21.txt 1.03297 6.11814 2.17119 0.26143 7.47567
files/tasks_parameters/ExAp01/sample38.txt 0.967719 7.761 1.96293 0.263659 7.53941
files/tasks_parameters/ExAp01/sample1.txt 1.09425 7.83752 2.13261 0.289228 8.27057
files/tasks_parameters/ExAp01/sample15.txt 1.03292 7.37971 2.12057 0.285825 8.17327
files/tasks_parameters/ExAp01/sample24.txt 1.06953 8.28531 2.25272 0.296628 8.48219
files/tasks_parameters/ExAp01/sample3.txt 1.21431 7.33359 2.39135 0.305084 8.72399
files/tasks_parameters/ExAp01/sample6.txt 0.991035 7.09894 2.24425 0.281804 8.05829
files/tasks_parameters/ExAp01/sample30.txt 1.27918 8.17669 2.03701 0.299204 8.55585
files/tasks_parameters/ExAp01/sample42.txt 1.06712 7.70416 2.42413 0.29743 8.50511
files/tasks_parameters/ExAp01/sample4.txt 1.18184 7.41691 2.36261 0.307803 8.80172
files/tasks_parameters/ExAp01/sample28.txt 1.03875 7.0562 2.07657 0.266428 7.6186
files/tasks_parameters/ExAp01/sample18.txt 0.973888 7.60139 2.1377 0.268016 7.66401
files/tasks_parameters/ExAp01/sample35.txt 1.2466 9.66795 2.28028 0.32244 9.22027
files/tasks_parameters/ExAp01/sample47.txt 0.963002 6.84842 2.12104 0.251655 7.19615
files/tasks_parameters/ExAp01/sample49.txt 0.949148 7.1497 2.11412 0.255889 7.31723
files/tasks_parameters/ExAp01/sample41.txt 0.971827 6.59911 2.07359 0.265885 7.60308
