files/tasks_parameters/ExAp01/sample8.txt 1.12139 7.2562 4.46819 0.454772 27.7041
files/tasks_parameters/ExAp01/sample12.txt 1.67242 9.70908 5.28286 0.618515 37.679
files/tasks_parameters/ExAp01/sample2.txt 1.58298 8.14159 5.7401 0.620531 37.8019
files/tasks_parameters/ExAp01/sample44.txt 1.37424 7.25164 5.75904 0.557631 33.97
files/tasks_parameters/ExAp01/sample27.txt 1.31297 8.10944 5.64946 0.564878 34.4116
files/tasks_parameters/ExAp01/sample17.txt 1.25178 7.11225 5.46658 0.527183 32.1153
files/tasks_parameters/ExAp01/sample9.txt 1.23556 7.62559 5.37813 0.517277 31.5118
files/tasks_parameters/ExAp01/sample34.txt 1.23534 7.04587 5.93037 0.497709 30.3197
files/tasks_parameters/ExAp01/sample40.txt 1.22212 8.03037 5.123 0.502383 30.6044
files/tasks_parameters/ExAp01/sample33.txt 1.64374 9.22935 5.92956 0.659262 40.1613
files/tasks_parameters/ExAp01/sample48.txt 1.14979 8.12182 5.1577 0.452491 27.5651
files/tasks_parameters/ExAp01/sample29.txt 1.60022 8.06133 5.12331 0.650652 39.6368
files/tasks_parameters/ExAp01/sample11.txt 1.37845 7.63104 5.37897 0.563302 34.3155
files/tasks_parameters/ExAp01/sample14.txt 1.1461 6.66403 4.66322 0.471536 28.7253
files/tasks_parameters/ExAp01/sample0.txt 1.58766 9.3266 4.98971 0.6311 38.4457
files/tasks_parameters/ExAp01/sample7.txt 1.29267 7.34863 5.19436 0.515527 31.4052
files/tasks_parameters/ExAp01/sample23.txt 1.41996 6.68564 5.54308 0.588617 35.8577
files/tasks_parameters/ExAp01/sample13.txt 1.70385 9.31093 5.35591 0.632849 38.5522
files/tasks_parameters/ExAp01/sample22.txt 1.32157 7.65588 5.04866 0.540336 32.9165
files/tasks_parameters/ExAp01/sample25.txt 1.08045 6.17035 5.0141 0.408296 24.8728
files/tasks_parameters/ExAp01/sample36.txt 1.266 7.03772 4.66274 0.507647 30.9251
files/tasks_parameters/ExAp01/sample46.txt 1.41575 7.73433 4.79934 0.536843 32.7037
files/tasks_parameters/ExAp01/sample31.txt 1.25732 6.96928 5.16482 0.485817 29.5953
files/tasks_parameters/ExAp01/sample37.txt 1.63806 9.52443 5.74224 0.65799 40.0838
files/tasks_parameters/ExAp01/sample16.txt 1.36447 8.63521 4.97261 0.516328 31.4539
files/tasks_parameters/ExAp01/sample10.txt 1.41633 7.28353 6.16876 0.615651 37.5046
files/tasks_parameters/ExAp01/sample39.txt 1.13498 6.3405 4.6137 0.468873 28.5631
files/tasks_parameters/ExAp01/sample19.txt 1.64666 8.85528 5.22306 0.622152 37.9006
files/tasks_parameters/ExAp01/sample20.txt 1.44942 8.1141 5.21177 0.586994 35.7588
files/tasks_parameters/ExAp01/sample43.txt 1.3433 7.21373 5.6367 0.53748 32.7425
files/tasks_parameters/ExAp01/sample32.txt 1.61715 8.30592 5.38137 0.593918 36.1806
files/tasks_parameters/ExAp01/sample45.txt 1.45388 7.94069 4.96323 0.547271 33.3389
files/tasks_parameters/ExAp01/sample26.txt 1.17167 7.57061 4.62637 0.480146 29.2498
files/tasks_parameters/ExAp01/sample5.txt 1.476 8.0307 5.35681 0.59407 36.1899
files/tasks_parameters/ExAp01/sample21.txt 1.02596 5.87802 4.61744 0.434264 26.4547
files/tasks_parameters/ExAp01/sample38.txt 1.22067 7.66999 4.86632 0.496808 30.2648
files/tasks_parameters/ExAp01/sample1.txt 1.2168 7.21312 4.63213 0.486293 29.6243
files/tasks_parameters/ExAp01/sample15.txt 1.21759 8.02273 5.50855 0.531063 32.3516
files/tasks_parameters/ExAp01/sample24.txt 1.43104 8.66348 5.4905 0.548998 33.4442
files/tasks_parameters/ExAp01/sample3.txt 1.18463 7.74268 4.79918 0.477387 29.0817
files/tasks_parameters/ExAp01/sample6.txt 1.63454 8.57133 5.80157 0.633604 38.5982
files/tasks_parameters/ExAp01/sample30.txt 1.72229 8.18878 5.90888 0.633576 38.5966
files/tasks_parameters/ExAp01/sample42.txt 1.32551 8.57689 5.67253 0.54426 33.1555
files/tasks_parameters/ExAp01/sample4.txt 1.35335 8.40354 4.57985 0.563519 34.3288
files/tasks_parameters/ExAp01/sample28.txt 1.11659 6.44114 4.96426 0.449721 27.3964
files/tasks_parameters/ExAp01/sample18.txt 1.36417 8.56363 4.60946 0.543766 33.1255
files/tasks_parameters/ExAp01/sample35.txt 2.01719 11.0387 6.34514 0.761377 46.382
files/tasks_parameters/ExAp01/sample47.txt 1.33288 7.14493 5.22131 0.545046 33.2034
files/tasks_parameters/ExAp01/sample49.txt 1.33389 6.65996 4.80244 0.498533 30.3699
files/tasks_parameters/ExAp01/sample41.txt 1.21165 7.09069 5.35462 0.497129 30.2844
