files/tasks_parameters/ExAp01/sample8.txt 1.2791 6.77015 2.19458 0.288816 16.1716
files/tasks_parameters/ExAp01/sample12.txt 1.40828 9.58351 2.46081 0.337498 18.8975
files/tasks_parameters/ExAp01/sample2.txt 1.32979 8.44418 2.50701 0.319127 17.8688
files/tasks_parameters/ExAp01/sample44.txt 1.13238 6.96299 2.23089 0.28229 15.8062
files/tasks_parameters/ExAp01/sample27.txt 1.35912 7.74306 2.16676 0.28602 16.015
files/tasks_parameters/ExAp01/sample17.txt 1.24353 7.35053 2.25579 0.292348 16.3694
files/tasks_parameters/ExAp01/sample9.txt 1.05493 6.89392 2.21068 0.282399 15.8123
files/tasks_parameters/ExAp01/sample34.txt 1.32706 6.62788 2.3772 0.297742 16.6714
files/tasks_parameters/ExAp01/sample40.txt 1.24767 7.75686 2.17534 0.285619 15.9926
files/tasks_parameters/ExAp01/sample33.txt 1.45115 8.14826 2.6463 0.338073 18.9297
files/tasks_parameters/ExAp01/sample48.txt 1.20736 7.64107 2.14272 0.270011 15.1187
files/tasks_parameters/ExAp01/sample29.txt 1.1184 7.139 1.93769 0.286306 16.0311
files/tasks_parameters/ExAp01/sample11.txt 1.17823 6.88688 2.12981 0.280008 15.6784
files/tasks_parameters/ExAp01/sample14.txt 1.07095 6.11983 1.97599 0.247458 13.8558
files/tasks_parameters/ExAp01/sample0.txt 1.26484 8.2738 2.14256 0.289132 16.1893
files/tasks_parameters/ExAp01/sample7.txt 1.17329 6.87011 2.05821 0.269886 15.1116
files/tasks_parameters/ExAp01/sample23.txt 1.23148 6.52032 2.38087 0.291712 16.3337
files/tasks_parameters/ExAp01/sample13.txt 1.26011 8.73247 2.33415 0.295393 16.5399
files/tasks_parameters/ExAp01/sample22.txt 1.20931 6.9777 2.28948 0.283979 15.9008
files/tasks_parameters/ExAp01/sample25.txt 1.07458 6.23444 2.2122 0.267298 14.9667
files/tasks_parameters/ExAp01/sample36.txt 1.08593 6.6174 1.9458 0.253823 14.2122
files/tasks_parameters/ExAp01/sample46.txt 1.3271 7.42369 2.49128 0.327273 18.3249
files/tasks_parameters/ExAp01/sample31.txt 1.00162 7.22028 2.13584 0.25377 14.2093
files/tasks_parameters/ExAp01/sample37.txt 1.30212 8.90704 2.16981 0.295708 16.5575
files/tasks_parameters/ExAp01/sample16.txt 1.08631 8.18243 1.88294 0.24945 13.9674
files/tasks_parameters/ExAp01/sample10.txt 1.28915 6.96646 2.31217 0.285748 15.9998
files/tasks_parameters/ExAp01/sample39.txt 1.23815 6.4161 1.97266 0.251967 14.1083
files/tasks_parameters/ExAp01/sample19.txt 1.21376 8.16711 2.23199 0.308463 17.2717
files/tasks_parameters/ExAp01/sample20.txt 1.03588 7.28549 1.88944 0.25994 14.5548
files/tasks_parameters/ExAp01/sample43.txt 1.08065 6.86804 2.00142 0.25616 14.3431
files/tasks_parameters/ExAp01/sample32.txt 1.19589 8.15663 2.12995 0.281726 15.7746
files/tasks_parameters/ExAp01/sample45.txt 1.09632 7.75184 2.10599 0.274935 15.3944
files/tasks_parameters/ExAp01/sample26.txt 1.16176 7.4944 1.88956 0.267248 14.964
files/tasks_parameters/ExAp01/sample5.txt 1.2402 8.08362 2.09961 0.28454 15.9322
files/tasks_parameters/ExAp01/sample21.txt 1.17021 6.11814 2.17119 0.26143 14.6382
files/tasks_parameters/ExAp01/sample38.txt 1.0832 7.761 1.96293 0.263659 14.763
files/tasks_parameters/ExAp01/sample1.txt 1.3424 7.83752 2.13261 0.289228 16.1947
files/tasks_parameters/ExAp01/sample15.txt 1.22303 7.37971 2.12057 0.285825 16.0042
files/tasks_parameters/ExAp01/sample24.txt 1.22932 8.28531 2.25272 0.296628 16.609
files/tasks_parameters/ExAp01/sample3.txt 1.28944 7.33359 2.39135 0.305084 17.0825
files/tasks_parameters/ExAp01/sample6.txt 1.24315 7.09894 2.24425 0.281804 15.779
files/tasks_parameters/ExAp01/sample30.txt 1.31174 8.17669 2.03701 0.299204 16.7533
files/tasks_parameters/ExAp01/sample42.txt 1.33325 7.70416 2.42413 0.29743 16.6539
files/tasks_parameters/ExAp01/sample4.txt 1.3962 7.41691 2.36261 0.307803 17.2347
files/tasks_parameters/ExAp01/sample28.txt 1.07912 7.0562 2.07657 0.266428 14.918
files/tasks_parameters/ExAp01/sample18.txt 1.19736 7.60139 2.1377 0.268016 15.007
files/tasks_parameters/ExAp01/sample35.txt 1.32257 9.66795 2.28028 0.32244 18.0543
files/tasks_parameters/ExAp01/sample47.txt 0.980499 6.84842 2.12104 0.251655 14.0908
files/tasks_parameters/ExAp01/sample49.txt 1.1053 7.1497 2.11412 0.255889 14.3279
files/tasks_parameters/ExAp01/sample41.txt 1.10578 6.59911 2.07359 0.265885 14.8877
