files/tasks_parameters/ExAp01/sample8.txt 1.06707 6.77015 2.19458 0.288816 8.83983
files/tasks_parameters/ExAp01/sample12.txt 1.22141 9.58351 2.46081 0.337498 10.3298
files/tasks_parameters/ExAp01/sample2.txt 1.12517 8.44418 2.50701 0.319127 9.76756
files/tasks_parameters/ExAp01/sample44.txt 0.956093 6.96299 2.23089 0.28229 8.64009
files/tasks_parameters/ExAp01/sample27.txt 1.09064 7.74306 2.16676 0.28602 8.75423
files/tasks_parameters/ExAp01/sample17.txt 1.01538 7.35053 2.25579 0.292348 8.94791
files/tasks_parameters/ExAp01/sample9.txt 1.02494 6.89392 2.21068 0.282399 8.64341
files/tasks_parameters/ExAp01/sample34.txt 1.10681 6.62788 2.3772 0.297742 9.11301
files/tasks_parameters/ExAp01/sample40.txt 1.03219 7.75686 2.17534 0.285619 8.74198
files/tasks_parameters/ExAp01/sample33.txt 1.18483 8.14826 2.6463 0.338073 10.3474
files/tasks_parameters/ExAp01/sample48.txt 0.990392 7.64107 2.14272 0.270011 8.26426
files/tasks_parameters/ExAp01/sample29.txt 1.03803 7.139 1.93769 0.286306 8.76298
files/tasks_parameters/ExAp01/sample11.txt 0.93736 6.88688 2.12981 0.280008 8.57024
files/tasks_parameters/ExAp01/sample14.txt 0.863529 6.11983 1.97599 0.247458 7.57396
files/tasks_parameters/ExAp01/sample0.txt 1.07628 8.2738 2.14256 0.289132 8.84948
files/tasks_parameters/ExAp01/sample7.txt 1.00675 6.87011 2.05821 0.269886 8.26041
files/tasks_parameters/ExAp01/sample23.txt 0.990009 6.52032 2.38087 0.291712 8.92844
files/tasks_parameters/ExAp01/sample13.txt 0.999158 8.73247 2.33415 0.295393 9.04111
files/tasks_parameters/ExAp01/sample22.txt 1.00154 6.9777 2.28948 0.283979 8.69178
files/tasks_parameters/ExAp01/sample25.txt 0.938617 6.23444 2.2122 0.267298 8.1812
files/tasks_parameters/ExAp01/sample36.txt 0.839962 6.6174 1.9458 0.253823 7.76877
files/tasks_parameters/ExAp01/sample46.txt 1.21796 7.42369 2.49128 0.327273 10.0169
files/tasks_parameters/ExAp01/sample31.txt 0.948613 7.22028 2.13584 0.25377 7.76716
files/tasks_parameters/ExAp01/sample37.txt 1.03022 8.90704 2.16981 0.295708 9.05076
files/tasks_parameters/ExAp01/sample16.txt 0.928011 8.18243 1.88294 0.24945 7.63493
files/tasks_parameters/ExAp01/sample10.txt 1.08183 6.96646 2.31217 0.285748 8.74591
files/tasks_parameters/ExAp01/sample39.txt 0.924891 6.4161 1.97266 0.251967 7.71197
files/tasks_parameters/ExAp01/sample19.txt 1.17725 8.16711 2.23199 0.308463 9.44115
files/tasks_parameters/ExAp01/sample20.txt 0.920966 7.28549 1.88944 0.25994 7.956
files/tasks_parameters/ExAp01/sample43.txt 0.936511 6.86804 2.00142 0.25616 7.84032
files/tasks_parameters/ExAp01/sample32.txt 1.12066 8.15663 2.12995 0.281726 8.62283
files/tasks_parameters/ExAp01/sample45.txt 1.03571 7.75184 2.10599 0.274935 8.41496
files/tasks_parameters/ExAp01/sample26.txt 0.901587 7.4944 1.88956 0.267248 8.17968
files/tasks_parameters/ExAp01/sample5.txt 0.991417 8.08362 2.09961 0.28454 8.70895
files/tasks_parameters/ExAp01/sample21.txt 0.928983 6.11814 2.17119 0.26143 8.0016
files/tasks_parameters/ExAp01/sample38.txt 0.946837 7.761 1.96293 0.263659 8.06983
files/tasks_parameters/ExAp01/sample1.txt 1.09891 7.83752 2.13261 0.289228 8.85243
files/tasks_parameters/ExAp01/sample15.txt 0.982283 7.37971 2.12057 0.285825 8.74829
files/tasks_parameters/ExAp01/sample24.txt 1.00143 8.28531 2.25272 0.296628 9.07893
files/tasks_parameters/ExAp01/sample3.txt 1.16879 7.33359 2.39135 0.305084 9.33775
files/tasks_parameters/ExAp01/sample6.txt 0.950839 7.09894 2.24425 0.281804 8.62521
files/tasks_parameters/ExAp01/sample30.txt 1.15204 8.17669 2.03701 0.299204 9.15777
files/tasks_parameters/ExAp01/sample42.txt 1.05096 7.70416 2.42413 0.29743 9.10347
files/tasks_parameters/ExAp01/sample4.txt 1.17845 7.41691 2.36261 0.307803 9.42095
files/tasks_parameters/ExAp01/sample28.txt 0.957077 7.0562 2.07657 0.266428 8.15458
files/tasks_parameters/ExAp01/sample18.txt 0.928308 7.60139 2.1377 0.268016 8.20319
files/tasks_parameters/ExAp01/sample35.txt 1.10857 9.66795 2.28028 0.32244 9.86894
files/tasks_parameters/ExAp01/sample47.txt 0.951834 6.84842 2.12104 0.251655 7.70242
files/tasks_parameters/ExAp01/sample49.txt 0.956405 7.1497 2.11412 0.255889 7.83202
files/tasks_parameters/ExAp01/sample41.txt 0.943214 6.59911 2.07359 0.265885 8.13798
