files/tasks_parameters/ExAp01/sample8.txt 1.11098 7.2562 4.46819 0.454772 13.9193
files/tasks_parameters/ExAp01/sample12.txt 1.60256 9.70908 5.28286 0.618515 18.9309
files/tasks_parameters/ExAp01/sample2.txt 1.45442 8.14159 5.7401 0.620531 18.9926
files/tasks_parameters/ExAp01/sample44.txt 1.33358 7.25164 5.75904 0.557631 17.0674
files/tasks_parameters/ExAp01/sample27.txt 1.31461 8.10944 5.64946 0.564878 17.2893
files/tasks_parameters/ExAp01/sample17.txt 1.23385 7.11225 5.46658 0.527183 16.1356
files/tasks_parameters/ExAp01/sample9.txt 1.18337 7.62559 5.37813 0.517277 15.8323
files/tasks_parameters/ExAp01/sample34.txt 1.23505 7.04587 5.93037 0.497709 15.2334
files/tasks_parameters/ExAp01/sample40.txt 1.20264 8.03037 5.123 0.502383 15.3765
files/tasks_parameters/ExAp01/sample33.txt 1.62161 9.22935 5.92956 0.659262 20.1781
files/tasks_parameters/ExAp01/sample48.txt 1.16337 8.12182 5.1577 0.452491 13.8494
files/tasks_parameters/ExAp01/sample29.txt 1.5522 8.06133 5.12331 0.650652 19.9146
files/tasks_parameters/ExAp01/sample11.txt 1.3591 7.63104 5.37897 0.563302 17.241
files/tasks_parameters/ExAp01/sample14.txt 1.13396 6.66403 4.66322 0.471536 14.4324
files/tasks_parameters/ExAp01/sample0.txt 1.51591 9.3266 4.98971 0.6311 19.3161
files/tasks_parameters/ExAp01/sample7.txt 1.28633 7.34863 5.19436 0.515527 15.7788
files/tasks_parameters/ExAp01/sample23.txt 1.36278 6.68564 5.54308 0.588617 18.0159
files/tasks_parameters/ExAp01/sample13.txt 1.53075 9.31093 5.35591 0.632849 19.3697
files/tasks_parameters/ExAp01/sample22.txt 1.30779 7.65588 5.04866 0.540336 16.5381
files/tasks_parameters/ExAp01/sample25.txt 1.03102 6.17035 5.0141 0.408296 12.4967
files/tasks_parameters/ExAp01/sample36.txt 1.20746 7.03772 4.66274 0.507647 15.5376
files/tasks_parameters/ExAp01/sample46.txt 1.34553 7.73433 4.79934 0.536843 16.4312
files/tasks_parameters/ExAp01/sample31.txt 1.17316 6.96928 5.16482 0.485817 14.8695
files/tasks_parameters/ExAp01/sample37.txt 1.54829 9.52443 5.74224 0.65799 20.1391
files/tasks_parameters/ExAp01/sample16.txt 1.34135 8.63521 4.97261 0.516328 15.8033
files/tasks_parameters/ExAp01/sample10.txt 1.40112 7.28353 6.16876 0.615651 18.8433
files/tasks_parameters/ExAp01/sample39.txt 1.14438 6.3405 4.6137 0.468873 14.3508
files/tasks_parameters/ExAp01/sample19.txt 1.40621 8.85528 5.22306 0.622152 19.0423
files/tasks_parameters/ExAp01/sample20.txt 1.39594 8.1141 5.21177 0.586994 17.9662
files/tasks_parameters/ExAp01/sample43.txt 1.24128 7.21373 5.6367 0.53748 16.4507
files/tasks_parameters/ExAp01/sample32.txt 1.44512 8.30592 5.38137 0.593918 18.1781
files/tasks_parameters/ExAp01/sample45.txt 1.31563 7.94069 4.96323 0.547271 16.7504
files/tasks_parameters/ExAp01/sample26.txt 1.12704 7.57061 4.62637 0.480146 14.6959
files/tasks_parameters/ExAp01/sample5.txt 1.37681 8.0307 5.35681 0.59407 18.1827
files/tasks_parameters/ExAp01/sample21.txt 1.01702 5.87802 4.61744 0.434264 13.2916
files/tasks_parameters/ExAp01/sample38.txt 1.18762 7.66999 4.86632 0.496808 15.2059
files/tasks_parameters/ExAp01/sample1.txt 1.12402 7.21312 4.63213 0.486293 14.884
files/tasks_parameters/ExAp01/sample15.txt 1.27969 8.02273 5.50855 0.531063 16.2543
files/tasks_parameters/ExAp01/sample24.txt 1.30014 8.66348 5.4905 0.548998 16.8032
files/tasks_parameters/ExAp01/sample3.txt 1.15318 7.74268 4.79918 0.477387 14.6114
files/tasks_parameters/ExAp01/sample6.txt 1.49305 8.57133 5.80157 0.633604 19.3928
files/tasks_parameters/ExAp01/sample30.txt 1.66943 8.18878 5.90888 0.633576 19.3919
files/tasks_parameters/ExAp01/sample42.txt 1.3369 8.57689 5.67253 0.54426 16.6582
files/tasks_parameters/ExAp01/sample4.txt 1.28166 8.40354 4.57985 0.563519 17.2477
files/tasks_parameters/ExAp01/sample28.txt 1.03974 6.44114 4.96426 0.449721 13.7647
files/tasks_parameters/ExAp01/sample18.txt 1.33376 8.56363 4.60946 0.543766 16.6431
files/tasks_parameters/ExAp01/sample35.txt 1.92465 11.0387 6.34514 0.761377 23.3035
files/tasks_parameters/ExAp01/sample47.txt 1.3265 7.14493 5.22131 0.545046 16.6823
files/tasks_parameters/ExAp01/sample49.txt 1.28718 6.65996 4.80244 0.498533 15.2587
files/tasks_parameters/ExAp01/sample41.txt 1.1976 7.09069 5.35462 0.497129 15.2157
