Task0 0.057134603550750424 0.08238459267260366 0.07252471873152837 0.07928079351442513 0.30425004827607716 0.7464099302155618 0.36788183041452704 
Task1 0.05832855482286318 0.24641041514115247 0.0660689533255937 0.09455834918531875 0.4086908200395826 0.3453060160602772 0.6758244176079767 
Task2 0.06830280690609143 0.16227537474159212 0.23792152590627944 0.3287750708211359 0.5039449393514295 0.4003651389800859 0.7406855868585692 
Task3 0.024412356296396712 0.409748451481358 0.08834784025960656 0.254187425120927 0.949546770443092 0.6729180365080588 0.9915948382596151 
Task4 0.02762687973403384 0.01898014000683337 0.09567061866662233 0.5623614453815036 0.6255643920292899 0.9430393967562762 0.4773563160206702 
Task5 0.10698385144376295 0.45610613102773223 0.07680072250406156 0.11170581034591981 0.3586788417808824 0.5899815090011779 0.7596815623180746 
Task6 0.0002559311514558655 0.0007855029258451902 0.0021541346340225847 0.000825402633206748 0.40994319105870025 0.8006188608202773 0.8790545043335594 
Task7 0.02361398193662397 0.19322220302659648 0.009822038605264514 0.16467079467269907 0.6873838780202478 0.7599737755686634 0.31665963507238154 
Task8 0.01586048768335829 0.05776019461492951 0.04336300015889434 0.10023710411510992 0.6898414588672079 0.41325544691788285 0.3994015226101075 
Task9 0.007300754586998514 0.05662203961883371 0.012134691909390862 0.10881475127878015 0.6926717754425152 0.37367696114895277 0.6729991452038013 
Task10 0.042020466202373014 0.14571364366703174 0.14512327144022638 0.13073601600859497 0.9579343392351785 0.4556946585659125 0.9029387734740941 
Task11 0.051515857159688455 0.1512414473807636 0.04161311737309073 0.20639235771704129 0.753321548707716 0.504159095293027 0.8564657844868866 
Task12 0.02848646228091427 0.0824934111558836 0.1578796502252624 0.17179645317089234 0.5391808593173509 0.5306257537943154 0.3370733177413092 
Task13 0.022370775434521352 0.035407190481261556 0.1364016475401456 0.16893952286217268 0.3943882307402895 0.5361219743287753 0.9974163020064581 
Task14 0.08332213098837257 0.12371052295751442 0.2518098203074656 0.1988639707282044 0.613060048213812 0.7956857338702834 0.945336051202331 
Task15 0.002026329826490926 0.009477440383993644 0.015385127561819508 0.016473563068925 0.7019455324640927 0.613969851285594 0.48683292157141633 
Task16 0.0014796280127512915 0.14399289684080957 0.10442417409609253 0.052846490136676305 0.8749239724877043 0.4279437902043002 0.7555374949652984 
Task17 0.06085246536799972 0.16182403932716766 0.19569934795257649 0.06993376493422833 0.3697279643822261 0.631090132474761 0.5307498789405016 
Task18 0.036601186091141935 0.16187948852694675 0.09142336678826248 0.13726831054155605 0.5477939991144865 0.6915768125054894 0.6233111805812986 
Task19 0.05441211307143361 0.07885821679506204 0.13411163575287682 0.02021373746097396 0.3354495036872189 0.7149922946872105 0.5778797562407338 
Task20 0.000983453521642752 0.22318013076776066 0.15995367261808677 0.16483253818121205 0.9325232433088482 0.4319633443690516 0.8512309832799407 
Task21 0.002142024098726833 0.32455370399391587 0.13050478871967522 0.3175254529486051 0.6636181703956809 0.3223391272716485 0.382506332481455 
Task22 0.031212092802629113 0.01795528329836245 0.05930359241041033 0.08049917822019426 0.8381537681472213 0.8796904741133316 0.7225586360896887 
Task23 0.06297224872252273 0.3329464741490296 0.10923163986889523 0.0049290355754303475 0.7569981791456879 0.41199820848132185 0.9303191304989722 
Task24 0.0481192961496519 0.25667350785650966 0.12582086589497646 0.0002865746790391111 0.8686743876188503 0.5859221245883669 0.6030022732363572 
Task25 0.045145463631317176 0.11558563342405993 0.41004623068445123 0.033815419064414945 0.47000530546883734 0.3189910882762022 0.9112846960012846 
Task26 0.006772805643580616 0.07339331059200592 0.2284395857779232 0.0068138453915133025 0.3967726335270507 0.538290092253463 0.9753384984717177 
Task27 0.06369582621235323 0.24322009575510256 0.29807724632668897 0.3850901153977729 0.5646368526202485 0.870650638143998 0.5338846508843608 
Task28 0.032519770041348754 0.038336941264464776 0.07198966140842641 0.20546140839727647 0.7103370437261062 0.826258033036952 0.6800481228811528 
Task29 0.012390826392499228 0.04875610449639989 0.019831257458082563 0.04344155386851711 0.7309105626411181 0.4641292177427954 0.776332685517551 
Task30 0.10710425085354199 0.3004094272793247 0.13934481182282824 0.13698421709606184 0.7196015666633543 0.853420353484019 0.8547153781461854 
Task31 0.07905900863112011 0.09989828775954898 0.08939207479180014 0.21306960234247777 0.30127820444444203 0.37243091111999727 0.7894263639863381 
Task32 0.010074086935691968 0.08248351568573162 0.0599726808174601 0.019471120988159146 0.8480884057986064 0.7570384065686868 0.3932472345621275 
Task33 0.021617680856643794 0.1472057357949188 0.173717887924396 0.23989787216198666 0.7015208516815674 0.9921796884441629 0.9036406934197394 
Task34 0.02421417495859423 0.2983399343399033 0.2160874770288355 0.25005015389158813 0.425247121175247 0.7405526413821413 0.6344836903513774 
Task35 0.014826317270340134 0.03287305327801132 0.022040346642054797 0.037770395923152275 0.5436684031519502 0.6177254661185567 0.7617891710349767 
Task36 0.021169587829919685 0.31713945147412487 0.21009980183603646 0.12417082923505593 0.33757943822749287 0.9395036888808816 0.675686315845188 
Task37 0.041139706367662815 0.15245864902631773 0.06663712083202157 0.08716153519980784 0.6704536051985868 0.6655857917553769 0.32780163784105415 
Task38 0.10292324914796241 0.14085348905094172 0.0649026208274201 0.22721116124564203 0.798920234141079 0.8076742048791306 0.3818194301290911 
Task39 0.08307364091410914 0.155563937883683 0.20670962897271242 0.29585036692252414 0.32206193679913764 0.6533926974350729 0.8579057045339229 
Task40 0.009008144760657963 0.11909537630108277 0.34857691930339035 0.19663135754551037 0.7531200484486578 0.997879635304785 0.3270379981097646 
Task41 0.06269212507135656 0.48424396648919577 0.19933314184813217 0.16061413924573278 0.3355269643659116 0.6740582663389527 0.6462507053808262 
Task42 2.0165874628144e-05 0.014440220748724315 0.0038135744578216527 0.0073677632954208426 0.5302815285736483 0.5065394199539202 0.3748976914599575 
Task43 0.02522167142708334 0.2826936728760313 0.19216886414308296 0.17786861053426023 0.32806346252048835 0.4657685614561223 0.45777696623150754 
Task44 0.007415087000954279 0.08426351580104322 0.10553612248642581 0.0014528172917289994 0.3442945003209653 0.8648721976342879 0.40623140671181607 
Task45 0.0012090369600935298 0.0826334172408944 0.24119405547028497 0.3682199367305188 0.37551220523075335 0.8928206176697926 0.7332762467697702 
Task46 0.018780927566409786 0.03199114102559729 0.2879998943306454 0.16358856040007452 0.6719148035808153 0.38574640647336483 0.6321655015997475 
Task47 0.13625685050098424 0.18021740071973108 0.11962999053696627 0.26753419508249116 0.9642925104574112 0.48559110980339915 0.9027900694991959 
Task48 0.0161499987749743 0.030858182839807638 0.021817649671165614 0.03789874833591688 0.4422733733748784 0.9776353088763854 0.9975509025706395 
Task49 0.10117515409665752 0.004340151604932417 0.30594709735855913 0.1289587885619869 0.8215735817046765 0.4027300501651672 0.5000091449605455 
Task50 0.01656092435213213 0.02563749739520343 0.02441809291916544 0.02974129019418123 0.9720798329372979 0.7870546269658585 0.4378491734899451 
Task51 0.12496457972346395 0.21878900257173728 0.19200540473506053 0.15175733444917505 0.4599959158317951 0.38852679827156145 0.36100645772710793 
Task52 0.1016853045543798 0.4088805914561416 0.1904375366160386 0.21897062733273515 0.7688706308079041 0.3893591423201646 0.5983547667353399 
Task53 0.021379423617970513 0.1057299702338483 0.20775966023068476 0.24320437736178113 0.8713327471263954 0.7669277920345638 0.7442776268421551 
Task54 0.0689114683103994 0.20351720916427413 0.1511759345310845 0.2673447941798877 0.6389896430471521 0.8140499254891478 0.3244255831694015 
Task55 0.125839087322983 0.02965980448126133 0.5334475738619776 0.3058661340129883 0.30273579015921287 0.43065840326304705 0.6087844152118876 
Task56 0.038661675073092434 0.09121257963331668 0.16293856195577544 0.0923245976613225 0.39887659000985454 0.674221081684955 0.49453370246102357 
Task57 0.013938385622265374 0.20252234554977855 0.05170634886865357 0.026051359895459338 0.5272279386067409 0.3017486892700757 0.38348234367007544 
Task58 0.047911159108843165 0.03972850820808843 0.18046757946266462 0.23140597183886044 0.8285845079466232 0.9207791015942208 0.49439747790496313 
Task59 0.10440600488190846 0.2486306852728903 0.21346495168495389 0.14707165755492319 0.9504259388012617 0.7868152555481702 0.4206878642706679 
Task60 0.001058655913255668 0.06347287771234587 0.05678149064287511 0.03093416106744597 0.9890913366122156 0.3465361596346549 0.7809495386998698 
Task61 0.11369229373235523 0.1306208549995768 0.10729382517484518 0.24454504360357776 0.7347228822654239 0.9694422961384837 0.7238979247453365 
Task62 0.004050579184170816 0.03501581638607851 0.02755310551941359 0.0019988286811435945 0.6593073004392258 0.688990227984321 0.6690323536764093 
Task63 0.08396738766020706 0.08633940891227128 0.08945112791970512 0.2484881353284343 0.5710028861487524 0.8347424326205921 0.42966481483047586 
Task64 0.10739585909500246 0.12279971685530032 0.2501557560553166 0.41907480725665963 0.3036587912377128 0.627688157549076 0.8040482614386455 
Task65 0.06625721576257806 0.2805359795815579 0.2515979289159755 0.21223098108695151 0.9454990540161516 0.31989902440183127 0.6281946194440176 
Task66 0.12190200824669581 0.04244919085535447 0.34951124558027 0.23137569478729417 0.8248652463395558 0.8045184593872008 0.9078531965477343 
Task67 0.06823767458080839 0.053847334101121296 0.3113738067569095 0.4243830430961762 0.792240964232296 0.5898414289544545 0.9372450462237025 
Task68 0.0012641601280552078 0.05215831492594805 0.026868717334583302 0.0411964262834938 0.7210760249097773 0.6040379449374218 0.5521463760368628 
Task69 0.11659101659009947 0.12411236307123684 0.21801710676562897 0.24943703207994622 0.38011039714268213 0.666989627664774 0.3783989546229576 
Task70 0.008839163438503604 0.3607222064353221 0.04713824687434138 0.29404779942360804 0.37992257018117537 0.3136431100924794 0.5957403330715335 
Task71 0.0012800443919217305 0.05083423415768697 0.039258587601191886 0.03638988981187447 0.5222269650425485 0.6098527624791878 0.8536601189076394 
Task72 0.07374918015323058 0.16307468402994774 0.15600210715669824 0.002832428817809495 0.5118313599248105 0.7081509653059841 0.9733817051837046 
Task73 0.031600843024302494 0.21214695208393652 0.04656471484558354 0.28726465016217995 0.3022126411267331 0.6992565059242712 0.7876744069954613 
Task74 0.1148029381263647 0.036899762145904014 0.1048273630530389 0.48159822604881175 0.45201132672119193 0.9580110813362879 0.7477431292542105 
Task75 0.06633481202609165 0.09407627969906285 0.15395522799838346 0.2740900798467716 0.9273920300860821 0.4630460180653554 0.856350530747132 
Task76 0.01434615300301498 0.13017624506727205 0.008304498534540336 0.182494512562813 0.6214036327217618 0.6687455279982255 0.7026284896421167 
Task77 0.0009546524406142952 0.12629416659335915 0.09898777562892944 0.06613424520052738 0.7709443938705244 0.8457776103050909 0.3641673003029041 
Task78 0.08335510162806081 0.5605091378230206 0.186870896178916 0.05227821985720723 0.3075927855725649 0.6252759028794389 0.4006587995582435 
Task79 0.1055722207222629 0.3250856892927294 0.29033601087757194 0.14331450028346635 0.5156310334573061 0.9397042794737105 0.8793912535929282 
Task80 0.012405853948604604 0.03985225277464363 0.1176843603621639 0.016688995520889715 0.817092890393492 0.3378874775992434 0.390151122844389 
Task81 0.05125659138153719 0.18144036743443984 0.10542742173379803 0.13286097607750488 0.7405606559757323 0.8004463417418468 0.5065210280911889 
Task82 0.028426967503689827 0.1695205774181205 0.5080489301028002 0.02648247867618294 0.530603112909526 0.40052717335689286 0.4693953686877276 
Task83 0.11177556294247785 0.23453092995990457 0.563261102100561 0.08262520198344964 0.6076826872459363 0.7098447957611043 0.5516840137615777 
Task84 0.03856679803825222 0.16472627627693104 0.14951146782686373 0.026339604384952045 0.9487159997577819 0.6858011646145801 0.9853324388982663 
Task85 0.08825144220799709 0.1156281622275145 0.05176504834391772 0.1916757469867805 0.8159224319992766 0.9670322942831728 0.4128753549037912 
Task86 0.02861421586020068 0.34755171250306904 0.004724047076198176 0.1501851056307796 0.6073482371301965 0.6281742982123794 0.9935530991963153 
Task87 0.03264869685936375 0.11558984374014324 0.06689311518864587 0.18410230412278408 0.3921841293790587 0.47786685207850566 0.5070444918465826 
Task88 0.009007869179964203 0.1392495918461117 0.3093030861520963 0.060104904811437966 0.929121384844245 0.7048364373739213 0.7959050791654431 
Task89 0.041180654886281705 0.17190466345985436 0.19643446188498495 0.17963739498050438 0.9562670976119392 0.7756191767049478 0.41559057362026874 
Task90 0.04564562191076898 0.05181664705508986 0.29086022512898746 0.08056981756067971 0.9272922037687552 0.8762343067486975 0.5273582320693597 
Task91 0.016984850724455065 0.05673634553888202 0.43491232737211205 0.20476557382681063 0.8730725506041916 0.7101803580241881 0.7612236184673578 
Task92 0.03832803209598535 0.00783943056360256 0.05173276883314116 0.15662611627440742 0.4005583742713807 0.6807533476181361 0.385133732372669 
Task93 0.024800204579217038 0.09260057562396706 0.08265189202888625 0.1359904673013117 0.6731479253261157 0.9335672295191777 0.58510631993834 
Task94 0.019929612741895326 0.01597873904604189 0.21372394629556 0.1481914011346308 0.45650621315110135 0.6496005545096339 0.985074162030362 
Task95 0.053501811015024305 0.13820998628826442 0.11242713872063438 0.09457081761987068 0.7278887359286764 0.7783697411547558 0.9876864390731876 
Task96 0.005541482950932554 0.17485891013293475 0.000174693721963916 0.11257454502807582 0.8558148280816367 0.7897226777519741 0.9877015334149295 
Task97 0.09192244265077099 0.21656611283496283 0.21621811596781576 0.1349881891352324 0.6090859461058207 0.7179837168992922 0.7486869245322871 
Task98 0.09275081398425193 0.463830705585391 0.038719716863563014 0.1625038354722358 0.7778332984840826 0.32935631034198287 0.8350800878356444 
Task99 0.1457265564536162 0.2588705573585648 0.47985670521349705 0.014256229389478051 0.3459279273592276 0.7114531505332782 0.5137427929479357 
