Task0 0.015421321391327401 0.10879658923962611 0.02205204556151582 0.0788477541146388 0.6904381528175398 0.4772470473993598 0.3087986347693123 
Task1 0.08919261180047852 0.043388134086253596 0.4829672411000732 0.2448763631456737 0.8575413981961872 0.45130907620699495 0.47580720613079347 
Task2 0.1384604527842481 0.3225202695937254 0.39939196789040143 0.009962756667255691 0.5757084135767314 0.576098245714441 0.5691342839433766 
Task3 0.009905956251990252 0.1568253442371349 0.058957967809009394 0.06310966693104486 0.3351054794160975 0.6812325058051345 0.9107704228839333 
Task4 0.007865322114092538 0.07111677710084072 0.38013920501682424 0.1273998950026864 0.7219142491656858 0.8942580197577614 0.5989400232899645 
Task5 0.13177575520423318 0.3179192868168101 0.0022817622963388997 0.4574339442510979 0.7581072180554822 0.774827796291526 0.7223656533151673 
Task6 0.08334159105451219 0.3420592213992414 0.025049036453285344 0.3132361557431542 0.5890158039661197 0.47201229428771807 0.555160484631361 
Task7 0.007508836830424841 0.00036253871273395267 0.011196857908018085 0.030403890948140933 0.9094161679606851 0.984594951254143 0.8822466749248676 
Task8 0.038833997068488994 0.4472673485639648 0.3023085215528938 0.03779260559725091 0.5959802517720227 0.9336080222250538 0.7445504612764454 
Task9 0.01769530427871415 0.03873851834480185 0.03057968705491942 0.03501038270784687 0.762219292475961 0.9206469616634771 0.8315953791832618 
Task10 0.05555112848729326 0.3337106627225526 0.42514202020751035 0.16736384921502606 0.7646473555216449 0.9838196394525545 0.8937982942966054 
Task11 0.0037940330022418586 0.024028007858070015 0.015395529398670104 0.02509648863739744 0.5525939951189223 0.33054801403516193 0.39272699353745244 
Task12 0.10017872520936132 0.328581246765015 0.10523034624031234 0.08558894400739146 0.5394024459026101 0.8689900254027563 0.9247497629011061 
Task13 0.0034557162829191193 0.0029878897970916913 0.0021149677340189872 0.009459094313402753 0.5705970394971236 0.39118855441948236 0.7838762175209655 
Task14 0.011171407369770443 0.03571331415795116 0.034478769796776366 0.002532182369124408 0.3947877214609673 0.8065502695218671 0.9547835425961486 
Task15 0.025107363908858572 0.05097801466120386 0.06314825941309775 0.04222610066038808 0.7553099542989407 0.5507210297077311 0.32651508426068443 
Task16 0.1016972842049528 0.1382090816912751 0.22112929715384558 0.3049451311448969 0.6865939699178623 0.95046643414105 0.6524965465497923 
Task17 0.10831590920223112 0.3323674765068969 0.06563153962225715 0.06707022144009421 0.718440631491563 0.6938252843744916 0.8561528090575634 
Task18 0.15391968295286476 0.3931656567392167 0.2087287352554274 0.22050980588732275 0.8612816493298205 0.8083493419607213 0.835003187674284 
Task19 0.05737658978539191 0.25715554237218463 0.07378932455308798 0.2520955673463818 0.8589939691938606 0.6594121425846938 0.8470824330240327 
Task20 0.005202331921540927 0.07245243088108799 0.1432075063067782 0.18013089394218723 0.5195129062302 0.9964493594746915 0.860415646212427 
Task21 0.05493490024531074 0.2078348319718468 0.00565101405695644 0.37565054549406235 0.35092677841068126 0.6687040425690397 0.5796216667610073 
Task22 0.0031547483698115652 0.07283256753875211 0.03532593323335303 0.14909410256053773 0.8465368912731044 0.8107858567983575 0.782400425489777 
Task23 0.03346374080026758 0.04906506872720839 0.04883775372955991 0.0543047654370651 0.6256577676879264 0.46775930683829614 0.8795001385184555 
Task24 0.04735201571310804 0.06764068454560346 0.17944295136431151 0.1414408529378777 0.9811794040679882 0.5800943372796381 0.6041543378719851 
Task25 0.09849596986915578 0.4236966993090076 0.012431296460893849 0.04281990266953523 0.3282364363179313 0.9139830965157627 0.3947295620023627 
Task26 0.054275490812342626 0.007590820795943697 0.19431806047243633 0.06521401193898627 0.6366995965259158 0.570862666580731 0.49759977954819423 
Task27 0.008005606958242397 0.04569762081815039 0.04002043482069908 0.01565950462874956 0.8948367714139758 0.8141501339864226 0.3792206274712061 
Task28 0.0006852560739325958 0.002588552634551292 0.00025919952718197196 0.003860653448437188 0.5394915664728884 0.839495734925066 0.42625053461383955 
Task29 0.0015306325213209986 0.012051909695577971 0.005011573953201416 0.012476766689523619 0.8437464484583108 0.4777552977417058 0.5675943031756574 
Task30 0.06316619168574204 0.2399453707944277 0.1887994571229045 0.11661311487591064 0.4260793424571296 0.3307087456760117 0.48834829431508187 
Task31 0.06059681031529476 0.20649926196420318 0.21079732795496525 0.18599552570820582 0.39116393704545577 0.6169680987381386 0.7189766588064339 
Task32 0.10839422123107066 0.09979230773931491 0.32268864875639436 0.10338523150822802 0.7725874294779133 0.8021040398970254 0.6228421815021432 
Task33 0.020262905750799566 0.09326330710921346 0.38734282000412545 0.20506415488357874 0.7508158229140329 0.4633153950106481 0.7198042887921772 
Task34 0.020699153911625363 0.060195258922593135 0.02647469702489711 0.09063704284907928 0.9599685595533729 0.7789347934668231 0.8639872296294182 
Task35 0.09934180447065176 0.30191403324742627 0.4296902673274767 0.15590685089423578 0.5959013396239051 0.49860010519473785 0.7504391714563234 
Task36 0.02313724950624684 0.15472561053962675 0.010518737698933437 0.09195528788684276 0.4176902620689024 0.998474196779217 0.6237023515449556 
Task37 0.04412123379128709 0.18042310654492416 0.10624122360127025 0.12532735753921992 0.3792444166597224 0.9043106581842622 0.5169691474786668 
Task38 0.03166009088529138 0.12303180898693523 0.023563801484122255 0.09021804252919857 0.7363419674066667 0.6210218570914211 0.6026522353086681 
Task39 0.008718262865582735 0.016283091018990333 0.04420228222433758 0.03946515957505049 0.4584946210486292 0.4278148700345659 0.8990786516695928 
Task40 0.04019656697880549 0.007350290642258291 0.06812447543424299 0.4789950864245596 0.5032458777512381 0.6891369852742595 0.5226017644904337 
Task41 0.1643723903476239 0.1036677124046336 0.4910415325128132 0.15558473330164285 0.8771753067169938 0.4233693068715138 0.41350421575893387 
Task42 0.04070093509691745 0.19323813727076103 0.3304037481059191 0.3168786226225395 0.3936757061504937 0.4382844570412373 0.4118863949473092 
Task43 0.0006717861952807743 0.0010471162552228598 0.0015454578239869536 0.00044879984850179947 0.3885945116732867 0.35992948542251135 0.531303201542819 
Task44 0.010607734723330904 0.008109679943459389 0.027698917833013276 0.027485107845522085 0.639191193785983 0.8069124077273642 0.5332290263701949 
Task45 0.1256127019330128 0.24670787197120755 0.36918655749841967 0.0485676352161603 0.3464778753987258 0.8396273159371441 0.5164860484053175 
Task46 0.12901266976608752 0.13154550640969634 0.12340752924779662 0.31453284610028154 0.8367674688548195 0.30745827406813236 0.8828252283210096 
Task47 0.08679594841351113 0.32583542999548804 0.3539999332454009 0.017315094751965018 0.8923880271555087 0.9755513691777673 0.8297876693590391 
Task48 0.04213326893692685 0.2923566126535233 0.2750941944296013 0.3709575335770035 0.45370977980829363 0.42832876661967034 0.3306924761438484 
Task49 0.06917212712252263 0.08164872455914526 0.27409566247023653 0.15462568049865716 0.4982790959965674 0.33073416794265786 0.7008527012694268 
Task50 0.07785235965060601 0.18364430173283053 0.13167934912400295 0.6014795601195453 0.7313444909574675 0.9853793478855564 0.4545432020948319 
Task51 0.1237825655926287 0.2748688466438227 0.05510093810962878 0.29569237523902825 0.8485624381021881 0.5788838758299611 0.40497974638162165 
Task52 0.0671016914251998 0.08718726265270582 0.0013692165664171856 0.26990839915682135 0.8146881380382645 0.4171699870671493 0.7801391779277587 
Task53 0.034869742660188725 0.13970740006360857 0.11835921203755569 0.23945869685128354 0.736217021857871 0.6633353756651539 0.6464515971437998 
Task54 0.016289813951120138 0.024580119375034765 0.02099453564555086 0.025373901956835043 0.4551588932348671 0.9329661204148101 0.968757245217567 
Task55 0.00431688231979395 0.019227603796127892 0.09106541462562069 0.0862914384950625 0.5619467365364275 0.5817319434060209 0.3611003948803099 
Task56 0.014904238893171672 0.0016501318171861126 0.12504093132328956 0.040710097709011316 0.5053845915413375 0.7930075513191726 0.8346021369598005 
Task57 0.01179273951691031 0.06624773192056645 0.06718864827871059 0.010313139083900883 0.8984301677405477 0.9096295515366046 0.3532966109442622 
Task58 0.07645481858907169 0.23435082310231056 0.21242854366714808 0.09862127342202087 0.5315346495216752 0.5197036751558223 0.9580640445150874 
Task59 0.06033144637601612 0.09320355521780226 0.14974576595667896 0.22542034195054894 0.6904163864138753 0.30300356063835876 0.6409797764010738 
Task60 0.05728112878944971 0.41091325464857775 0.2188779412742231 0.1571437566113021 0.8177330977533059 0.6737968690370273 0.54855147046584 
Task61 0.02873790832005607 0.20074561782030206 0.06744416041790219 0.21477628630472104 0.5880530664314555 0.9265261376699316 0.707423312900099 
Task62 0.061396813956059504 0.047382420447492773 0.11391782198924555 0.20931795613223333 0.5086373499714785 0.8548988051645097 0.8068754628391008 
Task63 0.03232996807919923 0.10609596703449707 0.04876583440744197 0.08366025825072895 0.35338328940804026 0.9162451473556181 0.5321810451707294 
Task64 0.02746285340496416 0.046906608783896485 0.07689886738597285 0.001854268165665694 0.8018999005980121 0.9650234079892679 0.9454220792730772 
Task65 0.06822640626871797 0.012790346129105696 0.3666811691869447 0.3642269860819779 0.33311945297750245 0.8698256444705619 0.9624998522709804 
Task66 0.00671665096834579 0.05296179311256243 0.07544745123941099 0.06571321471866028 0.6159743950230354 0.40016392391175476 0.7568109259831628 
Task67 0.0007004328749131907 0.003960588792206273 0.005477885548525297 0.00426198024455631 0.6708981985274151 0.3613300159586218 0.8148559837142917 
Task68 0.07311977504850345 0.27190638779271187 0.07577166234288393 0.021459024760263144 0.5183461111659011 0.5612865469630992 0.8519677830155463 
Task69 0.06783077908620226 0.2535320623980472 0.3626922236162986 0.14652140627299243 0.42962845839176544 0.9739747475272287 0.5064123975282048 
Task70 0.0039980736514913726 0.010035377805829361 0.05783848904972291 0.02554795410735594 0.4652756474815253 0.7297125772133337 0.8519030582344291 
Task71 0.010061544408287255 0.004933679972416808 0.024142946684037988 0.018336644580917102 0.5768028110065804 0.6667777448616017 0.9040598029048683 
Task72 0.040033747214483925 0.5873204205392706 0.12565773019855617 0.1275824080464127 0.9768462986116222 0.7332109456509031 0.5854787306310407 
Task73 0.05436552329598925 0.4209006007207115 0.30926268014415137 0.12598768653509393 0.4964441173967843 0.8312016503482662 0.33035168055009817 
Task74 0.02247051356589637 0.06033692832397892 0.13464932774745245 0.11456513923489911 0.5773458390392021 0.9394601073500617 0.9410243408761707 
Task75 0.018356447474173147 0.034417428186672344 0.03822995973701622 0.08784477083161425 0.30708100572010816 0.6312005096934432 0.7850276513916601 
Task76 0.034088464291998 0.1733032835356284 0.180442147240947 0.012938020481645392 0.6356578357472111 0.5137741562167524 0.6786125056189969 
Task77 0.005349167984751057 0.1325201916350999 0.30924472089218036 0.27495497036024347 0.40314783779580127 0.7116241385666742 0.8893741940047479 
Task78 0.07015616368839636 0.03359862143986028 0.3891469719653365 0.40681061349868214 0.7123476250697157 0.6715863963725881 0.7794428566973874 
Task79 0.05610565880947626 0.27214778558999403 0.05478418862017867 0.02821607641438389 0.690342711816895 0.8903556097218195 0.7533942711589703 
Task80 0.08329382386102999 0.10721025351074913 0.1498778892632502 0.12474290826888637 0.8507090441507217 0.4675129609049128 0.7774650408582255 
Task81 0.07651746473347737 0.022304764670876238 0.17540359253294985 0.13482096477812539 0.5229183588094934 0.8934809084682349 0.9238418561193318 
Task82 0.0069140008044015645 0.42818818637534073 0.14084351091485742 0.390903669185222 0.31669957927752623 0.35238487091883014 0.7817037223572173 
Task83 0.012470927329416959 0.17182405934141431 0.14529439875936326 0.31358499816501884 0.9088157655778517 0.8353733066141824 0.3293350647447186 
Task84 0.057746435827144546 0.08020049006658701 0.4062405125195371 0.29771449748343354 0.810981031197616 0.32777713748858817 0.7855507662026955 
Task85 0.13044000281988044 0.4185501634507215 0.062207134291061617 0.18925029890495834 0.8154805184437568 0.67432383590402 0.9957875230888686 
Task86 0.012317049169920337 0.016117514544958796 0.03850068150614467 0.028751800547628714 0.5390782393081589 0.9407244977731928 0.713406349183711 
Task87 0.05024900717453517 0.2266399784898087 0.25177613375102725 0.34775408979015704 0.5292753128573929 0.34285620534952654 0.49922977922937417 
Task88 0.023957443849799386 0.025901339407420915 0.11739133566671102 0.05570972945033263 0.7815026651434163 0.458826080211036 0.8219871125287401 
Task89 0.06315866341855898 0.26185461674534594 0.07798682611527798 0.08846798738919895 0.7297246145365781 0.5779247381299346 0.3132923759865927 
Task90 0.00819941398402288 0.009578751009555773 0.017871862652778223 0.006188747152457722 0.3338578321531579 0.5902136990074969 0.7206010881407472 
Task91 0.04101642243209746 0.18170748924330704 0.06962933159350665 0.12205323497398664 0.9901797200959315 0.9261435433978114 0.31034160782154574 
Task92 0.010933456100326413 0.0001427238127143279 0.06355652851010729 0.05547101664813329 0.435551964015937 0.8720507887733133 0.9371681606481852 
Task93 0.14307205754392704 0.33387734164520144 0.15169018963815314 0.30218727275654367 0.9639773506372782 0.9397337868622815 0.422535187219946 
Task94 0.0011687757354173947 0.16034265239474724 0.5231137777248694 0.14008110755692735 0.9351675648643099 0.9196343920791774 0.9248886544371178 
Task95 0.05640115160882519 0.01740229200989374 0.1752545990739135 0.13037758388467935 0.6539906408585207 0.36344990441214753 0.5898397941990248 
Task96 0.01198029290699237 0.12252940042534344 0.14683756184240698 0.09246692859038425 0.3359897319040132 0.6218607082216867 0.46042063617468587 
Task97 0.018992838640762243 0.06404853129895219 0.028363707909577544 0.02920130414597846 0.45757982336916675 0.956361770578303 0.4973704815691521 
Task98 0.04279574969550473 0.051679871214057926 0.18776833712318974 0.10318081001125498 0.6776611831906004 0.7872499655829889 0.7297458402462169 
Task99 0.014509335060555042 0.05791188818674104 0.10030590965911264 0.059176550833779484 0.8078055291642547 0.8873064360067173 0.3594165630535785 
