Task0 1 1 1 
Task1 1 3 3 
Task2 1 1 1 
Task3 1 1 1 
Task4 1 1 7 
Task5 1 1 1 
Task6 1 1 1 
Task7 1 1 15 
Task8 1 1 1 
Task9 1 3 1 
Task10 1 1 1 
Task11 1 1 1 
Task12 1 1 1 
Task13 1 1 1 
Task14 1 1 1 
Task15 1 1 1 
Task16 1 7 7 
Task17 1 1 1 
Task18 1 1 1 
Task19 1 1 1 
Task20 1 7 3 
Task21 1 3 1 
Task22 1 3 1 
Task23 3 1 1 
Task24 1 3 3 
Task25 1 1 1 
Task26 3 3 1 
Task27 1 1 1 
Task28 1 1 1 
Task29 1 1 1 
Task30 1 1 1 
Task31 1 1 1 
Task32 1 1 1 
Task33 1 1 1 
Task34 1 1 1 
Task35 1 1 1 
Task36 1 3 3 
Task37 1 1 1 
Task38 1 7 3 
Task39 3 3 1 
Task40 1 1 1 
Task41 1 1 1 
Task42 1 1 1 
Task43 3 1 1 
Task44 1 1 1 
Task45 1 1 1 
Task46 1 1 1 
Task47 1 1 3 
Task48 1 1 1 
Task49 3 1 1 
Task50 1 1 7 
Task51 1 1 1 
Task52 7 3 7 
Task53 255 63 255 
Task54 1 1 1 
Task55 1 1 1 
Task56 3 1 3 
Task57 1 1 1 
Task58 1 3 1 
Task59 1 3 3 
Task60 1 1 1 
Task61 3 3 1 
Task62 1 1 1 
Task63 3 1 1 
Task64 3 1 7 
Task65 1 3 1 
Task66 1 1 3 
Task67 3 1 3 
Task68 1 1 1 
Task69 3 3 1 
Task70 3 3 1 
Task71 1 3 1 
Task72 1 1 3 
Task73 7 7 1 
Task74 1 1 1 
Task75 1 3 1 
Task76 1 1 3 
Task77 3 1 1 
Task78 1 1 1 
Task79 1 1 1 
Task80 1 3 1 
Task81 1 1 1 
Task82 1 1 1 
Task83 1 1 1 
Task84 1 1 1 
Task85 1 1 1 
Task86 1 1 1 
Task87 3 1 3 
Task88 7 1 1 
Task89 1 1 1 
Task90 1 1 1 
Task91 3 1 1 
Task92 1 1 1 
Task93 1 3 3 
Task94 1 1 1 
Task95 1 1 1 
Task96 3 3 3 
Task97 1 1 1 
Task98 1 1 1 
Task99 1 1 1 
