0.35673896
Task0 63 63 255 
Task1 31 255 15 
Task2 255 63 63 
Task3 63 15 255 
Task4 255 31 63 
Task5 127 31 15 
Task6 31 3 63 
Task7 31 255 15 
Task8 15 63 1 
Task9 127 63 63 
Task10 7 31 255 
Task11 63 7 31 
Task12 63 1 127 
Task13 127 31 63 
Task14 63 127 31 
Task15 255 63 127 
Task16 31 255 63 
Task17 255 63 63 
Task18 63 127 31 
Task19 255 31 63 
Task20 31 63 31 
Task21 255 63 63 
Task22 255 31 3 
Task23 255 255 255 
Task24 63 7 31 
Task25 7 1 63 
Task26 7 3 63 
Task27 15 255 127 
Task28 7 7 63 
Task29 31 15 255 
Task30 7 63 31 
Task31 3 15 255 
Task32 255 127 127 
Task33 1 7 255 
Task34 1 255 15 
Task35 15 63 3 
Task36 255 15 7 
Task37 7 255 15 
Task38 255 15 3 
Task39 255 7 63 
Task40 255 31 31 
Task41 7 255 63 
Task42 63 63 127 
Task43 63 31 15 
Task44 63 63 63 
Task45 63 31 15 
Task46 63 31 63 
Task47 255 255 255 
Task48 255 1 63 
Task49 15 255 255 
Task50 255 127 255 
Task51 255 3 15 
Task52 3 3 63 
Task53 127 63 127 
Task54 15 7 255 
Task55 31 63 15 
Task56 255 63 255 
Task57 1 63 3 
Task58 127 255 127 
Task59 15 7 63 
Task60 15 255 3 
Task61 31 255 15 
Task62 3 3 63 
Task63 3 31 255 
Task64 1 63 7 
Task65 31 1 255 
Task66 255 3 31 
Task67 255 31 255 
Task68 1 3 63 
Task69 31 63 15 
Task70 63 3 255 
Task71 15 1 255 
Task72 63 31 7 
Task73 3 63 63 
Task74 31 255 31 
Task75 15 63 127 
Task76 127 255 255 
Task77 31 63 15 
Task78 63 63 31 
Task79 15 31 255 
Task80 31 15 63 
Task81 15 1 63 
Task82 255 15 127 
Task83 63 3 1 
Task84 255 63 15 
Task85 3 63 7 
Task86 63 7 15 
Task87 7 255 31 
Task88 63 63 15 
Task89 255 255 15 
Task90 31 63 31 
Task91 63 15 15 
Task92 63 127 31 
Task93 1 63 255 
Task94 63 31 127 
Task95 255 31 63 
Task96 1 31 63 
Task97 63 15 15 
Task98 15 255 255 
Task99 1 255 1 
