0.34530672999999995
Task0 63 7 63 
Task1 7 3 63 
Task2 63 3 63 
Task3 1 31 1 
Task4 15 7 1 
Task5 31 31 3 
Task6 31 15 63 
Task7 31 3 7 
Task8 31 31 15 
Task9 31 15 7 
Task10 63 127 63 
Task11 15 1 31 
Task12 15 31 7 
Task13 31 3 15 
Task14 7 31 31 
Task15 31 3 63 
Task16 31 7 7 
Task17 63 15 7 
Task18 1 1 31 
Task19 15 63 15 
Task20 63 31 31 
Task21 1 3 31 
Task22 63 31 7 
Task23 31 31 7 
Task24 31 31 3 
Task25 63 63 63 
Task26 31 31 3 
Task27 1 31 31 
Task28 31 15 7 
Task29 63 63 31 
Task30 31 63 31 
Task31 31 63 31 
Task32 3 15 31 
Task33 15 31 31 
Task34 31 15 3 
Task35 31 15 31 
Task36 31 1 7 
Task37 7 15 63 
Task38 63 31 63 
Task39 31 31 7 
Task40 3 3 31 
Task41 63 31 3 
Task42 1 31 7 
Task43 31 7 63 
Task44 15 31 3 
Task45 31 63 1 
Task46 31 31 31 
Task47 15 7 63 
Task48 127 15 63 
Task49 31 3 1 
Task50 7 31 7 
Task51 3 63 3 
Task52 63 15 3 
Task53 15 7 15 
Task54 7 31 1 
Task55 31 31 63 
Task56 1 7 31 
Task57 255 255 255 
Task58 63 31 63 
Task59 63 127 255 
Task60 3 15 3 
Task61 7 31 31 
Task62 7 31 15 
Task63 15 31 31 
Task64 1 7 31 
Task65 31 15 31 
Task66 31 15 1 
Task67 3 63 15 
Task68 63 15 31 
Task69 3 31 15 
Task70 63 31 63 
Task71 15 31 1 
Task72 31 7 63 
Task73 15 1 31 
Task74 31 15 31 
Task75 31 15 7 
Task76 31 7 3 
Task77 15 31 63 
Task78 31 1 63 
Task79 3 1 31 
Task80 31 15 15 
Task81 15 3 31 
Task82 1 1 31 
Task83 31 31 7 
Task84 15 63 3 
Task85 15 7 15 
Task86 3 31 3 
Task87 31 15 3 
Task88 1 31 3 
Task89 15 3 63 
Task90 31 15 63 
Task91 63 31 7 
Task92 255 255 255 
Task93 31 31 3 
Task94 63 63 63 
Task95 15 31 3 
Task96 15 15 1 
Task97 31 7 1 
Task98 31 127 255 
Task99 31 1 255 
