files/tasks_parameters/ExAp01/sample8.txt 1.00966 3.76817 4.3855 0.450105 7.83532
files/tasks_parameters/ExAp01/sample12.txt 1.34074 5.03638 5.18776 0.610564 10.6285
files/tasks_parameters/ExAp01/sample2.txt 1.31996 4.58991 5.64606 0.613877 10.6862
files/tasks_parameters/ExAp01/sample44.txt 1.19081 3.77401 5.66946 0.551838 9.60625
files/tasks_parameters/ExAp01/sample27.txt 1.21054 4.13937 5.56136 0.55779 9.70986
files/tasks_parameters/ExAp01/sample17.txt 1.12402 3.76163 5.38341 0.520991 9.06928
files/tasks_parameters/ExAp01/sample9.txt 1.1062 3.69889 5.2981 0.511699 8.90753
files/tasks_parameters/ExAp01/sample34.txt 1.07872 3.52435 5.83741 0.49187 8.56235
files/tasks_parameters/ExAp01/sample40.txt 1.08677 4.06185 5.0335 0.496884 8.64963
files/tasks_parameters/ExAp01/sample33.txt 1.39351 4.82091 5.83886 0.651963 11.3492
files/tasks_parameters/ExAp01/sample48.txt 0.9753 4.01134 5.07085 0.447927 7.7974
files/tasks_parameters/ExAp01/sample29.txt 1.36863 4.20847 5.0406 0.643694 11.2053
files/tasks_parameters/ExAp01/sample11.txt 1.203 3.94699 5.29198 0.557276 9.70091
files/tasks_parameters/ExAp01/sample14.txt 1.04561 3.54059 4.58345 0.466713 8.12443
files/tasks_parameters/ExAp01/sample0.txt 1.35391 4.82755 4.90216 0.623551 10.8546
files/tasks_parameters/ExAp01/sample7.txt 1.1054 3.60766 5.11185 0.509566 8.87039
files/tasks_parameters/ExAp01/sample23.txt 1.25104 3.81403 5.45799 0.582911 10.1472
files/tasks_parameters/ExAp01/sample13.txt 1.3507 4.8894 5.26818 0.624499 10.8711
files/tasks_parameters/ExAp01/sample22.txt 1.16193 3.76156 4.95746 0.534216 9.2995
files/tasks_parameters/ExAp01/sample25.txt 0.90558 2.94144 4.92622 0.403639 7.02645
files/tasks_parameters/ExAp01/sample36.txt 1.07907 3.56164 4.5806 0.501799 8.73518
files/tasks_parameters/ExAp01/sample46.txt 1.14658 3.84833 4.7121 0.530701 9.23831
files/tasks_parameters/ExAp01/sample31.txt 1.05379 3.764 5.08385 0.479734 8.35109
files/tasks_parameters/ExAp01/sample37.txt 1.39878 4.43254 5.65111 0.65143 11.3399
files/tasks_parameters/ExAp01/sample16.txt 1.16057 4.49741 4.8895 0.509171 8.86351
files/tasks_parameters/ExAp01/sample10.txt 1.33026 3.87086 6.07511 0.60993 10.6175
files/tasks_parameters/ExAp01/sample39.txt 1.01891 3.66299 4.54281 0.463671 8.07147
files/tasks_parameters/ExAp01/sample19.txt 1.32581 3.86694 5.14047 0.615987 10.7229
files/tasks_parameters/ExAp01/sample20.txt 1.24649 4.09945 5.13368 0.580369 10.1029
files/tasks_parameters/ExAp01/sample43.txt 1.15401 3.75825 5.55698 0.530892 9.24164
files/tasks_parameters/ExAp01/sample32.txt 1.278 4.0352 5.29178 0.587643 10.2295
files/tasks_parameters/ExAp01/sample45.txt 1.16942 3.94578 4.87833 0.541081 9.419
files/tasks_parameters/ExAp01/sample26.txt 1.03149 3.50998 4.55035 0.474009 8.25143
files/tasks_parameters/ExAp01/sample5.txt 1.27463 4.00994 5.27725 0.587681 10.2302
files/tasks_parameters/ExAp01/sample21.txt 0.958404 2.8974 4.54677 0.430037 7.48598
files/tasks_parameters/ExAp01/sample38.txt 1.06746 3.56689 4.78573 0.492366 8.57099
files/tasks_parameters/ExAp01/sample1.txt 1.058 3.69002 4.55048 0.481074 8.37441
files/tasks_parameters/ExAp01/sample15.txt 1.14393 3.73223 5.42493 0.524964 9.13844
files/tasks_parameters/ExAp01/sample24.txt 1.17218 4.18053 5.40377 0.542575 9.44501
files/tasks_parameters/ExAp01/sample3.txt 1.01708 3.70547 4.7118 0.470503 8.1904
files/tasks_parameters/ExAp01/sample6.txt 1.33627 4.07521 5.71419 0.626702 10.9095
files/tasks_parameters/ExAp01/sample30.txt 1.35266 3.97446 5.82388 0.626709 10.9096
files/tasks_parameters/ExAp01/sample42.txt 1.17604 4.44207 5.58473 0.537025 9.34839
files/tasks_parameters/ExAp01/sample4.txt 1.21047 3.92181 4.49751 0.556974 9.69566
files/tasks_parameters/ExAp01/sample28.txt 0.954399 3.13496 4.88321 0.444588 7.73928
files/tasks_parameters/ExAp01/sample18.txt 1.16635 3.95301 4.52898 0.537438 9.35558
files/tasks_parameters/ExAp01/sample35.txt 1.6247 5.75923 6.25034 0.752488 13.0991
files/tasks_parameters/ExAp01/sample47.txt 1.16318 3.44018 5.14289 0.540033 9.40076
files/tasks_parameters/ExAp01/sample49.txt 1.08903 3.38981 4.72409 0.493041 8.58274
files/tasks_parameters/ExAp01/sample41.txt 1.05468 3.58692 5.27252 0.492391 8.57141
