Task0 0.021160338973776477 0.07248078420067944 0.0013051018118034846 0.03912313843127101 0.4501519687238448 0.7989092653552808 0.6063672659528423 
Task1 0.048638708428893646 0.10146175286421899 0.04664901337479431 0.0870130027035928 0.4768302069702092 0.6054736014978941 0.6675069546192476 
Task2 0.016019199535489834 0.060643396948134635 0.038312688109782465 0.01998346842928429 0.42323613429290374 0.9622542757492454 0.3605692134272605 
Task3 0.0047090272971006845 0.01767239164271769 0.0013253656618157175 0.016402298951438982 0.8129026026925423 0.9083446792540337 0.7829000184164061 
Task4 0.058588162427225636 0.12677655456461953 0.01492999461939071 0.12405345552221056 0.9369626320656876 0.9848336595795808 0.595600115594028 
Task5 0.01162485962406395 0.34569392148332645 0.1130404980787186 0.11686698015284115 0.7179648113917404 0.5623201080783533 0.8125507295299961 
Task6 0.0745852197620508 0.09840908137311899 0.03190127964433394 0.18211370481981637 0.31137728555896943 0.4233478059233479 0.7052366646612781 
Task7 0.0338229961418711 0.021545269589978107 0.07643470006684262 0.28732094438409767 0.9954074415500818 0.3042706251799195 0.31897969273550913 
Task8 0.1276572722877234 0.06068555471443628 0.2976981765140653 0.23882978312745679 0.3388277380613091 0.4598704660709999 0.49586408398607457 
Task9 0.007608227656845963 0.09334925580152019 0.04526820955275008 0.19759172491517937 0.5057117037381897 0.5783701161198571 0.6947417927154176 
Task10 0.01649859157554188 0.10019244735317372 0.03423854087441156 0.03654256214169758 0.6417876732572638 0.5497572872564134 0.676891221286821 
Task11 0.010314694939557483 0.2801738725988902 0.20196912789819152 0.06676217635889756 0.8478030476775456 0.3273450710030854 0.962646868584685 
Task12 0.1202300948553762 0.07485506645464775 0.527456095067354 0.1375504976619569 0.8789210875440727 0.33028011090525705 0.6639808734448481 
Task13 0.05645814057461098 0.40556885426787165 0.053792879315510966 0.39772078517000936 0.30284366098350995 0.34162092212509093 0.9870696285006679 
Task14 0.04515308495749179 0.21231718178829195 0.16888618121405308 0.281329590296735 0.5727427346808682 0.9944662755551819 0.6619788703243095 
Task15 0.027097775219558622 0.431976872236201 0.2519301627874671 0.11504212837268486 0.5866531436769964 0.6770853976653202 0.987471623975031 
Task16 0.044065616320636096 0.009505873818716802 0.17647278766281654 0.12830209890206287 0.30286305044369655 0.8062946048350519 0.5884850764440982 
Task17 0.002055547764368068 0.010429034509797406 0.010418317178386878 0.028340531490648812 0.7375736784139406 0.3939014952659496 0.5662919855664699 
Task18 0.09331275216318363 0.22974437769011535 0.14545292570603435 0.17236712330071194 0.6097011291866222 0.997569536027131 0.7732981177123419 
Task19 0.0013530619053905546 0.0682967341203662 0.1652389986731604 0.11162453610140828 0.35007726995311794 0.501122276349153 0.9026698673484612 
Task20 0.022508045624460543 0.23724207034036776 0.1646333455896934 0.0036047401937327472 0.7606306770486682 0.6390715547087127 0.947127653192168 
Task21 0.0971923428205623 0.13255545066226507 0.29613681661556746 0.2656656819549203 0.5920104641997792 0.8171041971851736 0.6914209982595436 
Task22 0.07850204267644083 0.10608126162109709 0.21010916696040238 0.11375375514665419 0.4644086895460703 0.9067561875782679 0.9297186799700841 
Task23 0.0035454983485891465 0.016140050759876363 0.011750432884816628 0.0036949690936427396 0.7563773864794616 0.9955315011293748 0.6182377550313645 
Task24 0.05197448320915046 0.32427475300350067 0.0006429907482689601 0.19018824417741714 0.4929629530991281 0.8006222439424222 0.7276535009147792 
Task25 0.05044130818670475 0.36182189967930795 0.37312453096916653 0.1853459640233982 0.571541578287313 0.5237132403874786 0.6472172278769348 
Task26 0.06082112741250426 0.028406190330471138 0.3115440856762484 0.06796365285962061 0.37988859228091504 0.3401707773785867 0.4727087480017035 
Task27 0.16166186531700383 4.138890039008288e-05 0.22726027610199123 0.5248468647764924 0.7129915717927798 0.6679209028357714 0.7914447002076213 
Task28 0.013771591949427314 0.11774233826069616 0.01799270956814047 0.10951274706331837 0.3201816649838105 0.9160349997396064 0.4121411556623503 
Task29 0.007185363237452769 0.014639953211342182 0.09952322267703657 0.00858051130486974 0.6981454087818395 0.5537768112302723 0.9846332721294289 
Task30 0.012768996106875225 0.3019225617303978 0.552468893695767 0.04833626586609235 0.7916157426932482 0.8351939763709924 0.7158330196352407 
Task31 0.022566207269032124 0.11450874131815707 0.1760847656660234 0.23927102689238958 0.8046389986442133 0.8056954235501361 0.8689921781265268 
Task32 0.031806389295311335 0.027468926390945714 0.07932754614715233 0.15849082277830678 0.6972483408243662 0.7946570806560141 0.47347496926683275 
Task33 0.049347048772780205 0.09481874116716275 0.12222326207967574 0.004800291347363169 0.5864128971183795 0.48975275392786816 0.9945078909601199 
Task34 0.014499187720803742 0.06217062953484185 0.06409491141715852 0.04100238545603803 0.7654428753298752 0.5673692684070937 0.32269949898292355 
Task35 0.068895393753336 0.12756063682650168 0.23570790386805937 0.34782827912796555 0.8043910613817271 0.32889946747276455 0.41801931261424874 
Task36 0.018951983346659953 0.012259644404544068 0.1924370500591368 0.12253097961971061 0.39333143233444223 0.5033290967959717 0.39603289380411844 
Task37 0.011317612307175278 0.07595234770124912 0.20483116116582895 0.32100496525912375 0.6515007548802496 0.6134353653308369 0.9878819990101715 
Task38 0.028640893848524578 0.1777827598708239 0.1442052502072695 0.16099113115720345 0.6788874604464774 0.9927019978708345 0.4571108772282752 
Task39 0.14223971079806566 0.22151130654015302 0.2448344020132504 0.10503252789002684 0.34647049288044496 0.8028328296635592 0.4209648525297936 
Task40 0.06977458025669461 0.05004999588130197 0.002599056620862663 0.5123356430739103 0.4190685122514494 0.8661442062080063 0.6829207818140381 
Task41 0.035693156781117966 0.03838944102717231 0.10080927175229389 0.07988391196641549 0.618946674012772 0.4971625913844483 0.643660408902963 
Task42 0.12146865691770876 0.25665484718004733 0.30934010156894 0.14268641585812494 0.5122366684880055 0.9160514631976302 0.31632997081162356 
Task43 0.0017670488371273278 0.11977058465170747 0.16065242665601046 0.3499835313715489 0.893786771225934 0.38030616504989967 0.5819566176846904 
Task44 0.07179101250957634 0.10087584670468198 0.05447819338084065 0.1828135373881281 0.7447646014585088 0.429723251808678 0.7229415853224173 
Task45 0.007467380795759858 0.022688651128347614 0.00809487899527084 0.01534721404535051 0.5679503011503129 0.7914660669687947 0.6545761031018863 
Task46 0.006744380437794768 0.15306195434643274 0.19737890107840173 0.14023050776876428 0.9839429882149024 0.3853773176651545 0.8095277671681547 
Task47 0.061515952205195824 0.006761877946061406 0.18870576467940361 0.08426703438272207 0.302119784044261 0.8951514429207237 0.523773966647033 
Task48 0.17176449392248982 0.12307673625803511 0.28683456569525745 0.37646254872506457 0.8480195069953764 0.7560717017616688 0.3282140644042262 
Task49 0.08651419760711315 0.28552404872502507 0.03829589623812625 0.15026713146567974 0.5768272375190904 0.7946510190251135 0.45803708734741655 
Task50 0.012818142273391005 0.1352737302074205 0.1150415472801022 0.3621878616992118 0.7269088311223812 0.9811732263146664 0.8076192982790564 
Task51 0.008747830976390505 0.025463476714487225 0.19096097126679962 0.027522282486861397 0.5919263919204247 0.9746029682306532 0.35922382117924495 
Task52 0.03079746463507361 0.15366503334207682 0.06534700339505761 0.3536527618732124 0.32428200841033383 0.799604384758569 0.42698750722443224 
Task53 0.08130570932304984 0.11738212063204886 0.16398583603891922 0.0963566250667369 0.92973458434327 0.867198473783078 0.7832720200946345 
Task54 0.02051354945995532 0.027436765633409382 0.03724662236691955 0.03551454019151911 0.6897090899071205 0.4951573456171991 0.6957438365861968 
Task55 0.06000342817240309 0.11990602117061396 0.08328050359676008 0.1557742925597204 0.34139536849744717 0.4563341688967144 0.9856430524109276 
Task56 0.018923712160671857 0.49166274826635104 0.19293951443195598 0.19048706821583666 0.4920068744829697 0.9521964810217087 0.6321299167051496 
Task57 0.034169226123056326 0.16985523726811474 0.020795254510603146 0.15760020615265782 0.5775871362142908 0.3738459886979973 0.7616806840188564 
Task58 0.10639671058667893 0.007523223258063385 0.38665361925370695 0.29967859832182037 0.6440410955403697 0.46885660418300706 0.5481604467779925 
Task59 0.009584566232492731 0.05735564786783321 0.012069159090345491 0.00303590137817913 0.6797141725455261 0.791945213668669 0.8448307447364782 
Task60 0.039576817571941966 0.03957193789568261 0.2877943814432553 0.30946275406402324 0.8176917495838769 0.5091864699920359 0.9350663654372444 
Task61 0.03446170552907782 0.2189081450646622 0.07638930824437788 0.24171411937530235 0.8002780091040307 0.6310891205473745 0.3309618915195459 
Task62 0.0007530011369710091 0.009362327410290474 0.003385834862786812 0.005863926991907816 0.3652589893292924 0.5633377817692242 0.5236276411505622 
Task63 0.1565728407101023 0.17892682019461284 0.26198636076318566 0.2749230786577975 0.5295010544283262 0.6553475902198913 0.7585077099846395 
Task64 0.0030558911378014714 0.3532075823095934 0.14414318085752773 0.17167007035790027 0.9773742774649146 0.7229029325190708 0.5654169507228712 
Task65 0.010585792828463097 0.0643171550400472 0.006195458912672525 0.03628152392377728 0.506939326824707 0.7801071438647185 0.9535813503138768 
Task66 0.10621613887772727 0.4440684935721379 0.0659473112484842 0.15326678624095302 0.5930227144362735 0.3683125682857607 0.39649760616863894 
Task67 0.05790443851761121 0.09734181775884296 0.04454809429083494 0.10126514892286267 0.47851188104007925 0.5481353353279166 0.7777446085423725 
Task68 0.1327509233878069 0.19030244513166675 0.13861382898569144 0.2570752441620303 0.997387428122718 0.49728776380034045 0.4008591416952288 
Task69 0.11051437274944312 0.22141620914071325 0.19274045043495644 0.07399711878247803 0.6740789335704043 0.39339663887605597 0.8464560552009741 
Task70 0.12359191012499228 0.22000968719072164 0.5023471395146804 0.1222735156470351 0.4914358460735888 0.5673647753797506 0.6446185079247849 
Task71 0.10227397400324961 0.13026350639332174 0.23532634587498494 0.1432800220259765 0.9048887491111743 0.42763261649809675 0.902875531122447 
Task72 0.08054610904785711 0.14325187508081266 0.08701211807071492 0.13826499885587737 0.9375419910024843 0.3412987117666054 0.4906926263801466 
Task73 0.10024281460529771 0.1276629700197369 0.26306945092137757 0.18238878435394806 0.504953877500876 0.694737685995207 0.7329843759771908 
Task74 0.0006764517611636815 0.029658291501573796 0.0014370086535398041 0.01062373608260576 0.8455448937098653 0.3351345730710379 0.6531378055644068 
Task75 0.1266151321412073 0.22724218810752622 0.17493189633632433 0.26035627457416305 0.5563412461420534 0.7075108467651524 0.8116611720607234 
Task76 0.014188240195632336 0.07745917169168046 0.16841525795899326 0.4107794097834338 0.9670292205663262 0.48134981227016926 0.397724213909035 
Task77 0.02009933890809353 0.02459457811296664 0.0340268407025345 0.040291268211870006 0.56546117114842 0.3996839455632907 0.5057443239884992 
Task78 0.1135690010502624 0.2423427630114083 0.2840260159130951 0.16608464558470565 0.7622275610261451 0.9099240593721598 0.786278977676285 
Task79 0.03787850944544847 0.038323430245882924 0.22083019814799226 0.30113430303116506 0.9771188411155132 0.5338789217877404 0.9121732381685497 
Task80 0.07803931130003568 0.12512389716428005 0.14396579624369094 0.5059089272560989 0.8021590836094357 0.3379678685126523 0.5536161310945398 
Task81 0.024918992123393074 0.10577397177595775 0.08117221300878638 0.04058442551834551 0.7060793304227285 0.587954372093404 0.8299955056112005 
Task82 0.15569692932639684 0.5443674037112789 0.038921891775886196 0.202677835724746 0.3017766874816688 0.6928007712424317 0.8999271417711998 
Task83 0.033036384956847104 0.11320536772837052 0.22066424897597142 0.1526611786140039 0.3751046645543338 0.6662423216337744 0.8384076841998196 
Task84 0.07798061427623586 0.19065321486296963 0.13377154597193472 0.15260021838855617 0.8712114657738801 0.9308469427650092 0.6889415827406926 
Task85 0.014318687095602745 0.0706809468039919 0.015988331856655952 0.301497601817689 0.8363176850234186 0.7629487487110653 0.4720717469761813 
Task86 0.02049016787159686 0.24237378867430348 0.07499239939786356 0.2106043141571557 0.9569557666349828 0.6992619753837253 0.8694617348793106 
Task87 0.08683602789509114 0.17722585893343187 0.044197502728464434 0.16037357856358045 0.3759535083224733 0.39745192024333525 0.8843882093827247 
Task88 0.11943506089985997 0.06423311341003214 0.279114312423549 0.19037376963337732 0.39730985439765976 0.6452386285186671 0.8057856998784698 
Task89 0.0627452096570239 0.009885862748899367 0.1530326248665657 0.17015230068906367 0.8744178680644568 0.7126791744043031 0.5446867079459476 
Task90 0.0034958044042657753 0.0719300524937897 0.017230242088303455 0.07272544336639966 0.7933374611801333 0.8084894703926995 0.41045952954787956 
Task91 0.028517324360042246 0.07925319070733484 0.03470588366079604 0.12056268742612025 0.3202683533658342 0.7681958175271135 0.41267961858652175 
Task92 0.06905011989248691 0.3054513563892099 0.2173207107378336 0.07789354795387911 0.34879385616618547 0.9236690156452061 0.480275253728153 
Task93 0.03783195528524978 0.18932096931384382 0.05495807145919841 0.07771517610860816 0.5428763314446415 0.9483769356766094 0.519436232356269 
Task94 0.0709358976296617 0.17174523737974812 0.13428365635816483 0.14932160754638474 0.7477145804692278 0.5655270261587558 0.5440959793544444 
Task95 0.09611362164601954 0.3131638895547609 0.32050286820837315 0.06623593670956165 0.31015667007339465 0.9675473332105775 0.6457585622463367 
Task96 0.03560721587516494 0.02619201151668046 0.14563459888311422 0.10218404001463603 0.8110982877563506 0.40916034185012434 0.5031213342628384 
Task97 0.08181892680132667 0.13483131342320478 0.17491729252171742 0.09793709628603665 0.8561738815600568 0.7140998061231549 0.6195205424459089 
Task98 0.07345074263330946 0.18443301890352046 0.1660892434268196 0.11362352086361813 0.6230947772181343 0.767129933783103 0.5491229331059398 
Task99 0.07659048866104702 0.2248045656490212 0.0989728669093106 0.10837089140837612 0.7018378072446406 0.5268475744639187 0.577427354912442 
