files/tasks_parameters/ExAp01/sample8.txt 2.91442 6.77015 2.19458 0.288816 6.23328
files/tasks_parameters/ExAp01/sample12.txt 3.41375 9.58351 2.46081 0.337498 7.28394
files/tasks_parameters/ExAp01/sample2.txt 3.19141 8.44418 2.50701 0.319127 6.88745
files/tasks_parameters/ExAp01/sample44.txt 2.81961 6.96299 2.23089 0.28229 6.09243
files/tasks_parameters/ExAp01/sample27.txt 2.85825 7.74306 2.16676 0.28602 6.17292
files/tasks_parameters/ExAp01/sample17.txt 2.92681 7.35053 2.25579 0.292348 6.30949
files/tasks_parameters/ExAp01/sample9.txt 2.82353 6.89392 2.21068 0.282399 6.09477
files/tasks_parameters/ExAp01/sample34.txt 3.00571 6.62788 2.3772 0.297742 6.4259
files/tasks_parameters/ExAp01/sample40.txt 2.87927 7.75686 2.17534 0.285619 6.16428
files/tasks_parameters/ExAp01/sample33.txt 3.36442 8.14826 2.6463 0.338073 7.29634
files/tasks_parameters/ExAp01/sample48.txt 2.75496 7.64107 2.14272 0.270011 5.82742
files/tasks_parameters/ExAp01/sample29.txt 2.57984 7.139 1.93769 0.286306 6.17909
files/tasks_parameters/ExAp01/sample11.txt 2.79377 6.88688 2.12981 0.280008 6.04318
files/tasks_parameters/ExAp01/sample14.txt 2.47493 6.11983 1.97599 0.247458 5.34067
files/tasks_parameters/ExAp01/sample0.txt 2.86491 8.2738 2.14256 0.289132 6.24008
files/tasks_parameters/ExAp01/sample7.txt 2.76782 6.87011 2.05821 0.269886 5.82471
files/tasks_parameters/ExAp01/sample23.txt 2.95061 6.52032 2.38087 0.291712 6.29576
files/tasks_parameters/ExAp01/sample13.txt 2.96905 8.73247 2.33415 0.295393 6.37521
files/tasks_parameters/ExAp01/sample22.txt 2.8371 6.9777 2.28948 0.283979 6.12888
files/tasks_parameters/ExAp01/sample25.txt 2.70001 6.23444 2.2122 0.267298 5.76886
files/tasks_parameters/ExAp01/sample36.txt 2.54335 6.6174 1.9458 0.253823 5.47804
files/tasks_parameters/ExAp01/sample46.txt 3.31159 7.42369 2.49128 0.327273 7.06325
files/tasks_parameters/ExAp01/sample31.txt 2.54388 7.22028 2.13584 0.25377 5.4769
files/tasks_parameters/ExAp01/sample37.txt 2.95085 8.90704 2.16981 0.295708 6.38202
files/tasks_parameters/ExAp01/sample16.txt 2.50037 8.18243 1.88294 0.24945 5.38366
files/tasks_parameters/ExAp01/sample10.txt 2.83477 6.96646 2.31217 0.285748 6.16705
files/tasks_parameters/ExAp01/sample39.txt 2.46745 6.4161 1.97266 0.251967 5.43798
files/tasks_parameters/ExAp01/sample19.txt 3.12087 8.16711 2.23199 0.308463 6.65729
files/tasks_parameters/ExAp01/sample20.txt 2.58175 7.28549 1.88944 0.25994 5.61006
files/tasks_parameters/ExAp01/sample43.txt 2.53594 6.86804 2.00142 0.25616 5.52849
files/tasks_parameters/ExAp01/sample32.txt 2.8088 8.15663 2.12995 0.281726 6.08026
files/tasks_parameters/ExAp01/sample45.txt 2.8226 7.75184 2.10599 0.274935 5.93369
files/tasks_parameters/ExAp01/sample26.txt 2.72042 7.4944 1.88956 0.267248 5.76779
files/tasks_parameters/ExAp01/sample5.txt 2.83012 8.08362 2.09961 0.28454 6.14099
files/tasks_parameters/ExAp01/sample21.txt 2.66831 6.11814 2.17119 0.26143 5.64221
files/tasks_parameters/ExAp01/sample38.txt 2.6817 7.761 1.96293 0.263659 5.69032
files/tasks_parameters/ExAp01/sample1.txt 2.92389 7.83752 2.13261 0.289228 6.24216
files/tasks_parameters/ExAp01/sample15.txt 2.87203 7.37971 2.12057 0.285825 6.16873
files/tasks_parameters/ExAp01/sample24.txt 2.93919 8.28531 2.25272 0.296628 6.40188
files/tasks_parameters/ExAp01/sample3.txt 3.10719 7.33359 2.39135 0.305084 6.58438
files/tasks_parameters/ExAp01/sample6.txt 2.83659 7.09894 2.24425 0.281804 6.08194
files/tasks_parameters/ExAp01/sample30.txt 3.01734 8.17669 2.03701 0.299204 6.45747
files/tasks_parameters/ExAp01/sample42.txt 2.99093 7.70416 2.42413 0.29743 6.41918
files/tasks_parameters/ExAp01/sample4.txt 3.0944 7.41691 2.36261 0.307803 6.64304
files/tasks_parameters/ExAp01/sample28.txt 2.67306 7.0562 2.07657 0.266428 5.75009
files/tasks_parameters/ExAp01/sample18.txt 2.66652 7.60139 2.1377 0.268016 5.78436
files/tasks_parameters/ExAp01/sample35.txt 3.26452 9.66795 2.28028 0.32244 6.95894
files/tasks_parameters/ExAp01/sample47.txt 2.5354 6.84842 2.12104 0.251655 5.43125
files/tasks_parameters/ExAp01/sample49.txt 2.5058 7.1497 2.11412 0.255889 5.52263
files/tasks_parameters/ExAp01/sample41.txt 2.66 6.59911 2.07359 0.265885 5.73838
