Task0 0.16255389967571598 0.21360773779133002 0.2978625258141797 0.2696508637908241 0.339724726908125 0.7672640883608852 0.7996050386830333 
Task1 0.008241843451708602 0.15640014806345595 0.06031528616547981 0.002045035877282162 0.8764948100065437 0.39400847159545394 0.8702643157523282 
Task2 0.038071927145324994 0.2740732610773264 0.23130936953189446 0.13678996522793466 0.7855631643433514 0.6918653307398919 0.4174850831093204 
Task3 0.07914990907942715 0.010487337168980471 0.4719462051919607 0.023003329456389998 0.9331026984905597 0.38422723117327096 0.4787022907458552 
Task4 0.0005747244795273561 0.028402544897292468 0.0996603392164799 0.23358990807744223 0.4564886081793324 0.5742598970176667 0.6016110079128907 
Task5 0.18631903142505346 0.38728365273451903 0.12251445576017297 0.2823629954242293 0.33504695047013666 0.5190776310578036 0.7556016833996824 
Task6 0.008993044835803116 0.0020515161911223794 0.01017013614728779 0.030396600666898446 0.5983143870662392 0.4947074402473177 0.3026042194002718 
Task7 0.038800333856191964 0.14860498343255238 0.2249036852569853 0.21931436578241173 0.5546518912622393 0.9253525583333411 0.573853118473304 
Task8 0.0025138870835006433 0.024807359978341752 0.0015660489833593761 0.023569688756233022 0.9878350427326994 0.5295307306973633 0.9375737476117056 
Task9 0.10979310264828494 0.009801304680996869 0.220320144392917 0.24129179841495765 0.9371484577391378 0.9030379888994855 0.3843863455604674 
Task10 0.03412869079144336 0.015157253841788683 0.08507496244595475 0.4997264606761039 0.9236934354590831 0.6664465203232712 0.6837104123058853 
Task11 0.021919111370176665 0.07279649592959607 0.062279862010015084 0.018118200956569682 0.3563862143873616 0.8115376121824511 0.44567024723148163 
Task12 0.028071395278873274 0.08656205849483933 0.44062054674703666 0.40993096130510076 0.3012779595822685 0.6952853057245209 0.7617256572306029 
Task13 0.03324288524510543 0.07280803803133364 0.06338485095177376 0.07402284300099353 0.34363557734313877 0.9932813674734342 0.3973554029739345 
Task14 0.007407889307835515 0.11473441886646439 0.10923477548433562 0.03144144369619604 0.4811972989561304 0.5342710057760922 0.36754833728664804 
Task15 0.005338778029689987 0.006483308921917987 0.013231551059556283 0.015021212415465801 0.32513645984724276 0.40261649350968715 0.3042686811506868 
Task16 0.003619152480835882 0.012458310369590657 0.024016162923473864 0.021808253466864543 0.7726384211443771 0.83153812320285 0.5921422278486629 
Task17 0.03335468582218182 0.14685593632873958 0.38737524332366013 0.1795008961420558 0.38255170411729367 0.9361670683195544 0.669949275555249 
Task18 0.018514286743771736 0.09887303477308472 0.1351016672756456 0.07688179793676647 0.3874003460546899 0.5779777951585032 0.8122059399247274 
Task19 0.06480242405829138 0.10997692543128898 0.23876840431005958 0.07100919782183109 0.8351727020808961 0.4012627116998958 0.917713739820446 
Task20 0.02313379710366765 0.009535753687634893 0.1936584023095193 0.13078926848791808 0.7558948576944444 0.45878347672760145 0.5678864968587827 
Task21 0.0022201527073445 0.002012907733921839 0.009097636101499293 0.009824206847295465 0.40422019668521236 0.7224391577477451 0.7810494648652284 
Task22 0.08563562560773377 0.30923092130187496 0.01383031376096676 0.24836352578963333 0.9453181803817006 0.9080348015396198 0.4994143693648719 
Task23 0.15329301495051484 0.08864555053884275 0.1581622891111012 0.47645886726149583 0.48449347581264546 0.5262131811366608 0.9485630764710156 
Task24 0.09791499014808741 0.16140592235779133 0.18850064039983805 0.18183598651662417 0.9934691890152001 0.6365700125540399 0.9147452030509278 
Task25 0.048373891218611624 0.049242738763948864 0.09431029760976431 0.15420948592657108 0.46567250326273946 0.3310398307846164 0.7483466015907491 
Task26 0.14229542845007298 0.02782993625712482 0.47529964411167835 0.27677801034843313 0.8370290100946498 0.4163950802462558 0.4520116436666089 
Task27 0.007957123910529986 0.08603373871939692 0.058610011952279155 0.05834181802287883 0.7537615403582151 0.7922450540568217 0.8884002202890176 
Task28 0.06046922815500973 0.3125333386364845 0.26706313701426043 0.08255206265344718 0.552250441189432 0.9651748901900299 0.5095559221701009 
Task29 0.08581683767506419 0.4130303220582537 0.14653511788873652 0.2558296595291413 0.6660906792403793 0.5547120765247258 0.46355806390591225 
Task30 0.13082604989130045 0.3679895710899292 0.054903779743509684 0.32628772772821935 0.6455858874545353 0.8737989074108539 0.7181652540393804 
Task31 0.01317626252200214 0.06216033409742527 0.007441012577979977 0.05879386509353858 0.3707903666975892 0.5259603877540661 0.682456156256567 
Task32 0.013791069340942735 0.010253309116321 0.043596910402272364 0.02607208387005946 0.3063897836134405 0.6984341221960223 0.43260254900718687 
Task33 0.01247709056657633 0.08490602201714452 0.11845912318054053 0.11774455739520474 0.5747288911871806 0.9659301180087645 0.3262167975134131 
Task34 0.052262432167626376 0.17488406970375756 0.07701024019022212 0.1355906838704863 0.5636144165234216 0.9922001206891526 0.8867626500163568 
Task35 0.041227136767559014 0.1679183754238644 0.1846503981519676 0.02398181475180669 0.8751534809836756 0.5038950132060749 0.4791013603177734 
Task36 0.0023909807654742565 0.1286690177744427 0.06061886399517774 0.08341198217794805 0.6393273628400717 0.8767820604649026 0.5976010994319287 
Task37 0.0950288565631481 0.15515004402066257 0.29087603484353886 0.2287824511770548 0.5603463203889205 0.7423237713211056 0.36579408754488746 
Task38 0.02130441484585224 0.07169880070918522 0.02244493414928076 0.04103813130739581 0.4165410687208292 0.7281040470383484 0.9656224195124263 
Task39 0.0016573142199358087 0.061980832199345734 0.010871041376434878 0.03330927864418392 0.8108691861371033 0.9442063283460664 0.47671743126474864 
Task40 0.017167178097464496 0.5690366305630012 0.23139914537941902 0.008772021156167546 0.5631298584282978 0.7844148546455414 0.7085880008453677 
Task41 0.07367559398052902 0.024217854469869102 0.324589634047093 0.3045266152308913 0.6927419322425854 0.8418020064643901 0.6895712656464237 
Task42 0.000687613519462901 0.33680761175739854 0.09411289791054682 0.11899298777496549 0.9283570639855303 0.6519970897053822 0.7198324397033046 
Task43 0.000350372856912863 0.02451611364457081 0.002488200995222492 0.01042708085568139 0.862067168331109 0.6496837418340853 0.9945088391936823 
Task44 0.1099336817716635 0.282223944628018 0.0911763505372433 0.13958435971021835 0.31493638005616437 0.6902539751595287 0.38075859762595876 
Task45 0.14232798645444666 0.12837908947826357 0.1292741235110933 0.43047748237520483 0.5190080399535285 0.7662103874565536 0.8395073408433791 
Task46 0.02491909042818712 0.07487683538585993 0.03002688416465507 0.11564390309777926 0.8559352904754116 0.6332105881832443 0.41753552943058425 
Task47 0.06263899139391255 0.15388338025065268 0.22147048212335613 0.17501991773231207 0.9660313615437941 0.4124292451776389 0.7142726170444682 
Task48 0.1596302360293576 0.28425057141477084 0.2837596262155823 0.12008744929636377 0.7024931965097677 0.7412761180100846 0.4828066759705228 
Task49 0.10083132374634711 0.3739060813087625 0.2789603446600093 0.09514649865761701 0.45825110649481066 0.5163977747850829 0.7837384317233799 
Task50 0.05082290495537345 0.0711142012344714 0.25227240571879345 0.05992653436030463 0.37240203174817094 0.9811643906388907 0.6707246471261872 
Task51 0.05453838916381691 0.095314587929295 0.0011436535885748238 0.13741406441536524 0.734248126169831 0.4409210157343325 0.7731388323788171 
Task52 0.00075868185408777 0.01694649470437846 0.015329471584857049 0.018307366670636663 0.5510354184358308 0.44336391250581964 0.7131320832363519 
Task53 0.08241852948605609 0.22867006262751027 0.04066963853020704 0.2776932429195916 0.8977194678456084 0.4946693434518129 0.532150618994364 
Task54 0.06966300343737192 0.14690060042567796 0.057278158642032555 0.10387808909856178 0.6021144523861489 0.6644909711726152 0.7413840078509071 
Task55 0.035289134517560244 0.03168814958514644 0.06657107413182164 0.06071824666094553 0.7898884199567593 0.40667157991009406 0.8806449785987875 
Task56 0.1445128919613813 0.37222964878200343 0.2928909768435123 0.15263676095485323 0.9883758617579106 0.766393072150051 0.680024860873466 
Task57 0.005823720228111388 0.04932773151177988 0.04413187605156002 0.005359866903135756 0.6491397237401709 0.9063311286927653 0.7888086606911374 
Task58 0.03657133042139863 0.15089674925941282 0.1129998100776231 0.10921551232273052 0.49883709687633926 0.884397539303299 0.4181696501078733 
Task59 0.04183696704253895 0.11005156490908641 0.10160569737361166 0.225832293699873 0.8997578289530139 0.9399037506184165 0.7934943725045436 
Task60 0.0031931191112483034 0.07987979804053151 0.019207461655780137 0.03818297814959444 0.9832951268255143 0.904242464002811 0.5587146778607419 
Task61 0.010856104702385887 0.17551371929597254 0.1379614835839826 0.2826796401263103 0.388615244681162 0.8393523620694494 0.7280756457521089 
Task62 0.058746254812244686 0.3988835001909882 0.48988097048635226 0.027392408073604026 0.4499643225104703 0.6503431104377569 0.4385905218784315 
Task63 0.014830784471198816 0.04751109978571063 0.02954122168894086 0.04553576176908219 0.4038436523813701 0.3581611385669161 0.6103888904294466 
Task64 0.07014536726163459 0.2655353022140729 0.0056442162509805546 0.07734348157157776 0.9793585060154868 0.8605469370865257 0.5702232201271568 
Task65 0.0013525324599624727 0.19960379017293034 0.1366025509330784 0.1661175177882683 0.8634884352487768 0.9028899702873727 0.8748564076175842 
Task66 0.04397494682011832 0.18225748576347658 0.033449581608764906 0.0023918849230185873 0.9661845291988351 0.5246075585355493 0.30054392030504146 
Task67 0.003614602462729097 0.0036004124339652607 0.013023110735009162 0.012238008054869126 0.7685854482211812 0.4522661496508764 0.7109182912346901 
Task68 0.13464260033072728 0.1743632367685158 0.21662374721700312 0.20125663074084182 0.6203927146645032 0.335994623356182 0.7964115086988983 
Task69 0.1617349275817786 0.2671541550968535 0.2606293209396405 0.29380312336033904 0.8337630718486357 0.9224850200829646 0.8127180594679455 
Task70 0.035317141171714236 0.08384325599143717 0.040940180171536646 0.07161755645475111 0.7181464008085234 0.40315887833137415 0.7078711979738332 
Task71 0.02103813661916429 0.25440038678605126 0.3190249084237732 0.0029025146563046366 0.8140098277095509 0.7489705770812971 0.6631700782099913 
Task72 0.015339147830206819 0.3677309653744869 0.06417108553896562 0.23586658185589945 0.4758508382868539 0.7276948690218294 0.953975577611825 
Task73 0.06297284478534748 0.40709692670345093 0.3867789913969832 0.011752519761822861 0.4363866386642795 0.6435597315901902 0.9374246007640619 
Task74 0.07708000746935226 0.14271652220807668 0.1398190764241513 0.04042307271657557 0.6148666388040712 0.9329685224907174 0.76757564800682 
Task75 0.020675169933451407 0.14527428500798778 0.4469716017507288 0.06549357670039524 0.524498412684194 0.5758902898499798 0.7844490518693525 
Task76 0.010253792866147948 0.12566450553371786 0.05296010261305259 0.14536051694795724 0.3562158739809178 0.6821899431498637 0.7132613949755411 
Task77 0.037861835374314444 0.32661320410656963 0.3299978971168059 0.1188665178669119 0.9702919547381317 0.7068061794510473 0.3982233024662716 
Task78 0.05899605986309248 0.08225820391673996 0.11254913966249766 0.15086253949542766 0.847951490570859 0.7656537274932265 0.5087930667355384 
Task79 0.00039870446428137013 0.019381384475824166 0.15485771012005045 0.19829218105685417 0.7447689821148422 0.8265101321925983 0.9192717668978954 
Task80 0.14207724526049345 0.33028802259301804 0.0015703000843664643 0.32261192347492734 0.6624674330828118 0.9800512129620098 0.8330471100635177 
Task81 0.04559865036989864 0.11598059316077147 0.04352142181051737 0.09531385592957399 0.8154225423313717 0.4166540322561989 0.8032888614397189 
Task82 0.06849260259018661 0.15962215880176417 0.39500807829965473 0.003136934418247388 0.8830423742100455 0.3256941556544167 0.539036181805088 
Task83 0.06950542291095335 0.15132540890682103 0.12897099798845238 0.026843578817591515 0.37678443015240526 0.6115146516352532 0.34212373998624945 
Task84 0.0022687981349515194 0.20210841355003245 0.12278244164179979 0.15377683060213457 0.5640533374988308 0.7340579138939922 0.46808552297178113 
Task85 0.0025473519320383217 0.14241028405104042 0.0794017136236372 0.09773176569672544 0.7376744189003892 0.9820315509518187 0.3162747273493613 
Task86 0.017335576977732945 0.1363018065045343 0.05366105184834582 0.17569333008884117 0.9956219336748069 0.6842972657757072 0.8338310415917507 
Task87 0.014537327082140259 0.28744377566783413 0.16073705697574428 0.041064306399254354 0.7697732754072311 0.5902250936216469 0.6347054940407266 
Task88 0.034580239372625554 0.0667227963341723 0.10136356701793883 0.034342766070809994 0.7340364554236045 0.40513353687690307 0.35716191836626854 
Task89 0.013733166246560975 0.20752280386719119 0.14252771174617043 0.16788964662012296 0.6061789030255934 0.344876465610092 0.5207567384932524 
Task90 0.004427213347978475 0.003585996489397779 0.002799506107561908 0.015376760820944186 0.71906657985542 0.7260857603052342 0.991376918854463 
Task91 0.02412714143873268 0.40280953579915457 0.25771301097101995 0.20396196354489649 0.3863076053064876 0.9958205219819567 0.5524683874080878 
Task92 0.045772239513209766 0.10950020903911291 0.276377154735717 0.5624281591387553 0.4124541419314458 0.9145656932818558 0.9949581335443674 
Task93 0.00266156057155437 0.19704491262882834 0.022246800035499722 0.4018573693378235 0.7946331234586461 0.7696245930446719 0.603585279890374 
Task94 0.026914143053579153 0.1180745847450071 0.03100281293659543 0.01956538903363054 0.4675031540658896 0.9944834341181517 0.5871867614200489 
Task95 0.09977173657280398 0.3080414971955963 0.046524099382867626 0.2071155560872284 0.766146141185171 0.9280293789705136 0.6916074440424456 
Task96 0.010728987475469213 0.03906878989024068 0.011607550953284976 0.014987596846530126 0.6061697530353702 0.30894229331845136 0.6148034528381188 
Task97 0.18808325902804351 0.41297610780556354 0.23403809483824672 0.11234608835399987 0.6905681408739774 0.49464595003079 0.7465481516416053 
Task98 0.02646548002461412 5.430332516563377e-05 0.24936583111457106 0.2340446558330789 0.46316701114581876 0.6281619600218781 0.303274381664261 
Task99 0.10089395280743833 0.06994198921376306 0.22880584703156065 0.2633862921681731 0.5269073609556626 0.6477276839015412 0.4770167068715459 
