Task0 0.05363158336896203 0.09933735232857291 0.17173188657224933 0.010215678202621481 0.4912991727277466 0.8981072580095946 0.9617161252262467 
Task1 0.017254557435630424 0.1287494082544632 0.23212698150545116 0.2697366392353296 0.9108878839537831 0.47444070013125744 0.32922331979930874 
Task2 0.0055572545570189225 0.03603190748003292 0.0015417902695456388 0.17356898887925895 0.8665861361313643 0.9850700154728402 0.8169757696364239 
Task3 0.07369260985719592 0.14381278272680625 0.22254346666017327 0.17197151725141263 0.46929931378403006 0.7993648747738603 0.4833261391722686 
Task4 0.14106780579801526 0.28213836433596295 0.3423085667041832 0.18406903753074455 0.656245558729482 0.5276363856570041 0.3321448740670209 
Task5 0.0941313589243966 0.09275068205595866 0.28064449135087977 0.2666971808083654 0.7064297647958089 0.5376510734972839 0.803158631247765 
Task6 0.039577132020332424 0.2040035631331362 0.3265269659118267 0.10343467377907267 0.7225755017739324 0.5774821602065069 0.8972259957508557 
Task7 0.058712563286992744 0.10171609418626182 0.044883638991666044 0.10195807600269807 0.7057031527446038 0.4328675321859887 0.5783603744536587 
Task8 0.01811555201227498 0.0449508398588874 0.08412170436343346 0.026969411592786305 0.7495313916935542 0.805608097118258 0.851687946158284 
Task9 0.0012896938837054178 0.022910819452801913 0.015193932175943291 0.020743423069564566 0.8332011801206274 0.7287764679631554 0.7056890010128782 
Task10 0.07388429158671006 0.12826311754395944 0.19847950389342675 0.14722463219844903 0.46933411803988917 0.5721662760686336 0.6144316115635816 
Task11 0.015368503355180757 0.07648874091749011 0.02654246136781815 0.24460133012731983 0.6401888515710219 0.8911761934063742 0.3285843374480985 
Task12 0.013804074935472322 0.021763554482107105 0.07804787241922978 0.04913816315045832 0.9872957324327409 0.5178396617309488 0.5404581390960902 
Task13 0.10749308150785382 0.30987961313590223 0.0833256881834859 0.06398419508756102 0.7791047631790478 0.5631473917217578 0.8474536485792299 
Task14 0.03862418141720545 0.28094866208836766 0.41553454872902557 0.23881366063683254 0.31100890836575634 0.8877055049277431 0.7524620259078654 
Task15 0.027637496862167647 0.05021160173819708 0.02788210062330881 0.14750085969683582 0.49755455225179 0.8181609319721304 0.8861959763661518 
Task16 0.027202823946469785 0.04788093739557575 0.07866738799087152 0.04582935909852588 0.5895062523090149 0.44704115903731667 0.8607726352541398 
Task17 0.02124997912118579 0.1268789718344876 0.10160354801812764 0.6390190570822035 0.3914846181134497 0.593789670192227 0.763053823364036 
Task18 0.0047950756434737745 0.07057427638600516 0.09550846791256892 0.07348552229994854 0.4508741790152847 0.6956042396301966 0.45033155141511544 
Task19 0.05615072513039908 0.3387078032141234 0.1373388933825366 0.03735350452919137 0.841316099926356 0.3464478222872139 0.8828845946607322 
Task20 0.007730636318654203 0.26900547342582065 0.174710760387617 0.08670031950352018 0.8277277548614315 0.36640795150127625 0.5503672982898511 
Task21 0.012397140676173804 0.3250802541630262 0.14764827501636107 0.4186544208889154 0.636771628685701 0.8245058749244105 0.328394463681295 
Task22 0.018747457007876025 0.04947035010929722 0.055040799815383186 0.1760236460409607 0.6538168322206153 0.3071170110963983 0.5495881139353905 
Task23 0.003308517804775722 0.07791573221301609 0.13505173816946492 0.20545369828126508 0.8485143551616421 0.8381406841603349 0.34363932787426216 
Task24 0.022419660769389425 0.06085022020878831 0.10604441849994571 0.014885238768343413 0.8845320267282657 0.7304449586284838 0.7669169233491098 
Task25 0.06228920516792173 0.041290350348229046 0.1687550540304907 0.13120404192034058 0.674533824213416 0.34227154024114237 0.6029972314215298 
Task26 0.05756454114506571 0.20118306156651172 0.31609276499839856 0.19829583613200386 0.49731999882962064 0.5322296541256035 0.5153607070935653 
Task27 0.09252548389295431 0.26511642917589834 0.06425385001263055 0.2202400182643075 0.7607956403810288 0.8871031470833415 0.5058785566686196 
Task28 0.03314952970122164 0.3494166492375024 0.18232225215954292 0.19921949962198396 0.767658105566846 0.8267553001772228 0.3086610713078929 
Task29 0.03551490765167002 0.1539544214565264 0.3013184367569576 0.24275887760367118 0.3541058169822575 0.5161600893236434 0.9989716875860595 
Task30 0.017186053167860853 0.08739625685053226 0.14051679752109014 0.09307340876273877 0.9225295151402091 0.49062070530767643 0.5119371422321202 
Task31 0.05127441097126689 0.2921201717931951 0.38092894417578715 0.0233867252271829 0.508892193591594 0.5657786196914956 0.31760621226333186 
Task32 0.020924178230724746 0.04148459837917639 0.08131739867607853 0.06093511726904087 0.9078443146047783 0.5381257268650306 0.7921934894220586 
Task33 0.030443594349724094 0.10343555164712633 0.004851365788561195 0.08489602094195195 0.8661444088491448 0.8266039503169615 0.4780612040092392 
Task34 0.07867087463849574 0.3492283197313093 0.1343687436448968 0.015444142444521594 0.36427765324907874 0.7033675697186392 0.7514022273649867 
Task35 0.10064858240282663 0.3949877500168302 0.2580817412293296 0.09990852965101661 0.32844759025499964 0.565974485180875 0.9775960001374469 
Task36 0.09880934087320638 0.09555936299977509 0.1902046476032817 0.1590994755743333 0.8406474429610293 0.769356938253995 0.7370597911600216 
Task37 0.00829458516474984 0.019287539302430077 0.026119678445398805 0.05528124447538811 0.5741666813371538 0.3054060283354402 0.32382915534923756 
Task38 0.09972240935868099 0.11210298048966133 0.3510434622228498 0.12546352920081 0.7764431254100568 0.8362978240998713 0.4702921911484722 
Task39 0.00038688676298736683 0.018865553773839156 0.056127231793705455 0.008984660224400486 0.5476604909258652 0.6004759536824332 0.6437247669447947 
Task40 0.005057640857433921 0.0629478228177564 0.03094341873192673 0.03219134385419489 0.791415266571977 0.9682879537815989 0.7382358878880527 
Task41 0.0017038704855940332 0.2665119333792647 0.16601208813238938 0.06711282232443741 0.5348413946153528 0.5471544466235578 0.37235606380029057 
Task42 0.02452823994643501 0.041025767962335875 0.007161976652707952 0.08162725740136516 0.34001747104748314 0.3771132446496583 0.747469336594663 
Task43 0.07377422565588974 0.23953434466230697 0.22500436470049667 0.21670138932754215 0.716536473702057 0.6867481986357376 0.967703709554232 
Task44 0.03622861828164929 0.22647567729077966 0.24470539787293477 0.21442626237128498 0.30126930247059935 0.4727685861944636 0.5266545855796675 
Task45 0.024971062063490645 0.0423728329780035 0.6127458440924131 0.1751118568222252 0.9329188605614984 0.9651071825751796 0.8510889145273188 
Task46 0.027471573861967257 0.2738298726166771 0.3665742039905061 0.12289761752737394 0.5995371717737813 0.40911095211864157 0.7287295404955603 
Task47 0.060460788896659824 0.034981745845156224 0.12438826034926011 0.17040326220144544 0.8700773324782982 0.5198657046420443 0.8487331204841295 
Task48 0.0720947517557474 0.06107862946945399 0.15252161242759263 0.24608653841608993 0.5756784842710962 0.8739903333656496 0.5086588527398912 
Task49 0.08519034217875963 0.3271430372320848 0.2327853665612118 0.05252833170879872 0.6118133276770119 0.3979835760611361 0.8041645203783954 
Task50 0.09770732942902087 0.1440333680156171 0.22995434266500336 0.325696573480108 0.40980000287856194 0.7405584701788159 0.5627812088600102 
Task51 0.19039224051922993 0.34746329236979306 0.20356335218118765 0.221485902920297 0.771959272341715 0.35800528469881543 0.8049495611424355 
Task52 0.008514627667487345 0.01831103177176957 0.16817556953116583 0.22614752205829874 0.6586504271002878 0.9346161299690394 0.3621150804624374 
Task53 0.012529585876443265 0.16374808118747022 0.23551867217098155 0.2297885871770263 0.802819459872979 0.6905741902966283 0.3893322304695567 
Task54 0.1421898774714527 0.5344516779091446 0.10935744092676294 0.021677690949604252 0.7217917859476675 0.8969541480145988 0.8691011744207635 
Task55 0.11514204106761744 0.28474800652419074 0.05597188278575481 0.28569905238340276 0.559936100097591 0.6001043784922071 0.6389456679678543 
Task56 0.02366946271718594 0.20609992031490065 0.06923792635720322 0.36069009088973314 0.8954547842666469 0.8521586091728288 0.6561656167014536 
Task57 0.059883967204478396 0.04698544016000794 0.1390147123969651 0.06306194075801409 0.7038453993434672 0.9499728083892816 0.5449788396536454 
Task58 0.0008883442885155367 0.057781672100259605 0.048647089143791754 0.042611107096096376 0.49961321616781873 0.44193920784968327 0.5420863767794921 
Task59 0.02899799264060154 0.34257824389890573 0.30502864606736196 0.005200993124355796 0.4178564653627989 0.6566585459332019 0.6223118812054085 
Task60 0.06399306554403923 0.15520889812103558 0.19174936407898008 0.2697512933926277 0.6995276909737045 0.7070320053238761 0.4425886231809739 
Task61 0.05562951383546828 0.0935516719400662 0.12568338868639709 0.23528362977084122 0.749188837064453 0.5812177934393914 0.6233541904453122 
Task62 0.021493128619043164 0.0237514534773555 0.12578117997878618 0.10578684468005992 0.4514459638083302 0.9848983354806526 0.7470327427042796 
Task63 0.11562078891369641 0.23311488458504193 0.16677917977868476 0.21461275482162193 0.8873935099977572 0.9267765351795081 0.9731727894275832 
Task64 0.02236730751080544 0.20331783646913332 0.3389338926892365 0.2554702707164539 0.7893891804203403 0.8261454588043469 0.535897822979003 
Task65 0.019951422103659428 0.03412940410978786 0.038064288299056656 0.018034727452025057 0.376970636484306 0.5890292483774539 0.8768752705959393 
Task66 0.009290960047604374 0.05541224192843741 0.03081838683434046 0.024787796895349882 0.820908211188883 0.8731576423030725 0.8375861443320032 
Task67 0.14722096151835037 0.33787376191878393 0.015240804168676441 0.2897749903643598 0.8938432784708235 0.42705765915823246 0.8140115259195635 
Task68 0.002078134717283806 0.0672984768963583 0.03088868598004815 0.06455461854724304 0.5771023096162697 0.8160795906946687 0.34239403677076935 
Task69 0.036821004127144126 0.40763796658475593 0.29677195693411235 0.06935292789196237 0.5748642617283322 0.9875114796404947 0.8425319315454256 
Task70 0.038376555938500104 0.2734371135391748 0.22896279266581473 0.0519382959449502 0.777165974466042 0.9136567532517776 0.3722667395898764 
Task71 0.17321553955357563 0.04361184721824306 0.5144180889979819 0.19655213408657424 0.3416990876372805 0.7740895753042454 0.41249182863103545 
Task72 0.0015735454333769795 0.061352464671738965 0.08938759307470814 0.04910614323639931 0.8642694917263467 0.6049166564484878 0.7580691152622807 
Task73 0.01710913539385374 0.20047910176706368 0.13563453550830462 0.12229251359214983 0.6359465574672621 0.6800015565847018 0.8873827598180017 
Task74 0.15982815105109013 0.22721198897011272 0.27705820497432665 0.31656877734266403 0.4908733554620721 0.7961597906194362 0.6938491689450913 
Task75 0.0018664623884939349 0.06098061540400735 0.08934944258790778 0.001231037091345649 0.523753859587431 0.977625980140872 0.6709078196987526 
Task76 0.07906761260260879 0.0834166869636909 0.2799583800442195 0.3125996581538598 0.8193150840959649 0.77351339882941 0.9404326303836221 
Task77 0.010265754049725467 0.29057399216671603 0.11359183930055783 0.3042551252439633 0.7899186224855184 0.6605558400987072 0.519477565788689 
Task78 0.017824459561004067 0.06778938127301078 0.0656213710278445 0.05017235548886862 0.36583060845036014 0.5758042904957896 0.8305912220910763 
Task79 0.005848466013973648 0.03244010304215853 0.026100367861882152 0.003020897727589793 0.7077688650955578 0.522539142788349 0.5667439084116599 
Task80 0.006887094705770309 0.01570645581169828 0.044308745382385634 0.0024964534853462025 0.6406432767442095 0.6131622003320237 0.45581726796128985 
Task81 0.07399270785262035 0.22068993976166934 0.2668488345604345 0.18415693232365946 0.96670093574339 0.8476555381221769 0.33130726677077765 
Task82 0.13652172951315375 0.29362453848679126 0.24325244511540875 0.16984939784221584 0.33094090723888625 0.9053136691002683 0.9992199727135171 
Task83 0.016018271977392293 0.04498488434008077 0.1408666094609123 0.446008442268974 0.697270028641924 0.6454113922428152 0.6006007021978794 
Task84 0.0026560016105845055 0.027643222632594278 0.0044276797924974074 0.036620509140707296 0.5013093705784541 0.5118839405699285 0.9653389912094472 
Task85 0.004923174189365152 0.0122647090281088 0.01659966100617126 0.01103913929762585 0.9435375723001505 0.3118371661239576 0.7038059873498215 
Task86 0.11937493687156904 0.44027104388931476 0.016999140318586167 0.39436601464101173 0.6612757013839299 0.38594377288329534 0.9466362729953339 
Task87 0.028130929397940888 0.19681913381820526 0.02089008617900433 0.1819763926299822 0.7431947680279734 0.39723571046318934 0.8078444213262221 
Task88 0.10815020992937686 0.0351646410096407 0.12201165696116947 0.27740044122724317 0.9494667018219833 0.9754016333056619 0.8171080163468312 
Task89 0.14463791164083556 0.1617941655397822 0.3339671690646427 0.19231948319812991 0.870756346564262 0.33830578091441577 0.8144831071786303 
Task90 0.02917907124258224 0.042012695388473124 0.0418359869977527 0.04302093025556446 0.9104746274725095 0.7254227834454827 0.5893749810295359 
Task91 0.07612976504660718 0.1795563444262909 0.03437409471946568 0.1810350056406065 0.5917826681216063 0.6077075671761087 0.4511171985831596 
Task92 0.0051273804203191215 0.019712917183459796 0.013521473797064044 0.0020607742799196842 0.7535756698102538 0.9399221289648438 0.4015241101987801 
Task93 0.05938065341738376 0.15149141520128417 0.07932866963121073 0.11954531608933251 0.6949609771310803 0.3463348541076601 0.9661966696026756 
Task94 0.13042814025338106 0.30999390728311627 0.14310705165493562 0.2365749225483033 0.7234890982220687 0.5044914706273909 0.3977320190957777 
Task95 0.00015815002126874636 0.032151139567636204 0.6044578865938762 0.09799064860994035 0.8030415451140287 0.7561647724294926 0.4149539219733156 
Task96 0.12417249994479966 0.11735069726887397 0.36691023718905924 0.23082838421369728 0.5172476817909817 0.7630028922480946 0.3380532508306267 
Task97 0.02975271059105349 0.01521967004463421 0.07010638824447037 0.05293824717475331 0.8270328416275639 0.32254553388787716 0.8302171036101613 
Task98 0.034683647871000436 0.08689153338541535 0.08473073582024115 0.04868115059939249 0.9737898408164944 0.49516915259907773 0.5464199754562153 
Task99 0.09062219667347944 0.2633108796764703 0.1877272862900541 0.03671422251722331 0.8102035357183324 0.9029054892688773 0.8184248639898832 
