Task0 0.011805191044817408 0.03720562526088782 0.009980571125060577 0.1303604911397567 0.6328349073218538 0.41710677789491407 0.5428264319539537 
Task1 0.10811972519120337 0.2159632908575647 0.2364896092020008 0.2622462878492671 0.7453996326402539 0.563146686168746 0.6523758298859882 
Task2 0.0006830654535441937 0.00027448050790108774 0.013690940621395621 0.007333146643601182 0.6554276813634655 0.7463524666640844 0.959291738478171 
Task3 0.03311725357939133 0.02967381433622425 0.0901512974817073 0.11270985820834799 0.6976257179248958 0.6490297602808897 0.7308250346008559 
Task4 0.030709495425180307 0.13981299586340484 0.3863479974237041 0.3428698641831925 0.6551605024089195 0.7074902824817915 0.5448244751772434 
Task5 0.0019919426437142195 0.009200931214294564 0.007742254459298747 0.021643310828112387 0.5236074383504791 0.34039195280788476 0.3402194929024892 
Task6 0.08063604318651608 0.045415999598213644 0.19281873567134764 0.16919781432226041 0.7217757382874874 0.8249229688183857 0.9234769478282749 
Task7 0.04352195569078735 0.1252389222748952 0.11127344167693005 0.03141030822097933 0.7687230313843287 0.322604407997663 0.9294063873586458 
Task8 0.075488365839868 0.1088036798793011 0.24924218753180907 0.28112403817360043 0.6878648908757348 0.7700139958348289 0.9560931225267719 
Task9 0.007518263009265805 0.14185165571771086 0.24539977192432819 0.2832085531537171 0.8531430856472821 0.6412578046021502 0.7792754079949424 
Task10 0.00010799115772213619 0.00047277628545542113 0.0005110193078486539 0.00038835306546354477 0.8692380370925936 0.5991166765369423 0.7022993910654671 
Task11 0.09123183970999565 0.11514021986757496 0.2795296599400502 0.2949876633820428 0.8892296875259769 0.937102161733657 0.673419888246189 
Task12 0.06004228400183322 0.2628341479253989 0.5149984956993401 0.09560134748683832 0.36839975973225725 0.3332522888428503 0.868777021540168 
Task13 0.03192398643579776 0.06597606375864781 0.10495996603813099 0.04667104446025603 0.49598011924996427 0.357180163998302 0.35174031741154327 
Task14 0.036150404464215184 0.1895931391348781 0.08781124663092345 0.23397403423305263 0.38510531871373416 0.722535866410579 0.5400696227747614 
Task15 0.11631418082280323 0.18725594236419552 0.23729313329763826 0.05883792667326118 0.8848622160515498 0.915638649497154 0.7258470398605039 
Task16 0.031951697221009503 0.027970763515680702 0.14073070411566316 0.7536969623304588 0.5427170085154952 0.6514086887199828 0.8548753960505799 
Task17 0.0039242656348505356 0.03235118989034138 0.03816948479095183 0.02638639018129856 0.6905333564974339 0.8109703958652743 0.9416684685729819 
Task18 0.05923271948265189 0.0777738681260208 0.058010452738421765 0.2328854565753389 0.7438836228542202 0.5464887317492018 0.42835158290581066 
Task19 0.006620320223564302 0.2590560613513662 0.004091858598986475 0.0845949328897643 0.9548343203514391 0.6535022507340338 0.94955817300305 
Task20 0.03797577902064051 0.06762718445101183 0.2222301354323651 0.3869618417965125 0.5277619874277429 0.8396959088617495 0.4615475901894065 
Task21 0.01630874044611434 0.2726564511972806 0.3249895623190625 0.26332431706537984 0.9574180616206744 0.7019156073373574 0.9151846454613373 
Task22 0.01273231347786371 0.025549312949794754 0.02184516964576307 0.05068303776492578 0.9523407428992572 0.5942746507727947 0.5868982424883011 
Task23 0.10549388936714024 0.12005302929010914 0.2088139797656949 0.12256727150596027 0.5021834705688714 0.7180696297642601 0.546556997296939 
Task24 0.010503565411770005 0.11743682776247828 0.13192510787924364 0.07141131291142865 0.817467740582571 0.5212397158264538 0.6139532939900079 
Task25 0.14984570987656032 0.09608857763846204 0.3960091151654181 0.25997634320719026 0.5800790632200625 0.6431188978819529 0.4080806422334435 
Task26 0.044614318496219434 0.21625275291645055 0.047689313166510296 0.2971071921990354 0.6804984187649247 0.5132717413666886 0.3623618394405822 
Task27 0.04561543973636802 0.0030276491188374953 0.15593218066668119 0.3296053773208066 0.3170673818872681 0.453053881594079 0.4097391222669513 
Task28 0.011376273336000374 0.2789926987045806 0.3462393135920973 0.10158184082376635 0.6064732938753707 0.872672139882146 0.6342237283846014 
Task29 0.10488685359987719 0.012264504834945055 0.40399180759993075 0.04132673115818632 0.8021855573190251 0.9336702896959359 0.46830303484709374 
Task30 0.09643688027653945 0.17188858279404468 0.2583503150163254 0.2521556798435819 0.8450155146654166 0.3523177690691821 0.8126499445235853 
Task31 0.08214181878896842 0.03668788184424188 0.16713982308040662 0.23090402168876575 0.4604729155072253 0.5815897822181012 0.4438695108771006 
Task32 0.004973078360805478 0.01031677559853928 0.26690040800736364 0.00444729276664924 0.5250614851403755 0.3768207774342311 0.9282471278966624 
Task33 0.021330471356474607 0.006682940724309323 0.04318637831564143 0.046721841924344774 0.32707912035416287 0.6448228591346858 0.8094711335107228 
Task34 0.004336184651427007 0.05695406025265702 0.5694352560980903 0.1668193541908848 0.6233513923381739 0.7056611811761724 0.341832469245533 
Task35 0.049864808872352354 0.26484572609455875 0.25870141350783665 0.18754085717939006 0.8313087107977857 0.8599226576118504 0.8696198259616588 
Task36 0.02035553966102333 0.196398271323573 0.04106672034828054 0.23494947477529168 0.8141151432085627 0.8248709401608065 0.8633100939989862 
Task37 0.036544638975156064 0.13587350520744237 0.14864995027603373 0.18294361494030023 0.8828151866700733 0.5150264566108143 0.6360385138109128 
Task38 0.03623532479640524 0.26905933417166866 0.027601169853370813 0.13904515754812455 0.6964022207318747 0.6941749880670716 0.42987859949944013 
Task39 0.00027932422959153156 0.09912525742968611 0.3493191967940075 0.16645983105485918 0.5412188346678926 0.725388778081819 0.4600266507325834 
Task40 0.040866535741341636 0.37429377264400154 0.3045692944742813 0.09685134180167852 0.4728243926946216 0.7538483305444904 0.5414349513640551 
Task41 0.16673218328332196 0.3473431094320501 0.28124909624233896 0.13662932537911265 0.6020744559078465 0.7960629614796557 0.7403679337212121 
Task42 0.006463622384586251 0.16581536781235443 0.04422014437487037 0.17773856477390892 0.9156321835452303 0.6751923752153692 0.3145823387686432 
Task43 0.028096109379949354 0.191085064128559 0.1276530755982432 0.013453933998250626 0.6685292881705471 0.882120427740507 0.4256953594977245 
Task44 0.053047071055025784 0.06814574420583303 0.153135257619332 0.4495996671555487 0.44721982765547785 0.6106009849576739 0.8141741822320938 
Task45 0.07102337344489046 0.5430748629762028 0.07961058489007262 0.010708567255254372 0.5691471658452258 0.9226749680129147 0.6138771669951497 
Task46 0.09616631556967022 0.0635491303197397 0.2863809121425807 0.23375459167842152 0.709752214667503 0.3150375011243549 0.3629088200234309 
Task47 0.09974279069198069 0.21747982936360025 0.06559375654766253 0.23228116739196866 0.9931042279341915 0.9119705023037294 0.6597892067669633 
Task48 0.002276658059356799 0.10175528107322743 0.32352733630646524 0.1342998482757256 0.34487495705320964 0.7927816351922449 0.4577039351340342 
Task49 0.0024382411598058967 0.1960167902811693 0.1803917168034738 0.18677367021746016 0.4157885314677088 0.7487178121846096 0.48702389893641973 
Task50 0.0745489208686386 0.07803961232813056 0.3090208662630866 0.043834103559633596 0.42417579080453416 0.6389073639392348 0.6114926911440582 
Task51 0.04172211701554271 0.038754920045254854 0.17313979238275726 0.10994506183654049 0.5748148947106997 0.6626044203875505 0.9466007761245145 
Task52 0.009738671384722647 0.2556439773229781 0.033558104208204875 0.2519507729060751 0.5907495034306842 0.7579103669637812 0.48831857943000423 
Task53 0.08597118674865838 0.07342898530392418 0.1265199897803115 0.17089554602939774 0.3693252796943735 0.3913121061046809 0.6386930536776578 
Task54 0.07364679346366723 0.13549656966631637 0.03956026345603809 0.18236617315122167 0.930154346104572 0.9399039888132721 0.4056076473686561 
Task55 0.04848618599067011 0.14872643348008568 0.17730813583119281 0.2740617839799277 0.8460422583217742 0.7212106791759519 0.7824494594035072 
Task56 0.025378335588450616 0.14229300460751906 0.14652891070704666 0.20906762624641695 0.9519958848085177 0.6481760464908183 0.9456351071906797 
Task57 0.0013979632671736718 0.06887661556916348 0.06765077674111872 0.004308595579511919 0.7952413775557297 0.6065178147313037 0.3621970640175753 
Task58 0.08161248182959727 0.12803383039772093 0.1632563309785887 0.20768795661429312 0.7446090950079431 0.30475717945236147 0.856339974433356 
Task59 0.022125684960532258 0.04109680749253305 0.04276626595968744 0.02549819636763513 0.4359325652478021 0.848674921665409 0.4822188670518179 
Task60 0.04497059744590073 0.1179920305393833 0.08722762699155924 0.10683734106565439 0.8970681297951519 0.47885343079819714 0.6818099388789518 
Task61 0.05257520636361215 0.37092788431392515 0.16545640848099477 0.3118733118826983 0.34362762071407976 0.5445143304195509 0.7667524026890451 
Task62 0.08206446013388614 0.1487141101806277 0.12376469207539288 0.21442357946987906 0.7385755934101528 0.684257562356345 0.6473486024343603 
Task63 0.0015158655790831112 0.03389105640386932 0.038806254392245894 0.02022739416698725 0.754194927372461 0.5781887836267553 0.852768259910466 
Task64 0.006046350109214641 0.030679246901116182 0.13097082305455165 0.03633567661488806 0.7517096821239474 0.3142773079413516 0.47348055216172547 
Task65 0.02099980668993286 0.056254470078898035 0.06556682771162176 0.02221205646947283 0.8916704996845164 0.5385834226486926 0.7719519889898346 
Task66 0.016343884940951937 0.04107055926858772 0.09749651854904426 0.08031122313335885 0.48063942522119746 0.36348331243136633 0.4523448144641011 
Task67 0.08599010425264414 0.5373450328619817 0.19200685237988022 0.019304100183722046 0.6588184618338657 0.9738706802599055 0.6790711822629034 
Task68 0.08800022295109873 0.22124404361616387 0.424402521780737 0.1783090198069873 0.8655602019992015 0.9272963670605494 0.7789004010584509 
Task69 0.0599456799409576 0.3961721262835302 0.07851699607910081 0.4120705304854695 0.447716599347036 0.4625677452968827 0.6770861300393114 
Task70 0.14923690293188022 0.4034534048341993 0.25904877845955965 0.1840171731060418 0.7128367689703854 0.9081727259582064 0.6649082864185976 
Task71 0.010296986682441904 0.10127066545387309 0.040556406206793016 0.0947774859277865 0.6735118394405721 0.7638813426020137 0.3908970317017374 
Task72 0.057821874936931424 0.06684532778083985 0.1261010629036675 0.4233219885207019 0.5091899128638466 0.891707148184141 0.4256570047250302 
Task73 0.10623469896040533 0.2921966152302965 0.1913850568489699 0.35616735619621864 0.7673533313934158 0.3199223928212817 0.6043508092538683 
Task74 0.00046352989993616445 0.000705133775167868 0.00032346130707030607 0.0013068070195276647 0.4449956201248931 0.7779855308613467 0.8992366350938428 
Task75 0.007564319299513296 0.015245043535971562 0.024173265786667016 0.01844923315103162 0.6123839651700254 0.58974267727724 0.7128452877456828 
Task76 0.0487587769746324 0.3327153908168842 0.3440110348202987 0.24909748015491018 0.32066150940958726 0.8347261989735622 0.4041828165984213 
Task77 0.07074940138495611 0.22758944787791896 0.47450694800448984 0.07258229750375478 0.36358998686373284 0.6458161395478148 0.6186920575675088 
Task78 0.14588196015565222 0.007437773987814832 0.2728919590604963 0.49834000592891886 0.834391062540456 0.5274176534698491 0.4975111623643964 
Task79 0.05540510552556979 0.03643196640178833 0.3537418516790836 0.026038616352459236 0.48299977094456825 0.808870581416725 0.43596151165279795 
Task80 0.06078571102409922 0.02036347029783779 0.018227102731579865 0.20798028224323237 0.36182294388318276 0.8778292425525662 0.4521298113375034 
Task81 0.07689222628302801 0.10643795192387906 0.3046977624574902 0.30758620559160343 0.5254038910000853 0.6830355079645335 0.47840152301182925 
Task82 0.08836723740671663 0.02139459780984586 0.21202743216969092 0.14787693393744744 0.5678228010096052 0.7051051379394072 0.6853816846363787 
Task83 0.07812277087948949 0.11494733787988957 0.08960336809170533 0.1742493151490951 0.3432745304917111 0.8192270226199365 0.9604882038754594 
Task84 0.0514427540649606 0.36160092009654377 0.3424595912541464 0.010100883619217623 0.9060857487473606 0.9433684199439352 0.9836989509663983 
Task85 0.10010444352040901 0.2597726668058274 0.2669676548590681 0.012600950520047328 0.8540026437253676 0.6004252230495047 0.4576940374132884 
Task86 0.008083282455814949 0.026690149462698386 0.009900283171048394 0.08219595633783584 0.41092363791268355 0.87028379728267 0.39502677134956443 
Task87 0.019352884483222477 0.061823584907441484 0.15136221699695654 0.15317795567927078 0.9375933712572184 0.5040477028726824 0.928373457938259 
Task88 0.017085111802898897 0.6495213218574882 0.09369552406532836 0.087765603268707 0.4189762526852273 0.6681565643414956 0.8449003127591337 
Task89 0.000836851392961553 0.003962137834303382 0.05880351436041796 0.009900860079502239 0.6938911500671826 0.8794207886655676 0.3775946836445804 
Task90 0.07679833162298856 0.21775089287859195 0.2157511106855887 0.0074075802728268084 0.9386606088611984 0.712807302987113 0.828832178009149 
Task91 0.07044969128800119 0.0796710037653256 0.11810875017220909 0.11653434926384297 0.6920655888309046 0.3705330967012286 0.6861832535510755 
Task92 0.017405836018012648 0.06351881115061332 0.21209404942350227 0.3029308250761838 0.7173737437895932 0.33034280985038217 0.6327672811515475 
Task93 0.11991585794604986 0.15015541056204948 0.0023042853068742553 0.40252073587174536 0.9497684428823945 0.35543641534672915 0.3013620862164517 
Task94 0.048880393619041874 0.045828371292795315 0.40915271513121093 0.023517479360397345 0.9087917912384722 0.8309007570853844 0.6903415778565638 
Task95 0.03790940217834859 0.21211704291557973 0.2016712239651612 0.20498601719136492 0.8179679444167482 0.5478881494002318 0.6000540317839503 
Task96 0.08061250745609395 0.31923937592765006 0.26403535875022244 0.23184425327108454 0.5251377852720174 0.31515920040687706 0.828963062817734 
Task97 0.007913921448404918 0.050172250995741255 0.008995721342185842 0.034431946159363395 0.9110309766867934 0.82935636971126 0.9287770710542249 
Task98 0.17544857267130382 0.19972578150751635 0.3313814939491098 0.22039604331776902 0.6045168971887918 0.3899486824491827 0.4904641979608378 
Task99 0.10982879059472599 0.23267213951105514 0.2629335676919723 0.36634258660448527 0.8082502931281057 0.8866220627663857 0.5549453522751746 
