files/tasks_parameters/ExAp01/sample8.txt 0.804513 3.15778 1.5595 0.203411 6.69855
files/tasks_parameters/ExAp01/sample12.txt 0.904198 3.94962 1.6705 0.207924 6.84715
files/tasks_parameters/ExAp01/sample2.txt 0.85941 3.78275 1.74131 0.200098 6.58943
files/tasks_parameters/ExAp01/sample44.txt 0.824768 3.59825 1.65317 0.200005 6.58638
files/tasks_parameters/ExAp01/sample27.txt 0.762639 3.45743 1.5148 0.182129 5.99769
files/tasks_parameters/ExAp01/sample17.txt 0.657253 2.77299 1.44514 0.14646 4.82308
files/tasks_parameters/ExAp01/sample9.txt 0.744233 2.99933 1.451 0.177444 5.8434
files/tasks_parameters/ExAp01/sample34.txt 0.686605 3.02928 1.58429 0.157984 5.20257
files/tasks_parameters/ExAp01/sample40.txt 0.736274 3.86889 1.52122 0.168379 5.54491
files/tasks_parameters/ExAp01/sample33.txt 0.803311 3.63695 1.71905 0.199765 6.57847
files/tasks_parameters/ExAp01/sample48.txt 0.673477 3.39061 1.49062 0.154728 5.09537
files/tasks_parameters/ExAp01/sample29.txt 0.878384 3.30472 1.38739 0.223868 7.37222
files/tasks_parameters/ExAp01/sample11.txt 0.719401 3.10585 1.41612 0.174079 5.7326
files/tasks_parameters/ExAp01/sample14.txt 0.648865 2.70971 1.43432 0.162214 5.3419
files/tasks_parameters/ExAp01/sample0.txt 0.799746 3.6937 1.5439 0.18367 6.04844
files/tasks_parameters/ExAp01/sample7.txt 0.651622 2.70501 1.42221 0.143463 4.7244
files/tasks_parameters/ExAp01/sample23.txt 0.777161 3.2697 1.57822 0.181448 5.97529
files/tasks_parameters/ExAp01/sample13.txt 0.839035 3.84225 1.67648 0.198247 6.52849
files/tasks_parameters/ExAp01/sample22.txt 0.660809 3.09569 1.56121 0.148796 4.90002
files/tasks_parameters/ExAp01/sample25.txt 0.588749 2.73966 1.5007 0.148149 4.87869
files/tasks_parameters/ExAp01/sample36.txt 0.581134 2.85948 1.28553 0.130042 4.28243
files/tasks_parameters/ExAp01/sample46.txt 0.833345 3.58643 1.69998 0.210103 6.91891
files/tasks_parameters/ExAp01/sample31.txt 0.78442 3.4832 1.53782 0.1722 5.67073
files/tasks_parameters/ExAp01/sample37.txt 0.763843 3.95293 1.50705 0.171701 5.6543
files/tasks_parameters/ExAp01/sample16.txt 0.681601 3.31216 1.30115 0.150249 4.94786
files/tasks_parameters/ExAp01/sample10.txt 0.702689 3.17098 1.61789 0.153776 5.06402
files/tasks_parameters/ExAp01/sample39.txt 0.694674 3.26617 1.44406 0.165669 5.45565
files/tasks_parameters/ExAp01/sample19.txt 0.835058 3.63532 1.52509 0.196094 6.4576
files/tasks_parameters/ExAp01/sample20.txt 0.632005 3.20793 1.25367 0.147335 4.85191
files/tasks_parameters/ExAp01/sample43.txt 0.633216 3.11551 1.4202 0.150644 4.96088
files/tasks_parameters/ExAp01/sample32.txt 0.765068 3.5311 1.42482 0.168744 5.55693
files/tasks_parameters/ExAp01/sample45.txt 0.840932 3.80283 1.48324 0.19807 6.52267
files/tasks_parameters/ExAp01/sample26.txt 0.691685 3.21645 1.29701 0.166061 5.46857
files/tasks_parameters/ExAp01/sample5.txt 0.748416 3.5889 1.52559 0.178903 5.89148
files/tasks_parameters/ExAp01/sample21.txt 0.790918 2.75242 1.55936 0.19512 6.42552
files/tasks_parameters/ExAp01/sample38.txt 0.702088 3.31563 1.37515 0.166157 5.47172
files/tasks_parameters/ExAp01/sample1.txt 0.826587 3.74964 1.51696 0.19701 6.48774
files/tasks_parameters/ExAp01/sample15.txt 0.758478 3.32916 1.48508 0.180707 5.95089
files/tasks_parameters/ExAp01/sample24.txt 0.731071 3.45951 1.59549 0.16529 5.44319
files/tasks_parameters/ExAp01/sample3.txt 0.96007 3.70014 1.70809 0.237107 7.80819
files/tasks_parameters/ExAp01/sample6.txt 0.748767 3.33003 1.58323 0.184714 6.08284
files/tasks_parameters/ExAp01/sample30.txt 1.03678 4.1841 1.4861 0.239623 7.89104
files/tasks_parameters/ExAp01/sample42.txt 0.748301 3.43221 1.70276 0.177383 5.84141
files/tasks_parameters/ExAp01/sample4.txt 0.871971 3.72477 1.6136 0.196448 6.46925
files/tasks_parameters/ExAp01/sample28.txt 0.676682 3.11323 1.45032 0.158819 5.23008
files/tasks_parameters/ExAp01/sample18.txt 0.674374 3.47418 1.45209 0.149064 4.90883
files/tasks_parameters/ExAp01/sample35.txt 0.857449 4.57086 1.49394 0.185031 6.09326
files/tasks_parameters/ExAp01/sample47.txt 0.708985 3.13768 1.52397 0.16417 5.4063
files/tasks_parameters/ExAp01/sample49.txt 0.707889 3.13288 1.49657 0.156154 5.14232
files/tasks_parameters/ExAp01/sample41.txt 0.640412 2.81964 1.49636 0.150876 4.96851
