files/tasks_parameters/ExAp01/sample8.txt 1.11756 7.2562 4.46819 0.454772 11.7002
files/tasks_parameters/ExAp01/sample12.txt 1.63991 9.70908 5.28286 0.618515 15.9128
files/tasks_parameters/ExAp01/sample2.txt 1.52655 8.14159 5.7401 0.620531 15.9647
files/tasks_parameters/ExAp01/sample44.txt 1.39799 7.25164 5.75904 0.557631 14.3464
files/tasks_parameters/ExAp01/sample27.txt 1.3183 8.10944 5.64946 0.564878 14.5329
files/tasks_parameters/ExAp01/sample17.txt 1.26945 7.11225 5.46658 0.527183 13.5631
files/tasks_parameters/ExAp01/sample9.txt 1.21381 7.62559 5.37813 0.517277 13.3082
files/tasks_parameters/ExAp01/sample34.txt 1.2448 7.04587 5.93037 0.497709 12.8048
files/tasks_parameters/ExAp01/sample40.txt 1.22744 8.03037 5.123 0.502383 12.9251
files/tasks_parameters/ExAp01/sample33.txt 1.63735 9.22935 5.92956 0.659262 16.9612
files/tasks_parameters/ExAp01/sample48.txt 1.1658 8.12182 5.1577 0.452491 11.6415
files/tasks_parameters/ExAp01/sample29.txt 1.55453 8.06133 5.12331 0.650652 16.7397
files/tasks_parameters/ExAp01/sample11.txt 1.35889 7.63104 5.37897 0.563302 14.4924
files/tasks_parameters/ExAp01/sample14.txt 1.13168 6.66403 4.66322 0.471536 12.1315
files/tasks_parameters/ExAp01/sample0.txt 1.645 9.3266 4.98971 0.6311 16.2366
files/tasks_parameters/ExAp01/sample7.txt 1.30123 7.34863 5.19436 0.515527 13.2632
files/tasks_parameters/ExAp01/sample23.txt 1.40523 6.68564 5.54308 0.588617 15.1437
files/tasks_parameters/ExAp01/sample13.txt 1.65179 9.31093 5.35591 0.632849 16.2816
files/tasks_parameters/ExAp01/sample22.txt 1.29523 7.65588 5.04866 0.540336 13.9015
files/tasks_parameters/ExAp01/sample25.txt 1.0295 6.17035 5.0141 0.408296 10.5044
files/tasks_parameters/ExAp01/sample36.txt 1.19007 7.03772 4.66274 0.507647 13.0605
files/tasks_parameters/ExAp01/sample46.txt 1.37122 7.73433 4.79934 0.536843 13.8116
files/tasks_parameters/ExAp01/sample31.txt 1.19045 6.96928 5.16482 0.485817 12.4989
files/tasks_parameters/ExAp01/sample37.txt 1.63266 9.52443 5.74224 0.65799 16.9284
files/tasks_parameters/ExAp01/sample16.txt 1.4387 8.63521 4.97261 0.516328 13.2838
files/tasks_parameters/ExAp01/sample10.txt 1.39877 7.28353 6.16876 0.615651 15.8392
files/tasks_parameters/ExAp01/sample39.txt 1.14417 6.3405 4.6137 0.468873 12.0629
files/tasks_parameters/ExAp01/sample19.txt 1.62991 8.85528 5.22306 0.622152 16.0064
files/tasks_parameters/ExAp01/sample20.txt 1.39416 8.1141 5.21177 0.586994 15.1019
files/tasks_parameters/ExAp01/sample43.txt 1.30697 7.21373 5.6367 0.53748 13.828
files/tasks_parameters/ExAp01/sample32.txt 1.60756 8.30592 5.38137 0.593918 15.28
files/tasks_parameters/ExAp01/sample45.txt 1.42249 7.94069 4.96323 0.547271 14.0799
files/tasks_parameters/ExAp01/sample26.txt 1.15389 7.57061 4.62637 0.480146 12.353
files/tasks_parameters/ExAp01/sample5.txt 1.49347 8.0307 5.35681 0.59407 15.2839
files/tasks_parameters/ExAp01/sample21.txt 1.02755 5.87802 4.61744 0.434264 11.1725
files/tasks_parameters/ExAp01/sample38.txt 1.18501 7.66999 4.86632 0.496808 12.7816
files/tasks_parameters/ExAp01/sample1.txt 1.18357 7.21312 4.63213 0.486293 12.5111
files/tasks_parameters/ExAp01/sample15.txt 1.28125 8.02273 5.50855 0.531063 13.6629
files/tasks_parameters/ExAp01/sample24.txt 1.38789 8.66348 5.4905 0.548998 14.1244
files/tasks_parameters/ExAp01/sample3.txt 1.18752 7.74268 4.79918 0.477387 12.282
files/tasks_parameters/ExAp01/sample6.txt 1.50499 8.57133 5.80157 0.633604 16.3011
files/tasks_parameters/ExAp01/sample30.txt 1.64683 8.18878 5.90888 0.633576 16.3003
files/tasks_parameters/ExAp01/sample42.txt 1.30673 8.57689 5.67253 0.54426 14.0024
files/tasks_parameters/ExAp01/sample4.txt 1.34954 8.40354 4.57985 0.563519 14.4979
files/tasks_parameters/ExAp01/sample28.txt 1.0744 6.44114 4.96426 0.449721 11.5702
files/tasks_parameters/ExAp01/sample18.txt 1.32745 8.56363 4.60946 0.543766 13.9898
files/tasks_parameters/ExAp01/sample35.txt 1.98218 11.0387 6.34514 0.761377 19.5883
files/tasks_parameters/ExAp01/sample47.txt 1.32345 7.14493 5.22131 0.545046 14.0227
files/tasks_parameters/ExAp01/sample49.txt 1.30592 6.65996 4.80244 0.498533 12.826
files/tasks_parameters/ExAp01/sample41.txt 1.18983 7.09069 5.35462 0.497129 12.7899
