files/tasks_parameters/ExAp01/sample8.txt 1.24707 6.77015 2.19458 0.288816 7.22839
files/tasks_parameters/ExAp01/sample12.txt 1.4585 9.58351 2.46081 0.337498 8.44679
files/tasks_parameters/ExAp01/sample2.txt 1.38464 8.44418 2.50701 0.319127 7.987
files/tasks_parameters/ExAp01/sample44.txt 1.23038 6.96299 2.23089 0.28229 7.06506
files/tasks_parameters/ExAp01/sample27.txt 1.24748 7.74306 2.16676 0.28602 7.1584
files/tasks_parameters/ExAp01/sample17.txt 1.26362 7.35053 2.25579 0.292348 7.31677
files/tasks_parameters/ExAp01/sample9.txt 1.22208 6.89392 2.21068 0.282399 7.06777
files/tasks_parameters/ExAp01/sample34.txt 1.28556 6.62788 2.3772 0.297742 7.45177
files/tasks_parameters/ExAp01/sample40.txt 1.23462 7.75686 2.17534 0.285619 7.14838
files/tasks_parameters/ExAp01/sample33.txt 1.46369 8.14826 2.6463 0.338073 8.46117
files/tasks_parameters/ExAp01/sample48.txt 1.16745 7.64107 2.14272 0.270011 6.75774
files/tasks_parameters/ExAp01/sample29.txt 1.22269 7.139 1.93769 0.286306 7.16555
files/tasks_parameters/ExAp01/sample11.txt 1.20975 6.88688 2.12981 0.280008 7.00795
files/tasks_parameters/ExAp01/sample14.txt 1.08672 6.11983 1.97599 0.247458 6.19328
files/tasks_parameters/ExAp01/sample0.txt 1.26322 8.2738 2.14256 0.289132 7.23628
files/tasks_parameters/ExAp01/sample7.txt 1.18404 6.87011 2.05821 0.269886 6.7546
files/tasks_parameters/ExAp01/sample23.txt 1.2593 6.52032 2.38087 0.291712 7.30085
files/tasks_parameters/ExAp01/sample13.txt 1.273 8.73247 2.33415 0.295393 7.39298
files/tasks_parameters/ExAp01/sample22.txt 1.26996 6.9777 2.28948 0.283979 7.10733
files/tasks_parameters/ExAp01/sample25.txt 1.15854 6.23444 2.2122 0.267298 6.68983
files/tasks_parameters/ExAp01/sample36.txt 1.11005 6.6174 1.9458 0.253823 6.35258
files/tasks_parameters/ExAp01/sample46.txt 1.43029 7.42369 2.49128 0.327273 8.19087
files/tasks_parameters/ExAp01/sample31.txt 1.10703 7.22028 2.13584 0.25377 6.35126
files/tasks_parameters/ExAp01/sample37.txt 1.36738 8.90704 2.16981 0.295708 7.40087
files/tasks_parameters/ExAp01/sample16.txt 1.12898 8.18243 1.88294 0.24945 6.24314
files/tasks_parameters/ExAp01/sample10.txt 1.23946 6.96646 2.31217 0.285748 7.1516
files/tasks_parameters/ExAp01/sample39.txt 1.09551 6.4161 1.97266 0.251967 6.30613
files/tasks_parameters/ExAp01/sample19.txt 1.33753 8.16711 2.23199 0.308463 7.72009
files/tasks_parameters/ExAp01/sample20.txt 1.11892 7.28549 1.88944 0.25994 6.50568
files/tasks_parameters/ExAp01/sample43.txt 1.116 6.86804 2.00142 0.25616 6.41108
files/tasks_parameters/ExAp01/sample32.txt 1.21833 8.15663 2.12995 0.281726 7.05095
files/tasks_parameters/ExAp01/sample45.txt 1.20424 7.75184 2.10599 0.274935 6.88097
files/tasks_parameters/ExAp01/sample26.txt 1.15438 7.4944 1.88956 0.267248 6.68858
files/tasks_parameters/ExAp01/sample5.txt 1.2379 8.08362 2.09961 0.28454 7.12137
files/tasks_parameters/ExAp01/sample21.txt 1.13708 6.11814 2.17119 0.26143 6.54296
files/tasks_parameters/ExAp01/sample38.txt 1.13807 7.761 1.96293 0.263659 6.59876
files/tasks_parameters/ExAp01/sample1.txt 1.26519 7.83752 2.13261 0.289228 7.2387
files/tasks_parameters/ExAp01/sample15.txt 1.2466 7.37971 2.12057 0.285825 7.15353
files/tasks_parameters/ExAp01/sample24.txt 1.28204 8.28531 2.25272 0.296628 7.42391
files/tasks_parameters/ExAp01/sample3.txt 1.32266 7.33359 2.39135 0.305084 7.63554
files/tasks_parameters/ExAp01/sample6.txt 1.2129 7.09894 2.24425 0.281804 7.05289
files/tasks_parameters/ExAp01/sample30.txt 1.34312 8.17669 2.03701 0.299204 7.48838
files/tasks_parameters/ExAp01/sample42.txt 1.28518 7.70416 2.42413 0.29743 7.44397
files/tasks_parameters/ExAp01/sample4.txt 1.34319 7.41691 2.36261 0.307803 7.70357
files/tasks_parameters/ExAp01/sample28.txt 1.14931 7.0562 2.07657 0.266428 6.66806
files/tasks_parameters/ExAp01/sample18.txt 1.21523 7.60139 2.1377 0.268016 6.70781
files/tasks_parameters/ExAp01/sample35.txt 1.41578 9.66795 2.28028 0.32244 8.0699
files/tasks_parameters/ExAp01/sample47.txt 1.09637 6.84842 2.12104 0.251655 6.29832
files/tasks_parameters/ExAp01/sample49.txt 1.18483 7.1497 2.11412 0.255889 6.40429
files/tasks_parameters/ExAp01/sample41.txt 1.1547 6.59911 2.07359 0.265885 6.65448
