files/tasks_parameters/ExAp01/sample8.txt 1.10735 6.77015 2.19458 0.288816 6.83669
files/tasks_parameters/ExAp01/sample12.txt 1.32672 9.58351 2.46081 0.337498 7.98906
files/tasks_parameters/ExAp01/sample2.txt 1.22923 8.44418 2.50701 0.319127 7.55419
files/tasks_parameters/ExAp01/sample44.txt 1.08651 6.96299 2.23089 0.28229 6.68221
files/tasks_parameters/ExAp01/sample27.txt 1.091 7.74306 2.16676 0.28602 6.77049
files/tasks_parameters/ExAp01/sample17.txt 1.12222 7.35053 2.25579 0.292348 6.92028
files/tasks_parameters/ExAp01/sample9.txt 1.09104 6.89392 2.21068 0.282399 6.68478
files/tasks_parameters/ExAp01/sample34.txt 1.16286 6.62788 2.3772 0.297742 7.04796
files/tasks_parameters/ExAp01/sample40.txt 1.08767 7.75686 2.17534 0.285619 6.76101
files/tasks_parameters/ExAp01/sample33.txt 1.29983 8.14826 2.6463 0.338073 8.00267
files/tasks_parameters/ExAp01/sample48.txt 1.13861 7.64107 2.14272 0.270011 6.39154
files/tasks_parameters/ExAp01/sample29.txt 1.10307 7.139 1.93769 0.286306 6.77726
files/tasks_parameters/ExAp01/sample11.txt 1.07289 6.88688 2.12981 0.280008 6.62819
files/tasks_parameters/ExAp01/sample14.txt 0.954275 6.11983 1.97599 0.247458 5.85767
files/tasks_parameters/ExAp01/sample0.txt 1.12234 8.2738 2.14256 0.289132 6.84415
files/tasks_parameters/ExAp01/sample7.txt 1.06697 6.87011 2.05821 0.269886 6.38857
files/tasks_parameters/ExAp01/sample23.txt 1.12038 6.52032 2.38087 0.291712 6.90522
files/tasks_parameters/ExAp01/sample13.txt 1.13835 8.73247 2.33415 0.295393 6.99236
files/tasks_parameters/ExAp01/sample22.txt 1.09546 6.9777 2.28948 0.283979 6.72219
files/tasks_parameters/ExAp01/sample25.txt 1.02112 6.23444 2.2122 0.267298 6.32731
files/tasks_parameters/ExAp01/sample36.txt 0.979293 6.6174 1.9458 0.253823 6.00834
files/tasks_parameters/ExAp01/sample46.txt 1.25704 7.42369 2.49128 0.327273 7.74701
files/tasks_parameters/ExAp01/sample31.txt 0.974916 7.22028 2.13584 0.25377 6.00709
files/tasks_parameters/ExAp01/sample37.txt 1.20481 8.90704 2.16981 0.295708 6.99982
files/tasks_parameters/ExAp01/sample16.txt 1.05513 8.18243 1.88294 0.24945 5.90482
files/tasks_parameters/ExAp01/sample10.txt 1.13857 6.96646 2.31217 0.285748 6.76406
files/tasks_parameters/ExAp01/sample39.txt 0.972675 6.4161 1.97266 0.251967 5.96441
files/tasks_parameters/ExAp01/sample19.txt 1.21324 8.16711 2.23199 0.308463 7.30175
files/tasks_parameters/ExAp01/sample20.txt 0.993711 7.28549 1.88944 0.25994 6.15314
files/tasks_parameters/ExAp01/sample43.txt 1.00434 6.86804 2.00142 0.25616 6.06367
files/tasks_parameters/ExAp01/sample32.txt 1.13062 8.15663 2.12995 0.281726 6.66886
files/tasks_parameters/ExAp01/sample45.txt 1.07447 7.75184 2.10599 0.274935 6.5081
files/tasks_parameters/ExAp01/sample26.txt 1.03401 7.4944 1.88956 0.267248 6.32613
files/tasks_parameters/ExAp01/sample5.txt 1.09011 8.08362 2.09961 0.28454 6.73547
files/tasks_parameters/ExAp01/sample21.txt 1.02112 6.11814 2.17119 0.26143 6.18841
files/tasks_parameters/ExAp01/sample38.txt 1.02249 7.761 1.96293 0.263659 6.24118
files/tasks_parameters/ExAp01/sample1.txt 1.11377 7.83752 2.13261 0.289228 6.84644
files/tasks_parameters/ExAp01/sample15.txt 1.11568 7.37971 2.12057 0.285825 6.76589
files/tasks_parameters/ExAp01/sample24.txt 1.14009 8.28531 2.25272 0.296628 7.02161
files/tasks_parameters/ExAp01/sample3.txt 1.16618 7.33359 2.39135 0.305084 7.22178
files/tasks_parameters/ExAp01/sample6.txt 1.08402 7.09894 2.24425 0.281804 6.6707
files/tasks_parameters/ExAp01/sample30.txt 1.22321 8.17669 2.03701 0.299204 7.08259
files/tasks_parameters/ExAp01/sample42.txt 1.14394 7.70416 2.42413 0.29743 7.04058
files/tasks_parameters/ExAp01/sample4.txt 1.18446 7.41691 2.36261 0.307803 7.28612
files/tasks_parameters/ExAp01/sample28.txt 1.02164 7.0562 2.07657 0.266428 6.30672
files/tasks_parameters/ExAp01/sample18.txt 1.06871 7.60139 2.1377 0.268016 6.34432
files/tasks_parameters/ExAp01/sample35.txt 1.23959 9.66795 2.28028 0.32244 7.6326
files/tasks_parameters/ExAp01/sample47.txt 0.974057 6.84842 2.12104 0.251655 5.95702
files/tasks_parameters/ExAp01/sample49.txt 0.992206 7.1497 2.11412 0.255889 6.05725
files/tasks_parameters/ExAp01/sample41.txt 1.01303 6.59911 2.07359 0.265885 6.29388
