0.32442887000000004
Task0 63 15 63 
Task1 63 31 127 
Task2 31 31 63 
Task3 7 31 3 
Task4 15 127 31 
Task5 31 63 15 
Task6 15 7 255 
Task7 31 255 63 
Task8 3 1 255 
Task9 31 15 127 
Task10 63 31 15 
Task11 127 255 127 
Task12 7 63 31 
Task13 127 63 31 
Task14 15 255 31 
Task15 31 255 127 
Task16 31 63 63 
Task17 255 63 63 
Task18 127 127 63 
Task19 127 127 63 
Task20 255 31 1 
Task21 255 31 15 
Task22 31 63 15 
Task23 7 255 7 
Task24 127 31 127 
Task25 31 255 15 
Task26 7 63 255 
Task27 255 31 255 
Task28 63 63 127 
Task29 31 255 63 
Task30 127 31 3 
Task31 3 255 15 
Task32 1 3 255 
Task33 255 15 63 
Task34 63 31 31 
Task35 3 255 15 
Task36 7 255 15 
Task37 63 31 255 
Task38 15 15 127 
Task39 63 255 7 
Task40 15 255 63 
Task41 7 63 7 
Task42 3 31 255 
Task43 31 63 63 
Task44 7 255 63 
Task45 63 15 15 
Task46 7 7 255 
Task47 63 127 7 
Task48 7 31 15 
Task49 15 255 63 
Task50 31 255 1 
Task51 255 31 255 
Task52 7 31 63 
Task53 15 63 63 
Task54 255 7 31 
Task55 31 255 31 
Task56 3 255 3 
Task57 127 15 31 
Task58 1 31 15 
Task59 31 255 255 
Task60 1 255 31 
Task61 7 255 255 
Task62 31 1 1 
Task63 255 1 3 
Task64 255 63 7 
Task65 31 63 127 
Task66 63 31 31 
Task67 15 31 15 
Task68 7 63 7 
Task69 15 255 1 
Task70 127 15 15 
Task71 63 63 7 
Task72 127 1 15 
Task73 127 31 63 
Task74 7 31 63 
Task75 127 63 63 
Task76 7 31 63 
Task77 255 63 31 
Task78 7 1 31 
Task79 63 63 3 
Task80 63 31 63 
Task81 31 63 3 
Task82 15 127 31 
Task83 3 255 3 
Task84 63 255 7 
Task85 255 31 31 
Task86 7 127 127 
Task87 31 7 31 
Task88 31 7 15 
Task89 7 3 31 
Task90 3 255 63 
Task91 255 7 7 
Task92 63 1 31 
Task93 63 127 127 
Task94 7 63 255 
Task95 3 15 63 
Task96 31 31 63 
Task97 31 63 63 
Task98 63 7 31 
Task99 15 7 63 
