0.43025420000000003
Task0 63 1 7 
Task1 31 63 127 
Task2 7 31 31 
Task3 63 127 3 
Task4 255 7 31 
Task5 127 7 15 
Task6 3 31 63 
Task7 31 7 63 
Task8 63 3 3 
Task9 255 63 15 
Task10 1 15 63 
Task11 7 15 255 
Task12 127 63 3 
Task13 63 63 127 
Task14 31 127 63 
Task15 7 63 63 
Task16 63 255 31 
Task17 15 63 7 
Task18 7 1 63 
Task19 31 127 3 
Task20 63 7 1 
Task21 255 7 3 
Task22 3 15 63 
Task23 63 7 255 
Task24 15 255 255 
Task25 31 255 127 
Task26 127 31 63 
Task27 31 15 63 
Task28 7 1 255 
Task29 31 63 7 
Task30 63 7 1 
Task31 63 7 1 
Task32 255 31 3 
Task33 15 255 1 
Task34 3 127 31 
Task35 63 3 15 
Task36 7 63 3 
Task37 3 31 255 
Task38 63 63 63 
Task39 255 63 63 
Task40 15 31 255 
Task41 255 63 127 
Task42 3 1 63 
Task43 3 63 1 
Task44 63 255 255 
Task45 3 63 63 
Task46 63 31 31 
Task47 31 7 63 
Task48 31 1 31 
Task49 1 31 31 
Task50 7 1 63 
Task51 63 127 63 
Task52 15 3 63 
Task53 15 127 31 
Task54 3 255 31 
Task55 7 255 31 
Task56 15 15 255 
Task57 1 31 255 
Task58 63 127 255 
Task59 255 255 127 
Task60 31 3 31 
Task61 3 63 63 
Task62 63 63 63 
Task63 15 15 63 
Task64 7 255 127 
Task65 63 15 3 
Task66 255 255 127 
Task67 1 15 255 
Task68 7 3 63 
Task69 127 255 15 
Task70 63 255 31 
Task71 63 7 63 
Task72 63 63 7 
Task73 7 63 15 
Task74 31 63 7 
Task75 63 3 255 
Task76 7 63 7 
Task77 7 15 255 
Task78 63 63 15 
Task79 7 63 63 
Task80 31 31 255 
Task81 255 127 255 
Task82 63 31 15 
Task83 127 3 63 
Task84 31 3 63 
Task85 31 15 63 
Task86 127 31 255 
Task87 7 3 63 
Task88 255 127 63 
Task89 15 63 255 
Task90 7 3 63 
Task91 3 63 3 
Task92 7 31 31 
Task93 7 1 63 
Task94 63 15 31 
Task95 127 63 255 
Task96 63 31 1 
Task97 63 1 3 
Task98 255 63 31 
Task99 63 63 15 
