Task0 1 1 1 
Task1 1 1 3 
Task2 1 1 1 
Task3 1 1 1 
Task4 1 1 1 
Task5 1 1 1 
Task6 1 1 1 
Task7 3 1 1 
Task8 3 3 1 
Task9 1 1 1 
Task10 1 1 1 
Task11 3 3 1 
Task12 1 1 1 
Task13 3 1 1 
Task14 1 3 1 
Task15 31 31 63 
Task16 1 1 1 
Task17 1 1 1 
Task18 3 1 1 
Task19 1 1 1 
Task20 1 7 1 
Task21 1 1 1 
Task22 7 1 1 
Task23 3 1 3 
Task24 1 3 7 
Task25 1 1 1 
Task26 1 1 1 
Task27 1 1 1 
Task28 1 1 1 
Task29 1 1 1 
Task30 3 1 1 
Task31 1 1 1 
Task32 3 1 1 
Task33 3 1 1 
Task34 1 1 1 
Task35 1 1 1 
Task36 3 3 3 
Task37 1 1 1 
Task38 1 1 1 
Task39 1 1 1 
Task40 1 1 1 
Task41 1 1 1 
Task42 1 1 1 
Task43 3 1 1 
Task44 3 1 1 
Task45 1 1 1 
Task46 1 3 1 
Task47 1 1 1 
Task48 1 1 7 
Task49 1 1 1 
Task50 1 1 1 
Task51 3 1 1 
Task52 1 1 1 
Task53 1 1 1 
Task54 1 1 1 
Task55 1 1 1 
Task56 1 1 1 
Task57 3 7 1 
Task58 1 1 1 
Task59 1 1 1 
Task60 1 1 3 
Task61 1 1 1 
Task62 15 1 1 
Task63 1 1 1 
Task64 3 1 1 
Task65 1 1 1 
Task66 3 1 3 
Task67 1 3 1 
Task68 1 1 7 
Task69 1 1 1 
Task70 1 1 3 
Task71 1 1 3 
Task72 1 1 1 
Task73 3 1 1 
Task74 1 3 3 
Task75 3 1 1 
Task76 1 1 1 
Task77 1 3 7 
Task78 1 1 1 
Task79 1 1 3 
Task80 1 1 3 
Task81 1 1 1 
Task82 1 1 3 
Task83 1 3 3 
Task84 3 1 1 
Task85 31 15 31 
Task86 1 1 1 
Task87 1 15 3 
Task88 1 1 1 
Task89 1 1 1 
Task90 1 1 3 
Task91 1 1 1 
Task92 1 1 1 
Task93 1 1 3 
Task94 1 3 1 
Task95 1 1 1 
Task96 1 3 7 
Task97 1 1 1 
Task98 3 1 3 
Task99 1 1 1 
