Task0 1 1 1 
Task1 1 1 3 
Task2 1 3 1 
Task3 3 1 1 
Task4 3 255 7 
Task5 1 1 1 
Task6 1 1 1 
Task7 1 1 1 
Task8 1 1 3 
Task9 3 1 1 
Task10 1 1 1 
Task11 3 1 1 
Task12 1 1 1 
Task13 1 1 1 
Task14 7 7 1 
Task15 1 3 3 
Task16 1 1 1 
Task17 31 7 15 
Task18 1 1 1 
Task19 1 1 1 
Task20 7 1 1 
Task21 1 1 1 
Task22 3 1 3 
Task23 1 1 3 
Task24 1 1 1 
Task25 1 3 7 
Task26 1 1 1 
Task27 1 1 1 
Task28 1 1 1 
Task29 1 1 1 
Task30 1 1 1 
Task31 1 3 1 
Task32 1 1 1 
Task33 3 7 1 
Task34 1 1 1 
Task35 1 3 1 
Task36 1 1 1 
Task37 1 1 1 
Task38 1 1 1 
Task39 1 1 1 
Task40 3 1 3 
Task41 1 3 1 
Task42 3 1 1 
Task43 1 3 3 
Task44 1 1 1 
Task45 1 1 1 
Task46 1 3 1 
Task47 1 1 1 
Task48 1 1 1 
Task49 1 1 1 
Task50 1 1 1 
Task51 1 3 7 
Task52 1 1 3 
Task53 1 1 1 
Task54 7 3 1 
Task55 7 3 1 
Task56 1 1 1 
Task57 1 1 3 
Task58 1 1 1 
Task59 3 1 1 
Task60 1 1 1 
Task61 1 1 1 
Task62 1 1 1 
Task63 1 1 3 
Task64 7 7 1 
Task65 3 1 1 
Task66 1 1 1 
Task67 1 1 1 
Task68 1 1 1 
Task69 1 1 1 
Task70 1 1 3 
Task71 3 1 1 
Task72 1 7 3 
Task73 1 1 1 
Task74 1 1 1 
Task75 1 1 1 
Task76 1 3 3 
Task77 1 1 1 
Task78 1 1 1 
Task79 1 1 1 
Task80 3 7 7 
Task81 1 1 1 
Task82 1 1 1 
Task83 1 3 3 
Task84 1 1 1 
Task85 1 3 1 
Task86 1 7 3 
Task87 1 1 1 
Task88 3 3 1 
Task89 3 1 3 
Task90 3 1 3 
Task91 3 1 1 
Task92 1 1 1 
Task93 1 3 3 
Task94 1 1 1 
Task95 1 1 1 
Task96 1 1 1 
Task97 1 1 3 
Task98 1 1 1 
Task99 3 1 1 
