Task0 1 1 1 
Task1 1 1 1 
Task2 3 1 1 
Task3 1 1 1 
Task4 3 1 1 
Task5 1 1 1 
Task6 1 1 1 
Task7 3 1 1 
Task8 1 1 1 
Task9 3 1 1 
Task10 1 1 1 
Task11 1 1 1 
Task12 1 3 3 
Task13 1 1 1 
Task14 1 1 1 
Task15 1 1 1 
Task16 1 1 1 
Task17 1 1 7 
Task18 1 1 3 
Task19 1 1 1 
Task20 1 1 1 
Task21 3 1 1 
Task22 1 1 3 
Task23 3 1 3 
Task24 1 1 1 
Task25 1 1 1 
Task26 3 1 3 
Task27 1 1 1 
Task28 1 1 1 
Task29 1 1 1 
Task30 1 1 1 
Task31 1 1 1 
Task32 1 1 1 
Task33 255 255 255 
Task34 1 3 3 
Task35 1 1 1 
Task36 1 1 1 
Task37 1 1 1 
Task38 15 1 15 
Task39 3 3 1 
Task40 1 1 1 
Task41 1 1 7 
Task42 1 1 1 
Task43 1 1 1 
Task44 1 1 1 
Task45 1 1 1 
Task46 3 3 1 
Task47 1 1 1 
Task48 1 1 1 
Task49 1 1 1 
Task50 1 1 1 
Task51 1 1 1 
Task52 1 1 3 
Task53 1 1 1 
Task54 1 1 1 
Task55 3 1 3 
Task56 1 1 1 
Task57 1 1 1 
Task58 1 1 1 
Task59 1 1 1 
Task60 1 1 1 
Task61 1 1 1 
Task62 1 1 3 
Task63 1 1 1 
Task64 1 1 1 
Task65 1 1 1 
Task66 1 1 1 
Task67 1 1 1 
Task68 1 1 1 
Task69 1 7 1 
Task70 1 1 1 
Task71 1 7 3 
Task72 1 1 1 
Task73 1 3 3 
Task74 1 1 1 
Task75 3 1 1 
Task76 1 1 1 
Task77 1 1 1 
Task78 1 1 1 
Task79 1 1 1 
Task80 3 1 3 
Task81 1 1 1 
Task82 3 3 1 
Task83 1 1 1 
Task84 1 1 1 
Task85 1 1 1 
Task86 1 1 1 
Task87 1 3 1 
Task88 1 1 1 
Task89 1 1 1 
Task90 3 1 1 
Task91 1 3 1 
Task92 1 1 1 
Task93 1 1 1 
Task94 3 1 1 
Task95 3 1 1 
Task96 1 1 1 
Task97 1 1 1 
Task98 1 1 1 
Task99 1 1 1 
