files/tasks_parameters/ExAp01/sample8.txt 0.788058 3.15778 1.5595 0.203411 3.97743
files/tasks_parameters/ExAp01/sample12.txt 0.809071 3.94962 1.6705 0.207924 4.06567
files/tasks_parameters/ExAp01/sample2.txt 0.772126 3.78275 1.74131 0.200098 3.91264
files/tasks_parameters/ExAp01/sample44.txt 0.685794 3.59825 1.65317 0.200005 3.91083
files/tasks_parameters/ExAp01/sample27.txt 0.72525 3.45743 1.5148 0.182129 3.56127
files/tasks_parameters/ExAp01/sample17.txt 0.58411 2.77299 1.44514 0.14646 2.86382
files/tasks_parameters/ExAp01/sample9.txt 0.633972 2.99933 1.451 0.177444 3.46967
files/tasks_parameters/ExAp01/sample34.txt 0.583178 3.02928 1.58429 0.157984 3.08916
files/tasks_parameters/ExAp01/sample40.txt 0.64239 3.86889 1.52122 0.168379 3.29243
files/tasks_parameters/ExAp01/sample33.txt 0.788718 3.63695 1.71905 0.199765 3.90613
files/tasks_parameters/ExAp01/sample48.txt 0.618243 3.39061 1.49062 0.154728 3.0255
files/tasks_parameters/ExAp01/sample29.txt 0.74135 3.30472 1.38739 0.223868 4.37744
files/tasks_parameters/ExAp01/sample11.txt 0.669626 3.10585 1.41612 0.174079 3.40387
files/tasks_parameters/ExAp01/sample14.txt 0.664842 2.70971 1.43432 0.162214 3.17188
files/tasks_parameters/ExAp01/sample0.txt 0.71752 3.6937 1.5439 0.18367 3.59141
files/tasks_parameters/ExAp01/sample7.txt 0.572225 2.70501 1.42221 0.143463 2.80523
files/tasks_parameters/ExAp01/sample23.txt 0.672394 3.2697 1.57822 0.181448 3.54798
files/tasks_parameters/ExAp01/sample13.txt 0.728066 3.84225 1.67648 0.198247 3.87645
files/tasks_parameters/ExAp01/sample22.txt 0.59832 3.09569 1.56121 0.148796 2.90951
files/tasks_parameters/ExAp01/sample25.txt 0.586036 2.73966 1.5007 0.148149 2.89684
files/tasks_parameters/ExAp01/sample36.txt 0.53791 2.85948 1.28553 0.130042 2.5428
files/tasks_parameters/ExAp01/sample46.txt 0.764268 3.58643 1.69998 0.210103 4.10827
files/tasks_parameters/ExAp01/sample31.txt 0.692449 3.4832 1.53782 0.1722 3.36713
files/tasks_parameters/ExAp01/sample37.txt 0.724007 3.95293 1.50705 0.171701 3.35738
files/tasks_parameters/ExAp01/sample16.txt 0.604231 3.31216 1.30115 0.150249 2.93791
files/tasks_parameters/ExAp01/sample10.txt 0.610183 3.17098 1.61789 0.153776 3.00689
files/tasks_parameters/ExAp01/sample39.txt 0.703894 3.26617 1.44406 0.165669 3.23943
files/tasks_parameters/ExAp01/sample19.txt 0.690736 3.63532 1.52509 0.196094 3.83436
files/tasks_parameters/ExAp01/sample20.txt 0.577965 3.20793 1.25367 0.147335 2.88094
files/tasks_parameters/ExAp01/sample43.txt 0.579722 3.11551 1.4202 0.150644 2.94565
files/tasks_parameters/ExAp01/sample32.txt 0.62051 3.5311 1.42482 0.168744 3.29956
files/tasks_parameters/ExAp01/sample45.txt 0.729853 3.80283 1.48324 0.19807 3.873
files/tasks_parameters/ExAp01/sample26.txt 0.607315 3.21645 1.29701 0.166061 3.2471
files/tasks_parameters/ExAp01/sample5.txt 0.650281 3.5889 1.52559 0.178903 3.49821
files/tasks_parameters/ExAp01/sample21.txt 0.656917 2.75242 1.55936 0.19512 3.81531
files/tasks_parameters/ExAp01/sample38.txt 0.641719 3.31563 1.37515 0.166157 3.24897
files/tasks_parameters/ExAp01/sample1.txt 0.729983 3.74964 1.51696 0.19701 3.85225
files/tasks_parameters/ExAp01/sample15.txt 0.677374 3.32916 1.48508 0.180707 3.53349
files/tasks_parameters/ExAp01/sample24.txt 0.643635 3.45951 1.59549 0.16529 3.23203
files/tasks_parameters/ExAp01/sample3.txt 0.907178 3.70014 1.70809 0.237107 4.63631
files/tasks_parameters/ExAp01/sample6.txt 0.702973 3.33003 1.58323 0.184714 3.61184
files/tasks_parameters/ExAp01/sample30.txt 0.848162 4.1841 1.4861 0.239623 4.6855
files/tasks_parameters/ExAp01/sample42.txt 0.693969 3.43221 1.70276 0.177383 3.46848
files/tasks_parameters/ExAp01/sample4.txt 0.764782 3.72477 1.6136 0.196448 3.84128
files/tasks_parameters/ExAp01/sample28.txt 0.602491 3.11323 1.45032 0.158819 3.10549
files/tasks_parameters/ExAp01/sample18.txt 0.586659 3.47418 1.45209 0.149064 2.91474
files/tasks_parameters/ExAp01/sample35.txt 0.689202 4.57086 1.49394 0.185031 3.61802
files/tasks_parameters/ExAp01/sample47.txt 0.646438 3.13768 1.52397 0.16417 3.21012
files/tasks_parameters/ExAp01/sample49.txt 0.607276 3.13288 1.49657 0.156154 3.05338
files/tasks_parameters/ExAp01/sample41.txt 0.61213 2.81964 1.49636 0.150876 2.95017
