0.33231358
Task0 7 255 3 
Task1 255 15 15 
Task2 31 63 63 
Task3 1 255 31 
Task4 15 127 15 
Task5 15 31 255 
Task6 31 15 127 
Task7 255 255 127 
Task8 63 255 3 
Task9 255 15 15 
Task10 255 31 15 
Task11 1 15 63 
Task12 255 255 255 
Task13 15 3 63 
Task14 15 7 63 
Task15 63 255 31 
Task16 127 127 127 
Task17 7 7 255 
Task18 31 63 127 
Task19 127 63 31 
Task20 63 255 31 
Task21 255 15 3 
Task22 255 15 3 
Task23 1 63 255 
Task24 15 127 255 
Task25 7 127 127 
Task26 7 255 127 
Task27 31 63 127 
Task28 7 3 63 
Task29 63 1 63 
Task30 7 3 255 
Task31 63 127 1 
Task32 31 7 63 
Task33 3 31 255 
Task34 15 255 7 
Task35 255 15 15 
Task36 63 31 31 
Task37 255 3 15 
Task38 1 7 255 
Task39 63 63 127 
Task40 63 63 1 
Task41 7 15 63 
Task42 255 127 63 
Task43 15 255 15 
Task44 7 1 63 
Task45 63 127 15 
Task46 1 15 63 
Task47 127 127 255 
Task48 255 31 15 
Task49 255 7 3 
Task50 31 63 255 
Task51 7 15 255 
Task52 127 63 15 
Task53 3 31 63 
Task54 31 127 1 
Task55 255 63 3 
Task56 127 15 255 
Task57 31 31 255 
Task58 15 255 255 
Task59 127 15 63 
Task60 255 255 255 
Task61 15 255 127 
Task62 127 127 31 
Task63 63 255 255 
Task64 63 31 15 
Task65 1 255 31 
Task66 63 255 15 
Task67 1 15 63 
Task68 127 63 31 
Task69 255 127 31 
Task70 63 3 255 
Task71 15 63 63 
Task72 31 255 255 
Task73 7 255 7 
Task74 63 255 127 
Task75 31 63 31 
Task76 255 31 255 
Task77 31 255 127 
Task78 63 255 127 
Task79 63 63 31 
Task80 31 127 127 
Task81 63 127 127 
Task82 255 15 1 
Task83 127 255 127 
Task84 15 63 7 
Task85 63 31 31 
Task86 3 7 127 
Task87 255 3 1 
Task88 127 127 63 
Task89 255 1 3 
Task90 127 7 63 
Task91 255 255 127 
Task92 31 7 127 
Task93 31 31 63 
Task94 7 63 63 
Task95 255 3 255 
Task96 127 255 127 
Task97 7 15 63 
Task98 3 7 255 
Task99 127 31 15 
