files/tasks_parameters/ExAp01/sample8.txt 1.08293 3.76817 4.3855 0.450105 27.0393
files/tasks_parameters/ExAp01/sample12.txt 1.59671 5.03638 5.18776 0.610564 36.6786
files/tasks_parameters/ExAp01/sample2.txt 1.41718 4.58991 5.64606 0.613877 36.8776
files/tasks_parameters/ExAp01/sample44.txt 1.25632 3.77401 5.66946 0.551838 33.1507
files/tasks_parameters/ExAp01/sample27.txt 1.30619 4.13937 5.56136 0.55779 33.5082
files/tasks_parameters/ExAp01/sample17.txt 1.19713 3.76163 5.38341 0.520991 31.2976
files/tasks_parameters/ExAp01/sample9.txt 1.15574 3.69889 5.2981 0.511699 30.7395
files/tasks_parameters/ExAp01/sample34.txt 1.11551 3.52435 5.83741 0.49187 29.5482
files/tasks_parameters/ExAp01/sample40.txt 1.15805 4.06185 5.0335 0.496884 29.8494
files/tasks_parameters/ExAp01/sample33.txt 1.55311 4.82091 5.83886 0.651963 39.1655
files/tasks_parameters/ExAp01/sample48.txt 1.09708 4.01134 5.07085 0.447927 26.9085
files/tasks_parameters/ExAp01/sample29.txt 1.4569 4.20847 5.0406 0.643694 38.6688
files/tasks_parameters/ExAp01/sample11.txt 1.33864 3.94699 5.29198 0.557276 33.4774
files/tasks_parameters/ExAp01/sample14.txt 1.08295 3.54059 4.58345 0.466713 28.037
files/tasks_parameters/ExAp01/sample0.txt 1.50821 4.82755 4.90216 0.623551 37.4587
files/tasks_parameters/ExAp01/sample7.txt 1.16007 3.60766 5.11185 0.509566 30.6113
files/tasks_parameters/ExAp01/sample23.txt 1.38958 3.81403 5.45799 0.582911 35.0174
files/tasks_parameters/ExAp01/sample13.txt 1.52314 4.8894 5.26818 0.624499 37.5157
files/tasks_parameters/ExAp01/sample22.txt 1.29291 3.76156 4.95746 0.534216 32.0921
files/tasks_parameters/ExAp01/sample25.txt 0.979928 2.94144 4.92622 0.403639 24.2479
files/tasks_parameters/ExAp01/sample36.txt 1.19733 3.56164 4.5806 0.501799 30.1447
files/tasks_parameters/ExAp01/sample46.txt 1.24539 3.84833 4.7121 0.530701 31.8809
files/tasks_parameters/ExAp01/sample31.txt 1.09402 3.764 5.08385 0.479734 28.8192
files/tasks_parameters/ExAp01/sample37.txt 1.52625 4.43254 5.65111 0.65143 39.1335
files/tasks_parameters/ExAp01/sample16.txt 1.25476 4.49741 4.8895 0.509171 30.5875
files/tasks_parameters/ExAp01/sample10.txt 1.37558 3.87086 6.07511 0.60993 36.6405
files/tasks_parameters/ExAp01/sample39.txt 1.09166 3.66299 4.54281 0.463671 27.8542
files/tasks_parameters/ExAp01/sample19.txt 1.36545 3.86694 5.14047 0.615987 37.0044
files/tasks_parameters/ExAp01/sample20.txt 1.34012 4.09945 5.13368 0.580369 34.8646
files/tasks_parameters/ExAp01/sample43.txt 1.14183 3.75825 5.55698 0.530892 31.8924
files/tasks_parameters/ExAp01/sample32.txt 1.42853 4.0352 5.29178 0.587643 35.3017
files/tasks_parameters/ExAp01/sample45.txt 1.22909 3.94578 4.87833 0.541081 32.5045
files/tasks_parameters/ExAp01/sample26.txt 1.12557 3.50998 4.55035 0.474009 28.4753
files/tasks_parameters/ExAp01/sample5.txt 1.40203 4.00994 5.27725 0.587681 35.3039
files/tasks_parameters/ExAp01/sample21.txt 0.92779 2.8974 4.54677 0.430037 25.8337
files/tasks_parameters/ExAp01/sample38.txt 1.17106 3.56689 4.78573 0.492366 29.5781
files/tasks_parameters/ExAp01/sample1.txt 1.16558 3.69002 4.55048 0.481074 28.8997
files/tasks_parameters/ExAp01/sample15.txt 1.19501 3.73223 5.42493 0.524964 31.5363
files/tasks_parameters/ExAp01/sample24.txt 1.28889 4.18053 5.40377 0.542575 32.5943
files/tasks_parameters/ExAp01/sample3.txt 1.09997 3.70547 4.7118 0.470503 28.2647
files/tasks_parameters/ExAp01/sample6.txt 1.47536 4.07521 5.71419 0.626702 37.6481
files/tasks_parameters/ExAp01/sample30.txt 1.49474 3.97446 5.82388 0.626709 37.6485
files/tasks_parameters/ExAp01/sample42.txt 1.28798 4.44207 5.58473 0.537025 32.2608
files/tasks_parameters/ExAp01/sample4.txt 1.28644 3.92181 4.49751 0.556974 33.4593
files/tasks_parameters/ExAp01/sample28.txt 1.05732 3.13496 4.88321 0.444588 26.7079
files/tasks_parameters/ExAp01/sample18.txt 1.23528 3.95301 4.52898 0.537438 32.2856
files/tasks_parameters/ExAp01/sample35.txt 1.91502 5.75923 6.25034 0.752488 45.2044
files/tasks_parameters/ExAp01/sample47.txt 1.14304 3.44018 5.14289 0.540033 32.4416
files/tasks_parameters/ExAp01/sample49.txt 1.16996 3.38981 4.72409 0.493041 29.6186
files/tasks_parameters/ExAp01/sample41.txt 1.14031 3.58692 5.27252 0.492391 29.5795
