files/tasks_parameters/ExAp01/sample8.txt 1.08528 3.76817 4.3855 0.450105 9.90283
files/tasks_parameters/ExAp01/sample12.txt 1.45489 5.03638 5.18776 0.610564 13.4331
files/tasks_parameters/ExAp01/sample2.txt 1.37058 4.58991 5.64606 0.613877 13.506
files/tasks_parameters/ExAp01/sample44.txt 1.24421 3.77401 5.66946 0.551838 12.1411
files/tasks_parameters/ExAp01/sample27.txt 1.28924 4.13937 5.56136 0.55779 12.272
files/tasks_parameters/ExAp01/sample17.txt 1.11554 3.76163 5.38341 0.520991 11.4624
files/tasks_parameters/ExAp01/sample9.txt 1.09746 3.69889 5.2981 0.511699 11.258
files/tasks_parameters/ExAp01/sample34.txt 1.13586 3.52435 5.83741 0.49187 10.8217
files/tasks_parameters/ExAp01/sample40.txt 1.14773 4.06185 5.0335 0.496884 10.932
files/tasks_parameters/ExAp01/sample33.txt 1.47531 4.82091 5.83886 0.651963 14.3439
files/tasks_parameters/ExAp01/sample48.txt 1.06604 4.01134 5.07085 0.447927 9.85492
files/tasks_parameters/ExAp01/sample29.txt 1.39588 4.20847 5.0406 0.643694 14.162
files/tasks_parameters/ExAp01/sample11.txt 1.30035 3.94699 5.29198 0.557276 12.2607
files/tasks_parameters/ExAp01/sample14.txt 1.05391 3.54059 4.58345 0.466713 10.2682
files/tasks_parameters/ExAp01/sample0.txt 1.44535 4.82755 4.90216 0.623551 13.7188
files/tasks_parameters/ExAp01/sample7.txt 1.11318 3.60766 5.11185 0.509566 11.211
files/tasks_parameters/ExAp01/sample23.txt 1.43041 3.81403 5.45799 0.582911 12.8247
files/tasks_parameters/ExAp01/sample13.txt 1.4177 4.8894 5.26818 0.624499 13.7397
files/tasks_parameters/ExAp01/sample22.txt 1.24375 3.76156 4.95746 0.534216 11.7534
files/tasks_parameters/ExAp01/sample25.txt 0.90612 2.94144 4.92622 0.403639 8.88053
files/tasks_parameters/ExAp01/sample36.txt 1.21896 3.56164 4.5806 0.501799 11.0401
files/tasks_parameters/ExAp01/sample46.txt 1.22396 3.84833 4.7121 0.530701 11.676
files/tasks_parameters/ExAp01/sample31.txt 1.06438 3.764 5.08385 0.479734 10.5547
files/tasks_parameters/ExAp01/sample37.txt 1.49454 4.43254 5.65111 0.65143 14.3322
files/tasks_parameters/ExAp01/sample16.txt 1.23609 4.49741 4.8895 0.509171 11.2023
files/tasks_parameters/ExAp01/sample10.txt 1.36647 3.87086 6.07511 0.60993 13.4192
files/tasks_parameters/ExAp01/sample39.txt 1.11364 3.66299 4.54281 0.463671 10.2013
files/tasks_parameters/ExAp01/sample19.txt 1.33761 3.86694 5.14047 0.615987 13.5524
files/tasks_parameters/ExAp01/sample20.txt 1.33942 4.09945 5.13368 0.580369 12.7688
files/tasks_parameters/ExAp01/sample43.txt 1.13713 3.75825 5.55698 0.530892 11.6802
files/tasks_parameters/ExAp01/sample32.txt 1.38764 4.0352 5.29178 0.587643 12.9288
files/tasks_parameters/ExAp01/sample45.txt 1.21092 3.94578 4.87833 0.541081 11.9044
files/tasks_parameters/ExAp01/sample26.txt 1.04254 3.50998 4.55035 0.474009 10.4287
files/tasks_parameters/ExAp01/sample5.txt 1.34267 4.00994 5.27725 0.587681 12.9296
files/tasks_parameters/ExAp01/sample21.txt 0.939831 2.8974 4.54677 0.430037 9.46131
files/tasks_parameters/ExAp01/sample38.txt 1.285 3.56689 4.78573 0.492366 10.8326
files/tasks_parameters/ExAp01/sample1.txt 1.09874 3.69002 4.55048 0.481074 10.5842
files/tasks_parameters/ExAp01/sample15.txt 1.16001 3.73223 5.42493 0.524964 11.5498
files/tasks_parameters/ExAp01/sample24.txt 1.20748 4.18053 5.40377 0.542575 11.9373
files/tasks_parameters/ExAp01/sample3.txt 1.09285 3.70547 4.7118 0.470503 10.3516
files/tasks_parameters/ExAp01/sample6.txt 1.34391 4.07521 5.71419 0.626702 13.7882
files/tasks_parameters/ExAp01/sample30.txt 1.44286 3.97446 5.82388 0.626709 13.7883
files/tasks_parameters/ExAp01/sample42.txt 1.27186 4.44207 5.58473 0.537025 11.8152
files/tasks_parameters/ExAp01/sample4.txt 1.3617 3.92181 4.49751 0.556974 12.2541
files/tasks_parameters/ExAp01/sample28.txt 1.00052 3.13496 4.88321 0.444588 9.78145
files/tasks_parameters/ExAp01/sample18.txt 1.22233 3.95301 4.52898 0.537438 11.8242
files/tasks_parameters/ExAp01/sample35.txt 1.8236 5.75923 6.25034 0.752488 16.5556
files/tasks_parameters/ExAp01/sample47.txt 1.14607 3.44018 5.14289 0.540033 11.8814
files/tasks_parameters/ExAp01/sample49.txt 1.20429 3.38981 4.72409 0.493041 10.8475
files/tasks_parameters/ExAp01/sample41.txt 1.1026 3.58692 5.27252 0.492391 10.8332
