0.31596734
Task0 31 31 31 
Task1 7 31 15 
Task2 63 31 3 
Task3 7 7 63 
Task4 7 15 63 
Task5 31 63 3 
Task6 7 63 15 
Task7 31 255 15 
Task8 255 7 31 
Task9 63 63 3 
Task10 31 31 31 
Task11 255 15 255 
Task12 127 255 127 
Task13 3 63 7 
Task14 255 63 7 
Task15 31 31 63 
Task16 1 7 63 
Task17 63 7 31 
Task18 1 15 63 
Task19 15 31 63 
Task20 31 31 3 
Task21 255 15 63 
Task22 63 15 15 
Task23 63 63 63 
Task24 15 63 15 
Task25 63 31 15 
Task26 31 7 63 
Task27 31 7 31 
Task28 3 63 7 
Task29 127 127 255 
Task30 15 127 255 
Task31 63 63 127 
Task32 7 3 31 
Task33 3 31 3 
Task34 7 63 31 
Task35 7 63 255 
Task36 15 31 31 
Task37 31 15 15 
Task38 255 255 127 
Task39 7 7 63 
Task40 31 31 3 
Task41 31 15 31 
Task42 127 7 255 
Task43 3 63 15 
Task44 63 1 63 
Task45 127 31 3 
Task46 3 31 63 
Task47 3 63 15 
Task48 15 3 31 
Task49 31 15 15 
Task50 7 31 31 
Task51 63 15 255 
Task52 63 255 255 
Task53 15 63 255 
Task54 31 7 7 
Task55 1 31 15 
Task56 255 127 15 
Task57 31 3 255 
Task58 255 255 127 
Task59 7 63 7 
Task60 31 63 63 
Task61 7 31 63 
Task62 31 63 7 
Task63 1 255 63 
Task64 63 15 63 
Task65 63 7 15 
Task66 1 3 31 
Task67 15 31 1 
Task68 31 3 1 
Task69 255 3 31 
Task70 255 7 127 
Task71 31 7 63 
Task72 3 7 255 
Task73 127 15 7 
Task74 1 255 31 
Task75 15 31 63 
Task76 63 255 63 
Task77 255 1 15 
Task78 63 7 15 
Task79 63 63 7 
Task80 3 15 255 
Task81 255 1 15 
Task82 15 63 15 
Task83 31 31 63 
Task84 255 255 127 
Task85 7 3 31 
Task86 1 63 31 
Task87 15 3 63 
Task88 31 7 31 
Task89 255 15 31 
Task90 31 3 63 
Task91 15 63 1 
Task92 63 7 31 
Task93 15 1 255 
Task94 31 255 1 
Task95 255 15 7 
Task96 127 63 3 
Task97 63 1 31 
Task98 31 31 63 
Task99 31 15 63 
