0.36425701
Task0 15 15 63 
Task1 63 31 31 
Task2 63 1 7 
Task3 15 31 63 
Task4 7 15 31 
Task5 15 7 63 
Task6 63 15 255 
Task7 7 63 63 
Task8 31 63 3 
Task9 15 63 31 
Task10 31 15 7 
Task11 15 31 3 
Task12 63 15 31 
Task13 1 31 31 
Task14 15 15 63 
Task15 63 15 15 
Task16 63 31 63 
Task17 31 1 3 
Task18 31 63 63 
Task19 127 255 127 
Task20 63 255 31 
Task21 31 7 7 
Task22 1 1 63 
Task23 3 63 31 
Task24 127 255 255 
Task25 15 1 63 
Task26 7 31 15 
Task27 3 31 7 
Task28 7 63 7 
Task29 63 15 31 
Task30 63 1 7 
Task31 63 7 7 
Task32 63 3 15 
Task33 3 7 31 
Task34 127 127 63 
Task35 31 255 63 
Task36 7 15 63 
Task37 1 63 15 
Task38 31 15 31 
Task39 15 63 15 
Task40 7 63 3 
Task41 255 255 15 
Task42 15 1 31 
Task43 63 31 127 
Task44 15 31 31 
Task45 31 255 127 
Task46 7 31 63 
Task47 3 15 63 
Task48 31 31 31 
Task49 3 63 3 
Task50 3 63 1 
Task51 63 15 3 
Task52 31 31 31 
Task53 1 1 31 
Task54 7 31 31 
Task55 15 31 7 
Task56 15 63 15 
Task57 31 3 15 
Task58 1 63 7 
Task59 3 7 31 
Task60 31 63 63 
Task61 31 31 63 
Task62 63 7 7 
Task63 63 3 255 
Task64 255 63 31 
Task65 63 31 15 
Task66 31 63 63 
Task67 15 127 7 
Task68 15 3 63 
Task69 31 3 31 
Task70 31 63 63 
Task71 63 15 15 
Task72 15 31 31 
Task73 63 63 63 
Task74 63 7 63 
Task75 255 15 127 
Task76 31 63 31 
Task77 127 255 15 
Task78 3 63 7 
Task79 31 7 63 
Task80 7 1 63 
Task81 1 63 15 
Task82 63 31 63 
Task83 15 63 31 
Task84 1 63 15 
Task85 3 31 7 
Task86 63 63 15 
Task87 31 3 63 
Task88 1 15 63 
Task89 15 63 7 
Task90 63 1 31 
Task91 31 31 31 
Task92 63 7 7 
Task93 15 31 63 
Task94 63 1 3 
Task95 63 63 63 
Task96 31 63 63 
Task97 3 15 31 
Task98 63 1 15 
Task99 31 31 3 
