0.39218885000000003
Task0 127 15 63 
Task1 127 1 63 
Task2 127 127 255 
Task3 255 15 7 
Task4 31 15 255 
Task5 127 127 7 
Task6 15 31 127 
Task7 63 63 31 
Task8 3 127 63 
Task9 255 31 31 
Task10 127 31 7 
Task11 15 255 3 
Task12 255 63 3 
Task13 3 31 255 
Task14 255 31 255 
Task15 63 3 15 
Task16 31 255 15 
Task17 31 15 255 
Task18 31 15 63 
Task19 127 255 127 
Task20 255 255 127 
Task21 15 255 15 
Task22 63 255 63 
Task23 15 255 1 
Task24 255 31 3 
Task25 31 255 7 
Task26 255 127 255 
Task27 15 15 63 
Task28 31 63 255 
Task29 255 3 15 
Task30 255 15 15 
Task31 63 63 31 
Task32 127 31 255 
Task33 127 127 15 
Task34 127 255 3 
Task35 127 255 7 
Task36 31 63 63 
Task37 255 255 255 
Task38 255 7 31 
Task39 31 7 255 
Task40 63 127 15 
Task41 255 31 255 
Task42 63 255 63 
Task43 15 31 127 
Task44 15 255 31 
Task45 63 255 1 
Task46 63 127 255 
Task47 15 7 255 
Task48 15 255 255 
Task49 1 7 255 
Task50 255 31 255 
Task51 3 255 255 
Task52 7 63 63 
Task53 3 31 7 
Task54 255 15 31 
Task55 63 15 255 
Task56 3 31 255 
Task57 255 31 63 
Task58 63 1 7 
Task59 255 31 31 
Task60 255 127 255 
Task61 15 31 255 
Task62 127 7 31 
Task63 255 3 63 
Task64 31 127 255 
Task65 63 31 7 
Task66 15 31 31 
Task67 15 255 7 
Task68 63 31 255 
Task69 31 255 63 
Task70 63 255 15 
Task71 1 255 31 
Task72 3 15 63 
Task73 31 255 3 
Task74 255 15 31 
Task75 15 127 127 
Task76 1 31 255 
Task77 63 127 63 
Task78 15 7 255 
Task79 1 63 255 
Task80 255 7 15 
Task81 255 15 15 
Task82 255 15 31 
Task83 127 127 255 
Task84 31 31 255 
Task85 255 1 31 
Task86 3 255 127 
Task87 255 15 7 
Task88 63 63 127 
Task89 63 7 15 
Task90 255 63 15 
Task91 63 255 15 
Task92 127 63 255 
Task93 3 255 7 
Task94 7 127 127 
Task95 15 7 255 
Task96 15 127 63 
Task97 15 31 255 
Task98 31 15 31 
Task99 15 15 31 
