files/tasks_parameters/ExAp01/sample8.txt 0.871248 3.15778 1.5595 0.203411 7.71947
files/tasks_parameters/ExAp01/sample12.txt 0.835502 3.94962 1.6705 0.207924 7.89073
files/tasks_parameters/ExAp01/sample2.txt 0.852392 3.78275 1.74131 0.200098 7.59373
files/tasks_parameters/ExAp01/sample44.txt 0.798571 3.59825 1.65317 0.200005 7.59022
files/tasks_parameters/ExAp01/sample27.txt 0.789311 3.45743 1.5148 0.182129 6.9118
files/tasks_parameters/ExAp01/sample17.txt 0.716122 2.77299 1.44514 0.14646 5.55816
files/tasks_parameters/ExAp01/sample9.txt 0.733551 2.99933 1.451 0.177444 6.734
files/tasks_parameters/ExAp01/sample34.txt 0.755549 3.02928 1.58429 0.157984 5.9955
files/tasks_parameters/ExAp01/sample40.txt 0.694342 3.86889 1.52122 0.168379 6.39001
files/tasks_parameters/ExAp01/sample33.txt 0.987164 3.63695 1.71905 0.199765 7.5811
files/tasks_parameters/ExAp01/sample48.txt 0.690464 3.39061 1.49062 0.154728 5.87195
files/tasks_parameters/ExAp01/sample29.txt 0.851681 3.30472 1.38739 0.223868 8.49582
files/tasks_parameters/ExAp01/sample11.txt 0.750124 3.10585 1.41612 0.174079 6.6063
files/tasks_parameters/ExAp01/sample14.txt 0.626629 2.70971 1.43432 0.162214 6.15606
files/tasks_parameters/ExAp01/sample0.txt 0.787267 3.6937 1.5439 0.18367 6.97029
files/tasks_parameters/ExAp01/sample7.txt 0.680066 2.70501 1.42221 0.143463 5.44445
files/tasks_parameters/ExAp01/sample23.txt 0.715626 3.2697 1.57822 0.181448 6.88599
files/tasks_parameters/ExAp01/sample13.txt 0.897782 3.84225 1.67648 0.198247 7.5235
files/tasks_parameters/ExAp01/sample22.txt 0.640117 3.09569 1.56121 0.148796 5.64683
files/tasks_parameters/ExAp01/sample25.txt 0.634262 2.73966 1.5007 0.148149 5.62226
files/tasks_parameters/ExAp01/sample36.txt 0.534861 2.85948 1.28553 0.130042 4.93512
files/tasks_parameters/ExAp01/sample46.txt 0.910047 3.58643 1.69998 0.210103 7.97342
files/tasks_parameters/ExAp01/sample31.txt 0.707352 3.4832 1.53782 0.1722 6.535
files/tasks_parameters/ExAp01/sample37.txt 0.794318 3.95293 1.50705 0.171701 6.51607
files/tasks_parameters/ExAp01/sample16.txt 0.69628 3.31216 1.30115 0.150249 5.70197
files/tasks_parameters/ExAp01/sample10.txt 0.71352 3.17098 1.61789 0.153776 5.83583
files/tasks_parameters/ExAp01/sample39.txt 0.738761 3.26617 1.44406 0.165669 6.28715
files/tasks_parameters/ExAp01/sample19.txt 0.863346 3.63532 1.52509 0.196094 7.4418
files/tasks_parameters/ExAp01/sample20.txt 0.668107 3.20793 1.25367 0.147335 5.59139
files/tasks_parameters/ExAp01/sample43.txt 0.59322 3.11551 1.4202 0.150644 5.71697
files/tasks_parameters/ExAp01/sample32.txt 0.678516 3.5311 1.42482 0.168744 6.40386
files/tasks_parameters/ExAp01/sample45.txt 0.857079 3.80283 1.48324 0.19807 7.51679
files/tasks_parameters/ExAp01/sample26.txt 0.707986 3.21645 1.29701 0.166061 6.30204
files/tasks_parameters/ExAp01/sample5.txt 0.826143 3.5889 1.52559 0.178903 6.7894
files/tasks_parameters/ExAp01/sample21.txt 0.822634 2.75242 1.55936 0.19512 7.40484
files/tasks_parameters/ExAp01/sample38.txt 0.674628 3.31563 1.37515 0.166157 6.30567
files/tasks_parameters/ExAp01/sample1.txt 0.870319 3.74964 1.51696 0.19701 7.47654
files/tasks_parameters/ExAp01/sample15.txt 0.75161 3.32916 1.48508 0.180707 6.85787
files/tasks_parameters/ExAp01/sample24.txt 0.717734 3.45951 1.59549 0.16529 6.27279
files/tasks_parameters/ExAp01/sample3.txt 1.02762 3.70014 1.70809 0.237107 8.99824
files/tasks_parameters/ExAp01/sample6.txt 0.841304 3.33003 1.58323 0.184714 7.00993
files/tasks_parameters/ExAp01/sample30.txt 0.934441 4.1841 1.4861 0.239623 9.09372
files/tasks_parameters/ExAp01/sample42.txt 0.829266 3.43221 1.70276 0.177383 6.7317
files/tasks_parameters/ExAp01/sample4.txt 0.852535 3.72477 1.6136 0.196448 7.45523
files/tasks_parameters/ExAp01/sample28.txt 0.735396 3.11323 1.45032 0.158819 6.0272
files/tasks_parameters/ExAp01/sample18.txt 0.62389 3.47418 1.45209 0.149064 5.65699
files/tasks_parameters/ExAp01/sample35.txt 0.710954 4.57086 1.49394 0.185031 7.02194
files/tasks_parameters/ExAp01/sample47.txt 0.68328 3.13768 1.52397 0.16417 6.23027
files/tasks_parameters/ExAp01/sample49.txt 0.671129 3.13288 1.49657 0.156154 5.92607
files/tasks_parameters/ExAp01/sample41.txt 0.626551 2.81964 1.49636 0.150876 5.72576
