files/tasks_parameters/ExAp01/sample8.txt 0.821536 3.15778 1.5595 0.203411 7.0626
files/tasks_parameters/ExAp01/sample12.txt 0.757372 3.94962 1.6705 0.207924 7.21929
files/tasks_parameters/ExAp01/sample2.txt 0.790059 3.78275 1.74131 0.200098 6.94756
files/tasks_parameters/ExAp01/sample44.txt 0.748098 3.59825 1.65317 0.200005 6.94435
files/tasks_parameters/ExAp01/sample27.txt 0.72113 3.45743 1.5148 0.182129 6.32365
files/tasks_parameters/ExAp01/sample17.txt 0.652496 2.77299 1.44514 0.14646 5.08521
files/tasks_parameters/ExAp01/sample9.txt 0.684395 2.99933 1.451 0.177444 6.16099
files/tasks_parameters/ExAp01/sample34.txt 0.569504 3.02928 1.58429 0.157984 5.48533
files/tasks_parameters/ExAp01/sample40.txt 0.665242 3.86889 1.52122 0.168379 5.84627
files/tasks_parameters/ExAp01/sample33.txt 0.76793 3.63695 1.71905 0.199765 6.93601
files/tasks_parameters/ExAp01/sample48.txt 0.628533 3.39061 1.49062 0.154728 5.37229
files/tasks_parameters/ExAp01/sample29.txt 0.722162 3.30472 1.38739 0.223868 7.77289
files/tasks_parameters/ExAp01/sample11.txt 0.673796 3.10585 1.41612 0.174079 6.04415
files/tasks_parameters/ExAp01/sample14.txt 0.584183 2.70971 1.43432 0.162214 5.63222
files/tasks_parameters/ExAp01/sample0.txt 0.726051 3.6937 1.5439 0.18367 6.37717
files/tasks_parameters/ExAp01/sample7.txt 0.608559 2.70501 1.42221 0.143463 4.98117
files/tasks_parameters/ExAp01/sample23.txt 0.677865 3.2697 1.57822 0.181448 6.30004
files/tasks_parameters/ExAp01/sample13.txt 0.737865 3.84225 1.67648 0.198247 6.8833
files/tasks_parameters/ExAp01/sample22.txt 0.580892 3.09569 1.56121 0.148796 5.16633
files/tasks_parameters/ExAp01/sample25.txt 0.572538 2.73966 1.5007 0.148149 5.14384
files/tasks_parameters/ExAp01/sample36.txt 0.512563 2.85948 1.28553 0.130042 4.51518
files/tasks_parameters/ExAp01/sample46.txt 0.816697 3.58643 1.69998 0.210103 7.29494
files/tasks_parameters/ExAp01/sample31.txt 0.596394 3.4832 1.53782 0.1722 5.97892
files/tasks_parameters/ExAp01/sample37.txt 0.686211 3.95293 1.50705 0.171701 5.9616
files/tasks_parameters/ExAp01/sample16.txt 0.646089 3.31216 1.30115 0.150249 5.21677
files/tasks_parameters/ExAp01/sample10.txt 0.654624 3.17098 1.61789 0.153776 5.33924
files/tasks_parameters/ExAp01/sample39.txt 0.675469 3.26617 1.44406 0.165669 5.75216
files/tasks_parameters/ExAp01/sample19.txt 0.841738 3.63532 1.52509 0.196094 6.80856
files/tasks_parameters/ExAp01/sample20.txt 0.53651 3.20793 1.25367 0.147335 5.11561
files/tasks_parameters/ExAp01/sample43.txt 0.559563 3.11551 1.4202 0.150644 5.2305
files/tasks_parameters/ExAp01/sample32.txt 0.613677 3.5311 1.42482 0.168744 5.85894
files/tasks_parameters/ExAp01/sample45.txt 0.791653 3.80283 1.48324 0.19807 6.87717
files/tasks_parameters/ExAp01/sample26.txt 0.640266 3.21645 1.29701 0.166061 5.76578
files/tasks_parameters/ExAp01/sample5.txt 0.729192 3.5889 1.52559 0.178903 6.21167
files/tasks_parameters/ExAp01/sample21.txt 0.771153 2.75242 1.55936 0.19512 6.77474
files/tasks_parameters/ExAp01/sample38.txt 0.660341 3.31563 1.37515 0.166157 5.7691
files/tasks_parameters/ExAp01/sample1.txt 0.851251 3.74964 1.51696 0.19701 6.84034
files/tasks_parameters/ExAp01/sample15.txt 0.756682 3.32916 1.48508 0.180707 6.27431
files/tasks_parameters/ExAp01/sample24.txt 0.695512 3.45951 1.59549 0.16529 5.73902
files/tasks_parameters/ExAp01/sample3.txt 0.871385 3.70014 1.70809 0.237107 8.23256
files/tasks_parameters/ExAp01/sample6.txt 0.717893 3.33003 1.58323 0.184714 6.41344
files/tasks_parameters/ExAp01/sample30.txt 0.904341 4.1841 1.4861 0.239623 8.31991
files/tasks_parameters/ExAp01/sample42.txt 0.697358 3.43221 1.70276 0.177383 6.15888
files/tasks_parameters/ExAp01/sample4.txt 0.791912 3.72477 1.6136 0.196448 6.82084
files/tasks_parameters/ExAp01/sample28.txt 0.634243 3.11323 1.45032 0.158819 5.51433
files/tasks_parameters/ExAp01/sample18.txt 0.621062 3.47418 1.45209 0.149064 5.17562
files/tasks_parameters/ExAp01/sample35.txt 0.699783 4.57086 1.49394 0.185031 6.42442
files/tasks_parameters/ExAp01/sample47.txt 0.639671 3.13768 1.52397 0.16417 5.70012
files/tasks_parameters/ExAp01/sample49.txt 0.601935 3.13288 1.49657 0.156154 5.4218
files/tasks_parameters/ExAp01/sample41.txt 0.581338 2.81964 1.49636 0.150876 5.23854
