files/tasks_parameters/ExAp01/sample8.txt 1.12486 6.77015 2.19458 0.288816 6.25203
files/tasks_parameters/ExAp01/sample12.txt 1.33907 9.58351 2.46081 0.337498 7.30585
files/tasks_parameters/ExAp01/sample2.txt 1.25535 8.44418 2.50701 0.319127 6.90817
files/tasks_parameters/ExAp01/sample44.txt 1.09968 6.96299 2.23089 0.28229 6.11076
files/tasks_parameters/ExAp01/sample27.txt 1.12772 7.74306 2.16676 0.28602 6.19149
files/tasks_parameters/ExAp01/sample17.txt 1.1494 7.35053 2.25579 0.292348 6.32847
files/tasks_parameters/ExAp01/sample9.txt 1.12099 6.89392 2.21068 0.282399 6.1131
files/tasks_parameters/ExAp01/sample34.txt 1.16903 6.62788 2.3772 0.297742 6.44523
files/tasks_parameters/ExAp01/sample40.txt 1.11931 7.75686 2.17534 0.285619 6.18282
files/tasks_parameters/ExAp01/sample33.txt 1.32199 8.14826 2.6463 0.338073 7.31829
files/tasks_parameters/ExAp01/sample48.txt 1.13356 7.64107 2.14272 0.270011 5.84495
files/tasks_parameters/ExAp01/sample29.txt 1.11979 7.139 1.93769 0.286306 6.19768
files/tasks_parameters/ExAp01/sample11.txt 1.09504 6.88688 2.12981 0.280008 6.06136
files/tasks_parameters/ExAp01/sample14.txt 0.978363 6.11983 1.97599 0.247458 5.35673
files/tasks_parameters/ExAp01/sample0.txt 1.13876 8.2738 2.14256 0.289132 6.25885
files/tasks_parameters/ExAp01/sample7.txt 1.07657 6.87011 2.05821 0.269886 5.84223
files/tasks_parameters/ExAp01/sample23.txt 1.14505 6.52032 2.38087 0.291712 6.3147
files/tasks_parameters/ExAp01/sample13.txt 1.15778 8.73247 2.33415 0.295393 6.39438
files/tasks_parameters/ExAp01/sample22.txt 1.10585 6.9777 2.28948 0.283979 6.14731
files/tasks_parameters/ExAp01/sample25.txt 1.0544 6.23444 2.2122 0.267298 5.78621
files/tasks_parameters/ExAp01/sample36.txt 1.01421 6.6174 1.9458 0.253823 5.49451
files/tasks_parameters/ExAp01/sample46.txt 1.28244 7.42369 2.49128 0.327273 7.08449
files/tasks_parameters/ExAp01/sample31.txt 1.00722 7.22028 2.13584 0.25377 5.49337
files/tasks_parameters/ExAp01/sample37.txt 1.23071 8.90704 2.16981 0.295708 6.40121
files/tasks_parameters/ExAp01/sample16.txt 1.03286 8.18243 1.88294 0.24945 5.39985
files/tasks_parameters/ExAp01/sample10.txt 1.12251 6.96646 2.31217 0.285748 6.1856
files/tasks_parameters/ExAp01/sample39.txt 0.992012 6.4161 1.97266 0.251967 5.45434
files/tasks_parameters/ExAp01/sample19.txt 1.26159 8.16711 2.23199 0.308463 6.67731
files/tasks_parameters/ExAp01/sample20.txt 1.00929 7.28549 1.88944 0.25994 5.62693
files/tasks_parameters/ExAp01/sample43.txt 1.00651 6.86804 2.00142 0.25616 5.54511
files/tasks_parameters/ExAp01/sample32.txt 1.10716 8.15663 2.12995 0.281726 6.09855
files/tasks_parameters/ExAp01/sample45.txt 1.09957 7.75184 2.10599 0.274935 5.95153
files/tasks_parameters/ExAp01/sample26.txt 1.07352 7.4944 1.88956 0.267248 5.78513
files/tasks_parameters/ExAp01/sample5.txt 1.12336 8.08362 2.09961 0.28454 6.15946
files/tasks_parameters/ExAp01/sample21.txt 1.03572 6.11814 2.17119 0.26143 5.65918
files/tasks_parameters/ExAp01/sample38.txt 1.04256 7.761 1.96293 0.263659 5.70744
files/tasks_parameters/ExAp01/sample1.txt 1.15001 7.83752 2.13261 0.289228 6.26094
files/tasks_parameters/ExAp01/sample15.txt 1.12114 7.37971 2.12057 0.285825 6.18728
files/tasks_parameters/ExAp01/sample24.txt 1.16356 8.28531 2.25272 0.296628 6.42113
files/tasks_parameters/ExAp01/sample3.txt 1.19523 7.33359 2.39135 0.305084 6.60418
files/tasks_parameters/ExAp01/sample6.txt 1.11388 7.09894 2.24425 0.281804 6.10023
files/tasks_parameters/ExAp01/sample30.txt 1.21392 8.17669 2.03701 0.299204 6.47689
files/tasks_parameters/ExAp01/sample42.txt 1.17392 7.70416 2.42413 0.29743 6.43848
files/tasks_parameters/ExAp01/sample4.txt 1.22111 7.41691 2.36261 0.307803 6.66302
files/tasks_parameters/ExAp01/sample28.txt 1.03936 7.0562 2.07657 0.266428 5.76738
files/tasks_parameters/ExAp01/sample18.txt 1.09028 7.60139 2.1377 0.268016 5.80176
files/tasks_parameters/ExAp01/sample35.txt 1.26923 9.66795 2.28028 0.32244 6.97987
files/tasks_parameters/ExAp01/sample47.txt 0.977894 6.84842 2.12104 0.251655 5.44758
files/tasks_parameters/ExAp01/sample49.txt 0.999267 7.1497 2.11412 0.255889 5.53924
files/tasks_parameters/ExAp01/sample41.txt 1.02816 6.59911 2.07359 0.265885 5.75564
