files/tasks_parameters/ExAp01/sample8.txt 1.86238 6.77015 2.19458 0.288816 4.94443
files/tasks_parameters/ExAp01/sample12.txt 2.20353 9.58351 2.46081 0.337498 5.77785
files/tasks_parameters/ExAp01/sample2.txt 2.0704 8.44418 2.50701 0.319127 5.46334
files/tasks_parameters/ExAp01/sample44.txt 1.8299 6.96299 2.23089 0.28229 4.83271
files/tasks_parameters/ExAp01/sample27.txt 1.85259 7.74306 2.16676 0.28602 4.89655
files/tasks_parameters/ExAp01/sample17.txt 1.89877 7.35053 2.25579 0.292348 5.00488
files/tasks_parameters/ExAp01/sample9.txt 1.83619 6.89392 2.21068 0.282399 4.83456
files/tasks_parameters/ExAp01/sample34.txt 1.93845 6.62788 2.3772 0.297742 5.09723
files/tasks_parameters/ExAp01/sample40.txt 1.86128 7.75686 2.17534 0.285619 4.8897
files/tasks_parameters/ExAp01/sample33.txt 2.18538 8.14826 2.6463 0.338073 5.78769
files/tasks_parameters/ExAp01/sample48.txt 1.74373 7.64107 2.14272 0.270011 4.62249
files/tasks_parameters/ExAp01/sample29.txt 1.82878 7.139 1.93769 0.286306 4.90145
files/tasks_parameters/ExAp01/sample11.txt 1.82067 6.88688 2.12981 0.280008 4.79364
files/tasks_parameters/ExAp01/sample14.txt 1.6237 6.11983 1.97599 0.247458 4.23638
files/tasks_parameters/ExAp01/sample0.txt 1.86989 8.2738 2.14256 0.289132 4.94983
files/tasks_parameters/ExAp01/sample7.txt 1.74756 6.87011 2.05821 0.269886 4.62034
files/tasks_parameters/ExAp01/sample23.txt 1.89869 6.52032 2.38087 0.291712 4.99399
files/tasks_parameters/ExAp01/sample13.txt 1.92934 8.73247 2.33415 0.295393 5.05701
files/tasks_parameters/ExAp01/sample22.txt 1.81597 6.9777 2.28948 0.283979 4.86162
files/tasks_parameters/ExAp01/sample25.txt 1.73736 6.23444 2.2122 0.267298 4.57604
files/tasks_parameters/ExAp01/sample36.txt 1.63777 6.6174 1.9458 0.253823 4.34535
files/tasks_parameters/ExAp01/sample46.txt 2.11846 7.42369 2.49128 0.327273 5.60279
files/tasks_parameters/ExAp01/sample31.txt 1.66181 7.22028 2.13584 0.25377 4.34444
files/tasks_parameters/ExAp01/sample37.txt 1.89747 8.90704 2.16981 0.295708 5.06241
files/tasks_parameters/ExAp01/sample16.txt 1.61108 8.18243 1.88294 0.24945 4.27049
files/tasks_parameters/ExAp01/sample10.txt 1.83684 6.96646 2.31217 0.285748 4.8919
files/tasks_parameters/ExAp01/sample39.txt 1.64024 6.4161 1.97266 0.251967 4.31358
files/tasks_parameters/ExAp01/sample19.txt 2.0091 8.16711 2.23199 0.308463 5.28077
files/tasks_parameters/ExAp01/sample20.txt 1.68122 7.28549 1.88944 0.25994 4.45007
files/tasks_parameters/ExAp01/sample43.txt 1.64799 6.86804 2.00142 0.25616 4.38537
files/tasks_parameters/ExAp01/sample32.txt 1.82091 8.15663 2.12995 0.281726 4.82305
files/tasks_parameters/ExAp01/sample45.txt 1.77971 7.75184 2.10599 0.274935 4.70678
files/tasks_parameters/ExAp01/sample26.txt 1.72907 7.4944 1.88956 0.267248 4.57519
files/tasks_parameters/ExAp01/sample5.txt 1.85477 8.08362 2.09961 0.28454 4.87122
files/tasks_parameters/ExAp01/sample21.txt 1.71268 6.11814 2.17119 0.26143 4.47558
files/tasks_parameters/ExAp01/sample38.txt 1.72484 7.761 1.96293 0.263659 4.51374
files/tasks_parameters/ExAp01/sample1.txt 1.87737 7.83752 2.13261 0.289228 4.95148
files/tasks_parameters/ExAp01/sample15.txt 1.85873 7.37971 2.12057 0.285825 4.89323
files/tasks_parameters/ExAp01/sample24.txt 1.91508 8.28531 2.25272 0.296628 5.07817
files/tasks_parameters/ExAp01/sample3.txt 1.96689 7.33359 2.39135 0.305084 5.22293
files/tasks_parameters/ExAp01/sample6.txt 1.84127 7.09894 2.24425 0.281804 4.82438
files/tasks_parameters/ExAp01/sample30.txt 1.95242 8.17669 2.03701 0.299204 5.12227
files/tasks_parameters/ExAp01/sample42.txt 1.9358 7.70416 2.42413 0.29743 5.09189
files/tasks_parameters/ExAp01/sample4.txt 1.98747 7.41691 2.36261 0.307803 5.26947
files/tasks_parameters/ExAp01/sample28.txt 1.71286 7.0562 2.07657 0.266428 4.56115
files/tasks_parameters/ExAp01/sample18.txt 1.72076 7.60139 2.1377 0.268016 4.58833
files/tasks_parameters/ExAp01/sample35.txt 2.07705 9.66795 2.28028 0.32244 5.52005
files/tasks_parameters/ExAp01/sample47.txt 1.63757 6.84842 2.12104 0.251655 4.30823
files/tasks_parameters/ExAp01/sample49.txt 1.65111 7.1497 2.11412 0.255889 4.38072
files/tasks_parameters/ExAp01/sample41.txt 1.73152 6.59911 2.07359 0.265885 4.55186
