files/tasks_parameters/ExAp01/sample8.txt 1.13727 6.77015 2.19458 0.288816 9.96005
files/tasks_parameters/ExAp01/sample12.txt 1.20147 9.58351 2.46081 0.337498 11.6389
files/tasks_parameters/ExAp01/sample2.txt 1.11566 8.44418 2.50701 0.319127 11.0053
files/tasks_parameters/ExAp01/sample44.txt 0.999341 6.96299 2.23089 0.28229 9.735
files/tasks_parameters/ExAp01/sample27.txt 1.14865 7.74306 2.16676 0.28602 9.86361
files/tasks_parameters/ExAp01/sample17.txt 1.079 7.35053 2.25579 0.292348 10.0818
files/tasks_parameters/ExAp01/sample9.txt 1.05318 6.89392 2.21068 0.282399 9.73874
files/tasks_parameters/ExAp01/sample34.txt 1.04971 6.62788 2.3772 0.297742 10.2678
files/tasks_parameters/ExAp01/sample40.txt 1.08197 7.75686 2.17534 0.285619 9.8498
files/tasks_parameters/ExAp01/sample33.txt 1.24821 8.14826 2.6463 0.338073 11.6587
files/tasks_parameters/ExAp01/sample48.txt 1.00535 7.64107 2.14272 0.270011 9.31154
files/tasks_parameters/ExAp01/sample29.txt 0.986618 7.139 1.93769 0.286306 9.87347
files/tasks_parameters/ExAp01/sample11.txt 1.08456 6.88688 2.12981 0.280008 9.6563
files/tasks_parameters/ExAp01/sample14.txt 0.871811 6.11983 1.97599 0.247458 8.53376
files/tasks_parameters/ExAp01/sample0.txt 1.03332 8.2738 2.14256 0.289132 9.97093
files/tasks_parameters/ExAp01/sample7.txt 1.00799 6.87011 2.05821 0.269886 9.30721
files/tasks_parameters/ExAp01/sample23.txt 1.05775 6.52032 2.38087 0.291712 10.0599
files/tasks_parameters/ExAp01/sample13.txt 1.13232 8.73247 2.33415 0.295393 10.1868
files/tasks_parameters/ExAp01/sample22.txt 1.01389 6.9777 2.28948 0.283979 9.79324
files/tasks_parameters/ExAp01/sample25.txt 0.947671 6.23444 2.2122 0.267298 9.21796
files/tasks_parameters/ExAp01/sample36.txt 0.916569 6.6174 1.9458 0.253823 8.75327
files/tasks_parameters/ExAp01/sample46.txt 1.27813 7.42369 2.49128 0.327273 11.2863
files/tasks_parameters/ExAp01/sample31.txt 0.934544 7.22028 2.13584 0.25377 8.75144
files/tasks_parameters/ExAp01/sample37.txt 1.1532 8.90704 2.16981 0.295708 10.1977
files/tasks_parameters/ExAp01/sample16.txt 0.960573 8.18243 1.88294 0.24945 8.60246
files/tasks_parameters/ExAp01/sample10.txt 1.08057 6.96646 2.31217 0.285748 9.85423
files/tasks_parameters/ExAp01/sample39.txt 0.969056 6.4161 1.97266 0.251967 8.68926
files/tasks_parameters/ExAp01/sample19.txt 1.16147 8.16711 2.23199 0.308463 10.6376
files/tasks_parameters/ExAp01/sample20.txt 0.894749 7.28549 1.88944 0.25994 8.96422
files/tasks_parameters/ExAp01/sample43.txt 0.958144 6.86804 2.00142 0.25616 8.83388
files/tasks_parameters/ExAp01/sample32.txt 1.01157 8.15663 2.12995 0.281726 9.71555
files/tasks_parameters/ExAp01/sample45.txt 1.01015 7.75184 2.10599 0.274935 9.48134
files/tasks_parameters/ExAp01/sample26.txt 0.953082 7.4944 1.88956 0.267248 9.21625
files/tasks_parameters/ExAp01/sample5.txt 1.11553 8.08362 2.09961 0.28454 9.81259
files/tasks_parameters/ExAp01/sample21.txt 0.915158 6.11814 2.17119 0.26143 9.0156
files/tasks_parameters/ExAp01/sample38.txt 1.05521 7.761 1.96293 0.263659 9.09248
files/tasks_parameters/ExAp01/sample1.txt 1.04919 7.83752 2.13261 0.289228 9.97425
files/tasks_parameters/ExAp01/sample15.txt 1.04951 7.37971 2.12057 0.285825 9.85691
files/tasks_parameters/ExAp01/sample24.txt 1.07146 8.28531 2.25272 0.296628 10.2295
files/tasks_parameters/ExAp01/sample3.txt 1.16631 7.33359 2.39135 0.305084 10.5211
files/tasks_parameters/ExAp01/sample6.txt 1.04715 7.09894 2.24425 0.281804 9.71823
files/tasks_parameters/ExAp01/sample30.txt 1.09814 8.17669 2.03701 0.299204 10.3183
files/tasks_parameters/ExAp01/sample42.txt 1.04566 7.70416 2.42413 0.29743 10.2571
files/tasks_parameters/ExAp01/sample4.txt 1.18986 7.41691 2.36261 0.307803 10.6148
files/tasks_parameters/ExAp01/sample28.txt 0.950611 7.0562 2.07657 0.266428 9.18797
files/tasks_parameters/ExAp01/sample18.txt 1.0612 7.60139 2.1377 0.268016 9.24274
files/tasks_parameters/ExAp01/sample35.txt 1.13668 9.66795 2.28028 0.32244 11.1196
files/tasks_parameters/ExAp01/sample47.txt 0.933182 6.84842 2.12104 0.251655 8.6785
files/tasks_parameters/ExAp01/sample49.txt 0.98868 7.1497 2.11412 0.255889 8.82452
files/tasks_parameters/ExAp01/sample41.txt 0.995703 6.59911 2.07359 0.265885 9.16926
