files/tasks_parameters/ExAp01/sample8.txt 1.48689 6.77015 2.19458 0.288816 4.84746
files/tasks_parameters/ExAp01/sample12.txt 1.77461 9.58351 2.46081 0.337498 5.66454
files/tasks_parameters/ExAp01/sample2.txt 1.68413 8.44418 2.50701 0.319127 5.3562
files/tasks_parameters/ExAp01/sample44.txt 1.46415 6.96299 2.23089 0.28229 4.73793
files/tasks_parameters/ExAp01/sample27.txt 1.48071 7.74306 2.16676 0.28602 4.80053
files/tasks_parameters/ExAp01/sample17.txt 1.50374 7.35053 2.25579 0.292348 4.90673
files/tasks_parameters/ExAp01/sample9.txt 1.46521 6.89392 2.21068 0.282399 4.73975
files/tasks_parameters/ExAp01/sample34.txt 1.53393 6.62788 2.3772 0.297742 4.99726
files/tasks_parameters/ExAp01/sample40.txt 1.47764 7.75686 2.17534 0.285619 4.7938
files/tasks_parameters/ExAp01/sample33.txt 1.73978 8.14826 2.6463 0.338073 5.67418
files/tasks_parameters/ExAp01/sample48.txt 1.42341 7.64107 2.14272 0.270011 4.53184
files/tasks_parameters/ExAp01/sample29.txt 1.4723 7.139 1.93769 0.286306 4.80532
files/tasks_parameters/ExAp01/sample11.txt 1.46062 6.88688 2.12981 0.280008 4.69963
files/tasks_parameters/ExAp01/sample14.txt 1.27177 6.11983 1.97599 0.247458 4.1533
files/tasks_parameters/ExAp01/sample0.txt 1.52908 8.2738 2.14256 0.289132 4.85276
files/tasks_parameters/ExAp01/sample7.txt 1.39883 6.87011 2.05821 0.269886 4.52973
files/tasks_parameters/ExAp01/sample23.txt 1.51066 6.52032 2.38087 0.291712 4.89606
files/tasks_parameters/ExAp01/sample13.txt 1.56093 8.73247 2.33415 0.295393 4.95784
files/tasks_parameters/ExAp01/sample22.txt 1.47348 6.9777 2.28948 0.283979 4.76628
files/tasks_parameters/ExAp01/sample25.txt 1.39208 6.23444 2.2122 0.267298 4.4863
files/tasks_parameters/ExAp01/sample36.txt 1.32957 6.6174 1.9458 0.253823 4.26013
files/tasks_parameters/ExAp01/sample46.txt 1.68516 7.42369 2.49128 0.327273 5.49291
files/tasks_parameters/ExAp01/sample31.txt 1.34773 7.22028 2.13584 0.25377 4.25925
files/tasks_parameters/ExAp01/sample37.txt 1.55387 8.90704 2.16981 0.295708 4.96313
files/tasks_parameters/ExAp01/sample16.txt 1.33189 8.18243 1.88294 0.24945 4.18674
files/tasks_parameters/ExAp01/sample10.txt 1.51521 6.96646 2.31217 0.285748 4.79596
files/tasks_parameters/ExAp01/sample39.txt 1.31501 6.4161 1.97266 0.251967 4.22898
files/tasks_parameters/ExAp01/sample19.txt 1.59784 8.16711 2.23199 0.308463 5.17721
files/tasks_parameters/ExAp01/sample20.txt 1.33124 7.28549 1.88944 0.25994 4.3628
files/tasks_parameters/ExAp01/sample43.txt 1.32188 6.86804 2.00142 0.25616 4.29937
files/tasks_parameters/ExAp01/sample32.txt 1.4806 8.15663 2.12995 0.281726 4.72847
files/tasks_parameters/ExAp01/sample45.txt 1.46554 7.75184 2.10599 0.274935 4.61448
files/tasks_parameters/ExAp01/sample26.txt 1.37642 7.4944 1.88956 0.267248 4.48546
files/tasks_parameters/ExAp01/sample5.txt 1.48635 8.08362 2.09961 0.28454 4.77569
files/tasks_parameters/ExAp01/sample21.txt 1.36612 6.11814 2.17119 0.26143 4.38781
files/tasks_parameters/ExAp01/sample38.txt 1.37197 7.761 1.96293 0.263659 4.42522
files/tasks_parameters/ExAp01/sample1.txt 1.50085 7.83752 2.13261 0.289228 4.85437
files/tasks_parameters/ExAp01/sample15.txt 1.49668 7.37971 2.12057 0.285825 4.79726
files/tasks_parameters/ExAp01/sample24.txt 1.52408 8.28531 2.25272 0.296628 4.97858
files/tasks_parameters/ExAp01/sample3.txt 1.57447 7.33359 2.39135 0.305084 5.12051
files/tasks_parameters/ExAp01/sample6.txt 1.4439 7.09894 2.24425 0.281804 4.72977
files/tasks_parameters/ExAp01/sample30.txt 1.61022 8.17669 2.03701 0.299204 5.02181
files/tasks_parameters/ExAp01/sample42.txt 1.55055 7.70416 2.42413 0.29743 4.99203
files/tasks_parameters/ExAp01/sample4.txt 1.61773 7.41691 2.36261 0.307803 5.16613
files/tasks_parameters/ExAp01/sample28.txt 1.37968 7.0562 2.07657 0.266428 4.4717
files/tasks_parameters/ExAp01/sample18.txt 1.38657 7.60139 2.1377 0.268016 4.49835
files/tasks_parameters/ExAp01/sample35.txt 1.68117 9.66795 2.28028 0.32244 5.41179
files/tasks_parameters/ExAp01/sample47.txt 1.31627 6.84842 2.12104 0.251655 4.22375
files/tasks_parameters/ExAp01/sample49.txt 1.32049 7.1497 2.11412 0.255889 4.29481
files/tasks_parameters/ExAp01/sample41.txt 1.36966 6.59911 2.07359 0.265885 4.46259
