0 10
0 11
0 17
0 18
0 19
1 12
1 14
1 18
2 11
2 12
2 13
2 16
2 19
3 11
3 12
3 13
3 14
3 16
3 18
4 10
4 13
4 14
4 15
4 16
4 18
4 19
5 10
5 14
5 15
5 16
6 11
6 12
6 13
6 15
6 18
7 10
7 11
7 13
7 18
7 19
8 10
8 12
8 13
8 14
8 15
8 16
8 18
8 19
9 12
9 14
9 15
9 18
9 19
10 21
10 23
10 24
10 26
10 27
10 27
10 29
10 31
11 23
11 24
11 25
11 31
12 22
12 30
12 31
12 32
13 20
13 22
13 25
13 27
13 29
13 30
13 31
14 20
14 24
14 27
14 29
14 29
14 30
14 31
15 20
15 21
15 24
15 25
15 26
15 27
15 28
15 29
16 23
16 24
16 25
16 25
16 30
16 31
17 23
17 26
17 27
18 20
18 21
18 22
18 23
18 26
18 31
19 21
19 23
19 24
19 25
19 26
19 27
19 29
19 30
20 35
20 35
20 38
20 42
21 33
22 33
22 34
22 37
23 34
23 34
23 35
23 38
23 40
23 41
24 34
24 38
24 40
25 33
25 36
25 40
26 33
26 34
26 38
26 40
27 33
27 34
27 35
27 36
27 38
27 40
28 33
28 35
28 37
28 40
29 35
29 37
29 40
29 41
30 35
31 34
31 35
31 39
31 40
32 34
32 35
32 38
32 40
32 42
33 44
33 45
33 46
33 47
33 48
34 43
34 46
34 46
34 48
35 43
35 44
35 45
35 46
36 45
37 45
37 47
37 48
38 43
38 44
38 47
39 46
39 47
40 44
40 46
40 47
41 46
41 47
41 47
42 44
42 45
42 46
42 47
42 48
43 50
43 52
43 53
43 54
44 51
44 53
44 54
45 49
45 51
46 49
46 52
46 55
47 49
47 51
47 52
48 49
48 51
48 52
48 54
48 55
49 58
49 60
49 62
50 56
50 57
50 58
50 61
52 58
52 60
52 61
53 57
53 58
53 59
53 60
53 61
54 61
55 60
55 61
56 67
56 68
56 69
56 70
56 71
56 72
56 73
56 74
57 64
57 65
57 67
57 68
57 70
57 72
57 73
57 74
58 63
58 64
58 65
58 67
58 68
58 70
58 71
59 65
59 67
59 68
59 69
59 70
59 73
59 74
60 65
60 67
60 69
60 73
60 74
61 64
61 65
61 66
61 68
61 72
61 74
62 66
62 68
62 72
63 76
63 79
63 80
63 81
63 82
63 84
63 85
64 77
64 80
64 81
64 81
64 82
64 84
64 85
65 76
65 81
65 82
65 85
66 76
66 78
66 79
66 81
66 82
67 76
67 80
67 81
67 82
67 82
67 85
68 75
68 76
68 77
68 80
68 82
68 83
69 76
69 77
69 77
69 82
69 83
69 85
70 76
70 77
70 79
70 81
71 75
71 76
71 77
71 81
71 85
72 77
72 85
73 75
73 76
73 77
73 79
73 80
73 83
73 85
74 75
74 77
74 80
74 81
74 82
74 85
75 86
75 88
75 91
76 86
76 87
76 90
77 86
77 90
78 87
78 88
78 90
78 91
78 92
79 86
79 87
79 88
79 89
80 87
80 88
80 90
80 91
81 86
81 88
81 90
82 86
82 88
82 91
82 92
83 86
83 87
83 91
83 92
84 87
84 89
84 91
85 86
85 88
85 91
86 93
86 94
86 95
86 99
87 93
87 95
87 97
88 95
88 96
88 97
88 98
88 99
89 93
89 95
89 99
90 93
90 95
90 96
90 98
90 99
91 93
91 95
91 98
91 99
92 93
92 94
92 99
