0 12
0 13
0 15
1 11
1 12
1 13
1 15
2 11
2 12
2 13
2 15
3 14
3 15
4 11
4 12
4 15
5 12
5 15
5 15
6 12
8 11
8 12
9 11
9 12
10 12
10 14
10 15
11 19
11 20
12 17
12 18
12 19
12 20
13 16
13 17
13 18
14 17
14 18
14 19
15 17
15 18
15 19
16 24
16 25
17 24
17 25
17 26
18 21
18 23
18 25
18 26
19 21
19 22
19 24
19 25
19 26
20 23
20 24
21 27
21 29
21 30
21 33
22 27
22 28
22 29
22 31
22 33
23 27
23 31
23 33
24 27
24 31
24 32
24 33
25 29
25 32
25 33
26 29
26 30
26 32
27 34
27 35
27 38
27 41
28 36
28 38
29 36
29 37
29 38
29 41
29 43
30 37
30 38
30 39
30 40
30 44
31 34
31 36
31 37
31 38
31 40
31 44
32 35
32 37
32 39
32 40
32 40
32 41
32 45
33 34
33 37
33 40
33 41
33 42
33 45
34 46
34 47
34 49
34 50
34 53
34 54
35 49
35 50
35 53
36 48
36 51
37 46
37 47
37 48
37 49
37 53
37 54
38 52
38 53
38 54
39 50
40 49
40 50
40 51
40 54
41 47
41 48
41 49
41 51
41 54
42 47
42 48
42 49
42 51
42 52
43 47
43 48
43 49
43 53
43 54
44 48
44 49
44 49
44 52
44 54
45 49
45 53
46 55
47 55
47 58
47 59
48 55
48 56
48 57
48 58
48 60
49 56
49 56
49 57
49 60
50 56
50 58
51 58
51 58
51 59
52 55
52 59
53 58
54 55
55 63
55 65
55 67
55 68
55 69
55 72
55 73
56 61
56 62
56 63
56 65
56 66
56 67
56 69
56 70
56 71
56 72
56 74
57 61
57 63
57 63
57 65
57 66
57 67
57 69
57 70
57 72
57 74
58 62
58 64
58 65
58 67
58 69
58 70
58 72
59 64
59 65
59 70
59 73
60 63
60 73
61 75
61 78
62 76
62 77
62 78
62 80
63 76
63 78
63 80
63 80
64 78
64 78
64 80
65 76
65 77
65 78
66 77
66 79
67 76
67 78
67 79
68 75
68 76
68 78
69 80
70 80
71 75
71 76
71 77
72 75
72 78
73 76
73 78
73 80
74 77
74 80
74 80
75 81
75 84
75 85
76 81
76 82
76 83
76 84
76 85
77 81
77 82
77 83
77 84
77 85
78 81
78 82
78 83
78 84
79 82
79 83
79 85
80 82
80 85
81 86
81 89
81 90
81 91
82 87
83 91
84 88
84 89
84 91
85 86
85 90
86 92
86 93
86 94
86 98
87 93
87 94
87 95
87 97
88 92
88 94
88 95
88 97
89 92
89 93
89 95
89 98
89 99
90 92
90 93
90 97
90 98
91 92
91 94
91 96
91 97
91 98
