files/tasks_parameters/ExAp01/sample8.txt 1.09046 7.2562 4.46819 0.454772 9.33962
files/tasks_parameters/ExAp01/sample12.txt 1.62952 9.70908 5.28286 0.618515 12.7024
files/tasks_parameters/ExAp01/sample2.txt 1.45288 8.14159 5.7401 0.620531 12.7438
files/tasks_parameters/ExAp01/sample44.txt 1.35997 7.25164 5.75904 0.557631 11.452
files/tasks_parameters/ExAp01/sample27.txt 1.3183 8.10944 5.64946 0.564878 11.6009
files/tasks_parameters/ExAp01/sample17.txt 1.25183 7.11225 5.46658 0.527183 10.8267
files/tasks_parameters/ExAp01/sample9.txt 1.19709 7.62559 5.37813 0.517277 10.6233
files/tasks_parameters/ExAp01/sample34.txt 1.2448 7.04587 5.93037 0.497709 10.2214
files/tasks_parameters/ExAp01/sample40.txt 1.201 8.03037 5.123 0.502383 10.3174
files/tasks_parameters/ExAp01/sample33.txt 1.6158 9.22935 5.92956 0.659262 13.5392
files/tasks_parameters/ExAp01/sample48.txt 1.1515 8.12182 5.1577 0.452491 9.29276
files/tasks_parameters/ExAp01/sample29.txt 1.53787 8.06133 5.12331 0.650652 13.3624
files/tasks_parameters/ExAp01/sample11.txt 1.35889 7.63104 5.37897 0.563302 11.5685
files/tasks_parameters/ExAp01/sample14.txt 1.13168 6.66403 4.66322 0.471536 9.6839
files/tasks_parameters/ExAp01/sample0.txt 1.62006 9.3266 4.98971 0.6311 12.9608
files/tasks_parameters/ExAp01/sample7.txt 1.2678 7.34863 5.19436 0.515527 10.5873
files/tasks_parameters/ExAp01/sample23.txt 1.40203 6.68564 5.54308 0.588617 12.0884
files/tasks_parameters/ExAp01/sample13.txt 1.60664 9.31093 5.35591 0.632849 12.9968
files/tasks_parameters/ExAp01/sample22.txt 1.28633 7.65588 5.04866 0.540336 11.0968
files/tasks_parameters/ExAp01/sample25.txt 1.0295 6.17035 5.0141 0.408296 8.38514
files/tasks_parameters/ExAp01/sample36.txt 1.19007 7.03772 4.66274 0.507647 10.4255
files/tasks_parameters/ExAp01/sample46.txt 1.3517 7.73433 4.79934 0.536843 11.0251
files/tasks_parameters/ExAp01/sample31.txt 1.16998 6.96928 5.16482 0.485817 9.97719
files/tasks_parameters/ExAp01/sample37.txt 1.594 9.52443 5.74224 0.65799 13.5131
files/tasks_parameters/ExAp01/sample16.txt 1.34561 8.63521 4.97261 0.516328 10.6038
files/tasks_parameters/ExAp01/sample10.txt 1.39877 7.28353 6.16876 0.615651 12.6436
files/tasks_parameters/ExAp01/sample39.txt 1.14417 6.3405 4.6137 0.468873 9.62921
files/tasks_parameters/ExAp01/sample19.txt 1.40129 8.85528 5.22306 0.622152 12.7771
files/tasks_parameters/ExAp01/sample20.txt 1.39217 8.1141 5.21177 0.586994 12.055
files/tasks_parameters/ExAp01/sample43.txt 1.30825 7.21373 5.6367 0.53748 11.0382
files/tasks_parameters/ExAp01/sample32.txt 1.46572 8.30592 5.38137 0.593918 12.1973
files/tasks_parameters/ExAp01/sample45.txt 1.29615 7.94069 4.96323 0.547271 11.2393
files/tasks_parameters/ExAp01/sample26.txt 1.12522 7.57061 4.62637 0.480146 9.86072
files/tasks_parameters/ExAp01/sample5.txt 1.38077 8.0307 5.35681 0.59407 12.2004
files/tasks_parameters/ExAp01/sample21.txt 1.02755 5.87802 4.61744 0.434264 8.91845
files/tasks_parameters/ExAp01/sample38.txt 1.1843 7.66999 4.86632 0.496808 10.2029
files/tasks_parameters/ExAp01/sample1.txt 1.18337 7.21312 4.63213 0.486293 9.98697
files/tasks_parameters/ExAp01/sample15.txt 1.28125 8.02273 5.50855 0.531063 10.9064
files/tasks_parameters/ExAp01/sample24.txt 1.31464 8.66348 5.4905 0.548998 11.2747
files/tasks_parameters/ExAp01/sample3.txt 1.18752 7.74268 4.79918 0.477387 9.80406
files/tasks_parameters/ExAp01/sample6.txt 1.51709 8.57133 5.80157 0.633604 13.0123
files/tasks_parameters/ExAp01/sample30.txt 1.58169 8.18878 5.90888 0.633576 13.0117
files/tasks_parameters/ExAp01/sample42.txt 1.30561 8.57689 5.67253 0.54426 11.1774
files/tasks_parameters/ExAp01/sample4.txt 1.29822 8.40354 4.57985 0.563519 11.573
files/tasks_parameters/ExAp01/sample28.txt 1.11429 6.44114 4.96426 0.449721 9.23589
files/tasks_parameters/ExAp01/sample18.txt 1.36789 8.56363 4.60946 0.543766 11.1673
files/tasks_parameters/ExAp01/sample35.txt 1.93949 11.0387 6.34514 0.761377 15.6363
files/tasks_parameters/ExAp01/sample47.txt 1.32345 7.14493 5.22131 0.545046 11.1936
files/tasks_parameters/ExAp01/sample49.txt 1.29907 6.65996 4.80244 0.498533 10.2383
files/tasks_parameters/ExAp01/sample41.txt 1.18983 7.09069 5.35462 0.497129 10.2095
