files/tasks_parameters/ExAp01/sample8.txt 1.23744 6.77015 2.19458 0.288816 12.9256
files/tasks_parameters/ExAp01/sample12.txt 1.25555 9.58351 2.46081 0.337498 15.1042
files/tasks_parameters/ExAp01/sample2.txt 1.14658 8.44418 2.50701 0.319127 14.2821
files/tasks_parameters/ExAp01/sample44.txt 1.10826 6.96299 2.23089 0.28229 12.6335
files/tasks_parameters/ExAp01/sample27.txt 1.19924 7.74306 2.16676 0.28602 12.8004
files/tasks_parameters/ExAp01/sample17.txt 1.11756 7.35053 2.25579 0.292348 13.0836
files/tasks_parameters/ExAp01/sample9.txt 1.00326 6.89392 2.21068 0.282399 12.6383
files/tasks_parameters/ExAp01/sample34.txt 1.10019 6.62788 2.3772 0.297742 13.325
files/tasks_parameters/ExAp01/sample40.txt 1.12087 7.75686 2.17534 0.285619 12.7825
files/tasks_parameters/ExAp01/sample33.txt 1.33811 8.14826 2.6463 0.338073 15.13
files/tasks_parameters/ExAp01/sample48.txt 1.05352 7.64107 2.14272 0.270011 12.084
files/tasks_parameters/ExAp01/sample29.txt 1.05659 7.139 1.93769 0.286306 12.8132
files/tasks_parameters/ExAp01/sample11.txt 1.06358 6.88688 2.12981 0.280008 12.5314
files/tasks_parameters/ExAp01/sample14.txt 0.939957 6.11983 1.97599 0.247458 11.0746
files/tasks_parameters/ExAp01/sample0.txt 1.14475 8.2738 2.14256 0.289132 12.9397
files/tasks_parameters/ExAp01/sample7.txt 1.05808 6.87011 2.05821 0.269886 12.0783
files/tasks_parameters/ExAp01/sample23.txt 1.11994 6.52032 2.38087 0.291712 13.0551
files/tasks_parameters/ExAp01/sample13.txt 1.13054 8.73247 2.33415 0.295393 13.2199
files/tasks_parameters/ExAp01/sample22.txt 1.09487 6.9777 2.28948 0.283979 12.7091
files/tasks_parameters/ExAp01/sample25.txt 1.00059 6.23444 2.2122 0.267298 11.9625
files/tasks_parameters/ExAp01/sample36.txt 0.965151 6.6174 1.9458 0.253823 11.3595
files/tasks_parameters/ExAp01/sample46.txt 1.27422 7.42369 2.49128 0.327273 14.6466
files/tasks_parameters/ExAp01/sample31.txt 0.913144 7.22028 2.13584 0.25377 11.3571
files/tasks_parameters/ExAp01/sample37.txt 1.2038 8.90704 2.16981 0.295708 13.234
files/tasks_parameters/ExAp01/sample16.txt 0.963326 8.18243 1.88294 0.24945 11.1638
files/tasks_parameters/ExAp01/sample10.txt 1.18544 6.96646 2.31217 0.285748 12.7882
files/tasks_parameters/ExAp01/sample39.txt 1.01016 6.4161 1.97266 0.251967 11.2764
files/tasks_parameters/ExAp01/sample19.txt 1.15536 8.16711 2.23199 0.308463 13.8048
files/tasks_parameters/ExAp01/sample20.txt 0.925579 7.28549 1.88944 0.25994 11.6332
files/tasks_parameters/ExAp01/sample43.txt 0.954575 6.86804 2.00142 0.25616 11.4641
files/tasks_parameters/ExAp01/sample32.txt 1.12279 8.15663 2.12995 0.281726 12.6082
files/tasks_parameters/ExAp01/sample45.txt 1.08511 7.75184 2.10599 0.274935 12.3043
files/tasks_parameters/ExAp01/sample26.txt 0.989113 7.4944 1.88956 0.267248 11.9603
files/tasks_parameters/ExAp01/sample5.txt 1.06731 8.08362 2.09961 0.28454 12.7342
files/tasks_parameters/ExAp01/sample21.txt 0.976489 6.11814 2.17119 0.26143 11.6999
files/tasks_parameters/ExAp01/sample38.txt 1.02507 7.761 1.96293 0.263659 11.7997
files/tasks_parameters/ExAp01/sample1.txt 1.11756 7.83752 2.13261 0.289228 12.944
files/tasks_parameters/ExAp01/sample15.txt 1.11754 7.37971 2.12057 0.285825 12.7917
files/tasks_parameters/ExAp01/sample24.txt 1.16205 8.28531 2.25272 0.296628 13.2752
files/tasks_parameters/ExAp01/sample3.txt 1.25794 7.33359 2.39135 0.305084 13.6536
files/tasks_parameters/ExAp01/sample6.txt 1.00192 7.09894 2.24425 0.281804 12.6117
files/tasks_parameters/ExAp01/sample30.txt 1.19548 8.17669 2.03701 0.299204 13.3904
files/tasks_parameters/ExAp01/sample42.txt 1.19416 7.70416 2.42413 0.29743 13.311
files/tasks_parameters/ExAp01/sample4.txt 1.20795 7.41691 2.36261 0.307803 13.7753
files/tasks_parameters/ExAp01/sample28.txt 1.086 7.0562 2.07657 0.266428 11.9236
files/tasks_parameters/ExAp01/sample18.txt 1.00825 7.60139 2.1377 0.268016 11.9947
files/tasks_parameters/ExAp01/sample35.txt 1.22799 9.66795 2.28028 0.32244 14.4303
files/tasks_parameters/ExAp01/sample47.txt 0.943067 6.84842 2.12104 0.251655 11.2624
files/tasks_parameters/ExAp01/sample49.txt 1.0096 7.1497 2.11412 0.255889 11.4519
files/tasks_parameters/ExAp01/sample41.txt 1.00435 6.59911 2.07359 0.265885 11.8993
