files/tasks_parameters/ExAp01/sample8.txt 1.10317 6.77015 2.19458 0.288816 6.84528
files/tasks_parameters/ExAp01/sample12.txt 1.26236 9.58351 2.46081 0.337498 7.9991
files/tasks_parameters/ExAp01/sample2.txt 1.1641 8.44418 2.50701 0.319127 7.56368
files/tasks_parameters/ExAp01/sample44.txt 1.02034 6.96299 2.23089 0.28229 6.6906
files/tasks_parameters/ExAp01/sample27.txt 1.10948 7.74306 2.16676 0.28602 6.77899
files/tasks_parameters/ExAp01/sample17.txt 1.04544 7.35053 2.25579 0.292348 6.92897
files/tasks_parameters/ExAp01/sample9.txt 1.08321 6.89392 2.21068 0.282399 6.69317
files/tasks_parameters/ExAp01/sample34.txt 1.03904 6.62788 2.3772 0.297742 7.05681
files/tasks_parameters/ExAp01/sample40.txt 0.982652 7.75686 2.17534 0.285619 6.7695
files/tasks_parameters/ExAp01/sample33.txt 1.26638 8.14826 2.6463 0.338073 8.01272
files/tasks_parameters/ExAp01/sample48.txt 0.952115 7.64107 2.14272 0.270011 6.39957
files/tasks_parameters/ExAp01/sample29.txt 1.14117 7.139 1.93769 0.286306 6.78577
files/tasks_parameters/ExAp01/sample11.txt 0.994334 6.88688 2.12981 0.280008 6.63652
files/tasks_parameters/ExAp01/sample14.txt 0.84692 6.11983 1.97599 0.247458 5.86503
files/tasks_parameters/ExAp01/sample0.txt 1.08565 8.2738 2.14256 0.289132 6.85275
files/tasks_parameters/ExAp01/sample7.txt 0.960112 6.87011 2.05821 0.269886 6.39659
files/tasks_parameters/ExAp01/sample23.txt 1.06305 6.52032 2.38087 0.291712 6.91389
files/tasks_parameters/ExAp01/sample13.txt 1.09471 8.73247 2.33415 0.295393 7.00114
files/tasks_parameters/ExAp01/sample22.txt 1.0086 6.9777 2.28948 0.283979 6.73063
files/tasks_parameters/ExAp01/sample25.txt 0.900631 6.23444 2.2122 0.267298 6.33526
files/tasks_parameters/ExAp01/sample36.txt 0.903494 6.6174 1.9458 0.253823 6.01588
files/tasks_parameters/ExAp01/sample46.txt 1.272 7.42369 2.49128 0.327273 7.75674
files/tasks_parameters/ExAp01/sample31.txt 0.933793 7.22028 2.13584 0.25377 6.01463
files/tasks_parameters/ExAp01/sample37.txt 1.10902 8.90704 2.16981 0.295708 7.00862
files/tasks_parameters/ExAp01/sample16.txt 0.920808 8.18243 1.88294 0.24945 5.91224
files/tasks_parameters/ExAp01/sample10.txt 1.06308 6.96646 2.31217 0.285748 6.77255
files/tasks_parameters/ExAp01/sample39.txt 0.895075 6.4161 1.97266 0.251967 5.9719
files/tasks_parameters/ExAp01/sample19.txt 1.20156 8.16711 2.23199 0.308463 7.31092
files/tasks_parameters/ExAp01/sample20.txt 0.94117 7.28549 1.88944 0.25994 6.16087
files/tasks_parameters/ExAp01/sample43.txt 0.912551 6.86804 2.00142 0.25616 6.07129
files/tasks_parameters/ExAp01/sample32.txt 1.0546 8.15663 2.12995 0.281726 6.67723
files/tasks_parameters/ExAp01/sample45.txt 1.09218 7.75184 2.10599 0.274935 6.51627
files/tasks_parameters/ExAp01/sample26.txt 0.96902 7.4944 1.88956 0.267248 6.33408
files/tasks_parameters/ExAp01/sample5.txt 1.06635 8.08362 2.09961 0.28454 6.74393
files/tasks_parameters/ExAp01/sample21.txt 0.981803 6.11814 2.17119 0.26143 6.19618
files/tasks_parameters/ExAp01/sample38.txt 0.958086 7.761 1.96293 0.263659 6.24901
files/tasks_parameters/ExAp01/sample1.txt 1.08551 7.83752 2.13261 0.289228 6.85503
files/tasks_parameters/ExAp01/sample15.txt 1.02533 7.37971 2.12057 0.285825 6.77439
files/tasks_parameters/ExAp01/sample24.txt 1.04726 8.28531 2.25272 0.296628 7.03043
files/tasks_parameters/ExAp01/sample3.txt 1.18582 7.33359 2.39135 0.305084 7.23085
files/tasks_parameters/ExAp01/sample6.txt 0.961901 7.09894 2.24425 0.281804 6.67908
files/tasks_parameters/ExAp01/sample30.txt 1.2632 8.17669 2.03701 0.299204 7.09148
files/tasks_parameters/ExAp01/sample42.txt 1.09199 7.70416 2.42413 0.29743 7.04943
files/tasks_parameters/ExAp01/sample4.txt 1.20746 7.41691 2.36261 0.307803 7.29527
files/tasks_parameters/ExAp01/sample28.txt 1.0148 7.0562 2.07657 0.266428 6.31464
files/tasks_parameters/ExAp01/sample18.txt 0.952739 7.60139 2.1377 0.268016 6.35228
files/tasks_parameters/ExAp01/sample35.txt 1.21298 9.66795 2.28028 0.32244 7.64218
files/tasks_parameters/ExAp01/sample47.txt 0.927358 6.84842 2.12104 0.251655 5.9645
files/tasks_parameters/ExAp01/sample49.txt 0.929173 7.1497 2.11412 0.255889 6.06486
files/tasks_parameters/ExAp01/sample41.txt 0.937439 6.59911 2.07359 0.265885 6.30178
