files/tasks_parameters/ExAp01/sample8.txt 1.08938 3.76817 4.3855 0.450105 22.9133
files/tasks_parameters/ExAp01/sample12.txt 1.53149 5.03638 5.18776 0.610564 31.0817
files/tasks_parameters/ExAp01/sample2.txt 1.46566 4.58991 5.64606 0.613877 31.2504
files/tasks_parameters/ExAp01/sample44.txt 1.29739 3.77401 5.66946 0.551838 28.0922
files/tasks_parameters/ExAp01/sample27.txt 1.30615 4.13937 5.56136 0.55779 28.3952
files/tasks_parameters/ExAp01/sample17.txt 1.20359 3.76163 5.38341 0.520991 26.5219
files/tasks_parameters/ExAp01/sample9.txt 1.2167 3.69889 5.2981 0.511699 26.0489
files/tasks_parameters/ExAp01/sample34.txt 1.13513 3.52435 5.83741 0.49187 25.0394
files/tasks_parameters/ExAp01/sample40.txt 1.16889 4.06185 5.0335 0.496884 25.2947
files/tasks_parameters/ExAp01/sample33.txt 1.55311 4.82091 5.83886 0.651963 33.1892
files/tasks_parameters/ExAp01/sample48.txt 1.12589 4.01134 5.07085 0.447927 22.8024
files/tasks_parameters/ExAp01/sample29.txt 1.5467 4.20847 5.0406 0.643694 32.7683
files/tasks_parameters/ExAp01/sample11.txt 1.31879 3.94699 5.29198 0.557276 28.369
files/tasks_parameters/ExAp01/sample14.txt 1.08636 3.54059 4.58345 0.466713 23.7588
files/tasks_parameters/ExAp01/sample0.txt 1.57236 4.82755 4.90216 0.623551 31.7428
files/tasks_parameters/ExAp01/sample7.txt 1.20189 3.60766 5.11185 0.509566 25.9402
files/tasks_parameters/ExAp01/sample23.txt 1.45392 3.81403 5.45799 0.582911 29.674
files/tasks_parameters/ExAp01/sample13.txt 1.4773 4.8894 5.26818 0.624499 31.7911
files/tasks_parameters/ExAp01/sample22.txt 1.29087 3.76156 4.95746 0.534216 27.1951
files/tasks_parameters/ExAp01/sample25.txt 0.984883 2.94144 4.92622 0.403639 20.5479
files/tasks_parameters/ExAp01/sample36.txt 1.20548 3.56164 4.5806 0.501799 25.5449
files/tasks_parameters/ExAp01/sample46.txt 1.29475 3.84833 4.7121 0.530701 27.0162
files/tasks_parameters/ExAp01/sample31.txt 1.13535 3.764 5.08385 0.479734 24.4216
files/tasks_parameters/ExAp01/sample37.txt 1.52611 4.43254 5.65111 0.65143 33.1621
files/tasks_parameters/ExAp01/sample16.txt 1.30852 4.49741 4.8895 0.509171 25.9201
files/tasks_parameters/ExAp01/sample10.txt 1.40035 3.87086 6.07511 0.60993 31.0494
files/tasks_parameters/ExAp01/sample39.txt 1.09164 3.66299 4.54281 0.463671 23.6039
files/tasks_parameters/ExAp01/sample19.txt 1.40838 3.86694 5.14047 0.615987 31.3578
files/tasks_parameters/ExAp01/sample20.txt 1.36231 4.09945 5.13368 0.580369 29.5446
files/tasks_parameters/ExAp01/sample43.txt 1.15513 3.75825 5.55698 0.530892 27.0259
files/tasks_parameters/ExAp01/sample32.txt 1.51492 4.0352 5.29178 0.587643 29.9149
files/tasks_parameters/ExAp01/sample45.txt 1.23961 3.94578 4.87833 0.541081 27.5446
files/tasks_parameters/ExAp01/sample26.txt 1.11255 3.50998 4.55035 0.474009 24.1302
files/tasks_parameters/ExAp01/sample5.txt 1.38078 4.00994 5.27725 0.587681 29.9168
files/tasks_parameters/ExAp01/sample21.txt 0.933921 2.8974 4.54677 0.430037 21.8917
files/tasks_parameters/ExAp01/sample38.txt 1.17406 3.56689 4.78573 0.492366 25.0647
files/tasks_parameters/ExAp01/sample1.txt 1.15691 3.69002 4.55048 0.481074 24.4898
files/tasks_parameters/ExAp01/sample15.txt 1.20629 3.73223 5.42493 0.524964 26.7241
files/tasks_parameters/ExAp01/sample24.txt 1.29467 4.18053 5.40377 0.542575 27.6207
files/tasks_parameters/ExAp01/sample3.txt 1.15296 3.70547 4.7118 0.470503 23.9517
files/tasks_parameters/ExAp01/sample6.txt 1.40916 4.07521 5.71419 0.626702 31.9033
files/tasks_parameters/ExAp01/sample30.txt 1.49341 3.97446 5.82388 0.626709 31.9036
files/tasks_parameters/ExAp01/sample42.txt 1.28874 4.44207 5.58473 0.537025 27.3381
files/tasks_parameters/ExAp01/sample4.txt 1.36731 3.92181 4.49751 0.556974 28.3537
files/tasks_parameters/ExAp01/sample28.txt 1.06479 3.13496 4.88321 0.444588 22.6325
files/tasks_parameters/ExAp01/sample18.txt 1.2855 3.95301 4.52898 0.537438 27.3591
files/tasks_parameters/ExAp01/sample35.txt 2.03533 5.75923 6.25034 0.752488 38.3066
files/tasks_parameters/ExAp01/sample47.txt 1.16575 3.44018 5.14289 0.540033 27.4913
files/tasks_parameters/ExAp01/sample49.txt 1.161 3.38981 4.72409 0.493041 25.0991
files/tasks_parameters/ExAp01/sample41.txt 1.16119 3.58692 5.27252 0.492391 25.0659
