files/tasks_parameters/ExAp01/sample8.txt 1.16639 6.77015 2.19458 0.288816 9.65456
files/tasks_parameters/ExAp01/sample12.txt 1.28695 9.58351 2.46081 0.337498 11.2819
files/tasks_parameters/ExAp01/sample2.txt 1.22913 8.44418 2.50701 0.319127 10.6678
files/tasks_parameters/ExAp01/sample44.txt 1.1076 6.96299 2.23089 0.28229 9.43641
files/tasks_parameters/ExAp01/sample27.txt 1.23805 7.74306 2.16676 0.28602 9.56108
files/tasks_parameters/ExAp01/sample17.txt 1.11773 7.35053 2.25579 0.292348 9.7726
files/tasks_parameters/ExAp01/sample9.txt 1.03194 6.89392 2.21068 0.282399 9.44004
files/tasks_parameters/ExAp01/sample34.txt 1.11365 6.62788 2.3772 0.297742 9.95292
files/tasks_parameters/ExAp01/sample40.txt 1.05842 7.75686 2.17534 0.285619 9.54769
files/tasks_parameters/ExAp01/sample33.txt 1.33149 8.14826 2.6463 0.338073 11.3011
files/tasks_parameters/ExAp01/sample48.txt 0.926689 7.64107 2.14272 0.270011 9.02594
files/tasks_parameters/ExAp01/sample29.txt 1.04999 7.139 1.93769 0.286306 9.57064
files/tasks_parameters/ExAp01/sample11.txt 1.06842 6.88688 2.12981 0.280008 9.36013
files/tasks_parameters/ExAp01/sample14.txt 1.03627 6.11983 1.97599 0.247458 8.27202
files/tasks_parameters/ExAp01/sample0.txt 1.22305 8.2738 2.14256 0.289132 9.66511
files/tasks_parameters/ExAp01/sample7.txt 1.03978 6.87011 2.05821 0.269886 9.02174
files/tasks_parameters/ExAp01/sample23.txt 1.04977 6.52032 2.38087 0.291712 9.75134
files/tasks_parameters/ExAp01/sample13.txt 1.15863 8.73247 2.33415 0.295393 9.87439
files/tasks_parameters/ExAp01/sample22.txt 1.0887 6.9777 2.28948 0.283979 9.49286
files/tasks_parameters/ExAp01/sample25.txt 0.978905 6.23444 2.2122 0.267298 8.93524
files/tasks_parameters/ExAp01/sample36.txt 0.975884 6.6174 1.9458 0.253823 8.48479
files/tasks_parameters/ExAp01/sample46.txt 1.34953 7.42369 2.49128 0.327273 10.9401
files/tasks_parameters/ExAp01/sample31.txt 0.983956 7.22028 2.13584 0.25377 8.48303
files/tasks_parameters/ExAp01/sample37.txt 1.10142 8.90704 2.16981 0.295708 9.88494
files/tasks_parameters/ExAp01/sample16.txt 1.04927 8.18243 1.88294 0.24945 8.33861
files/tasks_parameters/ExAp01/sample10.txt 1.12734 6.96646 2.31217 0.285748 9.55199
files/tasks_parameters/ExAp01/sample39.txt 0.966199 6.4161 1.97266 0.251967 8.42275
files/tasks_parameters/ExAp01/sample19.txt 1.28597 8.16711 2.23199 0.308463 10.3113
files/tasks_parameters/ExAp01/sample20.txt 0.985449 7.28549 1.88944 0.25994 8.68928
files/tasks_parameters/ExAp01/sample43.txt 0.917285 6.86804 2.00142 0.25616 8.56293
files/tasks_parameters/ExAp01/sample32.txt 1.01637 8.15663 2.12995 0.281726 9.41756
files/tasks_parameters/ExAp01/sample45.txt 1.0328 7.75184 2.10599 0.274935 9.19053
files/tasks_parameters/ExAp01/sample26.txt 0.943405 7.4944 1.88956 0.267248 8.93357
files/tasks_parameters/ExAp01/sample5.txt 1.11875 8.08362 2.09961 0.28454 9.51162
files/tasks_parameters/ExAp01/sample21.txt 0.923392 6.11814 2.17119 0.26143 8.73908
files/tasks_parameters/ExAp01/sample38.txt 0.954749 7.761 1.96293 0.263659 8.8136
files/tasks_parameters/ExAp01/sample1.txt 1.11498 7.83752 2.13261 0.289228 9.66833
files/tasks_parameters/ExAp01/sample15.txt 1.05831 7.37971 2.12057 0.285825 9.55458
files/tasks_parameters/ExAp01/sample24.txt 1.189 8.28531 2.25272 0.296628 9.9157
files/tasks_parameters/ExAp01/sample3.txt 1.26291 7.33359 2.39135 0.305084 10.1984
files/tasks_parameters/ExAp01/sample6.txt 1.00578 7.09894 2.24425 0.281804 9.42016
files/tasks_parameters/ExAp01/sample30.txt 1.31534 8.17669 2.03701 0.299204 10.0018
files/tasks_parameters/ExAp01/sample42.txt 1.15966 7.70416 2.42413 0.29743 9.9425
files/tasks_parameters/ExAp01/sample4.txt 1.33553 7.41691 2.36261 0.307803 10.2892
files/tasks_parameters/ExAp01/sample28.txt 0.995089 7.0562 2.07657 0.266428 8.90616
files/tasks_parameters/ExAp01/sample18.txt 1.0919 7.60139 2.1377 0.268016 8.95925
files/tasks_parameters/ExAp01/sample35.txt 1.30769 9.66795 2.28028 0.32244 10.7785
files/tasks_parameters/ExAp01/sample47.txt 0.977073 6.84842 2.12104 0.251655 8.41232
files/tasks_parameters/ExAp01/sample49.txt 1.01436 7.1497 2.11412 0.255889 8.55386
files/tasks_parameters/ExAp01/sample41.txt 1.03716 6.59911 2.07359 0.265885 8.88802
