0.3075527599999999
Task0 15 7 3 
Task1 1 7 31 
Task2 31 3 3 
Task3 31 15 31 
Task4 15 255 127 
Task5 15 15 31 
Task6 15 3 7 
Task7 15 1 3 
Task8 1 3 15 
Task9 3 1 15 
Task10 15 3 3 
Task11 15 1 3 
Task12 7 15 7 
Task13 15 15 3 
Task14 1 7 15 
Task15 7 1 7 
Task16 15 7 15 
Task17 15 7 7 
Task18 1 3 15 
Task19 3 31 1 
Task20 7 1 15 
Task21 15 3 7 
Task22 7 3 7 
Task23 1 1 15 
Task24 15 3 15 
Task25 15 7 3 
Task26 15 7 1 
Task27 7 7 15 
Task28 7 7 7 
Task29 7 3 7 
Task30 7 15 15 
Task31 15 7 1 
Task32 15 7 7 
Task33 3 1 7 
Task34 7 3 1 
Task35 3 7 1 
Task36 1 15 1 
Task37 7 31 3 
Task38 3 15 1 
Task39 7 15 3 
Task40 15 7 15 
Task41 7 7 7 
Task42 3 31 7 
Task43 7 7 7 
Task44 7 3 3 
Task45 1 15 3 
Task46 7 7 3 
Task47 3 15 1 
Task48 3 7 1 
Task49 7 7 7 
Task50 3 7 15 
Task51 15 7 7 
Task52 7 7 3 
Task53 31 1 15 
Task54 7 1 3 
Task55 7 1 3 
Task56 3 3 7 
Task57 7 3 1 
Task58 7 15 3 
Task59 1 15 1 
Task60 7 31 15 
Task61 3 3 15 
Task62 7 1 7 
Task63 7 3 7 
Task64 15 1 1 
Task65 15 3 3 
Task66 7 15 1 
Task67 15 15 31 
Task68 1 15 3 
Task69 7 7 3 
Task70 15 7 7 
Task71 15 15 7 
Task72 31 7 31 
Task73 15 7 3 
Task74 15 7 3 
Task75 1 1 7 
Task76 7 7 3 
Task77 3 1 15 
Task78 1 7 3 
Task79 7 7 15 
Task80 3 15 7 
Task81 1 7 15 
Task82 7 15 3 
Task83 15 7 31 
Task84 1 7 31 
Task85 1 3 15 
Task86 1 7 7 
Task87 15 15 31 
Task88 7 3 15 
Task89 15 31 7 
Task90 7 3 3 
Task91 15 7 3 
Task92 31 7 15 
Task93 1 15 1 
Task94 63 63 15 
Task95 255 255 15 
Task96 15 3 15 
Task97 7 7 15 
Task98 7 3 15 
Task99 3 31 1 
