files/tasks_parameters/ExAp01/sample8.txt 0.711766 3.15778 1.5595 0.203411 10.91
files/tasks_parameters/ExAp01/sample12.txt 0.774075 3.94962 1.6705 0.207924 11.152
files/tasks_parameters/ExAp01/sample2.txt 0.722966 3.78275 1.74131 0.200098 10.7322
files/tasks_parameters/ExAp01/sample44.txt 0.714323 3.59825 1.65317 0.200005 10.7273
files/tasks_parameters/ExAp01/sample27.txt 0.717348 3.45743 1.5148 0.182129 9.76846
files/tasks_parameters/ExAp01/sample17.txt 0.561524 2.77299 1.44514 0.14646 7.85537
files/tasks_parameters/ExAp01/sample9.txt 0.731344 2.99933 1.451 0.177444 9.51718
files/tasks_parameters/ExAp01/sample34.txt 0.614653 3.02928 1.58429 0.157984 8.47345
files/tasks_parameters/ExAp01/sample40.txt 0.66378 3.86889 1.52122 0.168379 9.03103
files/tasks_parameters/ExAp01/sample33.txt 0.794473 3.63695 1.71905 0.199765 10.7144
files/tasks_parameters/ExAp01/sample48.txt 0.608699 3.39061 1.49062 0.154728 8.29885
files/tasks_parameters/ExAp01/sample29.txt 0.774216 3.30472 1.38739 0.223868 12.0072
files/tasks_parameters/ExAp01/sample11.txt 0.654402 3.10585 1.41612 0.174079 9.3367
files/tasks_parameters/ExAp01/sample14.txt 0.598198 2.70971 1.43432 0.162214 8.70037
files/tasks_parameters/ExAp01/sample0.txt 0.712402 3.6937 1.5439 0.18367 9.85113
files/tasks_parameters/ExAp01/sample7.txt 0.539874 2.70501 1.42221 0.143463 7.69466
files/tasks_parameters/ExAp01/sample23.txt 0.663554 3.2697 1.57822 0.181448 9.73199
files/tasks_parameters/ExAp01/sample13.txt 0.701714 3.84225 1.67648 0.198247 10.633
files/tasks_parameters/ExAp01/sample22.txt 0.61725 3.09569 1.56121 0.148796 7.98068
files/tasks_parameters/ExAp01/sample25.txt 0.534347 2.73966 1.5007 0.148149 7.94595
files/tasks_parameters/ExAp01/sample36.txt 0.509527 2.85948 1.28553 0.130042 6.97482
files/tasks_parameters/ExAp01/sample46.txt 0.758243 3.58643 1.69998 0.210103 11.2689
files/tasks_parameters/ExAp01/sample31.txt 0.645141 3.4832 1.53782 0.1722 9.23594
files/tasks_parameters/ExAp01/sample37.txt 0.68433 3.95293 1.50705 0.171701 9.20918
files/tasks_parameters/ExAp01/sample16.txt 0.608428 3.31216 1.30115 0.150249 8.0586
files/tasks_parameters/ExAp01/sample10.txt 0.632075 3.17098 1.61789 0.153776 8.24779
files/tasks_parameters/ExAp01/sample39.txt 0.637036 3.26617 1.44406 0.165669 8.88564
files/tasks_parameters/ExAp01/sample19.txt 0.721534 3.63532 1.52509 0.196094 10.5175
files/tasks_parameters/ExAp01/sample20.txt 0.527151 3.20793 1.25367 0.147335 7.90233
files/tasks_parameters/ExAp01/sample43.txt 0.616114 3.11551 1.4202 0.150644 8.07981
files/tasks_parameters/ExAp01/sample32.txt 0.680954 3.5311 1.42482 0.168744 9.05059
files/tasks_parameters/ExAp01/sample45.txt 0.78308 3.80283 1.48324 0.19807 10.6235
files/tasks_parameters/ExAp01/sample26.txt 0.613932 3.21645 1.29701 0.166061 8.90669
files/tasks_parameters/ExAp01/sample5.txt 0.689976 3.5889 1.52559 0.178903 9.59548
files/tasks_parameters/ExAp01/sample21.txt 0.698684 2.75242 1.55936 0.19512 10.4653
files/tasks_parameters/ExAp01/sample38.txt 0.621709 3.31563 1.37515 0.166157 8.91182
files/tasks_parameters/ExAp01/sample1.txt 0.727759 3.74964 1.51696 0.19701 10.5666
files/tasks_parameters/ExAp01/sample15.txt 0.642617 3.32916 1.48508 0.180707 9.69224
files/tasks_parameters/ExAp01/sample24.txt 0.636339 3.45951 1.59549 0.16529 8.86535
files/tasks_parameters/ExAp01/sample3.txt 0.902519 3.70014 1.70809 0.237107 12.7172
files/tasks_parameters/ExAp01/sample6.txt 0.666393 3.33003 1.58323 0.184714 9.90716
files/tasks_parameters/ExAp01/sample30.txt 0.86753 4.1841 1.4861 0.239623 12.8522
files/tasks_parameters/ExAp01/sample42.txt 0.688812 3.43221 1.70276 0.177383 9.51393
files/tasks_parameters/ExAp01/sample4.txt 0.765592 3.72477 1.6136 0.196448 10.5365
files/tasks_parameters/ExAp01/sample28.txt 0.620963 3.11323 1.45032 0.158819 8.51826
files/tasks_parameters/ExAp01/sample18.txt 0.56806 3.47418 1.45209 0.149064 7.99504
files/tasks_parameters/ExAp01/sample35.txt 0.711957 4.57086 1.49394 0.185031 9.92412
files/tasks_parameters/ExAp01/sample47.txt 0.607597 3.13768 1.52397 0.16417 8.80526
files/tasks_parameters/ExAp01/sample49.txt 0.595785 3.13288 1.49657 0.156154 8.37532
files/tasks_parameters/ExAp01/sample41.txt 0.612185 2.81964 1.49636 0.150876 8.09223
