0.3075527599999999
Task0 15 7 3 
Task1 1 7 31 
Task2 127 31 31 
Task3 63 31 63 
Task4 15 255 127 
Task5 15 15 31 
Task6 15 3 7 
Task7 15 1 3 
Task8 1 15 255 
Task9 7 1 31 
Task10 15 3 3 
Task11 255 1 15 
Task12 15 31 15 
Task13 31 31 3 
Task14 1 7 15 
Task15 31 1 15 
Task16 63 15 63 
Task17 15 7 7 
Task18 3 15 255 
Task19 3 31 1 
Task20 7 1 15 
Task21 31 3 15 
Task22 7 3 7 
Task23 7 3 255 
Task24 255 31 127 
Task25 63 31 3 
Task26 15 7 1 
Task27 31 15 63 
Task28 127 63 31 
Task29 7 3 7 
Task30 31 31 31 
Task31 31 15 1 
Task32 15 7 7 
Task33 3 1 7 
Task34 255 15 1 
Task35 31 63 3 
Task36 1 127 3 
Task37 7 31 3 
Task38 7 255 3 
Task39 15 31 7 
Task40 15 7 15 
Task41 31 15 15 
Task42 15 255 31 
Task43 31 15 31 
Task44 15 7 3 
Task45 1 63 3 
Task46 127 127 63 
Task47 3 15 1 
Task48 7 63 3 
Task49 15 15 15 
Task50 7 7 31 
Task51 255 127 63 
Task52 7 7 3 
Task53 63 3 31 
Task54 63 1 15 
Task55 255 1 15 
Task56 7 7 31 
Task57 63 7 1 
Task58 7 15 3 
Task59 1 31 3 
Task60 7 31 15 
Task61 7 7 31 
Task62 15 1 15 
Task63 15 7 15 
Task64 255 3 3 
Task65 31 7 7 
Task66 7 31 3 
Task67 127 127 255 
Task68 3 255 15 
Task69 63 255 15 
Task70 63 15 15 
Task71 31 63 31 
Task72 31 7 31 
Task73 63 31 7 
Task74 63 15 7 
Task75 3 3 31 
Task76 15 31 15 
Task77 15 3 63 
Task78 1 15 7 
Task79 7 7 15 
Task80 7 31 15 
Task81 1 15 31 
Task82 7 31 7 
Task83 31 15 63 
Task84 1 7 31 
Task85 1 7 255 
Task86 3 63 31 
Task87 15 15 31 
Task88 15 7 63 
Task89 15 31 7 
Task90 31 7 7 
Task91 15 7 3 
Task92 127 31 63 
Task93 31 255 15 
Task94 63 63 15 
Task95 255 255 15 
Task96 31 7 31 
Task97 15 15 31 
Task98 63 15 63 
Task99 15 255 7 
