files/tasks_parameters/ExAp01/sample8.txt 2.23562 6.77015 2.19458 0.288816 5.75909
files/tasks_parameters/ExAp01/sample12.txt 2.6084 9.58351 2.46081 0.337498 6.72982
files/tasks_parameters/ExAp01/sample2.txt 2.49101 8.44418 2.50701 0.319127 6.36349
files/tasks_parameters/ExAp01/sample44.txt 2.16597 6.96299 2.23089 0.28229 5.62895
files/tasks_parameters/ExAp01/sample27.txt 2.19682 7.74306 2.16676 0.28602 5.70332
files/tasks_parameters/ExAp01/sample17.txt 2.27021 7.35053 2.25579 0.292348 5.8295
files/tasks_parameters/ExAp01/sample9.txt 2.17194 6.89392 2.21068 0.282399 5.63112
files/tasks_parameters/ExAp01/sample34.txt 2.29049 6.62788 2.3772 0.297742 5.93706
files/tasks_parameters/ExAp01/sample40.txt 2.20468 7.75686 2.17534 0.285619 5.69533
files/tasks_parameters/ExAp01/sample33.txt 2.62504 8.14826 2.6463 0.338073 6.74128
files/tasks_parameters/ExAp01/sample48.txt 2.06569 7.64107 2.14272 0.270011 5.3841
files/tasks_parameters/ExAp01/sample29.txt 2.19319 7.139 1.93769 0.286306 5.70902
files/tasks_parameters/ExAp01/sample11.txt 2.14562 6.88688 2.12981 0.280008 5.58345
files/tasks_parameters/ExAp01/sample14.txt 1.9265 6.11983 1.97599 0.247458 4.93438
files/tasks_parameters/ExAp01/sample0.txt 2.25104 8.2738 2.14256 0.289132 5.76537
files/tasks_parameters/ExAp01/sample7.txt 2.08193 6.87011 2.05821 0.269886 5.3816
files/tasks_parameters/ExAp01/sample23.txt 2.2436 6.52032 2.38087 0.291712 5.81682
files/tasks_parameters/ExAp01/sample13.txt 2.2655 8.73247 2.33415 0.295393 5.89022
files/tasks_parameters/ExAp01/sample22.txt 2.21177 6.9777 2.28948 0.283979 5.66263
files/tasks_parameters/ExAp01/sample25.txt 2.07207 6.23444 2.2122 0.267298 5.33
files/tasks_parameters/ExAp01/sample36.txt 1.95375 6.6174 1.9458 0.253823 5.0613
files/tasks_parameters/ExAp01/sample46.txt 2.53537 7.42369 2.49128 0.327273 6.52592
files/tasks_parameters/ExAp01/sample31.txt 1.94902 7.22028 2.13584 0.25377 5.06025
files/tasks_parameters/ExAp01/sample37.txt 2.28214 8.90704 2.16981 0.295708 5.89651
files/tasks_parameters/ExAp01/sample16.txt 1.91376 8.18243 1.88294 0.24945 4.9741
files/tasks_parameters/ExAp01/sample10.txt 2.226 6.96646 2.31217 0.285748 5.6979
files/tasks_parameters/ExAp01/sample39.txt 1.93323 6.4161 1.97266 0.251967 5.02429
files/tasks_parameters/ExAp01/sample19.txt 2.40293 8.16711 2.23199 0.308463 6.15084
files/tasks_parameters/ExAp01/sample20.txt 2.00326 7.28549 1.88944 0.25994 5.18328
files/tasks_parameters/ExAp01/sample43.txt 1.96118 6.86804 2.00142 0.25616 5.10791
files/tasks_parameters/ExAp01/sample32.txt 2.14275 8.15663 2.12995 0.281726 5.61771
files/tasks_parameters/ExAp01/sample45.txt 2.09797 7.75184 2.10599 0.274935 5.48228
files/tasks_parameters/ExAp01/sample26.txt 2.07207 7.4944 1.88956 0.267248 5.329
files/tasks_parameters/ExAp01/sample5.txt 2.22774 8.08362 2.09961 0.28454 5.67382
files/tasks_parameters/ExAp01/sample21.txt 2.0052 6.11814 2.17119 0.26143 5.21298
files/tasks_parameters/ExAp01/sample38.txt 2.02407 7.761 1.96293 0.263659 5.25744
files/tasks_parameters/ExAp01/sample1.txt 2.23501 7.83752 2.13261 0.289228 5.76729
files/tasks_parameters/ExAp01/sample15.txt 2.21215 7.37971 2.12057 0.285825 5.69944
files/tasks_parameters/ExAp01/sample24.txt 2.29119 8.28531 2.25272 0.296628 5.91486
files/tasks_parameters/ExAp01/sample3.txt 2.39592 7.33359 2.39135 0.305084 6.08348
files/tasks_parameters/ExAp01/sample6.txt 2.16965 7.09894 2.24425 0.281804 5.61926
files/tasks_parameters/ExAp01/sample30.txt 2.29421 8.17669 2.03701 0.299204 5.96622
files/tasks_parameters/ExAp01/sample42.txt 2.30531 7.70416 2.42413 0.29743 5.93084
files/tasks_parameters/ExAp01/sample4.txt 2.37736 7.41691 2.36261 0.307803 6.13768
files/tasks_parameters/ExAp01/sample28.txt 2.03956 7.0562 2.07657 0.266428 5.31265
files/tasks_parameters/ExAp01/sample18.txt 2.04195 7.60139 2.1377 0.268016 5.34432
files/tasks_parameters/ExAp01/sample35.txt 2.52272 9.66795 2.28028 0.32244 6.42954
files/tasks_parameters/ExAp01/sample47.txt 1.97455 6.84842 2.12104 0.251655 5.01807
files/tasks_parameters/ExAp01/sample49.txt 1.93954 7.1497 2.11412 0.255889 5.1025
files/tasks_parameters/ExAp01/sample41.txt 2.03802 6.59911 2.07359 0.265885 5.30183
