files/tasks_parameters/ExAp01/sample8.txt 2.07889 6.77015 2.19458 0.288816 4.96537
files/tasks_parameters/ExAp01/sample12.txt 2.4029 9.58351 2.46081 0.337498 5.80232
files/tasks_parameters/ExAp01/sample2.txt 2.28944 8.44418 2.50701 0.319127 5.48648
files/tasks_parameters/ExAp01/sample44.txt 2.03176 6.96299 2.23089 0.28229 4.85318
files/tasks_parameters/ExAp01/sample27.txt 2.02108 7.74306 2.16676 0.28602 4.91729
files/tasks_parameters/ExAp01/sample17.txt 2.06826 7.35053 2.25579 0.292348 5.02608
files/tasks_parameters/ExAp01/sample9.txt 2.04142 6.89392 2.21068 0.282399 4.85504
files/tasks_parameters/ExAp01/sample34.txt 2.09133 6.62788 2.3772 0.297742 5.11882
files/tasks_parameters/ExAp01/sample40.txt 2.05757 7.75686 2.17534 0.285619 4.91041
files/tasks_parameters/ExAp01/sample33.txt 2.43636 8.14826 2.6463 0.338073 5.8122
files/tasks_parameters/ExAp01/sample48.txt 1.93551 7.64107 2.14272 0.270011 4.64207
files/tasks_parameters/ExAp01/sample29.txt 1.95892 7.139 1.93769 0.286306 4.92221
files/tasks_parameters/ExAp01/sample11.txt 2.00539 6.88688 2.12981 0.280008 4.81394
files/tasks_parameters/ExAp01/sample14.txt 1.75294 6.11983 1.97599 0.247458 4.25433
files/tasks_parameters/ExAp01/sample0.txt 2.07305 8.2738 2.14256 0.289132 4.97079
files/tasks_parameters/ExAp01/sample7.txt 1.95416 6.87011 2.05821 0.269886 4.63991
files/tasks_parameters/ExAp01/sample23.txt 2.08652 6.52032 2.38087 0.291712 5.01515
files/tasks_parameters/ExAp01/sample13.txt 2.13205 8.73247 2.33415 0.295393 5.07843
files/tasks_parameters/ExAp01/sample22.txt 2.03396 6.9777 2.28948 0.283979 4.88221
files/tasks_parameters/ExAp01/sample25.txt 1.9255 6.23444 2.2122 0.267298 4.59542
files/tasks_parameters/ExAp01/sample36.txt 1.80738 6.6174 1.9458 0.253823 4.36376
files/tasks_parameters/ExAp01/sample46.txt 2.33615 7.42369 2.49128 0.327273 5.62652
files/tasks_parameters/ExAp01/sample31.txt 1.82995 7.22028 2.13584 0.25377 4.36285
files/tasks_parameters/ExAp01/sample37.txt 2.13768 8.90704 2.16981 0.295708 5.08386
files/tasks_parameters/ExAp01/sample16.txt 1.79848 8.18243 1.88294 0.24945 4.28857
files/tasks_parameters/ExAp01/sample10.txt 2.03447 6.96646 2.31217 0.285748 4.91262
files/tasks_parameters/ExAp01/sample39.txt 1.79548 6.4161 1.97266 0.251967 4.33185
files/tasks_parameters/ExAp01/sample19.txt 2.23639 8.16711 2.23199 0.308463 5.30314
files/tasks_parameters/ExAp01/sample20.txt 1.90288 7.28549 1.88944 0.25994 4.46892
files/tasks_parameters/ExAp01/sample43.txt 1.82258 6.86804 2.00142 0.25616 4.40394
files/tasks_parameters/ExAp01/sample32.txt 2.01594 8.15663 2.12995 0.281726 4.84348
files/tasks_parameters/ExAp01/sample45.txt 1.95914 7.75184 2.10599 0.274935 4.72672
files/tasks_parameters/ExAp01/sample26.txt 1.89965 7.4944 1.88956 0.267248 4.59457
files/tasks_parameters/ExAp01/sample5.txt 2.02192 8.08362 2.09961 0.28454 4.89186
files/tasks_parameters/ExAp01/sample21.txt 1.87075 6.11814 2.17119 0.26143 4.49454
files/tasks_parameters/ExAp01/sample38.txt 1.88497 7.761 1.96293 0.263659 4.53286
files/tasks_parameters/ExAp01/sample1.txt 2.07743 7.83752 2.13261 0.289228 4.97245
files/tasks_parameters/ExAp01/sample15.txt 2.06637 7.37971 2.12057 0.285825 4.91395
files/tasks_parameters/ExAp01/sample24.txt 2.12621 8.28531 2.25272 0.296628 5.09968
files/tasks_parameters/ExAp01/sample3.txt 2.18251 7.33359 2.39135 0.305084 5.24506
files/tasks_parameters/ExAp01/sample6.txt 2.01005 7.09894 2.24425 0.281804 4.84482
files/tasks_parameters/ExAp01/sample30.txt 2.12375 8.17669 2.03701 0.299204 5.14396
files/tasks_parameters/ExAp01/sample42.txt 2.15022 7.70416 2.42413 0.29743 5.11346
files/tasks_parameters/ExAp01/sample4.txt 2.22047 7.41691 2.36261 0.307803 5.29179
files/tasks_parameters/ExAp01/sample28.txt 1.90003 7.0562 2.07657 0.266428 4.58047
files/tasks_parameters/ExAp01/sample18.txt 1.93077 7.60139 2.1377 0.268016 4.60777
files/tasks_parameters/ExAp01/sample35.txt 2.27942 9.66795 2.28028 0.32244 5.54343
files/tasks_parameters/ExAp01/sample47.txt 1.82044 6.84842 2.12104 0.251655 4.32648
files/tasks_parameters/ExAp01/sample49.txt 1.82851 7.1497 2.11412 0.255889 4.39928
files/tasks_parameters/ExAp01/sample41.txt 1.91781 6.59911 2.07359 0.265885 4.57114
