Task0 1 1 3 
Task1 1 1 3 
Task2 1 1 1 
Task3 7 1 1 
Task4 1 3 1 
Task5 3 1 1 
Task6 1 1 1 
Task7 1 1 1 
Task8 1 3 1 
Task9 1 1 1 
Task10 3 1 1 
Task11 7 1 1 
Task12 1 3 1 
Task13 1 1 1 
Task14 1 1 1 
Task15 1 1 1 
Task16 3 3 7 
Task17 1 1 1 
Task18 1 1 1 
Task19 1 3 1 
Task20 1 3 1 
Task21 1 1 1 
Task22 1 1 1 
Task23 1 3 1 
Task24 1 1 1 
Task25 1 1 1 
Task26 3 7 1 
Task27 1 1 1 
Task28 1 3 1 
Task29 1 1 1 
Task30 1 7 3 
Task31 1 1 1 
Task32 3 1 3 
Task33 3 3 1 
Task34 3 1 1 
Task35 1 1 3 
Task36 1 1 1 
Task37 3 1 1 
Task38 3 1 1 
Task39 1 1 1 
Task40 3 3 1 
Task41 1 1 1 
Task42 1 1 1 
Task43 1 3 1 
Task44 1 3 3 
Task45 1 1 1 
Task46 1 1 1 
Task47 1 1 1 
Task48 1 1 1 
Task49 1 1 1 
Task50 1 1 1 
Task51 3 3 3 
Task52 3 7 1 
Task53 1 1 1 
Task54 3 1 1 
Task55 1 1 1 
Task56 1 1 1 
Task57 1 1 3 
Task58 1 1 1 
Task59 1 1 3 
Task60 1 1 1 
Task61 1 1 1 
Task62 1 1 1 
Task63 1 1 1 
Task64 3 1 1 
Task65 1 1 1 
Task66 1 1 1 
Task67 1 1 1 
Task68 1 1 1 
Task69 1 1 3 
Task70 1 1 1 
Task71 3 7 1 
Task72 1 1 1 
Task73 1 1 1 
Task74 1 1 3 
Task75 1 1 1 
Task76 1 1 1 
Task77 3 3 3 
Task78 1 1 1 
Task79 1 1 1 
Task80 1 1 1 
Task81 1 1 1 
Task82 7 15 3 
Task83 7 1 3 
Task84 1 3 1 
Task85 3 1 3 
Task86 3 1 3 
Task87 1 1 1 
Task88 1 1 1 
Task89 1 1 1 
Task90 1 3 3 
Task91 1 1 1 
Task92 7 1 7 
Task93 1 1 1 
Task94 1 1 1 
Task95 1 1 1 
Task96 3 1 3 
Task97 1 1 1 
Task98 1 3 1 
Task99 1 3 1 
