0.2457274
Task0 3 1 3 
Task1 7 1 7 
Task2 3 7 15 
Task3 7 31 3 
Task4 15 3 15 
Task5 3 1 1 
Task6 7 3 7 
Task7 3 7 3 
Task8 7 15 7 
Task9 1 3 1 
Task10 3 1 3 
Task11 7 1 7 
Task12 15 7 7 
Task13 7 7 63 
Task14 3 3 7 
Task15 3 3 3 
Task16 1 7 1 
Task17 1 7 1 
Task18 3 3 1 
Task19 3 7 3 
Task20 7 15 3 
Task21 7 3 3 
Task22 7 7 7 
Task23 15 15 7 
Task24 3 3 3 
Task25 3 15 1 
Task26 15 15 3 
Task27 1 7 3 
Task28 3 15 1 
Task29 7 7 7 
Task30 7 1 7 
Task31 31 31 63 
Task32 3 1 1 
Task33 3 1 3 
Task34 15 7 3 
Task35 7 3 1 
Task36 63 15 3 
Task37 15 31 1 
Task38 3 3 31 
Task39 3 3 3 
Task40 15 31 1 
Task41 15 1 1 
Task42 3 3 3 
Task43 1 7 31 
Task44 3 1 7 
Task45 3 7 1 
Task46 15 3 7 
Task47 7 15 1 
Task48 7 3 1 
Task49 1 7 3 
Task50 7 1 1 
Task51 7 3 7 
Task52 7 3 3 
Task53 15 1 7 
Task54 3 7 15 
Task55 3 3 3 
Task56 3 15 1 
Task57 1 7 7 
Task58 7 3 7 
Task59 3 3 15 
Task60 15 7 63 
Task61 7 15 31 
Task62 7 3 31 
Task63 7 1 15 
Task64 3 3 1 
Task65 63 15 15 
Task66 15 15 7 
Task67 3 3 7 
Task68 63 31 15 
Task69 3 15 7 
Task70 31 15 15 
Task71 3 3 7 
Task72 3 15 63 
Task73 1 3 3 
Task74 7 7 7 
Task75 7 3 15 
Task76 1 7 7 
Task77 31 63 1 
Task78 1 7 7 
Task79 3 3 7 
Task80 3 3 3 
Task81 3 1 7 
Task82 15 31 7 
Task83 3 3 7 
Task84 7 1 7 
Task85 31 15 7 
Task86 3 15 7 
Task87 1 127 255 
Task88 3 7 7 
Task89 1 7 15 
Task90 7 3 3 
Task91 7 1 7 
Task92 1 15 63 
Task93 1 1 15 
Task94 3 1 7 
Task95 7 3 7 
Task96 15 63 1 
Task97 31 63 31 
Task98 7 15 7 
Task99 15 7 3 
