Task0 3 1 3 
Task1 1 3 1 
Task2 1 1 1 
Task3 1 3 1 
Task4 1 1 1 
Task5 1 3 1 
Task6 3 1 1 
Task7 1 1 1 
Task8 1 1 1 
Task9 1 1 1 
Task10 1 1 1 
Task11 3 1 1 
Task12 1 1 3 
Task13 1 1 3 
Task14 1 1 1 
Task15 3 3 1 
Task16 1 3 3 
Task17 1 3 1 
Task18 1 1 1 
Task19 1 1 1 
Task20 1 1 1 
Task21 1 1 1 
Task22 1 1 1 
Task23 1 1 1 
Task24 1 1 1 
Task25 3 1 3 
Task26 1 3 1 
Task27 1 1 1 
Task28 3 1 1 
Task29 1 1 1 
Task30 7 1 1 
Task31 1 1 1 
Task32 1 3 3 
Task33 1 1 1 
Task34 1 3 1 
Task35 1 1 1 
Task36 1 1 1 
Task37 1 1 1 
Task38 1 1 1 
Task39 1 1 1 
Task40 1 1 1 
Task41 1 1 3 
Task42 3 1 1 
Task43 1 1 3 
Task44 1 1 1 
Task45 1 1 1 
Task46 3 1 3 
Task47 1 1 1 
Task48 3 1 3 
Task49 1 1 1 
Task50 1 1 1 
Task51 1 1 1 
Task52 1 3 3 
Task53 1 1 1 
Task54 3 1 1 
Task55 1 1 1 
Task56 1 1 1 
Task57 3 1 1 
Task58 3 1 3 
Task59 1 1 1 
Task60 3 1 1 
Task61 1 3 3 
Task62 1 1 1 
Task63 1 1 7 
Task64 1 3 1 
Task65 1 3 1 
Task66 1 3 3 
Task67 7 1 7 
Task68 3 1 1 
Task69 1 3 1 
Task70 1 1 3 
Task71 1 1 1 
Task72 1 1 1 
Task73 1 1 3 
Task74 1 1 1 
Task75 1 1 1 
Task76 1 1 1 
Task77 1 1 1 
Task78 1 3 1 
Task79 1 3 3 
Task80 1 1 1 
Task81 1 1 1 
Task82 7 7 1 
Task83 1 1 1 
Task84 1 1 3 
Task85 1 1 1 
Task86 1 1 1 
Task87 1 1 1 
Task88 3 1 1 
Task89 3 1 1 
Task90 3 1 3 
Task91 1 1 1 
Task92 1 1 1 
Task93 1 1 1 
Task94 1 1 1 
Task95 3 3 3 
Task96 1 1 1 
Task97 1 1 1 
Task98 1 1 1 
Task99 1 1 1 
