files/tasks_parameters/ExAp01/sample8.txt 1.28288 6.77015 2.19458 0.288816 19.5813
files/tasks_parameters/ExAp01/sample12.txt 1.64564 9.58351 2.46081 0.337498 22.8819
files/tasks_parameters/ExAp01/sample2.txt 1.59544 8.44418 2.50701 0.319127 21.6364
files/tasks_parameters/ExAp01/sample44.txt 1.42875 6.96299 2.23089 0.28229 19.1389
files/tasks_parameters/ExAp01/sample27.txt 1.30204 7.74306 2.16676 0.28602 19.3917
files/tasks_parameters/ExAp01/sample17.txt 1.42393 7.35053 2.25579 0.292348 19.8207
files/tasks_parameters/ExAp01/sample9.txt 1.23711 6.89392 2.21068 0.282399 19.1462
files/tasks_parameters/ExAp01/sample34.txt 1.47706 6.62788 2.3772 0.297742 20.1864
files/tasks_parameters/ExAp01/sample40.txt 1.23907 7.75686 2.17534 0.285619 19.3646
files/tasks_parameters/ExAp01/sample33.txt 1.58143 8.14826 2.6463 0.338073 22.9209
files/tasks_parameters/ExAp01/sample48.txt 1.2914 7.64107 2.14272 0.270011 18.3064
files/tasks_parameters/ExAp01/sample29.txt 1.19377 7.139 1.93769 0.286306 19.4111
files/tasks_parameters/ExAp01/sample11.txt 1.38731 6.88688 2.12981 0.280008 18.9842
files/tasks_parameters/ExAp01/sample14.txt 1.19115 6.11983 1.97599 0.247458 16.7773
files/tasks_parameters/ExAp01/sample0.txt 1.31719 8.2738 2.14256 0.289132 19.6027
files/tasks_parameters/ExAp01/sample7.txt 1.37261 6.87011 2.05821 0.269886 18.2978
files/tasks_parameters/ExAp01/sample23.txt 1.50179 6.52032 2.38087 0.291712 19.7776
files/tasks_parameters/ExAp01/sample13.txt 1.48071 8.73247 2.33415 0.295393 20.0272
files/tasks_parameters/ExAp01/sample22.txt 1.32069 6.9777 2.28948 0.283979 19.2534
files/tasks_parameters/ExAp01/sample25.txt 1.27156 6.23444 2.2122 0.267298 18.1224
files/tasks_parameters/ExAp01/sample36.txt 1.19429 6.6174 1.9458 0.253823 17.2088
files/tasks_parameters/ExAp01/sample46.txt 1.45679 7.42369 2.49128 0.327273 22.1886
files/tasks_parameters/ExAp01/sample31.txt 1.15583 7.22028 2.13584 0.25377 17.2052
files/tasks_parameters/ExAp01/sample37.txt 1.42069 8.90704 2.16981 0.295708 20.0486
files/tasks_parameters/ExAp01/sample16.txt 1.32883 8.18243 1.88294 0.24945 16.9123
files/tasks_parameters/ExAp01/sample10.txt 1.24687 6.96646 2.31217 0.285748 19.3733
files/tasks_parameters/ExAp01/sample39.txt 1.3461 6.4161 1.97266 0.251967 17.083
files/tasks_parameters/ExAp01/sample19.txt 1.43575 8.16711 2.23199 0.308463 20.9133
files/tasks_parameters/ExAp01/sample20.txt 1.24065 7.28549 1.88944 0.25994 17.6235
files/tasks_parameters/ExAp01/sample43.txt 1.17761 6.86804 2.00142 0.25616 17.3673
files/tasks_parameters/ExAp01/sample32.txt 1.29405 8.15663 2.12995 0.281726 19.1006
files/tasks_parameters/ExAp01/sample45.txt 1.19046 7.75184 2.10599 0.274935 18.6402
files/tasks_parameters/ExAp01/sample26.txt 1.1962 7.4944 1.88956 0.267248 18.119
files/tasks_parameters/ExAp01/sample5.txt 1.39763 8.08362 2.09961 0.28454 19.2914
files/tasks_parameters/ExAp01/sample21.txt 1.24974 6.11814 2.17119 0.26143 17.7245
files/tasks_parameters/ExAp01/sample38.txt 1.20369 7.761 1.96293 0.263659 17.8757
files/tasks_parameters/ExAp01/sample1.txt 1.40629 7.83752 2.13261 0.289228 19.6092
files/tasks_parameters/ExAp01/sample15.txt 1.3138 7.37971 2.12057 0.285825 19.3785
files/tasks_parameters/ExAp01/sample24.txt 1.36804 8.28531 2.25272 0.296628 20.111
files/tasks_parameters/ExAp01/sample3.txt 1.58787 7.33359 2.39135 0.305084 20.6843
files/tasks_parameters/ExAp01/sample6.txt 1.3531 7.09894 2.24425 0.281804 19.1059
files/tasks_parameters/ExAp01/sample30.txt 1.33235 8.17669 2.03701 0.299204 20.2856
files/tasks_parameters/ExAp01/sample42.txt 1.54653 7.70416 2.42413 0.29743 20.1653
files/tasks_parameters/ExAp01/sample4.txt 1.4786 7.41691 2.36261 0.307803 20.8686
files/tasks_parameters/ExAp01/sample28.txt 1.34525 7.0562 2.07657 0.266428 18.0634
files/tasks_parameters/ExAp01/sample18.txt 1.26371 7.60139 2.1377 0.268016 18.1711
files/tasks_parameters/ExAp01/sample35.txt 1.49988 9.66795 2.28028 0.32244 21.8609
files/tasks_parameters/ExAp01/sample47.txt 1.21855 6.84842 2.12104 0.251655 17.0618
files/tasks_parameters/ExAp01/sample49.txt 1.27044 7.1497 2.11412 0.255889 17.3489
files/tasks_parameters/ExAp01/sample41.txt 1.30651 6.59911 2.07359 0.265885 18.0266
