files/tasks_parameters/ExAp01/sample8.txt 0.762803 3.15778 1.5595 0.203411 5.68355
files/tasks_parameters/ExAp01/sample12.txt 0.758973 3.94962 1.6705 0.207924 5.80964
files/tasks_parameters/ExAp01/sample2.txt 0.709226 3.78275 1.74131 0.200098 5.59096
files/tasks_parameters/ExAp01/sample44.txt 0.696089 3.59825 1.65317 0.200005 5.58838
files/tasks_parameters/ExAp01/sample27.txt 0.70648 3.45743 1.5148 0.182129 5.08888
files/tasks_parameters/ExAp01/sample17.txt 0.534621 2.77299 1.44514 0.14646 4.09226
files/tasks_parameters/ExAp01/sample9.txt 0.629917 2.99933 1.451 0.177444 4.95798
files/tasks_parameters/ExAp01/sample34.txt 0.589987 3.02928 1.58429 0.157984 4.41425
files/tasks_parameters/ExAp01/sample40.txt 0.618931 3.86889 1.52122 0.168379 4.70472
files/tasks_parameters/ExAp01/sample33.txt 0.674296 3.63695 1.71905 0.199765 5.58167
files/tasks_parameters/ExAp01/sample48.txt 0.596249 3.39061 1.49062 0.154728 4.32329
files/tasks_parameters/ExAp01/sample29.txt 0.744394 3.30472 1.38739 0.223868 6.25514
files/tasks_parameters/ExAp01/sample11.txt 0.619945 3.10585 1.41612 0.174079 4.86396
files/tasks_parameters/ExAp01/sample14.txt 0.58914 2.70971 1.43432 0.162214 4.53246
files/tasks_parameters/ExAp01/sample0.txt 0.695518 3.6937 1.5439 0.18367 5.13195
files/tasks_parameters/ExAp01/sample7.txt 0.54366 2.70501 1.42221 0.143463 4.00854
files/tasks_parameters/ExAp01/sample23.txt 0.656698 3.2697 1.57822 0.181448 5.06988
files/tasks_parameters/ExAp01/sample13.txt 0.671156 3.84225 1.67648 0.198247 5.53926
files/tasks_parameters/ExAp01/sample22.txt 0.532293 3.09569 1.56121 0.148796 4.15754
files/tasks_parameters/ExAp01/sample25.txt 0.515907 2.73966 1.5007 0.148149 4.13945
files/tasks_parameters/ExAp01/sample36.txt 0.487978 2.85948 1.28553 0.130042 3.63353
files/tasks_parameters/ExAp01/sample46.txt 0.737817 3.58643 1.69998 0.210103 5.87052
files/tasks_parameters/ExAp01/sample31.txt 0.627893 3.4832 1.53782 0.1722 4.81147
files/tasks_parameters/ExAp01/sample37.txt 0.629084 3.95293 1.50705 0.171701 4.79753
files/tasks_parameters/ExAp01/sample16.txt 0.595047 3.31216 1.30115 0.150249 4.19813
files/tasks_parameters/ExAp01/sample10.txt 0.625002 3.17098 1.61789 0.153776 4.29669
files/tasks_parameters/ExAp01/sample39.txt 0.6193 3.26617 1.44406 0.165669 4.62898
files/tasks_parameters/ExAp01/sample19.txt 0.728914 3.63532 1.52509 0.196094 5.47911
files/tasks_parameters/ExAp01/sample20.txt 0.5123 3.20793 1.25367 0.147335 4.11672
files/tasks_parameters/ExAp01/sample43.txt 0.540557 3.11551 1.4202 0.150644 4.20918
files/tasks_parameters/ExAp01/sample32.txt 0.608901 3.5311 1.42482 0.168744 4.71491
files/tasks_parameters/ExAp01/sample45.txt 0.719384 3.80283 1.48324 0.19807 5.53432
files/tasks_parameters/ExAp01/sample26.txt 0.592122 3.21645 1.29701 0.166061 4.63995
files/tasks_parameters/ExAp01/sample5.txt 0.674173 3.5889 1.52559 0.178903 4.99877
files/tasks_parameters/ExAp01/sample21.txt 0.668798 2.75242 1.55936 0.19512 5.45189
files/tasks_parameters/ExAp01/sample38.txt 0.585411 3.31563 1.37515 0.166157 4.64262
files/tasks_parameters/ExAp01/sample1.txt 0.753182 3.74964 1.51696 0.19701 5.50468
files/tasks_parameters/ExAp01/sample15.txt 0.653162 3.32916 1.48508 0.180707 5.04918
files/tasks_parameters/ExAp01/sample24.txt 0.621106 3.45951 1.59549 0.16529 4.61841
files/tasks_parameters/ExAp01/sample3.txt 0.870778 3.70014 1.70809 0.237107 6.62505
files/tasks_parameters/ExAp01/sample6.txt 0.643427 3.33003 1.58323 0.184714 5.16114
files/tasks_parameters/ExAp01/sample30.txt 0.830911 4.1841 1.4861 0.239623 6.69535
files/tasks_parameters/ExAp01/sample42.txt 0.674418 3.43221 1.70276 0.177383 4.95629
files/tasks_parameters/ExAp01/sample4.txt 0.73067 3.72477 1.6136 0.196448 5.48899
files/tasks_parameters/ExAp01/sample28.txt 0.569288 3.11323 1.45032 0.158819 4.43759
files/tasks_parameters/ExAp01/sample18.txt 0.540334 3.47418 1.45209 0.149064 4.16502
files/tasks_parameters/ExAp01/sample35.txt 0.668591 4.57086 1.49394 0.185031 5.16998
files/tasks_parameters/ExAp01/sample47.txt 0.624291 3.13768 1.52397 0.16417 4.58711
files/tasks_parameters/ExAp01/sample49.txt 0.566462 3.13288 1.49657 0.156154 4.36313
files/tasks_parameters/ExAp01/sample41.txt 0.557992 2.81964 1.49636 0.150876 4.21565
