files/tasks_parameters/ExOptd2/sample39.txt 1.42224 7.63043 5.77789 0.565026 8.85269
files/tasks_parameters/ExOptd2/sample21.txt 1.45987 7.97397 5.2947 0.5959 9.33642
files/tasks_parameters/ExOptd2/sample7.txt 1.34303 7.69848 5.00507 0.554964 8.69504
files/tasks_parameters/ExOptd2/sample29.txt 1.29726 6.78624 5.38629 0.519106 8.13323
files/tasks_parameters/ExOptd2/sample44.txt 1.37042 8.84761 4.97657 0.553689 8.67506
files/tasks_parameters/ExOptd2/sample25.txt 1.21151 9.01574 4.61332 0.50053 7.84219
files/tasks_parameters/ExOptd2/sample43.txt 1.25196 7.82434 5.07101 0.512752 8.03367
files/tasks_parameters/ExOptd2/sample5.txt 1.29739 8.93014 4.53305 0.564673 8.84717
files/tasks_parameters/ExOptd2/sample9.txt 1.26014 8.6832 5.34003 0.477657 7.48381
files/tasks_parameters/ExOptd2/sample3.txt 1.34174 7.15207 5.702 0.59235 9.2808
files/tasks_parameters/ExOptd2/sample32.txt 1.17286 7.46419 4.42991 0.489983 7.67694
files/tasks_parameters/ExOptd2/sample41.txt 1.26349 8.32376 4.95504 0.489291 7.6661
files/tasks_parameters/ExOptd2/sample16.txt 1.28971 7.4969 4.60992 0.515288 8.07341
files/tasks_parameters/ExOptd2/sample49.txt 1.2517 7.83634 4.83922 0.551599 8.64233
files/tasks_parameters/ExOptd2/sample42.txt 1.23677 7.29471 5.04013 0.495772 7.76764
files/tasks_parameters/ExOptd2/sample33.txt 1.42306 11.5557 5.54032 0.597531 9.36197
files/tasks_parameters/ExOptd2/sample11.txt 1.11675 8.13057 4.47595 0.465418 7.29205
files/tasks_parameters/ExOptd2/sample36.txt 1.21479 7.80372 5.15312 0.483277 7.57186
files/tasks_parameters/ExOptd2/sample46.txt 1.25369 8.37552 4.81688 0.490861 7.69069
files/tasks_parameters/ExOptd2/sample30.txt 1.21139 7.6327 4.73769 0.515196 8.07198
files/tasks_parameters/ExOptd2/sample18.txt 1.33923 7.52958 5.51199 0.561135 8.79173
files/tasks_parameters/ExOptd2/sample12.txt 1.2807 8.21211 4.86358 0.508629 7.96908
files/tasks_parameters/ExOptd2/sample1.txt 1.57326 8.82804 5.47522 0.640162 10.0299
files/tasks_parameters/ExOptd2/sample48.txt 1.31389 7.43469 5.03769 0.502119 7.86708
files/tasks_parameters/ExOptd2/sample23.txt 1.14666 7.04696 5.44647 0.506695 7.93877
files/tasks_parameters/ExOptd2/sample47.txt 1.10321 7.156 5.05869 0.464624 7.27962
files/tasks_parameters/ExOptd2/sample15.txt 1.51395 7.84898 5.22468 0.621211 9.73299
files/tasks_parameters/ExOptd2/sample0.txt 1.41916 8.61671 5.66269 0.571931 8.96087
files/tasks_parameters/ExOptd2/sample24.txt 1.28407 7.54641 4.83178 0.523803 8.20682
files/tasks_parameters/ExOptd2/sample35.txt 1.26746 8.48027 4.70131 0.526901 8.25536
files/tasks_parameters/ExOptd2/sample40.txt 1.39026 7.79512 5.52626 0.557173 8.72966
files/tasks_parameters/ExOptd2/sample10.txt 1.18065 8.48044 4.13388 0.489671 7.67205
files/tasks_parameters/ExOptd2/sample28.txt 1.74138 9.58552 5.27902 0.688272 10.7837
files/tasks_parameters/ExOptd2/sample34.txt 1.51823 6.83568 5.32962 0.561662 8.79999
files/tasks_parameters/ExOptd2/sample8.txt 1.32531 7.17404 4.80023 0.537285 8.41805
files/tasks_parameters/ExOptd2/sample4.txt 1.19409 8.24009 5.32974 0.463129 7.2562
files/tasks_parameters/ExOptd2/sample6.txt 1.21865 8.19574 5.80551 0.476208 7.46111
files/tasks_parameters/ExOptd2/sample19.txt 1.26043 7.70345 4.90884 0.521276 8.16723
files/tasks_parameters/ExOptd2/sample45.txt 1.39515 7.588 5.38025 0.579353 9.07717
files/tasks_parameters/ExOptd2/sample22.txt 1.21332 7.98072 5.1177 0.513917 8.05193
files/tasks_parameters/ExOptd2/sample26.txt 1.18324 6.28268 5.05159 0.479914 7.51918
files/tasks_parameters/ExOptd2/sample13.txt 1.31187 7.82873 5.1606 0.558651 8.75282
files/tasks_parameters/ExOptd2/sample38.txt 1.10075 7.56225 4.57457 0.4588 7.18838
files/tasks_parameters/ExOptd2/sample31.txt 1.30143 7.16293 5.44936 0.503649 7.89105
files/tasks_parameters/ExOptd2/sample27.txt 1.16366 7.82651 4.7097 0.490047 7.67794
files/tasks_parameters/ExOptd2/sample20.txt 1.35393 8.55866 5.38758 0.568438 8.90615
files/tasks_parameters/ExOptd2/sample37.txt 1.43951 8.59291 5.71057 0.612581 9.59778
files/tasks_parameters/ExOptd2/sample2.txt 1.13045 7.40533 5.20295 0.459565 7.20036
files/tasks_parameters/ExOptd2/sample17.txt 1.30579 7.81355 5.25294 0.51973 8.14301
files/tasks_parameters/ExOptd2/sample14.txt 1.43004 8.2356 5.15685 0.600129 9.40269
