files/tasks_parameters/ExAp01/sample8.txt 1.08263 3.76817 4.3855 0.450105 24.4465
files/tasks_parameters/ExAp01/sample12.txt 1.59749 5.03638 5.18776 0.610564 33.1614
files/tasks_parameters/ExAp01/sample2.txt 1.44227 4.58991 5.64606 0.613877 33.3413
files/tasks_parameters/ExAp01/sample44.txt 1.25736 3.77401 5.66946 0.551838 29.9718
files/tasks_parameters/ExAp01/sample27.txt 1.30619 4.13937 5.56136 0.55779 30.2951
files/tasks_parameters/ExAp01/sample17.txt 1.1943 3.76163 5.38341 0.520991 28.2965
files/tasks_parameters/ExAp01/sample9.txt 1.14193 3.69889 5.2981 0.511699 27.7918
files/tasks_parameters/ExAp01/sample34.txt 1.11551 3.52435 5.83741 0.49187 26.7148
files/tasks_parameters/ExAp01/sample40.txt 1.15826 4.06185 5.0335 0.496884 26.9871
files/tasks_parameters/ExAp01/sample33.txt 1.55311 4.82091 5.83886 0.651963 35.4099
files/tasks_parameters/ExAp01/sample48.txt 1.09956 4.01134 5.07085 0.447927 24.3282
files/tasks_parameters/ExAp01/sample29.txt 1.49785 4.20847 5.0406 0.643694 34.9608
files/tasks_parameters/ExAp01/sample11.txt 1.3362 3.94699 5.29198 0.557276 30.2672
files/tasks_parameters/ExAp01/sample14.txt 1.08353 3.54059 4.58345 0.466713 25.3485
files/tasks_parameters/ExAp01/sample0.txt 1.50724 4.82755 4.90216 0.623551 33.8667
files/tasks_parameters/ExAp01/sample7.txt 1.15431 3.60766 5.11185 0.509566 27.6759
files/tasks_parameters/ExAp01/sample23.txt 1.39278 3.81403 5.45799 0.582911 31.6595
files/tasks_parameters/ExAp01/sample13.txt 1.52374 4.8894 5.26818 0.624499 33.9183
files/tasks_parameters/ExAp01/sample22.txt 1.29069 3.76156 4.95746 0.534216 29.0148
files/tasks_parameters/ExAp01/sample25.txt 0.973023 2.94144 4.92622 0.403639 21.9228
files/tasks_parameters/ExAp01/sample36.txt 1.18936 3.56164 4.5806 0.501799 27.2541
files/tasks_parameters/ExAp01/sample46.txt 1.24571 3.84833 4.7121 0.530701 28.8238
files/tasks_parameters/ExAp01/sample31.txt 1.07786 3.764 5.08385 0.479734 26.0557
files/tasks_parameters/ExAp01/sample37.txt 1.52664 4.43254 5.65111 0.65143 35.381
files/tasks_parameters/ExAp01/sample16.txt 1.25993 4.49741 4.8895 0.509171 27.6545
files/tasks_parameters/ExAp01/sample10.txt 1.37558 3.87086 6.07511 0.60993 33.127
files/tasks_parameters/ExAp01/sample39.txt 1.12287 3.66299 4.54281 0.463671 25.1833
files/tasks_parameters/ExAp01/sample19.txt 1.34737 3.86694 5.14047 0.615987 33.456
files/tasks_parameters/ExAp01/sample20.txt 1.34033 4.09945 5.13368 0.580369 31.5214
files/tasks_parameters/ExAp01/sample43.txt 1.14442 3.75825 5.55698 0.530892 28.8342
files/tasks_parameters/ExAp01/sample32.txt 1.42913 4.0352 5.29178 0.587643 31.9165
files/tasks_parameters/ExAp01/sample45.txt 1.22943 3.94578 4.87833 0.541081 29.3876
files/tasks_parameters/ExAp01/sample26.txt 1.11151 3.50998 4.55035 0.474009 25.7447
files/tasks_parameters/ExAp01/sample5.txt 1.39925 4.00994 5.27725 0.587681 31.9185
files/tasks_parameters/ExAp01/sample21.txt 0.935342 2.8974 4.54677 0.430037 23.3565
files/tasks_parameters/ExAp01/sample38.txt 1.1712 3.56689 4.78573 0.492366 26.7418
files/tasks_parameters/ExAp01/sample1.txt 1.16614 3.69002 4.55048 0.481074 26.1284
files/tasks_parameters/ExAp01/sample15.txt 1.1952 3.73223 5.42493 0.524964 28.5123
files/tasks_parameters/ExAp01/sample24.txt 1.29557 4.18053 5.40377 0.542575 29.4688
files/tasks_parameters/ExAp01/sample3.txt 1.0833 3.70547 4.7118 0.470503 25.5543
files/tasks_parameters/ExAp01/sample6.txt 1.45612 4.07521 5.71419 0.626702 34.0379
files/tasks_parameters/ExAp01/sample30.txt 1.49546 3.97446 5.82388 0.626709 34.0383
files/tasks_parameters/ExAp01/sample42.txt 1.28814 4.44207 5.58473 0.537025 29.1673
files/tasks_parameters/ExAp01/sample4.txt 1.28897 3.92181 4.49751 0.556974 30.2508
files/tasks_parameters/ExAp01/sample28.txt 1.02279 3.13496 4.88321 0.444588 24.1468
files/tasks_parameters/ExAp01/sample18.txt 1.24641 3.95301 4.52898 0.537438 29.1897
files/tasks_parameters/ExAp01/sample35.txt 1.91568 5.75923 6.25034 0.752488 40.8697
files/tasks_parameters/ExAp01/sample47.txt 1.16523 3.44018 5.14289 0.540033 29.3307
files/tasks_parameters/ExAp01/sample49.txt 1.11327 3.38981 4.72409 0.493041 26.7784
files/tasks_parameters/ExAp01/sample41.txt 1.14066 3.58692 5.27252 0.492391 26.7431
