Task0 3 3 1 
Task1 1 1 1 
Task2 3 1 1 
Task3 3 3 1 
Task4 3 1 1 
Task5 1 1 1 
Task6 1 1 1 
Task7 1 1 1 
Task8 1 3 3 
Task9 3 1 3 
Task10 3 1 1 
Task11 1 1 3 
Task12 3 1 1 
Task13 1 1 1 
Task14 3 7 1 
Task15 1 1 1 
Task16 1 1 1 
Task17 1 1 1 
Task18 3 1 1 
Task19 3 1 1 
Task20 3 3 1 
Task21 1 3 1 
Task22 1 3 1 
Task23 1 1 1 
Task24 3 1 7 
Task25 1 1 1 
Task26 1 1 1 
Task27 1 3 3 
Task28 1 1 1 
Task29 3 1 1 
Task30 3 1 1 
Task31 1 1 1 
Task32 1 3 1 
Task33 1 1 1 
Task34 1 15 7 
Task35 1 1 1 
Task36 1 7 1 
Task37 1 1 1 
Task38 3 1 1 
Task39 1 1 3 
Task40 1 1 1 
Task41 1 1 1 
Task42 1 1 1 
Task43 1 1 1 
Task44 1 1 1 
Task45 3 1 3 
Task46 1 1 1 
Task47 1 1 1 
Task48 1 1 1 
Task49 1 1 1 
Task50 1 1 1 
Task51 1 1 1 
Task52 1 1 1 
Task53 3 1 3 
Task54 1 1 1 
Task55 1 1 1 
Task56 1 3 1 
Task57 1 1 1 
Task58 1 1 1 
Task59 1 1 3 
Task60 1 1 1 
Task61 1 3 1 
Task62 3 1 1 
Task63 7 3 1 
Task64 1 1 1 
Task65 1 1 3 
Task66 1 1 3 
Task67 1 1 1 
Task68 1 1 1 
Task69 1 1 1 
Task70 1 3 1 
Task71 1 1 3 
Task72 1 1 1 
Task73 1 1 1 
Task74 1 1 1 
Task75 1 1 1 
Task76 1 1 1 
Task77 1 1 1 
Task78 1 3 3 
Task79 1 1 3 
Task80 1 1 3 
Task81 7 1 1 
Task82 3 1 1 
Task83 3 1 3 
Task84 1 1 1 
Task85 1 1 3 
Task86 1 1 3 
Task87 1 1 1 
Task88 1 1 1 
Task89 3 3 1 
Task90 1 1 1 
Task91 1 1 1 
Task92 3 1 1 
Task93 1 1 1 
Task94 3 1 1 
Task95 1 1 1 
Task96 1 3 7 
Task97 1 1 3 
Task98 3 7 31 
Task99 1 1 1 
