0.38993040000000007
Task0 63 1 1 
Task1 31 63 1 
Task2 3 63 7 
Task3 15 7 63 
Task4 7 31 31 
Task5 1 15 63 
Task6 3 31 63 
Task7 255 31 63 
Task8 15 3 63 
Task9 63 3 7 
Task10 31 255 15 
Task11 31 127 31 
Task12 3 63 7 
Task13 63 31 63 
Task14 31 31 7 
Task15 255 255 255 
Task16 7 63 31 
Task17 7 31 1 
Task18 63 31 255 
Task19 7 63 31 
Task20 31 63 63 
Task21 63 31 63 
Task22 255 255 127 
Task23 63 15 15 
Task24 7 7 31 
Task25 7 63 31 
Task26 31 7 63 
Task27 63 15 15 
Task28 15 63 15 
Task29 63 3 3 
Task30 63 15 31 
Task31 63 63 7 
Task32 63 7 7 
Task33 31 3 127 
Task34 255 1 31 
Task35 63 3 7 
Task36 3 31 31 
Task37 63 7 1 
Task38 15 7 63 
Task39 31 63 15 
Task40 7 7 63 
Task41 31 63 63 
Task42 63 7 7 
Task43 31 3 31 
Task44 15 3 63 
Task45 1 31 63 
Task46 15 31 63 
Task47 15 31 31 
Task48 15 3 63 
Task49 63 15 15 
Task50 255 63 63 
Task51 63 127 3 
Task52 31 31 31 
Task53 63 7 3 
Task54 1 63 3 
Task55 3 63 3 
Task56 7 3 63 
Task57 15 7 31 
Task58 31 1 63 
Task59 31 63 63 
Task60 63 3 15 
Task61 63 31 255 
Task62 1 1 63 
Task63 31 31 63 
Task64 31 15 31 
Task65 63 31 15 
Task66 15 255 31 
Task67 15 3 63 
Task68 31 63 3 
Task69 7 63 7 
Task70 15 63 1 
Task71 31 31 127 
Task72 255 15 31 
Task73 31 1 31 
Task74 63 15 63 
Task75 1 63 15 
Task76 63 255 255 
Task77 7 63 63 
Task78 63 3 63 
Task79 63 15 127 
Task80 31 31 3 
Task81 31 31 127 
Task82 255 7 63 
Task83 1 63 1 
Task84 63 15 31 
Task85 15 63 1 
Task86 15 31 63 
Task87 63 63 15 
Task88 63 31 7 
Task89 15 63 7 
Task90 63 15 1 
Task91 1 63 31 
Task92 1 63 3 
Task93 1 63 15 
Task94 63 15 1 
Task95 1 15 63 
Task96 63 1 31 
Task97 63 15 15 
Task98 63 31 255 
Task99 31 3 63 
