files/tasks_parameters/ExAp01/sample8.txt 0.791465 3.15778 1.5595 0.203411 3.82197
files/tasks_parameters/ExAp01/sample12.txt 0.802414 3.94962 1.6705 0.207924 3.90677
files/tasks_parameters/ExAp01/sample2.txt 0.7723 3.78275 1.74131 0.200098 3.75972
files/tasks_parameters/ExAp01/sample44.txt 0.686309 3.59825 1.65317 0.200005 3.75798
files/tasks_parameters/ExAp01/sample27.txt 0.713605 3.45743 1.5148 0.182129 3.42209
files/tasks_parameters/ExAp01/sample17.txt 0.680494 2.77299 1.44514 0.14646 2.75189
files/tasks_parameters/ExAp01/sample9.txt 0.701487 2.99933 1.451 0.177444 3.33406
files/tasks_parameters/ExAp01/sample34.txt 0.704624 3.02928 1.58429 0.157984 2.96842
files/tasks_parameters/ExAp01/sample40.txt 0.730391 3.86889 1.52122 0.168379 3.16375
files/tasks_parameters/ExAp01/sample33.txt 0.787092 3.63695 1.71905 0.199765 3.75346
files/tasks_parameters/ExAp01/sample48.txt 0.671348 3.39061 1.49062 0.154728 2.90725
files/tasks_parameters/ExAp01/sample29.txt 0.736993 3.30472 1.38739 0.223868 4.20635
files/tasks_parameters/ExAp01/sample11.txt 0.707448 3.10585 1.41612 0.174079 3.27083
files/tasks_parameters/ExAp01/sample14.txt 0.65583 2.70971 1.43432 0.162214 3.04791
files/tasks_parameters/ExAp01/sample0.txt 0.729661 3.6937 1.5439 0.18367 3.45105
files/tasks_parameters/ExAp01/sample7.txt 0.652607 2.70501 1.42221 0.143463 2.69559
files/tasks_parameters/ExAp01/sample23.txt 0.754615 3.2697 1.57822 0.181448 3.40931
files/tasks_parameters/ExAp01/sample13.txt 0.733647 3.84225 1.67648 0.198247 3.72494
files/tasks_parameters/ExAp01/sample22.txt 0.692873 3.09569 1.56121 0.148796 2.79579
files/tasks_parameters/ExAp01/sample25.txt 0.675012 2.73966 1.5007 0.148149 2.78362
files/tasks_parameters/ExAp01/sample36.txt 0.63438 2.85948 1.28553 0.130042 2.44342
files/tasks_parameters/ExAp01/sample46.txt 0.754498 3.58643 1.69998 0.210103 3.94771
files/tasks_parameters/ExAp01/sample31.txt 0.691311 3.4832 1.53782 0.1722 3.23553
files/tasks_parameters/ExAp01/sample37.txt 0.739379 3.95293 1.50705 0.171701 3.22616
files/tasks_parameters/ExAp01/sample16.txt 0.593283 3.31216 1.30115 0.150249 2.82309
files/tasks_parameters/ExAp01/sample10.txt 0.733364 3.17098 1.61789 0.153776 2.88937
files/tasks_parameters/ExAp01/sample39.txt 0.689155 3.26617 1.44406 0.165669 3.11282
files/tasks_parameters/ExAp01/sample19.txt 0.737056 3.63532 1.52509 0.196094 3.6845
files/tasks_parameters/ExAp01/sample20.txt 0.618953 3.20793 1.25367 0.147335 2.76834
files/tasks_parameters/ExAp01/sample43.txt 0.638466 3.11551 1.4202 0.150644 2.83052
files/tasks_parameters/ExAp01/sample32.txt 0.724358 3.5311 1.42482 0.168744 3.1706
files/tasks_parameters/ExAp01/sample45.txt 0.752933 3.80283 1.48324 0.19807 3.72163
files/tasks_parameters/ExAp01/sample26.txt 0.639163 3.21645 1.29701 0.166061 3.12019
files/tasks_parameters/ExAp01/sample5.txt 0.632609 3.5889 1.52559 0.178903 3.36149
files/tasks_parameters/ExAp01/sample21.txt 0.680268 2.75242 1.55936 0.19512 3.66619
files/tasks_parameters/ExAp01/sample38.txt 0.642944 3.31563 1.37515 0.166157 3.12199
files/tasks_parameters/ExAp01/sample1.txt 0.729041 3.74964 1.51696 0.19701 3.70169
files/tasks_parameters/ExAp01/sample15.txt 0.698554 3.32916 1.48508 0.180707 3.39539
files/tasks_parameters/ExAp01/sample24.txt 0.742322 3.45951 1.59549 0.16529 3.10571
files/tasks_parameters/ExAp01/sample3.txt 0.896972 3.70014 1.70809 0.237107 4.4551
files/tasks_parameters/ExAp01/sample6.txt 0.702332 3.33003 1.58323 0.184714 3.47067
files/tasks_parameters/ExAp01/sample30.txt 0.828356 4.1841 1.4861 0.239623 4.50238
files/tasks_parameters/ExAp01/sample42.txt 0.74576 3.43221 1.70276 0.177383 3.33292
files/tasks_parameters/ExAp01/sample4.txt 0.785506 3.72477 1.6136 0.196448 3.69114
files/tasks_parameters/ExAp01/sample28.txt 0.664791 3.11323 1.45032 0.158819 2.98412
files/tasks_parameters/ExAp01/sample18.txt 0.656377 3.47418 1.45209 0.149064 2.80082
files/tasks_parameters/ExAp01/sample35.txt 0.756553 4.57086 1.49394 0.185031 3.47662
files/tasks_parameters/ExAp01/sample47.txt 0.684729 3.13768 1.52397 0.16417 3.08466
files/tasks_parameters/ExAp01/sample49.txt 0.693104 3.13288 1.49657 0.156154 2.93404
files/tasks_parameters/ExAp01/sample41.txt 0.664202 2.81964 1.49636 0.150876 2.83487
