0.32834022000000007
Task0 1 63 7 
Task1 31 1 31 
Task2 63 3 255 
Task3 63 63 63 
Task4 31 7 63 
Task5 7 1 63 
Task6 31 31 63 
Task7 3 31 7 
Task8 1 7 31 
Task9 31 15 15 
Task10 255 31 63 
Task11 1 31 15 
Task12 15 31 1 
Task13 7 7 63 
Task14 31 7 15 
Task15 3 63 15 
Task16 31 31 63 
Task17 31 63 255 
Task18 7 7 31 
Task19 15 15 255 
Task20 1 1 31 
Task21 15 63 7 
Task22 7 31 15 
Task23 31 15 255 
Task24 15 63 31 
Task25 3 63 15 
Task26 63 31 15 
Task27 255 63 255 
Task28 31 15 1 
Task29 7 31 255 
Task30 63 7 3 
Task31 63 7 31 
Task32 63 1 15 
Task33 3 63 31 
Task34 3 1 31 
Task35 15 63 15 
Task36 63 7 31 
Task37 1 1 31 
Task38 3 31 7 
Task39 31 31 1 
Task40 7 31 31 
Task41 7 31 7 
Task42 31 1 1 
Task43 15 15 7 
Task44 31 63 255 
Task45 63 15 7 
Task46 31 31 31 
Task47 63 15 1 
Task48 31 63 31 
Task49 63 63 255 
Task50 63 15 31 
Task51 31 3 7 
Task52 7 3 63 
Task53 31 15 31 
Task54 7 15 31 
Task55 31 1 3 
Task56 3 63 31 
Task57 7 7 31 
Task58 63 15 15 
Task59 31 15 15 
Task60 31 63 15 
Task61 63 63 31 
Task62 127 255 31 
Task63 7 1 63 
Task64 15 7 15 
Task65 255 255 1 
Task66 3 1 63 
Task67 1 1 31 
Task68 7 31 7 
Task69 31 63 31 
Task70 1 31 1 
Task71 63 1 7 
Task72 63 15 1 
Task73 3 31 15 
Task74 31 127 63 
Task75 31 1 31 
Task76 255 15 127 
Task77 31 3 7 
Task78 63 7 255 
Task79 31 7 31 
Task80 31 15 63 
Task81 63 1 7 
Task82 255 127 31 
Task83 3 1 31 
Task84 255 255 63 
Task85 7 7 63 
Task86 1 31 1 
Task87 15 3 63 
Task88 1 255 15 
Task89 31 255 7 
Task90 1 63 127 
Task91 3 63 15 
Task92 31 31 63 
Task93 255 255 127 
Task94 255 1 31 
Task95 63 15 15 
Task96 3 3 31 
Task97 63 127 127 
Task98 63 7 15 
Task99 15 63 15 
