1.5058193159999997
Task0 255 31 127 
Task1 31 255 127 
Task2 63 63 255 
Task3 255 127 63 
Task4 255 63 31 
Task5 255 255 31 
Task6 31 255 7 
Task7 255 31 255 
Task8 1 31 255 
Task9 63 255 255 
Task10 255 255 127 
Task11 31 255 63 
Task12 3 255 7 
Task13 15 255 15 
Task14 63 255 255 
Task15 15 255 15 
Task16 127 255 255 
Task17 31 7 255 
Task18 255 3 255 
Task19 255 7 1 
Task20 255 255 63 
Task21 255 127 31 
Task22 127 255 255 
Task23 31 63 255 
Task24 15 255 3 
Task25 31 255 127 
Task26 127 63 255 
Task27 15 255 63 
Task28 255 255 127 
Task29 63 255 255 
Task30 1 3 255 
Task31 255 15 7 
Task32 255 63 255 
Task33 255 15 15 
Task34 63 15 255 
Task35 255 255 127 
Task36 127 15 255 
Task37 255 15 15 
Task38 255 127 31 
Task39 255 15 15 
Task40 255 63 7 
Task41 31 255 15 
Task42 255 31 63 
Task43 255 7 63 
Task44 255 127 7 
Task45 127 31 255 
Task46 15 255 255 
Task47 15 63 255 
Task48 255 7 7 
Task49 15 255 15 
Task50 15 15 255 
Task51 31 255 255 
Task52 255 31 63 
Task53 255 255 127 
Task54 255 31 63 
Task55 31 255 127 
Task56 63 255 255 
Task57 63 1 255 
Task58 255 31 15 
Task59 15 255 3 
Task60 255 255 127 
Task61 3 7 255 
Task62 31 255 127 
Task63 7 255 63 
Task64 31 15 255 
Task65 255 63 255 
Task66 31 7 255 
Task67 255 7 63 
Task68 7 255 15 
Task69 63 31 255 
Task70 255 127 255 
Task71 255 63 63 
Task72 3 255 1 
Task73 255 127 31 
Task74 63 255 31 
Task75 15 255 15 
Task76 127 255 255 
Task77 127 255 31 
Task78 255 127 255 
Task79 255 15 63 
Task80 63 255 3 
Task81 255 3 31 
Task82 255 3 7 
Task83 127 255 255 
Task84 255 15 1 
Task85 31 15 255 
Task86 255 127 31 
Task87 255 15 1 
Task88 63 255 63 
Task89 3 255 31 
Task90 255 255 255 
Task91 255 15 1 
Task92 31 15 255 
Task93 7 255 1 
Task94 31 1 255 
Task95 127 255 7 
Task96 7 255 127 
Task97 255 255 63 
Task98 255 255 31 
Task99 3 255 255 
