1.32649263461
Task0 255 7 63 
Task1 255 31 15 
Task2 255 7 31 
Task3 127 127 255 
Task4 15 255 63 
Task5 255 15 31 
Task6 7 255 15 
Task7 255 255 255 
Task8 255 63 1 
Task9 255 63 31 
Task10 255 31 255 
Task11 255 15 63 
Task12 63 255 15 
Task13 31 63 255 
Task14 255 63 31 
Task15 127 7 255 
Task16 15 127 255 
Task17 255 15 15 
Task18 255 127 255 
Task19 127 255 3 
Task20 255 63 7 
Task21 255 31 255 
Task22 63 255 31 
Task23 7 7 255 
Task24 255 255 63 
Task25 3 127 255 
Task26 7 127 255 
Task27 255 63 31 
Task28 255 255 255 
Task29 63 255 127 
Task30 15 15 255 
Task31 255 31 31 
Task32 63 255 63 
Task33 127 255 255 
Task34 255 63 15 
Task35 255 63 127 
Task36 31 255 127 
Task37 255 31 3 
Task38 127 63 255 
Task39 127 255 127 
Task40 31 15 255 
Task41 3 255 7 
Task42 255 255 31 
Task43 7 255 1 
Task44 255 15 255 
Task45 255 15 7 
Task46 127 255 1 
Task47 255 255 63 
Task48 255 255 63 
Task49 255 63 63 
Task50 255 63 63 
Task51 15 255 3 
Task52 255 127 127 
Task53 255 63 255 
Task54 31 255 63 
Task55 63 255 3 
Task56 31 255 31 
Task57 1 255 31 
Task58 63 255 127 
Task59 255 255 1 
Task60 63 255 15 
Task61 31 255 127 
Task62 1 31 255 
Task63 63 63 255 
Task64 63 255 255 
Task65 3 31 255 
Task66 127 255 63 
Task67 63 31 255 
Task68 31 7 255 
Task69 15 7 255 
Task70 1 255 255 
Task71 255 63 255 
Task72 255 255 255 
Task73 15 255 15 
Task74 255 255 63 
Task75 255 15 15 
Task76 15 255 31 
Task77 255 127 15 
Task78 255 63 31 
Task79 255 255 255 
Task80 1 3 255 
Task81 3 15 255 
Task82 255 31 255 
Task83 255 15 255 
Task84 255 63 63 
Task85 63 255 15 
Task86 15 7 255 
Task87 255 127 7 
Task88 255 127 1 
Task89 1 127 255 
Task90 127 255 255 
Task91 15 127 255 
Task92 63 63 255 
Task93 31 31 255 
Task94 63 7 255 
Task95 255 255 15 
Task96 127 15 255 
Task97 255 31 63 
Task98 127 255 15 
Task99 15 255 255 
