1.4664867923999998
Task0 255 3 15 
Task1 7 255 127 
Task2 255 15 127 
Task3 255 255 31 
Task4 255 31 15 
Task5 7 31 255 
Task6 127 255 3 
Task7 255 255 15 
Task8 3 127 255 
Task9 31 255 31 
Task10 255 63 255 
Task11 255 31 63 
Task12 3 31 255 
Task13 255 1 3 
Task14 255 127 31 
Task15 255 255 31 
Task16 15 255 63 
Task17 255 15 255 
Task18 255 127 255 
Task19 127 255 255 
Task20 63 15 255 
Task21 255 15 15 
Task22 63 255 15 
Task23 63 31 255 
Task24 63 255 127 
Task25 255 15 63 
Task26 63 255 1 
Task27 31 255 3 
Task28 255 3 31 
Task29 7 255 255 
Task30 255 255 127 
Task31 15 255 63 
Task32 255 15 255 
Task33 63 255 1 
Task34 31 255 31 
Task35 31 127 255 
Task36 15 15 255 
Task37 15 127 255 
Task38 31 255 3 
Task39 7 255 63 
Task40 127 63 255 
Task41 3 255 255 
Task42 255 15 31 
Task43 127 255 255 
Task44 31 255 63 
Task45 31 255 3 
Task46 255 15 15 
Task47 63 255 3 
Task48 255 255 255 
Task49 1 63 255 
Task50 255 7 7 
Task51 63 7 255 
Task52 31 63 255 
Task53 63 255 255 
Task54 255 15 255 
Task55 7 255 31 
Task56 31 127 255 
Task57 255 255 127 
Task58 7 31 255 
Task59 127 127 255 
Task60 255 255 255 
Task61 15 255 3 
Task62 255 31 63 
Task63 63 255 7 
Task64 31 127 255 
Task65 63 255 31 
Task66 127 127 255 
Task67 63 255 255 
Task68 255 15 31 
Task69 127 63 255 
Task70 127 127 255 
Task71 7 255 31 
Task72 7 255 127 
Task73 3 7 255 
Task74 63 15 255 
Task75 31 127 255 
Task76 255 63 127 
Task77 255 1 31 
Task78 255 15 1 
Task79 255 15 15 
Task80 255 255 1 
Task81 15 255 63 
Task82 127 255 1 
Task83 31 255 31 
Task84 1 255 255 
Task85 63 255 15 
Task86 127 3 255 
Task87 63 15 255 
Task88 7 127 255 
Task89 255 1 127 
Task90 1 255 3 
Task91 255 31 63 
Task92 7 63 255 
Task93 31 7 255 
Task94 255 15 31 
Task95 15 63 255 
Task96 15 255 255 
Task97 31 255 255 
Task98 31 255 7 
Task99 1 255 3 
