0.44773650000000004
Task0 255 31 7 
Task1 15 127 63 
Task2 255 63 7 
Task3 127 63 127 
Task4 255 63 63 
Task5 7 3 255 
Task6 255 63 255 
Task7 127 127 127 
Task8 31 255 255 
Task9 31 127 255 
Task10 63 63 255 
Task11 127 31 31 
Task12 3 127 15 
Task13 127 255 15 
Task14 255 127 255 
Task15 127 31 127 
Task16 31 15 127 
Task17 15 15 255 
Task18 31 255 15 
Task19 127 1 15 
Task20 15 63 127 
Task21 127 255 255 
Task22 31 127 127 
Task23 63 31 3 
Task24 7 7 255 
Task25 255 63 1 
Task26 31 31 255 
Task27 127 63 15 
Task28 127 255 1 
Task29 255 31 255 
Task30 31 63 127 
Task31 255 255 255 
Task32 3 255 1 
Task33 255 1 31 
Task34 127 15 255 
Task35 31 255 63 
Task36 255 255 255 
Task37 255 31 255 
Task38 255 255 127 
Task39 15 15 127 
Task40 127 63 15 
Task41 15 255 7 
Task42 255 31 255 
Task43 127 127 255 
Task44 15 31 127 
Task45 127 255 15 
Task46 255 31 63 
Task47 255 7 255 
Task48 255 3 31 
Task49 15 255 3 
Task50 63 7 127 
Task51 15 7 255 
Task52 127 127 255 
Task53 255 63 31 
Task54 7 127 127 
Task55 63 31 255 
Task56 127 3 15 
Task57 63 255 63 
Task58 3 255 7 
Task59 15 255 31 
Task60 255 3 15 
Task61 15 255 15 
Task62 255 7 15 
Task63 7 7 255 
Task64 1 1 255 
Task65 7 255 3 
Task66 63 127 255 
Task67 31 255 31 
Task68 31 7 255 
Task69 63 255 127 
Task70 15 255 127 
Task71 127 63 63 
Task72 255 63 15 
Task73 255 255 63 
Task74 3 255 255 
Task75 255 15 3 
Task76 255 255 15 
Task77 31 255 15 
Task78 255 3 31 
Task79 7 255 1 
Task80 127 63 255 
Task81 63 255 255 
Task82 127 31 15 
Task83 127 63 127 
Task84 15 255 1 
Task85 255 255 63 
Task86 127 127 31 
Task87 127 127 255 
Task88 1 255 31 
Task89 7 127 7 
Task90 255 15 127 
Task91 255 3 255 
Task92 15 255 3 
Task93 255 31 1 
Task94 127 255 31 
Task95 31 255 31 
Task96 255 255 7 
Task97 63 31 127 
Task98 255 15 63 
Task99 255 15 31 
