files/tasks_parameters/ExAp01/sample8.txt 1.23435 6.77015 2.19458 0.288816 6.89801
files/tasks_parameters/ExAp01/sample12.txt 1.44465 9.58351 2.46081 0.337498 8.06072
files/tasks_parameters/ExAp01/sample2.txt 1.29821 8.44418 2.50701 0.319127 7.62195
files/tasks_parameters/ExAp01/sample44.txt 1.17021 6.96299 2.23089 0.28229 6.74214
files/tasks_parameters/ExAp01/sample27.txt 1.19584 7.74306 2.16676 0.28602 6.83122
files/tasks_parameters/ExAp01/sample17.txt 1.19447 7.35053 2.25579 0.292348 6.98235
files/tasks_parameters/ExAp01/sample9.txt 1.24136 6.89392 2.21068 0.282399 6.74473
files/tasks_parameters/ExAp01/sample34.txt 1.16242 6.62788 2.3772 0.297742 7.11118
files/tasks_parameters/ExAp01/sample40.txt 1.10325 7.75686 2.17534 0.285619 6.82165
files/tasks_parameters/ExAp01/sample33.txt 1.37835 8.14826 2.6463 0.338073 8.07444
files/tasks_parameters/ExAp01/sample48.txt 1.07137 7.64107 2.14272 0.270011 6.44887
files/tasks_parameters/ExAp01/sample29.txt 1.29623 7.139 1.93769 0.286306 6.83804
files/tasks_parameters/ExAp01/sample11.txt 1.14021 6.88688 2.12981 0.280008 6.68764
files/tasks_parameters/ExAp01/sample14.txt 0.929584 6.11983 1.97599 0.247458 5.91021
files/tasks_parameters/ExAp01/sample0.txt 1.20766 8.2738 2.14256 0.289132 6.90554
files/tasks_parameters/ExAp01/sample7.txt 1.07321 6.87011 2.05821 0.269886 6.44587
files/tasks_parameters/ExAp01/sample23.txt 1.20152 6.52032 2.38087 0.291712 6.96716
files/tasks_parameters/ExAp01/sample13.txt 1.24143 8.73247 2.33415 0.295393 7.05507
files/tasks_parameters/ExAp01/sample22.txt 1.10498 6.9777 2.28948 0.283979 6.78248
files/tasks_parameters/ExAp01/sample25.txt 0.974595 6.23444 2.2122 0.267298 6.38406
files/tasks_parameters/ExAp01/sample36.txt 0.999223 6.6174 1.9458 0.253823 6.06223
files/tasks_parameters/ExAp01/sample46.txt 1.40662 7.42369 2.49128 0.327273 7.81649
files/tasks_parameters/ExAp01/sample31.txt 1.05322 7.22028 2.13584 0.25377 6.06097
files/tasks_parameters/ExAp01/sample37.txt 1.1992 8.90704 2.16981 0.295708 7.06261
files/tasks_parameters/ExAp01/sample16.txt 1.04341 8.18243 1.88294 0.24945 5.95779
files/tasks_parameters/ExAp01/sample10.txt 1.11881 6.96646 2.31217 0.285748 6.82472
files/tasks_parameters/ExAp01/sample39.txt 1.0457 6.4161 1.97266 0.251967 6.0179
files/tasks_parameters/ExAp01/sample19.txt 1.39791 8.16711 2.23199 0.308463 7.36724
files/tasks_parameters/ExAp01/sample20.txt 1.08923 7.28549 1.88944 0.25994 6.20833
files/tasks_parameters/ExAp01/sample43.txt 1.00966 6.86804 2.00142 0.25616 6.11806
files/tasks_parameters/ExAp01/sample32.txt 1.16079 8.15663 2.12995 0.281726 6.72867
files/tasks_parameters/ExAp01/sample45.txt 1.24372 7.75184 2.10599 0.274935 6.56647
files/tasks_parameters/ExAp01/sample26.txt 1.095 7.4944 1.88956 0.267248 6.38287
files/tasks_parameters/ExAp01/sample5.txt 1.22015 8.08362 2.09961 0.28454 6.79588
files/tasks_parameters/ExAp01/sample21.txt 1.15405 6.11814 2.17119 0.26143 6.24391
files/tasks_parameters/ExAp01/sample38.txt 1.08326 7.761 1.96293 0.263659 6.29715
files/tasks_parameters/ExAp01/sample1.txt 1.23383 7.83752 2.13261 0.289228 6.90784
files/tasks_parameters/ExAp01/sample15.txt 1.15691 7.37971 2.12057 0.285825 6.82657
files/tasks_parameters/ExAp01/sample24.txt 1.16871 8.28531 2.25272 0.296628 7.08459
files/tasks_parameters/ExAp01/sample3.txt 1.35369 7.33359 2.39135 0.305084 7.28655
files/tasks_parameters/ExAp01/sample6.txt 1.09933 7.09894 2.24425 0.281804 6.73053
files/tasks_parameters/ExAp01/sample30.txt 1.43041 8.17669 2.03701 0.299204 7.14611
files/tasks_parameters/ExAp01/sample42.txt 1.16324 7.70416 2.42413 0.29743 7.10373
files/tasks_parameters/ExAp01/sample4.txt 1.32113 7.41691 2.36261 0.307803 7.35147
files/tasks_parameters/ExAp01/sample28.txt 1.16967 7.0562 2.07657 0.266428 6.36329
files/tasks_parameters/ExAp01/sample18.txt 1.07465 7.60139 2.1377 0.268016 6.40122
files/tasks_parameters/ExAp01/sample35.txt 1.41337 9.66795 2.28028 0.32244 7.70106
files/tasks_parameters/ExAp01/sample47.txt 1.05591 6.84842 2.12104 0.251655 6.01045
files/tasks_parameters/ExAp01/sample49.txt 1.0393 7.1497 2.11412 0.255889 6.11158
files/tasks_parameters/ExAp01/sample41.txt 1.05668 6.59911 2.07359 0.265885 6.35033
