Task0 0.06504635294096937 0.4291645596622934 0.24714258433036132 0.008271393306221612 0.6783076232768233 0.9678741935960338 0.929497761884887 
Task1 0.03247501300322115 0.11402808571513741 0.08729185866452166 0.11512597058701106 0.5629926848287071 0.6969769738767044 0.5965966739359172 
Task2 0.1444311944903371 0.29437297491102926 0.3151823355890402 0.02279093139169442 0.3088700079200866 0.4723308067200359 0.9834699119209946 
Task3 0.02963549079387234 0.011488385534646916 0.0751186454664508 0.06248152906291109 0.5849732230178638 0.6932363622865644 0.32479158284655674 
Task4 0.02909640238876877 0.2189437084663787 0.2985426891284982 0.04284601233922452 0.7815470198831918 0.8247223767609728 0.3849035163146007 
Task5 0.015156897751848914 0.05648265153717576 0.033031760207850806 0.056318850478745706 0.31488936249494154 0.5319965367361563 0.7314012967899968 
Task6 0.008999296163721903 0.017966695193208516 0.08920564219228995 0.11356644010595385 0.9071888454195227 0.3017841245915109 0.33730090590636974 
Task7 0.06755518844450717 0.010054605721383532 0.30664069714607106 0.23261192539277287 0.42299490151493413 0.6508432732681337 0.6307562816638999 
Task8 0.009641065063958044 0.22397500767093512 0.09772824014847288 0.2573356468471652 0.9792652516841795 0.621257507369384 0.32610280766821664 
Task9 0.0025894222624622022 0.002721597495664802 0.04720732217127531 0.01916047280693554 0.870950158776401 0.727180552399344 0.5277914774189808 
Task10 0.002545365282821367 0.04194762987972932 0.142464088620354 0.7933380124752423 0.7849069611962121 0.3404007834535676 0.9862085363471234 
Task11 0.046327006225615044 0.1018350372704569 0.2326286082727951 0.1846790396219767 0.583497481251279 0.31839948799422535 0.6178398732317625 
Task12 0.0042709476808536345 0.025130566685735614 0.040351037100497734 0.01716383950403338 0.7898761401548269 0.7070536356242378 0.5594960109801079 
Task13 0.005342486722117347 0.015375245000895378 0.018425140479801164 0.0031699973847490867 0.5741676806331435 0.8536808375031788 0.8626242477821215 
Task14 0.0795090352982142 0.2111974828056531 0.508858511397344 0.09937573768146808 0.9906856879852626 0.7770485887053216 0.38071358464091765 
Task15 0.08178635203240621 0.23915017728957555 0.278959151011468 0.2778278412901123 0.5092092438597945 0.8329355843527937 0.37432755160690034 
Task16 0.008529042698011274 0.017462923845361283 0.023226206438333768 0.017126593508748966 0.4582842208961689 0.9584006410001038 0.5729515257856795 
Task17 0.06982438902701596 0.23043979021593858 0.42116557340674776 0.07596088965599318 0.58376071645762 0.9628984851823195 0.9858107785239871 
Task18 0.05427956093723522 0.12356778575018158 0.03440565150661038 0.06352666984383165 0.3788379515263719 0.6685419081804931 0.5597427989912306 
Task19 0.036510464146568215 0.10866010160384332 0.07326166506145206 0.14036629811306334 0.30011334026456593 0.4268080666968276 0.8141383312076331 
Task20 0.10583387152241402 0.08581143689813713 0.31055188434940867 0.18554177802354246 0.4871439489336996 0.5114593748023789 0.7443400992745429 
Task21 0.015190535525020452 0.6281230893201319 0.21372973613118176 0.06650066615459513 0.6640322906954532 0.6052870219736786 0.430446871658257 
Task22 0.021036991009090903 0.05211218453328103 0.03371988863354048 0.09498286582080656 0.3072827617484153 0.9346910173724747 0.4286515885752026 
Task23 0.05497562353151716 0.1975837752043503 0.255882921833165 0.04383418481761666 0.46431164175738143 0.7161853953480353 0.8755911658130064 
Task24 0.025252211428043934 0.013237579312280201 0.0922117275235041 0.07886630507186271 0.8916517232570529 0.9677015796316351 0.6900741923578897 
Task25 0.03555077845991419 0.11574196439680005 0.46440752688402104 0.2821211813849061 0.39471242410082236 0.7199669410927847 0.9658156165249985 
Task26 0.006222393742287668 0.05904300666634321 0.025217003544184203 0.01872589711778277 0.300553088420909 0.38568203455240574 0.5175815268207912 
Task27 0.017032243813759698 0.02673799663427387 0.052535996293647996 0.19393899741210965 0.9432584419654428 0.4914474395300975 0.9714979023998649 
Task28 0.010268244172233508 0.0004228153396463809 0.05414046614896021 0.05856865226274838 0.5007967100426146 0.7138832077746227 0.671843109935669 
Task29 0.014079783631023654 0.017988758163416958 0.009238174277261316 0.039969344447778186 0.7500073398300928 0.803664251091375 0.8498138172856033 
Task30 0.017206704669022917 0.07561560317443457 0.018470352125128806 0.03205625360303632 0.96326706793737 0.4352577817664711 0.8233326948120934 
Task31 0.000260861770372751 0.047311969366690014 0.011666886795948291 0.013899855347448333 0.6271549830950738 0.7794355345449249 0.560642241511724 
Task32 0.04012235965512209 0.045505267098900924 0.05645092806500609 0.09029274568745162 0.4907535746338094 0.43752858184427074 0.8783973479550049 
Task33 0.009677795991892795 0.013519926667260686 0.01637276356220794 0.027039292010461485 0.6703567668176812 0.6229766016284747 0.5775450745798794 
Task34 0.01635938663271069 0.04438909781360429 0.2763095411281404 0.1713058060347513 0.3144107533688348 0.5635353337164244 0.45054847441624707 
Task35 0.026791626864933242 0.05589088295351082 0.15301888687057769 0.03017596262564451 0.7913880593829093 0.7825100565232721 0.6554317933397191 
Task36 0.09485853729062965 0.17314719623884323 0.1335047929265896 0.22068799356607688 0.32510521887813715 0.3247872067964418 0.32558326367820395 
Task37 0.029264303716805395 0.27195924332328775 0.16970943171979333 0.32710228794899365 0.7904070615170122 0.8275665066601872 0.8500393461894165 
Task38 0.006026579854195964 0.004597148546902943 0.007595378407276111 0.02346958801778321 0.5571278527948238 0.4945974117283845 0.45425104632024627 
Task39 0.006264755710661481 0.02378867580492135 0.012927622293951366 0.031129804577460972 0.3206312099733931 0.7557295084603314 0.50644001507659 
Task40 0.06673205300244776 0.07204619475962572 0.2797802487652661 0.19192181688929985 0.5510875293067202 0.9195610689745997 0.753358442866066 
Task41 0.0037028675826240214 0.0757098972422933 0.04529770030035041 0.08335596581933447 0.6666845282227312 0.9925931906948404 0.7573233754117958 
Task42 0.052336415659912414 0.15634750231001954 0.2512607726536129 0.25584090739490656 0.8909921480565492 0.3712157272694675 0.45802923068593104 
Task43 0.08411452504364941 0.24278216927605348 0.09323248838487319 0.45905752589616494 0.8431295679079098 0.5521701140432214 0.5259021333039108 
Task44 0.06838827849682906 0.1580192078389937 0.0061747733502794735 0.205147858442941 0.9069826857820105 0.8780589952975715 0.5899507183169974 
Task45 0.08739508967931475 0.1380125175860319 0.2302554101410144 0.34794032296190885 0.4151965132726356 0.9141218093094736 0.7657824317749466 
Task46 0.00011953068857830237 0.1473086306154241 0.14362129221161116 0.042769074292072946 0.821059228464043 0.3212908177683824 0.3849067041120565 
Task47 0.12805020855387872 0.35066558402388553 0.02064204920777285 0.19910896975339942 0.35548387979635315 0.5048704599307299 0.3496048170579915 
Task48 0.036788028297885064 0.014056954074031663 0.13015037071499294 0.015201886370034105 0.5466206662663803 0.3795671013098457 0.9053631236160862 
Task49 0.08041187982995557 0.2314422527746208 0.12385498159097874 0.08611790960410338 0.45842946419967323 0.6119459460768641 0.5088075645956969 
Task50 0.08648591826379208 0.16347513908268776 0.09121064265453568 0.3682395268185303 0.32190576236859647 0.36998623575743594 0.40260482482105947 
Task51 0.0030970695481352087 0.046716769657729966 0.08406533827047832 0.29431587572135015 0.8881099308667928 0.42169148856001504 0.9901079985157741 
Task52 0.018323973669038353 0.16060819203129437 0.01966975562295866 0.1172725991391684 0.4436165375661443 0.5365362426641578 0.8109211151309925 
Task53 0.05695938320440833 0.22259271989760393 0.1740556139625149 0.14307625784141653 0.8530846164925348 0.8855221629027148 0.9304620375606334 
Task54 0.03267697440756252 0.23453186066521642 0.22571250883321553 0.08863989188073053 0.35529749871083793 0.49876721741358676 0.6439603496999052 
Task55 0.02447755811240343 0.03354158690750416 0.03361553312692303 0.032206890978772766 0.5342340042002194 0.3787674747409354 0.5074059965129474 
Task56 0.1054397359675126 0.3259960353397892 0.3189669584260219 0.1738901152293263 0.9432540139880286 0.5393242490975211 0.8818479949964848 
Task57 0.02486632667235384 0.0405008855653188 0.0683870732351772 0.050924179335547694 0.7506405360994639 0.7389906329613263 0.3849632086017683 
Task58 0.04637187119776313 0.010990112317108468 0.09729087207504537 0.09931681252708965 0.3387394249289667 0.8204479408766563 0.9352059055130926 
Task59 0.009417173892569354 0.027637844932468365 0.0165502891740545 0.02242873105172418 0.5874793705049902 0.8460830857388479 0.7042614164692049 
Task60 0.007826845394196471 0.046707094841699784 6.064104314351858e-05 0.04026902354961263 0.8165259424802265 0.5878428705748088 0.8509547353808504 
Task61 0.025456542342670925 0.11662578996076532 0.14833598959646274 0.12817280160740221 0.561856723386835 0.674906084937348 0.48612293565564224 
Task62 0.04225331603023186 0.05835824369478728 0.09817149875071966 0.22943477237763357 0.7628783450608699 0.5935730337163313 0.43418732367121887 
Task63 0.014524861229127162 0.023855805574500434 0.04484497696832173 0.04865603733582232 0.9230737492585424 0.6019747286176819 0.8981057539268869 
Task64 0.08022666266820515 0.4041650423032066 0.3944909656859062 0.096240898892553 0.9238483440041536 0.7729896583391904 0.9218888877813338 
Task65 0.009064187061345028 0.03959226263256302 0.013326566203948013 0.03614355959197577 0.8393704285226324 0.4404844658407182 0.45975158870873606 
Task66 0.04386827570064767 0.23756807609093417 0.07836725660147789 0.005583149580775416 0.724818588789973 0.6797765432006011 0.5347500313785021 
Task67 0.024161805695743773 0.15162358624816982 0.2144744344578151 0.10432382854246967 0.6948466708612874 0.4179049246593467 0.7907665595745879 
Task68 0.0207202440360442 0.10775307423533456 0.12877485260911606 0.08724093487704127 0.6770178690697743 0.7663246693223396 0.5500445557375452 
Task69 0.11912679843169953 0.22265140147592014 0.08777456422746523 0.25429170499853654 0.6194047184632205 0.6460946983512299 0.701902912702149 
Task70 0.044638462504279934 0.2236135139823318 0.41340088750809734 0.2693845405207929 0.6589369208396118 0.6726233438696343 0.6173634349292875 
Task71 0.12345884912651556 0.36690340664967175 0.01967703873805851 0.19302050504423224 0.8199218022698831 0.3173268138232866 0.9652617870700102 
Task72 0.122238930666777 0.03880196871889994 0.3774355456086756 0.3894294834581854 0.946563939525586 0.6165438904689055 0.796433048417384 
Task73 0.11053242231575403 0.1260777890624109 0.27818289932259793 0.10054869960010103 0.7436157101531061 0.8264644974150497 0.9632465901299361 
Task74 0.0558426242026322 0.10850853685299079 0.0645753428571194 0.09722913221401476 0.5049808906824109 0.9946272384744792 0.47649262940987014 
Task75 0.0023160971696752344 0.014614156662875457 0.0028065694413633474 0.028817138313374936 0.6658059008244033 0.6791834793658799 0.4808347684242865 
Task76 0.04662549726027768 0.24322206589752846 0.2011975288184553 0.24004592215600654 0.6217272968030529 0.5827324712806647 0.855475804795083 
Task77 0.03355661695889453 0.11923888074539388 0.10566730280171209 0.047980795278017456 0.659839698629086 0.9361082812155916 0.9207055607905232 
Task78 0.015537238021785586 0.24991299514189344 0.08210374527928128 0.5287957902339896 0.9276257121963289 0.8547105976813576 0.8083639765203805 
Task79 0.01869500722202622 0.009219344322090364 0.09780498854340783 0.011185044215913252 0.3517942658525005 0.8019195732418105 0.8288344472218463 
Task80 0.037725894697099596 0.052744089379044345 0.06953783679741193 0.09060647657388858 0.665324732843707 0.610055033796977 0.4288916735650016 
Task81 0.08240934365156252 0.25524610213600757 0.002910852409891763 0.17878835812556046 0.5768962156903108 0.7837912740723466 0.7314601250237383 
Task82 0.058339899783522574 0.1757685651074505 0.1344195619162944 0.17788260759490762 0.6289151219363938 0.47266329336049906 0.5468721333857111 
Task83 0.0012857142790906064 0.019179655938036118 0.0038119523781644576 0.030201551966951463 0.6885874008893064 0.9157227780358541 0.48607005031138734 
Task84 0.06479777262655738 0.07763211834046252 0.12499097384501484 0.14748970805650644 0.7477480653818951 0.783079519769487 0.8301606545284406 
Task85 0.0443592988440559 0.08285622442165416 0.3260716939334463 0.44481367574567254 0.9333031312730142 0.6505136142760062 0.4294288757672502 
Task86 0.01474339376500681 0.09957873387247071 0.09578830372309007 0.06761989632596588 0.9788820478257494 0.7343999083185079 0.5673686942951183 
Task87 0.0026750250202139114 0.018258677308422094 0.09453503373387014 0.2700379480376597 0.7273773670567513 0.877802357167043 0.5631652191350088 
Task88 0.0032221169939757317 0.36088513429040536 0.01945916167298524 0.3260154633452901 0.3741599007262235 0.6269374795393401 0.9400769257118966 
Task89 0.07467725426860963 0.1873410092309528 0.2087550393391316 0.1366631994860375 0.9378803127310531 0.5990346865039446 0.4747780610335661 
Task90 0.030075776932448204 0.08250007445351148 0.20057784580649157 0.19552171242746036 0.41787796673112787 0.39859527242176535 0.6536674990820168 
Task91 0.09734578611428901 0.4808250880747003 0.09342296780337149 0.32682433977577496 0.9152202822688849 0.9268455445397605 0.7186867042509497 
Task92 0.1340299379374668 0.31381445701703187 0.2064235835954576 0.24254788257852458 0.5760473660408321 0.7426140793507204 0.553395356159516 
Task93 0.13993900613327973 0.08543711520172105 0.3104105530709787 0.21748609224913096 0.7453748071214874 0.8684760926455619 0.8814975641564562 
Task94 0.006280835150688449 0.003234411459230352 0.019571708818539063 0.005436907169781286 0.4241555646587616 0.4301725345090115 0.5739204687679541 
Task95 0.0016936087170687983 0.24370309435181745 0.18187752653958775 0.06112091518353218 0.9832887828811447 0.5034039250024173 0.6529689591699281 
Task96 0.050762042879052414 0.0940882720770721 0.24965823470634205 0.0004026704975890419 0.9850375872001265 0.7503635630731815 0.6770557050979176 
Task97 0.12915854845312194 0.16447459057293856 0.31211113181035227 0.04290390573259898 0.6390009322330206 0.5312482053177359 0.8835734744080426 
Task98 0.09566136582056564 0.3409119997110167 0.03445866923856077 0.3381362088881224 0.398860758148168 0.8711584984451679 0.571554309330508 
Task99 0.02289261370046838 0.12157052430823974 0.03226232698862313 0.033709785351527556 0.3501501522206636 0.3304707361039937 0.5751349288237895 
