Task0 0.07806716312709461 0.14884192434870827 0.23254976677373565 0.2576500608034621 0.6450371560604369 0.7553792327214397 0.5745640371815395 
Task1 0.04895972531418669 0.07701998601610585 0.202542507705206 0.06203549955893114 0.39156977869221277 0.5400733791610426 0.5416755822049959 
Task2 0.1072879003505139 0.26772491167063767 0.1558073009927056 0.2630151998810785 0.5237726345618181 0.7079975239712568 0.3968403525215431 
Task3 0.009633805460867126 0.037723769082575936 0.00937195709888966 0.06474684420152212 0.9816632630901261 0.906835157774349 0.8033444292661889 
Task4 0.1150570074380288 0.3107656055845608 0.16055428903662242 0.16872644956687474 0.6798173016657467 0.8613523153785432 0.37037056125307577 
Task5 3.105641579937869e-05 0.0002067219079618287 7.604795750628827e-05 0.00019389522662408305 0.6263649025923195 0.33414767581118354 0.698994837304248 
Task6 0.00016824911961916522 0.007782547743545367 0.054926263076444166 0.00931063073200388 0.9266118770670619 0.5884452178624116 0.41652566149002057 
Task7 0.09975142637254263 0.11703433445008048 0.19505506694664146 0.17555264059359454 0.5663542145550966 0.3133859384531635 0.3597062512904462 
Task8 0.18331058849180026 0.03794147049914974 0.20191371666738445 0.574062447745992 0.8300521375062853 0.7713942231293853 0.3888806110836077 
Task9 0.0015473066405472325 0.025771109204966773 0.009315698520616473 0.023662812365507744 0.49050733316549733 0.9201562140648143 0.8722841909929444 
Task10 0.0012102574982388063 0.008662288196828405 0.004620126681774783 0.009922539754465045 0.5500828207340632 0.5324917381980233 0.8773992421362165 
Task11 0.06162133360832944 0.19836593292548726 0.05966744321776232 0.024639878750981743 0.6404802761274582 0.33833733834524243 0.7402625830919808 
Task12 0.00035702642761456884 0.033060984519693505 0.008806682704018307 0.013437302803123535 0.9633843856550943 0.557989542061955 0.4644342736220407 
Task13 0.0007989890371433698 0.09529671906204601 0.18360280097908946 0.07984490955331362 0.6296913709264225 0.35548947605373016 0.7309739177627063 
Task14 0.006636115235434798 0.15164462584364635 0.019893250435388275 0.08379894343193064 0.3396242230887245 0.635201231673686 0.4202201600426735 
Task15 0.12782853061810895 0.39656685801940267 0.07643421312973418 0.20627712362138725 0.6916867022196143 0.8209909910025242 0.7909236965490846 
Task16 0.004722334517789166 0.05636124124723476 0.02480186083220451 0.02321435364199522 0.9141012645734798 0.8817861629780201 0.4304861363613885 
Task17 0.15823932437874708 0.2899313243499919 0.23713449551873153 0.3042959591119576 0.7723360591547375 0.41947063388776007 0.30558142923388654 
Task18 0.021898077042436747 0.14569442517336606 0.4384240836837804 0.26025407993478206 0.7742416980419474 0.6857881315464962 0.4922537363453907 
Task19 0.036976798957439216 0.02384203713821445 0.10205087079775431 0.11845921873266209 0.3034450577884034 0.3608020485894735 0.9017249462930468 
Task20 0.0014007139020495217 0.05234383488089744 0.03319588958529985 0.07615481983404805 0.5738939292411591 0.7719449848294198 0.949401323366174 
Task21 0.017591202129328416 0.19350089819987049 0.0036567439775691477 0.44371736987523697 0.9906786861390331 0.914215636571964 0.3005174502155759 
Task22 0.012685941654611394 0.09515539473287139 0.21397066841456686 0.1599677343974195 0.5603760227286945 0.8168750778935143 0.35207341114886853 
Task23 0.00012190180597511796 0.03618643800429096 0.037423453647379534 0.010500305452174266 0.6787334556412481 0.543918073670868 0.5172620083124388 
Task24 0.004950147070373371 0.32213407029026164 0.022966394807564797 0.5325421496847188 0.875565005942597 0.5289143074038687 0.43466642574530223 
Task25 0.09655813352746502 0.13437756281849178 0.3035965140026068 0.19745088983476713 0.7369886906930314 0.5016619810829326 0.6222621766080593 
Task26 0.03481382528636397 0.10204394389160801 0.10752624979733445 0.031340720919976355 0.46094328804441353 0.6489973695054814 0.5837844655200166 
Task27 0.046330889373372215 0.2447478294751555 0.1441523418328563 0.043876779740941216 0.38615973985425345 0.9298929881142857 0.9632611655398164 
Task28 0.14928603823565945 0.163420733791307 0.08471281264050545 0.5300627606529348 0.5608215111658623 0.9519270161323552 0.7050985953893638 
Task29 0.10125708946642979 0.22077554947645414 0.15316460044609953 0.22520030275437408 0.47773865977968233 0.9052317803635377 0.9134611511324446 
Task30 0.16563641675074692 0.05012395034278074 0.6558389733005989 0.11367191723561518 0.7033074863930044 0.6213991052375238 0.45813855983198026 
Task31 0.04431317431544353 0.09626872608660846 0.07923192923565926 0.060221950920896335 0.7363955812225744 0.3572603109378401 0.6090564814155119 
Task32 0.014712227987131463 0.24813547297293248 0.14250456263368183 0.06383066213345316 0.9783490156803694 0.8804448701921268 0.7977797262841169 
Task33 0.0023489363454322954 0.005192342273904969 0.014577081822259894 0.01849706952611224 0.6961470180032314 0.3576041093512706 0.3188275696497545 
Task34 0.030741069449048274 0.1862352831097637 0.10038798619150839 0.3152343953851469 0.8093303671491279 0.8274807861968752 0.8077377695214385 
Task35 0.1475878177411188 0.22919820677900074 0.2589188334847153 0.2634024013971601 0.5301351970779757 0.5348645456405152 0.3297604159893619 
Task36 0.04583031209371843 0.2323428998058739 0.09096197763899316 0.11816245787646346 0.5119635450409967 0.47989354089805447 0.7657634660910115 
Task37 0.1253145065197733 0.1838557532599155 0.26072679171097607 0.41742098094442587 0.43676630125794513 0.372940125662923 0.6576404809961964 
Task38 0.15931610738707336 0.18103985089446814 0.23288419818583456 0.2430945683379273 0.45294625015854056 0.7556000674981057 0.3319282403923344 
Task39 0.0016670160106592744 0.0028486225135488804 0.0032377645407269296 0.003952210684804578 0.3164334765567849 0.9882601713287225 0.5880260285367197 
Task40 0.03659047269400454 0.08289179676215534 0.08230236331259208 0.027463354360363908 0.5235342073377895 0.4076337066579343 0.9606686313657702 
Task41 0.014437188300235302 0.20709675433178065 0.3733856821812949 0.30617956064995583 0.9430146789354319 0.8344841704847086 0.7961254335323809 
Task42 0.00014545749960957836 0.000483011801787763 0.0003099761411470545 8.678736012110409e-07 0.3663807260029137 0.8699993621133941 0.8144585792342409 
Task43 0.06728984227412863 0.19398712023951195 0.08955793867299443 0.30219888036108183 0.8856922705871841 0.4949895544463993 0.6044308305671215 
Task44 0.11265695483494595 0.3127570018961006 0.25761937474689833 0.07756035801309508 0.8440712412070013 0.705474520114846 0.6490004202013351 
Task45 0.06981052463626998 0.17249165453382365 0.019602154729387544 0.16392804265447722 0.9277732879587408 0.678781342283115 0.38260933401593755 
Task46 0.009365780982912946 0.022464775633137247 0.005306990583642568 0.07173912552863924 0.7389951918170761 0.9006993156877146 0.5161955626049911 
Task47 0.01841114204826664 0.32340750271063934 0.3161224825489365 0.3297819651788419 0.6465811727633459 0.7928950784335409 0.5714888919124892 
Task48 0.08343026018415413 0.03859397483110335 0.14565881045483353 0.22089986282032353 0.5791441370130024 0.8139738739449418 0.6150713169684656 
Task49 0.01507797784427891 0.027089780750190546 0.031665816856568 0.026709883092823582 0.737510347078937 0.46631295702460784 0.7562407051767663 
Task50 0.10473360030995618 0.20628197915097193 0.30933490412920234 0.10991372834331875 0.41611207681963364 0.822159105015674 0.7769061053614339 
Task51 0.0361196009851813 0.10145746558752611 0.21119781018384776 0.1301761976170271 0.4737257491426995 0.39747029010345264 0.599072253034181 
Task52 0.16669019810524482 0.13717045820905344 0.3136934978446698 0.3243242801050645 0.9162019634737235 0.6089267403928906 0.6083521302594869 
Task53 0.0013825588921035142 0.0716695950362297 0.07664463852825874 0.0018229871926406227 0.4709648088625789 0.8165012910349096 0.33868351430256627 
Task54 0.1079625471253291 0.10339846446934534 0.5320446924846249 0.1775701202855055 0.9971684297298407 0.7527939294194321 0.543777704365908 
Task55 0.004736345947173451 0.02559570973844892 0.0193667360047683 0.03370654418638201 0.8942615122366664 0.8832005102586802 0.8011517187355293 
Task56 0.04886728118735443 0.35997741828130997 0.07623988699521655 0.32089823497429676 0.4463343119058034 0.5086727448447546 0.8802452538312076 
Task57 0.00025089088536595403 0.00401910352994434 0.011280500686132339 0.016890828229051358 0.30297920166565573 0.7116134680758364 0.5021019854093175 
Task58 0.037410313810711394 0.01855717714650456 0.34014869145593124 0.13964670294666803 0.4737685046875164 0.528612718069446 0.5690452633706531 
Task59 0.03844675842356155 0.17216118049486437 0.17622879826046214 0.08378364821891497 0.6966219847350748 0.7119859188731565 0.7775448570001421 
Task60 0.09706643329909033 0.14564824933847342 0.38734921401391725 0.1379586599711046 0.9011152831542764 0.9906622510283278 0.6882391414533808 
Task61 0.09667244541781037 0.3465575527179288 0.23439145990876517 0.16772428433481895 0.5441799003500747 0.510432676571763 0.5759524006158356 
Task62 0.019797950218598863 0.04556185716512085 0.023783123715003174 0.0391467571051241 0.43328426681803484 0.6028343290882505 0.3215806357857259 
Task63 0.03300959885114158 0.5425417637958513 0.16115713976563742 0.11964209068338338 0.7358974902577012 0.9770140204027264 0.8284766743949017 
Task64 0.006129330679969576 0.07856099169456149 0.06917455106585439 0.08670964351846622 0.7216924354562004 0.45099404620753086 0.48351838884625997 
Task65 0.001587063668184503 0.14465221913020893 0.0874013023150189 0.2116477833803011 0.4003640851104665 0.9776409325685878 0.650466556035182 
Task66 0.16179912132668747 0.3458712930481884 0.20910619529084706 0.16902066367194393 0.9794277349306653 0.49299181122524693 0.9245067656845378 
Task67 0.07207645842704348 0.08374419482578363 0.12567753581641145 0.20069686050916005 0.6722508190610441 0.48512430361337117 0.5084631692679026 
Task68 0.00818326284658308 0.339424270399283 0.3345287691476293 0.04965350733504011 0.9327334449371845 0.3939543977585268 0.6353429977142394 
Task69 0.009292166763339571 0.24668140125607774 0.07913724534654788 0.1373028702376445 0.33604909285077394 0.33233947366808475 0.9462086078556184 
Task70 0.06566575654611836 0.3893215259780718 0.3198559789299299 0.19946084118738963 0.37439151279632843 0.8533537132128661 0.5983115074843119 
Task71 0.02686170352062685 0.0198941593776391 0.04633869841141013 0.1632965554737349 0.618033439200277 0.8661996602063138 0.550692828806753 
Task72 0.011836530847705286 0.12833831148610853 0.1687351931285695 0.2103415950664575 0.7452015309938983 0.9087731182886205 0.49457644071267964 
Task73 0.0070225543283579965 0.15392652637630555 0.01419587451828551 0.08945796155269425 0.9121991937137142 0.9723849007354506 0.5671245269735652 
Task74 0.05294774940384609 0.06470222991966419 0.13194407155577859 0.12118264544097222 0.5749459046575631 0.3004043982288085 0.6179881655938044 
Task75 0.050017746272955146 0.22202980297856145 0.0372230174382629 0.2913687766140522 0.36514275978994026 0.5104908089586799 0.779047214676009 
Task76 0.10081697123458347 0.1802778569727387 0.05577272195481116 0.22629442966227184 0.5786661725642812 0.70702910287199 0.7813808066122245 
Task77 0.014437241493159857 0.0636654659472566 0.6709922985221917 0.0614149330674347 0.3678189009038716 0.8749244417191357 0.8349016277845542 
Task78 0.036768512561236234 0.2069853512205122 0.2892264347561836 0.3266166349567106 0.8647608440902768 0.5116208829927892 0.7870956085970715 
Task79 0.0003958312328283603 0.001538745414827121 0.0119861861288066 0.03411764864154128 0.6199066862922231 0.35101537736564137 0.32194995351224753 
Task80 0.07876393694318909 0.36417941022457784 0.13958486914459828 0.11932070596893095 0.9695718073917736 0.4209849790120307 0.4716925859264999 
Task81 0.011411995310582323 0.1040071945600521 0.019145029377739833 0.09299688372237425 0.936963012926171 0.626502139516154 0.4881874182107767 
Task82 0.019012253136656807 0.013948116373169273 0.05976750693993402 0.022706687697157002 0.7643112779649645 0.797521361662227 0.4772968484212341 
Task83 0.04661747814006479 0.130298604508075 0.23830952423570598 0.0685333685769363 0.7721777815155637 0.741192625383747 0.46768377298756725 
Task84 0.15858362952757304 0.22498233368513934 0.24386689798244804 0.2441076711753524 0.34570085969587167 0.8810343193585912 0.5180098503654943 
Task85 0.03606691986137584 0.0944266735093834 0.14827671741086854 0.12627440504952647 0.870232179846792 0.4673632463528529 0.8661810478433722 
Task86 0.04146798140614688 0.06965193879192583 0.0665966940886841 0.06240851888006043 0.9742882892473501 0.5585058674004924 0.551458498630127 
Task87 0.0011527234546922153 0.061110952587931894 0.15086849910909136 0.05771022652493767 0.5439365403535781 0.40424740588583274 0.3921588110916368 
Task88 0.10442679817152868 0.16435919192508414 0.1691284660012123 0.16680105230040887 0.6043428149980574 0.39132102344424624 0.9129368550247707 
Task89 0.11776152658227614 0.2855869346747384 0.09457107054404017 0.16798596754319983 0.5839221584393081 0.6154130231877155 0.7397031255431497 
Task90 0.08694035333623552 0.19357560151546158 0.03196979690350717 0.17258686884395097 0.7849562179351345 0.588457425015433 0.37819790312021206 
Task91 0.013721498297136049 0.03934536650066745 0.040493047497288714 0.025510392152615507 0.6334115361709589 0.3274655962704312 0.7862775779290969 
Task92 0.00935050179915487 0.0017133901659639695 0.14996847310445194 0.14826420252460099 0.6030048061754295 0.8260808408919669 0.7877705846663999 
Task93 0.016122534698148186 0.05034618050722455 0.11005256361311655 0.0975498481240415 0.4656332050258482 0.7447023944224969 0.906467687558699 
Task94 0.06029498050221543 0.19739706231530582 0.2525916392152096 0.022925296292687896 0.6210435692922622 0.8424380121119208 0.3388700971877249 
Task95 0.013232301626255598 0.030602701998961805 0.052650739840823295 0.05252016046645144 0.9806385564964939 0.46799348140876196 0.31223639111498236 
Task96 0.043534990399484906 0.5759836026512175 0.14596861395954616 0.07301236651631464 0.6183407315532511 0.934753206962464 0.7634359752102144 
Task97 0.008225773912358495 0.09827489461319538 0.05258248743625541 0.21288687147965546 0.33551837266430956 0.8305853134292245 0.6633821483688196 
Task98 0.07038353541242132 0.03098472828411402 0.21840496555908298 0.12342826293190041 0.30201548213449303 0.3308314742263011 0.6305770441980497 
Task99 0.040359303455024885 0.21716431241450415 0.2054971170233997 0.038766522407220234 0.5157471375090575 0.37440571147369384 0.5467522340958468 
