Task0 0.032024316377611134 0.2559351996178747 0.1679654967523211 0.1935587426569792 0.40317410546669163 0.3237244760783911 0.8990567168378047 
Task1 0.013035789931756588 0.005557827830339587 0.03349420302223317 0.02205380661440509 0.7580945986768557 0.8788518602949471 0.6706523468219479 
Task2 0.02517487836142075 0.052199088860335946 0.06078872841096982 0.08086311215071697 0.4236813175894087 0.9261493831339835 0.410358732444577 
Task3 0.03630404590784933 0.1769074059223887 0.13663594293431786 0.07338605126906374 0.49636743877906253 0.641174321653625 0.7808456469827652 
Task4 0.14494333362520395 0.23606287059920328 0.22284750452114246 0.127827321647383 0.4937923660424109 0.31952771513574524 0.9971045290695484 
Task5 0.1416361191086368 0.24410742704966606 0.08382920203541577 0.3283565473369155 0.43445581062524274 0.6941589374838071 0.6787728929660943 
Task6 0.003568701094334796 0.02603971431942233 0.053585755161405 0.03892358388513626 0.41644892999821054 0.9857722241981257 0.5286897960275146 
Task7 0.016250569893354928 0.26297659383412936 0.28119908895733486 0.1969101874994954 0.7635887025416022 0.8778833876229977 0.9196951695321312 
Task8 0.005373783740371267 0.020800863832487356 0.03015337287979853 0.014498418666187524 0.8783157281522809 0.34974852961914094 0.6864758584322197 
Task9 0.048072951954617464 0.002594709562631206 0.10988282216906857 0.2097479231347204 0.6725172127281435 0.952540061625367 0.8356641917623324 
Task10 0.02649867913343651 0.23093173519173166 0.28453205524387537 0.048087279686182094 0.30152036045626585 0.5216052636143864 0.6874640788317878 
Task11 0.04284882668467918 0.053684638593872056 0.1426233711679922 0.08168512623475563 0.82084868477945 0.5764654568577003 0.884155770674766 
Task12 0.014409432129132827 0.042522603818595066 0.016378424306887577 0.03196720203354613 0.913358064896372 0.7545540584005849 0.6123087026129141 
Task13 0.016263814891549308 0.08661826852593524 0.24960383004267805 0.08018850106757368 0.46310485350432234 0.5750539078335463 0.9340774192697212 
Task14 0.12793217805671467 0.012753448423422365 0.42181349406784896 0.3727151635488192 0.8088228080311333 0.6592163268561458 0.6077796777938286 
Task15 0.0108335376158443 0.007180581124236884 0.048351592882152156 0.13154636642645337 0.34819207744331826 0.9099204188440286 0.7108857699893331 
Task16 0.01797946487303767 0.03550584832413525 0.02072864287586205 0.06099335772074693 0.7734220319496957 0.6371814059877723 0.4031285174679697 
Task17 0.001557561303706743 0.004710470236029453 0.0005411428341587757 0.0024473683025927066 0.6552819320792638 0.8930631925623997 0.3270690003413276 
Task18 0.15103290670084688 0.07088690147976927 0.5502576226163725 0.08386852084363361 0.5344723808710408 0.6640469972718822 0.6562014567757213 
Task19 0.032853118530916825 0.04466563144020734 0.0884360696275174 0.018834410110277214 0.9970337985621054 0.6888185680279006 0.7718742552535316 
Task20 0.06969979488240435 0.1562521749953436 0.09031484867024411 0.19142792348560203 0.5660800854160106 0.5700833981023822 0.9097895969719716 
Task21 0.15314141299694697 0.09950015438983087 0.23615160832266865 0.31544960890667884 0.44460919057981246 0.9523728103377003 0.795412113042306 
Task22 0.030549602619868537 0.10739799136958199 0.04879166773561219 0.17189437098545932 0.9647823408145051 0.9775377191140799 0.6936110861716982 
Task23 0.027559045077426354 0.15744981777909822 0.10397910642432612 0.2024842528662789 0.7354963150874898 0.971989246234156 0.8163476980605484 
Task24 0.011629811439750875 0.14708885664401303 0.15201001061936897 0.020020968352699335 0.7400322757725966 0.7476840366744641 0.6500168472145753 
Task25 0.058228513214711265 0.10005700644700065 0.033515491188746256 0.13229990027800878 0.322997707549725 0.9161074683206618 0.4006443939846946 
Task26 0.01527825868724103 0.02565987096271629 0.08780152066844665 0.09361147782167763 0.7518561751993675 0.910139540586355 0.6669491977514072 
Task27 0.008052721634307657 0.04022045216521399 0.006321885076456557 0.013437795224751251 0.961881842644662 0.4933909362863298 0.8580034584032947 
Task28 0.04377518964573899 0.1305780046168159 0.07731952513969764 0.012426817084635004 0.7077196451784267 0.9282242011443389 0.7458387081639406 
Task29 0.0214607740163335 0.018294010866493498 0.20324312078595533 0.5404677667817408 0.5389672833188843 0.31791962611558783 0.9660072210404882 
Task30 0.037458592300768256 0.23239247051828493 0.08543958671488477 0.14081872126995884 0.943905827131928 0.8144295217158528 0.4287147016554995 
Task31 0.10556651547364858 0.12275485938085302 0.16186766783786571 0.21368515361911763 0.6451856914302343 0.7933147591712215 0.8941390299555088 
Task32 0.021745941792809306 0.05127674954229287 0.0744058670493076 0.0037904595610840893 0.5157452287091933 0.5801735869807403 0.6381413378438294 
Task33 0.02260528795318554 0.045203238613656 0.07239970371433527 0.053626213733012455 0.5396846635581873 0.704705077215977 0.7942628584618168 
Task34 0.08297628450294955 0.06611921136581811 0.09096038709840042 0.26578651346836846 0.45862008024208334 0.3293221081342111 0.5144962839523411 
Task35 0.02830944603524113 0.21318833567314008 0.1712851659722135 0.1323670619549044 0.9713126194008785 0.5834893874709401 0.7874709517837348 
Task36 0.12822595607174936 0.24889046420784813 0.17678176965726194 0.36778045350146915 0.3993254105130458 0.6999104930221576 0.9499504696652017 
Task37 0.008186875891050069 0.13455110938818365 0.13227582579158553 0.25816462171314253 0.6871910666096464 0.4089216837477112 0.8116213543547277 
Task38 0.050442640687143825 0.3882155230546752 0.4015312080088902 0.08118182965146355 0.4353513587664112 0.9292998137698005 0.7785891490741714 
Task39 0.07090759518296648 0.1837029774560951 0.34180416374957756 0.310642944110641 0.6681358858952322 0.4567734453468265 0.4679663547332593 
Task40 0.0814227341420826 0.3043270216234125 0.14855751172518827 0.3833989731924434 0.6325835793395346 0.3353429873622813 0.4715026527017341 
Task41 0.09278628938736315 0.42535779432097814 0.01708350452863519 0.08568101271516212 0.8153842922300607 0.7489263828715935 0.5473603368688621 
Task42 0.010670781882959479 0.006814691283898797 0.02575276436146091 0.026953675962190272 0.5565680101956332 0.3508534639382837 0.6107290160939527 
Task43 0.07576407244855114 0.2967702834556658 0.3558412067869409 0.0564559256973004 0.6596480566095417 0.7687407506292845 0.346018837976326 
Task44 0.1477414691000048 0.4512598909715205 0.12224467567158338 0.21156184117093688 0.9174695641232291 0.4348418742758515 0.6913423613059702 
Task45 0.012568126212776164 0.02694731391812843 0.09948796063032822 0.044223858374317554 0.9017235550508 0.44404625138803594 0.4314904354110836 
Task46 0.044582201166955576 0.44890592278994035 0.16895275230711412 0.23761450712239449 0.9067406416074553 0.7939995157062207 0.47105137178963385 
Task47 0.008360731762817219 0.023494625557948703 0.041512833607768564 0.016357039372800135 0.8369355016746407 0.9032751539463613 0.48957432534302825 
Task48 0.07570227030266856 0.09723911715919412 0.3071390003388911 0.3700359304842088 0.8275917643501483 0.6355184746089254 0.47337017703555906 
Task49 0.029823002329551717 0.1245658431116342 0.14321257995892725 0.11331314892181521 0.5956191198054535 0.31856091697074795 0.8408842564675483 
Task50 0.0007707154011417622 0.04030849408674075 0.022339172586631775 0.07059910828437892 0.44487191556840694 0.6529849196450999 0.6425795651081583 
Task51 0.0002790757188533584 0.0707803511199201 0.0009505071270371263 0.06123479308454968 0.6049292290342416 0.34396758200923727 0.7054352031697739 
Task52 0.009860095536006537 0.15921377732678205 0.1640411047952801 0.21234521475691504 0.8563234124845585 0.501883852514653 0.890865757790626 
Task53 0.10876764275612799 0.31512681467515913 0.21996290850047845 0.05455606909275308 0.8306704253473165 0.31594174682928944 0.8165622833914155 
Task54 0.0013255800931534143 0.021853858576760726 0.029435668894361403 0.013209364766309661 0.9057999267596577 0.7652954110313349 0.563744629340789 
Task55 0.06778204762520668 0.07852739971253947 0.09649044060230787 0.10915786948317475 0.975956037418519 0.8074830409350255 0.674351047490392 
Task56 0.09400078706843376 0.31354902872609547 0.0559877888733266 0.35416996964028896 0.7515509349480558 0.8673035995582965 0.4089513896465145 
Task57 0.0185631435267791 0.09602092707507569 0.08350424270000555 0.049834473568982636 0.6116617919167975 0.8130772614602069 0.9451847783696803 
Task58 0.08385347902070413 0.13189207792556357 0.09422284349111244 0.11845017091389175 0.6157327818765622 0.6065529659631728 0.5219989575095499 
Task59 0.014105194513079395 0.08639516878933794 0.7508102518964397 0.09368766720891647 0.8821920624122197 0.5281381883837399 0.35386406248053004 
Task60 0.05456233057870268 0.08304588566855997 0.05654886510059208 0.09338323078319705 0.6092534652068933 0.5031814409461886 0.6429574901474654 
Task61 0.04043452957270901 0.28033097113263183 0.2452855854559071 0.29710905945742055 0.7207929386196708 0.6737281630205579 0.35005650064674043 
Task62 0.07519559585631788 0.08633777176604139 0.16346916370938666 0.10458671659690577 0.3895449015105845 0.6202080096006588 0.3486051615131117 
Task63 0.025981736717934023 0.13560020870904624 0.022695981487322364 0.034805140024574195 0.9272054339814013 0.7363901940513085 0.8166735927840076 
Task64 0.05987796475333788 0.2121269890272495 0.12440958199526399 0.23695021950044193 0.6161876313448555 0.6169422677748962 0.5608909742745238 
Task65 0.029447770830003484 0.4125815985404607 0.04662889054410677 0.16252972061071289 0.6682328460112645 0.446751873220886 0.33868500466550405 
Task66 0.1188275485708691 0.3096977245026742 0.250123532172118 0.13805973043753125 0.8206826430968812 0.8600506583239547 0.8979499193299167 
Task67 0.003483008240249326 0.026701563042439296 0.01218871296471012 0.015795472098669692 0.6105063925455375 0.7974299451667541 0.5760396029728906 
Task68 0.00835969714899313 0.0889547268951019 0.03971659671288126 0.08607470001867444 0.8787830325365236 0.35891514176798345 0.4960167361503457 
Task69 0.026314609501747178 0.06022781093015373 0.029464195085672648 0.10216294109136509 0.7944842471157278 0.6360687847017337 0.36048013914807897 
Task70 0.02209717069981917 0.36367398529263395 0.03777716861262667 0.3741723460188419 0.8108554210051155 0.8968800722732355 0.5950686186459444 
Task71 0.01753635049398262 0.16684355284665567 0.30252235086084767 0.3962432889163306 0.5018854893899626 0.845855115230193 0.5584783101146485 
Task72 0.0037464134961084036 0.007887420295215337 0.0018103015357017918 0.008159279531386796 0.7105016994281399 0.5726848826078681 0.4594181314188305 
Task73 0.02177518054559157 0.20779914032577726 0.18821282077083876 0.07380907597388857 0.9701068117841711 0.47879788598619955 0.5413488694618215 
Task74 0.04303013148472091 0.11218119185961689 0.05616612395578314 0.08529375650484632 0.9832793058241838 0.953265774393977 0.6113033460331014 
Task75 0.035840289734032305 0.07119842700720086 0.06989969739757078 0.03247366765264319 0.48014612533899337 0.6275567359323786 0.37557194577658215 
Task76 0.047467279542186665 0.023499434214596708 0.14812973129231008 0.2722966652760088 0.46490175856231447 0.7915036811370432 0.5891084534469752 
Task77 0.0029493615096302167 0.04173357796006316 0.20463735097904462 0.1537847128283621 0.8034094989712193 0.5434700825183099 0.31120487239880207 
Task78 0.07074689701996752 0.08714808348473788 0.10001864165910236 0.14710280692156247 0.4145696579697533 0.5267308192399273 0.7333170480751081 
Task79 0.015287469947625802 0.017460229987636494 0.027102126144664264 0.02900072502779466 0.7679920310245395 0.8345549987145724 0.30986510404196815 
Task80 0.015683387140929827 0.11591137159790399 0.22263580666594138 0.2369164034664714 0.9142800857820743 0.4787383157698898 0.379549690974301 
Task81 0.045578702646358264 0.08435249466839449 0.13809341047742338 0.016510515166245347 0.6989755766584762 0.4624930076065319 0.684052270141875 
Task82 0.039932352488642665 0.022020131791007178 0.1306056639553646 0.16335458256424767 0.679817098474579 0.5222594989174578 0.8654464718374271 
Task83 0.027518619556087937 0.09136017905846183 0.09223985111126885 0.04277644655159948 0.6637124458477743 0.3358494104794343 0.34675945437811706 
Task84 0.032899716629370176 0.072172826502139 0.08531756031746396 0.003509760398505897 0.7574153874374714 0.41570674810621167 0.316811026537695 
Task85 0.016765820983266167 0.3314567513474525 0.45837713045979855 0.013422648537756486 0.6686130143274431 0.6863223728773249 0.7831665874484203 
Task86 0.1175745712850348 0.24915140059401056 0.3066158177230076 0.017586910066234647 0.42681801122089325 0.5879334259687199 0.6492625689207105 
Task87 0.06416947736489893 0.17437231938601805 0.01275688062983518 0.2800199150045864 0.6823729202970221 0.6720306639340865 0.4563594492631734 
Task88 0.007851895552080742 0.15666530074687077 0.16222552264054674 0.135254531926568 0.7768524988266969 0.8622513753564567 0.6251136622920348 
Task89 0.056634763258595955 0.0936495867926855 0.1518216668522505 0.23205494444267355 0.7049858253096839 0.5947128583533721 0.6471385088416342 
Task90 0.0015418961563913602 0.05885032289790217 0.045026589128159156 0.06281829109258424 0.8739957873526976 0.34597206182082324 0.9833413864690912 
Task91 0.07882982243960877 0.152319871412851 0.2996315639426974 0.04969654545615641 0.5186558321888403 0.7458083600937689 0.45004350354600653 
Task92 0.0346647255050142 0.13351719236498932 0.10036339459148884 0.03558104555484579 0.41768568022656294 0.5360615779275669 0.6658537519478439 
Task93 0.02109911648112061 0.3658917435463385 0.06715502086670529 0.15084994943660707 0.8294788564783304 0.9235378951981854 0.4096228841199658 
Task94 0.00476899179769547 0.09701252511710096 0.1325374388091169 0.05129120791066752 0.9067245107569017 0.7512105863440874 0.9429146613399679 
Task95 0.018608175551389286 0.10474978043942539 0.036260611453633775 0.0875138844904626 0.6733434028017258 0.9920114404798779 0.6333839934876422 
Task96 0.09698581776574837 0.14132615590070577 0.3043337915678905 0.3337794957954783 0.7409662629502309 0.6648230531371498 0.3480291867461377 
Task97 0.0828212094160429 0.06118222530541831 0.4212646468942866 0.23305421531419301 0.8868858339023331 0.8967428187195625 0.8813617888541703 
Task98 0.03567859226157468 0.11381610738665113 0.08334288300605833 0.0015310603280373936 0.8551420692193152 0.5412782557373305 0.6874672644881096 
Task99 0.08023437109177975 0.0518768882017351 0.36486644673273855 0.1847962343345684 0.7271688514965421 0.5867405846262519 0.6991099585982219 
