Task0 0.01726346293985714 0.018182672734813308 0.031300835688267324 0.060281130113676584 0.6210262508808884 0.8689540655804284 0.562297474154551 
Task1 0.0470729983168381 0.33333766817353305 0.11811116813640586 0.04941136601751265 0.5625482114011107 0.6074779089402744 0.387861454086202 
Task2 0.014814906470195935 0.02550982750213973 0.024965176950040534 0.020723478435104057 0.3375490895152009 0.844121911192077 0.6076950149609195 
Task3 0.02244668101321696 0.03190377400909649 0.03411067354099118 0.038657564413533345 0.8778216765726159 0.7137041169771668 0.7575316799613339 
Task4 0.06817522220630616 0.12725306989573182 0.14588765120956387 0.2771502341832859 0.5553362360633105 0.6356684839549643 0.8469605673060379 
Task5 0.03758633094252898 0.047782002412689865 0.06360541212944872 0.08182154144643329 0.6971333976479558 0.8515150425069906 0.505390178070714 
Task6 0.08307750595087827 0.16164461081764828 0.16861310267370838 0.47687094165561966 0.8690185988215196 0.7326796872353684 0.9895221798402651 
Task7 0.121320698189767 0.26097874675517285 0.12473311619418392 0.10652932398090145 0.5341835890940174 0.3303733208973621 0.575022222248145 
Task8 0.046653755110948686 0.05615209541060855 0.0458918944737954 0.13298912382237169 0.5345362246478017 0.5280641960145122 0.9069089194736208 
Task9 0.07174745290417017 0.15122377147448604 0.19943269927548796 0.15601968210911518 0.6450389879323892 0.6699448553539762 0.46893736175999057 
Task10 0.02599881094737719 0.05029541383372208 0.06462343119415247 0.07937810672558378 0.9861914384841437 0.7586634204945104 0.958199513864153 
Task11 0.17244501483979496 0.300061829345049 0.20246036003770587 0.32274692716736375 0.8473237192839529 0.8793498674478344 0.9300407579214511 
Task12 0.06201428146588418 0.11686234475566784 0.11310100294276881 0.1744675036598695 0.737119339807019 0.5362807358171837 0.7523083022768047 
Task13 0.007873365854305555 0.07097955486794769 0.044087465928410854 0.02955076640289645 0.44091043547513736 0.5585374731385355 0.40227125464711094 
Task14 0.07826308153089212 0.20218720090801154 0.08493642869436305 0.07011553198542934 0.6238431382526601 0.7736902282905127 0.905957844180673 
Task15 0.03723916411889815 0.23557867146713288 0.22185344139986216 0.1550396267733989 0.6031761755678505 0.5792265889600035 0.740776404974623 
Task16 0.004614784256840888 0.05506908033005556 0.03393821138783791 0.01985120585461553 0.596813078371013 0.7857073674605219 0.7407385828021518 
Task17 0.009258969161288984 0.07092304294606125 0.16468331171547076 0.030485566498680273 0.7458600672270516 0.588048995572383 0.6411714406598106 
Task18 0.06995361063345996 0.3029183304808345 0.2610597766022813 0.19042872250819476 0.6122588292996272 0.4311950615948208 0.6982604431095385 
Task19 0.007145220922527934 0.008641686995607484 0.01427200287690422 0.02203453182455728 0.5954427929931495 0.3545018139789323 0.546086844872149 
Task20 0.043679079619784594 0.04064230687151811 0.3646996981142675 0.1486082275722101 0.350929448624929 0.3377984462572584 0.6311279783411545 
Task21 0.04328735627735665 0.0304351286772682 0.05460993835165748 0.1351092536554556 0.6830252033440614 0.8393059714559117 0.8067549103614322 
Task22 0.03129558036221618 0.011179716938578638 0.05397871846095712 0.11517763317731144 0.952141689875327 0.4623200229874819 0.6839828904118488 
Task23 0.1090687949097695 0.17534903915211572 0.04047733273347392 0.3858743694271605 0.6895350135143734 0.5264317708790993 0.773641315946614 
Task24 0.022179881100253283 0.09746904173380068 0.19889161942724387 0.07853241558864049 0.37507666496256375 0.42666964561385423 0.9814875445482292 
Task25 0.023396528060360265 0.07975313892545496 0.07507215061888599 0.038042749581186384 0.7853987035494223 0.40123280134258055 0.8122851704851877 
Task26 0.16406672799891533 0.24762656162640626 0.3082607655084283 0.2498909991950392 0.5702475079657241 0.8766452031601493 0.7419572730238632 
Task27 0.00580785929918931 0.15069775708000133 0.20620649937066532 0.33508708461328857 0.608214638479565 0.819079433335909 0.7950407678279526 
Task28 0.08945181973788498 0.02778544655073624 0.026279672247743496 0.3212971273420646 0.5471615117280664 0.9593010105275499 0.7857576817936617 
Task29 0.0011884844100565123 0.0012293022570917043 0.006886657164996249 0.0249327457076508 0.7700165086100974 0.8551470607208744 0.902346088643631 
Task30 0.043965320505380066 0.18021466651738266 0.08417369698739685 0.1237343403419914 0.713304040432958 0.4340252321722371 0.3662473262580007 
Task31 0.0499760359235352 0.14105191044151486 0.11782956047242601 0.31852724795287485 0.3902992000001327 0.3738256120104141 0.6280487555830621 
Task32 0.04474483645783216 0.1930057652802237 0.24849552506219177 0.19388379492555077 0.6325728681192735 0.8430362788572308 0.6697929434767944 
Task33 0.015705508974966736 0.09796034871990261 0.0832340022341649 0.052237485719404564 0.7760880024566075 0.9312275554117901 0.9099345994711787 
Task34 0.010986332817403422 0.049237014480204684 0.03022087927798447 0.1007315792782534 0.6316757007097791 0.6034025144078241 0.8133095189993371 
Task35 0.10911541133313359 0.18124956675010323 0.29868402563354707 0.04151379062557587 0.9907489744296694 0.4067625259107638 0.3848514616067586 
Task36 0.05312410259089513 0.00033293878919215256 0.23671800997763423 0.08340698770583017 0.4909249579462917 0.7362054948872138 0.49032331799990747 
Task37 0.0008245882611266251 0.062034527212227165 0.1087499915580728 0.09771335681993823 0.4511670803034047 0.7632561080853664 0.31219684151953037 
Task38 0.02396375557915388 0.21058622104331673 0.21580601580294093 0.203255610163605 0.7226460998328205 0.3151854382511428 0.7830524891622777 
Task39 0.09171897391229211 0.18021683734116536 0.025575812301318855 0.2231897080422392 0.6940729812210678 0.30329266879204875 0.8703561617939084 
Task40 0.00898915296116384 0.07588369449865383 0.005740346258823774 0.0812924084715931 0.44590830492648525 0.3791623489915631 0.721275511476203 
Task41 0.044091011987173905 0.12539133401184338 0.29665183943956713 0.3162891125236531 0.7626369691100837 0.908580841962487 0.37977697305855423 
Task42 0.04485752329477538 0.04525489314865109 0.14754078930202616 0.11078456735652036 0.4546525655722433 0.5640546769849497 0.5340365457247196 
Task43 0.13766144337646738 0.24162707407261166 0.43068303119896656 0.04648038368764593 0.42767968610674706 0.777735641641419 0.5595778456262366 
Task44 0.006224252589727018 0.07353739700531016 0.08171047558628976 0.012312081840344343 0.889892644211036 0.4004246450450863 0.3676997937796838 
Task45 0.04158063289481187 0.0663422762192195 0.22383302164117422 0.1374021786744741 0.6530231870389731 0.5407222353783903 0.3291965413786593 
Task46 0.13500999900460214 0.3739452493034398 0.23163263695734973 0.11457092400193886 0.3522641640876199 0.9244825584860168 0.3217860734926062 
Task47 0.07737398594758634 0.08312850516092651 0.0710549056046541 0.1962846503737892 0.4754326727976312 0.334649590878766 0.8405655830452896 
Task48 0.1297881833678423 0.16802292389864754 0.3259869863646809 0.35294889155937065 0.5399590964430767 0.9923747521433781 0.31678677035120345 
Task49 2.6095058089040895e-05 1.8527662931335357e-06 7.229724657698964e-05 7.782941886482313e-05 0.47028433177840245 0.8636970383492966 0.9272503999736335 
Task50 0.10055961733224898 0.2087873046597996 0.25010103948042134 0.03704886579194727 0.8313137832725963 0.3255795524580403 0.6828128742600257 
Task51 0.004454292628401262 0.060150874046824544 0.10069541757247892 0.08496546788300902 0.7191167414223727 0.9216777820379591 0.6127915035654401 
Task52 0.06650300250486027 0.21532351018183804 0.1159923419123113 0.2586945683626235 0.7439708807895262 0.4218970184033852 0.7273675466809836 
Task53 0.09549500785727469 0.6989032845549555 0.00024978501390217377 0.17953395110267067 0.7347608734574791 0.33767421114937507 0.3357054455459384 
Task54 0.026316479241886896 0.1292439516176516 0.2080503940706917 0.13730157565265474 0.5236758745195971 0.5165863652380933 0.6088043454096436 
Task55 0.11892391724388293 0.2819638860985607 0.2739038667299229 0.27814969741673035 0.48978133197274226 0.3321275471216172 0.7490219208904528 
Task56 0.1406862795573618 0.23711514506503395 0.17945997289691598 0.20884120439326231 0.3308606040923657 0.6742615283672886 0.6043803904622015 
Task57 0.002932075686316481 0.13995951814757834 0.08312218921087995 0.13152721063380787 0.5607704686126109 0.9241356672495447 0.4094038306494375 
Task58 0.03799827839076754 0.24105711968060772 0.18059751276679126 0.5311629736423624 0.6572413970832052 0.6784968769896973 0.8737267775306141 
Task59 0.011179975987451227 0.0322246000207041 0.062354462133765214 0.12032915996449073 0.73982935682591 0.786120976844632 0.8441287795645196 
Task60 0.10665482938551041 0.2872047512377125 0.2629468565329315 0.1784560463732678 0.416948389952993 0.8789812461837705 0.673849615660832 
Task61 0.025214424518484782 0.1602673414723824 0.04076333883606144 0.1838694361947496 0.7105292759652606 0.8439334736639754 0.9202321324766425 
Task62 0.03654071905030278 0.039016747412325886 0.11644015476074093 0.14657472569974125 0.9211992743373036 0.9297412877298175 0.7017442587157601 
Task63 0.003827436220634043 0.10124671711463785 0.09282539216852027 0.09578621025218871 0.8839730329976896 0.4445178601919887 0.4754502777052666 
Task64 0.004786139456683715 0.025939279401333983 0.009146762969864759 0.028741236457708517 0.39509477662346065 0.5592246732045673 0.8558285503971592 
Task65 0.13009038759422484 0.10288786108767344 0.3718835184568282 0.2044681437215898 0.8246751125446032 0.4460468695167746 0.8638128186250709 
Task66 0.01703610073165544 0.172777079660262 0.01251253601887112 0.044539401504647046 0.6851761033470711 0.5561026352382882 0.4932909790507758 
Task67 0.008166252511200468 0.030651536050330146 0.010561351373504089 0.0203841416519093 0.6317201459524309 0.3773170666363272 0.6494612965434228 
Task68 0.04970915128232278 0.20479538533461872 0.10257208801123484 0.002502309191529231 0.65178739878968 0.35900040653726134 0.4239565008308715 
Task69 0.01940169780057992 0.0004759956855793842 0.0684255338684779 0.02557360748052278 0.9936012432104184 0.7097191821587266 0.4506491283484686 
Task70 0.031060039588862002 0.21597730493933306 0.3217403059965488 0.028366301701696937 0.43728366940194485 0.4338042683244828 0.7405005094388672 
Task71 0.02111912329121954 0.07553021595243703 0.057118253750436485 0.07745046490340622 0.4276009489284895 0.47485175850150085 0.5875624560729427 
Task72 0.04522674381826568 0.10736093066191166 0.1639116369434665 0.2737338347241827 0.4850798364533945 0.8267497326358488 0.5554705325504113 
Task73 0.10453984926402457 0.22148489348413972 0.10890815955174758 0.15135557378885836 0.5256289082275516 0.3052646386799784 0.8764705997003763 
Task74 0.09278749913367478 0.3177843810803363 0.29256582460141833 0.00900226009802289 0.6700919718849543 0.3823284378931017 0.6541308515877964 
Task75 0.026754919232910037 0.014884683004473176 0.10119216746071075 0.06652545374017982 0.6601373191752713 0.3047711114409128 0.32874222191191665 
Task76 0.012641333507322574 0.030156878864594748 0.013155788466102426 0.02523644364605533 0.5582255744408453 0.3428252675217975 0.5931123368434248 
Task77 0.05279690265156768 0.1067458670322451 0.0935298790568336 0.052457546273612404 0.8809106717613184 0.5222553094744299 0.4080197191282357 
Task78 0.08254419088945457 0.03740700972546482 0.5861832212077052 0.17263745229677213 0.9814151502718969 0.7298386862861084 0.6493555176471998 
Task79 0.006573418736222715 0.0030575284724555607 0.004802306502527294 0.022260195879196535 0.5264599702641305 0.9333424334721621 0.5012633363045567 
Task80 0.07737304221311556 0.392484940756763 0.24232553245937802 0.009676161984158568 0.63889226738971 0.7569980128005659 0.9640856241367173 
Task81 0.05268303673791983 0.17991170192134728 0.004937799639488376 0.05662835867143263 0.9629232508214243 0.3242790485377539 0.5238967713820415 
Task82 0.015033932960718411 0.3690014469870673 0.24901861225359254 0.054269897486624044 0.4182955724457825 0.554069069564169 0.7739231627260892 
Task83 0.015373101160549438 0.08822068116022214 0.11170804092833649 0.006091886873175286 0.5506826841489798 0.8381069802758692 0.9979573726495503 
Task84 0.12928570784460203 0.1726509321983341 0.35190065954536587 0.04374544916675824 0.3336219940759197 0.8211524958696437 0.36312207427134424 
Task85 0.014943419968649483 0.09028628489199104 0.08453622213844852 0.06719817561946667 0.5115150191446587 0.5501670124814773 0.779302272040806 
Task86 0.0034171355456675944 0.006749763441182467 0.0013896129063865235 0.008738919734416763 0.7110554331959065 0.44392583180482204 0.832242203730085 
Task87 0.07589033771856389 0.1463942533579551 0.3911119948297675 0.1600870582051882 0.47493308379021704 0.6909715929100695 0.9549914685552356 
Task88 0.07305451796765912 0.251123931666705 0.052050134888811314 0.2448681856777616 0.41265492567740175 0.5438515347638979 0.5853339722642869 
Task89 0.1542661297802005 0.45028161280502255 0.09987869035872651 0.16325790469885595 0.31796768859789865 0.6301433797276437 0.6840412959025521 
Task90 0.0028515969712932785 0.003692854662581006 0.07791029202799295 0.04461857470139608 0.9331364386489629 0.3606431214458604 0.30310526212111555 
Task91 0.06879425179368859 0.11518474813188628 0.09104628152961569 0.13040868638312164 0.5855822486274324 0.733152622437836 0.650968455467556 
Task92 0.014316609075125575 0.049650799574728774 0.02179250835148174 0.035430361673031374 0.6038450287918549 0.4740452744318404 0.42591582934186856 
Task93 0.07060560745045656 0.5136214288298936 0.2185914731083027 0.03779059838177155 0.9513783892711776 0.5694066843108023 0.865497111928498 
Task94 0.025360832005393987 0.02560113158307541 0.050658460390811955 0.030856118206805595 0.49511789191035693 0.4949185874607034 0.34804938401976165 
Task95 0.11510805956254275 0.1793216116089691 0.24747109074798967 0.18941995156478778 0.4155471399625445 0.7192591041728593 0.4666792753160738 
Task96 0.010430294488782592 0.0945843374616161 0.035368962448622907 0.12351520591035192 0.7289736518115836 0.9784449403272386 0.3311857696575496 
Task97 0.1393303649277062 0.12440151318359303 0.2380009147373732 0.3421202087657303 0.9936761619697343 0.7835616326202484 0.9956005782341417 
Task98 0.021432355551323327 0.050825481304600295 0.016391307980437295 0.02195582318121001 0.30165478041207244 0.7518557954195253 0.7868977354853184 
Task99 0.0031489956364034797 0.2409194722555375 0.3849862425939786 0.11166875885022624 0.8420259541837312 0.9312100381494361 0.42921190961145894 
