Task0 0.011341185206986758 0.07886941775433057 0.1505477200739508 0.08951559137535625 0.43937450937122335 0.7710696891775536 0.564699908389306 
Task1 0.04577542670060348 0.08556755097764006 0.2434881727214646 0.17372098602734992 0.4634352273064254 0.9483664460492855 0.9498468681933987 
Task2 0.04048049059148929 0.06389572090334496 0.07196452439048119 0.06361617962977757 0.4854056967343996 0.7418821116992318 0.4252694863293077 
Task3 0.010556119982168457 0.009750059519401204 0.01748042159382093 0.016194505272980244 0.4454131020744214 0.8648122786514854 0.912551613801516 
Task4 0.00945384747909504 0.02838121106788763 0.029911878146262078 0.02728642611464269 0.4922071787620167 0.7585639505138939 0.730514660959452 
Task5 0.035299407338804094 0.2570427659715044 0.12878612798698771 0.14254447645474094 0.5681014337087043 0.620986969206782 0.8781292839110466 
Task6 0.0480817134880393 0.09790049392391896 0.010822400345390868 0.08664534665641416 0.8699889592222292 0.9118337694238394 0.9158693702588323 
Task7 0.014334401881097171 0.05555353556307687 0.3398780760313247 0.4080887459746029 0.6843254238892071 0.5314097647355299 0.40993639490615513 
Task8 0.03143404058003482 0.21857435437420533 0.16864377470538627 0.22599199784255758 0.5896422504622127 0.8059557265320991 0.6126154730389686 
Task9 0.047656266134796364 0.10240753045568517 0.1343068583648137 0.16110625262197315 0.7174621653917105 0.3784147921797334 0.7564327790381467 
Task10 0.03769212232481788 0.0796480534028556 0.10963668638968675 0.11623010698686277 0.9851275172710148 0.5914410159756165 0.6402573080152698 
Task11 0.16237719832580255 0.13691921533798174 0.3204621029136392 0.23965509811561198 0.5309803488139467 0.7468840651078386 0.8954690967126395 
Task12 0.01857721699916947 0.12503810254868758 0.08148212974548288 0.137662613772779 0.8816644475482409 0.8449384514634262 0.8938035154771424 
Task13 0.09554684706258802 0.3440258472634861 0.15601011539798548 0.17242509683299953 0.5312387603375577 0.6699556751183271 0.6295781182176589 
Task14 0.08301243821263335 0.17626366163116036 0.21026054223819302 0.12214648856524944 0.8029337053775079 0.3879108503373381 0.8422618544732652 
Task15 0.088897090435972 0.010669023346923288 0.7807206179665737 0.023151022714731285 0.9932542411975362 0.6596670903468631 0.42971955055785493 
Task16 0.005485595806520987 0.1534872284558388 0.080917003517487 0.024800160306017994 0.6019179714880035 0.6387717349534983 0.8095297020722869 
Task17 0.002158976822573771 0.004386067312067828 0.00199111130462519 0.009070335087927086 0.6922990326006331 0.7656848943089378 0.6955684809402766 
Task18 0.05790930119338971 0.09948009710284207 0.37133612749617584 0.04235324357013935 0.30951647030929 0.4742210210104271 0.8485314250916183 
Task19 0.02392549368037744 0.00968065712750465 0.20540123507991648 0.017181198798858783 0.6991213030413224 0.9959818531722076 0.7462387067257801 
Task20 4.997462877998091e-05 0.000299975432163251 0.0003251836625845432 8.286093175481491e-05 0.9174641457109314 0.7041131560162752 0.5585807623194883 
Task21 0.008276063825053439 0.05156759928372033 0.03929690059352025 0.019087533334319697 0.7734255631377385 0.4172238017355723 0.7185455740632836 
Task22 0.011702927153438328 0.2344009935378942 0.009671735881763023 0.33845599462843723 0.4904525846807648 0.40738150133453344 0.8403123017024487 
Task23 0.13418975859286478 0.4318303622108127 0.01796598929548583 0.20948046749834742 0.44104252754047035 0.40159076148254785 0.8932998011133371 
Task24 0.0077774243261915215 0.22500604651671194 0.27727812018503994 0.05639504878243107 0.7431015566806454 0.7470413602891535 0.45907698515018713 
Task25 0.040464509101950395 0.1108029794146628 0.02772885851352935 0.053801669796284556 0.8675864286882571 0.4173355583736541 0.523061133419717 
Task26 0.010947158470924999 0.04743496162921427 0.030520088324423853 0.057958362318112314 0.7095708951189905 0.8866328066171931 0.977825475236944 
Task27 0.0023895806003148023 0.13529869069137346 0.06687511986498064 0.005899259667064503 0.7813701791643718 0.7563849076512232 0.9614502796608115 
Task28 0.019017693201523984 0.06350743851714982 0.14126448871251351 0.0489487207611308 0.44497457079162894 0.6949187531119992 0.4861902545667898 
Task29 0.13590782362012044 0.22450429963179175 0.4159578487253849 0.12259989742318736 0.4131976769543015 0.7484969879121284 0.9975212638598769 
