Task0 0.09133564553521438 0.020425568641078057 0.5755318502649982 0.2441801073396931 0.41042050945680314 0.725645570323654 0.9327661639198734 
Task1 0.04090990979879423 0.10783560413655403 0.11187644020679258 0.03657711355148694 0.5810228706101123 0.7614365329915793 0.8079308592612613 
Task2 0.09385209579945733 0.0430374567023155 0.24170621166019735 0.3563926896150347 0.4908948960492905 0.8985207861408571 0.5443930843105323 
Task3 0.019737652473950155 0.10149767137407457 0.3432099659020856 0.1498678301461524 0.4722258155605566 0.5099797005720185 0.4070003611972592 
Task4 0.009986854896355146 0.0407480656411062 0.08342190174743726 0.012562353242516255 0.5472621033068437 0.5176399785471203 0.651882234774946 
Task5 0.009495289713012217 0.0052636735934072495 0.030329077967816497 0.02351813008773093 0.9937356595623812 0.5139949700525943 0.5649963972786045 
Task6 0.0006991098077380994 0.02864751329913775 0.01421202792497901 0.004524729748669242 0.5679819727967003 0.6594260622843204 0.8608343711111874 
Task7 0.09442613430036845 0.3051946815169699 0.3541082873965746 0.16631679191684529 0.8600943209396508 0.8979345392439002 0.7875641908368745 
Task8 0.006272769213712555 0.0888683681408407 0.14381210798959124 0.16626211674149816 0.7771056124077396 0.6956895448610103 0.6083043533061054 
Task9 0.04694148038437949 0.036086195670726184 0.11397667003057911 0.0477227693707492 0.6225357219214946 0.9565148268103698 0.5705086206753909 
Task10 0.00020919499989303607 0.04064691190608706 0.02559818199916906 0.0030552992268280065 0.9388516103289246 0.47644183319244754 0.5655944670482014 
Task11 0.0286893756331858 5.1813338778461833e-05 0.1429709663316049 0.030054013896961645 0.7252234455499924 0.40863189284287554 0.6321310737522847 
Task12 0.008314504830054225 0.1759968584865048 0.07232616546678715 0.0998558889788314 0.5161722286144426 0.7438100599474866 0.7447039321404152 
Task13 0.08287077821046918 0.01190986119629339 0.3407309926606582 0.20258758679760758 0.9148170612012922 0.7552862043221851 0.9788834386735854 
Task14 0.013970342324879152 0.08769697624013625 0.04596020703152915 0.20447462655403725 0.7995321201264476 0.8624532419038844 0.3506107658668155 
Task15 0.08156391600377434 0.37459621965094025 0.28503240478949615 0.08103676239744408 0.5284348996287568 0.4666358035068042 0.9519361425341908 
Task16 0.09323340231527766 0.11263537694565984 0.17347654923720066 0.20389621011988227 0.7793864172966823 0.5142641972303781 0.5641520415573507 
Task17 0.04045946461395167 0.07654431504613762 0.14684468322518401 0.16674407936608465 0.4482710907849322 0.4702354608724177 0.7323153821120882 
Task18 0.034732318694056456 0.4306977679338617 0.09219426832331278 0.008706418096309313 0.8364190449810045 0.9465744859259275 0.7142812463823407 
Task19 0.15918337178931388 0.2963553707721804 0.38367262552249953 0.041450467341681806 0.5329308571188407 0.4998590360563489 0.5420936615543243 
Task20 0.031516993459703255 0.1292752980379231 0.09526657791805299 0.3273649304543668 0.9256386923938047 0.9924450033347767 0.8276429162851964 
Task21 0.005827237208384738 0.013361736125686125 0.07446614451986677 0.02103758055241691 0.45183790455881023 0.34499220777908934 0.667288339707411 
Task22 0.1359993196337609 0.540617291157349 0.10463257216931733 0.11143526062453943 0.5241205774700551 0.3254633855746021 0.8342716516115263 
Task23 0.1427487572548745 0.18342951952886952 0.297999512242776 0.12527763119054358 0.8863738041538103 0.7522285680292361 0.42873410971403364 
Task24 0.12597218858466303 0.5696115109624111 0.21904087167480732 0.049830590878875584 0.7278809231660626 0.6970336298070772 0.35420190940893614 
Task25 0.004932793408980229 0.1648908177181322 0.06556805399036632 0.22093376060002792 0.4057218370520935 0.9558753688660562 0.6735769435373606 
Task26 0.013216156934881634 0.19029687470189063 0.218116313208739 0.18631725756236434 0.46946108178167845 0.7796538094496992 0.3409122778071184 
Task27 0.013020894416562512 0.030212832581244214 0.14526835132619795 0.10965963804559048 0.8518919412628576 0.6537101547405836 0.7024972494495595 
Task28 0.03222926498168427 0.10321915136490999 0.26794571529086414 0.11762347461953228 0.858221114086982 0.9251333600509812 0.597957891283608 
Task29 0.0028863829318579977 0.055462900502973346 0.005468117286999956 0.04049654079830532 0.7920883428152372 0.99081049305823 0.3827346490597092 
