Task0 0.008638619058457506 0.027765626019578837 0.08850061565497916 0.0659777474595356 0.7138833692900626 0.9431383979081311 0.3330532087189287 
Task1 5.190018122759727e-07 5.720255375990085e-06 3.8084819389769144e-06 4.525111902327651e-06 0.962648772692912 0.8747840080227018 0.39130959167866847 
Task2 0.03293861757682755 0.12469936271297181 0.35456903623288627 0.21807798909929016 0.9132364318726054 0.480703163316041 0.6676194401317568 
Task3 0.0047550687789551915 0.026355272060381994 0.03644153260378538 0.054615257369716126 0.9920409695323213 0.8729283255737417 0.4108244000296515 
Task4 0.13995352996855076 0.08836905527780496 0.5769429456001519 0.13156605197065765 0.8219951869382787 0.681699644935825 0.8254254690864562 
Task5 0.008129828801292566 0.027594798098183913 0.018632451060869852 0.002003281702835536 0.7174244778566945 0.6518805355816264 0.5396476496205016 
Task6 0.020794311564753164 0.05708540959603199 0.1337410352360918 0.01823396867890403 0.9929564696229123 0.5185117704510607 0.49142137755069004 
Task7 0.0646157391619568 0.16083458530359576 0.13021291880054178 0.202814548798903 0.9278595211321023 0.5799393990245949 0.4526347695005124 
Task8 0.1705384478983572 0.46473425492196785 0.1448031935446494 0.17593138535567432 0.6217419281094094 0.31588367812158213 0.6356801680437507 
Task9 0.00386698024887737 0.006255896111186983 0.00994129133201312 0.006966276781615374 0.6706560543936829 0.6573248797406916 0.8392179701456097 
Task10 0.047284830904578495 0.35196454022808665 0.14232833977265072 0.24010953995459433 0.5093404267034464 0.4696016597180994 0.3733817431326877 
Task11 0.05875525883498276 0.10761052412621164 0.1478357644140525 0.0417731898124412 0.8591953644915649 0.5525347903567508 0.5396594417065269 
Task12 0.0747712732641299 0.10066998836617709 0.20270794742825216 0.19861854695877984 0.5284513222212643 0.4754318854695538 0.42853090488214574 
Task13 0.018331960611677026 0.10127449329473584 0.03612130638116182 0.011985657160876094 0.6191740063025679 0.660531772360798 0.479938261404064 
Task14 0.036124603441144355 0.04126175603496379 0.05269606664357319 0.060912856932550684 0.764397916548552 0.7667517362713598 0.3396070263518852 
Task15 0.016253997238122375 0.13795733831244472 0.0058066397949997454 0.11779136077293959 0.8097351990366444 0.9897681609338718 0.7471825776113685 
Task16 0.03810191282037081 0.24456988073723052 0.014510381634358721 0.39247969097659113 0.6794425754098399 0.4162820967477459 0.33161672812645926 
Task17 0.0389325387627117 0.0301289881059979 0.1494958641295329 0.125796870501776 0.3286648485071363 0.3633927904052102 0.8882407595127881 
Task18 0.0026547062216665737 0.49006965254171164 0.028332312462135165 0.1924192538649127 0.3532154970396578 0.3815800162399797 0.9628381688372298 
Task19 0.001181072226740354 0.04094765135558107 0.3543343761377963 0.20079474209416864 0.35642518940717893 0.6630950471925716 0.9110304987636035 
Task20 0.02000236702727486 0.0010258881268728802 0.05791341526659507 0.16878249628140934 0.7487620743456123 0.8759393431158204 0.5362310878423997 
Task21 0.019240662826921467 0.12724062755811244 0.11154904579026718 0.1174410458820211 0.7754347975589273 0.6286906870050248 0.45576956132573665 
Task22 0.0037868882241393325 0.04605214995683598 0.059250358994531405 0.0737261735102541 0.8459281377684196 0.3968541400094717 0.7865278153458404 
Task23 0.11844768460379201 0.19489800133559002 0.25596887004224866 0.16482933505892935 0.5673380544317155 0.5011722563004463 0.7244499792790553 
Task24 0.08064092426554072 0.11666661497578656 0.002898058247845804 0.32904000062175504 0.6243459446037456 0.6503872926110187 0.3869724158034803 
Task25 0.008339727640892407 0.13026854245285865 0.07536628532165401 0.12776181304071993 0.33791708688679756 0.9234656806775787 0.8388374804148759 
Task26 0.00035185395583269387 0.08759994915267234 0.02576615170365305 0.25320332661288003 0.9115520388812568 0.906544217170399 0.48296148115898113 
Task27 0.057908398685540416 0.24095773628098704 0.21642020985076774 0.04805429552488384 0.9874560154495224 0.7590578107491843 0.48907953667710524 
Task28 0.1086983937166841 0.2055708541020172 0.20237478317026772 0.0846086682878315 0.7857305663596754 0.31015513611436396 0.7953043996190632 
Task29 0.0005104161035252027 0.001634760320466079 0.0018144186640206537 0.0016504552312658128 0.3825449776855976 0.6252124922493838 0.580098548737161 
