files/tasks_parameters/ExAp01/sample8.txt 1.16453 6.77015 2.19458 0.288816 9.72998
files/tasks_parameters/ExAp01/sample12.txt 1.26611 9.58351 2.46081 0.337498 11.37
files/tasks_parameters/ExAp01/sample2.txt 1.22558 8.44418 2.50701 0.319127 10.7511
files/tasks_parameters/ExAp01/sample44.txt 1.19842 6.96299 2.23089 0.28229 9.51013
files/tasks_parameters/ExAp01/sample27.txt 1.15639 7.74306 2.16676 0.28602 9.63577
files/tasks_parameters/ExAp01/sample17.txt 1.09244 7.35053 2.25579 0.292348 9.84895
files/tasks_parameters/ExAp01/sample9.txt 1.1062 6.89392 2.21068 0.282399 9.51378
files/tasks_parameters/ExAp01/sample34.txt 1.10992 6.62788 2.3772 0.297742 10.0307
files/tasks_parameters/ExAp01/sample40.txt 1.04504 7.75686 2.17534 0.285619 9.62228
files/tasks_parameters/ExAp01/sample33.txt 1.2512 8.14826 2.6463 0.338073 11.3894
files/tasks_parameters/ExAp01/sample48.txt 0.96726 7.64107 2.14272 0.270011 9.09645
files/tasks_parameters/ExAp01/sample29.txt 1.0646 7.139 1.93769 0.286306 9.6454
files/tasks_parameters/ExAp01/sample11.txt 1.05149 6.88688 2.12981 0.280008 9.43325
files/tasks_parameters/ExAp01/sample14.txt 1.02331 6.11983 1.97599 0.247458 8.33664
files/tasks_parameters/ExAp01/sample0.txt 1.21462 8.2738 2.14256 0.289132 9.74061
files/tasks_parameters/ExAp01/sample7.txt 1.01983 6.87011 2.05821 0.269886 9.09222
files/tasks_parameters/ExAp01/sample23.txt 1.0535 6.52032 2.38087 0.291712 9.82752
files/tasks_parameters/ExAp01/sample13.txt 1.16444 8.73247 2.33415 0.295393 9.95153
files/tasks_parameters/ExAp01/sample22.txt 1.01821 6.9777 2.28948 0.283979 9.56702
files/tasks_parameters/ExAp01/sample25.txt 1.13515 6.23444 2.2122 0.267298 9.00504
files/tasks_parameters/ExAp01/sample36.txt 1.07541 6.6174 1.9458 0.253823 8.55108
files/tasks_parameters/ExAp01/sample46.txt 1.32813 7.42369 2.49128 0.327273 11.0256
files/tasks_parameters/ExAp01/sample31.txt 0.940151 7.22028 2.13584 0.25377 8.54929
files/tasks_parameters/ExAp01/sample37.txt 1.09584 8.90704 2.16981 0.295708 9.96216
files/tasks_parameters/ExAp01/sample16.txt 1.02984 8.18243 1.88294 0.24945 8.40375
files/tasks_parameters/ExAp01/sample10.txt 1.09209 6.96646 2.31217 0.285748 9.62661
files/tasks_parameters/ExAp01/sample39.txt 0.998465 6.4161 1.97266 0.251967 8.48855
files/tasks_parameters/ExAp01/sample19.txt 1.16691 8.16711 2.23199 0.308463 10.3919
files/tasks_parameters/ExAp01/sample20.txt 1.0013 7.28549 1.88944 0.25994 8.75716
files/tasks_parameters/ExAp01/sample43.txt 0.912825 6.86804 2.00142 0.25616 8.62982
files/tasks_parameters/ExAp01/sample32.txt 1.06086 8.15663 2.12995 0.281726 9.49113
files/tasks_parameters/ExAp01/sample45.txt 1.02763 7.75184 2.10599 0.274935 9.26233
files/tasks_parameters/ExAp01/sample26.txt 0.952349 7.4944 1.88956 0.267248 9.00336
files/tasks_parameters/ExAp01/sample5.txt 1.10981 8.08362 2.09961 0.28454 9.58593
files/tasks_parameters/ExAp01/sample21.txt 0.925463 6.11814 2.17119 0.26143 8.80735
files/tasks_parameters/ExAp01/sample38.txt 0.966765 7.761 1.96293 0.263659 8.88245
files/tasks_parameters/ExAp01/sample1.txt 1.09026 7.83752 2.13261 0.289228 9.74385
files/tasks_parameters/ExAp01/sample15.txt 1.03403 7.37971 2.12057 0.285825 9.62922
files/tasks_parameters/ExAp01/sample24.txt 1.16108 8.28531 2.25272 0.296628 9.99317
files/tasks_parameters/ExAp01/sample3.txt 1.25349 7.33359 2.39135 0.305084 10.278
files/tasks_parameters/ExAp01/sample6.txt 1.08517 7.09894 2.24425 0.281804 9.49375
files/tasks_parameters/ExAp01/sample30.txt 1.30859 8.17669 2.03701 0.299204 10.0799
files/tasks_parameters/ExAp01/sample42.txt 1.1062 7.70416 2.42413 0.29743 10.0202
files/tasks_parameters/ExAp01/sample4.txt 1.33293 7.41691 2.36261 0.307803 10.3696
files/tasks_parameters/ExAp01/sample28.txt 0.983348 7.0562 2.07657 0.266428 8.97574
files/tasks_parameters/ExAp01/sample18.txt 1.06422 7.60139 2.1377 0.268016 9.02924
files/tasks_parameters/ExAp01/sample35.txt 1.29195 9.66795 2.28028 0.32244 10.8627
files/tasks_parameters/ExAp01/sample47.txt 0.937529 6.84842 2.12104 0.251655 8.47804
files/tasks_parameters/ExAp01/sample49.txt 1.02303 7.1497 2.11412 0.255889 8.62069
files/tasks_parameters/ExAp01/sample41.txt 1.06697 6.59911 2.07359 0.265885 8.95746
