0 10
0 13
2 9
2 13
2 14
3 11
3 12
3 13
4 9
4 11
4 13
4 14
4 16
5 11
5 12
5 15
5 16
6 13
6 15
7 12
7 15
7 16
8 16
9 18
9 19
9 20
9 21
9 24
10 18
10 20
10 20
10 21
10 24
11 18
13 23
13 24
14 21
14 22
15 17
15 21
15 22
16 17
16 18
16 19
16 20
17 25
17 28
18 25
18 30
19 25
19 26
20 28
20 30
20 31
21 26
21 28
22 28
22 30
23 29
24 27
24 30
25 39
26 32
26 35
27 32
27 36
27 38
28 33
28 37
29 34
30 32
30 33
30 35
30 37
31 32
31 35
31 39
32 44
32 45
33 41
33 42
33 44
33 45
33 49
34 40
34 41
34 43
34 45
34 46
34 48
34 49
36 42
36 46
37 40
37 43
37 46
37 49
38 40
38 44
38 46
38 49
39 42
39 44
39 45
39 47
40 55
40 56
41 52
42 55
43 51
43 52
43 55
44 50
44 53
44 54
44 55
45 53
47 55
48 51
48 56
50 58
50 59
50 61
50 62
50 64
51 61
51 62
51 63
51 65
52 60
52 62
52 65
52 65
53 64
54 61
54 63
55 57
55 58
55 60
56 59
56 60
57 67
57 71
57 72
57 74
57 77
58 68
58 70
58 71
58 72
58 75
59 71
59 73
59 74
59 76
60 71
60 73
60 74
60 76
61 68
61 69
61 74
61 76
62 66
62 68
62 69
62 75
62 76
63 68
64 70
64 72
64 75
65 67
65 70
65 72
66 80
66 81
66 82
66 84
67 85
68 83
69 80
69 84
69 86
69 87
70 84
70 87
71 78
71 82
71 85
71 87
72 78
72 81
72 82
72 83
72 87
73 81
73 82
73 83
73 83
73 87
74 78
74 79
74 87
75 78
75 80
75 82
75 85
76 78
76 82
76 83
76 85
77 81
77 83
77 85
78 90
78 94
79 95
79 97
80 89
80 90
80 93
81 91
81 93
81 96
82 88
82 90
82 92
82 93
82 94
82 96
82 97
82 98
83 89
83 90
83 91
83 93
83 95
83 96
84 89
84 90
84 95
84 98
85 89
85 91
85 93
85 97
86 89
87 94
88 99
89 99
90 99
91 99
93 99
98 99
