files/tasks_parameters/ExAp01/sample8.txt 1.08791 3.76817 4.3855 0.450105 9.38321
files/tasks_parameters/ExAp01/sample12.txt 1.49418 5.03638 5.18776 0.610564 12.7283
files/tasks_parameters/ExAp01/sample2.txt 1.39332 4.58991 5.64606 0.613877 12.7973
files/tasks_parameters/ExAp01/sample44.txt 1.24953 3.77401 5.66946 0.551838 11.504
files/tasks_parameters/ExAp01/sample27.txt 1.29418 4.13937 5.56136 0.55779 11.6281
files/tasks_parameters/ExAp01/sample17.txt 1.20458 3.76163 5.38341 0.520991 10.8609
files/tasks_parameters/ExAp01/sample9.txt 1.16106 3.69889 5.2981 0.511699 10.6672
files/tasks_parameters/ExAp01/sample34.txt 1.13513 3.52435 5.83741 0.49187 10.2539
files/tasks_parameters/ExAp01/sample40.txt 1.15486 4.06185 5.0335 0.496884 10.3584
files/tasks_parameters/ExAp01/sample33.txt 1.55311 4.82091 5.83886 0.651963 13.5913
files/tasks_parameters/ExAp01/sample48.txt 1.08256 4.01134 5.07085 0.447927 9.3378
files/tasks_parameters/ExAp01/sample29.txt 1.52438 4.20847 5.0406 0.643694 13.4189
files/tasks_parameters/ExAp01/sample11.txt 1.31879 3.94699 5.29198 0.557276 11.6174
files/tasks_parameters/ExAp01/sample14.txt 1.08636 3.54059 4.58345 0.466713 9.72943
files/tasks_parameters/ExAp01/sample0.txt 1.53432 4.82755 4.90216 0.623551 12.999
files/tasks_parameters/ExAp01/sample7.txt 1.15002 3.60766 5.11185 0.509566 10.6228
files/tasks_parameters/ExAp01/sample23.txt 1.39278 3.81403 5.45799 0.582911 12.1518
files/tasks_parameters/ExAp01/sample13.txt 1.48714 4.8894 5.26818 0.624499 13.0187
files/tasks_parameters/ExAp01/sample22.txt 1.29069 3.76156 4.95746 0.534216 11.1366
files/tasks_parameters/ExAp01/sample25.txt 0.982879 2.94144 4.92622 0.403639 8.41454
files/tasks_parameters/ExAp01/sample36.txt 1.25826 3.56164 4.5806 0.501799 10.4608
files/tasks_parameters/ExAp01/sample46.txt 1.23268 3.84833 4.7121 0.530701 11.0634
files/tasks_parameters/ExAp01/sample31.txt 1.09394 3.764 5.08385 0.479734 10.0009
files/tasks_parameters/ExAp01/sample37.txt 1.52462 4.43254 5.65111 0.65143 13.5802
files/tasks_parameters/ExAp01/sample16.txt 1.2712 4.49741 4.8895 0.509171 10.6145
files/tasks_parameters/ExAp01/sample10.txt 1.38978 3.87086 6.07511 0.60993 12.715
files/tasks_parameters/ExAp01/sample39.txt 1.04986 3.66299 4.54281 0.463671 9.66602
files/tasks_parameters/ExAp01/sample19.txt 1.40892 3.86694 5.14047 0.615987 12.8413
files/tasks_parameters/ExAp01/sample20.txt 1.30944 4.09945 5.13368 0.580369 12.0988
files/tasks_parameters/ExAp01/sample43.txt 1.15303 3.75825 5.55698 0.530892 11.0673
files/tasks_parameters/ExAp01/sample32.txt 1.42854 4.0352 5.29178 0.587643 12.2504
files/tasks_parameters/ExAp01/sample45.txt 1.23233 3.94578 4.87833 0.541081 11.2798
files/tasks_parameters/ExAp01/sample26.txt 1.11291 3.50998 4.55035 0.474009 9.88153
files/tasks_parameters/ExAp01/sample5.txt 1.35559 4.00994 5.27725 0.587681 12.2512
files/tasks_parameters/ExAp01/sample21.txt 0.933921 2.8974 4.54677 0.430037 8.96486
files/tasks_parameters/ExAp01/sample38.txt 1.16981 3.56689 4.78573 0.492366 10.2642
files/tasks_parameters/ExAp01/sample1.txt 1.15483 3.69002 4.55048 0.481074 10.0288
files/tasks_parameters/ExAp01/sample15.txt 1.20629 3.73223 5.42493 0.524964 10.9438
files/tasks_parameters/ExAp01/sample24.txt 1.29625 4.18053 5.40377 0.542575 11.3109
files/tasks_parameters/ExAp01/sample3.txt 1.08376 3.70547 4.7118 0.470503 9.80844
files/tasks_parameters/ExAp01/sample6.txt 1.42007 4.07521 5.71419 0.626702 13.0647
files/tasks_parameters/ExAp01/sample30.txt 1.49438 3.97446 5.82388 0.626709 13.0648
files/tasks_parameters/ExAp01/sample42.txt 1.29681 4.44207 5.58473 0.537025 11.1952
files/tasks_parameters/ExAp01/sample4.txt 1.32117 3.92181 4.49751 0.556974 11.6111
files/tasks_parameters/ExAp01/sample28.txt 1.07689 3.13496 4.88321 0.444588 9.26819
files/tasks_parameters/ExAp01/sample18.txt 1.22803 3.95301 4.52898 0.537438 11.2038
files/tasks_parameters/ExAp01/sample35.txt 1.90967 5.75923 6.25034 0.752488 15.6869
files/tasks_parameters/ExAp01/sample47.txt 1.16153 3.44018 5.14289 0.540033 11.2579
files/tasks_parameters/ExAp01/sample49.txt 1.19873 3.38981 4.72409 0.493041 10.2783
files/tasks_parameters/ExAp01/sample41.txt 1.10214 3.58692 5.27252 0.492391 10.2647
