digraph G {
0 ->11 0 ->13 0 ->16 0 ->17 1 ->11 1 ->13 1 ->17 1 ->17 1 ->18 1 ->19 1 ->22 2 ->12 2 ->13 2 ->14 2 ->16 2 ->18 2 ->19 2 ->22 3 ->10 3 ->12 3 ->13 3 ->14 3 ->16 3 ->19 3 ->21 3 ->22 4 ->12 4 ->13 4 ->14 4 ->16 4 ->16 4 ->17 4 ->18 4 ->19 4 ->20 4 ->22 5 ->12 5 ->14 5 ->15 5 ->17 5 ->22 6 ->14 6 ->15 6 ->15 6 ->19 6 ->22 7 ->10 7 ->13 7 ->14 7 ->18 7 ->22 8 ->10 8 ->11 8 ->13 8 ->14 8 ->16 8 ->18 8 ->19 8 ->20 8 ->22 9 ->13 9 ->14 9 ->18 9 ->22 10 ->23 10 ->25 10 ->27 10 ->27 10 ->29 10 ->31 10 ->31 11 ->25 11 ->26 11 ->27 11 ->28 11 ->31 11 ->34 12 ->26 12 ->31 13 ->23 13 ->25 13 ->26 13 ->28 13 ->31 13 ->34 14 ->24 14 ->26 14 ->28 14 ->29 15 ->24 15 ->26 15 ->28 15 ->29 15 ->31 15 ->33 16 ->26 16 ->26 16 ->27 16 ->28 16 ->29 16 ->31 16 ->32 17 ->23 17 ->26 17 ->27 17 ->28 17 ->31 18 ->23 18 ->24 18 ->27 18 ->28 18 ->31 18 ->32 19 ->23 19 ->25 19 ->26 19 ->27 19 ->28 19 ->31 19 ->33 20 ->23 20 ->25 20 ->26 20 ->27 20 ->28 20 ->29 21 ->23 21 ->25 21 ->26 21 ->27 21 ->29 21 ->31 21 ->33 22 ->23 22 ->25 22 ->26 22 ->27 22 ->28 22 ->30 22 ->31 23 ->35 23 ->36 23 ->37 23 ->38 24 ->35 24 ->36 25 ->35 25 ->37 26 ->35 26 ->36 26 ->38 27 ->35 27 ->38 28 ->35 28 ->36 28 ->37 29 ->35 29 ->36 29 ->37 30 ->35 30 ->36 30 ->37 30 ->38 31 ->35 31 ->36 32 ->35 32 ->36 32 ->39 33 ->35 33 ->36 33 ->38 34 ->36 34 ->37 35 ->40 35 ->41 35 ->43 35 ->43 35 ->45 36 ->40 36 ->41 36 ->42 36 ->43 37 ->40 37 ->41 37 ->42 37 ->43 37 ->44 37 ->45 38 ->40 38 ->41 38 ->42 38 ->44 38 ->45 39 ->40 39 ->41 39 ->42 39 ->43 39 ->45 39 ->46 40 ->47 40 ->48 41 ->48 41 ->49 41 ->50 42 ->47 42 ->49 42 ->50 43 ->48 44 ->48 44 ->50 45 ->47 45 ->48 45 ->50 46 ->48 46 ->50 46 ->51 47 ->52 47 ->54 47 ->56 47 ->57 47 ->58 47 ->61 48 ->53 48 ->56 48 ->58 48 ->61 49 ->53 49 ->54 49 ->55 49 ->56 49 ->57 49 ->58 49 ->59 49 ->60 49 ->61 50 ->52 50 ->53 50 ->54 50 ->55 50 ->56 50 ->58 50 ->59 50 ->60 50 ->61 51 ->53 51 ->53 51 ->55 51 ->56 51 ->59 51 ->61 52 ->63 52 ->64 52 ->68 52 ->70 53 ->62 53 ->64 53 ->68 53 ->70 54 ->64 54 ->66 54 ->68 54 ->69 54 ->71 55 ->64 55 ->68 55 ->70 55 ->71 56 ->62 56 ->63 56 ->64 56 ->65 56 ->68 57 ->63 57 ->66 58 ->63 58 ->65 58 ->68 59 ->63 59 ->64 59 ->70 60 ->63 60 ->64 60 ->67 60 ->68 60 ->69 61 ->63 61 ->64 61 ->68 61 ->69 62 ->79 62 ->80 63 ->72 63 ->73 63 ->78 63 ->79 63 ->80 64 ->72 64 ->73 64 ->74 64 ->76 64 ->77 64 ->79 64 ->80 65 ->72 65 ->73 65 ->75 65 ->76 65 ->79 65 ->79 65 ->80 66 ->72 66 ->73 66 ->79 66 ->80 67 ->72 67 ->73 67 ->79 67 ->80 68 ->72 68 ->73 68 ->74 68 ->80 69 ->72 69 ->73 69 ->74 69 ->75 69 ->77 69 ->78 69 ->80 70 ->72 70 ->73 70 ->79 70 ->80 71 ->73 71 ->74 71 ->77 71 ->78 71 ->79 72 ->81 72 ->84 72 ->85 72 ->87 72 ->88 73 ->86 73 ->87 74 ->81 74 ->82 74 ->83 74 ->84 74 ->86 74 ->87 75 ->81 75 ->82 75 ->83 75 ->85 75 ->86 75 ->87 75 ->88 76 ->81 76 ->82 76 ->84 76 ->85 76 ->88 77 ->81 77 ->84 77 ->84 77 ->85 77 ->88 78 ->81 78 ->83 78 ->84 78 ->85 78 ->88 79 ->84 79 ->85 80 ->81 80 ->82 80 ->84 80 ->87 80 ->88 81 ->91 81 ->92 81 ->93 81 ->95 82 ->90 82 ->91 82 ->93 82 ->94 82 ->95 82 ->96 83 ->89 83 ->91 83 ->92 83 ->93 83 ->95 83 ->97 84 ->89 84 ->90 84 ->91 84 ->92 84 ->93 84 ->95 85 ->91 85 ->92 85 ->93 85 ->94 85 ->95 85 ->96 86 ->89 86 ->91 86 ->92 87 ->91 87 ->92 87 ->92 87 ->93 87 ->94 87 ->96 87 ->97 88 ->91 88 ->94 88 ->95 88 ->97 90 ->98 90 ->99 91 ->98 92 ->98 95 ->98 97 ->98 
}
