files/tasks_parameters/ExAp01/sample8.txt 0.777382 3.15778 1.5595 0.203411 4.06822
files/tasks_parameters/ExAp01/sample12.txt 0.806027 3.94962 1.6705 0.207924 4.15848
files/tasks_parameters/ExAp01/sample2.txt 0.774259 3.78275 1.74131 0.200098 4.00195
files/tasks_parameters/ExAp01/sample44.txt 0.68846 3.59825 1.65317 0.200005 4.0001
files/tasks_parameters/ExAp01/sample27.txt 0.685207 3.45743 1.5148 0.182129 3.64257
files/tasks_parameters/ExAp01/sample17.txt 0.925109 2.77299 1.44514 0.14646 2.9292
files/tasks_parameters/ExAp01/sample9.txt 0.709154 2.99933 1.451 0.177444 3.54887
files/tasks_parameters/ExAp01/sample34.txt 0.831645 3.02928 1.58429 0.157984 3.15967
files/tasks_parameters/ExAp01/sample40.txt 0.764924 3.86889 1.52122 0.168379 3.36759
files/tasks_parameters/ExAp01/sample33.txt 0.800579 3.63695 1.71905 0.199765 3.9953
files/tasks_parameters/ExAp01/sample48.txt 0.682426 3.39061 1.49062 0.154728 3.09456
files/tasks_parameters/ExAp01/sample29.txt 0.743025 3.30472 1.38739 0.223868 4.47737
files/tasks_parameters/ExAp01/sample11.txt 0.707448 3.10585 1.41612 0.174079 3.48157
files/tasks_parameters/ExAp01/sample14.txt 0.658036 2.70971 1.43432 0.162214 3.24429
files/tasks_parameters/ExAp01/sample0.txt 0.752881 3.6937 1.5439 0.18367 3.6734
files/tasks_parameters/ExAp01/sample7.txt 0.809856 2.70501 1.42221 0.143463 2.86927
files/tasks_parameters/ExAp01/sample23.txt 0.749871 3.2697 1.57822 0.181448 3.62897
files/tasks_parameters/ExAp01/sample13.txt 0.735113 3.84225 1.67648 0.198247 3.96494
files/tasks_parameters/ExAp01/sample22.txt 0.901802 3.09569 1.56121 0.148796 2.97592
files/tasks_parameters/ExAp01/sample25.txt 0.746637 2.73966 1.5007 0.148149 2.96297
files/tasks_parameters/ExAp01/sample36.txt 0.831859 2.85948 1.28553 0.130042 2.60085
files/tasks_parameters/ExAp01/sample46.txt 0.747719 3.58643 1.69998 0.210103 4.20206
files/tasks_parameters/ExAp01/sample31.txt 0.693198 3.4832 1.53782 0.1722 3.444
files/tasks_parameters/ExAp01/sample37.txt 0.761499 3.95293 1.50705 0.171701 3.43402
files/tasks_parameters/ExAp01/sample16.txt 0.606618 3.31216 1.30115 0.150249 3.00498
files/tasks_parameters/ExAp01/sample10.txt 1.10417 3.17098 1.61789 0.153776 3.07553
files/tasks_parameters/ExAp01/sample39.txt 0.676454 3.26617 1.44406 0.165669 3.31337
files/tasks_parameters/ExAp01/sample19.txt 0.716253 3.63532 1.52509 0.196094 3.92189
files/tasks_parameters/ExAp01/sample20.txt 0.662661 3.20793 1.25367 0.147335 2.94671
files/tasks_parameters/ExAp01/sample43.txt 0.648615 3.11551 1.4202 0.150644 3.01289
files/tasks_parameters/ExAp01/sample32.txt 0.722684 3.5311 1.42482 0.168744 3.37488
files/tasks_parameters/ExAp01/sample45.txt 0.731221 3.80283 1.48324 0.19807 3.96141
files/tasks_parameters/ExAp01/sample26.txt 0.633078 3.21645 1.29701 0.166061 3.32122
files/tasks_parameters/ExAp01/sample5.txt 0.634512 3.5889 1.52559 0.178903 3.57807
files/tasks_parameters/ExAp01/sample21.txt 0.673408 2.75242 1.55936 0.19512 3.90241
files/tasks_parameters/ExAp01/sample38.txt 0.647679 3.31563 1.37515 0.166157 3.32314
files/tasks_parameters/ExAp01/sample1.txt 0.733976 3.74964 1.51696 0.19701 3.94019
files/tasks_parameters/ExAp01/sample15.txt 0.700577 3.32916 1.48508 0.180707 3.61415
files/tasks_parameters/ExAp01/sample24.txt 0.861271 3.45951 1.59549 0.16529 3.30581
files/tasks_parameters/ExAp01/sample3.txt 0.89864 3.70014 1.70809 0.237107 4.74214
files/tasks_parameters/ExAp01/sample6.txt 0.730089 3.33003 1.58323 0.184714 3.69429
files/tasks_parameters/ExAp01/sample30.txt 0.830911 4.1841 1.4861 0.239623 4.79246
files/tasks_parameters/ExAp01/sample42.txt 0.747833 3.43221 1.70276 0.177383 3.54766
files/tasks_parameters/ExAp01/sample4.txt 0.787052 3.72477 1.6136 0.196448 3.92896
files/tasks_parameters/ExAp01/sample28.txt 0.689545 3.11323 1.45032 0.158819 3.17638
files/tasks_parameters/ExAp01/sample18.txt 0.769617 3.47418 1.45209 0.149064 2.98128
files/tasks_parameters/ExAp01/sample35.txt 0.807039 4.57086 1.49394 0.185031 3.70061
files/tasks_parameters/ExAp01/sample47.txt 0.717449 3.13768 1.52397 0.16417 3.2834
files/tasks_parameters/ExAp01/sample49.txt 0.776571 3.13288 1.49657 0.156154 3.12308
files/tasks_parameters/ExAp01/sample41.txt 0.762215 2.81964 1.49636 0.150876 3.01752
