files/tasks_parameters/ExAp01/sample8.txt 0.823673 3.15778 1.5595 0.203411 11.8857
files/tasks_parameters/ExAp01/sample12.txt 0.781029 3.94962 1.6705 0.207924 12.1494
files/tasks_parameters/ExAp01/sample2.txt 0.763315 3.78275 1.74131 0.200098 11.6921
files/tasks_parameters/ExAp01/sample44.txt 0.720817 3.59825 1.65317 0.200005 11.6867
files/tasks_parameters/ExAp01/sample27.txt 0.774814 3.45743 1.5148 0.182129 10.6421
files/tasks_parameters/ExAp01/sample17.txt 0.625858 2.77299 1.44514 0.14646 8.55794
files/tasks_parameters/ExAp01/sample9.txt 0.628933 2.99933 1.451 0.177444 10.3684
files/tasks_parameters/ExAp01/sample34.txt 0.654366 3.02928 1.58429 0.157984 9.23131
files/tasks_parameters/ExAp01/sample40.txt 0.656865 3.86889 1.52122 0.168379 9.83875
files/tasks_parameters/ExAp01/sample33.txt 0.852672 3.63695 1.71905 0.199765 11.6727
files/tasks_parameters/ExAp01/sample48.txt 0.690899 3.39061 1.49062 0.154728 9.04108
files/tasks_parameters/ExAp01/sample29.txt 0.758217 3.30472 1.38739 0.223868 13.0811
files/tasks_parameters/ExAp01/sample11.txt 0.701265 3.10585 1.41612 0.174079 10.1718
files/tasks_parameters/ExAp01/sample14.txt 0.645477 2.70971 1.43432 0.162214 9.47852
files/tasks_parameters/ExAp01/sample0.txt 0.739079 3.6937 1.5439 0.18367 10.7322
files/tasks_parameters/ExAp01/sample7.txt 0.630604 2.70501 1.42221 0.143463 8.38286
files/tasks_parameters/ExAp01/sample23.txt 0.667595 3.2697 1.57822 0.181448 10.6024
files/tasks_parameters/ExAp01/sample13.txt 0.78322 3.84225 1.67648 0.198247 11.584
files/tasks_parameters/ExAp01/sample22.txt 0.608724 3.09569 1.56121 0.148796 8.69446
files/tasks_parameters/ExAp01/sample25.txt 0.559334 2.73966 1.5007 0.148149 8.65663
files/tasks_parameters/ExAp01/sample36.txt 0.522372 2.85948 1.28553 0.130042 7.59864
files/tasks_parameters/ExAp01/sample46.txt 0.804826 3.58643 1.69998 0.210103 12.2767
files/tasks_parameters/ExAp01/sample31.txt 0.702475 3.4832 1.53782 0.1722 10.062
files/tasks_parameters/ExAp01/sample37.txt 0.703674 3.95293 1.50705 0.171701 10.0328
files/tasks_parameters/ExAp01/sample16.txt 0.648288 3.31216 1.30115 0.150249 8.77936
files/tasks_parameters/ExAp01/sample10.txt 0.690787 3.17098 1.61789 0.153776 8.98547
files/tasks_parameters/ExAp01/sample39.txt 0.668237 3.26617 1.44406 0.165669 9.68036
files/tasks_parameters/ExAp01/sample19.txt 0.799216 3.63532 1.52509 0.196094 11.4582
files/tasks_parameters/ExAp01/sample20.txt 0.541524 3.20793 1.25367 0.147335 8.60911
files/tasks_parameters/ExAp01/sample43.txt 0.630986 3.11551 1.4202 0.150644 8.80246
files/tasks_parameters/ExAp01/sample32.txt 0.66774 3.5311 1.42482 0.168744 9.86007
files/tasks_parameters/ExAp01/sample45.txt 0.834322 3.80283 1.48324 0.19807 11.5737
files/tasks_parameters/ExAp01/sample26.txt 0.668246 3.21645 1.29701 0.166061 9.7033
files/tasks_parameters/ExAp01/sample5.txt 0.713715 3.5889 1.52559 0.178903 10.4537
files/tasks_parameters/ExAp01/sample21.txt 0.808064 2.75242 1.55936 0.19512 11.4013
files/tasks_parameters/ExAp01/sample38.txt 0.634791 3.31563 1.37515 0.166157 9.70888
files/tasks_parameters/ExAp01/sample1.txt 0.788739 3.74964 1.51696 0.19701 11.5117
files/tasks_parameters/ExAp01/sample15.txt 0.721941 3.32916 1.48508 0.180707 10.5591
files/tasks_parameters/ExAp01/sample24.txt 0.690239 3.45951 1.59549 0.16529 9.65826
files/tasks_parameters/ExAp01/sample3.txt 0.921034 3.70014 1.70809 0.237107 13.8547
files/tasks_parameters/ExAp01/sample6.txt 0.754674 3.33003 1.58323 0.184714 10.7932
files/tasks_parameters/ExAp01/sample30.txt 0.903312 4.1841 1.4861 0.239623 14.0017
files/tasks_parameters/ExAp01/sample42.txt 0.747882 3.43221 1.70276 0.177383 10.3648
files/tasks_parameters/ExAp01/sample4.txt 0.810446 3.72477 1.6136 0.196448 11.4789
files/tasks_parameters/ExAp01/sample28.txt 0.668852 3.11323 1.45032 0.158819 9.28012
files/tasks_parameters/ExAp01/sample18.txt 0.660171 3.47418 1.45209 0.149064 8.7101
files/tasks_parameters/ExAp01/sample35.txt 0.716112 4.57086 1.49394 0.185031 10.8117
files/tasks_parameters/ExAp01/sample47.txt 0.668767 3.13768 1.52397 0.16417 9.5928
files/tasks_parameters/ExAp01/sample49.txt 0.658126 3.13288 1.49657 0.156154 9.1244
files/tasks_parameters/ExAp01/sample41.txt 0.663095 2.81964 1.49636 0.150876 8.81599
