files/tasks_parameters/ExAp01/sample8.txt 1.23377 6.77015 2.19458 0.288816 14.7447
files/tasks_parameters/ExAp01/sample12.txt 1.32123 9.58351 2.46081 0.337498 17.23
files/tasks_parameters/ExAp01/sample2.txt 1.23853 8.44418 2.50701 0.319127 16.2921
files/tasks_parameters/ExAp01/sample44.txt 1.14722 6.96299 2.23089 0.28229 14.4115
files/tasks_parameters/ExAp01/sample27.txt 1.2618 7.74306 2.16676 0.28602 14.6019
files/tasks_parameters/ExAp01/sample17.txt 1.23557 7.35053 2.25579 0.292348 14.925
files/tasks_parameters/ExAp01/sample9.txt 1.0604 6.89392 2.21068 0.282399 14.4171
files/tasks_parameters/ExAp01/sample34.txt 1.21971 6.62788 2.3772 0.297742 15.2003
files/tasks_parameters/ExAp01/sample40.txt 1.2343 7.75686 2.17534 0.285619 14.5815
files/tasks_parameters/ExAp01/sample33.txt 1.27442 8.14826 2.6463 0.338073 17.2594
files/tasks_parameters/ExAp01/sample48.txt 1.0589 7.64107 2.14272 0.270011 13.7846
files/tasks_parameters/ExAp01/sample29.txt 1.03585 7.139 1.93769 0.286306 14.6165
files/tasks_parameters/ExAp01/sample11.txt 1.16274 6.88688 2.12981 0.280008 14.295
files/tasks_parameters/ExAp01/sample14.txt 0.981909 6.11983 1.97599 0.247458 12.6332
files/tasks_parameters/ExAp01/sample0.txt 1.16731 8.2738 2.14256 0.289132 14.7608
files/tasks_parameters/ExAp01/sample7.txt 1.11897 6.87011 2.05821 0.269886 13.7782
files/tasks_parameters/ExAp01/sample23.txt 1.18311 6.52032 2.38087 0.291712 14.8925
files/tasks_parameters/ExAp01/sample13.txt 1.16316 8.73247 2.33415 0.295393 15.0804
files/tasks_parameters/ExAp01/sample22.txt 1.16459 6.9777 2.28948 0.283979 14.4977
files/tasks_parameters/ExAp01/sample25.txt 1.06361 6.23444 2.2122 0.267298 13.6461
files/tasks_parameters/ExAp01/sample36.txt 0.984888 6.6174 1.9458 0.253823 12.9582
files/tasks_parameters/ExAp01/sample46.txt 1.28092 7.42369 2.49128 0.327273 16.708
files/tasks_parameters/ExAp01/sample31.txt 0.989566 7.22028 2.13584 0.25377 12.9555
files/tasks_parameters/ExAp01/sample37.txt 1.16997 8.90704 2.16981 0.295708 15.0965
files/tasks_parameters/ExAp01/sample16.txt 1.07675 8.18243 1.88294 0.24945 12.7349
files/tasks_parameters/ExAp01/sample10.txt 1.12627 6.96646 2.31217 0.285748 14.588
files/tasks_parameters/ExAp01/sample39.txt 1.16181 6.4161 1.97266 0.251967 12.8634
files/tasks_parameters/ExAp01/sample19.txt 1.19774 8.16711 2.23199 0.308463 15.7477
files/tasks_parameters/ExAp01/sample20.txt 1.01873 7.28549 1.88944 0.25994 13.2705
files/tasks_parameters/ExAp01/sample43.txt 0.990491 6.86804 2.00142 0.25616 13.0775
files/tasks_parameters/ExAp01/sample32.txt 1.1669 8.15663 2.12995 0.281726 14.3827
files/tasks_parameters/ExAp01/sample45.txt 1.10217 7.75184 2.10599 0.274935 14.036
files/tasks_parameters/ExAp01/sample26.txt 1.1272 7.4944 1.88956 0.267248 13.6436
files/tasks_parameters/ExAp01/sample5.txt 1.11008 8.08362 2.09961 0.28454 14.5264
files/tasks_parameters/ExAp01/sample21.txt 1.08569 6.11814 2.17119 0.26143 13.3465
files/tasks_parameters/ExAp01/sample38.txt 1.04972 7.761 1.96293 0.263659 13.4603
files/tasks_parameters/ExAp01/sample1.txt 1.16624 7.83752 2.13261 0.289228 14.7657
files/tasks_parameters/ExAp01/sample15.txt 1.15279 7.37971 2.12057 0.285825 14.592
files/tasks_parameters/ExAp01/sample24.txt 1.16583 8.28531 2.25272 0.296628 15.1435
files/tasks_parameters/ExAp01/sample3.txt 1.24183 7.33359 2.39135 0.305084 15.5752
files/tasks_parameters/ExAp01/sample6.txt 1.19458 7.09894 2.24425 0.281804 14.3867
files/tasks_parameters/ExAp01/sample30.txt 1.21318 8.17669 2.03701 0.299204 15.275
files/tasks_parameters/ExAp01/sample42.txt 1.34796 7.70416 2.42413 0.29743 15.1844
files/tasks_parameters/ExAp01/sample4.txt 1.28741 7.41691 2.36261 0.307803 15.714
files/tasks_parameters/ExAp01/sample28.txt 1.09313 7.0562 2.07657 0.266428 13.6017
files/tasks_parameters/ExAp01/sample18.txt 1.07313 7.60139 2.1377 0.268016 13.6828
files/tasks_parameters/ExAp01/sample35.txt 1.31101 9.66795 2.28028 0.32244 16.4612
files/tasks_parameters/ExAp01/sample47.txt 0.994629 6.84842 2.12104 0.251655 12.8475
files/tasks_parameters/ExAp01/sample49.txt 1.01467 7.1497 2.11412 0.255889 13.0637
files/tasks_parameters/ExAp01/sample41.txt 1.04083 6.59911 2.07359 0.265885 13.574
