0 97
0 99
1 95
1 96
2 98
10 97
10 99
11 99
13 96
13 98
13 99
14 99
15 96
15 97
16 97
16 98
17 96
18 95
18 96
19 95
19 96
20 96
20 96
20 97
21 96
22 98
22 99
23 98
23 99
24 95
24 96
25 99
26 96
26 98
29 96
30 96
30 99
31 95
31 99
33 95
33 96
33 99
34 95
34 99
35 95
35 97
35 98
36 96
37 96
37 99
38 96
38 97
38 98
40 97
40 99
41 99
42 99
43 99
44 99
45 96
45 97
45 98
45 99
46 98
46 99
47 96
49 95
49 99
50 99
51 97
52 95
53 96
55 96
55 98
56 98
57 96
58 96
59 96
59 97
60 96
61 96
62 95
62 96
64 99
65 96
65 98
67 96
68 98
69 95
70 97
70 99
71 96
71 97
71 99
72 96
73 96
73 97
74 95
74 99
75 95
75 97
75 99
76 96
76 99
77 99
78 95
78 96
78 99
79 98
81 99
82 99
83 97
83 99
84 96
84 99
85 96
86 96
87 96
88 96
88 99
89 99
90 99
91 96
94 98
94 99
