0 81
0 82
0 83
0 88
0 96
1 74
1 77
1 79
1 88
1 90
1 96
2 81
2 83
2 88
2 94
2 97
3 76
3 79
3 88
3 91
3 94
4 79
4 80
4 88
4 91
4 95
4 96
4 99
5 79
5 82
5 83
5 86
5 88
5 95
5 96
5 99
6 85
6 86
6 88
6 95
6 96
7 77
7 81
7 83
7 86
7 87
7 88
7 95
7 96
8 76
8 77
8 82
8 83
8 86
8 88
8 95
9 76
9 77
9 81
9 85
9 87
9 95
9 95
9 99
10 74
10 77
10 83
10 90
10 94
10 95
10 96
11 77
11 83
11 86
12 74
12 81
12 83
12 96
12 98
13 77
13 81
13 87
13 94
13 95
13 97
14 79
14 81
14 91
14 95
14 97
15 76
15 77
15 81
15 87
15 95
16 76
16 82
16 87
16 88
16 96
16 97
17 81
17 83
17 88
17 96
17 97
18 79
18 81
18 84
18 87
18 95
18 96
18 97
19 76
19 80
19 81
19 94
19 95
19 96
19 97
20 76
20 77
20 79
20 83
20 85
20 95
20 96
20 97
21 76
21 78
21 81
21 83
21 86
21 95
21 96
21 97
21 99
22 78
22 81
22 83
22 86
22 86
22 96
22 99
23 77
23 95
23 96
24 74
24 77
24 81
24 86
24 89
24 91
24 98
25 77
25 83
25 85
25 89
25 89
25 99
26 76
26 77
26 78
26 79
26 81
26 83
26 97
27 76
27 77
27 88
27 94
28 74
28 77
28 83
28 86
28 87
28 88
28 92
28 97
29 76
29 77
29 83
29 87
29 87
29 98
30 80
30 83
30 83
30 90
30 97
31 79
31 80
31 83
31 85
31 88
31 95
32 77
32 81
32 83
32 87
32 96
32 99
33 77
33 81
33 82
33 88
33 95
34 78
34 81
34 96
35 77
35 79
35 81
35 83
35 85
35 87
35 88
35 97
35 99
36 74
36 85
36 86
36 91
36 97
37 81
37 83
37 86
37 87
37 96
37 97
37 98
38 76
38 83
38 86
38 87
38 91
38 92
38 95
38 97
38 99
39 77
39 81
39 83
39 94
39 96
40 80
40 81
40 88
40 94
41 83
41 86
41 87
41 88
41 95
41 96
42 75
42 76
42 79
42 83
42 87
42 89
42 92
42 95
42 97
43 77
43 78
43 79
43 81
43 82
43 83
43 88
44 88
44 94
44 96
45 94
45 96
45 98
46 77
46 79
46 85
46 86
46 92
46 94
47 77
47 86
47 96
47 98
48 79
48 83
48 86
48 88
48 90
48 95
48 96
48 97
49 83
49 88
49 95
50 76
50 77
50 78
50 79
50 95
50 96
51 76
51 79
51 83
51 88
51 89
51 93
51 96
51 98
52 77
52 79
52 83
52 86
52 88
52 96
52 98
52 99
53 77
53 88
53 99
54 74
54 77
54 78
54 88
54 92
54 95
55 77
55 77
55 79
55 88
55 95
55 96
56 77
56 79
56 81
56 82
56 87
56 88
56 92
56 96
56 99
57 81
57 82
57 85
57 91
57 95
57 97
58 77
58 95
58 96
59 77
59 89
59 92
59 95
59 97
60 77
60 79
60 80
60 81
60 82
60 94
60 95
60 96
60 98
61 80
61 85
61 86
61 88
62 85
62 86
62 91
62 96
63 76
63 77
63 81
63 95
63 96
63 97
64 76
64 77
64 79
64 81
64 86
64 87
64 99
65 76
65 77
65 78
65 80
65 81
65 88
65 97
66 79
66 85
66 86
66 88
67 79
67 80
67 83
67 88
67 94
67 95
67 99
68 79
68 82
68 83
68 96
69 76
69 77
69 79
69 81
69 85
69 88
69 95
70 79
70 86
70 91
70 95
71 81
71 87
71 95
71 96
72 76
72 85
72 87
72 88
72 96
73 76
73 81
73 83
73 85
73 87
73 88
73 92
73 98
