files/tasks_parameters/ExAp01/sample8.txt 1.23901 6.77015 2.19458 0.288816 6.34949
files/tasks_parameters/ExAp01/sample12.txt 1.42375 9.58351 2.46081 0.337498 7.41974
files/tasks_parameters/ExAp01/sample2.txt 1.34231 8.44418 2.50701 0.319127 7.01586
files/tasks_parameters/ExAp01/sample44.txt 1.2119 6.96299 2.23089 0.28229 6.20601
files/tasks_parameters/ExAp01/sample27.txt 1.22214 7.74306 2.16676 0.28602 6.28801
files/tasks_parameters/ExAp01/sample17.txt 1.25545 7.35053 2.25579 0.292348 6.42712
files/tasks_parameters/ExAp01/sample9.txt 1.20405 6.89392 2.21068 0.282399 6.2084
files/tasks_parameters/ExAp01/sample34.txt 1.26589 6.62788 2.3772 0.297742 6.5457
files/tasks_parameters/ExAp01/sample40.txt 1.21493 7.75686 2.17534 0.285619 6.2792
files/tasks_parameters/ExAp01/sample33.txt 1.42983 8.14826 2.6463 0.338073 7.43237
files/tasks_parameters/ExAp01/sample48.txt 1.14425 7.64107 2.14272 0.270011 5.93606
files/tasks_parameters/ExAp01/sample29.txt 1.19461 7.139 1.93769 0.286306 6.29429
files/tasks_parameters/ExAp01/sample11.txt 1.18754 6.88688 2.12981 0.280008 6.15585
files/tasks_parameters/ExAp01/sample14.txt 1.05792 6.11983 1.97599 0.247458 5.44023
files/tasks_parameters/ExAp01/sample0.txt 1.23797 8.2738 2.14256 0.289132 6.35642
files/tasks_parameters/ExAp01/sample7.txt 1.15319 6.87011 2.05821 0.269886 5.9333
files/tasks_parameters/ExAp01/sample23.txt 1.23195 6.52032 2.38087 0.291712 6.41314
files/tasks_parameters/ExAp01/sample13.txt 1.25792 8.73247 2.33415 0.295393 6.49406
files/tasks_parameters/ExAp01/sample22.txt 1.21398 6.9777 2.28948 0.283979 6.24314
files/tasks_parameters/ExAp01/sample25.txt 1.13525 6.23444 2.2122 0.267298 5.87641
files/tasks_parameters/ExAp01/sample36.txt 1.09813 6.6174 1.9458 0.253823 5.58017
files/tasks_parameters/ExAp01/sample46.txt 1.38796 7.42369 2.49128 0.327273 7.19493
files/tasks_parameters/ExAp01/sample31.txt 1.07072 7.22028 2.13584 0.25377 5.57901
files/tasks_parameters/ExAp01/sample37.txt 1.32782 8.90704 2.16981 0.295708 6.501
files/tasks_parameters/ExAp01/sample16.txt 1.0913 8.18243 1.88294 0.24945 5.48403
files/tasks_parameters/ExAp01/sample10.txt 1.22119 6.96646 2.31217 0.285748 6.28203
files/tasks_parameters/ExAp01/sample39.txt 1.07114 6.4161 1.97266 0.251967 5.53936
files/tasks_parameters/ExAp01/sample19.txt 1.32232 8.16711 2.23199 0.308463 6.7814
files/tasks_parameters/ExAp01/sample20.txt 1.10035 7.28549 1.88944 0.25994 5.71465
files/tasks_parameters/ExAp01/sample43.txt 1.09378 6.86804 2.00142 0.25616 5.63156
files/tasks_parameters/ExAp01/sample32.txt 1.19778 8.15663 2.12995 0.281726 6.19362
files/tasks_parameters/ExAp01/sample45.txt 1.1727 7.75184 2.10599 0.274935 6.04431
files/tasks_parameters/ExAp01/sample26.txt 1.13025 7.4944 1.88956 0.267248 5.87532
files/tasks_parameters/ExAp01/sample5.txt 1.20094 8.08362 2.09961 0.28454 6.25548
files/tasks_parameters/ExAp01/sample21.txt 1.11216 6.11814 2.17119 0.26143 5.7474
files/tasks_parameters/ExAp01/sample38.txt 1.10841 7.761 1.96293 0.263659 5.79641
files/tasks_parameters/ExAp01/sample1.txt 1.23785 7.83752 2.13261 0.289228 6.35854
files/tasks_parameters/ExAp01/sample15.txt 1.2169 7.37971 2.12057 0.285825 6.28373
files/tasks_parameters/ExAp01/sample24.txt 1.26119 8.28531 2.25272 0.296628 6.52123
files/tasks_parameters/ExAp01/sample3.txt 1.30194 7.33359 2.39135 0.305084 6.70713
files/tasks_parameters/ExAp01/sample6.txt 1.20059 7.09894 2.24425 0.281804 6.19533
files/tasks_parameters/ExAp01/sample30.txt 1.28712 8.17669 2.03701 0.299204 6.57786
files/tasks_parameters/ExAp01/sample42.txt 1.25601 7.70416 2.42413 0.29743 6.53885
files/tasks_parameters/ExAp01/sample4.txt 1.30972 7.41691 2.36261 0.307803 6.76689
files/tasks_parameters/ExAp01/sample28.txt 1.13382 7.0562 2.07657 0.266428 5.85729
files/tasks_parameters/ExAp01/sample18.txt 1.17875 7.60139 2.1377 0.268016 5.8922
files/tasks_parameters/ExAp01/sample35.txt 1.36448 9.66795 2.28028 0.32244 7.08868
files/tasks_parameters/ExAp01/sample47.txt 1.07613 6.84842 2.12104 0.251655 5.53251
files/tasks_parameters/ExAp01/sample49.txt 1.0939 7.1497 2.11412 0.255889 5.62559
files/tasks_parameters/ExAp01/sample41.txt 1.1261 6.59911 2.07359 0.265885 5.84536
