files/tasks_parameters/ExAp01/sample8.txt 0.733854 3.15778 1.5595 0.203411 4.64059
files/tasks_parameters/ExAp01/sample12.txt 0.773965 3.94962 1.6705 0.207924 4.74354
files/tasks_parameters/ExAp01/sample2.txt 0.706217 3.78275 1.74131 0.200098 4.565
files/tasks_parameters/ExAp01/sample44.txt 0.694585 3.59825 1.65317 0.200005 4.56289
files/tasks_parameters/ExAp01/sample27.txt 0.681623 3.45743 1.5148 0.182129 4.15505
files/tasks_parameters/ExAp01/sample17.txt 0.547917 2.77299 1.44514 0.14646 3.34131
files/tasks_parameters/ExAp01/sample9.txt 0.671445 2.99933 1.451 0.177444 4.04817
files/tasks_parameters/ExAp01/sample34.txt 0.561822 3.02928 1.58429 0.157984 3.60422
files/tasks_parameters/ExAp01/sample40.txt 0.60326 3.86889 1.52122 0.168379 3.84138
files/tasks_parameters/ExAp01/sample33.txt 0.699439 3.63695 1.71905 0.199765 4.55741
files/tasks_parameters/ExAp01/sample48.txt 0.598451 3.39061 1.49062 0.154728 3.52995
files/tasks_parameters/ExAp01/sample29.txt 0.765609 3.30472 1.38739 0.223868 5.1073
files/tasks_parameters/ExAp01/sample11.txt 0.623638 3.10585 1.41612 0.174079 3.9714
files/tasks_parameters/ExAp01/sample14.txt 0.577141 2.70971 1.43432 0.162214 3.70074
files/tasks_parameters/ExAp01/sample0.txt 0.689042 3.6937 1.5439 0.18367 4.19022
files/tasks_parameters/ExAp01/sample7.txt 0.557415 2.70501 1.42221 0.143463 3.27295
files/tasks_parameters/ExAp01/sample23.txt 0.65135 3.2697 1.57822 0.181448 4.13954
files/tasks_parameters/ExAp01/sample13.txt 0.692437 3.84225 1.67648 0.198247 4.52278
files/tasks_parameters/ExAp01/sample22.txt 0.553875 3.09569 1.56121 0.148796 3.39461
files/tasks_parameters/ExAp01/sample25.txt 0.518532 2.73966 1.5007 0.148149 3.37984
files/tasks_parameters/ExAp01/sample36.txt 0.481705 2.85948 1.28553 0.130042 2.96676
files/tasks_parameters/ExAp01/sample46.txt 0.734619 3.58643 1.69998 0.210103 4.79325
files/tasks_parameters/ExAp01/sample31.txt 0.635781 3.4832 1.53782 0.1722 3.92854
files/tasks_parameters/ExAp01/sample37.txt 0.650965 3.95293 1.50705 0.171701 3.91716
files/tasks_parameters/ExAp01/sample16.txt 0.600168 3.31216 1.30115 0.150249 3.42776
files/tasks_parameters/ExAp01/sample10.txt 0.626555 3.17098 1.61789 0.153776 3.50823
files/tasks_parameters/ExAp01/sample39.txt 0.601285 3.26617 1.44406 0.165669 3.77954
files/tasks_parameters/ExAp01/sample19.txt 0.734283 3.63532 1.52509 0.196094 4.47367
files/tasks_parameters/ExAp01/sample20.txt 0.527622 3.20793 1.25367 0.147335 3.36129
files/tasks_parameters/ExAp01/sample43.txt 0.545563 3.11551 1.4202 0.150644 3.43678
files/tasks_parameters/ExAp01/sample32.txt 0.620674 3.5311 1.42482 0.168744 3.84971
files/tasks_parameters/ExAp01/sample45.txt 0.731873 3.80283 1.48324 0.19807 4.51875
files/tasks_parameters/ExAp01/sample26.txt 0.617723 3.21645 1.29701 0.166061 3.7885
files/tasks_parameters/ExAp01/sample5.txt 0.689065 3.5889 1.52559 0.178903 4.08148
files/tasks_parameters/ExAp01/sample21.txt 0.680394 2.75242 1.55936 0.19512 4.45145
files/tasks_parameters/ExAp01/sample38.txt 0.57985 3.31563 1.37515 0.166157 3.79068
files/tasks_parameters/ExAp01/sample1.txt 0.690728 3.74964 1.51696 0.19701 4.49455
files/tasks_parameters/ExAp01/sample15.txt 0.63175 3.32916 1.48508 0.180707 4.12263
files/tasks_parameters/ExAp01/sample24.txt 0.613909 3.45951 1.59549 0.16529 3.77091
files/tasks_parameters/ExAp01/sample3.txt 0.905455 3.70014 1.70809 0.237107 5.40933
files/tasks_parameters/ExAp01/sample6.txt 0.657894 3.33003 1.58323 0.184714 4.21405
files/tasks_parameters/ExAp01/sample30.txt 0.858613 4.1841 1.4861 0.239623 5.46673
files/tasks_parameters/ExAp01/sample42.txt 0.617731 3.43221 1.70276 0.177383 4.04679
files/tasks_parameters/ExAp01/sample4.txt 0.736291 3.72477 1.6136 0.196448 4.48174
files/tasks_parameters/ExAp01/sample28.txt 0.569671 3.11323 1.45032 0.158819 3.62327
files/tasks_parameters/ExAp01/sample18.txt 0.552399 3.47418 1.45209 0.149064 3.40072
files/tasks_parameters/ExAp01/sample35.txt 0.691499 4.57086 1.49394 0.185031 4.22126
files/tasks_parameters/ExAp01/sample47.txt 0.612666 3.13768 1.52397 0.16417 3.74535
files/tasks_parameters/ExAp01/sample49.txt 0.601821 3.13288 1.49657 0.156154 3.56248
files/tasks_parameters/ExAp01/sample41.txt 0.577288 2.81964 1.49636 0.150876 3.44206
