digraph G {
0 ->10 1 ->12 3 ->15 5 ->11 5 ->16 6 ->13 6 ->14 8 ->17 10 ->20 11 ->19 11 ->28 12 ->18 12 ->23 12 ->26 14 ->21 14 ->27 15 ->24 17 ->22 17 ->25 18 ->31 21 ->30 24 ->34 25 ->34 26 ->32 26 ->33 26 ->37 27 ->29 27 ->35 28 ->36 28 ->38 29 ->42 30 ->40 30 ->41 30 ->46 30 ->47 30 ->48 33 ->44 33 ->45 34 ->39 34 ->43 35 ->50 35 ->51 36 ->49 39 ->54 41 ->54 41 ->56 41 ->59 42 ->53 42 ->60 42 ->61 45 ->55 46 ->58 46 ->61 47 ->55 48 ->58 49 ->57 51 ->52 53 ->63 54 ->67 55 ->64 55 ->69 58 ->65 60 ->68 61 ->62 61 ->66 62 ->74 65 ->72 66 ->73 67 ->71 67 ->75 69 ->70 70 ->79 70 ->82 70 ->85 71 ->83 72 ->81 73 ->78 73 ->80 74 ->76 75 ->77 75 ->84 76 ->86 76 ->97 78 ->90 78 ->92 80 ->98 82 ->95 83 ->87 83 ->94 84 ->89 84 ->91 84 ->96 85 ->88 85 ->93 94 ->99 97 ->99 
}
