digraph G {
0 ->13 3 ->13 4 ->14 5 ->12 8 ->15 9 ->17 11 ->16 12 ->25 12 ->26 12 ->28 12 ->29 14 ->22 14 ->23 16 ->24 16 ->27 17 ->18 17 ->19 17 ->20 17 ->21 18 ->37 20 ->34 21 ->31 21 ->32 23 ->30 23 ->36 23 ->40 25 ->35 25 ->38 25 ->40 27 ->33 29 ->39 30 ->43 31 ->41 31 ->45 34 ->42 38 ->42 39 ->44 41 ->48 41 ->49 41 ->53 42 ->52 43 ->50 44 ->51 45 ->46 45 ->47 46 ->56 47 ->58 50 ->57 53 ->54 53 ->55 55 ->60 55 ->63 56 ->59 57 ->62 58 ->61 59 ->65 59 ->68 59 ->70 59 ->72 59 ->73 60 ->69 61 ->64 62 ->67 62 ->71 63 ->66 64 ->76 64 ->82 66 ->83 67 ->79 69 ->77 69 ->80 70 ->74 70 ->75 71 ->78 72 ->81 72 ->84 74 ->86 74 ->93 77 ->91 77 ->92 78 ->85 78 ->87 79 ->94 80 ->89 80 ->94 82 ->90 83 ->88 86 ->96 86 ->99 89 ->98 94 ->95 94 ->97 
}
