digraph G {
0 ->9 0 ->12 1 ->15 1 ->16 1 ->21 2 ->11 3 ->13 3 ->14 3 ->18 3 ->19 4 ->17 6 ->8 6 ->10 6 ->20 8 ->24 10 ->26 11 ->25 13 ->24 15 ->23 16 ->27 18 ->22 18 ->27 22 ->31 22 ->37 23 ->28 24 ->35 25 ->32 25 ->36 25 ->38 26 ->29 26 ->30 26 ->33 27 ->34 28 ->40 28 ->41 29 ->39 30 ->42 33 ->44 34 ->40 36 ->45 38 ->43 38 ->46 39 ->47 39 ->48 39 ->49 39 ->51 39 ->53 42 ->52 43 ->50 43 ->54 48 ->60 49 ->58 49 ->61 50 ->62 52 ->59 52 ->63 53 ->55 54 ->56 54 ->57 56 ->73 56 ->75 57 ->65 58 ->68 58 ->69 59 ->70 60 ->67 61 ->71 62 ->72 63 ->64 63 ->66 63 ->74 64 ->82 67 ->78 68 ->78 70 ->79 71 ->76 71 ->77 72 ->80 72 ->81 76 ->88 76 ->89 77 ->92 78 ->85 78 ->95 79 ->86 79 ->90 79 ->93 80 ->84 80 ->87 81 ->91 82 ->83 82 ->94 85 ->96 90 ->96 91 ->98 91 ->99 94 ->97 
}
