digraph G {
0 ->15 0 ->19 3 ->18 6 ->17 7 ->17 7 ->18 7 ->22 9 ->21 10 ->19 10 ->20 10 ->21 12 ->16 13 ->14 13 ->16 13 ->20 14 ->23 15 ->24 15 ->26 15 ->29 15 ->34 16 ->27 17 ->30 17 ->33 19 ->28 19 ->31 20 ->25 20 ->35 21 ->32 23 ->37 23 ->39 28 ->38 31 ->40 33 ->36 36 ->47 37 ->44 37 ->49 37 ->50 38 ->42 38 ->43 38 ->46 38 ->48 39 ->41 39 ->45 39 ->51 39 ->52 41 ->61 42 ->61 43 ->60 44 ->55 45 ->62 46 ->57 47 ->53 47 ->56 47 ->59 48 ->57 48 ->63 50 ->58 50 ->64 51 ->54 53 ->76 54 ->69 55 ->65 55 ->71 56 ->68 56 ->70 56 ->74 57 ->67 58 ->69 59 ->73 59 ->75 62 ->72 63 ->65 64 ->66 65 ->81 65 ->85 66 ->77 66 ->80 67 ->82 68 ->84 69 ->78 71 ->77 71 ->79 74 ->83 76 ->80 77 ->87 77 ->93 77 ->94 78 ->96 79 ->91 80 ->90 80 ->92 80 ->95 81 ->88 83 ->86 84 ->89 90 ->99 93 ->98 95 ->97 
}
