files/tasks_parameters/ExAp01/sample8.txt 1.2793 6.77015 2.19458 0.288816 14.0911
files/tasks_parameters/ExAp01/sample12.txt 1.29135 9.58351 2.46081 0.337498 16.4662
files/tasks_parameters/ExAp01/sample2.txt 1.29634 8.44418 2.50701 0.319127 15.5699
files/tasks_parameters/ExAp01/sample44.txt 1.19221 6.96299 2.23089 0.28229 13.7727
files/tasks_parameters/ExAp01/sample27.txt 1.28309 7.74306 2.16676 0.28602 13.9546
files/tasks_parameters/ExAp01/sample17.txt 1.1828 7.35053 2.25579 0.292348 14.2634
files/tasks_parameters/ExAp01/sample9.txt 1.07436 6.89392 2.21068 0.282399 13.778
files/tasks_parameters/ExAp01/sample34.txt 1.20042 6.62788 2.3772 0.297742 14.5265
files/tasks_parameters/ExAp01/sample40.txt 1.16439 7.75686 2.17534 0.285619 13.9351
files/tasks_parameters/ExAp01/sample33.txt 1.48916 8.14826 2.6463 0.338073 16.4943
files/tasks_parameters/ExAp01/sample48.txt 1.10351 7.64107 2.14272 0.270011 13.1736
files/tasks_parameters/ExAp01/sample29.txt 1.02938 7.139 1.93769 0.286306 13.9686
files/tasks_parameters/ExAp01/sample11.txt 1.14346 6.88688 2.12981 0.280008 13.6613
files/tasks_parameters/ExAp01/sample14.txt 0.997159 6.11983 1.97599 0.247458 12.0732
files/tasks_parameters/ExAp01/sample0.txt 1.22554 8.2738 2.14256 0.289132 14.1065
files/tasks_parameters/ExAp01/sample7.txt 1.1391 6.87011 2.05821 0.269886 13.1675
files/tasks_parameters/ExAp01/sample23.txt 1.21204 6.52032 2.38087 0.291712 14.2323
files/tasks_parameters/ExAp01/sample13.txt 1.24561 8.73247 2.33415 0.295393 14.4119
files/tasks_parameters/ExAp01/sample22.txt 1.16701 6.9777 2.28948 0.283979 13.8551
files/tasks_parameters/ExAp01/sample25.txt 1.07152 6.23444 2.2122 0.267298 13.0412
files/tasks_parameters/ExAp01/sample36.txt 1.09893 6.6174 1.9458 0.253823 12.3838
files/tasks_parameters/ExAp01/sample46.txt 1.36908 7.42369 2.49128 0.327273 15.9673
files/tasks_parameters/ExAp01/sample31.txt 1.06019 7.22028 2.13584 0.25377 12.3812
files/tasks_parameters/ExAp01/sample37.txt 1.22741 8.90704 2.16981 0.295708 14.4273
files/tasks_parameters/ExAp01/sample16.txt 1.00642 8.18243 1.88294 0.24945 12.1704
files/tasks_parameters/ExAp01/sample10.txt 1.18882 6.96646 2.31217 0.285748 13.9414
files/tasks_parameters/ExAp01/sample39.txt 1.21749 6.4161 1.97266 0.251967 12.2932
files/tasks_parameters/ExAp01/sample19.txt 1.23913 8.16711 2.23199 0.308463 15.0496
files/tasks_parameters/ExAp01/sample20.txt 1.06708 7.28549 1.88944 0.25994 12.6822
files/tasks_parameters/ExAp01/sample43.txt 1.03006 6.86804 2.00142 0.25616 12.4978
files/tasks_parameters/ExAp01/sample32.txt 1.16839 8.15663 2.12995 0.281726 13.7452
files/tasks_parameters/ExAp01/sample45.txt 1.12985 7.75184 2.10599 0.274935 13.4138
files/tasks_parameters/ExAp01/sample26.txt 1.10096 7.4944 1.88956 0.267248 13.0388
files/tasks_parameters/ExAp01/sample5.txt 1.27955 8.08362 2.09961 0.28454 13.8825
files/tasks_parameters/ExAp01/sample21.txt 1.16949 6.11814 2.17119 0.26143 12.7549
files/tasks_parameters/ExAp01/sample38.txt 1.15113 7.761 1.96293 0.263659 12.8637
files/tasks_parameters/ExAp01/sample1.txt 1.24995 7.83752 2.13261 0.289228 14.1112
files/tasks_parameters/ExAp01/sample15.txt 1.17238 7.37971 2.12057 0.285825 13.9452
files/tasks_parameters/ExAp01/sample24.txt 1.26415 8.28531 2.25272 0.296628 14.4722
files/tasks_parameters/ExAp01/sample3.txt 1.26088 7.33359 2.39135 0.305084 14.8848
files/tasks_parameters/ExAp01/sample6.txt 1.15746 7.09894 2.24425 0.281804 13.749
files/tasks_parameters/ExAp01/sample30.txt 1.27202 8.17669 2.03701 0.299204 14.5979
files/tasks_parameters/ExAp01/sample42.txt 1.24996 7.70416 2.42413 0.29743 14.5113
files/tasks_parameters/ExAp01/sample4.txt 1.30863 7.41691 2.36261 0.307803 15.0174
files/tasks_parameters/ExAp01/sample28.txt 1.17211 7.0562 2.07657 0.266428 12.9988
files/tasks_parameters/ExAp01/sample18.txt 1.24284 7.60139 2.1377 0.268016 13.0763
files/tasks_parameters/ExAp01/sample35.txt 1.29986 9.66795 2.28028 0.32244 15.7315
files/tasks_parameters/ExAp01/sample47.txt 0.989291 6.84842 2.12104 0.251655 12.278
files/tasks_parameters/ExAp01/sample49.txt 1.07292 7.1497 2.11412 0.255889 12.4846
files/tasks_parameters/ExAp01/sample41.txt 1.08089 6.59911 2.07359 0.265885 12.9723
