digraph G {
0 ->3 0 ->5 1 ->4 2 ->5 3 ->10 3 ->11 4 ->6 4 ->9 4 ->11 5 ->7 5 ->8 5 ->9 6 ->15 6 ->17 7 ->14 7 ->15 8 ->14 8 ->15 8 ->16 8 ->17 9 ->13 9 ->17 10 ->12 11 ->16 12 ->19 12 ->20 12 ->22 12 ->23 12 ->24 13 ->18 13 ->22 14 ->19 14 ->20 15 ->21 16 ->19 16 ->23 17 ->21 19 ->25 20 ->26 22 ->26 24 ->26 26 ->27 26 ->28 26 ->29 
}
