digraph G {
0 ->8 1 ->7 1 ->8 1 ->9 2 ->8 3 ->6 4 ->6 5 ->6 6 ->12 7 ->13 7 ->14 7 ->15 8 ->10 8 ->11 8 ->12 8 ->13 8 ->15 9 ->14 10 ->16 10 ->17 10 ->18 11 ->18 12 ->18 16 ->19 16 ->20 17 ->19 17 ->21 17 ->22 17 ->23 18 ->23 19 ->24 19 ->25 19 ->26 19 ->29 20 ->25 20 ->28 21 ->28 21 ->29 22 ->26 22 ->29 23 ->24 23 ->27 
}
