digraph G {
0 ->11 1 ->9 1 ->10 1 ->11 2 ->10 3 ->10 4 ->7 5 ->8 5 ->10 6 ->8 6 ->11 7 ->12 7 ->15 7 ->16 7 ->17 8 ->13 9 ->14 9 ->16 10 ->15 10 ->16 11 ->12 11 ->15 12 ->20 14 ->22 14 ->23 15 ->19 15 ->22 16 ->18 16 ->20 16 ->21 16 ->22 17 ->19 17 ->20 18 ->24 18 ->25 19 ->25 20 ->26 21 ->27 24 ->29 25 ->28 26 ->28 26 ->29 
}
