digraph G {
0 ->8 2 ->5 2 ->7 2 ->8 2 ->9 4 ->6 8 ->10 8 ->11 9 ->11 9 ->12 10 ->13 10 ->15 10 ->17 12 ->14 12 ->16 13 ->19 14 ->20 15 ->19 16 ->18 16 ->19 16 ->20 17 ->18 18 ->21 18 ->24 18 ->25 18 ->26 19 ->23 19 ->26 20 ->21 20 ->22 21 ->29 22 ->27 24 ->27 25 ->28 26 ->27 26 ->29 
}
