0.39649407999999997
Task0 31 63 63 
Task1 255 127 63 
Task2 63 63 127 
Task3 255 31 3 
Task4 15 255 31 
Task5 63 31 31 
Task6 255 15 1 
Task7 255 63 1 
Task8 63 127 63 
Task9 255 15 15 
Task10 127 31 15 
Task11 7 255 15 
Task12 31 3 255 
Task13 7 3 255 
Task14 3 63 31 
Task15 31 31 15 
Task16 7 31 255 
Task17 63 15 31 
Task18 63 63 63 
Task19 15 7 255 
Task20 255 255 127 
Task21 15 255 15 
Task22 255 127 3 
Task23 127 255 15 
Task24 31 255 7 
Task25 255 127 15 
Task26 255 127 63 
Task27 63 1 255 
Task28 31 63 31 
Task29 63 127 255 
Task30 7 63 63 
Task31 255 15 31 
Task32 255 7 31 
Task33 7 31 63 
Task34 255 255 15 
Task35 31 63 15 
Task36 3 255 7 
Task37 255 127 127 
Task38 63 31 255 
Task39 31 31 15 
Task40 31 127 127 
Task41 255 7 15 
Task42 127 127 127 
Task43 255 3 63 
Task44 255 63 255 
Task45 255 127 15 
Task46 127 15 255 
Task47 15 255 15 
Task48 1 1 255 
Task49 7 127 127 
Task50 255 7 1 
Task51 31 7 255 
Task52 15 255 63 
Task53 7 63 7 
Task54 255 1 15 
Task55 63 63 127 
Task56 63 127 127 
Task57 7 31 1 
Task58 255 31 127 
Task59 15 255 7 
Task60 15 7 31 
Task61 255 15 63 
Task62 255 63 31 
Task63 63 3 255 
Task64 3 7 255 
Task65 63 255 7 
Task66 63 63 7 
Task67 1 15 63 
Task68 1 63 63 
Task69 255 63 15 
Task70 7 255 7 
Task71 255 127 255 
Task72 255 255 63 
Task73 31 127 63 
Task74 127 15 255 
Task75 255 15 7 
Task76 127 3 31 
Task77 3 63 31 
Task78 31 15 63 
Task79 7 255 3 
Task80 1 31 15 
Task81 127 7 31 
Task82 63 15 255 
Task83 15 63 1 
Task84 127 127 63 
Task85 255 255 127 
Task86 1 31 255 
Task87 255 255 255 
Task88 31 31 255 
Task89 255 127 127 
Task90 255 3 63 
Task91 255 63 31 
Task92 3 63 3 
Task93 31 255 7 
Task94 127 63 255 
Task95 63 3 7 
Task96 63 255 7 
Task97 31 127 255 
Task98 255 63 15 
Task99 255 63 15 
