files/tasks_parameters/ExAp01/sample8.txt 1.08361 3.76817 4.3855 0.450105 13.555
files/tasks_parameters/ExAp01/sample12.txt 1.50473 5.03638 5.18776 0.610564 18.3872
files/tasks_parameters/ExAp01/sample2.txt 1.45265 4.58991 5.64606 0.613877 18.487
files/tasks_parameters/ExAp01/sample44.txt 1.25916 3.77401 5.66946 0.551838 16.6186
files/tasks_parameters/ExAp01/sample27.txt 1.29418 4.13937 5.56136 0.55779 16.7979
files/tasks_parameters/ExAp01/sample17.txt 1.19456 3.76163 5.38341 0.520991 15.6897
files/tasks_parameters/ExAp01/sample9.txt 1.1433 3.69889 5.2981 0.511699 15.4099
files/tasks_parameters/ExAp01/sample34.txt 1.13513 3.52435 5.83741 0.49187 14.8127
files/tasks_parameters/ExAp01/sample40.txt 1.15486 4.06185 5.0335 0.496884 14.9637
files/tasks_parameters/ExAp01/sample33.txt 1.55311 4.82091 5.83886 0.651963 19.6339
files/tasks_parameters/ExAp01/sample48.txt 1.06931 4.01134 5.07085 0.447927 13.4894
files/tasks_parameters/ExAp01/sample29.txt 1.48065 4.20847 5.0406 0.643694 19.3849
files/tasks_parameters/ExAp01/sample11.txt 1.31882 3.94699 5.29198 0.557276 16.7824
files/tasks_parameters/ExAp01/sample14.txt 1.08369 3.54059 4.58345 0.466713 14.0551
files/tasks_parameters/ExAp01/sample0.txt 1.50757 4.82755 4.90216 0.623551 18.7783
files/tasks_parameters/ExAp01/sample7.txt 1.15513 3.60766 5.11185 0.509566 15.3456
files/tasks_parameters/ExAp01/sample23.txt 1.39278 3.81403 5.45799 0.582911 17.5544
files/tasks_parameters/ExAp01/sample13.txt 1.46309 4.8894 5.26818 0.624499 18.8068
files/tasks_parameters/ExAp01/sample22.txt 1.29387 3.76156 4.95746 0.534216 16.088
files/tasks_parameters/ExAp01/sample25.txt 0.976769 2.94144 4.92622 0.403639 12.1556
files/tasks_parameters/ExAp01/sample36.txt 1.25826 3.56164 4.5806 0.501799 15.1117
files/tasks_parameters/ExAp01/sample46.txt 1.2969 3.84833 4.7121 0.530701 15.9821
files/tasks_parameters/ExAp01/sample31.txt 1.07786 3.764 5.08385 0.479734 14.4472
files/tasks_parameters/ExAp01/sample37.txt 1.52754 4.43254 5.65111 0.65143 19.6179
files/tasks_parameters/ExAp01/sample16.txt 1.24199 4.49741 4.8895 0.509171 15.3337
files/tasks_parameters/ExAp01/sample10.txt 1.38978 3.87086 6.07511 0.60993 18.3681
files/tasks_parameters/ExAp01/sample39.txt 1.12287 3.66299 4.54281 0.463671 13.9635
files/tasks_parameters/ExAp01/sample19.txt 1.40981 3.86694 5.14047 0.615987 18.5505
files/tasks_parameters/ExAp01/sample20.txt 1.30362 4.09945 5.13368 0.580369 17.4779
files/tasks_parameters/ExAp01/sample43.txt 1.15724 3.75825 5.55698 0.530892 15.9879
files/tasks_parameters/ExAp01/sample32.txt 1.42826 4.0352 5.29178 0.587643 17.6969
files/tasks_parameters/ExAp01/sample45.txt 1.226 3.94578 4.87833 0.541081 16.2947
files/tasks_parameters/ExAp01/sample26.txt 1.11336 3.50998 4.55035 0.474009 14.2748
files/tasks_parameters/ExAp01/sample5.txt 1.38296 4.00994 5.27725 0.587681 17.6981
files/tasks_parameters/ExAp01/sample21.txt 0.935151 2.8974 4.54677 0.430037 12.9506
files/tasks_parameters/ExAp01/sample38.txt 1.17206 3.56689 4.78573 0.492366 14.8277
files/tasks_parameters/ExAp01/sample1.txt 1.15682 3.69002 4.55048 0.481074 14.4876
files/tasks_parameters/ExAp01/sample15.txt 1.20629 3.73223 5.42493 0.524964 15.8093
files/tasks_parameters/ExAp01/sample24.txt 1.27024 4.18053 5.40377 0.542575 16.3397
files/tasks_parameters/ExAp01/sample3.txt 1.08334 3.70547 4.7118 0.470503 14.1692
files/tasks_parameters/ExAp01/sample6.txt 1.3864 4.07521 5.71419 0.626702 18.8732
files/tasks_parameters/ExAp01/sample30.txt 1.49566 3.97446 5.82388 0.626709 18.8734
files/tasks_parameters/ExAp01/sample42.txt 1.29681 4.44207 5.58473 0.537025 16.1725
files/tasks_parameters/ExAp01/sample4.txt 1.40615 3.92181 4.49751 0.556974 16.7733
files/tasks_parameters/ExAp01/sample28.txt 1.02387 3.13496 4.88321 0.444588 13.3888
files/tasks_parameters/ExAp01/sample18.txt 1.22792 3.95301 4.52898 0.537438 16.185
files/tasks_parameters/ExAp01/sample35.txt 1.80932 5.75923 6.25034 0.752488 22.6612
files/tasks_parameters/ExAp01/sample47.txt 1.16153 3.44018 5.14289 0.540033 16.2632
files/tasks_parameters/ExAp01/sample49.txt 1.22964 3.38981 4.72409 0.493041 14.848
files/tasks_parameters/ExAp01/sample41.txt 1.10214 3.58692 5.27252 0.492391 14.8284
