files/tasks_parameters/ExAp01/sample8.txt 1.10336 7.2562 4.46819 0.454772 14.661
files/tasks_parameters/ExAp01/sample12.txt 1.62871 9.70908 5.28286 0.618515 19.9397
files/tasks_parameters/ExAp01/sample2.txt 1.45359 8.14159 5.7401 0.620531 20.0047
files/tasks_parameters/ExAp01/sample44.txt 1.36219 7.25164 5.75904 0.557631 17.9769
files/tasks_parameters/ExAp01/sample27.txt 1.31557 8.10944 5.64946 0.564878 18.2106
files/tasks_parameters/ExAp01/sample17.txt 1.24882 7.11225 5.46658 0.527183 16.9954
files/tasks_parameters/ExAp01/sample9.txt 1.19599 7.62559 5.37813 0.517277 16.676
files/tasks_parameters/ExAp01/sample34.txt 1.23761 7.04587 5.93037 0.497709 16.0452
files/tasks_parameters/ExAp01/sample40.txt 1.201 8.03037 5.123 0.502383 16.1958
files/tasks_parameters/ExAp01/sample33.txt 1.6155 9.22935 5.92956 0.659262 21.2533
files/tasks_parameters/ExAp01/sample48.txt 1.15868 8.12182 5.1577 0.452491 14.5874
files/tasks_parameters/ExAp01/sample29.txt 1.52693 8.06133 5.12331 0.650652 20.9758
files/tasks_parameters/ExAp01/sample11.txt 1.35889 7.63104 5.37897 0.563302 18.1598
files/tasks_parameters/ExAp01/sample14.txt 1.13168 6.66403 4.66322 0.471536 15.2014
files/tasks_parameters/ExAp01/sample0.txt 1.61661 9.3266 4.98971 0.6311 20.3454
files/tasks_parameters/ExAp01/sample7.txt 1.2214 7.34863 5.19436 0.515527 16.6196
files/tasks_parameters/ExAp01/sample23.txt 1.41687 6.68564 5.54308 0.588617 18.9759
files/tasks_parameters/ExAp01/sample13.txt 1.60607 9.31093 5.35591 0.632849 20.4018
files/tasks_parameters/ExAp01/sample22.txt 1.28633 7.65588 5.04866 0.540336 17.4194
files/tasks_parameters/ExAp01/sample25.txt 1.0295 6.17035 5.0141 0.408296 13.1627
files/tasks_parameters/ExAp01/sample36.txt 1.21223 7.03772 4.66274 0.507647 16.3656
files/tasks_parameters/ExAp01/sample46.txt 1.35012 7.73433 4.79934 0.536843 17.3068
files/tasks_parameters/ExAp01/sample31.txt 1.16998 6.96928 5.16482 0.485817 15.6618
files/tasks_parameters/ExAp01/sample37.txt 1.59352 9.52443 5.74224 0.65799 21.2123
files/tasks_parameters/ExAp01/sample16.txt 1.34468 8.63521 4.97261 0.516328 16.6454
files/tasks_parameters/ExAp01/sample10.txt 1.39877 7.28353 6.16876 0.615651 19.8474
files/tasks_parameters/ExAp01/sample39.txt 1.14417 6.3405 4.6137 0.468873 15.1156
files/tasks_parameters/ExAp01/sample19.txt 1.42056 8.85528 5.22306 0.622152 20.057
files/tasks_parameters/ExAp01/sample20.txt 1.39217 8.1141 5.21177 0.586994 18.9235
files/tasks_parameters/ExAp01/sample43.txt 1.24124 7.21373 5.6367 0.53748 17.3273
files/tasks_parameters/ExAp01/sample32.txt 1.45276 8.30592 5.38137 0.593918 19.1468
files/tasks_parameters/ExAp01/sample45.txt 1.29558 7.94069 4.96323 0.547271 17.6429
files/tasks_parameters/ExAp01/sample26.txt 1.12375 7.57061 4.62637 0.480146 15.479
files/tasks_parameters/ExAp01/sample5.txt 1.38077 8.0307 5.35681 0.59407 19.1517
files/tasks_parameters/ExAp01/sample21.txt 1.02755 5.87802 4.61744 0.434264 13.9998
files/tasks_parameters/ExAp01/sample38.txt 1.18285 7.66999 4.86632 0.496808 16.0161
files/tasks_parameters/ExAp01/sample1.txt 1.1627 7.21312 4.63213 0.486293 15.6771
files/tasks_parameters/ExAp01/sample15.txt 1.26704 8.02273 5.50855 0.531063 17.1204
files/tasks_parameters/ExAp01/sample24.txt 1.3178 8.66348 5.4905 0.548998 17.6986
files/tasks_parameters/ExAp01/sample3.txt 1.16445 7.74268 4.79918 0.477387 15.39
files/tasks_parameters/ExAp01/sample6.txt 1.46475 8.57133 5.80157 0.633604 20.4262
files/tasks_parameters/ExAp01/sample30.txt 1.58089 8.18878 5.90888 0.633576 20.4253
files/tasks_parameters/ExAp01/sample42.txt 1.30493 8.57689 5.67253 0.54426 17.5459
files/tasks_parameters/ExAp01/sample4.txt 1.3014 8.40354 4.57985 0.563519 18.1668
files/tasks_parameters/ExAp01/sample28.txt 1.05726 6.44114 4.96426 0.449721 14.4981
files/tasks_parameters/ExAp01/sample18.txt 1.36674 8.56363 4.60946 0.543766 17.53
files/tasks_parameters/ExAp01/sample35.txt 1.938 11.0387 6.34514 0.761377 24.5453
files/tasks_parameters/ExAp01/sample47.txt 1.32259 7.14493 5.22131 0.545046 17.5712
files/tasks_parameters/ExAp01/sample49.txt 1.29578 6.65996 4.80244 0.498533 16.0717
files/tasks_parameters/ExAp01/sample41.txt 1.17588 7.09069 5.35462 0.497129 16.0265
