files/tasks_parameters/ExAp01/sample8.txt 1.08361 3.76817 4.3855 0.450105 14.3841
files/tasks_parameters/ExAp01/sample12.txt 1.50473 5.03638 5.18776 0.610564 19.512
files/tasks_parameters/ExAp01/sample2.txt 1.45265 4.58991 5.64606 0.613877 19.6178
files/tasks_parameters/ExAp01/sample44.txt 1.25997 3.77401 5.66946 0.551838 17.6352
files/tasks_parameters/ExAp01/sample27.txt 1.29418 4.13937 5.56136 0.55779 17.8254
files/tasks_parameters/ExAp01/sample17.txt 1.19475 3.76163 5.38341 0.520991 16.6495
files/tasks_parameters/ExAp01/sample9.txt 1.1433 3.69889 5.2981 0.511699 16.3525
files/tasks_parameters/ExAp01/sample34.txt 1.13513 3.52435 5.83741 0.49187 15.7188
files/tasks_parameters/ExAp01/sample40.txt 1.15849 4.06185 5.0335 0.496884 15.8791
files/tasks_parameters/ExAp01/sample33.txt 1.55311 4.82091 5.83886 0.651963 20.8349
files/tasks_parameters/ExAp01/sample48.txt 1.06942 4.01134 5.07085 0.447927 14.3145
files/tasks_parameters/ExAp01/sample29.txt 1.48178 4.20847 5.0406 0.643694 20.5707
files/tasks_parameters/ExAp01/sample11.txt 1.31893 3.94699 5.29198 0.557276 17.809
files/tasks_parameters/ExAp01/sample14.txt 1.08414 3.54059 4.58345 0.466713 14.9149
files/tasks_parameters/ExAp01/sample0.txt 1.49565 4.82755 4.90216 0.623551 19.927
files/tasks_parameters/ExAp01/sample7.txt 1.15456 3.60766 5.11185 0.509566 16.2843
files/tasks_parameters/ExAp01/sample23.txt 1.41566 3.81403 5.45799 0.582911 18.6283
files/tasks_parameters/ExAp01/sample13.txt 1.46324 4.8894 5.26818 0.624499 19.9573
files/tasks_parameters/ExAp01/sample22.txt 1.29415 3.76156 4.95746 0.534216 17.0721
files/tasks_parameters/ExAp01/sample25.txt 0.976769 2.94144 4.92622 0.403639 12.8992
files/tasks_parameters/ExAp01/sample36.txt 1.25826 3.56164 4.5806 0.501799 16.0361
files/tasks_parameters/ExAp01/sample46.txt 1.2969 3.84833 4.7121 0.530701 16.9597
files/tasks_parameters/ExAp01/sample31.txt 1.07256 3.764 5.08385 0.479734 15.331
files/tasks_parameters/ExAp01/sample37.txt 1.52769 4.43254 5.65111 0.65143 20.8179
files/tasks_parameters/ExAp01/sample16.txt 1.24276 4.49741 4.8895 0.509171 16.2717
files/tasks_parameters/ExAp01/sample10.txt 1.38978 3.87086 6.07511 0.60993 19.4917
files/tasks_parameters/ExAp01/sample39.txt 1.12287 3.66299 4.54281 0.463671 14.8177
files/tasks_parameters/ExAp01/sample19.txt 1.41011 3.86694 5.14047 0.615987 19.6853
files/tasks_parameters/ExAp01/sample20.txt 1.30362 4.09945 5.13368 0.580369 18.547
files/tasks_parameters/ExAp01/sample43.txt 1.15768 3.75825 5.55698 0.530892 16.9659
files/tasks_parameters/ExAp01/sample32.txt 1.42828 4.0352 5.29178 0.587643 18.7795
files/tasks_parameters/ExAp01/sample45.txt 1.22612 3.94578 4.87833 0.541081 17.2915
files/tasks_parameters/ExAp01/sample26.txt 1.11075 3.50998 4.55035 0.474009 15.148
files/tasks_parameters/ExAp01/sample5.txt 1.38308 4.00994 5.27725 0.587681 18.7807
files/tasks_parameters/ExAp01/sample21.txt 0.935311 2.8974 4.54677 0.430037 13.7428
files/tasks_parameters/ExAp01/sample38.txt 1.17206 3.56689 4.78573 0.492366 15.7347
files/tasks_parameters/ExAp01/sample1.txt 1.15605 3.69002 4.55048 0.481074 15.3738
files/tasks_parameters/ExAp01/sample15.txt 1.20629 3.73223 5.42493 0.524964 16.7764
files/tasks_parameters/ExAp01/sample24.txt 1.27047 4.18053 5.40377 0.542575 17.3392
files/tasks_parameters/ExAp01/sample3.txt 1.08335 3.70547 4.7118 0.470503 15.036
files/tasks_parameters/ExAp01/sample6.txt 1.3864 4.07521 5.71419 0.626702 20.0277
files/tasks_parameters/ExAp01/sample30.txt 1.49621 3.97446 5.82388 0.626709 20.0279
files/tasks_parameters/ExAp01/sample42.txt 1.29681 4.44207 5.58473 0.537025 17.1618
files/tasks_parameters/ExAp01/sample4.txt 1.40755 3.92181 4.49751 0.556974 17.7994
files/tasks_parameters/ExAp01/sample28.txt 1.02077 3.13496 4.88321 0.444588 14.2078
files/tasks_parameters/ExAp01/sample18.txt 1.22792 3.95301 4.52898 0.537438 17.175
files/tasks_parameters/ExAp01/sample35.txt 1.80993 5.75923 6.25034 0.752488 24.0474
files/tasks_parameters/ExAp01/sample47.txt 1.16153 3.44018 5.14289 0.540033 17.258
files/tasks_parameters/ExAp01/sample49.txt 1.23002 3.38981 4.72409 0.493041 15.7563
files/tasks_parameters/ExAp01/sample41.txt 1.13934 3.58692 5.27252 0.492391 15.7355
