files/tasks_parameters/ExAp01/sample8.txt 1.1118 7.2562 4.46819 0.454772 12.0918
files/tasks_parameters/ExAp01/sample12.txt 1.6292 9.70908 5.28286 0.618515 16.4455
files/tasks_parameters/ExAp01/sample2.txt 1.45418 8.14159 5.7401 0.620531 16.4991
files/tasks_parameters/ExAp01/sample44.txt 1.37778 7.25164 5.75904 0.557631 14.8267
files/tasks_parameters/ExAp01/sample27.txt 1.3183 8.10944 5.64946 0.564878 15.0194
files/tasks_parameters/ExAp01/sample17.txt 1.2516 7.11225 5.46658 0.527183 14.0171
files/tasks_parameters/ExAp01/sample9.txt 1.19663 7.62559 5.37813 0.517277 13.7537
files/tasks_parameters/ExAp01/sample34.txt 1.23761 7.04587 5.93037 0.497709 13.2334
files/tasks_parameters/ExAp01/sample40.txt 1.201 8.03037 5.123 0.502383 13.3577
files/tasks_parameters/ExAp01/sample33.txt 1.61568 9.22935 5.92956 0.659262 17.5289
files/tasks_parameters/ExAp01/sample48.txt 1.15877 8.12182 5.1577 0.452491 12.0311
files/tasks_parameters/ExAp01/sample29.txt 1.53749 8.06133 5.12331 0.650652 17.3
files/tasks_parameters/ExAp01/sample11.txt 1.35889 7.63104 5.37897 0.563302 14.9775
files/tasks_parameters/ExAp01/sample14.txt 1.13168 6.66403 4.66322 0.471536 12.5375
files/tasks_parameters/ExAp01/sample0.txt 1.61908 9.3266 4.98971 0.6311 16.7801
files/tasks_parameters/ExAp01/sample7.txt 1.23 7.34863 5.19436 0.515527 13.7072
files/tasks_parameters/ExAp01/sample23.txt 1.40203 6.68564 5.54308 0.588617 15.6506
files/tasks_parameters/ExAp01/sample13.txt 1.60641 9.31093 5.35591 0.632849 16.8266
files/tasks_parameters/ExAp01/sample22.txt 1.28633 7.65588 5.04866 0.540336 14.3668
files/tasks_parameters/ExAp01/sample25.txt 1.0295 6.17035 5.0141 0.408296 10.8561
files/tasks_parameters/ExAp01/sample36.txt 1.18558 7.03772 4.66274 0.507647 13.4977
files/tasks_parameters/ExAp01/sample46.txt 1.3517 7.73433 4.79934 0.536843 14.274
files/tasks_parameters/ExAp01/sample31.txt 1.16998 6.96928 5.16482 0.485817 12.9173
files/tasks_parameters/ExAp01/sample37.txt 1.59381 9.52443 5.74224 0.65799 17.4951
files/tasks_parameters/ExAp01/sample16.txt 1.34524 8.63521 4.97261 0.516328 13.7285
files/tasks_parameters/ExAp01/sample10.txt 1.39877 7.28353 6.16876 0.615651 16.3694
files/tasks_parameters/ExAp01/sample39.txt 1.14417 6.3405 4.6137 0.468873 12.4667
files/tasks_parameters/ExAp01/sample19.txt 1.4216 8.85528 5.22306 0.622152 16.5422
files/tasks_parameters/ExAp01/sample20.txt 1.39217 8.1141 5.21177 0.586994 15.6074
files/tasks_parameters/ExAp01/sample43.txt 1.30792 7.21373 5.6367 0.53748 14.2909
files/tasks_parameters/ExAp01/sample32.txt 1.46565 8.30592 5.38137 0.593918 15.7915
files/tasks_parameters/ExAp01/sample45.txt 1.29592 7.94069 4.96323 0.547271 14.5512
files/tasks_parameters/ExAp01/sample26.txt 1.12423 7.57061 4.62637 0.480146 12.7665
files/tasks_parameters/ExAp01/sample5.txt 1.38077 8.0307 5.35681 0.59407 15.7955
files/tasks_parameters/ExAp01/sample21.txt 1.02755 5.87802 4.61744 0.434264 11.5465
files/tasks_parameters/ExAp01/sample38.txt 1.18347 7.66999 4.86632 0.496808 13.2095
files/tasks_parameters/ExAp01/sample1.txt 1.16313 7.21312 4.63213 0.486293 12.9299
files/tasks_parameters/ExAp01/sample15.txt 1.28125 8.02273 5.50855 0.531063 14.1203
files/tasks_parameters/ExAp01/sample24.txt 1.32473 8.66348 5.4905 0.548998 14.5971
files/tasks_parameters/ExAp01/sample3.txt 1.20675 7.74268 4.79918 0.477387 12.6931
files/tasks_parameters/ExAp01/sample6.txt 1.51709 8.57133 5.80157 0.633604 16.8467
files/tasks_parameters/ExAp01/sample30.txt 1.58137 8.18878 5.90888 0.633576 16.846
files/tasks_parameters/ExAp01/sample42.txt 1.30515 8.57689 5.67253 0.54426 14.4712
files/tasks_parameters/ExAp01/sample4.txt 1.29756 8.40354 4.57985 0.563519 14.9832
files/tasks_parameters/ExAp01/sample28.txt 1.05742 6.44114 4.96426 0.449721 11.9575
files/tasks_parameters/ExAp01/sample18.txt 1.36744 8.56363 4.60946 0.543766 14.458
files/tasks_parameters/ExAp01/sample35.txt 1.9389 11.0387 6.34514 0.761377 20.244
files/tasks_parameters/ExAp01/sample47.txt 1.32345 7.14493 5.22131 0.545046 14.4921
files/tasks_parameters/ExAp01/sample49.txt 1.29646 6.65996 4.80244 0.498533 13.2554
files/tasks_parameters/ExAp01/sample41.txt 1.18983 7.09069 5.35462 0.497129 13.218
