files/tasks_parameters/ExAp01/sample8.txt 1.10758 7.2562 4.46819 0.454772 19.3098
files/tasks_parameters/ExAp01/sample12.txt 1.63991 9.70908 5.28286 0.618515 26.2623
files/tasks_parameters/ExAp01/sample2.txt 1.50039 8.14159 5.7401 0.620531 26.3479
files/tasks_parameters/ExAp01/sample44.txt 1.38243 7.25164 5.75904 0.557631 23.6772
files/tasks_parameters/ExAp01/sample27.txt 1.31668 8.10944 5.64946 0.564878 23.9849
files/tasks_parameters/ExAp01/sample17.txt 1.25199 7.11225 5.46658 0.527183 22.3844
files/tasks_parameters/ExAp01/sample9.txt 1.22339 7.62559 5.37813 0.517277 21.9637
files/tasks_parameters/ExAp01/sample34.txt 1.23445 7.04587 5.93037 0.497709 21.1329
files/tasks_parameters/ExAp01/sample40.txt 1.201 8.03037 5.123 0.502383 21.3313
files/tasks_parameters/ExAp01/sample33.txt 1.63735 9.22935 5.92956 0.659262 27.9925
files/tasks_parameters/ExAp01/sample48.txt 1.1658 8.12182 5.1577 0.452491 19.2129
files/tasks_parameters/ExAp01/sample29.txt 1.60416 8.06133 5.12331 0.650652 27.6269
files/tasks_parameters/ExAp01/sample11.txt 1.35889 7.63104 5.37897 0.563302 23.918
files/tasks_parameters/ExAp01/sample14.txt 1.13168 6.66403 4.66322 0.471536 20.0216
files/tasks_parameters/ExAp01/sample0.txt 1.63246 9.3266 4.98971 0.6311 26.7967
files/tasks_parameters/ExAp01/sample7.txt 1.25948 7.34863 5.19436 0.515527 21.8895
files/tasks_parameters/ExAp01/sample23.txt 1.40203 6.68564 5.54308 0.588617 24.9929
files/tasks_parameters/ExAp01/sample13.txt 1.64922 9.31093 5.35591 0.632849 26.871
files/tasks_parameters/ExAp01/sample22.txt 1.33051 7.65588 5.04866 0.540336 22.9428
files/tasks_parameters/ExAp01/sample25.txt 1.0295 6.17035 5.0141 0.408296 17.3364
files/tasks_parameters/ExAp01/sample36.txt 1.21827 7.03772 4.66274 0.507647 21.5549
files/tasks_parameters/ExAp01/sample46.txt 1.36874 7.73433 4.79934 0.536843 22.7945
files/tasks_parameters/ExAp01/sample31.txt 1.23871 6.96928 5.16482 0.485817 20.628
files/tasks_parameters/ExAp01/sample37.txt 1.63719 9.52443 5.74224 0.65799 27.9384
files/tasks_parameters/ExAp01/sample16.txt 1.35051 8.63521 4.97261 0.516328 21.9234
files/tasks_parameters/ExAp01/sample10.txt 1.3884 7.28353 6.16876 0.615651 26.1407
files/tasks_parameters/ExAp01/sample39.txt 1.14417 6.3405 4.6137 0.468873 19.9085
files/tasks_parameters/ExAp01/sample19.txt 1.62991 8.85528 5.22306 0.622152 26.4168
files/tasks_parameters/ExAp01/sample20.txt 1.44906 8.1141 5.21177 0.586994 24.9239
files/tasks_parameters/ExAp01/sample43.txt 1.23968 7.21373 5.6367 0.53748 22.8216
files/tasks_parameters/ExAp01/sample32.txt 1.60311 8.30592 5.38137 0.593918 25.218
files/tasks_parameters/ExAp01/sample45.txt 1.42249 7.94069 4.96323 0.547271 23.2373
files/tasks_parameters/ExAp01/sample26.txt 1.14282 7.57061 4.62637 0.480146 20.3871
files/tasks_parameters/ExAp01/sample5.txt 1.49275 8.0307 5.35681 0.59407 25.2244
files/tasks_parameters/ExAp01/sample21.txt 1.01482 5.87802 4.61744 0.434264 18.439
files/tasks_parameters/ExAp01/sample38.txt 1.2327 7.66999 4.86632 0.496808 21.0946
files/tasks_parameters/ExAp01/sample1.txt 1.165 7.21312 4.63213 0.486293 20.6482
files/tasks_parameters/ExAp01/sample15.txt 1.26628 8.02273 5.50855 0.531063 22.5491
files/tasks_parameters/ExAp01/sample24.txt 1.33802 8.66348 5.4905 0.548998 23.3106
files/tasks_parameters/ExAp01/sample3.txt 1.17255 7.74268 4.79918 0.477387 20.27
files/tasks_parameters/ExAp01/sample6.txt 1.60803 8.57133 5.80157 0.633604 26.903
files/tasks_parameters/ExAp01/sample30.txt 1.69465 8.18878 5.90888 0.633576 26.9019
files/tasks_parameters/ExAp01/sample42.txt 1.33256 8.57689 5.67253 0.54426 23.1094
files/tasks_parameters/ExAp01/sample4.txt 1.34954 8.40354 4.57985 0.563519 23.9272
files/tasks_parameters/ExAp01/sample28.txt 1.0744 6.44114 4.96426 0.449721 19.0953
files/tasks_parameters/ExAp01/sample18.txt 1.41401 8.56363 4.60946 0.543766 23.0885
files/tasks_parameters/ExAp01/sample35.txt 1.96226 11.0387 6.34514 0.761377 32.3283
files/tasks_parameters/ExAp01/sample47.txt 1.32272 7.14493 5.22131 0.545046 23.1428
files/tasks_parameters/ExAp01/sample49.txt 1.33381 6.65996 4.80244 0.498533 21.1679
files/tasks_parameters/ExAp01/sample41.txt 1.2164 7.09069 5.35462 0.497129 21.1082
