files/tasks_parameters/ExAp01/sample8.txt 0.899723 3.15778 1.5595 0.203411 8.6369
files/tasks_parameters/ExAp01/sample12.txt 0.832043 3.94962 1.6705 0.207924 8.82851
files/tasks_parameters/ExAp01/sample2.txt 0.789621 3.78275 1.74131 0.200098 8.49621
files/tasks_parameters/ExAp01/sample44.txt 0.807249 3.59825 1.65317 0.200005 8.49228
files/tasks_parameters/ExAp01/sample27.txt 0.79519 3.45743 1.5148 0.182129 7.73323
files/tasks_parameters/ExAp01/sample17.txt 0.690662 2.77299 1.44514 0.14646 6.21873
files/tasks_parameters/ExAp01/sample9.txt 0.711947 2.99933 1.451 0.177444 7.53431
files/tasks_parameters/ExAp01/sample34.txt 0.649053 3.02928 1.58429 0.157984 6.70804
files/tasks_parameters/ExAp01/sample40.txt 0.697658 3.86889 1.52122 0.168379 7.14944
files/tasks_parameters/ExAp01/sample33.txt 0.778702 3.63695 1.71905 0.199765 8.48208
files/tasks_parameters/ExAp01/sample48.txt 0.675631 3.39061 1.49062 0.154728 6.56981
files/tasks_parameters/ExAp01/sample29.txt 0.83183 3.30472 1.38739 0.223868 9.50552
files/tasks_parameters/ExAp01/sample11.txt 0.76011 3.10585 1.41612 0.174079 7.39143
files/tasks_parameters/ExAp01/sample14.txt 0.627329 2.70971 1.43432 0.162214 6.88768
files/tasks_parameters/ExAp01/sample0.txt 0.761176 3.6937 1.5439 0.18367 7.79868
files/tasks_parameters/ExAp01/sample7.txt 0.663864 2.70501 1.42221 0.143463 6.0915
files/tasks_parameters/ExAp01/sample23.txt 0.713432 3.2697 1.57822 0.181448 7.70436
files/tasks_parameters/ExAp01/sample13.txt 0.874677 3.84225 1.67648 0.198247 8.41763
files/tasks_parameters/ExAp01/sample22.txt 0.610826 3.09569 1.56121 0.148796 6.31793
files/tasks_parameters/ExAp01/sample25.txt 0.635477 2.73966 1.5007 0.148149 6.29044
files/tasks_parameters/ExAp01/sample36.txt 0.546954 2.85948 1.28553 0.130042 5.52164
files/tasks_parameters/ExAp01/sample46.txt 0.877578 3.58643 1.69998 0.210103 8.92103
files/tasks_parameters/ExAp01/sample31.txt 0.685262 3.4832 1.53782 0.1722 7.31166
files/tasks_parameters/ExAp01/sample37.txt 0.760355 3.95293 1.50705 0.171701 7.29048
files/tasks_parameters/ExAp01/sample16.txt 0.688878 3.31216 1.30115 0.150249 6.37962
files/tasks_parameters/ExAp01/sample10.txt 0.730205 3.17098 1.61789 0.153776 6.52939
files/tasks_parameters/ExAp01/sample39.txt 0.714942 3.26617 1.44406 0.165669 7.03435
files/tasks_parameters/ExAp01/sample19.txt 0.866323 3.63532 1.52509 0.196094 8.32623
files/tasks_parameters/ExAp01/sample20.txt 0.593339 3.20793 1.25367 0.147335 6.25591
files/tasks_parameters/ExAp01/sample43.txt 0.628134 3.11551 1.4202 0.150644 6.39641
files/tasks_parameters/ExAp01/sample32.txt 0.695312 3.5311 1.42482 0.168744 7.16493
files/tasks_parameters/ExAp01/sample45.txt 0.852188 3.80283 1.48324 0.19807 8.41013
files/tasks_parameters/ExAp01/sample26.txt 0.691327 3.21645 1.29701 0.166061 7.05101
files/tasks_parameters/ExAp01/sample5.txt 0.765854 3.5889 1.52559 0.178903 7.59629
files/tasks_parameters/ExAp01/sample21.txt 0.787275 2.75242 1.55936 0.19512 8.28487
files/tasks_parameters/ExAp01/sample38.txt 0.682623 3.31563 1.37515 0.166157 7.05507
files/tasks_parameters/ExAp01/sample1.txt 0.847644 3.74964 1.51696 0.19701 8.36509
files/tasks_parameters/ExAp01/sample15.txt 0.797691 3.32916 1.48508 0.180707 7.6729
files/tasks_parameters/ExAp01/sample24.txt 0.709685 3.45951 1.59549 0.16529 7.01828
files/tasks_parameters/ExAp01/sample3.txt 1.01663 3.70014 1.70809 0.237107 10.0676
files/tasks_parameters/ExAp01/sample6.txt 0.813585 3.33003 1.58323 0.184714 7.84303
files/tasks_parameters/ExAp01/sample30.txt 0.903032 4.1841 1.4861 0.239623 10.1745
files/tasks_parameters/ExAp01/sample42.txt 0.856561 3.43221 1.70276 0.177383 7.53173
files/tasks_parameters/ExAp01/sample4.txt 0.832395 3.72477 1.6136 0.196448 8.34125
files/tasks_parameters/ExAp01/sample28.txt 0.702451 3.11323 1.45032 0.158819 6.74351
files/tasks_parameters/ExAp01/sample18.txt 0.676453 3.47418 1.45209 0.149064 6.3293
files/tasks_parameters/ExAp01/sample35.txt 0.747972 4.57086 1.49394 0.185031 7.85646
files/tasks_parameters/ExAp01/sample47.txt 0.691946 3.13768 1.52397 0.16417 6.97072
files/tasks_parameters/ExAp01/sample49.txt 0.678933 3.13288 1.49657 0.156154 6.63035
files/tasks_parameters/ExAp01/sample41.txt 0.603821 2.81964 1.49636 0.150876 6.40624
