files/tasks_parameters/ExAp01/sample8.txt 1.2183 6.77015 2.19458 0.288816 12.2632
files/tasks_parameters/ExAp01/sample12.txt 1.37923 9.58351 2.46081 0.337498 14.3303
files/tasks_parameters/ExAp01/sample2.txt 1.35847 8.44418 2.50701 0.319127 13.5502
files/tasks_parameters/ExAp01/sample44.txt 1.15384 6.96299 2.23089 0.28229 11.9861
files/tasks_parameters/ExAp01/sample27.txt 1.22858 7.74306 2.16676 0.28602 12.1445
files/tasks_parameters/ExAp01/sample17.txt 1.21151 7.35053 2.25579 0.292348 12.4132
files/tasks_parameters/ExAp01/sample9.txt 1.21726 6.89392 2.21068 0.282399 11.9907
files/tasks_parameters/ExAp01/sample34.txt 1.12255 6.62788 2.3772 0.297742 12.6422
files/tasks_parameters/ExAp01/sample40.txt 1.12264 7.75686 2.17534 0.285619 12.1275
files/tasks_parameters/ExAp01/sample33.txt 1.28507 8.14826 2.6463 0.338073 14.3547
files/tasks_parameters/ExAp01/sample48.txt 1.08759 7.64107 2.14272 0.270011 11.4648
files/tasks_parameters/ExAp01/sample29.txt 1.07713 7.139 1.93769 0.286306 12.1566
files/tasks_parameters/ExAp01/sample11.txt 1.22666 6.88688 2.12981 0.280008 11.8892
files/tasks_parameters/ExAp01/sample14.txt 0.986795 6.11983 1.97599 0.247458 10.5071
files/tasks_parameters/ExAp01/sample0.txt 1.2384 8.2738 2.14256 0.289132 12.2766
files/tasks_parameters/ExAp01/sample7.txt 1.09484 6.87011 2.05821 0.269886 11.4594
files/tasks_parameters/ExAp01/sample23.txt 1.12688 6.52032 2.38087 0.291712 12.3862
files/tasks_parameters/ExAp01/sample13.txt 1.34539 8.73247 2.33415 0.295393 12.5425
files/tasks_parameters/ExAp01/sample22.txt 1.12885 6.9777 2.28948 0.283979 12.0578
files/tasks_parameters/ExAp01/sample25.txt 1.12882 6.23444 2.2122 0.267298 11.3495
files/tasks_parameters/ExAp01/sample36.txt 0.961796 6.6174 1.9458 0.253823 10.7774
files/tasks_parameters/ExAp01/sample46.txt 1.41949 7.42369 2.49128 0.327273 13.8961
files/tasks_parameters/ExAp01/sample31.txt 1.01151 7.22028 2.13584 0.25377 10.7751
files/tasks_parameters/ExAp01/sample37.txt 1.32564 8.90704 2.16981 0.295708 12.5559
files/tasks_parameters/ExAp01/sample16.txt 1.08022 8.18243 1.88294 0.24945 10.5917
files/tasks_parameters/ExAp01/sample10.txt 1.08144 6.96646 2.31217 0.285748 12.1329
files/tasks_parameters/ExAp01/sample39.txt 1.10964 6.4161 1.97266 0.251967 10.6986
files/tasks_parameters/ExAp01/sample19.txt 1.3201 8.16711 2.23199 0.308463 13.0974
files/tasks_parameters/ExAp01/sample20.txt 1.02002 7.28549 1.88944 0.25994 11.0371
files/tasks_parameters/ExAp01/sample43.txt 1.08412 6.86804 2.00142 0.25616 10.8766
files/tasks_parameters/ExAp01/sample32.txt 1.06873 8.15663 2.12995 0.281726 11.9622
files/tasks_parameters/ExAp01/sample45.txt 1.14313 7.75184 2.10599 0.274935 11.6738
files/tasks_parameters/ExAp01/sample26.txt 1.09286 7.4944 1.88956 0.267248 11.3474
files/tasks_parameters/ExAp01/sample5.txt 1.21465 8.08362 2.09961 0.28454 12.0817
files/tasks_parameters/ExAp01/sample21.txt 1.07545 6.11814 2.17119 0.26143 11.1004
files/tasks_parameters/ExAp01/sample38.txt 1.11076 7.761 1.96293 0.263659 11.195
files/tasks_parameters/ExAp01/sample1.txt 1.29606 7.83752 2.13261 0.289228 12.2807
files/tasks_parameters/ExAp01/sample15.txt 1.09043 7.37971 2.12057 0.285825 12.1362
files/tasks_parameters/ExAp01/sample24.txt 1.26872 8.28531 2.25272 0.296628 12.5949
files/tasks_parameters/ExAp01/sample3.txt 1.24754 7.33359 2.39135 0.305084 12.954
files/tasks_parameters/ExAp01/sample6.txt 1.21083 7.09894 2.24425 0.281804 11.9655
files/tasks_parameters/ExAp01/sample30.txt 1.31233 8.17669 2.03701 0.299204 12.7043
files/tasks_parameters/ExAp01/sample42.txt 1.38946 7.70416 2.42413 0.29743 12.629
files/tasks_parameters/ExAp01/sample4.txt 1.27291 7.41691 2.36261 0.307803 13.0694
files/tasks_parameters/ExAp01/sample28.txt 1.12597 7.0562 2.07657 0.266428 11.3126
files/tasks_parameters/ExAp01/sample18.txt 1.1453 7.60139 2.1377 0.268016 11.38
files/tasks_parameters/ExAp01/sample35.txt 1.3704 9.66795 2.28028 0.32244 13.6909
files/tasks_parameters/ExAp01/sample47.txt 1.02217 6.84842 2.12104 0.251655 10.6853
files/tasks_parameters/ExAp01/sample49.txt 1.07313 7.1497 2.11412 0.255889 10.8651
files/tasks_parameters/ExAp01/sample41.txt 1.0483 6.59911 2.07359 0.265885 11.2896
