0.30945638
Task0 127 255 31 
Task1 63 3 31 
Task2 255 7 127 
Task3 63 3 7 
Task4 1 15 63 
Task5 31 15 255 
Task6 255 15 7 
Task7 255 31 127 
Task8 31 63 63 
Task9 15 63 63 
Task10 63 31 3 
Task11 31 7 255 
Task12 31 63 7 
Task13 63 127 63 
Task14 31 127 31 
Task15 255 15 3 
Task16 1 255 31 
Task17 31 31 31 
Task18 15 31 7 
Task19 31 127 15 
Task20 255 15 31 
Task21 255 15 7 
Task22 31 63 7 
Task23 63 31 31 
Task24 31 31 127 
Task25 1 15 15 
Task26 127 31 255 
Task27 15 7 255 
Task28 63 15 15 
Task29 31 3 127 
Task30 31 15 3 
Task31 31 7 7 
Task32 63 15 31 
Task33 3 63 15 
Task34 63 63 31 
Task35 1 31 31 
Task36 63 63 31 
Task37 1 255 127 
Task38 7 127 127 
Task39 63 7 63 
Task40 63 63 63 
Task41 255 7 127 
Task42 15 15 63 
Task43 255 127 127 
Task44 31 7 31 
Task45 15 63 127 
Task46 255 3 3 
Task47 7 31 3 
Task48 1 31 255 
Task49 63 7 63 
Task50 63 31 31 
Task51 1 1 31 
Task52 63 15 7 
Task53 31 31 31 
Task54 15 31 15 
Task55 63 15 255 
Task56 63 63 63 
Task57 63 127 255 
Task58 7 63 31 
Task59 7 63 31 
Task60 63 31 7 
Task61 31 255 31 
Task62 255 63 31 
Task63 7 31 1 
Task64 63 63 63 
Task65 31 31 127 
Task66 7 31 3 
Task67 63 63 31 
Task68 127 31 15 
Task69 127 63 255 
Task70 7 31 31 
Task71 7 255 1 
Task72 31 7 31 
Task73 31 15 15 
Task74 255 1 63 
Task75 31 7 7 
Task76 31 31 3 
Task77 31 1 3 
Task78 255 7 15 
Task79 3 31 1 
Task80 63 7 1 
Task81 127 255 127 
Task82 7 15 63 
Task83 15 255 3 
Task84 7 31 63 
Task85 15 31 31 
Task86 127 255 255 
Task87 7 31 31 
Task88 31 7 31 
Task89 63 15 31 
Task90 15 63 3 
Task91 255 1 1 
Task92 1 1 127 
Task93 63 1 3 
Task94 15 63 31 
Task95 63 31 7 
Task96 31 31 15 
Task97 63 15 127 
Task98 255 1 63 
Task99 127 127 127 
