files/tasks_parameters/ExAp01/sample8.txt 1.11791 7.2562 4.46819 0.454772 10.4284
files/tasks_parameters/ExAp01/sample12.txt 1.64268 9.70908 5.28286 0.618515 14.1832
files/tasks_parameters/ExAp01/sample2.txt 1.52672 8.14159 5.7401 0.620531 14.2294
files/tasks_parameters/ExAp01/sample44.txt 1.39825 7.25164 5.75904 0.557631 12.787
files/tasks_parameters/ExAp01/sample27.txt 1.3183 8.10944 5.64946 0.564878 12.9532
files/tasks_parameters/ExAp01/sample17.txt 1.2699 7.11225 5.46658 0.527183 12.0889
files/tasks_parameters/ExAp01/sample9.txt 1.21445 7.62559 5.37813 0.517277 11.8617
files/tasks_parameters/ExAp01/sample34.txt 1.2448 7.04587 5.93037 0.497709 11.413
files/tasks_parameters/ExAp01/sample40.txt 1.22744 8.03037 5.123 0.502383 11.5202
files/tasks_parameters/ExAp01/sample33.txt 1.63735 9.22935 5.92956 0.659262 15.1176
files/tasks_parameters/ExAp01/sample48.txt 1.15848 8.12182 5.1577 0.452491 10.3761
files/tasks_parameters/ExAp01/sample29.txt 1.55578 8.06133 5.12331 0.650652 14.9201
files/tasks_parameters/ExAp01/sample11.txt 1.35889 7.63104 5.37897 0.563302 12.9171
files/tasks_parameters/ExAp01/sample14.txt 1.13168 6.66403 4.66322 0.471536 10.8128
files/tasks_parameters/ExAp01/sample0.txt 1.64599 9.3266 4.98971 0.6311 14.4718
files/tasks_parameters/ExAp01/sample7.txt 1.30141 7.34863 5.19436 0.515527 11.8216
files/tasks_parameters/ExAp01/sample23.txt 1.40562 6.68564 5.54308 0.588617 13.4976
files/tasks_parameters/ExAp01/sample13.txt 1.65263 9.31093 5.35591 0.632849 14.5119
files/tasks_parameters/ExAp01/sample22.txt 1.29523 7.65588 5.04866 0.540336 12.3905
files/tasks_parameters/ExAp01/sample25.txt 1.0295 6.17035 5.0141 0.408296 9.36265
files/tasks_parameters/ExAp01/sample36.txt 1.19007 7.03772 4.66274 0.507647 11.6409
files/tasks_parameters/ExAp01/sample46.txt 1.35236 7.73433 4.79934 0.536843 12.3104
files/tasks_parameters/ExAp01/sample31.txt 1.19045 6.96928 5.16482 0.485817 11.1403
files/tasks_parameters/ExAp01/sample37.txt 1.63308 9.52443 5.74224 0.65799 15.0884
files/tasks_parameters/ExAp01/sample16.txt 1.43943 8.63521 4.97261 0.516328 11.8399
files/tasks_parameters/ExAp01/sample10.txt 1.39877 7.28353 6.16876 0.615651 14.1175
files/tasks_parameters/ExAp01/sample39.txt 1.14417 6.3405 4.6137 0.468873 10.7517
files/tasks_parameters/ExAp01/sample19.txt 1.63097 8.85528 5.22306 0.622152 14.2666
files/tasks_parameters/ExAp01/sample20.txt 1.39428 8.1141 5.21177 0.586994 13.4604
files/tasks_parameters/ExAp01/sample43.txt 1.30697 7.21373 5.6367 0.53748 12.325
files/tasks_parameters/ExAp01/sample32.txt 1.60366 8.30592 5.38137 0.593918 13.6192
files/tasks_parameters/ExAp01/sample45.txt 1.42262 7.94069 4.96323 0.547271 12.5495
files/tasks_parameters/ExAp01/sample26.txt 1.12706 7.57061 4.62637 0.480146 11.0102
files/tasks_parameters/ExAp01/sample5.txt 1.49433 8.0307 5.35681 0.59407 13.6226
files/tasks_parameters/ExAp01/sample21.txt 1.02755 5.87802 4.61744 0.434264 9.95813
files/tasks_parameters/ExAp01/sample38.txt 1.18504 7.66999 4.86632 0.496808 11.3923
files/tasks_parameters/ExAp01/sample1.txt 1.18417 7.21312 4.63213 0.486293 11.1512
files/tasks_parameters/ExAp01/sample15.txt 1.28125 8.02273 5.50855 0.531063 12.1778
files/tasks_parameters/ExAp01/sample24.txt 1.38834 8.66348 5.4905 0.548998 12.5891
files/tasks_parameters/ExAp01/sample3.txt 1.18752 7.74268 4.79918 0.477387 10.947
files/tasks_parameters/ExAp01/sample6.txt 1.50617 8.57133 5.80157 0.633604 14.5292
files/tasks_parameters/ExAp01/sample30.txt 1.64725 8.18878 5.90888 0.633576 14.5286
files/tasks_parameters/ExAp01/sample42.txt 1.30673 8.57689 5.67253 0.54426 12.4804
files/tasks_parameters/ExAp01/sample4.txt 1.34361 8.40354 4.57985 0.563519 12.9221
files/tasks_parameters/ExAp01/sample28.txt 1.07476 6.44114 4.96426 0.449721 10.3126
files/tasks_parameters/ExAp01/sample18.txt 1.30969 8.56363 4.60946 0.543766 12.4691
files/tasks_parameters/ExAp01/sample35.txt 1.98334 11.0387 6.34514 0.761377 17.4592
files/tasks_parameters/ExAp01/sample47.txt 1.32345 7.14493 5.22131 0.545046 12.4985
files/tasks_parameters/ExAp01/sample49.txt 1.30639 6.65996 4.80244 0.498533 11.4319
files/tasks_parameters/ExAp01/sample41.txt 1.18983 7.09069 5.35462 0.497129 11.3997
