0 7
1 5
1 6
1 10
2 5
2 10
2 11
3 5
3 7
3 8
3 9
4 9
4 10
4 11
5 13
5 14
5 15
5 16
5 21
6 12
6 16
6 18
6 19
6 20
6 21
7 13
7 15
7 17
7 19
7 20
7 21
8 13
8 16
8 17
8 18
8 20
8 22
8 24
9 14
9 17
9 18
9 22
9 25
10 19
10 20
10 22
10 23
10 24
10 25
11 14
11 17
11 18
11 21
11 22
11 24
12 32
12 33
13 33
13 34
14 28
14 31
14 33
16 29
16 30
16 34
17 30
17 33
18 27
19 27
20 27
20 29
20 33
21 26
21 28
21 30
21 32
21 34
22 32
23 27
23 34
24 27
24 28
25 27
25 34
26 35
26 38
26 40
26 45
27 36
27 40
28 36
28 46
29 35
29 39
29 44
29 46
30 36
30 37
30 39
30 44
30 46
31 37
31 38
31 41
31 44
31 45
31 46
32 35
32 38
32 42
32 43
32 44
33 35
33 36
33 39
33 40
33 46
34 36
34 37
34 38
34 39
34 40
34 42
34 44
34 45
35 53
36 47
36 49
36 52
36 55
37 49
37 51
37 55
37 55
38 48
38 51
38 52
38 53
39 47
39 48
39 51
39 53
39 55
40 51
40 54
40 55
41 47
41 50
41 54
42 49
42 50
42 53
42 54
44 49
44 51
44 53
45 51
45 52
46 50
46 53
46 55
47 64
47 65
48 56
48 58
48 59
49 59
49 60
49 62
49 66
50 56
50 60
50 62
50 65
50 66
51 56
51 59
51 62
52 57
52 60
52 62
52 66
53 64
53 66
54 56
54 59
54 61
54 63
56 67
56 70
56 74
57 68
57 72
58 72
58 73
59 70
59 71
59 72
59 73
60 68
60 69
61 68
61 69
61 72
62 67
62 68
62 69
63 68
63 69
63 69
63 71
63 72
64 67
64 68
64 73
64 74
65 70
65 73
66 67
66 70
66 71
66 72
66 73
67 77
67 79
67 83
67 88
68 76
68 77
68 78
68 79
68 80
68 81
68 82
68 83
68 84
68 85
68 86
69 80
69 85
69 87
70 84
71 75
71 79
71 80
71 82
71 86
72 76
72 79
72 83
73 77
73 85
73 86
74 83
74 84
74 85
74 86
75 91
75 92
75 93
76 92
77 93
78 91
79 92
79 93
80 90
81 89
81 90
81 92
81 93
83 89
84 89
85 94
85 95
86 90
88 95
89 96
89 99
90 97
90 98
90 99
91 96
91 97
91 98
92 97
92 98
94 98
95 96
