2 14
3 15
4 13
5 13
5 14
6 12
6 13
6 15
7 12
8 12
8 13
8 15
10 12
10 13
10 14
10 15
10 16
12 20
12 24
12 25
12 27
12 28
12 29
12 30
13 19
13 26
13 28
14 17
14 21
14 25
15 18
15 19
15 20
15 21
15 29
16 19
16 22
16 23
16 26
16 27
16 29
16 30
17 37
17 38
17 41
17 42
18 33
18 38
18 42
19 38
19 43
20 41
20 43
21 38
21 39
21 42
22 31
22 33
22 37
22 43
23 33
23 37
24 31
24 32
25 37
25 43
26 34
26 38
26 39
26 40
26 41
27 32
27 36
27 37
27 40
28 32
28 36
28 37
29 32
29 38
29 40
29 41
29 43
30 35
30 37
30 39
31 44
31 47
31 48
31 49
32 45
32 48
32 50
32 52
33 44
33 45
33 46
33 47
33 49
33 50
33 56
34 45
34 48
35 45
35 54
35 55
36 46
36 47
36 50
36 52
36 53
36 55
36 56
37 44
37 47
37 48
37 50
37 51
37 53
38 45
38 47
38 49
38 50
38 54
39 44
39 49
39 50
39 56
40 44
40 45
40 48
40 49
40 55
41 55
42 51
42 55
43 48
43 52
43 55
44 57
44 60
44 62
46 57
46 58
46 61
46 62
47 58
47 60
47 63
47 65
48 57
48 61
48 63
48 64
48 65
49 60
49 63
49 64
50 57
50 59
50 64
51 60
51 61
51 64
52 61
53 57
53 59
53 62
53 63
53 64
54 59
54 62
54 64
55 57
55 62
56 57
56 59
56 60
56 62
57 69
57 74
58 72
59 66
59 69
59 70
59 72
59 76
60 70
60 72
60 76
61 69
61 72
61 73
61 75
62 71
62 73
62 74
62 75
63 67
63 72
63 73
63 74
64 68
64 75
65 66
65 69
65 73
66 82
66 84
66 87
66 88
67 81
67 84
67 87
67 88
68 83
68 84
68 89
69 77
69 81
69 85
69 86
69 87
69 88
70 80
70 81
71 79
71 80
72 78
72 79
72 84
73 81
73 84
74 77
74 80
74 82
74 88
74 89
75 79
75 80
75 81
75 82
75 88
76 80
76 82
77 96
78 90
78 94
78 95
79 94
79 94
80 90
80 91
80 96
81 90
81 91
81 96
82 94
82 96
83 90
83 91
83 93
83 95
83 96
84 91
84 96
85 96
86 90
86 91
86 94
88 92
88 93
88 94
88 95
89 94
91 97
91 99
95 97
95 98
96 97
96 98
