files/tasks_parameters/ExAp01/sample8.txt 1.10601 7.2562 4.46819 0.454772 25.5593
files/tasks_parameters/ExAp01/sample12.txt 1.59469 9.70908 5.28286 0.618515 34.762
files/tasks_parameters/ExAp01/sample2.txt 1.5324 8.14159 5.7401 0.620531 34.8754
files/tasks_parameters/ExAp01/sample44.txt 1.35327 7.25164 5.75904 0.557631 31.3402
files/tasks_parameters/ExAp01/sample27.txt 1.31317 8.10944 5.64946 0.564878 31.7476
files/tasks_parameters/ExAp01/sample17.txt 1.27846 7.11225 5.46658 0.527183 29.629
files/tasks_parameters/ExAp01/sample9.txt 1.20995 7.62559 5.37813 0.517277 29.0722
files/tasks_parameters/ExAp01/sample34.txt 1.22315 7.04587 5.93037 0.497709 27.9725
files/tasks_parameters/ExAp01/sample40.txt 1.22212 8.03037 5.123 0.502383 28.2351
files/tasks_parameters/ExAp01/sample33.txt 1.64374 9.22935 5.92956 0.659262 37.0521
files/tasks_parameters/ExAp01/sample48.txt 1.13165 8.12182 5.1577 0.452491 25.4311
files/tasks_parameters/ExAp01/sample29.txt 1.50689 8.06133 5.12331 0.650652 36.5683
files/tasks_parameters/ExAp01/sample11.txt 1.37933 7.63104 5.37897 0.563302 31.659
files/tasks_parameters/ExAp01/sample14.txt 1.12677 6.66403 4.66322 0.471536 26.5015
files/tasks_parameters/ExAp01/sample0.txt 1.61552 9.3266 4.98971 0.6311 35.4694
files/tasks_parameters/ExAp01/sample7.txt 1.23412 7.34863 5.19436 0.515527 28.9739
files/tasks_parameters/ExAp01/sample23.txt 1.40496 6.68564 5.54308 0.588617 33.0817
files/tasks_parameters/ExAp01/sample13.txt 1.59724 9.31093 5.35591 0.632849 35.5677
files/tasks_parameters/ExAp01/sample22.txt 1.35969 7.65588 5.04866 0.540336 30.3682
files/tasks_parameters/ExAp01/sample25.txt 1.10236 6.17035 5.0141 0.408296 22.9472
files/tasks_parameters/ExAp01/sample36.txt 1.32022 7.03772 4.66274 0.507647 28.531
files/tasks_parameters/ExAp01/sample46.txt 1.34862 7.73433 4.79934 0.536843 30.1719
files/tasks_parameters/ExAp01/sample31.txt 1.15712 6.96928 5.16482 0.485817 27.3041
files/tasks_parameters/ExAp01/sample37.txt 1.58806 9.52443 5.74224 0.65799 36.9806
files/tasks_parameters/ExAp01/sample16.txt 1.33053 8.63521 4.97261 0.516328 29.0189
files/tasks_parameters/ExAp01/sample10.txt 1.38491 7.28353 6.16876 0.615651 34.6011
files/tasks_parameters/ExAp01/sample39.txt 1.13467 6.3405 4.6137 0.468873 26.3518
files/tasks_parameters/ExAp01/sample19.txt 1.45128 8.85528 5.22306 0.622152 34.9665
files/tasks_parameters/ExAp01/sample20.txt 1.39217 8.1141 5.21177 0.586994 32.9905
files/tasks_parameters/ExAp01/sample43.txt 1.27289 7.21373 5.6367 0.53748 30.2077
files/tasks_parameters/ExAp01/sample32.txt 1.45063 8.30592 5.38137 0.593918 33.3797
files/tasks_parameters/ExAp01/sample45.txt 1.4047 7.94069 4.96323 0.547271 30.758
files/tasks_parameters/ExAp01/sample26.txt 1.11841 7.57061 4.62637 0.480146 26.9854
files/tasks_parameters/ExAp01/sample5.txt 1.37766 8.0307 5.35681 0.59407 33.3882
files/tasks_parameters/ExAp01/sample21.txt 1.02162 5.87802 4.61744 0.434264 24.4067
files/tasks_parameters/ExAp01/sample38.txt 1.17415 7.66999 4.86632 0.496808 27.9218
files/tasks_parameters/ExAp01/sample1.txt 1.15111 7.21312 4.63213 0.486293 27.3309
files/tasks_parameters/ExAp01/sample15.txt 1.21778 8.02273 5.50855 0.531063 29.847
files/tasks_parameters/ExAp01/sample24.txt 1.3467 8.66348 5.4905 0.548998 30.855
files/tasks_parameters/ExAp01/sample3.txt 1.18511 7.74268 4.79918 0.477387 26.8303
files/tasks_parameters/ExAp01/sample6.txt 1.5373 8.57133 5.80157 0.633604 35.6101
files/tasks_parameters/ExAp01/sample30.txt 1.58832 8.18878 5.90888 0.633576 35.6086
files/tasks_parameters/ExAp01/sample42.txt 1.32593 8.57689 5.67253 0.54426 30.5887
files/tasks_parameters/ExAp01/sample4.txt 1.2821 8.40354 4.57985 0.563519 31.6712
files/tasks_parameters/ExAp01/sample28.txt 1.06581 6.44114 4.96426 0.449721 25.2754
files/tasks_parameters/ExAp01/sample18.txt 1.35041 8.56363 4.60946 0.543766 30.561
files/tasks_parameters/ExAp01/sample35.txt 1.90835 11.0387 6.34514 0.761377 42.7913
files/tasks_parameters/ExAp01/sample47.txt 1.30421 7.14493 5.22131 0.545046 30.6329
files/tasks_parameters/ExAp01/sample49.txt 1.29362 6.65996 4.80244 0.498533 28.0188
files/tasks_parameters/ExAp01/sample41.txt 1.17777 7.09069 5.35462 0.497129 27.9399
