0.354887
Task0 31 1 15 
Task1 31 3 7 
Task2 31 63 15 
Task3 31 63 31 
Task4 31 3 255 
Task5 1 63 63 
Task6 15 255 127 
Task7 255 31 1 
Task8 31 3 31 
Task9 31 15 31 
Task10 255 63 31 
Task11 15 7 31 
Task12 31 1 255 
Task13 15 31 63 
Task14 31 127 7 
Task15 3 63 31 
Task16 31 1 15 
Task17 31 31 3 
Task18 31 255 31 
Task19 1 31 31 
Task20 31 3 63 
Task21 31 255 255 
Task22 31 31 255 
Task23 31 63 3 
Task24 63 255 15 
Task25 3 255 127 
Task26 255 31 255 
Task27 7 63 63 
Task28 15 3 15 
Task29 255 31 127 
Task30 7 7 63 
Task31 255 31 63 
Task32 63 255 63 
Task33 7 63 63 
Task34 255 63 255 
Task35 31 127 31 
Task36 63 255 255 
Task37 3 15 255 
Task38 31 31 15 
Task39 31 255 63 
Task40 15 3 31 
Task41 1 255 15 
Task42 31 255 15 
Task43 3 3 255 
Task44 3 1 31 
Task45 7 31 15 
Task46 3 15 31 
Task47 255 7 127 
Task48 63 63 31 
Task49 15 127 255 
Task50 3 31 15 
Task51 63 15 31 
Task52 255 63 255 
Task53 63 15 255 
Task54 1 31 1 
Task55 127 127 127 
Task56 31 31 15 
Task57 15 7 255 
Task58 255 127 63 
Task59 255 127 63 
Task60 31 31 15 
Task61 3 31 3 
Task62 7 31 127 
Task63 31 7 31 
Task64 15 31 3 
Task65 127 7 15 
Task66 255 31 255 
Task67 31 31 127 
Task68 3 7 31 
Task69 3 3 63 
Task70 31 31 7 
Task71 1 31 127 
Task72 1 31 255 
Task73 255 31 15 
Task74 255 31 7 
Task75 255 63 3 
Task76 31 15 255 
Task77 31 31 7 
Task78 63 7 15 
Task79 63 31 63 
Task80 7 31 63 
Task81 7 3 63 
Task82 255 127 63 
Task83 127 63 15 
Task84 3 31 7 
Task85 15 255 15 
Task86 31 63 63 
Task87 3 63 15 
Task88 127 127 127 
Task89 15 3 63 
Task90 1 63 15 
Task91 31 31 63 
Task92 63 127 255 
Task93 31 31 63 
Task94 63 15 255 
Task95 63 31 127 
Task96 31 7 255 
Task97 255 255 15 
Task98 255 31 63 
Task99 15 15 255 
