files/tasks_parameters/ExAp01/sample8.txt 1.11051 7.2562 4.46819 0.454772 16.2399
files/tasks_parameters/ExAp01/sample12.txt 1.63991 9.70908 5.28286 0.618515 22.0872
files/tasks_parameters/ExAp01/sample2.txt 1.50039 8.14159 5.7401 0.620531 22.1592
files/tasks_parameters/ExAp01/sample44.txt 1.38243 7.25164 5.75904 0.557631 19.913
files/tasks_parameters/ExAp01/sample27.txt 1.31929 8.10944 5.64946 0.564878 20.1718
files/tasks_parameters/ExAp01/sample17.txt 1.26945 7.11225 5.46658 0.527183 18.8257
files/tasks_parameters/ExAp01/sample9.txt 1.22339 7.62559 5.37813 0.517277 18.472
files/tasks_parameters/ExAp01/sample34.txt 1.23761 7.04587 5.93037 0.497709 17.7732
files/tasks_parameters/ExAp01/sample40.txt 1.201 8.03037 5.123 0.502383 17.9401
files/tasks_parameters/ExAp01/sample33.txt 1.63735 9.22935 5.92956 0.659262 23.5423
files/tasks_parameters/ExAp01/sample48.txt 1.1658 8.12182 5.1577 0.452491 16.1585
files/tasks_parameters/ExAp01/sample29.txt 1.55453 8.06133 5.12331 0.650652 23.2348
files/tasks_parameters/ExAp01/sample11.txt 1.35889 7.63104 5.37897 0.563302 20.1155
files/tasks_parameters/ExAp01/sample14.txt 1.13168 6.66403 4.66322 0.471536 16.8386
files/tasks_parameters/ExAp01/sample0.txt 1.64477 9.3266 4.98971 0.6311 22.5366
files/tasks_parameters/ExAp01/sample7.txt 1.25918 7.34863 5.19436 0.515527 18.4095
files/tasks_parameters/ExAp01/sample23.txt 1.40203 6.68564 5.54308 0.588617 21.0195
files/tasks_parameters/ExAp01/sample13.txt 1.64922 9.31093 5.35591 0.632849 22.5991
files/tasks_parameters/ExAp01/sample22.txt 1.33051 7.65588 5.04866 0.540336 19.2954
files/tasks_parameters/ExAp01/sample25.txt 1.0295 6.17035 5.0141 0.408296 14.5803
files/tasks_parameters/ExAp01/sample36.txt 1.21894 7.03772 4.66274 0.507647 18.1281
files/tasks_parameters/ExAp01/sample46.txt 1.3516 7.73433 4.79934 0.536843 19.1707
files/tasks_parameters/ExAp01/sample31.txt 1.19045 6.96928 5.16482 0.485817 17.3486
files/tasks_parameters/ExAp01/sample37.txt 1.63266 9.52443 5.74224 0.65799 23.4968
files/tasks_parameters/ExAp01/sample16.txt 1.4387 8.63521 4.97261 0.516328 18.4381
files/tasks_parameters/ExAp01/sample10.txt 1.39877 7.28353 6.16876 0.615651 21.9849
files/tasks_parameters/ExAp01/sample39.txt 1.14417 6.3405 4.6137 0.468873 16.7435
files/tasks_parameters/ExAp01/sample19.txt 1.62991 8.85528 5.22306 0.622152 22.2171
files/tasks_parameters/ExAp01/sample20.txt 1.39416 8.1141 5.21177 0.586994 20.9616
files/tasks_parameters/ExAp01/sample43.txt 1.24124 7.21373 5.6367 0.53748 19.1934
files/tasks_parameters/ExAp01/sample32.txt 1.60311 8.30592 5.38137 0.593918 21.2088
files/tasks_parameters/ExAp01/sample45.txt 1.42249 7.94069 4.96323 0.547271 19.5431
files/tasks_parameters/ExAp01/sample26.txt 1.16387 7.57061 4.62637 0.480146 17.146
files/tasks_parameters/ExAp01/sample5.txt 1.49347 8.0307 5.35681 0.59407 21.2143
files/tasks_parameters/ExAp01/sample21.txt 1.02755 5.87802 4.61744 0.434264 15.5076
files/tasks_parameters/ExAp01/sample38.txt 1.18501 7.66999 4.86632 0.496808 17.741
files/tasks_parameters/ExAp01/sample1.txt 1.165 7.21312 4.63213 0.486293 17.3656
files/tasks_parameters/ExAp01/sample15.txt 1.28125 8.02273 5.50855 0.531063 18.9643
files/tasks_parameters/ExAp01/sample24.txt 1.33802 8.66348 5.4905 0.548998 19.6047
files/tasks_parameters/ExAp01/sample3.txt 1.16674 7.74268 4.79918 0.477387 17.0475
files/tasks_parameters/ExAp01/sample6.txt 1.54732 8.57133 5.80157 0.633604 22.626
files/tasks_parameters/ExAp01/sample30.txt 1.69593 8.18878 5.90888 0.633576 22.625
files/tasks_parameters/ExAp01/sample42.txt 1.30413 8.57689 5.67253 0.54426 19.4355
files/tasks_parameters/ExAp01/sample4.txt 1.34954 8.40354 4.57985 0.563519 20.1233
files/tasks_parameters/ExAp01/sample28.txt 1.0744 6.44114 4.96426 0.449721 16.0596
files/tasks_parameters/ExAp01/sample18.txt 1.30952 8.56363 4.60946 0.543766 19.4179
files/tasks_parameters/ExAp01/sample35.txt 1.98218 11.0387 6.34514 0.761377 27.1888
files/tasks_parameters/ExAp01/sample47.txt 1.32345 7.14493 5.22131 0.545046 19.4636
files/tasks_parameters/ExAp01/sample49.txt 1.33628 6.65996 4.80244 0.498533 17.8026
files/tasks_parameters/ExAp01/sample41.txt 1.2164 7.09069 5.35462 0.497129 17.7525
