files/tasks_parameters/ExAp01/sample8.txt 1.08938 3.76817 4.3855 0.450105 16.0733
files/tasks_parameters/ExAp01/sample12.txt 1.49418 5.03638 5.18776 0.610564 21.8033
files/tasks_parameters/ExAp01/sample2.txt 1.42816 4.58991 5.64606 0.613877 21.9216
files/tasks_parameters/ExAp01/sample44.txt 1.29092 3.77401 5.66946 0.551838 19.7061
files/tasks_parameters/ExAp01/sample27.txt 1.30615 4.13937 5.56136 0.55779 19.9187
files/tasks_parameters/ExAp01/sample17.txt 1.20359 3.76163 5.38341 0.520991 18.6046
files/tasks_parameters/ExAp01/sample9.txt 1.2167 3.69889 5.2981 0.511699 18.2728
files/tasks_parameters/ExAp01/sample34.txt 1.13513 3.52435 5.83741 0.49187 17.5647
files/tasks_parameters/ExAp01/sample40.txt 1.16954 4.06185 5.0335 0.496884 17.7438
files/tasks_parameters/ExAp01/sample33.txt 1.55311 4.82091 5.83886 0.651963 23.2816
files/tasks_parameters/ExAp01/sample48.txt 1.07975 4.01134 5.07085 0.447927 15.9955
files/tasks_parameters/ExAp01/sample29.txt 1.5467 4.20847 5.0406 0.643694 22.9863
files/tasks_parameters/ExAp01/sample11.txt 1.31879 3.94699 5.29198 0.557276 19.9003
files/tasks_parameters/ExAp01/sample14.txt 1.08636 3.54059 4.58345 0.466713 16.6664
files/tasks_parameters/ExAp01/sample0.txt 1.57236 4.82755 4.90216 0.623551 22.267
files/tasks_parameters/ExAp01/sample7.txt 1.15513 3.60766 5.11185 0.509566 18.1966
files/tasks_parameters/ExAp01/sample23.txt 1.45515 3.81403 5.45799 0.582911 20.8158
files/tasks_parameters/ExAp01/sample13.txt 1.48659 4.8894 5.26818 0.624499 22.3009
files/tasks_parameters/ExAp01/sample22.txt 1.29323 3.76156 4.95746 0.534216 19.0769
files/tasks_parameters/ExAp01/sample25.txt 0.969765 2.94144 4.92622 0.403639 14.414
files/tasks_parameters/ExAp01/sample36.txt 1.25826 3.56164 4.5806 0.501799 17.9193
files/tasks_parameters/ExAp01/sample46.txt 1.2671 3.84833 4.7121 0.530701 18.9514
files/tasks_parameters/ExAp01/sample31.txt 1.09433 3.764 5.08385 0.479734 17.1313
files/tasks_parameters/ExAp01/sample37.txt 1.52628 4.43254 5.65111 0.65143 23.2626
files/tasks_parameters/ExAp01/sample16.txt 1.27104 4.49741 4.8895 0.509171 18.1825
files/tasks_parameters/ExAp01/sample10.txt 1.38978 3.87086 6.07511 0.60993 21.7806
files/tasks_parameters/ExAp01/sample39.txt 1.08798 3.66299 4.54281 0.463671 16.5577
files/tasks_parameters/ExAp01/sample19.txt 1.40838 3.86694 5.14047 0.615987 21.9969
files/tasks_parameters/ExAp01/sample20.txt 1.30941 4.09945 5.13368 0.580369 20.725
files/tasks_parameters/ExAp01/sample43.txt 1.15222 3.75825 5.55698 0.530892 18.9582
files/tasks_parameters/ExAp01/sample32.txt 1.42783 4.0352 5.29178 0.587643 20.9848
files/tasks_parameters/ExAp01/sample45.txt 1.23212 3.94578 4.87833 0.541081 19.322
files/tasks_parameters/ExAp01/sample26.txt 1.11255 3.50998 4.55035 0.474009 16.9269
files/tasks_parameters/ExAp01/sample5.txt 1.38255 4.00994 5.27725 0.587681 20.9861
files/tasks_parameters/ExAp01/sample21.txt 0.933921 2.8974 4.54677 0.430037 15.3566
files/tasks_parameters/ExAp01/sample38.txt 1.16972 3.56689 4.78573 0.492366 17.5824
files/tasks_parameters/ExAp01/sample1.txt 1.15847 3.69002 4.55048 0.481074 17.1792
files/tasks_parameters/ExAp01/sample15.txt 1.20629 3.73223 5.42493 0.524964 18.7465
files/tasks_parameters/ExAp01/sample24.txt 1.31033 4.18053 5.40377 0.542575 19.3754
files/tasks_parameters/ExAp01/sample3.txt 1.08376 3.70547 4.7118 0.470503 16.8017
files/tasks_parameters/ExAp01/sample6.txt 1.41983 4.07521 5.71419 0.626702 22.3796
files/tasks_parameters/ExAp01/sample30.txt 1.49341 3.97446 5.82388 0.626709 22.3798
files/tasks_parameters/ExAp01/sample42.txt 1.29681 4.44207 5.58473 0.537025 19.1772
files/tasks_parameters/ExAp01/sample4.txt 1.36731 3.92181 4.49751 0.556974 19.8896
files/tasks_parameters/ExAp01/sample28.txt 1.07608 3.13496 4.88321 0.444588 15.8763
files/tasks_parameters/ExAp01/sample18.txt 1.22956 3.95301 4.52898 0.537438 19.1919
files/tasks_parameters/ExAp01/sample35.txt 1.90908 5.75923 6.25034 0.752488 26.8714
files/tasks_parameters/ExAp01/sample47.txt 1.16153 3.44018 5.14289 0.540033 19.2846
files/tasks_parameters/ExAp01/sample49.txt 1.19873 3.38981 4.72409 0.493041 17.6065
files/tasks_parameters/ExAp01/sample41.txt 1.10214 3.58692 5.27252 0.492391 17.5833
