files/tasks_parameters/ExAp01/sample8.txt 0.788058 3.15778 1.5595 0.203411 3.90274
files/tasks_parameters/ExAp01/sample12.txt 0.811494 3.94962 1.6705 0.207924 3.98932
files/tasks_parameters/ExAp01/sample2.txt 0.772126 3.78275 1.74131 0.200098 3.83916
files/tasks_parameters/ExAp01/sample44.txt 0.685794 3.59825 1.65317 0.200005 3.83739
files/tasks_parameters/ExAp01/sample27.txt 0.72525 3.45743 1.5148 0.182129 3.4944
files/tasks_parameters/ExAp01/sample17.txt 0.5843 2.77299 1.44514 0.14646 2.81004
files/tasks_parameters/ExAp01/sample9.txt 0.674937 2.99933 1.451 0.177444 3.40451
files/tasks_parameters/ExAp01/sample34.txt 0.652335 3.02928 1.58429 0.157984 3.03115
files/tasks_parameters/ExAp01/sample40.txt 0.654672 3.86889 1.52122 0.168379 3.2306
files/tasks_parameters/ExAp01/sample33.txt 0.788718 3.63695 1.71905 0.199765 3.83278
files/tasks_parameters/ExAp01/sample48.txt 0.625342 3.39061 1.49062 0.154728 2.96869
files/tasks_parameters/ExAp01/sample29.txt 0.74135 3.30472 1.38739 0.223868 4.29524
files/tasks_parameters/ExAp01/sample11.txt 0.699291 3.10585 1.41612 0.174079 3.33995
files/tasks_parameters/ExAp01/sample14.txt 0.664842 2.70971 1.43432 0.162214 3.11232
files/tasks_parameters/ExAp01/sample0.txt 0.718636 3.6937 1.5439 0.18367 3.52397
files/tasks_parameters/ExAp01/sample7.txt 0.602039 2.70501 1.42221 0.143463 2.75255
files/tasks_parameters/ExAp01/sample23.txt 0.715804 3.2697 1.57822 0.181448 3.48135
files/tasks_parameters/ExAp01/sample13.txt 0.728066 3.84225 1.67648 0.198247 3.80366
files/tasks_parameters/ExAp01/sample22.txt 0.597776 3.09569 1.56121 0.148796 2.85487
files/tasks_parameters/ExAp01/sample25.txt 0.596393 2.73966 1.5007 0.148149 2.84245
files/tasks_parameters/ExAp01/sample36.txt 0.525798 2.85948 1.28553 0.130042 2.49505
files/tasks_parameters/ExAp01/sample46.txt 0.764268 3.58643 1.69998 0.210103 4.03113
files/tasks_parameters/ExAp01/sample31.txt 0.692449 3.4832 1.53782 0.1722 3.30391
files/tasks_parameters/ExAp01/sample37.txt 0.724362 3.95293 1.50705 0.171701 3.29434
files/tasks_parameters/ExAp01/sample16.txt 0.591293 3.31216 1.30115 0.150249 2.88275
files/tasks_parameters/ExAp01/sample10.txt 0.687004 3.17098 1.61789 0.153776 2.95042
files/tasks_parameters/ExAp01/sample39.txt 0.682039 3.26617 1.44406 0.165669 3.1786
files/tasks_parameters/ExAp01/sample19.txt 0.688404 3.63532 1.52509 0.196094 3.76236
files/tasks_parameters/ExAp01/sample20.txt 0.584148 3.20793 1.25367 0.147335 2.82684
files/tasks_parameters/ExAp01/sample43.txt 0.580098 3.11551 1.4202 0.150644 2.89033
files/tasks_parameters/ExAp01/sample32.txt 0.665536 3.5311 1.42482 0.168744 3.2376
files/tasks_parameters/ExAp01/sample45.txt 0.731871 3.80283 1.48324 0.19807 3.80027
files/tasks_parameters/ExAp01/sample26.txt 0.608047 3.21645 1.29701 0.166061 3.18613
files/tasks_parameters/ExAp01/sample5.txt 0.653966 3.5889 1.52559 0.178903 3.43252
files/tasks_parameters/ExAp01/sample21.txt 0.657294 2.75242 1.55936 0.19512 3.74367
files/tasks_parameters/ExAp01/sample38.txt 0.643278 3.31563 1.37515 0.166157 3.18796
files/tasks_parameters/ExAp01/sample1.txt 0.729983 3.74964 1.51696 0.19701 3.77992
files/tasks_parameters/ExAp01/sample15.txt 0.684252 3.32916 1.48508 0.180707 3.46714
files/tasks_parameters/ExAp01/sample24.txt 0.69901 3.45951 1.59549 0.16529 3.17134
files/tasks_parameters/ExAp01/sample3.txt 0.907178 3.70014 1.70809 0.237107 4.54924
files/tasks_parameters/ExAp01/sample6.txt 0.702973 3.33003 1.58323 0.184714 3.54402
files/tasks_parameters/ExAp01/sample30.txt 0.848162 4.1841 1.4861 0.239623 4.59752
files/tasks_parameters/ExAp01/sample42.txt 0.717817 3.43221 1.70276 0.177383 3.40335
files/tasks_parameters/ExAp01/sample4.txt 0.765766 3.72477 1.6136 0.196448 3.76914
files/tasks_parameters/ExAp01/sample28.txt 0.623096 3.11323 1.45032 0.158819 3.04717
files/tasks_parameters/ExAp01/sample18.txt 0.586659 3.47418 1.45209 0.149064 2.86001
files/tasks_parameters/ExAp01/sample35.txt 0.739316 4.57086 1.49394 0.185031 3.55008
files/tasks_parameters/ExAp01/sample47.txt 0.64719 3.13768 1.52397 0.16417 3.14984
files/tasks_parameters/ExAp01/sample49.txt 0.626871 3.13288 1.49657 0.156154 2.99604
files/tasks_parameters/ExAp01/sample41.txt 0.631216 2.81964 1.49636 0.150876 2.89477
