Task0 0.12038840701220861 0.2916427509664603 0.2506433746084959 0.25474859757800444 0.627543905560527 0.7713234351493559 0.333651492946881 
Task1 0.02956003993391792 0.14082129816377487 0.1087012479677749 0.31901558195406826 0.7478798195126979 0.5041167869758937 0.36122383929245516 
Task2 0.10349577557208704 0.12035394126553718 0.32768405673836687 0.3435792912406341 0.5705909337134933 0.3159205961542424 0.30809506922927893 
Task3 0.03534910606776897 0.04563347394554344 0.09593865777216264 0.0650642209019622 0.7389131045150542 0.7990892026435714 0.9260710206326983 
Task4 0.06300461927614383 0.07029657423115404 0.22793696195916094 0.29793856799955515 0.813321272650112 0.9918045475008204 0.30322619908745757 
Task5 0.0036617946687047603 0.03765216371778783 0.37890763300210745 0.2870710104898609 0.6924130852485848 0.5426723601761044 0.7468420606987258 
Task6 0.017519953535590282 0.023712770606633828 0.13454792466695165 0.1669872630582329 0.8894171604812646 0.8012204584118348 0.6993938673451279 
Task7 0.12789991183834962 0.24047788441654133 0.010501521049974791 0.5141002155240842 0.6631745281577581 0.53649783576866 0.4952193636736412 
Task8 0.042855836768189375 0.3411973642602977 0.20839316533694033 0.22998263260167448 0.4404600581654912 0.9994026883803715 0.6756287835064623 
Task9 0.16831643613977795 0.09503734312839332 0.33311540555324015 0.3414788613326301 0.8639518679439064 0.6684585848446304 0.7321280937251226 
Task10 0.004191594135236742 0.011940762277675031 0.004257164115182846 0.007650938421093208 0.5366320077719322 0.5503272592113055 0.4213021535051285 
Task11 0.062020566644366976 0.07652072049573523 0.1961627095448319 0.1447738547847558 0.5712355529098548 0.6938493255179576 0.7274852295333734 
Task12 0.0535766744950837 0.13635020054591881 0.04772938025252449 0.0309345631491607 0.9186997084633866 0.8087333333309457 0.5566413367018171 
Task13 0.16753288458873777 0.34677743402037753 0.20373108718977234 0.23197092121545834 0.579750366930433 0.8361762405156847 0.6630064492602836 
Task14 0.0840482908758087 0.1925010083170252 0.29928903629118914 0.013709531534098375 0.3101240065834837 0.6554862359287585 0.802592993863114 
Task15 0.11144195047798938 0.18655086188011089 0.16428518828707933 0.25028244317979265 0.8700201088617805 0.6268398969716137 0.6501848902833252 
Task16 0.01880089850220046 0.051886474531393514 0.1791141443854643 0.1840723534781347 0.4235885208098807 0.546036547077522 0.8383915505553705 
Task17 0.006605031154658597 0.39290460080181844 0.13583301655608845 0.31992024568138816 0.33752657169195927 0.9257966796940962 0.7060895109634612 
Task18 0.07190659531962316 0.24583734799845947 0.21390106549722543 0.1429081449368634 0.903023506679435 0.958845921152764 0.9898328012109137 
Task19 0.10391480525166406 0.5231033784075809 0.10091513628249786 0.25786622743928717 0.6382518656685835 0.35188290919843346 0.7715084474191121 
Task20 0.06369002779429576 0.3048853601481791 0.4063675559378134 0.05419073088838132 0.5481736076213997 0.3663859089525414 0.6937070982110694 
Task21 0.08406518424365075 0.1611349220299227 0.17708015140779879 0.08253797425041492 0.4848297102816307 0.9157422312737957 0.973968459777889 
Task22 0.06538315512838754 0.1197187789580668 0.16120944139405338 0.17290252900165431 0.5152643764834732 0.98144796590353 0.9814500699329811 
Task23 0.05733751864858116 0.22479826950643608 0.2178915141647401 0.055697568361414436 0.43464808501826435 0.7336474992372832 0.9439914297082814 
Task24 0.10529085767479618 0.3877360281349792 0.09227746739140572 0.13271380185962411 0.31865050419597085 0.8614951230137886 0.34988846019765985 
Task25 0.012017620495895326 0.4125636206153107 0.10852366060178625 0.09582505241696972 0.9658164021446185 0.9201733554289837 0.6257040831087939 
Task26 0.0004643303477361019 0.017043885972873887 0.005784825362251543 0.017199341227707138 0.8304694864778892 0.43150114876841184 0.5724570072294033 
Task27 0.12471663439447825 0.14034314319895033 0.49036636027334435 0.17340564741430078 0.6032660307763384 0.7875977934644744 0.4020793025742436 
Task28 0.14775017735789314 0.1998898919207406 0.345731617968424 0.2838204159293454 0.31801366234371764 0.5738711608086968 0.7995596868736343 
Task29 0.05000826779258076 0.0975729024193317 0.14678143032594057 0.05443023457559047 0.32759297765186884 0.9448039646832902 0.8752362197899555 
Task30 0.053215415194451575 0.08868200075331775 0.30545591813325146 0.4093197617002006 0.3292982301857078 0.8242018169805958 0.8571354377718328 
Task31 0.1245584700927769 0.21884167878127475 0.12292940485267197 0.3278785518905824 0.7257820556631622 0.7180690311016462 0.6351665252045614 
Task32 0.036889612700666485 0.4084068808358571 0.005864633020316484 0.4874899381855351 0.7041006961717393 0.5101611359567244 0.6848170461950769 
Task33 0.010958928787190713 0.45051499846588483 0.03808601740746005 0.04035805562470279 0.8787837502031994 0.5620169306140232 0.6642536091129052 
Task34 0.09803290069937295 0.08975248999621131 0.279701398554837 0.37578372234183416 0.7142372294466695 0.5128031926965658 0.6894806712000099 
Task35 0.05778163786233485 0.11022581620942708 0.09508912844767732 0.04362208796263023 0.36608686781315825 0.8400826013724481 0.5139446671905958 
Task36 0.020380349724167194 0.42635313491380833 0.23287059881983377 0.2222143171871406 0.7584686656106869 0.7646294074949845 0.8747465021601062 
Task37 0.005893969493003656 0.07470550200961215 0.13476274841154282 0.11241131752359397 0.7274467009222918 0.8336696809280968 0.6275376490237551 
Task38 0.0021379109366747653 0.004989271235325205 0.02057368680934425 0.01991740744530229 0.30298548380209256 0.6136887107653364 0.941611494339812 
Task39 0.009593344803097285 0.03185399593476883 0.015045463921200446 0.013769799985736485 0.7749888057240499 0.3415162481455837 0.8782950870160837 
Task40 0.015012411704549448 0.2528916003483246 0.18576589687561598 0.12072068971616422 0.3301210635472593 0.9230436543957574 0.6736760224429761 
Task41 0.13186759453192867 0.29541117991518473 0.16057183645721143 0.11312914586118065 0.3181135697800985 0.5376650526070252 0.44300970466937706 
Task42 0.14085792044117865 0.11447257254245381 0.4965194904281432 0.15648040173543903 0.356000352301036 0.32592020324878934 0.6040921121563207 
Task43 0.02304270043501513 0.035386149922397345 0.25875388545976324 0.2798576594012363 0.39679652835782325 0.6255032367456692 0.3802346913600786 
Task44 0.09355785452631821 0.006595276154903623 0.2724100497011561 0.24150202544404933 0.6980371213658068 0.7082312683985115 0.38366348898159264 
Task45 0.010136756625174156 0.18382244682012458 0.402999857040034 0.2318386504691503 0.7074926562513568 0.5957810309961573 0.39453020428271013 
Task46 0.022261216300305944 0.030390330807630792 0.07425048348460847 0.03162181578609561 0.9801319364407499 0.6992684104766199 0.7504226575179888 
Task47 0.002615620271135818 0.013809892613569276 0.010455847556472737 0.004889882812209707 0.8345078737833489 0.7305130383488018 0.6665181396388558 
Task48 7.03424412014694e-05 0.02025859320716103 0.0150856879041407 0.0077005400799898165 0.5232424085389109 0.8926248563826591 0.7925652913443406 
Task49 0.09162602879912497 0.188790285228872 0.19247579086362404 0.18933021161605193 0.8365271776174521 0.895061808013917 0.7509656253885097 
Task50 0.008449939161107868 0.2507330100582673 0.2190411688587079 0.33701224675942953 0.3167220572021811 0.4513117546073018 0.48718050986534545 
Task51 0.017783099628204888 0.06304988527557963 0.11546825157193878 0.18100307959195028 0.5591524003801585 0.6676234132683799 0.82001720994262 
Task52 0.08925257834616049 0.15201124136615368 0.20886871956563696 0.23667148722054984 0.6645257745519507 0.316763107243643 0.9982340556345626 
Task53 0.058638349959615366 0.1801861687301866 0.001456405781490017 0.11800862053429359 0.7428902613725066 0.7859966511979257 0.3879715789419876 
Task54 0.14568425716562167 0.28406087255645923 0.12060843989294134 0.25987167629334795 0.8445252739790312 0.5659180912231552 0.5887165808702886 
Task55 0.013702278141276964 0.05855198974827301 0.06478712763573999 0.03627047444866579 0.6208161051152767 0.7407717436185742 0.7361398626785745 
Task56 0.010606276102226518 0.05336439598743199 0.022672145787334362 0.03147888863382489 0.5875669425823318 0.6885812441085754 0.696236095790712 
Task57 0.01397494806154764 0.006892789987239844 0.03039380241536006 0.02938609470965426 0.37985069225440093 0.6024275820759025 0.7184539012083617 
Task58 0.0002401914823377904 0.04227228492148641 0.017500225165663085 0.026412694021470343 0.39163559518706237 0.5451178520614388 0.5342069489960675 
Task59 0.0016021284729345064 0.16429436235707826 0.1676079453126707 0.13541649587171004 0.40181526175572324 0.8855428275231578 0.5542806714491549 
Task60 0.017954495242152754 0.034924854612317105 0.009195640550899479 0.031905360715918554 0.9531199355288222 0.804508649210065 0.6578967638135909 
Task61 0.033653541281676795 0.08373771539427576 0.10928421487683541 0.18233597373509505 0.3778007495077965 0.48966815082848936 0.4277646705081055 
Task62 0.0018825141894052088 0.00922597619446453 0.003142120825571705 0.007159853024527193 0.8944293385113102 0.8063332187813375 0.30735642192227647 
Task63 0.09740833871168726 0.27688705333496455 0.5095730540431894 0.11183474050965714 0.6296808322781401 0.5028218146852759 0.930615041297082 
Task64 0.004450584059031588 0.08300127727689596 0.11604910050239411 0.08878915745506011 0.3745234383177806 0.5458677247240573 0.48536475366734466 
Task65 0.04492930666514071 0.10155315900190573 0.21984844884493462 0.268627590843144 0.7861199649208133 0.7202019418012633 0.5471766682422439 
Task66 0.041709618502105826 0.5093206702231654 0.18267314676020494 0.10429225020174808 0.6885884912400526 0.5750799432644185 0.87846636800895 
Task67 0.08565940437818942 0.38164928243227214 0.39913734492313563 0.05078419481602635 0.6144622217240809 0.340117663314332 0.7591829538253784 
Task68 0.004526402809934301 0.033436321924041425 0.33002386000633505 0.40500631074039956 0.51907809866681 0.923405418817091 0.39521922319379554 
Task69 0.021056901675308555 0.051232856805220245 0.010214289183439237 0.03559332736965579 0.7688973310693901 0.45158547046395103 0.6407446370765406 
Task70 0.06039589157845529 0.13654000267367 0.06908969462171528 0.0882191541369388 0.43034014829012046 0.3037332524584047 0.38742414824551447 
Task71 0.1540332300145683 0.281870425889569 0.38125894510718095 0.06692117416874174 0.49955036659600904 0.6300765781175666 0.4335429169606974 
Task72 0.09403671600599019 0.29206976393090567 0.3496144530357826 0.18683351865305042 0.8186171596261769 0.4782481331732572 0.6775112236002505 
Task73 0.03198718341993423 0.020669761169902937 0.06286383248527144 0.04774137396242143 0.9324262846354519 0.3124297484460041 0.7785651917144483 
Task74 0.017365233021346727 0.04754438506512739 0.05783845027540976 0.018737644384620358 0.3195638746134701 0.796836372637138 0.46634028741031225 
Task75 0.06493913331903489 0.23361961422516564 0.2122191113596874 0.0533635655488584 0.8203277628913317 0.4659587340870488 0.7072350696409734 
Task76 0.1654633719092775 0.13412479961222917 0.4217154654128248 0.21612816799341353 0.8627384329699366 0.6419275806209437 0.9435925514567409 
Task77 0.03663842934548004 0.04844228486892186 0.05792231005523551 0.0759828236652288 0.9394720549493589 0.7414180314928234 0.31157361586557325 
Task78 0.0008802718689146242 0.009545711717558454 0.005608240627469326 0.0012335598915570486 0.8407748730491202 0.6083436352899645 0.438281507873523 
Task79 0.04762434095816471 0.11544438590945345 0.042999404028966466 0.18725414805461255 0.38303169235552026 0.8900775586984304 0.6754638334607153 
Task80 0.09375314934065115 0.26188904543590924 0.06858011436974298 0.22656689448850267 0.7247576656147436 0.32927099236703966 0.3331298656207064 
Task81 0.001543624012780119 0.0019810928105717844 0.0022870018763255745 0.002029520612763484 0.9736277691676498 0.6388933949313202 0.6069191074105988 
Task82 0.03377363748820657 0.11624192802864218 0.3479226698498605 0.3544976746093319 0.3191357646121636 0.7376785498177865 0.44446119408153895 
Task83 0.004291431359593475 0.1466051198767667 0.035414832558160275 0.1799609187390272 0.4985168115138462 0.8271010405574668 0.4934653866144849 
Task84 0.000983989801391816 0.0028474010332246095 0.014802133892746885 0.015084380065180243 0.6230392925379138 0.723379525489629 0.7209956865073608 
Task85 0.000339439142215823 0.009167762494925385 0.008677017109853497 0.008414783277216132 0.7619749550026151 0.8701966081164452 0.48199810198314585 
Task86 0.09525899593125566 0.21397044377325602 0.23325918403338483 0.19268996149411016 0.3638014130040154 0.6395258470320415 0.41128218082615137 
Task87 0.026037953696494403 0.046226900007497934 0.1364661077100496 0.08686108531467565 0.7337181409357644 0.7848423021414066 0.944404603254992 
Task88 0.021269112345196704 0.022208736909612718 0.09040052171904908 0.020563097088505535 0.30359350568098514 0.341223439478732 0.4899018316189937 
Task89 0.004827673603667936 0.01634685023344379 0.059644082836991436 0.3689772627455712 0.618653004922097 0.8178150147154595 0.6530116076720365 
Task90 0.0020554523275864455 0.008211807550510274 0.010773599477846585 0.005845967429085877 0.881478042359154 0.4377755410119484 0.5272193470347701 
Task91 0.03386930587148141 0.19302175512255862 0.10631759760949838 0.22045208774108074 0.5658114851248337 0.6206438881745973 0.5842350479920163 
Task92 0.08714092115549779 0.2557457329246789 0.3463552660448755 0.2754859464180176 0.831683059334138 0.9504872244574922 0.3268816994728492 
Task93 0.011671211630004927 0.17801585374485684 0.011412456823752196 0.008444753062163043 0.63948704750396 0.5324923021289782 0.9976579575256577 
Task94 0.03354665635666803 0.3655257079693094 0.16290510401916866 0.11827562742599962 0.41334387093962255 0.7885377362546735 0.9342366593291112 
Task95 0.0470319901861295 0.024348241302202617 0.4444004062700171 0.34947339922257 0.5446945051769113 0.5054847350551832 0.9919130797123454 
Task96 0.01674222869928924 0.1008771955294333 0.14267971333252927 0.10066699284701619 0.4692883230812591 0.5267687810882438 0.4641619602904797 
Task97 0.12935848750344048 0.19402472965508025 0.333766021598995 0.24026618877359027 0.8738122660954002 0.809055181257665 0.8841390093999244 
Task98 0.01753270935408586 0.09184423140795694 0.08133145421506587 0.07862499266097203 0.4515975644219795 0.40510247353195206 0.9759744453587418 
Task99 0.012421142920093116 0.052363703212344355 0.09934618679338932 0.021424601757441042 0.5150639470093452 0.750102177546365 0.6421588019529534 
