Task0 0.004896094009262533 0.03293287889376606 0.17531509251643385 0.030649479962065428 0.512589850105487 0.5012559867236255 0.41973963899439065 
Task1 0.04076217396666174 0.01940300431066891 0.04744709330511985 0.09783777309279047 0.9460492051955716 0.5508335483124862 0.607970239536026 
Task2 0.03358571657853213 0.19813463468199996 0.07660031741452408 0.2486829448513869 0.9978736077419297 0.43888499779045625 0.7442500746221588 
Task3 0.12754756675098045 0.3848677153529397 0.17689250095605694 0.21819476913623592 0.8595397295752756 0.4679206799563136 0.4051773370969075 
Task4 0.04160837454199097 0.13489386552531993 0.35862626112728696 0.20851891576995366 0.43664185960204227 0.6798611333660793 0.5624471542727817 
Task5 0.01703694788285405 0.28175749250612486 0.14354698364000845 0.24546490819965633 0.8560798580670608 0.728714254945061 0.838829724566942 
Task6 0.015281118550517796 0.06835926093667992 0.08418091957384645 0.04379832913337211 0.5320439404353098 0.7313750905110494 0.3953225310992477 
Task7 0.056282719192962585 0.01881305773536863 0.3232664294211731 0.1822810890298486 0.9951205570833164 0.8390047014798017 0.39933920945230844 
Task8 0.0087258303395231 0.25687189869691496 0.5709237000984116 0.03623488422602672 0.4386909335980148 0.8578307603129487 0.3844314763617638 
Task9 0.05021041457653839 0.3858760593776114 0.40999915808496196 0.007851073966763343 0.7361836332106513 0.35285443513179127 0.8518664332676671 
Task10 0.047681904125453284 0.030044493602146217 0.11246440473769183 0.09503123689838941 0.8856473255058976 0.398607379164544 0.6695830721497006 
Task11 0.052050075836266856 0.00539942750867993 0.29123965467148144 0.25319134462242016 0.9369412411843265 0.38077605839507034 0.8039653304801906 
Task12 0.007814844684084863 0.38677565312839624 0.24136030994093435 0.09834138511614952 0.7493745613580997 0.41862132229793303 0.8565401398174735 
Task13 0.04281357268310959 0.06364627346249498 0.2645541859477497 0.27885163891074305 0.7273217726547709 0.8362627917266945 0.8195772599468549 
Task14 0.009100173580586438 0.017611592236039236 0.01695304332101333 0.006189949920327657 0.33202490839607823 0.5451692080218922 0.6584760670832639 
Task15 0.006939113306793833 0.003533962495627205 0.2776918137878029 0.26859001903806995 0.7092137014876334 0.8141772949110153 0.8566310530717907 
Task16 0.01936693423887793 0.0730730361179508 0.010929744801259049 0.01821517711707146 0.9569145143886255 0.7646178777944326 0.9691850271094233 
Task17 0.0804350541574419 0.14826073895427958 0.07941942453043367 0.09605971284270162 0.6731513753510341 0.3887153780820531 0.5234367051583755 
Task18 0.11996725949317477 0.038146570991137246 0.5064913627652535 0.2894864774512156 0.7937226710054963 0.3885218357652516 0.9525030787738917 
Task19 0.03900514935681363 0.048781903582681814 0.16942149571493734 0.05032566548629246 0.8914560329514123 0.991179279866012 0.6846532641958658 
Task20 0.02231142688504174 0.5982701363795874 0.3704002872272978 0.0012341864206175022 0.9619406898793144 0.35057981437416674 0.48742071416183175 
Task21 0.0715697739772457 0.15541912975175287 0.14551288417755023 0.11744153891913152 0.695488276206416 0.8195526800344917 0.4862384803497848 
Task22 0.006790381847061745 0.3199700119590621 0.28754168088167864 0.2879888798038716 0.9074459361954847 0.3667241763551163 0.6974781431873688 
Task23 0.017214404523586052 0.12841635521908487 0.08542318555809046 0.09217835844799084 0.9097876468498283 0.6125927739887783 0.4252395530111199 
Task24 0.028307480221442083 0.1542742437159409 0.15085951776955472 0.08908604947014684 0.8322221962601029 0.980377944270616 0.7802850917718293 
Task25 0.12224977933671158 0.5425664528829861 0.0023171527625707408 0.15630771513519734 0.34118285786149133 0.6785290099215812 0.8590779292415294 
Task26 0.1359238032189589 0.26709133840481364 0.1239122875298245 0.1657988952778944 0.5285216188116728 0.44695536999925456 0.684690542024441 
Task27 0.0557863805113264 0.1516793925694556 0.2081891601967092 0.14628488233591794 0.41169427094180755 0.3611539587992212 0.5923169887298463 
Task28 0.0423324481634114 0.16667890075323394 0.053492275798125447 0.29429406904551353 0.7688053255797734 0.7673794050746492 0.3270008811864001 
Task29 0.057288267378735463 0.07345106344909355 0.4983330841723369 0.3129178271775521 0.7595467097129376 0.8177105813786358 0.5401174717580428 
Task30 0.13915825578314367 0.17345365641998384 0.1498541832937711 0.2343921055935576 0.8594588619228052 0.4985997882510369 0.6831365056782683 
Task31 0.03973862769272905 0.327569507134022 0.14598323065170177 0.27878803285257464 0.577401019415682 0.3342443943321167 0.46833532303910896 
Task32 0.13320881085893765 0.349476923052069 0.3096927280366331 0.055950571688768345 0.7827707251863565 0.8370040625988402 0.5441972429499237 
Task33 0.008794777335783727 0.5295228708859725 0.3134197364818784 0.012760866570436586 0.846748516566999 0.5347966626906184 0.4100130245151044 
Task34 0.19379889829288713 0.16926418390244052 0.1639263852795878 0.4551160513527249 0.3247721085505287 0.6364985059377957 0.5203245408444346 
Task35 0.07123380133474641 0.06633091170533308 0.26880774759124487 0.13999313738543692 0.6130477245512886 0.9206963513577187 0.5868888260074816 
Task36 0.01488894076982866 0.06932441925911555 0.07312478867538627 0.02580905158944926 0.3664832424382602 0.42951502246795614 0.9771232437784736 
Task37 0.08477322226439388 0.08688439459807988 0.1515216986758902 0.2999659249566818 0.9553233343326599 0.47086546929649653 0.8861558173249524 
Task38 0.0022722388197285457 0.10004652741175542 0.014354895087904407 0.12803066173277167 0.6328362566222243 0.7959608906959905 0.8875255381951654 
Task39 0.016326851652198826 0.08148784218869742 0.11130071733234076 0.16583817318551594 0.3378672042648324 0.5598588283936197 0.730823163239761 
Task40 0.021112009811021192 0.007271761464514764 0.050743359188197425 0.08680151749688307 0.8825522896698701 0.4160702823552846 0.5663523494698023 
Task41 0.01261880261411417 0.06694990567536635 0.03207400457590133 0.02492417817131411 0.5935081521041358 0.3180890390007665 0.990744824210251 
Task42 0.011630303896544592 0.022149888763088644 0.046008032959294405 0.008329262977047258 0.8689146021321479 0.3516144905611508 0.8435837759287699 
Task43 0.024825717165224578 0.06530394366942935 0.015502742089074843 0.0988645125873864 0.3408782554590197 0.7345786246663948 0.6519920629664302 
Task44 0.017995119796201057 0.09747611140584095 0.10362562253752047 0.08938228181073189 0.8139179465558721 0.6151124708731881 0.5882609669383054 
Task45 0.08463521538033945 0.1239138659383355 0.3530246002364346 0.011565076990431888 0.4538522753523566 0.5762415698002796 0.7415718469630319 
Task46 0.043742370431396733 0.20533437281762917 0.4228900428231179 0.15254521758539133 0.595754177719443 0.46822593555727543 0.38450465366839826 
Task47 0.006309268443420389 0.08494186628060008 0.18960568302371644 0.3535123315093462 0.506610509718359 0.3884012454224135 0.5243847278754765 
Task48 0.0644374723728746 0.07079400152000784 0.21371091352050864 0.12661380384558857 0.6455117587166441 0.7344495782706256 0.3347344559168928 
Task49 0.0031645724664541145 0.08608057870419276 0.006096606923444873 0.05584177981763603 0.8162909553272484 0.6228940085225896 0.5255368606269051 
Task50 0.002770834955418541 0.25595899074547934 0.23794647347705492 0.11296623974993036 0.8704507234274412 0.41223192408600784 0.9967730830482968 
Task51 0.053498129698227224 0.33416594785969045 0.30222362052358237 0.2644859425340131 0.6377670004260263 0.6527751034150768 0.35314168467534723 
Task52 0.04359123666333969 0.05044460435138048 0.07119427147361893 0.05423955137886556 0.5830767244581225 0.43023316923158084 0.529721322209508 
Task53 0.023608367267739207 0.015216167940880918 0.06346892386915003 0.07320050242702364 0.7058911910384085 0.5263600395149632 0.7210402810356821 
Task54 0.1067840771263261 0.3106603329952359 0.3215785055396834 0.021760140066711224 0.9846592419993829 0.7441159712794736 0.3857047175941551 
Task55 0.039677068649378436 0.07074825168480026 0.029147603957853832 0.7237088510809916 0.47768212021956535 0.33458379839308305 0.6308412599205411 
Task56 0.15834638685335828 0.10759674691643666 0.23226010973191624 0.4398009272538094 0.5346009424141581 0.6771885604568693 0.6912018032431393 
Task57 0.10149335679603397 0.1844398604716641 0.08233542033341226 0.16922221209277005 0.37818385966473744 0.4623745493673499 0.8684532224259065 
Task58 0.03418291357297511 0.28811084993949765 0.1251937493604191 0.14941243318932945 0.5221487025267144 0.7003678461149347 0.8920120896062278 
Task59 0.0019929087399657834 0.007603131005361167 0.00334538557726019 0.00029135508974808156 0.4980227716108125 0.7009753191405057 0.8338013114859875 
Task60 0.004992647055003612 0.09039806501417087 0.04913219876894434 0.042114409875926545 0.8352953801478917 0.7962607857037383 0.37806818762230726 
Task61 0.0003240383143767599 0.255280157422537 0.2710434124224948 0.2898065011888573 0.5408684948064544 0.8867371032783165 0.42816744446081145 
Task62 0.033728959659575834 0.010704372205518358 0.1472104483872796 0.16949278585359798 0.7777780541793153 0.8420248369088918 0.647967128993972 
Task63 0.010609603520606005 0.009652516076221515 0.04072865576537625 0.0029362979188842695 0.6105773525585549 0.9459178058621383 0.7242634238254515 
Task64 0.10058115419561367 0.15656621532125012 0.13000227121875207 0.32931217895442094 0.7932891879056505 0.7702064430567188 0.47893449313731956 
Task65 0.12967171825579382 0.31658581462319463 0.22764869395021917 0.29167464607479676 0.9408604051793819 0.3592977249854812 0.9719996981251289 
Task66 0.03394217677957052 0.32289397695359123 0.2357802355276277 0.2459395956731912 0.3612919652504284 0.6261698514358469 0.7680039017206173 
Task67 0.011236986258589397 0.11602202523399592 0.03661124496584496 0.021261475703338736 0.4792102502702354 0.9496116516765725 0.5586205623886652 
Task68 0.12365025407590065 0.18705387504351306 0.08869382200281693 0.36858266764630593 0.5937379266796508 0.9265910343155548 0.6747919332836264 
Task69 0.08522706007422445 0.17214508154178512 0.0003866955517892058 0.2821236609496526 0.9912207541814928 0.49647984418193597 0.7594624727784869 
Task70 0.15600249469016164 0.21655731371576922 0.6133145330085717 0.004925409081319243 0.47069159871346056 0.40015364924496366 0.616732883707265 
Task71 0.04891236660077465 0.25295209929191015 0.08056657023859373 0.19854323093846668 0.3395588462260801 0.3939113378960224 0.7467213100160783 
Task72 0.08264188710008855 0.12796365641873791 0.21647267986114513 0.051115221821777516 0.829903998325036 0.36058360120791055 0.3855985059093045 
Task73 0.004815014900264036 0.04166508126130486 0.011051214243897909 0.09658433602003955 0.612607533698507 0.9119219410197024 0.3944938166213165 
Task74 0.011975790460839377 0.043641087680373926 0.006982435255476712 0.007716005760406425 0.9561303892015263 0.691826516997647 0.5908196294284156 
Task75 0.03303189119237047 0.021864449027133925 0.07750339945711766 0.3637517605445386 0.966973619250654 0.8880888390731867 0.5068995304970277 
Task76 0.11431501306227317 0.06150683734414425 0.25603771519336194 0.26571310605846415 0.5079454690296912 0.7618949137995152 0.9783135254219335 
Task77 0.1647855130409945 0.3527746787290974 0.09520886681379083 0.3358589015163181 0.8059360942354963 0.39956419286992867 0.30430012492414404 
Task78 0.0012140576928414202 0.0603372877091183 0.03732363153096569 0.018620112936943264 0.5980454402402527 0.8613729911622487 0.873244360628394 
Task79 0.057804097123271024 0.16241031289623245 0.10480450699362515 0.37624553887903384 0.32201029576020573 0.36970210615553384 0.9977854979894238 
Task80 0.1423942790027488 0.1422775449653555 0.14809510365914258 0.4742431175413698 0.5592960253067576 0.8290703600565246 0.9768165047044219 
Task81 0.020011472317112068 0.033863085184858394 0.04054365167902914 0.046255648211678074 0.983730772049143 0.7365222179319237 0.923637412027448 
Task82 0.019353256663645155 0.04651693796445136 0.02409640176898929 0.012345677932639205 0.4966104339495884 0.6719984076149526 0.3147883248028833 
Task83 0.04557202829627448 0.17177937071867394 0.018739389091340104 0.3031322382337726 0.5104603845014959 0.7323978053998341 0.9743861648926426 
Task84 0.017441964079942203 0.005721257567179047 0.08996647707017597 0.01868640385687099 0.5360411512188005 0.47195236200108653 0.5131147481033552 
Task85 0.05187020683672177 0.12901224337504646 0.0028670555452789646 0.10638686229795198 0.6406259763680233 0.9414362298390775 0.513111437813487 
Task86 0.05596914025553387 0.2516525831826585 0.2046838299665345 0.055673838677845255 0.30180412985564337 0.6646024324634577 0.3876307980751583 
Task87 0.0028960721815251183 0.06675926557228522 0.052579215918421754 0.08090001380795901 0.9538833467271335 0.6371114538385367 0.31906697504179565 
Task88 0.008191697420643712 0.18125814897894604 0.31485160272910534 0.38059155510255643 0.3276569064681112 0.600375567377528 0.974799356718596 
Task89 0.03175555220999618 0.37574839726412174 0.07885866147741777 0.45451764824143076 0.38292944586607147 0.4149812283028459 0.7218152304901677 
Task90 0.05162532129843676 0.06858420334609534 0.08238985078643653 0.0827703793016927 0.6354990126744035 0.7777543764390555 0.7498182382193226 
Task91 0.049525469874264226 0.11619030395899889 0.20686175374734578 0.2175723990388562 0.9256774044739893 0.802515482772161 0.38628823430855225 
Task92 0.013858879077871079 0.058831333219297614 0.07013188731657934 0.2666850026942978 0.6060824677985428 0.7315270071832812 0.5715396835085733 
Task93 0.01677354677624596 0.018072956896244455 0.0679533534187578 0.025252003514659012 0.4872116977001224 0.7372632553746898 0.4074574358390443 
Task94 0.08036383331758334 0.04825768178491117 0.29054613006385693 0.07994082519405785 0.5228078116853562 0.753455102508234 0.8463583191003194 
Task95 0.0016327136698257249 0.041300185132274146 0.030438092446199883 0.04089094082668894 0.32405906882133617 0.8379556218300832 0.35756211259091 
Task96 0.11288759976703315 0.0839256997901714 0.4340700265706054 0.013947415472636886 0.640719760666447 0.5419972010339448 0.6646196107003559 
Task97 0.04697623118591831 0.31991190551256193 0.17894597070143 0.17700447153141793 0.6366589351409576 0.952232824989721 0.7945424092045319 
Task98 0.06938336271277179 0.21053492396607543 0.3033928071246337 0.11430919695494833 0.8882079557167848 0.5171461273043434 0.7816209729269326 
Task99 0.04972663299605837 0.12406888981239533 0.32900971666560763 0.29329219437900333 0.635997740804839 0.3065457404024819 0.50855076694045 
