Task0 0.13927218400193872 0.41306107532211 0.25735223164580345 0.17915041246386126 0.6811384419149784 0.47552978746968444 0.7673656910326399 
Task1 0.011799908901576613 0.054916233920196074 0.08020280745070942 0.09623845826684824 0.3892438116953564 0.44495100171041047 0.5603266317983803 
Task2 0.001720173523993376 0.005474071254872011 0.016745605284597297 0.0177679253708216 0.5111182700614156 0.6735743077212921 0.7471679162690039 
Task3 0.035913294081426086 0.20176892495659288 0.12076817661418325 0.23392203820443688 0.8048138305891552 0.6433432048991764 0.6122760968630243 
Task4 0.1602904505410181 0.2814742657503921 0.27873947530623905 0.2596098215612365 0.8681943192887387 0.9036809003264454 0.6374116095123563 
Task5 0.04670255859880628 0.055362855147596236 0.07044516851858398 0.07163696221687313 0.9959610541728925 0.8207706100189212 0.7659986163473831 
Task6 0.04819631342189021 0.005097027074702207 0.20766251182898546 0.011162156196756427 0.5751095303098428 0.7309398012615007 0.8154624821968037 
Task7 0.0369177863032605 0.2583878344412077 0.3509083413617179 0.1156244878386615 0.9663939778198571 0.9657084849496209 0.9879921762342285 
Task8 0.0177775215644444 0.03673962622955765 0.16544234135086078 0.11139728786903892 0.8644549549302856 0.39487136601602485 0.4126795546183712 
Task9 0.0472203245221825 0.09737714729580106 0.10586752827240159 0.1300843162319682 0.40002830788677696 0.9786374141404008 0.5504505141470846 
Task10 0.016151816716155405 0.1288448281645898 0.08140148156656389 0.12500704579361205 0.4777549334397482 0.33936742338334785 0.8138110068576714 
Task11 0.018949487445158703 0.023684865478175225 0.056801081454016515 0.02028496839392959 0.4260461685629512 0.34594422101007366 0.7708379771255742 
Task12 0.07816413310819208 0.14489380246926523 0.09062982831270021 0.09161389910217808 0.6454078501200944 0.6055997666116744 0.8229814422604851 
Task13 0.07767210289335919 0.3903619519985508 0.2036025260510351 0.1838274043113253 0.4564459960217351 0.5002694178676482 0.5081854247719964 
Task14 0.13840113476348095 0.20593083586988703 0.08925336567436183 0.27997493401294055 0.770847253606165 0.7351468394478256 0.5480932625460413 
Task15 0.002365799784859507 0.06391031984799944 0.052690967839986794 0.09530038704772607 0.8967276432280855 0.8104914776950514 0.979493584458053 
Task16 0.09631070090756345 0.04807166412217158 0.16148812660859319 0.1832332316326985 0.5459965658500678 0.5523556672693894 0.5728058265642597 
Task17 0.04496168706937137 0.02574299404716856 0.09546577537773186 0.06951327794040892 0.7589201198909162 0.9168631855521359 0.3328677110376897 
Task18 0.08947566912744016 0.19698634059059267 0.23046857668603113 0.07054213878848051 0.6859394106702108 0.9982637734612241 0.33861254179212363 
Task19 0.04841770674041753 0.00427469506903526 0.19079149372382956 0.15344039223033584 0.44498300302787314 0.39614249474979546 0.9337239414182774 
Task20 0.07373941864887905 0.10129112319521205 0.34973501024200526 0.40284612445964757 0.409642414884843 0.36873824823733586 0.8675813587127967 
Task21 0.061051681906325615 0.24118572303733118 0.35747846473012934 0.2392121713870838 0.9971452225650383 0.489019798180259 0.48288754332408945 
Task22 0.004899558008298752 0.26511757478155373 0.2551455918209147 0.061871888133934266 0.4834708668624689 0.331724892334166 0.7471243438613954 
Task23 0.05002545116463919 0.28330513371736277 0.24714267906367615 0.202122256254293 0.9359900304082569 0.8951121942493054 0.7435938167555374 
Task24 0.07731179171308343 0.21687423351758578 0.29230859057474995 0.19279686346842534 0.8211810560442716 0.41289982665552455 0.7547914125949409 
Task25 0.08538005692769855 0.16917350957408755 0.31537232182823144 0.23168743325085012 0.5410565667766136 0.42214372023079666 0.8667394826246391 
Task26 0.055599952402973 0.2497970418879001 0.11422320104935013 0.13807912291208216 0.988731288141532 0.7589062897263803 0.9221789161647711 
Task27 0.019146489589618097 0.021363436603924785 0.09487162185893194 0.05438261850788061 0.7633670329211015 0.4649823508009869 0.31345740042227455 
Task28 0.018992941945125623 0.13003405422416786 0.2166142467141792 0.011353239850488004 0.6664962178695432 0.9755992324905602 0.579858762744045 
Task29 0.1274231756815148 0.515278355760478 0.06454996810795564 0.10444278213452612 0.6921461742044417 0.5866355163996304 0.3249704774313455 
Task30 0.1570867692684899 0.23219645692961102 0.33611626420623275 0.0837561779753266 0.5371266478165287 0.6319734389793333 0.49623499375164953 
Task31 0.010455150818489262 0.034258481875434774 0.022890101255003265 0.0036399781061777392 0.3109486931333336 0.4878380791205119 0.6293740343610785 
Task32 0.028883280855551977 0.09471387371401911 0.10935329809790031 0.04712250464352449 0.7848409883285499 0.7924954029971287 0.7704510192680765 
Task33 0.08056712144742385 0.19728809031036243 0.12383090492841091 0.13303917038726268 0.8169379875868599 0.7313200327907322 0.8076411083184492 
Task34 0.05117289267526574 0.24163324181537923 0.23670556400520493 0.15832068495455162 0.7963354683583098 0.6347664393271472 0.8820469037394656 
Task35 0.12733232718703127 0.17738361116802204 0.22264061965926885 0.20754344656601065 0.5636298318856791 0.5600415095180162 0.7836933131064585 
Task36 0.030936914607204193 0.028300605055457912 0.05008335134577896 0.05444206504015462 0.5486255742363264 0.35260038689553225 0.7676116322086414 
Task37 0.02099281897261931 0.14461502816657412 0.04973285476700933 0.06196887357513895 0.8495801057987025 0.6535877694439882 0.32173735980521306 
Task38 0.0915385990265266 0.08456402995978952 0.16590794963225533 0.15133721946384598 0.5135376049285472 0.41458283147782304 0.8379328420581313 
Task39 0.018159013039194608 0.07253331550483735 0.08815712752602052 0.06840846857730751 0.6335696511695516 0.9986065445656331 0.34319595098257194 
Task40 0.1410379180350157 0.009815383634585981 0.2975735870155952 0.3212091811489059 0.922573997908285 0.9212929454077916 0.8245847577141963 
Task41 0.0660467944014432 0.09217760438973713 0.13461152008453803 0.10023649972858192 0.7779643982566893 0.8017857080515607 0.9285935359911255 
Task42 0.15929430454923593 0.10783256386222027 0.22701052105080824 0.38303990785949854 0.7171520086877367 0.8078589499599944 0.9908217650019819 
Task43 0.1349726120680574 0.37713854581984396 0.15755938649321793 0.15816438854029036 0.44732536644784615 0.32294761625351426 0.7315939523638686 
Task44 0.14266315595178183 0.4365525109680132 0.1325892277207515 0.21847694634616172 0.7436259826974145 0.711563819554722 0.8828732110917306 
Task45 0.03410457501528736 0.03727597124766055 0.10005651708208665 0.07299422520434998 0.8183901976500512 0.9268799513979882 0.8047519199111601 
Task46 0.052092754591468955 0.2461052487018154 0.058597526314684484 0.05214165703246435 0.8494686153824706 0.43245670618496523 0.6379492126136179 
Task47 0.06479151306089077 0.12877254491703144 0.12160804673272627 0.05043465852260478 0.8392854544196131 0.9802449806364395 0.58040390433749 
Task48 0.006478201796605051 0.2970135508184411 0.1710477679907585 0.20232495794363198 0.8301841440323647 0.49031375931191096 0.3466697149078871 
Task49 0.016482987271732738 0.0715363181966351 0.26374732257166067 0.5060880605256846 0.38336999602214994 0.941887427909935 0.3223882975647232 
Task50 0.07768396599519126 0.20187753752602686 0.523971212890067 0.1523256397325567 0.5726062970839377 0.36427917955248146 0.7982933097295253 
Task51 0.000678465459965015 0.015767160398813058 0.01540988841109684 0.0074821389045826745 0.39679698206667324 0.5505152508344437 0.9167855170641837 
Task52 0.10903300742744443 0.053348756371604654 0.15174036259964596 0.35659115577646366 0.5939891755114338 0.87839296495553 0.5684765755358239 
Task53 0.08233264864440203 0.04915182225588106 0.4289663537470272 0.13399795630775907 0.970476964238159 0.6833629648268272 0.5690574581136734 
Task54 0.0515357888917591 0.12330013593697312 0.07768678993407378 0.017703619865089594 0.5492226218861048 0.586014147326251 0.7729740886702892 
Task55 0.038095543418305546 0.03505059308627825 0.3570551952546539 0.16406775744190988 0.7000468703993034 0.5842535371369793 0.681099734706567 
Task56 0.05088127267902243 0.2472195460188123 0.28660472073139237 0.34607819878096807 0.33568199717472536 0.3092915167197074 0.7425920855886472 
Task57 0.040736940932690396 0.045431832665031896 0.11097090343718288 0.017160433756966426 0.5872365435187716 0.8824662659783618 0.9570523213934601 
Task58 0.011598499979116715 0.014996385370594502 0.02242128841266333 0.023130366649596116 0.7826895000513909 0.7574976926356074 0.9735755089668434 
Task59 0.058895452340562766 0.07728196985049854 0.053469485908114574 0.10623112514189442 0.5372739941730701 0.674913990125102 0.5132777914561036 
Task60 0.00010691737694658558 0.0012717972984140015 0.0009762896386377395 0.0017745195647431104 0.5975468355685196 0.914069671047697 0.3972533674853701 
Task61 0.05715723233787816 0.11681194050913482 0.03837334225177126 0.11516753031473378 0.953733910006924 0.7624608393114147 0.7424608312447347 
Task62 0.020840769194121655 0.019263635804254244 0.035139150986592455 0.04115098975282549 0.4657665598209678 0.8265575152155094 0.43276601064025805 
Task63 0.06687014616459198 0.4555211155776986 0.1190651580873462 0.17641242412537989 0.8075163638972822 0.4482650852374559 0.48939386852151334 
Task64 0.10378703424171233 0.14786283586795473 0.4194997429419554 0.1979809877866758 0.8758478099429079 0.7142741970337745 0.4543504433033707 
Task65 0.12764743389877317 0.05839837618075675 0.31018767855843327 0.22833478151589418 0.9095337886112069 0.31456093799803886 0.45570107489756134 
Task66 0.017730810978708954 0.09251917963280969 0.19177810642247337 0.11783292018807658 0.7536790691194462 0.5173214285989298 0.5852239744106004 
Task67 0.06389584608308826 0.2637946077679968 0.10952328471983268 0.13948155479959773 0.8170109452911867 0.7449256674608788 0.7939264820047558 
Task68 0.0014156116052245343 0.003654752894801794 0.0018254499628943964 0.008706377065524606 0.43372133229306964 0.41413356764996645 0.32870947089809854 
Task69 0.14046292051949827 0.30191732106841673 0.37210211392804904 0.008309900260099928 0.3592503281789728 0.9276392232136501 0.31248285212761173 
Task70 0.0015524714816981065 0.004328081673652645 0.29214906063456403 0.3016540150936799 0.5807057031645342 0.5932191028342859 0.7127582688513174 
Task71 0.017807527044831573 0.18035245961765453 0.06825925772037648 0.2770042209565674 0.39837453783390553 0.5454091740540659 0.7687140484796436 
Task72 0.06541739188366434 0.11469939311415592 0.5231173140423164 0.09322167418020817 0.8373106660219447 0.6220249629082071 0.69685014754186 
Task73 0.0948999638934353 0.12663912347964684 0.24937735576034747 0.06511004408456775 0.5905526378165811 0.7359854936839109 0.7683717464115392 
Task74 0.016912370854619687 0.3359760046644225 0.11841261268564972 0.2840666722031088 0.8215156955525118 0.6929588436057212 0.4141628087783988 
Task75 0.04267919935023384 0.0064212329947966615 0.33130110030071647 0.23043420354815322 0.7079207461227726 0.9158282265257649 0.3792057733437747 
Task76 0.005455330659468146 0.1315969526748614 0.09008970341953805 0.2346246916858622 0.5641315711466242 0.9308943278859452 0.4556041172465759 
Task77 0.06399613229501662 0.3014186075275788 0.23105540567669847 0.3613956403076914 0.7768288991453842 0.5373547708916999 0.527890840420248 
Task78 0.13913369073562418 0.013446850753274122 0.28009805032309065 0.39091196057695654 0.5819925799365266 0.5292146509485286 0.40915208189334246 
Task79 0.08624485567068904 0.23458845277447218 0.1576420420175566 0.0291195900568615 0.6520917813056051 0.9959527193146847 0.8895550278810382 
Task80 0.14711133717795363 0.362991063588935 0.23031273607864172 0.2589730187629673 0.6238724737796801 0.4873341465357672 0.30604997694725644 
Task81 0.026782910783549455 0.09751510487358736 0.0767990545058123 0.01956496711321973 0.7029142633839354 0.5759086305378125 0.3910267565035064 
Task82 0.0060912537443979535 0.16404269026841964 0.07451051133908095 0.1498635316375183 0.7359328668599521 0.3031798288502681 0.6942877990612871 
Task83 0.019832201723553093 0.03278909632355181 0.05122637161192176 0.009898765528885169 0.3741852333937252 0.8868092208859375 0.9564576032226546 
Task84 0.0006689707270329101 0.012187722041304312 0.04324899799316374 0.043101081033111506 0.8190343753101879 0.642235447891194 0.9022598549086636 
Task85 0.03569300142061983 0.06906546299028217 0.0495550590898519 0.058165496759780465 0.8566230483745187 0.9991030164573802 0.36791773766406033 
Task86 0.05752068034098869 0.12188428667470276 0.028824092515319408 0.14444833012421715 0.6310621789229263 0.3844263695750979 0.787299962804561 
Task87 0.0029152952773140476 0.0317647997304073 0.03674393681188191 0.06114776830722743 0.49320547651836966 0.7906318507847333 0.6105960432673715 
Task88 0.1585415206740906 0.10489928882853193 0.30613755872917736 0.3144667818045292 0.9279174511978738 0.6245550551728984 0.9839432852125163 
Task89 0.0014607547403321219 0.003590384887825028 0.023603222009880607 0.038771151396730416 0.7634239882158311 0.7111707217073613 0.6908196288458447 
Task90 0.027716811623817242 0.3094885685255864 0.40043503754382725 0.21792974016429348 0.8921049100572287 0.7684812214578995 0.8100038930380766 
Task91 0.06651459782381511 0.1130046100781207 0.045868225866767164 0.11152735014156653 0.48285936299906523 0.8437363780774914 0.5676533902068875 
Task92 0.03141242880626937 0.23020324165927333 0.39974811603688154 0.10540972606628249 0.8964123100854402 0.35716926471192834 0.6362275710520835 
Task93 0.02481486895495275 0.0660538851448966 0.00552292123795284 0.05356303869725626 0.5939847196671434 0.8065001077636502 0.521544122127182 
Task94 0.005099745091472508 0.06120044091817922 0.041739242986057856 0.012751140574415305 0.932925507365485 0.988282674606904 0.5097074915358089 
Task95 0.15686311005568992 0.34812984938250197 0.2829514287642609 0.12958322796194835 0.5487385883474272 0.8882705188526221 0.9383913801753765 
Task96 0.046503583169150084 0.20894441724278645 0.17144446752495135 0.2035200268939644 0.6980732182275905 0.8352092532655959 0.852818280572087 
Task97 0.05727433128015186 0.26767014987054427 0.2924592357058423 0.07574311421746296 0.6767225316034965 0.4731241954075352 0.5686736152446439 
Task98 0.036316731891558755 0.06400095278240514 0.051137306157390906 0.08767947433295589 0.4657785705830656 0.9112803572778552 0.7674101921965459 
Task99 0.1377882640811165 0.2649322725038776 0.17717468606197248 0.3045842061702158 0.8825062350262307 0.8590189989204193 0.9178659311486412 
