Task0 0.014539583936924982 0.03790395213954118 0.023633134442110584 0.05410317033508688 0.6503847670397243 0.6212297390239949 0.6193155994572637 
Task1 2.2049352819507312e-05 0.003136837893781824 0.0021677280141992068 0.004736774312060365 0.9137199792765165 0.9693426001734478 0.6253586235521363 
Task2 0.08952716207319286 0.22396327829075127 0.30315051805454923 0.06100884327008549 0.4491382115662639 0.6924112204904339 0.5702117570108647 
Task3 0.02607775451922919 0.05948453974046134 0.023892120110499564 0.04018882361012835 0.6387600690636299 0.641622631448921 0.6036270036492335 
Task4 0.07343969166210651 0.346727202509174 0.3099057523983704 0.1540020651239356 0.47912084067270494 0.9118366592536435 0.8558290091080873 
Task5 0.024613042361605376 0.005074848319131215 0.4079530443284869 0.25827356378438915 0.4410235611905021 0.8016086097725523 0.8433688254941782 
Task6 0.18124456047724852 0.14054385594046745 0.3932693375586208 0.19326921580109546 0.5689955013848467 0.6505844286959339 0.8220703317889928 
Task7 0.016273370665162847 0.1345942738975326 0.03490578061564109 0.058600933317018315 0.8524237342196141 0.3375143173475476 0.5466012883783963 
Task8 0.16553607721637076 0.2951100658188082 0.2459780314750167 0.18275213727157386 0.789785072415506 0.3507967648792875 0.9052846150423299 
Task9 0.0113460358548495 0.033205242792994215 0.024150423110770113 0.040322226267458364 0.6066712749071397 0.7513006012418586 0.6472658505162477 
Task10 0.08127389811447212 0.08848461490820021 0.25176265991498886 0.20396066683246702 0.7634939805246371 0.5270836614664788 0.5547959679463971 
Task11 0.06698155451709974 0.23869671199943715 0.24791287941627282 0.026728244708805967 0.6013590406836203 0.4447142865513135 0.8611741781827535 
Task12 0.07947024100664764 0.335792783814667 0.12414166642809381 0.382505632186126 0.407042412217535 0.8721602391069176 0.6359514966684279 
Task13 0.02363504696033123 0.10213277076561514 0.12976684100008679 0.04358501672385811 0.3846320831505402 0.8487707117026799 0.8676793038885708 
Task14 0.010815338802032918 0.04563418318065932 0.027357502708222937 0.06190876084975557 0.631142484306086 0.8313626074614497 0.34501792794546227 
Task15 0.14174969260645545 0.23395804906399745 0.32497581599595676 0.1332251430571057 0.7483001032358539 0.4524105771452016 0.761236376707457 
Task16 0.005940365926185951 0.1331695412353011 0.07206061539853423 0.23806083560366315 0.7132331571125021 0.701655289511836 0.4284348949039103 
Task17 0.01511850146354297 0.05003861082468122 0.02395540887018978 0.06455879386117734 0.4868339711042905 0.36778238862496027 0.8300822380358546 
Task18 0.04443469757126193 0.22200821573565965 0.0848140758332614 0.427259809068104 0.9083799509509667 0.4865537805912507 0.48479773722521374 
Task19 0.06148799262058791 0.04132937548264865 0.07674953537453856 0.17467234266864076 0.40569373801644715 0.7071538489297609 0.5822994520098528 
Task20 0.06014829924804265 0.21586401805786362 0.03247440682510118 0.01619467245135691 0.32378133487059013 0.34246345886708607 0.9750445285443998 
Task21 0.029219756315798366 0.2731413755543452 0.45023207601402654 0.12344649164607897 0.6915955834565467 0.35347910189534754 0.7933996398906911 
Task22 0.04525449034723086 0.07438996075231763 0.06776526451076763 0.07017379057149983 0.34259795005267185 0.6363865653267826 0.39515828080114146 
Task23 0.016948214957090327 0.04193861064985048 0.08546736595223046 0.17340970223702282 0.9031258460472027 0.9811650671680328 0.8418227019189555 
Task24 0.03549875263998563 0.20884230225315048 0.11704694857032359 0.3891641522296045 0.9511077570128759 0.8635780677754501 0.4688636602856851 
Task25 0.0169344178604606 0.0354688281804348 0.04201912843624183 0.0026812011572984983 0.8539125315167702 0.8694520306279174 0.8466804596039916 
Task26 0.024976371628393855 0.23956084441021044 0.09162687785838936 0.19101623392999476 0.660883020432329 0.4902679486073145 0.4172208371168102 
Task27 0.0757061678695821 0.062300697633744795 0.13842446301148972 0.1220324739465907 0.6132571870247872 0.4631950033835425 0.9721155020208552 
Task28 0.08815456531793661 0.15892025720984537 0.10851878061316612 0.10113539674284068 0.5081043417358538 0.9577654351381175 0.8038500595231506 
Task29 0.0167838421914106 0.006747232150484001 0.2057380690979819 0.015821130727300906 0.35784068012556225 0.8149953556169023 0.3058552874938954 
Task30 0.02870335227613048 0.10380218372059183 0.12997529310468617 0.04610317949684582 0.9018700467555332 0.9785858519688213 0.874284393685067 
Task31 0.001218236813265332 0.003635543544451985 0.0033385235856560453 0.005474098494431007 0.9965597008658458 0.7005621890632376 0.621516038292426 
Task32 0.03778791329992147 0.0357285053614467 0.5747682599896038 2.5191734244369576e-05 0.7944406167501024 0.6808148915454412 0.9532539145714067 
Task33 0.002009586401356901 0.009139088570581396 0.010978837447340744 0.012182735346657677 0.7661808524117115 0.35344623214787235 0.7307510298807219 
Task34 0.05494620910275354 0.06723741240776827 0.14978872287591408 0.1398301321300406 0.9224622531199405 0.5262924280352103 0.8912714264709214 
Task35 0.023730723427923508 0.09450566046775521 0.06927511593189509 0.07189671643850343 0.8181268937085353 0.598239056826769 0.5866352831640216 
Task36 0.015554550417303548 0.05273791854584398 0.02884790921630436 0.06509523334425224 0.4108624440952612 0.7525726803995765 0.5679099888405694 
Task37 0.012601174445434068 0.13933983002907202 0.20325880697656823 0.018074277758035856 0.745567422662619 0.5395172447983253 0.7930695751565298 
Task38 0.08587298823416761 0.20441731336812086 0.16381420825445955 0.2938378218307395 0.33070263656073157 0.41944891714859717 0.409320353690491 
Task39 0.03797183330645171 0.11057330885272493 0.12645991122994923 0.0714092617329398 0.7290790745463085 0.6075137408035627 0.6495817750852415 
Task40 0.040736960143518235 0.08897375829564949 0.04200836477183126 0.1614891329852427 0.5341014232258932 0.9801950870594909 0.3573978003446426 
Task41 0.010143269397321531 0.01451622544275729 0.01696622732686617 0.015157393792148035 0.7800066767904021 0.47597551898385826 0.7541473769107202 
Task42 0.03001377548452505 0.3318671407135959 0.29806359461436205 0.06292409656192595 0.3808930456546272 0.6078507174668575 0.6117873939419995 
Task43 0.10094112877960651 0.11294161571929466 0.3748561203281575 0.007563815176301193 0.8919769938621795 0.6876250592869606 0.3735183681552386 
Task44 0.1284736854173 0.09655578929133092 0.2533070867183712 0.24538120905559663 0.6302412864595864 0.8816563419535752 0.4606706804909205 
Task45 0.14355982266183087 0.23655186014024307 0.15593148353856442 0.24099259028640482 0.8077660567242662 0.6424502736504405 0.4265140524120218 
Task46 0.1237632393422802 0.50322519102202 0.08399718732246526 0.2866405017405236 0.8338697773309265 0.7654785106512381 0.7844991686966205 
Task47 0.039961278207744894 0.12502618078622543 0.12447944773060124 0.1935962475557212 0.5233163173546619 0.3067483803061653 0.42925130977363585 
Task48 0.01853319588378037 0.05873575133242115 0.22644124060555673 0.13311660148614748 0.4866700150696146 0.3113655603023656 0.3441086153270988 
Task49 0.04329750987894439 0.058843633775730785 0.13704720594621633 0.06941869067998899 0.6641203232413538 0.7091148116509913 0.6342753128868523 
Task50 0.016167639004166134 0.0743327463941064 0.08478020460479194 0.11555663707481881 0.5273269463649347 0.9129869389106906 0.5058753270045429 
Task51 0.0172538813860588 0.027225717092196317 0.03414842015935503 0.018703849589305384 0.5239160297610521 0.7760566495487159 0.6344410381416917 
Task52 0.00043238388145685976 0.011967889436299015 0.0069530796128514484 0.0026077022927631175 0.3831497433414966 0.9163227825191393 0.8896145214698659 
Task53 0.07478348985099628 0.1571087054316469 0.04039529574375084 0.18016431914077088 0.9132907853987176 0.42597774035309716 0.76372044621682 
Task54 0.020042650785149517 0.039633376393538595 0.09232753590918266 0.021904627155035387 0.52724945933278 0.8522005833636872 0.9623176719379534 
Task55 0.0037494976514696444 0.0203747469040513 0.10127609111490203 0.07914440558858991 0.38954399044528953 0.7155829950628083 0.6823011375876029 
Task56 0.023840338968540934 0.37611441029255627 0.016050966900377307 0.5563509247256057 0.7820431350426074 0.6610301745572136 0.9060296092923725 
Task57 0.03322846935324319 0.24092031502323655 0.10131065797342124 0.12504365212828458 0.42081677589726074 0.9139108663030595 0.3809983448177843 
Task58 0.043662970296221376 0.15115760379185436 0.20955454574016563 0.5148854853617101 0.33883102731528647 0.7762345078176544 0.47042997032234335 
Task59 0.017695242178380012 0.4130911981368676 0.18944381867540916 0.12142077612701022 0.8459867663399732 0.4301070869554663 0.36312983128905807 
Task60 0.09243146236587578 0.19431466143117399 0.34177597263579734 0.1406558667462355 0.48349016590828037 0.7027828085906904 0.734692066885239 
Task61 0.01858655846465606 0.17719144528617126 0.08845026494265534 0.16415097168041048 0.6945631574883061 0.9053731324782099 0.4259221650619134 
Task62 0.008545534831866833 0.012297868792958572 0.19835357648058477 0.2866868647527399 0.4978923475231351 0.6545403602620865 0.4766541047795785 
Task63 0.02717349648912296 0.04366926656867109 0.011644538314112784 0.1309867333519314 0.7222550465351867 0.5880001849678107 0.33339959088305415 
Task64 0.04364035175705334 0.2255986827981315 0.20550680758008094 0.20361552417477105 0.79711842411394 0.6245957755500604 0.6392012223717065 
Task65 0.03941533245087251 0.13042937333056362 0.08012882790353767 0.05740031694026257 0.7193693276346758 0.9405824693893803 0.836655044201631 
Task66 0.011385342809232873 0.04648759749138663 0.07496914173274295 0.12927606138921788 0.4681914057399419 0.4127242435290437 0.9351963081615347 
Task67 0.0013750489576332165 0.01230063956733051 0.02153699353925232 0.019866074693244383 0.421795656743457 0.30646494040894917 0.595075048227421 
Task68 0.017670429506572858 0.32920219054142563 0.04342496810290656 0.4159090692295599 0.38087639762776637 0.9780732795543527 0.6892671245448876 
Task69 0.0020910750705220725 0.6469500581408582 0.057175888128805405 0.22284702169677345 0.8783753984481961 0.7522588881967738 0.4536593885026377 
Task70 0.10242948564866461 0.3086035004422401 0.23937231420547778 0.20260969934521697 0.7578906207749972 0.836146388311787 0.6825152176845093 
Task71 0.04300699562577642 0.0034743522808968483 0.11775709124598628 0.1837973157894669 0.8636466734192165 0.9299128452385514 0.5990526533835837 
Task72 0.02749233794667509 0.20425935209184662 0.12107522146002571 0.14116893178859674 0.44437222203284 0.7698096432694268 0.6709565962296089 
Task73 0.19186572869595234 0.09130144472533197 0.31595037314956786 0.3867178550758013 0.9852082952202881 0.7039540965561264 0.38081973284013926 
Task74 0.015402346416283482 0.13805146033381913 0.2203226003279463 0.09015555663289937 0.7103514462258438 0.9698906044090496 0.9851450352335676 
Task75 0.029929293206696884 0.32233873835226046 0.08777466096694041 0.34953158941369594 0.7578164005798866 0.5826762451218253 0.9632608562953437 
Task76 0.01940445969261316 0.05890500285539368 0.07701579628892234 0.07544490873225913 0.9657929394749549 0.8745578060408157 0.7377812843361604 
Task77 0.04104799176160263 0.14861206380429773 0.1369255321729816 0.1225778059864375 0.358838059065467 0.6875722296369833 0.9125840724243985 
Task78 0.0047529521398308235 0.22180004008288526 0.21916074543192937 0.17908233556535852 0.4803773843001709 0.3173060696966316 0.4217033678178753 
Task79 0.10184697243895326 0.16092544797447486 0.164582106302722 0.0979409500923424 0.32513077349361486 0.7083441605593336 0.31447084114069307 
Task80 0.026586700233415615 0.05244792071924807 0.1342597335566776 0.16380211102779588 0.3678127172204667 0.8622808297786277 0.3793905570143387 
Task81 0.11616346212044443 0.11744617795140391 0.3419534232999669 0.018351695670615387 0.40004621978264776 0.6194657043990679 0.9211630182632504 
Task82 0.1056904390363705 0.17034400876971606 0.40939349263495234 0.2714439480216014 0.5029202105518055 0.7134477013250979 0.9432381225516413 
Task83 0.02657021720011528 0.005648053182178507 0.07471271942180577 0.07023311318909264 0.796005326499146 0.7077235596830422 0.8671191284999153 
Task84 0.029915715870581578 0.11799479346728277 0.12495583138604979 0.060145202920764085 0.46677674690613347 0.36771348337451265 0.7614157570036022 
Task85 0.05725436538894491 0.1752585353659036 0.14006570189409123 0.15608336428967684 0.4291115691629347 0.4595056284421489 0.5956440271057268 
Task86 0.009928509526570237 0.012852384729964077 0.01266326463610405 0.016395081671380422 0.541747978503822 0.8729082154314085 0.7072773186715198 
Task87 0.007625795937772382 0.026453270139308704 0.010170141918545329 0.05597034984204237 0.3545126494349287 0.7153763154571198 0.8310001551435071 
Task88 0.00215638024505795 0.012655269038897505 0.04943477150956869 0.04098710246920469 0.38253585218700786 0.48628285394192217 0.4526416267775433 
Task89 0.04485961450698669 0.1403287845487494 0.04779183856862333 0.07364993550339864 0.7989876181334832 0.3418224819590595 0.8768109615255848 
Task90 0.044489639791106365 0.11289413021741389 0.08681104060576982 0.1434860384805525 0.9329495800191574 0.9172147029561468 0.46563822926475945 
Task91 0.16022682371756522 0.26797042102884083 0.3198172831615304 0.21293989022951942 0.39044254084732394 0.9456081971869046 0.8778049588262828 
Task92 0.06334821775427518 0.1694609876637732 0.061902180712835396 0.2165008763061903 0.6836608117842711 0.53171922217028 0.6037573320640466 
Task93 0.010118931599649182 0.037412853949606716 0.006190931802073475 0.062030478372753016 0.538704006901461 0.729714563135795 0.5378256622127688 
Task94 0.044965788342287795 0.2904025157180494 0.2920616361119063 0.21470305969622927 0.45539199980072465 0.861350175341919 0.4260200130879337 
Task95 0.014525749412891253 0.05546750140315332 0.10096315100408226 0.0936564965040759 0.516449899280244 0.5374019842965604 0.4571262515267006 
Task96 0.1317877020909271 0.13550757938322483 0.026563436437889505 0.6068264372019362 0.6164605098499132 0.59643572223753 0.9008289488408849 
Task97 0.01249398424613507 0.00821215973974216 0.026480456030531153 0.01560031751369929 0.7217877327163392 0.7689127826243203 0.7004224552430471 
Task98 0.060922727289429934 0.08417430025276396 0.41325906836677806 0.0544273498241093 0.5129250083143555 0.5234589161266187 0.5443980822960195 
Task99 0.002158310754623034 0.017127303467513077 0.013640578655187618 0.024487020593298933 0.6466212965340135 0.6541471348917756 0.4291376980024645 
