files/tasks_parameters/ExAp01/sample8.txt 1.08784 3.76817 4.3855 0.450105 17.9037
files/tasks_parameters/ExAp01/sample12.txt 1.5334 5.03638 5.18776 0.610564 24.2863
files/tasks_parameters/ExAp01/sample2.txt 1.43819 4.58991 5.64606 0.613877 24.418
files/tasks_parameters/ExAp01/sample44.txt 1.2932 3.77401 5.66946 0.551838 21.9503
files/tasks_parameters/ExAp01/sample27.txt 1.29418 4.13937 5.56136 0.55779 22.1871
files/tasks_parameters/ExAp01/sample17.txt 1.20439 3.76163 5.38341 0.520991 20.7233
files/tasks_parameters/ExAp01/sample9.txt 1.16082 3.69889 5.2981 0.511699 20.3537
files/tasks_parameters/ExAp01/sample34.txt 1.13513 3.52435 5.83741 0.49187 19.565
files/tasks_parameters/ExAp01/sample40.txt 1.169 4.06185 5.0335 0.496884 19.7644
files/tasks_parameters/ExAp01/sample33.txt 1.55311 4.82091 5.83886 0.651963 25.933
files/tasks_parameters/ExAp01/sample48.txt 1.11605 4.01134 5.07085 0.447927 17.8171
files/tasks_parameters/ExAp01/sample29.txt 1.54474 4.20847 5.0406 0.643694 25.6041
files/tasks_parameters/ExAp01/sample11.txt 1.31879 3.94699 5.29198 0.557276 22.1666
files/tasks_parameters/ExAp01/sample14.txt 1.08636 3.54059 4.58345 0.466713 18.5644
files/tasks_parameters/ExAp01/sample0.txt 1.53414 4.82755 4.90216 0.623551 24.8028
files/tasks_parameters/ExAp01/sample7.txt 1.16818 3.60766 5.11185 0.509566 20.2689
files/tasks_parameters/ExAp01/sample23.txt 1.45515 3.81403 5.45799 0.582911 23.1863
files/tasks_parameters/ExAp01/sample13.txt 1.51795 4.8894 5.26818 0.624499 24.8405
files/tasks_parameters/ExAp01/sample22.txt 1.29323 3.76156 4.95746 0.534216 21.2494
files/tasks_parameters/ExAp01/sample25.txt 0.976519 2.94144 4.92622 0.403639 16.0555
files/tasks_parameters/ExAp01/sample36.txt 1.25826 3.56164 4.5806 0.501799 19.9599
files/tasks_parameters/ExAp01/sample46.txt 1.28158 3.84833 4.7121 0.530701 21.1096
files/tasks_parameters/ExAp01/sample31.txt 1.13511 3.764 5.08385 0.479734 19.0823
files/tasks_parameters/ExAp01/sample37.txt 1.52651 4.43254 5.65111 0.65143 25.9118
files/tasks_parameters/ExAp01/sample16.txt 1.2394 4.49741 4.8895 0.509171 20.2532
files/tasks_parameters/ExAp01/sample10.txt 1.38978 3.87086 6.07511 0.60993 24.261
files/tasks_parameters/ExAp01/sample39.txt 1.09165 3.66299 4.54281 0.463671 18.4433
files/tasks_parameters/ExAp01/sample19.txt 1.40882 3.86694 5.14047 0.615987 24.502
files/tasks_parameters/ExAp01/sample20.txt 1.30941 4.09945 5.13368 0.580369 23.0852
files/tasks_parameters/ExAp01/sample43.txt 1.15578 3.75825 5.55698 0.530892 21.1172
files/tasks_parameters/ExAp01/sample32.txt 1.50174 4.0352 5.29178 0.587643 23.3745
files/tasks_parameters/ExAp01/sample45.txt 1.23229 3.94578 4.87833 0.541081 21.5225
files/tasks_parameters/ExAp01/sample26.txt 1.11284 3.50998 4.55035 0.474009 18.8546
files/tasks_parameters/ExAp01/sample5.txt 1.38256 4.00994 5.27725 0.587681 23.376
files/tasks_parameters/ExAp01/sample21.txt 0.933921 2.8974 4.54677 0.430037 17.1055
files/tasks_parameters/ExAp01/sample38.txt 1.1702 3.56689 4.78573 0.492366 19.5847
files/tasks_parameters/ExAp01/sample1.txt 1.15715 3.69002 4.55048 0.481074 19.1356
files/tasks_parameters/ExAp01/sample15.txt 1.20629 3.73223 5.42493 0.524964 20.8814
files/tasks_parameters/ExAp01/sample24.txt 1.28963 4.18053 5.40377 0.542575 21.5819
files/tasks_parameters/ExAp01/sample3.txt 1.10212 3.70547 4.7118 0.470503 18.7151
files/tasks_parameters/ExAp01/sample6.txt 1.40085 4.07521 5.71419 0.626702 24.9282
files/tasks_parameters/ExAp01/sample30.txt 1.49422 3.97446 5.82388 0.626709 24.9285
files/tasks_parameters/ExAp01/sample42.txt 1.28874 4.44207 5.58473 0.537025 21.3611
files/tasks_parameters/ExAp01/sample4.txt 1.36822 3.92181 4.49751 0.556974 22.1546
files/tasks_parameters/ExAp01/sample28.txt 1.06951 3.13496 4.88321 0.444588 17.6843
files/tasks_parameters/ExAp01/sample18.txt 1.23011 3.95301 4.52898 0.537438 21.3775
files/tasks_parameters/ExAp01/sample35.txt 1.90968 5.75923 6.25034 0.752488 29.9315
files/tasks_parameters/ExAp01/sample47.txt 1.16153 3.44018 5.14289 0.540033 21.4808
files/tasks_parameters/ExAp01/sample49.txt 1.19571 3.38981 4.72409 0.493041 19.6116
files/tasks_parameters/ExAp01/sample41.txt 1.14347 3.58692 5.27252 0.492391 19.5857
