0.41584762000000003
Task0 127 31 127 
Task1 15 127 31 
Task2 255 15 31 
Task3 127 63 63 
Task4 255 1 7 
Task5 31 31 255 
Task6 63 127 31 
Task7 63 31 63 
Task8 3 31 255 
Task9 63 63 63 
Task10 127 15 63 
Task11 127 31 3 
Task12 63 63 31 
Task13 15 31 255 
Task14 3 15 255 
Task15 127 15 255 
Task16 63 63 1 
Task17 127 7 7 
Task18 255 7 1 
Task19 63 63 3 
Task20 63 31 63 
Task21 127 63 127 
Task22 15 127 31 
Task23 1 63 3 
Task24 63 127 31 
Task25 1 63 15 
Task26 31 31 255 
Task27 15 127 31 
Task28 31 31 255 
Task29 255 63 1 
Task30 15 7 255 
Task31 63 31 255 
Task32 63 255 255 
Task33 255 63 127 
Task34 127 3 255 
Task35 3 255 7 
Task36 7 255 255 
Task37 31 127 255 
Task38 127 7 255 
Task39 3 31 63 
Task40 15 63 127 
Task41 63 31 31 
Task42 7 15 255 
Task43 31 31 63 
Task44 15 15 255 
Task45 255 7 1 
Task46 63 63 15 
Task47 63 31 255 
Task48 255 127 127 
Task49 15 3 63 
Task50 7 15 63 
Task51 255 63 15 
Task52 31 15 7 
Task53 255 7 15 
Task54 63 15 255 
Task55 63 255 31 
Task56 31 255 7 
Task57 63 63 255 
Task58 127 255 63 
Task59 255 15 7 
Task60 1 127 63 
Task61 63 31 63 
Task62 63 63 7 
Task63 3 3 255 
Task64 31 63 63 
Task65 15 1 63 
Task66 127 31 31 
Task67 127 255 31 
Task68 31 15 255 
Task69 7 7 255 
Task70 31 63 15 
Task71 31 7 255 
Task72 31 63 63 
Task73 63 255 63 
Task74 255 15 3 
Task75 127 63 63 
Task76 15 255 15 
Task77 255 15 31 
Task78 15 255 127 
Task79 127 15 7 
Task80 63 15 1 
Task81 15 63 127 
Task82 31 127 127 
Task83 31 63 255 
Task84 3 63 15 
Task85 3 63 127 
Task86 127 3 63 
Task87 31 15 15 
Task88 127 127 127 
Task89 31 15 63 
Task90 31 31 255 
Task91 31 127 7 
Task92 31 31 63 
Task93 127 255 15 
Task94 63 31 7 
Task95 127 63 15 
Task96 255 31 31 
Task97 127 31 7 
Task98 3 7 255 
Task99 31 63 255 
