files/tasks_parameters/ExAp01/sample8.txt 1.15036 6.77015 2.19458 0.288816 10.2297
files/tasks_parameters/ExAp01/sample12.txt 1.22595 9.58351 2.46081 0.337498 11.954
files/tasks_parameters/ExAp01/sample2.txt 1.15854 8.44418 2.50701 0.319127 11.3033
files/tasks_parameters/ExAp01/sample44.txt 1.04886 6.96299 2.23089 0.28229 9.99857
files/tasks_parameters/ExAp01/sample27.txt 1.13535 7.74306 2.16676 0.28602 10.1307
files/tasks_parameters/ExAp01/sample17.txt 1.07343 7.35053 2.25579 0.292348 10.3548
files/tasks_parameters/ExAp01/sample9.txt 0.995435 6.89392 2.21068 0.282399 10.0024
files/tasks_parameters/ExAp01/sample34.txt 1.05602 6.62788 2.3772 0.297742 10.5458
files/tasks_parameters/ExAp01/sample40.txt 1.08439 7.75686 2.17534 0.285619 10.1165
files/tasks_parameters/ExAp01/sample33.txt 1.26049 8.14826 2.6463 0.338073 11.9744
files/tasks_parameters/ExAp01/sample48.txt 0.992543 7.64107 2.14272 0.270011 9.56365
files/tasks_parameters/ExAp01/sample29.txt 0.969213 7.139 1.93769 0.286306 10.1408
files/tasks_parameters/ExAp01/sample11.txt 1.09723 6.88688 2.12981 0.280008 9.91775
files/tasks_parameters/ExAp01/sample14.txt 0.868339 6.11983 1.97599 0.247458 8.76482
files/tasks_parameters/ExAp01/sample0.txt 1.02671 8.2738 2.14256 0.289132 10.2409
files/tasks_parameters/ExAp01/sample7.txt 0.983186 6.87011 2.05821 0.269886 9.5592
files/tasks_parameters/ExAp01/sample23.txt 1.05977 6.52032 2.38087 0.291712 10.3323
files/tasks_parameters/ExAp01/sample13.txt 1.11318 8.73247 2.33415 0.295393 10.4626
files/tasks_parameters/ExAp01/sample22.txt 1.04831 6.9777 2.28948 0.283979 10.0584
files/tasks_parameters/ExAp01/sample25.txt 0.965115 6.23444 2.2122 0.267298 9.46754
files/tasks_parameters/ExAp01/sample36.txt 0.926635 6.6174 1.9458 0.253823 8.99026
files/tasks_parameters/ExAp01/sample46.txt 1.26715 7.42369 2.49128 0.327273 11.5918
files/tasks_parameters/ExAp01/sample31.txt 0.930979 7.22028 2.13584 0.25377 8.98839
files/tasks_parameters/ExAp01/sample37.txt 1.176 8.90704 2.16981 0.295708 10.4738
files/tasks_parameters/ExAp01/sample16.txt 1.03113 8.18243 1.88294 0.24945 8.83537
files/tasks_parameters/ExAp01/sample10.txt 1.08401 6.96646 2.31217 0.285748 10.121
files/tasks_parameters/ExAp01/sample39.txt 0.956864 6.4161 1.97266 0.251967 8.92453
files/tasks_parameters/ExAp01/sample19.txt 1.2122 8.16711 2.23199 0.308463 10.9256
files/tasks_parameters/ExAp01/sample20.txt 0.919177 7.28549 1.88944 0.25994 9.20693
files/tasks_parameters/ExAp01/sample43.txt 0.964258 6.86804 2.00142 0.25616 9.07306
files/tasks_parameters/ExAp01/sample32.txt 1.02191 8.15663 2.12995 0.281726 9.9786
files/tasks_parameters/ExAp01/sample45.txt 1.00327 7.75184 2.10599 0.274935 9.73805
files/tasks_parameters/ExAp01/sample26.txt 1.03179 7.4944 1.88956 0.267248 9.46578
files/tasks_parameters/ExAp01/sample5.txt 1.15295 8.08362 2.09961 0.28454 10.0783
files/tasks_parameters/ExAp01/sample21.txt 0.97816 6.11814 2.17119 0.26143 9.2597
files/tasks_parameters/ExAp01/sample38.txt 1.01975 7.761 1.96293 0.263659 9.33866
files/tasks_parameters/ExAp01/sample1.txt 1.10672 7.83752 2.13261 0.289228 10.2443
files/tasks_parameters/ExAp01/sample15.txt 1.07915 7.37971 2.12057 0.285825 10.1238
files/tasks_parameters/ExAp01/sample24.txt 1.04806 8.28531 2.25272 0.296628 10.5064
files/tasks_parameters/ExAp01/sample3.txt 1.17803 7.33359 2.39135 0.305084 10.8059
files/tasks_parameters/ExAp01/sample6.txt 1.0423 7.09894 2.24425 0.281804 9.98136
files/tasks_parameters/ExAp01/sample30.txt 1.18983 8.17669 2.03701 0.299204 10.5977
files/tasks_parameters/ExAp01/sample42.txt 1.12503 7.70416 2.42413 0.29743 10.5348
files/tasks_parameters/ExAp01/sample4.txt 1.18785 7.41691 2.36261 0.307803 10.9022
files/tasks_parameters/ExAp01/sample28.txt 0.98154 7.0562 2.07657 0.266428 9.43673
files/tasks_parameters/ExAp01/sample18.txt 1.09298 7.60139 2.1377 0.268016 9.49298
files/tasks_parameters/ExAp01/sample35.txt 1.16709 9.66795 2.28028 0.32244 11.4206
files/tasks_parameters/ExAp01/sample47.txt 0.936475 6.84842 2.12104 0.251655 8.91347
files/tasks_parameters/ExAp01/sample49.txt 0.994343 7.1497 2.11412 0.255889 9.06345
files/tasks_parameters/ExAp01/sample41.txt 0.989033 6.59911 2.07359 0.265885 9.41752
