files/tasks_parameters/ExAp01/sample8.txt 1.09911 6.77015 2.19458 0.288816 7.96172
files/tasks_parameters/ExAp01/sample12.txt 1.20456 9.58351 2.46081 0.337498 9.30373
files/tasks_parameters/ExAp01/sample2.txt 1.12964 8.44418 2.50701 0.319127 8.79729
files/tasks_parameters/ExAp01/sample44.txt 1.01009 6.96299 2.23089 0.28229 7.78182
files/tasks_parameters/ExAp01/sample27.txt 1.11773 7.74306 2.16676 0.28602 7.88463
files/tasks_parameters/ExAp01/sample17.txt 1.00693 7.35053 2.25579 0.292348 8.05906
files/tasks_parameters/ExAp01/sample9.txt 0.986093 6.89392 2.21068 0.282399 7.78481
files/tasks_parameters/ExAp01/sample34.txt 1.02568 6.62788 2.3772 0.297742 8.20776
files/tasks_parameters/ExAp01/sample40.txt 0.931109 7.75686 2.17534 0.285619 7.87359
files/tasks_parameters/ExAp01/sample33.txt 1.2266 8.14826 2.6463 0.338073 9.31957
files/tasks_parameters/ExAp01/sample48.txt 0.946837 7.64107 2.14272 0.270011 7.44332
files/tasks_parameters/ExAp01/sample29.txt 1.01663 7.139 1.93769 0.286306 7.89251
files/tasks_parameters/ExAp01/sample11.txt 0.964276 6.88688 2.12981 0.280008 7.71891
files/tasks_parameters/ExAp01/sample14.txt 0.860341 6.11983 1.97599 0.247458 6.82159
files/tasks_parameters/ExAp01/sample0.txt 1.0869 8.2738 2.14256 0.289132 7.97041
files/tasks_parameters/ExAp01/sample7.txt 0.976588 6.87011 2.05821 0.269886 7.43986
files/tasks_parameters/ExAp01/sample23.txt 1.0535 6.52032 2.38087 0.291712 8.04153
files/tasks_parameters/ExAp01/sample13.txt 1.09269 8.73247 2.33415 0.295393 8.143
files/tasks_parameters/ExAp01/sample22.txt 1.03753 6.9777 2.28948 0.283979 7.82837
files/tasks_parameters/ExAp01/sample25.txt 0.956988 6.23444 2.2122 0.267298 7.36852
files/tasks_parameters/ExAp01/sample36.txt 0.93253 6.6174 1.9458 0.253823 6.99706
files/tasks_parameters/ExAp01/sample46.txt 1.19658 7.42369 2.49128 0.327273 9.02184
files/tasks_parameters/ExAp01/sample31.txt 0.885208 7.22028 2.13584 0.25377 6.9956
files/tasks_parameters/ExAp01/sample37.txt 1.01644 8.90704 2.16981 0.295708 8.1517
files/tasks_parameters/ExAp01/sample16.txt 0.930095 8.18243 1.88294 0.24945 6.87651
files/tasks_parameters/ExAp01/sample10.txt 1.0849 6.96646 2.31217 0.285748 7.87713
files/tasks_parameters/ExAp01/sample39.txt 0.921296 6.4161 1.97266 0.251967 6.94589
files/tasks_parameters/ExAp01/sample19.txt 1.13007 8.16711 2.23199 0.308463 8.50331
files/tasks_parameters/ExAp01/sample20.txt 0.939306 7.28549 1.88944 0.25994 7.16569
files/tasks_parameters/ExAp01/sample43.txt 0.917917 6.86804 2.00142 0.25616 7.0615
files/tasks_parameters/ExAp01/sample32.txt 1.00154 8.15663 2.12995 0.281726 7.76627
files/tasks_parameters/ExAp01/sample45.txt 0.991903 7.75184 2.10599 0.274935 7.57905
files/tasks_parameters/ExAp01/sample26.txt 0.954868 7.4944 1.88956 0.267248 7.36715
files/tasks_parameters/ExAp01/sample5.txt 1.00811 8.08362 2.09961 0.28454 7.84384
files/tasks_parameters/ExAp01/sample21.txt 0.885548 6.11814 2.17119 0.26143 7.20676
files/tasks_parameters/ExAp01/sample38.txt 0.929544 7.761 1.96293 0.263659 7.26821
files/tasks_parameters/ExAp01/sample1.txt 1.0561 7.83752 2.13261 0.289228 7.97307
files/tasks_parameters/ExAp01/sample15.txt 0.993937 7.37971 2.12057 0.285825 7.87927
files/tasks_parameters/ExAp01/sample24.txt 1.02082 8.28531 2.25272 0.296628 8.17707
files/tasks_parameters/ExAp01/sample3.txt 1.17607 7.33359 2.39135 0.305084 8.41018
files/tasks_parameters/ExAp01/sample6.txt 0.996744 7.09894 2.24425 0.281804 7.76842
files/tasks_parameters/ExAp01/sample30.txt 1.10939 8.17669 2.03701 0.299204 8.24808
files/tasks_parameters/ExAp01/sample42.txt 1.11147 7.70416 2.42413 0.29743 8.19917
files/tasks_parameters/ExAp01/sample4.txt 1.16416 7.41691 2.36261 0.307803 8.48511
files/tasks_parameters/ExAp01/sample28.txt 0.971786 7.0562 2.07657 0.266428 7.34454
files/tasks_parameters/ExAp01/sample18.txt 0.935863 7.60139 2.1377 0.268016 7.38832
files/tasks_parameters/ExAp01/sample35.txt 1.10885 9.66795 2.28028 0.32244 8.8886
files/tasks_parameters/ExAp01/sample47.txt 0.930773 6.84842 2.12104 0.251655 6.93729
files/tasks_parameters/ExAp01/sample49.txt 0.988062 7.1497 2.11412 0.255889 7.05402
files/tasks_parameters/ExAp01/sample41.txt 0.982949 6.59911 2.07359 0.265885 7.32959
