files/tasks_parameters/ExAp01/sample8.txt 0.754496 3.15778 1.5595 0.203411 15.867
files/tasks_parameters/ExAp01/sample12.txt 0.830721 3.94962 1.6705 0.207924 16.219
files/tasks_parameters/ExAp01/sample2.txt 0.72799 3.78275 1.74131 0.200098 15.6086
files/tasks_parameters/ExAp01/sample44.txt 0.683582 3.59825 1.65317 0.200005 15.6014
files/tasks_parameters/ExAp01/sample27.txt 0.759915 3.45743 1.5148 0.182129 14.2069
files/tasks_parameters/ExAp01/sample17.txt 0.582012 2.77299 1.44514 0.14646 11.4246
files/tasks_parameters/ExAp01/sample9.txt 0.643346 2.99933 1.451 0.177444 13.8414
files/tasks_parameters/ExAp01/sample34.txt 0.62579 3.02928 1.58429 0.157984 12.3235
files/tasks_parameters/ExAp01/sample40.txt 0.664732 3.86889 1.52122 0.168379 13.1344
files/tasks_parameters/ExAp01/sample33.txt 0.75588 3.63695 1.71905 0.199765 15.5826
files/tasks_parameters/ExAp01/sample48.txt 0.644133 3.39061 1.49062 0.154728 12.0695
files/tasks_parameters/ExAp01/sample29.txt 0.755985 3.30472 1.38739 0.223868 17.4628
files/tasks_parameters/ExAp01/sample11.txt 0.653823 3.10585 1.41612 0.174079 13.579
files/tasks_parameters/ExAp01/sample14.txt 0.614208 2.70971 1.43432 0.162214 12.6535
files/tasks_parameters/ExAp01/sample0.txt 0.679767 3.6937 1.5439 0.18367 14.3271
files/tasks_parameters/ExAp01/sample7.txt 0.553365 2.70501 1.42221 0.143463 11.1908
files/tasks_parameters/ExAp01/sample23.txt 0.64638 3.2697 1.57822 0.181448 14.1538
files/tasks_parameters/ExAp01/sample13.txt 0.739098 3.84225 1.67648 0.198247 15.4642
files/tasks_parameters/ExAp01/sample22.txt 0.603584 3.09569 1.56121 0.148796 11.6068
files/tasks_parameters/ExAp01/sample25.txt 0.530721 2.73966 1.5007 0.148149 11.5563
files/tasks_parameters/ExAp01/sample36.txt 0.499696 2.85948 1.28553 0.130042 10.1439
files/tasks_parameters/ExAp01/sample46.txt 0.826769 3.58643 1.69998 0.210103 16.389
files/tasks_parameters/ExAp01/sample31.txt 0.624307 3.4832 1.53782 0.1722 13.4324
files/tasks_parameters/ExAp01/sample37.txt 0.730757 3.95293 1.50705 0.171701 13.3935
files/tasks_parameters/ExAp01/sample16.txt 0.620365 3.31216 1.30115 0.150249 11.7201
files/tasks_parameters/ExAp01/sample10.txt 0.664442 3.17098 1.61789 0.153776 11.9953
files/tasks_parameters/ExAp01/sample39.txt 0.631494 3.26617 1.44406 0.165669 12.9229
files/tasks_parameters/ExAp01/sample19.txt 0.763823 3.63532 1.52509 0.196094 15.2963
files/tasks_parameters/ExAp01/sample20.txt 0.517513 3.20793 1.25367 0.147335 11.4929
files/tasks_parameters/ExAp01/sample43.txt 0.652357 3.11551 1.4202 0.150644 11.751
files/tasks_parameters/ExAp01/sample32.txt 0.652939 3.5311 1.42482 0.168744 13.1629
files/tasks_parameters/ExAp01/sample45.txt 0.755915 3.80283 1.48324 0.19807 15.4504
files/tasks_parameters/ExAp01/sample26.txt 0.5989 3.21645 1.29701 0.166061 12.9536
files/tasks_parameters/ExAp01/sample5.txt 0.647759 3.5889 1.52559 0.178903 13.9553
files/tasks_parameters/ExAp01/sample21.txt 0.732423 2.75242 1.55936 0.19512 15.2203
files/tasks_parameters/ExAp01/sample38.txt 0.606166 3.31563 1.37515 0.166157 12.961
files/tasks_parameters/ExAp01/sample1.txt 0.755889 3.74964 1.51696 0.19701 15.3677
files/tasks_parameters/ExAp01/sample15.txt 0.664249 3.32916 1.48508 0.180707 14.096
files/tasks_parameters/ExAp01/sample24.txt 0.643886 3.45951 1.59549 0.16529 12.8934
files/tasks_parameters/ExAp01/sample3.txt 0.907715 3.70014 1.70809 0.237107 18.4955
files/tasks_parameters/ExAp01/sample6.txt 0.694582 3.33003 1.58323 0.184714 14.4086
files/tasks_parameters/ExAp01/sample30.txt 0.817194 4.1841 1.4861 0.239623 18.6917
files/tasks_parameters/ExAp01/sample42.txt 0.720108 3.43221 1.70276 0.177383 13.8367
files/tasks_parameters/ExAp01/sample4.txt 0.760747 3.72477 1.6136 0.196448 15.3239
files/tasks_parameters/ExAp01/sample28.txt 0.599484 3.11323 1.45032 0.158819 12.3886
files/tasks_parameters/ExAp01/sample18.txt 0.619319 3.47418 1.45209 0.149064 11.6277
files/tasks_parameters/ExAp01/sample35.txt 0.742681 4.57086 1.49394 0.185031 14.4333
files/tasks_parameters/ExAp01/sample47.txt 0.650771 3.13768 1.52397 0.16417 12.8061
files/tasks_parameters/ExAp01/sample49.txt 0.58715 3.13288 1.49657 0.156154 12.1808
files/tasks_parameters/ExAp01/sample41.txt 0.591186 2.81964 1.49636 0.150876 11.769
