files/tasks_parameters/ExAp01/sample8.txt 0.93729 3.15778 1.5595 0.203411 13.3102
files/tasks_parameters/ExAp01/sample12.txt 0.874339 3.94962 1.6705 0.207924 13.6055
files/tasks_parameters/ExAp01/sample2.txt 0.859377 3.78275 1.74131 0.200098 13.0934
files/tasks_parameters/ExAp01/sample44.txt 0.818513 3.59825 1.65317 0.200005 13.0873
files/tasks_parameters/ExAp01/sample27.txt 0.830939 3.45743 1.5148 0.182129 11.9176
files/tasks_parameters/ExAp01/sample17.txt 0.735023 2.77299 1.44514 0.14646 9.58357
files/tasks_parameters/ExAp01/sample9.txt 0.728173 2.99933 1.451 0.177444 11.611
files/tasks_parameters/ExAp01/sample34.txt 0.682402 3.02928 1.58429 0.157984 10.3376
files/tasks_parameters/ExAp01/sample40.txt 0.758094 3.86889 1.52122 0.168379 11.0179
files/tasks_parameters/ExAp01/sample33.txt 0.935009 3.63695 1.71905 0.199765 13.0716
files/tasks_parameters/ExAp01/sample48.txt 0.682623 3.39061 1.49062 0.154728 10.1246
files/tasks_parameters/ExAp01/sample29.txt 0.842923 3.30472 1.38739 0.223868 14.6488
files/tasks_parameters/ExAp01/sample11.txt 0.815064 3.10585 1.41612 0.174079 11.3908
files/tasks_parameters/ExAp01/sample14.txt 0.69252 2.70971 1.43432 0.162214 10.6145
files/tasks_parameters/ExAp01/sample0.txt 0.789078 3.6937 1.5439 0.18367 12.0184
files/tasks_parameters/ExAp01/sample7.txt 0.682961 2.70501 1.42221 0.143463 9.38751
files/tasks_parameters/ExAp01/sample23.txt 0.72955 3.2697 1.57822 0.181448 11.8731
files/tasks_parameters/ExAp01/sample13.txt 0.868085 3.84225 1.67648 0.198247 12.9723
files/tasks_parameters/ExAp01/sample22.txt 0.635426 3.09569 1.56121 0.148796 9.73645
files/tasks_parameters/ExAp01/sample25.txt 0.647827 2.73966 1.5007 0.148149 9.69408
files/tasks_parameters/ExAp01/sample36.txt 0.592032 2.85948 1.28553 0.130042 8.5093
files/tasks_parameters/ExAp01/sample46.txt 0.886877 3.58643 1.69998 0.210103 13.748
files/tasks_parameters/ExAp01/sample31.txt 0.747013 3.4832 1.53782 0.1722 11.2679
files/tasks_parameters/ExAp01/sample37.txt 0.777905 3.95293 1.50705 0.171701 11.2352
files/tasks_parameters/ExAp01/sample16.txt 0.691803 3.31216 1.30115 0.150249 9.83152
files/tasks_parameters/ExAp01/sample10.txt 0.762772 3.17098 1.61789 0.153776 10.0623
files/tasks_parameters/ExAp01/sample39.txt 0.745516 3.26617 1.44406 0.165669 10.8405
files/tasks_parameters/ExAp01/sample19.txt 0.906219 3.63532 1.52509 0.196094 12.8314
files/tasks_parameters/ExAp01/sample20.txt 0.633343 3.20793 1.25367 0.147335 9.64087
files/tasks_parameters/ExAp01/sample43.txt 0.666606 3.11551 1.4202 0.150644 9.8574
files/tasks_parameters/ExAp01/sample32.txt 0.71833 3.5311 1.42482 0.168744 11.0418
files/tasks_parameters/ExAp01/sample45.txt 0.906422 3.80283 1.48324 0.19807 12.9607
files/tasks_parameters/ExAp01/sample26.txt 0.698012 3.21645 1.29701 0.166061 10.8662
files/tasks_parameters/ExAp01/sample5.txt 0.811718 3.5889 1.52559 0.178903 11.7065
files/tasks_parameters/ExAp01/sample21.txt 0.822785 2.75242 1.55936 0.19512 12.7677
files/tasks_parameters/ExAp01/sample38.txt 0.712568 3.31563 1.37515 0.166157 10.8724
files/tasks_parameters/ExAp01/sample1.txt 0.898067 3.74964 1.51696 0.19701 12.8913
files/tasks_parameters/ExAp01/sample15.txt 0.761933 3.32916 1.48508 0.180707 11.8246
files/tasks_parameters/ExAp01/sample24.txt 0.751608 3.45951 1.59549 0.16529 10.8158
files/tasks_parameters/ExAp01/sample3.txt 1.07107 3.70014 1.70809 0.237107 15.5151
files/tasks_parameters/ExAp01/sample6.txt 0.790212 3.33003 1.58323 0.184714 12.0868
files/tasks_parameters/ExAp01/sample30.txt 0.911024 4.1841 1.4861 0.239623 15.6797
files/tasks_parameters/ExAp01/sample42.txt 0.815875 3.43221 1.70276 0.177383 11.607
files/tasks_parameters/ExAp01/sample4.txt 0.871241 3.72477 1.6136 0.196448 12.8546
files/tasks_parameters/ExAp01/sample28.txt 0.641721 3.11323 1.45032 0.158819 10.3923
files/tasks_parameters/ExAp01/sample18.txt 0.7112 3.47418 1.45209 0.149064 9.75397
files/tasks_parameters/ExAp01/sample35.txt 0.760037 4.57086 1.49394 0.185031 12.1075
files/tasks_parameters/ExAp01/sample47.txt 0.678088 3.13768 1.52397 0.16417 10.7424
files/tasks_parameters/ExAp01/sample49.txt 0.677181 3.13288 1.49657 0.156154 10.2179
files/tasks_parameters/ExAp01/sample41.txt 0.699226 2.81964 1.49636 0.150876 9.87254
