files/tasks_parameters/ExAp01/sample8.txt 0.791764 3.15778 1.5595 0.203411 3.75758
files/tasks_parameters/ExAp01/sample12.txt 0.806027 3.94962 1.6705 0.207924 3.84095
files/tasks_parameters/ExAp01/sample2.txt 0.772754 3.78275 1.74131 0.200098 3.69638
files/tasks_parameters/ExAp01/sample44.txt 0.691143 3.59825 1.65317 0.200005 3.69467
files/tasks_parameters/ExAp01/sample27.txt 0.714647 3.45743 1.5148 0.182129 3.36443
files/tasks_parameters/ExAp01/sample17.txt 0.825598 2.77299 1.44514 0.14646 2.70553
files/tasks_parameters/ExAp01/sample9.txt 0.728789 2.99933 1.451 0.177444 3.27789
files/tasks_parameters/ExAp01/sample34.txt 0.82455 3.02928 1.58429 0.157984 2.91841
files/tasks_parameters/ExAp01/sample40.txt 0.764924 3.86889 1.52122 0.168379 3.11045
files/tasks_parameters/ExAp01/sample33.txt 0.800579 3.63695 1.71905 0.199765 3.69023
files/tasks_parameters/ExAp01/sample48.txt 0.682426 3.39061 1.49062 0.154728 2.85827
files/tasks_parameters/ExAp01/sample29.txt 0.744141 3.30472 1.38739 0.223868 4.13549
files/tasks_parameters/ExAp01/sample11.txt 0.707448 3.10585 1.41612 0.174079 3.21573
files/tasks_parameters/ExAp01/sample14.txt 0.65633 2.70971 1.43432 0.162214 2.99656
files/tasks_parameters/ExAp01/sample0.txt 0.751735 3.6937 1.5439 0.18367 3.39291
files/tasks_parameters/ExAp01/sample7.txt 0.778871 2.70501 1.42221 0.143463 2.65018
files/tasks_parameters/ExAp01/sample23.txt 0.75565 3.2697 1.57822 0.181448 3.35187
files/tasks_parameters/ExAp01/sample13.txt 0.733989 3.84225 1.67648 0.198247 3.66219
files/tasks_parameters/ExAp01/sample22.txt 0.786619 3.09569 1.56121 0.148796 2.74869
files/tasks_parameters/ExAp01/sample25.txt 0.727641 2.73966 1.5007 0.148149 2.73673
files/tasks_parameters/ExAp01/sample36.txt 0.751568 2.85948 1.28553 0.130042 2.40225
files/tasks_parameters/ExAp01/sample46.txt 0.754511 3.58643 1.69998 0.210103 3.8812
files/tasks_parameters/ExAp01/sample31.txt 0.691751 3.4832 1.53782 0.1722 3.18102
files/tasks_parameters/ExAp01/sample37.txt 0.770814 3.95293 1.50705 0.171701 3.17181
files/tasks_parameters/ExAp01/sample16.txt 0.60624 3.31216 1.30115 0.150249 2.77553
files/tasks_parameters/ExAp01/sample10.txt 0.953229 3.17098 1.61789 0.153776 2.84069
files/tasks_parameters/ExAp01/sample39.txt 0.695057 3.26617 1.44406 0.165669 3.06037
files/tasks_parameters/ExAp01/sample19.txt 0.738174 3.63532 1.52509 0.196094 3.62242
files/tasks_parameters/ExAp01/sample20.txt 0.662661 3.20793 1.25367 0.147335 2.72171
files/tasks_parameters/ExAp01/sample43.txt 0.648213 3.11551 1.4202 0.150644 2.78283
files/tasks_parameters/ExAp01/sample32.txt 0.722684 3.5311 1.42482 0.168744 3.11719
files/tasks_parameters/ExAp01/sample45.txt 0.750645 3.80283 1.48324 0.19807 3.65893
files/tasks_parameters/ExAp01/sample26.txt 0.633587 3.21645 1.29701 0.166061 3.06763
files/tasks_parameters/ExAp01/sample5.txt 0.633658 3.5889 1.52559 0.178903 3.30486
files/tasks_parameters/ExAp01/sample21.txt 0.682117 2.75242 1.55936 0.19512 3.60443
files/tasks_parameters/ExAp01/sample38.txt 0.665003 3.31563 1.37515 0.166157 3.06939
files/tasks_parameters/ExAp01/sample1.txt 0.72984 3.74964 1.51696 0.19701 3.63933
files/tasks_parameters/ExAp01/sample15.txt 0.699662 3.32916 1.48508 0.180707 3.33818
files/tasks_parameters/ExAp01/sample24.txt 0.811179 3.45951 1.59549 0.16529 3.05339
files/tasks_parameters/ExAp01/sample3.txt 0.898032 3.70014 1.70809 0.237107 4.38005
files/tasks_parameters/ExAp01/sample6.txt 0.702405 3.33003 1.58323 0.184714 3.4122
files/tasks_parameters/ExAp01/sample30.txt 0.819439 4.1841 1.4861 0.239623 4.42652
files/tasks_parameters/ExAp01/sample42.txt 0.747833 3.43221 1.70276 0.177383 3.27677
files/tasks_parameters/ExAp01/sample4.txt 0.785869 3.72477 1.6136 0.196448 3.62896
files/tasks_parameters/ExAp01/sample28.txt 0.689545 3.11323 1.45032 0.158819 2.93384
files/tasks_parameters/ExAp01/sample18.txt 0.764248 3.47418 1.45209 0.149064 2.75363
files/tasks_parameters/ExAp01/sample35.txt 0.806306 4.57086 1.49394 0.185031 3.41805
files/tasks_parameters/ExAp01/sample47.txt 0.710351 3.13768 1.52397 0.16417 3.03269
files/tasks_parameters/ExAp01/sample49.txt 0.766167 3.13288 1.49657 0.156154 2.88461
files/tasks_parameters/ExAp01/sample41.txt 0.76195 2.81964 1.49636 0.150876 2.78711
