0.32834022000000007
Task0 3 255 15 
Task1 63 3 63 
Task2 63 3 255 
Task3 63 63 63 
Task4 255 15 255 
Task5 15 3 255 
Task6 31 31 63 
Task7 3 63 15 
Task8 3 15 63 
Task9 63 31 15 
Task10 255 31 63 
Task11 3 63 31 
Task12 63 127 3 
Task13 31 15 255 
Task14 63 15 31 
Task15 3 63 15 
Task16 31 31 63 
Task17 31 63 255 
Task18 15 15 255 
Task19 15 15 255 
Task20 1 1 31 
Task21 31 127 7 
Task22 15 63 15 
Task23 31 15 255 
Task24 15 127 63 
Task25 3 63 15 
Task26 127 31 15 
Task27 255 63 255 
Task28 63 31 3 
Task29 7 31 255 
Task30 255 31 7 
Task31 255 15 127 
Task32 63 1 15 
Task33 3 127 63 
Task34 3 1 63 
Task35 31 127 31 
Task36 63 7 31 
Task37 3 1 255 
Task38 7 63 31 
Task39 31 63 1 
Task40 7 63 63 
Task41 7 63 7 
Task42 63 1 3 
Task43 31 31 15 
Task44 31 63 255 
Task45 255 31 15 
Task46 63 63 31 
Task47 255 31 3 
Task48 63 127 63 
Task49 63 63 255 
Task50 127 31 63 
Task51 63 7 15 
Task52 31 7 255 
Task53 63 31 63 
Task54 15 31 63 
Task55 63 1 7 
Task56 7 127 63 
Task57 15 15 63 
Task58 127 31 31 
Task59 63 15 31 
Task60 63 63 31 
Task61 63 63 31 
Task62 127 255 31 
Task63 15 1 255 
Task64 63 31 63 
Task65 255 255 1 
Task66 7 1 255 
Task67 1 1 63 
Task68 15 63 15 
Task69 63 127 63 
Task70 1 63 1 
Task71 255 1 15 
Task72 255 63 1 
Task73 7 127 31 
Task74 63 255 127 
Task75 255 1 127 
Task76 255 15 127 
Task77 255 7 7 
Task78 63 7 255 
Task79 63 7 63 
Task80 127 31 255 
Task81 255 1 31 
Task82 255 127 31 
Task83 7 7 255 
Task84 255 255 63 
Task85 7 15 127 
Task86 3 63 1 
Task87 31 3 255 
Task88 1 255 15 
Task89 31 255 7 
Task90 1 255 255 
Task91 3 63 15 
Task92 63 63 127 
Task93 255 255 127 
Task94 255 1 31 
Task95 255 15 31 
Task96 7 3 63 
Task97 255 255 255 
Task98 255 7 31 
Task99 31 255 31 
