files/tasks_parameters/ExAp01/sample8.txt 0.779515 3.15778 1.5595 0.203411 4.89419
files/tasks_parameters/ExAp01/sample12.txt 0.759709 3.94962 1.6705 0.207924 5.00276
files/tasks_parameters/ExAp01/sample2.txt 0.807198 3.78275 1.74131 0.200098 4.81446
files/tasks_parameters/ExAp01/sample44.txt 0.684937 3.59825 1.65317 0.200005 4.81224
files/tasks_parameters/ExAp01/sample27.txt 0.72297 3.45743 1.5148 0.182129 4.38211
files/tasks_parameters/ExAp01/sample17.txt 0.579923 2.77299 1.44514 0.14646 3.52391
files/tasks_parameters/ExAp01/sample9.txt 0.627487 2.99933 1.451 0.177444 4.26939
files/tasks_parameters/ExAp01/sample34.txt 0.57623 3.02928 1.58429 0.157984 3.80118
files/tasks_parameters/ExAp01/sample40.txt 0.629272 3.86889 1.52122 0.168379 4.0513
files/tasks_parameters/ExAp01/sample33.txt 0.801282 3.63695 1.71905 0.199765 4.80646
files/tasks_parameters/ExAp01/sample48.txt 0.603946 3.39061 1.49062 0.154728 3.72285
files/tasks_parameters/ExAp01/sample29.txt 0.716151 3.30472 1.38739 0.223868 5.3864
files/tasks_parameters/ExAp01/sample11.txt 0.700901 3.10585 1.41612 0.174079 4.18843
files/tasks_parameters/ExAp01/sample14.txt 0.690372 2.70971 1.43432 0.162214 3.90297
files/tasks_parameters/ExAp01/sample0.txt 0.698855 3.6937 1.5439 0.18367 4.4192
files/tasks_parameters/ExAp01/sample7.txt 0.574213 2.70501 1.42221 0.143463 3.45181
files/tasks_parameters/ExAp01/sample23.txt 0.664779 3.2697 1.57822 0.181448 4.36575
files/tasks_parameters/ExAp01/sample13.txt 0.718402 3.84225 1.67648 0.198247 4.76994
files/tasks_parameters/ExAp01/sample22.txt 0.608715 3.09569 1.56121 0.148796 3.58012
files/tasks_parameters/ExAp01/sample25.txt 0.579705 2.73966 1.5007 0.148149 3.56454
files/tasks_parameters/ExAp01/sample36.txt 0.523531 2.85948 1.28553 0.130042 3.12889
files/tasks_parameters/ExAp01/sample46.txt 0.788721 3.58643 1.69998 0.210103 5.05519
files/tasks_parameters/ExAp01/sample31.txt 0.706976 3.4832 1.53782 0.1722 4.14323
files/tasks_parameters/ExAp01/sample37.txt 0.692773 3.95293 1.50705 0.171701 4.13122
files/tasks_parameters/ExAp01/sample16.txt 0.626079 3.31216 1.30115 0.150249 3.61508
files/tasks_parameters/ExAp01/sample10.txt 0.610008 3.17098 1.61789 0.153776 3.69995
files/tasks_parameters/ExAp01/sample39.txt 0.696727 3.26617 1.44406 0.165669 3.98608
files/tasks_parameters/ExAp01/sample19.txt 0.701661 3.63532 1.52509 0.196094 4.71814
files/tasks_parameters/ExAp01/sample20.txt 0.572781 3.20793 1.25367 0.147335 3.54497
files/tasks_parameters/ExAp01/sample43.txt 0.586183 3.11551 1.4202 0.150644 3.62459
files/tasks_parameters/ExAp01/sample32.txt 0.625167 3.5311 1.42482 0.168744 4.06008
files/tasks_parameters/ExAp01/sample45.txt 0.741623 3.80283 1.48324 0.19807 4.76569
files/tasks_parameters/ExAp01/sample26.txt 0.599876 3.21645 1.29701 0.166061 3.99553
files/tasks_parameters/ExAp01/sample5.txt 0.680102 3.5889 1.52559 0.178903 4.30452
files/tasks_parameters/ExAp01/sample21.txt 0.665215 2.75242 1.55936 0.19512 4.6947
files/tasks_parameters/ExAp01/sample38.txt 0.652132 3.31563 1.37515 0.166157 3.99783
files/tasks_parameters/ExAp01/sample1.txt 0.725904 3.74964 1.51696 0.19701 4.74016
files/tasks_parameters/ExAp01/sample15.txt 0.685312 3.32916 1.48508 0.180707 4.34792
files/tasks_parameters/ExAp01/sample24.txt 0.673294 3.45951 1.59549 0.16529 3.97698
files/tasks_parameters/ExAp01/sample3.txt 0.916744 3.70014 1.70809 0.237107 5.70493
files/tasks_parameters/ExAp01/sample6.txt 0.703928 3.33003 1.58323 0.184714 4.44433
files/tasks_parameters/ExAp01/sample30.txt 0.893262 4.1841 1.4861 0.239623 5.76547
files/tasks_parameters/ExAp01/sample42.txt 0.687222 3.43221 1.70276 0.177383 4.26793
files/tasks_parameters/ExAp01/sample4.txt 0.765249 3.72477 1.6136 0.196448 4.72665
files/tasks_parameters/ExAp01/sample28.txt 0.60304 3.11323 1.45032 0.158819 3.82128
files/tasks_parameters/ExAp01/sample18.txt 0.595627 3.47418 1.45209 0.149064 3.58656
files/tasks_parameters/ExAp01/sample35.txt 0.717299 4.57086 1.49394 0.185031 4.45194
files/tasks_parameters/ExAp01/sample47.txt 0.628985 3.13768 1.52397 0.16417 3.95003
files/tasks_parameters/ExAp01/sample49.txt 0.59572 3.13288 1.49657 0.156154 3.75716
files/tasks_parameters/ExAp01/sample41.txt 0.61137 2.81964 1.49636 0.150876 3.63016
