0.4122888999999999
Task0 31 31 7 
Task1 255 255 1 
Task2 31 1 63 
Task3 31 3 7 
Task4 31 31 7 
Task5 3 3 31 
Task6 15 63 3 
Task7 3 7 31 
Task8 63 31 31 
Task9 31 31 63 
Task10 3 31 1 
Task11 15 3 31 
Task12 255 31 127 
Task13 31 31 15 
Task14 3 63 1 
Task15 63 31 31 
Task16 3 31 3 
Task17 7 15 7 
Task18 7 1 63 
Task19 3 15 63 
Task20 31 15 31 
Task21 1 3 31 
Task22 15 15 63 
Task23 31 7 31 
Task24 15 15 15 
Task25 31 7 127 
Task26 7 7 63 
Task27 7 63 1 
Task28 31 31 63 
Task29 31 3 31 
Task30 63 15 15 
Task31 255 255 255 
Task32 1 1 31 
Task33 15 31 31 
Task34 15 15 63 
Task35 3 31 7 
Task36 63 15 31 
Task37 31 3 3 
Task38 31 31 31 
Task39 31 7 15 
Task40 31 63 31 
Task41 255 127 63 
Task42 31 7 63 
Task43 31 15 15 
Task44 31 1 1 
Task45 15 15 7 
Task46 127 127 31 
Task47 15 7 3 
Task48 63 7 63 
Task49 63 7 63 
Task50 7 31 15 
Task51 7 31 63 
Task52 1 63 255 
Task53 3 31 15 
Task54 63 31 63 
Task55 31 15 3 
Task56 63 255 1 
Task57 31 1 15 
Task58 31 1 15 
Task59 31 15 3 
Task60 255 63 127 
Task61 1 3 31 
Task62 3 31 31 
Task63 31 31 31 
Task64 7 31 15 
Task65 31 63 15 
Task66 15 31 3 
Task67 63 255 255 
Task68 7 63 31 
Task69 31 31 3 
Task70 63 31 15 
Task71 3 15 31 
Task72 63 31 63 
Task73 15 63 7 
Task74 31 7 3 
Task75 31 15 15 
Task76 3 63 7 
Task77 31 7 7 
Task78 3 3 63 
Task79 3 63 7 
Task80 31 31 31 
Task81 7 7 31 
Task82 63 7 3 
Task83 1 31 3 
Task84 15 7 15 
Task85 15 31 15 
Task86 31 255 31 
Task87 31 7 15 
Task88 63 15 3 
Task89 31 3 1 
Task90 7 31 63 
Task91 31 63 31 
Task92 1 7 31 
Task93 15 31 7 
Task94 31 7 15 
Task95 31 7 7 
Task96 31 7 7 
Task97 15 7 31 
Task98 15 15 15 
Task99 1 7 31 
