0.4634897400000001
Task0 255 127 31 
Task1 15 255 3 
Task2 15 255 7 
Task3 255 127 15 
Task4 31 255 255 
Task5 127 255 63 
Task6 15 63 255 
Task7 31 127 255 
Task8 15 15 255 
Task9 63 63 15 
Task10 127 63 63 
Task11 255 3 31 
Task12 15 255 15 
Task13 255 63 31 
Task14 255 63 15 
Task15 15 63 255 
Task16 127 255 127 
Task17 127 15 63 
Task18 127 63 127 
Task19 3 255 1 
Task20 127 31 63 
Task21 255 127 255 
Task22 63 7 255 
Task23 31 255 3 
Task24 15 255 255 
Task25 255 255 63 
Task26 255 15 31 
Task27 255 63 63 
Task28 15 127 7 
Task29 63 63 63 
Task30 31 255 127 
Task31 1 255 15 
Task32 31 127 63 
Task33 31 7 255 
Task34 15 31 127 
Task35 127 63 63 
Task36 255 31 7 
Task37 15 127 31 
Task38 63 7 127 
Task39 1 255 15 
Task40 255 31 31 
Task41 127 255 255 
Task42 15 127 31 
Task43 1 255 127 
Task44 15 3 63 
Task45 31 3 255 
Task46 15 255 15 
Task47 7 127 15 
Task48 255 63 255 
Task49 255 15 7 
Task50 127 63 7 
Task51 255 31 15 
Task52 255 127 63 
Task53 63 31 63 
Task54 63 63 7 
Task55 255 31 127 
Task56 127 63 127 
Task57 255 63 7 
Task58 15 1 255 
Task59 15 127 7 
Task60 63 3 127 
Task61 127 255 255 
Task62 1 255 63 
Task63 255 31 63 
Task64 63 127 255 
Task65 127 7 127 
Task66 127 127 63 
Task67 15 1 255 
Task68 127 127 127 
Task69 63 63 63 
Task70 31 63 127 
Task71 63 15 127 
Task72 15 127 255 
Task73 127 3 255 
Task74 63 255 127 
Task75 31 127 31 
Task76 255 63 127 
Task77 31 255 255 
Task78 255 127 63 
Task79 63 127 63 
Task80 255 15 7 
Task81 255 127 31 
Task82 31 255 1 
Task83 15 255 31 
Task84 255 31 3 
Task85 63 7 127 
Task86 63 127 255 
Task87 63 63 127 
Task88 63 63 15 
Task89 255 3 63 
Task90 255 63 15 
Task91 7 1 255 
Task92 63 63 63 
Task93 255 63 127 
Task94 3 7 255 
Task95 255 7 63 
Task96 63 127 255 
Task97 127 255 127 
Task98 7 255 15 
Task99 255 127 255 
