0.2584582
Task0 7 7 7 
Task1 1 3 15 
Task2 15 7 15 
Task3 7 7 15 
Task4 3 7 3 
Task5 7 7 7 
Task6 3 1 15 
Task7 7 3 7 
Task8 7 1 31 
Task9 3 7 15 
Task10 31 15 7 
Task11 15 3 7 
Task12 31 15 31 
Task13 15 1 1 
Task14 15 1 15 
Task15 15 15 1 
Task16 3 15 7 
Task17 63 15 15 
Task18 15 15 15 
Task19 7 7 7 
Task20 15 31 7 
Task21 15 7 15 
Task22 7 15 7 
Task23 63 31 15 
Task24 7 31 3 
Task25 7 7 1 
Task26 15 31 15 
Task27 15 7 15 
Task28 3 7 3 
Task29 1 3 7 
Task30 31 31 7 
Task31 7 3 7 
Task32 3 15 1 
Task33 7 15 7 
Task34 1 15 3 
Task35 1 15 1 
Task36 31 31 1 
Task37 7 15 7 
Task38 1 1 15 
Task39 15 3 7 
Task40 1 255 63 
Task41 7 1 15 
Task42 3 15 7 
Task43 15 15 15 
Task44 15 15 15 
Task45 3 15 7 
Task46 7 7 15 
Task47 7 1 31 
Task48 15 7 3 
Task49 31 15 15 
Task50 31 31 7 
Task51 3 7 15 
Task52 15 3 31 
Task53 15 3 1 
Task54 15 7 7 
Task55 3 3 15 
Task56 31 1 7 
Task57 1 31 7 
Task58 7 15 15 
Task59 3 7 7 
Task60 31 15 7 
Task61 15 7 7 
Task62 7 7 3 
Task63 15 7 31 
Task64 15 7 7 
Task65 3 1 15 
Task66 7 15 3 
Task67 3 15 7 
Task68 3 15 3 
Task69 15 3 3 
Task70 7 31 7 
Task71 1 1 15 
Task72 3 7 7 
Task73 7 7 15 
Task74 7 15 1 
Task75 7 3 15 
Task76 15 15 1 
Task77 1 3 15 
Task78 7 15 31 
Task79 15 1 3 
Task80 15 7 15 
Task81 3 7 3 
Task82 7 7 15 
Task83 15 3 1 
Task84 15 7 31 
Task85 15 31 15 
Task86 7 7 7 
Task87 3 15 1 
Task88 3 7 7 
Task89 7 3 3 
Task90 7 1 15 
Task91 7 31 63 
Task92 15 7 7 
Task93 7 7 3 
Task94 15 15 31 
Task95 3 3 15 
Task96 7 15 7 
Task97 3 7 15 
Task98 255 1 127 
Task99 1 15 7 
