files/tasks_parameters/ExAp01/sample8.txt 1.1065 7.2562 4.46819 0.454772 12.2232
files/tasks_parameters/ExAp01/sample12.txt 1.599 9.70908 5.28286 0.618515 16.6242
files/tasks_parameters/ExAp01/sample2.txt 1.45637 8.14159 5.7401 0.620531 16.6784
files/tasks_parameters/ExAp01/sample44.txt 1.35459 7.25164 5.75904 0.557631 14.9878
files/tasks_parameters/ExAp01/sample27.txt 1.31557 8.10944 5.64946 0.564878 15.1826
files/tasks_parameters/ExAp01/sample17.txt 1.25361 7.11225 5.46658 0.527183 14.1695
files/tasks_parameters/ExAp01/sample9.txt 1.18133 7.62559 5.37813 0.517277 13.9032
files/tasks_parameters/ExAp01/sample34.txt 1.23761 7.04587 5.93037 0.497709 13.3773
files/tasks_parameters/ExAp01/sample40.txt 1.201 8.03037 5.123 0.502383 13.5029
files/tasks_parameters/ExAp01/sample33.txt 1.61164 9.22935 5.92956 0.659262 17.7194
files/tasks_parameters/ExAp01/sample48.txt 1.14869 8.12182 5.1577 0.452491 12.1619
files/tasks_parameters/ExAp01/sample29.txt 1.51973 8.06133 5.12331 0.650652 17.488
files/tasks_parameters/ExAp01/sample11.txt 1.35889 7.63104 5.37897 0.563302 15.1402
files/tasks_parameters/ExAp01/sample14.txt 1.13168 6.66403 4.66322 0.471536 12.6738
files/tasks_parameters/ExAp01/sample0.txt 1.50443 9.3266 4.98971 0.6311 16.9625
files/tasks_parameters/ExAp01/sample7.txt 1.28307 7.34863 5.19436 0.515527 13.8562
files/tasks_parameters/ExAp01/sample23.txt 1.39254 6.68564 5.54308 0.588617 15.8207
files/tasks_parameters/ExAp01/sample13.txt 1.53396 9.31093 5.35591 0.632849 17.0095
files/tasks_parameters/ExAp01/sample22.txt 1.30635 7.65588 5.04866 0.540336 14.523
files/tasks_parameters/ExAp01/sample25.txt 1.0295 6.17035 5.0141 0.408296 10.974
files/tasks_parameters/ExAp01/sample36.txt 1.19769 7.03772 4.66274 0.507647 13.6444
files/tasks_parameters/ExAp01/sample46.txt 1.35236 7.73433 4.79934 0.536843 14.4291
files/tasks_parameters/ExAp01/sample31.txt 1.16998 6.96928 5.16482 0.485817 13.0576
files/tasks_parameters/ExAp01/sample37.txt 1.55148 9.52443 5.74224 0.65799 17.6852
files/tasks_parameters/ExAp01/sample16.txt 1.33854 8.63521 4.97261 0.516328 13.8777
files/tasks_parameters/ExAp01/sample10.txt 1.39877 7.28353 6.16876 0.615651 16.5473
files/tasks_parameters/ExAp01/sample39.txt 1.14417 6.3405 4.6137 0.468873 12.6022
files/tasks_parameters/ExAp01/sample19.txt 1.40328 8.85528 5.22306 0.622152 16.722
files/tasks_parameters/ExAp01/sample20.txt 1.39217 8.1141 5.21177 0.586994 15.777
files/tasks_parameters/ExAp01/sample43.txt 1.24367 7.21373 5.6367 0.53748 14.4462
files/tasks_parameters/ExAp01/sample32.txt 1.43698 8.30592 5.38137 0.593918 15.9631
files/tasks_parameters/ExAp01/sample45.txt 1.30968 7.94069 4.96323 0.547271 14.7094
files/tasks_parameters/ExAp01/sample26.txt 1.12329 7.57061 4.62637 0.480146 12.9052
files/tasks_parameters/ExAp01/sample5.txt 1.37341 8.0307 5.35681 0.59407 15.9672
files/tasks_parameters/ExAp01/sample21.txt 1.02755 5.87802 4.61744 0.434264 11.672
files/tasks_parameters/ExAp01/sample38.txt 1.18992 7.66999 4.86632 0.496808 13.3531
files/tasks_parameters/ExAp01/sample1.txt 1.14035 7.21312 4.63213 0.486293 13.0704
files/tasks_parameters/ExAp01/sample15.txt 1.28125 8.02273 5.50855 0.531063 14.2737
files/tasks_parameters/ExAp01/sample24.txt 1.31071 8.66348 5.4905 0.548998 14.7558
files/tasks_parameters/ExAp01/sample3.txt 1.16072 7.74268 4.79918 0.477387 12.831
files/tasks_parameters/ExAp01/sample6.txt 1.48698 8.57133 5.80157 0.633604 17.0298
files/tasks_parameters/ExAp01/sample30.txt 1.66528 8.18878 5.90888 0.633576 17.0291
files/tasks_parameters/ExAp01/sample42.txt 1.3064 8.57689 5.67253 0.54426 14.6284
files/tasks_parameters/ExAp01/sample4.txt 1.28142 8.40354 4.57985 0.563519 15.1461
files/tasks_parameters/ExAp01/sample28.txt 1.11252 6.44114 4.96426 0.449721 12.0875
files/tasks_parameters/ExAp01/sample18.txt 1.2733 8.56363 4.60946 0.543766 14.6152
files/tasks_parameters/ExAp01/sample35.txt 1.91336 11.0387 6.34514 0.761377 20.464
files/tasks_parameters/ExAp01/sample47.txt 1.32345 7.14493 5.22131 0.545046 14.6496
files/tasks_parameters/ExAp01/sample49.txt 1.28295 6.65996 4.80244 0.498533 13.3994
files/tasks_parameters/ExAp01/sample41.txt 1.18307 7.09069 5.35462 0.497129 13.3617
