files/tasks_parameters/ExAp01/sample8.txt 1.07305 7.2562 4.46819 0.454772 7.86966
files/tasks_parameters/ExAp01/sample12.txt 1.4849 9.70908 5.28286 0.618515 10.7032
files/tasks_parameters/ExAp01/sample2.txt 1.44031 8.14159 5.7401 0.620531 10.7381
files/tasks_parameters/ExAp01/sample44.txt 1.30889 7.25164 5.75904 0.557631 9.64959
files/tasks_parameters/ExAp01/sample27.txt 1.33807 8.10944 5.64946 0.564878 9.77501
files/tasks_parameters/ExAp01/sample17.txt 1.23706 7.11225 5.46658 0.527183 9.12271
files/tasks_parameters/ExAp01/sample9.txt 1.21197 7.62559 5.37813 0.517277 8.95128
files/tasks_parameters/ExAp01/sample34.txt 1.25302 7.04587 5.93037 0.497709 8.61267
files/tasks_parameters/ExAp01/sample40.txt 1.18297 8.03037 5.123 0.502383 8.69354
files/tasks_parameters/ExAp01/sample33.txt 1.52185 9.22935 5.92956 0.659262 11.4083
files/tasks_parameters/ExAp01/sample48.txt 1.0796 8.12182 5.1577 0.452491 7.83018
files/tasks_parameters/ExAp01/sample29.txt 1.49218 8.06133 5.12331 0.650652 11.2593
files/tasks_parameters/ExAp01/sample11.txt 1.30929 7.63104 5.37897 0.563302 9.74773
files/tasks_parameters/ExAp01/sample14.txt 1.13416 6.66403 4.66322 0.471536 8.15976
files/tasks_parameters/ExAp01/sample0.txt 1.49125 9.3266 4.98971 0.6311 10.9209
files/tasks_parameters/ExAp01/sample7.txt 1.21341 7.34863 5.19436 0.515527 8.92101
files/tasks_parameters/ExAp01/sample23.txt 1.35342 6.68564 5.54308 0.588617 10.1858
files/tasks_parameters/ExAp01/sample13.txt 1.49944 9.31093 5.35591 0.632849 10.9512
files/tasks_parameters/ExAp01/sample22.txt 1.28084 7.65588 5.04866 0.540336 9.35031
files/tasks_parameters/ExAp01/sample25.txt 1.01073 6.17035 5.0141 0.408296 7.06541
files/tasks_parameters/ExAp01/sample36.txt 1.18187 7.03772 4.66274 0.507647 8.78464
files/tasks_parameters/ExAp01/sample46.txt 1.2591 7.73433 4.79934 0.536843 9.28988
files/tasks_parameters/ExAp01/sample31.txt 1.17492 6.96928 5.16482 0.485817 8.40689
files/tasks_parameters/ExAp01/sample37.txt 1.51839 9.52443 5.74224 0.65799 11.3863
files/tasks_parameters/ExAp01/sample16.txt 1.2842 8.63521 4.97261 0.516328 8.93486
files/tasks_parameters/ExAp01/sample10.txt 1.43777 7.28353 6.16876 0.615651 10.6536
files/tasks_parameters/ExAp01/sample39.txt 1.12158 6.3405 4.6137 0.468873 8.11368
files/tasks_parameters/ExAp01/sample19.txt 1.43847 8.85528 5.22306 0.622152 10.7661
files/tasks_parameters/ExAp01/sample20.txt 1.36507 8.1141 5.21177 0.586994 10.1577
files/tasks_parameters/ExAp01/sample43.txt 1.27241 7.21373 5.6367 0.53748 9.30088
files/tasks_parameters/ExAp01/sample32.txt 1.39808 8.30592 5.38137 0.593918 10.2775
files/tasks_parameters/ExAp01/sample45.txt 1.2772 7.94069 4.96323 0.547271 9.47032
files/tasks_parameters/ExAp01/sample26.txt 1.13703 7.57061 4.62637 0.480146 8.30874
files/tasks_parameters/ExAp01/sample5.txt 1.37435 8.0307 5.35681 0.59407 10.2802
files/tasks_parameters/ExAp01/sample21.txt 1.04445 5.87802 4.61744 0.434264 7.51478
files/tasks_parameters/ExAp01/sample38.txt 1.15293 7.66999 4.86632 0.496808 8.59708
files/tasks_parameters/ExAp01/sample1.txt 1.16906 7.21312 4.63213 0.486293 8.41512
files/tasks_parameters/ExAp01/sample15.txt 1.26469 8.02273 5.50855 0.531063 9.18984
files/tasks_parameters/ExAp01/sample24.txt 1.28597 8.66348 5.4905 0.548998 9.5002
files/tasks_parameters/ExAp01/sample3.txt 1.13875 7.74268 4.79918 0.477387 8.261
files/tasks_parameters/ExAp01/sample6.txt 1.4582 8.57133 5.80157 0.633604 10.9643
files/tasks_parameters/ExAp01/sample30.txt 1.50007 8.18878 5.90888 0.633576 10.9638
files/tasks_parameters/ExAp01/sample42.txt 1.33359 8.57689 5.67253 0.54426 9.41821
files/tasks_parameters/ExAp01/sample4.txt 1.32805 8.40354 4.57985 0.563519 9.75149
files/tasks_parameters/ExAp01/sample28.txt 1.06341 6.44114 4.96426 0.449721 7.78226
files/tasks_parameters/ExAp01/sample18.txt 1.28006 8.56363 4.60946 0.543766 9.40967
files/tasks_parameters/ExAp01/sample35.txt 1.78222 11.0387 6.34514 0.761377 13.1753
files/tasks_parameters/ExAp01/sample47.txt 1.25541 7.14493 5.22131 0.545046 9.43181
files/tasks_parameters/ExAp01/sample49.txt 1.19834 6.65996 4.80244 0.498533 8.62693
files/tasks_parameters/ExAp01/sample41.txt 1.15045 7.09069 5.35462 0.497129 8.60263
