files/tasks_parameters/ExAp01/sample8.txt 0.910202 3.15778 1.5595 0.203411 11.7716
files/tasks_parameters/ExAp01/sample12.txt 0.82937 3.94962 1.6705 0.207924 12.0327
files/tasks_parameters/ExAp01/sample2.txt 0.852982 3.78275 1.74131 0.200098 11.5798
files/tasks_parameters/ExAp01/sample44.txt 0.8115 3.59825 1.65317 0.200005 11.5745
files/tasks_parameters/ExAp01/sample27.txt 0.761359 3.45743 1.5148 0.182129 10.5399
files/tasks_parameters/ExAp01/sample17.txt 0.687985 2.77299 1.44514 0.14646 8.47574
files/tasks_parameters/ExAp01/sample9.txt 0.705145 2.99933 1.451 0.177444 10.2688
files/tasks_parameters/ExAp01/sample34.txt 0.647004 3.02928 1.58429 0.157984 9.14264
files/tasks_parameters/ExAp01/sample40.txt 0.693687 3.86889 1.52122 0.168379 9.74425
files/tasks_parameters/ExAp01/sample33.txt 0.801808 3.63695 1.71905 0.199765 11.5606
files/tasks_parameters/ExAp01/sample48.txt 0.685923 3.39061 1.49062 0.154728 8.95424
files/tasks_parameters/ExAp01/sample29.txt 0.79433 3.30472 1.38739 0.223868 12.9554
files/tasks_parameters/ExAp01/sample11.txt 0.764589 3.10585 1.41612 0.174079 10.0741
files/tasks_parameters/ExAp01/sample14.txt 0.683826 2.70971 1.43432 0.162214 9.38748
files/tasks_parameters/ExAp01/sample0.txt 0.757772 3.6937 1.5439 0.18367 10.6291
files/tasks_parameters/ExAp01/sample7.txt 0.701047 2.70501 1.42221 0.143463 8.30234
files/tasks_parameters/ExAp01/sample23.txt 0.716711 3.2697 1.57822 0.181448 10.5006
files/tasks_parameters/ExAp01/sample13.txt 0.806389 3.84225 1.67648 0.198247 11.4727
files/tasks_parameters/ExAp01/sample22.txt 0.597504 3.09569 1.56121 0.148796 8.61095
files/tasks_parameters/ExAp01/sample25.txt 0.629664 2.73966 1.5007 0.148149 8.57348
files/tasks_parameters/ExAp01/sample36.txt 0.529464 2.85948 1.28553 0.130042 7.52565
files/tasks_parameters/ExAp01/sample46.txt 0.8823 3.58643 1.69998 0.210103 12.1588
files/tasks_parameters/ExAp01/sample31.txt 0.663554 3.4832 1.53782 0.1722 9.96535
files/tasks_parameters/ExAp01/sample37.txt 0.756177 3.95293 1.50705 0.171701 9.93648
files/tasks_parameters/ExAp01/sample16.txt 0.67714 3.31216 1.30115 0.150249 8.69503
files/tasks_parameters/ExAp01/sample10.txt 0.729635 3.17098 1.61789 0.153776 8.89916
files/tasks_parameters/ExAp01/sample39.txt 0.695461 3.26617 1.44406 0.165669 9.58738
files/tasks_parameters/ExAp01/sample19.txt 0.889121 3.63532 1.52509 0.196094 11.3481
files/tasks_parameters/ExAp01/sample20.txt 0.612456 3.20793 1.25367 0.147335 8.52642
files/tasks_parameters/ExAp01/sample43.txt 0.646723 3.11551 1.4202 0.150644 8.71792
files/tasks_parameters/ExAp01/sample32.txt 0.685131 3.5311 1.42482 0.168744 9.76536
files/tasks_parameters/ExAp01/sample45.txt 0.842098 3.80283 1.48324 0.19807 11.4625
files/tasks_parameters/ExAp01/sample26.txt 0.699605 3.21645 1.29701 0.166061 9.6101
files/tasks_parameters/ExAp01/sample5.txt 0.766769 3.5889 1.52559 0.178903 10.3533
files/tasks_parameters/ExAp01/sample21.txt 0.798162 2.75242 1.55936 0.19512 11.2918
files/tasks_parameters/ExAp01/sample38.txt 0.660918 3.31563 1.37515 0.166157 9.61563
files/tasks_parameters/ExAp01/sample1.txt 0.851987 3.74964 1.51696 0.19701 11.4011
files/tasks_parameters/ExAp01/sample15.txt 0.718155 3.32916 1.48508 0.180707 10.4577
files/tasks_parameters/ExAp01/sample24.txt 0.77153 3.45951 1.59549 0.16529 9.56549
files/tasks_parameters/ExAp01/sample3.txt 0.966019 3.70014 1.70809 0.237107 13.7216
files/tasks_parameters/ExAp01/sample6.txt 0.786453 3.33003 1.58323 0.184714 10.6896
files/tasks_parameters/ExAp01/sample30.txt 0.887127 4.1841 1.4861 0.239623 13.8672
files/tasks_parameters/ExAp01/sample42.txt 0.757942 3.43221 1.70276 0.177383 10.2653
files/tasks_parameters/ExAp01/sample4.txt 0.804541 3.72477 1.6136 0.196448 11.3686
files/tasks_parameters/ExAp01/sample28.txt 0.672794 3.11323 1.45032 0.158819 9.19098
files/tasks_parameters/ExAp01/sample18.txt 0.659385 3.47418 1.45209 0.149064 8.62644
files/tasks_parameters/ExAp01/sample35.txt 0.733196 4.57086 1.49394 0.185031 10.7079
files/tasks_parameters/ExAp01/sample47.txt 0.676879 3.13768 1.52397 0.16417 9.50066
files/tasks_parameters/ExAp01/sample49.txt 0.664523 3.13288 1.49657 0.156154 9.03676
files/tasks_parameters/ExAp01/sample41.txt 0.655537 2.81964 1.49636 0.150876 8.73131
