files/tasks_parameters/ExAp01/sample8.txt 1.08766 3.76817 4.3855 0.450105 26.0479
files/tasks_parameters/ExAp01/sample12.txt 1.54949 5.03638 5.18776 0.610564 35.3339
files/tasks_parameters/ExAp01/sample2.txt 1.43606 4.58991 5.64606 0.613877 35.5256
files/tasks_parameters/ExAp01/sample44.txt 1.29765 3.77401 5.66946 0.551838 31.9353
files/tasks_parameters/ExAp01/sample27.txt 1.29418 4.13937 5.56136 0.55779 32.2797
files/tasks_parameters/ExAp01/sample17.txt 1.20594 3.76163 5.38341 0.520991 30.1502
files/tasks_parameters/ExAp01/sample9.txt 1.19019 3.69889 5.2981 0.511699 29.6125
files/tasks_parameters/ExAp01/sample34.txt 1.13513 3.52435 5.83741 0.49187 28.4649
files/tasks_parameters/ExAp01/sample40.txt 1.16893 4.06185 5.0335 0.496884 28.7551
files/tasks_parameters/ExAp01/sample33.txt 1.55311 4.82091 5.83886 0.651963 37.7296
files/tasks_parameters/ExAp01/sample48.txt 1.08829 4.01134 5.07085 0.447927 25.9219
files/tasks_parameters/ExAp01/sample29.txt 1.48411 4.20847 5.0406 0.643694 37.2511
files/tasks_parameters/ExAp01/sample11.txt 1.34731 3.94699 5.29198 0.557276 32.25
files/tasks_parameters/ExAp01/sample14.txt 1.09167 3.54059 4.58345 0.466713 27.0091
files/tasks_parameters/ExAp01/sample0.txt 1.53376 4.82755 4.90216 0.623551 36.0854
files/tasks_parameters/ExAp01/sample7.txt 1.17706 3.60766 5.11185 0.509566 29.489
files/tasks_parameters/ExAp01/sample23.txt 1.45401 3.81403 5.45799 0.582911 33.7336
files/tasks_parameters/ExAp01/sample13.txt 1.51752 4.8894 5.26818 0.624499 36.1403
files/tasks_parameters/ExAp01/sample22.txt 1.29087 3.76156 4.95746 0.534216 30.9155
files/tasks_parameters/ExAp01/sample25.txt 0.981051 2.94144 4.92622 0.403639 23.3589
files/tasks_parameters/ExAp01/sample36.txt 1.20975 3.56164 4.5806 0.501799 29.0395
files/tasks_parameters/ExAp01/sample46.txt 1.2442 3.84833 4.7121 0.530701 30.7121
files/tasks_parameters/ExAp01/sample31.txt 1.13496 3.764 5.08385 0.479734 27.7626
files/tasks_parameters/ExAp01/sample37.txt 1.52563 4.43254 5.65111 0.65143 37.6988
files/tasks_parameters/ExAp01/sample16.txt 1.3009 4.49741 4.8895 0.509171 29.4661
files/tasks_parameters/ExAp01/sample10.txt 1.37558 3.87086 6.07511 0.60993 35.2971
files/tasks_parameters/ExAp01/sample39.txt 1.09164 3.66299 4.54281 0.463671 26.833
files/tasks_parameters/ExAp01/sample19.txt 1.5243 3.86694 5.14047 0.615987 35.6477
files/tasks_parameters/ExAp01/sample20.txt 1.38712 4.09945 5.13368 0.580369 33.5864
files/tasks_parameters/ExAp01/sample43.txt 1.15541 3.75825 5.55698 0.530892 30.7232
files/tasks_parameters/ExAp01/sample32.txt 1.51511 4.0352 5.29178 0.587643 34.0074
files/tasks_parameters/ExAp01/sample45.txt 1.23262 3.94578 4.87833 0.541081 31.3128
files/tasks_parameters/ExAp01/sample26.txt 1.11268 3.50998 4.55035 0.474009 27.4313
files/tasks_parameters/ExAp01/sample5.txt 1.41321 4.00994 5.27725 0.587681 34.0095
files/tasks_parameters/ExAp01/sample21.txt 0.936956 2.8974 4.54677 0.430037 24.8866
files/tasks_parameters/ExAp01/sample38.txt 1.16361 3.56689 4.78573 0.492366 28.4936
files/tasks_parameters/ExAp01/sample1.txt 1.16253 3.69002 4.55048 0.481074 27.8401
files/tasks_parameters/ExAp01/sample15.txt 1.19462 3.73223 5.42493 0.524964 30.3801
files/tasks_parameters/ExAp01/sample24.txt 1.37209 4.18053 5.40377 0.542575 31.3993
files/tasks_parameters/ExAp01/sample3.txt 1.15304 3.70547 4.7118 0.470503 27.2284
files/tasks_parameters/ExAp01/sample6.txt 1.45747 4.07521 5.71419 0.626702 36.2678
files/tasks_parameters/ExAp01/sample30.txt 1.49376 3.97446 5.82388 0.626709 36.2682
files/tasks_parameters/ExAp01/sample42.txt 1.28874 4.44207 5.58473 0.537025 31.0781
files/tasks_parameters/ExAp01/sample4.txt 1.28921 3.92181 4.49751 0.556974 32.2325
files/tasks_parameters/ExAp01/sample28.txt 1.07208 3.13496 4.88321 0.444588 25.7287
files/tasks_parameters/ExAp01/sample18.txt 1.25559 3.95301 4.52898 0.537438 31.1019
files/tasks_parameters/ExAp01/sample35.txt 2.04468 5.75923 6.25034 0.752488 43.5471
files/tasks_parameters/ExAp01/sample47.txt 1.15754 3.44018 5.14289 0.540033 31.2522
files/tasks_parameters/ExAp01/sample49.txt 1.16127 3.38981 4.72409 0.493041 28.5327
files/tasks_parameters/ExAp01/sample41.txt 1.14347 3.58692 5.27252 0.492391 28.495
