files/tasks_parameters/ExAp01/sample8.txt 1.14384 6.77015 2.19458 0.288816 6.84191
files/tasks_parameters/ExAp01/sample12.txt 1.34186 9.58351 2.46081 0.337498 7.99516
files/tasks_parameters/ExAp01/sample2.txt 1.27363 8.44418 2.50701 0.319127 7.55996
files/tasks_parameters/ExAp01/sample44.txt 1.13965 6.96299 2.23089 0.28229 6.68731
files/tasks_parameters/ExAp01/sample27.txt 1.14204 7.74306 2.16676 0.28602 6.77566
files/tasks_parameters/ExAp01/sample17.txt 1.16638 7.35053 2.25579 0.292348 6.92556
files/tasks_parameters/ExAp01/sample9.txt 1.13007 6.89392 2.21068 0.282399 6.68988
files/tasks_parameters/ExAp01/sample34.txt 1.182 6.62788 2.3772 0.297742 7.05334
files/tasks_parameters/ExAp01/sample40.txt 1.1375 7.75686 2.17534 0.285619 6.76617
files/tasks_parameters/ExAp01/sample33.txt 1.3435 8.14826 2.6463 0.338073 8.00878
files/tasks_parameters/ExAp01/sample48.txt 1.09503 7.64107 2.14272 0.270011 6.39642
files/tasks_parameters/ExAp01/sample29.txt 1.13422 7.139 1.93769 0.286306 6.78243
files/tasks_parameters/ExAp01/sample11.txt 1.11759 6.88688 2.12981 0.280008 6.63325
files/tasks_parameters/ExAp01/sample14.txt 0.995393 6.11983 1.97599 0.247458 5.86214
files/tasks_parameters/ExAp01/sample0.txt 1.17547 8.2738 2.14256 0.289132 6.84938
files/tasks_parameters/ExAp01/sample7.txt 1.10171 6.87011 2.05821 0.269886 6.39345
files/tasks_parameters/ExAp01/sample23.txt 1.17211 6.52032 2.38087 0.291712 6.91049
files/tasks_parameters/ExAp01/sample13.txt 1.18525 8.73247 2.33415 0.295393 6.9977
files/tasks_parameters/ExAp01/sample22.txt 1.13651 6.9777 2.28948 0.283979 6.72732
files/tasks_parameters/ExAp01/sample25.txt 1.07088 6.23444 2.2122 0.267298 6.33214
files/tasks_parameters/ExAp01/sample36.txt 1.04397 6.6174 1.9458 0.253823 6.01293
files/tasks_parameters/ExAp01/sample46.txt 1.30779 7.42369 2.49128 0.327273 7.75292
files/tasks_parameters/ExAp01/sample31.txt 1.0207 7.22028 2.13584 0.25377 6.01167
files/tasks_parameters/ExAp01/sample37.txt 1.24229 8.90704 2.16981 0.295708 7.00517
files/tasks_parameters/ExAp01/sample16.txt 1.05196 8.18243 1.88294 0.24945 5.90933
files/tasks_parameters/ExAp01/sample10.txt 1.18348 6.96646 2.31217 0.285748 6.76922
files/tasks_parameters/ExAp01/sample39.txt 1.03926 6.4161 1.97266 0.251967 5.96896
files/tasks_parameters/ExAp01/sample19.txt 1.28019 8.16711 2.23199 0.308463 7.30732
files/tasks_parameters/ExAp01/sample20.txt 1.04379 7.28549 1.88944 0.25994 6.15784
files/tasks_parameters/ExAp01/sample43.txt 1.02099 6.86804 2.00142 0.25616 6.0683
files/tasks_parameters/ExAp01/sample32.txt 1.11759 8.15663 2.12995 0.281726 6.67395
files/tasks_parameters/ExAp01/sample45.txt 1.14467 7.75184 2.10599 0.274935 6.51306
files/tasks_parameters/ExAp01/sample26.txt 1.08964 7.4944 1.88956 0.267248 6.33096
files/tasks_parameters/ExAp01/sample5.txt 1.12831 8.08362 2.09961 0.28454 6.74061
files/tasks_parameters/ExAp01/sample21.txt 1.04845 6.11814 2.17119 0.26143 6.19313
files/tasks_parameters/ExAp01/sample38.txt 1.05871 7.761 1.96293 0.263659 6.24594
files/tasks_parameters/ExAp01/sample1.txt 1.16463 7.83752 2.13261 0.289228 6.85166
files/tasks_parameters/ExAp01/sample15.txt 1.16055 7.37971 2.12057 0.285825 6.77105
files/tasks_parameters/ExAp01/sample24.txt 1.18162 8.28531 2.25272 0.296628 7.02697
files/tasks_parameters/ExAp01/sample3.txt 1.222 7.33359 2.39135 0.305084 7.22729
files/tasks_parameters/ExAp01/sample6.txt 1.11843 7.09894 2.24425 0.281804 6.6758
files/tasks_parameters/ExAp01/sample30.txt 1.25009 8.17669 2.03701 0.299204 7.08799
files/tasks_parameters/ExAp01/sample42.txt 1.18949 7.70416 2.42413 0.29743 7.04596
files/tasks_parameters/ExAp01/sample4.txt 1.23405 7.41691 2.36261 0.307803 7.29168
files/tasks_parameters/ExAp01/sample28.txt 1.058 7.0562 2.07657 0.266428 6.31154
files/tasks_parameters/ExAp01/sample18.txt 1.10838 7.60139 2.1377 0.268016 6.34916
files/tasks_parameters/ExAp01/sample35.txt 1.2788 9.66795 2.28028 0.32244 7.63843
files/tasks_parameters/ExAp01/sample47.txt 1.00314 6.84842 2.12104 0.251655 5.96157
files/tasks_parameters/ExAp01/sample49.txt 1.02716 7.1497 2.11412 0.255889 6.06187
files/tasks_parameters/ExAp01/sample41.txt 1.06577 6.59911 2.07359 0.265885 6.29868
