files/tasks_parameters/ExAp01/sample8.txt 1.02393 3.76817 4.3855 0.450105 23.0154
files/tasks_parameters/ExAp01/sample12.txt 1.34074 5.03638 5.18776 0.610564 31.2203
files/tasks_parameters/ExAp01/sample2.txt 1.29592 4.58991 5.64606 0.613877 31.3896
files/tasks_parameters/ExAp01/sample44.txt 1.1816 3.77401 5.66946 0.551838 28.2173
files/tasks_parameters/ExAp01/sample27.txt 1.19224 4.13937 5.56136 0.55779 28.5217
files/tasks_parameters/ExAp01/sample17.txt 1.11005 3.76163 5.38341 0.520991 26.6401
files/tasks_parameters/ExAp01/sample9.txt 1.09395 3.69889 5.2981 0.511699 26.1649
files/tasks_parameters/ExAp01/sample34.txt 1.08882 3.52435 5.83741 0.49187 25.151
files/tasks_parameters/ExAp01/sample40.txt 1.06149 4.06185 5.0335 0.496884 25.4074
files/tasks_parameters/ExAp01/sample33.txt 1.40552 4.82091 5.83886 0.651963 33.3371
files/tasks_parameters/ExAp01/sample48.txt 0.987095 4.01134 5.07085 0.447927 22.9041
files/tasks_parameters/ExAp01/sample29.txt 1.35332 4.20847 5.0406 0.643694 32.9143
files/tasks_parameters/ExAp01/sample11.txt 1.24793 3.94699 5.29198 0.557276 28.4954
files/tasks_parameters/ExAp01/sample14.txt 1.02592 3.54059 4.58345 0.466713 23.8647
files/tasks_parameters/ExAp01/sample0.txt 1.33568 4.82755 4.90216 0.623551 31.8843
files/tasks_parameters/ExAp01/sample7.txt 1.10182 3.60766 5.11185 0.509566 26.0558
files/tasks_parameters/ExAp01/sample23.txt 1.26316 3.81403 5.45799 0.582911 29.8063
files/tasks_parameters/ExAp01/sample13.txt 1.34682 4.8894 5.26818 0.624499 31.9328
files/tasks_parameters/ExAp01/sample22.txt 1.16718 3.76156 4.95746 0.534216 27.3163
files/tasks_parameters/ExAp01/sample25.txt 0.899798 2.94144 4.92622 0.403639 20.6395
files/tasks_parameters/ExAp01/sample36.txt 1.14532 3.56164 4.5806 0.501799 25.6587
files/tasks_parameters/ExAp01/sample46.txt 1.14293 3.84833 4.7121 0.530701 27.1366
files/tasks_parameters/ExAp01/sample31.txt 1.06765 3.764 5.08385 0.479734 24.5304
files/tasks_parameters/ExAp01/sample37.txt 1.40456 4.43254 5.65111 0.65143 33.3099
files/tasks_parameters/ExAp01/sample16.txt 1.19589 4.49741 4.8895 0.509171 26.0356
files/tasks_parameters/ExAp01/sample10.txt 1.32001 3.87086 6.07511 0.60993 31.1878
files/tasks_parameters/ExAp01/sample39.txt 1.01209 3.66299 4.54281 0.463671 23.7091
files/tasks_parameters/ExAp01/sample19.txt 1.29496 3.86694 5.14047 0.615987 31.4975
files/tasks_parameters/ExAp01/sample20.txt 1.22988 4.09945 5.13368 0.580369 29.6762
files/tasks_parameters/ExAp01/sample43.txt 1.14437 3.75825 5.55698 0.530892 27.1463
files/tasks_parameters/ExAp01/sample32.txt 1.30189 4.0352 5.29178 0.587643 30.0482
files/tasks_parameters/ExAp01/sample45.txt 1.17158 3.94578 4.87833 0.541081 27.6673
files/tasks_parameters/ExAp01/sample26.txt 1.01387 3.50998 4.55035 0.474009 24.2377
files/tasks_parameters/ExAp01/sample5.txt 1.26578 4.00994 5.27725 0.587681 30.0501
files/tasks_parameters/ExAp01/sample21.txt 0.934426 2.8974 4.54677 0.430037 21.9893
files/tasks_parameters/ExAp01/sample38.txt 1.08094 3.56689 4.78573 0.492366 25.1764
files/tasks_parameters/ExAp01/sample1.txt 1.04415 3.69002 4.55048 0.481074 24.599
files/tasks_parameters/ExAp01/sample15.txt 1.13059 3.73223 5.42493 0.524964 26.8432
files/tasks_parameters/ExAp01/sample24.txt 1.1698 4.18053 5.40377 0.542575 27.7437
files/tasks_parameters/ExAp01/sample3.txt 1.0137 3.70547 4.7118 0.470503 24.0584
files/tasks_parameters/ExAp01/sample6.txt 1.31353 4.07521 5.71419 0.626702 32.0454
files/tasks_parameters/ExAp01/sample30.txt 1.3709 3.97446 5.82388 0.626709 32.0458
files/tasks_parameters/ExAp01/sample42.txt 1.19187 4.44207 5.58473 0.537025 27.4599
files/tasks_parameters/ExAp01/sample4.txt 1.22667 3.92181 4.49751 0.556974 28.48
files/tasks_parameters/ExAp01/sample28.txt 0.947869 3.13496 4.88321 0.444588 22.7333
files/tasks_parameters/ExAp01/sample18.txt 1.18603 3.95301 4.52898 0.537438 27.481
files/tasks_parameters/ExAp01/sample35.txt 1.70241 5.75923 6.25034 0.752488 38.4773
files/tasks_parameters/ExAp01/sample47.txt 1.14008 3.44018 5.14289 0.540033 27.6138
files/tasks_parameters/ExAp01/sample49.txt 1.17439 3.38981 4.72409 0.493041 25.2109
files/tasks_parameters/ExAp01/sample41.txt 1.04989 3.58692 5.27252 0.492391 25.1776
