files/tasks_parameters/ExAp01/sample8.txt 1.10336 7.2562 4.46819 0.454772 14.4812
files/tasks_parameters/ExAp01/sample12.txt 1.6301 9.70908 5.28286 0.618515 19.6951
files/tasks_parameters/ExAp01/sample2.txt 1.45355 8.14159 5.7401 0.620531 19.7594
files/tasks_parameters/ExAp01/sample44.txt 1.32613 7.25164 5.75904 0.557631 17.7564
files/tasks_parameters/ExAp01/sample27.txt 1.31557 8.10944 5.64946 0.564878 17.9872
files/tasks_parameters/ExAp01/sample17.txt 1.24981 7.11225 5.46658 0.527183 16.7869
files/tasks_parameters/ExAp01/sample9.txt 1.19746 7.62559 5.37813 0.517277 16.4715
files/tasks_parameters/ExAp01/sample34.txt 1.23761 7.04587 5.93037 0.497709 15.8484
files/tasks_parameters/ExAp01/sample40.txt 1.201 8.03037 5.123 0.502383 15.9972
files/tasks_parameters/ExAp01/sample33.txt 1.61602 9.22935 5.92956 0.659262 20.9926
files/tasks_parameters/ExAp01/sample48.txt 1.14836 8.12182 5.1577 0.452491 14.4085
files/tasks_parameters/ExAp01/sample29.txt 1.48573 8.06133 5.12331 0.650652 20.7185
files/tasks_parameters/ExAp01/sample11.txt 1.35889 7.63104 5.37897 0.563302 17.937
files/tasks_parameters/ExAp01/sample14.txt 1.13507 6.66403 4.66322 0.471536 15.015
files/tasks_parameters/ExAp01/sample0.txt 1.51587 9.3266 4.98971 0.6311 20.0959
files/tasks_parameters/ExAp01/sample7.txt 1.22307 7.34863 5.19436 0.515527 16.4158
files/tasks_parameters/ExAp01/sample23.txt 1.41687 6.68564 5.54308 0.588617 18.7431
files/tasks_parameters/ExAp01/sample13.txt 1.60706 9.31093 5.35591 0.632849 20.1516
files/tasks_parameters/ExAp01/sample22.txt 1.28633 7.65588 5.04866 0.540336 17.2057
files/tasks_parameters/ExAp01/sample25.txt 1.0295 6.17035 5.0141 0.408296 13.0012
files/tasks_parameters/ExAp01/sample36.txt 1.29563 7.03772 4.66274 0.507647 16.1648
files/tasks_parameters/ExAp01/sample46.txt 1.34602 7.73433 4.79934 0.536843 17.0945
files/tasks_parameters/ExAp01/sample31.txt 1.17262 6.96928 5.16482 0.485817 15.4697
files/tasks_parameters/ExAp01/sample37.txt 1.5913 9.52443 5.74224 0.65799 20.9521
files/tasks_parameters/ExAp01/sample16.txt 1.32998 8.63521 4.97261 0.516328 16.4412
files/tasks_parameters/ExAp01/sample10.txt 1.38186 7.28353 6.16876 0.615651 19.604
files/tasks_parameters/ExAp01/sample39.txt 1.14417 6.3405 4.6137 0.468873 14.9302
files/tasks_parameters/ExAp01/sample19.txt 1.42353 8.85528 5.22306 0.622152 19.811
files/tasks_parameters/ExAp01/sample20.txt 1.39217 8.1141 5.21177 0.586994 18.6914
files/tasks_parameters/ExAp01/sample43.txt 1.24165 7.21373 5.6367 0.53748 17.1148
files/tasks_parameters/ExAp01/sample32.txt 1.45128 8.30592 5.38137 0.593918 18.9119
files/tasks_parameters/ExAp01/sample45.txt 1.29656 7.94069 4.96323 0.547271 17.4266
files/tasks_parameters/ExAp01/sample26.txt 1.12511 7.57061 4.62637 0.480146 15.2891
files/tasks_parameters/ExAp01/sample5.txt 1.38005 8.0307 5.35681 0.59407 18.9168
files/tasks_parameters/ExAp01/sample21.txt 1.02755 5.87802 4.61744 0.434264 13.8281
files/tasks_parameters/ExAp01/sample38.txt 1.18463 7.66999 4.86632 0.496808 15.8197
files/tasks_parameters/ExAp01/sample1.txt 1.13929 7.21312 4.63213 0.486293 15.4849
files/tasks_parameters/ExAp01/sample15.txt 1.26762 8.02273 5.50855 0.531063 16.9104
files/tasks_parameters/ExAp01/sample24.txt 1.31786 8.66348 5.4905 0.548998 17.4815
files/tasks_parameters/ExAp01/sample3.txt 1.16515 7.74268 4.79918 0.477387 15.2013
files/tasks_parameters/ExAp01/sample6.txt 1.49607 8.57133 5.80157 0.633604 20.1756
files/tasks_parameters/ExAp01/sample30.txt 1.58227 8.18878 5.90888 0.633576 20.1747
files/tasks_parameters/ExAp01/sample42.txt 1.30555 8.57689 5.67253 0.54426 17.3307
files/tasks_parameters/ExAp01/sample4.txt 1.30392 8.40354 4.57985 0.563519 17.9439
files/tasks_parameters/ExAp01/sample28.txt 1.11472 6.44114 4.96426 0.449721 14.3203
files/tasks_parameters/ExAp01/sample18.txt 1.35405 8.56363 4.60946 0.543766 17.315
files/tasks_parameters/ExAp01/sample35.txt 1.94058 11.0387 6.34514 0.761377 24.2443
files/tasks_parameters/ExAp01/sample47.txt 1.32172 7.14493 5.22131 0.545046 17.3557
files/tasks_parameters/ExAp01/sample49.txt 1.29774 6.65996 4.80244 0.498533 15.8746
files/tasks_parameters/ExAp01/sample41.txt 1.17684 7.09069 5.35462 0.497129 15.8299
