files/tasks_parameters/ExAp01/sample8.txt 0.783113 3.15778 1.5595 0.203411 3.70658
files/tasks_parameters/ExAp01/sample12.txt 0.789877 3.94962 1.6705 0.207924 3.78881
files/tasks_parameters/ExAp01/sample2.txt 0.777155 3.78275 1.74131 0.200098 3.6462
files/tasks_parameters/ExAp01/sample44.txt 0.692758 3.59825 1.65317 0.200005 3.64452
files/tasks_parameters/ExAp01/sample27.txt 0.689551 3.45743 1.5148 0.182129 3.31877
files/tasks_parameters/ExAp01/sample17.txt 0.830569 2.77299 1.44514 0.14646 2.66881
files/tasks_parameters/ExAp01/sample9.txt 0.711682 2.99933 1.451 0.177444 3.2334
files/tasks_parameters/ExAp01/sample34.txt 0.831645 3.02928 1.58429 0.157984 2.8788
files/tasks_parameters/ExAp01/sample40.txt 0.764954 3.86889 1.52122 0.168379 3.06823
files/tasks_parameters/ExAp01/sample33.txt 0.800863 3.63695 1.71905 0.199765 3.64014
files/tasks_parameters/ExAp01/sample48.txt 0.682871 3.39061 1.49062 0.154728 2.81947
files/tasks_parameters/ExAp01/sample29.txt 0.751094 3.30472 1.38739 0.223868 4.07935
files/tasks_parameters/ExAp01/sample11.txt 0.707957 3.10585 1.41612 0.174079 3.17208
files/tasks_parameters/ExAp01/sample14.txt 0.659877 2.70971 1.43432 0.162214 2.95589
files/tasks_parameters/ExAp01/sample0.txt 0.754793 3.6937 1.5439 0.18367 3.34685
files/tasks_parameters/ExAp01/sample7.txt 0.799885 2.70501 1.42221 0.143463 2.61421
files/tasks_parameters/ExAp01/sample23.txt 0.751205 3.2697 1.57822 0.181448 3.30637
files/tasks_parameters/ExAp01/sample13.txt 0.738271 3.84225 1.67648 0.198247 3.61248
files/tasks_parameters/ExAp01/sample22.txt 0.815182 3.09569 1.56121 0.148796 2.71138
files/tasks_parameters/ExAp01/sample25.txt 0.727641 2.73966 1.5007 0.148149 2.69958
files/tasks_parameters/ExAp01/sample36.txt 0.757872 2.85948 1.28553 0.130042 2.36964
files/tasks_parameters/ExAp01/sample46.txt 0.749765 3.58643 1.69998 0.210103 3.82852
files/tasks_parameters/ExAp01/sample31.txt 0.697043 3.4832 1.53782 0.1722 3.13785
files/tasks_parameters/ExAp01/sample37.txt 0.755313 3.95293 1.50705 0.171701 3.12876
files/tasks_parameters/ExAp01/sample16.txt 0.608876 3.31216 1.30115 0.150249 2.73785
files/tasks_parameters/ExAp01/sample10.txt 0.978252 3.17098 1.61789 0.153776 2.80213
files/tasks_parameters/ExAp01/sample39.txt 0.67381 3.26617 1.44406 0.165669 3.01883
files/tasks_parameters/ExAp01/sample19.txt 0.709659 3.63532 1.52509 0.196094 3.57326
files/tasks_parameters/ExAp01/sample20.txt 0.662812 3.20793 1.25367 0.147335 2.68476
files/tasks_parameters/ExAp01/sample43.txt 0.648941 3.11551 1.4202 0.150644 2.74506
files/tasks_parameters/ExAp01/sample32.txt 0.723839 3.5311 1.42482 0.168744 3.07488
files/tasks_parameters/ExAp01/sample45.txt 0.735696 3.80283 1.48324 0.19807 3.60926
files/tasks_parameters/ExAp01/sample26.txt 0.628533 3.21645 1.29701 0.166061 3.02599
files/tasks_parameters/ExAp01/sample5.txt 0.623345 3.5889 1.52559 0.178903 3.26
files/tasks_parameters/ExAp01/sample21.txt 0.677423 2.75242 1.55936 0.19512 3.5555
files/tasks_parameters/ExAp01/sample38.txt 0.649634 3.31563 1.37515 0.166157 3.02773
files/tasks_parameters/ExAp01/sample1.txt 0.7239 3.74964 1.51696 0.19701 3.58993
files/tasks_parameters/ExAp01/sample15.txt 0.694798 3.32916 1.48508 0.180707 3.29287
files/tasks_parameters/ExAp01/sample24.txt 0.843756 3.45951 1.59549 0.16529 3.01194
files/tasks_parameters/ExAp01/sample3.txt 0.88651 3.70014 1.70809 0.237107 4.32059
files/tasks_parameters/ExAp01/sample6.txt 0.706079 3.33003 1.58323 0.184714 3.36589
files/tasks_parameters/ExAp01/sample30.txt 0.841608 4.1841 1.4861 0.239623 4.36644
files/tasks_parameters/ExAp01/sample42.txt 0.748097 3.43221 1.70276 0.177383 3.23229
files/tasks_parameters/ExAp01/sample4.txt 0.790588 3.72477 1.6136 0.196448 3.5797
files/tasks_parameters/ExAp01/sample28.txt 0.690169 3.11323 1.45032 0.158819 2.89402
files/tasks_parameters/ExAp01/sample18.txt 0.764294 3.47418 1.45209 0.149064 2.71626
files/tasks_parameters/ExAp01/sample35.txt 0.809056 4.57086 1.49394 0.185031 3.37165
files/tasks_parameters/ExAp01/sample47.txt 0.700615 3.13768 1.52397 0.16417 2.99153
files/tasks_parameters/ExAp01/sample49.txt 0.776997 3.13288 1.49657 0.156154 2.84546
files/tasks_parameters/ExAp01/sample41.txt 0.762515 2.81964 1.49636 0.150876 2.74928
