0.30128892
Task0 1 31 15 
Task1 127 31 15 
Task2 63 255 31 
Task3 255 31 31 
Task4 31 31 1 
Task5 255 15 63 
Task6 1 31 7 
Task7 15 127 63 
Task8 1 255 31 
Task9 31 63 15 
Task10 15 15 63 
Task11 255 127 31 
Task12 15 31 15 
Task13 63 15 3 
Task14 7 31 63 
Task15 255 15 7 
Task16 255 127 15 
Task17 7 3 31 
Task18 31 31 255 
Task19 31 7 63 
Task20 15 31 63 
Task21 63 7 7 
Task22 127 31 63 
Task23 255 31 63 
Task24 31 7 15 
Task25 15 127 255 
Task26 63 31 255 
Task27 7 31 255 
Task28 31 63 31 
Task29 63 15 15 
Task30 7 31 31 
Task31 63 127 255 
Task32 255 1 127 
Task33 31 255 255 
Task34 7 1 255 
Task35 31 15 7 
Task36 63 1 7 
Task37 63 31 63 
Task38 1 63 3 
Task39 63 15 31 
Task40 63 31 15 
Task41 31 7 7 
Task42 15 15 31 
Task43 7 63 255 
Task44 255 127 63 
Task45 255 7 15 
Task46 63 31 31 
Task47 7 255 1 
Task48 15 15 7 
Task49 127 63 31 
Task50 7 31 31 
Task51 31 63 63 
Task52 63 15 63 
Task53 15 63 15 
Task54 31 1 3 
Task55 7 31 1 
Task56 1 1 255 
Task57 7 7 31 
Task58 63 3 63 
Task59 255 63 63 
Task60 15 31 1 
Task61 63 15 63 
Task62 63 63 31 
Task63 31 15 7 
Task64 255 3 15 
Task65 63 31 31 
Task66 3 1 31 
Task67 7 63 63 
Task68 127 63 31 
Task69 127 127 15 
Task70 31 31 31 
Task71 63 127 255 
Task72 63 127 255 
Task73 31 255 127 
Task74 15 1 31 
Task75 15 255 255 
Task76 31 31 255 
Task77 255 15 31 
Task78 63 31 31 
Task79 31 31 31 
Task80 31 15 7 
Task81 255 1 15 
Task82 31 1 1 
Task83 1 255 127 
Task84 15 15 127 
Task85 1 63 15 
Task86 63 1 3 
Task87 255 63 31 
Task88 255 63 127 
Task89 63 15 15 
Task90 31 15 15 
Task91 255 31 1 
Task92 3 31 7 
Task93 63 3 3 
Task94 3 63 63 
Task95 31 7 7 
Task96 31 1 15 
Task97 127 255 7 
Task98 7 31 3 
Task99 31 127 255 
