0.3258057
Task0 3 31 63 
Task1 3 63 15 
Task2 7 31 31 
Task3 15 15 63 
Task4 63 15 1 
Task5 31 15 7 
Task6 1 15 31 
Task7 7 31 63 
Task8 3 7 31 
Task9 63 15 255 
Task10 15 63 31 
Task11 255 63 127 
Task12 31 15 3 
Task13 7 63 31 
Task14 31 31 3 
Task15 15 31 7 
Task16 7 3 63 
Task17 63 31 15 
Task18 15 3 15 
Task19 63 7 15 
Task20 31 63 15 
Task21 31 31 63 
Task22 3 31 15 
Task23 31 15 31 
Task24 63 7 31 
Task25 31 63 15 
Task26 1 1 31 
Task27 3 31 31 
Task28 7 31 3 
Task29 31 7 3 
Task30 31 7 7 
Task31 31 31 1 
Task32 3 31 3 
Task33 3 7 31 
Task34 31 63 127 
Task35 31 15 63 
Task36 15 7 31 
Task37 7 31 7 
Task38 1 7 31 
Task39 63 31 7 
Task40 15 7 31 
Task41 1 15 31 
Task42 1 255 63 
Task43 7 31 15 
Task44 31 7 15 
Task45 1 7 31 
Task46 15 31 31 
Task47 7 3 31 
Task48 15 31 3 
Task49 7 31 15 
Task50 7 127 63 
Task51 31 31 15 
Task52 255 255 255 
Task53 31 31 63 
Task54 7 31 15 
Task55 31 1 1 
Task56 63 3 7 
Task57 15 31 3 
Task58 31 3 31 
Task59 255 31 15 
Task60 63 7 15 
Task61 3 31 7 
Task62 15 31 7 
Task63 255 255 255 
Task64 31 31 1 
Task65 31 1 15 
Task66 1 3 31 
Task67 31 31 127 
Task68 63 15 63 
Task69 15 3 63 
Task70 63 1 3 
Task71 3 15 15 
Task72 15 7 31 
Task73 15 31 63 
Task74 7 31 15 
Task75 7 1 31 
Task76 3 31 3 
Task77 31 1 15 
Task78 31 3 1 
Task79 7 7 31 
Task80 3 63 63 
Task81 3 15 15 
Task82 7 31 3 
Task83 31 1 3 
Task84 31 63 63 
Task85 15 15 31 
Task86 31 3 7 
Task87 31 15 15 
Task88 255 1 255 
Task89 7 31 3 
Task90 1 1 31 
Task91 31 7 15 
Task92 15 3 63 
Task93 31 31 7 
Task94 3 15 15 
Task95 31 3 1 
Task96 63 63 31 
Task97 7 31 31 
Task98 31 7 15 
Task99 31 15 1 
