Task0 1 1 1 
Task1 1 1 1 
Task2 1 1 1 
Task3 1 1 1 
Task4 1 1 1 
Task5 1 3 1 
Task6 1 3 1 
Task7 1 1 1 
Task8 3 1 3 
Task9 3 1 3 
Task10 1 1 1 
Task11 1 1 1 
Task12 1 1 1 
Task13 1 1 1 
Task14 1 1 1 
Task15 7 15 1 
Task16 1 3 3 
Task17 3 3 1 
Task18 1 1 1 
Task19 1 1 1 
Task20 1 1 1 
Task21 1 1 1 
Task22 1 1 1 
Task23 1 1 1 
Task24 1 3 1 
Task25 1 1 1 
Task26 1 1 1 
Task27 1 1 1 
Task28 1 3 1 
Task29 1 1 1 
Task30 3 3 1 
Task31 1 1 1 
Task32 3 1 1 
Task33 1 1 1 
Task34 1 1 1 
Task35 1 1 1 
Task36 1 1 1 
Task37 1 1 1 
Task38 1 1 1 
Task39 1 1 1 
Task40 3 3 1 
Task41 1 1 1 
Task42 1 3 1 
Task43 1 1 1 
Task44 1 3 3 
Task45 1 1 1 
Task46 1 1 1 
Task47 1 1 1 
Task48 1 1 1 
Task49 1 1 1 
Task50 1 1 1 
Task51 3 3 1 
Task52 3 1 3 
Task53 1 1 1 
Task54 1 1 1 
Task55 1 3 1 
Task56 1 1 1 
Task57 1 3 1 
Task58 1 1 1 
Task59 3 3 1 
Task60 1 1 1 
Task61 1 1 1 
Task62 1 1 1 
Task63 3 1 1 
Task64 1 1 1 
Task65 1 1 3 
Task66 1 1 3 
Task67 3 1 1 
Task68 1 3 3 
Task69 1 1 1 
Task70 1 1 1 
Task71 1 1 1 
Task72 3 3 1 
Task73 1 1 1 
Task74 1 1 1 
Task75 1 1 1 
Task76 7 3 1 
Task77 1 1 1 
Task78 1 1 1 
Task79 1 3 3 
Task80 1 1 1 
Task81 1 3 3 
Task82 1 1 1 
Task83 1 1 1 
Task84 3 3 1 
Task85 1 1 1 
Task86 1 1 1 
Task87 1 1 1 
Task88 1 3 3 
Task89 3 3 1 
Task90 1 1 1 
Task91 1 1 1 
Task92 3 1 1 
Task93 1 3 1 
Task94 7 1 3 
Task95 1 1 1 
Task96 1 1 1 
Task97 1 1 1 
Task98 1 3 3 
Task99 1 3 3 
