0.29385824
Task0 7 7 15 
Task1 1 7 31 
Task2 31 7 1 
Task3 7 3 31 
Task4 31 7 3 
Task5 127 127 255 
Task6 3 31 15 
Task7 15 31 15 
Task8 3 63 15 
Task9 31 7 15 
Task10 15 1 31 
Task11 3 15 15 
Task12 1 7 31 
Task13 31 3 15 
Task14 15 15 63 
Task15 31 1 3 
Task16 63 3 15 
Task17 127 255 127 
Task18 3 1 31 
Task19 1 31 15 
Task20 7 7 63 
Task21 15 3 63 
Task22 31 7 7 
Task23 31 3 31 
Task24 31 31 31 
Task25 31 31 31 
Task26 3 31 3 
Task27 31 63 31 
Task28 15 63 31 
Task29 31 31 31 
Task30 31 7 3 
Task31 15 15 31 
Task32 7 31 7 
Task33 31 15 1 
Task34 31 7 63 
Task35 15 7 7 
Task36 31 15 31 
Task37 7 7 63 
Task38 31 31 15 
Task39 3 31 7 
Task40 7 31 63 
Task41 1 31 3 
Task42 63 63 31 
Task43 1 31 1 
Task44 7 15 31 
Task45 3 31 3 
Task46 15 1 31 
Task47 7 31 3 
Task48 1 15 31 
Task49 1 7 15 
Task50 7 3 15 
Task51 31 31 15 
Task52 7 1 31 
Task53 3 31 63 
Task54 7 3 15 
Task55 3 31 1 
Task56 127 1 31 
Task57 63 7 7 
Task58 63 15 31 
Task59 15 1 7 
Task60 7 31 3 
Task61 15 15 31 
Task62 31 3 3 
Task63 3 3 31 
Task64 1 3 31 
Task65 15 7 3 
Task66 1 1 31 
Task67 3 7 31 
Task68 7 15 31 
Task69 31 31 15 
Task70 3 3 31 
Task71 7 15 1 
Task72 15 15 31 
Task73 7 1 31 
Task74 31 15 7 
Task75 1 3 31 
Task76 63 31 15 
Task77 15 31 31 
Task78 3 3 15 
Task79 31 7 7 
Task80 7 15 15 
Task81 7 31 7 
Task82 255 63 255 
Task83 15 31 31 
Task84 31 15 31 
Task85 63 31 15 
Task86 31 15 1 
Task87 63 63 31 
Task88 1 1 31 
Task89 31 127 31 
Task90 31 7 31 
Task91 3 31 31 
Task92 15 15 3 
Task93 15 15 15 
Task94 7 31 31 
Task95 31 3 3 
Task96 3 31 1 
Task97 15 31 31 
Task98 15 7 15 
Task99 15 3 3 
