files/tasks_parameters/ExAp01/sample8.txt 2.80541 6.77015 2.19458 0.288816 6.12118
files/tasks_parameters/ExAp01/sample12.txt 3.20068 9.58351 2.46081 0.337498 7.15295
files/tasks_parameters/ExAp01/sample2.txt 3.06269 8.44418 2.50701 0.319127 6.76359
files/tasks_parameters/ExAp01/sample44.txt 2.73099 6.96299 2.23089 0.28229 5.98287
files/tasks_parameters/ExAp01/sample27.txt 2.71963 7.74306 2.16676 0.28602 6.06191
files/tasks_parameters/ExAp01/sample17.txt 2.7996 7.35053 2.25579 0.292348 6.19602
files/tasks_parameters/ExAp01/sample9.txt 2.73159 6.89392 2.21068 0.282399 5.98517
files/tasks_parameters/ExAp01/sample34.txt 2.88175 6.62788 2.3772 0.297742 6.31035
files/tasks_parameters/ExAp01/sample40.txt 2.79406 7.75686 2.17534 0.285619 6.05342
files/tasks_parameters/ExAp01/sample33.txt 3.30415 8.14826 2.6463 0.338073 7.16513
files/tasks_parameters/ExAp01/sample48.txt 2.60759 7.64107 2.14272 0.270011 5.72262
files/tasks_parameters/ExAp01/sample29.txt 2.52988 7.139 1.93769 0.286306 6.06797
files/tasks_parameters/ExAp01/sample11.txt 2.6595 6.88688 2.12981 0.280008 5.93451
files/tasks_parameters/ExAp01/sample14.txt 2.36534 6.11983 1.97599 0.247458 5.24462
files/tasks_parameters/ExAp01/sample0.txt 2.75658 8.2738 2.14256 0.289132 6.12787
files/tasks_parameters/ExAp01/sample7.txt 2.60498 6.87011 2.05821 0.269886 5.71996
files/tasks_parameters/ExAp01/sample23.txt 2.80276 6.52032 2.38087 0.291712 6.18254
files/tasks_parameters/ExAp01/sample13.txt 2.80876 8.73247 2.33415 0.295393 6.26056
files/tasks_parameters/ExAp01/sample22.txt 2.68117 6.9777 2.28948 0.283979 6.01866
files/tasks_parameters/ExAp01/sample25.txt 2.52478 6.23444 2.2122 0.267298 5.66512
files/tasks_parameters/ExAp01/sample36.txt 2.44781 6.6174 1.9458 0.253823 5.37953
files/tasks_parameters/ExAp01/sample46.txt 3.1102 7.42369 2.49128 0.327273 6.93623
files/tasks_parameters/ExAp01/sample31.txt 2.44013 7.22028 2.13584 0.25377 5.37841
files/tasks_parameters/ExAp01/sample37.txt 2.81357 8.90704 2.16981 0.295708 6.26725
files/tasks_parameters/ExAp01/sample16.txt 2.40871 8.18243 1.88294 0.24945 5.28684
files/tasks_parameters/ExAp01/sample10.txt 2.74084 6.96646 2.31217 0.285748 6.05615
files/tasks_parameters/ExAp01/sample39.txt 2.38737 6.4161 1.97266 0.251967 5.34019
files/tasks_parameters/ExAp01/sample19.txt 2.97509 8.16711 2.23199 0.308463 6.53757
files/tasks_parameters/ExAp01/sample20.txt 2.45031 7.28549 1.88944 0.25994 5.50917
files/tasks_parameters/ExAp01/sample43.txt 2.44821 6.86804 2.00142 0.25616 5.42907
files/tasks_parameters/ExAp01/sample32.txt 2.71022 8.15663 2.12995 0.281726 5.97092
files/tasks_parameters/ExAp01/sample45.txt 2.59285 7.75184 2.10599 0.274935 5.82698
files/tasks_parameters/ExAp01/sample26.txt 2.56367 7.4944 1.88956 0.267248 5.66406
files/tasks_parameters/ExAp01/sample5.txt 2.73863 8.08362 2.09961 0.28454 6.03056
files/tasks_parameters/ExAp01/sample21.txt 2.50421 6.11814 2.17119 0.26143 5.54075
files/tasks_parameters/ExAp01/sample38.txt 2.52166 7.761 1.96293 0.263659 5.58799
files/tasks_parameters/ExAp01/sample1.txt 2.76122 7.83752 2.13261 0.289228 6.12991
files/tasks_parameters/ExAp01/sample15.txt 2.77243 7.37971 2.12057 0.285825 6.05779
files/tasks_parameters/ExAp01/sample24.txt 2.86083 8.28531 2.25272 0.296628 6.28675
files/tasks_parameters/ExAp01/sample3.txt 2.95767 7.33359 2.39135 0.305084 6.46597
files/tasks_parameters/ExAp01/sample6.txt 2.69766 7.09894 2.24425 0.281804 5.97257
files/tasks_parameters/ExAp01/sample30.txt 2.81944 8.17669 2.03701 0.299204 6.34134
files/tasks_parameters/ExAp01/sample42.txt 2.89479 7.70416 2.42413 0.29743 6.30374
files/tasks_parameters/ExAp01/sample4.txt 2.97455 7.41691 2.36261 0.307803 6.52358
files/tasks_parameters/ExAp01/sample28.txt 2.56388 7.0562 2.07657 0.266428 5.64668
files/tasks_parameters/ExAp01/sample18.txt 2.57675 7.60139 2.1377 0.268016 5.68034
files/tasks_parameters/ExAp01/sample35.txt 3.04827 9.66795 2.28028 0.32244 6.83379
files/tasks_parameters/ExAp01/sample47.txt 2.42685 6.84842 2.12104 0.251655 5.33358
files/tasks_parameters/ExAp01/sample49.txt 2.46231 7.1497 2.11412 0.255889 5.42332
files/tasks_parameters/ExAp01/sample41.txt 2.56678 6.59911 2.07359 0.265885 5.63518
