files/tasks_parameters/ExAp01/sample8.txt 1.10872 7.2562 4.46819 0.454772 13.4447
files/tasks_parameters/ExAp01/sample12.txt 1.60101 9.70908 5.28286 0.618515 18.2855
files/tasks_parameters/ExAp01/sample2.txt 1.42823 8.14159 5.7401 0.620531 18.3451
files/tasks_parameters/ExAp01/sample44.txt 1.32372 7.25164 5.75904 0.557631 16.4855
files/tasks_parameters/ExAp01/sample27.txt 1.31811 8.10944 5.64946 0.564878 16.6998
files/tasks_parameters/ExAp01/sample17.txt 1.24108 7.11225 5.46658 0.527183 15.5854
files/tasks_parameters/ExAp01/sample9.txt 1.18763 7.62559 5.37813 0.517277 15.2925
files/tasks_parameters/ExAp01/sample34.txt 1.23437 7.04587 5.93037 0.497709 14.714
files/tasks_parameters/ExAp01/sample40.txt 1.20111 8.03037 5.123 0.502383 14.8522
files/tasks_parameters/ExAp01/sample33.txt 1.54135 9.22935 5.92956 0.659262 19.4901
files/tasks_parameters/ExAp01/sample48.txt 1.11969 8.12182 5.1577 0.452491 13.3772
files/tasks_parameters/ExAp01/sample29.txt 1.45572 8.06133 5.12331 0.650652 19.2355
files/tasks_parameters/ExAp01/sample11.txt 1.3059 7.63104 5.37897 0.563302 16.6532
files/tasks_parameters/ExAp01/sample14.txt 1.12651 6.66403 4.66322 0.471536 13.9403
files/tasks_parameters/ExAp01/sample0.txt 1.45256 9.3266 4.98971 0.6311 18.6575
files/tasks_parameters/ExAp01/sample7.txt 1.24252 7.34863 5.19436 0.515527 15.2408
files/tasks_parameters/ExAp01/sample23.txt 1.34394 6.68564 5.54308 0.588617 17.4016
files/tasks_parameters/ExAp01/sample13.txt 1.4653 9.31093 5.35591 0.632849 18.7092
files/tasks_parameters/ExAp01/sample22.txt 1.27746 7.65588 5.04866 0.540336 15.9742
files/tasks_parameters/ExAp01/sample25.txt 1.01203 6.17035 5.0141 0.408296 12.0707
files/tasks_parameters/ExAp01/sample36.txt 1.21562 7.03772 4.66274 0.507647 15.0078
files/tasks_parameters/ExAp01/sample46.txt 1.27163 7.73433 4.79934 0.536843 15.871
files/tasks_parameters/ExAp01/sample31.txt 1.17474 6.96928 5.16482 0.485817 14.3625
files/tasks_parameters/ExAp01/sample37.txt 1.53255 9.52443 5.74224 0.65799 19.4525
files/tasks_parameters/ExAp01/sample16.txt 1.37079 8.63521 4.97261 0.516328 15.2644
files/tasks_parameters/ExAp01/sample10.txt 1.39129 7.28353 6.16876 0.615651 18.2008
files/tasks_parameters/ExAp01/sample39.txt 1.11407 6.3405 4.6137 0.468873 13.8615
files/tasks_parameters/ExAp01/sample19.txt 1.38583 8.85528 5.22306 0.622152 18.393
files/tasks_parameters/ExAp01/sample20.txt 1.37056 8.1141 5.21177 0.586994 17.3536
files/tasks_parameters/ExAp01/sample43.txt 1.24467 7.21373 5.6367 0.53748 15.8898
files/tasks_parameters/ExAp01/sample32.txt 1.37807 8.30592 5.38137 0.593918 17.5583
files/tasks_parameters/ExAp01/sample45.txt 1.27675 7.94069 4.96323 0.547271 16.1792
files/tasks_parameters/ExAp01/sample26.txt 1.1239 7.57061 4.62637 0.480146 14.1948
files/tasks_parameters/ExAp01/sample5.txt 1.35618 8.0307 5.35681 0.59407 17.5628
files/tasks_parameters/ExAp01/sample21.txt 1.03407 5.87802 4.61744 0.434264 12.8384
files/tasks_parameters/ExAp01/sample38.txt 1.15704 7.66999 4.86632 0.496808 14.6874
files/tasks_parameters/ExAp01/sample1.txt 1.17431 7.21312 4.63213 0.486293 14.3765
files/tasks_parameters/ExAp01/sample15.txt 1.26385 8.02273 5.50855 0.531063 15.7001
files/tasks_parameters/ExAp01/sample24.txt 1.30063 8.66348 5.4905 0.548998 16.2303
files/tasks_parameters/ExAp01/sample3.txt 1.12799 7.74268 4.79918 0.477387 14.1132
files/tasks_parameters/ExAp01/sample6.txt 1.43375 8.57133 5.80157 0.633604 18.7315
files/tasks_parameters/ExAp01/sample30.txt 1.53568 8.18878 5.90888 0.633576 18.7307
files/tasks_parameters/ExAp01/sample42.txt 1.33824 8.57689 5.67253 0.54426 16.0902
files/tasks_parameters/ExAp01/sample4.txt 1.28442 8.40354 4.57985 0.563519 16.6596
files/tasks_parameters/ExAp01/sample28.txt 1.04378 6.44114 4.96426 0.449721 13.2953
files/tasks_parameters/ExAp01/sample18.txt 1.31692 8.56363 4.60946 0.543766 16.0756
files/tasks_parameters/ExAp01/sample35.txt 1.84148 11.0387 6.34514 0.761377 22.509
files/tasks_parameters/ExAp01/sample47.txt 1.29987 7.14493 5.22131 0.545046 16.1134
files/tasks_parameters/ExAp01/sample49.txt 1.25343 6.65996 4.80244 0.498533 14.7384
files/tasks_parameters/ExAp01/sample41.txt 1.16453 7.09069 5.35462 0.497129 14.6969
