files/tasks_parameters/ExAp01/sample8.txt 0.746906 3.15778 1.5595 0.203411 6.99953
files/tasks_parameters/ExAp01/sample12.txt 0.808326 3.94962 1.6705 0.207924 7.15482
files/tasks_parameters/ExAp01/sample2.txt 0.772782 3.78275 1.74131 0.200098 6.88551
files/tasks_parameters/ExAp01/sample44.txt 0.746675 3.59825 1.65317 0.200005 6.88233
files/tasks_parameters/ExAp01/sample27.txt 0.702904 3.45743 1.5148 0.182129 6.26718
files/tasks_parameters/ExAp01/sample17.txt 0.582686 2.77299 1.44514 0.14646 5.03979
files/tasks_parameters/ExAp01/sample9.txt 0.699994 2.99933 1.451 0.177444 6.10597
files/tasks_parameters/ExAp01/sample34.txt 0.630253 3.02928 1.58429 0.157984 5.43634
files/tasks_parameters/ExAp01/sample40.txt 0.664765 3.86889 1.52122 0.168379 5.79406
files/tasks_parameters/ExAp01/sample33.txt 0.751586 3.63695 1.71905 0.199765 6.87406
files/tasks_parameters/ExAp01/sample48.txt 0.620142 3.39061 1.49062 0.154728 5.32432
files/tasks_parameters/ExAp01/sample29.txt 0.815075 3.30472 1.38739 0.223868 7.70348
files/tasks_parameters/ExAp01/sample11.txt 0.656255 3.10585 1.41612 0.174079 5.99018
files/tasks_parameters/ExAp01/sample14.txt 0.616343 2.70971 1.43432 0.162214 5.58192
files/tasks_parameters/ExAp01/sample0.txt 0.737667 3.6937 1.5439 0.18367 6.32022
files/tasks_parameters/ExAp01/sample7.txt 0.582612 2.70501 1.42221 0.143463 4.93669
files/tasks_parameters/ExAp01/sample23.txt 0.707321 3.2697 1.57822 0.181448 6.24378
files/tasks_parameters/ExAp01/sample13.txt 0.756279 3.84225 1.67648 0.198247 6.82183
files/tasks_parameters/ExAp01/sample22.txt 0.596503 3.09569 1.56121 0.148796 5.12019
files/tasks_parameters/ExAp01/sample25.txt 0.535589 2.73966 1.5007 0.148149 5.09791
files/tasks_parameters/ExAp01/sample36.txt 0.539696 2.85948 1.28553 0.130042 4.47485
files/tasks_parameters/ExAp01/sample46.txt 0.768998 3.58643 1.69998 0.210103 7.2298
files/tasks_parameters/ExAp01/sample31.txt 0.710483 3.4832 1.53782 0.1722 5.92553
files/tasks_parameters/ExAp01/sample37.txt 0.686459 3.95293 1.50705 0.171701 5.90836
files/tasks_parameters/ExAp01/sample16.txt 0.611224 3.31216 1.30115 0.150249 5.17018
files/tasks_parameters/ExAp01/sample10.txt 0.632329 3.17098 1.61789 0.153776 5.29156
files/tasks_parameters/ExAp01/sample39.txt 0.634278 3.26617 1.44406 0.165669 5.70079
files/tasks_parameters/ExAp01/sample19.txt 0.77884 3.63532 1.52509 0.196094 6.74776
files/tasks_parameters/ExAp01/sample20.txt 0.568754 3.20793 1.25367 0.147335 5.06992
files/tasks_parameters/ExAp01/sample43.txt 0.592945 3.11551 1.4202 0.150644 5.18379
files/tasks_parameters/ExAp01/sample32.txt 0.682383 3.5311 1.42482 0.168744 5.80662
files/tasks_parameters/ExAp01/sample45.txt 0.780251 3.80283 1.48324 0.19807 6.81575
files/tasks_parameters/ExAp01/sample26.txt 0.623357 3.21645 1.29701 0.166061 5.71429
files/tasks_parameters/ExAp01/sample5.txt 0.704155 3.5889 1.52559 0.178903 6.1562
files/tasks_parameters/ExAp01/sample21.txt 0.73382 2.75242 1.55936 0.19512 6.71424
files/tasks_parameters/ExAp01/sample38.txt 0.632046 3.31563 1.37515 0.166157 5.71758
files/tasks_parameters/ExAp01/sample1.txt 0.744422 3.74964 1.51696 0.19701 6.77925
files/tasks_parameters/ExAp01/sample15.txt 0.684261 3.32916 1.48508 0.180707 6.21828
files/tasks_parameters/ExAp01/sample24.txt 0.654566 3.45951 1.59549 0.16529 5.68777
files/tasks_parameters/ExAp01/sample3.txt 0.898017 3.70014 1.70809 0.237107 8.15903
files/tasks_parameters/ExAp01/sample6.txt 0.67917 3.33003 1.58323 0.184714 6.35616
files/tasks_parameters/ExAp01/sample30.txt 0.940163 4.1841 1.4861 0.239623 8.24561
files/tasks_parameters/ExAp01/sample42.txt 0.674509 3.43221 1.70276 0.177383 6.10388
files/tasks_parameters/ExAp01/sample4.txt 0.781152 3.72477 1.6136 0.196448 6.75993
files/tasks_parameters/ExAp01/sample28.txt 0.610081 3.11323 1.45032 0.158819 5.46508
files/tasks_parameters/ExAp01/sample18.txt 0.606407 3.47418 1.45209 0.149064 5.1294
files/tasks_parameters/ExAp01/sample35.txt 0.76324 4.57086 1.49394 0.185031 6.36705
files/tasks_parameters/ExAp01/sample47.txt 0.642561 3.13768 1.52397 0.16417 5.64922
files/tasks_parameters/ExAp01/sample49.txt 0.631194 3.13288 1.49657 0.156154 5.37338
files/tasks_parameters/ExAp01/sample41.txt 0.585003 2.81964 1.49636 0.150876 5.19175
