0 13
0 14
0 16
1 13
1 14
1 16
1 18
1 19
1 20
2 15
2 18
2 19
3 15
3 16
3 17
3 20
4 13
4 18
5 13
5 16
5 17
5 19
6 19
7 17
7 19
8 16
9 14
9 16
9 17
9 18
10 14
10 17
10 20
11 15
11 20
12 16
13 21
13 24
14 21
14 22
14 26
14 33
15 22
15 24
15 26
15 28
15 32
16 22
16 24
16 26
16 27
16 32
17 22
17 25
17 31
17 33
17 34
18 29
18 30
18 31
19 23
19 28
20 21
20 24
20 27
21 39
21 40
21 41
21 43
21 45
22 42
22 44
23 41
23 42
24 37
24 41
24 44
25 40
25 41
25 43
26 35
26 37
26 41
27 44
28 36
28 38
28 44
29 37
29 40
29 42
30 41
30 42
30 42
31 37
31 40
31 41
31 43
32 37
33 37
33 43
33 44
34 35
34 39
34 43
35 48
36 49
36 55
36 56
36 59
37 49
37 52
37 56
37 58
38 47
38 50
38 52
39 46
39 55
40 47
40 54
40 55
41 48
41 52
41 53
41 55
42 52
42 56
42 57
42 58
43 50
43 51
44 47
44 58
45 48
45 49
45 52
45 58
46 66
47 60
47 63
47 65
48 60
48 64
48 65
49 60
49 61
49 62
49 65
50 64
50 65
50 66
51 60
51 61
52 67
53 60
53 61
53 63
53 64
53 66
54 67
55 65
55 66
56 61
56 65
56 66
56 67
57 60
57 66
59 60
59 66
59 67
60 68
60 70
60 72
60 75
60 79
61 68
61 69
61 74
61 75
61 78
62 71
62 72
62 74
63 70
63 71
63 78
64 69
64 70
64 76
64 78
65 69
65 73
65 75
65 77
65 78
66 68
66 70
66 72
66 75
66 76
66 77
67 77
67 80
68 85
68 89
69 84
70 83
70 86
71 86
71 87
72 81
72 82
72 85
72 86
72 87
72 88
73 81
73 82
73 85
75 89
76 81
76 82
76 83
76 88
77 82
77 83
78 84
78 89
79 81
79 82
79 83
79 85
79 86
80 83
80 84
80 85
80 88
81 92
81 97
82 90
82 94
83 95
83 97
84 91
84 92
84 94
85 90
85 95
85 97
86 91
86 95
86 97
87 92
87 96
88 90
88 93
88 94
88 97
89 90
89 95
89 96
91 98
92 98
93 98
94 98
95 99
