0.34815720000000006
Task0 31 31 31 
Task1 31 3 31 
Task2 127 127 63 
Task3 63 255 255 
Task4 63 31 7 
Task5 7 31 15 
Task6 63 7 63 
Task7 15 31 1 
Task8 3 3 31 
Task9 255 63 31 
Task10 15 15 31 
Task11 31 15 3 
Task12 255 31 255 
Task13 3 31 1 
Task14 31 127 127 
Task15 63 63 63 
Task16 15 127 31 
Task17 1 3 31 
Task18 15 31 15 
Task19 63 7 31 
Task20 31 15 15 
Task21 1 3 63 
Task22 3 63 15 
Task23 31 31 15 
Task24 7 3 63 
Task25 1 7 31 
Task26 7 31 7 
Task27 31 3 15 
Task28 15 3 63 
Task29 15 31 31 
Task30 31 31 31 
Task31 31 63 7 
Task32 31 15 127 
Task33 63 31 63 
Task34 31 1 7 
Task35 255 63 127 
Task36 255 63 255 
Task37 1 63 7 
Task38 63 3 31 
Task39 7 63 3 
Task40 63 127 63 
Task41 31 63 7 
Task42 3 31 63 
Task43 31 31 1 
Task44 31 7 63 
Task45 15 31 31 
Task46 7 7 31 
Task47 7 31 31 
Task48 31 31 31 
Task49 31 255 31 
Task50 63 255 127 
Task51 7 31 7 
Task52 63 15 7 
Task53 15 7 31 
Task54 31 255 63 
Task55 1 63 31 
Task56 31 3 7 
Task57 63 127 31 
Task58 7 31 1 
Task59 31 3 3 
Task60 31 3 7 
Task61 31 31 31 
Task62 255 255 31 
Task63 15 63 7 
Task64 3 63 31 
Task65 255 31 63 
Task66 1 15 31 
Task67 1 31 15 
Task68 31 63 7 
Task69 15 7 31 
Task70 255 15 127 
Task71 7 15 63 
Task72 15 127 127 
Task73 31 7 31 
Task74 1 63 15 
Task75 7 31 63 
Task76 15 127 63 
Task77 15 63 15 
Task78 3 63 7 
Task79 127 127 255 
Task80 31 7 3 
Task81 1 31 3 
Task82 255 31 255 
Task83 1 31 3 
Task84 1 31 15 
Task85 31 15 7 
Task86 1 7 31 
Task87 31 7 31 
Task88 15 31 63 
Task89 31 63 31 
Task90 15 15 63 
Task91 31 63 15 
Task92 7 63 127 
Task93 15 7 31 
Task94 3 15 31 
Task95 63 3 63 
Task96 63 7 15 
Task97 63 15 31 
Task98 1 31 31 
Task99 15 7 63 
