files/tasks_parameters/ExAp01/sample8.txt 1.09422 6.77015 2.19458 0.288816 7.38655
files/tasks_parameters/ExAp01/sample12.txt 1.20993 9.58351 2.46081 0.337498 8.6316
files/tasks_parameters/ExAp01/sample2.txt 1.1553 8.44418 2.50701 0.319127 8.16175
files/tasks_parameters/ExAp01/sample44.txt 0.973755 6.96299 2.23089 0.28229 7.21964
files/tasks_parameters/ExAp01/sample27.txt 1.04581 7.74306 2.16676 0.28602 7.31502
files/tasks_parameters/ExAp01/sample17.txt 1.01083 7.35053 2.25579 0.292348 7.47686
files/tasks_parameters/ExAp01/sample9.txt 1.00108 6.89392 2.21068 0.282399 7.22242
files/tasks_parameters/ExAp01/sample34.txt 1.07389 6.62788 2.3772 0.297742 7.61481
files/tasks_parameters/ExAp01/sample40.txt 0.962962 7.75686 2.17534 0.285619 7.30478
files/tasks_parameters/ExAp01/sample33.txt 1.29586 8.14826 2.6463 0.338073 8.6463
files/tasks_parameters/ExAp01/sample48.txt 0.973826 7.64107 2.14272 0.270011 6.9056
files/tasks_parameters/ExAp01/sample29.txt 1.01713 7.139 1.93769 0.286306 7.32233
files/tasks_parameters/ExAp01/sample11.txt 0.982925 6.88688 2.12981 0.280008 7.16128
files/tasks_parameters/ExAp01/sample14.txt 0.865254 6.11983 1.97599 0.247458 6.32879
files/tasks_parameters/ExAp01/sample0.txt 1.01353 8.2738 2.14256 0.289132 7.39461
files/tasks_parameters/ExAp01/sample7.txt 0.983536 6.87011 2.05821 0.269886 6.90238
files/tasks_parameters/ExAp01/sample23.txt 1.08562 6.52032 2.38087 0.291712 7.46059
files/tasks_parameters/ExAp01/sample13.txt 1.02227 8.73247 2.33415 0.295393 7.55473
files/tasks_parameters/ExAp01/sample22.txt 1.0083 6.9777 2.28948 0.283979 7.26283
files/tasks_parameters/ExAp01/sample25.txt 0.931177 6.23444 2.2122 0.267298 6.8362
files/tasks_parameters/ExAp01/sample36.txt 0.908972 6.6174 1.9458 0.253823 6.49157
files/tasks_parameters/ExAp01/sample46.txt 1.21843 7.42369 2.49128 0.327273 8.37008
files/tasks_parameters/ExAp01/sample31.txt 0.902966 7.22028 2.13584 0.25377 6.49022
files/tasks_parameters/ExAp01/sample37.txt 1.04703 8.90704 2.16981 0.295708 7.5628
files/tasks_parameters/ExAp01/sample16.txt 0.941437 8.18243 1.88294 0.24945 6.37973
files/tasks_parameters/ExAp01/sample10.txt 1.11344 6.96646 2.31217 0.285748 7.30807
files/tasks_parameters/ExAp01/sample39.txt 0.915594 6.4161 1.97266 0.251967 6.44411
files/tasks_parameters/ExAp01/sample19.txt 1.12879 8.16711 2.23199 0.308463 7.88901
files/tasks_parameters/ExAp01/sample20.txt 0.943324 7.28549 1.88944 0.25994 6.64802
files/tasks_parameters/ExAp01/sample43.txt 0.929247 6.86804 2.00142 0.25616 6.55136
files/tasks_parameters/ExAp01/sample32.txt 1.00465 8.15663 2.12995 0.281726 7.20522
files/tasks_parameters/ExAp01/sample45.txt 1.01838 7.75184 2.10599 0.274935 7.03152
files/tasks_parameters/ExAp01/sample26.txt 0.941183 7.4944 1.88956 0.267248 6.83493
files/tasks_parameters/ExAp01/sample5.txt 1.07504 8.08362 2.09961 0.28454 7.27718
files/tasks_parameters/ExAp01/sample21.txt 0.894056 6.11814 2.17119 0.26143 6.68612
files/tasks_parameters/ExAp01/sample38.txt 0.934235 7.761 1.96293 0.263659 6.74314
files/tasks_parameters/ExAp01/sample1.txt 1.03702 7.83752 2.13261 0.289228 7.39708
files/tasks_parameters/ExAp01/sample15.txt 0.974377 7.37971 2.12057 0.285825 7.31005
files/tasks_parameters/ExAp01/sample24.txt 1.0333 8.28531 2.25272 0.296628 7.58634
files/tasks_parameters/ExAp01/sample3.txt 1.12819 7.33359 2.39135 0.305084 7.80261
files/tasks_parameters/ExAp01/sample6.txt 0.994439 7.09894 2.24425 0.281804 7.20721
files/tasks_parameters/ExAp01/sample30.txt 1.1056 8.17669 2.03701 0.299204 7.65222
files/tasks_parameters/ExAp01/sample42.txt 1.12222 7.70416 2.42413 0.29743 7.60684
files/tasks_parameters/ExAp01/sample4.txt 1.13548 7.41691 2.36261 0.307803 7.87213
files/tasks_parameters/ExAp01/sample28.txt 0.942918 7.0562 2.07657 0.266428 6.81396
files/tasks_parameters/ExAp01/sample18.txt 0.966258 7.60139 2.1377 0.268016 6.85457
files/tasks_parameters/ExAp01/sample35.txt 1.11001 9.66795 2.28028 0.32244 8.24647
files/tasks_parameters/ExAp01/sample47.txt 0.924654 6.84842 2.12104 0.251655 6.43613
files/tasks_parameters/ExAp01/sample49.txt 0.966216 7.1497 2.11412 0.255889 6.54442
files/tasks_parameters/ExAp01/sample41.txt 0.997994 6.59911 2.07359 0.265885 6.80008
