files/tasks_parameters/ExAp01/sample8.txt 0.718947 3.15778 1.5595 0.203411 3.82383
files/tasks_parameters/ExAp01/sample12.txt 0.773278 3.94962 1.6705 0.207924 3.90866
files/tasks_parameters/ExAp01/sample2.txt 0.777155 3.78275 1.74131 0.200098 3.76154
files/tasks_parameters/ExAp01/sample44.txt 0.680927 3.59825 1.65317 0.200005 3.7598
files/tasks_parameters/ExAp01/sample27.txt 0.687469 3.45743 1.5148 0.182129 3.42374
files/tasks_parameters/ExAp01/sample17.txt 0.586884 2.77299 1.44514 0.14646 2.75323
files/tasks_parameters/ExAp01/sample9.txt 0.683227 2.99933 1.451 0.177444 3.33567
files/tasks_parameters/ExAp01/sample34.txt 0.653282 3.02928 1.58429 0.157984 2.96986
files/tasks_parameters/ExAp01/sample40.txt 0.656489 3.86889 1.52122 0.168379 3.16528
files/tasks_parameters/ExAp01/sample33.txt 0.794805 3.63695 1.71905 0.199765 3.75528
files/tasks_parameters/ExAp01/sample48.txt 0.627875 3.39061 1.49062 0.154728 2.90866
files/tasks_parameters/ExAp01/sample29.txt 0.758179 3.30472 1.38739 0.223868 4.20839
files/tasks_parameters/ExAp01/sample11.txt 0.700606 3.10585 1.41612 0.174079 3.27242
files/tasks_parameters/ExAp01/sample14.txt 0.666541 2.70971 1.43432 0.162214 3.04939
files/tasks_parameters/ExAp01/sample0.txt 0.724441 3.6937 1.5439 0.18367 3.45272
files/tasks_parameters/ExAp01/sample7.txt 0.605471 2.70501 1.42221 0.143463 2.6969
files/tasks_parameters/ExAp01/sample23.txt 0.707746 3.2697 1.57822 0.181448 3.41096
files/tasks_parameters/ExAp01/sample13.txt 0.732632 3.84225 1.67648 0.198247 3.72675
files/tasks_parameters/ExAp01/sample22.txt 0.602214 3.09569 1.56121 0.148796 2.79715
files/tasks_parameters/ExAp01/sample25.txt 0.597291 2.73966 1.5007 0.148149 2.78497
files/tasks_parameters/ExAp01/sample36.txt 0.529997 2.85948 1.28553 0.130042 2.4446
files/tasks_parameters/ExAp01/sample46.txt 0.761072 3.58643 1.69998 0.210103 3.94962
files/tasks_parameters/ExAp01/sample31.txt 0.697043 3.4832 1.53782 0.1722 3.2371
files/tasks_parameters/ExAp01/sample37.txt 0.715108 3.95293 1.50705 0.171701 3.22772
files/tasks_parameters/ExAp01/sample16.txt 0.598575 3.31216 1.30115 0.150249 2.82446
files/tasks_parameters/ExAp01/sample10.txt 0.689737 3.17098 1.61789 0.153776 2.89077
files/tasks_parameters/ExAp01/sample39.txt 0.681931 3.26617 1.44406 0.165669 3.11433
files/tasks_parameters/ExAp01/sample19.txt 0.691259 3.63532 1.52509 0.196094 3.68628
files/tasks_parameters/ExAp01/sample20.txt 0.585178 3.20793 1.25367 0.147335 2.76969
files/tasks_parameters/ExAp01/sample43.txt 0.581604 3.11551 1.4202 0.150644 2.83189
files/tasks_parameters/ExAp01/sample32.txt 0.670701 3.5311 1.42482 0.168744 3.17214
files/tasks_parameters/ExAp01/sample45.txt 0.717353 3.80283 1.48324 0.19807 3.72343
files/tasks_parameters/ExAp01/sample26.txt 0.592287 3.21645 1.29701 0.166061 3.1217
files/tasks_parameters/ExAp01/sample5.txt 0.632147 3.5889 1.52559 0.178903 3.36312
files/tasks_parameters/ExAp01/sample21.txt 0.662926 2.75242 1.55936 0.19512 3.66797
files/tasks_parameters/ExAp01/sample38.txt 0.628958 3.31563 1.37515 0.166157 3.1235
files/tasks_parameters/ExAp01/sample1.txt 0.7239 3.74964 1.51696 0.19701 3.70349
files/tasks_parameters/ExAp01/sample15.txt 0.680106 3.32916 1.48508 0.180707 3.39703
files/tasks_parameters/ExAp01/sample24.txt 0.698364 3.45951 1.59549 0.16529 3.10721
files/tasks_parameters/ExAp01/sample3.txt 0.88651 3.70014 1.70809 0.237107 4.45726
files/tasks_parameters/ExAp01/sample6.txt 0.707282 3.33003 1.58323 0.184714 3.47236
files/tasks_parameters/ExAp01/sample30.txt 0.841608 4.1841 1.4861 0.239623 4.50456
files/tasks_parameters/ExAp01/sample42.txt 0.721201 3.43221 1.70276 0.177383 3.33453
files/tasks_parameters/ExAp01/sample4.txt 0.770558 3.72477 1.6136 0.196448 3.69293
files/tasks_parameters/ExAp01/sample28.txt 0.623855 3.11323 1.45032 0.158819 2.98556
files/tasks_parameters/ExAp01/sample18.txt 0.587434 3.47418 1.45209 0.149064 2.80218
files/tasks_parameters/ExAp01/sample35.txt 0.742581 4.57086 1.49394 0.185031 3.4783
files/tasks_parameters/ExAp01/sample47.txt 0.641668 3.13768 1.52397 0.16417 3.08615
files/tasks_parameters/ExAp01/sample49.txt 0.631919 3.13288 1.49657 0.156154 2.93546
files/tasks_parameters/ExAp01/sample41.txt 0.633176 2.81964 1.49636 0.150876 2.83624
