files/tasks_parameters/ExOptnTEST200/sample2.txt 34.3877 37.5809 48.78 15.8751 325.774
files/tasks_parameters/ExOptnTEST200/sample0.txt 33.183 37.5907 45.5731 15.1213 310.304
files/tasks_parameters/ExOptnTEST200/sample1.txt 34.0121 42.553 44.7713 15.1105 310.083
files/tasks_parameters/ExOptnTEST200/sample3.txt 33.896 38.055 46.3531 15.3046 314.066
files/tasks_parameters/ExOptnTEST200/sample4.txt 34.0487 37.6225 46.5999 15.525 318.588
