files/tasks_parameters/ExOptnTEST200/sample2.txt 21.0297 23.4803 26.0201 7.59769 155.912
files/tasks_parameters/ExOptnTEST200/sample0.txt 21.3754 27.6142 24.9774 7.58084 155.567
files/tasks_parameters/ExOptnTEST200/sample1.txt 22.5243 25.5619 24.5346 7.49358 153.776
files/tasks_parameters/ExOptnTEST200/sample3.txt 20.4012 24.3414 24.5152 7.41069 152.075
files/tasks_parameters/ExOptnTEST200/sample4.txt 21.7393 24.4275 25.1284 7.5762 155.471
