Task0 0.14991879500522726 0.47683614861680185 0.2077494486850583 0.1582664984389358 0.4361061100135114 0.313295338007649 0.9962675158192391 
Task1 0.1287833582451383 0.3169122313260084 0.3404649731712843 0.13784961600500795 0.580223098060455 0.7254017327123496 0.5791893788009072 
Task2 0.07733001181896158 0.1814896421356126 0.28149477118602956 0.19254685642475405 0.6449164300476338 0.927360791263905 0.8552387025565631 
Task3 0.11213401210626263 0.22136212159154686 0.2191317037602735 0.14258485297700696 0.54048953966124 0.7599886139818846 0.3125181596608888 
Task4 0.12223992741179539 0.1584520837408415 0.026715043283584965 0.4460581072147473 0.9213303277942047 0.9033157234001976 0.9265596626207464 
Task5 0.04017864316465 0.3080865372644666 0.25736495452252994 0.1546329884363536 0.41386400491004144 0.45060139159521306 0.4061424232632034 
Task6 0.016384410208744087 0.08151666944489697 0.09602066537128442 0.0929715694293996 0.5206157470942394 0.8723625066045411 0.7171717121468937 
Task7 0.004926712454787235 0.03934259596109331 0.02033308579417581 0.02058272006481572 0.8033466173988166 0.5107330469918385 0.6254644953282962 
Task8 0.003676991619272732 0.20174258822800814 0.16043427344029765 0.06810975657005389 0.4846479048883713 0.4470570829128892 0.5188519673369693 
Task9 0.08366200347636357 0.0032687843371869032 0.2879191404679827 0.04790299287332343 0.9396660721907424 0.7206292426895672 0.499668216552394 
