Task0 0.06938817535776388 0.12240652900172798 0.15188120721758028 0.2292006860470376 0.46060343355888267 0.4158336119518494 0.8345859738047399 
Task1 0.08705879966152578 0.08729540420960286 0.5377242239098271 0.16460511846812584 0.5244724859868786 0.5158145549354736 0.3960838482354918 
Task2 0.1398798075139515 0.39225415413245224 0.23423666321573824 0.10510850642603285 0.8529111095168891 0.4071058997293939 0.942701596499566 
Task3 0.00621893211544856 0.11994080173232664 0.17768745473983824 0.12475277828108247 0.7373906681965074 0.6014384502692134 0.3697904240371761 
Task4 0.004321437363126889 0.007492997739558612 0.014315584341292558 0.009239528369097942 0.7147401486588667 0.3092530117429935 0.5186910612804471 
Task5 0.10526802533680699 0.17685149120355417 0.22256435062294527 0.3192625806911859 0.5989134584820861 0.9553359942916306 0.8263942891061491 
Task6 0.030439778659760337 0.015403137445546925 0.09952662964170624 0.07949985340657466 0.6440673486473389 0.44696086807826324 0.7309461886355322 
Task7 0.01512251321880735 0.14425770869108073 0.1546197651436382 0.17049983617276418 0.6361411024364968 0.7769581400685882 0.4325932285437224 
Task8 0.03010870555241472 0.13802238520201254 0.08679835446419183 0.1988731823579356 0.4164779132376763 0.555751957820744 0.9050308389729695 
Task9 0.03545336989477433 0.2604796748004357 0.1796734117861056 0.029624264161226654 0.4540884545740969 0.8521472468487226 0.9387627013721527 
