Task0 0.010316514887146213 0.15233034118555702 0.08220668286600516 0.08191173309466274 0.766021956988157 0.30845453258700106 0.8931212707812974 
Task1 0.0190704769841976 0.045199438342934224 0.10273107832348444 0.027569388864804176 0.5364460641500838 0.6592103665176119 0.6075624925845127 
Task2 0.007357409540024779 0.01344359848304475 0.015371456006426656 0.005627873856333078 0.46728537360237443 0.7881625691994198 0.3063081593946543 
Task3 0.0016327622018335647 0.0042342753316259064 0.010924508719168492 0.0018269171543048872 0.4618972709257062 0.7308979062373586 0.9920370314614251 
Task4 0.0018603628028452171 0.021641988162183132 0.5077870158465564 0.1760014992173144 0.5727314591023246 0.8915080210970165 0.9364309241417945 
Task5 0.008438244969760735 0.0028899825314898436 0.026966820174798473 0.017374422042388732 0.7652527110481402 0.6283510479510399 0.8220400101995031 
Task6 0.04656163680361933 0.050804446494926304 0.1077301585974891 0.16959843357968857 0.9780415982108253 0.5927722901523957 0.7424087724830037 
Task7 0.015662772367503918 0.02778728581865528 0.024239340178713136 0.026932097095147968 0.7819716997242989 0.5222172976759938 0.44567579340961905 
Task8 0.00019721504667983091 0.004655762038574704 0.002963611436460003 0.00039301538986200935 0.9599652524540574 0.838541073090016 0.3612163233978878 
Task9 0.028752202919697198 0.37476761267654146 0.07437985580567524 0.1487301355457814 0.4254162009517674 0.5952723394624535 0.5693737076888246 
