Task0 0.13299763663772196 0.12568372712747092 0.29455130935738844 0.4010764442940865 0.8961920748043735 0.7106094703475812 0.954909913364393 
Task1 0.06276551840624853 0.38171454759280116 0.3159130975205751 0.11130587083482257 0.7857402556281898 0.4488774532308317 0.45984155240780566 
Task2 0.0008091300571471191 0.0017582889898862994 0.009370347044161707 0.016324942135482075 0.7157380211761425 0.993137003695886 0.49662546226579696 
Task3 0.1181623912873252 0.11908057311658207 0.015892991961666592 0.39975245993298214 0.4777181673893016 0.6219624765056269 0.9024292526792832 
Task4 0.007228868436705204 0.1502060239596279 0.029276723383542404 0.2616371995418982 0.5090353808250637 0.3609152849353838 0.9171686065892712 
Task5 0.09804229189233839 0.05627310988104355 0.27341262712693376 0.3787118762659323 0.8622117375134544 0.9928819706586092 0.4105441498628352 
Task6 0.005247104867988773 0.011643246170675817 0.008093875931863692 0.0039017516684374093 0.48684571587952175 0.586409264298499 0.5859581133628546 
Task7 0.009531491591904187 0.020088279926818074 0.02365227654720442 0.015927889156415832 0.5950177958791445 0.770542614050522 0.6133152640012238 
Task8 0.05695091061642302 0.02674377038938694 0.14575535535409612 0.09502610753216653 0.6330104363879638 0.9921267344586495 0.37924024373644194 
Task9 0.033689012899781434 0.29656195464985047 0.14589325829012056 0.39601334965279916 0.7069958592939847 0.31270695669123855 0.4754444870712886 
