Task0 0.016077514603357723 0.04692376475166088 0.040212062254016134 0.09031865645234281 0.9230467734128602 0.9856758680841073 0.6027002632128367 
Task1 0.03995035450462619 0.004999082533026046 0.08478187540027025 0.07971891011600184 0.5230771151224259 0.38495308183812 0.9575919413419365 
Task2 0.004198157048666191 0.060993066832599765 0.0191681953019047 0.009055603767265035 0.8265977407391993 0.5386554563353498 0.802486688995292 
Task3 0.08526139768232403 0.23119478439100952 0.3077906615024073 0.13515657642069037 0.932296696552767 0.8266073855857525 0.8564089533596422 
Task4 0.01157484449116827 0.05863225155770305 0.23861089999114543 0.1025910398063916 0.6226914755247317 0.8446947430563814 0.4598205053851724 
Task5 0.005827410799987733 0.02699981127870453 0.0533830916527692 0.13906671766225134 0.6021657291341385 0.8104757711565169 0.7680418780329874 
Task6 0.008941490446483069 0.013095707566805016 0.01887932447722475 0.017641621469502954 0.49092256672060164 0.5734923787498541 0.6434085795184987 
Task7 0.09001053453461039 0.2941497519751201 0.1428519954611253 0.375684164003906 0.3164806240924636 0.7196179345623188 0.7969752668056507 
Task8 0.04011812047640832 0.12642248343523937 0.013569285838761935 0.05973753392040859 0.365643349039119 0.5819028302608884 0.5267536442176028 
Task9 0.1360241090106369 0.4717490150852791 0.017684050227761313 0.34585355728580974 0.7072912576417096 0.8846599056528073 0.4562691466515458 
