Task0 0.04116952761561731 0.18218794377918685 0.11440152090510608 0.07090309563496473 0.4835158410406813 0.316738704673856 0.3935578166514542 
Task1 0.1161740513935865 0.028529278958616292 0.25882768459670674 0.23849305432666495 0.4605448068098509 0.8133912358056639 0.5934471026293404 
Task2 0.002388248248727076 0.14229184243451007 0.2791993693653036 0.3206858068764361 0.4363032570768976 0.8810972896800382 0.8536701511274123 
Task3 0.01974936135060951 0.11354453350491267 0.21576664048675795 0.20695354902043311 0.8730062370834006 0.6527108875080117 0.9002148955458933 
Task4 0.003783684155140459 0.3016783962879839 0.3486532173558379 0.27725616772062317 0.5023513436066799 0.4676743247112417 0.34316712035092195 
Task5 0.02509184816710973 0.02672256554208947 0.05702819962750945 0.03592623570469188 0.7148679353265657 0.899644320503677 0.3445545898177989 
Task6 0.16118565318210226 0.26875336057093513 0.3592086626748849 0.10691174702249129 0.9392036538768163 0.5865139928192606 0.7180549473004127 
Task7 0.011304669422058959 0.07219704786001059 0.2390075574267467 0.02629741661963575 0.9311741367235808 0.8425797663880858 0.7912588589907756 
Task8 0.03235833826981741 0.07731870666846134 0.082677287981485 0.04923271973926858 0.9524368380045793 0.48432901404144135 0.37161994985105407 
Task9 0.013268042773872047 0.12260129976438523 0.029702629363877093 0.03111423827635949 0.5931894139472664 0.6889852365328929 0.47863063671968753 
