Task0 0.12427116504917855 0.42378595961661825 0.08650720273671192 0.35566118317818207 0.7135208182081568 0.3158561332112327 0.3491409350033331 
Task1 0.012168685300464855 0.03458033768302643 0.03087884963608235 0.021977605101390546 0.6901229208840256 0.9858716860542625 0.5859644591030966 
Task2 0.14404270714702538 0.1301587329469421 0.28128995510556587 0.3113902053656533 0.518958502475885 0.5815081924728517 0.3176618297229713 
Task3 0.05319785236307815 0.286114142310371 0.28107630528221245 0.29020782534225426 0.6777843793337308 0.8180688182911307 0.6583886953813786 
Task4 0.1403708584066 0.23899267042220934 0.3798572606184076 0.1431953382663737 0.721026848040537 0.7035248947823696 0.45611310512108383 
Task5 0.09728911715439367 0.2076896004118069 0.391400677242393 0.20132940781042724 0.3393481636558027 0.8804900746705613 0.3586662557999921 
Task6 0.026737709191938762 0.2853434893863206 0.083681388575182 0.41638624766790866 0.9017206326434897 0.6512535186702386 0.3445321548205591 
Task7 0.09194993404390431 0.25915475174511615 0.09701051915575652 0.17105123005670983 0.8413509428273331 0.8307620977737071 0.45797921228829885 
Task8 0.17445817475961248 0.16092999488047638 0.22702539294197513 0.3492852021927153 0.7391997361968186 0.44912128303137905 0.7291242825188908 
Task9 0.05143310648666095 0.24684352345872249 0.23499332726393385 0.31751523027356415 0.9732815300588828 0.9207512355664607 0.5295321285346531 
