files/tasks_parameters/ExAp01/sample8.txt 1.19466 6.77015 2.19458 0.288816 8.83953
files/tasks_parameters/ExAp01/sample12.txt 1.31889 9.58351 2.46081 0.337498 10.3295
files/tasks_parameters/ExAp01/sample2.txt 1.14377 8.44418 2.50701 0.319127 9.76723
files/tasks_parameters/ExAp01/sample44.txt 1.0916 6.96299 2.23089 0.28229 8.6398
files/tasks_parameters/ExAp01/sample27.txt 1.09753 7.74306 2.16676 0.28602 8.75394
files/tasks_parameters/ExAp01/sample17.txt 1.03788 7.35053 2.25579 0.292348 8.94761
files/tasks_parameters/ExAp01/sample9.txt 1.1198 6.89392 2.21068 0.282399 8.64312
files/tasks_parameters/ExAp01/sample34.txt 1.08675 6.62788 2.3772 0.297742 9.1127
files/tasks_parameters/ExAp01/sample40.txt 1.01054 7.75686 2.17534 0.285619 8.74168
files/tasks_parameters/ExAp01/sample33.txt 1.30685 8.14826 2.6463 0.338073 10.3471
files/tasks_parameters/ExAp01/sample48.txt 0.974172 7.64107 2.14272 0.270011 8.26398
files/tasks_parameters/ExAp01/sample29.txt 1.03264 7.139 1.93769 0.286306 8.76269
files/tasks_parameters/ExAp01/sample11.txt 1.06464 6.88688 2.12981 0.280008 8.56995
files/tasks_parameters/ExAp01/sample14.txt 0.895133 6.11983 1.97599 0.247458 7.5737
files/tasks_parameters/ExAp01/sample0.txt 1.09832 8.2738 2.14256 0.289132 8.84918
files/tasks_parameters/ExAp01/sample7.txt 1.01926 6.87011 2.05821 0.269886 8.26013
files/tasks_parameters/ExAp01/sample23.txt 1.1182 6.52032 2.38087 0.291712 8.92814
files/tasks_parameters/ExAp01/sample13.txt 1.12323 8.73247 2.33415 0.295393 9.0408
files/tasks_parameters/ExAp01/sample22.txt 1.03031 6.9777 2.28948 0.283979 8.69148
files/tasks_parameters/ExAp01/sample25.txt 0.997985 6.23444 2.2122 0.267298 8.18093
files/tasks_parameters/ExAp01/sample36.txt 1.00697 6.6174 1.9458 0.253823 7.76851
files/tasks_parameters/ExAp01/sample46.txt 1.1857 7.42369 2.49128 0.327273 10.0165
files/tasks_parameters/ExAp01/sample31.txt 1.00901 7.22028 2.13584 0.25377 7.76689
files/tasks_parameters/ExAp01/sample37.txt 1.16872 8.90704 2.16981 0.295708 9.05046
files/tasks_parameters/ExAp01/sample16.txt 1.03005 8.18243 1.88294 0.24945 7.63467
files/tasks_parameters/ExAp01/sample10.txt 1.13056 6.96646 2.31217 0.285748 8.74562
files/tasks_parameters/ExAp01/sample39.txt 1.01482 6.4161 1.97266 0.251967 7.71171
files/tasks_parameters/ExAp01/sample19.txt 1.14662 8.16711 2.23199 0.308463 9.44083
files/tasks_parameters/ExAp01/sample20.txt 0.950628 7.28549 1.88944 0.25994 7.95573
files/tasks_parameters/ExAp01/sample43.txt 0.947607 6.86804 2.00142 0.25616 7.84005
files/tasks_parameters/ExAp01/sample32.txt 1.05032 8.15663 2.12995 0.281726 8.62253
files/tasks_parameters/ExAp01/sample45.txt 1.01749 7.75184 2.10599 0.274935 8.41467
files/tasks_parameters/ExAp01/sample26.txt 0.929209 7.4944 1.88956 0.267248 8.17941
files/tasks_parameters/ExAp01/sample5.txt 1.19503 8.08362 2.09961 0.28454 8.70866
files/tasks_parameters/ExAp01/sample21.txt 0.8728 6.11814 2.17119 0.26143 8.00133
files/tasks_parameters/ExAp01/sample38.txt 0.999888 7.761 1.96293 0.263659 8.06956
files/tasks_parameters/ExAp01/sample1.txt 1.08266 7.83752 2.13261 0.289228 8.85213
files/tasks_parameters/ExAp01/sample15.txt 0.978279 7.37971 2.12057 0.285825 8.74799
files/tasks_parameters/ExAp01/sample24.txt 1.1645 8.28531 2.25272 0.296628 9.07863
files/tasks_parameters/ExAp01/sample3.txt 1.22799 7.33359 2.39135 0.305084 9.33743
files/tasks_parameters/ExAp01/sample6.txt 1.03395 7.09894 2.24425 0.281804 8.62492
files/tasks_parameters/ExAp01/sample30.txt 1.18937 8.17669 2.03701 0.299204 9.15746
files/tasks_parameters/ExAp01/sample42.txt 1.15976 7.70416 2.42413 0.29743 9.10316
files/tasks_parameters/ExAp01/sample4.txt 1.13338 7.41691 2.36261 0.307803 9.42063
files/tasks_parameters/ExAp01/sample28.txt 0.982153 7.0562 2.07657 0.266428 8.15431
files/tasks_parameters/ExAp01/sample18.txt 1.08199 7.60139 2.1377 0.268016 8.20291
files/tasks_parameters/ExAp01/sample35.txt 1.31803 9.66795 2.28028 0.32244 9.86861
files/tasks_parameters/ExAp01/sample47.txt 0.934718 6.84842 2.12104 0.251655 7.70216
files/tasks_parameters/ExAp01/sample49.txt 1.01947 7.1497 2.11412 0.255889 7.83175
files/tasks_parameters/ExAp01/sample41.txt 1.08068 6.59911 2.07359 0.265885 8.1377
