digraph G {
0 ->9 0 ->11 0 ->12 0 ->13 0 ->16 0 ->18 0 ->22 0 ->23 1 ->20 2 ->12 2 ->13 2 ->15 2 ->20 3 ->7 3 ->12 3 ->14 3 ->15 3 ->19 4 ->8 4 ->10 4 ->21 4 ->23 5 ->7 5 ->9 5 ->12 5 ->17 6 ->9 6 ->14 6 ->16 6 ->23 7 ->24 7 ->27 7 ->28 8 ->28 8 ->30 8 ->34 9 ->30 9 ->30 10 ->24 10 ->25 10 ->27 10 ->32 11 ->30 11 ->32 11 ->34 12 ->35 13 ->28 13 ->32 13 ->33 14 ->24 14 ->25 14 ->28 14 ->35 15 ->24 15 ->25 16 ->25 17 ->33 17 ->34 18 ->33 19 ->29 19 ->34 20 ->29 20 ->30 20 ->34 21 ->26 21 ->29 21 ->31 21 ->34 22 ->24 22 ->27 22 ->30 22 ->33 22 ->34 22 ->35 23 ->24 23 ->25 23 ->27 23 ->28 24 ->40 24 ->48 24 ->51 24 ->52 25 ->38 25 ->40 25 ->44 25 ->51 26 ->36 26 ->37 26 ->38 26 ->39 26 ->42 26 ->48 26 ->50 26 ->52 27 ->38 27 ->39 27 ->41 27 ->42 27 ->49 27 ->51 27 ->52 28 ->38 28 ->39 28 ->52 29 ->36 29 ->39 29 ->46 29 ->53 30 ->36 30 ->37 30 ->39 30 ->45 30 ->48 30 ->51 31 ->36 31 ->40 31 ->41 31 ->42 31 ->48 31 ->52 32 ->36 32 ->37 32 ->43 32 ->47 32 ->52 33 ->37 33 ->38 33 ->41 33 ->44 33 ->47 33 ->48 33 ->53 34 ->36 34 ->38 34 ->39 34 ->41 34 ->49 35 ->42 35 ->51 36 ->55 36 ->56 36 ->58 36 ->67 36 ->68 37 ->56 37 ->70 37 ->71 38 ->57 38 ->63 38 ->69 39 ->54 39 ->55 39 ->56 39 ->57 39 ->58 39 ->59 39 ->61 39 ->63 40 ->57 40 ->69 40 ->70 41 ->59 41 ->67 41 ->68 41 ->69 41 ->71 42 ->56 42 ->57 42 ->58 42 ->59 42 ->62 42 ->67 42 ->68 43 ->58 43 ->62 43 ->68 43 ->70 44 ->55 44 ->60 44 ->68 45 ->60 45 ->60 45 ->61 45 ->63 45 ->67 45 ->68 46 ->60 46 ->66 47 ->60 47 ->67 48 ->56 48 ->58 48 ->63 49 ->55 49 ->56 49 ->58 49 ->59 49 ->70 50 ->58 50 ->61 50 ->64 50 ->70 51 ->57 51 ->60 51 ->62 51 ->65 51 ->67 51 ->70 52 ->63 52 ->64 52 ->66 52 ->70 53 ->56 53 ->57 53 ->58 53 ->59 53 ->63 62 ->73 63 ->73 65 ->73 66 ->72 68 ->74 71 ->73 71 ->74 72 ->75 75 ->76 75 ->77 75 ->78 75 ->79 75 ->80 75 ->81 76 ->86 76 ->93 76 ->95 76 ->96 77 ->83 77 ->89 77 ->92 77 ->93 77 ->95 78 ->82 78 ->85 78 ->86 78 ->91 78 ->94 79 ->82 79 ->84 79 ->85 79 ->86 79 ->88 79 ->90 79 ->91 79 ->96 80 ->83 80 ->85 80 ->87 80 ->90 80 ->93 80 ->96 81 ->82 81 ->83 81 ->84 81 ->89 81 ->95 82 ->99 83 ->99 86 ->98 87 ->98 88 ->97 89 ->97 89 ->99 90 ->97 91 ->97 93 ->97 94 ->97 94 ->99 95 ->97 95 ->99 96 ->97 
}
