digraph G {
0 ->3 0 ->4 3 ->5 3 ->6 5 ->9 5 ->11 6 ->7 6 ->8 6 ->10 6 ->12 7 ->13 7 ->14 7 ->17 7 ->20 8 ->14 8 ->19 8 ->20 8 ->21 9 ->13 9 ->21 9 ->23 10 ->15 10 ->16 10 ->23 11 ->16 11 ->16 11 ->18 11 ->22 12 ->13 12 ->15 13 ->28 13 ->30 14 ->28 14 ->29 14 ->30 14 ->33 15 ->24 15 ->28 16 ->27 16 ->32 17 ->26 17 ->29 17 ->35 18 ->24 18 ->25 18 ->26 18 ->28 18 ->29 19 ->26 19 ->29 19 ->31 19 ->34 19 ->36 20 ->24 20 ->26 20 ->31 21 ->25 21 ->28 21 ->34 21 ->35 22 ->24 22 ->25 22 ->29 22 ->31 22 ->34 23 ->28 23 ->32 23 ->35 25 ->38 25 ->39 26 ->37 26 ->38 26 ->39 26 ->42 27 ->37 27 ->40 27 ->41 28 ->37 28 ->39 28 ->41 29 ->39 29 ->39 29 ->41 29 ->42 30 ->38 30 ->39 30 ->40 30 ->42 31 ->38 32 ->39 32 ->40 33 ->42 34 ->37 34 ->40 36 ->38 37 ->45 37 ->50 37 ->52 38 ->44 38 ->46 38 ->49 38 ->51 39 ->46 39 ->48 39 ->50 39 ->51 40 ->43 40 ->45 40 ->51 40 ->53 40 ->54 40 ->55 41 ->43 41 ->44 42 ->46 42 ->47 42 ->49 42 ->50 43 ->57 43 ->58 43 ->61 43 ->62 43 ->63 43 ->68 44 ->58 44 ->66 45 ->57 45 ->58 45 ->60 45 ->63 45 ->66 46 ->56 46 ->57 46 ->61 46 ->67 46 ->68 47 ->56 47 ->67 47 ->68 48 ->60 48 ->65 48 ->68 49 ->61 49 ->65 49 ->66 49 ->67 50 ->56 50 ->61 50 ->64 50 ->65 50 ->67 51 ->56 51 ->58 51 ->59 51 ->65 51 ->68 52 ->57 52 ->58 52 ->59 52 ->68 53 ->59 53 ->61 53 ->65 53 ->67 54 ->58 54 ->61 54 ->67 55 ->56 55 ->57 55 ->61 55 ->67 56 ->70 56 ->71 56 ->72 56 ->74 56 ->77 56 ->78 56 ->80 56 ->81 56 ->83 57 ->71 57 ->72 57 ->74 57 ->74 57 ->76 57 ->77 57 ->83 58 ->71 58 ->76 58 ->78 58 ->82 58 ->83 59 ->70 59 ->78 59 ->79 59 ->82 60 ->78 61 ->75 61 ->80 61 ->82 61 ->83 62 ->75 62 ->76 62 ->77 62 ->82 63 ->74 63 ->76 63 ->79 63 ->82 64 ->69 64 ->70 64 ->71 64 ->72 64 ->74 64 ->75 64 ->76 64 ->77 65 ->71 65 ->72 65 ->73 65 ->76 65 ->79 65 ->82 66 ->71 66 ->72 66 ->75 66 ->76 66 ->78 66 ->79 67 ->72 67 ->75 67 ->78 67 ->79 68 ->73 68 ->77 68 ->78 68 ->82 68 ->83 69 ->86 69 ->90 69 ->93 69 ->94 69 ->99 70 ->86 70 ->89 71 ->85 71 ->86 71 ->88 71 ->89 71 ->90 71 ->94 71 ->95 72 ->85 72 ->86 72 ->88 72 ->90 72 ->95 72 ->98 73 ->84 73 ->86 73 ->89 73 ->94 73 ->95 74 ->84 74 ->95 74 ->99 75 ->88 75 ->91 75 ->92 75 ->93 75 ->99 76 ->94 76 ->96 77 ->85 77 ->91 77 ->92 77 ->93 77 ->98 77 ->99 78 ->85 78 ->87 78 ->90 78 ->91 79 ->97 79 ->98 80 ->85 80 ->92 80 ->93 80 ->95 80 ->99 81 ->85 81 ->89 81 ->90 81 ->93 81 ->97 82 ->89 82 ->90 82 ->91 82 ->92 82 ->95 82 ->96 83 ->85 83 ->86 83 ->91 83 ->92 83 ->97 
}
