0.3075527599999999
Task0 15 7 3 
Task1 1 7 31 
Task2 63 7 15 
Task3 31 15 31 
Task4 15 255 127 
Task5 15 15 31 
Task6 15 3 7 
Task7 15 1 3 
Task8 1 7 63 
Task9 7 1 31 
Task10 15 3 3 
Task11 63 1 7 
Task12 7 15 7 
Task13 15 15 3 
Task14 1 7 15 
Task15 15 1 15 
Task16 31 7 31 
Task17 15 7 7 
Task18 3 7 63 
Task19 3 31 1 
Task20 7 1 15 
Task21 31 3 15 
Task22 7 3 7 
Task23 3 1 63 
Task24 63 15 31 
Task25 31 15 3 
Task26 15 7 1 
Task27 31 15 63 
Task28 63 63 15 
Task29 7 3 7 
Task30 31 31 31 
Task31 31 15 1 
Task32 15 7 7 
Task33 3 1 7 
Task34 63 7 1 
Task35 15 31 3 
Task36 1 63 1 
Task37 7 31 3 
Task38 7 63 3 
Task39 15 31 7 
Task40 15 7 15 
Task41 31 15 15 
Task42 15 255 31 
Task43 15 7 15 
Task44 7 3 3 
Task45 1 15 3 
Task46 63 63 31 
Task47 3 15 1 
Task48 7 31 1 
Task49 15 15 15 
Task50 3 7 15 
Task51 63 31 15 
Task52 7 7 3 
Task53 31 1 15 
Task54 15 1 7 
Task55 31 1 7 
Task56 7 7 31 
Task57 31 7 1 
Task58 7 15 3 
Task59 1 31 3 
Task60 7 31 15 
Task61 3 3 15 
Task62 15 1 15 
Task63 7 3 7 
Task64 63 1 3 
Task65 15 3 3 
Task66 7 31 3 
Task67 63 63 127 
Task68 1 63 7 
Task69 31 63 15 
Task70 63 15 15 
Task71 31 63 31 
Task72 31 7 31 
Task73 31 15 7 
Task74 31 15 7 
Task75 3 1 15 
Task76 15 15 7 
Task77 7 3 31 
Task78 1 7 3 
Task79 7 7 15 
Task80 3 15 7 
Task81 1 7 15 
Task82 7 15 3 
Task83 15 7 31 
Task84 1 7 31 
Task85 1 7 63 
Task86 3 31 31 
Task87 15 15 31 
Task88 15 7 63 
Task89 15 31 7 
Task90 31 7 7 
Task91 15 7 3 
Task92 127 31 63 
Task93 7 63 7 
Task94 63 63 15 
Task95 255 255 15 
Task96 15 7 31 
Task97 7 7 15 
Task98 15 7 31 
Task99 15 255 7 
