Task0 0.09600203293033636 0.025906119748386715 0.5578254368066736 0.21363614272274625 0.7931511255985857 0.6987652075538258 0.3160806994620337 
Task1 0.0349541068906831 0.1410169195204484 0.03662709238021777 0.1699201700430812 0.7882208297262412 0.9487331556855385 0.9160420617372307 
Task2 0.024148780444177516 0.08851689108272554 0.13166580205925518 0.08781862019390232 0.42035251534154827 0.6032771508349201 0.3673923989657918 
Task3 0.05931784384807391 0.15945512704157933 0.02478382942943749 0.11706825348647461 0.44285258472058 0.9716655886903633 0.9271482378125919 
Task4 0.028766446167820103 0.03362882448850251 0.09868707229207396 0.25924378583615565 0.9513805672166737 0.3724613275076108 0.7908064406609592 
Task5 0.012190234477530376 0.1398060078236784 0.2778548149984229 0.48442148743807595 0.8288688363625669 0.6297364592345077 0.42555160188552554 
Task6 0.11060249963571306 0.2502388577902422 0.11268067818343355 0.44974070454925497 0.5999396978705973 0.47891032516971 0.8558699162308925 
Task7 0.04988530171085248 0.14697111076151448 0.22381991168313478 0.22134258406390148 0.776387293810741 0.5654521615041228 0.3996346729012932 
Task8 0.07191414924030687 0.09271790837080651 0.381255224104951 0.15579513274279255 0.3780492142594003 0.8811824399896699 0.7697561584418406 
Task9 0.05506192453964235 0.11103437898524579 0.0977159068987122 0.020666349631163677 0.4893108996810794 0.892554467048386 0.39003883222355423 
Task10 0.03752151567712945 0.06681453517213776 0.1627250185012978 0.11751559206402076 0.7017858179109828 0.3112563326987642 0.9248631743243823 
Task11 0.13478056500338323 0.16925166424125035 0.05380061039698144 0.39014661427317204 0.44703673962349605 0.5231011183007062 0.9883274992828035 
Task12 0.08061540095514871 0.3535773458174145 0.2884676996562637 0.06070386434850797 0.905944959518465 0.3255209209199433 0.5039810226683703 
Task13 0.09581705743044414 0.2389803668440461 0.27476977750313764 0.08201587967226365 0.9573715795190432 0.7660861323287327 0.6830840052609556 
Task14 0.0015130368663213512 0.007801104934177051 0.005417134731770366 0.004365148841647882 0.5559664452984583 0.3651660014787675 0.47584873846878983 
Task15 0.1551029163033152 0.20556350303852447 0.20533166274195866 0.21677507131004314 0.9732566498899662 0.39846644027670325 0.3043667226453424 
Task16 0.021673252509694933 0.04757156899558202 0.13359374513278174 0.018646729532158474 0.7986874694286189 0.6616537777497526 0.3400925736778807 
Task17 0.05661861786443475 0.007033110795395866 0.29354759535452624 0.0940264817536624 0.8947434757070432 0.6586834779011341 0.786511978332838 
Task18 0.024368068944333958 0.03140475065878708 0.05751632912284597 0.2334965789152868 0.6864371413549957 0.6977567367519815 0.8882864063147968 
Task19 0.014098455890140436 0.26425185172282123 0.08316647755316925 0.22348074535171436 0.6749173216197442 0.5288860506372164 0.5301007199957585 
Task20 0.0019051390354931383 0.0017871913101172952 0.006014398488916139 0.00011207280672813333 0.4745607037528966 0.6498681134199499 0.7601344241488139 
Task21 0.14734374032688716 0.12622650905193364 0.25035508934890494 0.45377670062189607 0.7605232480765645 0.3529244241316887 0.7421694830276966 
Task22 0.031287884336826936 0.11386929110463179 0.07077174799698831 0.09546594077702218 0.5488443041126447 0.5263911867627149 0.6978834268320107 
Task23 0.025059998299355873 0.01627113980256049 0.05373605559726015 0.04483421394317031 0.4230409329535684 0.40785630744183987 0.6284156532037628 
Task24 0.03328041617805634 0.13793852537291915 0.1519731885069321 0.11683498124170986 0.7128841909390904 0.9100281560955243 0.7653580719779297 
Task25 0.046608134873696055 0.10861687671856222 0.20822377708394463 0.2276259787494782 0.47089626127645 0.39347064425659584 0.8033662323358497 
Task26 0.06551547575243385 0.0815380333421379 0.2639878730306105 0.33399657148579104 0.9619070474098279 0.7387901703123703 0.9197207873190651 
Task27 0.10198772842869946 0.2023273599106405 0.24557381866823313 0.007962614409915478 0.9935126438222852 0.9614716582802068 0.9050032735873734 
Task28 0.09640263999946004 0.32330353221358504 0.11130724700054612 0.3123296081867656 0.690229905255551 0.8517992016120555 0.6764465657947565 
Task29 0.06966174708492663 0.15727825292587885 0.13927415328242557 0.3998032042417866 0.5665653600011875 0.7707197334825913 0.36569384654798753 
Task30 0.025057134793835013 0.35142239447529217 0.48447289465901716 0.024413661740496456 0.94514640253364 0.5191948771438487 0.38316565726763274 
Task31 0.003207514963507898 0.005862333784096231 0.04119638832117838 0.0377721244237611 0.48235103227861387 0.7366966077966193 0.5190020596977255 
Task32 0.0036096871586556306 0.12234307414797102 0.03608352918428747 0.17913794639466568 0.5493930874953936 0.398936381528163 0.7837870767699813 
Task33 0.0013990010199425075 0.0032763257773583067 0.0038127934540028853 0.0023491549258428 0.907152570923955 0.7724276099009217 0.4355767432842823 
Task34 0.02456788327083546 0.05027495259229017 0.04236177033933931 0.09610711935202426 0.8155032395515256 0.4855908835173226 0.45457085562006244 
Task35 0.022296667838821334 0.19116230386928865 0.12679664894166426 0.16683332700764805 0.7515549670347998 0.3383677186333264 0.5644975199143698 
Task36 0.015465641098175158 0.06197127620223449 0.04398569874980111 0.10711697683131072 0.5703694117997089 0.3197422930691135 0.8091531738486841 
Task37 0.054535771692704293 0.2007279640946468 0.028802549598505332 0.17097234954157395 0.6042697589861916 0.514770039516014 0.4120433292976415 
Task38 0.021434626920629248 0.02274923279725728 0.1826316531528055 0.1480721232863553 0.8166451430193549 0.30474041318231154 0.4124681194377429 
Task39 0.0002522632956580497 0.0029722083749554084 0.0021408029388706846 0.001409049003688286 0.7679651949264463 0.46146224014263715 0.5167551255238961 
Task40 0.025566267287539673 0.28564166464871504 0.17210385935005487 0.29699867119419393 0.644471301676713 0.8060638487218763 0.4997810754381533 
Task41 0.01214429712665994 0.25276244471682513 0.05304927148052293 0.09705058368141274 0.5493612825529433 0.7395858346876054 0.5771581087246693 
Task42 0.014427738858050015 0.040148379978884444 0.04966208813071466 0.04547625839801222 0.9247146109515201 0.3676493241430905 0.8314654526655809 
Task43 0.002947970873137676 0.07329589832613058 0.23286791503419155 0.18612691863792413 0.37144978027040404 0.9980884361347211 0.8239611061118373 
Task44 0.030796848337844823 0.06845816526760792 0.11624717929524436 0.13681548054025425 0.9591149041016931 0.3465313380886368 0.9759658204759909 
Task45 0.0045278989943416705 0.007204047598386286 0.009424100081373874 0.0051997576947993415 0.9843701590306129 0.8845335470925393 0.791154852760666 
Task46 0.058409951792599224 0.16693155720376607 0.1228106820017492 0.6345868880476591 0.482317280709356 0.9857909729564178 0.414520515879522 
Task47 0.04249763618529795 0.28371669704214947 0.28070179122143174 0.02579311304125108 0.9255776609855069 0.7713935203165045 0.4886834879087985 
Task48 0.062039090634947384 0.33113024086090226 0.2269694805312157 0.01135572461838879 0.9461579980126298 0.44968835298455007 0.969392031531523 
Task49 0.04538924114777171 0.2822791483748109 0.2979125184555746 0.17304361608387578 0.7918724798526613 0.658056531692059 0.40219783340574133 
Task50 0.07266499377218233 0.2060056250781854 0.2252432566102974 0.28200519456668555 0.6433747637212348 0.7019360023497362 0.5040064146936936 
Task51 0.06231804275981187 0.22311570702833927 0.17498255328681173 0.44824025849515214 0.9499486780636421 0.6103922231906092 0.8330674006569372 
Task52 0.044875531362845646 0.020786452972036885 0.1022457030876916 0.15498281770332897 0.30771987351844643 0.9367553894080458 0.6743827485850062 
Task53 0.0035490863025677733 0.024446060263874428 0.015458669358077102 0.005814257927063748 0.8911514134778253 0.5157800935650163 0.79600995139444 
Task54 0.0262108836726181 0.14790993265543304 0.14432667071772728 0.06945262249285068 0.371744649052975 0.8775972579046498 0.8589786463033304 
Task55 0.06908086789616938 0.22499659696245244 0.34059419297232235 0.2831907725777223 0.8575727745100192 0.628226050986205 0.4669437942849298 
Task56 0.0033531825627723024 0.20415012724813872 0.040489734627039774 0.36844880535678615 0.9403700374487258 0.950277567517035 0.9153573405711302 
Task57 0.011625072734742158 0.055483845017973925 0.03716837194463407 0.006410340501818698 0.6721555727726881 0.6027754043845464 0.5577349252455372 
Task58 0.001164424799166163 0.0028515105796940096 0.003922562549035631 0.012120552073587754 0.9607658312115774 0.6032597560766708 0.46899867729208844 
Task59 0.015902357911048794 0.03479175211430505 0.024117675548167385 0.05162076450181859 0.8174267400801716 0.961992787496875 0.49817289870977366 
Task60 0.03334504104839603 0.0975833319084043 0.06012980572803835 0.3963418795583647 0.9676547294595821 0.6670653785625857 0.5923496088286518 
Task61 0.028526898700184388 0.13159019550408144 0.08064478256142354 0.07765152135374373 0.727650803988348 0.482850613806015 0.5519865703078133 
Task62 0.05911833423435292 0.11108914354540898 0.16589406936471968 0.09674283487890925 0.8834976842678766 0.4892673562759636 0.4536147964975513 
Task63 0.06160711595907947 0.1611993030013399 0.15672335493782685 0.08454837357564524 0.42888119817082326 0.3665978493037728 0.7870407351973642 
Task64 0.0058820043863655296 0.06783048143830046 0.08605625379178188 0.11426207729301889 0.4816768804479027 0.5669960799382954 0.31258126125606894 
Task65 0.023057593112851608 0.2566309327700512 0.29686309644609016 0.2768496191597604 0.6202746326938302 0.6639097114576871 0.836798760880189 
Task66 0.020896255257042015 0.04678607812380383 0.044976199935055715 0.07072731231626951 0.8733821123356242 0.9100332492462042 0.9946400640633566 
Task67 0.005330351289605823 0.12437075914400467 0.05015204078238375 0.02912151886527102 0.6923311185072796 0.548476292170578 0.7398065211293743 
Task68 0.02581342407623548 0.03997559085341187 0.13018499211983786 0.16368537568091862 0.8752630922038558 0.7362634773761878 0.9778991814602709 
Task69 0.14178651888923718 0.06937199333403328 0.14464075790559322 0.38519131315778193 0.355473932682682 0.47762551257275543 0.7644899607686277 
Task70 0.023748527670288483 0.21796168236701138 0.26804531367247736 0.13990992030745206 0.8769724911131247 0.40865746453148943 0.8610093990799339 
Task71 0.0009712298905359421 0.08054695911148546 0.003272537516267422 0.08213494232467629 0.47467098321817014 0.7292153949290986 0.7830813530815375 
Task72 0.01304743230452144 0.09000573016056251 0.4327368905162133 0.08722178495218944 0.8829329563484802 0.4601877963107852 0.9435623896362404 
Task73 0.0605097431237711 0.16137196329641304 0.12563609846896379 0.2913469967639126 0.7139389580966259 0.4870587203265163 0.8604151745061392 
Task74 0.08242450024348408 0.26213022696449306 0.08205521991334633 0.21598198161616727 0.6590413423289341 0.9312134886955366 0.5704911671633344 
Task75 0.08025911984411796 0.5024362714462466 0.03723108513969895 0.2087696399176873 0.6759269377954893 0.9427494688698985 0.9399834206438347 
Task76 0.10214459627670597 0.029344100802874043 0.24850959987034496 0.36465717831756356 0.643198830943753 0.6884392007125242 0.6407642023900479 
Task77 0.019347425304713343 0.10758782408163749 0.07970162352714166 0.11153284367461577 0.6165632692230857 0.9681085685897759 0.8067894470028418 
Task78 0.0448393659400257 0.3959505784309347 0.4684852198934513 0.02984581919892954 0.9296157918836079 0.8978101912313936 0.529480116031292 
Task79 0.008248228849534028 0.21623770220495842 0.06982478808938547 0.03882530871747071 0.7193417111181144 0.7411381539705408 0.9741884446936115 
Task80 0.06719280976818663 0.16853754198015775 0.16900249833383557 0.13852129442973882 0.7490032730459547 0.7158646415208458 0.3779639752674719 
Task81 0.10709055602340635 0.2173388556037901 0.1456429071229012 0.10308160675757273 0.9805719112039986 0.7029477130648993 0.7769418473650324 
Task82 0.001817281762902244 0.1153254185184479 0.2547248254019163 0.0022609634524953692 0.8813481521886093 0.6947800671298178 0.7748985447529222 
Task83 0.05643409669015855 0.02130152404724704 0.2535187156028951 0.2191526643817258 0.6393543609825654 0.5614350315600914 0.3385559199540423 
Task84 0.06631941553497904 0.5731782362569586 0.19935428669845742 0.10280134238109696 0.902283894028217 0.7781553422549656 0.6016317943950233 
Task85 0.054312898109016614 0.10038030845696573 0.11086301410925752 0.14602484714484176 0.4091335616936777 0.5035905381992251 0.8985910664590397 
Task86 0.0014487695138527751 0.006227776900872378 0.005202589939675788 0.005372931995064635 0.9022320570217566 0.4341560824452253 0.9310506198214035 
Task87 0.009512358879387508 0.0316455102134339 0.01292559874737506 0.012472941472636667 0.5385645711822381 0.4274175036065039 0.6670872415650829 
Task88 0.06069102163503196 0.054045416021626 0.06891620430581835 0.17502731558992257 0.8248585976517882 0.30365886839113077 0.4472691540918402 
Task89 0.025373900795235743 0.22588140163324175 0.04055253758493809 0.23887398287825978 0.9648775567591592 0.5402564103132032 0.7004825569913129 
Task90 0.014206391571511079 0.27546715196248095 0.2437966485854446 0.2755226410513387 0.8741913099822316 0.8147024109882883 0.9694065461628816 
Task91 0.05296780879769894 0.024151404963444492 0.14486425666865968 0.13995848575334896 0.60477802007403 0.9927122853577155 0.5494783638864159 
Task92 0.0008076532519245322 0.010452560454346548 0.020464137125749546 0.018269407729718412 0.6378681042702018 0.5566215523507051 0.8688706852737234 
Task93 0.0599558556112753 0.11197996741470893 0.27804425505547076 0.006114628163879517 0.5789977021509909 0.6038676592628178 0.9543834879979911 
Task94 0.002457569123269768 0.01661607255735921 0.0006464271294394447 0.017438160046469437 0.588622806223025 0.6330739711154163 0.4363960969821921 
Task95 0.014905819191420361 0.030017686930494964 0.12569594131419093 0.06951187151001102 0.6054948998648391 0.6189186651206477 0.4929439845091057 
Task96 0.11763985458695715 0.38997042005509597 0.09434821772966409 0.3111951216122462 0.4411707208507276 0.5259880827540009 0.4328246183061013 
Task97 0.11297025589388965 0.013903178932371031 0.22067397285091706 0.29709176499623485 0.6301132948414645 0.8638542823844169 0.5695195758907639 
Task98 0.00195682881422325 0.23670540101551843 0.3336813455508893 0.008105710657578865 0.4843483957283202 0.5649937573875697 0.9170183619060377 
Task99 0.09135150588756466 0.3305806420930307 0.22858064004376374 0.3216027475469763 0.9384076668141672 0.4676459406328862 0.8790284273171209 
Task100 0.08383675575022186 0.005103973426219973 0.1718874553553444 0.5572950612418079 0.5908350483533371 0.6955564852356872 0.40274286477059096 
Task101 0.01535286513695638 0.31048819131228167 0.3386208421726331 0.0782677456426728 0.7078975874541098 0.335225095064259 0.9687004382197848 
Task102 0.016289698105494365 0.003941729172013487 0.07489616981840573 0.008363211489769916 0.4292041130813703 0.7624992356812982 0.4503761616224001 
Task103 0.06842526973246538 0.24671111271478524 0.13394555788534201 0.38389522870093923 0.7196693635223035 0.7728517902423662 0.3829292780601682 
Task104 0.00332780564132454 0.012169934683823533 0.011802040460276306 0.015592486387710273 0.8731909907918955 0.34483902442273184 0.6748940388383986 
Task105 0.030090264524127285 0.6100684348434154 0.08350221718042579 0.06885651990056228 0.45215167533886336 0.8594357232568228 0.45054075616706607 
Task106 0.05704065164779548 0.4147373660506735 0.1370982412934178 0.012129244006448443 0.6344447255275398 0.634775069279151 0.6211687526589509 
Task107 0.009361839338876682 0.07912312153644498 0.08679420576382853 0.1727091675094405 0.8018270324789454 0.8075384732645798 0.5230954641834371 
Task108 0.016719819971664187 0.1212008101909409 0.07067152093777411 0.041802109476099504 0.7235874666011645 0.5657373855008279 0.5621195366183596 
Task109 0.1008961460576388 0.07040938649847611 0.6433518640731567 0.04097369317896659 0.5273772457940463 0.7168045093875333 0.7785751712930093 
Task110 0.0028742918784982895 0.018032635822418173 0.02339557757800388 0.02688639903189181 0.9234726366526074 0.7997165937724533 0.6595206837176564 
Task111 0.04878631644376669 0.04147279447150262 0.31314969418405164 0.01307317162262271 0.9618702480824526 0.8114218841653382 0.7095902637331093 
Task112 0.08597395939872006 0.1678076352251032 0.0914445529206673 0.3079734099245095 0.8106249371775418 0.7632486489266823 0.9383986995746503 
Task113 0.13839985065433463 0.0926274898910203 0.216206106500397 0.5419691933382722 0.9482886095589012 0.45577789685601516 0.39727487340145123 
Task114 0.052912816994078134 0.13099712492782792 0.08641889271441695 0.0011332999865897345 0.9015027482041054 0.7259202604279982 0.8827976358520455 
Task115 0.11028679590426878 0.22044093942936624 0.10904146281793008 0.19864129931357638 0.9116551355711389 0.9554160503230116 0.30963664976593586 
Task116 0.16154058702414814 0.37926692711733634 0.2945012976470684 0.10877440425061725 0.5944004026447227 0.6599729692904988 0.3905241332797334 
Task117 0.08419118253203829 0.05257197202307753 0.24472946901216736 0.14803463196788533 0.9233508770291103 0.4890752762867747 0.37846241940566017 
Task118 0.06364103895159189 0.22808719568688407 0.16368675739692576 0.04736004106061574 0.9288588464168708 0.7456634726169542 0.8767796335861653 
Task119 0.04223399941786321 0.05650832030213381 0.0497635658431055 0.0709573999260059 0.889559593275667 0.7488402672888677 0.918937752738817 
Task120 0.14252358692468917 0.2521386226798012 0.07045179375278124 0.2545088231879651 0.47483138271600805 0.9090853434035853 0.4075637831464214 
Task121 0.002893113607985497 0.30025605577443637 0.07075537483133301 0.14328862615856552 0.3377998184951141 0.6803800719694781 0.3548841107773796 
Task122 0.18179747764412643 0.2399003965611363 0.43361894490716135 0.10897378905691656 0.3626038409995363 0.37228120022483574 0.8313543573945721 
Task123 0.14846822422577763 0.06685452152079537 0.3209115412367642 0.21572438582616946 0.8165382947453239 0.8761857963218564 0.9561981769423455 
Task124 0.008682382493703943 0.010034584300658145 0.013098574371787356 0.013081116054134128 0.4752792776482116 0.4489530741021853 0.5020484758672541 
Task125 0.04660484347535594 0.0706466939150532 0.12441976347148029 0.12378659050230631 0.5169460831246224 0.7991555377412016 0.7701021651556481 
Task126 0.025694434225530863 0.06220793065742207 0.062029134823790445 0.08178423331554795 0.714039732493482 0.8365659300743786 0.8378320970601567 
Task127 0.1308101928439928 0.21628481597542434 0.2437686637564824 0.06715102288720838 0.8510698373405472 0.628151424065637 0.8643462998725697 
Task128 0.02975125472894459 0.003693774356306769 0.10065609330744528 0.186719866235789 0.3562488553736618 0.3864008454887543 0.45901127572455447 
Task129 0.1479570140278136 0.0396485650408186 0.1546596356608745 0.5503838213003368 0.6306552635023399 0.8739068555076501 0.45019130623295267 
Task130 0.007430685729792976 0.01681849099235783 0.008997249162116368 0.011361222498682554 0.9064718510078826 0.6574389174558354 0.4932057024203338 
Task131 0.012776284463393876 0.0494568896021214 0.07621578605856026 0.03463874064957578 0.8998899985453612 0.31710716113238496 0.9246471263028933 
Task132 0.0531247639659853 0.15627394562446448 0.058792395140199814 0.28862183197730773 0.864588297665968 0.34609787519296037 0.36893768430896146 
Task133 0.019718337560397 0.24314920300724668 0.40279313204193257 0.0607791141406317 0.42074641637566473 0.9260616070342382 0.43888199371185393 
Task134 0.05086523186156108 0.07889077016886946 0.13042946641449535 0.08209037295548252 0.9929779444639721 0.5910152017189675 0.9580264039710094 
Task135 0.19537243811061758 0.43782409941956246 0.20489933073609454 0.14375856526583736 0.9321200093422672 0.8819615607989582 0.901939899863504 
Task136 0.09552432747207706 0.0686705885963358 0.2724074561317264 0.2624870027489798 0.8712486492173586 0.5084978203583301 0.6413925729022969 
Task137 0.07639967177976459 0.06853473437174332 0.030068836479270618 0.22375153597712472 0.3614107048471104 0.8610368620764555 0.9487197273870267 
Task138 0.0003859961342566608 0.08865315231207364 0.03018428447244051 0.07397308834678927 0.3596544909823375 0.8321510822234324 0.4547877598148592 
Task139 0.0020774968000497663 0.142969131339192 0.29564176634090167 0.0663761378936626 0.31155242786498333 0.8157914887172679 0.3255576332634155 
Task140 0.026611849036569345 0.029375442065884858 0.09075282533325141 0.0207114544998639 0.9669464075906291 0.5721461312950078 0.4030207584349571 
Task141 0.1655764660843948 0.2578803949269899 0.35136951088002755 0.13188223641487454 0.8476315225463129 0.6921229344731519 0.3585324304252541 
Task142 0.017890094271079172 0.12024427456370415 0.0802221982461281 0.1288102983852545 0.3924807545006409 0.6148595365199949 0.5454553862588306 
Task143 0.015097371957040992 0.018071177434255566 0.22959240760496094 0.03451262165728148 0.5918198736786375 0.7270819355737708 0.5658674426883001 
Task144 0.004441788261732129 0.13034417861185862 0.08937378810026357 0.005931879183585858 0.5195635486911053 0.34550683279578176 0.9729173041451189 
Task145 0.059249466535177445 0.12314279391089138 0.18794814390752979 0.11049211263078322 0.44832092296949744 0.42688315174604974 0.6247462737748064 
Task146 0.0535166606334178 0.15749651787908922 0.010431240410811784 0.17323993836103055 0.6425921550007565 0.3283746201931368 0.8000793833191959 
Task147 0.004952151758621645 0.08626222040231608 0.005494667246805116 0.13837268868925973 0.8330391039377312 0.7570569334411799 0.6665739386978291 
Task148 0.0002921520536865843 0.01293364586699602 0.0018511614546371737 0.00636946956497103 0.7386567908150782 0.335787668198794 0.5533473399560445 
Task149 0.07510948757016273 0.07283516167384702 0.03412489505009108 0.36661756071486146 0.3382196520937487 0.5221783744839642 0.4259025334835546 
Task150 0.018444230674991752 0.5615909390525149 0.23719656214063922 0.03479389478035399 0.458831111199855 0.8372632752490361 0.45078301705708346 
Task151 0.003566526579213134 0.006025605003579376 0.10491922178434537 0.033637472616257505 0.8903762549333067 0.48288194586501487 0.7510863309583901 
Task152 0.06769900916690123 0.09388817779145718 0.1880812750760335 0.12482048373009935 0.3175592965966609 0.4070370596117932 0.5555344869896379 
Task153 0.06898942291622652 0.6102534159682389 0.07609029459882521 0.17456251053371427 0.6337960388868551 0.8151926301562884 0.47810496282767856 
Task154 0.004571181313651485 0.00936377295927646 0.010401685894804797 0.00299711024492621 0.4617876155801849 0.7409301006631739 0.9453139429778665 
Task155 0.022302661466692512 0.05650021409477517 0.03649902934908319 0.053097887302496816 0.7367076461686065 0.5784812873474324 0.5848406216479768 
Task156 0.07484114432776286 0.3259988209422807 0.08740106758267885 0.17266546993354565 0.9553043948476196 0.916846685917581 0.6370829952724864 
Task157 0.02821537567252192 0.06106514755797597 0.25431618542822754 0.44338438600070473 0.8208799586065638 0.978905524141767 0.7141018723228489 
Task158 0.007014776574919555 0.1827592128735774 0.20451558189782812 0.2580757199449808 0.36527438734663875 0.31068881568199114 0.9043994868762619 
Task159 0.05530425993536628 0.18508532991865403 0.1054808141657252 0.19070247737955387 0.36222381209538407 0.9973480150758696 0.33293064915047405 
Task160 0.07532645127631273 0.10328405260240489 0.07883240943409109 0.17191912623159497 0.8821137655684448 0.362685315282035 0.46292936721335654 
Task161 0.08680541540587466 0.20271385648623377 0.4277752514350076 0.0913014071953378 0.807229116677457 0.8630422474132917 0.5852488497202448 
Task162 0.10501904110638832 0.40063000475173116 0.003006842489297242 0.11639559720452673 0.5128884783520313 0.4971084925358 0.34205070209724175 
Task163 0.07966790104497022 0.2686467194463831 0.12111016780145369 0.10739960177298946 0.9381495528801369 0.7207786882324503 0.573499559484661 
Task164 0.005921744458185629 0.01239843466068834 0.10390900022523611 0.047526549318192626 0.890108713985799 0.8540436824770523 0.626789544334167 
Task165 0.0007357439344370659 0.13469016556030886 0.26919920093266264 0.07312080063173308 0.5711658127357775 0.3138425018624986 0.4374599870091804 
Task166 0.019483953024480746 0.3788697670537599 0.15107669366771498 0.2628864779295029 0.3680930539076024 0.5632214423138033 0.7923437079480758 
Task167 0.06494576603900541 0.16455054943585987 0.5183131253695307 0.13234545112878587 0.5857267126585999 0.4149735936215609 0.45800395164581087 
Task168 0.10926325285305176 0.13957337075085077 0.26144132938191195 0.34673286750087656 0.6785917468668559 0.8244364457932807 0.9548325758662373 
Task169 0.05162219451007016 0.10768362902039685 0.17383542284416947 0.06025994436635311 0.3317339290300185 0.8110785652775248 0.5577452862912586 
Task170 0.10775246935922068 0.3369826994067061 0.0016800983392645632 0.1557107238692935 0.9179794616901418 0.566728394904958 0.4234144415231848 
Task171 0.019258067562178984 0.3220666781514607 0.19050599539996857 0.2043172797602735 0.9341855310405052 0.5048998490148637 0.3745773739110706 
Task172 0.019435834666843003 0.08680749246689388 0.040634447342932506 0.05822932336084163 0.7508836347531277 0.658487136689196 0.5719710943183518 
Task173 0.016895764317797008 0.16623202519979627 0.02352410732438621 0.04138206158010539 0.5370780263909951 0.3264672900035119 0.8228644722726697 
Task174 0.013830193349906612 0.08855934174312081 0.09545205933932435 0.0014676080630672825 0.8048356915638513 0.6608727234489814 0.37668157080749726 
Task175 0.15422487734123927 0.33564342279979414 0.12211662461911796 0.2335549750676165 0.877524663180083 0.4307700739973318 0.7837762845304059 
Task176 0.0035340907811744473 0.219269174164326 0.35846730244335706 0.2984796383192366 0.7214265598932835 0.7157298480569241 0.3415291215871274 
Task177 0.06474337212319724 0.0875972733983045 0.30134114370637194 0.17579858175906415 0.4500216818634996 0.8733301093337829 0.6042307823576061 
Task178 0.05698660448337947 0.028342456562781206 0.061377853607733575 0.2136977843267958 0.605211217236199 0.6789701207690613 0.8214551547315385 
Task179 0.021184081047591147 0.03384344525084052 0.4251609563129024 0.040410591853990825 0.6782659465686764 0.6239159793986373 0.7978865795396954 
Task180 0.1626433004136842 0.25054484133704885 0.23350139252630855 0.20358973209632059 0.7280745661925418 0.8383482072867758 0.38140160504542003 
Task181 0.026509386346259944 0.0918073449059532 0.004176920537299896 0.07039937280621619 0.8866398666486759 0.6642680158030392 0.5198063608454903 
Task182 0.014115544533952749 0.020332816915434555 0.2653762729638045 0.6512934302192122 0.8335871801128361 0.4238758944137859 0.8476380725082637 
Task183 0.04792569481464991 0.6968310690019427 0.012017265997067962 0.08729019923878467 0.5319414734128513 0.8915410895485829 0.9230653502228088 
Task184 0.006649712500356793 0.03467788746026264 0.015012141712535527 0.07719474799528188 0.8156933821187677 0.3761769919350303 0.7693066773538071 
Task185 0.033946447913625534 0.04209906710732414 0.09182086671901252 0.10297969483994614 0.32586104134727806 0.36545189219874363 0.9033225676753067 
Task186 0.1340410385015283 0.2618061669289786 0.24146617169166887 0.29368763830978994 0.4454512875934151 0.3272007062777201 0.49639813674010413 
Task187 0.0543637613771675 0.3164309379143986 0.27805204459957467 0.1085256028122743 0.9867771282458744 0.36240946096814075 0.7122097671747437 
Task188 0.04536015473282792 0.048366215144180075 0.08613239368271125 0.05984280098571852 0.3296695434240904 0.7694957190211111 0.39195146579980983 
Task189 0.012661757708321031 0.14727395663604803 0.07615399146000436 0.04610852594698532 0.4601945671715852 0.3959459650350095 0.9014604002021627 
Task190 0.05081728743918979 0.14731382254527087 0.09222223744846339 0.1385279392015381 0.827451461523137 0.9013462028329988 0.9380644652114105 
Task191 0.015515553158541822 0.472799121063616 0.028738752826518745 0.2959494913753343 0.7695630150591011 0.48245063076176653 0.5847875335475827 
Task192 0.05386389284524 0.049336491892569244 0.13707238133979016 0.047250322093186824 0.47630227827683463 0.39180855476204846 0.6314233533205063 
Task193 0.009891037336390586 0.026444134707670805 0.05986984139590573 0.01685204452133605 0.4505110036004768 0.7626354965623001 0.4403167355300722 
Task194 0.06218591516837543 0.3989165424879209 0.22006164939315784 0.2007461846269271 0.8264563691557798 0.45479061651601066 0.49835521526286686 
Task195 0.06059847060518225 0.239071557117381 0.005715191192570177 0.1458521035232052 0.791034334082985 0.37508460656908355 0.436980779307866 
Task196 0.09954731517797079 0.2509102339988152 0.10542393238175778 0.41107984894267263 0.5705409565215723 0.444481908872598 0.3861025771271533 
Task197 0.14593657633291593 0.24422856541081145 0.33965046927743275 0.23567565017313621 0.563243817504218 0.8159555063837427 0.5187787009030123 
Task198 0.0956514973619975 0.0011099082843657505 0.3618235886299742 0.3149384686505066 0.30556248515125956 0.5231623089091981 0.7797543688627135 
Task199 0.028047494792463597 0.17749471090782307 0.35011008326586784 0.15504104669800509 0.38182086169456897 0.3486141489235165 0.9643241688184865 
