files/tasks_parameters/ExAp01/sample8.txt 1.08535 3.76817 4.3855 0.450105 12.1764
files/tasks_parameters/ExAp01/sample12.txt 1.53504 5.03638 5.18776 0.610564 16.5172
files/tasks_parameters/ExAp01/sample2.txt 1.36914 4.58991 5.64606 0.613877 16.6068
files/tasks_parameters/ExAp01/sample44.txt 1.24427 3.77401 5.66946 0.551838 14.9285
files/tasks_parameters/ExAp01/sample27.txt 1.29543 4.13937 5.56136 0.55779 15.0895
files/tasks_parameters/ExAp01/sample17.txt 1.19333 3.76163 5.38341 0.520991 14.094
files/tasks_parameters/ExAp01/sample9.txt 1.10559 3.69889 5.2981 0.511699 13.8427
files/tasks_parameters/ExAp01/sample34.txt 1.13531 3.52435 5.83741 0.49187 13.3062
files/tasks_parameters/ExAp01/sample40.txt 1.15534 4.06185 5.0335 0.496884 13.4419
files/tasks_parameters/ExAp01/sample33.txt 1.53827 4.82091 5.83886 0.651963 17.6371
files/tasks_parameters/ExAp01/sample48.txt 1.07127 4.01134 5.07085 0.447927 12.1175
files/tasks_parameters/ExAp01/sample29.txt 1.42504 4.20847 5.0406 0.643694 17.4134
files/tasks_parameters/ExAp01/sample11.txt 1.31164 3.94699 5.29198 0.557276 15.0756
files/tasks_parameters/ExAp01/sample14.txt 1.06715 3.54059 4.58345 0.466713 12.6257
files/tasks_parameters/ExAp01/sample0.txt 1.49527 4.82755 4.90216 0.623551 16.8685
files/tasks_parameters/ExAp01/sample7.txt 1.13073 3.60766 5.11185 0.509566 13.7849
files/tasks_parameters/ExAp01/sample23.txt 1.41144 3.81403 5.45799 0.582911 15.7691
files/tasks_parameters/ExAp01/sample13.txt 1.42697 4.8894 5.26818 0.624499 16.8941
files/tasks_parameters/ExAp01/sample22.txt 1.24603 3.76156 4.95746 0.534216 14.4518
files/tasks_parameters/ExAp01/sample25.txt 0.977025 2.94144 4.92622 0.403639 10.9194
files/tasks_parameters/ExAp01/sample36.txt 1.23787 3.56164 4.5806 0.501799 13.5748
files/tasks_parameters/ExAp01/sample46.txt 1.27014 3.84833 4.7121 0.530701 14.3567
files/tasks_parameters/ExAp01/sample31.txt 1.0828 3.764 5.08385 0.479734 12.9779
files/tasks_parameters/ExAp01/sample37.txt 1.5045 4.43254 5.65111 0.65143 17.6227
files/tasks_parameters/ExAp01/sample16.txt 1.23753 4.49741 4.8895 0.509171 13.7742
files/tasks_parameters/ExAp01/sample10.txt 1.39339 3.87086 6.07511 0.60993 16.5
files/tasks_parameters/ExAp01/sample39.txt 1.08412 3.66299 4.54281 0.463671 12.5434
files/tasks_parameters/ExAp01/sample19.txt 1.37422 3.86694 5.14047 0.615987 16.6639
files/tasks_parameters/ExAp01/sample20.txt 1.30483 4.09945 5.13368 0.580369 15.7003
files/tasks_parameters/ExAp01/sample43.txt 1.13669 3.75825 5.55698 0.530892 14.3619
files/tasks_parameters/ExAp01/sample32.txt 1.4123 4.0352 5.29178 0.587643 15.8971
files/tasks_parameters/ExAp01/sample45.txt 1.2104 3.94578 4.87833 0.541081 14.6375
files/tasks_parameters/ExAp01/sample26.txt 1.06316 3.50998 4.55035 0.474009 12.823
files/tasks_parameters/ExAp01/sample5.txt 1.32532 4.00994 5.27725 0.587681 15.8981
files/tasks_parameters/ExAp01/sample21.txt 0.937582 2.8974 4.54677 0.430037 11.6335
files/tasks_parameters/ExAp01/sample38.txt 1.16718 3.56689 4.78573 0.492366 13.3196
files/tasks_parameters/ExAp01/sample1.txt 1.14248 3.69002 4.55048 0.481074 13.0142
files/tasks_parameters/ExAp01/sample15.txt 1.18814 3.73223 5.42493 0.524964 14.2015
files/tasks_parameters/ExAp01/sample24.txt 1.20421 4.18053 5.40377 0.542575 14.6779
files/tasks_parameters/ExAp01/sample3.txt 1.13195 3.70547 4.7118 0.470503 12.7282
files/tasks_parameters/ExAp01/sample6.txt 1.38819 4.07521 5.71419 0.626702 16.9537
files/tasks_parameters/ExAp01/sample30.txt 1.46854 3.97446 5.82388 0.626709 16.9539
files/tasks_parameters/ExAp01/sample42.txt 1.29511 4.44207 5.58473 0.537025 14.5278
files/tasks_parameters/ExAp01/sample4.txt 1.35616 3.92181 4.49751 0.556974 15.0674
files/tasks_parameters/ExAp01/sample28.txt 1.05117 3.13496 4.88321 0.444588 12.0271
files/tasks_parameters/ExAp01/sample18.txt 1.24096 3.95301 4.52898 0.537438 14.5389
files/tasks_parameters/ExAp01/sample35.txt 1.79341 5.75923 6.25034 0.752488 20.3565
files/tasks_parameters/ExAp01/sample47.txt 1.14578 3.44018 5.14289 0.540033 14.6092
files/tasks_parameters/ExAp01/sample49.txt 1.22684 3.38981 4.72409 0.493041 13.3379
files/tasks_parameters/ExAp01/sample41.txt 1.09978 3.58692 5.27252 0.492391 13.3203
