files/tasks_parameters/ExAp01/sample8.txt 0.793953 3.15778 1.5595 0.203411 4.72813
files/tasks_parameters/ExAp01/sample12.txt 0.751011 3.94962 1.6705 0.207924 4.83302
files/tasks_parameters/ExAp01/sample2.txt 0.713537 3.78275 1.74131 0.200098 4.65111
files/tasks_parameters/ExAp01/sample44.txt 0.688716 3.59825 1.65317 0.200005 4.64896
files/tasks_parameters/ExAp01/sample27.txt 0.641814 3.45743 1.5148 0.182129 4.23343
files/tasks_parameters/ExAp01/sample17.txt 0.558479 2.77299 1.44514 0.14646 3.40434
files/tasks_parameters/ExAp01/sample9.txt 0.642718 2.99933 1.451 0.177444 4.12453
files/tasks_parameters/ExAp01/sample34.txt 0.566996 3.02928 1.58429 0.157984 3.67221
files/tasks_parameters/ExAp01/sample40.txt 0.613502 3.86889 1.52122 0.168379 3.91384
files/tasks_parameters/ExAp01/sample33.txt 0.693909 3.63695 1.71905 0.199765 4.64338
files/tasks_parameters/ExAp01/sample48.txt 0.607615 3.39061 1.49062 0.154728 3.59653
files/tasks_parameters/ExAp01/sample29.txt 0.71352 3.30472 1.38739 0.223868 5.20364
files/tasks_parameters/ExAp01/sample11.txt 0.605506 3.10585 1.41612 0.174079 4.04632
files/tasks_parameters/ExAp01/sample14.txt 0.568982 2.70971 1.43432 0.162214 3.77055
files/tasks_parameters/ExAp01/sample0.txt 0.665546 3.6937 1.5439 0.18367 4.26926
files/tasks_parameters/ExAp01/sample7.txt 0.554097 2.70501 1.42221 0.143463 3.33469
files/tasks_parameters/ExAp01/sample23.txt 0.648973 3.2697 1.57822 0.181448 4.21763
files/tasks_parameters/ExAp01/sample13.txt 0.676722 3.84225 1.67648 0.198247 4.6081
files/tasks_parameters/ExAp01/sample22.txt 0.541978 3.09569 1.56121 0.148796 3.45865
files/tasks_parameters/ExAp01/sample25.txt 0.512929 2.73966 1.5007 0.148149 3.4436
files/tasks_parameters/ExAp01/sample36.txt 0.456635 2.85948 1.28553 0.130042 3.02273
files/tasks_parameters/ExAp01/sample46.txt 0.745064 3.58643 1.69998 0.210103 4.88367
files/tasks_parameters/ExAp01/sample31.txt 0.588408 3.4832 1.53782 0.1722 4.00265
files/tasks_parameters/ExAp01/sample37.txt 0.627993 3.95293 1.50705 0.171701 3.99105
files/tasks_parameters/ExAp01/sample16.txt 0.593452 3.31216 1.30115 0.150249 3.49242
files/tasks_parameters/ExAp01/sample10.txt 0.583139 3.17098 1.61789 0.153776 3.57441
files/tasks_parameters/ExAp01/sample39.txt 0.631416 3.26617 1.44406 0.165669 3.85084
files/tasks_parameters/ExAp01/sample19.txt 0.708525 3.63532 1.52509 0.196094 4.55806
files/tasks_parameters/ExAp01/sample20.txt 0.524264 3.20793 1.25367 0.147335 3.42469
files/tasks_parameters/ExAp01/sample43.txt 0.544628 3.11551 1.4202 0.150644 3.50161
files/tasks_parameters/ExAp01/sample32.txt 0.615264 3.5311 1.42482 0.168744 3.92233
files/tasks_parameters/ExAp01/sample45.txt 0.742248 3.80283 1.48324 0.19807 4.60399
files/tasks_parameters/ExAp01/sample26.txt 0.603683 3.21645 1.29701 0.166061 3.85996
files/tasks_parameters/ExAp01/sample5.txt 0.654492 3.5889 1.52559 0.178903 4.15847
files/tasks_parameters/ExAp01/sample21.txt 0.646588 2.75242 1.55936 0.19512 4.53542
files/tasks_parameters/ExAp01/sample38.txt 0.574384 3.31563 1.37515 0.166157 3.86218
files/tasks_parameters/ExAp01/sample1.txt 0.698335 3.74964 1.51696 0.19701 4.57933
files/tasks_parameters/ExAp01/sample15.txt 0.635997 3.32916 1.48508 0.180707 4.2004
files/tasks_parameters/ExAp01/sample24.txt 0.600301 3.45951 1.59549 0.16529 3.84204
files/tasks_parameters/ExAp01/sample3.txt 0.908314 3.70014 1.70809 0.237107 5.51137
files/tasks_parameters/ExAp01/sample6.txt 0.611687 3.33003 1.58323 0.184714 4.29354
files/tasks_parameters/ExAp01/sample30.txt 0.796852 4.1841 1.4861 0.239623 5.56985
files/tasks_parameters/ExAp01/sample42.txt 0.648544 3.43221 1.70276 0.177383 4.12312
files/tasks_parameters/ExAp01/sample4.txt 0.735448 3.72477 1.6136 0.196448 4.56628
files/tasks_parameters/ExAp01/sample28.txt 0.553311 3.11323 1.45032 0.158819 3.69162
files/tasks_parameters/ExAp01/sample18.txt 0.555892 3.47418 1.45209 0.149064 3.46487
files/tasks_parameters/ExAp01/sample35.txt 0.681184 4.57086 1.49394 0.185031 4.30089
files/tasks_parameters/ExAp01/sample47.txt 0.609243 3.13768 1.52397 0.16417 3.816
files/tasks_parameters/ExAp01/sample49.txt 0.546049 3.13288 1.49657 0.156154 3.62968
files/tasks_parameters/ExAp01/sample41.txt 0.526538 2.81964 1.49636 0.150876 3.50699
