0.4000102199999999
Task0 7 63 15 
Task1 127 31 7 
Task2 3 7 31 
Task3 15 7 63 
Task4 63 3 1 
Task5 7 31 31 
Task6 255 255 31 
Task7 127 31 63 
Task8 3 63 1 
Task9 63 255 127 
Task10 31 255 63 
Task11 7 255 31 
Task12 7 3 63 
Task13 31 7 63 
Task14 7 63 7 
Task15 63 255 7 
Task16 63 63 15 
Task17 1 7 63 
Task18 63 127 255 
Task19 63 15 7 
Task20 15 1 63 
Task21 63 7 7 
Task22 63 1 1 
Task23 63 15 3 
Task24 1 63 15 
Task25 127 31 127 
Task26 63 15 1 
Task27 31 31 63 
Task28 63 3 31 
Task29 7 63 63 
Task30 255 255 255 
Task31 255 31 63 
Task32 15 7 63 
Task33 63 31 7 
Task34 31 255 127 
Task35 63 7 1 
Task36 31 7 255 
Task37 63 63 15 
Task38 63 31 127 
Task39 63 255 3 
Task40 15 15 63 
Task41 7 63 15 
Task42 255 31 1 
Task43 255 63 3 
Task44 31 1 63 
Task45 15 31 63 
Task46 63 31 255 
Task47 15 15 31 
Task48 63 15 31 
Task49 63 3 63 
Task50 1 7 63 
Task51 63 31 7 
Task52 63 31 31 
Task53 127 3 63 
Task54 1 63 1 
Task55 3 63 31 
Task56 31 31 15 
Task57 255 127 127 
Task58 15 63 7 
Task59 255 31 7 
Task60 3 15 63 
Task61 7 127 63 
Task62 7 63 1 
Task63 15 63 7 
Task64 63 15 15 
Task65 63 63 7 
Task66 15 31 1 
Task67 15 63 255 
Task68 7 31 255 
Task69 31 7 15 
Task70 15 3 31 
Task71 3 15 31 
Task72 7 63 3 
Task73 3 15 63 
Task74 63 7 7 
Task75 127 15 31 
Task76 15 63 31 
Task77 127 127 63 
Task78 7 3 63 
Task79 15 255 31 
Task80 7 63 7 
Task81 15 63 7 
Task82 7 3 63 
Task83 31 127 63 
Task84 7 63 15 
Task85 31 255 255 
Task86 63 15 31 
Task87 7 63 15 
Task88 63 7 7 
Task89 31 7 255 
Task90 31 255 31 
Task91 31 1 31 
Task92 31 31 3 
Task93 255 127 63 
Task94 31 255 3 
Task95 15 15 63 
Task96 3 63 7 
Task97 63 63 7 
Task98 15 63 31 
Task99 63 1 7 
