digraph G {
0 ->21 2 ->18 2 ->20 4 ->19 4 ->21 5 ->17 6 ->18 6 ->19 6 ->21 7 ->20 9 ->17 9 ->19 10 ->19 10 ->20 11 ->19 11 ->20 13 ->21 14 ->20 14 ->22 16 ->20 17 ->28 17 ->30 17 ->31 19 ->23 19 ->24 19 ->26 19 ->27 19 ->31 19 ->33 20 ->23 20 ->26 20 ->26 20 ->27 20 ->29 20 ->30 20 ->31 20 ->33 21 ->25 21 ->29 21 ->30 22 ->25 22 ->32 23 ->37 24 ->38 25 ->37 25 ->38 25 ->39 25 ->40 26 ->39 26 ->41 27 ->38 27 ->39 27 ->41 28 ->38 28 ->39 29 ->34 29 ->35 29 ->36 29 ->39 32 ->35 32 ->37 32 ->41 33 ->36 33 ->37 33 ->38 33 ->39 34 ->42 35 ->43 35 ->47 35 ->48 36 ->42 36 ->46 36 ->48 37 ->47 38 ->42 38 ->48 39 ->42 39 ->44 40 ->43 40 ->44 41 ->44 41 ->45 41 ->47 42 ->49 42 ->50 42 ->59 42 ->60 42 ->61 42 ->63 43 ->50 43 ->53 43 ->57 43 ->58 43 ->61 44 ->49 44 ->50 44 ->52 44 ->55 44 ->56 44 ->58 45 ->51 45 ->58 45 ->62 46 ->49 46 ->53 46 ->54 46 ->57 46 ->58 46 ->60 46 ->62 47 ->53 47 ->55 47 ->57 47 ->60 47 ->61 47 ->62 48 ->50 48 ->52 48 ->55 48 ->60 48 ->62 53 ->64 54 ->64 55 ->64 56 ->64 56 ->65 57 ->64 58 ->64 58 ->65 59 ->64 59 ->66 60 ->64 63 ->66 64 ->67 64 ->69 64 ->70 64 ->71 64 ->73 65 ->69 65 ->72 65 ->73 65 ->74 66 ->68 66 ->70 66 ->72 67 ->76 68 ->75 70 ->75 71 ->75 73 ->77 75 ->81 76 ->78 76 ->79 77 ->80 78 ->84 78 ->85 78 ->86 79 ->86 80 ->82 80 ->83 80 ->85 80 ->87 82 ->90 82 ->91 82 ->92 82 ->93 82 ->95 83 ->91 83 ->92 83 ->93 83 ->96 84 ->88 84 ->95 84 ->97 85 ->93 85 ->94 85 ->97 85 ->98 85 ->99 86 ->89 86 ->90 86 ->94 86 ->96 86 ->97 86 ->98 87 ->89 87 ->92 87 ->94 87 ->95 87 ->99 
}
