files/tasks_parameters/ExAp01/sample8.txt 0.788883 3.15778 1.5595 0.203411 3.9892
files/tasks_parameters/ExAp01/sample12.txt 0.806027 3.94962 1.6705 0.207924 4.0777
files/tasks_parameters/ExAp01/sample2.txt 0.771251 3.78275 1.74131 0.200098 3.92422
files/tasks_parameters/ExAp01/sample44.txt 0.690066 3.59825 1.65317 0.200005 3.92241
files/tasks_parameters/ExAp01/sample27.txt 0.680558 3.45743 1.5148 0.182129 3.57182
files/tasks_parameters/ExAp01/sample17.txt 0.8698 2.77299 1.44514 0.14646 2.8723
files/tasks_parameters/ExAp01/sample9.txt 0.718351 2.99933 1.451 0.177444 3.47994
files/tasks_parameters/ExAp01/sample34.txt 0.831645 3.02928 1.58429 0.157984 3.0983
files/tasks_parameters/ExAp01/sample40.txt 0.764924 3.86889 1.52122 0.168379 3.30218
files/tasks_parameters/ExAp01/sample33.txt 0.805074 3.63695 1.71905 0.199765 3.9177
files/tasks_parameters/ExAp01/sample48.txt 0.682426 3.39061 1.49062 0.154728 3.03446
files/tasks_parameters/ExAp01/sample29.txt 0.728354 3.30472 1.38739 0.223868 4.3904
files/tasks_parameters/ExAp01/sample11.txt 0.707448 3.10585 1.41612 0.174079 3.41395
files/tasks_parameters/ExAp01/sample14.txt 0.655254 2.70971 1.43432 0.162214 3.18127
files/tasks_parameters/ExAp01/sample0.txt 0.747746 3.6937 1.5439 0.18367 3.60205
files/tasks_parameters/ExAp01/sample7.txt 0.809856 2.70501 1.42221 0.143463 2.81354
files/tasks_parameters/ExAp01/sample23.txt 0.75565 3.2697 1.57822 0.181448 3.55848
files/tasks_parameters/ExAp01/sample13.txt 0.732855 3.84225 1.67648 0.198247 3.88793
files/tasks_parameters/ExAp01/sample22.txt 0.859577 3.09569 1.56121 0.148796 2.91812
files/tasks_parameters/ExAp01/sample25.txt 0.746637 2.73966 1.5007 0.148149 2.90542
files/tasks_parameters/ExAp01/sample36.txt 0.75928 2.85948 1.28553 0.130042 2.55033
files/tasks_parameters/ExAp01/sample46.txt 0.750812 3.58643 1.69998 0.210103 4.12044
files/tasks_parameters/ExAp01/sample31.txt 0.69029 3.4832 1.53782 0.1722 3.3771
files/tasks_parameters/ExAp01/sample37.txt 0.76958 3.95293 1.50705 0.171701 3.36732
files/tasks_parameters/ExAp01/sample16.txt 0.610338 3.31216 1.30115 0.150249 2.94661
files/tasks_parameters/ExAp01/sample10.txt 1.04368 3.17098 1.61789 0.153776 3.01579
files/tasks_parameters/ExAp01/sample39.txt 0.698646 3.26617 1.44406 0.165669 3.24902
files/tasks_parameters/ExAp01/sample19.txt 0.736989 3.63532 1.52509 0.196094 3.84571
files/tasks_parameters/ExAp01/sample20.txt 0.662661 3.20793 1.25367 0.147335 2.88947
files/tasks_parameters/ExAp01/sample43.txt 0.647821 3.11551 1.4202 0.150644 2.95437
files/tasks_parameters/ExAp01/sample32.txt 0.722684 3.5311 1.42482 0.168744 3.30933
files/tasks_parameters/ExAp01/sample45.txt 0.745711 3.80283 1.48324 0.19807 3.88446
files/tasks_parameters/ExAp01/sample26.txt 0.632145 3.21645 1.29701 0.166061 3.25671
files/tasks_parameters/ExAp01/sample5.txt 0.631675 3.5889 1.52559 0.178903 3.50857
files/tasks_parameters/ExAp01/sample21.txt 0.668308 2.75242 1.55936 0.19512 3.82661
files/tasks_parameters/ExAp01/sample38.txt 0.663196 3.31563 1.37515 0.166157 3.25859
files/tasks_parameters/ExAp01/sample1.txt 0.727199 3.74964 1.51696 0.19701 3.86366
files/tasks_parameters/ExAp01/sample15.txt 0.695979 3.32916 1.48508 0.180707 3.54395
files/tasks_parameters/ExAp01/sample24.txt 0.843979 3.45951 1.59549 0.16529 3.2416
files/tasks_parameters/ExAp01/sample3.txt 0.88245 3.70014 1.70809 0.237107 4.65003
files/tasks_parameters/ExAp01/sample6.txt 0.70083 3.33003 1.58323 0.184714 3.62253
files/tasks_parameters/ExAp01/sample30.txt 0.806709 4.1841 1.4861 0.239623 4.69937
files/tasks_parameters/ExAp01/sample42.txt 0.747833 3.43221 1.70276 0.177383 3.47875
files/tasks_parameters/ExAp01/sample4.txt 0.785048 3.72477 1.6136 0.196448 3.85265
files/tasks_parameters/ExAp01/sample28.txt 0.689545 3.11323 1.45032 0.158819 3.11468
files/tasks_parameters/ExAp01/sample18.txt 0.769617 3.47418 1.45209 0.149064 2.92337
files/tasks_parameters/ExAp01/sample35.txt 0.805589 4.57086 1.49394 0.185031 3.62873
files/tasks_parameters/ExAp01/sample47.txt 0.715752 3.13768 1.52397 0.16417 3.21963
files/tasks_parameters/ExAp01/sample49.txt 0.776571 3.13288 1.49657 0.156154 3.06242
files/tasks_parameters/ExAp01/sample41.txt 0.761689 2.81964 1.49636 0.150876 2.95891
