Task0 0.1254938855417112 0.07908784946217325 0.35582960130369373 0.2615224393767618 0.5833073576337091 0.35228122712976445 0.8604990534687795 
Task1 0.0069360009545485655 0.02847324311335402 0.1023500316542104 0.022047593822857703 0.9529350398257486 0.6987663470952465 0.9331021367412793 
Task2 0.03880194401674223 0.007275080530900931 0.1435216594535892 0.11595003251836679 0.9437043792364448 0.48192468525975257 0.3343113891328509 
Task3 0.01802277860096089 0.03609057338261014 0.08253952441609275 0.06298469775129731 0.3899666008937719 0.41679727961239643 0.3764083091245448 
Task4 0.08654221056309082 0.181171008130566 0.21796598046507037 0.26075225773686683 0.7732280350770475 0.5185341044944947 0.9914189922934549 
Task5 0.01791249157156233 0.004922619666493137 0.041570736149980435 0.027461916767855133 0.3739550578661754 0.9618301534472606 0.3044866954316826 
Task6 0.005920449711612619 0.06158947732349462 0.12204112192820735 0.4027582996440859 0.8599964978538541 0.7188955938005346 0.3649072829423482 
Task7 0.08037281295316838 0.12879880201553562 0.09583947297286104 0.22851174518997136 0.39141229807400085 0.5418255566793431 0.9262204226310158 
Task8 0.02499454827133352 0.28426567670561903 0.03849595180774644 0.11348672617654486 0.3125987208151404 0.7958360926553387 0.7661992810882249 
Task9 0.012929657443099426 0.13655687621509766 0.08099491671488394 0.20630638537225526 0.991949953072178 0.6781075032395905 0.7094525625483556 
Task10 0.004011606972277266 0.05647575785266135 0.012443528186682953 0.08519010376195538 0.7038730920034961 0.8783044683214491 0.8327839817143463 
Task11 0.0013121115429618397 0.042892387656751796 0.2472361996307489 0.11154021335512398 0.8745641370766779 0.5599004672834251 0.5769048754750115 
Task12 0.16215721704527214 0.1023824066001644 0.040720245965398076 0.6085725476250674 0.9855017435933753 0.8762418296094889 0.7833383981314062 
Task13 0.04956405390950062 0.07567847916638477 0.0872886675244192 0.0562019962932794 0.854984883503042 0.5820156567429724 0.7141102389881004 
Task14 0.004955154140742173 0.17581542559375057 0.06302757697625815 0.05589113324977169 0.6658846296658907 0.8689306822486538 0.7972142370714124 
Task15 0.05246066859979954 0.14903604804750298 0.09371057267384564 0.12901751304120399 0.8901773948655083 0.6145033043222793 0.8067142790028388 
Task16 0.009042541116509643 0.03144806353119651 0.05474822309579949 0.022575827110820314 0.5572266299766365 0.49744391317586234 0.6598911491589796 
Task17 0.0259242020868377 0.02070594752161765 0.14248917708832107 0.03788117925676643 0.8132252253485153 0.5648858355783328 0.6367189463103216 
Task18 0.07875515202855898 0.16972046645288488 0.06356904247355347 0.20713095823304623 0.6785024828781936 0.7498517993255138 0.5654551441870324 
Task19 0.03595742376333622 0.1275563872276091 0.4139829728851748 0.14691572332019562 0.3133369253006402 0.6552991135131634 0.6376512745924934 
Task20 0.028481138548921443 0.04538055856754734 0.08980024983367038 0.06035441983724007 0.35487825637961734 0.7324225413847606 0.7746272102600591 
Task21 0.07451352762264815 0.051564699357322975 0.4727892261234197 0.23711375241600782 0.9813438419178822 0.6487707660302281 0.46398539162559455 
Task22 0.009222848687767992 0.2688398514298686 0.2570320576446756 0.23508630750380666 0.9548021677517844 0.3915407149362743 0.696205041357831 
Task23 0.011956989031481086 0.04034878931629733 0.045354727297098905 0.04713288692268653 0.5020498983436277 0.3508143936632398 0.43608649923326537 
Task24 0.03138289074377064 0.24353560464695606 0.29280955177692164 0.11628212912671897 0.8381161765778127 0.6817156463423164 0.3263009085724359 
Task25 0.025378599365802272 0.2830670285921484 0.20306464101114535 0.09282915664309221 0.8667615942519107 0.9556471921504825 0.6816461989943348 
Task26 0.026487559778960685 0.03725588521566144 0.3749238257971656 0.5313732164933139 0.7798752501499818 0.6021399710947007 0.6632731171206325 
Task27 0.001955625698769931 0.0027201664961963865 0.0037998071164709315 0.012323248250754608 0.9182736979652084 0.5652816288182287 0.4060244307505016 
Task28 3.177187711752342e-05 0.005964633806050614 0.005718078585920901 0.0013456928425167479 0.8339473701044253 0.9012848644654692 0.3726443312909081 
Task29 0.022590516068965026 0.219061520597568 0.1647853985630074 0.038836379462353285 0.9634247186715825 0.4757413343151136 0.9490004734921171 
Task30 0.019633674928926887 0.019569802922119038 0.29111722399075685 0.11413036181414338 0.49701266727958837 0.6478204893535962 0.8543356253419396 
Task31 0.0034459217560213976 0.016331063368976672 0.019160106033699376 0.022258451672415393 0.30914316400657427 0.5678189753165941 0.390743393228531 
Task32 0.09636348442138261 0.25122976143080583 0.24256765755854817 0.29167202621001986 0.8521775096093362 0.9759443191442374 0.9877030935212874 
Task33 0.11627412031492633 0.2982123989717272 0.2632754596475572 0.27407360009371196 0.5271565384004155 0.8791887978742823 0.9036952290567746 
Task34 0.042646951673224354 0.2522842002662311 0.1396743886790919 0.0038835617989993044 0.45366161509421243 0.7625929547624215 0.6682727467528509 
Task35 0.09871425128343679 0.2931924080072494 0.24382079031033058 0.0807614865955184 0.738787568833795 0.6043714342368048 0.8701088927743477 
Task36 0.08432195945659356 0.09024634780003744 0.20397000932505174 0.22345656516428655 0.580619616264626 0.7855930641270189 0.7433453881750771 
Task37 0.09017436948307682 0.13578887977316703 0.3920409803499954 0.1710680287707307 0.9063815525336256 0.38892926608527295 0.45412764086593704 
Task38 0.07041503876637682 0.1742500435552728 0.20722125704693659 0.1951863716429673 0.3969981994944534 0.4079823752513592 0.7795945608942869 
Task39 0.08164639743973238 0.055295377630272355 0.1653575774146375 0.14500911852250845 0.6834065147597014 0.8135606646392186 0.7587570446187607 
Task40 0.014378959161883519 0.13272485233384584 0.0666267704162927 0.17129279060932387 0.3573973087518846 0.8963400930213385 0.8733672661312644 
Task41 0.08950786334972421 0.1724922586608396 0.4874330214843209 0.24399420662036606 0.5045364135172873 0.862040111575407 0.9180032767024517 
Task42 0.07039953238005393 0.08242341956497741 0.3498460088729822 0.47380794282193067 0.5651248229861755 0.973038264422575 0.9459909513082758 
Task43 0.1062778215805011 0.05768242391553744 0.020522814673385337 0.5623912896470562 0.649002252609086 0.7574205792222599 0.5359000176782875 
Task44 0.04688613530376698 0.048471560258526614 0.01136667138636834 0.1674606505539194 0.7408055311286211 0.8032466795073765 0.5465328174219835 
Task45 0.02541312457119921 0.04309010284665723 0.1532333210260346 0.1592113624454313 0.8225881513136681 0.7890876132245879 0.5674940544528333 
Task46 0.07099526256408983 0.21223549590342775 0.17231815358718475 0.2608524274041873 0.5408148537875075 0.36597985280371453 0.6217290575963161 
Task47 0.047331789137523755 0.47901421892519624 0.1764981309627237 0.10398654761345252 0.6658311345957794 0.4797375548901191 0.4961030484205359 
Task48 0.07711994833610486 0.1834008968248738 0.0023888847417865328 0.33930433821793105 0.3250681634119945 0.7513042182298846 0.509449393298292 
Task49 0.00846245280110277 0.04666938531687934 0.05283865208869999 0.13098169114628305 0.9383919010684716 0.783230087566632 0.8437020981047545 
Task50 0.05188725487999946 0.03220032526032835 0.12855625931733528 0.047421217537714305 0.5480780237088516 0.3314571292209094 0.5114180867432138 
Task51 0.08225359760816285 0.2959182497514522 0.2202844031823311 0.1749426705609827 0.6514249857308598 0.49866905083850865 0.5741761104354963 
Task52 0.021619640782502253 0.16474264510347633 0.5260321945645295 0.20195021157772683 0.6053162609990472 0.7909947178043482 0.9854028412845954 
Task53 0.009863828244529868 0.03046647009615304 0.0014108261231392744 0.008153047978897694 0.7900404044746119 0.7958923623404612 0.8439986369902712 
Task54 0.028240185416707843 0.49521371787106055 0.18297508563332077 0.03456915773450919 0.43789585928704533 0.945507885043106 0.48474554404858583 
Task55 0.045959537850048 0.28908160924227316 0.22032297884974616 0.16831289962681076 0.7352703052051358 0.5949387762264552 0.5441705082680717 
Task56 0.0006657675137980059 0.011592311797735429 0.11382868820865465 0.3425547250319758 0.6380239046242594 0.31012755686820176 0.3857792157953002 
Task57 0.0763794362357675 0.06250366201499256 0.5422487048942057 0.29818556120798967 0.32077759989107746 0.37304988409376205 0.8255021241589391 
Task58 0.07456791024028678 0.20166653892414776 0.3287927185032387 0.3715546658153409 0.7146249819795478 0.9156138004538477 0.6864747749488309 
Task59 0.0008702590637681404 0.3322597588792797 0.21783189422828012 0.0009683749604704477 0.44710027113355455 0.6379618853969145 0.9533193274130534 
Task60 0.03841174126169757 0.24453373277214485 0.3112134248717692 0.1871447022967784 0.4460546794786673 0.8438469249883556 0.5494869969396471 
Task61 0.10468893657283536 0.20766413941110382 0.2133588540436079 0.06031714481014377 0.5439865833436579 0.6482022341786884 0.6026786217005446 
Task62 0.026214717031301495 0.06555973590586782 0.05490384255968025 0.03243491320391563 0.49590198312355227 0.7727766673753533 0.39915920797281224 
Task63 0.1409585787652333 0.2455889634049465 0.03144706945505995 0.46723486866589226 0.8724068557224511 0.9449706788078023 0.5312726904240069 
Task64 0.016933154521452852 0.1037256175673988 0.0788153396416093 0.11778753508481857 0.8972991740991008 0.5392803576666679 0.32667667781714105 
Task65 0.01311467026182771 0.09336096029703472 0.4617795916841038 0.30852453481086856 0.6670440524315546 0.4602708442443816 0.7259905599065453 
Task66 0.09873980412782206 0.2588552640541761 0.32991259787809024 0.10930786391800108 0.7611032824646053 0.761276030382237 0.6237155917493744 
Task67 0.06884017254889299 0.07838643467534402 0.4928552521502355 0.28187715070165403 0.7708668639549479 0.9663195645410256 0.834869304395004 
Task68 0.13510854415054027 0.19018647485064305 0.25268896622483883 0.20469573397445862 0.6640585165800301 0.7180173132904266 0.44256515845135 
Task69 0.021797193174292268 0.025511624827493508 0.17449677844672495 0.05268947645304834 0.881778902829079 0.6324059912756883 0.9866744867865251 
Task70 0.10139224614664434 0.2025884732520752 0.37806338246115995 0.1978027801739091 0.8709649688460583 0.8706126435795958 0.7051528601438266 
Task71 0.0509548232406409 0.17747592844766516 0.23344532235237758 0.14715899061850013 0.42588725917373715 0.41526195010075584 0.6662197827262013 
Task72 0.023583498221641023 0.028847940296867818 0.0588760992577953 0.2159483654254491 0.6443347198034457 0.7042029380398604 0.4417390343556285 
Task73 0.06997969817587961 0.3061892920412507 0.3120168363497261 0.2041960426553068 0.981659025341167 0.7235568963755482 0.9559199484165726 
Task74 0.015704263895732685 0.06800576676081255 0.004940407244935145 0.09353577743933186 0.6204951838184041 0.5421240747965514 0.35014381144101625 
Task75 0.042566275872673545 0.2734565595087972 0.23345947980387816 0.43217093110227417 0.6035103048449117 0.745463862567786 0.46784574439624504 
Task76 0.185799399436213 0.351781934036047 0.07054001239385146 0.3784344268030188 0.38360621022260627 0.7289516081341485 0.5805725691543456 
Task77 0.003134818012942616 0.2010526900335214 0.1715575595541318 0.16918133116865713 0.7223972403763019 0.613900063884268 0.30693341711494093 
Task78 0.022248593696068485 0.031386507492822596 0.034804506336377876 0.02825273973514593 0.36367767176611804 0.3911011015996271 0.6029187795279951 
Task79 0.04913970848946716 0.11788259923699182 0.15348013033670063 0.12690266786708548 0.5255298238071388 0.34525883550206216 0.691086294513604 
Task80 0.007288070430328037 0.16717462276998427 0.18173356360618553 0.025292244336892478 0.9508040463353411 0.6626279755261786 0.7655489648926097 
Task81 0.1394522165387185 0.15048565251287757 0.25278939046776006 0.16469308366431043 0.7702142064498121 0.5339151186826353 0.6689181098919812 
Task82 0.03987007489367095 0.026109037076119133 0.007776662520363723 0.12590892795667796 0.42042028045968893 0.9062290576176677 0.7066445268122394 
Task83 0.08470490536220966 0.34677620624515937 0.09747941739590832 0.09351629150875129 0.8834901285388266 0.7368229689072539 0.5156821708422278 
Task84 0.11400402993268782 0.03658063032895179 0.5079454501093729 0.24575406310870396 0.3015708887757147 0.6086364688781962 0.7129982989559411 
Task85 0.013298528344872476 0.16790017791591685 0.26708975005548924 0.00843828561900378 0.3338542403596117 0.6161708215801921 0.6819366176013877 
Task86 0.0062465247827541825 0.02739583607306098 0.019144081270015354 0.02092970371734545 0.7015202977676827 0.35841351040147784 0.9478422864932539 
Task87 0.007590014694084133 0.1506378138259111 0.07922352245625304 0.1776280288150551 0.8077278331807618 0.7909192111365739 0.5962211614506928 
Task88 0.02864242320980109 0.10444976139618961 0.15101167496660547 0.07961277845528876 0.7086537178896142 0.7402433998417911 0.972142663791798 
Task89 0.0869005294839024 0.23709253329093186 0.010548599236851938 0.2990746610853062 0.9619627757585412 0.8149726688692422 0.9237911448174183 
Task90 0.0007992646024616938 0.004008990521012539 0.015475053341542176 0.16743396722266704 0.999997096765328 0.8114097705952839 0.44316862748150193 
Task91 0.09435405859975879 0.11592945834567468 0.23555664558628314 0.11825544165762385 0.8841186654930138 0.44500951551172196 0.9695289644563128 
Task92 0.0813543582970842 0.20027058624757804 0.19331088938085603 0.2075522725863485 0.5224476522937861 0.5363925485811629 0.7501277833183999 
Task93 0.0035635121369755702 0.01119746748674555 0.012433042038963055 0.025647218901383294 0.6559955110123546 0.9913703781532985 0.668072305438941 
Task94 0.00347836874470087 0.00116747889548234 0.03964023268440703 0.023616379310015603 0.5361938958636107 0.8721166775672984 0.4127458230526935 
Task95 0.009406124335417007 0.2265530842377663 0.04865814914101833 0.2349298221307531 0.5952086618404545 0.9721239477226782 0.3921885059528781 
Task96 0.06966940973831716 0.09265867398749286 0.2109503860848514 0.17864426294404287 0.9508507133956192 0.6619970561485153 0.5326455012700031 
Task97 0.016724100788967355 0.04024489666157065 0.36800941187647457 0.26290785924500515 0.3768811773958055 0.8609938883317327 0.7242099376958373 
Task98 0.0023415051936117016 3.472175231778944e-05 0.022804479548962656 0.008674752362177603 0.43138745889897334 0.7913425025087577 0.4257125406206551 
Task99 0.011947403952952323 0.011284960697328603 0.02008180322143275 0.02339877853392617 0.4995954324053987 0.6154946369752773 0.3973444708894452 
