Task0 0.1593554545321385 0.2784350357805129 0.2432430828688518 0.2809264509101985 0.9721303772518439 0.545490088611298 0.31873640323933117 
Task1 2.731298048815883e-05 0.0002544751259748711 3.7401242784955493e-05 2.842679543460883e-05 0.5779359975856855 0.5308067705285657 0.456729558681192 
Task2 0.10733896060013838 0.060942250489792016 0.33129496282264137 0.20337307422344172 0.7858002690722192 0.6558055950106056 0.8970559691063478 
Task3 0.029702714919323536 0.32504723470098984 0.375135681804366 0.17357897483056461 0.5398044643484206 0.5779967339252446 0.6090083919979152 
Task4 0.0035520674512823317 0.03425043731262286 0.04950462330001286 0.011999035414680824 0.8833030171170415 0.5343943059457875 0.6556264719799274 
Task5 0.014693571537699813 0.11041805672050094 0.11361102688688453 0.05878558075375005 0.9749660240719649 0.7781507315040621 0.7173005659080418 
Task6 0.07665120933799696 0.08899556476100305 0.15171258676777086 0.08831505047241074 0.5262916463361439 0.5903113664500365 0.5298612966919943 
Task7 0.07999843751667113 0.22977736955134628 0.02423846587187091 0.21589271439260876 0.47605576261440036 0.7764376961551229 0.4250940890159126 
Task8 0.049139591653022514 0.005681314326990577 0.23184831164834344 0.009505730415803035 0.35005970676792614 0.8579755917178646 0.3430699638345972 
Task9 0.08024932717986381 0.14834133717411113 0.12986426095718862 0.370174585895718 0.5539600692420827 0.6481673930857739 0.58804967909755 
Task10 0.011751903884964323 0.0684157447106621 0.13024384580124526 0.04352126473243103 0.8884905906545673 0.9384029632356201 0.9718091538718467 
Task11 0.09350859859734431 0.3054245729152987 0.20962157229305384 0.07900445489088496 0.5342487614661756 0.9776684881025304 0.4736813570134494 
Task12 0.016861966768088578 0.16370975165550108 0.07050757198104095 0.07248941987441325 0.8310847261151533 0.42482777759169255 0.4888588787900666 
Task13 0.027872675955237597 0.17448771450069875 0.1534915319934795 0.058941756751209544 0.4526664874198081 0.8652132372249182 0.44274004807145984 
Task14 0.13663221411193016 0.46995019047966363 0.05968228168240269 0.28210772765098724 0.3967874028554289 0.729643746357688 0.5458407587626369 
Task15 0.01424286755839132 0.018263866810032347 0.057216608255850114 0.02313988425484265 0.8377884874864567 0.7055921572604857 0.6585715910410807 
Task16 0.081198645331773 0.3900174595136365 0.10089833727775326 0.030328640996208245 0.3468220975315288 0.3977696252640723 0.7587142050054907 
Task17 0.08057299456115284 0.23893271582492548 0.01770958293996538 0.2629444778269931 0.7059340244307739 0.4045105642376843 0.9297851445053389 
Task18 0.05084502795410653 0.05441480311866543 0.11718049094024215 0.09338864697459412 0.9310591260550909 0.6262065823603384 0.35045103110210946 
Task19 0.05810317186571172 0.4174344162746502 0.3451038952217352 0.04152228543444245 0.6683962866820716 0.6026071585099777 0.40878913089127955 
Task20 0.003126134055413966 0.01748635998868182 0.019317348331152135 0.006282916354505803 0.6241756875878812 0.8246447859281631 0.7506150264409231 
Task21 0.0025090558349753515 0.03214892035965964 0.025194634552061244 0.03746967754720799 0.4731801241433998 0.43443120749810493 0.8744175650368164 
Task22 0.0404367775397969 0.14430882743971057 0.018587023903016166 0.14526145593978163 0.7005784027528252 0.4344925546562567 0.6148439407406507 
Task23 0.03811458566816481 0.47443862283259564 0.16579477498351955 0.08097409266959887 0.8979074622381411 0.4912858848178737 0.9502970408742448 
Task24 0.006235547175164853 0.11334977540046408 0.03794151990696764 0.013444248664816819 0.9770954362171502 0.43955865548156153 0.7197469830434122 
Task25 0.01265189083644477 0.07828885061130798 0.1737537355633838 0.14482711210829693 0.8972030312729227 0.30370703504631014 0.6858962243155364 
Task26 0.00867120999402166 0.024597207782033188 0.034822830344148195 0.1743699203134168 0.9131283885161934 0.4463381441717077 0.944320150843333 
Task27 0.10801059916827126 0.36316703605357264 0.23554916175602172 0.01788497954057082 0.7535465689743142 0.9586568404515898 0.6132132224758465 
Task28 0.03465773513896537 0.5008751689426129 0.04995230803140316 0.15223541238708274 0.9925435447123878 0.5901548303636328 0.4151594703962659 
Task29 0.10544385432517954 0.5096717385398437 0.0850112879390534 0.07203726786289161 0.5839334540299495 0.8518648153335135 0.678249331950204 
Task30 0.017225354129945 0.002847464294222052 0.0880914025041038 0.0878514387882788 0.9429037422412456 0.5746045194895557 0.6462260019102797 
Task31 0.1118043922004702 0.09828802381828881 0.2476591769189778 0.26541518072730164 0.33193215658514114 0.8902117580145203 0.8332810571577562 
Task32 0.041998470015219266 0.11591312229994931 0.10077775703131345 0.0661625782146751 0.31590865966784276 0.983405187973047 0.895622430437788 
Task33 0.05383642577191319 0.1354824947844982 0.17773898841680405 0.018002289752778424 0.32872735280906756 0.45549567283723064 0.476947797019904 
Task34 0.00407643692222644 0.03520933102939269 0.02564152516184566 0.03313019703828423 0.6802797130239124 0.4327822987401947 0.3682947762074459 
Task35 0.004566243876694976 0.12941514039299803 0.1557240497348773 0.00418378581611666 0.3698843478640511 0.344951116434332 0.4472840821983701 
Task36 0.013410819460666485 0.23746431801471693 0.14178210049017648 0.22725786223478808 0.6260526351327207 0.8210897868234524 0.9839261079743464 
Task37 0.012722847365669447 0.06676755967455897 0.17757510579316574 0.2018050885946962 0.3391600505055444 0.9090061450556133 0.9373357345092415 
Task38 0.030557481830794184 0.03643574528087509 0.1435106536734191 0.1700529459181584 0.3010534586773543 0.7307161343629649 0.7217829429814231 
Task39 0.018006506789861182 0.08115414943100094 0.08113339077378388 0.0451931398314025 0.8899359933247897 0.4770761047606931 0.5784646602592642 
Task40 0.03826598306418702 0.11547264244958219 0.09141927833235275 0.04821281690978432 0.7868256051074327 0.3022811036132162 0.43266787161687736 
Task41 0.0015130034132858244 0.007781333949599446 0.004675649242378523 0.01189415473357739 0.9133517923553927 0.4261097529111361 0.6960919972511931 
Task42 0.0860554166344687 0.08189636114071837 0.21644132618081469 0.10387696205853092 0.7622369076643232 0.749425936592627 0.7602013813475987 
Task43 0.061420609726113864 0.283120714551894 0.324547078800891 0.06649002302919088 0.35105004116652 0.6927414136274791 0.5534599033006151 
Task44 0.0872701414650937 0.15349202162201162 0.13452643293639457 0.46198107327289184 0.6022793542955194 0.5236792900014948 0.41396397052149636 
Task45 0.08124163693634466 0.04495658471570906 0.27758033963850764 0.2823692136604228 0.8080680405222742 0.5057848213837774 0.9226411964743437 
Task46 0.007001037341722411 0.08276715730017054 0.28225521838203843 0.1891802109111579 0.497846773855958 0.3406271604896794 0.623442100972783 
Task47 0.07268881985569546 0.27881978399743057 0.09792980319811667 0.3795987044653127 0.981643871915785 0.5244521311749154 0.49438998866023687 
Task48 0.01580645628221919 0.2297179433098487 0.2288499304819001 0.12878521795331727 0.9217074521482116 0.4961920736199568 0.540267244035751 
Task49 0.02266318525737292 0.2191323745878966 0.1778613134517902 0.15694814756383696 0.3250751031187997 0.7760246897069489 0.7720457136455792 
Task50 0.015571766772062522 0.3282916362897081 0.3930541517308314 0.22993950725988427 0.3094910681568049 0.9799909470402233 0.9367359753194142 
Task51 0.014470201884653627 0.1573863348326177 0.06356592487023617 0.032822712009286284 0.833762859193117 0.8787284409247931 0.3469714837955158 
Task52 0.07833413870744518 0.16649357728298902 0.18188497778211607 0.12250945448707141 0.6997449552465934 0.9447168505738202 0.6054606870723163 
Task53 0.03346844401384694 0.3782269693379402 0.11933219280559215 0.18090793107853487 0.6819831159750056 0.49005799409003037 0.6265441864485561 
Task54 0.03705960777274569 0.03109664123916974 0.06796005663320438 0.1477834660017427 0.7671505398372516 0.6403050605114231 0.7709391326383259 
Task55 0.013242001671304583 0.061544419264858645 0.10026591389529078 0.024832103055747897 0.47338630484833033 0.3908452451933484 0.6055085925999463 
Task56 0.015262207974451476 0.18514011845694492 0.2660969642689588 0.0731500288659691 0.6897891825013154 0.8488451301872215 0.44522124190866863 
Task57 0.131694643252414 0.2892581551790813 0.17910951517371074 0.15297964895502267 0.6227209982362782 0.5643204771248285 0.31820214453779555 
Task58 0.007259700881666449 0.0033852500994987047 0.026934863267038894 0.000684417286317696 0.5538085971543223 0.7864176702006058 0.4688530640957024 
Task59 0.09255130241996089 0.4003341986742241 0.27047821670684447 0.179786056039007 0.72487369376165 0.8099066225925333 0.9607711211652008 
Task60 0.0408565085083526 0.21161129458939212 0.14177543274521862 0.19915765524495208 0.9163735708787859 0.4845493054973534 0.39246630607140265 
Task61 0.15200786590115967 0.32248942282010895 0.23797157451191675 0.15320296881689896 0.4569630428253959 0.7933064981121942 0.6666464772884426 
Task62 0.03266316170220574 0.12328189179366303 0.19758808774850564 0.11896613580367492 0.5921514839383022 0.788282308218671 0.875690526624872 
Task63 0.03823432986360379 0.22673109424084756 0.4820599092197039 0.18918963862912425 0.5874936618678166 0.7614457919963781 0.32758608229800296 
Task64 0.00945071053300269 0.36924778499788713 0.04115390244322014 0.09110770364857147 0.9774794210227777 0.5136830955248968 0.5993932845533791 
Task65 0.07185351100734107 0.09020433016293543 0.11519739715054453 0.12294610602113992 0.3949734669647474 0.3105152849494778 0.7628725820772282 
Task66 0.023298706295031453 0.28464008015585224 0.4209321149798589 0.06120791938303139 0.41811810197474203 0.700153019018064 0.526768868611742 
Task67 0.027442540977156663 0.03810511178811032 0.4602645082422616 0.4382495042994343 0.8277028936412965 0.7006320220494386 0.5985439953745408 
Task68 0.009073486543990745 0.02511392061417042 0.0769731283552944 0.03394429145513637 0.45586785294205706 0.5332546626836154 0.9811551342009732 
Task69 0.12264194820012192 0.1227528393427429 0.41275871500595107 0.1367290540002274 0.9052807151060156 0.607877784145713 0.41607718849662234 
Task70 0.00021385962450027715 0.0009487498483203984 5.131277509958478e-05 9.258594228934954e-05 0.6439280577147805 0.7458853521547303 0.8175615792893323 
Task71 0.004328411511003117 0.04294032609824065 0.03893988078207315 0.04611898921830101 0.9297376100015311 0.4572646107726184 0.8213221457421263 
Task72 0.06512120238473136 0.09504615559889741 0.3050445595790234 0.006563240499644454 0.7946943029730709 0.4192250024528288 0.34304210349972736 
Task73 0.01730453151100253 0.06564882840788398 0.04556434854598933 0.013925681882586286 0.7677119031461361 0.9247111364703129 0.9878137728592971 
Task74 0.03794612900717336 0.14563103478146633 0.22081939584376856 0.20546873026988832 0.8852838187124703 0.6256772174068128 0.8252980207923144 
Task75 0.051603365614262334 0.17042007924551827 0.1484016977727617 0.3278563245498212 0.5470923620417651 0.9533732900221621 0.5548104789185186 
Task76 0.004790719306096428 0.013919422962676292 0.002046554998784473 0.022726460827517222 0.3672121549880084 0.35729473512868004 0.48619455140988976 
Task77 0.0001250148365727082 0.0007280004087187558 0.0024814282548979243 0.0016209509586606824 0.9706086705290651 0.7077327911887095 0.3312996882945416 
Task78 0.02102707284054364 0.0862367378545961 0.29723893847703875 0.1359794918671243 0.3314863846445821 0.5271064431548017 0.6223779599931011 
Task79 0.0029612950025515524 0.22790109834250932 0.37493622658222053 0.19886569290439707 0.5333456495044251 0.8611546101841341 0.5220534609631553 
Task80 0.08632344953504027 0.018028646973048915 0.31154549799810083 0.12887718347982252 0.9894803984147218 0.9690149280341629 0.5579806307207524 
Task81 0.02148158120565527 0.04556296899288285 0.033369070566548975 0.024310114820024414 0.9716599122873673 0.7412857558708674 0.6843554242305259 
Task82 0.009617720704898846 0.1004404792216832 0.039084418772623815 0.07950632775869357 0.732761342590637 0.40279565068610107 0.9753625690043319 
Task83 0.033909275172721874 0.0450453963481121 0.10749247964064772 0.034036712149460815 0.8601183657984701 0.8630951016720003 0.6936261211982414 
Task84 0.008934708217767876 0.0314569386287676 0.2867325921609273 0.24978886429951772 0.3392412233510657 0.34020848346553895 0.9515908369554704 
Task85 0.0012974683108539387 0.01249136397057109 0.004452020779757065 0.02499212869897401 0.98988217136761 0.7108678352259354 0.9313381814361812 
Task86 0.002912629790380558 0.007209158608444281 0.0017468668753774879 0.005370022708174998 0.9897513656104662 0.33947064858821197 0.9745840870489093 
Task87 0.027709045214744155 0.3568767472385726 0.35814912748872546 0.01447631442774986 0.324403414148197 0.7021354957043211 0.8224796151613576 
Task88 0.058008224554476864 0.21481950766681596 0.22554520405094053 0.26737415465684655 0.4285486803596157 0.9730014526639763 0.5809635060915928 
Task89 0.11448297149610857 0.17278580932170773 0.36327641883082035 0.2935397689834121 0.9347779995904826 0.9503841199084775 0.31277634355945 
Task90 0.039703195393328485 0.052733116508845976 0.05343446974659968 0.12246506919893269 0.8961513772269569 0.4034534882858791 0.724025413857875 
Task91 0.029875381242416767 0.018156772291269354 0.03542760626225175 0.10012725221338638 0.4312587147309114 0.9476333930144278 0.9585022375738286 
Task92 0.04032641484740647 0.3962735109540525 0.19176290933755724 0.28893183463235117 0.3159670446456079 0.5955067482282885 0.516308228228367 
Task93 0.07019735752709898 0.09038664559575489 0.1640334825903228 0.3499814865962505 0.47808182317520187 0.35001729798513054 0.8173243173363864 
Task94 0.060809708196982906 0.30639781684138195 0.17085792204738262 0.2276288637698458 0.626745794222713 0.7163639723642592 0.7494101556754913 
Task95 0.004010776121520539 0.2969805938095258 0.13418822000588312 0.25178548442029897 0.8448182519635037 0.6082694282043658 0.39813905927619736 
Task96 0.0010218452511555178 0.041296336894175806 0.03842207864640702 0.06285551684584591 0.8805523570062654 0.3109892903594295 0.9950264089363758 
Task97 0.01628695837119732 0.032802655787100905 0.031112831063081495 0.053997478605752706 0.5957472428314432 0.6827876473393115 0.9763542539347001 
Task98 0.15157156332694713 0.2567820988680026 0.2455368743378945 0.20449119350261946 0.9645361569988735 0.7742870162694768 0.4287818086499674 
Task99 0.12967754849625912 0.061428805129529744 0.09564827808760681 0.6619661514561743 0.6912101591551061 0.7567358128004014 0.7618535894689233 
