files/tasks_parameters/ExAp01/sample8.txt 1.08756 3.76817 4.3855 0.450105 10.8
files/tasks_parameters/ExAp01/sample12.txt 1.49418 5.03638 5.18776 0.610564 14.6501
files/tasks_parameters/ExAp01/sample2.txt 1.39214 4.58991 5.64606 0.613877 14.7296
files/tasks_parameters/ExAp01/sample44.txt 1.28672 3.77401 5.66946 0.551838 13.241
files/tasks_parameters/ExAp01/sample27.txt 1.30617 4.13937 5.56136 0.55779 13.3838
files/tasks_parameters/ExAp01/sample17.txt 1.20369 3.76163 5.38341 0.520991 12.5008
files/tasks_parameters/ExAp01/sample9.txt 1.15994 3.69889 5.2981 0.511699 12.2779
files/tasks_parameters/ExAp01/sample34.txt 1.13513 3.52435 5.83741 0.49187 11.8021
files/tasks_parameters/ExAp01/sample40.txt 1.16955 4.06185 5.0335 0.496884 11.9224
files/tasks_parameters/ExAp01/sample33.txt 1.55311 4.82091 5.83886 0.651963 15.6434
files/tasks_parameters/ExAp01/sample48.txt 1.08638 4.01134 5.07085 0.447927 10.7477
files/tasks_parameters/ExAp01/sample29.txt 1.48666 4.20847 5.0406 0.643694 15.445
files/tasks_parameters/ExAp01/sample11.txt 1.31879 3.94699 5.29198 0.557276 13.3715
files/tasks_parameters/ExAp01/sample14.txt 1.08569 3.54059 4.58345 0.466713 11.1985
files/tasks_parameters/ExAp01/sample0.txt 1.55893 4.82755 4.90216 0.623551 14.9617
files/tasks_parameters/ExAp01/sample7.txt 1.15002 3.60766 5.11185 0.509566 12.2267
files/tasks_parameters/ExAp01/sample23.txt 1.39278 3.81403 5.45799 0.582911 13.9866
files/tasks_parameters/ExAp01/sample13.txt 1.48665 4.8894 5.26818 0.624499 14.9844
files/tasks_parameters/ExAp01/sample22.txt 1.29069 3.76156 4.95746 0.534216 12.8182
files/tasks_parameters/ExAp01/sample25.txt 0.982879 2.94144 4.92622 0.403639 9.68505
files/tasks_parameters/ExAp01/sample36.txt 1.25826 3.56164 4.5806 0.501799 12.0403
files/tasks_parameters/ExAp01/sample46.txt 1.23268 3.84833 4.7121 0.530701 12.7338
files/tasks_parameters/ExAp01/sample31.txt 1.09385 3.764 5.08385 0.479734 11.5109
files/tasks_parameters/ExAp01/sample37.txt 1.5241 4.43254 5.65111 0.65143 15.6306
files/tasks_parameters/ExAp01/sample16.txt 1.27104 4.49741 4.8895 0.509171 12.2172
files/tasks_parameters/ExAp01/sample10.txt 1.38978 3.87086 6.07511 0.60993 14.6349
files/tasks_parameters/ExAp01/sample39.txt 1.04986 3.66299 4.54281 0.463671 11.1255
files/tasks_parameters/ExAp01/sample19.txt 1.40843 3.86694 5.14047 0.615987 14.7802
files/tasks_parameters/ExAp01/sample20.txt 1.30941 4.09945 5.13368 0.580369 13.9256
files/tasks_parameters/ExAp01/sample43.txt 1.1523 3.75825 5.55698 0.530892 12.7384
files/tasks_parameters/ExAp01/sample32.txt 1.42834 4.0352 5.29178 0.587643 14.1001
files/tasks_parameters/ExAp01/sample45.txt 1.23214 3.94578 4.87833 0.541081 12.9829
files/tasks_parameters/ExAp01/sample26.txt 1.11259 3.50998 4.55035 0.474009 11.3735
files/tasks_parameters/ExAp01/sample5.txt 1.35539 4.00994 5.27725 0.587681 14.101
files/tasks_parameters/ExAp01/sample21.txt 0.933921 2.8974 4.54677 0.430037 10.3185
files/tasks_parameters/ExAp01/sample38.txt 1.16966 3.56689 4.78573 0.492366 11.814
files/tasks_parameters/ExAp01/sample1.txt 1.15462 3.69002 4.55048 0.481074 11.543
files/tasks_parameters/ExAp01/sample15.txt 1.20629 3.73223 5.42493 0.524964 12.5962
files/tasks_parameters/ExAp01/sample24.txt 1.29586 4.18053 5.40377 0.542575 13.0187
files/tasks_parameters/ExAp01/sample3.txt 1.08376 3.70547 4.7118 0.470503 11.2894
files/tasks_parameters/ExAp01/sample6.txt 1.41986 4.07521 5.71419 0.626702 15.0373
files/tasks_parameters/ExAp01/sample30.txt 1.49351 3.97446 5.82388 0.626709 15.0375
files/tasks_parameters/ExAp01/sample42.txt 1.29681 4.44207 5.58473 0.537025 12.8855
files/tasks_parameters/ExAp01/sample4.txt 1.32117 3.92181 4.49751 0.556974 13.3642
files/tasks_parameters/ExAp01/sample28.txt 1.07223 3.13496 4.88321 0.444588 10.6676
files/tasks_parameters/ExAp01/sample18.txt 1.22803 3.95301 4.52898 0.537438 12.8955
files/tasks_parameters/ExAp01/sample35.txt 1.90901 5.75923 6.25034 0.752488 18.0554
files/tasks_parameters/ExAp01/sample47.txt 1.16153 3.44018 5.14289 0.540033 12.9577
files/tasks_parameters/ExAp01/sample49.txt 1.19873 3.38981 4.72409 0.493041 11.8302
files/tasks_parameters/ExAp01/sample41.txt 1.10214 3.58692 5.27252 0.492391 11.8146
