files/tasks_parameters/ExAp01/sample8.txt 0.728566 3.15778 1.5595 0.203411 4.52967
files/tasks_parameters/ExAp01/sample12.txt 0.82259 3.94962 1.6705 0.207924 4.63016
files/tasks_parameters/ExAp01/sample2.txt 0.80065 3.78275 1.74131 0.200098 4.45588
files/tasks_parameters/ExAp01/sample44.txt 0.709072 3.59825 1.65317 0.200005 4.45382
files/tasks_parameters/ExAp01/sample27.txt 0.711711 3.45743 1.5148 0.182129 4.05574
files/tasks_parameters/ExAp01/sample17.txt 0.925109 2.77299 1.44514 0.14646 3.26145
files/tasks_parameters/ExAp01/sample9.txt 0.707916 2.99933 1.451 0.177444 3.95141
files/tasks_parameters/ExAp01/sample34.txt 0.831645 3.02928 1.58429 0.157984 3.51807
files/tasks_parameters/ExAp01/sample40.txt 0.765221 3.86889 1.52122 0.168379 3.74956
files/tasks_parameters/ExAp01/sample33.txt 0.803935 3.63695 1.71905 0.199765 4.44848
files/tasks_parameters/ExAp01/sample48.txt 0.688408 3.39061 1.49062 0.154728 3.44557
files/tasks_parameters/ExAp01/sample29.txt 0.775526 3.30472 1.38739 0.223868 4.98522
files/tasks_parameters/ExAp01/sample11.txt 0.712545 3.10585 1.41612 0.174079 3.87648
files/tasks_parameters/ExAp01/sample14.txt 0.661184 2.70971 1.43432 0.162214 3.61228
files/tasks_parameters/ExAp01/sample0.txt 0.765945 3.6937 1.5439 0.18367 4.09006
files/tasks_parameters/ExAp01/sample7.txt 0.809856 2.70501 1.42221 0.143463 3.19472
files/tasks_parameters/ExAp01/sample23.txt 0.763607 3.2697 1.57822 0.181448 4.04059
files/tasks_parameters/ExAp01/sample13.txt 0.764808 3.84225 1.67648 0.198247 4.41467
files/tasks_parameters/ExAp01/sample22.txt 0.901802 3.09569 1.56121 0.148796 3.31347
files/tasks_parameters/ExAp01/sample25.txt 0.746637 2.73966 1.5007 0.148149 3.29906
files/tasks_parameters/ExAp01/sample36.txt 0.851626 2.85948 1.28553 0.130042 2.89585
files/tasks_parameters/ExAp01/sample46.txt 0.766553 3.58643 1.69998 0.210103 4.67868
files/tasks_parameters/ExAp01/sample31.txt 0.693316 3.4832 1.53782 0.1722 3.83464
files/tasks_parameters/ExAp01/sample37.txt 0.770878 3.95293 1.50705 0.171701 3.82353
files/tasks_parameters/ExAp01/sample16.txt 0.623881 3.31216 1.30115 0.150249 3.34583
files/tasks_parameters/ExAp01/sample10.txt 1.10417 3.17098 1.61789 0.153776 3.42438
files/tasks_parameters/ExAp01/sample39.txt 0.683245 3.26617 1.44406 0.165669 3.6892
files/tasks_parameters/ExAp01/sample19.txt 0.748259 3.63532 1.52509 0.196094 4.36674
files/tasks_parameters/ExAp01/sample20.txt 0.664192 3.20793 1.25367 0.147335 3.28095
files/tasks_parameters/ExAp01/sample43.txt 0.651246 3.11551 1.4202 0.150644 3.35463
files/tasks_parameters/ExAp01/sample32.txt 0.741287 3.5311 1.42482 0.168744 3.75769
files/tasks_parameters/ExAp01/sample45.txt 0.741441 3.80283 1.48324 0.19807 4.41074
files/tasks_parameters/ExAp01/sample26.txt 0.646998 3.21645 1.29701 0.166061 3.69794
files/tasks_parameters/ExAp01/sample5.txt 0.653276 3.5889 1.52559 0.178903 3.98392
files/tasks_parameters/ExAp01/sample21.txt 0.703426 2.75242 1.55936 0.19512 4.34505
files/tasks_parameters/ExAp01/sample38.txt 0.664183 3.31563 1.37515 0.166157 3.70007
files/tasks_parameters/ExAp01/sample1.txt 0.705259 3.74964 1.51696 0.19701 4.38712
files/tasks_parameters/ExAp01/sample15.txt 0.705769 3.32916 1.48508 0.180707 4.02409
files/tasks_parameters/ExAp01/sample24.txt 0.861271 3.45951 1.59549 0.16529 3.68078
files/tasks_parameters/ExAp01/sample3.txt 0.849327 3.70014 1.70809 0.237107 5.28003
files/tasks_parameters/ExAp01/sample6.txt 0.741721 3.33003 1.58323 0.184714 4.11332
files/tasks_parameters/ExAp01/sample30.txt 0.881025 4.1841 1.4861 0.239623 5.33606
files/tasks_parameters/ExAp01/sample42.txt 0.752698 3.43221 1.70276 0.177383 3.95006
files/tasks_parameters/ExAp01/sample4.txt 0.795193 3.72477 1.6136 0.196448 4.37462
files/tasks_parameters/ExAp01/sample28.txt 0.698826 3.11323 1.45032 0.158819 3.53667
files/tasks_parameters/ExAp01/sample18.txt 0.772181 3.47418 1.45209 0.149064 3.31944
files/tasks_parameters/ExAp01/sample35.txt 0.825916 4.57086 1.49394 0.185031 4.12037
files/tasks_parameters/ExAp01/sample47.txt 0.717654 3.13768 1.52397 0.16417 3.65583
files/tasks_parameters/ExAp01/sample49.txt 0.780866 3.13288 1.49657 0.156154 3.47733
files/tasks_parameters/ExAp01/sample41.txt 0.764811 2.81964 1.49636 0.150876 3.35979
