files/tasks_parameters/ExAp01/sample8.txt 1.08756 3.76817 4.3855 0.450105 11.1799
files/tasks_parameters/ExAp01/sample12.txt 1.49418 5.03638 5.18776 0.610564 15.1655
files/tasks_parameters/ExAp01/sample2.txt 1.39214 4.58991 5.64606 0.613877 15.2478
files/tasks_parameters/ExAp01/sample44.txt 1.28672 3.77401 5.66946 0.551838 13.7068
files/tasks_parameters/ExAp01/sample27.txt 1.30617 4.13937 5.56136 0.55779 13.8547
files/tasks_parameters/ExAp01/sample17.txt 1.20369 3.76163 5.38341 0.520991 12.9406
files/tasks_parameters/ExAp01/sample9.txt 1.15994 3.69889 5.2981 0.511699 12.7099
files/tasks_parameters/ExAp01/sample34.txt 1.13513 3.52435 5.83741 0.49187 12.2173
files/tasks_parameters/ExAp01/sample40.txt 1.16955 4.06185 5.0335 0.496884 12.3419
files/tasks_parameters/ExAp01/sample33.txt 1.55311 4.82091 5.83886 0.651963 16.1938
files/tasks_parameters/ExAp01/sample48.txt 1.08638 4.01134 5.07085 0.447927 11.1258
files/tasks_parameters/ExAp01/sample29.txt 1.48816 4.20847 5.0406 0.643694 15.9884
files/tasks_parameters/ExAp01/sample11.txt 1.31879 3.94699 5.29198 0.557276 13.8419
files/tasks_parameters/ExAp01/sample14.txt 1.08636 3.54059 4.58345 0.466713 11.5925
files/tasks_parameters/ExAp01/sample0.txt 1.55893 4.82755 4.90216 0.623551 15.4881
files/tasks_parameters/ExAp01/sample7.txt 1.15002 3.60766 5.11185 0.509566 12.6569
files/tasks_parameters/ExAp01/sample23.txt 1.39278 3.81403 5.45799 0.582911 14.4787
files/tasks_parameters/ExAp01/sample13.txt 1.48665 4.8894 5.26818 0.624499 15.5116
files/tasks_parameters/ExAp01/sample22.txt 1.29069 3.76156 4.95746 0.534216 13.2691
files/tasks_parameters/ExAp01/sample25.txt 0.982879 2.94144 4.92622 0.403639 10.0258
files/tasks_parameters/ExAp01/sample36.txt 1.25826 3.56164 4.5806 0.501799 12.4639
files/tasks_parameters/ExAp01/sample46.txt 1.23268 3.84833 4.7121 0.530701 13.1818
files/tasks_parameters/ExAp01/sample31.txt 1.09385 3.764 5.08385 0.479734 11.9159
files/tasks_parameters/ExAp01/sample37.txt 1.5241 4.43254 5.65111 0.65143 16.1806
files/tasks_parameters/ExAp01/sample16.txt 1.27104 4.49741 4.8895 0.509171 12.647
files/tasks_parameters/ExAp01/sample10.txt 1.38978 3.87086 6.07511 0.60993 15.1497
files/tasks_parameters/ExAp01/sample39.txt 1.04986 3.66299 4.54281 0.463671 11.5169
files/tasks_parameters/ExAp01/sample19.txt 1.40843 3.86694 5.14047 0.615987 15.3002
files/tasks_parameters/ExAp01/sample20.txt 1.30941 4.09945 5.13368 0.580369 14.4155
files/tasks_parameters/ExAp01/sample43.txt 1.1523 3.75825 5.55698 0.530892 13.1866
files/tasks_parameters/ExAp01/sample32.txt 1.42834 4.0352 5.29178 0.587643 14.5962
files/tasks_parameters/ExAp01/sample45.txt 1.23214 3.94578 4.87833 0.541081 13.4396
files/tasks_parameters/ExAp01/sample26.txt 1.11259 3.50998 4.55035 0.474009 11.7737
files/tasks_parameters/ExAp01/sample5.txt 1.35539 4.00994 5.27725 0.587681 14.5971
files/tasks_parameters/ExAp01/sample21.txt 0.933921 2.8974 4.54677 0.430037 10.6815
files/tasks_parameters/ExAp01/sample38.txt 1.16966 3.56689 4.78573 0.492366 12.2296
files/tasks_parameters/ExAp01/sample1.txt 1.15462 3.69002 4.55048 0.481074 11.9492
files/tasks_parameters/ExAp01/sample15.txt 1.20629 3.73223 5.42493 0.524964 13.0393
files/tasks_parameters/ExAp01/sample24.txt 1.29586 4.18053 5.40377 0.542575 13.4768
files/tasks_parameters/ExAp01/sample3.txt 1.08376 3.70547 4.7118 0.470503 11.6866
files/tasks_parameters/ExAp01/sample6.txt 1.41986 4.07521 5.71419 0.626702 15.5664
files/tasks_parameters/ExAp01/sample30.txt 1.49351 3.97446 5.82388 0.626709 15.5665
files/tasks_parameters/ExAp01/sample42.txt 1.29681 4.44207 5.58473 0.537025 13.3389
files/tasks_parameters/ExAp01/sample4.txt 1.36742 3.92181 4.49751 0.556974 13.8344
files/tasks_parameters/ExAp01/sample28.txt 1.0629 3.13496 4.88321 0.444588 11.0429
files/tasks_parameters/ExAp01/sample18.txt 1.22803 3.95301 4.52898 0.537438 13.3492
files/tasks_parameters/ExAp01/sample35.txt 1.90901 5.75923 6.25034 0.752488 18.6907
files/tasks_parameters/ExAp01/sample47.txt 1.16153 3.44018 5.14289 0.540033 13.4136
files/tasks_parameters/ExAp01/sample49.txt 1.19873 3.38981 4.72409 0.493041 12.2464
files/tasks_parameters/ExAp01/sample41.txt 1.10214 3.58692 5.27252 0.492391 12.2302
