files/tasks_parameters/ExAp01/sample8.txt 1.10411 7.2562 4.46819 0.454772 9.59342
files/tasks_parameters/ExAp01/sample12.txt 1.59635 9.70908 5.28286 0.618515 13.0476
files/tasks_parameters/ExAp01/sample2.txt 1.45704 8.14159 5.7401 0.620531 13.0901
files/tasks_parameters/ExAp01/sample44.txt 1.35459 7.25164 5.75904 0.557631 11.7632
files/tasks_parameters/ExAp01/sample27.txt 1.3183 8.10944 5.64946 0.564878 11.9161
files/tasks_parameters/ExAp01/sample17.txt 1.25401 7.11225 5.46658 0.527183 11.1209
files/tasks_parameters/ExAp01/sample9.txt 1.1815 7.62559 5.37813 0.517277 10.912
files/tasks_parameters/ExAp01/sample34.txt 1.2448 7.04587 5.93037 0.497709 10.4992
files/tasks_parameters/ExAp01/sample40.txt 1.201 8.03037 5.123 0.502383 10.5978
files/tasks_parameters/ExAp01/sample33.txt 1.61164 9.22935 5.92956 0.659262 13.9071
files/tasks_parameters/ExAp01/sample48.txt 1.15203 8.12182 5.1577 0.452491 9.54529
files/tasks_parameters/ExAp01/sample29.txt 1.51595 8.06133 5.12331 0.650652 13.7255
files/tasks_parameters/ExAp01/sample11.txt 1.35889 7.63104 5.37897 0.563302 11.8829
files/tasks_parameters/ExAp01/sample14.txt 1.13168 6.66403 4.66322 0.471536 9.94706
files/tasks_parameters/ExAp01/sample0.txt 1.5117 9.3266 4.98971 0.6311 13.3131
files/tasks_parameters/ExAp01/sample7.txt 1.23356 7.34863 5.19436 0.515527 10.8751
files/tasks_parameters/ExAp01/sample23.txt 1.40203 6.68564 5.54308 0.588617 12.4169
files/tasks_parameters/ExAp01/sample13.txt 1.52481 9.31093 5.35591 0.632849 13.35
files/tasks_parameters/ExAp01/sample22.txt 1.30635 7.65588 5.04866 0.540336 11.3984
files/tasks_parameters/ExAp01/sample25.txt 1.0295 6.17035 5.0141 0.408296 8.613
files/tasks_parameters/ExAp01/sample36.txt 1.18735 7.03772 4.66274 0.507647 10.7088
files/tasks_parameters/ExAp01/sample46.txt 1.35236 7.73433 4.79934 0.536843 11.3247
files/tasks_parameters/ExAp01/sample31.txt 1.16998 6.96928 5.16482 0.485817 10.2483
files/tasks_parameters/ExAp01/sample37.txt 1.55195 9.52443 5.74224 0.65799 13.8803
files/tasks_parameters/ExAp01/sample16.txt 1.33876 8.63521 4.97261 0.516328 10.8919
files/tasks_parameters/ExAp01/sample10.txt 1.39877 7.28353 6.16876 0.615651 12.9872
files/tasks_parameters/ExAp01/sample39.txt 1.14417 6.3405 4.6137 0.468873 9.89088
files/tasks_parameters/ExAp01/sample19.txt 1.40407 8.85528 5.22306 0.622152 13.1243
files/tasks_parameters/ExAp01/sample20.txt 1.39217 8.1141 5.21177 0.586994 12.3826
files/tasks_parameters/ExAp01/sample43.txt 1.28062 7.21373 5.6367 0.53748 11.3381
files/tasks_parameters/ExAp01/sample32.txt 1.43715 8.30592 5.38137 0.593918 12.5287
files/tasks_parameters/ExAp01/sample45.txt 1.31006 7.94069 4.96323 0.547271 11.5447
files/tasks_parameters/ExAp01/sample26.txt 1.12383 7.57061 4.62637 0.480146 10.1287
files/tasks_parameters/ExAp01/sample5.txt 1.37341 8.0307 5.35681 0.59407 12.5319
files/tasks_parameters/ExAp01/sample21.txt 1.02755 5.87802 4.61744 0.434264 9.16081
files/tasks_parameters/ExAp01/sample38.txt 1.2847 7.66999 4.86632 0.496808 10.4802
files/tasks_parameters/ExAp01/sample1.txt 1.14035 7.21312 4.63213 0.486293 10.2584
files/tasks_parameters/ExAp01/sample15.txt 1.28125 8.02273 5.50855 0.531063 11.2028
files/tasks_parameters/ExAp01/sample24.txt 1.32473 8.66348 5.4905 0.548998 11.5811
files/tasks_parameters/ExAp01/sample3.txt 1.18752 7.74268 4.79918 0.477387 10.0705
files/tasks_parameters/ExAp01/sample6.txt 1.488 8.57133 5.80157 0.633604 13.3659
files/tasks_parameters/ExAp01/sample30.txt 1.66528 8.18878 5.90888 0.633576 13.3653
files/tasks_parameters/ExAp01/sample42.txt 1.30667 8.57689 5.67253 0.54426 11.4812
files/tasks_parameters/ExAp01/sample4.txt 1.28278 8.40354 4.57985 0.563519 11.8874
files/tasks_parameters/ExAp01/sample28.txt 1.11294 6.44114 4.96426 0.449721 9.48687
files/tasks_parameters/ExAp01/sample18.txt 1.29188 8.56363 4.60946 0.543766 11.4708
files/tasks_parameters/ExAp01/sample35.txt 1.91439 11.0387 6.34514 0.761377 16.0613
files/tasks_parameters/ExAp01/sample47.txt 1.32345 7.14493 5.22131 0.545046 11.4977
files/tasks_parameters/ExAp01/sample49.txt 1.28386 6.65996 4.80244 0.498533 10.5166
files/tasks_parameters/ExAp01/sample41.txt 1.18983 7.09069 5.35462 0.497129 10.4869
