files/tasks_parameters/ExAp01/sample8.txt 1.09072 7.2562 4.46819 0.454772 8.3735
files/tasks_parameters/ExAp01/sample12.txt 1.59622 9.70908 5.28286 0.618515 11.3884
files/tasks_parameters/ExAp01/sample2.txt 1.42031 8.14159 5.7401 0.620531 11.4255
files/tasks_parameters/ExAp01/sample44.txt 1.32264 7.25164 5.75904 0.557631 10.2674
files/tasks_parameters/ExAp01/sample27.txt 1.32149 8.10944 5.64946 0.564878 10.4008
files/tasks_parameters/ExAp01/sample17.txt 1.24874 7.11225 5.46658 0.527183 9.70678
files/tasks_parameters/ExAp01/sample9.txt 1.18642 7.62559 5.37813 0.517277 9.52437
files/tasks_parameters/ExAp01/sample34.txt 1.24003 7.04587 5.93037 0.497709 9.16408
files/tasks_parameters/ExAp01/sample40.txt 1.20459 8.03037 5.123 0.502383 9.25013
files/tasks_parameters/ExAp01/sample33.txt 1.53791 9.22935 5.92956 0.659262 12.1387
files/tasks_parameters/ExAp01/sample48.txt 1.08738 8.12182 5.1577 0.452491 8.33149
files/tasks_parameters/ExAp01/sample29.txt 1.4523 8.06133 5.12331 0.650652 11.9801
files/tasks_parameters/ExAp01/sample11.txt 1.30459 7.63104 5.37897 0.563302 10.3718
files/tasks_parameters/ExAp01/sample14.txt 1.12507 6.66403 4.66322 0.471536 8.68217
files/tasks_parameters/ExAp01/sample0.txt 1.4466 9.3266 4.98971 0.6311 11.6201
files/tasks_parameters/ExAp01/sample7.txt 1.26128 7.34863 5.19436 0.515527 9.49216
files/tasks_parameters/ExAp01/sample23.txt 1.34139 6.68564 5.54308 0.588617 10.8379
files/tasks_parameters/ExAp01/sample13.txt 1.46182 9.31093 5.35591 0.632849 11.6523
files/tasks_parameters/ExAp01/sample22.txt 1.27561 7.65588 5.04866 0.540336 9.94895
files/tasks_parameters/ExAp01/sample25.txt 1.01203 6.17035 5.0141 0.408296 7.51776
files/tasks_parameters/ExAp01/sample36.txt 1.21708 7.03772 4.66274 0.507647 9.34706
files/tasks_parameters/ExAp01/sample46.txt 1.27373 7.73433 4.79934 0.536843 9.88464
files/tasks_parameters/ExAp01/sample31.txt 1.17365 6.96928 5.16482 0.485817 8.94512
files/tasks_parameters/ExAp01/sample37.txt 1.55068 9.52443 5.74224 0.65799 12.1152
files/tasks_parameters/ExAp01/sample16.txt 1.35543 8.63521 4.97261 0.516328 9.50689
files/tasks_parameters/ExAp01/sample10.txt 1.40507 7.28353 6.16876 0.615651 11.3357
files/tasks_parameters/ExAp01/sample39.txt 1.11366 6.3405 4.6137 0.468873 8.63314
files/tasks_parameters/ExAp01/sample19.txt 1.38295 8.85528 5.22306 0.622152 11.4554
files/tasks_parameters/ExAp01/sample20.txt 1.36864 8.1141 5.21177 0.586994 10.808
files/tasks_parameters/ExAp01/sample43.txt 1.24492 7.21373 5.6367 0.53748 9.89636
files/tasks_parameters/ExAp01/sample32.txt 1.36696 8.30592 5.38137 0.593918 10.9355
files/tasks_parameters/ExAp01/sample45.txt 1.27144 7.94069 4.96323 0.547271 10.0766
files/tasks_parameters/ExAp01/sample26.txt 1.12194 7.57061 4.62637 0.480146 8.8407
files/tasks_parameters/ExAp01/sample5.txt 1.35405 8.0307 5.35681 0.59407 10.9383
files/tasks_parameters/ExAp01/sample21.txt 1.03582 5.87802 4.61744 0.434264 7.9959
files/tasks_parameters/ExAp01/sample38.txt 1.16024 7.66999 4.86632 0.496808 9.14749
files/tasks_parameters/ExAp01/sample1.txt 1.11321 7.21312 4.63213 0.486293 8.95389
files/tasks_parameters/ExAp01/sample15.txt 1.26738 8.02273 5.50855 0.531063 9.7782
files/tasks_parameters/ExAp01/sample24.txt 1.31668 8.66348 5.4905 0.548998 10.1084
files/tasks_parameters/ExAp01/sample3.txt 1.12842 7.74268 4.79918 0.477387 8.78989
files/tasks_parameters/ExAp01/sample6.txt 1.44908 8.57133 5.80157 0.633604 11.6662
files/tasks_parameters/ExAp01/sample30.txt 1.53213 8.18878 5.90888 0.633576 11.6657
files/tasks_parameters/ExAp01/sample42.txt 1.33268 8.57689 5.67253 0.54426 10.0212
files/tasks_parameters/ExAp01/sample4.txt 1.2813 8.40354 4.57985 0.563519 10.3758
files/tasks_parameters/ExAp01/sample28.txt 1.04252 6.44114 4.96426 0.449721 8.2805
files/tasks_parameters/ExAp01/sample18.txt 1.313 8.56363 4.60946 0.543766 10.0121
files/tasks_parameters/ExAp01/sample35.txt 1.83713 11.0387 6.34514 0.761377 14.0189
files/tasks_parameters/ExAp01/sample47.txt 1.28763 7.14493 5.22131 0.545046 10.0357
files/tasks_parameters/ExAp01/sample49.txt 1.25147 6.65996 4.80244 0.498533 9.17926
files/tasks_parameters/ExAp01/sample41.txt 1.16333 7.09069 5.35462 0.497129 9.15339
