files/tasks_parameters/ExAp01/sample8.txt 1.11988 7.2562 4.46819 0.454772 21.2891
files/tasks_parameters/ExAp01/sample12.txt 1.62524 9.70908 5.28286 0.618515 28.9543
files/tasks_parameters/ExAp01/sample2.txt 1.58507 8.14159 5.7401 0.620531 29.0487
files/tasks_parameters/ExAp01/sample44.txt 1.38351 7.25164 5.75904 0.557631 26.1041
files/tasks_parameters/ExAp01/sample27.txt 1.32132 8.10944 5.64946 0.564878 26.4434
files/tasks_parameters/ExAp01/sample17.txt 1.24942 7.11225 5.46658 0.527183 24.6788
files/tasks_parameters/ExAp01/sample9.txt 1.22501 7.62559 5.37813 0.517277 24.2151
files/tasks_parameters/ExAp01/sample34.txt 1.26878 7.04587 5.93037 0.497709 23.2991
files/tasks_parameters/ExAp01/sample40.txt 1.20628 8.03037 5.123 0.502383 23.5178
files/tasks_parameters/ExAp01/sample33.txt 1.64848 9.22935 5.92956 0.659262 30.8618
files/tasks_parameters/ExAp01/sample48.txt 1.15961 8.12182 5.1577 0.452491 21.1822
files/tasks_parameters/ExAp01/sample29.txt 1.60431 8.06133 5.12331 0.650652 30.4587
files/tasks_parameters/ExAp01/sample11.txt 1.36227 7.63104 5.37897 0.563302 26.3696
files/tasks_parameters/ExAp01/sample14.txt 1.13066 6.66403 4.66322 0.471536 22.0738
files/tasks_parameters/ExAp01/sample0.txt 1.51674 9.3266 4.98971 0.6311 29.5434
files/tasks_parameters/ExAp01/sample7.txt 1.26075 7.34863 5.19436 0.515527 24.1332
files/tasks_parameters/ExAp01/sample23.txt 1.40254 6.68564 5.54308 0.588617 27.5547
files/tasks_parameters/ExAp01/sample13.txt 1.71317 9.31093 5.35591 0.632849 29.6253
files/tasks_parameters/ExAp01/sample22.txt 1.3285 7.65588 5.04866 0.540336 25.2945
files/tasks_parameters/ExAp01/sample25.txt 1.08414 6.17035 5.0141 0.408296 19.1134
files/tasks_parameters/ExAp01/sample36.txt 1.22071 7.03772 4.66274 0.507647 23.7643
files/tasks_parameters/ExAp01/sample46.txt 1.36923 7.73433 4.79934 0.536843 25.131
files/tasks_parameters/ExAp01/sample31.txt 1.25422 6.96928 5.16482 0.485817 22.7424
files/tasks_parameters/ExAp01/sample37.txt 1.6406 9.52443 5.74224 0.65799 30.8022
files/tasks_parameters/ExAp01/sample16.txt 1.3689 8.63521 4.97261 0.516328 24.1706
files/tasks_parameters/ExAp01/sample10.txt 1.3863 7.28353 6.16876 0.615651 28.8202
files/tasks_parameters/ExAp01/sample39.txt 1.13898 6.3405 4.6137 0.468873 21.9492
files/tasks_parameters/ExAp01/sample19.txt 1.63133 8.85528 5.22306 0.622152 29.1246
files/tasks_parameters/ExAp01/sample20.txt 1.44197 8.1141 5.21177 0.586994 27.4787
files/tasks_parameters/ExAp01/sample43.txt 1.29843 7.21373 5.6367 0.53748 25.1608
files/tasks_parameters/ExAp01/sample32.txt 1.54135 8.30592 5.38137 0.593918 27.8028
files/tasks_parameters/ExAp01/sample45.txt 1.42886 7.94069 4.96323 0.547271 25.6192
files/tasks_parameters/ExAp01/sample26.txt 1.1512 7.57061 4.62637 0.480146 22.4769
files/tasks_parameters/ExAp01/sample5.txt 1.49643 8.0307 5.35681 0.59407 27.8099
files/tasks_parameters/ExAp01/sample21.txt 1.01469 5.87802 4.61744 0.434264 20.329
files/tasks_parameters/ExAp01/sample38.txt 1.22272 7.66999 4.86632 0.496808 23.2569
files/tasks_parameters/ExAp01/sample1.txt 1.19823 7.21312 4.63213 0.486293 22.7646
files/tasks_parameters/ExAp01/sample15.txt 1.27809 8.02273 5.50855 0.531063 24.8604
files/tasks_parameters/ExAp01/sample24.txt 1.38987 8.66348 5.4905 0.548998 25.7
files/tasks_parameters/ExAp01/sample3.txt 1.16899 7.74268 4.79918 0.477387 22.3477
files/tasks_parameters/ExAp01/sample6.txt 1.60405 8.57133 5.80157 0.633604 29.6606
files/tasks_parameters/ExAp01/sample30.txt 1.72579 8.18878 5.90888 0.633576 29.6593
files/tasks_parameters/ExAp01/sample42.txt 1.32534 8.57689 5.67253 0.54426 25.4782
files/tasks_parameters/ExAp01/sample4.txt 1.34071 8.40354 4.57985 0.563519 26.3798
files/tasks_parameters/ExAp01/sample28.txt 1.10015 6.44114 4.96426 0.449721 21.0526
files/tasks_parameters/ExAp01/sample18.txt 1.40742 8.56363 4.60946 0.543766 25.4551
files/tasks_parameters/ExAp01/sample35.txt 2.02443 11.0387 6.34514 0.761377 35.642
files/tasks_parameters/ExAp01/sample47.txt 1.32343 7.14493 5.22131 0.545046 25.515
files/tasks_parameters/ExAp01/sample49.txt 1.33658 6.65996 4.80244 0.498533 23.3376
files/tasks_parameters/ExAp01/sample41.txt 1.21703 7.09069 5.35462 0.497129 23.2719
