files/tasks_parameters/ExAp01/sample8.txt 1.08923 3.76817 4.3855 0.450105 13.9539
files/tasks_parameters/ExAp01/sample12.txt 1.49418 5.03638 5.18776 0.610564 18.9284
files/tasks_parameters/ExAp01/sample2.txt 1.42416 4.58991 5.64606 0.613877 19.0311
files/tasks_parameters/ExAp01/sample44.txt 1.27982 3.77401 5.66946 0.551838 17.1078
files/tasks_parameters/ExAp01/sample27.txt 1.30612 4.13937 5.56136 0.55779 17.2923
files/tasks_parameters/ExAp01/sample17.txt 1.20346 3.76163 5.38341 0.520991 16.1515
files/tasks_parameters/ExAp01/sample9.txt 1.21653 3.69889 5.2981 0.511699 15.8634
files/tasks_parameters/ExAp01/sample34.txt 1.13513 3.52435 5.83741 0.49187 15.2487
files/tasks_parameters/ExAp01/sample40.txt 1.16953 4.06185 5.0335 0.496884 15.4041
files/tasks_parameters/ExAp01/sample33.txt 1.55311 4.82091 5.83886 0.651963 20.2118
files/tasks_parameters/ExAp01/sample48.txt 1.07975 4.01134 5.07085 0.447927 13.8864
files/tasks_parameters/ExAp01/sample29.txt 1.48747 4.20847 5.0406 0.643694 19.9554
files/tasks_parameters/ExAp01/sample11.txt 1.31879 3.94699 5.29198 0.557276 17.2763
files/tasks_parameters/ExAp01/sample14.txt 1.08636 3.54059 4.58345 0.466713 14.4688
files/tasks_parameters/ExAp01/sample0.txt 1.57201 4.82755 4.90216 0.623551 19.331
files/tasks_parameters/ExAp01/sample7.txt 1.15002 3.60766 5.11185 0.509566 15.7973
files/tasks_parameters/ExAp01/sample23.txt 1.39278 3.81403 5.45799 0.582911 18.0711
files/tasks_parameters/ExAp01/sample13.txt 1.48652 4.8894 5.26818 0.624499 19.3604
files/tasks_parameters/ExAp01/sample22.txt 1.29323 3.76156 4.95746 0.534216 16.5615
files/tasks_parameters/ExAp01/sample25.txt 0.969765 2.94144 4.92622 0.403639 12.5134
files/tasks_parameters/ExAp01/sample36.txt 1.25826 3.56164 4.5806 0.501799 15.5565
files/tasks_parameters/ExAp01/sample46.txt 1.2671 3.84833 4.7121 0.530701 16.4525
files/tasks_parameters/ExAp01/sample31.txt 1.09432 3.764 5.08385 0.479734 14.8724
files/tasks_parameters/ExAp01/sample37.txt 1.52624 4.43254 5.65111 0.65143 20.1953
files/tasks_parameters/ExAp01/sample16.txt 1.27104 4.49741 4.8895 0.509171 15.785
files/tasks_parameters/ExAp01/sample10.txt 1.38978 3.87086 6.07511 0.60993 18.9087
files/tasks_parameters/ExAp01/sample39.txt 1.08798 3.66299 4.54281 0.463671 14.3745
files/tasks_parameters/ExAp01/sample19.txt 1.4083 3.86694 5.14047 0.615987 19.0965
files/tasks_parameters/ExAp01/sample20.txt 1.30941 4.09945 5.13368 0.580369 17.9923
files/tasks_parameters/ExAp01/sample43.txt 1.15211 3.75825 5.55698 0.530892 16.4584
files/tasks_parameters/ExAp01/sample32.txt 1.42834 4.0352 5.29178 0.587643 18.2178
files/tasks_parameters/ExAp01/sample45.txt 1.2321 3.94578 4.87833 0.541081 16.7743
files/tasks_parameters/ExAp01/sample26.txt 1.11251 3.50998 4.55035 0.474009 14.695
files/tasks_parameters/ExAp01/sample5.txt 1.35534 4.00994 5.27725 0.587681 18.2189
files/tasks_parameters/ExAp01/sample21.txt 0.933921 2.8974 4.54677 0.430037 13.3318
files/tasks_parameters/ExAp01/sample38.txt 1.16963 3.56689 4.78573 0.492366 15.2641
files/tasks_parameters/ExAp01/sample1.txt 1.27806 3.69002 4.55048 0.481074 14.914
files/tasks_parameters/ExAp01/sample15.txt 1.20629 3.73223 5.42493 0.524964 16.2746
files/tasks_parameters/ExAp01/sample24.txt 1.33714 4.18053 5.40377 0.542575 16.8206
files/tasks_parameters/ExAp01/sample3.txt 1.08376 3.70547 4.7118 0.470503 14.5863
files/tasks_parameters/ExAp01/sample6.txt 1.41981 4.07521 5.71419 0.626702 19.4287
files/tasks_parameters/ExAp01/sample30.txt 1.49327 3.97446 5.82388 0.626709 19.4289
files/tasks_parameters/ExAp01/sample42.txt 1.29681 4.44207 5.58473 0.537025 16.6485
files/tasks_parameters/ExAp01/sample4.txt 1.36715 3.92181 4.49751 0.556974 17.267
files/tasks_parameters/ExAp01/sample28.txt 1.07598 3.13496 4.88321 0.444588 13.7829
files/tasks_parameters/ExAp01/sample18.txt 1.22946 3.95301 4.52898 0.537438 16.6613
files/tasks_parameters/ExAp01/sample35.txt 1.90884 5.75923 6.25034 0.752488 23.3282
files/tasks_parameters/ExAp01/sample47.txt 1.16153 3.44018 5.14289 0.540033 16.7418
files/tasks_parameters/ExAp01/sample49.txt 1.19873 3.38981 4.72409 0.493041 15.285
files/tasks_parameters/ExAp01/sample41.txt 1.10214 3.58692 5.27252 0.492391 15.2648
