files/tasks_parameters/ExAp01/sample8.txt 1.19633 6.77015 2.19458 0.288816 11.5306
files/tasks_parameters/ExAp01/sample12.txt 1.33694 9.58351 2.46081 0.337498 13.4741
files/tasks_parameters/ExAp01/sample2.txt 1.19628 8.44418 2.50701 0.319127 12.7407
files/tasks_parameters/ExAp01/sample44.txt 1.15567 6.96299 2.23089 0.28229 11.27
files/tasks_parameters/ExAp01/sample27.txt 1.17524 7.74306 2.16676 0.28602 11.4189
files/tasks_parameters/ExAp01/sample17.txt 1.19596 7.35053 2.25579 0.292348 11.6716
files/tasks_parameters/ExAp01/sample9.txt 1.02345 6.89392 2.21068 0.282399 11.2744
files/tasks_parameters/ExAp01/sample34.txt 1.27403 6.62788 2.3772 0.297742 11.8869
files/tasks_parameters/ExAp01/sample40.txt 1.14729 7.75686 2.17534 0.285619 11.4029
files/tasks_parameters/ExAp01/sample33.txt 1.4355 8.14826 2.6463 0.338073 13.4971
files/tasks_parameters/ExAp01/sample48.txt 1.04888 7.64107 2.14272 0.270011 10.7798
files/tasks_parameters/ExAp01/sample29.txt 0.984001 7.139 1.93769 0.286306 11.4303
files/tasks_parameters/ExAp01/sample11.txt 1.09897 6.88688 2.12981 0.280008 11.1789
files/tasks_parameters/ExAp01/sample14.txt 1.01534 6.11983 1.97599 0.247458 9.87938
files/tasks_parameters/ExAp01/sample0.txt 1.1872 8.2738 2.14256 0.289132 11.5432
files/tasks_parameters/ExAp01/sample7.txt 1.0937 6.87011 2.05821 0.269886 10.7748
files/tasks_parameters/ExAp01/sample23.txt 1.17217 6.52032 2.38087 0.291712 11.6462
files/tasks_parameters/ExAp01/sample13.txt 1.16748 8.73247 2.33415 0.295393 11.7931
files/tasks_parameters/ExAp01/sample22.txt 1.11826 6.9777 2.28948 0.283979 11.3375
files/tasks_parameters/ExAp01/sample25.txt 0.995515 6.23444 2.2122 0.267298 10.6715
files/tasks_parameters/ExAp01/sample36.txt 0.922926 6.6174 1.9458 0.253823 10.1335
files/tasks_parameters/ExAp01/sample46.txt 1.35542 7.42369 2.49128 0.327273 13.0659
files/tasks_parameters/ExAp01/sample31.txt 0.901015 7.22028 2.13584 0.25377 10.1314
files/tasks_parameters/ExAp01/sample37.txt 1.25445 8.90704 2.16981 0.295708 11.8057
files/tasks_parameters/ExAp01/sample16.txt 1.0568 8.18243 1.88294 0.24945 9.95892
files/tasks_parameters/ExAp01/sample10.txt 1.14995 6.96646 2.31217 0.285748 11.4081
files/tasks_parameters/ExAp01/sample39.txt 1.01189 6.4161 1.97266 0.251967 10.0594
files/tasks_parameters/ExAp01/sample19.txt 1.21387 8.16711 2.23199 0.308463 12.3149
files/tasks_parameters/ExAp01/sample20.txt 0.954895 7.28549 1.88944 0.25994 10.3777
files/tasks_parameters/ExAp01/sample43.txt 0.978756 6.86804 2.00142 0.25616 10.2268
files/tasks_parameters/ExAp01/sample32.txt 1.0569 8.15663 2.12995 0.281726 11.2475
files/tasks_parameters/ExAp01/sample45.txt 1.07296 7.75184 2.10599 0.274935 10.9764
files/tasks_parameters/ExAp01/sample26.txt 1.01967 7.4944 1.88956 0.267248 10.6695
files/tasks_parameters/ExAp01/sample5.txt 1.10993 8.08362 2.09961 0.28454 11.3599
files/tasks_parameters/ExAp01/sample21.txt 1.05239 6.11814 2.17119 0.26143 10.4372
files/tasks_parameters/ExAp01/sample38.txt 1.09086 7.761 1.96293 0.263659 10.5262
files/tasks_parameters/ExAp01/sample1.txt 1.14674 7.83752 2.13261 0.289228 11.547
files/tasks_parameters/ExAp01/sample15.txt 1.09468 7.37971 2.12057 0.285825 11.4112
files/tasks_parameters/ExAp01/sample24.txt 1.1343 8.28531 2.25272 0.296628 11.8425
files/tasks_parameters/ExAp01/sample3.txt 1.23866 7.33359 2.39135 0.305084 12.1801
files/tasks_parameters/ExAp01/sample6.txt 1.06017 7.09894 2.24425 0.281804 11.2506
files/tasks_parameters/ExAp01/sample30.txt 1.20793 8.17669 2.03701 0.299204 11.9453
files/tasks_parameters/ExAp01/sample42.txt 1.27334 7.70416 2.42413 0.29743 11.8745
files/tasks_parameters/ExAp01/sample4.txt 1.15789 7.41691 2.36261 0.307803 12.2886
files/tasks_parameters/ExAp01/sample28.txt 0.986608 7.0562 2.07657 0.266428 10.6367
files/tasks_parameters/ExAp01/sample18.txt 1.16887 7.60139 2.1377 0.268016 10.7001
files/tasks_parameters/ExAp01/sample35.txt 1.26597 9.66795 2.28028 0.32244 12.8729
files/tasks_parameters/ExAp01/sample47.txt 0.974337 6.84842 2.12104 0.251655 10.0469
files/tasks_parameters/ExAp01/sample49.txt 1.0092 7.1497 2.11412 0.255889 10.216
files/tasks_parameters/ExAp01/sample41.txt 1.06441 6.59911 2.07359 0.265885 10.6151
