files/tasks_parameters/ExAp01/sample8.txt 0.714982 3.15778 1.5595 0.203411 3.96065
files/tasks_parameters/ExAp01/sample12.txt 0.790889 3.94962 1.6705 0.207924 4.04852
files/tasks_parameters/ExAp01/sample2.txt 0.742401 3.78275 1.74131 0.200098 3.89613
files/tasks_parameters/ExAp01/sample44.txt 0.719096 3.59825 1.65317 0.200005 3.89433
files/tasks_parameters/ExAp01/sample27.txt 0.687862 3.45743 1.5148 0.182129 3.54625
files/tasks_parameters/ExAp01/sample17.txt 0.556826 2.77299 1.44514 0.14646 2.85174
files/tasks_parameters/ExAp01/sample9.txt 0.647288 2.99933 1.451 0.177444 3.45503
files/tasks_parameters/ExAp01/sample34.txt 0.592115 3.02928 1.58429 0.157984 3.07612
files/tasks_parameters/ExAp01/sample40.txt 0.642425 3.86889 1.52122 0.168379 3.27854
files/tasks_parameters/ExAp01/sample33.txt 0.735147 3.63695 1.71905 0.199765 3.88965
files/tasks_parameters/ExAp01/sample48.txt 0.591641 3.39061 1.49062 0.154728 3.01274
files/tasks_parameters/ExAp01/sample29.txt 0.789629 3.30472 1.38739 0.223868 4.35897
files/tasks_parameters/ExAp01/sample11.txt 0.650426 3.10585 1.41612 0.174079 3.38951
files/tasks_parameters/ExAp01/sample14.txt 0.599264 2.70971 1.43432 0.162214 3.1585
files/tasks_parameters/ExAp01/sample0.txt 0.719428 3.6937 1.5439 0.18367 3.57626
files/tasks_parameters/ExAp01/sample7.txt 0.573869 2.70501 1.42221 0.143463 2.7934
files/tasks_parameters/ExAp01/sample23.txt 0.677366 3.2697 1.57822 0.181448 3.53301
files/tasks_parameters/ExAp01/sample13.txt 0.727155 3.84225 1.67648 0.198247 3.8601
files/tasks_parameters/ExAp01/sample22.txt 0.584493 3.09569 1.56121 0.148796 2.89723
files/tasks_parameters/ExAp01/sample25.txt 0.534746 2.73966 1.5007 0.148149 2.88462
files/tasks_parameters/ExAp01/sample36.txt 0.502513 2.85948 1.28553 0.130042 2.53207
files/tasks_parameters/ExAp01/sample46.txt 0.742032 3.58643 1.69998 0.210103 4.09094
files/tasks_parameters/ExAp01/sample31.txt 0.67076 3.4832 1.53782 0.1722 3.35293
files/tasks_parameters/ExAp01/sample37.txt 0.671062 3.95293 1.50705 0.171701 3.34322
files/tasks_parameters/ExAp01/sample16.txt 0.606209 3.31216 1.30115 0.150249 2.92552
files/tasks_parameters/ExAp01/sample10.txt 0.617461 3.17098 1.61789 0.153776 2.9942
files/tasks_parameters/ExAp01/sample39.txt 0.635111 3.26617 1.44406 0.165669 3.22576
files/tasks_parameters/ExAp01/sample19.txt 0.74075 3.63532 1.52509 0.196094 3.81818
files/tasks_parameters/ExAp01/sample20.txt 0.56251 3.20793 1.25367 0.147335 2.86879
files/tasks_parameters/ExAp01/sample43.txt 0.582443 3.11551 1.4202 0.150644 2.93322
files/tasks_parameters/ExAp01/sample32.txt 0.680929 3.5311 1.42482 0.168744 3.28564
files/tasks_parameters/ExAp01/sample45.txt 0.764816 3.80283 1.48324 0.19807 3.85666
files/tasks_parameters/ExAp01/sample26.txt 0.608609 3.21645 1.29701 0.166061 3.2334
files/tasks_parameters/ExAp01/sample5.txt 0.658577 3.5889 1.52559 0.178903 3.48346
files/tasks_parameters/ExAp01/sample21.txt 0.706821 2.75242 1.55936 0.19512 3.79922
files/tasks_parameters/ExAp01/sample38.txt 0.653213 3.31563 1.37515 0.166157 3.23526
files/tasks_parameters/ExAp01/sample1.txt 0.722107 3.74964 1.51696 0.19701 3.836
files/tasks_parameters/ExAp01/sample15.txt 0.658139 3.32916 1.48508 0.180707 3.51858
files/tasks_parameters/ExAp01/sample24.txt 0.644884 3.45951 1.59549 0.16529 3.21839
files/tasks_parameters/ExAp01/sample3.txt 0.869402 3.70014 1.70809 0.237107 4.61675
files/tasks_parameters/ExAp01/sample6.txt 0.669109 3.33003 1.58323 0.184714 3.5966
files/tasks_parameters/ExAp01/sample30.txt 0.894412 4.1841 1.4861 0.239623 4.66574
files/tasks_parameters/ExAp01/sample42.txt 0.669414 3.43221 1.70276 0.177383 3.45385
files/tasks_parameters/ExAp01/sample4.txt 0.761658 3.72477 1.6136 0.196448 3.82507
files/tasks_parameters/ExAp01/sample28.txt 0.602448 3.11323 1.45032 0.158819 3.09239
files/tasks_parameters/ExAp01/sample18.txt 0.596104 3.47418 1.45209 0.149064 2.90244
files/tasks_parameters/ExAp01/sample35.txt 0.730425 4.57086 1.49394 0.185031 3.60276
files/tasks_parameters/ExAp01/sample47.txt 0.654382 3.13768 1.52397 0.16417 3.19658
files/tasks_parameters/ExAp01/sample49.txt 0.610777 3.13288 1.49657 0.156154 3.0405
files/tasks_parameters/ExAp01/sample41.txt 0.569229 2.81964 1.49636 0.150876 2.93773
