0 21
0 23
1 17
1 19
1 22
2 22
3 20
4 20
6 19
7 18
7 21
8 18
8 22
9 18
10 18
10 19
10 20
11 18
11 21
11 22
12 18
12 19
12 21
12 22
13 18
13 19
13 22
14 19
14 20
14 22
15 20
15 21
15 22
16 20
17 25
17 26
17 28
17 33
17 34
17 36
18 26
18 34
18 38
18 40
19 27
19 29
19 30
20 24
20 25
20 27
20 28
20 31
20 32
20 37
20 39
21 26
21 27
21 32
21 36
21 37
21 39
22 26
22 27
22 29
22 31
22 32
22 36
22 37
22 39
23 25
23 30
23 35
23 36
23 37
23 38
24 43
24 47
24 48
24 51
24 52
25 42
25 46
25 47
26 41
26 42
26 44
26 47
26 53
27 41
27 42
27 44
27 47
27 51
27 53
28 42
28 47
28 52
29 44
29 47
29 52
30 47
30 50
30 51
30 52
30 54
31 42
31 43
31 49
31 52
32 46
32 47
32 52
33 47
33 48
33 49
33 52
34 43
34 44
34 45
35 48
35 50
36 44
36 48
36 50
36 51
38 41
38 42
38 48
39 42
40 41
40 42
40 52
41 56
41 61
41 63
41 69
42 58
42 59
42 61
42 64
42 66
42 69
43 55
43 56
43 59
43 64
43 65
43 66
43 68
44 55
44 56
44 57
44 65
45 55
45 57
45 66
46 60
46 62
46 64
46 65
47 59
48 57
48 61
48 62
48 69
49 61
49 64
49 65
49 66
49 69
50 56
50 65
50 66
50 68
51 62
51 65
51 68
52 56
52 57
52 61
52 62
52 68
53 56
53 57
53 65
53 66
53 67
53 68
53 69
54 57
54 66
55 72
55 73
55 75
56 78
57 71
57 74
57 76
58 70
58 71
58 72
58 74
58 75
58 77
58 79
59 74
59 75
59 77
60 74
60 75
60 77
61 74
61 75
61 77
62 77
63 72
64 71
64 75
64 78
64 79
65 72
65 74
65 78
65 79
66 74
66 79
67 71
67 75
67 76
68 78
69 72
69 78
70 81
70 86
70 88
70 89
70 91
71 85
71 90
72 80
72 84
72 90
73 80
73 83
73 84
73 88
73 90
74 80
74 82
74 84
74 86
74 91
75 80
75 82
75 83
76 82
76 87
76 88
76 90
77 82
77 88
77 89
77 90
77 91
78 83
78 85
78 87
79 86
79 91
80 92
80 94
80 97
80 104
81 92
81 93
81 96
81 101
81 104
82 92
82 95
82 96
82 97
82 100
82 101
82 102
83 93
83 94
83 96
83 97
83 100
83 102
83 104
84 95
84 97
84 100
84 102
85 96
85 97
85 100
85 102
85 104
86 94
86 95
86 99
86 101
86 102
87 95
87 102
88 93
88 95
88 96
88 100
88 101
89 93
89 94
89 98
89 103
90 93
90 97
90 99
90 104
91 95
91 104
92 105
92 108
92 110
92 111
92 117
92 118
93 110
93 113
93 115
93 116
93 117
93 118
94 111
94 112
94 113
94 115
94 117
94 118
95 113
95 115
96 108
96 116
96 117
96 118
97 116
97 118
98 106
98 107
98 111
98 116
98 117
99 106
99 109
99 114
100 109
100 115
100 116
100 117
101 115
101 115
101 116
101 117
102 114
102 116
103 108
103 110
103 118
104 109
104 110
104 112
104 113
105 123
105 127
105 128
105 129
106 119
106 124
106 127
107 123
107 124
107 126
108 128
108 129
109 121
109 125
109 129
110 119
110 120
110 123
110 127
111 121
111 123
111 124
111 126
111 127
112 119
112 123
112 124
112 126
112 129
113 119
113 122
113 123
113 125
113 128
113 129
114 119
114 120
114 122
114 128
115 119
115 121
115 125
115 128
115 129
116 125
116 129
117 123
117 125
118 119
118 120
118 124
118 127
118 128
119 130
119 131
119 137
120 131
120 132
121 130
121 131
121 132
121 133
121 136
122 131
122 131
122 132
122 134
122 136
123 132
123 135
124 130
124 135
124 136
125 133
125 135
126 132
126 134
126 135
127 130
127 134
127 135
128 133
128 136
129 133
129 135
129 137
130 138
130 140
130 141
130 147
130 148
131 139
131 143
131 145
131 146
131 147
131 148
131 149
132 142
132 144
132 147
133 140
133 148
134 140
134 141
134 142
134 146
134 147
135 140
135 142
135 145
135 146
136 141
137 141
137 148
