files/tasks_parameters/ExAp01/sample8.txt 0.920983 3.15778 1.5595 0.203411 7.85893
files/tasks_parameters/ExAp01/sample12.txt 0.863236 3.94962 1.6705 0.207924 8.03328
files/tasks_parameters/ExAp01/sample2.txt 0.917814 3.78275 1.74131 0.200098 7.73091
files/tasks_parameters/ExAp01/sample44.txt 0.823882 3.59825 1.65317 0.200005 7.72734
files/tasks_parameters/ExAp01/sample27.txt 0.869138 3.45743 1.5148 0.182129 7.03666
files/tasks_parameters/ExAp01/sample17.txt 0.746538 2.77299 1.44514 0.14646 5.65858
files/tasks_parameters/ExAp01/sample9.txt 0.724989 2.99933 1.451 0.177444 6.85565
files/tasks_parameters/ExAp01/sample34.txt 0.737727 3.02928 1.58429 0.157984 6.10381
files/tasks_parameters/ExAp01/sample40.txt 0.706186 3.86889 1.52122 0.168379 6.50545
files/tasks_parameters/ExAp01/sample33.txt 0.947615 3.63695 1.71905 0.199765 7.71806
files/tasks_parameters/ExAp01/sample48.txt 0.719105 3.39061 1.49062 0.154728 5.97803
files/tasks_parameters/ExAp01/sample29.txt 0.866012 3.30472 1.38739 0.223868 8.64931
files/tasks_parameters/ExAp01/sample11.txt 0.802094 3.10585 1.41612 0.174079 6.72565
files/tasks_parameters/ExAp01/sample14.txt 0.624386 2.70971 1.43432 0.162214 6.26727
files/tasks_parameters/ExAp01/sample0.txt 0.791163 3.6937 1.5439 0.18367 7.09621
files/tasks_parameters/ExAp01/sample7.txt 0.684882 2.70501 1.42221 0.143463 5.54281
files/tasks_parameters/ExAp01/sample23.txt 0.738376 3.2697 1.57822 0.181448 7.01039
files/tasks_parameters/ExAp01/sample13.txt 0.902543 3.84225 1.67648 0.198247 7.65941
files/tasks_parameters/ExAp01/sample22.txt 0.640793 3.09569 1.56121 0.148796 5.74884
files/tasks_parameters/ExAp01/sample25.txt 0.632087 2.73966 1.5007 0.148149 5.72383
files/tasks_parameters/ExAp01/sample36.txt 0.547019 2.85948 1.28553 0.130042 5.02427
files/tasks_parameters/ExAp01/sample46.txt 0.905865 3.58643 1.69998 0.210103 8.11747
files/tasks_parameters/ExAp01/sample31.txt 0.73574 3.4832 1.53782 0.1722 6.65306
files/tasks_parameters/ExAp01/sample37.txt 0.782946 3.95293 1.50705 0.171701 6.63379
files/tasks_parameters/ExAp01/sample16.txt 0.726537 3.31216 1.30115 0.150249 5.80497
files/tasks_parameters/ExAp01/sample10.txt 0.734771 3.17098 1.61789 0.153776 5.94126
files/tasks_parameters/ExAp01/sample39.txt 0.752827 3.26617 1.44406 0.165669 6.40073
files/tasks_parameters/ExAp01/sample19.txt 0.901874 3.63532 1.52509 0.196094 7.57625
files/tasks_parameters/ExAp01/sample20.txt 0.675518 3.20793 1.25367 0.147335 5.69241
files/tasks_parameters/ExAp01/sample43.txt 0.56039 3.11551 1.4202 0.150644 5.82025
files/tasks_parameters/ExAp01/sample32.txt 0.692549 3.5311 1.42482 0.168744 6.51955
files/tasks_parameters/ExAp01/sample45.txt 0.925789 3.80283 1.48324 0.19807 7.65259
files/tasks_parameters/ExAp01/sample26.txt 0.751988 3.21645 1.29701 0.166061 6.41589
files/tasks_parameters/ExAp01/sample5.txt 0.850701 3.5889 1.52559 0.178903 6.91206
files/tasks_parameters/ExAp01/sample21.txt 0.869832 2.75242 1.55936 0.19512 7.53861
files/tasks_parameters/ExAp01/sample38.txt 0.698709 3.31563 1.37515 0.166157 6.41958
files/tasks_parameters/ExAp01/sample1.txt 0.922943 3.74964 1.51696 0.19701 7.6116
files/tasks_parameters/ExAp01/sample15.txt 0.815411 3.32916 1.48508 0.180707 6.98176
files/tasks_parameters/ExAp01/sample24.txt 0.723116 3.45951 1.59549 0.16529 6.38611
files/tasks_parameters/ExAp01/sample3.txt 1.05717 3.70014 1.70809 0.237107 9.1608
files/tasks_parameters/ExAp01/sample6.txt 0.864879 3.33003 1.58323 0.184714 7.13657
files/tasks_parameters/ExAp01/sample30.txt 0.962889 4.1841 1.4861 0.239623 9.258
files/tasks_parameters/ExAp01/sample42.txt 0.824771 3.43221 1.70276 0.177383 6.85331
files/tasks_parameters/ExAp01/sample4.txt 0.876307 3.72477 1.6136 0.196448 7.58991
files/tasks_parameters/ExAp01/sample28.txt 0.750563 3.11323 1.45032 0.158819 6.13608
files/tasks_parameters/ExAp01/sample18.txt 0.716963 3.47418 1.45209 0.149064 5.75918
files/tasks_parameters/ExAp01/sample35.txt 0.764677 4.57086 1.49394 0.185031 7.14879
files/tasks_parameters/ExAp01/sample47.txt 0.734662 3.13768 1.52397 0.16417 6.34283
files/tasks_parameters/ExAp01/sample49.txt 0.699219 3.13288 1.49657 0.156154 6.03312
files/tasks_parameters/ExAp01/sample41.txt 0.635214 2.81964 1.49636 0.150876 5.8292
