Task0 3 1 3 
Task1 1 1 1 
Task2 1 1 1 
Task3 1 1 1 
Task4 1 1 1 
Task5 1 1 1 
Task6 1 1 1 
Task7 1 1 3 
Task8 1 1 1 
Task9 1 1 1 
Task10 1 1 1 
Task11 1 1 1 
Task12 1 1 1 
Task13 1 1 1 
Task14 7 15 1 
Task15 3 1 1 
Task16 1 1 1 
Task17 1 1 1 
Task18 3 1 3 
Task19 1 1 1 
Task20 1 1 3 
Task21 3 1 3 
Task22 1 1 1 
Task23 1 7 7 
Task24 1 1 1 
Task25 1 1 1 
Task26 1 1 1 
Task27 1 1 3 
Task28 1 1 1 
Task29 31 3 63 
Task30 1 1 1 
Task31 3 1 1 
Task32 3 1 1 
Task33 1 1 1 
Task34 1 3 7 
Task35 1 1 1 
Task36 1 1 1 
Task37 1 3 1 
Task38 7 15 7 
Task39 1 1 1 
Task40 1 1 3 
Task41 1 1 7 
Task42 1 1 3 
Task43 1 1 1 
Task44 1 1 1 
Task45 1 1 1 
Task46 1 1 1 
Task47 1 3 3 
Task48 3 7 3 
Task49 3 7 7 
Task50 3 1 1 
Task51 1 1 1 
Task52 1 1 1 
Task53 1 3 1 
Task54 1 1 1 
Task55 3 1 3 
Task56 1 3 1 
Task57 1 1 3 
Task58 1 1 1 
Task59 1 1 1 
Task60 3 1 3 
Task61 1 1 1 
Task62 1 1 3 
Task63 3 1 1 
Task64 1 1 1 
Task65 1 1 1 
Task66 1 3 1 
Task67 1 1 1 
Task68 1 1 3 
Task69 1 1 1 
Task70 1 1 1 
Task71 1 1 1 
Task72 1 3 1 
Task73 1 3 1 
Task74 1 1 1 
Task75 1 1 1 
Task76 1 1 3 
Task77 1 1 3 
Task78 1 1 1 
Task79 1 1 1 
Task80 1 7 1 
Task81 3 3 1 
Task82 1 1 1 
Task83 1 1 1 
Task84 1 1 1 
Task85 3 3 3 
Task86 3 3 1 
Task87 1 1 1 
Task88 1 1 1 
Task89 1 1 1 
Task90 1 3 1 
Task91 1 1 1 
Task92 3 7 1 
Task93 7 1 1 
Task94 1 1 3 
Task95 1 1 1 
Task96 1 1 1 
Task97 1 1 1 
Task98 1 1 1 
Task99 1 1 1 
