0.39207549999999997
Task0 3 7 31 
Task1 63 31 127 
Task2 127 7 255 
Task3 15 15 63 
Task4 31 63 15 
Task5 31 3 63 
Task6 63 7 15 
Task7 63 7 31 
Task8 15 31 63 
Task9 63 15 15 
Task10 7 63 1 
Task11 1 63 7 
Task12 31 15 3 
Task13 7 31 3 
Task14 31 31 31 
Task15 31 15 63 
Task16 63 31 3 
Task17 7 255 63 
Task18 15 63 7 
Task19 31 127 15 
Task20 63 15 7 
Task21 1 3 63 
Task22 31 63 1 
Task23 7 3 63 
Task24 63 1 7 
Task25 63 31 31 
Task26 63 31 7 
Task27 63 15 127 
Task28 255 31 63 
Task29 15 7 63 
Task30 15 63 7 
Task31 63 31 31 
Task32 15 31 63 
Task33 31 3 63 
Task34 31 31 1 
Task35 15 31 63 
Task36 7 63 1 
Task37 31 15 63 
Task38 63 15 31 
Task39 15 31 63 
Task40 31 63 15 
Task41 31 63 63 
Task42 15 7 31 
Task43 63 7 31 
Task44 1 63 3 
Task45 7 63 7 
Task46 63 63 3 
Task47 15 7 63 
Task48 63 7 63 
Task49 3 63 15 
Task50 31 15 31 
Task51 7 63 63 
Task52 31 31 31 
Task53 255 3 15 
Task54 63 3 31 
Task55 7 63 1 
Task56 15 63 7 
Task57 3 63 1 
Task58 1 31 7 
Task59 1 63 3 
Task60 63 7 1 
Task61 63 63 63 
Task62 7 31 15 
Task63 63 15 63 
Task64 7 7 63 
Task65 63 15 63 
Task66 31 63 15 
Task67 63 63 3 
Task68 31 7 31 
Task69 31 63 63 
Task70 63 31 3 
Task71 63 15 3 
Task72 63 31 7 
Task73 7 63 15 
Task74 31 63 1 
Task75 63 7 255 
Task76 255 15 255 
Task77 63 255 255 
Task78 1 63 3 
Task79 1 63 1 
Task80 7 3 31 
Task81 63 255 3 
Task82 63 3 15 
Task83 15 63 255 
Task84 63 1 1 
Task85 31 31 31 
Task86 3 63 15 
Task87 63 3 3 
Task88 15 1 63 
Task89 3 7 63 
Task90 127 3 63 
Task91 255 255 255 
Task92 31 7 63 
Task93 63 63 7 
Task94 63 3 3 
Task95 63 3 63 
Task96 15 63 7 
Task97 15 7 63 
Task98 63 63 63 
Task99 63 1 3 
