0.32122648
Task0 1 3 31 
Task1 7 3 15 
Task2 31 7 7 
Task3 3 15 31 
Task4 3 31 7 
Task5 31 1 63 
Task6 7 31 15 
Task7 7 3 15 
Task8 7 1 15 
Task9 1 255 127 
Task10 31 1 7 
Task11 15 7 15 
Task12 1 31 3 
Task13 31 7 1 
Task14 7 1 31 
Task15 7 63 7 
Task16 255 255 255 
Task17 3 7 31 
Task18 15 15 7 
Task19 63 3 31 
Task20 3 3 31 
Task21 31 7 15 
Task22 7 15 1 
Task23 3 31 7 
Task24 15 7 31 
Task25 63 7 15 
Task26 3 1 31 
Task27 1 15 15 
Task28 7 15 15 
Task29 3 7 31 
Task30 1 3 15 
Task31 7 31 7 
Task32 31 7 15 
Task33 7 7 15 
Task34 15 15 1 
Task35 63 7 31 
Task36 63 63 255 
Task37 15 15 31 
Task38 15 31 15 
Task39 3 31 3 
Task40 3 7 15 
Task41 15 63 15 
Task42 3 15 7 
Task43 1 15 31 
Task44 1 7 63 
Task45 15 15 31 
Task46 3 15 7 
Task47 7 1 15 
Task48 15 7 31 
Task49 1 1 15 
Task50 3 7 31 
Task51 31 15 15 
Task52 15 3 63 
Task53 31 1 15 
Task54 1 15 7 
Task55 255 255 63 
Task56 1 31 15 
Task57 1 15 1 
Task58 31 31 31 
Task59 1 15 15 
Task60 7 7 15 
Task61 3 15 3 
Task62 15 15 3 
Task63 15 1 1 
Task64 15 63 3 
Task65 31 7 7 
Task66 7 31 3 
Task67 7 31 3 
Task68 31 1 15 
Task69 31 63 63 
Task70 15 3 31 
Task71 3 7 31 
Task72 1 31 1 
Task73 15 63 255 
Task74 15 1 31 
Task75 7 1 31 
Task76 15 7 1 
Task77 3 3 63 
Task78 63 31 15 
Task79 3 1 15 
Task80 7 31 3 
Task81 31 7 15 
Task82 15 3 31 
Task83 7 63 15 
Task84 3 15 15 
Task85 15 127 63 
Task86 15 7 63 
Task87 3 1 15 
Task88 63 7 3 
Task89 15 31 15 
Task90 15 15 15 
Task91 255 255 255 
Task92 31 3 31 
Task93 3 31 31 
Task94 31 3 3 
Task95 63 31 15 
Task96 31 31 15 
Task97 15 1 31 
Task98 15 31 15 
Task99 7 255 127 
