0.41890582
Task0 63 7 63 
Task1 15 255 1 
Task2 255 255 63 
Task3 7 31 63 
Task4 63 63 1 
Task5 255 63 31 
Task6 15 63 15 
Task7 127 31 63 
Task8 31 15 15 
Task9 63 255 15 
Task10 31 15 63 
Task11 15 63 15 
Task12 3 7 63 
Task13 63 63 63 
Task14 127 31 127 
Task15 127 3 63 
Task16 3 31 127 
Task17 31 255 31 
Task18 255 63 15 
Task19 3 63 15 
Task20 63 63 3 
Task21 255 15 31 
Task22 255 127 15 
Task23 63 255 63 
Task24 63 7 7 
Task25 3 63 1 
Task26 1 15 63 
Task27 63 31 255 
Task28 255 255 63 
Task29 1 1 63 
Task30 7 3 63 
Task31 31 63 255 
Task32 31 63 15 
Task33 31 31 255 
Task34 63 7 63 
Task35 15 7 31 
Task36 63 15 31 
Task37 31 3 63 
Task38 63 255 31 
Task39 1 63 63 
Task40 15 1 63 
Task41 7 1 63 
Task42 63 63 63 
Task43 31 255 127 
Task44 63 3 31 
Task45 63 63 1 
Task46 63 7 31 
Task47 3 1 63 
Task48 255 127 31 
Task49 63 1 7 
Task50 15 3 63 
Task51 1 63 1 
Task52 1 31 63 
Task53 127 63 15 
Task54 1 63 7 
Task55 255 127 15 
Task56 15 15 63 
Task57 7 255 63 
Task58 15 63 7 
Task59 15 63 1 
Task60 3 127 63 
Task61 255 31 63 
Task62 7 63 31 
Task63 7 63 63 
Task64 31 63 15 
Task65 127 63 255 
Task66 7 63 63 
Task67 63 1 3 
Task68 7 1 63 
Task69 63 7 15 
Task70 31 63 3 
Task71 63 255 31 
Task72 15 63 1 
Task73 255 255 255 
Task74 31 31 255 
Task75 15 15 63 
Task76 31 63 7 
Task77 7 63 15 
Task78 3 63 1 
Task79 63 1 31 
Task80 63 15 1 
Task81 63 7 1 
Task82 3 63 7 
Task83 63 1 1 
Task84 31 63 15 
Task85 63 3 127 
Task86 127 63 7 
Task87 1 255 255 
Task88 15 63 1 
Task89 7 1 63 
Task90 63 15 15 
Task91 31 15 63 
Task92 7 255 15 
Task93 255 255 127 
Task94 63 15 255 
Task95 15 63 127 
Task96 7 7 63 
Task97 63 3 63 
Task98 7 63 1 
Task99 7 63 3 
