0.476535
Task0 31 63 63 
Task1 31 255 1 
Task2 63 1 1 
Task3 31 127 63 
Task4 255 63 63 
Task5 31 63 7 
Task6 127 127 255 
Task7 63 1 255 
Task8 31 3 63 
Task9 31 15 255 
Task10 63 127 15 
Task11 63 127 127 
Task12 63 15 63 
Task13 31 63 63 
Task14 255 1 31 
Task15 255 255 15 
Task16 31 127 7 
Task17 63 7 15 
Task18 63 63 15 
Task19 31 15 63 
Task20 127 15 255 
Task21 255 1 15 
Task22 7 15 63 
Task23 7 63 1 
Task24 127 127 255 
Task25 31 63 15 
Task26 7 255 7 
Task27 31 255 63 
Task28 31 7 255 
Task29 7 1 63 
Task30 7 127 255 
Task31 255 63 255 
Task32 7 63 1 
Task33 255 255 127 
Task34 31 127 127 
Task35 255 63 7 
Task36 255 127 1 
Task37 63 127 127 
Task38 7 127 255 
Task39 255 15 1 
Task40 127 31 7 
Task41 1 3 255 
Task42 7 255 7 
Task43 15 255 3 
Task44 63 255 31 
Task45 7 127 255 
Task46 31 31 255 
Task47 3 63 3 
Task48 127 255 15 
Task49 63 127 63 
Task50 63 15 63 
Task51 255 15 63 
Task52 31 15 63 
Task53 127 127 63 
Task54 127 63 255 
Task55 15 255 255 
Task56 63 63 255 
Task57 63 127 255 
Task58 63 63 1 
Task59 3 1 63 
Task60 31 63 127 
Task61 63 7 15 
Task62 15 31 63 
Task63 3 127 31 
Task64 15 127 127 
Task65 127 63 63 
Task66 63 15 31 
Task67 31 63 127 
Task68 63 31 63 
Task69 31 1 127 
Task70 7 3 255 
Task71 127 127 127 
Task72 255 63 127 
Task73 15 15 127 
Task74 15 7 127 
Task75 255 63 255 
Task76 63 127 127 
Task77 127 15 1 
Task78 15 255 31 
Task79 63 7 63 
Task80 63 63 15 
Task81 127 127 31 
Task82 63 15 15 
Task83 127 63 127 
Task84 255 15 15 
Task85 63 31 15 
Task86 31 3 127 
Task87 63 31 3 
Task88 15 127 63 
Task89 15 7 255 
Task90 63 15 63 
Task91 7 63 7 
Task92 255 255 63 
Task93 63 7 63 
Task94 127 63 31 
Task95 63 63 63 
Task96 63 7 3 
Task97 31 127 255 
Task98 7 3 63 
Task99 63 3 63 
