0.31870177000000005
Task0 3 31 3 
Task1 63 63 31 
Task2 7 255 63 
Task3 255 1 63 
Task4 31 63 15 
Task5 31 3 15 
Task6 15 63 3 
Task7 15 31 63 
Task8 31 15 63 
Task9 15 15 63 
Task10 63 15 7 
Task11 63 15 3 
Task12 63 15 7 
Task13 31 31 63 
Task14 255 15 63 
Task15 63 63 15 
Task16 63 1 3 
Task17 1 63 3 
Task18 31 63 7 
Task19 3 31 7 
Task20 31 31 31 
Task21 1 63 7 
Task22 31 3 31 
Task23 7 63 63 
Task24 31 63 31 
Task25 63 31 15 
Task26 127 127 7 
Task27 7 31 3 
Task28 31 63 63 
Task29 31 63 15 
Task30 7 31 63 
Task31 31 63 3 
Task32 31 31 7 
Task33 63 7 31 
Task34 255 255 63 
Task35 63 15 15 
Task36 63 63 7 
Task37 3 7 31 
Task38 63 127 63 
Task39 7 63 63 
Task40 15 31 7 
Task41 63 3 3 
Task42 15 63 31 
Task43 63 127 63 
Task44 31 63 1 
Task45 31 15 3 
Task46 7 63 63 
Task47 31 31 31 
Task48 1 3 63 
Task49 31 31 31 
Task50 255 15 63 
Task51 7 31 63 
Task52 7 63 127 
Task53 7 15 63 
Task54 31 31 3 
Task55 255 255 255 
Task56 63 15 3 
Task57 63 31 63 
Task58 7 63 7 
Task59 31 15 3 
Task60 31 31 63 
Task61 15 31 31 
Task62 1 63 3 
Task63 127 255 15 
Task64 31 1 3 
Task65 1 63 15 
Task66 7 15 63 
Task67 7 31 31 
Task68 31 31 3 
Task69 63 31 7 
Task70 63 63 63 
Task71 63 63 31 
Task72 127 7 31 
Task73 63 31 31 
Task74 15 1 31 
Task75 127 127 63 
Task76 127 127 255 
Task77 255 31 63 
Task78 1 63 7 
Task79 31 63 127 
Task80 15 7 63 
Task81 15 7 31 
Task82 63 255 127 
Task83 63 7 31 
Task84 15 15 63 
Task85 31 1 15 
Task86 63 7 7 
Task87 15 255 63 
Task88 15 31 3 
Task89 1 31 7 
Task90 1 15 31 
Task91 1 15 63 
Task92 15 31 31 
Task93 31 15 63 
Task94 7 63 15 
Task95 63 31 7 
Task96 63 3 7 
Task97 7 7 63 
Task98 63 63 63 
Task99 63 63 31 
