0.40772807
Task0 63 1 63 
Task1 63 31 63 
Task2 31 31 63 
Task3 31 1 63 
Task4 7 63 15 
Task5 127 15 31 
Task6 63 31 31 
Task7 63 255 255 
Task8 1 63 7 
Task9 15 15 63 
Task10 1 15 63 
Task11 63 1 3 
Task12 3 7 31 
Task13 63 31 1 
Task14 15 31 7 
Task15 7 63 7 
Task16 31 63 63 
Task17 255 1 127 
Task18 63 1 3 
Task19 127 63 255 
Task20 15 63 3 
Task21 255 7 15 
Task22 15 255 15 
Task23 127 31 63 
Task24 3 63 3 
Task25 31 31 63 
Task26 63 15 3 
Task27 63 63 31 
Task28 63 7 63 
Task29 7 15 63 
Task30 63 15 7 
Task31 255 15 31 
Task32 63 3 7 
Task33 127 63 31 
Task34 255 127 255 
Task35 63 15 1 
Task36 63 31 63 
Task37 31 31 31 
Task38 63 7 31 
Task39 15 31 63 
Task40 7 63 31 
Task41 63 15 63 
Task42 63 63 255 
Task43 7 1 63 
Task44 15 1 63 
Task45 63 15 3 
Task46 31 1 15 
Task47 7 1 31 
Task48 31 63 31 
Task49 31 7 63 
Task50 3 63 15 
Task51 31 15 63 
Task52 31 127 63 
Task53 31 63 1 
Task54 63 15 15 
Task55 63 63 3 
Task56 63 127 15 
Task57 31 3 63 
Task58 127 31 15 
Task59 31 127 63 
Task60 7 3 63 
Task61 15 3 63 
Task62 63 3 3 
Task63 1 7 63 
Task64 63 31 31 
Task65 63 3 3 
Task66 63 63 3 
Task67 1 63 63 
Task68 31 127 127 
Task69 31 63 31 
Task70 3 15 63 
Task71 127 255 7 
Task72 1 63 63 
Task73 255 31 127 
Task74 7 15 63 
Task75 63 255 255 
Task76 31 15 3 
Task77 31 63 7 
Task78 127 31 15 
Task79 1 1 63 
Task80 31 255 127 
Task81 31 7 63 
Task82 31 15 31 
Task83 15 63 7 
Task84 3 7 63 
Task85 3 31 15 
Task86 63 63 63 
Task87 7 63 63 
Task88 7 3 63 
Task89 127 127 255 
Task90 15 7 31 
Task91 127 255 127 
Task92 63 1 3 
Task93 63 7 31 
Task94 63 1 7 
Task95 15 3 63 
Task96 1 63 15 
Task97 3 1 63 
Task98 31 31 3 
Task99 15 31 63 
