Task0 1 3 1 
Task1 1 1 1 
Task2 1 3 1 
Task3 1 1 3 
Task4 1 1 1 
Task5 1 1 1 
Task6 3 3 1 
Task7 1 1 1 
Task8 3 7 1 
Task9 1 1 1 
Task10 1 1 1 
Task11 15 1 7 
Task12 1 3 1 
Task13 1 1 1 
Task14 1 1 3 
Task15 1 1 1 
Task16 1 1 1 
Task17 1 1 1 
Task18 1 1 3 
Task19 3 1 1 
Task20 1 1 1 
Task21 1 3 1 
Task22 1 1 1 
Task23 1 3 1 
Task24 1 1 1 
Task25 3 1 3 
Task26 1 1 1 
Task27 1 1 1 
Task28 1 1 3 
Task29 1 1 3 
Task30 1 1 1 
Task31 1 1 1 
Task32 1 1 1 
Task33 1 1 1 
Task34 1 1 1 
Task35 3 3 7 
Task36 1 1 1 
Task37 1 3 1 
Task38 1 3 3 
Task39 1 1 1 
Task40 3 63 127 
Task41 1 1 1 
Task42 1 1 1 
Task43 1 1 1 
Task44 3 1 1 
Task45 3 1 1 
Task46 1 1 1 
Task47 1 1 1 
Task48 3 1 1 
Task49 1 1 1 
Task50 1 1 1 
Task51 1 1 1 
Task52 1 1 1 
Task53 3 7 3 
Task54 1 1 1 
Task55 1 1 1 
Task56 1 1 1 
Task57 3 1 1 
Task58 1 7 7 
Task59 1 1 1 
Task60 1 1 1 
Task61 1 1 1 
Task62 1 1 1 
Task63 3 1 3 
Task64 1 1 1 
Task65 3 3 1 
Task66 1 3 1 
Task67 1 3 1 
Task68 1 7 1 
Task69 1 1 3 
Task70 1 3 1 
Task71 1 1 1 
Task72 1 1 1 
Task73 3 1 1 
Task74 1 1 1 
Task75 1 1 3 
Task76 3 1 1 
Task77 1 1 1 
Task78 1 1 1 
Task79 1 1 1 
Task80 3 1 1 
Task81 1 1 3 
Task82 1 1 1 
Task83 1 1 1 
Task84 1 1 3 
Task85 1 1 1 
Task86 1 1 1 
Task87 3 3 1 
Task88 1 1 1 
Task89 1 1 1 
Task90 1 7 3 
Task91 1 1 1 
Task92 1 1 1 
Task93 1 3 1 
Task94 1 1 1 
Task95 1 1 1 
Task96 1 1 1 
Task97 1 1 1 
Task98 1 1 1 
Task99 1 1 1 
