0.35726788
Task0 3 15 31 
Task1 31 63 63 
Task2 63 7 7 
Task3 31 7 7 
Task4 31 15 7 
Task5 1 63 7 
Task6 31 7 15 
Task7 1 63 3 
Task8 63 63 127 
Task9 15 31 31 
Task10 31 15 1 
Task11 31 63 31 
Task12 31 15 1 
Task13 31 7 1 
Task14 63 7 31 
Task15 7 7 63 
Task16 15 31 31 
Task17 15 255 63 
Task18 15 7 31 
Task19 255 63 127 
Task20 63 3 3 
Task21 31 15 63 
Task22 3 1 63 
Task23 15 31 7 
Task24 127 63 15 
Task25 63 31 7 
Task26 15 63 15 
Task27 31 63 31 
Task28 1 7 63 
Task29 15 31 7 
Task30 3 7 31 
Task31 63 1 7 
Task32 255 31 127 
Task33 15 7 63 
Task34 7 31 15 
Task35 31 31 31 
Task36 63 15 15 
Task37 31 63 7 
Task38 1 31 15 
Task39 15 31 63 
Task40 31 15 63 
Task41 31 63 15 
Task42 15 63 31 
Task43 63 15 7 
Task44 15 63 15 
Task45 31 15 1 
Task46 63 63 63 
Task47 1 3 31 
Task48 15 31 7 
Task49 31 63 15 
Task50 127 255 31 
Task51 7 15 31 
Task52 7 1 31 
Task53 3 31 7 
Task54 127 255 255 
Task55 31 15 1 
Task56 31 1 1 
Task57 7 7 31 
Task58 15 1 31 
Task59 31 31 1 
Task60 3 1 31 
Task61 63 31 3 
Task62 31 31 31 
Task63 15 255 63 
Task64 1 31 31 
Task65 63 7 15 
Task66 15 7 31 
Task67 31 3 1 
Task68 63 255 63 
Task69 3 31 7 
Task70 63 3 15 
Task71 1 63 15 
Task72 1 63 15 
Task73 7 1 31 
Task74 1 7 31 
Task75 31 7 1 
Task76 255 7 15 
Task77 63 63 31 
Task78 255 31 7 
Task79 63 15 3 
Task80 7 31 15 
Task81 63 63 1 
Task82 7 7 31 
Task83 63 1 63 
Task84 31 63 31 
Task85 1 255 15 
Task86 63 7 31 
Task87 63 15 7 
Task88 31 3 31 
Task89 31 15 31 
Task90 31 63 127 
Task91 63 31 31 
Task92 31 63 3 
Task93 127 255 255 
Task94 1 31 3 
Task95 63 255 15 
Task96 31 31 7 
Task97 255 63 63 
Task98 15 31 7 
Task99 31 7 1 
