0.37247738
Task0 3 63 15 
Task1 127 63 127 
Task2 15 31 63 
Task3 31 63 255 
Task4 63 255 127 
Task5 15 15 31 
Task6 63 7 15 
Task7 63 1 15 
Task8 7 3 31 
Task9 31 15 127 
Task10 63 31 15 
Task11 3 63 1 
Task12 63 15 7 
Task13 63 31 63 
Task14 255 127 31 
Task15 3 31 63 
Task16 7 7 63 
Task17 31 1 3 
Task18 31 1 31 
Task19 63 15 7 
Task20 15 63 31 
Task21 15 31 31 
Task22 63 15 127 
Task23 7 63 31 
Task24 31 31 15 
Task25 255 63 63 
Task26 31 1 3 
Task27 7 31 7 
Task28 15 127 31 
Task29 63 15 3 
Task30 127 31 255 
Task31 3 127 255 
Task32 63 63 1 
Task33 63 7 15 
Task34 15 15 31 
Task35 31 63 7 
Task36 31 7 31 
Task37 31 15 7 
Task38 7 31 7 
Task39 63 31 3 
Task40 63 7 31 
Task41 3 31 7 
Task42 63 15 255 
Task43 31 127 255 
Task44 31 1 15 
Task45 31 31 127 
Task46 63 3 7 
Task47 31 127 255 
Task48 255 127 63 
Task49 63 63 127 
Task50 31 31 31 
Task51 31 63 63 
Task52 3 63 31 
Task53 63 15 31 
Task54 15 63 3 
Task55 31 31 31 
Task56 1 7 31 
Task57 31 31 63 
Task58 31 63 3 
Task59 31 3 3 
Task60 3 31 7 
Task61 15 31 63 
Task62 3 31 15 
Task63 31 15 127 
Task64 7 7 63 
Task65 31 63 31 
Task66 15 3 31 
Task67 15 31 31 
Task68 15 63 3 
Task69 63 15 7 
Task70 15 31 255 
Task71 7 31 7 
Task72 15 63 15 
Task73 255 31 127 
Task74 3 31 15 
Task75 63 7 15 
Task76 3 63 1 
Task77 31 63 15 
Task78 15 1 63 
Task79 31 3 1 
Task80 31 63 7 
Task81 63 1 7 
Task82 7 3 31 
Task83 15 255 15 
Task84 7 63 15 
Task85 3 63 3 
Task86 3 63 7 
Task87 7 1 63 
Task88 7 31 63 
Task89 63 7 1 
Task90 7 7 63 
Task91 31 1 31 
Task92 63 7 31 
Task93 31 3 1 
Task94 31 15 15 
Task95 63 63 63 
Task96 63 63 15 
Task97 63 255 15 
Task98 63 15 31 
Task99 63 63 31 
