Task0 0.0004504716632448077 0.007868886362510215 0.007140212925397649 0.010507979831805087 0.3446110175176036 0.8909824885078714 0.617594156155489 
Task1 0.0497700616081329 0.060409566413520514 0.42229698859600306 0.1741972026742451 0.3849656191437777 0.5121908921938824 0.8794709583014118 
Task2 0.021421346266432287 0.041212410937282416 0.03777562035898464 0.0477248262442907 0.38047853773831686 0.7508954841194191 0.40627282429664857 
Task3 0.11032738043607307 0.05610382074973588 0.27449987933560893 0.25231945724620525 0.6690242148960173 0.5671400178088106 0.3022175616088212 
Task4 0.001310412966613108 0.01837515903512845 0.019022956703550982 0.019851025783959544 0.8954597580909633 0.6940111601880864 0.5667992769116075 
Task5 0.028697333642641473 0.09254132712869609 0.152232581406881 0.1608234904036231 0.7399165345162324 0.6013566361745788 0.39524342558120656 
Task6 0.027166525390594564 0.1488282713454286 0.36850217499379634 0.35655563298958187 0.6769866930553405 0.44900643298376797 0.6219495715325534 
Task7 0.09072656012937215 0.05644405495304927 0.09056536052604898 0.45876476412288836 0.7828765242542616 0.875737046640128 0.6303128701905867 
Task8 0.0022064879832072734 0.018051476237370957 0.019123168448943396 0.04110863463676426 0.8972445199332633 0.43951803881936974 0.4920749006221591 
Task9 0.12204549449020392 0.1302075929018427 0.25145898115772436 0.33670863218681857 0.704762671447015 0.3054389897873625 0.31867862492614857 
Task10 0.010877081532808839 0.02463099467207555 0.13768478438759557 0.036853348191622774 0.44256042216227287 0.8947112232722485 0.9609544361713849 
Task11 0.08158710288270665 0.24000004095793626 0.3061908323388691 0.09773139808739972 0.9865722786556022 0.9000605247714759 0.7728909429353665 
Task12 0.05321736721584209 0.10736966423813978 0.43722082392917266 0.1809626270069346 0.6776424163528842 0.38836443236805945 0.693207862173119 
Task13 0.010787873158478565 0.04010488967522565 0.003293730402150727 0.024315269066064803 0.5124597112255888 0.7789218730529385 0.46430645223901923 
Task14 0.011467489852513951 0.011479099825114745 0.016760351558376595 0.030313112159063606 0.8932331900458419 0.8194127586068005 0.9849186329719224 
Task15 0.006115716266966988 0.026425088794695732 0.6282553837423982 0.16032211867284088 0.42175385187840614 0.6958613369413326 0.5830950230470601 
Task16 0.008519048499886937 0.024207069462910857 0.05342021566341011 0.026171598436036263 0.8718919255893038 0.7691877253094361 0.7956481685368766 
Task17 0.008864095274613086 0.16274926233735834 0.17355196762972627 0.05407634380440397 0.693075023445634 0.8798006637461839 0.9421679021071878 
Task18 0.05923869103935818 0.16649922017344415 0.14280342395575596 0.09085395962658281 0.36046185284706056 0.4567436020954076 0.4322940607761146 
Task19 0.1104022609529454 0.33034407799117327 0.226812058154806 0.09594686367262774 0.5382953649317904 0.4648607940447573 0.8165008180602402 
Task20 0.12600998634040717 0.2546332853922976 0.07562702715255837 0.19968222380096892 0.828727967097252 0.7997406134985448 0.93116140185143 
Task21 0.008740404483168625 0.06248076459249611 0.3856883196595194 0.49892094217857313 0.9141036716102089 0.7607371532035119 0.9409525247677111 
Task22 0.06691412516067523 0.008244547363686168 0.20603748807826713 0.1908572312897947 0.9301483449493184 0.9682693128496243 0.6829754655196532 
Task23 0.14155081427574503 0.1569318503023117 0.3181037573112119 0.2221879172824378 0.7321657823270156 0.637977848164735 0.45724778286428813 
Task24 0.0795864988209864 0.13192329474568654 0.15220077202250248 0.07146836977359522 0.8207960489531552 0.46949707268261487 0.5824339028087253 
Task25 0.040691374872080376 0.03610513145600197 0.08069591580113235 0.06949359927380878 0.9818835275379036 0.9287197519106625 0.8157543994283285 
Task26 0.08205512012667726 0.3240351566554907 0.012102343663012044 0.26937060940189017 0.467810869805747 0.9025753044899598 0.983753375868873 
Task27 0.02140161706003621 0.0925732954694955 0.031402684458393164 0.04347622329640762 0.33080818686246055 0.7463221409487607 0.5979441519700135 
Task28 0.12569559292350818 0.1753783869423175 0.29491002550678064 0.23391436747529187 0.8533394534783667 0.7863019726481575 0.8661065885189785 
Task29 0.0814497506137123 0.23098302618255728 0.2232134145734869 0.08647298016512048 0.7655215932579784 0.35632361089456044 0.5607438357540062 
Task30 0.011551245918754269 0.03483843046515878 0.3238937067167182 0.1099468090070644 0.9406198429453989 0.6409534948231288 0.9063210252579195 
Task31 0.08298016452423738 0.10875484847711157 0.14215010711543843 0.12550513431612487 0.7231693809007561 0.5685878267677145 0.7994097398529665 
Task32 0.05526232291584786 0.09993494943683935 0.14849584728574325 0.07922784257388439 0.3551497480044606 0.3947163297454243 0.8150999814455744 
Task33 0.09882511100709868 0.03199962828809938 0.3274146644439027 0.33785615289085086 0.8234892100775413 0.8122157634876956 0.947555938553897 
Task34 0.027532445557250786 0.001561799745357155 0.07596894796543101 0.06462851399906985 0.35093586013801026 0.5575418251592787 0.6303435226966057 
Task35 0.06049529777503321 0.09249347380744598 0.08523433966074682 0.082459269944409 0.9978520782778468 0.7241830760569252 0.6997378571717645 
Task36 0.049519485532445104 0.21764827644037088 0.2894161643408583 0.11982326642584935 0.784051354480187 0.45089150403945133 0.8876275313599507 
Task37 0.02651917287413754 0.05662733858879279 0.06273030550393544 0.06863498789343553 0.9839828743804189 0.6013462513474527 0.5205229771681787 
Task38 0.00945316545715233 0.15981476023648672 0.2584676825424786 0.31507787432397416 0.8585809439004362 0.779649697007426 0.636993406778975 
Task39 0.009769082552522368 0.015041834035427542 0.005679421949454149 0.227957177433267 0.6647781186668354 0.35357168379066406 0.6424453939045208 
Task40 0.13784305825321444 0.3038695638786094 0.4454147987423176 0.007764062622080687 0.7181381216749576 0.7719918653141405 0.9282981690878667 
Task41 0.07635007509476902 0.343241785675747 0.21763834688440767 0.34853293569663196 0.7001575904933002 0.8925619047171369 0.4620012018490278 
Task42 0.013141193800790459 0.0007101330782094447 0.030512784922080465 0.05737527553425867 0.7760724506018755 0.616888193226645 0.37958818093225866 
Task43 0.08791784177537582 0.20254671409220792 0.10738657364063062 0.10502601482888828 0.9975320001708363 0.35389624498973526 0.7513348662990372 
Task44 0.0003836052213667864 0.0003728110727168399 0.0003838628053924619 0.0010100409450376766 0.771565620590888 0.6974659607856822 0.3512698263481754 
Task45 0.10368429782198489 0.18161726724109117 0.09864568100568234 0.1912743833102454 0.3891053507748746 0.45314444322535063 0.4510171535550539 
Task46 0.10861401099507706 0.1867708056542846 0.39892585776089956 0.15129724226846802 0.5435708127878736 0.8937334795820981 0.484783003687427 
Task47 0.0007449187351013651 0.0005368334919099789 0.008280619612351884 0.006963868672621474 0.6673184939785753 0.7939291339570196 0.653045435196571 
Task48 4.3509107360500596e-05 0.0252810489177281 0.23693369174699264 0.3410820439209365 0.536382607513481 0.5411525262007983 0.44927872494966203 
Task49 0.06259524624672157 0.25121804075452303 0.03571193813808361 0.22629559613993286 0.9280885117550381 0.7956253593189719 0.8252502445798862 
Task50 0.09627993556552562 0.04915176878469559 0.2165756824354802 0.28818823604020655 0.75934642727891 0.3056889067447393 0.8220444445690676 
Task51 0.024135540973232363 0.18507664361112253 0.26682281056716495 0.15939209540375993 0.5206715383766202 0.99070078345935 0.57827375708378 
Task52 0.010363026130489469 0.06369581286826126 0.20386290356988096 0.1070467328971758 0.5604594828932379 0.7523231088403874 0.961567531855001 
Task53 0.015905264733259837 0.08103330574743192 0.041972790069564864 0.10821825497233732 0.3498874929064607 0.509989664974476 0.348537069085408 
Task54 0.059078593085902506 0.05287883186807469 0.13178319229480778 0.21445739136361955 0.6990006898605348 0.6501202507334932 0.5542898707283984 
Task55 0.0369904330411411 0.5091309204815775 0.22491972347662162 0.13538239186508483 0.42990323771986216 0.5656713308470246 0.4171259192159961 
Task56 0.027016071000880874 0.2566549146787353 0.031031790611671377 0.15958661696721943 0.895647144556581 0.56109428252408 0.8279554803857505 
Task57 0.07866579491854557 0.06207116535032498 0.07534541479751718 0.20371912080990492 0.5649871450785878 0.5138588801589044 0.48168093757651487 
Task58 0.09940188686159701 0.08699963026206065 0.3666510424600439 0.24820989953343173 0.36452153788790786 0.529758719819891 0.8438402543793537 
Task59 0.06712734236400317 0.2382710493199715 0.19490322358820347 0.1711253455827247 0.3301583120834111 0.7323135477378633 0.5401647706142022 
Task60 0.0347881068713597 0.30394187218822877 0.05911852000895415 0.256107509724107 0.5924078367706951 0.8757656854458109 0.8627433305578271 
Task61 0.024816066123302817 0.09690251780107367 0.0012534002415247665 0.08993400632060088 0.30677905104560305 0.6177087785995857 0.8858903643919946 
Task62 0.004068116792835352 0.041250009172018515 0.0670218845570482 0.0032402020155123867 0.9439836528791603 0.6286732594325699 0.5902966443051931 
Task63 0.019306770091924077 0.2882584026051005 0.30021822273221405 0.37310889627410204 0.49577302904704956 0.40430632382617415 0.8777337890486887 
Task64 0.03137460828607152 0.14828152517415605 0.18204873993546225 0.04206767805092227 0.5278308824358688 0.39330582613523013 0.4454520588601567 
Task65 0.08577824955047168 0.18859554332419343 0.12279772308971637 0.04631995026716828 0.37793400977647207 0.5045427659556412 0.8397108805504783 
Task66 0.008438417144468488 0.03264727650548844 0.0523598016356578 0.008044235367245878 0.37698190764207534 0.3858044663334192 0.49747641668931586 
Task67 0.028372795523938156 0.29791590589084116 0.3185640605912109 0.1610010778255838 0.5541397221970223 0.8468026120333845 0.712255737845249 
Task68 0.0019408765001487993 0.11873820215419355 0.1527078309375725 0.016863413907837587 0.3946100268915303 0.35164741669669325 0.31901888844581056 
Task69 0.005468385796720576 0.1977110596345798 0.24142694913712848 0.09227391362535832 0.3947058297682639 0.669276968915989 0.9479367427403225 
Task70 0.04830673754851267 0.09448270845972459 0.06586622275989454 0.07418617157184523 0.6822628779254856 0.7879897053146152 0.8934495012908952 
Task71 0.047624846491915895 0.024097283585572598 0.13983732935901647 0.2099452864984229 0.5641433250745307 0.46212267737492696 0.9411301841912707 
Task72 0.10085828089707904 0.18386991830219984 0.39303732592632773 0.09483138265381416 0.923222789235689 0.350844280126277 0.936034181512299 
Task73 0.11623809991654953 0.32185435624238107 0.13763659025767938 0.21642956038553984 0.5763594111502511 0.8125549434821828 0.7240390160718821 
Task74 0.004542292499924509 0.04646192777219158 0.05937329884849639 0.010493210369902991 0.6008367134815864 0.5170731044719803 0.3535930967388654 
Task75 0.02894066331476612 0.05763118677466597 0.06613092846456617 0.2991122798991524 0.801848234677049 0.6382594598501281 0.8708934915836819 
Task76 0.13052827602823783 0.03927977046754253 0.012772891260046645 0.5513375741972592 0.967549648649551 0.7470706830239094 0.672990474277762 
Task77 0.01432420358590429 0.014597861677664001 0.00011533395482703649 0.05597512340784704 0.9173295963075365 0.7797246977336281 0.8646563960392424 
Task78 0.053690343273130964 0.044561406416191995 0.20835717470559237 0.1336814851148626 0.6555983401268706 0.8404270739792206 0.9604177874637405 
Task79 0.04598475506147694 0.14238814145421333 0.06350366452635882 0.027184774342688216 0.9821311874521428 0.5531872195817825 0.48990563956677513 
Task80 0.12723042880225313 0.04671422078071605 0.16002570045455464 0.377630811136926 0.7627105078796372 0.540537906496682 0.8789593345766711 
Task81 0.002281964261337318 0.03861375036671926 0.1517337584405689 0.08596014402247582 0.4176511609746045 0.7799845970427416 0.9742094934204377 
Task82 0.020555787292764353 0.049705318414827615 0.2143012769552971 0.17263550915817794 0.8133374882819626 0.5751536036618226 0.9270052510625613 
Task83 0.08743202058032266 0.16224597915222233 0.1859934226168755 0.07108982305622889 0.40509889111564795 0.6295266166078031 0.9382280853753535 
Task84 0.07129237806162306 0.3376404907081835 0.18344626625097699 0.33986275635608326 0.7216289859589372 0.9491683247129401 0.41846766018985004 
Task85 0.01696335093476244 0.1547512819400813 0.6913642642238665 0.04267910620391029 0.43700797538559066 0.3980656951192601 0.41469540619338624 
Task86 0.11124280930828657 0.09747930111599519 0.19221109998824967 0.3678876860628887 0.5950060338220589 0.8400530839822518 0.37792197565977964 
Task87 0.12399939379850348 0.20029280498643043 0.26977408599176783 0.1499038251544597 0.9351397316730587 0.33165930909323144 0.5230367981443885 
Task88 0.00471706206259889 0.2527569242713774 0.21958516593239683 0.043891774659644195 0.7509178632769298 0.6789288654716268 0.937204723148596 
Task89 0.12512001233265882 0.17312779454017121 0.24190725916679076 0.20889847270482356 0.646386985247605 0.5845322863249749 0.6646693310411375 
Task90 0.05645623902888118 0.2449715294372753 0.2719077255272666 0.03960942916058798 0.9120189689228064 0.7603914258296132 0.595475616143336 
Task91 0.09524908891871355 0.0889227285448798 0.18223567928347426 0.5722825221523686 0.6310814979108708 0.47890761061940657 0.3761829312553191 
Task92 0.017308789748492648 0.25180064105958855 0.495143662856095 0.1151262851308413 0.608410132786108 0.5977441937320653 0.7881300524738702 
Task93 0.09007657771111167 0.3022259211036413 0.41641603652351716 0.047089489959190815 0.3267971352710187 0.7968084177364393 0.37589594823869665 
Task94 0.105791393288114 0.17651002932131168 0.27123680219343854 0.31529287997670474 0.8075849687315881 0.39421291912289 0.7517007156904207 
Task95 0.09244710235557477 0.1026019659666868 0.633955187149577 0.0026973542786113236 0.6363380298580694 0.9958636601884643 0.5636767346580249 
Task96 0.04822829791175046 0.15375062169497916 0.12389205525779219 0.003061261698011917 0.9947119080383329 0.6170344742678262 0.6974880861960293 
Task97 0.017086280899061893 0.24059390999813982 0.2195886503702019 0.1519553587014992 0.8504522610342304 0.977167630385311 0.7531227404123422 
Task98 0.002900163927236808 0.02152418143419147 0.01704166058986934 0.0054437900988628125 0.5942760957627579 0.939208967178826 0.8864406806294371 
Task99 0.035710842314860276 0.2640243413958736 0.08629994204852355 0.1346789265069605 0.9504934137127508 0.8105184333588027 0.9124654657976699 
Task100 0.011736258504089183 0.19495495608603391 0.015440470038152397 0.1839552215059288 0.553523020977827 0.871675881203464 0.5981085373540183 
Task101 0.01809171828275231 0.043665395262021636 0.009742615391997583 0.07683574400412013 0.4850265393562867 0.8002702298668021 0.39703690792956065 
Task102 0.006285349813752076 0.0874492471506965 0.04549225762779603 0.009346543660875272 0.9012053045962591 0.6488537888124619 0.6759392349742652 
Task103 0.05879944548946637 0.3622859566682606 0.22011274832255698 0.3018755232618955 0.5108866918387248 0.6896496148375695 0.3772769744925429 
Task104 0.15873906696167278 0.0853635162847779 0.320922557515525 0.26079807393892157 0.9490200212942479 0.7164061881201031 0.7362480603368992 
Task105 0.0760752838543845 0.10939512473543375 0.14332305678614193 0.10508293218955962 0.8654353945632189 0.8339275850974277 0.37662903160593386 
Task106 0.00931582498461311 0.036315312895006606 0.03395137129147917 0.04317604841558308 0.5160533997142644 0.8525573038670953 0.9997340741225893 
Task107 0.03143502503101201 0.07915847005566143 0.09350479440109219 0.033155225544001216 0.7744516600988474 0.3183490899486185 0.43972191747088185 
Task108 0.0013356848568132856 0.04427835333345832 0.02357315293245499 0.016476244640358493 0.31820967700012465 0.8352647652879064 0.5912464446634619 
Task109 0.005374711136088658 0.004462827883806504 0.005933850796502275 0.011658386887288858 0.7943105504597237 0.5855844094563991 0.6544457047607409 
Task110 0.12735568368316807 0.22900208925910717 0.10541135493889806 0.23804115355716787 0.3317260012637524 0.7401026569918091 0.46175769557341784 
Task111 0.02118385588287533 0.04615431010097454 0.4017198380989187 0.1738107941032861 0.9779790928978174 0.34130702834417065 0.529808238806186 
Task112 0.037201258014117604 0.10560120405845856 0.07007457968895123 0.0568273376683818 0.9305569036788011 0.7677108873763606 0.9691397389024461 
Task113 0.11984463029829664 0.18849909504520615 0.15788885595406904 0.13848220179243145 0.48256551659182884 0.6212163865251967 0.4918775662730023 
Task114 0.013154166510250942 0.12359544683389102 0.0566171717214153 0.5142012050837282 0.3788777792707253 0.7891351813973614 0.6383814364892684 
Task115 0.057104598754438934 0.41630787261722335 0.1071390379042284 0.28989575063379536 0.5119932449499593 0.8768708030573997 0.5845230644306552 
Task116 7.02243328233567e-05 0.06606025260709093 0.09235340955913576 0.29644305339245436 0.9014256795489939 0.5516712005050457 0.8109354189253322 
Task117 0.08279414316323748 0.16568164250469003 0.19422151769192317 0.13569372511001193 0.8241410459755754 0.7232847053235267 0.8383035706156918 
Task118 0.09400168193531915 0.12279715497422583 0.35593661602873816 0.2111863286668506 0.4891346466035308 0.47778140839325867 0.4534736006052214 
Task119 0.12358405764807366 0.3323202245679192 0.16323081155474614 0.296424292121823 0.46725640375667377 0.38512638575647085 0.9299524267452906 
Task120 0.07520650577391376 0.05180027885642857 0.27063543965242093 0.16305093715641195 0.7506884899138433 0.7924684276837013 0.8669742655470547 
Task121 0.017697656800797216 0.012144989307213548 0.04898525571916762 0.03579457689519314 0.5155158879720352 0.4389578436003747 0.5082534179492422 
Task122 0.07735183727742267 0.18405453210825526 0.2699788673004017 0.047318217053247916 0.621004935708146 0.6713802253847112 0.6011032103281013 
Task123 0.04945165057467137 0.1424470182429869 0.17284099588675567 0.16639774372079566 0.9942409403374093 0.769453609712723 0.35927854673990145 
Task124 0.09892901476554111 0.15528425219555167 0.24734723389621743 0.10582117499734767 0.8006452215462625 0.5149799491657189 0.9675570376710989 
Task125 0.017541422422311024 0.1103347042910419 0.02846779953393545 0.15818573253614124 0.622905489872331 0.5084373607922962 0.4107334311797565 
Task126 0.007942062030859932 0.030770030134751776 0.010291764068725487 0.002807403220736279 0.9492278057186923 0.8994053130271851 0.35740728646873876 
Task127 0.02214315951846719 0.06232597073274436 0.030995617892017584 0.0604812243397719 0.5574989786358926 0.407112929031598 0.6378848391173537 
Task128 0.0004699285839513862 0.006383661972087558 0.01641791641576881 0.008730213684545116 0.846223679139706 0.5005020472613573 0.931165893862264 
Task129 0.007214448693364934 0.09772237614991999 0.128564811576597 0.17405499683335318 0.7874871106647499 0.4800609016302053 0.518905945294972 
Task130 0.004192943706562582 0.1848477589210765 0.5385800258506306 0.2565151211460267 0.5007005061910738 0.6187904436646192 0.9219384604415957 
Task131 0.01579297421970291 0.21809921752095127 0.17866584244429376 0.2842552805198398 0.8894585655850133 0.517677761359649 0.6276556631176923 
Task132 0.0025429667797075054 0.01654641687819618 0.01343857017943815 0.004932739113942459 0.37163555293064005 0.7193375995341831 0.847696167783764 
Task133 0.0037934255182231038 0.01427175504335991 0.01530810477395698 0.01180659856870055 0.4970571984424118 0.8883649270249137 0.9073245192081671 
Task134 0.04172639032851339 0.21056777296095697 0.2385636847172602 0.14965509349201647 0.7878788681754266 0.3576650673046058 0.5810029234535602 
Task135 0.0007380328671621109 0.04895522886497068 0.04348436571331713 0.018204288819960696 0.450677165586109 0.8164443051889292 0.6402128680977175 
Task136 0.04538690973951915 0.12490227954533897 0.04121328180781706 0.2128385723977194 0.3349375295822232 0.7513603466083949 0.9293848942777034 
Task137 0.03286751837696235 0.08929279809860152 0.04595926881069251 0.04334691413410983 0.442169671245598 0.30348223689098075 0.8845308076996161 
Task138 0.1076497633129295 0.2017395032615032 0.185112683280479 0.1917295853426503 0.6598664420764266 0.40240136894151535 0.6928605511221022 
Task139 0.051664369665778594 0.004567826608750808 0.1803829584504222 0.13372423638894473 0.8215681301499256 0.7309146660513544 0.4209803060140707 
Task140 0.02116393975223425 0.010672241199711706 0.03291624206921196 0.04371391584426787 0.3784704141492849 0.9568408766108918 0.6529050857375409 
Task141 0.007207646074318761 0.03212250552269707 0.039723834388803045 0.028135875973627832 0.43674192287857644 0.9072924948945902 0.9576224120214467 
Task142 0.013789767589302629 0.006808205934939112 0.05615715770774628 0.037111199778404214 0.7920048199000647 0.9526794722993812 0.45949115306549837 
Task143 0.005434638245628019 0.015775444817965348 0.010698981446107841 0.004688224370042237 0.7493331538678534 0.667118914602966 0.38356597640337087 
Task144 0.037346382077180475 0.5086498725419204 0.35718289154180494 0.08698294073478682 0.4103716874968098 0.7718358727661717 0.6099122399748793 
Task145 0.009037564381300623 0.03643614099025378 0.041987331902650776 0.005585190628852555 0.5547950219872659 0.9103981857282255 0.5989767215240833 
Task146 0.10768855746016782 0.12650726220007585 0.011670918230236665 0.4076744106758272 0.4057467248862058 0.8483785520599016 0.8372935940725681 
Task147 0.019808954176584657 0.19970699738963715 0.06705760944342411 0.007862767944455283 0.4063103755282446 0.9486677699061921 0.9018896804935368 
Task148 0.15668287530523814 0.3009539697706471 0.46606276537910213 0.022352935907737254 0.6350443215115389 0.6402800598643988 0.9463828662634726 
Task149 0.004410655663482919 0.05384817157278351 0.3057745407201837 0.28453317832186326 0.48182679579430426 0.42805016688785014 0.6204079756856922 
Task150 0.0853342639672555 0.12641791437864622 0.3498656201501183 0.2273985910944356 0.8751128968616098 0.41250379740229526 0.6569434408058623 
Task151 0.03804689657134044 0.08150443457175516 0.05143491407653209 0.05642204551730989 0.6223491371795387 0.8692766613951319 0.30619090416016004 
Task152 0.011142851789126726 0.03500843694504617 0.469418030836318 0.33383363248784237 0.704661592700044 0.37214906002587583 0.8878817300045454 
Task153 0.013204862936291906 0.06076833983479817 0.05727128463104687 0.014652822330582117 0.5381252520732177 0.6011089614537166 0.7680989955718966 
Task154 0.052369089478004706 0.4087374305554693 0.2373461376026858 0.07699347685542579 0.8333208195260786 0.8750177267977699 0.3747504474840541 
Task155 0.016500563967524782 0.07978043371181975 0.09670464178097365 0.024439855149509773 0.8623964452214044 0.43059652625704525 0.5452217352818575 
Task156 0.022253078866682423 0.11736711334759413 0.018857491180100636 0.06507971330473425 0.3542571542025344 0.42040691740009195 0.717871849391634 
Task157 0.052080932216873134 0.42283767068868955 0.1626805528902031 0.32531343926911654 0.4323405075991361 0.5848219334389009 0.46444140078796037 
Task158 0.0012508619765401678 0.003031555994079834 0.004843047291189071 0.022140771967190942 0.6240986700679491 0.8151893941832802 0.5687940703762624 
Task159 0.02625170717140711 0.03368550756001301 0.12492482780997759 0.271046549846655 0.35992827239820724 0.7884134053577774 0.6398545904191151 
Task160 0.01404330773922434 0.07191863135843891 0.08286371588060477 0.056047785758638176 0.8148986491599299 0.3600001317596177 0.5367766951634292 
Task161 0.029256588861256032 0.20843888786657755 0.013906955829980113 0.06914648630511658 0.582518498244941 0.6898615767154295 0.30434659350312004 
Task162 0.13021097470942072 0.2008539288183255 0.33944329144404944 0.07680317807077898 0.7385392741947965 0.3340984817408859 0.46783393793282685 
Task163 0.07788968782265686 0.34389388086188516 0.13733314178441344 0.16016428561745175 0.5632641236615236 0.6728575733644246 0.7611377679925415 
Task164 0.0465285477641996 0.1457723785419069 0.08978382159483649 0.08384440153871263 0.7501141806406122 0.6971697969790231 0.7775465559780351 
Task165 0.00795829227682179 0.013861592997292423 0.008981636199440098 0.015078368303779944 0.9078212797176557 0.6325893104195899 0.6297067689628268 
Task166 0.03811145365381758 0.06228536055575452 0.07391012132638236 0.04564684815898601 0.5998465439363423 0.406226182094622 0.7126589154289034 
Task167 0.04338220286636573 0.11101879074023052 0.07900270691843667 0.03319549946123366 0.9550256375985746 0.6030290280574491 0.9181403433370459 
Task168 0.027041493374676474 0.07429799604468997 0.16765066665954248 0.001933842556357397 0.9307885072402744 0.35841762045024533 0.8940881057228656 
Task169 0.047913310086728084 0.11566812913952947 0.3073723111952844 0.4600200499139154 0.732213934731598 0.7532405761255803 0.5030657042626511 
Task170 0.007447015955233242 0.02656523769669968 0.004796724522847513 0.1403038438551654 0.4081291240815358 0.6378655171090175 0.9600368371852193 
Task171 0.056544561415331915 0.029668038489676283 0.2403849572835161 0.1416989560540207 0.8111288787530393 0.30227471408725143 0.6043429750593338 
Task172 0.08534087599066797 0.1649270248169757 0.020760251719078925 0.1957119483219152 0.47931963726103854 0.6197566813466753 0.7799666370183092 
Task173 0.057074769171072376 0.03718350175889862 0.2767480248076351 0.011183053270330524 0.4676147735524782 0.3572259165845495 0.8717752560643621 
Task174 0.05348015372167634 0.08218136855287624 0.11042820074817623 0.11124933597287458 0.7564803535456663 0.46847811752776336 0.3167511415786782 
Task175 0.07995054238913857 0.02192868594446707 0.33430477198728636 0.022520949746593327 0.7558657133111237 0.7091685915113006 0.7319931697280005 
Task176 0.10682712835927398 0.03252333295845072 0.3577646432071213 0.24102968217716367 0.7389487868557099 0.6767779903534614 0.8154383879886835 
Task177 0.0036810577527340996 0.04672131332490779 0.20674562522175233 0.14461574442244074 0.8647909494893353 0.8089184266603984 0.6757394849427594 
Task178 0.13770640336780637 0.4741361699304506 0.17195851255737535 0.09358758265251212 0.673100696557311 0.307523430119603 0.35502276541736344 
Task179 0.013967823644130547 0.269734450547092 0.12750881984367438 0.06430230073576321 0.9676166295110491 0.8567818735631989 0.6776447204718331 
Task180 0.035605740923743856 0.21350345854082442 0.035900649171260124 0.08378865208067836 0.6347281378223952 0.5699405607537291 0.5603053737964124 
Task181 0.029505407557873384 0.49149572444747314 0.2733797641386413 0.13880633181732485 0.6472139110683586 0.7235011096857535 0.6629920353620707 
Task182 0.04679354907787199 0.08520632381246207 0.0415560191152577 0.079790525470357 0.4581210070254581 0.3649293573770226 0.6738253341815961 
Task183 0.008145539527763788 0.09033624964845982 0.21069484590938872 0.020485100455582946 0.5587665021357391 0.4266866120948207 0.715604121030033 
Task184 0.1277119041605121 0.3525571487120817 0.07965430557422506 0.28707590914244535 0.3869391258034648 0.4292103678595739 0.7424309609115687 
Task185 0.017746585310487638 0.14227641142206157 0.21779624167401287 0.14837082058891146 0.5909697234227798 0.7525546271995491 0.8651314882552483 
Task186 0.08009758005129976 0.17815970133724113 0.12056521342069385 0.5384534757224643 0.5379269215220418 0.33345352115797455 0.4907054379221385 
Task187 0.0763297536384772 0.10450231533672723 0.4971459599302987 0.20779662360488188 0.6844392334105185 0.7418050502587094 0.6030615298720031 
Task188 0.134610560200837 0.20871375072075682 0.27355721745440015 0.12995828323976463 0.48357535036120064 0.845823685503545 0.6664957187175098 
Task189 0.0607549598152666 0.1315521449119719 0.16138879270819564 0.11946474684883084 0.9430028308123521 0.7273878545299297 0.7874107592595839 
Task190 0.004709810578250909 0.006881917752942487 0.004577401117157922 0.008048294620299146 0.33637883945378044 0.9801776550808516 0.36560844486726474 
Task191 0.007054132117619811 0.02658639250439363 0.02309632577959949 0.013185149077569274 0.5737493168805334 0.3338703635051442 0.5192859144610953 
Task192 0.04682727028454716 0.17012751924603453 0.05227036958549279 0.25086907410685094 0.7798828689672588 0.7397199002276083 0.3300408351746418 
Task193 4.4852558007523736e-05 0.05944774577757219 0.06531577210049215 0.02642953184847151 0.8611285112403482 0.5370297680877372 0.5221132949142969 
Task194 0.021901270803569652 0.21975361129398813 0.018357861328039835 0.05596020869594706 0.8299491253794198 0.9150423199838031 0.401303118236463 
Task195 0.0014025643670410955 0.29853520254836163 0.051686228852975954 0.24310081977932416 0.6187238795107758 0.3079992107410842 0.37776385988441824 
Task196 0.0018000616538770622 0.07096245494682056 0.2896553326482327 0.1794173804294321 0.8418495404555499 0.354433131279751 0.633789446842929 
Task197 0.10363321488403922 0.2671746218305869 0.17124383435991244 0.20020056966347338 0.5973603839670341 0.8907582417883286 0.8598212210589751 
Task198 0.053575758599021875 0.20439971424856535 0.19326197426308417 0.10710735310980161 0.7921323339389517 0.39313481987730003 0.9269646164087653 
Task199 0.009796546111114565 0.17731766935945317 0.19233281500180335 0.2220735623409574 0.3259786306652682 0.672748346482999 0.9695713077495152 
