Task0 0.0048830775896986514 0.009137395793682236 0.0008663196508034746 0.021205461080508164 0.9101678080028301 0.6318253935555291 0.9265407704280884 
Task1 0.011981635566825386 0.09596854912423146 0.36235878806440536 0.05816467463534408 0.7279633359673444 0.3858185352507595 0.4720303656862941 
Task2 0.025369014898330575 0.0962079972291148 0.0069388865524333595 0.008436350163599286 0.466202708863507 0.38551939556503567 0.4425378532278729 
Task3 0.03781986729261036 0.01928855278275935 0.20777566373202605 0.05596145257861612 0.7967426539055805 0.4770433893887302 0.979318455208996 
Task4 0.0318941905691669 0.08624508926084848 0.06073453386716288 0.06220584384589588 0.9238942481917156 0.47379160761327743 0.5171062367423561 
Task5 0.10085038124937591 0.1698120544707259 0.07023589431202584 0.17871576872287886 0.5546465306165165 0.31801706479903097 0.4285515852191677 
Task6 0.04058011902209999 0.1273814426092101 0.21574622033294677 0.34186604863578807 0.5822824029227379 0.5662806356631325 0.7492233385544975 
Task7 0.12486184932901649 0.12961053994394334 0.2645148834731536 0.15766024084478747 0.9821278895134398 0.9968551298038999 0.7596820545080144 
Task8 0.03415011296839338 0.04804044953717162 0.2477909100817028 0.07707964518236503 0.7832684813755242 0.5607587881097944 0.8930670897592266 
Task9 0.03733288357519244 0.032229128616881944 0.21083579907352756 0.2526620300750293 0.30043214489648284 0.9903701492996575 0.9139846419775621 
Task10 0.012718088866404511 0.25414997263099093 0.06376651826532764 0.05344375113836441 0.6331499978615783 0.8895851327702273 0.5168999000976023 
Task11 0.030784753445242622 0.06437809051540093 0.05284637228240318 0.049211264153162355 0.7654617493046545 0.6304753621160618 0.3636744466397491 
Task12 0.0013771973862574628 0.009879829290852779 0.01712296221193427 0.019715792440056796 0.7674274400758614 0.48924334819642934 0.669221010586436 
Task13 0.0973210256435245 0.300053392382253 0.20634817259997912 0.18154374660286166 0.646302283681613 0.4965328669719053 0.6443741243599039 
Task14 0.012413926896425096 0.2172311742128973 0.1945244154658337 0.02414032728344247 0.9517792502980655 0.7568617497574803 0.41616207560604834 
Task15 0.003126601581648527 0.005361343647591734 0.005474453286661341 0.0031313577350547267 0.6946815491940515 0.6157538376313643 0.5088475902632654 
Task16 0.0015371529228145034 0.011539673648224575 0.049359696077061185 0.01426521419981255 0.37926351933653724 0.3769035140803962 0.6663642373775305 
Task17 0.002293968529816475 0.0014210802910000332 0.028064261749200473 0.01725684728718463 0.6057562349979573 0.49956634115202614 0.8408984026299513 
Task18 0.04223042347715309 0.1308692437027016 0.1968352932623227 0.2518101597326174 0.5961519650385982 0.47577646690105324 0.6445159780921927 
Task19 0.03130940465486662 0.1638639234286474 0.17700000992563988 0.11938148808697344 0.4930462274687183 0.9233876189248202 0.36722039139286133 
Task20 0.02318754984129097 0.12547793950252775 0.10657917475683579 0.12503722766350947 0.8812843369555852 0.3010428573727903 0.6063697791220318 
Task21 0.16631578080500398 0.2513917398511597 0.1761533701826978 0.2595346219795114 0.4673715834976192 0.5532107509522493 0.8577778447157289 
Task22 0.0908835613487886 0.36980170453557476 0.3951186070831419 0.11287399430774833 0.6495620347025663 0.6290542127921517 0.7510965585724867 
Task23 0.0020519103643560467 0.004015694841747144 0.0036612273536784238 0.0055283588934570554 0.8666501820084995 0.3039149106077785 0.49562313878973074 
Task24 0.06045773081790797 0.01389116049210463 0.15289522795105578 0.08981331630868068 0.8249418654729912 0.3849307734704176 0.9986232521610865 
Task25 0.06588461169868415 0.1964876768841641 0.2456918174522675 0.05193515718961116 0.6799774558886433 0.7500721293257716 0.8238684550584232 
Task26 0.011289256794870061 0.03786539731421034 0.033453127638387974 0.016189104953107478 0.6887138130493816 0.4244105919572835 0.3941246115482945 
Task27 0.05767370032904269 0.3292459493772634 0.26251982186139494 0.21113519417223883 0.4677538017638824 0.9708618013359909 0.4711706570865749 
Task28 0.006548787463007045 0.017350746451915828 0.010255590602801746 0.00536864207190446 0.7192114096448184 0.606639134563061 0.3640725751748245 
Task29 0.014363263409600124 0.032025237141278404 0.023724503814013885 0.014284467604537287 0.8517407009800662 0.6086176254156985 0.9439307640160426 
Task30 0.04382349905609993 0.005304034483507177 0.20035557173463694 0.19033658842007556 0.5987926786003608 0.3433417146800843 0.5420542205378516 
Task31 0.13833952724443893 0.34150741810591406 0.13298296874864443 0.353712456004871 0.5521165826012497 0.8904969223945707 0.6092774828333305 
Task32 0.01795269574391998 0.03119879308745283 0.020103845691391425 0.14268478879075963 0.7193478577063801 0.41458943723035346 0.4928251436153387 
Task33 0.09054148550205415 0.30134467221459793 0.02318311898773337 0.2467193872160138 0.6420145457281161 0.6245093788171985 0.9649268717415187 
Task34 0.022989688302230468 0.03284655194508451 0.02779971031005975 0.06610621066030396 0.4944464179759499 0.4740550258487708 0.4095686850453407 
Task35 0.08902736964390061 0.009848412791143898 0.2835566277804656 0.1606795800983562 0.7539863864440515 0.3920948322368544 0.8614919743431859 
Task36 0.18156054541744962 0.19405597066202684 0.44068423285923264 0.10531454699660703 0.6756529324704053 0.8555904483799655 0.49943789943682554 
Task37 0.026563797228456833 0.13055023884591446 0.07794197622061456 0.006507938492494043 0.5452839759795802 0.8656046315233483 0.43803964840957343 
Task38 0.1294071144467462 0.2501440644406756 0.3768896900372979 0.1280032185721717 0.6334969024367979 0.505360336396202 0.9446903693147097 
Task39 0.0348086416482223 0.08737946683144196 0.15967789260451726 0.2984452539686606 0.6826314745753155 0.7910982274985703 0.5005429971679012 
Task40 0.00442795327361637 0.017558516191865853 0.002714442658606025 0.0035006306019999657 0.7726174905531015 0.835241026327507 0.3112815077578694 
Task41 0.13173457954561885 0.05129412472113193 0.2708064219997465 0.4531684644832871 0.5016688123251433 0.622711974011137 0.35961826735944846 
Task42 0.037750936157574265 0.14084920518136812 0.20003566105461457 0.0949019053206274 0.6184398477779547 0.6346213903848996 0.9141644006807732 
Task43 0.0005327934187339252 0.07126530659993026 0.03661701291199256 0.04213772189246869 0.6260524378849857 0.6263829442609568 0.6727840617535326 
Task44 0.19124073941692626 0.14540042471871992 0.25508913876928746 0.3769409228817381 0.3033418987023984 0.6862397731817655 0.6546316027031049 
Task45 0.00955984797881784 0.023118204675683117 0.06269257772037724 0.07352882882938724 0.38431251788258153 0.5783216641872619 0.8193560884296007 
Task46 0.009310289374470076 0.031859856512455785 0.01613821473783667 0.0032243917813463622 0.6652650589499595 0.9889274431699253 0.3774297973980192 
Task47 0.013788007844094001 0.008730435422099224 0.06422053390708964 0.038902200122035116 0.8774982184088895 0.9594777140859272 0.86423862524482 
Task48 0.058423259886199834 0.027841832810613875 0.12382418315875311 0.14980524798498357 0.43402619750959226 0.6028368194917704 0.4582762279908579 
Task49 0.021390531527137543 0.02161899888640309 0.13639734314485255 0.05582935520260738 0.4586207266683657 0.374135205829642 0.4631498559929113 
Task50 0.03407231783732852 0.06381568763724838 0.21003628694634266 0.17070009139476128 0.3607152993004442 0.9845098662112732 0.6386900542664262 
Task51 0.002947303084750081 0.12202493032871557 0.13765651438013676 0.16598615829109206 0.782024814983906 0.8246180382442228 0.37029474935924356 
Task52 0.04367556154234841 0.186523412565715 0.17777150559842977 0.04881980378884879 0.5107492983160489 0.9835185054625664 0.6756346419082047 
Task53 0.027258768479845576 0.058781938525035916 0.001870452218720456 0.08247573209997848 0.4764925334341916 0.7938274900580742 0.7276023466012718 
Task54 0.018523107563084378 0.1284668036310758 0.11526463602025998 0.04042890762819923 0.9065813126636701 0.3155588422075086 0.6844936015650441 
Task55 0.12647642414131494 0.369767213269017 0.22572300825869007 0.08823951139970021 0.438094456917918 0.5297806858925087 0.4542730041719617 
Task56 0.0528841007025556 0.21787040650668807 0.1425462081384427 0.1165585406567832 0.3008792761491133 0.5966181418534494 0.776956473892992 
Task57 0.003585879306356892 0.13572181558089977 0.28083800791859637 0.4664994255190079 0.7280845557915788 0.3694655903804479 0.992574774446467 
Task58 0.03745761098168448 0.09350821034279999 0.10450838244281956 0.015896332454743287 0.878280895435327 0.6013148292387396 0.43135588366803157 
Task59 0.00171109602390786 0.015092039301289483 0.004465873932192601 0.04239388318047155 0.6194518151182467 0.9604294390496055 0.5111878107806893 
Task60 0.10376048255920277 0.35474996676885395 0.055828274808973934 0.34925284396636647 0.7954356002302261 0.7386243669724386 0.7758959250115065 
Task61 0.03229448899956305 0.021578092425707258 0.413419708671993 0.35685106359616936 0.3749901623304324 0.7309632415363276 0.9259783496371321 
Task62 0.06109235165417566 0.0713712711110986 0.0824958973718731 0.17810984614626718 0.7763814410431771 0.7848706483599472 0.6887837877493787 
Task63 0.030413109777424733 0.07035219013943411 0.29786965820080336 0.4593710448344455 0.3278163519432489 0.788159286127549 0.997923360864243 
Task64 0.13588891994917568 0.3367530522322049 0.40453380957051044 0.08168034142666313 0.33063242753354016 0.9258787012813088 0.33556583560576797 
Task65 0.12302197024765678 0.6113361227624202 0.07193750955154277 0.04287353084807228 0.38691085623204513 0.5706785861582062 0.48564871263296117 
Task66 0.013050442697184488 0.1305069280326339 0.12257940382582946 0.03354491387248838 0.325502255346331 0.3980684325631351 0.912149113043804 
Task67 0.024689168173273074 0.2234426014457651 0.2801029542774623 0.2340616757980362 0.3797385144200396 0.33121475385697735 0.7197424481018914 
Task68 0.1210222295372637 0.22792557395109883 0.17492681596775206 0.22060011344454192 0.5792573784779402 0.9173278990291431 0.9144094300478556 
Task69 0.04739075914170117 0.03328989299498846 0.12314303047400331 0.049044892760462554 0.32014373994520945 0.5252282284123766 0.7133276682076859 
Task70 0.09063765469135653 0.3420534447987367 0.18300735463623524 0.08938341040679722 0.3497297027214504 0.5933362688435315 0.320148241280514 
Task71 0.05867385263920985 0.095237047634843 0.3558423525871518 0.3295873104111631 0.45654748716937815 0.34519594117018515 0.9703813273676405 
Task72 0.038007363369516045 0.0015802564027173017 0.29386039769284616 0.13004761790458166 0.8862501985803319 0.9483082398531539 0.4296240862688697 
Task73 0.005568684791689231 0.07844775121978959 0.14873607057553964 0.11320709134650661 0.5338876416703844 0.8502157953134564 0.36530059999892567 
Task74 0.05516677669847661 0.03441012658514447 0.3171030520905107 0.420024502600268 0.3236923147075542 0.9716827406905011 0.7206910916083632 
Task75 0.01732139928191016 0.1011706145676783 0.17716260648536064 0.16413288158873002 0.4568071567359817 0.3613801295686762 0.6425971224285543 
Task76 0.03493041320260464 0.15956841011316852 0.11645735064586252 0.1074893809187685 0.6792000405552325 0.8732626353114163 0.986913055963093 
Task77 0.03579131746417092 0.6766101992945488 0.15543398712203618 0.10729274865249065 0.7031968983965093 0.4491831765383532 0.4949665979862497 
Task78 0.06982348726693548 0.2601621001005473 0.24949267817919735 0.12336959218904509 0.7606211670583167 0.8806320442083806 0.658609030589804 
Task79 0.004100971205318162 0.003768694663205077 0.009512882483389886 0.010390236187017711 0.9868660161468579 0.7215354758023487 0.7189368512390368 
Task80 0.10341014995642647 0.2013482962477157 0.10188595519001914 0.3643811479223568 0.7265400129105319 0.8008021866898247 0.8644689749175201 
Task81 0.06224801722208862 0.040564917721597774 0.21381521175781754 0.049559135139764864 0.7467690567546708 0.9410119667854817 0.4959255907980295 
Task82 0.10546097811196029 0.15713361590547437 0.3639381473481035 0.08545841309137119 0.7054439072989354 0.7642649879911279 0.6475171785091154 
Task83 0.11950327484651405 0.004308241186659007 0.4888055713880433 0.3514590750061628 0.33413599479451017 0.9950017851609883 0.3571470015002952 
Task84 0.08441002388370696 0.2927487749851007 0.20920422901809965 0.06925949174603131 0.5754229157856512 0.6161615702494383 0.9392610782276047 
Task85 0.010495265156595221 0.010845851702408463 0.07629088344711966 0.08091159530296305 0.9510152495915616 0.7647150240750265 0.37857345287695343 
Task86 0.022416273592578365 0.052775332306777105 0.07799132547123878 0.011625834558046557 0.8041823909034402 0.594305404571096 0.4202945766424638 
Task87 0.1405665292129333 0.32068458695831153 0.06612648042857021 0.28597190995516164 0.9853731373165591 0.5011640260404306 0.41024103300406706 
Task88 0.07881056946126531 0.15069130968148553 0.18074156057906116 0.40162157096393397 0.5746630097484894 0.9368366219503927 0.9914945279001826 
Task89 0.11147304087804473 0.18265688668929037 0.30018852243296634 0.3966239522020383 0.6738119104091063 0.5726471638115529 0.4165610960061805 
Task90 0.00040333487113806895 0.0019408937510941803 0.000948992489428279 0.00045184041625712 0.5403375783307125 0.983858546221682 0.7910600229307476 
Task91 0.16426784700584704 0.011516632171552646 0.5493168833048853 0.22550832306957366 0.49670746858273446 0.6332906507100357 0.7171787266792331 
Task92 0.1308537212889203 0.1714293805438951 0.15502256393688554 0.5183218210119508 0.8555854854250466 0.7120749707934271 0.6416788393888502 
Task93 0.010230564956180691 0.06445950443388303 0.01876174782314853 0.06120116231972173 0.7043168980559167 0.6273909238636484 0.7784401207874111 
Task94 0.12967134427261437 0.06946525700489216 0.2614660944135172 0.3199042537989505 0.7035668131077373 0.7006772291706311 0.853177069853519 
Task95 0.181132613823892 0.11656623663119338 0.519946547302771 0.09556595032674428 0.36341471455935376 0.6041515952785363 0.9241198028800341 
Task96 0.045546345522056816 0.19485540074520621 0.2702228311829103 0.16931501229452994 0.646201073330916 0.4406678587223952 0.8619121758872053 
Task97 0.04227176668321717 0.2268599336720967 0.21358313157081557 0.3569478449720242 0.6323893765211694 0.9635415158523501 0.3551422985011947 
Task98 0.07753738618249914 0.5024749563015923 0.37826448631392573 0.035214176356011824 0.6423590680563998 0.9872771715673689 0.30909976604860845 
Task99 0.005771979201519199 0.01509264878292616 0.01432543541645922 0.010351885993744148 0.8312449969544851 0.6820849318913608 0.5642494083787206 
Task100 0.05170734007253404 0.14152048312268461 0.2722345345396748 0.2399349662866104 0.9751044127402952 0.3532111344252268 0.37313589116480306 
Task101 0.04863577957469052 0.1844223033650175 0.32773135893429095 0.299693002753016 0.7784920776973921 0.55279902149424 0.6014933950094942 
Task102 0.043958925825486994 0.1502963139001852 0.08266030549395 0.2964247759924088 0.474426026863757 0.6656543961999932 0.7502663052572598 
Task103 0.11576818909750321 0.19334404683859457 0.15467877852474374 0.30663487684376667 0.877126616044364 0.6709106255765914 0.8695865991087026 
Task104 0.03806734982600867 0.13983962547321405 0.0968973294029994 0.1192883906078503 0.3101937007376761 0.3928704772958424 0.9632773871576275 
Task105 0.05624652838214985 0.17094720684342476 0.06416365925187878 0.21010816316520303 0.9217912732516327 0.6753270077030922 0.553082369435792 
Task106 0.056049103118739195 0.21038577279780213 0.0261283956778101 0.04185033839252824 0.35822245678291464 0.6834121673885103 0.5505527531204879 
Task107 0.08602148678735946 0.09507779106854747 0.043853477219559685 0.2396131457240691 0.7490560626441054 0.7174186774559766 0.30920251714293956 
Task108 0.11937879343616141 0.34402285721079645 0.003385505623632608 0.44489301436506495 0.32271355960081466 0.9439714239913639 0.5056119271566817 
Task109 0.081536790349277 0.29034105466531546 0.025908545829746953 0.20018851186208114 0.9363200216104182 0.6033077527127519 0.7696239283476227 
Task110 0.010472363306319512 0.05111255716731351 0.1815336629225463 0.25343477540310805 0.7833526679882494 0.5354464958305387 0.5721695739728916 
Task111 0.002247531676534456 0.12758478844664647 0.1067497135054704 0.012574767319583907 0.8384268180409775 0.30842223745902797 0.6775625659080483 
Task112 0.011205129364817159 0.14300694155138222 0.08575203726118028 0.04636066141350993 0.6162151929545525 0.37863825051947136 0.7465832658329208 
Task113 0.028016917268391176 0.08590371864990144 0.2385256702153758 0.1837786090188803 0.4344694596506519 0.8832125284398002 0.9931983176405632 
Task114 0.027128039165342357 0.04192644440815782 0.0969435036932525 0.15269100667606567 0.6447244882804304 0.527810051285196 0.4881961991298943 
Task115 0.0758339186380364 0.07103496223134836 0.2299079779297873 0.16190772328180772 0.3732307647057447 0.9338497573433027 0.6623347552684014 
Task116 0.019432911378777003 0.566479332319343 0.06507517781856847 0.04625095215913551 0.3815647963838313 0.3878037756346928 0.8267219441461886 
Task117 0.07475306712715159 0.29596271209007136 0.016697187283769326 0.1478761424354846 0.3409044795695113 0.8535848185408608 0.30807249727711605 
Task118 0.0617255674826227 0.5364239804417872 0.0760140011478469 0.21818479132347227 0.9790363534011604 0.6372121494481131 0.8507918377176964 
Task119 0.029387320496170016 0.07384560182179642 0.10552960289311263 0.21055008198285344 0.9091097884499602 0.5000948191496383 0.7342293698665701 
Task120 0.03293036204733998 0.22041732584479556 0.0925548430899695 0.283416406275758 0.7499944568785657 0.8315509405967239 0.8081587058991322 
Task121 0.0895279269767225 0.02680356470195188 0.33816115738799396 0.34281791910404846 0.748538765911732 0.5022708799213428 0.5484851728141115 
Task122 0.006692914716700733 0.07797364685222717 0.21807702847079666 0.0235584613343573 0.7865368227176962 0.6743595233152696 0.6154828803489838 
Task123 0.012500392904949446 0.026707982814553905 0.05082883919010841 0.045762510036901724 0.9602323665420192 0.43801157481606784 0.5647651763683252 
Task124 0.015653382330008618 0.03433382427980976 0.005798129463338423 0.13543783493467867 0.40929417137382335 0.5828175970790697 0.5747354158429943 
Task125 0.004290691374351655 0.02643432363064623 0.022806713872989725 0.026087125736441247 0.49077443769605594 0.9803999905742045 0.834857165143817 
Task126 0.038165206877274656 0.3283579325454301 0.21556016298341538 0.35027734764531065 0.6782879087408626 0.9890512682139512 0.7888022518404096 
Task127 0.017559904944851802 0.008678411808413859 0.03925803976986991 0.022991439196168858 0.7238301165713067 0.8179995577788897 0.7366050339196337 
Task128 0.00013694538291883637 0.1195859268044336 0.2693758826587461 0.35024888528067966 0.7543316461850819 0.8457948839821465 0.5920672174671178 
Task129 0.1548857522474825 0.529131291342545 0.27136837263192504 0.0058879073192695955 0.3839107897769809 0.36124954663003167 0.5290481801212441 
Task130 0.10058294307156916 0.23203392125603148 0.5014144669802351 0.07525000276808502 0.41092656595179233 0.6061419356169041 0.8595647923737886 
Task131 0.0013863814300767363 0.035857921553025966 0.006389387159843413 0.04102506553638712 0.3371361934526785 0.4972645122681075 0.6209082661533563 
Task132 0.09761577736773148 0.1862868425426723 0.17388418905337458 0.1846387196890771 0.8750613839955721 0.8101839203727654 0.6700767254140715 
Task133 0.015413686654858184 0.0810934708263796 0.07847333332735397 0.08881878394209412 0.8770343976892099 0.7396793083607143 0.8551372369787045 
Task134 0.13814230655623783 0.23626097470787707 0.12003620214629422 0.3943771703382881 0.3430653003815421 0.8986096611279879 0.7320043042112305 
Task135 0.013543207772218402 0.08089136693635943 0.12450819669779518 0.03220520727078295 0.6261929334369163 0.46000671008091265 0.4159960698948742 
Task136 0.07521270884029076 0.13689395604252355 0.06098226327197473 0.11812469382170875 0.6784404720590697 0.7109754164007915 0.848723095653694 
Task137 0.022157046080535196 0.2244358240629629 0.1297344534795215 0.10272473446743528 0.33970612556553026 0.850113849728618 0.8046751906269507 
Task138 0.08607420919477712 0.007543674884382951 0.4901914512970914 0.11981261657678202 0.8002847507175359 0.6659768105128062 0.5455184535829687 
Task139 0.10649295928971311 0.21817290302642423 0.35483775568951076 0.04080576020335179 0.701804444324685 0.31696519481666807 0.4304096399261407 
Task140 0.07822797966568 0.021601738437019624 0.25220424664740315 0.3100546164199964 0.4347875740940449 0.4232966384425928 0.9193411771044544 
Task141 0.15757667648124166 0.23836491863416237 0.32004653591509324 0.09137997474705711 0.45171702413973625 0.7098234453379861 0.30851744688641397 
Task142 0.08115489648775327 0.12040440969451441 0.15846712881063876 0.15963583594232278 0.8872840353122253 0.5427291426738696 0.40726441392773083 
Task143 0.07179154611842195 0.17848006477075243 0.1405644656357581 0.06260554579059577 0.5899281047063725 0.5215421747540148 0.3168823743356647 
Task144 0.010667493179387843 0.17302425905484392 0.38134086499543857 0.044798837621863465 0.3597017469479784 0.9860544147006569 0.3061389020209309 
Task145 0.15394046325561422 0.12820050329829466 0.3380982739496679 0.2936454082469958 0.3297704889426244 0.6779694435898129 0.42075703603364745 
Task146 0.05815545329710012 0.06298327907947232 0.36722075914652674 0.05136168065020617 0.4385900909341845 0.4251749494128728 0.9233402386546994 
Task147 0.01342801839266511 0.03749467365282593 0.04768163430218407 0.06537450155496116 0.31239840202697444 0.6654357104055444 0.5480270210793139 
Task148 0.05778363668320084 0.09915057901718356 0.3506803706916663 0.059472132346487995 0.3859024791915454 0.43083472975687753 0.5244607993379992 
Task149 0.03583334456181021 0.15299642893335674 0.04473256894350484 0.16512691593934722 0.7226331054445658 0.3516789221573369 0.5351126135279017 
Task150 0.04631965674702459 0.10202353259603106 0.1164532232347895 0.10591446162545905 0.6385332996877661 0.5917137341707341 0.5034845570008166 
Task151 0.1045469476597428 0.4195686332273655 0.3528741049597966 0.11542886289833673 0.7082397034208353 0.782746100889625 0.922162644637291 
Task152 0.059657266385021085 0.7110134545904303 0.08006384400662273 0.12095150533533983 0.7262283456691084 0.9561859907768322 0.3137449135514385 
Task153 0.08717797272241343 0.2549776756102685 0.22349232975890965 0.09260146075771328 0.8875251521648184 0.5246706674163707 0.962385067825317 
Task154 0.06714154548519448 0.22523167901198857 0.21867970695053804 0.00547122207792741 0.9777754218454997 0.3150727137099502 0.865562867561573 
Task155 0.015473650083938697 0.03899590352838794 0.24119541586088286 0.5856558420327956 0.7840104716743648 0.7832106569735489 0.9205255574538176 
Task156 0.0339229603326098 0.003405495430473028 0.20495672859986971 0.5094178818422204 0.8429182417952017 0.35552407060805635 0.6176863721479491 
Task157 0.09842429704036 0.1503394027243064 0.4230320159711432 0.05537037947337099 0.5920675237005452 0.7497933597629222 0.7048781411625507 
Task158 0.008155225509965744 0.027283698285408234 0.1900239427110064 0.06782154660583493 0.4934775507210504 0.41697282898858257 0.4960507236978722 
Task159 0.04848720285779184 0.09679790513032778 0.250450251433012 0.08663610570035556 0.6544953624534603 0.7476978430579841 0.8964096404184898 
Task160 0.05687737300193391 0.14812174417594218 0.44759426506964 0.2602600623537894 0.49886312307043684 0.36545761077671335 0.553944801806269 
Task161 0.006125705745975548 0.29880481673982096 0.10047346891143996 0.18573470874493053 0.7831202112440552 0.8270393964568485 0.8046359277458857 
Task162 0.006137322209400274 0.020563996072831003 0.01830665559355135 0.017797744257818632 0.9684676730943955 0.4153585921719407 0.49808037299214314 
Task163 0.10025784088424343 0.34063570408671584 0.0929228222771049 0.1566509450529556 0.963405601337304 0.9469614063581222 0.5334757621712847 
Task164 0.05865430810508962 0.08547675943781438 0.08798973522653905 0.08634935331091728 0.7339930483719518 0.6132845094437086 0.7659063428888824 
Task165 0.014511091944450558 0.1958459087363283 0.03331147293874211 0.2100290046094236 0.5223731180389959 0.4363345684659103 0.973341284201859 
Task166 0.038089706210813895 0.2851889916281972 0.013115219140085314 0.08556828791503408 0.8861637433265499 0.9746071785845252 0.40858019549574653 
Task167 0.0376374446758358 0.12286780371535658 0.0429380029496942 0.038418035342546515 0.62963363035431 0.5636556332231462 0.7047049154983873 
Task168 0.03525216598789759 0.29219513416320086 0.06766856657035229 0.015865130970147353 0.7146294437226848 0.9173948406077415 0.7412949838009579 
Task169 0.027790296944649805 0.0081154060529318 0.12311552408078752 0.1405158666935748 0.33216071465591357 0.5516803212056536 0.751858413936372 
Task170 0.05600621855265214 0.18546342435872407 0.136532440500705 0.05468036095539365 0.844561377248543 0.7124727317711799 0.6475584533332541 
Task171 0.03398287802405563 0.17112073546716372 0.10754000031948713 0.23616846972569028 0.6091059296777309 0.5845171109454099 0.6884494776534439 
Task172 0.09920538800955726 0.3190231398480612 0.11763780849553829 0.41875176330421754 0.3651381059559977 0.7191074607154196 0.5161577577578282 
Task173 0.088131480568392 0.4899592884409955 0.08680306384072038 0.13582458499159325 0.7003696622720317 0.9769687142761949 0.9770239695534955 
Task174 0.020292665485081223 0.28341505007664364 0.16657327018801182 0.03540565780249144 0.8473807608351027 0.6752151108235618 0.6862440481868487 
Task175 0.001900534278938197 0.058276634832397485 0.004698109698973434 0.007160792358414014 0.9720073903998931 0.858336722078785 0.4893844474042967 
Task176 0.13524819751243639 0.2518138411848689 0.2316497232948884 0.20840815588322756 0.472198760372054 0.5909421190163286 0.36675058571157354 
Task177 0.012183200044782643 0.031004054376067708 0.07306490907510169 0.035846587055007054 0.6126028908123279 0.7261245486698137 0.8459933610519772 
Task178 9.085996616411771e-05 0.20248901976713726 0.07174702433322888 0.04975450810009551 0.8165588659325882 0.6541273834140416 0.6680938121210209 
Task179 0.0643739973441674 0.11706531265290948 0.10505761695608676 0.11270008432679758 0.7966824967733737 0.7218582258607693 0.33706224170389537 
Task180 0.014251894943578347 0.033457522022508186 0.032410410236355734 0.002041779944362493 0.9205971338566166 0.8749312454701179 0.9131853239053063 
Task181 0.08714802718450655 0.1944154755953569 0.06382178382897931 0.18519177437688034 0.9952497389224833 0.7916455567586892 0.3807015060639954 
Task182 0.016029953512600125 0.22282782584869448 0.16474048253805723 0.011727356558747343 0.5817639873248256 0.5851098383403694 0.6358089677054986 
Task183 0.011873865628610272 0.037292093419196565 0.028025519536523904 0.025027557890405564 0.4028647101595706 0.6678288896054083 0.8629096440757953 
Task184 0.10499397834562217 0.10254361826350536 0.34659514867965524 0.14297379530872992 0.34398548873141366 0.8673502272658451 0.36105756069448236 
Task185 0.04722138668744238 0.034142523302257116 0.035021968523529755 0.145347365864532 0.8941735931455674 0.6754909031830904 0.572608984144547 
Task186 0.060650937448704575 0.23466230538179633 0.31410847930149743 0.019649845152019372 0.7520827176379845 0.7269496662430011 0.5572922264906328 
Task187 0.03808966559032442 0.0464737305747074 0.029576880348549273 0.11199261547443659 0.4643417200652276 0.9610120860274196 0.8845497053340226 
Task188 0.0515775539497526 0.07433244097261874 0.06743193639357203 0.26160988393829054 0.7910573558303529 0.646577156621148 0.896833263368936 
Task189 0.05897040731257841 0.05500839218288982 0.2055218822253624 0.2365489056293217 0.647696841447434 0.7418460754962732 0.8381748859626115 
Task190 0.12325783758613895 0.03499261946473257 0.5588380574161804 0.2401525047361357 0.8904955576777343 0.738891274195306 0.8346578997686873 
Task191 0.0045183919441718935 0.08547161802821236 0.5903096973258153 0.15693717291931825 0.5493560941563785 0.38211190255125427 0.9357495173233992 
Task192 0.01560930045418596 0.007869625240397042 0.04475848776492249 0.058416931341465445 0.4131798404891102 0.43056832045556925 0.9744614211383946 
Task193 0.006427601707110427 0.09726562372736658 0.02523993304375091 0.009905888717145952 0.488852539999051 0.32362458183746917 0.9317723846363275 
Task194 0.007593781688187274 0.009134946819639573 0.011655469099030478 0.012453419581687076 0.7119261631116073 0.7300688786961762 0.6951828625049971 
Task195 0.009279157315984278 0.08994882425044481 0.15469179499820562 0.008404804363877387 0.5373814774999088 0.7379080600585353 0.45930249267366 
Task196 0.050804508884159674 0.19308663470569476 0.10837164525874557 0.23276821372170897 0.3779468408787163 0.8081873721116337 0.7018382770497866 
Task197 0.013924505639853072 0.3437834278886586 0.26270760034817964 0.0772368124110175 0.648502917345106 0.4367117479711503 0.48184622823405765 
Task198 0.060588188769606824 0.22267828421508076 0.047008485385475196 0.12309862487802987 0.4729860551711541 0.5948795157629172 0.7431769590845763 
Task199 0.006761256237962324 0.03960739170466482 0.031263625066662956 0.00860052614888251 0.5071140990995735 0.6535239474415404 0.9673109455473103 
