Task0 0.02124720650974756 0.04177143090613878 0.01115392417761037 0.04972747146787937 0.731019669309075 0.47966891806359707 0.8268396680704397 
Task1 0.0885562897345631 0.23926518229977176 0.06690003233251156 0.2613053342565116 0.5175466801672133 0.8562108685419607 0.6657796193786543 
Task2 0.033621474761405305 0.06372725848182581 0.07329060491896988 0.04126379399432581 0.37950462451238964 0.45429430932388554 0.3884424959178562 
Task3 0.0008314367887418423 0.27783208447006297 0.21733250925686284 0.1880050364059298 0.6978698411999438 0.35801341195119296 0.3828573740420628 
Task4 0.10623272060990122 0.23464712998927295 0.1865335384592257 0.1657438130165785 0.8173740295470406 0.6025151197613037 0.9892481753231743 
Task5 0.06374013456815683 0.16789005041741067 0.14739229380332336 0.1588567562272799 0.9307500166573182 0.44186155409100947 0.6954156843967844 
Task6 0.07755853174485455 0.3510953903240857 0.23831947144802437 0.08170942205544184 0.6390905190265558 0.8354561563389313 0.5527025574212359 
Task7 0.09106043223775963 0.12421615829691277 0.06442459887693043 0.2366556959094729 0.492273283872226 0.7470290159390036 0.7611764708582118 
Task8 0.15112245627801196 0.460416271989209 0.1492944180616639 0.18144250108593243 0.5536125891242616 0.4429366349207666 0.34307207717976884 
Task9 0.04600788585634508 0.049139728870218655 0.4763015372301138 0.27536216366316313 0.5940099145330067 0.4350685789827747 0.9888901201368905 
Task10 0.05443849668504226 0.2056361355161698 0.0707770608945045 0.36067812718563513 0.43797183458254485 0.8483493841608614 0.34828008698811275 
Task11 0.01813112696236981 0.07961011410265424 0.20859304744269935 0.031554844731091145 0.7082433807473474 0.7945212677347901 0.4654735831393233 
Task12 0.13885040220930947 0.28671798383061897 0.19607949071191072 0.08035320201322102 0.8736167915357149 0.552405913312876 0.9403441128950489 
Task13 0.03263291900274547 0.1513171582026389 0.0554282565984767 0.054767880925334134 0.4534043477714631 0.44268823443555755 0.9885792771099606 
Task14 0.011267439890531068 0.09437205675957905 0.016684127010613316 0.10960117408756767 0.994253262857095 0.740128238505241 0.9304282689637635 
Task15 0.01234725495091171 0.02672698042047507 0.1029855063296631 0.4171178354734189 0.5395711226553094 0.4394889897459199 0.596667161164973 
Task16 0.053222840118919756 0.051673832693025605 0.08760535129856148 0.10909237788734352 0.8048942141916051 0.6667048728957985 0.37959307838845063 
Task17 0.030889200985653537 0.17603578690081198 0.19243809803783374 0.00510082971797981 0.32730769317562297 0.66866194399267 0.8217072890862478 
Task18 0.11071850800285003 0.312753999031986 0.3438622028794285 0.17852235511034736 0.9194760123553261 0.6236945185491973 0.5511571415288525 
Task19 0.03886647258252655 0.30161901312209854 0.11896493850332572 0.26891914594279653 0.6390433035648642 0.6994783399711528 0.32379969481634 
Task20 0.020896887390289474 0.04064471640251094 0.12470943695886665 0.06285371845006665 0.7761430043285349 0.49306825345604954 0.8281194294021164 
Task21 0.11035938607586555 0.3946773666167661 0.1710700094075607 0.18466428716447703 0.767419983977607 0.8680077534998651 0.48813666041838627 
Task22 0.08699599065479163 0.39502698777661693 0.08974432658288892 0.05350873052522746 0.9365890540201809 0.9862727909038553 0.5811215829051831 
Task23 0.0036188425831092013 0.0017936228712532908 0.009806378557037686 0.013551829220747814 0.5747456486027507 0.980710477954946 0.5134436956766932 
Task24 0.09532704623165957 0.4354008367511497 0.3218990083253862 0.08423482134068458 0.6980063620193095 0.6308875893242549 0.7622683410054107 
Task25 0.007596467152301013 0.020029680593018226 0.029395699659423534 0.009245076510054047 0.4654128239366929 0.9926927911411183 0.8369159978796177 
Task26 0.03785722100844892 0.313094723334178 0.029145674975974204 0.023577596925722553 0.584236342186439 0.9467050722555017 0.3233567347171069 
Task27 0.13489737888264344 0.0771947838276369 0.1868004788048817 0.29311794562054116 0.3907218199522966 0.8051827042143678 0.837672498245968 
Task28 0.0014450216079173743 0.021066750768728455 0.06280178414247 0.06351629548854561 0.9990876094347474 0.7314363595585964 0.4661287018090824 
Task29 0.03462008837783962 0.04207854908742364 0.060948725043132146 0.05433340855268394 0.4668318048706464 0.3869588157573774 0.6260631192486101 
Task30 0.0564972058472875 0.5387982341844622 0.2517670434942868 0.10769480085458588 0.9843146078176308 0.3804635515797325 0.868221001636962 
Task31 0.02175652539429272 0.07304070271230553 0.15218245119172388 0.16150809036367453 0.9784053708360718 0.8254108556889372 0.47945576505310994 
Task32 0.030691163096842455 0.22293134091659564 0.46606997049669546 0.11303597503200938 0.571045384515428 0.8451423655225274 0.976434751355322 
Task33 0.08045560343676776 0.46092473906718195 0.1369829693237068 0.2263020031433698 0.45911718134388513 0.8599970775536876 0.7148366302002619 
Task34 0.09193271585177917 0.34879683880213697 0.4478016545353857 0.10514337023828746 0.3148740895626418 0.9124437857588623 0.5159335474166893 
Task35 0.04599132218639499 0.12100821766643496 0.0971948153522849 0.04283724141295808 0.4725479053700027 0.5712752719510108 0.49574287443886944 
Task36 0.012770715239093034 0.074664271327429 0.008896877574722552 0.07944247651490399 0.4128678848061973 0.564707193852553 0.8221423931923428 
Task37 0.06243235099194314 0.1011239754225604 0.1850026256798375 0.07314265397605796 0.9655514061860406 0.33021226135774845 0.4874742421227591 
Task38 0.03344227572280802 0.12871259718796474 0.4481346513162099 0.3090848503025976 0.39656013085921504 0.9809505071848938 0.7669229340401732 
Task39 0.0027451989657587567 0.015146776131997122 0.0004189907001272609 0.020057514422456863 0.5471596240455513 0.4361849209399643 0.49762430319078643 
Task40 0.14006625932383415 0.49725198899949913 0.2993020175849932 0.039348107511600054 0.5436784550646535 0.602327210275371 0.7450763137816174 
Task41 0.07965292733496304 0.14434818544281436 0.12209763242872211 0.24094349826921085 0.995587174387067 0.3386515233326261 0.9501814541056248 
Task42 0.13292552467946786 0.3422040387144976 0.2696886210017414 0.12774750724244413 0.3057234372606586 0.5839117245948807 0.961086458181122 
Task43 0.06542504308867023 0.16546205312002338 0.09723117462643255 0.19914400281888514 0.40438896992087303 0.3456301269915325 0.8044798078527147 
Task44 0.016939714464876913 0.3527050329482433 0.31350969367735554 0.08687470788244711 0.8780266785153779 0.7652661705304367 0.5269343393726746 
Task45 0.003085979386643053 0.1406952068421795 0.016493093550065858 0.18551402112115367 0.6087665518658143 0.3089047787641708 0.3338383359279319 
Task46 0.11990225932012481 0.23180656599019403 0.14226704821392055 0.2741078245582951 0.30601638113945046 0.5138320074739111 0.6127333220191391 
Task47 0.008634028703766897 0.011585183503880239 0.012664963210983123 0.012412608876526786 0.9852561250439733 0.7552327534833109 0.6663174457465799 
Task48 0.07565338264665498 0.1767922867936466 0.10780119456689374 0.05258799294936926 0.6612938108885063 0.5272254268351492 0.8041394149606536 
Task49 0.04314800034764691 0.14513043173467724 0.4152018860957076 0.18899293163737768 0.9620644969908043 0.8136126442889393 0.8110382418513886 
Task50 0.002223385542447836 0.005031773310912563 0.003025095758982982 0.005635166009656862 0.7666842269092785 0.5340162910401374 0.4516984250750579 
Task51 0.006033951451913852 0.025713426029707994 0.03187927304689774 0.05435723688475478 0.44187707838255424 0.8358226869484566 0.6585394042019613 
Task52 0.1634836854216605 0.2803473634080906 0.46373932692706116 0.06270813669295126 0.836920522877552 0.9711356069254347 0.8074339593103035 
Task53 0.006666474274547911 0.01568575999017802 0.4068884389254027 0.4208940073931131 0.575334827197241 0.7317327057191703 0.8776827255012938 
Task54 0.01330685941317646 0.40559551995705817 0.20347969462990975 0.06694693865536937 0.6908148591842912 0.3966281848791755 0.3667553209909086 
Task55 0.19194224242437893 0.15564325062575748 0.41857714704465576 0.21927280664262694 0.49060744605044154 0.8135746956397896 0.626644532211107 
Task56 0.13171592998839096 0.247464067170632 0.40000340330408496 0.15994995511849439 0.6572481615914598 0.9229036522169083 0.8357359291342474 
Task57 0.006528214611506735 0.009197380199881753 0.004710641103658208 0.012665938015888034 0.3058469306161853 0.9987948209631847 0.7126931407876536 
Task58 0.18494788929822456 0.3640418344835602 0.3558556293672738 0.08027036258169325 0.6198838933059748 0.42482127022012844 0.7706135106054102 
Task59 0.09369410142826366 0.3808608672519437 0.22075073904724626 0.015157484209032285 0.49827388549597457 0.3426148920952553 0.605820008873424 
Task60 0.011106548741981985 0.34107893060306615 0.25219157583937185 0.33115630007361996 0.4851475790790167 0.7253572133754116 0.7573750842460528 
Task61 0.02392079309105082 0.052141787538611276 0.07330283819856714 0.026429353347520473 0.7808313012337493 0.6386476360442789 0.9221786890356813 
Task62 0.0006215477747935 0.0017090685635350684 0.0020920227140981415 0.0007528200387076618 0.9534599610636203 0.5464620916883977 0.43969229794125975 
Task63 0.08672599754044284 0.42083824536911296 0.25363796600086796 0.16347217879205853 0.6360171010204498 0.6247887253616591 0.9207194853718974 
Task64 0.10552623593228895 0.13199729631081908 0.38622188688568515 0.2680840531253827 0.591648330675303 0.6188316103511654 0.8842420051142781 
Task65 0.062474468819938844 0.030198336252396613 0.015292138876634236 0.3337024936178104 0.9692670737526925 0.932111837231242 0.855602795996667 
Task66 0.007977017474067219 0.33779082443877073 0.376084754703979 0.24562186943674783 0.8046915457531445 0.9175847673726119 0.9900829250562118 
Task67 0.022026396786612595 0.03996304486601425 0.02799186906079768 0.0655454514507201 0.8950936437323367 0.840430423839263 0.7132173042132869 
Task68 0.002632219773770012 0.08814270434340325 0.051577684293302714 0.008844752058027993 0.34907873779755094 0.6333439530219094 0.9248248900155351 
Task69 0.0011596631766675415 0.17386345427139055 0.12276226896205018 0.23305336191651127 0.7632875755347701 0.8494073884656017 0.9701180725291585 
Task70 0.05812372772370336 0.20759150642895172 0.2378953983078479 0.19756268676359456 0.5778553733331421 0.7604256034967952 0.9867630062272745 
Task71 0.04320120688929072 0.052517686709271455 0.09419041085603314 0.4227107990536092 0.34310570682113684 0.4588059616450524 0.8382186714623958 
Task72 0.10935844494817927 0.23889410052559099 0.21305864017174586 0.15152707323976788 0.5728468416786218 0.4763172576606873 0.7534985680571582 
Task73 0.053131686285157395 0.13640728513275385 0.09801691303113885 0.13131832541049704 0.7697891906426093 0.859633491176444 0.702714666387592 
Task74 0.0029349682611028156 0.03344062960922371 0.015261642079617476 0.03881115190600767 0.45709626653939583 0.9327702085844891 0.8106555533845721 
Task75 0.025764560103193144 0.2240364309973496 0.42055402967488054 0.2827491181006201 0.5229575088391909 0.6191566769721875 0.5342393200200193 
Task76 0.018996426795350678 0.1632736182469332 0.16015084766338689 0.028577190745228888 0.7888705580713062 0.6743532279842963 0.7772447985992079 
Task77 0.07102673624528888 0.13547830354093154 0.13480126277649349 0.05340337083063785 0.5909162683447742 0.697265572990754 0.4897547721530602 
Task78 0.010400510791850172 0.16566210525697964 0.011057060919659212 0.07630206196973663 0.3597550800250869 0.3119251022375687 0.474089513839805 
Task79 0.10620981434667312 0.3036219431913816 0.048773640218203615 0.2232644633876097 0.6307466086701289 0.9897979148713014 0.7444608900133934 
Task80 0.06051146857704887 0.2552310855569608 0.23130825593403753 0.04739588761875376 0.6705635247445225 0.47822890498458287 0.9476467785211629 
Task81 0.0009918705102173388 0.010664261268206632 0.01230284583963846 0.039372937111017525 0.3854924419444544 0.42579660158284804 0.9728284200528428 
Task82 0.009948854977086797 0.04385323296338122 0.015076497855651311 0.06570668047758071 0.44703416166123944 0.7670791882035288 0.9216717232218303 
Task83 0.04988113827908946 0.2694252509412463 0.26319907873686627 0.23195545399056974 0.31223714107263983 0.6590307286625197 0.7696144368908748 
Task84 0.15615931002410502 0.12963889750690513 0.29162218104678905 0.32051269528901405 0.7750528094256491 0.4577386146877632 0.3062851229612413 
Task85 0.07694864305889343 0.08890946824625191 0.4036793017040772 0.05913108351189802 0.4626214718024207 0.6099065838003277 0.6328872993701165 
Task86 0.007029674806965917 0.090561873062033 0.5049348534520955 0.22840206295686996 0.832681946939007 0.6614389053248311 0.8725884818305567 
Task87 0.0032602257575126774 0.0025298336047444867 0.018229805854881088 0.020583164046566713 0.4545170204134592 0.6361093765130004 0.5258601044717807 
Task88 0.009591881760419984 0.0208771076388347 0.009180198029804292 0.01866388202635628 0.709339085472745 0.3474183338057718 0.8714258725953841 
Task89 0.07091431821040668 0.45614691996136986 0.09212276172644604 0.1289847462554509 0.8145181346705022 0.6029235401581982 0.7607169410991375 
Task90 0.010102180034794414 0.021292273041576427 0.061033171453204284 0.01225385921197328 0.572009746487929 0.7622267870769 0.3007310174339539 
Task91 0.0398708910869533 0.10366281958932502 0.018052222260030913 0.12607547195391747 0.6713972040674412 0.8685507917353115 0.8082762476613672 
Task92 0.03565310826134518 0.08121910271520176 0.25055199281362817 0.21058152292237386 0.9806369759193769 0.6116312743309463 0.6796975919201957 
Task93 0.03091144764610106 0.02657321798249869 0.06343094672970045 0.08501919502988436 0.87654394560245 0.926324804757457 0.4899482071212148 
Task94 0.047184501532140904 0.07295362940837274 0.03126718514454836 0.21802101631849657 0.46727079528386783 0.576254499642121 0.9940868303595152 
Task95 0.003601910690866303 0.01943539879384358 0.017733416721308286 0.005522238180289528 0.5565252230702367 0.5974865202322984 0.31196362897997443 
Task96 0.044074280303014475 0.1032281276976614 0.08301611319855987 0.04744937053598742 0.6304870906282272 0.9623758971359337 0.34622993031675675 
Task97 0.11864592848928447 0.17241331161657636 0.161218298494041 0.1422439852688919 0.9165753104675363 0.9307158373557776 0.606977511126841 
Task98 0.009514112627392848 0.03030531448327309 0.138771332271282 0.14529650669518943 0.9307416132228175 0.9361949770405236 0.5744833951166737 
Task99 0.1001427664023487 0.0020570930011400736 0.09596837998439113 0.6303955739074483 0.8318410123179547 0.43499528517560804 0.6949639481228023 
Task100 0.042977088721544134 0.12378268241602793 0.12926087549638757 0.10644231383763668 0.3914547490068672 0.684588721106432 0.8099278098715217 
Task101 0.0036491305302108674 0.15164942256244532 0.47411042252975183 0.09380453919136413 0.6178750739753494 0.6978530671207851 0.9183008715757197 
Task102 0.09879170766437122 0.3236222902097799 0.08652528259724553 0.22927746647512107 0.8472646947699392 0.5733458352361132 0.8502069340500789 
Task103 0.04520517445447133 0.18122487789456998 0.07129255222131733 0.08771894833276318 0.6131740633937898 0.6101456302978925 0.32702355220442053 
Task104 0.0004712084612384103 0.033828110733867094 0.01074688369618411 0.03365844023129358 0.5722477093695197 0.5043430326164295 0.5742127968982212 
Task105 0.02086520307364521 0.1354938319911906 0.2661237165179885 0.22460059519019857 0.6198216804240235 0.5786257326814943 0.8488570380595302 
Task106 0.002524803537144304 0.03807242461202056 0.02531457805990444 0.002077930433610864 0.5406545238381046 0.975195612211923 0.841070508662217 
Task107 0.02036885028530415 0.05849595665775469 0.07417368481712905 0.00961456057591608 0.9156200804966426 0.31456608587003143 0.5158793891009362 
Task108 0.0011759404677608388 0.008280502679662318 0.02803340203613142 0.017451837496324514 0.6128926975124809 0.8979689141767029 0.39851507708700173 
Task109 0.07142058878975299 0.15328843120615807 0.4470561200634491 0.07807634078968341 0.897339849025534 0.6502174804167271 0.6620253557909948 
Task110 0.014645626688547348 0.015011459274380976 0.039643667348990975 0.050913061299375575 0.6287956264921266 0.6661767576094468 0.42688848869000706 
Task111 0.0065802048264578345 0.1406909759649645 0.1139068960980684 0.016509387197619265 0.5357103256701002 0.791473682321596 0.564951677193338 
Task112 0.014531100630204135 0.1710634568605882 0.12671845727698586 0.010669380215809363 0.5688115947834647 0.5908917803084338 0.7856460340463333 
Task113 0.029401519810774275 0.2674085847822403 0.1365457272110358 0.26384340100354603 0.34442288079866346 0.45218012060887525 0.6817603739432695 
Task114 0.01042602960985347 0.1501065515699759 0.03357256643748332 0.03499717771791776 0.5472241738022159 0.4035141672248382 0.48576317130927643 
Task115 0.0754465179329856 0.16385340463813358 0.2765645952888816 0.4472701104437779 0.5263846990006446 0.3546753357203309 0.6897401350676688 
Task116 0.006210374344738289 0.0048571826057897255 0.08375858528632509 0.2651783329472988 0.34608930988270226 0.694949757810566 0.8276499434360813 
Task117 0.043547710422754196 0.2278460662199017 0.10470670119671087 0.15756006612067835 0.9206950186021505 0.41968147741313555 0.9868436832974175 
Task118 0.036575784082722995 0.30366444114559776 0.5343820131322444 0.07189513406107165 0.5427052734932036 0.5373135068081012 0.5537453675125913 
Task119 0.12611975752936117 0.07564792213950305 0.357383818934885 0.4210197470986874 0.6975781334513569 0.4849120039829753 0.45613723390512356 
Task120 0.022591856008837428 0.28911277822825887 0.1188772277338981 0.14781930127238682 0.7699632328539541 0.562540160304173 0.3375774498429885 
Task121 0.0016175565478898312 0.012944939834915596 0.013275676692969553 0.016360152672615015 0.511551816510511 0.8355038896571736 0.8721032713470689 
Task122 0.034143956612118546 0.025499520632415385 0.19644266631757215 0.15444994412683657 0.6363353354360177 0.9790449361955957 0.4348767955877646 
Task123 0.012534034723590123 0.033244219669515344 0.030375577165751327 0.02359883011240329 0.7111927738278225 0.7874536180986513 0.9125472599653492 
Task124 0.004864401950181451 0.10127147595929174 0.11698049670937803 0.004779789855828323 0.4313841800437139 0.6302105525691979 0.3959219032181266 
Task125 0.08854864620255913 0.0936837905437 0.1629295508969308 0.15918570876656912 0.7605641061610224 0.39213677677965775 0.6489555015595543 
Task126 0.03184997944486131 0.03998510888799166 0.09465411799356392 0.09499071899880791 0.69865112314683 0.9851633998659306 0.48005775421718594 
Task127 0.010151947346000547 0.06085145461275538 0.002678177970424218 0.03057196543827399 0.7210833729175818 0.4973637629328056 0.779924575681366 
Task128 0.0270243326483847 0.02007229641291866 0.019895080909353116 0.14133121653992853 0.7518882099975424 0.3780921091714629 0.9359172033366341 
Task129 0.03898971778068282 0.2522135006987037 0.32888256317709963 0.1884298247554783 0.8622546663418307 0.4641509607083724 0.46977536721419033 
Task130 0.11105605097137879 0.15750517260899774 0.1292435411124687 0.1860639988445751 0.7572852286692533 0.83218243925766 0.9525863404829784 
Task131 0.03294132814842134 0.08570071758771933 0.1259233471208096 0.024592823717964164 0.4731626543770075 0.4150323996962708 0.6761650508495842 
Task132 0.0018829519120715024 0.006244507695661459 0.005982000343199646 0.004284178533704657 0.8085187422482589 0.7238984198595586 0.8705039544065347 
Task133 0.02248859537673638 0.034570533851145564 0.019270708532970506 0.03760459409998718 0.46366954492631784 0.6464425401699827 0.3566735001562965 
Task134 0.09374134714082756 0.10030804781724437 0.22585124338279688 0.29736467741615835 0.7521627948697086 0.444229421904556 0.3820502280274627 
Task135 0.010450399878084778 0.0037730935872662113 0.018850203504568088 0.020549224898609723 0.7064597131945387 0.7329052510138072 0.8033183762489127 
Task136 0.07213648326305622 0.10529459308319504 0.26462514959210537 0.16622376619758683 0.9948721722426859 0.7588524925399994 0.6201176047081451 
Task137 0.06424512899628045 0.19853858299770183 0.288204920238897 0.4340393370140995 0.8956810338734831 0.5178521638914614 0.4713423331287784 
Task138 0.12308790519364844 0.29452947746677627 0.07733976046674558 0.24637990253847752 0.8343054633637836 0.8338405779870299 0.7507134494811477 
Task139 0.002651387071968525 0.06923051592679656 0.06226719910491197 0.14307542048263944 0.30656955708943995 0.4270371156265691 0.9611167212945455 
Task140 0.019949118478717873 0.30401278938833254 0.016781814179631763 0.39943245920607834 0.642411069686736 0.7889222946741155 0.9235080674337681 
Task141 0.06140357875403451 0.2938046949339799 0.013334362530396968 0.3936916528696874 0.9559854235627954 0.7683494747372561 0.5865545606900354 
Task142 0.014086584013966806 0.4396460274969051 0.06563567276420823 0.023575047842028508 0.31556388362911997 0.35096563497406974 0.383296416820186 
Task143 0.09307354895283586 0.30710791523765785 0.07477185112464489 0.4372944030054494 0.44921183731876657 0.5121676374842778 0.691670045945568 
Task144 0.058200204347933354 0.08529484787041157 0.09921747814257177 0.051664060577746924 0.5835867613201394 0.5388088795331439 0.35337902313318764 
Task145 0.04830956596448656 0.1335724094871006 0.05881473043549596 0.12020868411522535 0.7942310657349385 0.6870005738562331 0.8434656802309981 
Task146 0.04664103960386386 0.07291516905133347 0.019096486230620845 0.14742728222230223 0.4294013698839174 0.5603024850575105 0.703593958061236 
Task147 0.04542478739935298 0.1237960785494065 0.12544918144586575 0.03213887117109711 0.5876178937631689 0.885687941271049 0.4409460417551509 
Task148 0.12442577632887805 0.06609925293340246 0.278893431735248 0.42381667790778854 0.6016835631862497 0.31946362151042434 0.3455328043828318 
Task149 0.012985619163742733 0.03884967065976683 0.03504306241866693 0.005778364717948414 0.5704256512177779 0.31232923518590217 0.7790459791152186 
Task150 0.02069082588296986 0.09879728007937004 0.004261352512932458 0.6525821313506298 0.5559319140280677 0.5661848678870023 0.6918467032283264 
Task151 0.009062756307251906 0.20779128703336788 0.15070805771825332 0.35020342712025737 0.7873723178870748 0.5300414091096355 0.808784118137468 
Task152 0.0013301145264849447 0.09990108303115305 0.054856519514268925 0.07819876314435405 0.4195355040612874 0.8355033293584655 0.5646285780987761 
Task153 0.021159696452142787 0.07927981280022517 0.05762833857281453 0.16355384280370155 0.5720551720779254 0.6670986913040866 0.6234365491300924 
Task154 0.029337033439674805 0.01848552033148343 0.16738386364044955 0.1659577369855572 0.9554965301078449 0.9619723835346536 0.5296628984921274 
Task155 0.03712837200093616 0.33194628187781644 0.05607224772695444 0.021354252719005755 0.7834768390743876 0.9870283218967453 0.4890728545168952 
Task156 0.0394137942494803 0.042842898653520096 0.20897599393469463 0.04420699630221342 0.3616834854669887 0.6998755684777114 0.9698714530166179 
Task157 0.05464178309748561 0.17046647473528032 0.2765965420263606 0.18817750897556576 0.3074208848009483 0.5071481389569314 0.7246909787146956 
Task158 0.04454787428046639 0.09967122706814492 0.09223888012319358 0.07593415188721549 0.8536277969813273 0.6640994385593826 0.9303372763530349 
Task159 0.03864888303977477 0.34628351030931653 0.3175118611144859 0.14953005746091705 0.3299807498769598 0.777804684964208 0.9623515320845957 
Task160 0.04837415547140826 0.27533209562974503 0.03217660101100517 0.034505813524791915 0.8458096267148978 0.3089008651199679 0.7308941428081681 
Task161 0.004589103700870419 0.009985129751954565 0.011684779280680816 0.02136892957707951 0.9297033428862411 0.49557898370661374 0.3919768354471449 
Task162 0.004387351082329589 0.20396756951112763 0.3819919851489114 0.19533941477060868 0.7226504363653917 0.8949310116680729 0.54682035531885 
Task163 0.04790421364276491 0.35524466779847713 0.09349830988724725 0.3389105192428738 0.7522062606656197 0.4160649171176614 0.7308773531766897 
Task164 0.10556594991211772 0.032402010518103375 0.18790479998455425 0.41417353976289617 0.7278981459232821 0.6913121202492029 0.8818785683555244 
Task165 0.07090204856660852 0.2610400083050652 0.3124099070959463 0.22576869513390185 0.3141269509783605 0.3414580285099621 0.3449688677177336 
Task166 0.052070415423277526 0.00636867134299249 0.13093684779530015 0.08575501236988797 0.6632796802694584 0.6428832065887533 0.48802266058238714 
Task167 0.025021937845720207 0.040559558181137254 0.003319684758064861 0.07205265518940433 0.9554716997717954 0.8769087208945445 0.9880246393145282 
Task168 0.01885972209330184 0.8360557555142794 0.02599056054347698 0.02191734208180548 0.4228510663641859 0.5114553181695807 0.7623799698441538 
Task169 0.0036747646685201356 0.10253443903546544 0.053352491413504295 0.07240795596241542 0.8559894418309286 0.4585611078538003 0.9275960101511036 
Task170 0.0158525567451955 0.12706298098218816 0.20106898304948104 0.1072128436949962 0.5597714282409099 0.43807804241866205 0.4907381072363871 
Task171 0.11261865594490317 0.07997753970977851 0.3913793365788772 0.3166921237839748 0.7922333337504484 0.42712554992470597 0.8380593758543635 
Task172 0.03329455370727291 0.008284851013162791 0.16734912029332136 0.10012708959467373 0.6931345552274268 0.3244076680855053 0.7502353520803631 
Task173 0.0550391074335408 0.24099825177371736 0.1829931423804418 0.11208938107486292 0.3947788081212812 0.9767829114234774 0.6531899701819806 
Task174 0.010742510049342395 0.029045826612231068 0.05137391957776394 0.05370664708559578 0.8886561029250764 0.6305486875223119 0.33205454930003814 
Task175 0.07035547241541021 0.2610664572153348 0.18688951349573402 0.15094230693688268 0.8942747178320818 0.424323571260899 0.453055089578118 
Task176 0.07851697779093608 0.05453279459591486 0.16684120601247623 0.11911087463670952 0.6474171204771959 0.7503571471616881 0.9852292370280817 
Task177 0.02144177979581472 0.3565335533841505 0.1679940278196427 0.3790977386686912 0.8745816097906873 0.5190292297278178 0.5364972757123843 
Task178 0.10507154900232124 0.3838962508080456 0.23792901364146046 0.264543750053329 0.9797571587645182 0.5839044436696117 0.4186625294485701 
Task179 0.00020219915574110558 0.12871561282036786 0.1416373613370888 0.07255578469865616 0.9875791001336327 0.9508482597448127 0.769617695869956 
Task180 0.00954359854622772 0.011030135620131219 0.00972293821664349 0.02732854597165186 0.6609413237687316 0.8487616234473505 0.5742179238106871 
Task181 0.0035802395135736066 0.05710075949483912 0.005137058123952014 0.03129751528907847 0.8705501557772208 0.6134948219497973 0.5571576109918415 
Task182 0.01182386969993368 0.13197676549592782 0.14484053937979116 0.05837166918315135 0.9658745830104407 0.6322253630842598 0.8202628341722142 
Task183 0.07553324383539485 0.1178307065543958 0.08078989073545838 0.2618956727607509 0.9448756510432756 0.7241186576097418 0.9215131515491493 
Task184 0.011418153859269534 0.04449782534913916 0.027074777954756324 0.005947631703215477 0.5024828366925699 0.6239004926545992 0.6389576752956498 
Task185 0.023606281100857565 0.14661438049832998 0.40986571072088596 0.0007355105863649049 0.42279391377052566 0.6154538837191921 0.5321836455589877 
Task186 0.040890497226902744 0.08089588418643656 0.03157183947063075 0.13333631450566727 0.9958322655522143 0.8343795765814683 0.45494726854012907 
Task187 0.07909732874916285 0.39421293701602833 0.13684970490265258 0.15161480775144365 0.9134895105650767 0.6111967080460716 0.5940338262583185 
Task188 0.024032518586673077 0.04374192107559126 0.020167524267679992 0.03755208729107543 0.8942747098929043 0.5400408357006425 0.591922595677211 
Task189 0.04559254052984223 5.0773161217632726e-05 0.3631107378679632 0.30886745035656016 0.8623129677791761 0.7309467166453255 0.889483604348775 
Task190 0.10413602034118992 0.011712131681635539 0.4249222941463486 0.15634446706398566 0.8372728796805926 0.8675930880399398 0.8877753092778844 
Task191 0.0029562548958882683 0.04941488812432319 0.00095901070445462 0.03985244670108735 0.6132303439210074 0.31593260601278383 0.4656406985429175 
Task192 0.07386449877039672 0.14454965374644083 0.2541344514771617 0.31476661533574335 0.6980609431984937 0.7135297832847944 0.3858588369579199 
Task193 0.0011507293755911837 0.0015849919655768776 0.0012727421750655806 0.00231414184878874 0.4063139770336796 0.7294014394571684 0.6650381587570884 
Task194 0.005617080890373093 0.13979971347909964 0.18758491639808875 0.042535993925251814 0.925951825317856 0.5867267736344344 0.6675658792738228 
Task195 0.023214479811141078 0.07804570082602928 0.40683685403121866 0.12479674924878155 0.819519783421377 0.9299610715810922 0.8626484988392369 
Task196 0.012998294767236363 0.06960768805430285 0.3538447538415807 0.22142517165173456 0.8901650811559438 0.577850041413337 0.9528926163406872 
Task197 0.0010493565499421072 0.023832713885575302 0.030622523515068053 0.017502645481284364 0.9837068743813895 0.8569025230234844 0.43718507044741195 
Task198 0.006222832234787724 0.01571779971458481 0.005134889677745937 0.022607866951275143 0.8620271161015522 0.5077907340003024 0.5766329527858866 
Task199 0.09471242962322932 0.3354529569895101 0.21992460178396347 0.098614565680427 0.8724527947437191 0.6426670544919273 0.6665147416698147 
