Task0 0.06773391992136156 0.06404871319787929 0.1338789170464038 0.25635949609837766 0.4747272156031095 0.5242520703940713 0.3653529804160657 
Task1 0.03145537722441651 0.07891676230977127 0.07439133639246572 0.08254221753348429 0.6771430181935142 0.7801330772516467 0.3450585377215724 
Task2 0.033610266235907654 0.061611186134196264 0.09433132801440763 0.13647727070973079 0.5565063940756654 0.6357534468381904 0.35891141879431415 
Task3 0.10669430642190987 0.25079296374506604 0.14326590857332105 0.2667277758546479 0.7083144133695642 0.3364894912235186 0.7792326888045367 
Task4 0.011541480506699595 0.054491951231482094 0.05720288870215495 0.028892213844566056 0.523052813707913 0.6597023857341934 0.9027918370387087 
Task5 0.12822560100585373 0.2281267683039498 0.23440825135128499 0.22732746771112874 0.33591372047638046 0.8820547670512049 0.9325796644911708 
Task6 0.04322316143899433 0.6052100396841333 0.20506477963947584 0.05627075088428442 0.9996456621884056 0.8464844521558303 0.6034963681921308 
Task7 0.049930684141792456 0.18682675515724542 0.14959432760242153 0.09983008001261115 0.9113626084468796 0.41931724278237703 0.9871605405262456 
Task8 0.018894666322305263 0.1327010928369346 0.07639221386813487 0.1285402303201627 0.5158918967641499 0.9483837555627188 0.5652853491237531 
Task9 0.002906458141719482 0.03856433764628289 0.011245135564449484 0.04591108118298419 0.7219301924430463 0.3437073698061518 0.9264616889616577 
Task10 0.011853359484747125 0.12203978840332043 0.0005735901999592492 0.053375759317222805 0.9046288261542212 0.4537617576104634 0.7808684634602427 
Task11 0.030163566408141787 0.03600773855235132 0.04893012852020038 0.06992823212558918 0.6616915791560161 0.9113878712740229 0.9778019753151059 
Task12 0.15621243611015798 0.19875473830024856 0.38996662380602337 0.23192156989091978 0.4312531168224018 0.4967086160999121 0.3569005163183042 
Task13 0.0470479626631419 0.11594253798377685 0.11427156348047622 0.02614045797951642 0.45682408747540904 0.31429901301388274 0.48162301455276285 
Task14 0.012991581375270875 0.2412161542879023 0.20117782786153848 0.23785578735105925 0.5562846918936319 0.8921503085079066 0.7854490348151824 
Task15 0.0375011781518738 0.16341664424477012 0.012913049744534468 0.0006348579666401709 0.7985209631430172 0.5350430018179264 0.4422995801751875 
Task16 0.0453247363154198 0.23896987851417104 0.009884925098679586 0.34075501797057256 0.6420841242720918 0.8735499671505185 0.833518184207444 
Task17 0.017975584462134177 0.06297747193089902 0.15106205480183568 0.1225342439270677 0.6425501152266329 0.7323225768750392 0.4650302001848692 
Task18 0.033462604211035 0.01866612338556841 0.07279997505779623 0.08898273536912064 0.45572583912101455 0.4327735760283161 0.7816811510467909 
Task19 0.003191713231681336 0.03395380221131546 0.03847276419489137 0.013494628138247622 0.9518878320196069 0.38536366942463496 0.7422835015991618 
Task20 0.004130660673578199 0.06997113749981103 0.08304625167463421 0.031240373915028895 0.6548305345268992 0.4723492759187116 0.7523305712367576 
Task21 0.13293546429525802 0.26946889499770216 0.06402976406676421 0.46067434751871633 0.45472544585548774 0.4549068516201118 0.8378473495212357 
Task22 0.07145478864794345 0.03696116472595934 0.19140592747620347 0.07703107165803674 0.3906912658231486 0.5548961964549788 0.8037793651920493 
Task23 0.07737222797047202 0.2859652116783444 0.3130181205804958 0.2247092107815255 0.6886757724798649 0.6300299216975498 0.5747896770971022 
Task24 0.06041963157333306 0.06269971868033794 0.10940900626177338 0.15860890521466703 0.3930299804174035 0.8079510055108816 0.31770294540290867 
Task25 0.12233730109348712 0.350006325297694 0.28930242976601883 0.23423915925741254 0.35145746554610546 0.45344086108844506 0.6762554206525845 
Task26 0.06605083328137833 0.160829782960845 0.09583618735167401 0.14265010292239716 0.5198362907466629 0.7212254446543576 0.7377344310277796 
Task27 0.17780692119787808 0.3129079163171769 0.47087433103729937 0.00012121400858670029 0.4847986327991385 0.4356310058034141 0.8016037846823718 
Task28 0.0206060032110361 0.3242406563709656 0.013542449849384033 0.4421495070313549 0.370192832662949 0.609540530185039 0.6696357870479994 
Task29 2.25556994508588e-05 4.4626665694874166e-05 3.732848260753269e-05 8.504475089425464e-06 0.836645600421029 0.6806920155119665 0.817241581684196 
Task30 0.07849940441034393 0.35420100454324777 0.3806321721585888 0.029696394289275455 0.3417197499268485 0.773838322906681 0.9965784926366112 
Task31 0.09129074208766413 0.32464983544201875 0.3862536895041476 0.010465539841493501 0.9193342009568786 0.9497831673103934 0.7405394768142541 
Task32 0.04862307695238324 0.32787687097779333 0.35627046218830444 0.035923061742496674 0.977484510000111 0.6733724797507842 0.5285360895310356 
Task33 0.08731347373497096 0.18792897810553558 0.04365775755056603 0.22340711507805414 0.986538949758127 0.4596015288248159 0.5475436019787748 
Task34 0.14007339571386085 0.238107012168608 0.030366148736562577 0.4791052503932028 0.6693748744528404 0.7619299495771157 0.7087587578361889 
Task35 0.01591732394906672 0.023395787243603385 0.06254693475771216 0.04584039540574011 0.715108340319536 0.8063611994942981 0.5919122969172439 
Task36 0.028973709282772084 0.018733437118045516 0.01451998208506356 0.30657076657090737 0.3816541677616699 0.3063504141175848 0.46778248826953256 
Task37 0.1239677168624391 0.1874844499300818 0.16688478442685362 0.17290208882714123 0.9120829028201052 0.6669449062126911 0.42421413337398356 
Task38 0.001681397666430333 0.19803365543883744 0.061221769830364835 0.13143059667572118 0.3504613091764798 0.9640734788829193 0.8647208423485571 
Task39 0.18044462170808187 0.4284989189660454 0.21802635211030397 0.10198720800319067 0.3228700269373661 0.9490961816934054 0.9056061599956626 
Task40 0.15006990256436736 0.48411522407159996 0.020741068253443937 0.2373028140781656 0.46786865075374195 0.6307050595656964 0.9923652114533912 
Task41 0.041732682381850204 0.05923673583644372 0.0680721731048896 0.062365456327676656 0.7520231175422176 0.6050207355271134 0.8367833997496725 
Task42 0.013632407283725929 0.025222932312505025 0.01645321058454512 0.02386595914807809 0.4487798623744542 0.9331090685409074 0.6605200218526188 
Task43 0.06124867206900237 0.20511107293604336 0.3874857424678614 0.34276011909327353 0.9624148707944229 0.7555483644267131 0.5708820649191448 
Task44 0.018559389889792974 0.0038446635662395903 0.1322051513943406 0.04569471528003548 0.8652585024091701 0.8833444524424892 0.6199547116612765 
Task45 0.07034154853742096 0.06550514987495898 0.09885732975339355 0.11848184118461398 0.943905031370396 0.5193152480359191 0.4190165888205359 
Task46 0.055115978301195384 0.07715197508173463 0.0675289652236224 0.08310084330204977 0.8639891639641288 0.8228276967656225 0.6462517921724908 
Task47 0.02755178710660485 0.16305011746096068 0.06612608577247107 0.1593869164033348 0.33523015810131657 0.867239634427637 0.6033353010885305 
Task48 0.007149993833375419 0.0055339123382526076 0.014391884993246883 0.017927423924203652 0.7595212305379433 0.6247659279928062 0.6584650062456061 
Task49 0.001276815782688586 0.004067095786677698 0.004166640515965095 0.001600228824661688 0.37899629527038353 0.41891188864697915 0.3641578445916068 
Task50 0.096924126774404 0.23546686790023358 0.1451594256532222 0.20084660026817322 0.530584972338719 0.9117207813995134 0.783306883610538 
Task51 0.034487945596805604 0.09047724181044024 0.027323105391047393 0.11439502228374789 0.718380142687354 0.47894193204952884 0.6306073936671968 
Task52 0.04491079564550175 0.22289172729257223 0.19292488532278976 0.14223956325578138 0.9463059647469838 0.5064965793185616 0.7345786700567605 
Task53 0.13162543334897572 0.22244772837268847 0.18366576453055264 0.2461288464013532 0.3917930468701685 0.4424467678801409 0.8977339550845354 
Task54 0.0028150952749578773 0.004035619984107309 4.8056594613819325e-05 0.008292606949406403 0.9571792190788198 0.8623468490474877 0.47071038193581716 
Task55 0.0026660971601162238 0.0075551699578063425 0.04753859802376139 0.027322474925786457 0.7011028618034428 0.513625661873816 0.371790515495239 
Task56 0.09582000929512999 0.04574743601601283 0.3635574261628312 0.3952729580609671 0.8728277627440411 0.5537728724460871 0.3067891840041473 
Task57 0.009093855265449874 0.006712071335826069 0.03335181166960028 0.029951833889819687 0.5593688115389951 0.7508382597999221 0.731462165893976 
Task58 0.009236557981936877 0.08959165162071843 0.033758073412237556 0.02207182530590834 0.38014968226955226 0.5627971560983213 0.48701922699540506 
Task59 0.03699765487563037 0.09757576793605692 0.09869813586195918 0.11904339986206389 0.32494251674862934 0.51974877514204 0.3258151966338555 
Task60 0.013281440302166776 0.18158596560881785 0.32198532137222496 0.03038573847681697 0.73079921933823 0.5708462906975817 0.8613851288744547 
Task61 0.05472752408015008 0.06181294814047101 0.2533167732511179 0.16559103587679364 0.8964277137122287 0.5444205091480823 0.6967002182518043 
Task62 0.06575417708916359 0.12568172431974184 0.36328316018006385 0.33365950029350433 0.31591687839979277 0.7523909864449274 0.47596461864470463 
Task63 0.08156883911185664 0.1502291076882031 0.10032383799765707 0.14759505316331212 0.5771737468413396 0.8021813339046742 0.7761731068682987 
Task64 0.004257793877415435 0.052187865713713984 0.0047038125922583334 0.05837449510501023 0.6893572557137297 0.6717827230922815 0.6880157992970024 
Task65 0.03212701239426177 0.022369957375654104 0.21276992354580493 0.46800859103069126 0.7680369478260886 0.5877975466032928 0.3701640859109194 
Task66 0.09757186817645992 0.1035236381595041 0.25417471693802196 0.0540569289358321 0.36849751521388996 0.5875474863062888 0.6439324398091435 
Task67 0.11340319642313398 0.3133425136358622 0.002845112035607367 0.3345308866493022 0.7278329583703759 0.9106954997726051 0.41331052977808636 
Task68 0.010501413613519606 0.21406974036264045 0.24803262929167533 0.2285737825589678 0.9666332047497173 0.49146694654758744 0.31914233604827585 
Task69 0.006563112555826256 0.12539620125499207 0.015684681562754633 0.13798075576522165 0.9891268984629278 0.8452656530348488 0.3827557099262955 
Task70 0.16425213031949645 0.2466928884071896 0.26087400122714716 0.29295614658862973 0.4815945991648072 0.3800275921863573 0.8948380629815051 
Task71 0.0025843464277929594 0.0060425761315763835 0.016077593400419806 0.01589418660180589 0.5075615712271007 0.4015735223102181 0.95745779788618 
Task72 0.011921855764249114 0.022059424569387993 0.028196760339864655 0.020073960035277044 0.5686339090868047 0.4739919558325761 0.4537436595856629 
Task73 0.02425796709856604 0.08567533065846022 0.16699417200579866 0.2472876387474768 0.8941172697786719 0.3694790251034655 0.40211565386747117 
Task74 0.07467252096955457 0.030521901270618615 0.47338030294184785 0.19198072081299836 0.746845528150695 0.4742012651693079 0.3375050375952029 
Task75 0.009127729737049037 0.0706514008829308 0.0943047877559063 0.02755102177963707 0.8043471899240284 0.4145915261525955 0.6111494117439271 
Task76 0.06479630901772936 0.3197399012937291 0.021068935080786475 0.21600458107356957 0.3434810252261017 0.9406758067983401 0.6655532453260091 
Task77 0.007818949620970602 0.0032000699925012264 0.02698654944377879 0.01200738180638771 0.8409102945921139 0.9833789153466224 0.845302231925015 
Task78 0.01731744801134752 0.09643203841406493 0.16528186810020112 0.045378944897347825 0.711532175651685 0.33228546335398007 0.8034536954776401 
Task79 0.07594291294570553 0.04367427335232525 0.15878532371203705 0.17891587516616878 0.6987185845036237 0.4281414790363034 0.5296638194813071 
Task80 0.017197989801909345 0.30633867964526723 0.2542294032662103 0.15607891851239927 0.6876809880754604 0.8142043948127269 0.9640234993106207 
Task81 0.008362515590138257 0.18852926064361247 0.15819866994079929 0.07210443129794328 0.8845774117211498 0.9906360826340126 0.9227396156078267 
Task82 0.0634718274435847 0.24080769360281642 0.2899480159612904 0.15094675226135265 0.4581305578710271 0.526166967130749 0.621639317233523 
Task83 0.022241173289780796 0.03977319131262509 0.12876175485218325 0.012878382828667757 0.7782225918763719 0.35966157965777207 0.9941526020582303 
Task84 0.00014127089476919288 0.00017094705558566575 0.0004103126673358974 0.0007235103886657241 0.47919703749608766 0.5014850433717409 0.39772059561395495 
Task85 0.05078860772296856 0.1167885801829569 0.11880611358490745 0.03010492492159421 0.7728650547821281 0.9759349449619774 0.6613113327181772 
Task86 0.0025500438145573327 0.000542969443636991 0.054728200865265045 0.09501116956877735 0.3073194364391788 0.6107012807697303 0.8359355971398423 
Task87 0.03926540408755452 0.06903173580714407 0.12697228957660034 0.1435884477398376 0.5383330185563666 0.9717727344811673 0.6313007775016837 
Task88 0.026692784067023134 0.37476336574452424 0.4312637257117385 0.09968885235516257 0.8143056560988491 0.7135982442471683 0.8066802778407087 
Task89 0.026344418071977026 0.09763718573167161 0.10876574446591342 0.16609171012334195 0.9079390574881387 0.5159709666059564 0.4149169076470373 
Task90 0.034613321795183366 0.06350491218976591 0.06396048916798576 0.053034836742723475 0.6164424632435588 0.7995117924314429 0.3531845077401251 
Task91 0.07533371466071773 0.09024667736735796 0.11663957167634188 0.1031242620147817 0.44425919996236113 0.6458489066932678 0.8099481657013745 
Task92 0.18293157428415804 0.276345948430723 0.05569977191570872 0.40255995287864826 0.3418701656778183 0.8466520782233333 0.33269523966004 
Task93 0.017881335849470076 0.03867988418817955 0.12393447628231388 0.134712615870272 0.35164109356571804 0.8666757127666809 0.880944612792925 
Task94 0.05086370237287006 0.0758805705200478 0.040881656410857406 0.1057752381631062 0.3324118676414934 0.5747362183691976 0.9629220762085786 
Task95 0.1660312116467637 0.24158509014335136 0.3330568530874672 0.1799924742245422 0.9114096652789743 0.5742887088891551 0.6672554148803442 
Task96 0.028088213399409496 0.023151673877745933 0.04480077626305658 0.06920652641112514 0.5064789705321113 0.3157708428498767 0.6559409480496183 
Task97 0.02205246819278084 0.24639513281645078 0.09750366608905647 0.333949910378322 0.6874989235251892 0.6945930308181567 0.5363304609408621 
Task98 0.004293261182652003 0.01146648553136479 0.03742350709577907 0.04445608643197359 0.47963003254527814 0.36663910133367306 0.681787509658728 
Task99 0.018249410412297648 0.3605313510244173 0.20843687443278264 0.0833565466530348 0.7025856457952493 0.5755739274496476 0.37670699866186275 
Task100 0.08879675482814771 0.0026270112847693854 0.19113984980229046 0.2366764675047457 0.6535558449921132 0.5371185889535132 0.40855809109660923 
Task101 0.11412736667946413 0.2557545263583368 0.05092424053786357 0.24683034555796096 0.9753287336610308 0.8419814223044226 0.7324739108871698 
Task102 0.14409006001961572 0.1395413966404911 0.2803966482394001 0.2831056794255466 0.971324317516898 0.9886717602208168 0.6642395400182883 
Task103 0.1197806631540403 0.22442477000170827 0.29163388322118233 0.25746180025705573 0.784962968013508 0.9642157157332325 0.589968665575458 
Task104 0.02087080126878396 0.08363315648519859 0.1584556371545151 0.3265049755693087 0.3630411720433633 0.9885726961802515 0.6639367330868446 
Task105 0.01634238478719701 0.17944493222143323 0.4375937777121571 0.261738213867798 0.4220034707657889 0.7399292251982248 0.9253414360343981 
Task106 0.027533864533164462 0.041478558927330274 0.32667040151403637 0.5772351809036204 0.8999139214636414 0.530820042520191 0.689567291534339 
Task107 0.05974234376084312 0.11305210187319746 0.13902855807318099 0.11303483464218649 0.3329185002898101 0.7967155505153486 0.3721998041658775 
Task108 0.0064027328967032875 0.017803777220587912 0.025513862603932198 0.03552933073283263 0.4925135410115981 0.6622222629022956 0.7455867135096412 
Task109 0.01553443734136724 0.010702007707141786 0.0187400073233441 0.05307511406229136 0.5806324037996674 0.7177452651198931 0.43366906740755473 
Task110 0.0037243351112544597 0.35820038873994703 0.026301534979092055 0.4697368504939327 0.9241576284020001 0.8441591482082118 0.9811733389205308 
Task111 0.039565563310664395 0.22688950132137203 0.18575396932044294 0.17953094163654953 0.38091322582129317 0.6781207177308033 0.40440955165116305 
Task112 0.046542316772381534 0.29003228798047953 0.011763741283635764 0.03529605753015222 0.7302892493720996 0.5995210187509561 0.7971545821355671 
Task113 0.03751487081782548 0.04915943971315402 0.39433380172545585 0.32297247439900834 0.4837630332852555 0.9944961152545757 0.31278077251549546 
Task114 0.05439428201222731 0.023340434114747906 0.03298118583811241 0.3531303781289056 0.8721724733730214 0.8199850175378947 0.9860013135613612 
Task115 0.05086187445876937 0.05301669527628261 0.26642753061783614 0.30287916942149773 0.5670555035315763 0.8346311129124908 0.44448565480291014 
Task116 0.12465398922199612 0.4651881536369433 0.37925015289505476 0.011870032215655532 0.35449368437946166 0.9900018855426378 0.817006189807699 
Task117 0.01529148040565238 0.187130446217675 0.20087266719482236 0.05293879862247598 0.7274925028020194 0.7026911437077101 0.5098079974822574 
Task118 0.021480629693475545 0.05614961057970144 0.0851218546508042 0.11502185395411794 0.7002064516452711 0.9000355263245154 0.5607941763809453 
Task119 0.021378463911509552 0.046472538787015974 0.013681665440010567 0.05817177038047639 0.849962463301813 0.7045077139910193 0.7729752734912336 
Task120 0.11565292632950422 0.13837948205667241 0.2707839599369955 0.11290801812892466 0.5101744804548061 0.4973816005314482 0.4109284686476387 
Task121 0.0005572118337337226 0.021538243604329262 0.04102365133939419 0.05018896290502148 0.7984526387600835 0.3557962240894991 0.9973975644170676 
Task122 0.01828207046790716 0.08120644545730413 0.05943625534417007 0.06986904000185572 0.48117781988924385 0.5094614176336254 0.6395923325250401 
Task123 0.07842264733110989 0.23760663718468733 0.008130253953582887 0.37113642144173814 0.7489660050342064 0.4227850667817466 0.5032146273330802 
Task124 0.07842667057297638 0.05990341333288777 0.2310795560306192 0.23152671508928777 0.7787834747287461 0.8221009275926081 0.5567251758154017 
Task125 0.12908707541322387 0.23059081786377592 0.16511687876690986 0.16218290436035349 0.792866418674776 0.9205048147847232 0.8043564547816027 
Task126 0.0002546261472688346 0.024018788361029275 0.01137308526615021 0.03002418957682941 0.8701992892881563 0.4233797030221099 0.9883391134324311 
Task127 0.024855757320045333 0.1497252541710423 0.1498748612683194 0.062209589373583646 0.5401338406021516 0.7699099033132053 0.6176300833592239 
Task128 0.0034875926039724735 0.05280841913554706 0.07127781311786906 0.11542823231688308 0.4734487175726422 0.5375402051591478 0.8925815392449299 
Task129 0.009687571758577146 0.014595871547977304 0.015661871462703782 0.015899086933526034 0.692418814722356 0.7207375994779265 0.806942333172066 
Task130 0.03546365808595345 0.3979775323894553 0.16659912353850462 0.05546962032870379 0.847531994177728 0.38863189375215135 0.9080192966372405 
Task131 0.1144707892872662 0.14256192870730772 0.05673738965744431 0.2621761305030104 0.31156149429916363 0.6795349836411773 0.9956180384770104 
Task132 0.04957602117273827 0.3111266953828241 0.17589885310003645 0.12951569803469387 0.6830234805610161 0.9417483774409969 0.9841922294460528 
Task133 0.13145841456974033 0.3174625477489274 0.20136081867694136 0.28599936858331126 0.7463380005771065 0.701940750649074 0.47368554190765927 
Task134 0.08362230935065089 0.26487251910515636 0.1876449800938509 0.27376635360599294 0.5772373148514771 0.6087265336319307 0.8138603091079786 
Task135 0.004125202011378523 0.0015577703838984993 0.005628826007962665 0.010858335030521379 0.4940020370212764 0.4541892405014011 0.8130036381543322 
Task136 0.027107271900118374 0.15212363293488826 0.21245603105121555 0.00909072368861489 0.7897942854658369 0.6397444543425915 0.971775508973312 
Task137 0.003521692547040177 0.10745436320730276 0.48904200327713765 0.002534782311365885 0.4141590058950681 0.6239424276095551 0.9814272711159058 
Task138 0.081389281565791 0.09760034591621869 0.11613872549026825 0.6616442705173347 0.3228780151858614 0.8570536373814179 0.7066429718135012 
Task139 0.006765209973298592 0.13691256549091418 0.13785297690926318 0.01794806911476577 0.7237891011311486 0.570811503795745 0.7060822839008793 
Task140 0.09228983603496319 0.5418666515798646 0.22282527521956577 0.09839310149262115 0.7515366601181349 0.852227197232311 0.5072661721408075 
Task141 0.009421343629938872 0.24823522481632582 0.009425377144106043 0.34483820232668927 0.6302455876716807 0.765446120669857 0.5103384243898543 
Task142 0.008470404854419385 0.01075085682574189 0.008098523859193213 0.0499113955119363 0.4707277481056909 0.5766359420587766 0.8538031216575848 
Task143 0.014121856918549135 0.04195711379426964 0.003800056590222508 0.028831015449291463 0.5681493285648438 0.6523586860716744 0.3734942563293614 
Task144 0.18949165342415006 0.08962310471267806 0.6287466083127519 0.08389914723525836 0.7835635992234538 0.9767943757663502 0.40032242718854055 
Task145 0.17398265872840393 0.5276811106689486 0.1235101862296902 0.15220102049183828 0.6245672907232114 0.5423831914277494 0.563514319230782 
Task146 0.13110086875818175 0.31782064249002184 0.24640258428156672 0.05316156210547738 0.3429649411592953 0.6760382563639878 0.5131938942337511 
Task147 0.09848070308062185 0.27923586184539817 0.3810249114821729 0.11029926878641434 0.9840941953886173 0.6946041541267258 0.315262692290734 
Task148 0.02863926375845816 0.14868563507222926 0.28621867292254943 0.20803219525350886 0.9308327132443908 0.6034445138858447 0.5799503510585076 
Task149 0.06841990251433594 0.16230986645106588 0.37831237030251114 0.28436438997133434 0.8291979443826902 0.9026537649582675 0.7025003263828375 
Task150 0.01011679874812918 0.02533250738148361 0.02632402131812535 0.010891735543889435 0.7592705227165715 0.32497194891948517 0.5312865219052515 
Task151 0.00017763428567428523 0.008761463392961133 0.0036438386026888376 0.0109889081529084 0.7710431787305825 0.33731661522314293 0.4217686694715907 
Task152 0.007514317343134402 0.021258033815114045 0.007879617702132444 0.013348289568459697 0.638886198350022 0.9005186839051236 0.6805338888436073 
Task153 0.04587414145294489 0.18301828292829106 0.13525359269372708 0.16392130732119645 0.6862162876659941 0.8595589597773785 0.4085570805429137 
Task154 0.11251666967940961 0.26728276389378525 0.08582994868233525 0.11460793677090905 0.5456380041995527 0.9347156026835461 0.8808212548921246 
Task155 0.04808148347636697 0.08803569165884031 0.017390598835574776 0.11279714732595018 0.419222587880293 0.6594252232916282 0.4402406852794239 
Task156 0.036847948622179945 0.21258244364877496 0.04818397825589535 0.21988704957294788 0.6972710033118803 0.495306995735147 0.6869749333771646 
Task157 0.016008118171927332 0.09334805073506498 0.0315782324349099 0.02635642159928814 0.34322332941781697 0.5379627517614377 0.9693726834851542 
Task158 0.0635896536859314 0.2217974245241163 0.19682146059274813 0.08034144808265647 0.3634785461421719 0.6337294561322574 0.8734655360244317 
Task159 0.14589154592754106 0.20386846245214754 0.36130751489215307 0.20239690830692678 0.6443613070036995 0.700752076136732 0.960548652061344 
Task160 0.058105963804771774 0.06840304012439652 0.05455141874703915 0.2169571674102147 0.9564332153967683 0.6659019435272175 0.9227256978762701 
Task161 0.0015543261451656843 0.0169096349289388 0.0011206852427846387 0.020306272785826564 0.6209857687896421 0.5465572301223676 0.8397783480985188 
Task162 0.002036201400746839 0.17987061703343027 0.02883915596551286 0.13877095954824117 0.9931456092391258 0.9972211707614582 0.3295279320099073 
Task163 0.14270130228418454 0.34979388369453995 0.3255927438398218 0.13925267866573668 0.3696806559129867 0.7443298190287193 0.6335775223150899 
Task164 0.03403533146335876 0.2896751636066887 0.35637847828200553 0.04432444399619893 0.6454759364135285 0.9446303274141863 0.3083655658804175 
Task165 0.0026174235573287728 0.09655313594469263 0.1210538799891391 0.3134087338628898 0.7473727093129376 0.332206397718647 0.7105019575616452 
Task166 0.010027544398190815 0.0033425714119149105 0.05081477409572058 0.028108432871812944 0.6619725461106287 0.5458495081712621 0.5700397460478639 
Task167 0.11527729509331981 0.1271615166274527 0.20535656867615545 0.14450182192671812 0.7071848048404061 0.43961715709341687 0.9415747380059163 
Task168 0.0006275141275021446 0.005842614974751733 0.005405094030317081 0.018834918665488684 0.9800122229614645 0.9190189723647277 0.6991977805004208 
Task169 0.12931873681163442 0.13032857505084094 0.24373434969757124 0.19183477595174322 0.6864727728375468 0.8111979569631607 0.7478941374557729 
Task170 0.047069796355212086 0.15229451016750545 0.20773147449858992 0.02339750121852129 0.5221083363533622 0.8638570462289779 0.9340463208947545 
Task171 0.06804894147600848 0.34860236173898457 0.23296974795752248 0.1329588616030835 0.7823706092001614 0.9294172130000113 0.5346313788692679 
Task172 0.014507829482551568 0.20048924639100055 0.35008093786657773 0.41123973348594584 0.48717388146062257 0.6509078199253351 0.325053229404831 
Task173 0.004400732169917553 0.0696300671937778 0.017361855961376564 0.0088136246888345 0.8164969102784525 0.8876685349537341 0.8511773207682505 
Task174 0.008213756279963388 0.3017482822569387 0.15208956013674438 0.26284257474393147 0.6055962215985262 0.4578369514159606 0.8559545240016024 
Task175 0.01787844147920775 0.13517058710156948 0.2548674410645853 0.4098817735860158 0.3555680230623145 0.41968204819644267 0.39342985608075826 
Task176 0.014269218548418974 0.07812211604966432 0.11063110397168274 0.05478188599578022 0.8925951298725989 0.8223582343376581 0.6939524144763654 
Task177 0.012190202293875014 0.40907426005603315 0.05471102620221825 0.23376108270726026 0.7434608533874311 0.4409127913141552 0.5952348685548038 
Task178 0.06244657081879059 0.2506142514519215 0.3725499621939016 0.14093555221160034 0.9493285654174448 0.4816163720533325 0.5577245063115404 
Task179 0.04822230057244671 0.20050012336328135 0.23714188657416704 0.24278711854718907 0.7264616297449549 0.9882343998104823 0.9401269082089467 
Task180 0.020443418826737163 0.054243453661503786 0.06075554176996667 0.05930940766036526 0.34979173085662396 0.7925898542138876 0.3872324109958073 
Task181 0.07035349944765697 0.07075665923058988 0.1349684705027641 0.1836082606092086 0.4489535828508957 0.3922063591419627 0.3401720863472979 
Task182 0.04202875501539989 0.208842145236686 0.18245191416724618 0.02273826524277857 0.6296065371710291 0.7557992284924047 0.8686164951627444 
Task183 0.006018093663067993 0.09474762993753892 0.09614442281879991 0.12252273901806399 0.9019674633665269 0.9494582911804252 0.7998537985974482 
Task184 0.13092898381388043 0.33722715872233827 0.2093386761365316 0.10355777234719962 0.31709353381139843 0.6756937435012936 0.4436092101015164 
Task185 0.09520823332383938 0.2322457303469348 0.0625985472999442 0.44080895451551866 0.5783801381588048 0.5769093092176356 0.6361046360822207 
Task186 0.019226998820875696 0.5968321074736996 0.31137431083248834 0.06917145275708021 0.3512298073169733 0.4525482748652869 0.6548365392298794 
Task187 0.00011684100315354051 0.11292240124913948 0.051177442795968094 0.057431179252455486 0.9191338376562448 0.6954760935419073 0.9089120843237852 
Task188 0.002969961647540307 0.0016453643593227361 0.012786937052752077 0.030612338030833963 0.545711043724123 0.3720329571891607 0.7469326677683281 
Task189 0.02239132560306919 0.25326945982937354 0.2539413716851307 0.40824705493418373 0.8577681319199422 0.37914506807036524 0.9907535069262401 
Task190 0.08237350098234962 0.2477927033869669 0.19191642882936055 0.2487735459471718 0.9845457693531356 0.6643529606351855 0.5367575700880108 
Task191 0.028817230947275826 0.07419396514258843 0.092516221927223 0.09804053427481466 0.5099802863391109 0.803986385714681 0.7092746457968842 
Task192 0.14039072467091063 0.3262757524810917 0.13698676879966584 0.12958157799774014 0.7700565327130264 0.6473646832753237 0.7514049448545219 
Task193 0.025659461005692503 0.1552151812303961 0.014081706106584137 0.20605263828204973 0.5685522689790319 0.36241096067027945 0.8619666969677504 
Task194 0.012656553421186911 0.07733564162841208 0.12046981593479895 0.09311702153764703 0.48433573230882854 0.959627486585946 0.5511952850657756 
Task195 0.09236000953571223 0.11084476209416329 0.21986337778083698 0.3999538116518969 0.35109710307378955 0.808211864390858 0.8986666799370555 
Task196 0.000672941684789951 0.01090680851510317 0.000995411268955221 0.015285166345225983 0.5728512880664104 0.4219174478844732 0.6054836247289221 
Task197 0.004252416246058616 0.04482670431088865 0.043707436841125887 0.09430636696022604 0.8060834317156929 0.4993677331407176 0.993951868366296 
Task198 0.04944440993355581 0.07974118437860785 0.05909030124345593 0.08077899360686219 0.7454638779937185 0.8874711125999895 0.5983356509046085 
Task199 0.11662530096349223 0.0733168497856517 0.4077002417804197 0.1389220120134246 0.8695837446136054 0.30551131615909494 0.31318738382527195 
