files/tasks_parameters/ExAp01/sample8.txt 1.0583 6.77015 2.19458 0.288816 7.6897
files/tasks_parameters/ExAp01/sample12.txt 1.30863 9.58351 2.46081 0.337498 8.98585
files/tasks_parameters/ExAp01/sample2.txt 1.18327 8.44418 2.50701 0.319127 8.49672
files/tasks_parameters/ExAp01/sample44.txt 1.05345 6.96299 2.23089 0.28229 7.51594
files/tasks_parameters/ExAp01/sample27.txt 1.08289 7.74306 2.16676 0.28602 7.61524
files/tasks_parameters/ExAp01/sample17.txt 1.07701 7.35053 2.25579 0.292348 7.78372
files/tasks_parameters/ExAp01/sample9.txt 1.06096 6.89392 2.21068 0.282399 7.51883
files/tasks_parameters/ExAp01/sample34.txt 1.08531 6.62788 2.3772 0.297742 7.92733
files/tasks_parameters/ExAp01/sample40.txt 1.02647 7.75686 2.17534 0.285619 7.60458
files/tasks_parameters/ExAp01/sample33.txt 1.21576 8.14826 2.6463 0.338073 9.00115
files/tasks_parameters/ExAp01/sample48.txt 1.0563 7.64107 2.14272 0.270011 7.18901
files/tasks_parameters/ExAp01/sample29.txt 1.02095 7.139 1.93769 0.286306 7.62285
files/tasks_parameters/ExAp01/sample11.txt 1.0376 6.88688 2.12981 0.280008 7.45519
files/tasks_parameters/ExAp01/sample14.txt 0.901293 6.11983 1.97599 0.247458 6.58853
files/tasks_parameters/ExAp01/sample0.txt 1.06436 8.2738 2.14256 0.289132 7.6981
files/tasks_parameters/ExAp01/sample7.txt 1.03056 6.87011 2.05821 0.269886 7.18567
files/tasks_parameters/ExAp01/sample23.txt 1.1151 6.52032 2.38087 0.291712 7.76678
files/tasks_parameters/ExAp01/sample13.txt 1.09441 8.73247 2.33415 0.295393 7.86479
files/tasks_parameters/ExAp01/sample22.txt 1.10706 6.9777 2.28948 0.283979 7.56091
files/tasks_parameters/ExAp01/sample25.txt 1.00137 6.23444 2.2122 0.267298 7.11677
files/tasks_parameters/ExAp01/sample36.txt 0.952148 6.6174 1.9458 0.253823 6.758
files/tasks_parameters/ExAp01/sample46.txt 1.2564 7.42369 2.49128 0.327273 8.7136
files/tasks_parameters/ExAp01/sample31.txt 0.908584 7.22028 2.13584 0.25377 6.75659
files/tasks_parameters/ExAp01/sample37.txt 1.18983 8.90704 2.16981 0.295708 7.87319
files/tasks_parameters/ExAp01/sample16.txt 1.00586 8.18243 1.88294 0.24945 6.64157
files/tasks_parameters/ExAp01/sample10.txt 1.08984 6.96646 2.31217 0.285748 7.608
files/tasks_parameters/ExAp01/sample39.txt 0.953591 6.4161 1.97266 0.251967 6.70858
files/tasks_parameters/ExAp01/sample19.txt 1.19393 8.16711 2.23199 0.308463 8.21278
files/tasks_parameters/ExAp01/sample20.txt 0.931121 7.28549 1.88944 0.25994 6.92086
files/tasks_parameters/ExAp01/sample43.txt 0.927795 6.86804 2.00142 0.25616 6.82023
files/tasks_parameters/ExAp01/sample32.txt 1.04019 8.15663 2.12995 0.281726 7.50093
files/tasks_parameters/ExAp01/sample45.txt 1.06726 7.75184 2.10599 0.274935 7.32011
files/tasks_parameters/ExAp01/sample26.txt 1.00896 7.4944 1.88956 0.267248 7.11544
files/tasks_parameters/ExAp01/sample5.txt 1.09491 8.08362 2.09961 0.28454 7.57585
files/tasks_parameters/ExAp01/sample21.txt 0.966021 6.11814 2.17119 0.26143 6.96053
files/tasks_parameters/ExAp01/sample38.txt 0.942465 7.761 1.96293 0.263659 7.01988
files/tasks_parameters/ExAp01/sample1.txt 1.03634 7.83752 2.13261 0.289228 7.70066
files/tasks_parameters/ExAp01/sample15.txt 1.04392 7.37971 2.12057 0.285825 7.61006
files/tasks_parameters/ExAp01/sample24.txt 1.08201 8.28531 2.25272 0.296628 7.89769
files/tasks_parameters/ExAp01/sample3.txt 1.11055 7.33359 2.39135 0.305084 8.12283
files/tasks_parameters/ExAp01/sample6.txt 1.04214 7.09894 2.24425 0.281804 7.503
files/tasks_parameters/ExAp01/sample30.txt 1.17357 8.17669 2.03701 0.299204 7.96628
files/tasks_parameters/ExAp01/sample42.txt 1.09174 7.70416 2.42413 0.29743 7.91903
files/tasks_parameters/ExAp01/sample4.txt 1.11064 7.41691 2.36261 0.307803 8.19521
files/tasks_parameters/ExAp01/sample28.txt 0.962964 7.0562 2.07657 0.266428 7.09361
files/tasks_parameters/ExAp01/sample18.txt 1.0554 7.60139 2.1377 0.268016 7.13589
files/tasks_parameters/ExAp01/sample35.txt 1.20933 9.66795 2.28028 0.32244 8.58491
files/tasks_parameters/ExAp01/sample47.txt 0.902978 6.84842 2.12104 0.251655 6.70027
files/tasks_parameters/ExAp01/sample49.txt 0.976235 7.1497 2.11412 0.255889 6.81301
files/tasks_parameters/ExAp01/sample41.txt 0.98227 6.59911 2.07359 0.265885 7.07916
