0.36141490000000004
Task0 15 1 63 
Task1 63 15 15 
Task2 63 31 127 
Task3 31 1 63 
Task4 63 7 15 
Task5 63 255 15 
Task6 63 3 7 
Task7 7 1 63 
Task8 63 255 127 
Task9 63 7 3 
Task10 1 31 15 
Task11 1 31 63 
Task12 15 15 15 
Task13 1 63 1 
Task14 3 7 31 
Task15 7 31 7 
Task16 63 15 1 
Task17 63 15 3 
Task18 63 31 3 
Task19 63 15 3 
Task20 63 31 31 
Task21 15 63 3 
Task22 127 127 255 
Task23 63 7 15 
Task24 31 7 3 
Task25 63 31 15 
Task26 63 1 3 
Task27 31 31 63 
Task28 3 63 7 
Task29 127 255 255 
Task30 63 7 31 
Task31 31 15 63 
Task32 31 31 7 
Task33 255 127 127 
Task34 31 127 63 
Task35 31 15 31 
Task36 7 31 63 
Task37 63 1 15 
Task38 7 31 15 
Task39 7 63 1 
Task40 15 31 255 
Task41 7 31 15 
Task42 15 63 31 
Task43 15 63 1 
Task44 127 31 15 
Task45 31 7 15 
Task46 15 31 7 
Task47 31 7 3 
Task48 63 7 3 
Task49 31 63 31 
Task50 255 1 15 
Task51 31 63 15 
Task52 63 255 127 
Task53 3 63 3 
Task54 3 63 31 
Task55 1 3 31 
Task56 31 1 1 
Task57 3 63 63 
Task58 7 15 63 
Task59 1 15 63 
Task60 15 31 15 
Task61 7 1 63 
Task62 63 31 31 
Task63 1 63 3 
Task64 31 31 15 
Task65 255 255 255 
Task66 63 31 127 
Task67 63 63 127 
Task68 31 31 1 
Task69 31 63 63 
Task70 63 15 15 
Task71 63 7 127 
Task72 31 3 63 
Task73 31 63 31 
Task74 15 7 31 
Task75 31 31 1 
Task76 63 255 63 
Task77 1 7 31 
Task78 63 255 7 
Task79 63 15 15 
Task80 7 63 7 
Task81 255 127 63 
Task82 15 63 15 
Task83 15 1 31 
Task84 255 63 1 
Task85 31 31 63 
Task86 15 63 63 
Task87 31 1 1 
Task88 63 31 1 
Task89 3 63 1 
Task90 31 15 63 
Task91 127 255 127 
Task92 7 63 1 
Task93 31 63 15 
Task94 31 63 31 
Task95 63 31 7 
Task96 3 1 31 
Task97 31 31 7 
Task98 31 15 7 
Task99 15 63 15 
