0.3434021
Task0 3 63 63 
Task1 15 7 255 
Task2 63 63 31 
Task3 31 31 31 
Task4 63 31 63 
Task5 31 31 127 
Task6 31 15 63 
Task7 1 31 31 
Task8 3 1 63 
Task9 31 63 3 
Task10 63 3 15 
Task11 3 15 63 
Task12 3 31 3 
Task13 63 127 31 
Task14 15 31 7 
Task15 255 15 31 
Task16 1 1 31 
Task17 63 15 7 
Task18 31 15 31 
Task19 7 7 31 
Task20 7 63 63 
Task21 3 31 1 
Task22 31 7 31 
Task23 255 63 127 
Task24 3 31 1 
Task25 63 31 15 
Task26 7 7 31 
Task27 63 31 31 
Task28 1 31 3 
Task29 15 63 7 
Task30 1 7 31 
Task31 127 127 255 
Task32 3 7 63 
Task33 15 31 1 
Task34 7 7 127 
Task35 63 7 31 
Task36 31 63 31 
Task37 255 255 63 
Task38 63 1 15 
Task39 31 127 255 
Task40 15 31 31 
Task41 7 255 63 
Task42 15 1 31 
Task43 127 63 31 
Task44 63 3 1 
Task45 31 63 63 
Task46 1 63 7 
Task47 31 255 127 
Task48 63 127 31 
Task49 31 15 1 
Task50 15 7 31 
Task51 63 7 63 
Task52 3 31 31 
Task53 63 3 7 
Task54 15 63 7 
Task55 255 7 127 
Task56 31 255 15 
Task57 15 127 255 
Task58 3 15 31 
Task59 63 63 255 
Task60 7 255 3 
Task61 15 31 31 
Task62 31 63 1 
Task63 31 31 31 
Task64 15 127 31 
Task65 3 7 31 
Task66 255 127 255 
Task67 63 31 15 
Task68 7 255 255 
Task69 31 31 15 
Task70 63 31 255 
Task71 3 15 63 
Task72 255 63 63 
Task73 31 63 31 
Task74 31 31 15 
Task75 15 15 63 
Task76 7 1 63 
Task77 15 7 63 
Task78 1 7 63 
Task79 31 3 15 
Task80 7 31 1 
Task81 255 255 127 
Task82 7 31 3 
Task83 7 63 31 
Task84 31 63 1 
Task85 31 15 63 
Task86 127 15 255 
Task87 63 255 63 
Task88 31 3 15 
Task89 7 1 31 
Task90 3 7 31 
Task91 31 127 255 
Task92 1 15 31 
Task93 3 7 63 
Task94 31 31 7 
Task95 31 31 1 
Task96 31 31 15 
Task97 127 63 31 
Task98 1 15 31 
Task99 31 7 1 
