files/tasks_parameters/ExAp01/sample8.txt 1.1174 7.2562 4.46819 0.454772 10.6257
files/tasks_parameters/ExAp01/sample12.txt 1.6387 9.70908 5.28286 0.618515 14.4515
files/tasks_parameters/ExAp01/sample2.txt 1.52648 8.14159 5.7401 0.620531 14.4986
files/tasks_parameters/ExAp01/sample44.txt 1.39788 7.25164 5.75904 0.557631 13.029
files/tasks_parameters/ExAp01/sample27.txt 1.3183 8.10944 5.64946 0.564878 13.1983
files/tasks_parameters/ExAp01/sample17.txt 1.26926 7.11225 5.46658 0.527183 12.3176
files/tasks_parameters/ExAp01/sample9.txt 1.21353 7.62559 5.37813 0.517277 12.0861
files/tasks_parameters/ExAp01/sample34.txt 1.2448 7.04587 5.93037 0.497709 11.6289
files/tasks_parameters/ExAp01/sample40.txt 1.22744 8.03037 5.123 0.502383 11.7381
files/tasks_parameters/ExAp01/sample33.txt 1.63735 9.22935 5.92956 0.659262 15.4036
files/tasks_parameters/ExAp01/sample48.txt 1.16575 8.12182 5.1577 0.452491 10.5724
files/tasks_parameters/ExAp01/sample29.txt 1.55398 8.06133 5.12331 0.650652 15.2024
files/tasks_parameters/ExAp01/sample11.txt 1.35889 7.63104 5.37897 0.563302 13.1615
files/tasks_parameters/ExAp01/sample14.txt 1.13168 6.66403 4.66322 0.471536 11.0174
files/tasks_parameters/ExAp01/sample0.txt 1.64457 9.3266 4.98971 0.6311 14.7456
files/tasks_parameters/ExAp01/sample7.txt 1.30116 7.34863 5.19436 0.515527 12.0452
files/tasks_parameters/ExAp01/sample23.txt 1.40506 6.68564 5.54308 0.588617 13.753
files/tasks_parameters/ExAp01/sample13.txt 1.65142 9.31093 5.35591 0.632849 14.7864
files/tasks_parameters/ExAp01/sample22.txt 1.29523 7.65588 5.04866 0.540336 12.6249
files/tasks_parameters/ExAp01/sample25.txt 1.0295 6.17035 5.0141 0.408296 9.53978
files/tasks_parameters/ExAp01/sample36.txt 1.19007 7.03772 4.66274 0.507647 11.8611
files/tasks_parameters/ExAp01/sample46.txt 1.35236 7.73433 4.79934 0.536843 12.5433
files/tasks_parameters/ExAp01/sample31.txt 1.19045 6.96928 5.16482 0.485817 11.3511
files/tasks_parameters/ExAp01/sample37.txt 1.63248 9.52443 5.74224 0.65799 15.3738
files/tasks_parameters/ExAp01/sample16.txt 1.43838 8.63521 4.97261 0.516328 12.0639
files/tasks_parameters/ExAp01/sample10.txt 1.39877 7.28353 6.16876 0.615651 14.3846
files/tasks_parameters/ExAp01/sample39.txt 1.14417 6.3405 4.6137 0.468873 10.9552
files/tasks_parameters/ExAp01/sample19.txt 1.62945 8.85528 5.22306 0.622152 14.5365
files/tasks_parameters/ExAp01/sample20.txt 1.39412 8.1141 5.21177 0.586994 13.715
files/tasks_parameters/ExAp01/sample43.txt 1.30697 7.21373 5.6367 0.53748 12.5581
files/tasks_parameters/ExAp01/sample32.txt 1.60287 8.30592 5.38137 0.593918 13.8768
files/tasks_parameters/ExAp01/sample45.txt 1.42244 7.94069 4.96323 0.547271 12.7869
files/tasks_parameters/ExAp01/sample26.txt 1.15359 7.57061 4.62637 0.480146 11.2185
files/tasks_parameters/ExAp01/sample5.txt 1.4931 8.0307 5.35681 0.59407 13.8804
files/tasks_parameters/ExAp01/sample21.txt 1.02755 5.87802 4.61744 0.434264 10.1465
files/tasks_parameters/ExAp01/sample38.txt 1.18494 7.66999 4.86632 0.496808 11.6079
files/tasks_parameters/ExAp01/sample1.txt 1.18331 7.21312 4.63213 0.486293 11.3622
files/tasks_parameters/ExAp01/sample15.txt 1.28125 8.02273 5.50855 0.531063 12.4082
files/tasks_parameters/ExAp01/sample24.txt 1.38769 8.66348 5.4905 0.548998 12.8273
files/tasks_parameters/ExAp01/sample3.txt 1.18752 7.74268 4.79918 0.477387 11.1541
files/tasks_parameters/ExAp01/sample6.txt 1.50447 8.57133 5.80157 0.633604 14.8041
files/tasks_parameters/ExAp01/sample30.txt 1.64664 8.18878 5.90888 0.633576 14.8034
files/tasks_parameters/ExAp01/sample42.txt 1.30673 8.57689 5.67253 0.54426 12.7166
files/tasks_parameters/ExAp01/sample4.txt 1.34862 8.40354 4.57985 0.563519 13.1666
files/tasks_parameters/ExAp01/sample28.txt 1.0744 6.44114 4.96426 0.449721 10.5077
files/tasks_parameters/ExAp01/sample18.txt 1.32677 8.56363 4.60946 0.543766 12.705
files/tasks_parameters/ExAp01/sample35.txt 1.98167 11.0387 6.34514 0.761377 17.7895
files/tasks_parameters/ExAp01/sample47.txt 1.32345 7.14493 5.22131 0.545046 12.7349
files/tasks_parameters/ExAp01/sample49.txt 1.32611 6.65996 4.80244 0.498533 11.6482
files/tasks_parameters/ExAp01/sample41.txt 1.18983 7.09069 5.35462 0.497129 11.6153
