files/tasks_parameters/ExAp01/sample8.txt 0.723192 3.15778 1.5595 0.203411 4.26195
files/tasks_parameters/ExAp01/sample12.txt 0.780796 3.94962 1.6705 0.207924 4.3565
files/tasks_parameters/ExAp01/sample2.txt 0.706217 3.78275 1.74131 0.200098 4.19252
files/tasks_parameters/ExAp01/sample44.txt 0.694585 3.59825 1.65317 0.200005 4.19058
files/tasks_parameters/ExAp01/sample27.txt 0.675173 3.45743 1.5148 0.182129 3.81603
files/tasks_parameters/ExAp01/sample17.txt 0.547841 2.77299 1.44514 0.14646 3.06868
files/tasks_parameters/ExAp01/sample9.txt 0.671445 2.99933 1.451 0.177444 3.71786
files/tasks_parameters/ExAp01/sample34.txt 0.561822 3.02928 1.58429 0.157984 3.31013
files/tasks_parameters/ExAp01/sample40.txt 0.607501 3.86889 1.52122 0.168379 3.52795
files/tasks_parameters/ExAp01/sample33.txt 0.69819 3.63695 1.71905 0.199765 4.18555
files/tasks_parameters/ExAp01/sample48.txt 0.579016 3.39061 1.49062 0.154728 3.24192
files/tasks_parameters/ExAp01/sample29.txt 0.765609 3.30472 1.38739 0.223868 4.69057
files/tasks_parameters/ExAp01/sample11.txt 0.612973 3.10585 1.41612 0.174079 3.64736
files/tasks_parameters/ExAp01/sample14.txt 0.574669 2.70971 1.43432 0.162214 3.39878
files/tasks_parameters/ExAp01/sample0.txt 0.680948 3.6937 1.5439 0.18367 3.84832
files/tasks_parameters/ExAp01/sample7.txt 0.545963 2.70501 1.42221 0.143463 3.0059
files/tasks_parameters/ExAp01/sample23.txt 0.65135 3.2697 1.57822 0.181448 3.80178
files/tasks_parameters/ExAp01/sample13.txt 0.692437 3.84225 1.67648 0.198247 4.15375
files/tasks_parameters/ExAp01/sample22.txt 0.562253 3.09569 1.56121 0.148796 3.11763
files/tasks_parameters/ExAp01/sample25.txt 0.506649 2.73966 1.5007 0.148149 3.10407
files/tasks_parameters/ExAp01/sample36.txt 0.490364 2.85948 1.28553 0.130042 2.72469
files/tasks_parameters/ExAp01/sample46.txt 0.738734 3.58643 1.69998 0.210103 4.40215
files/tasks_parameters/ExAp01/sample31.txt 0.639208 3.4832 1.53782 0.1722 3.608
files/tasks_parameters/ExAp01/sample37.txt 0.65453 3.95293 1.50705 0.171701 3.59755
files/tasks_parameters/ExAp01/sample16.txt 0.594041 3.31216 1.30115 0.150249 3.14807
files/tasks_parameters/ExAp01/sample10.txt 0.616564 3.17098 1.61789 0.153776 3.22198
files/tasks_parameters/ExAp01/sample39.txt 0.625187 3.26617 1.44406 0.165669 3.47115
files/tasks_parameters/ExAp01/sample19.txt 0.736083 3.63532 1.52509 0.196094 4.10865
files/tasks_parameters/ExAp01/sample20.txt 0.52658 3.20793 1.25367 0.147335 3.08703
files/tasks_parameters/ExAp01/sample43.txt 0.537104 3.11551 1.4202 0.150644 3.15636
files/tasks_parameters/ExAp01/sample32.txt 0.64673 3.5311 1.42482 0.168744 3.53559
files/tasks_parameters/ExAp01/sample45.txt 0.715389 3.80283 1.48324 0.19807 4.15005
files/tasks_parameters/ExAp01/sample26.txt 0.616519 3.21645 1.29701 0.166061 3.47938
files/tasks_parameters/ExAp01/sample5.txt 0.689065 3.5889 1.52559 0.178903 3.74845
files/tasks_parameters/ExAp01/sample21.txt 0.680394 2.75242 1.55936 0.19512 4.08823
files/tasks_parameters/ExAp01/sample38.txt 0.57985 3.31563 1.37515 0.166157 3.48138
files/tasks_parameters/ExAp01/sample1.txt 0.690728 3.74964 1.51696 0.19701 4.12782
files/tasks_parameters/ExAp01/sample15.txt 0.632553 3.32916 1.48508 0.180707 3.78625
files/tasks_parameters/ExAp01/sample24.txt 0.615885 3.45951 1.59549 0.16529 3.46323
files/tasks_parameters/ExAp01/sample3.txt 0.862992 3.70014 1.70809 0.237107 4.96796
files/tasks_parameters/ExAp01/sample6.txt 0.657894 3.33003 1.58323 0.184714 3.87021
files/tasks_parameters/ExAp01/sample30.txt 0.858613 4.1841 1.4861 0.239623 5.02067
files/tasks_parameters/ExAp01/sample42.txt 0.620062 3.43221 1.70276 0.177383 3.71659
files/tasks_parameters/ExAp01/sample4.txt 0.741123 3.72477 1.6136 0.196448 4.11606
files/tasks_parameters/ExAp01/sample28.txt 0.568494 3.11323 1.45032 0.158819 3.32764
files/tasks_parameters/ExAp01/sample18.txt 0.560292 3.47418 1.45209 0.149064 3.12324
files/tasks_parameters/ExAp01/sample35.txt 0.697456 4.57086 1.49394 0.185031 3.87683
files/tasks_parameters/ExAp01/sample47.txt 0.612666 3.13768 1.52397 0.16417 3.43975
files/tasks_parameters/ExAp01/sample49.txt 0.573091 3.13288 1.49657 0.156154 3.2718
files/tasks_parameters/ExAp01/sample41.txt 0.564557 2.81964 1.49636 0.150876 3.16121
