files/tasks_parameters/ExAp01/sample8.txt 1.30793 6.77015 2.19458 0.288816 8.00267
files/tasks_parameters/ExAp01/sample12.txt 1.53882 9.58351 2.46081 0.337498 9.35158
files/tasks_parameters/ExAp01/sample2.txt 1.37114 8.44418 2.50701 0.319127 8.84254
files/tasks_parameters/ExAp01/sample44.txt 1.20873 6.96299 2.23089 0.28229 7.82185
files/tasks_parameters/ExAp01/sample27.txt 1.23709 7.74306 2.16676 0.28602 7.92518
files/tasks_parameters/ExAp01/sample17.txt 1.27158 7.35053 2.25579 0.292348 8.10052
files/tasks_parameters/ExAp01/sample9.txt 1.30971 6.89392 2.21068 0.282399 7.82485
files/tasks_parameters/ExAp01/sample34.txt 1.23507 6.62788 2.3772 0.297742 8.24998
files/tasks_parameters/ExAp01/sample40.txt 1.13443 7.75686 2.17534 0.285619 7.91409
files/tasks_parameters/ExAp01/sample33.txt 1.44668 8.14826 2.6463 0.338073 9.36751
files/tasks_parameters/ExAp01/sample48.txt 1.13538 7.64107 2.14272 0.270011 7.48161
files/tasks_parameters/ExAp01/sample29.txt 1.38207 7.139 1.93769 0.286306 7.93311
files/tasks_parameters/ExAp01/sample11.txt 1.21079 6.88688 2.12981 0.280008 7.75862
files/tasks_parameters/ExAp01/sample14.txt 0.963074 6.11983 1.97599 0.247458 6.85668
files/tasks_parameters/ExAp01/sample0.txt 1.27709 8.2738 2.14256 0.289132 8.01141
files/tasks_parameters/ExAp01/sample7.txt 1.12225 6.87011 2.05821 0.269886 7.47813
files/tasks_parameters/ExAp01/sample23.txt 1.28755 6.52032 2.38087 0.291712 8.08289
files/tasks_parameters/ExAp01/sample13.txt 1.33261 8.73247 2.33415 0.295393 8.18489
files/tasks_parameters/ExAp01/sample22.txt 1.15326 6.9777 2.28948 0.283979 7.86864
files/tasks_parameters/ExAp01/sample25.txt 1.05303 6.23444 2.2122 0.267298 7.40642
files/tasks_parameters/ExAp01/sample36.txt 1.03711 6.6174 1.9458 0.253823 7.03305
files/tasks_parameters/ExAp01/sample46.txt 1.49607 7.42369 2.49128 0.327273 9.06825
files/tasks_parameters/ExAp01/sample31.txt 1.12079 7.22028 2.13584 0.25377 7.03158
files/tasks_parameters/ExAp01/sample37.txt 1.26643 8.90704 2.16981 0.295708 8.19363
files/tasks_parameters/ExAp01/sample16.txt 1.108 8.18243 1.88294 0.24945 6.91188
files/tasks_parameters/ExAp01/sample10.txt 1.1663 6.96646 2.31217 0.285748 7.91765
files/tasks_parameters/ExAp01/sample39.txt 1.08468 6.4161 1.97266 0.251967 6.98162
files/tasks_parameters/ExAp01/sample19.txt 1.48295 8.16711 2.23199 0.308463 8.54705
files/tasks_parameters/ExAp01/sample20.txt 1.15858 7.28549 1.88944 0.25994 7.20255
files/tasks_parameters/ExAp01/sample43.txt 1.09 6.86804 2.00142 0.25616 7.09782
files/tasks_parameters/ExAp01/sample32.txt 1.23149 8.15663 2.12995 0.281726 7.80622
files/tasks_parameters/ExAp01/sample45.txt 1.32828 7.75184 2.10599 0.274935 7.61804
files/tasks_parameters/ExAp01/sample26.txt 1.17361 7.4944 1.88956 0.267248 7.40504
files/tasks_parameters/ExAp01/sample5.txt 1.30084 8.08362 2.09961 0.28454 7.88419
files/tasks_parameters/ExAp01/sample21.txt 1.20638 6.11814 2.17119 0.26143 7.24383
files/tasks_parameters/ExAp01/sample38.txt 1.14568 7.761 1.96293 0.263659 7.3056
files/tasks_parameters/ExAp01/sample1.txt 1.31986 7.83752 2.13261 0.289228 8.01408
files/tasks_parameters/ExAp01/sample15.txt 1.23135 7.37971 2.12057 0.285825 7.9198
files/tasks_parameters/ExAp01/sample24.txt 1.23333 8.28531 2.25272 0.296628 8.21913
files/tasks_parameters/ExAp01/sample3.txt 1.43412 7.33359 2.39135 0.305084 8.45344
files/tasks_parameters/ExAp01/sample6.txt 1.16107 7.09894 2.24425 0.281804 7.80838
files/tasks_parameters/ExAp01/sample30.txt 1.52204 8.17669 2.03701 0.299204 8.29051
files/tasks_parameters/ExAp01/sample42.txt 1.20669 7.70416 2.42413 0.29743 8.24134
files/tasks_parameters/ExAp01/sample4.txt 1.40024 7.41691 2.36261 0.307803 8.52876
files/tasks_parameters/ExAp01/sample28.txt 1.25241 7.0562 2.07657 0.266428 7.38232
files/tasks_parameters/ExAp01/sample18.txt 1.14539 7.60139 2.1377 0.268016 7.42633
files/tasks_parameters/ExAp01/sample35.txt 1.51445 9.66795 2.28028 0.32244 8.93432
files/tasks_parameters/ExAp01/sample47.txt 1.12451 6.84842 2.12104 0.251655 6.97298
files/tasks_parameters/ExAp01/sample49.txt 1.09647 7.1497 2.11412 0.255889 7.0903
files/tasks_parameters/ExAp01/sample41.txt 1.13046 6.59911 2.07359 0.265885 7.36729
