0 14
1 15
1 16
1 23
2 16
2 16
3 14
3 15
3 19
4 14
4 15
4 16
4 17
4 20
5 15
5 17
6 14
6 15
6 16
6 17
6 19
6 21
6 22
7 17
7 19
7 20
7 22
8 15
8 18
8 20
9 16
9 20
9 21
9 23
10 14
10 19
10 20
10 23
11 14
11 15
11 17
11 21
11 23
12 17
12 19
12 20
12 22
12 23
13 14
13 18
13 23
14 26
14 28
15 30
16 30
16 31
17 26
17 30
18 24
18 25
18 27
18 30
19 25
19 29
20 25
21 31
22 27
22 28
22 31
23 25
23 28
24 33
24 36
24 38
25 36
25 38
26 32
26 33
26 35
26 36
26 37
27 34
28 37
28 38
29 33
29 35
29 36
30 34
30 38
31 33
31 34
32 43
33 40
33 43
33 44
34 39
34 44
34 46
35 41
35 44
36 44
36 45
36 46
37 43
38 41
38 42
39 47
39 50
39 54
39 55
40 49
40 52
41 51
41 52
41 58
41 59
42 48
42 54
42 56
43 47
43 48
43 54
44 56
45 47
45 51
45 53
45 57
46 47
46 50
46 51
46 52
46 53
46 54
46 57
46 58
47 64
47 66
48 60
48 63
48 66
49 61
49 62
49 63
50 63
53 65
54 62
54 64
54 66
55 63
56 64
57 64
58 61
58 64
60 69
60 73
60 74
61 77
62 72
62 74
62 75
62 77
63 72
63 74
64 67
64 68
64 74
64 77
65 70
65 71
65 72
65 76
66 71
67 82
67 85
68 78
68 84
68 85
68 87
68 88
68 89
68 91
69 79
69 82
69 85
69 86
69 91
70 83
70 84
70 87
70 90
70 91
71 82
71 83
71 87
72 81
72 82
72 83
72 85
72 87
73 84
73 87
73 90
74 78
74 79
74 89
74 91
75 79
75 91
76 79
76 80
76 84
76 85
76 87
77 79
77 83
78 92
79 92
79 95
79 96
80 92
81 95
82 95
83 95
84 94
86 92
86 94
86 95
86 96
87 92
87 94
87 96
88 93
88 94
89 94
89 94
89 95
90 92
90 94
90 97
91 93
91 95
92 98
93 99
96 98
97 98
