0 14
0 17
1 15
2 15
2 16
3 13
3 15
4 17
5 16
5 17
6 12
6 15
6 17
7 15
8 12
8 14
8 17
9 16
10 12
10 17
11 12
13 18
13 19
14 18
14 21
14 22
14 23
15 18
15 21
16 20
16 21
16 22
16 23
16 24
17 19
17 20
17 24
18 25
18 28
18 29
19 26
19 27
19 28
20 27
22 27
22 29
23 25
23 27
23 30
24 28
24 30
25 31
25 32
25 35
25 37
25 38
26 31
26 33
26 35
26 36
26 38
27 32
27 39
28 32
28 39
30 31
30 33
30 34
30 37
30 38
31 43
31 46
31 48
32 40
32 41
32 43
32 44
32 46
32 48
33 42
33 43
33 44
33 46
34 43
34 45
34 48
37 46
38 45
39 47
39 48
40 49
40 50
40 51
40 54
41 49
41 51
41 54
41 55
41 56
42 51
42 52
42 53
42 55
42 56
43 50
43 52
43 53
43 54
43 56
45 53
45 54
45 57
46 49
46 53
46 55
46 56
47 49
47 55
47 56
48 49
48 52
48 54
48 57
49 58
50 58
50 62
50 63
50 64
51 61
51 62
51 64
52 61
52 62
52 63
53 58
53 59
53 60
53 63
53 64
53 66
53 67
54 59
54 65
54 66
55 65
55 66
56 63
57 60
57 62
58 72
59 69
59 73
60 72
60 74
61 68
61 70
61 71
61 74
62 68
62 70
62 73
63 68
63 73
63 73
63 75
64 74
65 70
65 74
65 75
66 69
66 70
67 70
67 72
67 73
67 75
68 77
68 77
68 79
68 84
69 80
70 78
70 82
70 83
70 84
71 84
72 76
73 76
73 80
73 83
74 76
74 78
74 79
74 81
74 82
74 83
75 76
75 77
75 79
75 81
75 84
76 85
76 88
78 86
78 87
79 85
79 87
79 89
80 85
80 87
80 89
81 86
81 87
81 89
83 88
83 89
84 86
84 88
84 89
85 90
85 92
85 94
85 97
85 98
86 91
86 92
86 93
86 95
86 96
86 97
86 98
87 91
87 95
87 96
88 90
88 93
88 95
88 96
89 91
89 94
90 99
92 99
93 99
94 99
