0 10
0 13
0 15
0 21
1 9
1 13
1 14
2 9
2 12
2 18
2 19
2 21
3 9
3 12
3 15
3 18
4 12
4 13
4 14
4 18
5 11
5 13
5 15
5 18
6 9
6 10
6 20
7 15
7 17
7 21
8 9
8 12
8 14
8 16
8 21
10 22
12 26
14 22
14 23
15 22
15 23
15 24
15 26
16 23
17 23
17 25
18 22
18 23
19 22
20 22
21 22
22 27
22 28
22 30
23 31
23 33
24 27
24 29
24 32
24 33
25 28
25 32
26 27
26 33
27 37
27 38
27 41
28 36
28 37
28 38
29 41
29 42
30 40
30 41
31 34
32 34
32 37
32 39
33 35
33 38
34 44
34 51
35 44
35 49
36 50
37 46
37 47
37 48
37 49
38 47
38 48
39 46
39 47
39 48
39 49
40 49
41 45
41 49
42 43
42 44
42 47
42 50
43 52
43 53
43 55
43 56
45 53
46 52
46 58
47 54
47 57
49 56
50 52
50 53
51 53
52 63
53 61
53 62
53 65
54 62
54 63
55 59
55 62
55 65
56 60
56 63
56 65
57 60
57 63
58 64
59 68
59 69
59 70
61 67
61 68
63 70
64 67
64 71
65 66
65 70
66 72
66 76
66 78
66 80
66 83
67 72
67 79
68 73
68 74
68 75
68 77
68 78
68 79
68 80
68 82
68 83
69 73
69 80
69 82
70 79
71 72
71 74
71 75
71 77
71 81
71 82
72 86
73 84
73 87
73 90
74 84
74 85
76 89
77 88
78 90
81 84
82 84
82 89
83 84
83 90
86 92
86 95
87 91
87 95
88 92
88 94
88 95
89 95
90 92
90 93
91 96
91 97
91 99
93 99
94 96
94 97
95 96
95 98
