0 9
0 11
0 14
0 17
0 19
1 12
1 13
1 15
1 16
1 17
1 18
1 20
2 9
2 12
2 13
2 17
3 17
3 18
4 11
4 13
4 18
4 19
5 8
5 10
5 11
5 12
5 13
5 14
5 20
6 8
6 9
6 12
6 16
6 18
7 8
7 9
8 21
8 22
8 23
8 26
9 27
10 23
11 21
11 23
11 27
12 21
12 23
12 24
12 27
13 21
13 23
13 26
14 24
14 27
15 24
16 21
16 23
16 24
16 26
17 24
17 26
18 23
18 24
19 24
19 25
19 26
19 27
20 26
21 30
21 32
21 36
21 39
22 28
22 31
22 34
22 39
22 40
23 28
23 29
23 36
23 39
23 40
24 28
24 31
24 32
25 29
25 33
25 34
25 37
25 38
26 29
26 32
26 34
26 35
26 36
27 29
27 34
27 35
27 35
27 36
27 40
28 41
28 48
28 49
28 52
28 53
29 47
29 48
29 50
30 42
30 47
30 48
30 52
31 47
32 45
32 47
32 50
32 51
32 54
33 42
33 47
33 49
33 51
34 42
34 43
34 45
35 41
35 42
35 45
35 50
35 54
36 43
36 46
36 53
37 41
37 43
37 50
38 41
38 43
39 41
39 43
39 44
39 45
39 48
39 51
39 52
39 53
40 41
40 42
40 47
40 49
40 52
41 56
41 57
41 62
41 66
42 59
42 61
42 62
42 65
43 58
43 59
43 61
43 65
43 67
44 57
44 63
44 64
44 65
44 66
44 67
45 63
45 66
46 56
46 67
47 61
47 64
47 67
48 60
49 56
49 61
49 66
50 56
50 57
50 62
50 63
50 66
51 63
51 66
51 67
52 55
52 56
52 58
52 59
52 61
52 62
52 65
53 56
53 59
53 61
53 65
53 66
54 56
54 58
54 59
54 61
54 65
54 67
55 68
55 74
55 78
55 79
56 69
56 70
56 71
56 72
56 73
56 76
56 78
56 79
57 68
57 69
57 71
57 73
57 73
57 74
57 76
58 69
58 69
58 71
58 73
58 76
58 77
58 79
59 70
59 71
59 76
59 77
60 68
60 75
60 76
60 78
60 79
61 70
61 72
61 73
61 74
61 76
61 78
61 79
62 68
62 69
62 70
62 71
63 68
63 70
63 73
63 78
64 70
64 71
65 72
65 78
66 79
67 79
68 80
68 81
69 81
69 85
70 85
71 82
71 85
71 86
72 83
72 86
73 85
74 80
74 82
74 85
75 84
77 82
77 85
78 83
79 84
80 88
80 93
81 87
81 93
82 88
82 89
82 91
82 95
83 87
83 90
83 92
83 95
84 87
84 89
84 93
84 94
84 95
85 87
85 90
85 91
85 92
85 95
86 88
86 93
87 98
88 96
89 98
89 99
90 97
90 98
91 96
91 98
91 99
92 96
92 97
94 99
95 96
95 97
95 98
