0.30049795
Task0 127 255 255 
Task1 255 3 31 
Task2 127 63 31 
Task3 15 255 255 
Task4 255 31 1 
Task5 127 255 63 
Task6 127 255 255 
Task7 63 63 31 
Task8 63 31 255 
Task9 63 1 15 
Task10 255 255 255 
Task11 15 255 15 
Task12 31 255 31 
Task13 7 63 31 
Task14 63 255 3 
Task15 63 63 63 
Task16 31 255 7 
Task17 15 7 63 
Task18 255 31 31 
Task19 127 63 63 
Task20 255 255 63 
Task21 63 1 31 
Task22 127 63 63 
Task23 127 7 63 
Task24 255 7 31 
Task25 127 127 31 
Task26 63 63 63 
Task27 127 63 15 
Task28 63 255 63 
Task29 31 15 63 
Task30 3 63 31 
Task31 31 63 63 
Task32 31 63 255 
Task33 127 63 15 
Task34 31 255 63 
Task35 255 7 255 
Task36 63 127 63 
Task37 63 3 63 
Task38 63 255 3 
Task39 63 7 15 
Task40 63 1 15 
Task41 7 63 7 
Task42 31 255 31 
Task43 31 63 31 
Task44 63 1 127 
Task45 255 127 31 
Task46 63 255 63 
Task47 255 31 31 
Task48 255 127 15 
Task49 255 3 3 
Task50 15 63 7 
Task51 63 15 7 
Task52 255 255 63 
Task53 255 15 255 
Task54 255 31 255 
Task55 255 31 15 
Task56 63 3 15 
Task57 255 255 127 
Task58 63 15 15 
Task59 255 255 127 
Task60 7 255 127 
Task61 31 1 255 
Task62 31 127 63 
Task63 15 31 63 
Task64 7 63 255 
Task65 31 3 63 
Task66 31 127 255 
Task67 7 3 255 
Task68 255 255 127 
Task69 255 31 7 
Task70 31 255 7 
Task71 3 255 15 
Task72 31 255 255 
Task73 7 7 255 
Task74 15 63 63 
Task75 31 7 63 
Task76 63 7 15 
Task77 1 255 15 
Task78 15 255 1 
Task79 31 7 63 
Task80 255 15 255 
Task81 7 63 7 
Task82 15 15 63 
Task83 7 7 63 
Task84 31 15 63 
Task85 63 15 255 
Task86 15 15 127 
Task87 127 127 255 
Task88 15 15 63 
Task89 63 63 15 
Task90 1 255 15 
Task91 31 31 63 
Task92 63 63 15 
Task93 7 255 3 
Task94 31 63 31 
Task95 15 15 63 
Task96 127 15 31 
Task97 63 15 15 
Task98 63 255 127 
Task99 31 127 63 
