digraph G {
0 ->11 0 ->15 0 ->17 0 ->21 1 ->11 1 ->12 2 ->11 2 ->12 2 ->16 2 ->18 3 ->11 3 ->15 3 ->16 3 ->20 4 ->10 4 ->17 5 ->14 5 ->21 6 ->12 6 ->13 6 ->14 6 ->16 6 ->18 7 ->11 7 ->19 8 ->13 8 ->14 8 ->19 8 ->21 9 ->15 9 ->16 9 ->17 9 ->19 9 ->21 10 ->24 10 ->26 10 ->29 11 ->24 11 ->29 11 ->31 12 ->25 12 ->26 12 ->27 12 ->29 12 ->30 13 ->25 13 ->28 13 ->32 14 ->26 14 ->28 14 ->30 14 ->32 15 ->25 15 ->27 15 ->31 15 ->33 16 ->22 16 ->23 16 ->24 16 ->27 17 ->23 17 ->29 17 ->31 18 ->24 18 ->27 18 ->29 18 ->30 19 ->23 19 ->25 19 ->26 19 ->27 20 ->24 20 ->25 20 ->26 20 ->27 20 ->28 20 ->29 20 ->31 21 ->32 22 ->34 23 ->38 23 ->41 23 ->43 24 ->35 24 ->40 24 ->41 25 ->36 25 ->38 25 ->39 25 ->40 26 ->35 26 ->40 26 ->41 27 ->36 27 ->37 27 ->39 27 ->41 28 ->34 28 ->37 28 ->38 28 ->43 29 ->35 29 ->36 29 ->37 29 ->38 29 ->39 29 ->41 29 ->42 29 ->43 30 ->34 30 ->36 30 ->37 30 ->39 31 ->34 31 ->35 31 ->37 31 ->42 32 ->37 32 ->38 32 ->40 32 ->42 32 ->43 33 ->34 33 ->38 33 ->41 33 ->42 34 ->47 35 ->44 35 ->52 36 ->44 36 ->53 37 ->45 37 ->46 37 ->49 37 ->53 38 ->49 38 ->51 39 ->49 39 ->53 40 ->45 40 ->47 40 ->49 40 ->52 40 ->53 41 ->44 41 ->45 41 ->47 41 ->49 41 ->50 41 ->51 41 ->53 42 ->45 42 ->45 42 ->50 43 ->48 43 ->50 43 ->50 43 ->51 44 ->54 44 ->56 44 ->57 44 ->58 44 ->61 45 ->56 45 ->57 45 ->58 45 ->62 45 ->64 46 ->56 46 ->58 46 ->62 46 ->64 47 ->61 47 ->62 47 ->64 48 ->55 48 ->61 48 ->63 49 ->55 49 ->59 49 ->62 49 ->63 50 ->54 50 ->55 50 ->58 50 ->63 51 ->54 51 ->55 51 ->56 51 ->58 51 ->59 51 ->63 52 ->56 52 ->59 52 ->61 52 ->62 53 ->54 53 ->57 53 ->60 53 ->61 54 ->65 54 ->66 54 ->69 54 ->75 54 ->76 55 ->65 55 ->66 55 ->68 55 ->71 55 ->72 55 ->74 55 ->75 55 ->76 56 ->66 56 ->70 56 ->76 57 ->65 57 ->66 57 ->70 57 ->73 57 ->76 58 ->71 58 ->72 58 ->76 59 ->67 59 ->69 59 ->70 59 ->72 60 ->70 60 ->72 60 ->73 61 ->66 61 ->69 61 ->71 62 ->70 63 ->68 63 ->72 64 ->67 64 ->76 65 ->84 65 ->85 66 ->77 66 ->81 66 ->84 66 ->86 66 ->88 66 ->89 67 ->78 67 ->84 67 ->89 67 ->90 68 ->77 68 ->80 68 ->81 68 ->89 68 ->90 69 ->81 70 ->82 71 ->77 71 ->87 71 ->88 71 ->89 72 ->77 72 ->78 72 ->79 72 ->87 73 ->78 73 ->79 73 ->79 73 ->85 74 ->78 74 ->79 74 ->80 74 ->81 75 ->77 75 ->78 75 ->83 75 ->84 76 ->78 76 ->80 76 ->89 77 ->91 77 ->92 77 ->93 77 ->94 77 ->96 77 ->98 78 ->91 78 ->92 78 ->94 78 ->98 79 ->92 79 ->92 79 ->93 79 ->96 79 ->97 80 ->96 80 ->97 81 ->93 81 ->94 81 ->96 81 ->97 81 ->99 82 ->91 82 ->92 82 ->93 82 ->96 82 ->97 83 ->94 83 ->96 83 ->97 84 ->96 85 ->92 85 ->93 85 ->94 85 ->98 86 ->94 87 ->91 87 ->92 87 ->95 87 ->97 87 ->98 87 ->99 89 ->93 89 ->94 89 ->97 89 ->98 90 ->91 90 ->98 
}
