digraph G {
0 ->18 0 ->21 1 ->17 2 ->17 2 ->20 2 ->22 3 ->13 3 ->14 3 ->15 3 ->16 3 ->17 4 ->19 5 ->17 5 ->19 5 ->20 5 ->21 5 ->22 6 ->13 6 ->18 6 ->19 6 ->21 7 ->14 7 ->16 7 ->18 7 ->21 7 ->22 8 ->16 8 ->18 8 ->22 9 ->13 9 ->18 9 ->22 10 ->13 11 ->14 11 ->16 11 ->17 11 ->18 12 ->16 12 ->18 12 ->21 13 ->23 13 ->25 13 ->29 14 ->29 15 ->23 15 ->24 15 ->27 15 ->28 15 ->29 16 ->27 16 ->28 18 ->24 19 ->23 19 ->26 20 ->25 20 ->28 20 ->29 21 ->23 21 ->24 21 ->27 21 ->28 21 ->29 23 ->31 23 ->33 23 ->35 23 ->38 23 ->39 23 ->40 24 ->32 24 ->36 25 ->36 25 ->39 26 ->32 26 ->34 26 ->38 27 ->31 27 ->34 27 ->38 27 ->39 28 ->31 28 ->32 28 ->39 29 ->30 29 ->32 29 ->36 29 ->37 29 ->40 30 ->41 30 ->42 31 ->42 31 ->44 32 ->42 32 ->47 32 ->49 33 ->42 33 ->46 34 ->42 34 ->45 34 ->48 35 ->41 35 ->48 36 ->47 36 ->49 37 ->42 38 ->45 39 ->43 40 ->41 40 ->48 41 ->51 41 ->53 41 ->54 42 ->50 42 ->51 42 ->54 42 ->56 43 ->52 44 ->50 44 ->51 44 ->53 44 ->55 46 ->52 46 ->54 46 ->55 47 ->52 48 ->56 49 ->51 49 ->53 50 ->60 52 ->58 53 ->57 53 ->61 54 ->58 55 ->57 55 ->58 56 ->57 56 ->58 56 ->59 57 ->62 57 ->66 58 ->64 58 ->65 59 ->63 60 ->66 61 ->66 62 ->69 62 ->70 62 ->71 63 ->68 63 ->70 64 ->67 64 ->69 65 ->71 66 ->68 67 ->77 68 ->73 68 ->81 69 ->78 69 ->79 69 ->80 69 ->83 70 ->72 70 ->74 70 ->78 70 ->82 71 ->73 71 ->75 71 ->76 71 ->77 71 ->80 71 ->82 71 ->83 72 ->85 72 ->89 72 ->90 72 ->91 73 ->88 74 ->85 74 ->91 75 ->85 75 ->89 76 ->84 76 ->85 76 ->86 76 ->90 77 ->85 77 ->90 78 ->84 78 ->86 78 ->87 78 ->89 79 ->85 79 ->86 79 ->92 80 ->88 80 ->89 80 ->90 81 ->86 81 ->87 81 ->88 81 ->90 81 ->91 82 ->84 82 ->86 82 ->88 83 ->86 83 ->88 83 ->89 84 ->94 85 ->95 85 ->97 86 ->94 86 ->95 87 ->93 87 ->98 88 ->97 88 ->98 89 ->93 90 ->93 90 ->94 91 ->96 91 ->99 
}
