digraph G {
0 ->11 0 ->12 0 ->13 1 ->10 1 ->12 1 ->13 1 ->15 1 ->17 1 ->18 2 ->7 2 ->15 2 ->17 3 ->9 3 ->10 4 ->6 4 ->8 4 ->9 4 ->16 5 ->6 5 ->11 5 ->13 5 ->14 5 ->17 5 ->18 6 ->19 6 ->25 7 ->21 7 ->22 7 ->24 7 ->25 7 ->28 7 ->29 7 ->31 8 ->23 8 ->31 9 ->20 9 ->23 9 ->25 9 ->26 9 ->31 10 ->22 10 ->23 10 ->24 10 ->27 10 ->28 10 ->30 11 ->19 11 ->24 12 ->23 12 ->27 12 ->28 12 ->29 13 ->23 14 ->22 14 ->25 14 ->27 14 ->31 15 ->23 15 ->27 16 ->21 16 ->25 16 ->26 16 ->27 16 ->31 17 ->20 17 ->31 18 ->22 18 ->25 18 ->27 19 ->37 20 ->32 20 ->34 20 ->35 21 ->32 21 ->34 21 ->36 22 ->35 23 ->32 23 ->36 24 ->38 25 ->34 25 ->38 26 ->35 27 ->32 27 ->33 27 ->34 27 ->38 28 ->35 28 ->37 28 ->38 29 ->37 29 ->38 30 ->34 30 ->35 30 ->36 30 ->38 31 ->32 32 ->40 32 ->48 33 ->40 33 ->43 33 ->48 33 ->51 34 ->41 34 ->42 34 ->49 35 ->43 35 ->47 36 ->39 36 ->40 36 ->42 36 ->43 36 ->47 36 ->49 36 ->51 36 ->52 37 ->39 37 ->44 37 ->47 37 ->49 37 ->50 38 ->39 38 ->40 38 ->42 38 ->45 38 ->46 38 ->48 38 ->49 38 ->51 38 ->52 39 ->53 39 ->54 39 ->55 39 ->57 39 ->60 39 ->64 40 ->54 40 ->56 40 ->59 41 ->56 41 ->56 41 ->58 41 ->62 42 ->53 42 ->54 42 ->58 42 ->59 42 ->63 44 ->56 44 ->57 44 ->62 44 ->64 44 ->65 45 ->53 45 ->60 45 ->61 46 ->58 46 ->59 46 ->60 46 ->64 47 ->56 47 ->59 47 ->65 48 ->58 48 ->59 48 ->60 48 ->61 49 ->55 49 ->57 49 ->58 49 ->60 49 ->61 50 ->57 50 ->61 50 ->63 51 ->54 51 ->58 52 ->54 52 ->56 52 ->61 54 ->66 54 ->70 55 ->67 57 ->67 57 ->72 58 ->66 58 ->67 58 ->68 59 ->66 59 ->73 60 ->66 60 ->70 60 ->73 61 ->66 61 ->70 61 ->71 61 ->73 62 ->69 62 ->70 62 ->72 62 ->73 63 ->69 63 ->70 63 ->71 63 ->72 63 ->73 64 ->67 64 ->70 65 ->66 65 ->67 65 ->68 65 ->73 66 ->74 66 ->75 66 ->76 66 ->79 67 ->74 67 ->75 67 ->76 67 ->78 67 ->81 67 ->83 68 ->78 68 ->81 68 ->83 69 ->81 70 ->74 70 ->84 70 ->86 71 ->75 71 ->77 71 ->78 71 ->80 71 ->81 71 ->83 71 ->86 72 ->78 72 ->83 72 ->84 72 ->86 73 ->74 73 ->75 73 ->76 73 ->79 73 ->82 73 ->85 75 ->88 75 ->91 76 ->87 76 ->92 77 ->87 77 ->88 77 ->92 78 ->88 79 ->87 79 ->89 79 ->90 79 ->92 80 ->90 80 ->91 81 ->87 81 ->90 81 ->92 82 ->90 83 ->87 83 ->90 83 ->91 84 ->87 84 ->90 86 ->88 86 ->91 87 ->94 88 ->93 88 ->97 89 ->93 89 ->96 89 ->98 89 ->99 90 ->93 90 ->99 91 ->95 91 ->96 91 ->97 92 ->96 
}
