digraph G {
0 ->13 0 ->18 0 ->19 1 ->23 2 ->17 2 ->22 2 ->23 3 ->11 4 ->16 4 ->19 5 ->16 5 ->23 6 ->17 6 ->21 6 ->23 7 ->12 7 ->15 7 ->16 7 ->17 7 ->18 7 ->20 8 ->18 8 ->21 9 ->15 9 ->18 9 ->23 10 ->11 10 ->14 10 ->16 10 ->20 10 ->21 10 ->23 11 ->24 11 ->25 11 ->26 11 ->30 11 ->33 11 ->34 11 ->37 12 ->30 12 ->36 13 ->24 13 ->25 13 ->28 13 ->29 13 ->35 13 ->37 14 ->32 14 ->33 14 ->34 15 ->32 15 ->34 15 ->36 16 ->24 16 ->25 16 ->27 16 ->29 16 ->35 17 ->30 17 ->32 18 ->29 18 ->30 18 ->31 18 ->32 18 ->33 19 ->24 19 ->35 19 ->37 20 ->24 20 ->25 20 ->29 20 ->34 21 ->25 21 ->33 21 ->35 22 ->29 22 ->30 22 ->34 23 ->24 23 ->25 23 ->30 23 ->34 24 ->38 24 ->41 25 ->38 27 ->38 27 ->42 29 ->38 29 ->40 31 ->42 32 ->42 33 ->42 34 ->39 35 ->42 36 ->38 36 ->42 37 ->38 37 ->39 37 ->40 38 ->44 38 ->45 38 ->46 38 ->48 39 ->45 39 ->46 39 ->49 39 ->50 40 ->47 40 ->49 41 ->43 42 ->48 44 ->53 46 ->52 47 ->52 47 ->53 47 ->54 47 ->55 48 ->52 48 ->54 49 ->51 49 ->54 50 ->51 51 ->56 52 ->57 52 ->59 52 ->61 53 ->60 54 ->57 54 ->58 54 ->60 55 ->58 56 ->63 56 ->66 56 ->69 57 ->63 57 ->68 57 ->70 58 ->67 58 ->69 59 ->63 59 ->67 59 ->69 60 ->64 60 ->67 60 ->68 61 ->62 61 ->65 61 ->66 61 ->68 61 ->70 61 ->71 62 ->72 62 ->75 63 ->72 63 ->73 63 ->74 64 ->73 65 ->72 65 ->75 66 ->73 66 ->75 67 ->74 67 ->76 69 ->73 69 ->74 69 ->76 70 ->72 71 ->72 71 ->74 71 ->75 72 ->78 72 ->79 72 ->80 72 ->81 72 ->84 72 ->86 73 ->83 73 ->84 73 ->85 74 ->78 74 ->79 74 ->81 74 ->82 74 ->83 75 ->77 75 ->79 75 ->81 75 ->82 75 ->85 77 ->87 77 ->89 77 ->90 78 ->90 80 ->87 80 ->88 80 ->90 80 ->91 82 ->89 83 ->89 84 ->91 85 ->87 86 ->89 87 ->94 87 ->95 87 ->96 87 ->97 88 ->94 88 ->95 89 ->92 89 ->93 89 ->95 89 ->96 89 ->97 91 ->94 91 ->96 91 ->97 93 ->99 94 ->98 95 ->98 96 ->99 97 ->98 
}
