digraph G {
0 ->6 0 ->9 0 ->10 0 ->14 1 ->5 1 ->11 1 ->13 1 ->14 2 ->8 2 ->13 3 ->8 3 ->11 4 ->6 4 ->7 4 ->9 4 ->10 4 ->12 5 ->18 5 ->19 6 ->16 6 ->18 6 ->19 7 ->15 7 ->16 7 ->18 8 ->15 8 ->18 9 ->19 10 ->19 11 ->16 11 ->17 11 ->19 12 ->15 13 ->16 13 ->17 14 ->15 15 ->20 15 ->21 16 ->21 18 ->22 18 ->24 19 ->23 20 ->25 20 ->28 21 ->28 21 ->28 23 ->25 23 ->29 24 ->26 24 ->27 24 ->30 25 ->41 26 ->31 26 ->32 26 ->33 26 ->35 26 ->39 27 ->31 27 ->32 27 ->37 28 ->36 28 ->40 28 ->42 29 ->41 30 ->31 30 ->34 30 ->36 30 ->38 30 ->41 31 ->45 31 ->47 32 ->44 32 ->47 33 ->43 33 ->49 34 ->43 34 ->47 34 ->48 34 ->49 35 ->45 36 ->45 36 ->47 37 ->44 37 ->49 39 ->43 39 ->46 40 ->43 40 ->49 41 ->43 41 ->47 41 ->49 42 ->43 42 ->47 42 ->49 43 ->53 43 ->54 44 ->51 44 ->54 45 ->50 45 ->53 45 ->54 47 ->52 48 ->52 49 ->50 49 ->52 49 ->53 50 ->55 50 ->57 50 ->58 50 ->62 50 ->64 50 ->68 51 ->58 51 ->59 51 ->60 51 ->61 51 ->66 51 ->68 52 ->56 52 ->65 52 ->66 52 ->67 53 ->57 53 ->58 53 ->60 53 ->64 53 ->66 53 ->67 54 ->60 54 ->63 54 ->64 54 ->67 54 ->68 55 ->69 56 ->69 56 ->70 57 ->69 57 ->70 58 ->69 58 ->70 58 ->71 58 ->73 59 ->72 60 ->69 60 ->70 60 ->73 61 ->74 62 ->70 62 ->73 62 ->74 63 ->71 64 ->69 65 ->70 66 ->70 66 ->72 67 ->72 67 ->72 68 ->69 68 ->74 69 ->79 69 ->80 69 ->81 69 ->86 69 ->87 70 ->75 70 ->76 70 ->81 70 ->82 70 ->86 71 ->76 71 ->78 71 ->80 71 ->84 71 ->87 72 ->82 72 ->84 72 ->85 73 ->79 73 ->83 73 ->84 74 ->77 74 ->79 74 ->81 74 ->83 74 ->87 75 ->90 75 ->98 76 ->93 76 ->95 76 ->97 77 ->88 77 ->89 77 ->95 77 ->97 78 ->91 78 ->92 78 ->99 79 ->89 79 ->90 80 ->90 80 ->91 80 ->92 80 ->96 81 ->91 81 ->95 81 ->97 81 ->98 81 ->99 82 ->94 82 ->95 83 ->88 83 ->89 83 ->91 83 ->99 84 ->88 84 ->89 84 ->90 84 ->92 84 ->95 84 ->99 85 ->88 85 ->95 85 ->96 86 ->96 86 ->98 86 ->99 87 ->89 87 ->95 
}
