files/tasks_parameters/ExAp01/sample8.txt 1.09188 7.2562 4.46819 0.454772 11.4139
files/tasks_parameters/ExAp01/sample12.txt 1.63076 9.70908 5.28286 0.618515 15.5235
files/tasks_parameters/ExAp01/sample2.txt 1.4543 8.14159 5.7401 0.620531 15.5741
files/tasks_parameters/ExAp01/sample44.txt 1.35997 7.25164 5.75904 0.557631 13.9954
files/tasks_parameters/ExAp01/sample27.txt 1.3183 8.10944 5.64946 0.564878 14.1774
files/tasks_parameters/ExAp01/sample17.txt 1.25271 7.11225 5.46658 0.527183 13.2313
files/tasks_parameters/ExAp01/sample9.txt 1.19837 7.62559 5.37813 0.517277 12.9827
files/tasks_parameters/ExAp01/sample34.txt 1.2448 7.04587 5.93037 0.497709 12.4915
files/tasks_parameters/ExAp01/sample40.txt 1.201 8.03037 5.123 0.502383 12.6088
files/tasks_parameters/ExAp01/sample33.txt 1.61627 9.22935 5.92956 0.659262 16.5462
files/tasks_parameters/ExAp01/sample48.txt 1.15172 8.12182 5.1577 0.452491 11.3566
files/tasks_parameters/ExAp01/sample29.txt 1.53894 8.06133 5.12331 0.650652 16.3301
files/tasks_parameters/ExAp01/sample11.txt 1.35889 7.63104 5.37897 0.563302 14.1378
files/tasks_parameters/ExAp01/sample14.txt 1.13552 6.66403 4.66322 0.471536 11.8346
files/tasks_parameters/ExAp01/sample0.txt 1.5178 9.3266 4.98971 0.6311 15.8394
files/tasks_parameters/ExAp01/sample7.txt 1.23404 7.34863 5.19436 0.515527 12.9387
files/tasks_parameters/ExAp01/sample23.txt 1.40203 6.68564 5.54308 0.588617 14.7732
files/tasks_parameters/ExAp01/sample13.txt 1.60753 9.31093 5.35591 0.632849 15.8833
files/tasks_parameters/ExAp01/sample22.txt 1.28633 7.65588 5.04866 0.540336 13.5614
files/tasks_parameters/ExAp01/sample25.txt 1.0295 6.17035 5.0141 0.408296 10.2474
files/tasks_parameters/ExAp01/sample36.txt 1.19007 7.03772 4.66274 0.507647 12.741
files/tasks_parameters/ExAp01/sample46.txt 1.37122 7.73433 4.79934 0.536843 13.4737
files/tasks_parameters/ExAp01/sample31.txt 1.16998 6.96928 5.16482 0.485817 12.1931
files/tasks_parameters/ExAp01/sample37.txt 1.59473 9.52443 5.74224 0.65799 16.5143
files/tasks_parameters/ExAp01/sample16.txt 1.33876 8.63521 4.97261 0.516328 12.9588
files/tasks_parameters/ExAp01/sample10.txt 1.39877 7.28353 6.16876 0.615651 15.4516
files/tasks_parameters/ExAp01/sample39.txt 1.14417 6.3405 4.6137 0.468873 11.7678
files/tasks_parameters/ExAp01/sample19.txt 1.40273 8.85528 5.22306 0.622152 15.6148
files/tasks_parameters/ExAp01/sample20.txt 1.39217 8.1141 5.21177 0.586994 14.7324
files/tasks_parameters/ExAp01/sample43.txt 1.30697 7.21373 5.6367 0.53748 13.4897
files/tasks_parameters/ExAp01/sample32.txt 1.47045 8.30592 5.38137 0.593918 14.9062
files/tasks_parameters/ExAp01/sample45.txt 1.29703 7.94069 4.96323 0.547271 13.7354
files/tasks_parameters/ExAp01/sample26.txt 1.12681 7.57061 4.62637 0.480146 12.0507
files/tasks_parameters/ExAp01/sample5.txt 1.38077 8.0307 5.35681 0.59407 14.91
files/tasks_parameters/ExAp01/sample21.txt 1.02755 5.87802 4.61744 0.434264 10.8992
files/tasks_parameters/ExAp01/sample38.txt 1.18484 7.66999 4.86632 0.496808 12.4689
files/tasks_parameters/ExAp01/sample1.txt 1.14035 7.21312 4.63213 0.486293 12.205
files/tasks_parameters/ExAp01/sample15.txt 1.28125 8.02273 5.50855 0.531063 13.3286
files/tasks_parameters/ExAp01/sample24.txt 1.31554 8.66348 5.4905 0.548998 13.7788
files/tasks_parameters/ExAp01/sample3.txt 1.18752 7.74268 4.79918 0.477387 11.9815
files/tasks_parameters/ExAp01/sample6.txt 1.51709 8.57133 5.80157 0.633604 15.9022
files/tasks_parameters/ExAp01/sample30.txt 1.68756 8.18878 5.90888 0.633576 15.9015
files/tasks_parameters/ExAp01/sample42.txt 1.30673 8.57689 5.67253 0.54426 13.6599
files/tasks_parameters/ExAp01/sample4.txt 1.30007 8.40354 4.57985 0.563519 14.1432
files/tasks_parameters/ExAp01/sample28.txt 1.11521 6.44114 4.96426 0.449721 11.2871
files/tasks_parameters/ExAp01/sample18.txt 1.36968 8.56363 4.60946 0.543766 13.6475
files/tasks_parameters/ExAp01/sample35.txt 1.94181 11.0387 6.34514 0.761377 19.1091
files/tasks_parameters/ExAp01/sample47.txt 1.32345 7.14493 5.22131 0.545046 13.6796
files/tasks_parameters/ExAp01/sample49.txt 1.30001 6.65996 4.80244 0.498533 12.5122
files/tasks_parameters/ExAp01/sample41.txt 1.18983 7.09069 5.35462 0.497129 12.477
