files/tasks_parameters/ExAp01/sample8.txt 1.19157 7.2562 4.46819 0.454772 36.9137
files/tasks_parameters/ExAp01/sample12.txt 1.55408 9.70908 5.28286 0.618515 50.2046
files/tasks_parameters/ExAp01/sample2.txt 1.51858 8.14159 5.7401 0.620531 50.3682
files/tasks_parameters/ExAp01/sample44.txt 1.42962 7.25164 5.75904 0.557631 45.2626
files/tasks_parameters/ExAp01/sample27.txt 1.37562 8.10944 5.64946 0.564878 45.8509
files/tasks_parameters/ExAp01/sample17.txt 1.24563 7.11225 5.46658 0.527183 42.7913
files/tasks_parameters/ExAp01/sample9.txt 1.25207 7.62559 5.37813 0.517277 41.9872
files/tasks_parameters/ExAp01/sample34.txt 1.26349 7.04587 5.93037 0.497709 40.3989
files/tasks_parameters/ExAp01/sample40.txt 1.27785 8.03037 5.123 0.502383 40.7782
files/tasks_parameters/ExAp01/sample33.txt 1.70283 9.22935 5.92956 0.659262 53.512
files/tasks_parameters/ExAp01/sample48.txt 1.22731 8.12182 5.1577 0.452491 36.7285
files/tasks_parameters/ExAp01/sample29.txt 1.48884 8.06133 5.12331 0.650652 52.8132
files/tasks_parameters/ExAp01/sample11.txt 1.42502 7.63104 5.37897 0.563302 45.723
files/tasks_parameters/ExAp01/sample14.txt 1.19098 6.66403 4.66322 0.471536 38.2744
files/tasks_parameters/ExAp01/sample0.txt 1.51223 9.3266 4.98971 0.6311 51.2261
files/tasks_parameters/ExAp01/sample7.txt 1.35237 7.34863 5.19436 0.515527 41.8451
files/tasks_parameters/ExAp01/sample23.txt 1.45231 6.68564 5.54308 0.588617 47.7778
files/tasks_parameters/ExAp01/sample13.txt 1.5531 9.31093 5.35591 0.632849 51.3681
files/tasks_parameters/ExAp01/sample22.txt 1.34198 7.65588 5.04866 0.540336 43.8588
files/tasks_parameters/ExAp01/sample25.txt 1.06016 6.17035 5.0141 0.408296 33.1412
files/tasks_parameters/ExAp01/sample36.txt 1.31872 7.03772 4.66274 0.507647 41.2055
files/tasks_parameters/ExAp01/sample46.txt 1.37753 7.73433 4.79934 0.536843 43.5754
files/tasks_parameters/ExAp01/sample31.txt 1.22838 6.96928 5.16482 0.485817 39.4336
files/tasks_parameters/ExAp01/sample37.txt 1.6009 9.52443 5.74224 0.65799 53.4087
files/tasks_parameters/ExAp01/sample16.txt 1.35176 8.63521 4.97261 0.516328 41.9101
files/tasks_parameters/ExAp01/sample10.txt 1.42504 7.28353 6.16876 0.615651 49.9721
files/tasks_parameters/ExAp01/sample39.txt 1.11772 6.3405 4.6137 0.468873 38.0582
files/tasks_parameters/ExAp01/sample19.txt 1.492 8.85528 5.22306 0.622152 50.4999
files/tasks_parameters/ExAp01/sample20.txt 1.3916 8.1141 5.21177 0.586994 47.646
files/tasks_parameters/ExAp01/sample43.txt 1.29271 7.21373 5.6367 0.53748 43.627
files/tasks_parameters/ExAp01/sample32.txt 1.52703 8.30592 5.38137 0.593918 48.2081
files/tasks_parameters/ExAp01/sample45.txt 1.3283 7.94069 4.96323 0.547271 44.4217
files/tasks_parameters/ExAp01/sample26.txt 1.12324 7.57061 4.62637 0.480146 38.9732
files/tasks_parameters/ExAp01/sample5.txt 1.40039 8.0307 5.35681 0.59407 48.2204
files/tasks_parameters/ExAp01/sample21.txt 1.12126 5.87802 4.61744 0.434264 35.249
files/tasks_parameters/ExAp01/sample38.txt 1.27302 7.66999 4.86632 0.496808 40.3257
files/tasks_parameters/ExAp01/sample1.txt 1.16335 7.21312 4.63213 0.486293 39.4722
files/tasks_parameters/ExAp01/sample15.txt 1.30198 8.02273 5.50855 0.531063 43.1061
files/tasks_parameters/ExAp01/sample24.txt 1.35638 8.66348 5.4905 0.548998 44.5619
files/tasks_parameters/ExAp01/sample3.txt 1.20886 7.74268 4.79918 0.477387 38.7493
files/tasks_parameters/ExAp01/sample6.txt 1.51002 8.57133 5.80157 0.633604 51.4294
files/tasks_parameters/ExAp01/sample30.txt 1.57536 8.18878 5.90888 0.633576 51.4271
files/tasks_parameters/ExAp01/sample42.txt 1.43693 8.57689 5.67253 0.54426 44.1773
files/tasks_parameters/ExAp01/sample4.txt 1.37657 8.40354 4.57985 0.563519 45.7406
files/tasks_parameters/ExAp01/sample28.txt 1.10025 6.44114 4.96426 0.449721 36.5037
files/tasks_parameters/ExAp01/sample18.txt 1.32739 8.56363 4.60946 0.543766 44.1373
files/tasks_parameters/ExAp01/sample35.txt 1.84905 11.0387 6.34514 0.761377 61.8007
files/tasks_parameters/ExAp01/sample47.txt 1.26643 7.14493 5.22131 0.545046 44.2411
files/tasks_parameters/ExAp01/sample49.txt 1.24544 6.65996 4.80244 0.498533 40.4658
files/tasks_parameters/ExAp01/sample41.txt 1.2223 7.09069 5.35462 0.497129 40.3517
