0.4834792799999999
Task0 255 15 31 
Task1 7 255 31 
Task2 31 1 255 
Task3 127 31 255 
Task4 255 255 15 
Task5 255 15 7 
Task6 1 255 63 
Task7 255 255 63 
Task8 255 127 255 
Task9 255 127 63 
Task10 15 15 255 
Task11 7 255 31 
Task12 15 31 255 
Task13 63 31 255 
Task14 255 127 31 
Task15 31 255 63 
Task16 7 255 3 
Task17 127 63 255 
Task18 255 31 1 
Task19 255 127 127 
Task20 7 63 255 
Task21 255 31 15 
Task22 255 15 31 
Task23 255 31 31 
Task24 127 15 255 
Task25 3 255 127 
Task26 63 7 255 
Task27 15 255 63 
Task28 7 255 255 
Task29 255 63 63 
Task30 7 255 255 
Task31 127 255 127 
Task32 255 63 63 
Task33 15 255 255 
Task34 255 15 1 
Task35 255 255 31 
Task36 127 255 63 
Task37 255 127 31 
Task38 255 63 63 
Task39 31 127 255 
Task40 63 255 15 
Task41 15 31 255 
Task42 15 255 63 
Task43 255 15 127 
Task44 3 31 255 
Task45 255 7 31 
Task46 255 31 63 
Task47 63 255 1 
Task48 7 255 7 
Task49 255 63 127 
Task50 255 1 15 
Task51 127 15 255 
Task52 255 255 127 
Task53 63 255 31 
Task54 255 3 15 
Task55 31 255 7 
Task56 255 31 7 
Task57 7 3 255 
Task58 31 255 127 
Task59 31 127 255 
Task60 255 31 255 
Task61 15 63 255 
Task62 127 255 127 
Task63 31 15 255 
Task64 127 127 255 
Task65 255 15 15 
Task66 255 15 15 
Task67 255 15 255 
Task68 63 31 255 
Task69 255 255 127 
Task70 255 255 63 
Task71 127 255 255 
Task72 255 255 127 
Task73 255 1 15 
Task74 255 127 255 
Task75 3 31 255 
Task76 127 255 31 
Task77 255 63 15 
Task78 63 255 31 
Task79 127 15 255 
Task80 3 15 255 
Task81 127 127 255 
Task82 63 255 127 
Task83 255 255 127 
Task84 255 127 7 
Task85 127 31 255 
Task86 255 63 127 
Task87 255 63 255 
Task88 7 63 255 
Task89 127 255 31 
Task90 127 255 63 
Task91 127 255 63 
Task92 255 255 7 
Task93 255 255 127 
Task94 255 255 15 
Task95 63 255 127 
Task96 15 3 255 
Task97 1 63 255 
Task98 31 15 255 
Task99 3 255 31 
