0.46396488
Task0 31 3 127 
Task1 31 255 3 
Task2 127 31 127 
Task3 63 255 255 
Task4 15 255 63 
Task5 15 255 31 
Task6 255 255 255 
Task7 127 15 31 
Task8 255 15 3 
Task9 255 255 31 
Task10 63 255 7 
Task11 255 255 63 
Task12 15 255 31 
Task13 15 127 127 
Task14 255 127 7 
Task15 255 31 31 
Task16 127 31 127 
Task17 127 127 127 
Task18 15 255 255 
Task19 31 255 3 
Task20 127 63 127 
Task21 63 1 255 
Task22 63 31 255 
Task23 255 15 15 
Task24 31 255 255 
Task25 63 63 1 
Task26 63 255 255 
Task27 127 127 7 
Task28 63 127 255 
Task29 63 63 255 
Task30 127 127 3 
Task31 63 31 127 
Task32 255 7 15 
Task33 255 127 127 
Task34 127 127 15 
Task35 15 7 255 
Task36 255 7 1 
Task37 63 127 255 
Task38 7 255 31 
Task39 255 63 127 
Task40 127 63 255 
Task41 255 1 63 
Task42 63 7 255 
Task43 255 31 255 
Task44 15 7 255 
Task45 127 1 255 
Task46 127 63 255 
Task47 127 127 127 
Task48 7 7 127 
Task49 3 255 127 
Task50 127 7 31 
Task51 1 7 255 
Task52 255 31 255 
Task53 255 63 15 
Task54 31 255 1 
Task55 15 255 255 
Task56 255 31 7 
Task57 255 127 7 
Task58 3 255 15 
Task59 63 127 15 
Task60 3 255 255 
Task61 127 255 7 
Task62 127 127 63 
Task63 127 15 15 
Task64 255 63 63 
Task65 7 255 7 
Task66 31 127 7 
Task67 127 127 15 
Task68 31 31 255 
Task69 15 31 127 
Task70 3 255 63 
Task71 7 15 255 
Task72 15 255 15 
Task73 127 255 255 
Task74 255 255 7 
Task75 255 127 63 
Task76 127 127 255 
Task77 7 255 127 
Task78 15 255 63 
Task79 255 1 127 
Task80 255 255 127 
Task81 127 255 63 
Task82 127 255 15 
Task83 255 15 31 
Task84 127 63 63 
Task85 7 255 63 
Task86 63 7 255 
Task87 63 127 31 
Task88 3 255 1 
Task89 255 7 63 
Task90 255 31 15 
Task91 15 255 3 
Task92 255 255 255 
Task93 15 255 127 
Task94 127 127 15 
Task95 31 15 255 
Task96 15 255 31 
Task97 255 3 31 
Task98 7 127 127 
Task99 31 255 63 
