0.49053948699999994
Task0 15 127 63 
Task1 63 15 15 
Task2 255 255 15 
Task3 31 127 63 
Task4 63 63 127 
Task5 127 127 255 
Task6 127 127 31 
Task7 255 63 63 
Task8 127 127 31 
Task9 127 3 63 
Task10 15 7 63 
Task11 7 31 255 
Task12 255 127 255 
Task13 31 255 255 
Task14 1 63 255 
Task15 31 255 15 
Task16 127 255 15 
Task17 255 255 127 
Task18 127 63 63 
Task19 127 31 63 
Task20 255 31 1 
Task21 15 127 127 
Task22 15 127 1 
Task23 255 15 255 
Task24 31 255 7 
Task25 15 255 15 
Task26 15 255 63 
Task27 255 255 127 
Task28 15 63 7 
Task29 127 63 127 
Task30 7 127 31 
Task31 31 255 63 
Task32 31 255 255 
Task33 255 15 7 
Task34 3 7 127 
Task35 255 31 1 
Task36 63 255 7 
Task37 1 255 255 
Task38 127 15 63 
Task39 3 7 255 
Task40 15 255 255 
Task41 255 31 255 
Task42 15 255 7 
Task43 31 255 127 
Task44 255 31 31 
Task45 255 31 3 
Task46 15 255 3 
Task47 255 31 1 
Task48 127 31 7 
Task49 15 127 63 
Task50 1 255 3 
Task51 15 255 127 
Task52 7 31 255 
Task53 15 15 255 
Task54 127 127 63 
Task55 7 255 7 
Task56 63 127 63 
Task57 255 15 255 
Task58 255 15 31 
Task59 63 127 7 
Task60 127 63 255 
Task61 127 63 63 
Task62 31 255 15 
Task63 255 15 15 
Task64 255 7 15 
Task65 63 7 63 
Task66 1 63 255 
Task67 15 7 255 
Task68 255 127 3 
Task69 7 255 7 
Task70 3 15 255 
Task71 63 255 63 
Task72 63 127 255 
Task73 255 3 15 
Task74 63 63 255 
Task75 255 7 31 
Task76 63 127 127 
Task77 15 255 7 
Task78 7 3 255 
Task79 255 3 31 
Task80 3 63 127 
Task81 255 31 15 
Task82 63 255 31 
Task83 3 255 1 
Task84 255 15 31 
Task85 31 63 255 
Task86 3 1 127 
Task87 255 127 63 
Task88 1 15 255 
Task89 255 15 31 
Task90 255 15 1 
Task91 1 31 127 
Task92 255 127 255 
Task93 127 255 31 
Task94 63 63 255 
Task95 255 255 15 
Task96 31 15 255 
Task97 255 31 15 
Task98 255 31 127 
Task99 255 7 7 
