0.42887463
Task0 7 31 255 
Task1 255 15 15 
Task2 7 127 31 
Task3 63 63 15 
Task4 31 255 15 
Task5 127 255 255 
Task6 63 127 63 
Task7 127 1 127 
Task8 7 127 31 
Task9 127 31 255 
Task10 255 255 127 
Task11 255 15 31 
Task12 31 127 63 
Task13 127 15 15 
Task14 255 3 31 
Task15 31 255 127 
Task16 255 7 1 
Task17 127 15 63 
Task18 3 15 63 
Task19 63 63 3 
Task20 255 127 31 
Task21 63 63 15 
Task22 63 15 127 
Task23 63 127 7 
Task24 63 255 7 
Task25 3 63 7 
Task26 15 255 127 
Task27 255 63 7 
Task28 31 7 127 
Task29 255 7 7 
Task30 1 127 63 
Task31 63 15 31 
Task32 255 7 7 
Task33 255 127 1 
Task34 31 63 255 
Task35 31 63 1 
Task36 127 31 31 
Task37 63 15 15 
Task38 127 63 63 
Task39 15 127 31 
Task40 7 63 7 
Task41 15 127 63 
Task42 127 255 127 
Task43 255 31 3 
Task44 7 7 127 
Task45 7 255 31 
Task46 3 63 7 
Task47 15 15 255 
Task48 31 255 63 
Task49 255 15 7 
Task50 63 7 3 
Task51 63 15 127 
Task52 63 31 63 
Task53 63 31 31 
Task54 63 255 255 
Task55 15 63 3 
Task56 63 63 63 
Task57 31 15 63 
Task58 63 255 7 
Task59 255 127 31 
Task60 7 15 63 
Task61 255 31 15 
Task62 127 63 31 
Task63 15 31 63 
Task64 63 31 63 
Task65 15 63 7 
Task66 255 63 7 
Task67 3 127 255 
Task68 63 255 15 
Task69 7 63 31 
Task70 255 3 7 
Task71 31 255 31 
Task72 7 255 1 
Task73 255 127 31 
Task74 63 255 63 
Task75 63 15 127 
Task76 63 1 63 
Task77 3 15 63 
Task78 63 127 31 
Task79 63 31 63 
Task80 7 63 255 
Task81 127 255 255 
Task82 63 127 31 
Task83 127 255 255 
Task84 1 255 7 
Task85 127 127 255 
Task86 31 63 15 
Task87 63 7 1 
Task88 63 7 31 
Task89 7 15 255 
Task90 15 127 63 
Task91 127 31 63 
Task92 63 3 7 
Task93 7 63 15 
Task94 127 31 63 
Task95 31 15 255 
Task96 7 63 7 
Task97 255 127 63 
Task98 15 31 255 
Task99 15 31 255 
