files/tasks_parameters/ExAp01/sample8.txt 1.37833 6.77015 2.19458 0.288816 5.79262
files/tasks_parameters/ExAp01/sample12.txt 1.60897 9.58351 2.46081 0.337498 6.769
files/tasks_parameters/ExAp01/sample2.txt 1.5132 8.44418 2.50701 0.319127 6.40054
files/tasks_parameters/ExAp01/sample44.txt 1.35084 6.96299 2.23089 0.28229 5.66173
files/tasks_parameters/ExAp01/sample27.txt 1.36904 7.74306 2.16676 0.28602 5.73653
files/tasks_parameters/ExAp01/sample17.txt 1.39978 7.35053 2.25579 0.292348 5.86344
files/tasks_parameters/ExAp01/sample9.txt 1.33332 6.89392 2.21068 0.282399 5.6639
files/tasks_parameters/ExAp01/sample34.txt 1.41694 6.62788 2.3772 0.297742 5.97162
files/tasks_parameters/ExAp01/sample40.txt 1.36408 7.75686 2.17534 0.285619 5.72849
files/tasks_parameters/ExAp01/sample33.txt 1.61277 8.14826 2.6463 0.338073 6.78053
files/tasks_parameters/ExAp01/sample48.txt 1.28675 7.64107 2.14272 0.270011 5.41545
files/tasks_parameters/ExAp01/sample29.txt 1.36527 7.139 1.93769 0.286306 5.74226
files/tasks_parameters/ExAp01/sample11.txt 1.33712 6.88688 2.12981 0.280008 5.61596
files/tasks_parameters/ExAp01/sample14.txt 1.16979 6.11983 1.97599 0.247458 4.96311
files/tasks_parameters/ExAp01/sample0.txt 1.35736 8.2738 2.14256 0.289132 5.79894
files/tasks_parameters/ExAp01/sample7.txt 1.27458 6.87011 2.05821 0.269886 5.41293
files/tasks_parameters/ExAp01/sample23.txt 1.38898 6.52032 2.38087 0.291712 5.85068
files/tasks_parameters/ExAp01/sample13.txt 1.40418 8.73247 2.33415 0.295393 5.92451
files/tasks_parameters/ExAp01/sample22.txt 1.35134 6.9777 2.28948 0.283979 5.6956
files/tasks_parameters/ExAp01/sample25.txt 1.26341 6.23444 2.2122 0.267298 5.36103
files/tasks_parameters/ExAp01/sample36.txt 1.2232 6.6174 1.9458 0.253823 5.09077
files/tasks_parameters/ExAp01/sample46.txt 1.57946 7.42369 2.49128 0.327273 6.56391
files/tasks_parameters/ExAp01/sample31.txt 1.22474 7.22028 2.13584 0.25377 5.08971
files/tasks_parameters/ExAp01/sample37.txt 1.42166 8.90704 2.16981 0.295708 5.93084
files/tasks_parameters/ExAp01/sample16.txt 1.17877 8.18243 1.88294 0.24945 5.00306
files/tasks_parameters/ExAp01/sample10.txt 1.36089 6.96646 2.31217 0.285748 5.73107
files/tasks_parameters/ExAp01/sample39.txt 1.19163 6.4161 1.97266 0.251967 5.05354
files/tasks_parameters/ExAp01/sample19.txt 1.46938 8.16711 2.23199 0.308463 6.18665
files/tasks_parameters/ExAp01/sample20.txt 1.23379 7.28549 1.88944 0.25994 5.21346
files/tasks_parameters/ExAp01/sample43.txt 1.20536 6.86804 2.00142 0.25616 5.13765
files/tasks_parameters/ExAp01/sample32.txt 1.32859 8.15663 2.12995 0.281726 5.65042
files/tasks_parameters/ExAp01/sample45.txt 1.31457 7.75184 2.10599 0.274935 5.5142
files/tasks_parameters/ExAp01/sample26.txt 1.27445 7.4944 1.88956 0.267248 5.36003
files/tasks_parameters/ExAp01/sample5.txt 1.3503 8.08362 2.09961 0.28454 5.70685
files/tasks_parameters/ExAp01/sample21.txt 1.23906 6.11814 2.17119 0.26143 5.24334
files/tasks_parameters/ExAp01/sample38.txt 1.25704 7.761 1.96293 0.263659 5.28805
files/tasks_parameters/ExAp01/sample1.txt 1.37059 7.83752 2.13261 0.289228 5.80087
files/tasks_parameters/ExAp01/sample15.txt 1.35944 7.37971 2.12057 0.285825 5.73263
files/tasks_parameters/ExAp01/sample24.txt 1.41912 8.28531 2.25272 0.296628 5.9493
files/tasks_parameters/ExAp01/sample3.txt 1.46832 7.33359 2.39135 0.305084 6.11889
files/tasks_parameters/ExAp01/sample6.txt 1.33327 7.09894 2.24425 0.281804 5.65198
files/tasks_parameters/ExAp01/sample30.txt 1.4361 8.17669 2.03701 0.299204 6.00096
files/tasks_parameters/ExAp01/sample42.txt 1.41946 7.70416 2.42413 0.29743 5.96537
files/tasks_parameters/ExAp01/sample4.txt 1.46537 7.41691 2.36261 0.307803 6.17341
files/tasks_parameters/ExAp01/sample28.txt 1.25643 7.0562 2.07657 0.266428 5.34358
files/tasks_parameters/ExAp01/sample18.txt 1.27296 7.60139 2.1377 0.268016 5.37543
files/tasks_parameters/ExAp01/sample35.txt 1.53506 9.66795 2.28028 0.32244 6.46698
files/tasks_parameters/ExAp01/sample47.txt 1.19379 6.84842 2.12104 0.251655 5.04729
files/tasks_parameters/ExAp01/sample49.txt 1.22274 7.1497 2.11412 0.255889 5.13221
files/tasks_parameters/ExAp01/sample41.txt 1.25973 6.59911 2.07359 0.265885 5.3327
