files/tasks_parameters/ExAp01/sample8.txt 1.11762 7.2562 4.46819 0.454772 10.4947
files/tasks_parameters/ExAp01/sample12.txt 1.64043 9.70908 5.28286 0.618515 14.2734
files/tasks_parameters/ExAp01/sample2.txt 1.52658 8.14159 5.7401 0.620531 14.3199
files/tasks_parameters/ExAp01/sample44.txt 1.39804 7.25164 5.75904 0.557631 12.8684
files/tasks_parameters/ExAp01/sample27.txt 1.3183 8.10944 5.64946 0.564878 13.0357
files/tasks_parameters/ExAp01/sample17.txt 1.26953 7.11225 5.46658 0.527183 12.1658
files/tasks_parameters/ExAp01/sample9.txt 1.21393 7.62559 5.37813 0.517277 11.9372
files/tasks_parameters/ExAp01/sample34.txt 1.2448 7.04587 5.93037 0.497709 11.4856
files/tasks_parameters/ExAp01/sample40.txt 1.22744 8.03037 5.123 0.502383 11.5934
files/tasks_parameters/ExAp01/sample33.txt 1.63735 9.22935 5.92956 0.659262 15.2137
files/tasks_parameters/ExAp01/sample48.txt 1.15839 8.12182 5.1577 0.452491 10.4421
files/tasks_parameters/ExAp01/sample29.txt 1.55476 8.06133 5.12331 0.650652 15.015
files/tasks_parameters/ExAp01/sample11.txt 1.35889 7.63104 5.37897 0.563302 12.9993
files/tasks_parameters/ExAp01/sample14.txt 1.13168 6.66403 4.66322 0.471536 10.8816
files/tasks_parameters/ExAp01/sample0.txt 1.64519 9.3266 4.98971 0.6311 14.5638
files/tasks_parameters/ExAp01/sample7.txt 1.30127 7.34863 5.19436 0.515527 11.8968
files/tasks_parameters/ExAp01/sample23.txt 1.4053 6.68564 5.54308 0.588617 13.5835
files/tasks_parameters/ExAp01/sample13.txt 1.65195 9.31093 5.35591 0.632849 14.6042
files/tasks_parameters/ExAp01/sample22.txt 1.29523 7.65588 5.04866 0.540336 12.4693
files/tasks_parameters/ExAp01/sample25.txt 1.0295 6.17035 5.0141 0.408296 9.42221
files/tasks_parameters/ExAp01/sample36.txt 1.19007 7.03772 4.66274 0.507647 11.7149
files/tasks_parameters/ExAp01/sample46.txt 1.35236 7.73433 4.79934 0.536843 12.3887
files/tasks_parameters/ExAp01/sample31.txt 1.19045 6.96928 5.16482 0.485817 11.2112
files/tasks_parameters/ExAp01/sample37.txt 1.63274 9.52443 5.74224 0.65799 15.1844
files/tasks_parameters/ExAp01/sample16.txt 1.43884 8.63521 4.97261 0.516328 11.9153
files/tasks_parameters/ExAp01/sample10.txt 1.39877 7.28353 6.16876 0.615651 14.2073
files/tasks_parameters/ExAp01/sample39.txt 1.14417 6.3405 4.6137 0.468873 10.8202
files/tasks_parameters/ExAp01/sample19.txt 1.63011 8.85528 5.22306 0.622152 14.3574
files/tasks_parameters/ExAp01/sample20.txt 1.39419 8.1141 5.21177 0.586994 13.546
files/tasks_parameters/ExAp01/sample43.txt 1.30697 7.21373 5.6367 0.53748 12.4034
files/tasks_parameters/ExAp01/sample32.txt 1.60321 8.30592 5.38137 0.593918 13.7058
files/tasks_parameters/ExAp01/sample45.txt 1.42252 7.94069 4.96323 0.547271 12.6293
files/tasks_parameters/ExAp01/sample26.txt 1.12662 7.57061 4.62637 0.480146 11.0803
files/tasks_parameters/ExAp01/sample5.txt 1.49363 8.0307 5.35681 0.59407 13.7093
files/tasks_parameters/ExAp01/sample21.txt 1.02755 5.87802 4.61744 0.434264 10.0215
files/tasks_parameters/ExAp01/sample38.txt 1.18492 7.66999 4.86632 0.496808 11.4648
files/tasks_parameters/ExAp01/sample1.txt 1.18368 7.21312 4.63213 0.486293 11.2222
files/tasks_parameters/ExAp01/sample15.txt 1.28125 8.02273 5.50855 0.531063 12.2553
files/tasks_parameters/ExAp01/sample24.txt 1.38797 8.66348 5.4905 0.548998 12.6692
files/tasks_parameters/ExAp01/sample3.txt 1.18752 7.74268 4.79918 0.477387 11.0166
files/tasks_parameters/ExAp01/sample6.txt 1.50521 8.57133 5.80157 0.633604 14.6216
files/tasks_parameters/ExAp01/sample30.txt 1.64691 8.18878 5.90888 0.633576 14.621
files/tasks_parameters/ExAp01/sample42.txt 1.30673 8.57689 5.67253 0.54426 12.5598
files/tasks_parameters/ExAp01/sample4.txt 1.34993 8.40354 4.57985 0.563519 13.0043
files/tasks_parameters/ExAp01/sample28.txt 1.0744 6.44114 4.96426 0.449721 10.3782
files/tasks_parameters/ExAp01/sample18.txt 1.32774 8.56363 4.60946 0.543766 12.5485
files/tasks_parameters/ExAp01/sample35.txt 1.98239 11.0387 6.34514 0.761377 17.5702
files/tasks_parameters/ExAp01/sample47.txt 1.32345 7.14493 5.22131 0.545046 12.578
files/tasks_parameters/ExAp01/sample49.txt 1.30601 6.65996 4.80244 0.498533 11.5046
files/tasks_parameters/ExAp01/sample41.txt 1.18983 7.09069 5.35462 0.497129 11.4722
