files/tasks_parameters/ExAp01/sample8.txt 2.51444 6.77015 2.19458 0.288816 6.66499
files/tasks_parameters/ExAp01/sample12.txt 2.93584 9.58351 2.46081 0.337498 7.78843
files/tasks_parameters/ExAp01/sample2.txt 2.77392 8.44418 2.50701 0.319127 7.36448
files/tasks_parameters/ExAp01/sample44.txt 2.46428 6.96299 2.23089 0.28229 6.51439
files/tasks_parameters/ExAp01/sample27.txt 2.50714 7.74306 2.16676 0.28602 6.60046
files/tasks_parameters/ExAp01/sample17.txt 2.52965 7.35053 2.25579 0.292348 6.74648
files/tasks_parameters/ExAp01/sample9.txt 2.48021 6.89392 2.21068 0.282399 6.5169
files/tasks_parameters/ExAp01/sample34.txt 2.61321 6.62788 2.3772 0.297742 6.87096
files/tasks_parameters/ExAp01/sample40.txt 2.48689 7.75686 2.17534 0.285619 6.59121
files/tasks_parameters/ExAp01/sample33.txt 2.96323 8.14826 2.6463 0.338073 7.80169
files/tasks_parameters/ExAp01/sample48.txt 2.3859 7.64107 2.14272 0.270011 6.23103
files/tasks_parameters/ExAp01/sample29.txt 2.41722 7.139 1.93769 0.286306 6.60705
files/tasks_parameters/ExAp01/sample11.txt 2.44817 6.88688 2.12981 0.280008 6.46173
files/tasks_parameters/ExAp01/sample14.txt 2.12932 6.11983 1.97599 0.247458 5.71056
files/tasks_parameters/ExAp01/sample0.txt 2.53207 8.2738 2.14256 0.289132 6.67227
files/tasks_parameters/ExAp01/sample7.txt 2.36842 6.87011 2.05821 0.269886 6.22813
files/tasks_parameters/ExAp01/sample23.txt 2.53468 6.52032 2.38087 0.291712 6.73181
files/tasks_parameters/ExAp01/sample13.txt 2.58083 8.73247 2.33415 0.295393 6.81675
files/tasks_parameters/ExAp01/sample22.txt 2.51133 6.9777 2.28948 0.283979 6.55337
files/tasks_parameters/ExAp01/sample25.txt 2.36001 6.23444 2.2122 0.267298 6.16841
files/tasks_parameters/ExAp01/sample36.txt 2.23152 6.6174 1.9458 0.253823 5.85745
files/tasks_parameters/ExAp01/sample46.txt 2.9025 7.42369 2.49128 0.327273 7.55245
files/tasks_parameters/ExAp01/sample31.txt 2.23337 7.22028 2.13584 0.25377 5.85623
files/tasks_parameters/ExAp01/sample37.txt 2.58435 8.90704 2.16981 0.295708 6.82403
files/tasks_parameters/ExAp01/sample16.txt 2.13698 8.18243 1.88294 0.24945 5.75653
files/tasks_parameters/ExAp01/sample10.txt 2.47692 6.96646 2.31217 0.285748 6.59418
files/tasks_parameters/ExAp01/sample39.txt 2.22743 6.4161 1.97266 0.251967 5.81462
files/tasks_parameters/ExAp01/sample19.txt 2.71772 8.16711 2.23199 0.308463 7.11837
files/tasks_parameters/ExAp01/sample20.txt 2.30981 7.28549 1.88944 0.25994 5.99861
files/tasks_parameters/ExAp01/sample43.txt 2.20639 6.86804 2.00142 0.25616 5.91139
files/tasks_parameters/ExAp01/sample32.txt 2.46267 8.15663 2.12995 0.281726 6.50138
files/tasks_parameters/ExAp01/sample45.txt 2.38137 7.75184 2.10599 0.274935 6.34465
files/tasks_parameters/ExAp01/sample26.txt 2.35424 7.4944 1.88956 0.267248 6.16726
files/tasks_parameters/ExAp01/sample5.txt 2.49386 8.08362 2.09961 0.28454 6.56631
files/tasks_parameters/ExAp01/sample21.txt 2.2869 6.11814 2.17119 0.26143 6.03299
files/tasks_parameters/ExAp01/sample38.txt 2.30255 7.761 1.96293 0.263659 6.08444
files/tasks_parameters/ExAp01/sample1.txt 2.54731 7.83752 2.13261 0.289228 6.67449
files/tasks_parameters/ExAp01/sample15.txt 2.5038 7.37971 2.12057 0.285825 6.59597
files/tasks_parameters/ExAp01/sample24.txt 2.5745 8.28531 2.25272 0.296628 6.84527
files/tasks_parameters/ExAp01/sample3.txt 2.67737 7.33359 2.39135 0.305084 7.04041
files/tasks_parameters/ExAp01/sample6.txt 2.48384 7.09894 2.24425 0.281804 6.50318
files/tasks_parameters/ExAp01/sample30.txt 2.60984 8.17669 2.03701 0.299204 6.90471
files/tasks_parameters/ExAp01/sample42.txt 2.61292 7.70416 2.42413 0.29743 6.86377
files/tasks_parameters/ExAp01/sample4.txt 2.68019 7.41691 2.36261 0.307803 7.10314
files/tasks_parameters/ExAp01/sample28.txt 2.30141 7.0562 2.07657 0.266428 6.14834
files/tasks_parameters/ExAp01/sample18.txt 2.31398 7.60139 2.1377 0.268016 6.18498
files/tasks_parameters/ExAp01/sample35.txt 2.83454 9.66795 2.28028 0.32244 7.44091
files/tasks_parameters/ExAp01/sample47.txt 2.18617 6.84842 2.12104 0.251655 5.80742
files/tasks_parameters/ExAp01/sample49.txt 2.21121 7.1497 2.11412 0.255889 5.90513
files/tasks_parameters/ExAp01/sample41.txt 2.31551 6.59911 2.07359 0.265885 6.13582
