0.31763806
Task0 255 7 3 
Task1 63 7 63 
Task2 15 1 31 
Task3 63 31 1 
Task4 63 31 15 
Task5 15 63 31 
Task6 127 255 15 
Task7 15 255 1 
Task8 15 7 31 
Task9 31 1 7 
Task10 3 63 31 
Task11 63 31 1 
Task12 63 7 255 
Task13 3 31 7 
Task14 127 63 31 
Task15 7 7 31 
Task16 15 31 1 
Task17 255 15 63 
Task18 63 15 31 
Task19 31 31 63 
Task20 63 31 255 
Task21 15 31 255 
Task22 127 7 127 
Task23 31 31 127 
Task24 15 63 15 
Task25 31 31 63 
Task26 127 63 7 
Task27 15 63 7 
Task28 7 255 15 
Task29 31 255 31 
Task30 63 15 255 
Task31 63 15 31 
Task32 63 15 7 
Task33 63 7 3 
Task34 255 255 127 
Task35 63 31 255 
Task36 255 31 1 
Task37 255 255 7 
Task38 31 7 7 
Task39 31 255 7 
Task40 7 255 31 
Task41 255 255 63 
Task42 3 255 15 
Task43 31 255 63 
Task44 15 63 63 
Task45 255 31 31 
Task46 3 31 15 
Task47 31 15 7 
Task48 3 15 255 
Task49 31 7 7 
Task50 7 15 31 
Task51 127 127 3 
Task52 3 255 127 
Task53 31 31 15 
Task54 255 15 63 
Task55 31 255 1 
Task56 63 63 63 
Task57 255 255 255 
Task58 15 127 63 
Task59 255 7 1 
Task60 7 31 1 
Task61 63 127 127 
Task62 15 127 63 
Task63 1 255 15 
Task64 31 63 63 
Task65 127 63 7 
Task66 15 63 15 
Task67 63 1 63 
Task68 63 63 127 
Task69 3 63 15 
Task70 7 31 255 
Task71 7 3 255 
Task72 3 63 63 
Task73 31 7 7 
Task74 31 255 7 
Task75 255 127 63 
Task76 255 15 255 
Task77 31 63 255 
Task78 7 1 31 
Task79 15 7 255 
Task80 3 7 63 
Task81 31 63 127 
Task82 127 63 63 
Task83 31 63 63 
Task84 63 63 7 
Task85 31 63 255 
Task86 63 31 1 
Task87 15 15 31 
Task88 63 127 3 
Task89 7 31 3 
Task90 255 15 15 
Task91 1 31 3 
Task92 127 127 127 
Task93 63 15 15 
Task94 255 127 255 
Task95 63 1 7 
Task96 127 63 1 
Task97 7 127 63 
Task98 255 31 15 
Task99 63 31 31 
