0.28692682
Task0 63 15 15 
Task1 15 255 15 
Task2 3 1 31 
Task3 3 127 7 
Task4 7 31 15 
Task5 31 15 255 
Task6 63 31 255 
Task7 31 31 63 
Task8 7 255 31 
Task9 31 1 3 
Task10 255 127 255 
Task11 31 1 15 
Task12 63 1 15 
Task13 7 127 31 
Task14 1 7 31 
Task15 63 63 7 
Task16 7 15 31 
Task17 15 63 15 
Task18 63 255 127 
Task19 15 31 127 
Task20 15 3 63 
Task21 7 7 63 
Task22 127 7 1 
Task23 127 1 63 
Task24 7 63 31 
Task25 31 31 63 
Task26 31 3 63 
Task27 63 7 63 
Task28 31 63 31 
Task29 15 7 1 
Task30 255 255 255 
Task31 127 127 31 
Task32 31 15 63 
Task33 255 7 31 
Task34 255 255 63 
Task35 255 15 31 
Task36 15 1 63 
Task37 31 7 7 
Task38 127 127 63 
Task39 7 63 3 
Task40 31 3 63 
Task41 31 15 63 
Task42 31 15 63 
Task43 31 15 63 
Task44 31 31 1 
Task45 63 31 63 
Task46 63 63 63 
Task47 63 127 3 
Task48 31 1 15 
Task49 63 31 255 
Task50 3 7 15 
Task51 15 15 255 
Task52 15 31 63 
Task53 15 31 63 
Task54 7 255 15 
Task55 15 3 63 
Task56 15 63 15 
Task57 63 15 31 
Task58 7 15 15 
Task59 1 255 3 
Task60 127 127 15 
Task61 15 15 31 
Task62 31 63 31 
Task63 31 15 31 
Task64 255 3 63 
Task65 3 255 15 
Task66 31 255 15 
Task67 255 15 255 
Task68 127 7 31 
Task69 31 63 127 
Task70 63 31 31 
Task71 31 63 1 
Task72 255 3 31 
Task73 31 63 7 
Task74 63 15 31 
Task75 63 15 1 
Task76 7 3 31 
Task77 7 31 1 
Task78 7 15 127 
Task79 31 255 255 
Task80 7 127 127 
Task81 1 1 255 
Task82 31 1 63 
Task83 255 31 127 
Task84 31 15 31 
Task85 63 15 31 
Task86 15 31 15 
Task87 7 31 3 
Task88 31 31 15 
Task89 255 1 31 
Task90 7 63 15 
Task91 15 31 127 
Task92 1 31 7 
Task93 3 7 31 
Task94 63 15 1 
Task95 31 7 255 
Task96 63 3 63 
Task97 15 127 255 
Task98 255 31 31 
Task99 15 31 15 
