files/tasks_parameters/ExAp01/sample8.txt 1.09206 7.2562 4.46819 0.454772 9.74512
files/tasks_parameters/ExAp01/sample12.txt 1.60101 9.70908 5.28286 0.618515 13.2539
files/tasks_parameters/ExAp01/sample2.txt 1.42158 8.14159 5.7401 0.620531 13.2971
files/tasks_parameters/ExAp01/sample44.txt 1.32372 7.25164 5.75904 0.557631 11.9492
files/tasks_parameters/ExAp01/sample27.txt 1.32235 8.10944 5.64946 0.564878 12.1045
files/tasks_parameters/ExAp01/sample17.txt 1.24991 7.11225 5.46658 0.527183 11.2968
files/tasks_parameters/ExAp01/sample9.txt 1.18774 7.62559 5.37813 0.517277 11.0845
files/tasks_parameters/ExAp01/sample34.txt 1.24068 7.04587 5.93037 0.497709 10.6652
files/tasks_parameters/ExAp01/sample40.txt 1.20111 8.03037 5.123 0.502383 10.7653
files/tasks_parameters/ExAp01/sample33.txt 1.54135 9.22935 5.92956 0.659262 14.127
files/tasks_parameters/ExAp01/sample48.txt 1.08977 8.12182 5.1577 0.452491 9.69623
files/tasks_parameters/ExAp01/sample29.txt 1.45572 8.06133 5.12331 0.650652 13.9425
files/tasks_parameters/ExAp01/sample11.txt 1.3059 7.63104 5.37897 0.563302 12.0708
files/tasks_parameters/ExAp01/sample14.txt 1.12651 6.66403 4.66322 0.471536 10.1043
files/tasks_parameters/ExAp01/sample0.txt 1.45256 9.3266 4.98971 0.6311 13.5236
files/tasks_parameters/ExAp01/sample7.txt 1.24949 7.34863 5.19436 0.515527 11.047
files/tasks_parameters/ExAp01/sample23.txt 1.34394 6.68564 5.54308 0.588617 12.6132
files/tasks_parameters/ExAp01/sample13.txt 1.4653 9.31093 5.35591 0.632849 13.561
files/tasks_parameters/ExAp01/sample22.txt 1.27746 7.65588 5.04866 0.540336 11.5786
files/tasks_parameters/ExAp01/sample25.txt 1.01203 6.17035 5.0141 0.408296 8.7492
files/tasks_parameters/ExAp01/sample36.txt 1.2177 7.03772 4.66274 0.507647 10.8782
files/tasks_parameters/ExAp01/sample46.txt 1.27892 7.73433 4.79934 0.536843 11.5038
files/tasks_parameters/ExAp01/sample31.txt 1.17474 6.96928 5.16482 0.485817 10.4104
files/tasks_parameters/ExAp01/sample37.txt 1.53255 9.52443 5.74224 0.65799 14.0998
files/tasks_parameters/ExAp01/sample16.txt 1.35677 8.63521 4.97261 0.516328 11.0642
files/tasks_parameters/ExAp01/sample10.txt 1.40676 7.28353 6.16876 0.615651 13.1925
files/tasks_parameters/ExAp01/sample39.txt 1.11407 6.3405 4.6137 0.468873 10.0473
files/tasks_parameters/ExAp01/sample19.txt 1.38583 8.85528 5.22306 0.622152 13.3318
files/tasks_parameters/ExAp01/sample20.txt 1.37056 8.1141 5.21177 0.586994 12.5784
files/tasks_parameters/ExAp01/sample43.txt 1.24592 7.21373 5.6367 0.53748 11.5174
files/tasks_parameters/ExAp01/sample32.txt 1.38937 8.30592 5.38137 0.593918 12.7268
files/tasks_parameters/ExAp01/sample45.txt 1.27675 7.94069 4.96323 0.547271 11.7272
files/tasks_parameters/ExAp01/sample26.txt 1.1239 7.57061 4.62637 0.480146 10.2888
files/tasks_parameters/ExAp01/sample5.txt 1.35675 8.0307 5.35681 0.59407 12.7301
files/tasks_parameters/ExAp01/sample21.txt 1.03727 5.87802 4.61744 0.434264 9.30566
files/tasks_parameters/ExAp01/sample38.txt 1.16194 7.66999 4.86632 0.496808 10.6459
files/tasks_parameters/ExAp01/sample1.txt 1.11684 7.21312 4.63213 0.486293 10.4206
files/tasks_parameters/ExAp01/sample15.txt 1.26815 8.02273 5.50855 0.531063 11.3799
files/tasks_parameters/ExAp01/sample24.txt 1.30063 8.66348 5.4905 0.548998 11.7642
files/tasks_parameters/ExAp01/sample3.txt 1.12895 7.74268 4.79918 0.477387 10.2297
files/tasks_parameters/ExAp01/sample6.txt 1.43413 8.57133 5.80157 0.633604 13.5772
files/tasks_parameters/ExAp01/sample30.txt 1.53669 8.18878 5.90888 0.633576 13.5766
files/tasks_parameters/ExAp01/sample42.txt 1.33343 8.57689 5.67253 0.54426 11.6627
files/tasks_parameters/ExAp01/sample4.txt 1.28442 8.40354 4.57985 0.563519 12.0754
files/tasks_parameters/ExAp01/sample28.txt 1.04378 6.44114 4.96426 0.449721 9.63689
files/tasks_parameters/ExAp01/sample18.txt 1.31692 8.56363 4.60946 0.543766 11.6521
files/tasks_parameters/ExAp01/sample35.txt 1.84148 11.0387 6.34514 0.761377 16.3152
files/tasks_parameters/ExAp01/sample47.txt 1.29987 7.14493 5.22131 0.545046 11.6795
files/tasks_parameters/ExAp01/sample49.txt 1.25343 6.65996 4.80244 0.498533 10.6829
files/tasks_parameters/ExAp01/sample41.txt 1.16453 7.09069 5.35462 0.497129 10.6528
