0.30502034999999994
Task0 31 1 3 
Task1 7 31 15 
Task2 31 15 7 
Task3 31 31 3 
Task4 31 15 3 
Task5 15 31 15 
Task6 7 1 31 
Task7 3 3 31 
Task8 7 1 31 
Task9 7 31 7 
Task10 31 7 7 
Task11 31 31 7 
Task12 7 3 31 
Task13 15 1 3 
Task14 15 31 31 
Task15 15 31 7 
Task16 15 7 31 
Task17 31 7 7 
Task18 63 31 1 
Task19 7 7 31 
Task20 31 63 3 
Task21 31 15 3 
Task22 1 31 7 
Task23 31 7 7 
Task24 15 31 31 
Task25 7 3 31 
Task26 7 15 63 
Task27 1 3 31 
Task28 31 3 3 
Task29 31 1 3 
Task30 3 7 31 
Task31 15 7 63 
Task32 31 31 31 
Task33 15 15 31 
Task34 1 31 1 
Task35 127 127 255 
Task36 1 31 7 
Task37 31 7 3 
Task38 7 31 15 
Task39 15 127 31 
Task40 15 15 63 
Task41 7 63 3 
Task42 31 3 15 
Task43 7 31 15 
Task44 7 15 7 
Task45 31 255 15 
Task46 63 31 7 
Task47 1 31 15 
Task48 31 15 31 
Task49 31 3 1 
Task50 7 31 31 
Task51 7 7 31 
Task52 63 15 15 
Task53 63 31 15 
Task54 15 7 31 
Task55 31 63 63 
Task56 31 3 3 
Task57 63 7 63 
Task58 15 31 1 
Task59 15 7 31 
Task60 7 7 31 
Task61 1 31 15 
Task62 15 15 63 
Task63 31 63 31 
Task64 7 31 31 
Task65 31 1 63 
Task66 63 63 3 
Task67 3 63 31 
Task68 31 31 15 
Task69 31 1 7 
Task70 7 1 31 
Task71 15 31 31 
Task72 7 31 1 
Task73 31 7 15 
Task74 7 31 3 
Task75 15 31 31 
Task76 31 7 7 
Task77 31 1 15 
Task78 31 15 31 
Task79 3 31 3 
Task80 7 7 31 
Task81 7 1 31 
Task82 31 3 15 
Task83 7 63 7 
Task84 3 31 3 
Task85 15 31 31 
Task86 7 3 31 
Task87 63 15 15 
Task88 7 63 31 
Task89 3 63 7 
Task90 1 31 7 
Task91 1 31 15 
Task92 63 15 31 
Task93 1 7 31 
Task94 31 7 15 
Task95 15 63 15 
Task96 31 7 7 
Task97 31 7 15 
Task98 31 1 1 
Task99 15 31 15 
