0.1867529341885429
Task0 15 15 63 
Task1 31 1 31 
Task2 63 31 15 
Task3 1 1 1 
Task4 1 3 1 
Task5 1 1 1 
Task6 1 7 7 
Task7 3 1 15 
Task8 1 1 1 
Task9 255 255 3 
Task10 1 1 31 
Task11 31 15 31 
Task12 7 7 15 
Task13 7 1 3 
Task14 1 3 1 
Task15 3 1 7 
Task16 63 31 31 
Task17 1 1 1 
Task18 15 15 7 
Task19 1 3 3 
Task20 1 3 3 
Task21 31 15 7 
Task22 1 1 3 
Task23 31 1 63 
Task24 1 1 1 
Task25 1 3 1 
Task26 1 1 1 
Task27 1 7 1 
Task28 1 3 1 
Task29 1 1 1 
Task30 1 1 3 
Task31 3 31 31 
Task32 1 1 1 
Task33 1 1 1 
Task34 1 3 1 
Task35 7 3 7 
Task36 1 15 1 
Task37 3 1 3 
Task38 1 3 3 
Task39 1 3 15 
Task40 15 3 3 
Task41 3 1 1 
Task42 1 1 3 
Task43 1 3 3 
Task44 3 7 15 
Task45 3 1 7 
Task46 1 3 3 
Task47 31 63 31 
Task48 7 3 1 
Task49 15 7 7 
Task50 7 7 7 
Task51 1 1 1 
Task52 1 1 1 
Task53 1 1 1 
Task54 1 3 7 
Task55 15 31 15 
Task56 7 3 63 
Task57 1 3 1 
Task58 7 1 1 
Task59 1 1 1 
Task60 127 255 255 
Task61 1 3 1 
Task62 1 1 1 
Task63 3 7 1 
Task64 255 31 63 
Task65 31 15 31 
Task66 3 1 3 
Task67 15 3 7 
Task68 1 15 7 
Task69 3 3 1 
Task70 1 15 1 
Task71 15 3 1 
Task72 7 1 1 
Task73 7 3 7 
Task74 1 1 7 
Task75 7 7 3 
Task76 3 1 1 
Task77 7 7 15 
Task78 1 3 3 
Task79 63 7 1 
Task80 7 3 3 
Task81 1 1 1 
Task82 7 15 3 
Task83 1 7 3 
Task84 3 7 3 
Task85 7 15 15 
Task86 1 3 3 
Task87 1 3 3 
Task88 3 1 3 
Task89 7 31 1 
Task90 1 3 15 
Task91 1 7 7 
Task92 3 1 3 
Task93 1 1 3 
Task94 1 3 1 
Task95 1 1 1 
Task96 1 1 1 
Task97 7 7 1 
Task98 1 3 7 
Task99 3 15 31 
