0.21682104000000005
Task0 3 15 15 
Task1 1 1 3 
Task2 1 1 1 
Task3 3 1 3 
Task4 15 1 1 
Task5 3 7 7 
Task6 1 1 1 
Task7 31 31 15 
Task8 31 3 15 
Task9 7 3 1 
Task10 7 3 15 
Task11 1 3 1 
Task12 1 1 3 
Task13 1 3 7 
Task14 15 3 15 
Task15 63 63 1 
Task16 7 31 3 
Task17 1 3 1 
Task18 1 1 1 
Task19 3 3 7 
Task20 1 1 1 
Task21 31 31 7 
Task22 3 3 1 
Task23 255 127 127 
Task24 7 1 1 
Task25 3 1 1 
Task26 7 7 31 
Task27 3 3 1 
Task28 15 1 7 
Task29 1 1 1 
Task30 1 1 1 
Task31 1 1 3 
Task32 1 3 7 
Task33 1 1 1 
Task34 1 1 1 
Task35 7 63 31 
Task36 3 1 1 
Task37 7 15 3 
Task38 1 1 3 
Task39 31 31 63 
Task40 1 1 1 
Task41 3 7 1 
Task42 3 1 3 
Task43 7 15 7 
Task44 7 1 3 
Task45 31 1 1 
Task46 3 7 1 
Task47 3 15 3 
Task48 1 1 7 
Task49 1 1 1 
Task50 15 7 15 
Task51 1 1 3 
Task52 1 1 1 
Task53 1 1 1 
Task54 7 15 7 
Task55 1 1 1 
Task56 3 1 1 
Task57 7 3 15 
Task58 1 1 1 
Task59 3 3 3 
Task60 1 15 3 
Task61 7 7 63 
Task62 3 3 1 
Task63 3 15 1 
Task64 7 7 15 
Task65 15 63 15 
Task66 15 3 15 
Task67 31 31 1 
Task68 3 3 1 
Task69 3 7 3 
Task70 3 7 15 
Task71 31 7 1 
Task72 7 3 1 
Task73 1 1 7 
Task74 7 1 15 
Task75 1 1 1 
Task76 1 3 31 
Task77 1 1 3 
Task78 7 1 1 
Task79 7 31 7 
Task80 3 1 3 
Task81 1 15 31 
Task82 1 3 3 
Task83 1 1 1 
Task84 63 31 127 
Task85 15 15 15 
Task86 1 3 1 
Task87 1 1 1 
Task88 1 1 3 
Task89 1 1 1 
Task90 1 3 7 
Task91 1 63 31 
Task92 1 1 1 
Task93 3 7 15 
Task94 3 7 1 
Task95 7 7 3 
Task96 1 3 3 
Task97 15 63 15 
Task98 1 1 1 
Task99 7 15 31 
