Task0 1 3 3 
Task1 1 1 1 
Task2 3 3 1 
Task3 1 1 1 
Task4 1 3 1 
Task5 1 1 1 
Task6 1 1 7 
Task7 1 1 1 
Task8 3 1 1 
Task9 1 1 1 
Task10 1 1 1 
Task11 1 1 1 
Task12 1 3 1 
Task13 7 7 3 
Task14 1 1 1 
Task15 1 1 1 
Task16 3 1 1 
Task17 3 1 3 
Task18 1 1 1 
Task19 3 3 1 
Task20 3 1 1 
Task21 3 3 1 
Task22 255 255 255 
Task23 1 1 1 
Task24 1 1 1 
Task25 3 3 1 
Task26 3 1 1 
Task27 1 3 1 
Task28 1 1 1 
Task29 3 1 1 
Task30 1 1 1 
Task31 3 1 3 
Task32 1 1 1 
Task33 1 1 1 
Task34 1 1 1 
Task35 1 1 1 
Task36 3 1 3 
Task37 1 1 1 
Task38 1 3 1 
Task39 1 1 3 
Task40 3 1 1 
Task41 3 1 1 
Task42 1 1 1 
Task43 3 1 3 
Task44 1 1 1 
Task45 3 1 1 
Task46 1 1 1 
Task47 1 1 1 
Task48 1 1 1 
Task49 1 1 1 
Task50 1 1 1 
Task51 1 3 1 
Task52 1 1 1 
Task53 1 1 3 
Task54 3 3 1 
Task55 3 1 1 
Task56 3 1 1 
Task57 1 1 1 
Task58 3 3 1 
Task59 1 3 1 
Task60 1 1 1 
Task61 1 1 1 
Task62 1 1 1 
Task63 3 3 1 
Task64 1 1 1 
Task65 3 1 7 
Task66 1 1 3 
Task67 1 3 1 
Task68 1 1 1 
Task69 1 1 1 
Task70 3 1 1 
Task71 1 3 1 
Task72 1 1 1 
Task73 7 1 7 
Task74 1 1 1 
Task75 1 1 3 
Task76 1 1 1 
Task77 1 1 1 
Task78 1 3 3 
Task79 1 1 1 
Task80 1 1 1 
Task81 1 1 1 
Task82 1 1 1 
Task83 1 1 1 
Task84 1 1 1 
Task85 1 1 1 
Task86 1 1 1 
Task87 1 1 1 
Task88 1 1 1 
Task89 1 1 1 
Task90 1 1 1 
Task91 3 1 1 
Task92 7 1 31 
Task93 7 7 1 
Task94 1 1 1 
Task95 1 1 1 
Task96 1 1 1 
Task97 1 1 1 
Task98 1 1 3 
Task99 1 3 1 
