files/tasks_parameters/ExAp01/sample8.txt 0.775108 3.15778 1.5595 0.203411 4.38541
files/tasks_parameters/ExAp01/sample12.txt 0.810076 3.94962 1.6705 0.207924 4.4827
files/tasks_parameters/ExAp01/sample2.txt 0.766985 3.78275 1.74131 0.200098 4.31397
files/tasks_parameters/ExAp01/sample44.txt 0.686719 3.59825 1.65317 0.200005 4.31197
files/tasks_parameters/ExAp01/sample27.txt 0.700003 3.45743 1.5148 0.182129 3.92657
files/tasks_parameters/ExAp01/sample17.txt 0.8698 2.77299 1.44514 0.14646 3.15757
files/tasks_parameters/ExAp01/sample9.txt 0.71794 2.99933 1.451 0.177444 3.82556
files/tasks_parameters/ExAp01/sample34.txt 0.831645 3.02928 1.58429 0.157984 3.40602
files/tasks_parameters/ExAp01/sample40.txt 0.764924 3.86889 1.52122 0.168379 3.63014
files/tasks_parameters/ExAp01/sample33.txt 0.802232 3.63695 1.71905 0.199765 4.3068
files/tasks_parameters/ExAp01/sample48.txt 0.682426 3.39061 1.49062 0.154728 3.33583
files/tasks_parameters/ExAp01/sample29.txt 0.762881 3.30472 1.38739 0.223868 4.82645
files/tasks_parameters/ExAp01/sample11.txt 0.707448 3.10585 1.41612 0.174079 3.75302
files/tasks_parameters/ExAp01/sample14.txt 0.666819 2.70971 1.43432 0.162214 3.49723
files/tasks_parameters/ExAp01/sample0.txt 0.744255 3.6937 1.5439 0.18367 3.9598
files/tasks_parameters/ExAp01/sample7.txt 0.799885 2.70501 1.42221 0.143463 3.09297
files/tasks_parameters/ExAp01/sample23.txt 0.759819 3.2697 1.57822 0.181448 3.91191
files/tasks_parameters/ExAp01/sample13.txt 0.729564 3.84225 1.67648 0.198247 4.27407
files/tasks_parameters/ExAp01/sample22.txt 0.859577 3.09569 1.56121 0.148796 3.20794
files/tasks_parameters/ExAp01/sample25.txt 0.740339 2.73966 1.5007 0.148149 3.19398
files/tasks_parameters/ExAp01/sample36.txt 0.75928 2.85948 1.28553 0.130042 2.80362
files/tasks_parameters/ExAp01/sample46.txt 0.762827 3.58643 1.69998 0.210103 4.52967
files/tasks_parameters/ExAp01/sample31.txt 0.705727 3.4832 1.53782 0.1722 3.71251
files/tasks_parameters/ExAp01/sample37.txt 0.766144 3.95293 1.50705 0.171701 3.70176
files/tasks_parameters/ExAp01/sample16.txt 0.598164 3.31216 1.30115 0.150249 3.23927
files/tasks_parameters/ExAp01/sample10.txt 1.04368 3.17098 1.61789 0.153776 3.31531
files/tasks_parameters/ExAp01/sample39.txt 0.700786 3.26617 1.44406 0.165669 3.57171
files/tasks_parameters/ExAp01/sample19.txt 0.762994 3.63532 1.52509 0.196094 4.22766
files/tasks_parameters/ExAp01/sample20.txt 0.662661 3.20793 1.25367 0.147335 3.17645
files/tasks_parameters/ExAp01/sample43.txt 0.646757 3.11551 1.4202 0.150644 3.24779
files/tasks_parameters/ExAp01/sample32.txt 0.722684 3.5311 1.42482 0.168744 3.63801
files/tasks_parameters/ExAp01/sample45.txt 0.739506 3.80283 1.48324 0.19807 4.27026
files/tasks_parameters/ExAp01/sample26.txt 0.634746 3.21645 1.29701 0.166061 3.58017
files/tasks_parameters/ExAp01/sample5.txt 0.627864 3.5889 1.52559 0.178903 3.85704
files/tasks_parameters/ExAp01/sample21.txt 0.66058 2.75242 1.55936 0.19512 4.20666
files/tasks_parameters/ExAp01/sample38.txt 0.676658 3.31563 1.37515 0.166157 3.58223
files/tasks_parameters/ExAp01/sample1.txt 0.715602 3.74964 1.51696 0.19701 4.24739
files/tasks_parameters/ExAp01/sample15.txt 0.693104 3.32916 1.48508 0.180707 3.89593
files/tasks_parameters/ExAp01/sample24.txt 0.843701 3.45951 1.59549 0.16529 3.56355
files/tasks_parameters/ExAp01/sample3.txt 0.88648 3.70014 1.70809 0.237107 5.11187
files/tasks_parameters/ExAp01/sample6.txt 0.707559 3.33003 1.58323 0.184714 3.98232
files/tasks_parameters/ExAp01/sample30.txt 0.904341 4.1841 1.4861 0.239623 5.16611
files/tasks_parameters/ExAp01/sample42.txt 0.747833 3.43221 1.70276 0.177383 3.82425
files/tasks_parameters/ExAp01/sample4.txt 0.78316 3.72477 1.6136 0.196448 4.23529
files/tasks_parameters/ExAp01/sample28.txt 0.689545 3.11323 1.45032 0.158819 3.42403
files/tasks_parameters/ExAp01/sample18.txt 0.769617 3.47418 1.45209 0.149064 3.21371
files/tasks_parameters/ExAp01/sample35.txt 0.803649 4.57086 1.49394 0.185031 3.98914
files/tasks_parameters/ExAp01/sample47.txt 0.712113 3.13768 1.52397 0.16417 3.5394
files/tasks_parameters/ExAp01/sample49.txt 0.776571 3.13288 1.49657 0.156154 3.36658
files/tasks_parameters/ExAp01/sample41.txt 0.763314 2.81964 1.49636 0.150876 3.25278
