files/tasks_parameters/ExAp01/sample8.txt 0.882812 3.15778 1.5595 0.203411 9.88875
files/tasks_parameters/ExAp01/sample12.txt 0.806828 3.94962 1.6705 0.207924 10.1081
files/tasks_parameters/ExAp01/sample2.txt 0.849389 3.78275 1.74131 0.200098 9.72766
files/tasks_parameters/ExAp01/sample44.txt 0.863685 3.59825 1.65317 0.200005 9.72317
files/tasks_parameters/ExAp01/sample27.txt 0.75453 3.45743 1.5148 0.182129 8.8541
files/tasks_parameters/ExAp01/sample17.txt 0.651728 2.77299 1.44514 0.14646 7.12008
files/tasks_parameters/ExAp01/sample9.txt 0.67183 2.99933 1.451 0.177444 8.62634
files/tasks_parameters/ExAp01/sample34.txt 0.647608 3.02928 1.58429 0.157984 7.68031
files/tasks_parameters/ExAp01/sample40.txt 0.698472 3.86889 1.52122 0.168379 8.18569
files/tasks_parameters/ExAp01/sample33.txt 0.807089 3.63695 1.71905 0.199765 9.71149
files/tasks_parameters/ExAp01/sample48.txt 0.705615 3.39061 1.49062 0.154728 7.52205
files/tasks_parameters/ExAp01/sample29.txt 0.805158 3.30472 1.38739 0.223868 10.8833
files/tasks_parameters/ExAp01/sample11.txt 0.737964 3.10585 1.41612 0.174079 8.46276
files/tasks_parameters/ExAp01/sample14.txt 0.595629 2.70971 1.43432 0.162214 7.88599
files/tasks_parameters/ExAp01/sample0.txt 0.771376 3.6937 1.5439 0.18367 8.92903
files/tasks_parameters/ExAp01/sample7.txt 0.63618 2.70501 1.42221 0.143463 6.97442
files/tasks_parameters/ExAp01/sample23.txt 0.716826 3.2697 1.57822 0.181448 8.82104
files/tasks_parameters/ExAp01/sample13.txt 0.730862 3.84225 1.67648 0.198247 9.6377
files/tasks_parameters/ExAp01/sample22.txt 0.613813 3.09569 1.56121 0.148796 7.23366
files/tasks_parameters/ExAp01/sample25.txt 0.561952 2.73966 1.5007 0.148149 7.20218
files/tasks_parameters/ExAp01/sample36.txt 0.608229 2.85948 1.28553 0.130042 6.32195
files/tasks_parameters/ExAp01/sample46.txt 0.870615 3.58643 1.69998 0.210103 10.2141
files/tasks_parameters/ExAp01/sample31.txt 0.672472 3.4832 1.53782 0.1722 8.37143
files/tasks_parameters/ExAp01/sample37.txt 0.739709 3.95293 1.50705 0.171701 8.34718
files/tasks_parameters/ExAp01/sample16.txt 0.688597 3.31216 1.30115 0.150249 7.30429
files/tasks_parameters/ExAp01/sample10.txt 0.744651 3.17098 1.61789 0.153776 7.47578
files/tasks_parameters/ExAp01/sample39.txt 0.711749 3.26617 1.44406 0.165669 8.05392
files/tasks_parameters/ExAp01/sample19.txt 0.882309 3.63532 1.52509 0.196094 9.53305
files/tasks_parameters/ExAp01/sample20.txt 0.5723 3.20793 1.25367 0.147335 7.16265
files/tasks_parameters/ExAp01/sample43.txt 0.681036 3.11551 1.4202 0.150644 7.32352
files/tasks_parameters/ExAp01/sample32.txt 0.668071 3.5311 1.42482 0.168744 8.20343
files/tasks_parameters/ExAp01/sample45.txt 0.931513 3.80283 1.48324 0.19807 9.62911
files/tasks_parameters/ExAp01/sample26.txt 0.725317 3.21645 1.29701 0.166061 8.073
files/tasks_parameters/ExAp01/sample5.txt 0.796029 3.5889 1.52559 0.178903 8.69731
files/tasks_parameters/ExAp01/sample21.txt 0.812841 2.75242 1.55936 0.19512 9.48569
files/tasks_parameters/ExAp01/sample38.txt 0.656311 3.31563 1.37515 0.166157 8.07764
files/tasks_parameters/ExAp01/sample1.txt 0.905049 3.74964 1.51696 0.19701 9.57754
files/tasks_parameters/ExAp01/sample15.txt 0.768597 3.32916 1.48508 0.180707 8.78502
files/tasks_parameters/ExAp01/sample24.txt 0.713684 3.45951 1.59549 0.16529 8.03553
files/tasks_parameters/ExAp01/sample3.txt 0.974335 3.70014 1.70809 0.237107 11.5269
files/tasks_parameters/ExAp01/sample6.txt 0.72631 3.33003 1.58323 0.184714 8.97982
files/tasks_parameters/ExAp01/sample30.txt 0.935383 4.1841 1.4861 0.239623 11.6492
files/tasks_parameters/ExAp01/sample42.txt 0.754495 3.43221 1.70276 0.177383 8.62339
files/tasks_parameters/ExAp01/sample4.txt 0.838518 3.72477 1.6136 0.196448 9.55025
files/tasks_parameters/ExAp01/sample28.txt 0.670577 3.11323 1.45032 0.158819 7.72092
files/tasks_parameters/ExAp01/sample18.txt 0.695716 3.47418 1.45209 0.149064 7.24668
files/tasks_parameters/ExAp01/sample35.txt 0.745736 4.57086 1.49394 0.185031 8.99519
files/tasks_parameters/ExAp01/sample47.txt 0.663045 3.13768 1.52397 0.16417 7.98106
files/tasks_parameters/ExAp01/sample49.txt 0.652701 3.13288 1.49657 0.156154 7.59137
files/tasks_parameters/ExAp01/sample41.txt 0.646914 2.81964 1.49636 0.150876 7.33477
