digraph G {
0 ->10 0 ->12 0 ->13 0 ->15 0 ->17 0 ->18 1 ->13 1 ->14 1 ->17 2 ->11 2 ->16 3 ->10 3 ->13 3 ->17 3 ->18 4 ->15 4 ->16 4 ->18 5 ->10 6 ->10 6 ->12 6 ->13 7 ->11 8 ->11 8 ->12 8 ->16 8 ->18 9 ->10 9 ->12 10 ->22 10 ->23 10 ->26 11 ->20 11 ->24 11 ->26 12 ->19 12 ->20 12 ->22 12 ->23 12 ->25 13 ->19 14 ->19 15 ->23 15 ->24 16 ->19 16 ->22 16 ->24 17 ->20 17 ->21 17 ->22 17 ->23 17 ->25 18 ->20 18 ->21 18 ->22 18 ->23 18 ->26 19 ->27 20 ->32 21 ->27 21 ->28 21 ->30 22 ->30 22 ->32 23 ->32 23 ->32 24 ->28 24 ->29 24 ->30 24 ->33 25 ->27 25 ->28 25 ->29 25 ->30 25 ->31 25 ->33 26 ->31 28 ->34 28 ->35 28 ->37 29 ->35 29 ->36 29 ->37 29 ->38 29 ->39 30 ->34 30 ->36 30 ->37 31 ->35 31 ->36 32 ->38 32 ->39 33 ->36 33 ->37 34 ->40 34 ->47 34 ->48 35 ->41 35 ->43 36 ->43 36 ->43 36 ->44 36 ->47 37 ->46 38 ->40 38 ->42 38 ->46 38 ->48 39 ->45 39 ->46 39 ->47 40 ->49 40 ->51 40 ->55 40 ->58 40 ->59 41 ->49 41 ->51 41 ->54 41 ->55 41 ->56 41 ->59 42 ->50 42 ->51 42 ->59 43 ->53 43 ->54 43 ->55 43 ->57 43 ->60 43 ->61 44 ->58 44 ->59 44 ->61 46 ->53 46 ->54 46 ->55 46 ->58 46 ->61 47 ->51 47 ->52 47 ->53 47 ->55 47 ->58 47 ->61 48 ->49 48 ->54 49 ->62 49 ->64 50 ->62 50 ->66 50 ->67 50 ->70 51 ->65 51 ->66 51 ->69 51 ->70 52 ->62 53 ->62 53 ->65 53 ->66 53 ->67 54 ->64 54 ->65 54 ->67 54 ->69 55 ->64 55 ->65 55 ->68 55 ->69 56 ->64 56 ->66 57 ->64 57 ->65 57 ->69 58 ->67 60 ->63 60 ->64 60 ->65 60 ->66 60 ->69 60 ->70 61 ->64 61 ->66 61 ->70 62 ->74 62 ->75 62 ->76 62 ->78 62 ->79 63 ->71 63 ->78 64 ->72 64 ->77 64 ->78 65 ->71 65 ->73 65 ->75 66 ->71 66 ->73 66 ->76 66 ->77 67 ->73 67 ->76 68 ->75 68 ->77 69 ->75 70 ->75 70 ->76 70 ->77 70 ->78 71 ->80 71 ->86 71 ->87 72 ->83 72 ->86 73 ->85 74 ->87 75 ->80 76 ->80 76 ->81 76 ->85 77 ->82 77 ->84 77 ->86 79 ->86 80 ->91 80 ->93 80 ->98 81 ->88 81 ->90 81 ->91 81 ->92 81 ->94 82 ->88 82 ->92 82 ->98 83 ->88 83 ->92 83 ->94 83 ->98 84 ->90 84 ->96 84 ->98 85 ->89 85 ->91 85 ->96 86 ->89 86 ->95 87 ->89 87 ->90 87 ->91 87 ->94 87 ->97 90 ->99 96 ->99 97 ->99 
}
