digraph G {
0 ->8 0 ->12 0 ->13 0 ->15 1 ->6 1 ->7 1 ->8 1 ->12 1 ->14 2 ->6 2 ->11 2 ->12 2 ->14 2 ->14 2 ->15 3 ->9 3 ->11 4 ->7 4 ->10 4 ->11 5 ->6 5 ->8 6 ->17 6 ->18 6 ->21 6 ->23 7 ->17 7 ->19 7 ->21 8 ->17 8 ->18 9 ->17 9 ->20 10 ->16 10 ->22 12 ->16 12 ->20 13 ->18 13 ->19 13 ->21 13 ->22 14 ->18 14 ->22 15 ->20 16 ->24 16 ->26 16 ->29 16 ->30 17 ->28 17 ->31 18 ->29 19 ->24 19 ->25 19 ->26 19 ->27 19 ->29 20 ->24 20 ->25 21 ->25 21 ->29 21 ->30 21 ->31 21 ->32 22 ->25 23 ->24 23 ->31 24 ->35 24 ->36 24 ->38 24 ->39 25 ->34 25 ->38 25 ->39 25 ->40 26 ->33 26 ->35 26 ->36 26 ->38 26 ->40 27 ->36 28 ->39 28 ->40 29 ->35 29 ->37 29 ->39 30 ->38 31 ->35 32 ->35 33 ->42 33 ->48 34 ->42 34 ->47 35 ->46 35 ->49 36 ->44 36 ->45 36 ->47 36 ->48 37 ->48 37 ->49 38 ->41 38 ->43 38 ->47 39 ->41 39 ->45 39 ->46 39 ->47 40 ->42 40 ->48 41 ->52 41 ->53 41 ->54 41 ->57 42 ->52 42 ->53 42 ->57 42 ->58 42 ->59 42 ->60 43 ->55 43 ->60 43 ->62 44 ->52 44 ->53 44 ->55 44 ->60 44 ->61 45 ->51 45 ->52 45 ->54 45 ->56 45 ->58 45 ->61 46 ->50 46 ->51 46 ->62 47 ->59 47 ->62 48 ->51 48 ->53 48 ->59 48 ->62 49 ->51 49 ->58 49 ->59 49 ->62 50 ->64 50 ->65 50 ->70 51 ->63 51 ->64 51 ->67 52 ->64 52 ->67 52 ->68 52 ->69 52 ->71 53 ->63 53 ->64 53 ->72 54 ->63 54 ->67 54 ->72 55 ->67 55 ->72 56 ->66 57 ->64 57 ->71 58 ->64 58 ->66 58 ->71 59 ->64 59 ->70 59 ->71 60 ->66 60 ->69 61 ->66 61 ->72 62 ->63 62 ->65 62 ->69 63 ->75 63 ->78 64 ->73 64 ->78 64 ->80 65 ->73 65 ->76 65 ->77 65 ->78 65 ->79 65 ->80 66 ->73 67 ->74 67 ->77 67 ->78 69 ->80 70 ->74 70 ->76 70 ->80 70 ->81 71 ->73 71 ->80 71 ->81 72 ->73 72 ->78 72 ->79 73 ->85 73 ->86 73 ->88 74 ->84 74 ->86 75 ->83 75 ->84 76 ->84 76 ->85 76 ->88 76 ->89 77 ->83 77 ->84 77 ->85 77 ->87 77 ->88 77 ->89 78 ->83 79 ->82 79 ->83 79 ->88 80 ->82 80 ->84 80 ->86 80 ->87 80 ->88 81 ->82 82 ->90 82 ->92 82 ->92 82 ->95 82 ->97 82 ->99 84 ->94 84 ->96 85 ->93 86 ->90 86 ->94 86 ->99 87 ->90 87 ->95 88 ->93 88 ->95 88 ->97 89 ->90 89 ->91 89 ->92 89 ->94 89 ->95 89 ->97 89 ->98 89 ->99 
}
