files/tasks_parameters/ExAp01/sample8.txt 1.37699 6.77015 2.19458 0.288816 6.53827
files/tasks_parameters/ExAp01/sample12.txt 1.63227 9.58351 2.46081 0.337498 7.64034
files/tasks_parameters/ExAp01/sample2.txt 1.46159 8.44418 2.50701 0.319127 7.22445
files/tasks_parameters/ExAp01/sample44.txt 1.29887 6.96299 2.23089 0.28229 6.39053
files/tasks_parameters/ExAp01/sample27.txt 1.27247 7.74306 2.16676 0.28602 6.47496
files/tasks_parameters/ExAp01/sample17.txt 1.34845 7.35053 2.25579 0.292348 6.61821
files/tasks_parameters/ExAp01/sample9.txt 1.38482 6.89392 2.21068 0.282399 6.39299
files/tasks_parameters/ExAp01/sample34.txt 1.30276 6.62788 2.3772 0.297742 6.74032
files/tasks_parameters/ExAp01/sample40.txt 1.22143 7.75686 2.17534 0.285619 6.46589
files/tasks_parameters/ExAp01/sample33.txt 1.53014 8.14826 2.6463 0.338073 7.65335
files/tasks_parameters/ExAp01/sample48.txt 1.18532 7.64107 2.14272 0.270011 6.11255
files/tasks_parameters/ExAp01/sample29.txt 1.45646 7.139 1.93769 0.286306 6.48143
files/tasks_parameters/ExAp01/sample11.txt 1.27682 6.88688 2.12981 0.280008 6.33887
files/tasks_parameters/ExAp01/sample14.txt 1.03249 6.11983 1.97599 0.247458 5.60198
files/tasks_parameters/ExAp01/sample0.txt 1.36167 8.2738 2.14256 0.289132 6.54541
files/tasks_parameters/ExAp01/sample7.txt 1.20141 6.87011 2.05821 0.269886 6.10971
files/tasks_parameters/ExAp01/sample23.txt 1.35825 6.52032 2.38087 0.291712 6.60381
files/tasks_parameters/ExAp01/sample13.txt 1.39808 8.73247 2.33415 0.295393 6.68714
files/tasks_parameters/ExAp01/sample22.txt 1.23351 6.9777 2.28948 0.283979 6.42876
files/tasks_parameters/ExAp01/sample25.txt 1.09314 6.23444 2.2122 0.267298 6.05112
files/tasks_parameters/ExAp01/sample36.txt 1.11768 6.6174 1.9458 0.253823 5.74608
files/tasks_parameters/ExAp01/sample46.txt 1.56321 7.42369 2.49128 0.327273 7.40885
files/tasks_parameters/ExAp01/sample31.txt 1.19269 7.22028 2.13584 0.25377 5.74488
files/tasks_parameters/ExAp01/sample37.txt 1.34971 8.90704 2.16981 0.295708 6.69428
files/tasks_parameters/ExAp01/sample16.txt 1.18349 8.18243 1.88294 0.24945 5.64708
files/tasks_parameters/ExAp01/sample10.txt 1.2511 6.96646 2.31217 0.285748 6.4688
files/tasks_parameters/ExAp01/sample39.txt 1.16132 6.4161 1.97266 0.251967 5.70406
files/tasks_parameters/ExAp01/sample19.txt 1.56989 8.16711 2.23199 0.308463 6.98303
files/tasks_parameters/ExAp01/sample20.txt 1.22053 7.28549 1.88944 0.25994 5.88456
files/tasks_parameters/ExAp01/sample43.txt 1.13997 6.86804 2.00142 0.25616 5.79899
files/tasks_parameters/ExAp01/sample32.txt 1.30176 8.15663 2.12995 0.281726 6.37776
files/tasks_parameters/ExAp01/sample45.txt 1.39672 7.75184 2.10599 0.274935 6.22402
files/tasks_parameters/ExAp01/sample26.txt 1.23648 7.4944 1.88956 0.267248 6.05
files/tasks_parameters/ExAp01/sample5.txt 1.37452 8.08362 2.09961 0.28454 6.44146
files/tasks_parameters/ExAp01/sample21.txt 1.2807 6.11814 2.17119 0.26143 5.91828
files/tasks_parameters/ExAp01/sample38.txt 1.21423 7.761 1.96293 0.263659 5.96875
files/tasks_parameters/ExAp01/sample1.txt 1.38954 7.83752 2.13261 0.289228 6.54759
files/tasks_parameters/ExAp01/sample15.txt 1.3122 7.37971 2.12057 0.285825 6.47056
files/tasks_parameters/ExAp01/sample24.txt 1.30635 8.28531 2.25272 0.296628 6.71512
files/tasks_parameters/ExAp01/sample3.txt 1.5031 7.33359 2.39135 0.305084 6.90655
files/tasks_parameters/ExAp01/sample6.txt 1.22555 7.09894 2.24425 0.281804 6.37953
files/tasks_parameters/ExAp01/sample30.txt 1.61295 8.17669 2.03701 0.299204 6.77343
files/tasks_parameters/ExAp01/sample42.txt 1.27763 7.70416 2.42413 0.29743 6.73326
files/tasks_parameters/ExAp01/sample4.txt 1.48365 7.41691 2.36261 0.307803 6.96808
files/tasks_parameters/ExAp01/sample28.txt 1.31766 7.0562 2.07657 0.266428 6.03143
files/tasks_parameters/ExAp01/sample18.txt 1.21495 7.60139 2.1377 0.268016 6.06739
files/tasks_parameters/ExAp01/sample35.txt 1.59833 9.66795 2.28028 0.32244 7.29944
files/tasks_parameters/ExAp01/sample47.txt 1.18631 6.84842 2.12104 0.251655 5.697
files/tasks_parameters/ExAp01/sample49.txt 1.16905 7.1497 2.11412 0.255889 5.79285
files/tasks_parameters/ExAp01/sample41.txt 1.18816 6.59911 2.07359 0.265885 6.01915
