0.30049795
Task0 127 255 255 
Task1 255 3 31 
Task2 127 63 31 
Task3 15 255 255 
Task4 255 31 1 
Task5 127 255 63 
Task6 127 255 255 
Task7 31 31 15 
Task8 31 31 127 
Task9 31 1 7 
Task10 63 127 63 
Task11 7 63 7 
Task12 31 255 31 
Task13 7 31 15 
Task14 63 255 3 
Task15 31 31 31 
Task16 31 255 7 
Task17 15 3 31 
Task18 255 31 31 
Task19 63 31 31 
Task20 255 255 63 
Task21 31 1 15 
Task22 127 63 63 
Task23 63 7 63 
Task24 63 7 15 
Task25 63 63 31 
Task26 31 31 31 
Task27 63 63 7 
Task28 31 63 15 
Task29 15 7 31 
Task30 1 31 15 
Task31 31 31 31 
Task32 31 63 255 
Task33 63 31 7 
Task34 31 255 63 
Task35 63 3 63 
Task36 31 63 31 
Task37 31 1 31 
Task38 31 63 1 
Task39 31 7 7 
Task40 31 1 7 
Task41 7 31 3 
Task42 31 255 31 
Task43 31 31 15 
Task44 31 1 63 
Task45 127 63 15 
Task46 63 255 63 
Task47 255 31 31 
Task48 63 31 7 
Task49 63 1 3 
Task50 15 63 7 
Task51 63 15 7 
Task52 255 255 63 
Task53 255 15 255 
Task54 255 31 255 
Task55 127 15 7 
Task56 63 3 15 
Task57 255 255 127 
Task58 31 7 7 
Task59 255 255 127 
Task60 3 127 31 
Task61 15 1 63 
Task62 31 127 63 
Task63 15 31 63 
Task64 7 31 127 
Task65 15 3 31 
Task66 31 127 255 
Task67 3 1 31 
Task68 255 255 127 
Task69 63 7 3 
Task70 31 255 7 
Task71 3 255 15 
Task72 31 255 255 
Task73 3 3 63 
Task74 15 31 31 
Task75 31 7 63 
Task76 63 7 15 
Task77 1 63 7 
Task78 7 31 1 
Task79 15 7 31 
Task80 63 7 127 
Task81 3 31 7 
Task82 7 15 31 
Task83 7 7 31 
Task84 31 15 63 
Task85 63 15 255 
Task86 7 7 63 
Task87 127 127 255 
Task88 7 15 31 
Task89 31 31 7 
Task90 1 63 7 
Task91 31 31 63 
Task92 31 31 7 
Task93 7 255 3 
Task94 31 63 31 
Task95 7 7 31 
Task96 63 7 15 
Task97 31 7 7 
Task98 63 255 127 
Task99 15 63 31 
