0 16
0 21
1 15
1 16
3 12
3 19
4 23
5 14
5 17
9 19
9 20
11 13
11 18
11 22
12 26
13 24
13 26
13 33
14 30
16 24
16 29
16 32
17 32
20 27
21 25
21 28
22 29
23 31
24 35
24 39
24 40
28 34
30 37
31 36
33 38
35 43
35 47
36 41
36 45
37 42
39 48
40 44
40 46
41 51
42 50
42 57
43 56
44 52
45 49
45 53
45 55
45 58
46 54
49 60
51 61
52 63
55 64
56 59
56 62
56 65
56 66
60 70
61 67
65 72
66 68
66 69
66 71
68 73
71 74
71 75
71 76
71 78
72 77
72 79
74 81
74 84
74 85
75 82
76 83
76 86
77 88
78 80
78 87
78 89
81 91
81 92
82 95
85 94
87 93
88 90
90 96
95 97
95 98
95 99
