files/tasks_parameters/ExAp01/sample8.txt 0.718947 3.15778 1.5595 0.203411 3.97903
files/tasks_parameters/ExAp01/sample12.txt 0.753893 3.94962 1.6705 0.207924 4.0673
files/tasks_parameters/ExAp01/sample2.txt 0.777155 3.78275 1.74131 0.200098 3.91421
files/tasks_parameters/ExAp01/sample44.txt 0.680927 3.59825 1.65317 0.200005 3.9124
files/tasks_parameters/ExAp01/sample27.txt 0.687469 3.45743 1.5148 0.182129 3.56271
files/tasks_parameters/ExAp01/sample17.txt 0.580451 2.77299 1.44514 0.14646 2.86497
files/tasks_parameters/ExAp01/sample9.txt 0.649499 2.99933 1.451 0.177444 3.47106
files/tasks_parameters/ExAp01/sample34.txt 0.585238 3.02928 1.58429 0.157984 3.0904
files/tasks_parameters/ExAp01/sample40.txt 0.627682 3.86889 1.52122 0.168379 3.29375
files/tasks_parameters/ExAp01/sample33.txt 0.780595 3.63695 1.71905 0.199765 3.9077
files/tasks_parameters/ExAp01/sample48.txt 0.592751 3.39061 1.49062 0.154728 3.02672
files/tasks_parameters/ExAp01/sample29.txt 0.758179 3.30472 1.38739 0.223868 4.3792
files/tasks_parameters/ExAp01/sample11.txt 0.650432 3.10585 1.41612 0.174079 3.40524
files/tasks_parameters/ExAp01/sample14.txt 0.640808 2.70971 1.43432 0.162214 3.17316
files/tasks_parameters/ExAp01/sample0.txt 0.724441 3.6937 1.5439 0.18367 3.59286
files/tasks_parameters/ExAp01/sample7.txt 0.57091 2.70501 1.42221 0.143463 2.80636
files/tasks_parameters/ExAp01/sample23.txt 0.658039 3.2697 1.57822 0.181448 3.54941
files/tasks_parameters/ExAp01/sample13.txt 0.732632 3.84225 1.67648 0.198247 3.87801
files/tasks_parameters/ExAp01/sample22.txt 0.579389 3.09569 1.56121 0.148796 2.91068
files/tasks_parameters/ExAp01/sample25.txt 0.554602 2.73966 1.5007 0.148149 2.89801
files/tasks_parameters/ExAp01/sample36.txt 0.531568 2.85948 1.28553 0.130042 2.54382
files/tasks_parameters/ExAp01/sample46.txt 0.761072 3.58643 1.69998 0.210103 4.10993
files/tasks_parameters/ExAp01/sample31.txt 0.717386 3.4832 1.53782 0.1722 3.36849
files/tasks_parameters/ExAp01/sample37.txt 0.712388 3.95293 1.50705 0.171701 3.35873
files/tasks_parameters/ExAp01/sample16.txt 0.595451 3.31216 1.30115 0.150249 2.9391
files/tasks_parameters/ExAp01/sample10.txt 0.609939 3.17098 1.61789 0.153776 3.0081
files/tasks_parameters/ExAp01/sample39.txt 0.702929 3.26617 1.44406 0.165669 3.24073
files/tasks_parameters/ExAp01/sample19.txt 0.696676 3.63532 1.52509 0.196094 3.8359
files/tasks_parameters/ExAp01/sample20.txt 0.580593 3.20793 1.25367 0.147335 2.8821
files/tasks_parameters/ExAp01/sample43.txt 0.581438 3.11551 1.4202 0.150644 2.94683
files/tasks_parameters/ExAp01/sample32.txt 0.623838 3.5311 1.42482 0.168744 3.30089
files/tasks_parameters/ExAp01/sample45.txt 0.717353 3.80283 1.48324 0.19807 3.87456
files/tasks_parameters/ExAp01/sample26.txt 0.603429 3.21645 1.29701 0.166061 3.24841
files/tasks_parameters/ExAp01/sample5.txt 0.652616 3.5889 1.52559 0.178903 3.49962
files/tasks_parameters/ExAp01/sample21.txt 0.668139 2.75242 1.55936 0.19512 3.81685
files/tasks_parameters/ExAp01/sample38.txt 0.628958 3.31563 1.37515 0.166157 3.25028
files/tasks_parameters/ExAp01/sample1.txt 0.727387 3.74964 1.51696 0.19701 3.85381
files/tasks_parameters/ExAp01/sample15.txt 0.673364 3.32916 1.48508 0.180707 3.53491
files/tasks_parameters/ExAp01/sample24.txt 0.621365 3.45951 1.59549 0.16529 3.23333
files/tasks_parameters/ExAp01/sample3.txt 0.88651 3.70014 1.70809 0.237107 4.63817
files/tasks_parameters/ExAp01/sample6.txt 0.697386 3.33003 1.58323 0.184714 3.61329
files/tasks_parameters/ExAp01/sample30.txt 0.841608 4.1841 1.4861 0.239623 4.68739
files/tasks_parameters/ExAp01/sample42.txt 0.677083 3.43221 1.70276 0.177383 3.46988
files/tasks_parameters/ExAp01/sample4.txt 0.743919 3.72477 1.6136 0.196448 3.84282
files/tasks_parameters/ExAp01/sample28.txt 0.605304 3.11323 1.45032 0.158819 3.10674
files/tasks_parameters/ExAp01/sample18.txt 0.567873 3.47418 1.45209 0.149064 2.91591
files/tasks_parameters/ExAp01/sample35.txt 0.688199 4.57086 1.49394 0.185031 3.61948
files/tasks_parameters/ExAp01/sample47.txt 0.640294 3.13768 1.52397 0.16417 3.21142
files/tasks_parameters/ExAp01/sample49.txt 0.599301 3.13288 1.49657 0.156154 3.05461
files/tasks_parameters/ExAp01/sample41.txt 0.568512 2.81964 1.49636 0.150876 2.95136
