files/tasks_parameters/ExAp01/sample8.txt 1.0882 7.2562 4.46819 0.454772 8.89603
files/tasks_parameters/ExAp01/sample12.txt 1.59783 9.70908 5.28286 0.618515 12.0991
files/tasks_parameters/ExAp01/sample2.txt 1.45859 8.14159 5.7401 0.620531 12.1385
files/tasks_parameters/ExAp01/sample44.txt 1.33234 7.25164 5.75904 0.557631 10.9081
files/tasks_parameters/ExAp01/sample27.txt 1.3186 8.10944 5.64946 0.564878 11.0499
files/tasks_parameters/ExAp01/sample17.txt 1.25488 7.11225 5.46658 0.527183 10.3125
files/tasks_parameters/ExAp01/sample9.txt 1.18197 7.62559 5.37813 0.517277 10.1187
files/tasks_parameters/ExAp01/sample34.txt 1.24494 7.04587 5.93037 0.497709 9.73594
files/tasks_parameters/ExAp01/sample40.txt 1.20139 8.03037 5.123 0.502383 9.82736
files/tasks_parameters/ExAp01/sample33.txt 1.61401 9.22935 5.92956 0.659262 12.8962
files/tasks_parameters/ExAp01/sample48.txt 1.15242 8.12182 5.1577 0.452491 8.8514
files/tasks_parameters/ExAp01/sample29.txt 1.51774 8.06133 5.12331 0.650652 12.7277
files/tasks_parameters/ExAp01/sample11.txt 1.35978 7.63104 5.37897 0.563302 11.019
files/tasks_parameters/ExAp01/sample14.txt 1.13222 6.66403 4.66322 0.471536 9.22396
files/tasks_parameters/ExAp01/sample0.txt 1.51407 9.3266 4.98971 0.6311 12.3453
files/tasks_parameters/ExAp01/sample7.txt 1.23454 7.34863 5.19436 0.515527 10.0845
files/tasks_parameters/ExAp01/sample23.txt 1.39222 6.68564 5.54308 0.588617 11.5142
files/tasks_parameters/ExAp01/sample13.txt 1.52633 9.31093 5.35591 0.632849 12.3795
files/tasks_parameters/ExAp01/sample22.txt 1.3067 7.65588 5.04866 0.540336 10.5698
files/tasks_parameters/ExAp01/sample25.txt 1.02986 6.17035 5.0141 0.408296 7.98688
files/tasks_parameters/ExAp01/sample36.txt 1.19063 7.03772 4.66274 0.507647 9.93034
files/tasks_parameters/ExAp01/sample46.txt 1.35614 7.73433 4.79934 0.536843 10.5015
files/tasks_parameters/ExAp01/sample31.txt 1.17034 6.96928 5.16482 0.485817 9.50332
files/tasks_parameters/ExAp01/sample37.txt 1.55421 9.52443 5.74224 0.65799 12.8713
files/tasks_parameters/ExAp01/sample16.txt 1.33938 8.63521 4.97261 0.516328 10.1001
files/tasks_parameters/ExAp01/sample10.txt 1.39938 7.28353 6.16876 0.615651 12.0431
files/tasks_parameters/ExAp01/sample39.txt 1.14422 6.3405 4.6137 0.468873 9.17187
files/tasks_parameters/ExAp01/sample19.txt 1.40589 8.85528 5.22306 0.622152 12.1702
files/tasks_parameters/ExAp01/sample20.txt 1.39306 8.1141 5.21177 0.586994 11.4825
files/tasks_parameters/ExAp01/sample43.txt 1.28138 7.21373 5.6367 0.53748 10.5139
files/tasks_parameters/ExAp01/sample32.txt 1.43877 8.30592 5.38137 0.593918 11.6179
files/tasks_parameters/ExAp01/sample45.txt 1.31273 7.94069 4.96323 0.547271 10.7054
files/tasks_parameters/ExAp01/sample26.txt 1.12474 7.57061 4.62637 0.480146 9.39238
files/tasks_parameters/ExAp01/sample5.txt 1.37438 8.0307 5.35681 0.59407 11.6209
files/tasks_parameters/ExAp01/sample21.txt 1.02807 5.87802 4.61744 0.434264 8.49486
files/tasks_parameters/ExAp01/sample38.txt 1.2858 7.66999 4.86632 0.496808 9.71832
files/tasks_parameters/ExAp01/sample1.txt 1.14113 7.21312 4.63213 0.486293 9.51263
files/tasks_parameters/ExAp01/sample15.txt 1.28189 8.02273 5.50855 0.531063 10.3884
files/tasks_parameters/ExAp01/sample24.txt 1.30772 8.66348 5.4905 0.548998 10.7392
files/tasks_parameters/ExAp01/sample3.txt 1.18829 7.74268 4.79918 0.477387 9.3384
files/tasks_parameters/ExAp01/sample6.txt 1.48931 8.57133 5.80157 0.633604 12.3943
files/tasks_parameters/ExAp01/sample30.txt 1.66627 8.18878 5.90888 0.633576 12.3937
files/tasks_parameters/ExAp01/sample42.txt 1.30722 8.57689 5.67253 0.54426 10.6465
files/tasks_parameters/ExAp01/sample4.txt 1.28802 8.40354 4.57985 0.563519 11.0233
files/tasks_parameters/ExAp01/sample28.txt 1.11382 6.44114 4.96426 0.449721 8.79723
files/tasks_parameters/ExAp01/sample18.txt 1.29403 8.56363 4.60946 0.543766 10.6369
files/tasks_parameters/ExAp01/sample35.txt 1.91711 11.0387 6.34514 0.761377 14.8937
files/tasks_parameters/ExAp01/sample47.txt 1.32437 7.14493 5.22131 0.545046 10.6619
files/tasks_parameters/ExAp01/sample49.txt 1.28477 6.65996 4.80244 0.498533 9.75207
files/tasks_parameters/ExAp01/sample41.txt 1.18489 7.09069 5.35462 0.497129 9.72459
