0.354887
Task0 127 1 31 
Task1 63 3 15 
Task2 63 127 31 
Task3 63 255 63 
Task4 31 3 255 
Task5 1 127 63 
Task6 15 255 127 
Task7 255 31 1 
Task8 63 3 63 
Task9 63 63 63 
Task10 255 63 31 
Task11 31 7 63 
Task12 31 1 255 
Task13 31 63 63 
Task14 127 255 15 
Task15 3 255 127 
Task16 63 1 31 
Task17 63 63 3 
Task18 31 255 31 
Task19 3 63 63 
Task20 31 3 63 
Task21 31 255 255 
Task22 31 31 255 
Task23 63 127 3 
Task24 63 255 15 
Task25 3 255 127 
Task26 255 31 255 
Task27 15 127 127 
Task28 15 3 15 
Task29 255 31 127 
Task30 7 7 63 
Task31 255 31 63 
Task32 63 255 63 
Task33 15 127 63 
Task34 255 63 255 
Task35 63 255 63 
Task36 63 255 255 
Task37 3 15 255 
Task38 63 63 31 
Task39 31 255 63 
Task40 31 3 63 
Task41 1 255 15 
Task42 31 255 15 
Task43 3 3 255 
Task44 7 1 63 
Task45 15 63 31 
Task46 7 31 63 
Task47 255 7 127 
Task48 127 63 31 
Task49 15 127 255 
Task50 7 63 31 
Task51 63 15 31 
Task52 255 63 255 
Task53 63 15 255 
Task54 3 255 1 
Task55 255 255 255 
Task56 63 63 31 
Task57 15 7 255 
Task58 255 127 63 
Task59 255 127 63 
Task60 63 63 31 
Task61 3 63 3 
Task62 15 63 255 
Task63 63 15 63 
Task64 31 63 7 
Task65 255 15 63 
Task66 255 31 255 
Task67 63 63 255 
Task68 3 15 63 
Task69 3 3 63 
Task70 31 63 7 
Task71 1 63 255 
Task72 1 31 255 
Task73 255 31 15 
Task74 255 31 7 
Task75 255 63 3 
Task76 31 15 255 
Task77 63 63 7 
Task78 127 7 31 
Task79 63 31 63 
Task80 15 31 127 
Task81 7 3 63 
Task82 255 127 63 
Task83 255 127 31 
Task84 7 63 15 
Task85 15 255 15 
Task86 63 127 127 
Task87 7 127 31 
Task88 127 127 127 
Task89 15 7 255 
Task90 1 127 31 
Task91 31 31 63 
Task92 63 127 255 
Task93 63 31 127 
Task94 63 15 255 
Task95 63 31 127 
Task96 31 7 255 
Task97 255 255 15 
Task98 255 31 63 
Task99 15 15 255 
