files/tasks_parameters/ExAp01/sample8.txt 1.11136 7.2562 4.46819 0.454772 35.1185
files/tasks_parameters/ExAp01/sample12.txt 1.56727 9.70908 5.28286 0.618515 47.7631
files/tasks_parameters/ExAp01/sample2.txt 1.40513 8.14159 5.7401 0.620531 47.9188
files/tasks_parameters/ExAp01/sample44.txt 1.38597 7.25164 5.75904 0.557631 43.0615
files/tasks_parameters/ExAp01/sample27.txt 1.31221 8.10944 5.64946 0.564878 43.6212
files/tasks_parameters/ExAp01/sample17.txt 1.21064 7.11225 5.46658 0.527183 40.7103
files/tasks_parameters/ExAp01/sample9.txt 1.17185 7.62559 5.37813 0.517277 39.9453
files/tasks_parameters/ExAp01/sample34.txt 1.19886 7.04587 5.93037 0.497709 38.4342
files/tasks_parameters/ExAp01/sample40.txt 1.2255 8.03037 5.123 0.502383 38.7951
files/tasks_parameters/ExAp01/sample33.txt 1.52722 9.22935 5.92956 0.659262 50.9097
files/tasks_parameters/ExAp01/sample48.txt 1.21815 8.12182 5.1577 0.452491 34.9423
files/tasks_parameters/ExAp01/sample29.txt 1.48583 8.06133 5.12331 0.650652 50.2448
files/tasks_parameters/ExAp01/sample11.txt 1.35212 7.63104 5.37897 0.563302 43.4994
files/tasks_parameters/ExAp01/sample14.txt 1.11645 6.66403 4.66322 0.471536 36.4131
files/tasks_parameters/ExAp01/sample0.txt 1.43742 9.3266 4.98971 0.6311 48.7349
files/tasks_parameters/ExAp01/sample7.txt 1.26194 7.34863 5.19436 0.515527 39.8102
files/tasks_parameters/ExAp01/sample23.txt 1.37349 6.68564 5.54308 0.588617 45.4543
files/tasks_parameters/ExAp01/sample13.txt 1.46138 9.31093 5.35591 0.632849 48.87
files/tasks_parameters/ExAp01/sample22.txt 1.24453 7.65588 5.04866 0.540336 41.7259
files/tasks_parameters/ExAp01/sample25.txt 1.06583 6.17035 5.0141 0.408296 31.5295
files/tasks_parameters/ExAp01/sample36.txt 1.23979 7.03772 4.66274 0.507647 39.2016
files/tasks_parameters/ExAp01/sample46.txt 1.30571 7.73433 4.79934 0.536843 41.4562
files/tasks_parameters/ExAp01/sample31.txt 1.1624 6.96928 5.16482 0.485817 37.5159
files/tasks_parameters/ExAp01/sample37.txt 1.52496 9.52443 5.74224 0.65799 50.8114
files/tasks_parameters/ExAp01/sample16.txt 1.32228 8.63521 4.97261 0.516328 39.872
files/tasks_parameters/ExAp01/sample10.txt 1.4586 7.28353 6.16876 0.615651 47.5419
files/tasks_parameters/ExAp01/sample39.txt 1.09734 6.3405 4.6137 0.468873 36.2074
files/tasks_parameters/ExAp01/sample19.txt 1.37906 8.85528 5.22306 0.622152 48.044
files/tasks_parameters/ExAp01/sample20.txt 1.34869 8.1141 5.21177 0.586994 45.3289
files/tasks_parameters/ExAp01/sample43.txt 1.20848 7.21373 5.6367 0.53748 41.5054
files/tasks_parameters/ExAp01/sample32.txt 1.47153 8.30592 5.38137 0.593918 45.8637
files/tasks_parameters/ExAp01/sample45.txt 1.36979 7.94069 4.96323 0.547271 42.2615
files/tasks_parameters/ExAp01/sample26.txt 1.12621 7.57061 4.62637 0.480146 37.0779
files/tasks_parameters/ExAp01/sample5.txt 1.33343 8.0307 5.35681 0.59407 45.8754
files/tasks_parameters/ExAp01/sample21.txt 1.04958 5.87802 4.61744 0.434264 33.5348
files/tasks_parameters/ExAp01/sample38.txt 1.16112 7.66999 4.86632 0.496808 38.3646
files/tasks_parameters/ExAp01/sample1.txt 1.15363 7.21312 4.63213 0.486293 37.5527
files/tasks_parameters/ExAp01/sample15.txt 1.24684 8.02273 5.50855 0.531063 41.0098
files/tasks_parameters/ExAp01/sample24.txt 1.29779 8.66348 5.4905 0.548998 42.3948
files/tasks_parameters/ExAp01/sample3.txt 1.14027 7.74268 4.79918 0.477387 36.8649
files/tasks_parameters/ExAp01/sample6.txt 1.44596 8.57133 5.80157 0.633604 48.9283
files/tasks_parameters/ExAp01/sample30.txt 1.52536 8.18878 5.90888 0.633576 48.9262
files/tasks_parameters/ExAp01/sample42.txt 1.32167 8.57689 5.67253 0.54426 42.0289
files/tasks_parameters/ExAp01/sample4.txt 1.2703 8.40354 4.57985 0.563519 43.5162
files/tasks_parameters/ExAp01/sample28.txt 1.0519 6.44114 4.96426 0.449721 34.7285
files/tasks_parameters/ExAp01/sample18.txt 1.32465 8.56363 4.60946 0.543766 41.9909
files/tasks_parameters/ExAp01/sample35.txt 1.82188 11.0387 6.34514 0.761377 58.7952
files/tasks_parameters/ExAp01/sample47.txt 1.23477 7.14493 5.22131 0.545046 42.0896
files/tasks_parameters/ExAp01/sample49.txt 1.23292 6.65996 4.80244 0.498533 38.4979
files/tasks_parameters/ExAp01/sample41.txt 1.14396 7.09069 5.35462 0.497129 38.3894
