Task0 0.021308702949725852 0.046253793169532494 0.1110805819186395 0.07912085249254891 0.97557012122289 0.6535601055931508 0.6299865969280742 
Task1 0.0016841640142239368 0.27055538916461513 0.221073492985348 0.011516390680246184 0.6747885483795207 0.47500450523836046 0.5425588736523562 
Task2 0.14720409092174555 0.10933212146583433 0.25111117408039724 0.4155236504366823 0.7880442443974369 0.6652510895645871 0.5544760520992688 
Task3 0.03123159027341007 0.1170522497499333 0.4031852392742432 0.13489288001009925 0.3064593013500169 0.8599031897441654 0.3164467558857739 
Task4 0.10220668657630756 0.25862350285823354 0.23180747149661513 0.349966437315786 0.5668541092696495 0.46840145009935963 0.9376711443798493 
Task5 0.018125611851569464 0.02643495769626943 0.13924636162580264 0.21207857535038882 0.6953289716924571 0.3969197564923339 0.47717706221742356 
Task6 0.08101079885172191 0.05701715047604148 0.47685456776655605 0.1277414924904814 0.7833855753679867 0.4945307987697991 0.9756433721958222 
Task7 0.00023070916145018967 0.0064851572731244944 0.07573048164374259 0.010156990219412439 0.35430925334033125 0.8507164762773463 0.9163774505731312 
Task8 0.0423641826419626 0.0017570996653246435 0.15526169745683735 0.12825278391449366 0.5816736408155625 0.7058642409479428 0.8959460755755408 
Task9 0.06961261138252331 0.24435066717462825 0.17774008443547193 0.29111027000173034 0.36481969680103726 0.8607521253349744 0.5277589171998143 
Task10 0.001365262367606422 0.0024470912554924945 0.007872467787076875 3.015681305951118e-05 0.9582916674039292 0.5046592177890621 0.9805356129880483 
Task11 0.04101702898577524 0.1517199997812125 0.18921768599745062 0.1310724573332856 0.37446608144280535 0.31330211058927027 0.33163337381359026 
Task12 0.040102359829407457 0.10359291450915696 0.10809525197343949 0.07784705829813021 0.8421865505627979 0.3393811924635082 0.3454656739792902 
Task13 0.025429675363266607 0.24997341517204397 0.15482717357582762 0.39384455853480344 0.5298516848193902 0.5690452325704161 0.4663738773289754 
Task14 0.020675154366421852 0.015523138268207509 0.1961834653370136 0.03710205277078412 0.9668014160333702 0.8678598045460433 0.5031005311906791 
Task15 0.049757177544543785 0.13999606933780007 0.04473539644148425 0.08380380917729202 0.6209159447735155 0.641504942697203 0.8499861484622682 
Task16 0.011867070592014188 0.32464253340147287 0.2711300211853162 0.1856615138744611 0.49512035721564185 0.3302048038442346 0.6345786643226778 
Task17 0.03989346448151633 0.03943186236385817 0.2518931250575209 0.009699200993937585 0.6555039866463963 0.7473341530239958 0.9302071577405433 
Task18 0.061254988517512564 0.12385631371126517 0.24055422797495868 0.06777391992819343 0.8878587476535444 0.38944266071261324 0.38249178636673714 
Task19 0.05466857025988746 0.22212725086868013 0.22455577677857436 0.20513418389814395 0.49533609831383485 0.47374834662795723 0.7488126792509546 
Task20 0.021507650283019587 0.09179685785049915 0.04982139753954507 0.1171181050274998 0.5017958740442072 0.5983960182354164 0.7331469895947713 
Task21 0.13851121204334782 0.11437169398773743 0.28252648345852377 0.2585440690965564 0.3614831594159939 0.5518271452275922 0.583434050831114 
Task22 0.002329954735009145 0.01498652290968453 0.0027524308204850355 0.010318267347196113 0.6064366149420328 0.8363745519464483 0.5950500037026267 
Task23 0.0721072626323773 0.11089029839570903 0.020147794696248587 0.24730356284194666 0.4747528577289968 0.9991737213977929 0.3114279521112689 
Task24 0.05361417173433527 0.059960876344622986 0.10853751513615202 0.08272027876249557 0.9121760019124341 0.48485680482913285 0.8396074017898854 
Task25 0.09879003245562541 0.2300402274221289 0.01143917264057749 0.48487745681733013 0.850662737818858 0.40686238800772956 0.4348469757645767 
Task26 0.0325013940126358 0.2710782412354089 0.1867259642750465 0.4597778620200728 0.4821606090027337 0.6513432405361363 0.7787083607323178 
Task27 0.024547790453235598 0.03113898609785555 0.18614555234678604 0.12793051517273693 0.681765766634834 0.3645874859946822 0.7887990276277641 
Task28 0.028483112241971927 0.26499222971531367 0.04457726255686872 0.4080748519145636 0.35240913641356797 0.7074443504972734 0.8917676867661446 
Task29 0.06964569716092117 0.12711959734953274 0.09791359747725305 0.10323543062102333 0.5745089699024011 0.42608174530464604 0.7808094865944941 
Task30 0.030617105818116098 0.2736736329624578 0.25676049204724627 0.2522812888670793 0.9457484059562922 0.571463948857158 0.41497177332289736 
Task31 0.04380619744908033 0.2761214003073657 0.0171093719154706 0.042841938139728954 0.5470924236532102 0.6583035301150182 0.4682449437128495 
Task32 0.11566928203148162 0.29016385160875846 0.38116319136288546 0.14301242024833516 0.8562666269411636 0.6029029282816705 0.779128677558443 
Task33 0.03991507545232828 0.1343009452714076 0.2481106208454034 0.19381980181041839 0.889221897288998 0.4359833463738507 0.4773420365436323 
Task34 0.09744554668692257 0.1016280637355775 0.2899225093908972 0.000817183358701821 0.5406160114895467 0.8542866975292822 0.7186363843532217 
Task35 0.011034500814658715 0.08595351474502208 0.029642521744046746 0.27855253009619596 0.3356441616146258 0.9122621311122929 0.5617764042739253 
Task36 0.04185130649106055 0.040101910511674416 0.006289443227269838 0.15176181408930456 0.5652366402794093 0.8398447715038213 0.8880001770299097 
Task37 0.07719079681704909 0.11958036955071191 0.12039636155733449 0.4143286397370062 0.4546165545877737 0.30178529565908263 0.7003472134260396 
Task38 0.037248638297718836 0.05717221408558729 0.5039901187129197 0.1687103737849268 0.5704328716485685 0.48228409715374065 0.8949986588739836 
Task39 0.09186339581587119 0.12299863495694793 0.20620283008941376 0.08344064616943443 0.9350233045794925 0.843005991075213 0.569226848397012 
Task40 0.050096889171416824 0.022931276625919546 0.14070314015058333 0.23189967749080498 0.9289777122673786 0.31540410269064717 0.4731128558418344 
Task41 0.14306146044214224 0.2419377310651488 0.19060746597346814 0.29607143493066246 0.747121796745639 0.582991424848706 0.5912974280346321 
Task42 0.11337426159402182 0.10848488519133723 0.18607323456768263 0.24807654107037555 0.5092037924447537 0.9819244409017147 0.905285532443342 
Task43 0.000785914383048629 0.010498085604048666 0.01847672274847212 0.04085770303645242 0.4894804829634073 0.3471223080641681 0.5206244869004126 
Task44 0.11345774770804698 0.29505136808975263 0.24540975217432737 0.10148417755264863 0.6737381428325779 0.9600692670581565 0.8332684714832224 
Task45 0.0025743963594135957 0.10066870349654825 0.05719210140720424 0.0729552654756546 0.7750856453724759 0.9883674579373745 0.8458635155446805 
Task46 0.013957264041018425 0.026803385729978316 0.04924417615688099 0.03755783216483433 0.7705731642276827 0.3594706218713031 0.42356397659411293 
Task47 0.07301649350938849 0.4434603988252535 0.29203146698295024 0.010106785496112825 0.5521790806146523 0.7330192689810889 0.36565094015604893 
Task48 0.11763712392866883 0.26976294914856336 0.4820308839250679 0.10959573877456236 0.6861986702817167 0.8720295050025615 0.6337067728645562 
Task49 0.01273424708155693 0.029474714921314534 0.038559864757187055 0.001998233295698435 0.6695442186861484 0.3072369582451135 0.32067860420811267 
Task50 0.06904256087874444 0.14894016567485824 0.03862173446127787 0.10200651668750217 0.34082044736550177 0.7702980055047287 0.5738325150206404 
Task51 0.023197075898820106 0.12041168541672363 0.2737373992757526 0.24081491347732648 0.6114835334679308 0.5221748036543711 0.7035519470490275 
Task52 0.028001960222372228 0.20068412683356968 0.016320129579440665 0.2484955817351319 0.6366534263287094 0.3304309739557507 0.8093284679689425 
Task53 0.028985069874346837 0.027865458825367576 0.1551819895807166 0.003230099398445546 0.6800088645020295 0.5049064730920823 0.3445830859748713 
Task54 0.11407090366629195 0.25873415415268813 0.1372235347482888 0.2680886038596134 0.7453414830830991 0.7012962507448895 0.8065126777312146 
Task55 0.02590473934098355 0.0031159113378751396 0.052652538038232395 0.09854186974482369 0.9303416988239201 0.6741575512538777 0.5993545404579557 
Task56 0.00011676114433045105 0.02378652785346009 0.009412147502812352 0.0034362230086660644 0.5271382585146622 0.4099926370901638 0.3893797986854741 
Task57 0.1134617599772257 0.2835355234518073 0.057901818154837095 0.1434882362031989 0.35812744869494456 0.34513210744483774 0.8272765164731395 
Task58 0.1054049596270813 0.17785886152669259 0.3045498574103295 0.3245505106568502 0.6165236193131891 0.37712666957023616 0.8670076534306326 
Task59 0.14646303064865163 0.3414771238949096 0.1852034064091914 0.1390815453221089 0.4686639600404795 0.3808793196602622 0.9049142076146564 
Task60 0.11335211446933176 0.05100301701684257 0.1884179680056126 0.24754591409470775 0.44625320975216254 0.6793869963453845 0.3594071458305996 
Task61 0.01424417286598235 0.14072813555581848 0.4743163122242168 0.18757267733105215 0.8550150875179674 0.5692246352338861 0.532809046083471 
Task62 0.0027823430034785357 0.07456455149049493 0.02093354237355693 0.05072486207461316 0.9646974415790679 0.30679594072656075 0.6045172213713788 
Task63 0.007808006779658963 0.022074495755264906 0.02902065076795012 0.006058691663354159 0.5195244645313848 0.7024947745466377 0.7903957280220733 
Task64 0.06604202514996842 0.06928823493495376 0.11383579731915794 0.18092145482381297 0.3081053928027088 0.7715798936514207 0.7649553087295877 
Task65 0.05749861148470248 0.14097893770357306 0.06553715332950001 0.06721279381641247 0.6939377032194474 0.9842199364552744 0.7235692365801303 
Task66 0.13715979507907214 0.10612150419741544 0.4858270939076546 0.04260817973742304 0.3958615617586079 0.5939343026491641 0.5935974827707382 
Task67 0.01917572076367819 0.09053264606908558 0.11151529135796778 0.2391896041178838 0.40035150666421376 0.7602191660255057 0.8862538592717402 
Task68 0.14264581253728462 0.1933293297195328 0.3632439424616981 0.17985355898724134 0.9828035401550865 0.8230535876415208 0.6353968196503657 
Task69 0.12398829397946333 0.29628240372843223 0.01018933115195375 0.3073005242657785 0.7237465708363504 0.8517653297133858 0.9789610881189916 
Task70 0.10418956596220925 0.03660997355990207 0.4325156342708592 0.1328285500179913 0.9988043776567495 0.7179012877754404 0.3860394169246053 
Task71 0.09321654399401302 0.0868273262716439 0.19100899817491557 0.21558726233128406 0.9439868482952454 0.920862168125721 0.8468664581488992 
Task72 0.015840627749347094 0.35996299380550745 0.057420638954965686 0.2776933819438931 0.38640507767197174 0.4133052962718293 0.6321403332651467 
Task73 0.1461006247718687 0.08970423440244567 0.29314087060604216 0.3560903676049315 0.5701693569505296 0.5690662140046887 0.6270368026539694 
Task74 0.0546466083160362 0.33153221844543845 0.4644178094667512 0.14539399806759487 0.5236786443779039 0.8156993146851603 0.5436365000725504 
Task75 0.00014839045709483858 0.0017933560983170356 0.05450653646206719 0.03556904878425016 0.36531257688436214 0.880152406463226 0.552482134171572 
Task76 0.12234094882379744 0.05680156654780212 0.31018728860889844 0.31671161577804896 0.9848640224181333 0.9288334012812893 0.7826964006986581 
Task77 0.03745055804440948 0.12124062297297983 0.369147496770344 0.35084240714105996 0.5703697483000412 0.5407711998070327 0.6038646287999291 
Task78 0.11741323866792103 0.14625713942942448 0.06031253841883952 0.2966031970094438 0.8795509706341329 0.31745646209406075 0.4180947646164912 
Task79 0.09765702136720264 0.1578836139740766 0.2886503169121086 0.03023401104775628 0.5831812290489216 0.37378802182970766 0.8204802254277777 
Task80 0.031106700801669905 0.04609866063317784 0.042462540233367055 0.05948998000374387 0.7738389771839613 0.8765668468763084 0.4668490236253626 
Task81 0.015419157871860826 0.14821799351136086 0.16469889337728574 0.09256828418899696 0.4724034054736301 0.6162429534011238 0.5343877175614722 
Task82 3.020556678222259e-05 0.007505672848016406 0.007877695788838806 0.007932719507365285 0.6883246142471484 0.4565502446455979 0.8657237472869543 
Task83 0.02200390019654687 0.08624434846074396 0.07798798054326758 0.03671645368038353 0.7439805740154652 0.6957446219574877 0.5543315604531602 
Task84 0.01093601335559838 0.02112840414682062 0.01641243311726392 0.029202898035381734 0.84922385813445 0.36500456705671114 0.8372538563552323 
Task85 0.0009114988283691216 0.0057385002165107465 0.0020460446191494885 0.002511833605728447 0.7347416258099835 0.3876633676994987 0.6086515398445633 
Task86 0.053602701560135926 0.2594867796685123 0.00019927506471867034 0.22686712475466134 0.5488485484993166 0.7366696938435877 0.7358319201851536 
Task87 0.03110570269643862 0.07773398338423794 0.034473944192161585 0.05270472235654847 0.3452714414134582 0.9434367007172404 0.6448535823416803 
Task88 0.045074787662419805 0.5026488805933922 0.11573754967260938 0.011443735550597356 0.7803709448816195 0.6593120699244159 0.9712516799660933 
Task89 0.08898699946968355 0.45390977701180896 0.21425239932275417 0.18422467570232312 0.858576629075446 0.7267404973352474 0.7000160882961445 
Task90 0.07095429598261539 0.4822611396793808 0.2317648898783293 0.19578772300460215 0.6317795297168328 0.4658835864860353 0.7075232775624125 
Task91 0.02709200992270177 0.20419475540814475 0.06711768735678512 0.1321414103344434 0.6890192697258313 0.9159461672462041 0.8937872559908961 
Task92 0.037299609836749216 0.38458624888408416 0.04235896429010335 0.3184476345041966 0.9916986941895767 0.41312893803019896 0.9979274754193852 
Task93 0.05937396753693152 0.1761279829976921 0.14703489521233137 0.08651689737660818 0.533632376296939 0.4734208084387366 0.9239325007643346 
Task94 0.0062650296485625475 0.050601998888594006 0.03394996427460542 0.025740693209257714 0.6419364152997828 0.8110331380653326 0.35945106091628864 
Task95 0.016742658351507584 0.17017425956507673 0.12949438153091952 0.25958492735829236 0.5665904097761438 0.8274346004634741 0.5900012833364818 
Task96 0.04091091292861177 0.46642031025027086 0.1466395015511012 0.1384649895844595 0.34763182390555536 0.743308700871714 0.9902578550426184 
Task97 0.06753259283994098 0.23635860961920263 0.059855094797928395 0.028529620029361477 0.8797382033661187 0.5249573824609729 0.9396996041800514 
Task98 0.03326539209495268 0.04808398712567442 0.09701738983672951 0.08436996899383375 0.9795297231016118 0.5153689944769275 0.5431801704290147 
Task99 0.15111993652875066 0.000600005502503074 0.19054536446208648 0.5137971865051378 0.8765788188987031 0.5403578643158539 0.7603565924306187 
