Task0 0.007968737829265733 0.026612129734116963 0.41067939199551334 0.20295335742184795 0.9512526702139241 0.9258319882758441 0.8004156709387364 
Task1 0.07236303697007333 0.25318724314814456 0.537990358918702 0.13287750869493847 0.6664986932209744 0.3940574849138647 0.9723856567584361 
Task2 0.013373630325788978 0.0017987557727533535 0.01740563107096607 0.04027591754559009 0.490814263041579 0.30587870031837905 0.46344935994744507 
Task3 0.02941023809500074 0.07591947668855319 0.10716080099322109 0.068792097052634 0.3201687482700666 0.9941412161166259 0.6289197816938497 
Task4 0.06518890949878932 0.22036325947314062 0.0831026288584639 0.13505540459176638 0.905158908818317 0.4136418221187016 0.648064623158155 
Task5 0.007591304577466387 0.04165686621809862 0.0008557031484736779 0.024145612776628307 0.830476205218055 0.7678695336538559 0.3332231406087734 
Task6 0.17996976498127 0.11434123669863078 0.20895683514724783 0.4118095961683481 0.7568745815250699 0.4584234799926482 0.839343744521921 
Task7 0.09907503675958769 0.22745272312111275 0.55965596656308 0.07356367623870941 0.9822914268424305 0.4602935158319724 0.4402299875310699 
Task8 0.059505604252187976 0.33712541543800845 0.22575500261177106 0.17304469201296063 0.6493784935311598 0.9281905261246552 0.4435940532930235 
Task9 0.002628736706601494 0.0048541713943124985 0.00735363550643651 0.002432007836389008 0.8404490981605028 0.6110662337348565 0.6524097550019285 
Task10 0.0007223286968354449 0.0074436849210981525 0.02261982503592892 0.003927763545113268 0.7577522787563258 0.9626596351921741 0.8926773320055938 
Task11 0.009680252185636503 0.22057274824194045 0.19761157577940466 0.13823114938899114 0.5954023889480813 0.5446104782386025 0.5779627185765825 
Task12 0.0828018362355096 0.10944156307258332 0.6126037687799265 0.11000554953693228 0.7833163677800132 0.3925368034089328 0.9145891188942903 
Task13 0.02357839668771475 0.14261529210637658 0.09534034541658563 0.16113368131064507 0.4893627059048828 0.6239259392513604 0.49535782454335353 
Task14 0.15779994812632395 0.25749700930005587 0.08296912816335732 0.354475110598543 0.6730020318623491 0.3568281344574051 0.6981110752878402 
Task15 0.0840736269375188 0.2500487543496894 0.18521556202181924 0.17001754604427965 0.34655015171262576 0.7911486664936207 0.527395673559764 
Task16 0.024010320576411056 0.1164301100050095 0.10924626643591498 0.019687343547686892 0.3568770892201851 0.6054928944531384 0.37435188544248227 
Task17 0.04523084771314635 0.05985365075535904 0.1517119563203237 0.13234091466078232 0.4062820296300534 0.8278366616039488 0.30851284325411144 
Task18 0.0335643883705442 0.10475782168182939 0.04169673313270749 0.012706489197010519 0.9844776818807013 0.7675562901152571 0.7664205943554552 
Task19 0.12958628766485442 0.5782295546611391 0.12071170659857158 0.018728899776633248 0.9529964729620111 0.9515962230128832 0.9302787753028041 
Task20 0.0005444907493012132 0.005773310168402165 0.007829110022508468 0.004238363774757024 0.5047647248120558 0.5338274102722809 0.49246924448215684 
Task21 0.10706757131266423 0.12872922853469843 0.1863573274241151 0.13726324382545368 0.8155316368647201 0.9555222738229774 0.9002184721897679 
Task22 0.017876908105576624 0.04262644557873919 0.04964785663811133 0.0063777826105459 0.8108573529248415 0.5666565218688252 0.6053330452300867 
Task23 0.005143458291026335 0.08682348360617798 0.09960735514333678 0.0692873623655927 0.6848504392702746 0.364661048703697 0.39374270155118385 
Task24 0.12647623026763663 0.4477367646987326 0.11553071576371943 0.15531158790154695 0.7421505703816544 0.690713841949052 0.7496165922935729 
Task25 0.07290672705452012 0.07695556876874587 0.20126674815114312 0.27615989316473905 0.7813271633032115 0.40085340401358976 0.5190417903152913 
Task26 0.11498049431962222 0.34506462786834935 0.07347216955488195 0.1834608736704587 0.7443089200727839 0.8502358036849329 0.8584162883598652 
Task27 0.03715203789479061 0.04061793828779531 0.0506791115951642 0.06380271572235405 0.3693883894840244 0.8676005648169349 0.4278293670511424 
Task28 0.008037452950859905 0.013583917767013851 0.01806634086813192 0.015296917881688767 0.5198448642374821 0.4637120565536172 0.4265378528071947 
Task29 0.052560364524287216 0.5478591590494956 0.213921205945037 0.14204788756010575 0.8934310640228973 0.8021691889766109 0.4656669617527379 
Task30 0.11402364285850902 0.2764346344927213 0.2287880270708412 0.33264641119430965 0.44332987387453615 0.9771645779274742 0.7965855605119773 
Task31 0.002529379528603893 0.0049318114127575715 0.006668301668725862 0.011576006711747753 0.9742585812265028 0.5714415124794117 0.6057149817842813 
Task32 0.01440640303724616 0.39594327917546607 0.26249631827242914 0.04685291575876324 0.7426409900322282 0.5643183577242428 0.7068306690074597 
Task33 0.010181217917094705 0.019543183979602724 0.009200904807528623 0.02982033626372955 0.9276716892040815 0.9111108374723393 0.5233701846065696 
Task34 0.030999887447050248 0.373268213144455 0.21236467917239146 0.153140480029669 0.6000654988209423 0.7433629798810923 0.8911189554469394 
Task35 0.011272054721365672 0.06582047582980464 0.025797144574230605 0.0036262491118420727 0.5966244301850012 0.9371435158623289 0.9370945702308415 
Task36 0.11940034723983557 0.1911751285389569 0.17529713353578974 0.12384914291431975 0.39601396343851164 0.9643476814548226 0.3911718919285978 
Task37 0.09423745839826565 0.5089167951410623 0.0716632229121752 0.09081291576382847 0.9713865202806999 0.44298748486509937 0.5694771403349903 
Task38 0.008775101585372865 0.08626147691232157 0.03784130290970789 0.024169719914071353 0.7626121227796341 0.8815880617445739 0.5378434299280451 
Task39 0.054835650725998615 0.47346596388989526 0.09183713799080383 0.21748178855213296 0.49665993230679917 0.8918168048095305 0.401296956995723 
Task40 0.049225363559637664 0.2760375428479935 0.17853170311747663 0.01934491704438227 0.7349080422429801 0.5203883616896534 0.7156567014812818 
Task41 0.13516327451945573 0.23647190659401038 0.15612351074832131 0.3608698057368851 0.6629096508641936 0.5096168324579342 0.6933632081177287 
Task42 0.0969506235647445 0.1798851773427675 0.1375375966427707 0.5271768694162109 0.6170835136470313 0.33374166741041983 0.35439216836454585 
Task43 0.0976779989325531 0.3210975044623313 0.2044714753395802 0.06955218387230207 0.9984195438575678 0.3280125699326557 0.35926572491025793 
Task44 0.12490090184828674 0.019436308060704448 0.2624385580686387 0.35215864804008884 0.34817112809613626 0.5478647694196098 0.7231815156749576 
Task45 0.0729993114955821 0.10061729322506364 0.06903688069777773 0.3620787323643409 0.932136395355349 0.36952428599694254 0.3552407688262775 
Task46 0.010780219596750963 0.06974721605590523 0.028737195805716133 0.033269217916810666 0.449355709333846 0.47828608906204695 0.341288177492873 
Task47 0.0082747176211592 0.12596372145557103 0.2852074165992427 0.1069896917111411 0.5146068210696633 0.5272280006095996 0.7849718943493385 
Task48 0.010475505285866929 0.09764851305744975 0.02235194690618972 0.05448690695611265 0.5345754632636484 0.9377573690790304 0.4102851204710126 
Task49 0.03214453123256388 0.3440462494353934 0.14733533328797865 0.2067481437894866 0.9679539639275607 0.3143448783873964 0.34346294761991375 
Task50 0.0033812732227931973 0.0032411068658765195 0.01358090615173415 0.32560939114179205 0.3263694240613078 0.5732610263198976 0.3879527763388181 
Task51 0.002928432730101001 0.11012794972131446 0.025925210101957398 0.05431846122477167 0.7855802072784769 0.40770550018700125 0.8503146862206765 
Task52 0.0041715739478578985 0.01037600780264597 0.00259195133145198 0.008652847419393058 0.9655014632930812 0.3203496580859115 0.42814356971200906 
Task53 0.05037115667881954 0.0676297165178087 0.11672787883006736 0.11653803564805995 0.33287773785763664 0.8915960408663375 0.35522365365558933 
Task54 0.0005584299031749964 0.11540510621795698 0.1203503546908131 0.017824241166310643 0.7252880659306524 0.9481470389484077 0.9079752597331321 
Task55 0.009697057080056696 0.08823787760885751 0.03297236150640126 0.06389673751705961 0.6481706280229754 0.5541975131642142 0.7880799862273964 
Task56 0.0626471730892266 0.10058028241869443 0.13497218747888712 0.08075163430510959 0.7586587898454331 0.5881516225889657 0.7549596166664698 
Task57 0.03245759325650572 0.07924387381277775 0.19026858090955803 0.4854748252760112 0.9625309748423168 0.4490374110974934 0.7950826503955719 
Task58 0.000280363403790403 0.0020599959353242237 0.0022981051038319564 0.00015949054501273574 0.640804090813587 0.5804263753305074 0.6309577397668007 
Task59 0.0022332950914299163 0.008996523730931608 0.004208910550500568 0.017999371788321634 0.3049923275207334 0.9686232544624658 0.8778253460641283 
Task60 0.048340867235436916 0.16008799039939448 0.007455293405176755 0.17437743165834219 0.8112577927764517 0.40949781039729666 0.4115850281326563 
Task61 0.11085471484339517 0.21414276139086647 0.10541025274162802 0.1712591175481099 0.7072922663382477 0.5634935028180661 0.5470286515384464 
Task62 0.02591448474662059 0.19922613613874454 0.21105636216440835 0.09354605317008705 0.9651145904974885 0.7039258910364588 0.3880960707926203 
Task63 0.14081212651088204 0.14339131768551527 0.19579715791161076 0.4293255793110577 0.3836970588673285 0.8207160474592439 0.4727756719085499 
Task64 0.15369938391450397 0.043963321631171226 0.3128434891588835 0.3782376973181844 0.6661450925819026 0.49815974087056797 0.9281748748167122 
Task65 0.009204945657965046 0.031139258055502207 0.058267803156989956 0.009963051884772901 0.7640805665664467 0.6350377555510551 0.733197595406494 
Task66 0.017666376459992257 0.062052494478581674 0.09775995715444319 0.14768843775270543 0.35094934859321786 0.9671428546617582 0.5022850573917302 
Task67 0.07249899004494634 0.3873371621145371 0.041092913333354075 0.48340609487423414 0.9993726828340048 0.8702933935536541 0.4166987077772286 
Task68 0.10781681891267217 0.03206366838739825 0.12885135250090893 0.2979480723227738 0.3786025215577253 0.4471341165265014 0.32263916280686855 
Task69 0.003917162145804306 0.03745688255542777 0.0010605795275630263 0.017243895409299784 0.5854107858356935 0.8427578279305916 0.7649710980000926 
Task70 0.00012621427206556732 0.0788877029975085 0.02165266814366222 0.10595243845190294 0.5313489414980426 0.8038250599377148 0.7161529185332951 
Task71 0.01649703735872636 0.09937621439141012 0.01694141651250132 0.012161922317662098 0.31745079156655914 0.9664987287367617 0.8296081920769232 
Task72 0.008614869263697155 0.16548104474543232 0.23853793557383787 0.21147288361683592 0.539971014338986 0.7050739021290631 0.969451782774368 
Task73 0.0726023125866839 0.18629557290902224 0.23023840633703457 0.20448945521324027 0.6060636651646285 0.9151375847453826 0.34970362747399203 
Task74 0.010087947949610827 0.27471927864560247 0.25525401791425734 0.07422916862905492 0.33232396950741044 0.5939103097570825 0.5747566124779606 
Task75 0.002609702110797525 0.5190295104761018 0.0856309635252114 0.18250447309519885 0.8675795735148295 0.4459205615882145 0.5793401741664742 
Task76 0.09408091477593221 0.10632091715910649 0.21812099206742086 0.12141162381989336 0.9687670410603089 0.5581895459720951 0.652692219685415 
Task77 0.0544417984284857 0.6820210082361191 0.12693512884536323 0.05365526979105551 0.9545062189576861 0.9885371076137242 0.9030562721574562 
Task78 0.04628575186978756 0.2791276432072394 0.2749703236068719 0.020604361228857095 0.45663441168116203 0.8227070939440722 0.3514240998133432 
Task79 0.023552981509345972 0.06205820152991003 0.041526688789702115 0.043274296244624484 0.7671199197756962 0.9541161473276216 0.3472736702311865 
Task80 0.030680497470873896 0.10364402331023444 0.031662410143400335 0.13442710687635018 0.42337546734906883 0.7719931590461135 0.4099915140526626 
Task81 0.026714978810475517 0.026771970309078637 0.14491110198939794 0.07546977217349665 0.7833693013743794 0.42187463390963226 0.5325933574984629 
Task82 0.05671717295793382 0.1442123433718193 0.07312291311091598 0.022864825549543125 0.6078637985469524 0.6401244486155274 0.7505473368114062 
Task83 0.17328334141664128 0.16151949313621394 0.33278241018748245 0.2092361084471363 0.4100092693100462 0.6758867617528168 0.57185733314729 
Task84 0.026294858427107843 0.023519413301408346 0.1001651280711117 0.07177563747126871 0.7846048972646327 0.5671209489090681 0.41082047139484973 
Task85 0.01825200389150723 0.08597247259806202 0.045339833390495125 0.06333371293448256 0.49440827516032965 0.393278072780647 0.8581102686153745 
Task86 0.11973298770246374 0.11186316660785303 0.1157331062818658 0.2781785686218581 0.30766714716727195 0.7155757286683362 0.9221454171983405 
Task87 0.0036318080466332192 0.06146129211756644 0.04252018068352345 0.012985346279515454 0.46457745859174226 0.7255331854583829 0.9840458614236736 
Task88 0.041887154028281845 0.15985768857941743 0.02761922971666588 0.025967450517216103 0.32038973908702467 0.30637736697609214 0.5472762185433705 
Task89 0.010228458411426335 0.030283879351737018 0.024731187603491942 0.013921415594784037 0.66811477495231 0.674242364122776 0.5147724796938047 
Task90 0.011093583030061593 0.021273280087240918 0.22444083142480484 0.15734945010645388 0.7455802690472633 0.6312179160624152 0.37764642659107855 
Task91 0.13067001699270392 0.0884441658115056 0.20026654324755105 0.4035435401062621 0.5131987824151925 0.518890052546116 0.8871024116127122 
Task92 0.07790911730621412 0.5331538723501713 0.28617687108238843 0.023990623373290224 0.9906939019845902 0.687415943462116 0.8650202043733031 
Task93 0.03833305661480107 0.06836955858087296 0.11562718478711162 0.10828924879318748 0.6665082014507777 0.4702546374410804 0.8346867220894854 
Task94 0.026380439405274916 0.1417371814584621 0.08894782251528004 0.43236138405330193 0.6926082237879858 0.34179957277914375 0.3874183083104145 
Task95 0.03366710783571842 0.19253297940118663 0.13618775597209054 0.016883995452359912 0.7097906664485416 0.6671538034324292 0.9834430782100378 
Task96 0.03692496216410237 0.04009684004822426 0.06767288814138968 0.253949292718664 0.9910548649491746 0.5464892482520309 0.6053010192560013 
Task97 0.030900632966453033 0.11365005130831012 0.03213385033137294 0.22083635901019016 0.6458568322007181 0.5304194412598725 0.3981499213851786 
Task98 0.05360599813637302 0.09852804679422447 0.41183712073444123 0.15603476190393983 0.4517797804059645 0.98172487150715 0.8247711689587962 
Task99 0.11898528651361301 0.23474315512438748 0.030592000803940474 0.5425507951184998 0.4997394966623449 0.3683699157122821 0.48960256532177204 
