files/tasks_parameters/ExAp01/sample8.txt 1.14927 6.77015 2.19458 0.288816 16.3463
files/tasks_parameters/ExAp01/sample12.txt 1.41 9.58351 2.46081 0.337498 19.1016
files/tasks_parameters/ExAp01/sample2.txt 1.20746 8.44418 2.50701 0.319127 18.0618
files/tasks_parameters/ExAp01/sample44.txt 1.0685 6.96299 2.23089 0.28229 15.9769
files/tasks_parameters/ExAp01/sample27.txt 1.09861 7.74306 2.16676 0.28602 16.188
files/tasks_parameters/ExAp01/sample17.txt 1.10951 7.35053 2.25579 0.292348 16.5461
files/tasks_parameters/ExAp01/sample9.txt 1.15473 6.89392 2.21068 0.282399 15.9831
files/tasks_parameters/ExAp01/sample34.txt 1.08969 6.62788 2.3772 0.297742 16.8514
files/tasks_parameters/ExAp01/sample40.txt 1.0066 7.75686 2.17534 0.285619 16.1653
files/tasks_parameters/ExAp01/sample33.txt 1.2925 8.14826 2.6463 0.338073 19.1341
files/tasks_parameters/ExAp01/sample48.txt 0.968416 7.64107 2.14272 0.270011 15.282
files/tasks_parameters/ExAp01/sample29.txt 1.22207 7.139 1.93769 0.286306 16.2042
files/tasks_parameters/ExAp01/sample11.txt 1.06625 6.88688 2.12981 0.280008 15.8478
files/tasks_parameters/ExAp01/sample14.txt 0.896404 6.11983 1.97599 0.247458 14.0055
files/tasks_parameters/ExAp01/sample0.txt 1.18222 8.2738 2.14256 0.289132 16.3641
files/tasks_parameters/ExAp01/sample7.txt 0.998436 6.87011 2.05821 0.269886 15.2748
files/tasks_parameters/ExAp01/sample23.txt 1.12589 6.52032 2.38087 0.291712 16.5101
files/tasks_parameters/ExAp01/sample13.txt 1.16071 8.73247 2.33415 0.295393 16.7185
files/tasks_parameters/ExAp01/sample22.txt 1.03864 6.9777 2.28948 0.283979 16.0725
files/tasks_parameters/ExAp01/sample25.txt 0.911014 6.23444 2.2122 0.267298 15.1284
files/tasks_parameters/ExAp01/sample36.txt 0.945402 6.6174 1.9458 0.253823 14.3657
files/tasks_parameters/ExAp01/sample46.txt 1.32068 7.42369 2.49128 0.327273 18.5228
files/tasks_parameters/ExAp01/sample31.txt 0.980708 7.22028 2.13584 0.25377 14.3627
files/tasks_parameters/ExAp01/sample37.txt 1.10459 8.90704 2.16981 0.295708 16.7363
files/tasks_parameters/ExAp01/sample16.txt 0.969313 8.18243 1.88294 0.24945 14.1182
files/tasks_parameters/ExAp01/sample10.txt 1.07616 6.96646 2.31217 0.285748 16.1726
files/tasks_parameters/ExAp01/sample39.txt 0.997846 6.4161 1.97266 0.251967 14.2607
files/tasks_parameters/ExAp01/sample19.txt 1.29302 8.16711 2.23199 0.308463 17.4582
files/tasks_parameters/ExAp01/sample20.txt 1.01368 7.28549 1.88944 0.25994 14.7119
files/tasks_parameters/ExAp01/sample43.txt 0.944441 6.86804 2.00142 0.25616 14.498
files/tasks_parameters/ExAp01/sample32.txt 1.12511 8.15663 2.12995 0.281726 15.945
files/tasks_parameters/ExAp01/sample45.txt 1.16725 7.75184 2.10599 0.274935 15.5606
files/tasks_parameters/ExAp01/sample26.txt 1.01902 7.4944 1.88956 0.267248 15.1256
files/tasks_parameters/ExAp01/sample5.txt 1.13348 8.08362 2.09961 0.28454 16.1043
files/tasks_parameters/ExAp01/sample21.txt 1.0699 6.11814 2.17119 0.26143 14.7963
files/tasks_parameters/ExAp01/sample38.txt 1.02063 7.761 1.96293 0.263659 14.9224
files/tasks_parameters/ExAp01/sample1.txt 1.15035 7.83752 2.13261 0.289228 16.3696
files/tasks_parameters/ExAp01/sample15.txt 1.07612 7.37971 2.12057 0.285825 16.177
files/tasks_parameters/ExAp01/sample24.txt 1.10974 8.28531 2.25272 0.296628 16.7884
files/tasks_parameters/ExAp01/sample3.txt 1.29561 7.33359 2.39135 0.305084 17.267
files/tasks_parameters/ExAp01/sample6.txt 1.03247 7.09894 2.24425 0.281804 15.9494
files/tasks_parameters/ExAp01/sample30.txt 1.33502 8.17669 2.03701 0.299204 16.9342
files/tasks_parameters/ExAp01/sample42.txt 1.08052 7.70416 2.42413 0.29743 16.8338
files/tasks_parameters/ExAp01/sample4.txt 1.24783 7.41691 2.36261 0.307803 17.4209
files/tasks_parameters/ExAp01/sample28.txt 1.09171 7.0562 2.07657 0.266428 15.0792
files/tasks_parameters/ExAp01/sample18.txt 0.995599 7.60139 2.1377 0.268016 15.169
files/tasks_parameters/ExAp01/sample35.txt 1.3141 9.66795 2.28028 0.32244 18.2493
files/tasks_parameters/ExAp01/sample47.txt 0.986693 6.84842 2.12104 0.251655 14.243
files/tasks_parameters/ExAp01/sample49.txt 0.969893 7.1497 2.11412 0.255889 14.4827
files/tasks_parameters/ExAp01/sample41.txt 1.01552 6.59911 2.07359 0.265885 15.0484
