files/tasks_parameters/ExAp01/sample8.txt 1.08631 3.76817 4.3855 0.450105 10.5634
files/tasks_parameters/ExAp01/sample12.txt 1.45832 5.03638 5.18776 0.610564 14.3292
files/tasks_parameters/ExAp01/sample2.txt 1.37318 4.58991 5.64606 0.613877 14.4069
files/tasks_parameters/ExAp01/sample44.txt 1.22675 3.77401 5.66946 0.551838 12.9509
files/tasks_parameters/ExAp01/sample27.txt 1.29117 4.13937 5.56136 0.55779 13.0906
files/tasks_parameters/ExAp01/sample17.txt 1.11667 3.76163 5.38341 0.520991 12.227
files/tasks_parameters/ExAp01/sample9.txt 1.08934 3.69889 5.2981 0.511699 12.0089
files/tasks_parameters/ExAp01/sample34.txt 1.11657 3.52435 5.83741 0.49187 11.5436
files/tasks_parameters/ExAp01/sample40.txt 1.1516 4.06185 5.0335 0.496884 11.6612
files/tasks_parameters/ExAp01/sample33.txt 1.47768 4.82091 5.83886 0.651963 15.3007
files/tasks_parameters/ExAp01/sample48.txt 1.08165 4.01134 5.07085 0.447927 10.5123
files/tasks_parameters/ExAp01/sample29.txt 1.3993 4.20847 5.0406 0.643694 15.1067
files/tasks_parameters/ExAp01/sample11.txt 1.3024 3.94699 5.29198 0.557276 13.0786
files/tasks_parameters/ExAp01/sample14.txt 1.05544 3.54059 4.58345 0.466713 10.9532
files/tasks_parameters/ExAp01/sample0.txt 1.44814 4.82755 4.90216 0.623551 14.6339
files/tasks_parameters/ExAp01/sample7.txt 1.11431 3.60766 5.11185 0.509566 11.9589
files/tasks_parameters/ExAp01/sample23.txt 1.40956 3.81403 5.45799 0.582911 13.6802
files/tasks_parameters/ExAp01/sample13.txt 1.44752 4.8894 5.26818 0.624499 14.6562
files/tasks_parameters/ExAp01/sample22.txt 1.24392 3.76156 4.95746 0.534216 12.5374
files/tasks_parameters/ExAp01/sample25.txt 0.944937 2.94144 4.92622 0.403639 9.4729
files/tasks_parameters/ExAp01/sample36.txt 1.22089 3.56164 4.5806 0.501799 11.7766
files/tasks_parameters/ExAp01/sample46.txt 1.22672 3.84833 4.7121 0.530701 12.4549
files/tasks_parameters/ExAp01/sample31.txt 1.06073 3.764 5.08385 0.479734 11.2587
files/tasks_parameters/ExAp01/sample37.txt 1.49766 4.43254 5.65111 0.65143 15.2882
files/tasks_parameters/ExAp01/sample16.txt 1.23715 4.49741 4.8895 0.509171 11.9496
files/tasks_parameters/ExAp01/sample10.txt 1.36877 3.87086 6.07511 0.60993 14.3143
files/tasks_parameters/ExAp01/sample39.txt 1.03383 3.66299 4.54281 0.463671 10.8818
files/tasks_parameters/ExAp01/sample19.txt 1.34058 3.86694 5.14047 0.615987 14.4564
files/tasks_parameters/ExAp01/sample20.txt 1.3418 4.09945 5.13368 0.580369 13.6205
files/tasks_parameters/ExAp01/sample43.txt 1.13754 3.75825 5.55698 0.530892 12.4594
files/tasks_parameters/ExAp01/sample32.txt 1.39051 4.0352 5.29178 0.587643 13.7912
files/tasks_parameters/ExAp01/sample45.txt 1.20073 3.94578 4.87833 0.541081 12.6985
files/tasks_parameters/ExAp01/sample26.txt 1.03896 3.50998 4.55035 0.474009 11.1244
files/tasks_parameters/ExAp01/sample5.txt 1.34286 4.00994 5.27725 0.587681 13.7921
files/tasks_parameters/ExAp01/sample21.txt 0.941644 2.8974 4.54677 0.430037 10.0924
files/tasks_parameters/ExAp01/sample38.txt 1.11439 3.56689 4.78573 0.492366 11.5552
files/tasks_parameters/ExAp01/sample1.txt 1.10135 3.69002 4.55048 0.481074 11.2902
files/tasks_parameters/ExAp01/sample15.txt 1.16096 3.73223 5.42493 0.524964 12.3202
files/tasks_parameters/ExAp01/sample24.txt 1.2325 4.18053 5.40377 0.542575 12.7335
files/tasks_parameters/ExAp01/sample3.txt 1.10877 3.70547 4.7118 0.470503 11.0421
files/tasks_parameters/ExAp01/sample6.txt 1.34554 4.07521 5.71419 0.626702 14.7079
files/tasks_parameters/ExAp01/sample30.txt 1.4414 3.97446 5.82388 0.626709 14.7081
files/tasks_parameters/ExAp01/sample42.txt 1.27305 4.44207 5.58473 0.537025 12.6033
files/tasks_parameters/ExAp01/sample4.txt 1.36572 3.92181 4.49751 0.556974 13.0715
files/tasks_parameters/ExAp01/sample28.txt 0.986418 3.13496 4.88321 0.444588 10.4339
files/tasks_parameters/ExAp01/sample18.txt 1.22441 3.95301 4.52898 0.537438 12.613
files/tasks_parameters/ExAp01/sample35.txt 1.82734 5.75923 6.25034 0.752488 17.6599
files/tasks_parameters/ExAp01/sample47.txt 1.14767 3.44018 5.14289 0.540033 12.6739
files/tasks_parameters/ExAp01/sample49.txt 1.20678 3.38981 4.72409 0.493041 11.5711
files/tasks_parameters/ExAp01/sample41.txt 1.10207 3.58692 5.27252 0.492391 11.5558
