0 11
0 12
0 13
0 15
0 18
1 11
1 12
1 15
1 16
1 18
2 11
2 12
2 15
2 16
2 18
3 11
3 15
4 14
4 15
4 17
6 11
6 12
6 13
7 12
8 11
8 14
8 16
9 11
9 12
9 15
9 18
10 11
10 12
10 13
10 15
10 16
10 17
11 19
11 20
11 23
12 19
12 21
12 22
12 23
13 22
14 19
15 19
15 20
15 21
16 20
16 21
16 22
16 23
17 19
17 20
17 22
17 23
19 24
19 28
19 29
20 24
20 29
20 29
21 27
21 29
22 24
22 27
22 28
23 25
23 26
23 27
23 28
24 31
24 33
24 35
24 39
25 31
25 32
25 33
25 39
25 40
26 32
26 35
26 39
27 30
27 33
27 36
27 37
27 40
28 35
29 33
29 34
29 38
29 39
30 42
30 45
31 42
31 43
31 44
31 45
32 42
33 41
33 42
34 45
35 41
35 42
35 44
35 45
36 44
36 45
37 42
37 45
38 42
38 44
39 41
39 44
40 44
41 47
41 48
41 51
42 48
42 50
42 51
42 52
43 47
43 49
43 51
44 50
44 51
44 52
45 46
45 48
45 52
46 54
46 56
46 57
46 58
46 59
47 53
47 54
47 55
47 56
47 57
47 58
47 59
47 60
48 53
48 56
48 57
48 60
49 54
49 56
49 57
49 59
49 60
50 58
50 59
50 60
53 62
53 64
54 65
55 61
56 63
57 63
59 64
60 64
61 72
61 74
61 76
61 77
61 78
62 66
62 67
62 68
62 70
62 72
62 73
62 75
62 77
63 66
63 68
63 71
63 75
63 77
63 78
63 79
64 67
64 68
64 69
64 70
64 71
64 72
64 78
64 79
65 66
65 67
65 68
65 71
65 71
65 72
65 78
65 79
66 84
66 85
66 85
66 86
66 88
67 80
67 84
67 85
68 80
68 82
68 83
68 84
69 80
69 82
69 87
70 82
70 83
71 80
71 82
71 83
72 84
73 80
73 82
73 85
74 80
74 81
74 82
74 85
75 82
76 82
76 83
76 84
76 85
76 88
77 82
77 85
77 86
77 88
78 80
78 82
78 85
78 86
79 80
79 84
79 85
79 86
80 89
80 91
80 94
80 99
81 89
81 90
81 92
81 94
81 98
82 90
82 91
82 93
82 97
82 99
83 89
83 90
83 91
83 93
83 95
83 98
84 91
84 93
84 95
84 96
84 99
85 90
85 95
85 96
85 98
85 99
86 89
86 90
86 91
86 97
86 99
87 89
87 90
87 94
87 95
87 99
88 89
88 91
88 93
88 95
88 97
88 99
