0 10
0 12
0 13
0 14
1 14
1 16
2 14
2 15
3 12
3 14
3 15
5 11
5 14
6 17
7 11
8 10
8 11
8 13
8 14
9 13
9 14
9 17
10 21
10 23
11 19
11 20
11 22
11 23
12 20
12 21
12 23
13 21
13 22
13 24
14 18
14 23
14 24
15 24
16 18
16 20
16 22
16 23
17 23
17 24
18 27
18 29
18 33
19 25
19 27
19 32
20 28
20 32
20 33
21 25
21 26
21 33
22 26
22 33
23 25
23 26
23 28
24 25
24 26
24 30
24 31
24 32
24 33
25 35
25 36
25 40
25 41
26 34
26 35
26 36
26 38
26 40
26 41
27 34
27 35
27 37
27 38
27 40
27 41
28 35
28 37
28 38
28 39
28 40
28 42
29 34
29 38
29 41
30 34
30 37
30 39
30 41
30 42
31 35
31 36
31 39
31 40
31 41
31 42
31 43
32 34
32 35
32 36
32 38
32 43
33 35
33 36
33 40
35 47
36 46
37 44
38 45
39 45
39 46
39 47
39 48
40 46
40 48
41 46
41 48
42 46
43 44
43 46
43 48
44 52
44 54
44 57
44 59
44 60
45 49
45 51
45 54
45 55
45 56
45 57
46 49
46 50
46 52
46 53
46 54
46 55
46 57
46 58
46 61
47 49
47 51
47 55
47 60
47 62
48 49
48 52
48 53
48 54
48 56
50 65
52 66
54 64
54 65
54 67
57 64
57 65
59 65
60 63
61 63
62 63
63 68
63 70
63 71
63 74
63 76
64 69
64 72
64 77
64 78
65 68
65 70
65 72
65 75
66 72
67 69
67 70
67 73
67 77
68 81
68 81
68 83
69 81
69 83
70 79
71 79
72 79
72 82
73 79
73 80
74 79
74 80
74 82
74 83
75 81
76 81
76 82
77 79
77 80
77 81
77 82
77 83
78 79
78 81
78 81
79 85
79 88
79 89
79 90
79 91
79 92
79 93
79 95
79 96
80 91
80 93
80 95
80 96
80 97
81 84
81 85
81 86
81 93
81 94
82 85
82 87
82 89
82 90
82 96
83 85
83 92
83 93
83 94
83 96
84 98
86 99
87 99
88 99
89 99
93 99
94 99
95 99
97 99
