0 11
0 13
1 11
1 12
1 13
2 11
2 12
3 12
3 12
3 13
3 14
4 13
4 14
5 11
5 13
5 14
6 12
6 13
6 14
6 15
7 12
7 13
7 14
8 11
8 12
8 14
9 11
9 14
10 11
10 13
10 14
11 16
11 17
11 18
11 21
11 22
12 16
12 19
12 20
12 21
12 22
13 18
13 21
13 22
14 17
14 19
14 22
15 16
15 17
15 18
15 21
16 23
16 25
16 28
16 29
17 25
17 26
17 28
18 23
18 24
19 24
19 25
19 28
19 30
20 25
22 27
22 29
23 31
23 38
23 40
24 33
24 34
24 38
24 39
25 31
25 33
25 38
25 39
25 40
26 31
26 33
26 34
26 36
26 39
27 33
27 34
27 34
28 31
28 33
28 35
28 36
28 38
28 39
29 32
29 34
29 36
29 36
29 37
29 38
29 39
30 31
30 33
30 36
30 38
30 39
30 40
32 41
32 44
32 45
33 46
34 46
35 43
35 45
36 41
36 42
36 44
37 41
37 45
37 46
38 41
38 42
38 43
38 45
39 41
39 42
39 43
39 44
39 45
40 42
41 51
41 54
41 56
41 58
42 47
42 51
42 54
42 55
42 56
42 58
43 48
43 49
43 50
43 52
43 53
43 54
43 55
43 56
43 57
43 58
44 48
44 49
44 50
44 54
44 56
44 57
45 48
45 49
45 50
45 52
45 55
45 57
46 49
46 51
46 53
46 55
46 57
46 58
47 62
47 66
48 61
48 64
49 59
49 61
49 63
49 64
49 65
50 59
50 65
50 66
51 61
51 64
52 60
52 63
52 64
52 65
52 66
53 60
53 65
53 66
54 61
54 62
54 65
55 61
55 62
55 63
55 65
55 66
56 64
56 65
56 66
57 63
57 64
57 65
58 59
58 60
58 64
58 65
58 66
59 69
59 70
59 73
59 74
60 70
60 73
60 74
61 67
61 68
61 69
61 72
61 73
62 67
62 68
62 72
62 74
63 67
63 68
63 69
63 71
63 74
64 67
64 69
64 74
65 67
65 69
65 70
66 67
66 72
66 73
67 75
67 77
67 78
67 80
67 82
68 75
68 81
68 85
69 75
69 80
69 82
69 83
69 84
70 75
70 76
70 77
70 82
70 85
71 75
71 78
71 79
71 80
71 81
71 82
71 85
72 75
72 76
72 77
72 78
72 80
72 81
73 78
73 79
73 80
73 81
73 84
73 85
74 76
74 77
74 78
74 80
74 82
75 86
75 91
75 93
76 86
76 88
76 95
77 88
77 94
77 95
77 97
78 87
78 93
78 95
78 96
79 87
79 88
79 90
79 91
79 94
79 95
79 96
79 97
80 88
80 88
80 89
80 90
80 94
80 95
80 96
80 97
81 88
81 91
81 94
81 95
81 97
82 86
82 89
82 92
82 93
82 97
83 89
83 90
83 92
83 93
83 94
83 95
83 97
84 86
84 90
84 92
84 93
84 94
84 96
84 97
85 86
85 90
85 91
85 92
85 93
85 94
87 98
88 98
89 98
89 99
90 98
91 98
91 99
92 98
92 99
93 98
95 99
