Task0 0.04141626669852777 0.11316713499449006 0.07804990931754899 0.057797430451073675 0.8941900408816899 0.7129536481719663 0.892328029572526 
Task1 0.017063051157577724 0.4308191596827369 0.06115434461531569 0.1815309057572902 0.6798019669580149 0.4447793451990053 0.5709352955456255 
Task2 0.06970510435393404 0.10180397916043266 0.06488546215006095 0.14857266227611274 0.5059719091277257 0.4173869060484327 0.36800144115057704 
Task3 0.0381547810758381 0.11768575386930717 0.11373944181280152 0.08675834891683186 0.9248505907645956 0.8535007521918094 0.31244189472310907 
Task4 0.012891532285506633 0.02503772618417101 0.11222807419374284 0.2929382474925483 0.9517471810844471 0.5221468852735449 0.9269091905136089 
Task5 0.030237636387528573 0.15124377746384324 0.13272468588436143 0.03542531878984522 0.8425896921831157 0.3805292603181382 0.4708090447125032 
Task6 0.09521916051691491 0.15850333840346553 0.38237647681620274 0.34392425241851654 0.976826250471087 0.47455649821777146 0.7254110573352743 
Task7 0.0069036082679690206 0.05538406505981484 0.040588088618469825 0.00989020542720766 0.6512261663191481 0.8912266495226968 0.6053473459005431 
Task8 0.11486636677154662 0.04935775131560332 0.25182658347147147 0.3963663850021328 0.8250902482404889 0.375000421743083 0.48769182022768226 
Task9 0.04145946068849401 0.22143356340023604 0.21212206603747114 0.09436543286566904 0.3450408023833988 0.7249109704464534 0.7033994422149841 
Task10 0.04994412134435062 0.21587774538579463 0.2091041346279127 0.23381041087538976 0.6294060311823997 0.9785583318108377 0.883705401502975 
Task11 0.009233337356951844 0.041842393990644954 0.014061021509132623 0.01655244732718559 0.6887344008836426 0.6461964092654373 0.48069735015587695 
Task12 0.009337108533268669 0.145516866512362 0.2250745495890286 0.20753271298327639 0.4969803515600435 0.6744674658058869 0.702579396556103 
Task13 0.07527917413369825 0.32888177137871316 0.2451586064415545 0.16729550096566334 0.8535199226621952 0.7399530750069434 0.9744398990675334 
Task14 0.07789773259821377 0.11954940209238193 0.11472871610741875 0.09928542533098718 0.8591603274322661 0.5634638575064381 0.5994105284933691 
Task15 0.07353249787821738 0.1304985883774633 0.20546248044942297 0.09287989761355132 0.6924613346361954 0.3516675950621262 0.5290405030810881 
Task16 0.09236647677274548 0.14173569011990791 0.16120897019607597 0.10511569821820632 0.532441776300616 0.3338653955001955 0.6305229490249689 
Task17 0.0005991010562857963 0.009233456116742046 0.01649491882733072 0.013967593078141223 0.9323714347316747 0.7026425853477276 0.7546745803034396 
Task18 0.16787005524450205 0.13350385176487822 0.12084558003998967 0.505473887502374 0.5149573198051138 0.9453589422401438 0.9451688284074593 
Task19 0.0874942912417174 0.013629215832494415 0.24677922416188772 0.15909703875410128 0.345451909683574 0.5952263037382894 0.6766590206610741 
Task20 0.04226319656895141 0.14636299667660513 0.15359315222331596 0.08982533086535377 0.7347139812415919 0.9436137142724104 0.7506963957954478 
Task21 0.0003670125472886617 0.0003342995315970102 0.0012137520065940593 0.001088053011590731 0.6512962368995019 0.43332793407986336 0.5514391983843778 
Task22 0.038361575592497234 0.014331792309475691 0.07406184731066089 0.08332796447464927 0.404260467197637 0.3764594410289691 0.5556654813392305 
Task23 0.06362495248389939 0.1019640968146747 0.18397985027514382 0.2714299264385016 0.3484755237508803 0.3754704477784344 0.6361761635254491 
Task24 0.011574224332716489 0.03483805972940926 0.012940527096953707 0.04137520341084297 0.5375705446043539 0.5383243701878914 0.9141998276895567 
Task25 0.05176460441525618 0.32535431691156086 0.3495335145662825 0.03325778292567508 0.6977945106729279 0.5734290686083645 0.8819731462308531 
Task26 0.052453148956181604 0.023217606006075156 0.1145533846151 0.16453368100128715 0.7865348648985353 0.4911320664807418 0.6728022430308447 
Task27 0.05931578920880091 0.14936969890261065 0.11734563617675366 0.02965930792092127 0.41177320354301516 0.4778367539922306 0.7372076240173677 
Task28 0.0221521363061365 0.12364502394263367 0.0788568463353431 0.05918295471150602 0.7307541064052445 0.46303659285163784 0.7660624625692891 
Task29 0.05006370997646685 0.13387445465320694 0.07639403781086483 0.16740236197658334 0.5216943163469373 0.9922138188508123 0.7557919707445594 
Task30 0.040338080921785154 0.0826536156745525 0.1392266136554605 0.01151661572351655 0.7805586961413145 0.8438656108193219 0.3297772020270942 
Task31 0.06819625650365453 0.39826677548781836 0.03881900796323808 0.3311580992909778 0.3985337435377574 0.6135395768394475 0.8029614564302177 
Task32 0.0023772693528971173 0.09630004150444488 0.2234836906778972 0.0883135520778081 0.7400510152075814 0.8654002527811002 0.8385734304004813 
Task33 0.031177642317135556 0.2449526009196352 0.29195680914309285 0.1810168722136228 0.660721237193571 0.580688573750002 0.3819438601106075 
Task34 0.11511010481160636 0.19388882309047084 0.267091602559138 0.191110027456183 0.3013205475348848 0.3075795964916517 0.3622081648700151 
Task35 0.048259385917812196 0.15915916246665357 0.0864892466236815 0.22576323917626231 0.4902369064952937 0.8203968856756039 0.8411310510176386 
Task36 0.09942015542822359 0.2022006655337346 0.2545623683451821 0.23627635654873116 0.9681932997690046 0.37886075470446895 0.5581146045448062 
Task37 0.057049144182420554 0.19796958278571092 0.05893662501349532 0.5607435176599657 0.5780397254949045 0.759268910044391 0.6263923706813468 
Task38 0.09565474761588136 0.1624106637203913 0.21348441808703572 0.19715628821048412 0.7074969766416301 0.920790406174983 0.44894025386924885 
Task39 0.037623933021698246 0.02555099764547857 0.13055262310592924 0.02122558035746976 0.41686116821140606 0.6503584648230045 0.9678799674780441 
Task40 0.023511299310666502 0.06413913625831223 0.0527058116065327 0.005322149930591967 0.7399909898685659 0.9444722183886589 0.9897249107192179 
Task41 0.013740724647792088 0.17535327132489534 0.2307837540247205 0.00813672345556793 0.569436227185991 0.9201898082061943 0.6810704302628587 
Task42 0.08987979572702505 0.09475583432200584 0.20737506340418269 0.18046884413363637 0.30671993676313986 0.5346858820894218 0.5529874030313267 
Task43 0.09046162902572845 0.13979623235768268 0.1774897397545682 0.1306112880088812 0.328056647679473 0.9744448667717791 0.5218031801723323 
Task44 0.05266715525712918 0.10717520937167238 0.2747736034600391 0.31343441930739235 0.5440774974625526 0.9387629146163778 0.8404309561427394 
Task45 0.049319891042777314 0.06933488067820393 0.1437972230055397 0.07120276939646422 0.5380441732574042 0.7662250054407214 0.7589739266825801 
Task46 0.0004830223681758354 0.04418432780023202 0.050692203418144975 0.007823541991927543 0.4846956349378785 0.6228899262718379 0.6817220839719226 
Task47 0.1260630357673009 0.7198929716705696 0.04334810247426566 0.01873679970174269 0.7803184287846974 0.6724100002091442 0.9218660348205236 
Task48 0.0584986581898012 0.25556546753886117 0.1822100071616003 0.10381027339939834 0.747950556517019 0.30919665432164056 0.9942353605248104 
Task49 0.01356944309748367 0.13146075383290287 0.12706005675810994 0.3210404850549294 0.3645752199029182 0.5281483032470459 0.45010470904050454 
Task50 0.047695290284576995 0.20155826027336832 0.21707172225264967 0.051474093326213326 0.3499957724539892 0.9143396441181184 0.8421488419590686 
Task51 0.026277599800224247 0.07447876424063322 0.05277935418936331 0.0012867060255096607 0.7762508536649012 0.607271714255415 0.6136163675362902 
Task52 0.012069677052725327 0.051874300574719104 0.08286776552113843 0.0270895742262896 0.5216374364629668 0.6156419748315077 0.3628419900539591 
Task53 0.10883209414054573 0.18503177185979697 0.0020826892852437665 0.5471320725445238 0.9864446510223288 0.7484314938990586 0.6849816306450902 
Task54 0.0014048230803176606 0.004458516279455534 0.012597356740044613 0.001068488577199776 0.8968064858476894 0.32577322539228737 0.782790213200656 
Task55 0.020429125290293722 0.0738808112050697 0.017174167797943025 0.012359854734791403 0.9863398249309303 0.9249582747328304 0.5059184548978637 
Task56 0.06483267410877881 0.2309890440811648 0.15019899228398065 0.010398903996519333 0.9620784992310862 0.4906021761190428 0.5504502682677439 
Task57 0.0721643600174947 0.1004747252789118 0.2470507646099104 0.37222882966154763 0.5588633163966981 0.9498100827690039 0.3369650975791802 
Task58 0.023425393977274875 0.08457553585237486 0.07070858174492625 0.010273617158056242 0.7684664379338886 0.3205009299734826 0.42961766869005724 
Task59 0.02400914653845334 0.1441771493280921 0.2127786227006737 0.15479737016073528 0.3812987237135435 0.8832545135027872 0.7554198554202651 
Task60 0.026501150174045657 0.03707087150075833 0.07006413700396731 0.25737578560466007 0.7747004181166884 0.6466020416230152 0.3615448697229804 
Task61 0.0031114733995856493 0.13715622428866853 0.2322715091785293 0.298584353320709 0.41219345469057284 0.7957586722101516 0.6667080133064487 
Task62 0.015439503185635601 0.09831073001066401 0.05978718889729379 0.16526476325629852 0.8750103656148864 0.7682704057121017 0.4796536458392042 
Task63 0.009097933087844828 0.3968944149045137 0.17957140946131805 0.3667998094633517 0.3918750923407924 0.3859560901739841 0.7621878264480856 
Task64 0.0975224653891577 0.1984638364493473 0.12143922291194625 0.26436841188083515 0.7619922151245648 0.8736799716047656 0.4607201073647418 
Task65 0.03685689050624634 0.1266617026371498 0.03108321842929999 0.13431431825363577 0.42910673270391 0.5391009236898501 0.42870205046697824 
Task66 0.0037855614593525285 0.016317657790135623 0.007490929512368382 0.015541628927455904 0.7540266560530027 0.9682963032334506 0.67776541515508 
Task67 0.01110467643468968 0.04990950376765696 0.012532147044869374 0.26303487758117544 0.3837851528074997 0.849842039678619 0.522252447364217 
Task68 0.0585156176235674 0.00878367210185243 0.22121530770988393 0.20534402370820531 0.7471044901477355 0.5881314073106256 0.8448201829667668 
Task69 0.046953944331679355 0.10241131816869148 0.0957358643972977 0.09249687423847769 0.9633729987201032 0.4436172229920623 0.46169072256144156 
Task70 0.049952784327854716 0.016058096299612447 0.3186600660190522 0.2655022160722941 0.7573170701597614 0.8051838183254798 0.871300201316086 
Task71 0.07261468752769498 0.09436994178160912 0.3175388349431818 0.32483489132273696 0.8200687166068734 0.6429194986901432 0.9555121869605654 
Task72 0.05369530369666923 0.3111063172531313 0.12591338271441566 0.29593131790372257 0.9004049320255227 0.47526090528890164 0.6992652153812914 
Task73 0.0072899269902126805 0.22140395675367225 0.17177361994347382 0.1897179033131064 0.6062160386752349 0.6376927158900974 0.670161226199122 
Task74 0.014985060948104707 0.16494806968259065 0.03183517752587598 0.2818639317430031 0.7945786248301366 0.7458597289450295 0.3756092667848094 
Task75 0.03807915119279379 0.13716037227705735 0.24794293199745732 0.24368801653610786 0.6758225007719476 0.46378183782143134 0.45108792169225187 
Task76 0.1270940873342233 0.13619071053118026 0.3460879873604733 0.3559205052167254 0.629288952793605 0.4352937037880802 0.6638104531232746 
Task77 0.09988680527521568 0.34289600856682345 0.06066357038967319 0.42101605900424044 0.5499112078227203 0.7823781280026403 0.39886481473515023 
Task78 0.0023117198850470763 0.2617462972625462 0.34470748858938555 0.05671660038493542 0.6345322172979644 0.3577334316846854 0.3426003135024974 
Task79 0.002198005401156804 0.4875461307450441 0.019654749924459237 0.26164796343189184 0.40990223567721557 0.9204517964845085 0.48810848970749166 
Task80 0.04886593124740063 0.17086856706583153 0.11623940590483826 0.23540909084719544 0.4811447139592149 0.8056790406366152 0.708734720245551 
Task81 0.15790735947473636 0.4294332716462689 0.17263235469152008 0.07841532651684183 0.7273515046512414 0.8889902368990983 0.5428116839790481 
Task82 0.011807379992366144 0.07535417697278321 0.02871842966644701 0.06907400312553616 0.48485722144884985 0.8603797094979664 0.36108093104195005 
Task83 0.005665240922395383 0.034965811350086626 0.023493951803722497 0.04008954354578751 0.30466126644918723 0.720413214108406 0.531172615602287 
Task84 0.1373029858282733 0.2707198097939455 0.1349744807243297 0.14878573784695387 0.697084897974511 0.6513332148657651 0.7143087454471506 
Task85 0.06978375449502137 0.12778014909136254 0.1324715431155521 0.2129263372780278 0.6821989482568039 0.4529459221913109 0.3444939012800466 
Task86 0.09526381827117017 0.08131074518319187 0.2550147058901705 0.4210252263893332 0.6044805791113275 0.743880593606035 0.7440405316186295 
Task87 0.09449908777753781 0.21216239079370025 0.37156980753065294 0.07277538112723674 0.5691587392121555 0.581486159990761 0.791708497664246 
Task88 0.05352154001208141 0.03989102682856581 0.22185732049335552 0.1377427283094003 0.6473482527191838 0.7023187579698864 0.8336674068874625 
Task89 0.16396609692145575 0.402330490831427 0.4096297167842401 0.0024075179771089875 0.8368559445087465 0.35077974889341584 0.5478731814663895 
Task90 0.12093378770865562 0.20961915817417015 0.013318364315747414 0.5280956942545341 0.39764409811221546 0.35996979707255017 0.9782140658431784 
Task91 0.06993235889122126 0.11751849170369173 0.351104911733018 0.03779969300321878 0.4629183839686551 0.5778826608300152 0.9143134801187887 
Task92 0.046364454532342 0.041385481161947076 0.2526064795414687 0.148933042382443 0.3777903969319582 0.6989662707777657 0.9145691312403292 
Task93 0.07020747908227307 0.2479462849441692 0.20710768571109614 0.19884933087924908 0.4863618892974516 0.49535281120691377 0.7873647578967145 
Task94 0.09264912073525064 0.03146492669489434 0.18979052790499823 0.2710938395237405 0.5287007182223616 0.9110223491571781 0.7395769143062938 
Task95 0.06919820599190117 0.4210278629850679 0.13869882580466703 0.014077938501425292 0.34341660243104705 0.6589837414941653 0.3550337428903804 
Task96 0.07597678041339333 0.05346612382805728 0.12986716533759937 0.15658144892307593 0.72485928833535 0.30271858359655707 0.7587323583374916 
Task97 0.0017474828577531466 0.0009991778357396604 0.002622573929864274 0.0037112162747592967 0.3892828189675014 0.388460129558754 0.9221344606296191 
Task98 0.0022729864974862742 0.0003434703704107417 0.00762498598071623 0.009153751496480489 0.6683262972973543 0.4191415822695874 0.9411437975151029 
Task99 0.06444419191340055 0.09468187097268341 0.3133839300003725 0.3291161613576356 0.7420928254886648 0.6070271784547754 0.8207395439173155 
