Task0 0.0161029681671943 0.03569103229825397 0.02471664575468254 0.00990695298061363 0.5553988033503642 0.5120005023827969 0.30817561912780234 
Task1 0.014506598053380065 0.0004816381239118842 0.04058201845542117 0.03012542669423082 0.7066549314584691 0.5376523628180986 0.5682803739663351 
Task2 0.004905676023975361 0.03738165696225988 0.06336851407725291 0.06285626212117258 0.3806209744933826 0.9379116661930935 0.3711860511795452 
Task3 0.037995559754853137 0.4815049371141022 0.08699689378558499 0.1390663544375544 0.5396934863488001 0.3098652756469573 0.7057067846700062 
Task4 0.05147739475004167 0.16517299750143682 0.2949148170114011 0.06551026725487041 0.472006862014111 0.8511062452900036 0.8316455138784249 
Task5 0.08374505732218021 0.26406939844339017 0.05522384630437113 0.21236415170736586 0.6756121963018122 0.8072467431167214 0.3059025977241477 
Task6 0.10149581057612277 0.37908158048172447 0.08926832558765589 0.11148100508359167 0.5302247286381778 0.794996032378929 0.9114679745878933 
Task7 0.01015129151094076 0.04330870929406135 0.03484999649075149 0.03487660298749241 0.9209620420992544 0.39945135699326784 0.44552443306537026 
Task8 0.021903407812954443 0.4058019484605197 0.43612897387677696 0.12770988264583885 0.8965432977943555 0.5612204220200471 0.743633068138416 
Task9 0.0013047829560202443 0.005686451396563732 0.013998653500668411 0.008822152776246995 0.43352004832549573 0.5301925168822865 0.5769241943414601 
Task10 0.12134059621822443 0.40962890713800426 0.15698142436674653 0.14367489600486166 0.7289420800073254 0.7628293996172558 0.9550700134161965 
Task11 0.13112280000942286 0.5667505520655594 0.027594061368046312 0.0187418336060768 0.782653198207407 0.7594709928944039 0.931525194246444 
Task12 5.312477221925787e-05 9.43549272199088e-05 0.00019598498988542763 0.0002556116444004295 0.6564154002284222 0.715421098736921 0.6610437828669357 
Task13 0.07088157326659135 0.4989980455670113 0.030697991446939906 0.18448722150096192 0.9271480032364567 0.8008017239209164 0.8078878541621308 
Task14 0.018618404780630888 0.021885533407052016 0.0355950520951061 0.018526264560072107 0.6863030124049395 0.6515108551327677 0.4786882078064708 
Task15 0.14588737149702458 0.6060712624973845 0.03778214536005257 0.14670637504555226 0.4487094192072433 0.8681579421203975 0.8678137663848633 
Task16 0.013367261891423466 0.026524786276171594 0.03420800936194106 0.024208713719418087 0.8692689523726369 0.8178563116244715 0.7685585763498491 
Task17 0.04552373414561562 0.11927188670888579 0.2805228949358232 0.24285952099515792 0.5645816207068068 0.33476400590759203 0.7114382719366594 
Task18 0.05295934309998155 0.2122679326937674 0.43804973411596076 0.08400101602131065 0.7821917548987223 0.5908516926730972 0.8316849313146617 
Task19 0.038758673329402055 0.06797886018287834 0.18040283085173187 0.11592440526322574 0.8594887627451584 0.5875174879689828 0.5290140228980482 
Task20 0.03683369467073071 0.1805431787214579 0.12501614558281743 0.09204772949563353 0.4823957322497537 0.6598727572815208 0.45452668122074225 
Task21 0.13288944315808432 0.3613979857090807 0.3753408718209674 0.021010448370512018 0.36949017318284727 0.37528677444575187 0.46083138955668645 
Task22 0.14611029805082162 0.24575491044209374 0.1606858698098941 0.4345775230334529 0.444952242312851 0.8380077443830141 0.6911404243127706 
Task23 0.018649536827349548 0.05983941785005359 0.06941099225692896 0.09082228055027512 0.8796798714756207 0.3192282506657861 0.6456352520350603 
Task24 0.05875811946718448 0.40057105209047433 0.07599218634397198 0.31164762645222166 0.8898782133651244 0.8099822033377131 0.3087155261951167 
Task25 0.01759686738669808 0.04449202970950189 0.06764270876165605 0.05399053970819347 0.5817839753684669 0.6965155983098741 0.6795826186390872 
Task26 0.0026114980118821284 0.18159470358034951 0.24304559142947224 0.12450700724444655 0.950302778384472 0.595723073721124 0.5091114404953787 
Task27 0.05352826701008602 0.06698778398623349 0.33461602270715707 0.1158772727991194 0.5686846780580505 0.34950961351105825 0.9011386179069039 
Task28 0.06961867523926497 0.21879903409355217 0.4833914822433944 0.17848746621939662 0.4379284990163484 0.5666654200015016 0.5369864995064061 
Task29 0.036088747651053445 0.03960682595736005 0.17438875065313802 0.09462969257855072 0.7208217099998522 0.49823904381136325 0.5596323248876705 
Task30 0.06816183390296024 0.055357089627029565 0.5423501356448535 0.012477243695907159 0.9891421285909552 0.9791886545573611 0.49882142054834366 
Task31 0.01152003619120234 0.030471751622194496 0.013241203843597806 0.0509927343971394 0.3307476900265465 0.3263340876229305 0.35596268157678035 
Task32 0.007848494320810763 0.06862593379304256 0.038191212681537266 0.029708996965805173 0.7813886497425377 0.43316715931864314 0.5026442137051281 
Task33 0.04707103583882904 0.14743937918701278 0.04779214472882051 0.13764152577991123 0.7282691366506631 0.6814835589479282 0.39464630976115667 
Task34 0.012333333335661674 0.018332379013197283 0.06583051491295866 0.11130296963987095 0.5677788562817709 0.5473887198138228 0.7029278308573942 
Task35 0.02852343173947765 0.34812042041241376 0.21754396934470757 0.24599142347940958 0.9748253646869711 0.5216162313560514 0.4974040162644206 
Task36 0.052464718595023815 0.041848405659153924 0.507164459338621 0.32367796836169416 0.8444585386034567 0.5656031347696007 0.4080971182949968 
Task37 0.12665258226773943 0.1934958605888418 0.43327353205651153 0.16041099818983973 0.8413958399981545 0.44804666650804514 0.848934907188031 
Task38 0.011016121412573975 0.01928105324941294 0.06184049246984123 0.0668558685991286 0.9662267631587866 0.7063598767287494 0.9147130297030348 
Task39 0.008047180778032457 0.020926848268642995 0.03677484220935546 0.016710811529413325 0.7713608295618672 0.9251226057348261 0.8988037487543841 
Task40 0.013743193165483752 0.06473445400501432 0.0374892540066912 0.11945222413420238 0.9668545316013835 0.5718387179636649 0.6599948398217669 
Task41 0.04531991068297839 0.0678846040607406 0.11623342345533978 0.05384915958215264 0.6812344066760454 0.8913104858047602 0.8571330236999593 
Task42 0.08032700948587845 0.25430334345079 0.12433827686475347 0.05807198195456332 0.6325184722548343 0.6664379005533404 0.7745365181752173 
Task43 0.05422164331703413 0.3428114624539897 0.21601147638150922 0.07170261862373463 0.6686520003367762 0.4195117132193378 0.733982936753608 
Task44 0.018752879235444834 0.05005906922895353 0.026129389731016004 0.0935380863315193 0.668715920486442 0.7888237900020649 0.7019756390487014 
Task45 0.001266416409995607 0.021976852607239094 0.00926076614987273 0.02455720672095485 0.4430175415610484 0.9670733963057234 0.9367844482176688 
Task46 0.01008001852384978 0.017993611783103 0.03428551687646537 0.018960505555921246 0.7475869412396657 0.3704722996910547 0.5253215620144838 
Task47 0.0676433076932929 0.1707731699783108 0.3260919890889244 0.21512975887077385 0.6688376070088962 0.6867222118506998 0.5017170774018797 
Task48 0.06803484950349457 0.05586091586091766 0.37489674689854147 0.12979010363968377 0.9896412055328128 0.48148316995297147 0.849757087369102 
Task49 0.045963437948199 0.15301912340465476 0.18931101266227815 0.17372121308059532 0.40165848705630963 0.5440619600872787 0.6845059659725428 
Task50 0.015554240496046342 0.09127453113157208 0.057934175335805325 0.0887135522344459 0.9365273888773855 0.4476567429179602 0.7666875049209743 
Task51 0.02054138167574726 0.47650174498411174 0.3724446502725129 0.014118196559813528 0.6082150629332801 0.8542445620055328 0.879624487408118 
Task52 0.1404545782014027 0.3374738190838318 0.4419144846608256 0.04224734524507752 0.3225674173235457 0.8862150166383984 0.8818262884307302 
Task53 0.035224409379878106 0.06164531972599253 0.09389361751724194 0.09987955384251856 0.990524500195308 0.7271322812258627 0.9386859311661384 
Task54 0.005440231908016882 0.09180912636765602 0.0077086833947876895 0.015345813792825107 0.32471531325294933 0.30024288233381297 0.8207770615782313 
Task55 0.03177928508256744 0.3792280809110023 0.12279880466406726 0.4421330535403676 0.8189679286919025 0.7844453393549953 0.9568475864510912 
Task56 0.08015370874084309 0.03848945908708277 0.14689408075789942 0.5457469714811558 0.7144286914586717 0.7538995912221866 0.4365677560138822 
Task57 0.1882681391724051 0.28930622641410697 0.24554748761457668 0.23521012065795147 0.3435014050289751 0.5150420846566666 0.8821097067929295 
Task58 0.01762848450704118 0.019778504887065028 0.041303331401821526 0.010411295808774134 0.9651878066391659 0.7841444255200933 0.6799880120974338 
Task59 0.07968526586486342 0.3214016250507559 0.0504207754900248 0.1324635670670744 0.37100804310171115 0.3654118277321388 0.7004574472869018 
Task60 0.02615158542643499 0.016363959972032358 0.5319125158781229 0.2613597032408592 0.6998803208340909 0.5575266660757593 0.9513028600893862 
Task61 0.006047943372454135 0.006499536056876459 0.03393638962828664 0.002333583017406631 0.5189259397872654 0.7080926096762712 0.9801396550936774 
Task62 0.08056209541057652 0.40094424855181804 0.13976126064731176 0.3142911278632421 0.7513931291643121 0.7683114924043868 0.9923176218713012 
Task63 0.048483445809218255 0.14052892344295265 0.060716993071162205 0.09367688124907 0.363439390592734 0.901259897597368 0.9919959182651765 
Task64 0.08199257122960407 0.0943758141909632 0.20469311134642773 0.2964872541381465 0.4030040209499117 0.5132990341284192 0.5244949660844349 
Task65 0.031083604143536028 0.0890868438556562 0.06787599431925288 0.029827335614479058 0.37612261852924656 0.4451453169793107 0.4913936580691755 
Task66 0.04094330572252844 0.2228832454095216 0.15436925729933978 0.0235094386152942 0.7488402189573008 0.3577824862630132 0.9846765678930658 
Task67 0.009639909269386017 0.009213740968524063 0.01951544183716878 0.02142806509655928 0.8953312362830317 0.35370589162928345 0.3304560763738389 
Task68 0.057425880655028766 0.16265757733345323 0.32322629278869064 0.40852520291866085 0.40011033921133604 0.7881920812420342 0.33900128485648495 
Task69 0.04460052321511736 0.1413744287747714 0.3494572554624814 0.3216382079625782 0.74695154679274 0.43675472801917825 0.6464725575443453 
Task70 0.0005537185670644082 0.004499960697791625 0.002843230060756805 0.005486382754764192 0.4110775471304187 0.5157833355573354 0.9170901011888373 
Task71 0.03401411018901815 0.15177204051607074 0.5587757531401203 0.13196918189029086 0.43454998954590784 0.8680620817138092 0.5478516516955546 
Task72 0.021538563123716385 0.13620997936407628 0.06346327545245842 0.08768582995714674 0.9393302652941653 0.7806731978786056 0.5468501921029627 
Task73 0.08801664438781807 0.27842823236914604 0.13703010830157955 0.057332804076139485 0.6717075927827653 0.7183791452490291 0.5745989451151885 
Task74 0.05498408717454197 0.0966037744952828 0.036402944695836485 0.11806505317971269 0.5679900170681375 0.9027800148880447 0.74551616804139 
Task75 0.016015459595409298 0.028129820416008748 0.04059491848248133 0.09071250972889783 0.7757602520919303 0.38337530621560484 0.8699442417589793 
Task76 0.03233339069199973 0.0049644196660040074 0.23111192415097773 0.13839856094866396 0.6401540174393265 0.7894842090505977 0.4501581316668075 
Task77 0.12704024012989645 0.12381795588594788 0.2623255036094677 0.15614055845801908 0.5250267977383212 0.9688971341485406 0.609189357413259 
Task78 0.09596364011562071 0.1949456257286601 0.19552126348322382 0.011470000261290615 0.3941795203989246 0.4096189337905868 0.850487942454595 
Task79 0.014598094236121652 0.032756888003332325 0.32458403429476895 0.04558441514838465 0.8805018365568946 0.7615646822496513 0.5161894269345133 
Task80 0.060300480368494426 0.057613436710127745 0.15408266587075461 0.12275446406569289 0.8048121886779525 0.47263156544561674 0.7471539013597683 
Task81 0.021510789649353646 0.024083541253933822 0.05406942854990081 0.056482031161388405 0.642545143096269 0.6410187536842887 0.3930727705360887 
Task82 0.022748022736530156 0.3380974235252148 0.0003369744990377405 0.6387565467740794 0.5038474233397976 0.9850572902463075 0.4361247772530167 
Task83 0.10167110122772588 0.09269811391243751 0.33528827140554956 0.06164371400078254 0.422607288566533 0.7723410532078079 0.3122308983905393 
Task84 0.12225383935091005 0.18572229467558063 0.4256555914818071 0.014267940596749303 0.30803511415531926 0.4470358594170738 0.8598628726905557 
Task85 0.04363816760946846 0.06966415288753212 0.19504029706881568 0.3132739042561204 0.6190109246150012 0.41303814407955997 0.34280715842657833 
Task86 0.08788369254614714 0.18714871558359045 0.11826093071730948 0.2956193173178908 0.9687447396735513 0.5306637227278035 0.8600681510376436 
Task87 0.06551925316196833 0.16276975675746982 0.09293112094633231 0.07803105704486073 0.3659051927280692 0.5813133890673674 0.9765791913271298 
Task88 0.05228594235717079 0.11664182514022911 0.1505463643213257 0.06210828184851236 0.5120554043122266 0.7989662823884929 0.3178777852266694 
Task89 0.07022451682798692 0.24637804109866343 0.2653450387624571 0.18143678971269456 0.9660417896989237 0.8983781249430307 0.8693807503911171 
Task90 0.09102663005645423 0.016799380537243457 0.3438664476427169 0.12760938758996646 0.4553357278049898 0.5732211537586009 0.8439933631278465 
Task91 0.08486917152221816 0.38664911954570486 0.018128429473085184 0.20343686348238146 0.893022920836066 0.3918386628434181 0.4400965374233913 
Task92 0.09173011734815825 0.2742464693356882 0.27389418171383073 0.17545044148263256 0.9486850010728165 0.3855519529219343 0.6896923121279599 
Task93 0.0887191352557107 0.2887401881176445 0.2049627960384883 0.09761051552232006 0.9356079866002414 0.7545883621403173 0.8436374748202231 
Task94 0.03214022928104435 0.2744810163982411 0.051752633847265424 0.2509693065918358 0.7002802340733123 0.35412581734934034 0.8689561926958251 
Task95 0.05175223478205687 0.3253737337848384 0.3632771828145937 0.20660702696346903 0.6284586074280293 0.5963220903782909 0.5184090496179038 
Task96 0.003570084713386293 0.00816633948657895 0.007072889364060518 0.014004297405864459 0.6874679161602787 0.4956709664084278 0.30910984004419495 
Task97 0.015466089120482423 0.020704055310314017 0.0050675410165934645 0.06486596868189522 0.7944169171387794 0.9559475857514557 0.5055200389795638 
Task98 0.00244686269644017 0.09807289742689863 0.004747607473081792 0.026671727761350218 0.42014370968974024 0.8515058140048377 0.6817655046075404 
Task99 0.06364777850764128 0.036441894795911624 0.13329042204730987 0.15955663175137952 0.5059459434461658 0.6067663776162863 0.3554841598388183 
