0 4
1 6
1 8
2 3
2 4
2 5
2 6
2 7
2 9
3 10
3 13
3 16
4 13
4 15
6 10
6 12
6 13
6 15
6 16
7 10
7 11
7 13
7 15
8 11
8 14
10 20
12 18
12 19
12 20
13 17
13 20
14 18
14 19
15 17
15 18
15 19
16 18
16 19
17 21
17 23
18 21
18 25
19 22
19 23
19 25
20 24
21 27
21 28
21 32
21 33
22 28
22 29
22 32
23 26
23 27
24 26
24 30
24 31
24 32
25 26
25 30
25 31
25 33
26 34
27 35
27 38
28 35
28 40
29 34
29 38
29 39
29 40
30 34
30 36
30 37
30 38
31 35
31 37
31 40
32 37
33 40
34 45
35 44
36 42
36 43
36 44
37 41
37 45
38 44
38 45
39 41
39 42
39 46
42 48
45 49
46 47
47 50
47 51
49 52
50 54
50 55
50 56
50 58
50 59
50 60
51 53
51 54
51 55
51 60
52 57
52 58
54 62
54 65
54 67
55 63
55 64
56 63
56 65
57 61
57 65
58 66
59 67
60 63
61 71
62 71
62 73
62 74
63 71
63 73
63 74
64 72
65 69
65 74
66 68
66 69
66 70
66 72
66 74
67 72
68 77
69 76
69 80
70 76
70 78
71 75
71 76
71 78
71 79
72 75
72 76
72 78
73 77
74 77
74 79
75 81
76 82
76 86
77 81
77 83
77 84
77 86
78 85
79 81
79 83
79 84
79 85
80 82
80 84
80 85
80 86
81 90
82 87
82 88
83 87
84 88
85 87
85 89
87 91
87 93
87 95
88 91
89 93
89 94
89 95
90 92
90 94
91 96
92 97
92 98
92 99
94 96
95 96
95 99
