0 7
0 11
0 13
1 8
1 10
1 11
2 8
2 12
3 7
3 10
4 8
5 7
5 8
5 9
6 9
6 10
6 11
6 12
6 13
7 14
7 16
7 18
8 14
8 16
8 17
8 18
9 14
9 19
10 14
11 19
13 15
13 16
14 23
15 20
15 22
15 24
16 20
16 21
16 24
16 25
17 22
17 23
18 22
18 23
18 24
19 21
20 26
20 28
21 27
21 28
21 29
22 26
22 28
22 29
24 27
26 30
26 33
28 32
28 34
29 31
30 35
30 36
30 37
31 35
31 36
32 38
33 39
34 37
35 41
36 40
36 42
38 41
39 41
40 45
41 43
41 45
41 46
41 47
42 44
42 48
42 49
42 50
43 54
43 56
43 57
44 54
44 55
44 56
44 58
45 52
45 53
45 54
46 54
46 55
46 57
46 58
47 51
47 56
48 52
48 55
48 57
49 57
50 51
50 56
51 59
51 62
51 63
51 64
51 65
52 63
52 64
53 60
53 61
53 63
54 59
54 64
55 63
56 62
57 62
57 64
57 65
58 65
59 66
59 67
59 68
59 69
60 67
60 67
60 68
60 69
61 67
62 66
62 68
63 68
64 69
65 66
66 70
66 72
66 73
67 70
67 72
67 73
67 74
68 71
68 74
69 71
70 79
70 82
71 76
71 81
72 75
73 75
73 76
73 78
73 80
74 77
75 83
76 83
76 84
76 86
77 83
77 86
77 88
78 85
78 88
79 84
79 86
79 87
79 90
80 83
80 86
80 89
81 87
81 89
81 90
82 84
82 85
82 90
83 93
83 96
83 98
84 91
84 92
84 93
84 97
85 92
85 94
85 95
85 97
85 98
86 96
87 96
88 92
88 97
88 98
89 96
90 93
90 97
92 99
