0 7
0 8
1 7
2 7
5 7
5 9
7 14
7 15
7 16
8 11
8 12
8 13
9 10
9 11
9 12
9 14
9 15
10 19
11 18
11 19
11 20
12 19
12 20
12 21
12 23
13 22
13 23
14 17
14 18
16 17
16 18
16 20
16 22
17 25
17 29
18 24
18 26
19 25
19 26
20 24
20 25
20 28
21 25
22 27
24 32
24 34
26 33
28 30
28 31
29 30
29 34
31 36
31 37
32 39
32 40
33 35
33 38
33 40
34 36
34 37
34 38
34 40
35 41
35 43
37 42
37 44
39 43
39 45
40 41
41 47
42 46
43 46
43 48
43 49
44 48
44 49
46 53
47 51
47 53
47 54
48 50
48 52
48 54
49 55
50 56
51 57
51 58
51 60
51 61
52 56
52 59
52 60
53 59
53 60
53 61
53 62
54 57
54 62
55 56
55 57
55 58
55 62
56 65
57 63
57 65
58 63
58 64
58 65
59 63
59 64
60 65
61 63
62 64
63 71
63 72
64 67
64 68
64 69
64 70
65 66
65 68
65 70
65 72
66 74
67 74
67 76
68 76
69 74
70 75
70 77
70 79
71 73
71 79
72 75
72 78
73 80
73 82
76 80
76 81
77 81
77 81
78 81
78 83
78 84
80 85
80 86
82 85
82 87
85 91
85 94
86 88
86 92
87 89
87 90
87 91
87 92
87 93
88 95
88 98
89 96
89 97
90 95
90 96
90 97
90 98
91 96
91 97
92 95
98 99
