files/tasks_parameters/ExAp01/sample8.txt 0.730454 3.15778 1.5595 0.203411 3.54606
files/tasks_parameters/ExAp01/sample12.txt 0.829393 3.94962 1.6705 0.207924 3.62473
files/tasks_parameters/ExAp01/sample2.txt 0.818131 3.78275 1.74131 0.200098 3.4883
files/tasks_parameters/ExAp01/sample44.txt 0.735177 3.59825 1.65317 0.200005 3.48668
files/tasks_parameters/ExAp01/sample27.txt 0.712619 3.45743 1.5148 0.182129 3.17504
files/tasks_parameters/ExAp01/sample17.txt 0.680483 2.77299 1.44514 0.14646 2.55323
files/tasks_parameters/ExAp01/sample9.txt 0.712023 2.99933 1.451 0.177444 3.09337
files/tasks_parameters/ExAp01/sample34.txt 0.693558 3.02928 1.58429 0.157984 2.75413
files/tasks_parameters/ExAp01/sample40.txt 0.742764 3.86889 1.52122 0.168379 2.93535
files/tasks_parameters/ExAp01/sample33.txt 0.79434 3.63695 1.71905 0.199765 3.4825
files/tasks_parameters/ExAp01/sample48.txt 0.664035 3.39061 1.49062 0.154728 2.69737
files/tasks_parameters/ExAp01/sample29.txt 0.802314 3.30472 1.38739 0.223868 3.90269
files/tasks_parameters/ExAp01/sample11.txt 0.715991 3.10585 1.41612 0.174079 3.03471
files/tasks_parameters/ExAp01/sample14.txt 0.666439 2.70971 1.43432 0.162214 2.82788
files/tasks_parameters/ExAp01/sample0.txt 0.75552 3.6937 1.5439 0.18367 3.20191
files/tasks_parameters/ExAp01/sample7.txt 0.648544 2.70501 1.42221 0.143463 2.50099
files/tasks_parameters/ExAp01/sample23.txt 0.743094 3.2697 1.57822 0.181448 3.16319
files/tasks_parameters/ExAp01/sample13.txt 0.78455 3.84225 1.67648 0.198247 3.45604
files/tasks_parameters/ExAp01/sample22.txt 0.671891 3.09569 1.56121 0.148796 2.59396
files/tasks_parameters/ExAp01/sample25.txt 0.635654 2.73966 1.5007 0.148149 2.58267
files/tasks_parameters/ExAp01/sample36.txt 0.634367 2.85948 1.28553 0.130042 2.26702
files/tasks_parameters/ExAp01/sample46.txt 0.774894 3.58643 1.69998 0.210103 3.66272
files/tasks_parameters/ExAp01/sample31.txt 0.715715 3.4832 1.53782 0.1722 3.00196
files/tasks_parameters/ExAp01/sample37.txt 0.74767 3.95293 1.50705 0.171701 2.99326
files/tasks_parameters/ExAp01/sample16.txt 0.627646 3.31216 1.30115 0.150249 2.61929
files/tasks_parameters/ExAp01/sample10.txt 0.707772 3.17098 1.61789 0.153776 2.68078
files/tasks_parameters/ExAp01/sample39.txt 0.685424 3.26617 1.44406 0.165669 2.8881
files/tasks_parameters/ExAp01/sample19.txt 0.75972 3.63532 1.52509 0.196094 3.41851
files/tasks_parameters/ExAp01/sample20.txt 0.632527 3.20793 1.25367 0.147335 2.56849
files/tasks_parameters/ExAp01/sample43.txt 0.645196 3.11551 1.4202 0.150644 2.62618
files/tasks_parameters/ExAp01/sample32.txt 0.760557 3.5311 1.42482 0.168744 2.94171
files/tasks_parameters/ExAp01/sample45.txt 0.758472 3.80283 1.48324 0.19807 3.45296
files/tasks_parameters/ExAp01/sample26.txt 0.621404 3.21645 1.29701 0.166061 2.89494
files/tasks_parameters/ExAp01/sample5.txt 0.671874 3.5889 1.52559 0.178903 3.11882
files/tasks_parameters/ExAp01/sample21.txt 0.716783 2.75242 1.55936 0.19512 3.40153
files/tasks_parameters/ExAp01/sample38.txt 0.663019 3.31563 1.37515 0.166157 2.89661
files/tasks_parameters/ExAp01/sample1.txt 0.732396 3.74964 1.51696 0.19701 3.43446
files/tasks_parameters/ExAp01/sample15.txt 0.716877 3.32916 1.48508 0.180707 3.15027
files/tasks_parameters/ExAp01/sample24.txt 0.755372 3.45951 1.59549 0.16529 2.8815
files/tasks_parameters/ExAp01/sample3.txt 0.889148 3.70014 1.70809 0.237107 4.13348
files/tasks_parameters/ExAp01/sample6.txt 0.731586 3.33003 1.58323 0.184714 3.22012
files/tasks_parameters/ExAp01/sample30.txt 0.915931 4.1841 1.4861 0.239623 4.17734
files/tasks_parameters/ExAp01/sample42.txt 0.75216 3.43221 1.70276 0.177383 3.09231
files/tasks_parameters/ExAp01/sample4.txt 0.815908 3.72477 1.6136 0.196448 3.42468
files/tasks_parameters/ExAp01/sample28.txt 0.66699 3.11323 1.45032 0.158819 2.76869
files/tasks_parameters/ExAp01/sample18.txt 0.657921 3.47418 1.45209 0.149064 2.59863
files/tasks_parameters/ExAp01/sample35.txt 0.806093 4.57086 1.49394 0.185031 3.22564
files/tasks_parameters/ExAp01/sample47.txt 0.691197 3.13768 1.52397 0.16417 2.86197
files/tasks_parameters/ExAp01/sample49.txt 0.693403 3.13288 1.49657 0.156154 2.72223
files/tasks_parameters/ExAp01/sample41.txt 0.650968 2.81964 1.49636 0.150876 2.63022
