files/tasks_parameters/ExAp01/sample8.txt 0.847878 3.15778 1.5595 0.203411 7.11922
files/tasks_parameters/ExAp01/sample12.txt 0.963762 3.94962 1.6705 0.207924 7.27716
files/tasks_parameters/ExAp01/sample2.txt 0.912456 3.78275 1.74131 0.200098 7.00325
files/tasks_parameters/ExAp01/sample44.txt 0.872207 3.59825 1.65317 0.200005 7.00001
files/tasks_parameters/ExAp01/sample27.txt 0.807875 3.45743 1.5148 0.182129 6.37435
files/tasks_parameters/ExAp01/sample17.txt 0.703497 2.77299 1.44514 0.14646 5.12597
files/tasks_parameters/ExAp01/sample9.txt 0.806081 2.99933 1.451 0.177444 6.21038
files/tasks_parameters/ExAp01/sample34.txt 0.729969 3.02928 1.58429 0.157984 5.5293
files/tasks_parameters/ExAp01/sample40.txt 0.782249 3.86889 1.52122 0.168379 5.89314
files/tasks_parameters/ExAp01/sample33.txt 0.837395 3.63695 1.71905 0.199765 6.99161
files/tasks_parameters/ExAp01/sample48.txt 0.718978 3.39061 1.49062 0.154728 5.41536
files/tasks_parameters/ExAp01/sample29.txt 0.92522 3.30472 1.38739 0.223868 7.8352
files/tasks_parameters/ExAp01/sample11.txt 0.761116 3.10585 1.41612 0.174079 6.09261
files/tasks_parameters/ExAp01/sample14.txt 0.684998 2.70971 1.43432 0.162214 5.67737
files/tasks_parameters/ExAp01/sample0.txt 0.851074 3.6937 1.5439 0.18367 6.42829
files/tasks_parameters/ExAp01/sample7.txt 0.695731 2.70501 1.42221 0.143463 5.0211
files/tasks_parameters/ExAp01/sample23.txt 0.825696 3.2697 1.57822 0.181448 6.35055
files/tasks_parameters/ExAp01/sample13.txt 0.889507 3.84225 1.67648 0.198247 6.93848
files/tasks_parameters/ExAp01/sample22.txt 0.705519 3.09569 1.56121 0.148796 5.20774
files/tasks_parameters/ExAp01/sample25.txt 0.62095 2.73966 1.5007 0.148149 5.18508
files/tasks_parameters/ExAp01/sample36.txt 0.620985 2.85948 1.28553 0.130042 4.55137
files/tasks_parameters/ExAp01/sample46.txt 0.8798 3.58643 1.69998 0.210103 7.35342
files/tasks_parameters/ExAp01/sample31.txt 0.836187 3.4832 1.53782 0.1722 6.02685
files/tasks_parameters/ExAp01/sample37.txt 0.815965 3.95293 1.50705 0.171701 6.0094
files/tasks_parameters/ExAp01/sample16.txt 0.727211 3.31216 1.30115 0.150249 5.25859
files/tasks_parameters/ExAp01/sample10.txt 0.754087 3.17098 1.61789 0.153776 5.38205
files/tasks_parameters/ExAp01/sample39.txt 0.726635 3.26617 1.44406 0.165669 5.79827
files/tasks_parameters/ExAp01/sample19.txt 0.889918 3.63532 1.52509 0.196094 6.86314
files/tasks_parameters/ExAp01/sample20.txt 0.670669 3.20793 1.25367 0.147335 5.15662
files/tasks_parameters/ExAp01/sample43.txt 0.675273 3.11551 1.4202 0.150644 5.27243
files/tasks_parameters/ExAp01/sample32.txt 0.81612 3.5311 1.42482 0.168744 5.90591
files/tasks_parameters/ExAp01/sample45.txt 0.891936 3.80283 1.48324 0.19807 6.9323
files/tasks_parameters/ExAp01/sample26.txt 0.733469 3.21645 1.29701 0.166061 5.81201
files/tasks_parameters/ExAp01/sample5.txt 0.795842 3.5889 1.52559 0.178903 6.26147
files/tasks_parameters/ExAp01/sample21.txt 0.834998 2.75242 1.55936 0.19512 6.82905
files/tasks_parameters/ExAp01/sample38.txt 0.745038 3.31563 1.37515 0.166157 5.81535
files/tasks_parameters/ExAp01/sample1.txt 0.876921 3.74964 1.51696 0.19701 6.89518
files/tasks_parameters/ExAp01/sample15.txt 0.803735 3.32916 1.48508 0.180707 6.32461
files/tasks_parameters/ExAp01/sample24.txt 0.778115 3.45951 1.59549 0.16529 5.78503
files/tasks_parameters/ExAp01/sample3.txt 1.01361 3.70014 1.70809 0.237107 8.29855
files/tasks_parameters/ExAp01/sample6.txt 0.794572 3.33003 1.58323 0.184714 6.46485
files/tasks_parameters/ExAp01/sample30.txt 1.10166 4.1841 1.4861 0.239623 8.38661
files/tasks_parameters/ExAp01/sample42.txt 0.793448 3.43221 1.70276 0.177383 6.20825
files/tasks_parameters/ExAp01/sample4.txt 0.92764 3.72477 1.6136 0.196448 6.87552
files/tasks_parameters/ExAp01/sample28.txt 0.717229 3.11323 1.45032 0.158819 5.55854
files/tasks_parameters/ExAp01/sample18.txt 0.721529 3.47418 1.45209 0.149064 5.21711
files/tasks_parameters/ExAp01/sample35.txt 0.915582 4.57086 1.49394 0.185031 6.47592
files/tasks_parameters/ExAp01/sample47.txt 0.75315 3.13768 1.52397 0.16417 5.74582
files/tasks_parameters/ExAp01/sample49.txt 0.755776 3.13288 1.49657 0.156154 5.46527
files/tasks_parameters/ExAp01/sample41.txt 0.678731 2.81964 1.49636 0.150876 5.28053
