0.16909743212460376
Task0 3 3 3 
Task1 7 3 7 
Task2 1 31 1 
Task3 3 1 3 
Task4 3 7 7 
Task5 3 3 3 
Task6 3 3 1 
Task7 1 7 3 
Task8 3 1 15 
Task9 15 63 31 
Task10 3 1 3 
Task11 1 1 3 
Task12 3 3 1 
Task13 15 15 7 
Task14 3 7 3 
Task15 3 1 1 
Task16 63 63 255 
Task17 1 1 1 
Task18 7 7 3 
Task19 7 1 15 
Task20 1 1 3 
Task21 3 7 1 
Task22 7 1 7 
Task23 1 1 1 
Task24 1 1 1 
Task25 1 1 1 
Task26 15 1 1 
Task27 1 7 15 
Task28 1 7 7 
Task29 1 1 1 
Task30 1 3 3 
Task31 1 3 1 
Task32 3 1 3 
Task33 3 3 3 
Task34 1 3 1 
Task35 3 1 1 
Task36 1 1 3 
Task37 3 3 1 
Task38 3 3 3 
Task39 1 3 1 
Task40 7 3 3 
Task41 3 3 3 
Task42 1 1 1 
Task43 7 1 7 
Task44 3 3 3 
Task45 1 1 1 
Task46 3 1 3 
Task47 3 1 1 
Task48 3 3 7 
Task49 1 1 1 
Task50 1 3 3 
Task51 1 1 1 
Task52 3 3 7 
Task53 3 3 1 
Task54 1 1 1 
Task55 1 1 3 
Task56 1 3 3 
Task57 7 7 1 
Task58 3 1 1 
Task59 3 1 3 
Task60 3 1 1 
Task61 3 3 3 
Task62 1 1 3 
Task63 1 3 3 
Task64 3 1 3 
Task65 1 7 1 
Task66 1 3 3 
Task67 1 3 1 
Task68 1 1 1 
Task69 7 3 7 
Task70 1 1 1 
Task71 1 1 1 
Task72 3 1 3 
Task73 1 15 1 
Task74 1 1 1 
Task75 1 1 15 
Task76 1 3 3 
Task77 1 1 1 
Task78 3 3 3 
Task79 3 1 3 
Task80 1 3 1 
Task81 1 1 1 
Task82 3 1 1 
Task83 3 1 3 
Task84 3 3 1 
Task85 3 3 7 
Task86 1 3 3 
Task87 1 3 3 
Task88 3 1 1 
Task89 3 1 1 
Task90 1 1 3 
Task91 3 1 15 
Task92 1 1 3 
Task93 1 1 1 
Task94 3 1 7 
Task95 1 1 1 
Task96 3 3 3 
Task97 3 1 1 
Task98 1 3 3 
Task99 1 1 1 
