0.15844424851864197
Task0 1 1 1 
Task1 31 15 31 
Task2 3 1 7 
Task3 3 1 1 
Task4 7 1 7 
Task5 7 1 3 
Task6 3 3 1 
Task7 3 3 7 
Task8 7 3 3 
Task9 3 1 1 
Task10 1 7 3 
Task11 1 3 1 
Task12 7 3 1 
Task13 7 1 3 
Task14 3 3 3 
Task15 31 1 1 
Task16 3 3 7 
Task17 3 7 3 
Task18 1 3 3 
Task19 7 3 3 
Task20 1 1 1 
Task21 1 1 7 
Task22 1 1 1 
Task23 1 7 7 
Task24 3 1 1 
Task25 1 1 1 
Task26 3 1 1 
Task27 1 3 1 
Task28 3 1 3 
Task29 15 3 15 
Task30 3 1 1 
Task31 1 1 1 
Task32 1 3 1 
Task33 7 1 7 
Task34 1 3 1 
Task35 3 3 3 
Task36 7 7 7 
Task37 3 3 7 
Task38 1 7 3 
Task39 7 7 7 
Task40 3 3 3 
Task41 1 1 7 
Task42 3 1 3 
Task43 31 1 7 
Task44 3 7 1 
Task45 1 1 1 
Task46 1 1 1 
Task47 63 63 255 
Task48 3 1 3 
Task49 1 7 3 
Task50 1 7 31 
Task51 3 3 1 
Task52 1 7 3 
Task53 3 1 1 
Task54 1 1 3 
Task55 1 1 1 
Task56 3 7 3 
Task57 1 7 7 
Task58 1 255 3 
Task59 1 7 3 
Task60 1 1 1 
Task61 3 1 1 
Task62 1 3 3 
Task63 1 1 1 
Task64 1 3 3 
Task65 1 3 1 
Task66 3 1 1 
Task67 3 1 1 
Task68 255 255 63 
Task69 1 1 1 
Task70 1 1 1 
Task71 1 3 1 
Task72 3 1 3 
Task73 1 3 1 
Task74 1 1 1 
Task75 1 1 3 
Task76 3 7 1 
Task77 1 7 1 
Task78 3 3 3 
Task79 15 1 7 
Task80 1 7 1 
Task81 7 1 3 
Task82 1 3 3 
Task83 1 1 1 
Task84 1 1 1 
Task85 255 63 255 
Task86 1 7 1 
Task87 1 1 1 
Task88 1 1 1 
Task89 1 3 1 
Task90 3 1 1 
Task91 3 7 3 
Task92 31 3 1 
Task93 3 3 3 
Task94 3 1 1 
Task95 3 1 3 
Task96 3 1 1 
Task97 7 7 3 
Task98 1 7 3 
Task99 15 15 31 
