0.16209677987321716
Task0 1 1 15 
Task1 1 1 1 
Task2 1 3 1 
Task3 1 1 1 
Task4 3 1 3 
Task5 1 3 1 
Task6 1 1 3 
Task7 1 3 7 
Task8 1 1 1 
Task9 1 3 3 
Task10 7 1 3 
Task11 3 1 1 
Task12 7 1 3 
Task13 3 7 3 
Task14 1 15 3 
Task15 3 1 1 
Task16 1 1 3 
Task17 3 3 1 
Task18 7 7 1 
Task19 3 7 1 
Task20 3 1 1 
Task21 3 1 3 
Task22 7 3 7 
Task23 1 1 1 
Task24 1 1 1 
Task25 7 3 1 
Task26 1 3 7 
Task27 1 3 3 
Task28 7 3 1 
Task29 3 1 3 
Task30 15 1 3 
Task31 3 3 3 
Task32 3 3 3 
Task33 3 3 1 
Task34 3 7 1 
Task35 1 1 1 
Task36 1 1 1 
Task37 1 1 3 
Task38 1 1 3 
Task39 3 1 3 
Task40 1 1 3 
Task41 3 3 3 
Task42 3 1 1 
Task43 3 1 1 
Task44 3 3 3 
Task45 3 3 3 
Task46 3 7 1 
Task47 1 1 1 
Task48 3 3 3 
Task49 3 1 1 
Task50 7 1 3 
Task51 1 1 1 
Task52 3 3 3 
Task53 1 1 1 
Task54 1 3 3 
Task55 1 1 1 
Task56 1 1 1 
Task57 1 1 1 
Task58 3 3 1 
Task59 1 1 7 
Task60 3 3 3 
Task61 1 1 3 
Task62 3 1 3 
Task63 7 1 1 
Task64 1 3 1 
Task65 7 1 3 
Task66 1 3 3 
Task67 3 7 3 
Task68 1 1 1 
Task69 7 1 3 
Task70 1 1 1 
Task71 3 1 1 
Task72 3 1 1 
Task73 1 7 3 
Task74 1 1 1 
Task75 1 3 1 
Task76 15 3 1 
Task77 7 3 7 
Task78 1 1 3 
Task79 1 1 1 
Task80 1 1 3 
Task81 1 1 1 
Task82 1 1 1 
Task83 3 3 1 
Task84 1 1 1 
Task85 3 1 3 
Task86 3 1 1 
Task87 3 1 1 
Task88 3 1 3 
Task89 3 3 7 
Task90 15 1 3 
Task91 3 3 3 
Task92 1 1 3 
Task93 1 1 1 
Task94 1 1 1 
Task95 1 3 7 
Task96 1 3 3 
Task97 1 1 3 
Task98 1 3 7 
Task99 3 1 1 
