Task0 1 1 1 
Task1 1 1 1 
Task2 1 1 1 
Task3 1 1 1 
Task4 1 1 1 
Task5 1 1 1 
Task6 3 3 1 
Task7 1 1 1 
Task8 1 7 3 
Task9 1 3 3 
Task10 1 3 1 
Task11 3 7 3 
Task12 1 1 1 
Task13 1 1 1 
Task14 3 1 1 
Task15 1 1 1 
Task16 1 1 15 
Task17 1 1 3 
Task18 1 3 3 
Task19 1 1 1 
Task20 3 1 3 
Task21 1 1 1 
Task22 1 1 1 
Task23 1 1 3 
Task24 3 1 1 
Task25 1 1 1 
Task26 7 1 3 
Task27 1 1 1 
Task28 1 1 1 
Task29 3 3 1 
Task30 1 1 1 
Task31 1 1 1 
Task32 1 1 1 
Task33 1 1 1 
Task34 1 1 1 
Task35 3 7 3 
Task36 1 1 3 
Task37 1 1 1 
Task38 3 1 1 
Task39 1 1 3 
Task40 3 3 1 
Task41 1 1 3 
Task42 1 1 1 
Task43 1 1 1 
Task44 1 1 3 
Task45 3 1 1 
Task46 1 3 1 
Task47 1 1 3 
Task48 1 1 3 
Task49 1 1 1 
Task50 3 1 3 
Task51 1 1 1 
Task52 1 1 1 
Task53 1 1 3 
Task54 1 1 1 
Task55 1 1 1 
Task56 1 1 1 
Task57 3 1 1 
Task58 1 1 1 
Task59 7 1 7 
Task60 1 1 1 
Task61 15 1 7 
Task62 1 1 1 
Task63 1 1 1 
Task64 3 3 1 
Task65 1 1 1 
Task66 3 1 1 
Task67 1 1 1 
Task68 1 1 7 
Task69 15 3 1 
Task70 1 1 1 
Task71 1 1 1 
Task72 1 1 1 
Task73 1 1 1 
Task74 1 1 1 
Task75 1 7 3 
Task76 1 1 1 
Task77 1 3 1 
Task78 1 1 1 
Task79 1 3 1 
Task80 1 1 1 
Task81 1 1 1 
Task82 1 1 1 
Task83 1 1 1 
Task84 1 1 3 
Task85 1 1 1 
Task86 1 1 1 
Task87 1 1 3 
Task88 1 1 1 
Task89 1 3 1 
Task90 1 1 3 
Task91 1 1 1 
Task92 3 1 3 
Task93 3 1 1 
Task94 1 3 1 
Task95 1 1 1 
Task96 1 1 1 
Task97 3 63 31 
Task98 1 3 1 
Task99 1 1 1 
