0.20870385600000002
Task0 7 15 3 
Task1 7 1 3 
Task2 7 7 7 
Task3 3 7 3 
Task4 3 1 7 
Task5 7 7 3 
Task6 3 3 7 
Task7 3 3 3 
Task8 15 3 3 
Task9 3 3 3 
Task10 3 7 3 
Task11 3 15 1 
Task12 7 15 7 
Task13 3 3 3 
Task14 3 7 7 
Task15 7 7 31 
Task16 7 7 3 
Task17 7 1 7 
Task18 1 3 3 
Task19 7 7 1 
Task20 3 1 15 
Task21 3 7 7 
Task22 7 15 7 
Task23 3 3 7 
Task24 7 3 7 
Task25 7 7 1 
Task26 7 7 3 
Task27 3 1 15 
Task28 3 7 7 
Task29 15 1 7 
Task30 15 15 1 
Task31 15 3 1 
Task32 7 1 3 
Task33 3 7 1 
Task34 3 3 3 
Task35 7 1 7 
Task36 15 7 1 
Task37 1 1 15 
Task38 3 15 15 
Task39 1 3 15 
Task40 7 7 7 
Task41 1 1 7 
Task42 3 15 15 
Task43 255 127 255 
Task44 1 3 7 
Task45 3 3 31 
Task46 7 1 7 
Task47 3 1 1 
Task48 3 1 3 
Task49 3 3 3 
Task50 7 1 15 
Task51 7 7 7 
Task52 15 63 7 
Task53 3 7 1 
Task54 31 1 1 
Task55 7 3 3 
Task56 7 1 15 
Task57 7 3 7 
Task58 7 7 15 
Task59 7 7 7 
Task60 15 7 31 
Task61 127 7 255 
Task62 7 7 7 
Task63 3 1 3 
Task64 1 7 63 
Task65 7 7 31 
Task66 7 15 1 
Task67 3 7 1 
Task68 3 1 7 
Task69 1 7 7 
Task70 1 1 7 
Task71 3 1 1 
Task72 3 31 3 
Task73 3 15 3 
Task74 3 3 3 
Task75 3 7 3 
Task76 3 3 1 
Task77 1 3 7 
Task78 15 1 1 
Task79 15 3 31 
Task80 3 3 7 
Task81 3 3 7 
Task82 3 7 1 
Task83 3 7 1 
Task84 7 3 7 
Task85 3 15 7 
Task86 15 1 3 
Task87 3 3 1 
Task88 7 7 7 
Task89 7 3 3 
Task90 3 7 1 
Task91 7 7 7 
Task92 7 15 31 
Task93 31 31 31 
Task94 15 15 15 
Task95 15 3 15 
Task96 3 3 3 
Task97 3 3 1 
Task98 15 31 7 
Task99 15 15 31 
