0.3434021
Task0 7 255 255 
Task1 15 7 255 
Task2 63 63 31 
Task3 63 63 63 
Task4 127 63 127 
Task5 63 127 255 
Task6 31 15 63 
Task7 1 63 63 
Task8 7 1 255 
Task9 63 127 7 
Task10 255 15 31 
Task11 7 15 127 
Task12 15 127 7 
Task13 127 255 63 
Task14 31 63 15 
Task15 255 15 31 
Task16 1 1 31 
Task17 255 31 15 
Task18 63 31 63 
Task19 7 7 31 
Task20 15 127 127 
Task21 7 255 1 
Task22 31 7 31 
Task23 255 63 127 
Task24 7 63 3 
Task25 63 31 15 
Task26 31 15 255 
Task27 127 31 63 
Task28 1 31 3 
Task29 15 63 7 
Task30 1 7 31 
Task31 127 127 255 
Task32 3 15 255 
Task33 15 63 1 
Task34 31 15 255 
Task35 63 7 31 
Task36 63 255 63 
Task37 255 255 63 
Task38 255 3 31 
Task39 31 127 255 
Task40 15 63 63 
Task41 7 255 63 
Task42 31 3 63 
Task43 255 127 127 
Task44 255 7 1 
Task45 31 63 63 
Task46 1 255 7 
Task47 31 255 127 
Task48 127 255 63 
Task49 255 31 1 
Task50 15 7 31 
Task51 127 15 127 
Task52 7 31 63 
Task53 127 15 31 
Task54 15 63 7 
Task55 255 7 127 
Task56 31 255 15 
Task57 15 127 255 
Task58 7 31 63 
Task59 63 63 255 
Task60 7 255 3 
Task61 31 63 63 
Task62 63 255 1 
Task63 63 31 63 
Task64 31 255 63 
Task65 7 15 255 
Task66 255 127 255 
Task67 127 63 15 
Task68 7 255 255 
Task69 127 63 31 
Task70 63 31 255 
Task71 3 63 255 
Task72 255 63 63 
Task73 63 255 63 
Task74 63 63 31 
Task75 15 15 63 
Task76 31 3 255 
Task77 31 15 127 
Task78 3 15 255 
Task79 63 7 31 
Task80 31 255 3 
Task81 255 255 127 
Task82 15 255 7 
Task83 7 255 63 
Task84 63 127 3 
Task85 31 15 63 
Task86 127 15 255 
Task87 63 255 63 
Task88 63 7 63 
Task89 7 1 31 
Task90 3 31 63 
Task91 31 127 255 
Task92 1 31 63 
Task93 7 15 127 
Task94 63 63 7 
Task95 63 63 1 
Task96 31 31 15 
Task97 127 63 31 
Task98 1 15 31 
Task99 31 7 1 
