0.41584762000000003
Task0 63 31 63 
Task1 15 127 31 
Task2 255 15 31 
Task3 63 31 31 
Task4 63 1 7 
Task5 31 31 255 
Task6 31 63 15 
Task7 31 15 31 
Task8 1 15 127 
Task9 31 31 31 
Task10 63 7 31 
Task11 63 31 3 
Task12 31 31 15 
Task13 15 31 255 
Task14 1 7 63 
Task15 63 7 127 
Task16 31 63 1 
Task17 63 3 3 
Task18 63 7 1 
Task19 31 31 1 
Task20 31 15 31 
Task21 127 31 63 
Task22 7 63 31 
Task23 1 63 3 
Task24 63 63 15 
Task25 1 63 15 
Task26 31 31 255 
Task27 15 127 31 
Task28 15 7 63 
Task29 63 31 1 
Task30 15 7 255 
Task31 63 31 255 
Task32 31 127 127 
Task33 127 31 63 
Task34 127 3 255 
Task35 3 63 3 
Task36 7 255 255 
Task37 15 63 127 
Task38 127 7 255 
Task39 3 15 31 
Task40 7 31 63 
Task41 63 31 31 
Task42 7 7 63 
Task43 31 31 63 
Task44 15 15 255 
Task45 255 7 1 
Task46 31 31 7 
Task47 63 31 255 
Task48 255 127 127 
Task49 15 3 63 
Task50 3 7 31 
Task51 255 63 15 
Task52 31 15 7 
Task53 63 3 7 
Task54 31 7 63 
Task55 63 255 31 
Task56 31 255 7 
Task57 63 63 255 
Task58 127 255 63 
Task59 255 15 7 
Task60 1 63 31 
Task61 63 31 63 
Task62 31 31 7 
Task63 1 3 63 
Task64 31 63 63 
Task65 7 1 31 
Task66 127 31 31 
Task67 127 255 31 
Task68 31 15 255 
Task69 7 7 255 
Task70 15 31 7 
Task71 15 7 63 
Task72 15 31 31 
Task73 31 127 31 
Task74 63 7 3 
Task75 63 31 31 
Task76 15 255 15 
Task77 255 15 31 
Task78 15 255 127 
Task79 63 15 7 
Task80 31 7 1 
Task81 15 63 127 
Task82 31 127 127 
Task83 31 63 127 
Task84 3 63 15 
Task85 3 31 63 
Task86 63 3 31 
Task87 31 15 15 
Task88 127 127 127 
Task89 15 7 31 
Task90 31 31 255 
Task91 31 127 7 
Task92 31 31 63 
Task93 127 255 15 
Task94 63 31 7 
Task95 63 31 7 
Task96 63 15 15 
Task97 63 31 7 
Task98 1 3 63 
Task99 15 31 127 
