files/tasks_parameters/ExAp01/sample8.txt 1.00746 3.76817 4.3855 0.450105 16.0932
files/tasks_parameters/ExAp01/sample12.txt 1.33308 5.03638 5.18776 0.610564 21.8303
files/tasks_parameters/ExAp01/sample2.txt 1.31461 4.58991 5.64606 0.613877 21.9487
files/tasks_parameters/ExAp01/sample44.txt 1.18791 3.77401 5.66946 0.551838 19.7305
files/tasks_parameters/ExAp01/sample27.txt 1.20717 4.13937 5.56136 0.55779 19.9433
files/tasks_parameters/ExAp01/sample17.txt 1.11977 3.76163 5.38341 0.520991 18.6276
files/tasks_parameters/ExAp01/sample9.txt 1.1037 3.69889 5.2981 0.511699 18.2954
files/tasks_parameters/ExAp01/sample34.txt 1.0764 3.52435 5.83741 0.49187 17.5864
files/tasks_parameters/ExAp01/sample40.txt 1.08169 4.06185 5.0335 0.496884 17.7657
files/tasks_parameters/ExAp01/sample33.txt 1.38877 4.82091 5.83886 0.651963 23.3104
files/tasks_parameters/ExAp01/sample48.txt 0.971213 4.01134 5.07085 0.447927 16.0153
files/tasks_parameters/ExAp01/sample29.txt 1.36342 4.20847 5.0406 0.643694 23.0148
files/tasks_parameters/ExAp01/sample11.txt 1.19904 3.94699 5.29198 0.557276 19.925
files/tasks_parameters/ExAp01/sample14.txt 1.03999 3.54059 4.58345 0.466713 16.687
files/tasks_parameters/ExAp01/sample0.txt 1.34707 4.82755 4.90216 0.623551 22.2946
files/tasks_parameters/ExAp01/sample7.txt 1.10262 3.60766 5.11185 0.509566 18.2191
files/tasks_parameters/ExAp01/sample23.txt 1.24671 3.81403 5.45799 0.582911 20.8416
files/tasks_parameters/ExAp01/sample13.txt 1.34428 4.8894 5.26818 0.624499 22.3285
files/tasks_parameters/ExAp01/sample22.txt 1.15797 3.76156 4.95746 0.534216 19.1005
files/tasks_parameters/ExAp01/sample25.txt 0.903713 2.94144 4.92622 0.403639 14.4318
files/tasks_parameters/ExAp01/sample36.txt 1.07529 3.56164 4.5806 0.501799 17.9414
files/tasks_parameters/ExAp01/sample46.txt 1.14208 3.84833 4.7121 0.530701 18.9748
files/tasks_parameters/ExAp01/sample31.txt 1.05428 3.764 5.08385 0.479734 17.1525
files/tasks_parameters/ExAp01/sample37.txt 1.39713 4.43254 5.65111 0.65143 23.2914
files/tasks_parameters/ExAp01/sample16.txt 1.15885 4.49741 4.8895 0.509171 18.205
files/tasks_parameters/ExAp01/sample10.txt 1.32559 3.87086 6.07511 0.60993 21.8076
files/tasks_parameters/ExAp01/sample39.txt 1.00983 3.66299 4.54281 0.463671 16.5782
files/tasks_parameters/ExAp01/sample19.txt 1.31961 3.86694 5.14047 0.615987 22.0242
files/tasks_parameters/ExAp01/sample20.txt 1.241 4.09945 5.13368 0.580369 20.7506
files/tasks_parameters/ExAp01/sample43.txt 1.15118 3.75825 5.55698 0.530892 18.9816
files/tasks_parameters/ExAp01/sample32.txt 1.28775 4.0352 5.29178 0.587643 21.0107
files/tasks_parameters/ExAp01/sample45.txt 1.16601 3.94578 4.87833 0.541081 19.3459
files/tasks_parameters/ExAp01/sample26.txt 1.02885 3.50998 4.55035 0.474009 16.9478
files/tasks_parameters/ExAp01/sample5.txt 1.28804 4.00994 5.27725 0.587681 21.0121
files/tasks_parameters/ExAp01/sample21.txt 0.953588 2.8974 4.54677 0.430037 15.3757
files/tasks_parameters/ExAp01/sample38.txt 1.06424 3.56689 4.78573 0.492366 17.6042
files/tasks_parameters/ExAp01/sample1.txt 1.05298 3.69002 4.55048 0.481074 17.2004
files/tasks_parameters/ExAp01/sample15.txt 1.14007 3.73223 5.42493 0.524964 18.7697
files/tasks_parameters/ExAp01/sample24.txt 1.16844 4.18053 5.40377 0.542575 19.3994
files/tasks_parameters/ExAp01/sample3.txt 1.01441 3.70547 4.7118 0.470503 16.8225
files/tasks_parameters/ExAp01/sample6.txt 1.33148 4.07521 5.71419 0.626702 22.4073
files/tasks_parameters/ExAp01/sample30.txt 1.34837 3.97446 5.82388 0.626709 22.4075
files/tasks_parameters/ExAp01/sample42.txt 1.17153 4.44207 5.58473 0.537025 19.2009
files/tasks_parameters/ExAp01/sample4.txt 1.20396 3.92181 4.49751 0.556974 19.9142
files/tasks_parameters/ExAp01/sample28.txt 0.952486 3.13496 4.88321 0.444588 15.8959
files/tasks_parameters/ExAp01/sample18.txt 1.16104 3.95301 4.52898 0.537438 19.2157
files/tasks_parameters/ExAp01/sample35.txt 1.61653 5.75923 6.25034 0.752488 26.9046
files/tasks_parameters/ExAp01/sample47.txt 1.15853 3.44018 5.14289 0.540033 19.3085
files/tasks_parameters/ExAp01/sample49.txt 1.08302 3.38981 4.72409 0.493041 17.6283
files/tasks_parameters/ExAp01/sample41.txt 1.05198 3.58692 5.27252 0.492391 17.605
