files/tasks_parameters/ExAp01/sample8.txt 0.99609 3.76817 4.3855 0.450105 9.53164
files/tasks_parameters/ExAp01/sample12.txt 1.38321 5.03638 5.18776 0.610564 12.9296
files/tasks_parameters/ExAp01/sample2.txt 1.35153 4.58991 5.64606 0.613877 12.9997
files/tasks_parameters/ExAp01/sample44.txt 1.20129 3.77401 5.66946 0.551838 11.686
files/tasks_parameters/ExAp01/sample27.txt 1.23849 4.13937 5.56136 0.55779 11.812
files/tasks_parameters/ExAp01/sample17.txt 1.14978 3.76163 5.38341 0.520991 11.0328
files/tasks_parameters/ExAp01/sample9.txt 1.12963 3.69889 5.2981 0.511699 10.836
files/tasks_parameters/ExAp01/sample34.txt 1.10445 3.52435 5.83741 0.49187 10.4161
files/tasks_parameters/ExAp01/sample40.txt 1.11015 4.06185 5.0335 0.496884 10.5223
files/tasks_parameters/ExAp01/sample33.txt 1.42318 4.82091 5.83886 0.651963 13.8063
files/tasks_parameters/ExAp01/sample48.txt 0.997518 4.01134 5.07085 0.447927 9.48552
files/tasks_parameters/ExAp01/sample29.txt 1.39748 4.20847 5.0406 0.643694 13.6312
files/tasks_parameters/ExAp01/sample11.txt 1.23075 3.94699 5.29198 0.557276 11.8011
files/tasks_parameters/ExAp01/sample14.txt 1.06298 3.54059 4.58345 0.466713 9.88334
files/tasks_parameters/ExAp01/sample0.txt 1.39184 4.82755 4.90216 0.623551 13.2046
files/tasks_parameters/ExAp01/sample7.txt 1.13017 3.60766 5.11185 0.509566 10.7908
files/tasks_parameters/ExAp01/sample23.txt 1.27872 3.81403 5.45799 0.582911 12.344
files/tasks_parameters/ExAp01/sample13.txt 1.38681 4.8894 5.26818 0.624499 13.2247
files/tasks_parameters/ExAp01/sample22.txt 1.19288 3.76156 4.95746 0.534216 11.3128
files/tasks_parameters/ExAp01/sample25.txt 0.890075 2.94144 4.92622 0.403639 8.54766
files/tasks_parameters/ExAp01/sample36.txt 1.10567 3.56164 4.5806 0.501799 10.6263
files/tasks_parameters/ExAp01/sample46.txt 1.17033 3.84833 4.7121 0.530701 11.2384
files/tasks_parameters/ExAp01/sample31.txt 1.08466 3.764 5.08385 0.479734 10.1591
files/tasks_parameters/ExAp01/sample37.txt 1.43283 4.43254 5.65111 0.65143 13.795
files/tasks_parameters/ExAp01/sample16.txt 1.13707 4.49741 4.8895 0.509171 10.7824
files/tasks_parameters/ExAp01/sample10.txt 1.36434 3.87086 6.07511 0.60993 12.9162
files/tasks_parameters/ExAp01/sample39.txt 1.04677 3.66299 4.54281 0.463671 9.81892
files/tasks_parameters/ExAp01/sample19.txt 1.36013 3.86694 5.14047 0.615987 13.0444
files/tasks_parameters/ExAp01/sample20.txt 1.27694 4.09945 5.13368 0.580369 12.2902
files/tasks_parameters/ExAp01/sample43.txt 1.18168 3.75825 5.55698 0.530892 11.2424
files/tasks_parameters/ExAp01/sample32.txt 1.30429 4.0352 5.29178 0.587643 12.4442
files/tasks_parameters/ExAp01/sample45.txt 1.19576 3.94578 4.87833 0.541081 11.4582
files/tasks_parameters/ExAp01/sample26.txt 1.05535 3.50998 4.55035 0.474009 10.0378
files/tasks_parameters/ExAp01/sample5.txt 1.28915 4.00994 5.27725 0.587681 12.445
files/tasks_parameters/ExAp01/sample21.txt 0.986404 2.8974 4.54677 0.430037 9.10667
files/tasks_parameters/ExAp01/sample38.txt 1.09317 3.56689 4.78573 0.492366 10.4266
files/tasks_parameters/ExAp01/sample1.txt 1.09079 3.69002 4.55048 0.481074 10.1874
files/tasks_parameters/ExAp01/sample15.txt 1.17308 3.73223 5.42493 0.524964 11.1169
files/tasks_parameters/ExAp01/sample24.txt 1.20139 4.18053 5.40377 0.542575 11.4898
files/tasks_parameters/ExAp01/sample3.txt 1.03942 3.70547 4.7118 0.470503 9.9636
files/tasks_parameters/ExAp01/sample6.txt 1.3646 4.07521 5.71419 0.626702 13.2713
files/tasks_parameters/ExAp01/sample30.txt 1.38477 3.97446 5.82388 0.626709 13.2715
files/tasks_parameters/ExAp01/sample42.txt 1.20795 4.44207 5.58473 0.537025 11.3723
files/tasks_parameters/ExAp01/sample4.txt 1.24654 3.92181 4.49751 0.556974 11.7947
files/tasks_parameters/ExAp01/sample28.txt 0.972739 3.13496 4.88321 0.444588 9.41481
files/tasks_parameters/ExAp01/sample18.txt 1.19766 3.95301 4.52898 0.537438 11.381
files/tasks_parameters/ExAp01/sample35.txt 1.66833 5.75923 6.25034 0.752488 15.935
files/tasks_parameters/ExAp01/sample47.txt 1.19124 3.44018 5.14289 0.540033 11.436
files/tasks_parameters/ExAp01/sample49.txt 1.12432 3.38981 4.72409 0.493041 10.4409
files/tasks_parameters/ExAp01/sample41.txt 1.07572 3.58692 5.27252 0.492391 10.4271
