files/tasks_parameters/ExAp01/sample8.txt 0.797439 3.15778 1.5595 0.203411 4.57155
files/tasks_parameters/ExAp01/sample12.txt 0.759357 3.94962 1.6705 0.207924 4.67297
files/tasks_parameters/ExAp01/sample2.txt 0.706785 3.78275 1.74131 0.200098 4.49708
files/tasks_parameters/ExAp01/sample44.txt 0.686123 3.59825 1.65317 0.200005 4.495
files/tasks_parameters/ExAp01/sample27.txt 0.695567 3.45743 1.5148 0.182129 4.09324
files/tasks_parameters/ExAp01/sample17.txt 0.553753 2.77299 1.44514 0.14646 3.2916
files/tasks_parameters/ExAp01/sample9.txt 0.61117 2.99933 1.451 0.177444 3.98794
files/tasks_parameters/ExAp01/sample34.txt 0.55749 3.02928 1.58429 0.157984 3.5506
files/tasks_parameters/ExAp01/sample40.txt 0.580042 3.86889 1.52122 0.168379 3.78423
files/tasks_parameters/ExAp01/sample33.txt 0.792031 3.63695 1.71905 0.199765 4.48961
files/tasks_parameters/ExAp01/sample48.txt 0.602224 3.39061 1.49062 0.154728 3.47743
files/tasks_parameters/ExAp01/sample29.txt 0.755133 3.30472 1.38739 0.223868 5.03131
files/tasks_parameters/ExAp01/sample11.txt 0.679635 3.10585 1.41612 0.174079 3.91232
files/tasks_parameters/ExAp01/sample14.txt 0.585845 2.70971 1.43432 0.162214 3.64568
files/tasks_parameters/ExAp01/sample0.txt 0.707713 3.6937 1.5439 0.18367 4.12788
files/tasks_parameters/ExAp01/sample7.txt 0.544014 2.70501 1.42221 0.143463 3.22426
files/tasks_parameters/ExAp01/sample23.txt 0.669021 3.2697 1.57822 0.181448 4.07795
files/tasks_parameters/ExAp01/sample13.txt 0.667716 3.84225 1.67648 0.198247 4.45549
files/tasks_parameters/ExAp01/sample22.txt 0.558526 3.09569 1.56121 0.148796 3.34411
files/tasks_parameters/ExAp01/sample25.txt 0.557897 2.73966 1.5007 0.148149 3.32956
files/tasks_parameters/ExAp01/sample36.txt 0.490836 2.85948 1.28553 0.130042 2.92263
files/tasks_parameters/ExAp01/sample46.txt 0.774948 3.58643 1.69998 0.210103 4.72194
files/tasks_parameters/ExAp01/sample31.txt 0.670796 3.4832 1.53782 0.1722 3.8701
files/tasks_parameters/ExAp01/sample37.txt 0.676281 3.95293 1.50705 0.171701 3.85889
files/tasks_parameters/ExAp01/sample16.txt 0.579218 3.31216 1.30115 0.150249 3.37676
files/tasks_parameters/ExAp01/sample10.txt 0.581091 3.17098 1.61789 0.153776 3.45604
files/tasks_parameters/ExAp01/sample39.txt 0.647039 3.26617 1.44406 0.165669 3.72331
files/tasks_parameters/ExAp01/sample19.txt 0.705083 3.63532 1.52509 0.196094 4.40711
files/tasks_parameters/ExAp01/sample20.txt 0.540195 3.20793 1.25367 0.147335 3.31128
files/tasks_parameters/ExAp01/sample43.txt 0.570963 3.11551 1.4202 0.150644 3.38565
files/tasks_parameters/ExAp01/sample32.txt 0.61506 3.5311 1.42482 0.168744 3.79243
files/tasks_parameters/ExAp01/sample45.txt 0.724331 3.80283 1.48324 0.19807 4.45152
files/tasks_parameters/ExAp01/sample26.txt 0.590433 3.21645 1.29701 0.166061 3.73213
files/tasks_parameters/ExAp01/sample5.txt 0.6745 3.5889 1.52559 0.178903 4.02075
files/tasks_parameters/ExAp01/sample21.txt 0.660821 2.75242 1.55936 0.19512 4.38522
files/tasks_parameters/ExAp01/sample38.txt 0.629078 3.31563 1.37515 0.166157 3.73428
files/tasks_parameters/ExAp01/sample1.txt 0.67894 3.74964 1.51696 0.19701 4.42768
files/tasks_parameters/ExAp01/sample15.txt 0.636131 3.32916 1.48508 0.180707 4.0613
files/tasks_parameters/ExAp01/sample24.txt 0.607228 3.45951 1.59549 0.16529 3.71481
files/tasks_parameters/ExAp01/sample3.txt 0.911148 3.70014 1.70809 0.237107 5.32885
files/tasks_parameters/ExAp01/sample6.txt 0.629489 3.33003 1.58323 0.184714 4.15135
files/tasks_parameters/ExAp01/sample30.txt 0.939724 4.1841 1.4861 0.239623 5.3854
files/tasks_parameters/ExAp01/sample42.txt 0.682914 3.43221 1.70276 0.177383 3.98658
files/tasks_parameters/ExAp01/sample4.txt 0.740753 3.72477 1.6136 0.196448 4.41506
files/tasks_parameters/ExAp01/sample28.txt 0.582509 3.11323 1.45032 0.158819 3.56937
files/tasks_parameters/ExAp01/sample18.txt 0.557704 3.47418 1.45209 0.149064 3.35013
files/tasks_parameters/ExAp01/sample35.txt 0.68982 4.57086 1.49394 0.185031 4.15846
files/tasks_parameters/ExAp01/sample47.txt 0.631964 3.13768 1.52397 0.16417 3.68963
files/tasks_parameters/ExAp01/sample49.txt 0.558147 3.13288 1.49657 0.156154 3.50948
files/tasks_parameters/ExAp01/sample41.txt 0.539797 2.81964 1.49636 0.150876 3.39085
