files/tasks_parameters/ExAp01/sample8.txt 0.78224 3.15778 1.5595 0.203411 3.37584
files/tasks_parameters/ExAp01/sample12.txt 0.897568 3.94962 1.6705 0.207924 3.45074
files/tasks_parameters/ExAp01/sample2.txt 0.862556 3.78275 1.74131 0.200098 3.32085
files/tasks_parameters/ExAp01/sample44.txt 0.800476 3.59825 1.65317 0.200005 3.31932
files/tasks_parameters/ExAp01/sample27.txt 0.75776 3.45743 1.5148 0.182129 3.02263
files/tasks_parameters/ExAp01/sample17.txt 0.799088 2.77299 1.44514 0.14646 2.43067
files/tasks_parameters/ExAp01/sample9.txt 0.753139 2.99933 1.451 0.177444 2.94488
files/tasks_parameters/ExAp01/sample34.txt 0.823289 3.02928 1.58429 0.157984 2.62192
files/tasks_parameters/ExAp01/sample40.txt 0.767634 3.86889 1.52122 0.168379 2.79445
files/tasks_parameters/ExAp01/sample33.txt 0.814264 3.63695 1.71905 0.199765 3.31533
files/tasks_parameters/ExAp01/sample48.txt 0.697078 3.39061 1.49062 0.154728 2.56789
files/tasks_parameters/ExAp01/sample29.txt 0.865541 3.30472 1.38739 0.223868 3.71535
files/tasks_parameters/ExAp01/sample11.txt 0.730365 3.10585 1.41612 0.174079 2.88904
files/tasks_parameters/ExAp01/sample14.txt 0.669581 2.70971 1.43432 0.162214 2.69214
files/tasks_parameters/ExAp01/sample0.txt 0.806884 3.6937 1.5439 0.18367 3.04821
files/tasks_parameters/ExAp01/sample7.txt 0.78083 2.70501 1.42221 0.143463 2.38094
files/tasks_parameters/ExAp01/sample23.txt 0.797816 3.2697 1.57822 0.181448 3.01135
files/tasks_parameters/ExAp01/sample13.txt 0.834296 3.84225 1.67648 0.198247 3.29014
files/tasks_parameters/ExAp01/sample22.txt 0.806811 3.09569 1.56121 0.148796 2.46945
files/tasks_parameters/ExAp01/sample25.txt 0.728267 2.73966 1.5007 0.148149 2.4587
files/tasks_parameters/ExAp01/sample36.txt 0.686747 2.85948 1.28553 0.130042 2.1582
files/tasks_parameters/ExAp01/sample46.txt 0.829332 3.58643 1.69998 0.210103 3.4869
files/tasks_parameters/ExAp01/sample31.txt 0.772537 3.4832 1.53782 0.1722 2.85786
files/tasks_parameters/ExAp01/sample37.txt 0.783496 3.95293 1.50705 0.171701 2.84958
files/tasks_parameters/ExAp01/sample16.txt 0.678171 3.31216 1.30115 0.150249 2.49356
files/tasks_parameters/ExAp01/sample10.txt 0.856814 3.17098 1.61789 0.153776 2.5521
files/tasks_parameters/ExAp01/sample39.txt 0.701597 3.26617 1.44406 0.165669 2.74947
files/tasks_parameters/ExAp01/sample19.txt 0.816868 3.63532 1.52509 0.196094 3.25442
files/tasks_parameters/ExAp01/sample20.txt 0.665469 3.20793 1.25367 0.147335 2.4452
files/tasks_parameters/ExAp01/sample43.txt 0.657225 3.11551 1.4202 0.150644 2.50012
files/tasks_parameters/ExAp01/sample32.txt 0.779453 3.5311 1.42482 0.168744 2.80051
files/tasks_parameters/ExAp01/sample45.txt 0.822146 3.80283 1.48324 0.19807 3.28721
files/tasks_parameters/ExAp01/sample26.txt 0.695132 3.21645 1.29701 0.166061 2.75598
files/tasks_parameters/ExAp01/sample5.txt 0.730535 3.5889 1.52559 0.178903 2.96911
files/tasks_parameters/ExAp01/sample21.txt 0.773629 2.75242 1.55936 0.19512 3.23825
files/tasks_parameters/ExAp01/sample38.txt 0.708461 3.31563 1.37515 0.166157 2.75757
files/tasks_parameters/ExAp01/sample1.txt 0.800937 3.74964 1.51696 0.19701 3.2696
files/tasks_parameters/ExAp01/sample15.txt 0.756906 3.32916 1.48508 0.180707 2.99905
files/tasks_parameters/ExAp01/sample24.txt 0.812567 3.45951 1.59549 0.16529 2.74319
files/tasks_parameters/ExAp01/sample3.txt 0.932605 3.70014 1.70809 0.237107 3.93507
files/tasks_parameters/ExAp01/sample6.txt 0.761079 3.33003 1.58323 0.184714 3.06555
files/tasks_parameters/ExAp01/sample30.txt 1.00385 4.1841 1.4861 0.239623 3.97682
files/tasks_parameters/ExAp01/sample42.txt 0.774955 3.43221 1.70276 0.177383 2.94387
files/tasks_parameters/ExAp01/sample4.txt 0.868689 3.72477 1.6136 0.196448 3.26029
files/tasks_parameters/ExAp01/sample28.txt 0.720173 3.11323 1.45032 0.158819 2.63579
files/tasks_parameters/ExAp01/sample18.txt 0.738636 3.47418 1.45209 0.149064 2.47389
files/tasks_parameters/ExAp01/sample35.txt 0.86894 4.57086 1.49394 0.185031 3.0708
files/tasks_parameters/ExAp01/sample47.txt 0.733683 3.13768 1.52397 0.16417 2.72459
files/tasks_parameters/ExAp01/sample49.txt 0.776734 3.13288 1.49657 0.156154 2.59156
files/tasks_parameters/ExAp01/sample41.txt 0.77121 2.81964 1.49636 0.150876 2.50396
