files/tasks_parameters/ExAp01/sample8.txt 1.30388 6.77015 2.19458 0.288816 12.8569
files/tasks_parameters/ExAp01/sample12.txt 1.53096 9.58351 2.46081 0.337498 15.024
files/tasks_parameters/ExAp01/sample2.txt 1.36942 8.44418 2.50701 0.319127 14.2062
files/tasks_parameters/ExAp01/sample44.txt 1.20456 6.96299 2.23089 0.28229 12.5664
files/tasks_parameters/ExAp01/sample27.txt 1.23927 7.74306 2.16676 0.28602 12.7324
files/tasks_parameters/ExAp01/sample17.txt 1.27158 7.35053 2.25579 0.292348 13.0141
files/tasks_parameters/ExAp01/sample9.txt 1.30679 6.89392 2.21068 0.282399 12.5712
files/tasks_parameters/ExAp01/sample34.txt 1.23585 6.62788 2.3772 0.297742 13.2542
files/tasks_parameters/ExAp01/sample40.txt 1.13934 7.75686 2.17534 0.285619 12.7146
files/tasks_parameters/ExAp01/sample33.txt 1.44668 8.14826 2.6463 0.338073 15.0496
files/tasks_parameters/ExAp01/sample48.txt 1.10419 7.64107 2.14272 0.270011 12.0198
files/tasks_parameters/ExAp01/sample29.txt 1.38207 7.139 1.93769 0.286306 12.7451
files/tasks_parameters/ExAp01/sample11.txt 1.20583 6.88688 2.12981 0.280008 12.4648
files/tasks_parameters/ExAp01/sample14.txt 0.95197 6.11983 1.97599 0.247458 11.0158
files/tasks_parameters/ExAp01/sample0.txt 1.27155 8.2738 2.14256 0.289132 12.8709
files/tasks_parameters/ExAp01/sample7.txt 1.11718 6.87011 2.05821 0.269886 12.0142
files/tasks_parameters/ExAp01/sample23.txt 1.28287 6.52032 2.38087 0.291712 12.9858
files/tasks_parameters/ExAp01/sample13.txt 1.32302 8.73247 2.33415 0.295393 13.1496
files/tasks_parameters/ExAp01/sample22.txt 1.15001 6.9777 2.28948 0.283979 12.6416
files/tasks_parameters/ExAp01/sample25.txt 1.03083 6.23444 2.2122 0.267298 11.899
files/tasks_parameters/ExAp01/sample36.txt 1.03509 6.6174 1.9458 0.253823 11.2991
files/tasks_parameters/ExAp01/sample46.txt 1.49607 7.42369 2.49128 0.327273 14.5688
files/tasks_parameters/ExAp01/sample31.txt 1.12345 7.22028 2.13584 0.25377 11.2968
files/tasks_parameters/ExAp01/sample37.txt 1.25096 8.90704 2.16981 0.295708 13.1637
files/tasks_parameters/ExAp01/sample16.txt 1.10487 8.18243 1.88294 0.24945 11.1044
files/tasks_parameters/ExAp01/sample10.txt 1.1663 6.96646 2.31217 0.285748 12.7203
files/tasks_parameters/ExAp01/sample39.txt 1.08938 6.4161 1.97266 0.251967 11.2165
files/tasks_parameters/ExAp01/sample19.txt 1.48064 8.16711 2.23199 0.308463 13.7315
files/tasks_parameters/ExAp01/sample20.txt 1.15587 7.28549 1.88944 0.25994 11.5714
files/tasks_parameters/ExAp01/sample43.txt 1.08193 6.86804 2.00142 0.25616 11.4032
files/tasks_parameters/ExAp01/sample32.txt 1.22884 8.15663 2.12995 0.281726 12.5413
files/tasks_parameters/ExAp01/sample45.txt 1.32623 7.75184 2.10599 0.274935 12.2389
files/tasks_parameters/ExAp01/sample26.txt 1.17005 7.4944 1.88956 0.267248 11.8968
files/tasks_parameters/ExAp01/sample5.txt 1.29766 8.08362 2.09961 0.28454 12.6665
files/tasks_parameters/ExAp01/sample21.txt 1.20394 6.11814 2.17119 0.26143 11.6377
files/tasks_parameters/ExAp01/sample38.txt 1.14568 7.761 1.96293 0.263659 11.737
files/tasks_parameters/ExAp01/sample1.txt 1.31856 7.83752 2.13261 0.289228 12.8752
files/tasks_parameters/ExAp01/sample15.txt 1.23003 7.37971 2.12057 0.285825 12.7237
files/tasks_parameters/ExAp01/sample24.txt 1.23333 8.28531 2.25272 0.296628 13.2046
files/tasks_parameters/ExAp01/sample3.txt 1.43153 7.33359 2.39135 0.305084 13.5811
files/tasks_parameters/ExAp01/sample6.txt 1.14176 7.09894 2.24425 0.281804 12.5447
files/tasks_parameters/ExAp01/sample30.txt 1.52269 8.17669 2.03701 0.299204 13.3193
files/tasks_parameters/ExAp01/sample42.txt 1.20013 7.70416 2.42413 0.29743 13.2403
files/tasks_parameters/ExAp01/sample4.txt 1.40233 7.41691 2.36261 0.307803 13.7021
files/tasks_parameters/ExAp01/sample28.txt 1.24829 7.0562 2.07657 0.266428 11.8602
files/tasks_parameters/ExAp01/sample18.txt 1.14017 7.60139 2.1377 0.268016 11.9309
files/tasks_parameters/ExAp01/sample35.txt 1.51418 9.66795 2.28028 0.32244 14.3537
files/tasks_parameters/ExAp01/sample47.txt 1.12878 6.84842 2.12104 0.251655 11.2026
files/tasks_parameters/ExAp01/sample49.txt 1.09385 7.1497 2.11412 0.255889 11.3911
files/tasks_parameters/ExAp01/sample41.txt 1.12473 6.59911 2.07359 0.265885 11.8361
