files/tasks_parameters/ExAp01/sample8.txt 1.0965 6.77015 2.19458 0.288816 6.5011
files/tasks_parameters/ExAp01/sample12.txt 1.24121 9.58351 2.46081 0.337498 7.59691
files/tasks_parameters/ExAp01/sample2.txt 1.14937 8.44418 2.50701 0.319127 7.18338
files/tasks_parameters/ExAp01/sample44.txt 0.994289 6.96299 2.23089 0.28229 6.3542
files/tasks_parameters/ExAp01/sample27.txt 1.09294 7.74306 2.16676 0.28602 6.43815
files/tasks_parameters/ExAp01/sample17.txt 1.06468 7.35053 2.25579 0.292348 6.58059
files/tasks_parameters/ExAp01/sample9.txt 1.04935 6.89392 2.21068 0.282399 6.35664
files/tasks_parameters/ExAp01/sample34.txt 1.0618 6.62788 2.3772 0.297742 6.702
files/tasks_parameters/ExAp01/sample40.txt 0.98996 7.75686 2.17534 0.285619 6.42914
files/tasks_parameters/ExAp01/sample33.txt 1.24533 8.14826 2.6463 0.338073 7.60984
files/tasks_parameters/ExAp01/sample48.txt 0.968201 7.64107 2.14272 0.270011 6.0778
files/tasks_parameters/ExAp01/sample29.txt 1.1353 7.139 1.93769 0.286306 6.44459
files/tasks_parameters/ExAp01/sample11.txt 0.982914 6.88688 2.12981 0.280008 6.30284
files/tasks_parameters/ExAp01/sample14.txt 0.86132 6.11983 1.97599 0.247458 5.57014
files/tasks_parameters/ExAp01/sample0.txt 1.09148 8.2738 2.14256 0.289132 6.5082
files/tasks_parameters/ExAp01/sample7.txt 0.984771 6.87011 2.05821 0.269886 6.07498
files/tasks_parameters/ExAp01/sample23.txt 1.08885 6.52032 2.38087 0.291712 6.56627
files/tasks_parameters/ExAp01/sample13.txt 1.10499 8.73247 2.33415 0.295393 6.64913
files/tasks_parameters/ExAp01/sample22.txt 1.01835 6.9777 2.28948 0.283979 6.39222
files/tasks_parameters/ExAp01/sample25.txt 0.89805 6.23444 2.2122 0.267298 6.01673
files/tasks_parameters/ExAp01/sample36.txt 0.901303 6.6174 1.9458 0.253823 5.71341
files/tasks_parameters/ExAp01/sample46.txt 1.24526 7.42369 2.49128 0.327273 7.36673
files/tasks_parameters/ExAp01/sample31.txt 0.943869 7.22028 2.13584 0.25377 5.71222
files/tasks_parameters/ExAp01/sample37.txt 1.10284 8.90704 2.16981 0.295708 6.65623
files/tasks_parameters/ExAp01/sample16.txt 0.938031 8.18243 1.88294 0.24945 5.61498
files/tasks_parameters/ExAp01/sample10.txt 1.08033 6.96646 2.31217 0.285748 6.43203
files/tasks_parameters/ExAp01/sample39.txt 0.885704 6.4161 1.97266 0.251967 5.67163
files/tasks_parameters/ExAp01/sample19.txt 1.18198 8.16711 2.23199 0.308463 6.94333
files/tasks_parameters/ExAp01/sample20.txt 0.953036 7.28549 1.88944 0.25994 5.8511
files/tasks_parameters/ExAp01/sample43.txt 0.880642 6.86804 2.00142 0.25616 5.76603
files/tasks_parameters/ExAp01/sample32.txt 1.0547 8.15663 2.12995 0.281726 6.34151
files/tasks_parameters/ExAp01/sample45.txt 1.09665 7.75184 2.10599 0.274935 6.18864
files/tasks_parameters/ExAp01/sample26.txt 0.973155 7.4944 1.88956 0.267248 6.01561
files/tasks_parameters/ExAp01/sample5.txt 1.04774 8.08362 2.09961 0.28454 6.40485
files/tasks_parameters/ExAp01/sample21.txt 0.97554 6.11814 2.17119 0.26143 5.88464
files/tasks_parameters/ExAp01/sample38.txt 0.972412 7.761 1.96293 0.263659 5.93482
files/tasks_parameters/ExAp01/sample1.txt 1.06729 7.83752 2.13261 0.289228 6.51037
files/tasks_parameters/ExAp01/sample15.txt 1.0229 7.37971 2.12057 0.285825 6.43378
files/tasks_parameters/ExAp01/sample24.txt 1.04469 8.28531 2.25272 0.296628 6.67695
files/tasks_parameters/ExAp01/sample3.txt 1.20303 7.33359 2.39135 0.305084 6.86729
files/tasks_parameters/ExAp01/sample6.txt 0.978972 7.09894 2.24425 0.281804 6.34326
files/tasks_parameters/ExAp01/sample30.txt 1.22245 8.17669 2.03701 0.299204 6.73493
files/tasks_parameters/ExAp01/sample42.txt 1.04852 7.70416 2.42413 0.29743 6.69499
files/tasks_parameters/ExAp01/sample4.txt 1.16768 7.41691 2.36261 0.307803 6.92847
files/tasks_parameters/ExAp01/sample28.txt 0.993598 7.0562 2.07657 0.266428 5.99715
files/tasks_parameters/ExAp01/sample18.txt 0.951427 7.60139 2.1377 0.268016 6.0329
files/tasks_parameters/ExAp01/sample35.txt 1.20174 9.66795 2.28028 0.32244 7.25794
files/tasks_parameters/ExAp01/sample47.txt 0.931977 6.84842 2.12104 0.251655 5.66461
files/tasks_parameters/ExAp01/sample49.txt 0.931782 7.1497 2.11412 0.255889 5.75992
files/tasks_parameters/ExAp01/sample41.txt 0.956133 6.59911 2.07359 0.265885 5.98493
