0.36141490000000004
Task0 15 3 127 
Task1 255 63 63 
Task2 63 31 127 
Task3 63 1 63 
Task4 127 15 31 
Task5 63 255 15 
Task6 255 31 15 
Task7 15 3 255 
Task8 63 255 127 
Task9 255 15 7 
Task10 7 127 63 
Task11 1 31 63 
Task12 31 31 31 
Task13 1 255 1 
Task14 15 31 127 
Task15 7 63 15 
Task16 255 31 1 
Task17 255 31 7 
Task18 255 127 7 
Task19 255 31 7 
Task20 63 31 31 
Task21 31 255 7 
Task22 127 127 255 
Task23 255 15 63 
Task24 255 15 15 
Task25 127 63 31 
Task26 255 1 7 
Task27 63 127 255 
Task28 15 255 31 
Task29 127 255 255 
Task30 255 7 63 
Task31 127 63 255 
Task32 63 63 15 
Task33 255 127 127 
Task34 127 255 127 
Task35 63 31 63 
Task36 7 31 63 
Task37 255 3 31 
Task38 31 255 31 
Task39 15 255 3 
Task40 15 31 255 
Task41 7 63 31 
Task42 31 255 63 
Task43 31 255 1 
Task44 255 63 31 
Task45 127 15 31 
Task46 15 63 15 
Task47 255 31 7 
Task48 255 15 15 
Task49 63 127 63 
Task50 255 1 15 
Task51 63 255 63 
Task52 63 255 127 
Task53 15 255 15 
Task54 15 255 127 
Task55 1 7 255 
Task56 255 7 3 
Task57 3 255 255 
Task58 15 31 255 
Task59 1 31 255 
Task60 31 63 15 
Task61 15 1 255 
Task62 63 31 31 
Task63 3 255 7 
Task64 63 63 31 
Task65 255 255 255 
Task66 63 31 127 
Task67 127 127 255 
Task68 255 127 3 
Task69 31 127 127 
Task70 63 15 15 
Task71 255 15 255 
Task72 31 3 127 
Task73 63 255 63 
Task74 63 31 255 
Task75 63 127 1 
Task76 63 255 63 
Task77 3 31 255 
Task78 63 255 7 
Task79 255 31 63 
Task80 31 255 31 
Task81 255 127 63 
Task82 31 255 63 
Task83 31 3 63 
Task84 255 63 1 
Task85 31 63 127 
Task86 31 127 127 
Task87 63 1 1 
Task88 255 127 3 
Task89 7 255 3 
Task90 31 15 63 
Task91 127 255 127 
Task92 15 255 1 
Task93 31 127 31 
Task94 31 63 31 
Task95 127 63 15 
Task96 3 1 63 
Task97 63 63 15 
Task98 63 15 15 
Task99 31 255 15 
