files/tasks_parameters/ExAp01/sample8.txt 0.793565 3.15778 1.5595 0.203411 4.49223
files/tasks_parameters/ExAp01/sample12.txt 0.809816 3.94962 1.6705 0.207924 4.5919
files/tasks_parameters/ExAp01/sample2.txt 0.795763 3.78275 1.74131 0.200098 4.41906
files/tasks_parameters/ExAp01/sample44.txt 0.683273 3.59825 1.65317 0.200005 4.41702
files/tasks_parameters/ExAp01/sample27.txt 0.699096 3.45743 1.5148 0.182129 4.02222
files/tasks_parameters/ExAp01/sample17.txt 0.830569 2.77299 1.44514 0.14646 3.23449
files/tasks_parameters/ExAp01/sample9.txt 0.745176 2.99933 1.451 0.177444 3.91875
files/tasks_parameters/ExAp01/sample34.txt 0.831645 3.02928 1.58429 0.157984 3.48899
files/tasks_parameters/ExAp01/sample40.txt 0.765124 3.86889 1.52122 0.168379 3.71858
files/tasks_parameters/ExAp01/sample33.txt 0.801299 3.63695 1.71905 0.199765 4.41171
files/tasks_parameters/ExAp01/sample48.txt 0.682426 3.39061 1.49062 0.154728 3.4171
files/tasks_parameters/ExAp01/sample29.txt 0.763462 3.30472 1.38739 0.223868 4.94402
files/tasks_parameters/ExAp01/sample11.txt 0.707448 3.10585 1.41612 0.174079 3.84444
files/tasks_parameters/ExAp01/sample14.txt 0.666366 2.70971 1.43432 0.162214 3.58243
files/tasks_parameters/ExAp01/sample0.txt 0.745065 3.6937 1.5439 0.18367 4.05626
files/tasks_parameters/ExAp01/sample7.txt 0.799885 2.70501 1.42221 0.143463 3.16832
files/tasks_parameters/ExAp01/sample23.txt 0.759127 3.2697 1.57822 0.181448 4.0072
files/tasks_parameters/ExAp01/sample13.txt 0.729548 3.84225 1.67648 0.198247 4.37819
files/tasks_parameters/ExAp01/sample22.txt 0.814374 3.09569 1.56121 0.148796 3.28609
files/tasks_parameters/ExAp01/sample25.txt 0.727641 2.73966 1.5007 0.148149 3.27179
files/tasks_parameters/ExAp01/sample36.txt 0.757803 2.85948 1.28553 0.130042 2.87192
files/tasks_parameters/ExAp01/sample46.txt 0.761714 3.58643 1.69998 0.210103 4.64002
files/tasks_parameters/ExAp01/sample31.txt 0.707596 3.4832 1.53782 0.1722 3.80295
files/tasks_parameters/ExAp01/sample37.txt 0.765986 3.95293 1.50705 0.171701 3.79193
files/tasks_parameters/ExAp01/sample16.txt 0.616322 3.31216 1.30115 0.150249 3.31818
files/tasks_parameters/ExAp01/sample10.txt 0.978252 3.17098 1.61789 0.153776 3.39608
files/tasks_parameters/ExAp01/sample39.txt 0.6996 3.26617 1.44406 0.165669 3.65871
files/tasks_parameters/ExAp01/sample19.txt 0.773783 3.63532 1.52509 0.196094 4.33065
files/tasks_parameters/ExAp01/sample20.txt 0.662661 3.20793 1.25367 0.147335 3.25383
files/tasks_parameters/ExAp01/sample43.txt 0.646585 3.11551 1.4202 0.150644 3.32691
files/tasks_parameters/ExAp01/sample32.txt 0.722684 3.5311 1.42482 0.168744 3.72663
files/tasks_parameters/ExAp01/sample45.txt 0.748283 3.80283 1.48324 0.19807 4.37429
files/tasks_parameters/ExAp01/sample26.txt 0.654655 3.21645 1.29701 0.166061 3.66738
files/tasks_parameters/ExAp01/sample5.txt 0.660529 3.5889 1.52559 0.178903 3.95099
files/tasks_parameters/ExAp01/sample21.txt 0.660033 2.75242 1.55936 0.19512 4.30914
files/tasks_parameters/ExAp01/sample38.txt 0.676658 3.31563 1.37515 0.166157 3.66949
files/tasks_parameters/ExAp01/sample1.txt 0.723724 3.74964 1.51696 0.19701 4.35086
files/tasks_parameters/ExAp01/sample15.txt 0.692954 3.32916 1.48508 0.180707 3.99084
files/tasks_parameters/ExAp01/sample24.txt 0.843701 3.45951 1.59549 0.16529 3.65036
files/tasks_parameters/ExAp01/sample3.txt 0.915587 3.70014 1.70809 0.237107 5.23639
files/tasks_parameters/ExAp01/sample6.txt 0.706296 3.33003 1.58323 0.184714 4.07933
files/tasks_parameters/ExAp01/sample30.txt 0.898451 4.1841 1.4861 0.239623 5.29196
files/tasks_parameters/ExAp01/sample42.txt 0.747833 3.43221 1.70276 0.177383 3.91741
files/tasks_parameters/ExAp01/sample4.txt 0.78363 3.72477 1.6136 0.196448 4.33846
files/tasks_parameters/ExAp01/sample28.txt 0.689545 3.11323 1.45032 0.158819 3.50744
files/tasks_parameters/ExAp01/sample18.txt 0.764248 3.47418 1.45209 0.149064 3.292
files/tasks_parameters/ExAp01/sample35.txt 0.803265 4.57086 1.49394 0.185031 4.08631
files/tasks_parameters/ExAp01/sample47.txt 0.694191 3.13768 1.52397 0.16417 3.62562
files/tasks_parameters/ExAp01/sample49.txt 0.776571 3.13288 1.49657 0.156154 3.44859
files/tasks_parameters/ExAp01/sample41.txt 0.763343 2.81964 1.49636 0.150876 3.33202
