files/tasks_parameters/ExAp01/sample8.txt 0.730454 3.15778 1.5595 0.203411 5.74239
files/tasks_parameters/ExAp01/sample12.txt 0.84037 3.94962 1.6705 0.207924 5.86978
files/tasks_parameters/ExAp01/sample2.txt 0.818131 3.78275 1.74131 0.200098 5.64885
files/tasks_parameters/ExAp01/sample44.txt 0.735177 3.59825 1.65317 0.200005 5.64623
files/tasks_parameters/ExAp01/sample27.txt 0.733619 3.45743 1.5148 0.182129 5.14157
files/tasks_parameters/ExAp01/sample17.txt 0.925109 2.77299 1.44514 0.14646 4.13463
files/tasks_parameters/ExAp01/sample9.txt 0.744816 2.99933 1.451 0.177444 5.00931
files/tasks_parameters/ExAp01/sample34.txt 0.831645 3.02928 1.58429 0.157984 4.45995
files/tasks_parameters/ExAp01/sample40.txt 0.766507 3.86889 1.52122 0.168379 4.75343
files/tasks_parameters/ExAp01/sample33.txt 0.806883 3.63695 1.71905 0.199765 5.63945
files/tasks_parameters/ExAp01/sample48.txt 0.693035 3.39061 1.49062 0.154728 4.36805
files/tasks_parameters/ExAp01/sample29.txt 0.802314 3.30472 1.38739 0.223868 6.3199
files/tasks_parameters/ExAp01/sample11.txt 0.715991 3.10585 1.41612 0.174079 4.91432
files/tasks_parameters/ExAp01/sample14.txt 0.664735 2.70971 1.43432 0.162214 4.57939
files/tasks_parameters/ExAp01/sample0.txt 0.777118 3.6937 1.5439 0.18367 5.18508
files/tasks_parameters/ExAp01/sample7.txt 0.809856 2.70501 1.42221 0.143463 4.05004
files/tasks_parameters/ExAp01/sample23.txt 0.773226 3.2697 1.57822 0.181448 5.12237
files/tasks_parameters/ExAp01/sample13.txt 0.78455 3.84225 1.67648 0.198247 5.5966
files/tasks_parameters/ExAp01/sample22.txt 0.901802 3.09569 1.56121 0.148796 4.20058
files/tasks_parameters/ExAp01/sample25.txt 0.746637 2.73966 1.5007 0.148149 4.1823
files/tasks_parameters/ExAp01/sample36.txt 0.852112 2.85948 1.28553 0.130042 3.67115
files/tasks_parameters/ExAp01/sample46.txt 0.783772 3.58643 1.69998 0.210103 5.9313
files/tasks_parameters/ExAp01/sample31.txt 0.715715 3.4832 1.53782 0.1722 4.86128
files/tasks_parameters/ExAp01/sample37.txt 0.777658 3.95293 1.50705 0.171701 4.8472
files/tasks_parameters/ExAp01/sample16.txt 0.640421 3.31216 1.30115 0.150249 4.2416
files/tasks_parameters/ExAp01/sample10.txt 1.13118 3.17098 1.61789 0.153776 4.34118
files/tasks_parameters/ExAp01/sample39.txt 0.691704 3.26617 1.44406 0.165669 4.6769
files/tasks_parameters/ExAp01/sample19.txt 0.760565 3.63532 1.52509 0.196094 5.53583
files/tasks_parameters/ExAp01/sample20.txt 0.665253 3.20793 1.25367 0.147335 4.15934
files/tasks_parameters/ExAp01/sample43.txt 0.653014 3.11551 1.4202 0.150644 4.25276
files/tasks_parameters/ExAp01/sample32.txt 0.760557 3.5311 1.42482 0.168744 4.76373
files/tasks_parameters/ExAp01/sample45.txt 0.758472 3.80283 1.48324 0.19807 5.59162
files/tasks_parameters/ExAp01/sample26.txt 0.660662 3.21645 1.29701 0.166061 4.68798
files/tasks_parameters/ExAp01/sample5.txt 0.67416 3.5889 1.52559 0.178903 5.05052
files/tasks_parameters/ExAp01/sample21.txt 0.726844 2.75242 1.55936 0.19512 5.50833
files/tasks_parameters/ExAp01/sample38.txt 0.675953 3.31563 1.37515 0.166157 4.69068
files/tasks_parameters/ExAp01/sample1.txt 0.732396 3.74964 1.51696 0.19701 5.56167
files/tasks_parameters/ExAp01/sample15.txt 0.716877 3.32916 1.48508 0.180707 5.10145
files/tasks_parameters/ExAp01/sample24.txt 0.861271 3.45951 1.59549 0.16529 4.66622
files/tasks_parameters/ExAp01/sample3.txt 0.889148 3.70014 1.70809 0.237107 6.69364
files/tasks_parameters/ExAp01/sample6.txt 0.749479 3.33003 1.58323 0.184714 5.21457
files/tasks_parameters/ExAp01/sample30.txt 0.915931 4.1841 1.4861 0.239623 6.76467
files/tasks_parameters/ExAp01/sample42.txt 0.758903 3.43221 1.70276 0.177383 5.0076
files/tasks_parameters/ExAp01/sample4.txt 0.815908 3.72477 1.6136 0.196448 5.54582
files/tasks_parameters/ExAp01/sample28.txt 0.70606 3.11323 1.45032 0.158819 4.48353
files/tasks_parameters/ExAp01/sample18.txt 0.774515 3.47418 1.45209 0.149064 4.20814
files/tasks_parameters/ExAp01/sample35.txt 0.838463 4.57086 1.49394 0.185031 5.2235
files/tasks_parameters/ExAp01/sample47.txt 0.723256 3.13768 1.52397 0.16417 4.6346
files/tasks_parameters/ExAp01/sample49.txt 0.783797 3.13288 1.49657 0.156154 4.4083
files/tasks_parameters/ExAp01/sample41.txt 0.766567 2.81964 1.49636 0.150876 4.25929
