0 19
0 20
0 23
1 16
2 21
3 17
3 18
3 23
4 17
4 22
4 23
5 15
5 19
5 21
6 16
6 18
6 20
6 21
7 15
7 17
7 18
7 21
7 23
8 17
8 17
8 18
8 22
8 23
9 15
9 17
9 18
9 19
9 20
9 21
9 22
10 18
10 22
10 23
11 21
13 15
13 19
13 20
14 18
14 23
15 24
15 25
15 26
15 27
15 32
15 33
15 35
16 24
16 27
16 29
16 31
16 34
17 25
17 34
17 35
17 36
18 24
18 25
18 26
18 32
18 33
18 34
18 38
19 25
19 26
19 31
19 32
19 35
20 33
20 35
20 38
21 24
21 30
21 32
21 33
21 35
21 37
22 24
22 30
23 26
23 28
23 33
23 34
23 36
23 38
24 41
24 44
24 48
25 40
25 41
25 42
25 50
26 40
26 42
26 50
26 50
27 40
27 41
27 44
27 45
27 50
28 40
28 44
28 45
28 45
29 39
29 40
29 44
30 39
30 40
30 44
30 47
31 39
31 40
32 41
32 42
32 44
32 50
33 43
33 45
33 50
34 43
34 45
34 46
34 48
34 49
35 43
35 50
36 41
36 42
36 43
36 44
36 47
37 42
37 44
38 39
38 43
38 50
39 51
39 52
39 53
39 54
39 57
39 59
40 57
41 51
41 53
41 54
42 52
42 53
42 54
42 55
42 58
42 59
43 51
43 57
44 53
44 58
45 58
46 51
46 52
46 54
46 55
46 58
46 60
47 51
47 52
47 53
47 55
48 52
48 55
48 58
49 52
49 55
49 60
50 55
50 56
50 57
50 58
50 60
51 63
51 65
51 66
51 69
51 72
51 76
51 77
52 66
52 68
52 71
53 65
53 67
53 68
53 70
53 71
54 70
54 71
54 74
54 75
55 68
55 71
55 75
55 77
56 62
56 73
56 75
57 65
57 67
57 68
57 69
57 71
57 75
57 76
58 61
58 66
58 67
58 75
58 76
59 64
59 66
59 67
59 70
59 77
60 61
60 64
60 65
60 70
60 76
61 79
61 81
61 82
61 85
61 87
62 80
62 85
62 87
63 80
63 81
63 82
63 83
63 85
64 83
64 85
65 81
65 85
66 79
66 85
66 86
67 81
68 78
69 78
69 81
69 86
70 78
70 80
70 82
71 79
71 81
71 88
72 78
72 80
72 81
73 78
73 80
73 81
73 85
74 78
74 80
74 84
74 85
74 87
74 88
75 80
75 80
75 87
76 78
76 80
77 79
77 84
77 87
78 93
78 94
78 95
78 97
79 89
79 92
79 93
79 95
79 96
80 89
80 90
80 94
80 97
81 96
82 89
82 93
82 94
83 90
83 94
83 97
84 92
85 90
85 92
85 93
86 90
86 91
86 92
86 93
86 95
87 90
87 92
87 94
88 89
89 98
89 103
89 106
89 107
89 109
89 112
90 98
90 100
90 103
90 107
91 99
91 103
91 104
91 107
91 110
91 111
92 99
92 100
92 107
92 108
92 111
92 111
92 112
93 107
93 110
94 98
94 100
94 101
94 102
94 109
95 99
95 102
95 109
95 111
96 104
96 105
96 106
96 112
97 109
97 110
97 112
98 114
98 119
98 121
98 124
98 127
99 115
99 118
99 119
99 123
99 124
99 125
99 127
100 115
100 116
100 118
100 124
100 126
101 117
101 119
101 122
101 125
101 128
102 114
102 119
102 126
102 128
103 121
103 122
103 128
103 128
104 122
104 127
104 128
104 129
105 116
105 121
105 127
106 113
106 114
106 116
106 119
106 122
106 123
106 124
106 127
106 129
107 122
107 127
107 128
107 129
108 113
108 114
108 115
108 117
108 120
108 127
108 128
109 113
109 115
109 119
109 121
109 123
109 124
110 117
110 118
110 119
110 121
110 126
110 128
111 116
111 121
111 122
111 127
112 119
112 121
112 123
112 126
113 131
113 138
113 140
113 142
113 143
113 144
114 130
114 133
114 136
115 130
115 131
115 135
115 140
116 130
116 137
116 139
116 140
116 141
116 144
116 145
117 131
117 133
117 134
117 137
117 140
117 142
117 143
118 132
118 135
118 143
118 144
118 145
119 131
119 135
119 137
120 130
120 136
120 142
120 144
120 145
121 130
121 133
121 136
121 138
121 144
122 130
122 131
122 133
123 136
123 137
123 138
123 144
124 130
124 131
124 133
124 144
125 130
125 133
125 133
125 136
125 142
125 143
125 145
126 132
126 133
126 136
126 137
126 138
126 142
126 143
127 132
127 133
127 136
127 137
127 138
127 140
127 141
127 142
127 143
128 130
128 132
128 135
128 138
128 140
128 142
128 143
129 135
129 136
129 143
129 144
129 145
130 149
135 146
135 149
139 148
139 149
140 148
140 149
141 149
142 146
142 147
142 148
143 146
143 147
143 148
144 147
144 148
145 147
