0 17
0 19
0 21
0 23
0 27
1 16
1 17
1 25
1 27
2 16
2 19
2 20
2 27
3 16
3 19
3 26
4 16
4 20
5 17
5 26
6 17
6 18
7 16
7 21
7 25
7 26
8 16
8 20
9 16
9 25
9 26
9 27
10 18
10 19
10 20
10 26
11 20
11 25
11 26
11 26
12 20
12 25
13 25
13 27
14 17
14 18
14 20
14 22
15 17
15 20
15 24
15 26
16 34
16 35
16 36
17 32
17 34
17 35
17 37
18 32
19 28
19 31
19 33
19 36
19 37
20 28
20 29
20 33
22 28
22 32
22 33
22 34
22 38
23 29
23 39
24 37
24 38
25 30
25 31
25 32
25 37
26 28
26 29
26 31
26 32
27 29
27 31
27 32
27 33
27 34
28 40
28 43
28 47
28 52
29 40
29 47
29 52
30 40
30 50
30 53
30 54
31 40
31 42
31 45
31 46
31 49
31 51
31 53
32 50
33 44
33 45
33 48
33 49
33 52
33 53
34 40
34 50
34 52
35 41
35 47
35 52
35 53
35 54
36 43
36 48
36 54
37 43
37 48
37 49
37 53
38 43
38 45
38 52
38 54
39 43
39 47
40 58
40 59
40 61
40 67
40 68
40 71
41 59
41 63
42 56
42 63
42 64
42 65
42 67
43 56
43 57
43 63
43 64
43 71
44 55
44 57
44 59
44 60
44 63
44 67
44 69
44 71
45 64
45 67
46 57
46 60
46 70
46 71
47 60
47 62
47 69
48 64
48 65
48 69
48 71
49 57
49 61
49 64
49 66
49 70
49 71
50 57
50 61
50 63
50 64
50 66
50 67
51 59
51 60
51 61
51 66
51 66
51 67
51 69
52 56
52 60
52 61
52 66
53 55
53 57
53 58
53 60
53 63
53 69
54 55
54 60
54 65
54 66
54 67
55 73
55 75
55 80
55 81
55 83
55 84
55 85
55 87
56 72
56 73
56 76
56 80
56 83
57 73
57 73
57 76
57 79
57 86
58 73
58 74
58 75
58 76
59 72
59 73
59 74
59 75
59 76
59 77
59 80
59 81
59 82
60 75
60 76
60 79
60 80
60 81
60 83
60 84
61 77
61 81
61 83
61 86
62 73
62 88
63 76
63 77
63 81
63 86
63 88
64 75
64 76
64 85
64 86
65 84
65 86
65 88
66 73
66 78
66 80
66 87
67 74
67 75
67 76
67 77
67 81
68 77
68 81
68 85
69 74
69 75
69 81
69 83
69 84
69 85
70 75
70 76
70 77
70 84
70 84
71 75
72 90
72 99
72 100
72 101
72 102
72 105
73 92
73 98
73 100
73 101
73 102
73 105
74 90
74 91
74 92
74 93
74 99
74 100
74 103
75 93
75 98
75 100
76 89
76 92
76 93
76 97
76 98
76 100
76 102
77 89
77 90
77 93
78 89
78 91
78 93
78 97
78 98
78 101
78 102
79 97
79 102
80 93
80 96
80 98
80 99
81 93
81 99
81 104
81 105
82 89
82 93
82 94
82 98
82 99
83 89
83 90
83 91
83 95
83 97
83 98
83 99
83 102
84 92
84 102
84 105
85 94
85 95
85 97
85 99
85 103
86 95
86 105
87 89
87 92
87 96
87 98
87 105
88 89
88 90
88 92
88 94
88 95
88 98
88 100
88 101
88 105
89 111
89 113
89 115
89 119
89 119
90 109
90 114
90 115
90 116
90 118
90 119
90 121
91 108
91 112
91 118
92 121
93 106
93 108
93 110
93 111
93 112
93 114
93 119
94 108
94 109
94 110
94 113
94 115
94 117
94 119
95 106
95 107
95 109
95 110
95 116
96 111
96 116
96 117
97 107
97 109
97 112
97 115
97 117
98 106
98 107
98 108
98 115
98 116
98 121
99 107
99 110
99 112
99 114
99 115
99 118
99 119
100 110
100 116
100 117
100 118
100 119
100 121
101 106
101 107
101 109
101 113
101 114
102 106
102 107
102 116
102 117
103 113
103 115
103 116
103 117
104 106
104 107
104 108
104 110
104 111
104 113
104 115
104 116
104 117
104 119
104 120
105 106
105 108
105 110
105 117
105 119
106 126
109 125
110 124
111 122
111 124
111 125
111 127
112 124
112 126
112 127
112 127
113 127
114 123
114 124
114 125
114 126
114 127
115 124
115 125
116 125
116 126
117 122
117 124
117 125
117 126
117 127
118 124
119 127
120 122
120 127
121 122
122 128
122 132
122 139
123 133
123 136
123 141
123 142
124 129
124 132
124 134
124 136
124 137
124 141
125 128
125 130
125 134
125 142
126 130
126 131
126 132
126 133
126 137
126 138
126 140
127 128
127 133
127 135
127 136
127 137
127 138
127 142
128 148
129 144
129 145
129 146
129 149
130 145
130 149
131 146
132 146
132 147
133 145
133 146
133 147
133 149
134 145
134 148
135 143
135 144
135 145
135 146
135 147
135 148
136 143
136 144
136 149
137 145
137 148
138 149
139 143
139 146
140 144
140 145
141 149
142 146
142 148
142 149
