0 6
0 7
0 11
1 6
1 8
1 9
1 10
1 11
1 12
2 9
2 10
2 11
2 12
3 8
5 8
6 13
6 14
6 17
7 13
7 15
7 19
7 21
7 23
7 27
8 16
8 19
8 24
8 26
9 16
9 18
9 20
9 24
10 14
10 16
10 22
10 24
10 25
11 13
11 22
11 23
11 26
11 27
12 14
12 17
12 18
12 19
12 21
12 22
12 25
12 26
13 30
13 31
13 34
13 40
13 41
14 31
14 32
14 34
15 31
15 36
16 29
16 31
16 36
17 31
17 33
18 28
18 31
18 33
19 35
19 41
20 29
20 36
20 39
20 41
21 31
21 33
22 36
22 38
22 39
23 33
23 36
23 37
23 38
23 39
23 41
24 29
24 30
24 33
24 34
25 32
25 38
25 40
25 41
26 29
26 33
26 36
26 38
26 41
27 29
27 32
27 41
28 43
28 44
28 48
28 51
29 45
29 50
29 51
30 43
30 44
30 50
30 51
31 44
31 46
32 43
32 45
32 46
32 49
33 43
33 44
33 45
33 50
33 51
34 45
34 50
34 51
35 43
35 46
35 49
36 42
36 44
36 45
36 48
37 48
37 50
38 44
38 46
38 47
38 48
38 49
38 50
39 44
39 46
39 50
39 51
41 43
41 45
41 49
41 51
42 53
43 55
43 57
43 58
44 54
44 55
44 58
45 53
45 56
45 58
46 52
47 52
47 55
47 56
47 57
48 52
48 57
48 58
49 53
49 57
50 52
50 54
50 57
51 53
52 61
52 62
53 63
53 65
53 66
54 59
54 62
54 63
54 67
55 59
55 60
55 61
55 62
55 63
56 59
56 61
56 62
56 67
57 59
57 64
57 65
57 67
58 60
58 65
58 66
59 69
59 77
59 78
59 80
60 69
60 70
60 71
60 72
60 73
60 79
60 80
61 70
61 73
61 74
61 80
62 70
62 72
62 74
62 75
62 77
63 70
63 71
63 80
64 70
64 73
64 77
64 78
65 68
65 71
65 77
65 79
66 68
66 69
66 74
66 76
66 79
67 68
67 75
67 80
68 82
68 85
69 82
69 85
69 90
69 91
69 94
69 96
70 81
70 91
70 92
70 94
71 81
71 88
71 89
71 90
71 92
71 95
72 83
72 87
72 92
72 94
72 97
73 83
73 87
73 89
73 97
74 83
74 84
74 87
74 92
75 81
75 96
76 81
76 82
76 83
76 85
76 87
76 96
77 81
77 83
77 84
77 86
77 88
77 90
77 96
77 97
78 81
78 83
78 87
78 90
78 91
78 93
78 94
79 82
79 83
79 85
79 87
79 89
80 82
80 84
80 94
81 99
81 105
81 108
81 109
82 99
82 101
83 101
83 109
84 105
84 106
85 106
85 108
85 109
86 98
86 100
86 104
86 106
86 108
87 102
87 106
87 109
88 101
88 102
88 106
88 108
89 100
89 101
89 109
90 106
90 109
91 99
91 102
91 107
92 101
93 98
93 101
93 102
93 104
93 108
94 101
94 102
94 106
95 106
96 101
96 102
96 103
96 109
97 108
98 110
98 111
98 113
98 118
98 120
98 121
99 110
99 111
99 120
99 121
99 123
100 110
100 112
100 115
100 116
100 122
100 123
101 115
101 116
101 117
101 119
101 121
101 122
102 111
102 113
102 115
102 117
103 112
103 114
103 119
103 121
104 114
104 114
104 118
104 119
104 122
104 123
105 118
105 122
106 110
106 112
106 115
106 122
107 112
107 115
107 123
108 110
108 117
108 122
108 123
109 110
109 115
109 117
109 118
109 120
110 129
110 131
110 136
110 137
111 125
111 126
111 129
111 131
111 132
111 136
112 132
112 133
112 136
112 137
113 124
113 127
113 130
113 132
113 133
113 134
113 136
114 124
114 127
114 128
114 129
114 133
114 134
114 137
115 126
115 128
115 128
115 130
115 133
115 137
116 127
116 129
116 131
116 133
116 136
116 137
117 125
117 137
118 129
119 125
119 128
119 131
119 137
120 124
120 128
120 130
120 131
120 135
120 136
121 124
121 130
121 131
121 131
121 134
122 124
122 129
122 130
122 132
123 124
123 133
124 138
124 139
124 142
124 143
125 139
125 145
126 138
126 144
127 138
127 141
127 145
128 138
128 145
129 138
129 141
129 145
130 140
131 139
131 143
132 139
132 140
132 141
132 144
132 145
133 140
133 144
134 142
134 143
134 145
135 144
135 145
136 138
136 139
136 144
137 138
137 139
137 141
138 146
138 148
138 149
140 147
142 146
142 149
143 147
143 148
144 146
145 147
145 148
