0 10
0 16
1 8
1 9
1 12
2 10
2 12
2 12
2 15
3 11
3 12
3 14
3 17
4 8
4 13
5 11
5 13
6 8
6 10
6 11
6 14
6 16
7 8
7 10
7 11
7 17
8 19
8 21
8 23
8 24
8 27
9 20
9 22
10 18
10 19
10 22
10 25
10 26
11 18
11 19
11 25
11 26
11 27
11 28
12 18
12 23
12 24
12 27
13 18
13 21
14 18
14 23
14 24
14 25
14 26
15 24
15 27
16 19
16 27
16 28
17 20
17 22
17 24
18 30
18 32
18 33
18 38
18 40
18 40
18 41
18 44
19 30
19 34
19 35
19 36
19 39
19 40
19 41
19 44
20 30
21 34
21 38
22 29
22 31
22 34
22 41
22 44
23 35
23 37
23 42
23 43
24 38
24 39
24 41
24 44
25 34
25 37
25 38
25 40
26 32
26 33
26 35
26 38
26 42
27 30
27 32
27 37
27 38
27 39
27 40
27 42
27 44
28 30
28 35
28 37
28 39
28 39
28 40
28 41
28 42
28 44
29 56
29 57
29 58
29 60
30 56
30 58
30 59
30 61
31 46
31 48
31 51
31 52
32 48
32 51
32 59
33 45
33 46
33 48
33 49
33 51
33 54
33 59
33 60
34 50
34 51
34 54
34 56
34 58
34 60
35 45
35 48
35 49
35 50
35 53
35 54
35 55
35 56
35 57
35 58
35 61
36 46
36 47
36 50
36 51
36 54
36 55
36 59
37 45
37 47
37 49
37 50
37 51
37 52
37 56
37 58
37 61
38 45
38 49
38 49
38 50
38 51
38 56
38 58
38 58
39 49
39 51
39 52
39 53
39 56
39 58
40 47
40 48
40 49
40 50
40 54
40 57
40 60
41 46
41 53
41 54
41 55
41 57
41 59
42 54
42 61
43 45
43 50
43 54
43 59
44 45
44 47
44 50
44 52
44 55
45 74
46 63
46 68
47 62
47 66
47 73
47 75
48 67
48 68
48 69
48 70
48 71
49 64
49 71
50 63
50 65
50 69
50 70
51 67
52 65
52 67
53 64
53 66
53 67
53 73
54 67
54 68
54 70
54 72
55 63
56 62
56 66
57 64
57 66
57 68
57 70
58 64
58 69
58 70
58 73
59 63
59 64
59 71
59 74
60 63
60 69
61 63
61 69
61 71
62 82
62 86
63 77
63 78
64 76
64 77
64 87
64 90
65 77
65 83
65 87
65 89
66 87
67 76
67 78
67 86
67 87
67 88
68 77
68 89
69 77
69 78
69 81
69 83
69 89
70 77
70 83
70 86
70 88
70 89
71 79
71 88
71 89
71 90
72 79
72 80
72 82
72 83
72 84
72 85
72 86
72 88
73 76
73 78
73 83
73 85
73 88
74 81
74 82
74 87
74 88
74 88
74 89
74 90
75 78
75 82
75 85
75 86
75 87
75 89
75 90
76 91
76 99
76 100
76 104
77 91
77 98
77 99
77 102
77 103
78 91
78 93
78 100
78 101
78 102
79 92
79 101
79 104
80 91
80 97
80 100
80 102
80 104
81 92
81 95
81 97
81 99
81 104
82 91
82 95
82 96
82 102
82 103
83 92
83 99
83 100
83 103
84 92
84 94
84 97
85 91
85 92
85 99
85 104
86 91
86 92
86 95
86 104
87 99
87 100
87 102
88 95
88 96
88 97
88 102
89 96
89 97
89 99
90 91
90 93
90 95
90 96
90 100
90 101
90 104
91 105
91 107
91 111
92 106
92 108
92 112
92 113
93 106
93 109
94 106
94 109
94 111
94 113
94 114
95 106
96 108
96 115
97 110
97 111
97 112
97 115
98 109
98 113
98 115
98 115
99 108
99 109
99 111
99 113
99 114
100 108
101 108
101 111
101 113
101 115
102 105
102 107
102 111
102 113
102 114
103 108
103 109
103 111
103 115
104 107
104 115
105 116
105 117
105 118
105 119
105 121
106 117
106 118
106 119
106 122
106 125
106 126
107 117
107 119
107 122
108 123
108 124
109 116
109 118
109 120
109 124
110 116
110 117
110 119
110 122
111 119
111 124
113 120
113 121
114 116
114 118
114 121
115 116
115 117
115 121
115 123
115 124
116 130
116 136
116 139
117 130
117 132
118 134
118 135
118 136
118 138
119 128
119 130
119 133
120 129
120 136
121 128
121 129
121 132
121 133
121 135
121 137
121 140
122 128
122 129
122 130
122 131
122 137
123 129
123 133
123 134
123 137
124 127
124 128
124 129
124 132
124 134
124 138
125 132
125 133
125 134
125 136
125 138
126 132
126 133
126 134
126 136
126 138
127 145
127 146
127 147
127 148
128 143
128 145
128 146
128 147
128 149
129 144
129 146
129 147
129 148
129 149
130 148
131 142
131 145
131 149
132 142
132 145
132 147
132 148
133 143
135 142
135 143
135 147
135 148
136 142
136 143
136 145
136 146
136 147
137 142
137 143
137 146
137 148
138 141
138 142
138 149
139 141
139 142
139 147
139 148
140 144
140 146
