0.39649407999999997
Task0 31 63 63 
Task1 127 31 7 
Task2 31 31 63 
Task3 255 31 3 
Task4 7 63 15 
Task5 63 31 31 
Task6 31 3 1 
Task7 31 7 1 
Task8 31 63 31 
Task9 63 7 7 
Task10 63 31 7 
Task11 7 63 7 
Task12 15 3 63 
Task13 3 1 31 
Task14 3 63 31 
Task15 31 31 15 
Task16 7 15 63 
Task17 31 15 15 
Task18 63 63 63 
Task19 7 3 63 
Task20 255 255 127 
Task21 7 63 7 
Task22 255 127 3 
Task23 31 63 7 
Task24 31 255 7 
Task25 63 63 7 
Task26 127 63 31 
Task27 63 1 255 
Task28 31 63 31 
Task29 63 127 255 
Task30 7 31 31 
Task31 63 7 7 
Task32 63 3 15 
Task33 7 31 63 
Task34 63 63 7 
Task35 15 31 7 
Task36 1 63 7 
Task37 255 127 127 
Task38 15 15 31 
Task39 31 31 15 
Task40 31 63 63 
Task41 255 7 15 
Task42 127 127 127 
Task43 63 1 31 
Task44 63 31 127 
Task45 255 127 15 
Task46 31 3 63 
Task47 7 63 15 
Task48 1 1 63 
Task49 7 31 63 
Task50 63 3 1 
Task51 7 3 31 
Task52 15 255 63 
Task53 7 63 7 
Task54 63 1 7 
Task55 31 31 63 
Task56 31 63 63 
Task57 7 31 1 
Task58 127 15 63 
Task59 15 63 1 
Task60 15 7 31 
Task61 63 7 15 
Task62 63 31 15 
Task63 15 1 31 
Task64 3 7 63 
Task65 31 63 3 
Task66 31 31 7 
Task67 1 15 63 
Task68 1 31 31 
Task69 63 15 7 
Task70 3 31 3 
Task71 255 127 255 
Task72 63 127 31 
Task73 15 63 15 
Task74 127 15 255 
Task75 63 7 3 
Task76 127 3 31 
Task77 3 63 31 
Task78 15 7 31 
Task79 3 63 1 
Task80 1 31 15 
Task81 63 7 15 
Task82 7 3 31 
Task83 15 63 1 
Task84 63 63 31 
Task85 63 127 63 
Task86 1 3 31 
Task87 255 255 255 
Task88 15 15 63 
Task89 127 63 63 
Task90 63 3 31 
Task91 255 63 31 
Task92 3 63 3 
Task93 7 63 7 
Task94 127 63 255 
Task95 63 3 7 
Task96 63 255 7 
Task97 31 127 255 
Task98 63 31 7 
Task99 63 15 3 
