0.390240576
Task0 127 15 7 
Task1 255 255 255 
Task2 15 255 7 
Task3 31 255 255 
Task4 255 31 31 
Task5 63 15 15 
Task6 63 63 7 
Task7 15 63 15 
Task8 127 31 127 
Task9 255 15 255 
Task10 7 255 15 
Task11 7 63 63 
Task12 31 1 255 
Task13 255 63 31 
Task14 3 255 1 
Task15 7 255 1 
Task16 63 255 127 
Task17 7 31 127 
Task18 3 3 255 
Task19 63 31 255 
Task20 255 15 255 
Task21 31 127 7 
Task22 1 255 63 
Task23 255 127 255 
Task24 255 7 31 
Task25 63 255 1 
Task26 7 63 255 
Task27 63 255 63 
Task28 31 255 31 
Task29 63 127 127 
Task30 63 255 63 
Task31 1 255 15 
Task32 127 255 31 
Task33 1 255 31 
Task34 255 15 15 
Task35 1 255 15 
Task36 255 31 1 
Task37 127 7 127 
Task38 63 1 7 
Task39 15 255 31 
Task40 127 255 255 
Task41 127 127 255 
Task42 127 31 63 
Task43 127 3 63 
Task44 15 127 15 
Task45 255 3 7 
Task46 15 255 255 
Task47 63 127 3 
Task48 63 255 255 
Task49 63 255 15 
Task50 31 255 255 
Task51 31 31 127 
Task52 63 15 63 
Task53 255 7 63 
Task54 127 127 255 
Task55 255 1 7 
Task56 1 31 63 
Task57 1 255 15 
Task58 7 255 1 
Task59 15 255 63 
Task60 7 1 255 
Task61 63 63 255 
Task62 63 255 31 
Task63 127 15 63 
Task64 3 255 63 
Task65 255 63 63 
Task66 255 7 15 
Task67 255 255 255 
Task68 127 63 255 
Task69 63 63 3 
Task70 7 7 255 
Task71 7 127 255 
Task72 63 255 127 
Task73 63 3 255 
Task74 1 255 15 
Task75 255 1 31 
Task76 7 127 7 
Task77 31 7 255 
Task78 15 255 255 
Task79 255 31 255 
Task80 255 127 127 
Task81 255 31 31 
Task82 255 15 31 
Task83 63 7 127 
Task84 15 255 15 
Task85 127 15 127 
Task86 3 7 127 
Task87 7 127 63 
Task88 1 63 63 
Task89 255 15 255 
Task90 255 1 15 
Task91 127 7 31 
Task92 255 3 255 
Task93 63 127 255 
Task94 3 1 255 
Task95 31 127 7 
Task96 15 15 127 
Task97 63 255 127 
Task98 15 255 31 
Task99 255 7 63 
