digraph G {
0 ->83 0 ->90 0 ->92 0 ->95 1 ->92 1 ->94 1 ->96 2 ->83 2 ->89 2 ->90 2 ->94 3 ->86 3 ->88 3 ->90 3 ->92 3 ->94 3 ->96 4 ->86 4 ->88 4 ->89 4 ->90 4 ->94 4 ->98 5 ->86 5 ->88 5 ->89 5 ->94 5 ->94 6 ->83 6 ->86 6 ->87 6 ->88 6 ->94 7 ->83 7 ->87 7 ->88 7 ->88 7 ->93 7 ->94 8 ->83 8 ->86 8 ->90 8 ->93 8 ->94 9 ->86 9 ->90 9 ->93 9 ->94 9 ->96 10 ->88 10 ->89 10 ->93 10 ->99 11 ->88 11 ->89 11 ->93 12 ->87 12 ->88 12 ->89 12 ->94 12 ->95 13 ->86 13 ->90 13 ->91 14 ->89 14 ->94 16 ->83 16 ->88 16 ->94 16 ->96 17 ->83 17 ->87 17 ->89 17 ->96 17 ->98 18 ->83 18 ->87 18 ->93 18 ->96 19 ->83 19 ->87 20 ->86 20 ->88 20 ->89 20 ->92 21 ->86 21 ->87 21 ->89 21 ->95 21 ->96 22 ->83 22 ->90 22 ->93 22 ->94 23 ->83 23 ->86 23 ->87 23 ->94 24 ->93 25 ->85 25 ->92 25 ->93 25 ->94 25 ->96 25 ->98 26 ->83 27 ->89 27 ->91 27 ->92 27 ->93 27 ->94 27 ->97 28 ->97 28 ->98 29 ->85 29 ->86 29 ->88 29 ->89 29 ->90 29 ->91 29 ->93 30 ->83 30 ->86 30 ->89 30 ->91 31 ->83 31 ->87 31 ->90 31 ->92 31 ->93 31 ->99 32 ->83 32 ->86 32 ->93 32 ->94 32 ->97 33 ->86 33 ->87 33 ->90 33 ->96 33 ->97 34 ->84 34 ->87 34 ->88 34 ->89 34 ->90 34 ->94 34 ->95 34 ->98 35 ->85 35 ->89 36 ->86 36 ->88 36 ->89 36 ->92 36 ->96 37 ->86 37 ->87 38 ->86 38 ->87 38 ->94 38 ->98 39 ->85 39 ->86 39 ->89 39 ->90 39 ->94 39 ->95 39 ->97 39 ->98 40 ->89 40 ->90 40 ->92 40 ->94 41 ->85 41 ->90 41 ->92 42 ->87 42 ->89 42 ->91 42 ->92 43 ->92 43 ->94 44 ->88 45 ->88 45 ->89 45 ->90 45 ->94 45 ->97 46 ->88 46 ->89 46 ->90 46 ->98 47 ->83 47 ->89 48 ->83 48 ->84 48 ->86 48 ->89 48 ->92 48 ->94 49 ->85 49 ->88 49 ->89 49 ->95 50 ->83 50 ->88 50 ->89 50 ->90 50 ->91 51 ->83 51 ->87 51 ->89 51 ->94 52 ->89 52 ->90 52 ->91 52 ->94 52 ->96 53 ->94 53 ->97 54 ->83 54 ->87 54 ->94 55 ->91 55 ->93 55 ->94 56 ->90 56 ->91 56 ->94 57 ->85 57 ->87 57 ->88 57 ->92 57 ->97 58 ->91 58 ->95 59 ->87 60 ->88 60 ->95 60 ->96 61 ->86 61 ->88 61 ->92 61 ->93 62 ->83 62 ->86 62 ->89 62 ->90 62 ->93 63 ->83 63 ->86 63 ->89 64 ->86 64 ->89 64 ->93 65 ->87 65 ->88 65 ->89 65 ->90 66 ->87 66 ->88 66 ->89 66 ->92 66 ->98 67 ->87 67 ->88 67 ->90 67 ->92 67 ->93 68 ->88 68 ->88 68 ->90 68 ->92 68 ->94 69 ->86 69 ->88 69 ->89 69 ->92 69 ->93 69 ->94 70 ->83 70 ->84 70 ->86 70 ->89 70 ->90 70 ->94 71 ->84 71 ->88 71 ->89 71 ->89 71 ->93 71 ->94 72 ->89 72 ->94 72 ->96 72 ->98 73 ->83 73 ->86 73 ->87 73 ->89 73 ->90 73 ->91 73 ->94 73 ->95 73 ->98 74 ->86 74 ->88 74 ->90 74 ->93 75 ->88 75 ->94 76 ->89 76 ->94 77 ->83 77 ->85 77 ->94 78 ->86 78 ->88 79 ->86 79 ->91 80 ->89 80 ->99 81 ->88 81 ->90 81 ->93 81 ->94 81 ->95 82 ->87 82 ->90 82 ->92 82 ->93 82 ->98 
}
