digraph G {
0 ->61 0 ->66 0 ->67 0 ->76 0 ->77 0 ->81 0 ->86 0 ->87 0 ->88 0 ->94 0 ->96 1 ->57 1 ->59 1 ->61 1 ->62 1 ->66 1 ->76 1 ->77 1 ->79 1 ->81 1 ->96 1 ->96 2 ->56 2 ->58 2 ->61 2 ->64 2 ->70 2 ->72 2 ->78 2 ->79 2 ->84 2 ->89 2 ->99 3 ->56 3 ->59 3 ->67 3 ->69 3 ->78 3 ->79 3 ->89 3 ->91 3 ->94 3 ->98 4 ->54 4 ->56 4 ->63 4 ->64 4 ->69 4 ->71 4 ->76 4 ->79 4 ->81 4 ->89 4 ->94 4 ->98 5 ->54 5 ->56 5 ->57 5 ->58 5 ->64 5 ->76 5 ->79 5 ->80 5 ->83 5 ->84 5 ->86 5 ->87 5 ->89 5 ->91 5 ->94 5 ->95 6 ->54 6 ->56 6 ->57 6 ->58 6 ->64 6 ->72 6 ->73 6 ->80 6 ->92 6 ->94 7 ->55 7 ->56 7 ->57 7 ->59 7 ->61 7 ->62 7 ->66 7 ->68 7 ->79 7 ->81 7 ->82 7 ->86 7 ->87 7 ->90 7 ->91 7 ->94 8 ->54 8 ->55 8 ->56 8 ->62 8 ->63 8 ->69 8 ->77 8 ->81 8 ->85 8 ->87 8 ->91 8 ->92 8 ->94 8 ->95 8 ->96 8 ->99 9 ->54 9 ->55 9 ->56 9 ->57 9 ->59 9 ->61 9 ->62 9 ->63 9 ->67 9 ->70 9 ->73 9 ->82 9 ->83 9 ->88 9 ->91 9 ->92 9 ->93 9 ->95 9 ->98 9 ->99 10 ->54 10 ->57 10 ->58 10 ->62 10 ->70 10 ->75 10 ->87 10 ->88 10 ->90 10 ->91 10 ->97 10 ->99 11 ->55 11 ->56 11 ->59 11 ->64 11 ->67 11 ->73 11 ->75 11 ->76 11 ->86 11 ->88 11 ->91 11 ->94 12 ->54 12 ->58 12 ->59 12 ->63 12 ->67 12 ->73 12 ->75 12 ->77 12 ->79 12 ->88 12 ->90 12 ->91 13 ->55 13 ->57 13 ->60 13 ->62 13 ->63 13 ->76 13 ->79 13 ->81 13 ->88 13 ->88 13 ->91 13 ->91 14 ->54 14 ->57 14 ->64 14 ->69 14 ->73 14 ->83 14 ->86 14 ->96 15 ->55 15 ->59 15 ->62 15 ->69 15 ->76 15 ->81 15 ->83 15 ->87 15 ->91 16 ->56 16 ->71 16 ->72 16 ->76 16 ->76 16 ->79 16 ->87 16 ->89 16 ->99 17 ->57 17 ->71 17 ->73 17 ->86 17 ->87 17 ->90 17 ->92 17 ->94 17 ->99 18 ->57 18 ->58 18 ->62 18 ->66 18 ->67 18 ->72 18 ->87 18 ->91 18 ->92 18 ->93 18 ->94 18 ->96 18 ->99 19 ->55 19 ->56 19 ->67 19 ->71 19 ->75 19 ->78 19 ->80 19 ->83 19 ->86 19 ->87 19 ->88 19 ->90 19 ->91 19 ->95 19 ->99 20 ->55 20 ->56 20 ->61 20 ->64 20 ->66 20 ->69 20 ->75 20 ->78 20 ->81 20 ->83 20 ->87 20 ->88 20 ->99 21 ->63 21 ->64 21 ->73 21 ->77 21 ->81 21 ->83 21 ->88 21 ->91 21 ->94 21 ->95 21 ->96 22 ->57 22 ->62 22 ->63 22 ->64 22 ->66 22 ->68 22 ->69 22 ->77 22 ->81 22 ->86 22 ->92 23 ->56 23 ->57 23 ->62 23 ->69 23 ->70 23 ->71 23 ->73 23 ->75 23 ->77 23 ->86 23 ->87 23 ->88 23 ->89 23 ->90 23 ->92 24 ->54 24 ->56 24 ->57 24 ->58 24 ->64 24 ->66 24 ->69 24 ->73 24 ->76 24 ->79 24 ->80 24 ->87 24 ->91 25 ->55 25 ->57 25 ->57 25 ->65 25 ->67 25 ->69 25 ->74 25 ->81 25 ->88 25 ->94 25 ->95 26 ->57 26 ->57 26 ->59 26 ->66 26 ->77 26 ->80 26 ->81 26 ->81 26 ->83 26 ->95 27 ->55 27 ->56 27 ->59 27 ->62 27 ->64 27 ->69 27 ->71 27 ->77 27 ->81 27 ->91 27 ->96 28 ->54 28 ->59 28 ->61 28 ->62 28 ->64 28 ->65 28 ->75 28 ->76 28 ->77 28 ->80 28 ->81 28 ->91 28 ->96 28 ->99 29 ->68 29 ->71 29 ->75 29 ->81 29 ->88 29 ->89 29 ->90 29 ->92 29 ->98 30 ->56 30 ->58 30 ->60 30 ->61 30 ->67 30 ->81 30 ->83 30 ->86 30 ->87 30 ->90 31 ->56 31 ->66 31 ->68 31 ->73 31 ->81 31 ->94 31 ->95 32 ->54 32 ->55 32 ->57 32 ->64 32 ->71 32 ->73 32 ->79 32 ->84 32 ->85 32 ->94 32 ->98 33 ->54 33 ->55 33 ->57 33 ->61 33 ->62 33 ->64 33 ->67 33 ->75 33 ->77 33 ->79 33 ->80 33 ->84 33 ->87 33 ->91 33 ->94 34 ->54 34 ->60 34 ->64 34 ->78 34 ->79 34 ->80 34 ->81 34 ->82 34 ->83 34 ->84 34 ->93 34 ->94 34 ->96 34 ->98 35 ->58 35 ->61 35 ->68 35 ->73 35 ->79 35 ->80 35 ->81 35 ->82 35 ->89 35 ->90 36 ->54 36 ->56 36 ->57 36 ->62 36 ->67 36 ->79 36 ->90 36 ->93 36 ->94 37 ->55 37 ->57 37 ->58 37 ->61 37 ->79 37 ->81 37 ->84 37 ->87 37 ->88 37 ->89 37 ->92 37 ->94 37 ->95 37 ->97 38 ->55 38 ->56 38 ->57 38 ->58 38 ->59 38 ->61 38 ->66 38 ->76 38 ->79 38 ->81 38 ->89 38 ->90 38 ->91 38 ->92 38 ->95 39 ->54 39 ->58 39 ->59 39 ->61 39 ->66 39 ->67 39 ->79 39 ->89 39 ->90 39 ->96 39 ->99 40 ->56 40 ->57 40 ->59 40 ->62 40 ->64 40 ->67 40 ->70 40 ->75 40 ->76 40 ->79 40 ->81 40 ->90 40 ->94 41 ->55 41 ->56 41 ->76 41 ->79 41 ->81 41 ->90 41 ->91 41 ->94 41 ->99 42 ->56 42 ->61 42 ->62 42 ->64 42 ->69 42 ->76 42 ->82 42 ->88 43 ->56 43 ->62 43 ->67 43 ->69 43 ->70 43 ->74 43 ->75 43 ->76 43 ->79 43 ->87 43 ->94 44 ->55 44 ->63 44 ->79 44 ->87 44 ->90 44 ->94 45 ->56 45 ->61 45 ->62 45 ->63 45 ->73 45 ->79 45 ->83 45 ->86 45 ->87 45 ->91 45 ->96 46 ->56 46 ->61 46 ->67 46 ->73 46 ->79 46 ->82 46 ->86 46 ->87 46 ->87 46 ->90 47 ->54 47 ->58 47 ->59 47 ->61 47 ->70 47 ->85 47 ->86 47 ->87 47 ->90 47 ->98 48 ->56 48 ->58 48 ->59 48 ->66 48 ->68 48 ->69 48 ->70 48 ->73 48 ->80 48 ->87 48 ->88 48 ->90 48 ->94 48 ->95 49 ->54 49 ->55 49 ->58 49 ->60 49 ->69 49 ->71 49 ->73 49 ->75 49 ->80 49 ->82 49 ->87 49 ->89 49 ->90 49 ->99 50 ->55 50 ->55 50 ->62 50 ->66 50 ->67 50 ->69 50 ->73 50 ->76 50 ->79 50 ->80 50 ->82 50 ->91 50 ->92 50 ->99 51 ->55 51 ->58 51 ->76 51 ->77 51 ->79 51 ->80 51 ->87 51 ->91 52 ->54 52 ->61 52 ->69 52 ->75 52 ->76 52 ->77 52 ->80 52 ->87 52 ->91 52 ->96 52 ->98 53 ->55 53 ->56 53 ->57 53 ->74 53 ->76 53 ->79 53 ->80 53 ->81 53 ->85 53 ->86 53 ->89 53 ->91 53 ->94 
}
