files/tasks_parameters/ExAp01/sample8.txt 1.07521 7.2562 4.46819 0.454772 8.79741
files/tasks_parameters/ExAp01/sample12.txt 1.45011 9.70908 5.28286 0.618515 11.965
files/tasks_parameters/ExAp01/sample2.txt 1.42452 8.14159 5.7401 0.620531 12.004
files/tasks_parameters/ExAp01/sample44.txt 1.31061 7.25164 5.75904 0.557631 10.7872
files/tasks_parameters/ExAp01/sample27.txt 1.32857 8.10944 5.64946 0.564878 10.9274
files/tasks_parameters/ExAp01/sample17.txt 1.24263 7.11225 5.46658 0.527183 10.1982
files/tasks_parameters/ExAp01/sample9.txt 1.19734 7.62559 5.37813 0.517277 10.0065
files/tasks_parameters/ExAp01/sample34.txt 1.24539 7.04587 5.93037 0.497709 9.62801
files/tasks_parameters/ExAp01/sample40.txt 1.17659 8.03037 5.123 0.502383 9.71842
files/tasks_parameters/ExAp01/sample33.txt 1.50355 9.22935 5.92956 0.659262 12.7532
files/tasks_parameters/ExAp01/sample48.txt 1.07537 8.12182 5.1577 0.452491 8.75327
files/tasks_parameters/ExAp01/sample29.txt 1.46414 8.06133 5.12331 0.650652 12.5866
files/tasks_parameters/ExAp01/sample11.txt 1.32743 7.63104 5.37897 0.563302 10.8969
files/tasks_parameters/ExAp01/sample14.txt 1.13088 6.66403 4.66322 0.471536 9.12171
files/tasks_parameters/ExAp01/sample0.txt 1.45835 9.3266 4.98971 0.6311 12.2084
files/tasks_parameters/ExAp01/sample7.txt 1.20302 7.34863 5.19436 0.515527 9.9727
files/tasks_parameters/ExAp01/sample23.txt 1.36986 6.68564 5.54308 0.588617 11.3866
files/tasks_parameters/ExAp01/sample13.txt 1.4707 9.31093 5.35591 0.632849 12.2422
files/tasks_parameters/ExAp01/sample22.txt 1.26233 7.65588 5.04866 0.540336 10.4526
files/tasks_parameters/ExAp01/sample25.txt 1.01203 6.17035 5.0141 0.408296 7.89834
files/tasks_parameters/ExAp01/sample36.txt 1.20086 7.03772 4.66274 0.507647 9.82026
files/tasks_parameters/ExAp01/sample46.txt 1.25672 7.73433 4.79934 0.536843 10.3851
files/tasks_parameters/ExAp01/sample31.txt 1.18816 6.96928 5.16482 0.485817 9.39797
files/tasks_parameters/ExAp01/sample37.txt 1.5083 9.52443 5.74224 0.65799 12.7286
files/tasks_parameters/ExAp01/sample16.txt 1.30521 8.63521 4.97261 0.516328 9.98818
files/tasks_parameters/ExAp01/sample10.txt 1.41904 7.28353 6.16876 0.615651 11.9096
files/tasks_parameters/ExAp01/sample39.txt 1.11704 6.3405 4.6137 0.468873 9.07019
files/tasks_parameters/ExAp01/sample19.txt 1.40668 8.85528 5.22306 0.622152 12.0353
files/tasks_parameters/ExAp01/sample20.txt 1.34097 8.1141 5.21177 0.586994 11.3552
files/tasks_parameters/ExAp01/sample43.txt 1.25612 7.21373 5.6367 0.53748 10.3974
files/tasks_parameters/ExAp01/sample32.txt 1.37714 8.30592 5.38137 0.593918 11.4891
files/tasks_parameters/ExAp01/sample45.txt 1.24952 7.94069 4.96323 0.547271 10.5868
files/tasks_parameters/ExAp01/sample26.txt 1.12538 7.57061 4.62637 0.480146 9.28826
files/tasks_parameters/ExAp01/sample5.txt 1.35489 8.0307 5.35681 0.59407 11.4921
files/tasks_parameters/ExAp01/sample21.txt 1.04306 5.87802 4.61744 0.434264 8.40069
files/tasks_parameters/ExAp01/sample38.txt 1.14217 7.66999 4.86632 0.496808 9.61058
files/tasks_parameters/ExAp01/sample1.txt 1.13426 7.21312 4.63213 0.486293 9.40718
files/tasks_parameters/ExAp01/sample15.txt 1.25626 8.02273 5.50855 0.531063 10.2732
files/tasks_parameters/ExAp01/sample24.txt 1.29247 8.66348 5.4905 0.548998 10.6202
files/tasks_parameters/ExAp01/sample3.txt 1.13905 7.74268 4.79918 0.477387 9.23488
files/tasks_parameters/ExAp01/sample6.txt 1.43941 8.57133 5.80157 0.633604 12.2569
files/tasks_parameters/ExAp01/sample30.txt 1.5336 8.18878 5.90888 0.633576 12.2563
files/tasks_parameters/ExAp01/sample42.txt 1.33801 8.57689 5.67253 0.54426 10.5285
files/tasks_parameters/ExAp01/sample4.txt 1.29354 8.40354 4.57985 0.563519 10.9011
files/tasks_parameters/ExAp01/sample28.txt 1.04164 6.44114 4.96426 0.449721 8.6997
files/tasks_parameters/ExAp01/sample18.txt 1.28179 8.56363 4.60946 0.543766 10.519
files/tasks_parameters/ExAp01/sample35.txt 1.78661 11.0387 6.34514 0.761377 14.7286
files/tasks_parameters/ExAp01/sample47.txt 1.23583 7.14493 5.22131 0.545046 10.5437
files/tasks_parameters/ExAp01/sample49.txt 1.27929 6.65996 4.80244 0.498533 9.64396
files/tasks_parameters/ExAp01/sample41.txt 1.14834 7.09069 5.35462 0.497129 9.61679
