0.24035800000000004
Task0 3 7 7 
Task1 3 7 3 
Task2 15 7 1 
Task3 63 255 31 
Task4 3 7 3 
Task5 15 7 3 
Task6 7 3 63 
Task7 15 3 15 
Task8 3 7 15 
Task9 1 7 1 
Task10 7 31 7 
Task11 7 1 3 
Task12 7 15 1 
Task13 1 7 3 
Task14 7 15 15 
Task15 1 7 3 
Task16 3 15 31 
Task17 3 7 7 
Task18 3 3 3 
Task19 7 15 7 
Task20 15 31 1 
Task21 1 1 31 
Task22 7 1 7 
Task23 7 1 3 
Task24 31 15 3 
Task25 15 7 3 
Task26 7 15 7 
Task27 7 1 1 
Task28 7 15 7 
Task29 3 1 7 
Task30 3 3 7 
Task31 7 7 3 
Task32 1 7 15 
Task33 15 3 3 
Task34 1 1 15 
Task35 31 31 7 
Task36 15 7 3 
Task37 7 3 1 
Task38 7 1 31 
Task39 3 3 1 
Task40 7 1 1 
Task41 7 7 3 
Task42 7 7 1 
Task43 3 3 3 
Task44 1 7 63 
Task45 7 3 7 
Task46 15 15 15 
Task47 31 31 31 
Task48 15 7 7 
Task49 1 1 31 
Task50 15 7 15 
Task51 15 7 1 
Task52 3 3 15 
Task53 7 1 7 
Task54 3 15 7 
Task55 7 3 15 
Task56 7 3 15 
Task57 3 3 1 
Task58 15 1 1 
Task59 15 3 3 
Task60 3 1 3 
Task61 7 3 7 
Task62 7 15 7 
Task63 3 15 7 
Task64 7 7 1 
Task65 3 3 3 
Task66 1 7 3 
Task67 31 7 63 
Task68 15 3 15 
Task69 7 3 3 
Task70 3 3 3 
Task71 1 7 7 
Task72 7 7 3 
Task73 3 1 7 
Task74 3 7 3 
Task75 3 3 7 
Task76 7 7 3 
Task77 1 7 3 
Task78 7 3 3 
Task79 3 3 7 
Task80 3 7 1 
Task81 3 1 3 
Task82 3 3 3 
Task83 7 7 7 
Task84 3 3 7 
Task85 7 3 3 
Task86 15 7 1 
Task87 1 1 7 
Task88 7 15 15 
Task89 1 7 3 
Task90 1 7 7 
Task91 7 3 1 
Task92 7 7 7 
Task93 1 7 7 
Task94 3 7 1 
Task95 3 7 31 
Task96 7 7 7 
Task97 7 7 3 
Task98 7 1 7 
Task99 1 1 3 
