0.2767943600000001
Task0 7 1 3 
Task1 1 7 3 
Task2 1 1 15 
Task3 31 7 7 
Task4 7 7 3 
Task5 3 7 15 
Task6 3 7 15 
Task7 7 15 7 
Task8 127 63 255 
Task9 7 15 3 
Task10 15 7 3 
Task11 31 7 1 
Task12 7 15 7 
Task13 15 3 3 
Task14 15 1 3 
Task15 7 3 3 
Task16 15 15 7 
Task17 1 15 7 
Task18 3 3 15 
Task19 3 7 1 
Task20 15 3 3 
Task21 15 15 7 
Task22 15 7 31 
Task23 15 15 15 
Task24 63 31 63 
Task25 7 3 15 
Task26 3 7 7 
Task27 15 7 15 
Task28 15 1 1 
Task29 1 15 15 
Task30 31 7 3 
Task31 3 3 3 
Task32 1 3 7 
Task33 3 7 15 
Task34 7 15 3 
Task35 3 3 3 
Task36 7 15 7 
Task37 7 3 3 
Task38 3 7 3 
Task39 3 7 15 
Task40 3 1 7 
Task41 31 7 7 
Task42 3 1 7 
Task43 1 3 15 
Task44 7 7 15 
Task45 15 7 15 
Task46 7 1 1 
Task47 7 3 3 
Task48 15 7 1 
Task49 7 1 3 
Task50 7 1 3 
Task51 3 3 15 
Task52 3 15 3 
Task53 31 15 63 
Task54 7 1 3 
Task55 3 3 15 
Task56 3 3 7 
Task57 15 15 7 
Task58 7 3 1 
Task59 3 7 7 
Task60 7 7 3 
Task61 255 63 255 
Task62 1 7 7 
Task63 3 15 1 
Task64 63 127 63 
Task65 7 7 7 
Task66 31 31 7 
Task67 15 7 63 
Task68 255 63 255 
Task69 1 7 7 
Task70 7 1 1 
Task71 7 15 3 
Task72 1 1 15 
Task73 1 1 7 
Task74 15 15 7 
Task75 127 255 63 
Task76 1 3 7 
Task77 1 7 1 
Task78 7 3 7 
Task79 1 7 3 
Task80 7 7 1 
Task81 7 1 3 
Task82 255 255 255 
Task83 31 63 7 
Task84 1 7 1 
Task85 7 7 15 
Task86 3 7 3 
Task87 1 31 15 
Task88 15 15 1 
Task89 7 1 1 
Task90 7 15 1 
Task91 15 3 3 
Task92 7 7 15 
Task93 7 7 7 
Task94 31 7 3 
Task95 31 7 1 
Task96 7 7 31 
Task97 15 3 31 
Task98 15 7 3 
Task99 15 1 3 
