files/tasks_parameters/ExAp01/sample8.txt 0.804056 3.15778 1.5595 0.203411 4.56339
files/tasks_parameters/ExAp01/sample12.txt 0.809728 3.94962 1.6705 0.207924 4.66463
files/tasks_parameters/ExAp01/sample2.txt 0.795038 3.78275 1.74131 0.200098 4.48905
files/tasks_parameters/ExAp01/sample44.txt 0.672206 3.59825 1.65317 0.200005 4.48698
files/tasks_parameters/ExAp01/sample27.txt 0.69811 3.45743 1.5148 0.182129 4.08593
files/tasks_parameters/ExAp01/sample17.txt 0.838901 2.77299 1.44514 0.14646 3.28573
files/tasks_parameters/ExAp01/sample9.txt 0.744337 2.99933 1.451 0.177444 3.98082
files/tasks_parameters/ExAp01/sample34.txt 0.831645 3.02928 1.58429 0.157984 3.54426
files/tasks_parameters/ExAp01/sample40.txt 0.76512 3.86889 1.52122 0.168379 3.77748
files/tasks_parameters/ExAp01/sample33.txt 0.800977 3.63695 1.71905 0.199765 4.48159
files/tasks_parameters/ExAp01/sample48.txt 0.682426 3.39061 1.49062 0.154728 3.47122
files/tasks_parameters/ExAp01/sample29.txt 0.80987 3.30472 1.38739 0.223868 5.02233
files/tasks_parameters/ExAp01/sample11.txt 0.707448 3.10585 1.41612 0.174079 3.90534
files/tasks_parameters/ExAp01/sample14.txt 0.666211 2.70971 1.43432 0.162214 3.63917
files/tasks_parameters/ExAp01/sample0.txt 0.743275 3.6937 1.5439 0.18367 4.12051
files/tasks_parameters/ExAp01/sample7.txt 0.799885 2.70501 1.42221 0.143463 3.2185
files/tasks_parameters/ExAp01/sample23.txt 0.759163 3.2697 1.57822 0.181448 4.07067
files/tasks_parameters/ExAp01/sample13.txt 0.729548 3.84225 1.67648 0.198247 4.44754
files/tasks_parameters/ExAp01/sample22.txt 0.859577 3.09569 1.56121 0.148796 3.33814
files/tasks_parameters/ExAp01/sample25.txt 0.740339 2.73966 1.5007 0.148149 3.32361
files/tasks_parameters/ExAp01/sample36.txt 0.75928 2.85948 1.28553 0.130042 2.91741
files/tasks_parameters/ExAp01/sample46.txt 0.761331 3.58643 1.69998 0.210103 4.71351
files/tasks_parameters/ExAp01/sample31.txt 0.704509 3.4832 1.53782 0.1722 3.86319
files/tasks_parameters/ExAp01/sample37.txt 0.765986 3.95293 1.50705 0.171701 3.852
files/tasks_parameters/ExAp01/sample16.txt 0.61566 3.31216 1.30115 0.150249 3.37073
files/tasks_parameters/ExAp01/sample10.txt 0.980972 3.17098 1.61789 0.153776 3.44987
files/tasks_parameters/ExAp01/sample39.txt 0.698854 3.26617 1.44406 0.165669 3.71667
files/tasks_parameters/ExAp01/sample19.txt 0.744048 3.63532 1.52509 0.196094 4.39925
files/tasks_parameters/ExAp01/sample20.txt 0.662661 3.20793 1.25367 0.147335 3.30537
files/tasks_parameters/ExAp01/sample43.txt 0.646585 3.11551 1.4202 0.150644 3.37961
files/tasks_parameters/ExAp01/sample32.txt 0.722684 3.5311 1.42482 0.168744 3.78566
files/tasks_parameters/ExAp01/sample45.txt 0.76622 3.80283 1.48324 0.19807 4.44358
files/tasks_parameters/ExAp01/sample26.txt 0.654174 3.21645 1.29701 0.166061 3.72547
files/tasks_parameters/ExAp01/sample5.txt 0.660529 3.5889 1.52559 0.178903 4.01358
files/tasks_parameters/ExAp01/sample21.txt 0.65853 2.75242 1.55936 0.19512 4.37739
files/tasks_parameters/ExAp01/sample38.txt 0.676658 3.31563 1.37515 0.166157 3.72761
files/tasks_parameters/ExAp01/sample1.txt 0.693996 3.74964 1.51696 0.19701 4.41978
files/tasks_parameters/ExAp01/sample15.txt 0.696611 3.32916 1.48508 0.180707 4.05405
files/tasks_parameters/ExAp01/sample24.txt 0.843701 3.45951 1.59549 0.16529 3.70818
files/tasks_parameters/ExAp01/sample3.txt 0.944627 3.70014 1.70809 0.237107 5.31934
files/tasks_parameters/ExAp01/sample6.txt 0.705863 3.33003 1.58323 0.184714 4.14394
files/tasks_parameters/ExAp01/sample30.txt 0.888173 4.1841 1.4861 0.239623 5.37578
files/tasks_parameters/ExAp01/sample42.txt 0.747833 3.43221 1.70276 0.177383 3.97946
files/tasks_parameters/ExAp01/sample4.txt 0.813224 3.72477 1.6136 0.196448 4.40718
files/tasks_parameters/ExAp01/sample28.txt 0.689545 3.11323 1.45032 0.158819 3.563
files/tasks_parameters/ExAp01/sample18.txt 0.769617 3.47418 1.45209 0.149064 3.34415
files/tasks_parameters/ExAp01/sample35.txt 0.803135 4.57086 1.49394 0.185031 4.15104
files/tasks_parameters/ExAp01/sample47.txt 0.718832 3.13768 1.52397 0.16417 3.68305
files/tasks_parameters/ExAp01/sample49.txt 0.776571 3.13288 1.49657 0.156154 3.50321
files/tasks_parameters/ExAp01/sample41.txt 0.763294 2.81964 1.49636 0.150876 3.3848
