files/tasks_parameters/ExAp01/sample8.txt 0.728566 3.15778 1.5595 0.203411 3.61071
files/tasks_parameters/ExAp01/sample12.txt 0.808449 3.94962 1.6705 0.207924 3.69082
files/tasks_parameters/ExAp01/sample2.txt 0.80065 3.78275 1.74131 0.200098 3.5519
files/tasks_parameters/ExAp01/sample44.txt 0.709072 3.59825 1.65317 0.200005 3.55026
files/tasks_parameters/ExAp01/sample27.txt 0.711711 3.45743 1.5148 0.182129 3.23293
files/tasks_parameters/ExAp01/sample17.txt 0.673737 2.77299 1.44514 0.14646 2.59978
files/tasks_parameters/ExAp01/sample9.txt 0.690037 2.99933 1.451 0.177444 3.14977
files/tasks_parameters/ExAp01/sample34.txt 0.689333 3.02928 1.58429 0.157984 2.80434
files/tasks_parameters/ExAp01/sample40.txt 0.737136 3.86889 1.52122 0.168379 2.98887
files/tasks_parameters/ExAp01/sample33.txt 0.789093 3.63695 1.71905 0.199765 3.54599
files/tasks_parameters/ExAp01/sample48.txt 0.664489 3.39061 1.49062 0.154728 2.74655
files/tasks_parameters/ExAp01/sample29.txt 0.775526 3.30472 1.38739 0.223868 3.97385
files/tasks_parameters/ExAp01/sample11.txt 0.712545 3.10585 1.41612 0.174079 3.09004
files/tasks_parameters/ExAp01/sample14.txt 0.662378 2.70971 1.43432 0.162214 2.87944
files/tasks_parameters/ExAp01/sample0.txt 0.738018 3.6937 1.5439 0.18367 3.26029
files/tasks_parameters/ExAp01/sample7.txt 0.636609 2.70501 1.42221 0.143463 2.54659
files/tasks_parameters/ExAp01/sample23.txt 0.727808 3.2697 1.57822 0.181448 3.22086
files/tasks_parameters/ExAp01/sample13.txt 0.764808 3.84225 1.67648 0.198247 3.51905
files/tasks_parameters/ExAp01/sample22.txt 0.663543 3.09569 1.56121 0.148796 2.64125
files/tasks_parameters/ExAp01/sample25.txt 0.632637 2.73966 1.5007 0.148149 2.62976
files/tasks_parameters/ExAp01/sample36.txt 0.624872 2.85948 1.28553 0.130042 2.30836
files/tasks_parameters/ExAp01/sample46.txt 0.75866 3.58643 1.69998 0.210103 3.7295
files/tasks_parameters/ExAp01/sample31.txt 0.693316 3.4832 1.53782 0.1722 3.05669
files/tasks_parameters/ExAp01/sample37.txt 0.736942 3.95293 1.50705 0.171701 3.04783
files/tasks_parameters/ExAp01/sample16.txt 0.610272 3.31216 1.30115 0.150249 2.66704
files/tasks_parameters/ExAp01/sample10.txt 0.703471 3.17098 1.61789 0.153776 2.72966
files/tasks_parameters/ExAp01/sample39.txt 0.67877 3.26617 1.44406 0.165669 2.94076
files/tasks_parameters/ExAp01/sample19.txt 0.745272 3.63532 1.52509 0.196094 3.48084
files/tasks_parameters/ExAp01/sample20.txt 0.627084 3.20793 1.25367 0.147335 2.61532
files/tasks_parameters/ExAp01/sample43.txt 0.641896 3.11551 1.4202 0.150644 2.67406
files/tasks_parameters/ExAp01/sample32.txt 0.741287 3.5311 1.42482 0.168744 2.99535
files/tasks_parameters/ExAp01/sample45.txt 0.75101 3.80283 1.48324 0.19807 3.51591
files/tasks_parameters/ExAp01/sample26.txt 0.606375 3.21645 1.29701 0.166061 2.94772
files/tasks_parameters/ExAp01/sample5.txt 0.649855 3.5889 1.52559 0.178903 3.17568
files/tasks_parameters/ExAp01/sample21.txt 0.691478 2.75242 1.55936 0.19512 3.46355
files/tasks_parameters/ExAp01/sample38.txt 0.647871 3.31563 1.37515 0.166157 2.94942
files/tasks_parameters/ExAp01/sample1.txt 0.705259 3.74964 1.51696 0.19701 3.49708
files/tasks_parameters/ExAp01/sample15.txt 0.705769 3.32916 1.48508 0.180707 3.20771
files/tasks_parameters/ExAp01/sample24.txt 0.749236 3.45951 1.59549 0.16529 2.93404
files/tasks_parameters/ExAp01/sample3.txt 0.849327 3.70014 1.70809 0.237107 4.20885
files/tasks_parameters/ExAp01/sample6.txt 0.722184 3.33003 1.58323 0.184714 3.27883
files/tasks_parameters/ExAp01/sample30.txt 0.881025 4.1841 1.4861 0.239623 4.25351
files/tasks_parameters/ExAp01/sample42.txt 0.745955 3.43221 1.70276 0.177383 3.14869
files/tasks_parameters/ExAp01/sample4.txt 0.795193 3.72477 1.6136 0.196448 3.48712
files/tasks_parameters/ExAp01/sample28.txt 0.657132 3.11323 1.45032 0.158819 2.81917
files/tasks_parameters/ExAp01/sample18.txt 0.646324 3.47418 1.45209 0.149064 2.64601
files/tasks_parameters/ExAp01/sample35.txt 0.787611 4.57086 1.49394 0.185031 3.28445
files/tasks_parameters/ExAp01/sample47.txt 0.679691 3.13768 1.52397 0.16417 2.91415
files/tasks_parameters/ExAp01/sample49.txt 0.681996 3.13288 1.49657 0.156154 2.77186
files/tasks_parameters/ExAp01/sample41.txt 0.644605 2.81964 1.49636 0.150876 2.67817
