0 6
0 10
1 6
1 8
1 10
2 8
2 9
3 7
3 8
3 10
5 9
6 15
6 16
7 13
7 16
8 12
8 14
10 11
11 17
11 18
11 19
11 20
11 23
11 25
12 17
12 18
12 19
12 23
12 26
13 19
13 21
13 23
13 26
14 24
14 25
15 20
15 25
16 18
16 22
16 26
17 28
17 30
18 32
18 33
19 28
19 32
19 33
20 28
20 33
21 32
22 32
22 33
23 32
23 33
25 27
25 28
25 29
26 27
26 29
26 29
26 31
27 38
27 41
27 42
28 37
28 38
28 43
29 34
29 35
29 36
29 38
29 39
29 43
30 35
30 39
30 40
30 42
31 34
31 39
31 40
32 35
32 37
32 39
32 40
34 45
34 52
34 56
35 47
36 45
36 50
36 51
36 56
37 45
37 48
37 50
37 53
38 44
38 45
38 49
38 54
39 44
39 45
39 46
39 53
39 54
40 46
40 50
40 54
40 55
41 49
41 52
41 53
41 56
42 44
42 47
42 50
42 52
42 55
42 56
43 51
43 52
43 56
44 64
44 65
44 66
45 57
45 65
46 60
46 63
47 59
48 59
49 57
49 61
49 64
49 66
50 62
50 66
51 57
51 66
52 57
52 60
52 61
52 66
53 57
53 58
53 63
53 66
54 63
55 60
55 64
56 59
56 61
56 66
57 68
57 69
57 70
57 73
57 74
57 76
58 67
58 78
59 67
59 69
59 71
59 74
59 77
60 67
60 73
60 75
61 71
61 72
61 75
62 71
62 74
62 75
62 77
63 69
63 71
63 73
63 75
63 77
63 78
64 75
64 77
64 78
65 69
65 70
65 74
65 77
65 78
66 68
66 69
66 70
66 73
66 74
66 78
67 79
67 80
67 82
68 91
69 84
69 88
70 91
71 83
71 86
72 83
72 86
72 87
72 90
72 91
73 81
73 82
74 82
74 82
74 87
75 80
75 82
75 84
75 85
75 89
75 90
76 80
76 81
76 82
76 84
76 90
76 91
77 79
77 83
77 84
77 91
78 84
79 92
79 93
79 95
79 99
80 96
80 97
81 92
81 95
81 98
81 99
82 97
82 98
82 98
83 92
83 96
84 92
84 93
84 95
84 98
85 93
85 95
85 96
85 97
86 93
86 96
86 97
87 94
87 97
88 94
88 96
88 98
89 92
89 93
89 97
89 99
90 94
91 95
91 97
91 98
