files/tasks_parameters/ExAp01/sample8.txt 1.08361 3.76817 4.3855 0.450105 20.3193
files/tasks_parameters/ExAp01/sample12.txt 1.49418 5.03638 5.18776 0.610564 27.5629
files/tasks_parameters/ExAp01/sample2.txt 1.45265 4.58991 5.64606 0.613877 27.7125
files/tasks_parameters/ExAp01/sample44.txt 1.24969 3.77401 5.66946 0.551838 24.9118
files/tasks_parameters/ExAp01/sample27.txt 1.29418 4.13937 5.56136 0.55779 25.1805
files/tasks_parameters/ExAp01/sample17.txt 1.19413 3.76163 5.38341 0.520991 23.5193
files/tasks_parameters/ExAp01/sample9.txt 1.14295 3.69889 5.2981 0.511699 23.0998
files/tasks_parameters/ExAp01/sample34.txt 1.13513 3.52435 5.83741 0.49187 22.2047
files/tasks_parameters/ExAp01/sample40.txt 1.15881 4.06185 5.0335 0.496884 22.431
files/tasks_parameters/ExAp01/sample33.txt 1.55857 4.82091 5.83886 0.651963 29.4318
files/tasks_parameters/ExAp01/sample48.txt 1.06829 4.01134 5.07085 0.447927 20.221
files/tasks_parameters/ExAp01/sample29.txt 1.40678 4.20847 5.0406 0.643694 29.0585
files/tasks_parameters/ExAp01/sample11.txt 1.3362 3.94699 5.29198 0.557276 25.1573
files/tasks_parameters/ExAp01/sample14.txt 1.085 3.54059 4.58345 0.466713 21.069
files/tasks_parameters/ExAp01/sample0.txt 1.4772 4.82755 4.90216 0.623551 28.1492
files/tasks_parameters/ExAp01/sample7.txt 1.15492 3.60766 5.11185 0.509566 23.0035
files/tasks_parameters/ExAp01/sample23.txt 1.41567 3.81403 5.45799 0.582911 26.3146
files/tasks_parameters/ExAp01/sample13.txt 1.49908 4.8894 5.26818 0.624499 28.192
files/tasks_parameters/ExAp01/sample22.txt 1.27876 3.76156 4.95746 0.534216 24.1163
files/tasks_parameters/ExAp01/sample25.txt 0.976743 2.94144 4.92622 0.403639 18.2216
files/tasks_parameters/ExAp01/sample36.txt 1.25808 3.56164 4.5806 0.501799 22.6529
files/tasks_parameters/ExAp01/sample46.txt 1.24166 3.84833 4.7121 0.530701 23.9576
files/tasks_parameters/ExAp01/sample31.txt 1.07256 3.764 5.08385 0.479734 21.6568
files/tasks_parameters/ExAp01/sample37.txt 1.52429 4.43254 5.65111 0.65143 29.4078
files/tasks_parameters/ExAp01/sample16.txt 1.22588 4.49741 4.8895 0.509171 22.9857
files/tasks_parameters/ExAp01/sample10.txt 1.37558 3.87086 6.07511 0.60993 27.5343
files/tasks_parameters/ExAp01/sample39.txt 1.12287 3.66299 4.54281 0.463671 20.9317
files/tasks_parameters/ExAp01/sample19.txt 1.37932 3.86694 5.14047 0.615987 27.8078
files/tasks_parameters/ExAp01/sample20.txt 1.30941 4.09945 5.13368 0.580369 26.1998
files/tasks_parameters/ExAp01/sample43.txt 1.17457 3.75825 5.55698 0.530892 23.9663
files/tasks_parameters/ExAp01/sample32.txt 1.42886 4.0352 5.29178 0.587643 26.5282
files/tasks_parameters/ExAp01/sample45.txt 1.22729 3.94578 4.87833 0.541081 24.4262
files/tasks_parameters/ExAp01/sample26.txt 1.10296 3.50998 4.55035 0.474009 21.3984
files/tasks_parameters/ExAp01/sample5.txt 1.37999 4.00994 5.27725 0.587681 26.5299
files/tasks_parameters/ExAp01/sample21.txt 0.935982 2.8974 4.54677 0.430037 19.4133
files/tasks_parameters/ExAp01/sample38.txt 1.16794 3.56689 4.78573 0.492366 22.2271
files/tasks_parameters/ExAp01/sample1.txt 1.14099 3.69002 4.55048 0.481074 21.7173
files/tasks_parameters/ExAp01/sample15.txt 1.19433 3.73223 5.42493 0.524964 23.6987
files/tasks_parameters/ExAp01/sample24.txt 1.23194 4.18053 5.40377 0.542575 24.4937
files/tasks_parameters/ExAp01/sample3.txt 1.0835 3.70547 4.7118 0.470503 21.2401
files/tasks_parameters/ExAp01/sample6.txt 1.35759 4.07521 5.71419 0.626702 28.2915
files/tasks_parameters/ExAp01/sample30.txt 1.46731 3.97446 5.82388 0.626709 28.2918
files/tasks_parameters/ExAp01/sample42.txt 1.28874 4.44207 5.58473 0.537025 24.2431
files/tasks_parameters/ExAp01/sample4.txt 1.30154 3.92181 4.49751 0.556974 25.1437
files/tasks_parameters/ExAp01/sample28.txt 1.01644 3.13496 4.88321 0.444588 20.0702
files/tasks_parameters/ExAp01/sample18.txt 1.21564 3.95301 4.52898 0.537438 24.2618
files/tasks_parameters/ExAp01/sample35.txt 1.79155 5.75923 6.25034 0.752488 33.9698
files/tasks_parameters/ExAp01/sample47.txt 1.16107 3.44018 5.14289 0.540033 24.3789
files/tasks_parameters/ExAp01/sample49.txt 1.1153 3.38981 4.72409 0.493041 22.2576
files/tasks_parameters/ExAp01/sample41.txt 1.10214 3.58692 5.27252 0.492391 22.2282
