0.297592271
Task0 31 63 31 
Task1 15 15 31 
Task2 1 15 15 
Task3 1 31 7 
Task4 63 31 15 
Task5 31 31 15 
Task6 7 31 3 
Task7 15 15 31 
Task8 127 63 15 
Task9 15 255 7 
Task10 31 31 15 
Task11 63 1 7 
Task12 15 31 31 
Task13 63 15 15 
Task14 15 1 31 
Task15 15 15 31 
Task16 63 15 3 
Task17 15 15 1 
Task18 31 63 63 
Task19 31 63 31 
Task20 31 15 7 
Task21 31 15 15 
Task22 15 3 15 
Task23 3 31 3 
Task24 15 31 1 
Task25 1 15 31 
Task26 1 3 15 
Task27 7 7 31 
Task28 3 31 63 
Task29 3 7 15 
Task30 31 15 31 
Task31 3 63 7 
Task32 31 31 63 
Task33 1 7 31 
Task34 7 1 15 
Task35 3 7 31 
Task36 1 15 3 
Task37 31 1 15 
Task38 7 3 15 
Task39 3 7 31 
Task40 15 63 15 
Task41 15 31 127 
Task42 15 7 15 
Task43 3 1 63 
Task44 63 127 127 
Task45 31 15 31 
Task46 3 31 7 
Task47 15 15 15 
Task48 15 15 31 
Task49 31 3 7 
Task50 3 3 15 
Task51 15 63 7 
Task52 7 63 31 
Task53 3 15 7 
Task54 15 1 15 
Task55 31 1 7 
Task56 31 15 15 
Task57 15 7 7 
Task58 63 15 1 
Task59 31 63 15 
Task60 7 15 1 
Task61 7 63 31 
Task62 3 63 15 
Task63 15 3 15 
Task64 3 7 15 
Task65 255 31 1 
Task66 31 7 7 
Task67 15 63 31 
Task68 31 3 15 
Task69 63 7 31 
Task70 15 7 63 
Task71 127 63 63 
Task72 7 63 7 
Task73 3 63 1 
Task74 255 7 127 
Task75 15 3 3 
Task76 63 255 127 
Task77 3 3 15 
Task78 1 3 15 
Task79 31 15 15 
Task80 7 3 15 
Task81 15 7 15 
Task82 127 255 127 
Task83 15 15 31 
Task84 1 31 7 
Task85 1 7 15 
Task86 3 15 3 
Task87 15 3 3 
Task88 63 1 31 
Task89 7 1 31 
Task90 15 7 15 
Task91 15 1 1 
Task92 63 1 7 
Task93 31 7 3 
Task94 7 31 7 
Task95 1 15 63 
Task96 3 127 63 
Task97 15 63 15 
Task98 15 31 63 
Task99 127 255 31 
