files/tasks_parameters/ExAp01/sample8.txt 0.909664 3.15778 1.5595 0.203411 8.40468
files/tasks_parameters/ExAp01/sample12.txt 0.844688 3.94962 1.6705 0.207924 8.59114
files/tasks_parameters/ExAp01/sample2.txt 0.897736 3.78275 1.74131 0.200098 8.26777
files/tasks_parameters/ExAp01/sample44.txt 0.79935 3.59825 1.65317 0.200005 8.26395
files/tasks_parameters/ExAp01/sample27.txt 0.839245 3.45743 1.5148 0.182129 7.52531
files/tasks_parameters/ExAp01/sample17.txt 0.728989 2.77299 1.44514 0.14646 6.05152
files/tasks_parameters/ExAp01/sample9.txt 0.700792 2.99933 1.451 0.177444 7.33173
files/tasks_parameters/ExAp01/sample34.txt 0.751331 3.02928 1.58429 0.157984 6.52768
files/tasks_parameters/ExAp01/sample40.txt 0.707742 3.86889 1.52122 0.168379 6.95721
files/tasks_parameters/ExAp01/sample33.txt 0.868251 3.63695 1.71905 0.199765 8.25402
files/tasks_parameters/ExAp01/sample48.txt 0.68679 3.39061 1.49062 0.154728 6.39316
files/tasks_parameters/ExAp01/sample29.txt 0.851681 3.30472 1.38739 0.223868 9.24994
files/tasks_parameters/ExAp01/sample11.txt 0.773114 3.10585 1.41612 0.174079 7.1927
files/tasks_parameters/ExAp01/sample14.txt 0.643266 2.70971 1.43432 0.162214 6.70249
files/tasks_parameters/ExAp01/sample0.txt 0.807736 3.6937 1.5439 0.18367 7.58899
files/tasks_parameters/ExAp01/sample7.txt 0.669128 2.70501 1.42221 0.143463 5.92772
files/tasks_parameters/ExAp01/sample23.txt 0.749738 3.2697 1.57822 0.181448 7.49721
files/tasks_parameters/ExAp01/sample13.txt 0.889588 3.84225 1.67648 0.198247 8.19131
files/tasks_parameters/ExAp01/sample22.txt 0.632072 3.09569 1.56121 0.148796 6.14806
files/tasks_parameters/ExAp01/sample25.txt 0.663351 2.73966 1.5007 0.148149 6.12131
files/tasks_parameters/ExAp01/sample36.txt 0.610902 2.85948 1.28553 0.130042 5.37317
files/tasks_parameters/ExAp01/sample46.txt 0.943307 3.58643 1.69998 0.210103 8.68117
files/tasks_parameters/ExAp01/sample31.txt 0.712512 3.4832 1.53782 0.1722 7.11507
files/tasks_parameters/ExAp01/sample37.txt 0.804641 3.95293 1.50705 0.171701 7.09446
files/tasks_parameters/ExAp01/sample16.txt 0.719608 3.31216 1.30115 0.150249 6.20809
files/tasks_parameters/ExAp01/sample10.txt 0.75902 3.17098 1.61789 0.153776 6.35384
files/tasks_parameters/ExAp01/sample39.txt 0.742081 3.26617 1.44406 0.165669 6.84521
files/tasks_parameters/ExAp01/sample19.txt 0.933991 3.63532 1.52509 0.196094 8.10236
files/tasks_parameters/ExAp01/sample20.txt 0.606121 3.20793 1.25367 0.147335 6.0877
files/tasks_parameters/ExAp01/sample43.txt 0.635459 3.11551 1.4202 0.150644 6.22443
files/tasks_parameters/ExAp01/sample32.txt 0.693393 3.5311 1.42482 0.168744 6.97229
files/tasks_parameters/ExAp01/sample45.txt 0.859905 3.80283 1.48324 0.19807 8.18401
files/tasks_parameters/ExAp01/sample26.txt 0.713712 3.21645 1.29701 0.166061 6.86143
files/tasks_parameters/ExAp01/sample5.txt 0.847115 3.5889 1.52559 0.178903 7.39205
files/tasks_parameters/ExAp01/sample21.txt 0.839823 2.75242 1.55936 0.19512 8.06211
files/tasks_parameters/ExAp01/sample38.txt 0.70084 3.31563 1.37515 0.166157 6.86538
files/tasks_parameters/ExAp01/sample1.txt 0.866518 3.74964 1.51696 0.19701 8.14018
files/tasks_parameters/ExAp01/sample15.txt 0.75161 3.32916 1.48508 0.180707 7.46659
files/tasks_parameters/ExAp01/sample24.txt 0.717734 3.45951 1.59549 0.16529 6.82958
files/tasks_parameters/ExAp01/sample3.txt 1.02598 3.70014 1.70809 0.237107 9.79695
files/tasks_parameters/ExAp01/sample6.txt 0.768326 3.33003 1.58323 0.184714 7.63216
files/tasks_parameters/ExAp01/sample30.txt 0.934441 4.1841 1.4861 0.239623 9.90091
files/tasks_parameters/ExAp01/sample42.txt 0.806736 3.43221 1.70276 0.177383 7.32923
files/tasks_parameters/ExAp01/sample4.txt 0.832022 3.72477 1.6136 0.196448 8.11698
files/tasks_parameters/ExAp01/sample28.txt 0.721835 3.11323 1.45032 0.158819 6.56219
files/tasks_parameters/ExAp01/sample18.txt 0.67817 3.47418 1.45209 0.149064 6.15912
files/tasks_parameters/ExAp01/sample35.txt 0.72303 4.57086 1.49394 0.185031 7.64522
files/tasks_parameters/ExAp01/sample47.txt 0.7361 3.13768 1.52397 0.16417 6.78329
files/tasks_parameters/ExAp01/sample49.txt 0.680026 3.13288 1.49657 0.156154 6.45208
files/tasks_parameters/ExAp01/sample41.txt 0.623756 2.81964 1.49636 0.150876 6.23399
