files/tasks_parameters/ExAp01/sample8.txt 1.02393 3.76817 4.3855 0.450105 7.6607
files/tasks_parameters/ExAp01/sample12.txt 1.34074 5.03638 5.18776 0.610564 10.3917
files/tasks_parameters/ExAp01/sample2.txt 1.29592 4.58991 5.64606 0.613877 10.4481
files/tasks_parameters/ExAp01/sample44.txt 1.1816 3.77401 5.66946 0.551838 9.39217
files/tasks_parameters/ExAp01/sample27.txt 1.19407 4.13937 5.56136 0.55779 9.49347
files/tasks_parameters/ExAp01/sample17.txt 1.11005 3.76163 5.38341 0.520991 8.86717
files/tasks_parameters/ExAp01/sample9.txt 1.09395 3.69889 5.2981 0.511699 8.70903
files/tasks_parameters/ExAp01/sample34.txt 1.07957 3.52435 5.83741 0.49187 8.37154
files/tasks_parameters/ExAp01/sample40.txt 1.06149 4.06185 5.0335 0.496884 8.45687
files/tasks_parameters/ExAp01/sample33.txt 1.40552 4.82091 5.83886 0.651963 11.0963
files/tasks_parameters/ExAp01/sample48.txt 0.991542 4.01134 5.07085 0.447927 7.62364
files/tasks_parameters/ExAp01/sample29.txt 1.35332 4.20847 5.0406 0.643694 10.9555
files/tasks_parameters/ExAp01/sample11.txt 1.21202 3.94699 5.29198 0.557276 9.48473
files/tasks_parameters/ExAp01/sample14.txt 1.02592 3.54059 4.58345 0.466713 7.94337
files/tasks_parameters/ExAp01/sample0.txt 1.33568 4.82755 4.90216 0.623551 10.6127
files/tasks_parameters/ExAp01/sample7.txt 1.10144 3.60766 5.11185 0.509566 8.67271
files/tasks_parameters/ExAp01/sample23.txt 1.26316 3.81403 5.45799 0.582911 9.92104
files/tasks_parameters/ExAp01/sample13.txt 1.34682 4.8894 5.26818 0.624499 10.6289
files/tasks_parameters/ExAp01/sample22.txt 1.16206 3.76156 4.95746 0.534216 9.09226
files/tasks_parameters/ExAp01/sample25.txt 0.899798 2.94144 4.92622 0.403639 6.86986
files/tasks_parameters/ExAp01/sample36.txt 1.10489 3.56164 4.5806 0.501799 8.54052
files/tasks_parameters/ExAp01/sample46.txt 1.14198 3.84833 4.7121 0.530701 9.03243
files/tasks_parameters/ExAp01/sample31.txt 1.05006 3.764 5.08385 0.479734 8.16498
files/tasks_parameters/ExAp01/sample37.txt 1.40456 4.43254 5.65111 0.65143 11.0872
files/tasks_parameters/ExAp01/sample16.txt 1.1773 4.49741 4.8895 0.509171 8.66599
files/tasks_parameters/ExAp01/sample10.txt 1.32001 3.87086 6.07511 0.60993 10.3809
files/tasks_parameters/ExAp01/sample39.txt 1.01209 3.66299 4.54281 0.463671 7.8916
files/tasks_parameters/ExAp01/sample19.txt 1.29496 3.86694 5.14047 0.615987 10.484
files/tasks_parameters/ExAp01/sample20.txt 1.22988 4.09945 5.13368 0.580369 9.87776
files/tasks_parameters/ExAp01/sample43.txt 1.14437 3.75825 5.55698 0.530892 9.03568
files/tasks_parameters/ExAp01/sample32.txt 1.30189 4.0352 5.29178 0.587643 10.0016
files/tasks_parameters/ExAp01/sample45.txt 1.17582 3.94578 4.87833 0.541081 9.2091
files/tasks_parameters/ExAp01/sample26.txt 1.01909 3.50998 4.55035 0.474009 8.06755
files/tasks_parameters/ExAp01/sample5.txt 1.26212 4.00994 5.27725 0.587681 10.0022
files/tasks_parameters/ExAp01/sample21.txt 0.934426 2.8974 4.54677 0.430037 7.31915
files/tasks_parameters/ExAp01/sample38.txt 1.08094 3.56689 4.78573 0.492366 8.37998
files/tasks_parameters/ExAp01/sample1.txt 1.04415 3.69002 4.55048 0.481074 8.18779
files/tasks_parameters/ExAp01/sample15.txt 1.13059 3.73223 5.42493 0.524964 8.93479
files/tasks_parameters/ExAp01/sample24.txt 1.15732 4.18053 5.40377 0.542575 9.23453
files/tasks_parameters/ExAp01/sample3.txt 1.00507 3.70547 4.7118 0.470503 8.00787
files/tasks_parameters/ExAp01/sample6.txt 1.31353 4.07521 5.71419 0.626702 10.6664
files/tasks_parameters/ExAp01/sample30.txt 1.3709 3.97446 5.82388 0.626709 10.6665
files/tasks_parameters/ExAp01/sample42.txt 1.19543 4.44207 5.58473 0.537025 9.14006
files/tasks_parameters/ExAp01/sample4.txt 1.22667 3.92181 4.49751 0.556974 9.47959
files/tasks_parameters/ExAp01/sample28.txt 0.991351 3.13496 4.88321 0.444588 7.56681
files/tasks_parameters/ExAp01/sample18.txt 1.16987 3.95301 4.52898 0.537438 9.14709
files/tasks_parameters/ExAp01/sample35.txt 1.70241 5.75923 6.25034 0.752488 12.8072
files/tasks_parameters/ExAp01/sample47.txt 1.14008 3.44018 5.14289 0.540033 9.19126
files/tasks_parameters/ExAp01/sample49.txt 1.17439 3.38981 4.72409 0.493041 8.39147
files/tasks_parameters/ExAp01/sample41.txt 1.04989 3.58692 5.27252 0.492391 8.38039
