files/tasks_parameters/ExAp01/sample8.txt 1.1123 6.77015 2.19458 0.288816 5.83442
files/tasks_parameters/ExAp01/sample12.txt 1.32293 9.58351 2.46081 0.337498 6.81785
files/tasks_parameters/ExAp01/sample2.txt 1.23055 8.44418 2.50701 0.319127 6.44674
files/tasks_parameters/ExAp01/sample44.txt 1.07437 6.96299 2.23089 0.28229 5.70259
files/tasks_parameters/ExAp01/sample27.txt 1.11996 7.74306 2.16676 0.28602 5.77793
files/tasks_parameters/ExAp01/sample17.txt 1.12539 7.35053 2.25579 0.292348 5.90575
files/tasks_parameters/ExAp01/sample9.txt 1.13488 6.89392 2.21068 0.282399 5.70478
files/tasks_parameters/ExAp01/sample34.txt 1.12131 6.62788 2.3772 0.297742 6.01472
files/tasks_parameters/ExAp01/sample40.txt 1.05986 7.75686 2.17534 0.285619 5.76984
files/tasks_parameters/ExAp01/sample33.txt 1.29392 8.14826 2.6463 0.338073 6.82946
files/tasks_parameters/ExAp01/sample48.txt 1.03159 7.64107 2.14272 0.270011 5.45453
files/tasks_parameters/ExAp01/sample29.txt 1.16546 7.139 1.93769 0.286306 5.7837
files/tasks_parameters/ExAp01/sample11.txt 1.05245 6.88688 2.12981 0.280008 5.65649
files/tasks_parameters/ExAp01/sample14.txt 0.902345 6.11983 1.97599 0.247458 4.99893
files/tasks_parameters/ExAp01/sample0.txt 1.12454 8.2738 2.14256 0.289132 5.84079
files/tasks_parameters/ExAp01/sample7.txt 1.04288 6.87011 2.05821 0.269886 5.452
files/tasks_parameters/ExAp01/sample23.txt 1.13116 6.52032 2.38087 0.291712 5.89291
files/tasks_parameters/ExAp01/sample13.txt 1.17015 8.73247 2.33415 0.295393 5.96727
files/tasks_parameters/ExAp01/sample22.txt 1.10335 6.9777 2.28948 0.283979 5.7367
files/tasks_parameters/ExAp01/sample25.txt 0.990336 6.23444 2.2122 0.267298 5.39972
files/tasks_parameters/ExAp01/sample36.txt 0.975409 6.6174 1.9458 0.253823 5.12751
files/tasks_parameters/ExAp01/sample46.txt 1.28184 7.42369 2.49128 0.327273 6.61129
files/tasks_parameters/ExAp01/sample31.txt 1.0107 7.22028 2.13584 0.25377 5.12644
files/tasks_parameters/ExAp01/sample37.txt 1.14521 8.90704 2.16981 0.295708 5.97364
files/tasks_parameters/ExAp01/sample16.txt 0.989001 8.18243 1.88294 0.24945 5.03917
files/tasks_parameters/ExAp01/sample10.txt 1.10765 6.96646 2.31217 0.285748 5.77243
files/tasks_parameters/ExAp01/sample39.txt 0.955821 6.4161 1.97266 0.251967 5.09001
files/tasks_parameters/ExAp01/sample19.txt 1.23209 8.16711 2.23199 0.308463 6.2313
files/tasks_parameters/ExAp01/sample20.txt 0.995338 7.28549 1.88944 0.25994 5.25108
files/tasks_parameters/ExAp01/sample43.txt 0.967876 6.86804 2.00142 0.25616 5.17473
files/tasks_parameters/ExAp01/sample32.txt 1.08263 8.15663 2.12995 0.281726 5.69119
files/tasks_parameters/ExAp01/sample45.txt 1.13633 7.75184 2.10599 0.274935 5.554
files/tasks_parameters/ExAp01/sample26.txt 1.02456 7.4944 1.88956 0.267248 5.39871
files/tasks_parameters/ExAp01/sample5.txt 1.11815 8.08362 2.09961 0.28454 5.74804
files/tasks_parameters/ExAp01/sample21.txt 1.03815 6.11814 2.17119 0.26143 5.28118
files/tasks_parameters/ExAp01/sample38.txt 1.02887 7.761 1.96293 0.263659 5.32621
files/tasks_parameters/ExAp01/sample1.txt 1.12742 7.83752 2.13261 0.289228 5.84274
files/tasks_parameters/ExAp01/sample15.txt 1.10509 7.37971 2.12057 0.285825 5.774
files/tasks_parameters/ExAp01/sample24.txt 1.11909 8.28531 2.25272 0.296628 5.99223
files/tasks_parameters/ExAp01/sample3.txt 1.21197 7.33359 2.39135 0.305084 6.16305
files/tasks_parameters/ExAp01/sample6.txt 1.06453 7.09894 2.24425 0.281804 5.69277
files/tasks_parameters/ExAp01/sample30.txt 1.28925 8.17669 2.03701 0.299204 6.04427
files/tasks_parameters/ExAp01/sample42.txt 1.09459 7.70416 2.42413 0.29743 6.00842
files/tasks_parameters/ExAp01/sample4.txt 1.22849 7.41691 2.36261 0.307803 6.21797
files/tasks_parameters/ExAp01/sample28.txt 1.06537 7.0562 2.07657 0.266428 5.38215
files/tasks_parameters/ExAp01/sample18.txt 1.02698 7.60139 2.1377 0.268016 5.41423
files/tasks_parameters/ExAp01/sample35.txt 1.28684 9.66795 2.28028 0.32244 6.51365
files/tasks_parameters/ExAp01/sample47.txt 0.971277 6.84842 2.12104 0.251655 5.08371
files/tasks_parameters/ExAp01/sample49.txt 0.978041 7.1497 2.11412 0.255889 5.16925
files/tasks_parameters/ExAp01/sample41.txt 1.00199 6.59911 2.07359 0.265885 5.37119
