0 13
0 17
2 13
3 14
4 12
4 14
5 12
5 14
5 18
6 14
6 16
6 17
6 18
7 12
7 16
7 17
7 18
9 16
9 17
9 18
10 13
11 13
11 14
11 15
12 19
12 20
12 21
12 22
13 20
13 24
14 19
14 23
15 23
17 22
17 23
18 19
18 21
18 22
19 26
19 27
19 28
19 30
20 26
20 28
20 30
21 25
22 25
22 29
22 30
23 31
24 25
24 28
24 31
25 34
26 34
26 35
26 37
27 37
27 38
28 33
28 34
29 35
29 36
29 37
30 32
30 33
30 35
30 37
31 35
33 41
33 42
33 43
34 44
34 46
35 39
35 40
35 44
35 45
36 40
36 42
36 44
36 45
37 41
37 43
37 44
37 45
37 46
38 39
38 41
38 43
38 46
39 48
39 52
39 53
39 54
40 47
40 49
40 52
42 49
42 50
42 52
42 53
43 53
44 49
44 53
44 54
46 51
47 55
48 57
48 59
49 57
49 59
49 60
50 55
50 58
50 60
53 60
54 55
54 56
54 58
55 63
55 64
55 69
56 62
56 64
56 67
57 61
57 68
58 65
58 66
59 66
60 65
60 69
61 71
61 73
63 72
64 73
64 74
65 71
65 73
66 70
67 73
70 82
71 78
71 79
71 81
72 75
72 77
72 79
72 80
72 81
73 76
73 81
74 78
76 83
76 84
76 85
76 86
76 87
77 83
77 86
78 84
78 87
80 86
81 83
81 86
82 85
83 88
83 91
83 92
83 93
83 95
83 97
84 88
84 91
85 89
85 90
85 94
85 98
86 89
86 93
86 94
87 88
87 89
87 91
87 94
87 96
87 99
