0 5
0 7
0 9
1 6
1 8
2 6
2 10
3 7
3 8
4 7
4 11
5 12
5 14
5 15
5 18
6 12
6 13
6 14
6 15
6 18
7 12
7 20
7 22
8 18
8 23
9 13
9 17
9 19
10 13
10 14
10 16
10 21
10 24
11 12
11 14
11 16
11 23
12 28
12 35
13 25
14 26
14 28
14 37
16 32
16 34
16 36
17 25
17 28
17 29
17 30
17 32
17 33
19 32
19 33
20 25
22 28
22 35
23 27
24 28
24 31
24 35
25 40
26 40
26 43
27 38
27 40
28 39
29 41
30 41
30 42
32 41
33 40
33 43
34 40
35 38
35 40
35 41
35 43
36 39
36 40
36 41
36 43
37 38
38 46
38 47
38 52
39 47
39 50
39 51
40 48
40 49
41 45
41 51
42 44
42 50
43 44
43 45
43 47
43 51
44 53
44 55
44 56
44 58
45 54
45 55
45 56
46 53
46 55
46 57
46 58
48 53
48 57
49 54
49 57
50 53
50 55
50 56
50 58
51 54
51 56
51 58
52 53
52 54
52 55
52 56
52 58
53 63
53 69
54 59
54 60
54 61
55 59
55 62
55 63
55 64
55 65
55 68
55 70
56 61
56 62
56 65
56 66
56 67
56 68
57 60
57 63
57 64
57 65
57 66
57 71
58 60
58 64
58 69
59 75
59 78
59 80
60 72
60 79
60 80
61 79
62 74
62 76
63 73
63 76
63 81
64 72
64 74
64 77
64 81
65 73
65 74
65 77
65 79
66 73
66 77
66 79
67 73
68 72
68 73
68 74
69 73
69 80
70 72
70 73
70 75
70 76
70 79
70 80
71 77
72 82
72 83
73 83
74 83
74 85
75 84
75 88
75 89
75 91
76 83
76 84
76 89
76 90
77 84
77 84
77 91
78 83
78 85
78 86
78 87
78 91
79 86
80 84
80 86
80 90
81 82
81 87
81 90
81 91
82 92
82 94
82 96
82 99
83 94
83 96
83 98
83 99
84 94
84 95
84 96
84 98
84 99
85 92
85 98
86 93
86 95
88 96
88 97
89 97
89 98
90 92
90 94
90 99
91 92
91 94
91 95
91 96
91 99
