0 14
0 19
0 21
0 23
1 14
1 15
1 17
1 21
1 22
2 14
2 16
2 21
2 23
3 14
3 15
3 19
3 23
4 14
4 15
4 19
4 23
5 15
6 14
6 18
6 20
7 16
7 18
7 21
8 16
8 22
9 20
10 21
11 15
11 18
11 20
11 21
11 23
12 15
12 16
12 17
12 19
12 22
12 23
13 15
13 16
13 18
13 19
13 21
13 22
13 23
14 27
15 29
15 30
16 24
16 30
18 25
18 27
18 28
19 24
19 30
20 24
20 25
20 26
20 30
21 28
22 26
22 28
23 24
23 26
23 27
23 28
24 33
24 38
25 32
25 36
25 38
26 31
26 32
26 33
26 39
26 40
27 35
27 36
27 37
27 39
27 40
28 31
28 38
28 39
28 40
29 31
29 32
29 34
29 38
29 40
31 42
31 44
31 50
33 47
33 49
34 46
35 44
35 45
35 47
35 48
35 49
35 50
36 44
36 47
36 49
37 43
38 41
38 44
38 49
39 43
39 48
39 49
39 50
40 47
40 50
41 54
41 55
41 57
41 58
41 61
41 64
42 52
42 56
42 60
42 62
42 64
43 53
43 55
43 56
43 61
43 62
44 63
45 53
45 54
45 57
45 59
45 60
46 53
46 54
46 61
47 53
47 56
47 57
47 59
47 60
48 51
48 53
48 54
48 55
48 56
48 60
49 56
49 60
49 61
49 62
50 54
50 58
51 65
51 67
51 69
52 65
52 67
52 70
53 67
53 68
54 66
54 68
55 67
55 68
55 69
56 67
56 68
56 69
57 65
57 66
58 67
58 70
60 70
61 69
62 66
62 69
62 70
63 65
63 70
64 68
65 73
65 74
65 75
65 76
65 81
66 76
66 77
66 80
66 83
67 74
67 77
67 80
67 83
68 71
68 75
68 78
68 81
68 82
69 71
69 73
69 74
69 75
69 78
70 71
70 72
70 73
70 79
70 82
71 84
72 87
73 86
73 88
74 87
75 85
75 87
76 85
76 87
77 85
77 86
77 88
78 86
78 88
79 84
80 87
81 84
83 86
84 92
84 94
84 98
84 99
85 89
85 93
85 95
85 99
86 92
86 93
86 97
87 91
87 93
87 96
87 98
88 89
88 90
88 91
88 96
88 97
88 98
88 99
