0 12
0 13
0 14
1 8
1 12
1 13
2 10
2 11
3 9
3 11
3 15
3 17
3 18
4 9
4 16
5 9
5 10
6 10
6 13
6 17
6 18
7 13
7 17
8 19
8 21
8 23
8 28
9 19
9 23
9 24
10 19
10 20
10 21
10 27
10 28
11 25
11 28
12 21
12 26
13 21
13 23
13 25
13 28
14 19
14 20
14 21
14 23
14 26
15 22
15 23
16 22
16 23
16 25
17 19
17 25
17 25
17 27
17 28
18 19
18 28
19 32
19 33
19 38
19 39
20 34
20 36
20 38
21 36
21 38
22 37
22 38
22 39
23 31
23 39
24 31
24 34
25 29
25 30
25 32
25 33
25 36
26 33
26 37
26 39
27 32
27 37
28 33
28 35
28 38
29 41
29 42
29 43
30 40
30 44
31 43
33 40
33 41
33 42
34 43
35 43
35 45
36 44
37 40
37 44
37 45
38 40
38 44
39 41
39 42
40 46
40 50
40 55
40 56
41 46
41 48
41 51
41 52
41 54
41 56
42 46
42 49
42 51
42 54
42 56
42 57
43 47
43 49
43 52
43 58
44 47
44 48
44 51
44 52
44 54
44 58
45 48
45 50
45 53
45 59
46 60
46 63
46 64
47 61
47 62
47 66
48 61
48 66
48 66
49 61
49 65
50 60
51 63
51 66
52 60
52 63
52 65
52 66
53 66
54 61
55 60
55 64
55 65
55 67
56 60
56 61
56 63
57 63
58 63
58 66
59 63
59 64
60 68
61 70
62 70
63 72
64 69
64 70
64 72
65 70
65 71
66 69
66 73
67 73
68 76
69 76
69 78
69 79
70 75
70 79
71 79
72 77
73 74
73 76
73 77
75 80
75 82
75 83
75 84
76 81
76 85
78 80
80 86
80 87
80 88
80 90
81 87
81 88
81 89
82 87
83 90
84 86
84 89
85 86
85 88
85 89
85 90
86 93
86 94
86 98
87 91
87 95
87 96
87 97
88 92
88 93
88 95
88 96
88 97
88 99
89 91
89 97
90 94
90 96
90 98
