0.28692682
Task0 15 3 7 
Task1 1 31 7 
Task2 3 1 31 
Task3 1 15 3 
Task4 7 31 15 
Task5 3 7 15 
Task6 15 7 31 
Task7 31 31 63 
Task8 1 15 3 
Task9 15 1 3 
Task10 31 31 63 
Task11 31 1 15 
Task12 31 1 15 
Task13 3 15 7 
Task14 1 3 15 
Task15 15 15 3 
Task16 7 15 31 
Task17 7 15 7 
Task18 15 63 31 
Task19 3 7 15 
Task20 7 1 15 
Task21 7 3 31 
Task22 15 1 1 
Task23 15 1 7 
Task24 3 15 15 
Task25 15 15 31 
Task26 15 1 31 
Task27 15 3 7 
Task28 31 63 31 
Task29 15 7 1 
Task30 63 63 63 
Task31 15 15 7 
Task32 7 7 15 
Task33 31 3 7 
Task34 255 255 63 
Task35 15 1 7 
Task36 15 1 31 
Task37 15 3 3 
Task38 15 15 7 
Task39 7 31 1 
Task40 15 3 31 
Task41 15 15 31 
Task42 15 15 15 
Task43 15 7 31 
Task44 15 15 1 
Task45 15 15 31 
Task46 31 31 31 
Task47 7 15 1 
Task48 15 1 7 
Task49 15 3 31 
Task50 3 7 15 
Task51 3 3 31 
Task52 7 15 15 
Task53 15 31 63 
Task54 1 15 3 
Task55 15 3 63 
Task56 7 31 15 
Task57 31 15 15 
Task58 7 15 15 
Task59 1 15 1 
Task60 15 15 7 
Task61 15 15 31 
Task62 15 31 15 
Task63 31 15 31 
Task64 15 1 3 
Task65 1 31 7 
Task66 7 31 3 
Task67 31 1 31 
Task68 63 3 15 
Task69 15 15 31 
Task70 31 31 15 
Task71 15 31 1 
Task72 31 1 7 
Task73 31 63 7 
Task74 31 15 15 
Task75 31 7 1 
Task76 3 1 15 
Task77 7 15 1 
Task78 3 3 31 
Task79 3 63 63 
Task80 3 15 15 
Task81 1 1 15 
Task82 15 1 31 
Task83 63 7 31 
Task84 15 15 15 
Task85 15 7 15 
Task86 7 7 7 
Task87 3 15 3 
Task88 15 7 7 
Task89 31 1 7 
Task90 7 63 15 
Task91 3 3 15 
Task92 1 31 7 
Task93 3 7 31 
Task94 15 3 1 
Task95 7 3 31 
Task96 31 1 31 
Task97 15 127 255 
Task98 15 7 7 
Task99 7 15 7 
