0.33133741
Task0 255 15 15 
Task1 63 15 127 
Task2 127 3 255 
Task3 63 31 255 
Task4 127 63 15 
Task5 255 15 1 
Task6 1 255 1 
Task7 255 15 7 
Task8 63 3 7 
Task9 127 127 127 
Task10 127 127 63 
Task11 31 63 63 
Task12 31 255 127 
Task13 63 255 7 
Task14 63 255 63 
Task15 31 255 31 
Task16 1 7 255 
Task17 127 255 127 
Task18 15 31 255 
Task19 31 255 63 
Task20 63 255 127 
Task21 127 15 31 
Task22 1 63 31 
Task23 7 255 255 
Task24 31 127 7 
Task25 255 127 127 
Task26 31 127 3 
Task27 63 255 31 
Task28 15 127 31 
Task29 31 63 127 
Task30 255 1 31 
Task31 31 63 63 
Task32 255 255 127 
Task33 31 255 255 
Task34 255 127 7 
Task35 31 63 255 
Task36 63 31 255 
Task37 1 255 31 
Task38 63 15 63 
Task39 127 63 15 
Task40 31 1 3 
Task41 255 7 255 
Task42 15 63 127 
Task43 63 1 255 
Task44 63 127 15 
Task45 127 63 255 
Task46 255 255 255 
Task47 63 63 31 
Task48 3 255 3 
Task49 3 255 255 
Task50 63 31 63 
Task51 31 31 15 
Task52 63 63 31 
Task53 31 31 63 
Task54 255 31 63 
Task55 127 7 63 
Task56 255 7 31 
Task57 7 63 255 
Task58 255 31 3 
Task59 255 15 3 
Task60 255 255 255 
Task61 3 31 63 
Task62 127 7 3 
Task63 31 31 127 
Task64 1 127 255 
Task65 31 63 7 
Task66 63 63 255 
Task67 15 127 31 
Task68 15 7 63 
Task69 63 7 15 
Task70 127 15 63 
Task71 7 255 127 
Task72 15 63 31 
Task73 31 63 1 
Task74 31 1 3 
Task75 63 63 15 
Task76 63 127 7 
Task77 3 63 31 
Task78 15 15 255 
Task79 1 3 255 
Task80 255 7 31 
Task81 1 7 255 
Task82 7 3 255 
Task83 1 255 1 
Task84 31 63 63 
Task85 31 127 31 
Task86 255 63 15 
Task87 63 31 255 
Task88 255 31 255 
Task89 127 31 127 
Task90 7 255 31 
Task91 63 127 15 
Task92 3 31 255 
Task93 255 7 7 
Task94 1 63 15 
Task95 63 1 31 
Task96 63 31 255 
Task97 3 255 63 
Task98 15 127 63 
Task99 15 63 1 
