0.34926247999999993
Task0 63 15 15 
Task1 3 31 1 
Task2 7 63 7 
Task3 1 1 31 
Task4 3 15 31 
Task5 63 15 1 
Task6 1 31 31 
Task7 7 1 63 
Task8 31 255 255 
Task9 7 63 1 
Task10 31 63 15 
Task11 1 31 1 
Task12 7 63 7 
Task13 31 3 15 
Task14 31 1 7 
Task15 31 31 7 
Task16 1 31 15 
Task17 7 31 3 
Task18 7 31 1 
Task19 31 255 255 
Task20 31 7 63 
Task21 63 63 63 
Task22 63 63 31 
Task23 1 7 31 
Task24 31 7 7 
Task25 63 3 31 
Task26 7 31 1 
Task27 31 31 63 
Task28 1 31 1 
Task29 31 31 7 
Task30 127 255 255 
Task31 63 63 63 
Task32 31 31 63 
Task33 63 7 31 
Task34 31 3 3 
Task35 15 7 31 
Task36 63 7 15 
Task37 31 31 63 
Task38 3 15 31 
Task39 63 31 15 
Task40 31 7 31 
Task41 31 15 3 
Task42 7 31 63 
Task43 31 31 15 
Task44 15 31 15 
Task45 31 31 15 
Task46 7 31 3 
Task47 3 31 3 
Task48 31 63 7 
Task49 63 1 7 
Task50 15 63 15 
Task51 15 15 31 
Task52 63 63 63 
Task53 3 31 3 
Task54 3 63 15 
Task55 3 7 31 
Task56 15 63 63 
Task57 15 63 31 
Task58 63 63 31 
Task59 31 7 7 
Task60 15 63 63 
Task61 7 63 1 
Task62 31 3 1 
Task63 63 7 3 
Task64 63 63 31 
Task65 63 31 1 
Task66 63 31 7 
Task67 63 31 31 
Task68 7 1 31 
Task69 63 7 63 
Task70 7 1 31 
Task71 15 15 31 
Task72 1 15 31 
Task73 31 7 1 
Task74 7 63 1 
Task75 31 15 63 
Task76 31 1 1 
Task77 31 63 127 
Task78 1 31 3 
Task79 63 3 31 
Task80 31 15 7 
Task81 1 31 31 
Task82 15 15 15 
Task83 63 15 7 
Task84 7 1 31 
Task85 127 63 63 
Task86 31 1 7 
Task87 7 7 31 
Task88 31 31 31 
Task89 31 31 7 
Task90 255 255 255 
Task91 63 31 63 
Task92 63 15 1 
Task93 31 1 31 
Task94 3 63 7 
Task95 31 15 31 
Task96 255 127 255 
Task97 31 127 63 
Task98 63 15 15 
Task99 7 31 7 
