0.4202054999999999
Task0 31 31 15 
Task1 127 255 3 
Task2 31 31 63 
Task3 3 31 15 
Task4 31 255 63 
Task5 31 15 63 
Task6 15 1 255 
Task7 31 63 1 
Task8 31 1 7 
Task9 63 63 127 
Task10 3 7 31 
Task11 31 127 255 
Task12 63 7 3 
Task13 1 63 1 
Task14 7 255 15 
Task15 31 63 15 
Task16 31 255 15 
Task17 255 127 7 
Task18 1 255 63 
Task19 7 31 31 
Task20 3 1 63 
Task21 15 63 15 
Task22 255 7 255 
Task23 3 255 63 
Task24 127 127 127 
Task25 7 255 15 
Task26 255 255 63 
Task27 3 7 63 
Task28 63 31 7 
Task29 31 31 7 
Task30 63 7 31 
Task31 31 1 63 
Task32 31 255 63 
Task33 127 15 1 
Task34 15 63 15 
Task35 63 31 7 
Task36 1 63 255 
Task37 127 255 31 
Task38 7 7 255 
Task39 127 31 63 
Task40 31 15 63 
Task41 31 255 7 
Task42 63 1 3 
Task43 63 63 255 
Task44 255 255 63 
Task45 255 127 15 
Task46 63 63 31 
Task47 63 255 255 
Task48 7 63 15 
Task49 255 63 63 
Task50 15 255 7 
Task51 15 255 31 
Task52 31 255 255 
Task53 63 7 31 
Task54 7 15 63 
Task55 63 255 31 
Task56 63 31 255 
Task57 255 7 15 
Task58 15 127 31 
Task59 1 63 255 
Task60 31 15 31 
Task61 63 31 1 
Task62 63 127 15 
Task63 255 127 127 
Task64 3 3 31 
Task65 63 1 7 
Task66 127 127 63 
Task67 63 1 63 
Task68 255 255 255 
Task69 31 31 15 
Task70 31 63 63 
Task71 255 255 31 
Task72 127 63 255 
Task73 255 3 1 
Task74 7 3 63 
Task75 255 127 3 
Task76 255 31 31 
Task77 15 255 15 
Task78 3 63 31 
Task79 63 63 31 
Task80 3 255 7 
Task81 31 31 255 
Task82 1 1 255 
Task83 63 127 63 
Task84 15 15 63 
Task85 31 255 63 
Task86 255 63 255 
Task87 31 63 63 
Task88 255 31 63 
Task89 127 63 15 
Task90 255 255 127 
Task91 3 63 255 
Task92 15 31 255 
Task93 255 127 31 
Task94 63 15 31 
Task95 255 255 127 
Task96 15 63 127 
Task97 127 31 63 
Task98 63 63 63 
Task99 31 31 15 
