files/tasks_parameters/ExAp01/sample8.txt 0.804056 3.15778 1.5595 0.203411 4.54652
files/tasks_parameters/ExAp01/sample12.txt 0.809728 3.94962 1.6705 0.207924 4.64738
files/tasks_parameters/ExAp01/sample2.txt 0.795038 3.78275 1.74131 0.200098 4.47246
files/tasks_parameters/ExAp01/sample44.txt 0.672206 3.59825 1.65317 0.200005 4.47039
files/tasks_parameters/ExAp01/sample27.txt 0.69811 3.45743 1.5148 0.182129 4.07082
files/tasks_parameters/ExAp01/sample17.txt 0.830569 2.77299 1.44514 0.14646 3.27358
files/tasks_parameters/ExAp01/sample9.txt 0.744337 2.99933 1.451 0.177444 3.9661
files/tasks_parameters/ExAp01/sample34.txt 0.831645 3.02928 1.58429 0.157984 3.53115
files/tasks_parameters/ExAp01/sample40.txt 0.76512 3.86889 1.52122 0.168379 3.76351
files/tasks_parameters/ExAp01/sample33.txt 0.800977 3.63695 1.71905 0.199765 4.46502
files/tasks_parameters/ExAp01/sample48.txt 0.682426 3.39061 1.49062 0.154728 3.45839
files/tasks_parameters/ExAp01/sample29.txt 0.80987 3.30472 1.38739 0.223868 5.00376
files/tasks_parameters/ExAp01/sample11.txt 0.707448 3.10585 1.41612 0.174079 3.89089
files/tasks_parameters/ExAp01/sample14.txt 0.666211 2.70971 1.43432 0.162214 3.62571
files/tasks_parameters/ExAp01/sample0.txt 0.744775 3.6937 1.5439 0.18367 4.10527
files/tasks_parameters/ExAp01/sample7.txt 0.799885 2.70501 1.42221 0.143463 3.2066
files/tasks_parameters/ExAp01/sample23.txt 0.759163 3.2697 1.57822 0.181448 4.05562
files/tasks_parameters/ExAp01/sample13.txt 0.729548 3.84225 1.67648 0.198247 4.43109
files/tasks_parameters/ExAp01/sample22.txt 0.814374 3.09569 1.56121 0.148796 3.3258
files/tasks_parameters/ExAp01/sample25.txt 0.727641 2.73966 1.5007 0.148149 3.31132
files/tasks_parameters/ExAp01/sample36.txt 0.757803 2.85948 1.28553 0.130042 2.90662
files/tasks_parameters/ExAp01/sample46.txt 0.761331 3.58643 1.69998 0.210103 4.69608
files/tasks_parameters/ExAp01/sample31.txt 0.707273 3.4832 1.53782 0.1722 3.8489
files/tasks_parameters/ExAp01/sample37.txt 0.765986 3.95293 1.50705 0.171701 3.83775
files/tasks_parameters/ExAp01/sample16.txt 0.61566 3.31216 1.30115 0.150249 3.35827
files/tasks_parameters/ExAp01/sample10.txt 0.978252 3.17098 1.61789 0.153776 3.43711
files/tasks_parameters/ExAp01/sample39.txt 0.698854 3.26617 1.44406 0.165669 3.70292
files/tasks_parameters/ExAp01/sample19.txt 0.744048 3.63532 1.52509 0.196094 4.38298
files/tasks_parameters/ExAp01/sample20.txt 0.662661 3.20793 1.25367 0.147335 3.29315
files/tasks_parameters/ExAp01/sample43.txt 0.646585 3.11551 1.4202 0.150644 3.36711
files/tasks_parameters/ExAp01/sample32.txt 0.722684 3.5311 1.42482 0.168744 3.77166
files/tasks_parameters/ExAp01/sample45.txt 0.76622 3.80283 1.48324 0.19807 4.42714
files/tasks_parameters/ExAp01/sample26.txt 0.654174 3.21645 1.29701 0.166061 3.7117
files/tasks_parameters/ExAp01/sample5.txt 0.660529 3.5889 1.52559 0.178903 3.99874
files/tasks_parameters/ExAp01/sample21.txt 0.65853 2.75242 1.55936 0.19512 4.36121
files/tasks_parameters/ExAp01/sample38.txt 0.676658 3.31563 1.37515 0.166157 3.71383
files/tasks_parameters/ExAp01/sample1.txt 0.693996 3.74964 1.51696 0.19701 4.40343
files/tasks_parameters/ExAp01/sample15.txt 0.696611 3.32916 1.48508 0.180707 4.03906
files/tasks_parameters/ExAp01/sample24.txt 0.843701 3.45951 1.59549 0.16529 3.69447
files/tasks_parameters/ExAp01/sample3.txt 0.944627 3.70014 1.70809 0.237107 5.29967
files/tasks_parameters/ExAp01/sample6.txt 0.705863 3.33003 1.58323 0.184714 4.12862
files/tasks_parameters/ExAp01/sample30.txt 0.888173 4.1841 1.4861 0.239623 5.3559
files/tasks_parameters/ExAp01/sample42.txt 0.747833 3.43221 1.70276 0.177383 3.96475
files/tasks_parameters/ExAp01/sample4.txt 0.813224 3.72477 1.6136 0.196448 4.39088
files/tasks_parameters/ExAp01/sample28.txt 0.689545 3.11323 1.45032 0.158819 3.54982
files/tasks_parameters/ExAp01/sample18.txt 0.764248 3.47418 1.45209 0.149064 3.33178
files/tasks_parameters/ExAp01/sample35.txt 0.803135 4.57086 1.49394 0.185031 4.13569
files/tasks_parameters/ExAp01/sample47.txt 0.693986 3.13768 1.52397 0.16417 3.66943
files/tasks_parameters/ExAp01/sample49.txt 0.776571 3.13288 1.49657 0.156154 3.49026
files/tasks_parameters/ExAp01/sample41.txt 0.763294 2.81964 1.49636 0.150876 3.37228
