files/tasks_parameters/ExAp01/sample8.txt 1.07622 6.77015 2.19458 0.288816 7.15405
files/tasks_parameters/ExAp01/sample12.txt 1.24504 9.58351 2.46081 0.337498 8.35992
files/tasks_parameters/ExAp01/sample2.txt 1.11581 8.44418 2.50701 0.319127 7.90486
files/tasks_parameters/ExAp01/sample44.txt 1.00726 6.96299 2.23089 0.28229 6.9924
files/tasks_parameters/ExAp01/sample27.txt 1.0273 7.74306 2.16676 0.28602 7.08478
files/tasks_parameters/ExAp01/sample17.txt 1.06454 7.35053 2.25579 0.292348 7.24152
files/tasks_parameters/ExAp01/sample9.txt 1.00457 6.89392 2.21068 0.282399 6.99509
files/tasks_parameters/ExAp01/sample34.txt 1.03749 6.62788 2.3772 0.297742 7.37513
files/tasks_parameters/ExAp01/sample40.txt 0.99104 7.75686 2.17534 0.285619 7.07486
files/tasks_parameters/ExAp01/sample33.txt 1.22066 8.14826 2.6463 0.338073 8.37415
files/tasks_parameters/ExAp01/sample48.txt 1.02266 7.64107 2.14272 0.270011 6.68824
files/tasks_parameters/ExAp01/sample29.txt 1.00738 7.139 1.93769 0.286306 7.09186
files/tasks_parameters/ExAp01/sample11.txt 0.94999 6.88688 2.12981 0.280008 6.93587
files/tasks_parameters/ExAp01/sample14.txt 0.874417 6.11983 1.97599 0.247458 6.12958
files/tasks_parameters/ExAp01/sample0.txt 1.01323 8.2738 2.14256 0.289132 7.16186
files/tasks_parameters/ExAp01/sample7.txt 0.993265 6.87011 2.05821 0.269886 6.68513
files/tasks_parameters/ExAp01/sample23.txt 1.1216 6.52032 2.38087 0.291712 7.22576
files/tasks_parameters/ExAp01/sample13.txt 1.05091 8.73247 2.33415 0.295393 7.31694
files/tasks_parameters/ExAp01/sample22.txt 1.03188 6.9777 2.28948 0.283979 7.03423
files/tasks_parameters/ExAp01/sample25.txt 0.979518 6.23444 2.2122 0.267298 6.62103
files/tasks_parameters/ExAp01/sample36.txt 0.886633 6.6174 1.9458 0.253823 6.28725
files/tasks_parameters/ExAp01/sample46.txt 1.21941 7.42369 2.49128 0.327273 8.10663
files/tasks_parameters/ExAp01/sample31.txt 0.902731 7.22028 2.13584 0.25377 6.28594
files/tasks_parameters/ExAp01/sample37.txt 1.09063 8.90704 2.16981 0.295708 7.32476
files/tasks_parameters/ExAp01/sample16.txt 0.913949 8.18243 1.88294 0.24945 6.17893
files/tasks_parameters/ExAp01/sample10.txt 1.08504 6.96646 2.31217 0.285748 7.07804
files/tasks_parameters/ExAp01/sample39.txt 0.899889 6.4161 1.97266 0.251967 6.24127
files/tasks_parameters/ExAp01/sample19.txt 1.15216 8.16711 2.23199 0.308463 7.6407
files/tasks_parameters/ExAp01/sample20.txt 0.892102 7.28549 1.88944 0.25994 6.43877
files/tasks_parameters/ExAp01/sample43.txt 0.915514 6.86804 2.00142 0.25616 6.34515
files/tasks_parameters/ExAp01/sample32.txt 0.999496 8.15663 2.12995 0.281726 6.97843
files/tasks_parameters/ExAp01/sample45.txt 1.01973 7.75184 2.10599 0.274935 6.8102
files/tasks_parameters/ExAp01/sample26.txt 0.965271 7.4944 1.88956 0.267248 6.6198
files/tasks_parameters/ExAp01/sample5.txt 1.07449 8.08362 2.09961 0.28454 7.04813
files/tasks_parameters/ExAp01/sample21.txt 0.912387 6.11814 2.17119 0.26143 6.47567
files/tasks_parameters/ExAp01/sample38.txt 0.936225 7.761 1.96293 0.263659 6.53089
files/tasks_parameters/ExAp01/sample1.txt 1.00418 7.83752 2.13261 0.289228 7.16425
files/tasks_parameters/ExAp01/sample15.txt 0.990409 7.37971 2.12057 0.285825 7.07996
files/tasks_parameters/ExAp01/sample24.txt 1.05392 8.28531 2.25272 0.296628 7.34756
files/tasks_parameters/ExAp01/sample3.txt 1.12751 7.33359 2.39135 0.305084 7.55701
files/tasks_parameters/ExAp01/sample6.txt 1.06607 7.09894 2.24425 0.281804 6.98036
files/tasks_parameters/ExAp01/sample30.txt 1.13044 8.17669 2.03701 0.299204 7.41136
files/tasks_parameters/ExAp01/sample42.txt 1.09523 7.70416 2.42413 0.29743 7.36741
files/tasks_parameters/ExAp01/sample4.txt 1.14209 7.41691 2.36261 0.307803 7.62435
files/tasks_parameters/ExAp01/sample28.txt 0.955143 7.0562 2.07657 0.266428 6.59948
files/tasks_parameters/ExAp01/sample18.txt 0.978488 7.60139 2.1377 0.268016 6.63882
files/tasks_parameters/ExAp01/sample35.txt 1.13507 9.66795 2.28028 0.32244 7.98691
files/tasks_parameters/ExAp01/sample47.txt 0.89847 6.84842 2.12104 0.251655 6.23355
files/tasks_parameters/ExAp01/sample49.txt 0.938747 7.1497 2.11412 0.255889 6.33843
files/tasks_parameters/ExAp01/sample41.txt 0.919311 6.59911 2.07359 0.265885 6.58604
