files/tasks_parameters/ExAp01/sample8.txt 0.77816 3.15778 1.5595 0.203411 5.19482
files/tasks_parameters/ExAp01/sample12.txt 0.806027 3.94962 1.6705 0.207924 5.31007
files/tasks_parameters/ExAp01/sample2.txt 0.767857 3.78275 1.74131 0.200098 5.1102
files/tasks_parameters/ExAp01/sample44.txt 0.685552 3.59825 1.65317 0.200005 5.10784
files/tasks_parameters/ExAp01/sample27.txt 0.700862 3.45743 1.5148 0.182129 4.65129
files/tasks_parameters/ExAp01/sample17.txt 0.925109 2.77299 1.44514 0.14646 3.74037
files/tasks_parameters/ExAp01/sample9.txt 0.738821 2.99933 1.451 0.177444 4.53165
files/tasks_parameters/ExAp01/sample34.txt 0.831645 3.02928 1.58429 0.157984 4.03467
files/tasks_parameters/ExAp01/sample40.txt 0.764924 3.86889 1.52122 0.168379 4.30016
files/tasks_parameters/ExAp01/sample33.txt 0.803152 3.63695 1.71905 0.199765 5.1017
files/tasks_parameters/ExAp01/sample48.txt 0.682426 3.39061 1.49062 0.154728 3.95153
files/tasks_parameters/ExAp01/sample29.txt 0.759766 3.30472 1.38739 0.223868 5.71727
files/tasks_parameters/ExAp01/sample11.txt 0.707448 3.10585 1.41612 0.174079 4.44571
files/tasks_parameters/ExAp01/sample14.txt 0.662375 2.70971 1.43432 0.162214 4.14272
files/tasks_parameters/ExAp01/sample0.txt 0.744971 3.6937 1.5439 0.18367 4.69066
files/tasks_parameters/ExAp01/sample7.txt 0.809856 2.70501 1.42221 0.143463 3.66384
files/tasks_parameters/ExAp01/sample23.txt 0.760494 3.2697 1.57822 0.181448 4.63393
files/tasks_parameters/ExAp01/sample13.txt 0.730247 3.84225 1.67648 0.198247 5.06294
files/tasks_parameters/ExAp01/sample22.txt 0.901802 3.09569 1.56121 0.148796 3.80003
files/tasks_parameters/ExAp01/sample25.txt 0.746637 2.73966 1.5007 0.148149 3.7835
files/tasks_parameters/ExAp01/sample36.txt 0.850926 2.85948 1.28553 0.130042 3.32109
files/tasks_parameters/ExAp01/sample46.txt 0.762045 3.58643 1.69998 0.210103 5.36571
files/tasks_parameters/ExAp01/sample31.txt 0.706612 3.4832 1.53782 0.1722 4.39773
files/tasks_parameters/ExAp01/sample37.txt 0.773346 3.95293 1.50705 0.171701 4.38499
files/tasks_parameters/ExAp01/sample16.txt 0.609531 3.31216 1.30115 0.150249 3.83714
files/tasks_parameters/ExAp01/sample10.txt 1.10417 3.17098 1.61789 0.153776 3.92722
files/tasks_parameters/ExAp01/sample39.txt 0.699672 3.26617 1.44406 0.165669 4.23093
files/tasks_parameters/ExAp01/sample19.txt 0.771915 3.63532 1.52509 0.196094 5.00796
files/tasks_parameters/ExAp01/sample20.txt 0.662661 3.20793 1.25367 0.147335 3.76273
files/tasks_parameters/ExAp01/sample43.txt 0.646968 3.11551 1.4202 0.150644 3.84724
files/tasks_parameters/ExAp01/sample32.txt 0.722684 3.5311 1.42482 0.168744 4.30948
files/tasks_parameters/ExAp01/sample45.txt 0.739727 3.80283 1.48324 0.19807 5.05843
files/tasks_parameters/ExAp01/sample26.txt 0.62988 3.21645 1.29701 0.166061 4.24096
files/tasks_parameters/ExAp01/sample5.txt 0.631712 3.5889 1.52559 0.178903 4.56893
files/tasks_parameters/ExAp01/sample21.txt 0.666832 2.75242 1.55936 0.19512 4.98308
files/tasks_parameters/ExAp01/sample38.txt 0.676902 3.31563 1.37515 0.166157 4.2434
files/tasks_parameters/ExAp01/sample1.txt 0.708432 3.74964 1.51696 0.19701 5.03134
files/tasks_parameters/ExAp01/sample15.txt 0.693251 3.32916 1.48508 0.180707 4.615
files/tasks_parameters/ExAp01/sample24.txt 0.861271 3.45951 1.59549 0.16529 4.22127
files/tasks_parameters/ExAp01/sample3.txt 0.895185 3.70014 1.70809 0.237107 6.05537
files/tasks_parameters/ExAp01/sample6.txt 0.730089 3.33003 1.58323 0.184714 4.71733
files/tasks_parameters/ExAp01/sample30.txt 0.930441 4.1841 1.4861 0.239623 6.11962
files/tasks_parameters/ExAp01/sample42.txt 0.747833 3.43221 1.70276 0.177383 4.5301
files/tasks_parameters/ExAp01/sample4.txt 0.784156 3.72477 1.6136 0.196448 5.017
files/tasks_parameters/ExAp01/sample28.txt 0.689545 3.11323 1.45032 0.158819 4.056
files/tasks_parameters/ExAp01/sample18.txt 0.769617 3.47418 1.45209 0.149064 3.80687
files/tasks_parameters/ExAp01/sample35.txt 0.804034 4.57086 1.49394 0.185031 4.72541
files/tasks_parameters/ExAp01/sample47.txt 0.712478 3.13768 1.52397 0.16417 4.19266
files/tasks_parameters/ExAp01/sample49.txt 0.776571 3.13288 1.49657 0.156154 3.98795
files/tasks_parameters/ExAp01/sample41.txt 0.761155 2.81964 1.49636 0.150876 3.85315
