files/tasks_parameters/ExAp01/sample8.txt 1.11253 7.2562 4.46819 0.454772 11.979
files/tasks_parameters/ExAp01/sample12.txt 1.63049 9.70908 5.28286 0.618515 16.2921
files/tasks_parameters/ExAp01/sample2.txt 1.45399 8.14159 5.7401 0.620531 16.3452
files/tasks_parameters/ExAp01/sample44.txt 1.32613 7.25164 5.75904 0.557631 14.6883
files/tasks_parameters/ExAp01/sample27.txt 1.3183 8.10944 5.64946 0.564878 14.8793
files/tasks_parameters/ExAp01/sample17.txt 1.25252 7.11225 5.46658 0.527183 13.8863
files/tasks_parameters/ExAp01/sample9.txt 1.19795 7.62559 5.37813 0.517277 13.6254
files/tasks_parameters/ExAp01/sample34.txt 1.23761 7.04587 5.93037 0.497709 13.11
files/tasks_parameters/ExAp01/sample40.txt 1.201 8.03037 5.123 0.502383 13.2331
files/tasks_parameters/ExAp01/sample33.txt 1.61617 9.22935 5.92956 0.659262 17.3654
files/tasks_parameters/ExAp01/sample48.txt 1.15167 8.12182 5.1577 0.452491 11.9189
files/tasks_parameters/ExAp01/sample29.txt 1.53889 8.06133 5.12331 0.650652 17.1386
files/tasks_parameters/ExAp01/sample11.txt 1.35889 7.63104 5.37897 0.563302 14.8377
files/tasks_parameters/ExAp01/sample14.txt 1.13533 6.66403 4.66322 0.471536 12.4206
files/tasks_parameters/ExAp01/sample0.txt 1.51727 9.3266 4.98971 0.6311 16.6236
files/tasks_parameters/ExAp01/sample7.txt 1.22525 7.34863 5.19436 0.515527 13.5793
files/tasks_parameters/ExAp01/sample23.txt 1.41687 6.68564 5.54308 0.588617 15.5045
files/tasks_parameters/ExAp01/sample13.txt 1.60733 9.31093 5.35591 0.632849 16.6696
files/tasks_parameters/ExAp01/sample22.txt 1.28633 7.65588 5.04866 0.540336 14.2328
files/tasks_parameters/ExAp01/sample25.txt 1.0295 6.17035 5.0141 0.408296 10.7548
files/tasks_parameters/ExAp01/sample36.txt 1.18626 7.03772 4.66274 0.507647 13.3717
files/tasks_parameters/ExAp01/sample46.txt 1.35221 7.73433 4.79934 0.536843 14.1408
files/tasks_parameters/ExAp01/sample31.txt 1.16998 6.96928 5.16482 0.485817 12.7967
files/tasks_parameters/ExAp01/sample37.txt 1.59457 9.52443 5.74224 0.65799 17.3319
files/tasks_parameters/ExAp01/sample16.txt 1.33854 8.63521 4.97261 0.516328 13.6004
files/tasks_parameters/ExAp01/sample10.txt 1.39877 7.28353 6.16876 0.615651 16.2166
files/tasks_parameters/ExAp01/sample39.txt 1.14417 6.3405 4.6137 0.468873 12.3504
files/tasks_parameters/ExAp01/sample19.txt 1.42436 8.85528 5.22306 0.622152 16.3879
files/tasks_parameters/ExAp01/sample20.txt 1.39217 8.1141 5.21177 0.586994 15.4618
files/tasks_parameters/ExAp01/sample43.txt 1.30697 7.21373 5.6367 0.53748 14.1576
files/tasks_parameters/ExAp01/sample32.txt 1.46593 8.30592 5.38137 0.593918 15.6442
files/tasks_parameters/ExAp01/sample45.txt 1.29684 7.94069 4.96323 0.547271 14.4155
files/tasks_parameters/ExAp01/sample26.txt 1.12549 7.57061 4.62637 0.480146 12.6473
files/tasks_parameters/ExAp01/sample5.txt 1.38077 8.0307 5.35681 0.59407 15.6482
files/tasks_parameters/ExAp01/sample21.txt 1.02755 5.87802 4.61744 0.434264 11.4388
files/tasks_parameters/ExAp01/sample38.txt 1.18479 7.66999 4.86632 0.496808 13.0862
files/tasks_parameters/ExAp01/sample1.txt 1.13963 7.21312 4.63213 0.486293 12.8093
files/tasks_parameters/ExAp01/sample15.txt 1.28125 8.02273 5.50855 0.531063 13.9885
files/tasks_parameters/ExAp01/sample24.txt 1.31814 8.66348 5.4905 0.548998 14.4609
files/tasks_parameters/ExAp01/sample3.txt 1.18752 7.74268 4.79918 0.477387 12.5747
files/tasks_parameters/ExAp01/sample6.txt 1.51709 8.57133 5.80157 0.633604 16.6895
files/tasks_parameters/ExAp01/sample30.txt 1.68756 8.18878 5.90888 0.633576 16.6888
files/tasks_parameters/ExAp01/sample42.txt 1.30572 8.57689 5.67253 0.54426 14.3361
files/tasks_parameters/ExAp01/sample4.txt 1.2994 8.40354 4.57985 0.563519 14.8434
files/tasks_parameters/ExAp01/sample28.txt 1.11501 6.44114 4.96426 0.449721 11.8459
files/tasks_parameters/ExAp01/sample18.txt 1.36928 8.56363 4.60946 0.543766 14.3231
files/tasks_parameters/ExAp01/sample35.txt 1.9413 11.0387 6.34514 0.761377 20.0551
files/tasks_parameters/ExAp01/sample47.txt 1.32345 7.14493 5.22131 0.545046 14.3568
files/tasks_parameters/ExAp01/sample49.txt 1.29829 6.65996 4.80244 0.498533 13.1317
files/tasks_parameters/ExAp01/sample41.txt 1.17711 7.09069 5.35462 0.497129 13.0947
