Task0 0.04628668364594374 0.3315941453470551 0.09344289695374136 0.360417040535044 0.4562734231959976 0.7432606432825007 0.4259960928905022 
Task1 0.0330695931759605 0.2464266208902454 0.4882377099158454 0.10882434983207527 0.6762569995307954 0.8572636512656653 0.8910513564352365 
Task2 0.003203136885516655 0.06274971341706817 0.06038435184497782 0.004991761469618322 0.9357627247652403 0.8119135517583809 0.386020356680968 
Task3 0.03498895987702298 0.3033721412892125 0.11526553562231662 0.15280542380334433 0.5658796426014671 0.696453113002072 0.32529631729259006 
Task4 0.0529271313301972 0.03226628103950702 0.13460935189846884 0.04669533613330541 0.4788059762278616 0.3256029403633655 0.3846790261754655 
Task5 0.05535356636142931 0.06787532573921405 0.0910895443408412 0.1389487400277773 0.696816099654777 0.8765826842929587 0.7412932528801808 
Task6 0.014233126061622702 0.08338861906990164 0.11326761415456982 0.026543832502927817 0.9009411719271101 0.5771282597919742 0.56117101751166 
Task7 0.00307181323503899 0.1336948958214453 0.0027008849764761597 0.20550636490411925 0.8291982763254047 0.4687077812403473 0.7698873735044096 
Task8 0.0019503994560584892 0.020927482377178525 0.1489801246418676 0.0012232198447700328 0.628896736979083 0.9386079647003924 0.9728471877186187 
Task9 0.03202017750506685 0.07243723552994602 0.2555759277876036 0.3947835324174102 0.4918054598795044 0.5134971653155284 0.5045612340516585 
Task10 0.04026107292872958 0.2461252532523188 0.29219767266656976 0.017303464869201483 0.5414512884175232 0.5415751836699708 0.6570620164809601 
Task11 0.052909827316993785 0.08948059145697922 0.3799552575878363 0.2625701845093877 0.8219387783567786 0.43341534330065534 0.5125076683263099 
Task12 0.016255501694452026 0.10394233895504408 0.08185256878276861 0.12905302272137117 0.3569338243924157 0.48668904930820395 0.6552106941100277 
Task13 0.09251942309600797 0.20078901539540678 0.08842575581110036 0.10313373722864094 0.5273409795188461 0.7441090583031763 0.3171559662790886 
Task14 0.017477990446445765 0.08849174759073904 0.20947526895508617 0.04047798589363975 0.6971925032299225 0.9606563167712585 0.8192341008808517 
Task15 0.05028359378117114 0.04002582390450639 0.10354109608154446 0.09778298927217238 0.49898453632857487 0.9696126531802485 0.4113482807234698 
Task16 0.0013564803668932915 0.005211573901265329 0.004930777372904903 0.0001239596292476601 0.8370574863678595 0.5728656964482202 0.5320942399048479 
Task17 0.062164217175879805 0.22043744434687812 0.38442209897547647 0.021391792120146438 0.6342381192590993 0.9322553716267594 0.7328707354094831 
Task18 0.054181894606628964 0.037098285844067894 0.31223233141648943 0.3750446431923074 0.8098457884680641 0.7880167018032618 0.33806152937532313 
Task19 0.004567721559837017 0.12160345366036815 0.22505544689444631 0.0848238702201821 0.6688335004891615 0.7646739277939616 0.8076327944117245 
Task20 0.08697330025558545 0.07605875367146485 0.46140947315092273 0.23060388594251346 0.44799704577836685 0.9006117592388698 0.30210936294171165 
Task21 0.022535907589330797 0.09979190215892049 0.018268136826029645 0.040218311691981805 0.9112419690788749 0.7105838932375503 0.3603086129869983 
Task22 0.0013107660756138026 0.08177240185914045 0.05147281014544882 0.041446068796139525 0.61598871015843 0.48012219224895186 0.9407000938409453 
Task23 0.04456351758594868 0.04900761039385986 0.063048743526959 0.06835666958463613 0.5840038184481993 0.5436469855448838 0.5807657010307863 
Task24 0.017723109864144247 0.27520493850440947 0.07820304949452907 0.20059336272572192 0.8050750258069985 0.8461986685765477 0.3664680092873202 
Task25 0.00037779105979235346 0.10209754481638766 0.15525663295357342 0.356192673623686 0.574213529320722 0.670583853599461 0.7120151232845031 
Task26 0.033245605192781046 0.13636462138280875 0.15641420043452814 0.2344567346830108 0.5215901024108147 0.6633560399393346 0.5408623459002136 
Task27 0.1628933942873461 0.11484186319182842 0.060011141757583014 0.6388438462351085 0.7786779984604157 0.4277269220778912 0.30775164505108626 
Task28 0.11583806293323273 0.48624167531675355 0.08390259337020853 0.29117104653149445 0.8896118379384146 0.30994505787792864 0.8133258503182126 
Task29 0.11387255665760937 0.18948221570571608 0.23685752164822782 0.09879628431121355 0.7471652014453388 0.8111709836814336 0.5723596804767823 
Task30 0.0863023889933118 0.30370743041199155 0.4097527561019608 0.025411752304387067 0.8409813413060758 0.7174145663741568 0.7689859664417986 
Task31 0.08424291893629442 0.23102482912271888 0.10222454944767777 0.016386651243216005 0.5739950473423421 0.9581822169206009 0.6310955702699135 
Task32 0.035783781173350154 0.16605137519353685 0.18194117029955187 0.07233211269388137 0.5980068649330692 0.49004835939094776 0.9281574834517476 
Task33 0.1842880202222927 0.39095169441077454 0.15574981276004282 0.268494044850531 0.8484565431919364 0.6705468735398186 0.35388757291840955 
Task34 0.0005051904696583652 0.22118023660153419 0.18097169299435048 0.2735555639209663 0.9175918351668964 0.399528638282143 0.4431867709731074 
Task35 0.05584135602358815 0.39003232866560944 0.22583222376539774 0.028943504907633547 0.31483822078498347 0.44190824310668564 0.828712101503668 
Task36 0.058475069534286356 0.09131152077799033 0.1052837856121234 0.05592323246963786 0.3631959186034939 0.8813046186624631 0.3392092418093823 
Task37 0.053461707369219305 0.37375899524906075 0.024323302781037878 0.5272837774149421 0.3749475394510627 0.7299464102732471 0.3026829620084782 
Task38 0.024418096502402314 0.2529813375179527 0.20525219708502757 0.2968974493137243 0.5832952134655862 0.6634259729557466 0.8410581620317927 
Task39 0.0010661501743386979 0.18444817738101343 0.14806325892892672 0.017927926879672835 0.34096437188718354 0.4262817806230773 0.6511092016816382 
Task40 0.09998598299727011 0.4547953669059072 0.05984287013066641 0.047416321481703466 0.900792209276565 0.352180507948709 0.4865393745918289 
Task41 0.1042577526820693 0.06941927313328398 0.013000005037180552 0.4238894973177571 0.49198427740210077 0.6203964877028045 0.7492841298726514 
Task42 0.09237796789941015 0.19907694193565034 0.035490783603107506 0.5932804277807461 0.5280722274531573 0.5705592571284885 0.40249320537261896 
Task43 0.04006189110746703 0.09123765225382725 0.050725527156109486 0.05892487100713212 0.4281874737395257 0.8220720342450114 0.5969614725274466 
Task44 0.0801087009508781 0.33317276974061943 0.23112609257136327 0.34769202550374984 0.7973890119036975 0.4374687319792536 0.6153258496771401 
Task45 0.031043761235451203 0.06515586499583256 0.05946664571375717 0.07404472507194321 0.8900189994845729 0.5547326544038645 0.5923917644009669 
Task46 0.008541033469286814 0.13054360705299303 0.12556563713949345 0.13479564049268183 0.31322761004737343 0.6783433134202577 0.5969904284038572 
Task47 0.007393309024910662 0.17954603588819004 0.21446055477935558 0.35120661623725813 0.5727896297006565 0.815175871760224 0.6650147394234123 
Task48 6.286776445742424e-05 0.0003149650842101844 0.000594437726003673 0.00046191184408708583 0.8317271862636999 0.7502641391832743 0.322792823905317 
Task49 0.00965014030710878 0.022681428648163592 0.07984419434863704 0.07495633308867668 0.41614948367422855 0.3120061704927563 0.35556041334474653 
Task50 0.01254443567553067 0.13011515603837445 0.2257455351691752 0.3464443200819878 0.8590298975132684 0.6181511109180304 0.4735578119357753 
Task51 0.009131200522947365 0.01602061961148064 0.005401779302879279 0.021799848132488808 0.5335701721624703 0.7034684142182686 0.8643077182314369 
Task52 0.08155914599528237 0.1553294815708901 0.3128414973900228 0.32907537041591767 0.4929606944120952 0.35612547662082805 0.9081474385660133 
Task53 0.05554687949890668 0.04361334820497339 0.06983162740773467 0.1558654934623651 0.3576737590786401 0.5678014188947175 0.9119343283496382 
Task54 0.0819512420144007 0.17492991433413238 0.3569380459102864 0.27633894812194437 0.6636974536286357 0.5240838545878851 0.5808823260544498 
Task55 0.0013115121054664376 0.33225561288064087 0.17364760782977162 0.23669875459070824 0.838630366563879 0.42627340558684335 0.5911095189007047 
Task56 0.008883756845475778 0.03721854504288507 0.01620709242613795 0.0517947753417629 0.9681191380342815 0.9279168745267321 0.3567013286449897 
Task57 0.07815664620497033 0.22548941787302176 0.036043518989373496 0.06441893732495059 0.7379392904452835 0.48637901679817225 0.6268287639260899 
Task58 0.06055580365970285 0.02592724048063994 0.15265408441651326 0.2229044877497707 0.8102892843915344 0.47461052618226784 0.6107788285873594 
Task59 0.1610073838727756 0.2645128609452832 0.03773490726226298 0.40590335731072325 0.9371362085507835 0.9749984580150233 0.6785961872309902 
Task60 0.06948109731954376 0.28226779084006387 0.3080953490408129 0.20356311472172053 0.8268118619332137 0.983248424376393 0.4070529129824671 
Task61 0.08834201787121777 0.1563247955471521 0.3545163230167783 0.34020420811008795 0.7468465878898893 0.779970883134661 0.710387701697051 
Task62 0.0016713357148075575 0.01075569489809724 0.009344474088733743 0.004109214382774934 0.6239635247907707 0.718072157839843 0.7593976233944508 
Task63 9.01817732107295e-07 0.11552693736903251 0.11507590283057886 0.0774555019563595 0.4074517248442127 0.8218701833120401 0.7093971717287324 
Task64 0.07324367556306652 0.14205693044070197 0.10200095969394252 0.11720361328174314 0.77593804069501 0.863214260564005 0.7119565145075681 
Task65 0.04511115258538689 0.061194378246727354 0.03903440414505198 0.08607083791900151 0.7849959486536516 0.6853383432695447 0.3452031427477826 
Task66 0.011026888452210965 0.271140964868307 0.09160646401852642 0.026452725077431787 0.4532169257721194 0.8668851687619923 0.34300558451031177 
Task67 0.08892049250716037 0.1337693358890618 0.33550044952562585 0.018969723692533323 0.3439585078193355 0.6459492906149487 0.3627095934158065 
Task68 0.0052729928133073475 0.3156010364791969 0.1161084348204687 0.002334706600106515 0.8642207050822239 0.7923168082304872 0.4710215072991083 
Task69 0.07169985732206088 0.0429934840221495 0.21944127211628686 0.20583834745744586 0.6748165807171291 0.35560298723309103 0.6475193770359491 
Task70 0.08687117437962326 0.10221284755636478 0.15360241365320462 0.29118382523411585 0.9307217279330158 0.9238482876714171 0.9978876994055104 
Task71 0.044629576051078874 0.012755616813031216 0.14237241805204584 0.14605127661680553 0.657115692917816 0.8631337545919568 0.5709149219019249 
Task72 0.055942542030257114 0.01977000982190649 0.286584835517635 0.4260794448052517 0.32140683332938774 0.41596402547619293 0.8861617579621166 
Task73 0.03249702678641619 0.11905919142041421 0.1051973121428451 0.01879612643210838 0.9714087139679073 0.5739342362385929 0.44998411314467457 
Task74 0.06893992565528662 0.18362482581211131 0.07681149075132494 0.11660648084452462 0.8143931335462231 0.4536356241137155 0.6073115709789034 
Task75 0.037602620176580934 0.13685171133656443 0.17419082352847012 0.003886632731753641 0.5741899364988996 0.4494398474762651 0.7241739273584149 
Task76 0.004744677892906715 0.035255490891523314 0.030633482567469585 0.019217102286107814 0.377133650292929 0.7082937321664852 0.9996755036559277 
Task77 0.0016662866724720146 0.0017098279961914543 0.002637774704781504 0.0028311599227001842 0.9614433112434384 0.6405917851277585 0.5687401235216643 
Task78 0.07367092426468008 0.1628855138990643 0.01779507739962596 0.4992805957358938 0.8567567172692665 0.48848992635522726 0.8648032994492951 
Task79 0.005215094478494018 0.022249999081385485 0.005486081222748405 0.022166065282943712 0.9091008804806295 0.725898243472952 0.5392353447131802 
Task80 0.061045093744941575 0.11806043282179597 0.0654622077941905 0.10742007004328967 0.6681422326871587 0.3935329687963896 0.6114891353484957 
Task81 0.008035538607719021 0.055164821117331675 0.06310811332916522 0.00017811434129509263 0.9827880137188953 0.36337972091968335 0.4365737042053004 
Task82 0.038245682839993786 0.44674174763814783 0.14360812075022614 0.10342857872022804 0.6226869164067335 0.4924360113430928 0.4572849648724554 
Task83 0.10110942505499351 0.02258901878759031 0.19637914877273205 0.4970914807813414 0.3005075251491525 0.7477362441568237 0.5182302474726675 
Task84 0.004659861873556757 0.09371211922012863 0.08049566702187143 0.026779389447114943 0.878303807957618 0.7425259925652181 0.6634145448964106 
Task85 0.04598196405154679 0.029130397984088383 0.22746422066372887 0.36387098920343314 0.43953353472872203 0.5543079923848727 0.6040489529895221 
Task86 0.043630853985129385 0.0166950605608808 0.053036599672420075 0.3237087912758939 0.8915972168832262 0.8399418451874505 0.3498993476302599 
Task87 0.01197178736615303 0.21869153622649692 0.2799714012845358 0.23373682778940086 0.9788533575822422 0.47013970208278166 0.5283800700244207 
Task88 0.041344995378892906 0.3117099320655977 0.0656184896433372 0.09076333967714074 0.5684542132756735 0.7298868564657961 0.7519037018988796 
Task89 0.014376206419057477 0.1482887533900627 0.06915192820459995 0.2514295354313496 0.40154128893263197 0.7665835805749545 0.9351596446409989 
Task90 0.04918809396304816 0.12039061073782283 0.08519958285301343 0.012507935418225265 0.6095063087863215 0.790916216253666 0.6554028917288333 
Task91 0.003072520065474319 0.003988495645387262 0.0406484821620478 0.005677523283985041 0.4998012685673806 0.5208298013680726 0.740734729450919 
Task92 0.02172034223010459 0.12245045121407226 0.09326144169086557 0.09283269768347277 0.5612706182502536 0.3898323091854498 0.3441708822384303 
Task93 0.025627900572157414 0.16222593214304967 0.4977616027260263 0.2825278010912468 0.5711269624043184 0.3860939228434382 0.8059634459231364 
Task94 0.09901113913027919 0.09517515352077441 0.16748289317859508 0.2071642338725803 0.5527768849700365 0.521711826758972 0.3275578587553503 
Task95 0.0036348933792951267 0.04795744518833468 0.027126874151754115 0.03724141869546399 0.8939738173610672 0.8424341121368175 0.7508241837311362 
Task96 0.0006692431960442007 0.20193316341924347 0.2963383420939111 0.03652401676539633 0.5479995423441781 0.4910873722206805 0.6221849787599054 
Task97 0.11380237560213104 0.3024222705890236 0.29467761697573125 0.0763131454510215 0.38403373410298985 0.42035095890770063 0.9074759161012516 
Task98 0.014202972905471373 0.20074450816706832 0.15609868839772273 0.0059559119544410994 0.4009788278266153 0.30347875976569866 0.5447094416685222 
Task99 0.02221485102675782 0.18538222548309052 0.1875302534939568 0.04500583197397482 0.347464566664786 0.874944991164115 0.6376094553149896 
