Task0 0.036836627956673244 0.06706827100407103 0.1403651999402077 0.09179695036695287 0.7470279690793301 0.33048912005858794 0.6505334553687141 
Task1 0.047452300573970166 0.11695294680242813 0.12836655377656925 0.07053385867582337 0.7135892946309075 0.6832639690757065 0.7167978601942813 
Task2 0.051549713074905586 0.020360776800968993 0.2556990799497122 0.2588901674015588 0.8743151681438472 0.6824100345046336 0.9674589275497245 
Task3 0.082405357776152 0.21799883016618174 0.002474730700538273 0.1627533886802264 0.6734452192006195 0.41399929612710334 0.8685507098490701 
Task4 0.10027220566318591 0.20993594468648877 0.33229491108737635 0.16936675616685448 0.5213577988192459 0.494429477620168 0.7052444636543602 
Task5 0.01838722735856852 0.10635261683416278 0.016891776165742695 0.03306299102956564 0.6577991439399722 0.7523930979891297 0.4081282805770931 
Task6 0.043968476946686444 0.07280369691544636 0.10629885690135045 0.06263598789647926 0.3333643338265955 0.3053164809639376 0.8081911910156754 
Task7 0.1569352762608115 0.15865870266007667 0.2709625823709305 0.24404554715280488 0.9294472419718345 0.9141404424097668 0.689910220321863 
Task8 0.02919538588690963 0.025048531258769324 0.058360585199331794 0.03533987983279905 0.5057402724977194 0.9617663702132584 0.5331211950820024 
Task9 0.052785236569974706 0.08030006915853431 0.08326554808653018 0.14335534202612174 0.7885319704506337 0.7269693257213208 0.6026007511027991 
Task10 0.06598457233437406 0.14943098752320813 0.18932121535151042 0.07422512191366712 0.5654290845760799 0.9948371404955751 0.9055932200433561 
Task11 0.06610750964111757 0.21758650806521898 0.11648861552617487 0.13900024631713295 0.35065032320866085 0.4081767666424089 0.9226326991820659 
Task12 0.03722888149010475 0.18270448608915038 0.2700653735375647 0.03498445692799768 0.5408795954571932 0.9945212106970471 0.33511018070154674 
Task13 0.004110671676208762 0.05776993246951666 0.14781962283941938 0.11513764354796537 0.6078665578666995 0.8691674700684631 0.7215706217590371 
Task14 0.04132448222616087 0.44436105997673186 0.033055474054089484 0.14925369023629573 0.8391278944460523 0.9823363846035449 0.9514478346699939 
Task15 0.01113848822579603 0.14689928431196753 0.29300968276565864 0.19523272913740128 0.4513407978176528 0.572470469984966 0.8377608485997072 
Task16 0.0011319898225791763 0.045480095970322036 0.002035257372873128 0.012350196749890695 0.4141094544326435 0.7102475521108906 0.5323656361566831 
Task17 0.02670548227283392 0.04492860257383279 0.6681879383592941 0.1952140274257502 0.9556463742481294 0.4419073046264682 0.8162767976775238 
Task18 0.0029993940522286154 0.005432518113832013 0.00574510650732673 0.003629682634597427 0.5178202937028897 0.4639260948614684 0.9847556313423813 
Task19 0.021695323191619036 0.0541150772473016 0.11444118744731051 0.06095414671351545 0.30114177787690244 0.3035590825466229 0.3615718345021303 
Task20 0.029397375074833722 0.020885856824753066 0.028454419911879053 0.10265349427873263 0.34452526100852754 0.46490527698329737 0.8350981696235322 
Task21 0.002989757847579109 0.0036862970237413386 0.015220995782050974 0.012849077181676855 0.7502405617547727 0.33502996961609416 0.8790454396312277 
Task22 0.01882905036334992 0.069788781403694 0.056562474976719145 0.08015292444497396 0.3275773443682728 0.8529849467174171 0.3241538639111013 
Task23 0.0060198683409354555 0.0038458257072686054 0.028840874792329083 0.0456420568621917 0.30091940331479583 0.6593616213332198 0.7062122348948847 
Task24 0.007149346323796219 0.3257357937919418 0.35264813774260856 0.190941960495776 0.7650284604377752 0.5309606954541324 0.5326807396569883 
Task25 0.0027603794764837542 0.06443283861164745 0.15933491395962168 0.07708218002949606 0.41863132877322584 0.8150752477617629 0.7478434334450226 
Task26 0.039451352675372656 0.13126084649289593 0.14894933459679083 0.005215852339677108 0.8780425642744121 0.836150125796451 0.4447878896151406 
Task27 0.012833150727950205 0.07960763735426044 0.11503593734094827 0.055696492342385766 0.6718886173448207 0.32447088205644675 0.42596555700528604 
Task28 0.02790242212584417 0.13490315736431446 0.0813395544288042 0.10945752916195939 0.6295384772180723 0.4170026002305316 0.4581629218787636 
Task29 0.1016693609209142 0.3661710777161153 0.16393229107912094 0.2615829444397613 0.72923992151367 0.411410937260239 0.9261195850063684 
Task30 0.07208228372595794 0.03543046309263252 0.19723747817595455 0.21091575541420168 0.5829258918843401 0.7236423137468426 0.5973895869284784 
Task31 0.16243731018391663 0.4295694186202963 0.17712635493126766 0.04583640787780972 0.8122174362536003 0.4606835199715833 0.7371488432350952 
Task32 0.0022008916083375916 0.006761173676894713 0.0068413597825227645 0.0025236033622827946 0.508006955967823 0.573393676733785 0.4033387023588766 
Task33 0.01859608572234295 0.14966601935966808 0.03007877316515279 0.06227137015183905 0.6052593014969299 0.6124091245375207 0.5489732596380225 
Task34 0.08867959143739425 0.597071445413332 0.1232277145475146 0.09743411712624304 0.8851637575787503 0.5963605877998022 0.7596655747586238 
Task35 0.03187994108396073 0.16334260320981178 0.12631425585926337 0.16713840271777233 0.5083284059251159 0.9034297027004687 0.8931747985019645 
Task36 0.1283129610014077 0.23281658952466588 0.25403288320824224 0.06533631692949525 0.7000002519571955 0.7569987019937094 0.8622463571369465 
Task37 0.05815776749836238 0.23810512141639856 0.2871686538337555 0.359479944216758 0.6220426280485711 0.6855158768949233 0.3135792843576443 
Task38 0.13912342180368364 0.26341878515118217 0.26217136788442547 0.2520490520101973 0.860609316935423 0.7539815358493784 0.9027214913371244 
Task39 0.0035656305351258696 0.061497220142163876 0.3171000138577688 0.1976953749587137 0.8455159957585154 0.6271560363021913 0.5641236113655286 
Task40 0.15133707583829994 0.2181759207098365 0.3094460155298926 0.3099059275417456 0.3563246058700045 0.319501060954124 0.5887338661579395 
Task41 0.06462053466640112 0.26653347680521966 0.14249025755994757 0.1293552553553585 0.30959347653805896 0.8432036899991118 0.5936001222318967 
Task42 0.037635884968698845 0.05944353795820574 0.07644276330298876 0.06599051031170111 0.9928753116274005 0.681840872262489 0.8456575955993588 
Task43 0.06468797415982784 0.11972176880484182 0.1072063355651576 0.1985622227467311 0.8076557576852583 0.719014221171776 0.9364119575353735 
Task44 0.05118288382499805 0.10924087837461391 0.36241006020396643 0.02601072225016782 0.3631351199522861 0.5948971420610536 0.6356532994710672 
Task45 0.0022404816610104273 0.045106382434639394 0.04469651861243414 0.04022065017230018 0.3461803834890895 0.4635191376825222 0.9794359564544133 
Task46 0.1544203033178372 0.1409284238998232 0.28847469595150366 0.37465671515208837 0.9704520044235683 0.6431690647265114 0.6668229929372103 
Task47 0.12516306796626442 0.1079459173405337 0.3643229876014547 0.29871132192236144 0.5635748601034971 0.9462866750095158 0.885272107327278 
Task48 0.04310111843425187 0.03419837996857719 0.040100316747597696 0.17430350135803716 0.41265222316598354 0.37567931460749737 0.3774978872552275 
Task49 0.07664708449716733 0.10666426808094127 0.08606422192365691 0.1250547437318054 0.6837959698003012 0.6450195198905447 0.8065919926440404 
Task50 0.18735535400520079 0.43329115323539363 0.06671390075495509 0.25983983409530664 0.6923535441800736 0.9171127865815121 0.8426882901942891 
Task51 0.036519395920492415 0.03648981710017387 0.1915706777870695 0.11077687537024256 0.7616964147531402 0.9676535406406952 0.6014359491489295 
Task52 0.14673266148698103 0.0172707843251626 0.1375103019336865 0.45842287323298264 0.6426040698644548 0.6819669710042398 0.8486104249207931 
Task53 0.00516293098456186 0.053540046817547836 0.11869584198925758 0.11603656649452877 0.883004955195408 0.9954796832879507 0.5928228627283672 
Task54 0.14083707197222442 0.27397404443034257 0.24538533332478166 0.21180557807860473 0.3440879618583245 0.32660002400211013 0.9948369744695789 
Task55 0.13501929725006095 0.046097331318562175 0.29447932443855523 0.20867191868067886 0.5900134548206364 0.9228356963289259 0.8513347732236674 
Task56 0.002007678010424322 0.23561605990750403 0.10725905891292638 0.04339683776103913 0.4998397032702229 0.6391581404578475 0.46934513450107346 
Task57 0.03898850151738476 0.18423567963296822 0.15752414915521676 0.15649816738465716 0.8127511921199595 0.9306221537390189 0.723743146567728 
Task58 0.13453207402707798 0.33035525436940183 0.23281709404491693 0.2697435454387032 0.9768104791479786 0.3312323252064502 0.871326640939921 
Task59 0.0008049819059340833 0.21955113693084852 0.21584306153827942 0.08931174112422685 0.3984297787107503 0.5072490190675549 0.9685188426123181 
Task60 0.009540314497395288 0.0428027850382163 0.04099549497545087 0.013846490390332204 0.8022241919467761 0.7340987746967911 0.331188229972356 
Task61 0.12213561530459723 0.2549826966419507 0.15242070905839253 0.19050439342544673 0.5904191266183034 0.31199555942561946 0.37937903032334985 
Task62 0.06228415370002334 0.01230138294261647 0.15907147336109398 0.08834166311978205 0.857111636095119 0.33724476847256724 0.7438415610499846 
Task63 0.1596924397475551 0.341500903757049 0.18593069695046693 0.11587546046690718 0.6307125022760627 0.4061246613423561 0.7651799245182265 
Task64 0.0064302456549411805 0.09599397730917031 0.03131472114888473 0.063431512595776 0.3155829550665868 0.9301374802104392 0.6585020078072635 
Task65 0.030162917612596592 0.0015082218138654756 0.1373326563602385 0.28470810976735345 0.40128656756289705 0.3295126629606671 0.8724128636491066 
Task66 0.029516876926500846 0.0255514116715708 0.05817867797093579 0.06650069151470321 0.32300442371138394 0.5080489637804825 0.3619049785300849 
Task67 0.048908207795903054 0.06889960111903695 0.13504515781086263 0.4005375834234194 0.6517956800923361 0.4427880627791354 0.7829918011834847 
Task68 0.001033663267594581 0.003199365961759028 0.005216603035154076 0.0010952926450316022 0.3844892823331561 0.5183925383347818 0.8030822705336449 
Task69 0.024335475468718965 0.07347077114832978 0.05049072024167642 0.035729609607876765 0.3809079490411553 0.4418109285122816 0.6427051341307527 
Task70 0.10414303531209804 0.061608819812750265 0.23321806521296234 0.5256789439402044 0.4874255181165592 0.7564662894910921 0.9574335372617566 
Task71 0.13406081324060884 0.1406040255560523 0.19168324732650885 0.5162433709190634 0.37337172256765855 0.4209748809851577 0.8717099650256515 
Task72 0.08160554506300263 0.4299056143195324 0.06032573851109938 0.17015243985267636 0.6901658693935993 0.926146941899237 0.6891817422570023 
Task73 0.0019420105234810696 0.04759923288595786 0.009672790143907579 0.009275155799466058 0.8704445001653311 0.6225870264018616 0.633262602193019 
Task74 0.13429735398445788 0.20654591755213045 0.0036510318974806956 0.34778923841086934 0.36197373987696335 0.9022121825544718 0.43139083592867244 
Task75 0.011793686942853791 0.14570561803114793 0.31453875311868895 0.10504027922870282 0.8229711281010399 0.9277109115945954 0.8128830330756089 
Task76 0.0393494552938814 0.07609367529151022 0.07220369137398586 0.11592558773916145 0.9770234372887403 0.9230055647470063 0.82925576589295 
Task77 0.017067132620729872 0.14691592743479354 0.05743135229317895 0.2020234770093773 0.5595048315718845 0.7558661251477595 0.9512493504377642 
Task78 0.010524121134329796 0.003984599044321018 0.02849137296418637 0.01084281533170635 0.7135641819916017 0.46174158927815545 0.7214304260171922 
Task79 0.07906015857253151 0.23225080050882266 0.09149188696484047 0.35149887146571884 0.9015360077225583 0.5911807603553088 0.7316978690359719 
Task80 0.06711609109139889 0.2541878026901764 0.14432045205269922 0.38889847028134616 0.7120801747133472 0.5781014401457863 0.44445631322836643 
Task81 0.07037278302475276 0.18044406602851668 0.15987666744752924 0.10065566409154002 0.6765699216303793 0.9047296698585126 0.3218335474422131 
Task82 0.01861117792655261 0.006102591008248014 0.05237821411360675 0.016300208158071747 0.6337081386606922 0.8291019073418924 0.755003445628541 
Task83 0.04020480157507474 0.0803619109069417 0.023449858744563297 0.11784983397783735 0.6158660547016721 0.8655362682607148 0.8310613555287505 
Task84 0.01353377657829706 0.08325716552909136 0.09394079155293869 0.11093413035637219 0.5847062904870042 0.5561539232741649 0.3914088466249846 
Task85 0.004746781216021698 0.06437060835051346 0.00662167018472279 0.10259524559247901 0.521195360274067 0.5481205724181886 0.9037432262723097 
Task86 0.10860990758919813 0.1901688114420092 0.21968797573719243 0.12916358757355498 0.33135760908691636 0.8970368672235354 0.6668561657899604 
Task87 0.01367550258786653 0.03381289589593685 0.11111388709707938 0.15747487133231736 0.8809564302056794 0.530829668346666 0.9077425665433054 
Task88 0.027764637075136465 0.1327826656596667 0.258824011975643 0.03857602621949767 0.5899058479155703 0.650247190029523 0.31722151077780375 
Task89 0.016283063239312598 0.061333956969672386 0.22919148721463528 0.4095984454514726 0.7408750881215129 0.3520200095900054 0.9612746836305404 
Task90 0.05978564633159172 0.026317697076236504 0.0756475164680644 0.1442692725754965 0.7380462673310758 0.3125973192227301 0.3821857998988275 
Task91 0.0026488587577616365 0.0017761172257181597 0.07999899308787736 0.054953267844210535 0.4735765266063864 0.65999025251557 0.3389663519302049 
Task92 0.029706477815692606 0.17691439678021342 0.05624958638419129 0.27981001942362244 0.8335983486023761 0.3069758715036277 0.9300682596455301 
Task93 0.006848633134623849 0.009927029174509482 0.010469756520666184 0.012909113889715123 0.7114024397893507 0.8982052273664025 0.6230743991374863 
Task94 0.1017439568056703 0.11946524828895813 0.22419586145136172 0.17086511178070807 0.39484454917756107 0.3170798630451983 0.41183059020239016 
Task95 0.02913566495607044 0.062341669838663856 0.0645300490140118 0.014458601138085309 0.6221974948767962 0.8480775615910239 0.6288688747089217 
Task96 0.01945489352418746 0.07546865698678284 0.020025180521518877 0.04280949234788919 0.4273296879714631 0.5292186241566934 0.7062267789196333 
Task97 0.03247851143985178 0.10414843207842615 0.1485195807970221 0.14753280712220831 0.606887144407011 0.8800328090538176 0.33411969309441936 
Task98 0.033607990566410374 0.030784033995411558 0.09111220984372913 0.07955794021112393 0.6112241161529264 0.8491335895212249 0.8297018089042685 
Task99 0.012747158204535555 0.027950420427677845 0.01908473855509837 0.008928432577953815 0.7882232050519806 0.6717555779056101 0.7366797277218421 
