Task0 0.0024012332541758614 0.05878022687833738 0.05816717523207249 0.08334904037948908 0.9240679656317687 0.9201240189596147 0.4500867653241573 
Task1 0.03825970063556631 0.18830957482376343 0.06287054122903658 0.33808294820132145 0.6703177918547445 0.681528011938798 0.4928663233017577 
Task2 0.15144318078989094 0.2202251210672951 0.1691506904545579 0.2645913317787295 0.9701495517442724 0.6044739817238124 0.7802746628234128 
Task3 0.01412494254188017 0.09488336988556183 0.02825186206723984 0.3612177401060653 0.746874609627493 0.6818369659272444 0.879427771261226 
Task4 0.1839745317382653 0.2470371573001553 0.4946778677942404 0.06562226351049949 0.9250619397628115 0.6666057365496667 0.46319322786369777 
Task5 0.006665292308367466 0.04523634805236594 0.005529730969014093 0.0671694985076773 0.8090692748076314 0.9956222609093415 0.6883754595257192 
Task6 0.009528919026486442 0.09467610416797433 0.21976727606805624 0.5922662893661544 0.4426536395905125 0.36562890737150255 0.3633673204304252 
Task7 0.0958651320905554 0.18928854204409715 0.2794941703374058 0.04929316917180307 0.9664055394543649 0.7335376870784345 0.4129452373384895 
Task8 0.010225277225310957 0.03640707030285962 0.0262016765806839 0.04989382151893269 0.31231476000399605 0.6575284541137659 0.890277806031869 
Task9 0.009183940798167796 0.07579176856176294 0.08280908137735862 0.40404674006180974 0.4905242796799192 0.35018205370244704 0.5063979247710443 
Task10 0.037312589117661644 0.13575041042862157 0.21427638505066518 0.04073238461923218 0.8903738943797841 0.5288624888962336 0.701910864389671 
Task11 0.06800732655919363 0.13937255742309496 0.09531467455852055 0.06920050177205957 0.47578134142242035 0.580992323550052 0.4919311153510316 
Task12 0.001598519671424451 0.003060330105684135 0.001077372616444367 0.003711061262419074 0.41787024162580927 0.5800885380650689 0.5952994519498349 
Task13 0.07503397948174481 0.08943068621362096 0.0877930488964085 0.2613395121283643 0.9932063939137381 0.3030185798254437 0.3385987050257371 
Task14 0.002381164807244377 0.016633113995426153 0.010397828534393833 0.005355344376758755 0.4264399745820283 0.38492237311835076 0.7148593935304763 
Task15 0.06495725445610194 0.25693778077933505 0.2034709012608912 0.4146809382575085 0.9422611449968519 0.8679474818556767 0.6583773059149748 
Task16 0.02225827904961913 0.05149246645319855 0.10335046520506855 0.12725474181229027 0.44640369664978413 0.8710982181316922 0.45282200663895017 
Task17 0.1370563876832269 0.12270463499374261 0.21522096407697297 0.27094353649763164 0.3856766103388271 0.7606646641853643 0.9026414561074876 
Task18 0.008551178194282529 0.14410592999507413 0.14505907473836044 0.04281008007508179 0.8394777641272491 0.3731079629015904 0.9746059772130551 
Task19 0.04555633743624072 0.2207914859295958 0.21562510804616797 0.315905102409631 0.8086443719276302 0.8434906291785975 0.7244171613953305 
Task20 0.0948115118068593 0.47764332510602336 0.25997542995368617 0.0437764979240888 0.6741555243233768 0.594230563932075 0.5270128215126875 
Task21 0.039570188547882 0.01779756997614547 0.1233838996544138 0.03953100844646611 0.927399886246091 0.611449163785422 0.988996365420084 
Task22 0.006312957014667665 0.008097473500530456 0.11412089324283943 0.1116957182312842 0.9817119222811788 0.5038726768821804 0.31527230712676463 
Task23 0.05343415240640564 0.06052892986781495 0.1092522427647554 0.06989859067667631 0.6296955479262129 0.36865123373497544 0.9881170374741841 
Task24 0.008909240969005519 0.02960357445926556 0.009601536023624754 0.0969730767558604 0.4992780287293992 0.951279911491189 0.3575274594914745 
Task25 0.1555128826619409 0.3513482682697219 0.2876677540622912 0.1139132674348735 0.7458003620115646 0.7967382712942566 0.8474222034854664 
Task26 0.17332841434426263 0.3191754471758609 0.16270248508148927 0.2676829845895007 0.418120901248698 0.4645669352480631 0.322642834829472 
Task27 0.04107215765518465 0.08964173377205169 0.1330988924419154 0.16353383372856392 0.31687301605930507 0.4162267017047265 0.45267986153761486 
Task28 0.04681714892316649 0.01935946205894944 0.1988266369870046 0.3044932148457211 0.5634544146662979 0.7772892404312468 0.6588259569256429 
Task29 0.012299465792937971 0.011689493586314607 0.05958078996026884 0.0087385549307422 0.4059060507410807 0.7066430994883648 0.6156150188585323 
Task30 0.12788908669372956 0.0884698856548539 0.3523416473243113 0.11650906013478718 0.7114492342826821 0.46578437122111654 0.6293621332984298 
Task31 0.023119746221234513 0.1647716684019912 0.07937502827549688 0.04422320587258854 0.5996524961133605 0.6109659124545086 0.8071449013602194 
Task32 0.03280777372835555 0.32374772523629686 0.13778635261425512 0.22139208701685775 0.8086745240906708 0.45393276059142107 0.6483765002743641 
Task33 0.16474999937402843 0.19718544472621485 0.19528846851267168 0.34406742932164924 0.7645254074534837 0.8849276945336311 0.4386692220145501 
Task34 0.00048104998797667676 0.0038813817704726195 0.012161550363342244 0.008846075565111829 0.9508403936309333 0.6920581837298283 0.9896006894019913 
Task35 0.06972024591843502 0.09108496259847686 0.22449669140179132 0.2864879134395975 0.7995171164525798 0.7292291895353481 0.6645968388570124 
Task36 0.02188923258651112 0.06677230559196125 0.08620113505845965 0.033164705746739194 0.7705742999734857 0.9627393104132234 0.3717674713481848 
Task37 0.10992278926939199 0.21002580652337172 0.19282935518311636 0.06873401920989496 0.8250776991172293 0.8309631973953431 0.7980501992436089 
Task38 0.04715937108437954 0.465404872905919 0.11318366521416598 0.2581550967867899 0.9763171409015792 0.8049393276042638 0.42038556354446016 
Task39 0.011527126985311451 0.08149058117016603 0.09881443968360273 0.0709051375119399 0.9219315822812872 0.7542292230964244 0.9371227136873979 
Task40 0.0022962717551189946 0.047853109229526306 0.23035860094924002 0.05783961494080633 0.974962869579002 0.8977988649285964 0.37263172636895603 
Task41 0.10457296507597505 0.34934271382026166 0.1877569596572439 0.04418915873593498 0.39313015518170696 0.621375650762517 0.6006375541138702 
Task42 0.1758744782790303 0.09735655382532094 0.11339689372817575 0.5879751046674733 0.9706165947714875 0.6250634608230914 0.4579104274499874 
Task43 0.04708238337712979 0.2095196957481557 0.1660625734206288 0.3067428243740522 0.5647536232380651 0.8628258879990776 0.3415659076868577 
Task44 0.014779225582788139 0.15614190030800815 0.13899945716304615 0.23778354152559375 0.6508056435188321 0.4184099246280514 0.7118535597299782 
Task45 0.028796783296341947 0.1966894601548057 0.10346989310700472 0.22386404118004355 0.45362899100302334 0.7049871994231449 0.3539908531804549 
Task46 0.037980226431967724 0.22823503194027475 0.22127666816856925 0.1367951901358926 0.36389094350265094 0.8963213212224808 0.8802473809036901 
Task47 0.057823408646405484 0.05431338357454548 0.2009680641273588 0.26388975383856844 0.40365063396439593 0.6160804841544559 0.7476866941283709 
Task48 0.009200587425539215 0.045894605063438246 0.07342930859559824 0.09461175469955195 0.7118672115265365 0.8177857035890188 0.8363457767597968 
Task49 0.020708729770021046 0.0561294864542757 0.28792830264563773 0.21422344313843325 0.8093650632629397 0.6396284373790507 0.6268332496537732 
Task50 0.02049916795816959 0.05010499654499758 0.03554525301062349 0.052446161384936546 0.965943266063477 0.9264783647958557 0.6718430204605428 
Task51 0.06679653426307876 0.2957917989109304 0.08576645563330182 0.1051769654426344 0.9290609428354046 0.9737737084269311 0.3354809323365032 
Task52 0.057669028772473256 0.04989474177462078 0.2762194761016811 0.045671489079902865 0.9831081997643862 0.39329367447848285 0.5859766094403056 
Task53 0.020833459849313975 0.006094195719035516 0.06221584495967715 0.12421194630065338 0.6946143869896163 0.6406040639245503 0.6430673914962348 
Task54 0.11499651892588422 0.1893249142986939 0.2456772314436738 0.11686004622321713 0.8566600208213917 0.4095829812039944 0.6099912949996479 
Task55 0.02070012415915769 0.05497208098268259 0.44953862633934505 0.41659662250019486 0.9761428286347569 0.9329493916770923 0.6790209132740364 
Task56 0.010110701192661336 0.037731826421086766 0.23905261272004005 0.05406473562344352 0.9994583807211073 0.5549041793445009 0.8835783670171022 
Task57 0.02130277427057738 0.0672889297083338 0.025675615795540865 0.0698033365989946 0.8836272497262712 0.5255785104886574 0.4683218329466688 
Task58 0.09018918092296178 0.3325779423919183 0.0968501973617509 0.30214796500346 0.6565544596121533 0.7991689816915377 0.42708556227851047 
Task59 0.08703537357500317 0.285909535396316 0.19151450786357538 0.37031294040130847 0.7161244557653338 0.688413797241036 0.5920745848257771 
Task60 0.03698300956326738 0.27965606514999836 0.006488161538914223 0.44675096756325516 0.5492046859463068 0.6590301565444726 0.7815067173924098 
Task61 0.04295156837645029 0.027371408643615924 0.048169393937972024 0.11148245593763326 0.9765630655301367 0.9579689716729372 0.5418674704318727 
Task62 0.005073031019100865 0.027669881002876064 0.0282654372702981 0.014899817356395582 0.6315662197122665 0.9724431850351096 0.38568017640303137 
Task63 0.08072754157621595 0.2386802508102095 0.3004248533845296 0.15318348051552608 0.5653152014500933 0.5071006026925968 0.8056214941143471 
Task64 0.1219280136807952 0.15483390576906822 0.272026873461827 0.07381059286678944 0.5114242894423779 0.7218541846773356 0.9990456804194596 
Task65 0.011218132751260514 0.010220156860503721 0.1456666103612673 0.11137283159743783 0.6794350587495879 0.44752217927085386 0.755256196831599 
Task66 0.11162912890215088 0.28840660393513423 0.4044778936394086 0.1527335302154526 0.6760724715970856 0.3206312252174871 0.6603755102679163 
Task67 0.004694304483460763 0.033135112543853026 0.023877890527538043 0.08990540128343576 0.4643155351824142 0.6286186433898938 0.9331799183996157 
Task68 0.028561945196780143 0.12175538298693647 0.12995994758637117 0.08326704279331619 0.33163758885476924 0.30431347567464245 0.31219219321675434 
Task69 0.007278915309671383 0.31237076595526414 0.006155721522093612 0.3053284834274811 0.83026388810389 0.5325527605406856 0.8495808737344208 
Task70 0.09569455722390292 0.33243074392058086 0.02743294681527916 0.1532456007828416 0.3515952383706385 0.5379525048427949 0.6173791302871672 
Task71 0.110688582797577 0.34966140853009 0.4089956267462435 0.0375142036880794 0.37391936010694177 0.3955544196152704 0.7707883710406236 
Task72 0.06417954158912405 0.2265153478965176 0.187348278546162 0.2179160689467149 0.9735549795212117 0.8142234597895404 0.5584584441285834 
Task73 0.021209348281765246 0.10102272340318541 0.19106853267680698 0.16744408727587376 0.9324780312150047 0.9086011665823639 0.837517900914138 
Task74 0.005728438622648395 0.016979990112294587 0.019011495403079677 0.00957407718406362 0.9775363434330011 0.862505094362588 0.6707770746391419 
Task75 0.02144045752252408 0.22820136334664176 0.17983084669380814 0.14817042776665262 0.5204696859002579 0.5560851517518172 0.9648260803134603 
Task76 0.03013135970220738 0.10106807506614782 0.09988876637211672 0.14164071330950437 0.507292072762983 0.9640786211502481 0.8680575930993029 
Task77 0.13471862173026222 0.21641861830928572 0.23426741719995717 0.09119540091357435 0.831281191130596 0.8003022520458296 0.6875372247479372 
Task78 0.027901517127321397 0.03423254612268869 0.0984772320069994 0.011951692373141492 0.998109152798953 0.6243749528332525 0.7381165953175246 
Task79 0.0036297216957052883 0.012271673418899377 0.0017303789932334153 0.02544658212539623 0.55084338749085 0.7116700744368128 0.6683673609426406 
Task80 0.06161934877224837 0.1725937530120135 0.13749270937950606 0.34187683229413324 0.5901657105027066 0.319840836010946 0.5545012197150938 
Task81 0.026739553127293224 0.13114390216148272 0.12475361886517934 0.0380662702350943 0.7448361668480818 0.8925024960061816 0.4508788724964311 
Task82 0.1287017536999917 0.29426074768356497 0.044979354567084566 0.44463534542806304 0.6906186634826166 0.7089934234845257 0.7410664342914581 
Task83 0.016819952257167092 0.04885930025257718 0.05632948668136206 0.020856892287837055 0.3151576547035645 0.5990919496043257 0.3769281091101926 
Task84 0.09398639610645325 0.10043369731766658 0.33875405802459096 0.3260901915042753 0.4868107793755218 0.6066312576034525 0.3099066143616484 
Task85 0.004877329601198226 0.22566599477060287 0.036294070807653206 0.4023629121687946 0.895122075237466 0.4335578806339804 0.8742706767661796 
Task86 0.05510240719685672 0.35622964753555436 0.1206459773239338 0.31271959920917614 0.5743283439949873 0.3964890097782112 0.31305769679376083 
Task87 0.04031167827534874 0.19866035711457122 0.45361928651513395 0.2839354004608568 0.36622025943479675 0.4797660057251141 0.464216729666592 
Task88 0.06611427091013194 0.28483915608311494 0.07450243011659564 0.10568857812168293 0.3149416032016588 0.7733904982573054 0.4187650468877589 
Task89 0.01305832434673564 0.01828265624448101 0.0031485953193288443 0.035386904029697214 0.7220679560277845 0.9820609252462287 0.39579362274815105 
Task90 0.07564658667251435 0.13192897453697466 0.2977479426220261 0.28636792061348326 0.6461174073662914 0.9094415410494456 0.9931244918176962 
Task91 0.10782549524007694 0.17492670620347786 0.22194023001989416 0.07600319237752905 0.9529932363990028 0.9449002322017865 0.9675384100182778 
Task92 0.020752385420576825 0.27134907999354774 0.007645705091646988 0.15674522354090623 0.926224013992053 0.6228129643846225 0.9704212560967678 
Task93 0.004355928509332661 0.2574900552103824 0.06267393035745121 0.04139299893660026 0.8574561041108508 0.8898411708941065 0.6034809560885661 
Task94 0.011438839899507768 0.03684651484136776 0.5612521148964517 0.17018080560973112 0.3184606995189276 0.8966906989585031 0.4346382610182128 
Task95 0.08562275472191745 0.2053433706384104 0.2679301908207398 0.06103371653974082 0.5823982200676582 0.3604157560548704 0.8143707035997727 
Task96 0.10103835713464253 0.1646084383379477 0.3085867476540086 0.22379505314136175 0.9651793678009188 0.9467287056281772 0.6144589431517924 
Task97 0.13694629781470583 0.4865053894749078 0.16082150517947444 0.0648356639378583 0.881150401608171 0.9706367051160343 0.38318563062065897 
Task98 0.09158212361205367 0.32233109469357973 0.23065400776730272 0.20465298458233772 0.3920951232157168 0.4564524305993771 0.6586808384574923 
Task99 0.009908741705498268 0.003590908135916101 0.08366325510214001 0.31592090815215623 0.688495614416615 0.6959017678445211 0.763921127186114 
