Task0 0.09032105901474397 0.2150041477255863 0.2167927043244661 0.22326291955077768 0.873159857634505 0.8707551178257029 0.5899473303764723 
Task1 0.06027122001576541 0.2890021164205029 0.1190925319231974 0.0972774699159769 0.8384052213292961 0.4446873003277445 0.6110374865914933 
Task2 0.021100326771204384 0.010396666826305823 0.18706497009304723 0.5343177191122468 0.40440506789665065 0.9624413083200385 0.8286269157592576 
Task3 0.022846155098405554 0.026982099902147005 0.06047899027809824 0.057566623311364924 0.400238162100061 0.870248964122958 0.5462771682636031 
Task4 0.12459575832118619 0.4945947076732565 0.17225571881105098 0.044185878203379166 0.7492076017306071 0.8122885109307878 0.9633947826006559 
Task5 0.01145241023290858 0.1510535292888087 0.024646678930878158 0.11286744517708912 0.5751985185154693 0.9931536247725334 0.48807413651064946 
Task6 0.007598689495067895 0.020091843982290195 0.006754632298368946 0.008598896286801492 0.5263641342581916 0.9352480542889774 0.6845484891929945 
Task7 0.002232567906181875 0.00637733590231401 0.005963471591943515 0.00012033761203994887 0.7177805130703073 0.30652160471154244 0.6397286863734848 
Task8 0.02574974503446523 0.038209119142567576 0.2997064845781153 0.23305511851666186 0.9607137265798131 0.9881890781584199 0.44277089372455813 
Task9 0.039529434362988274 0.11684313896964488 0.027511444303516985 0.09044540302382365 0.39848085285749957 0.772329080790807 0.9276878861441387 
Task10 0.0515264277555987 0.241556934912332 0.38480159636988004 0.2637244334581474 0.865786728607252 0.327606502390431 0.43049211395525855 
Task11 0.12314428779870733 0.11104311419111045 0.3150452468355707 0.08292714232269723 0.9596189106677906 0.9759774703021336 0.4721596331616877 
Task12 0.036617377216583515 0.17240135393721231 0.039301488612940465 0.060920042755092406 0.977689748635133 0.4096573251544657 0.5008513671383694 
Task13 0.0032990210087468935 0.10844853540947244 0.1595564514118227 0.1430896197075338 0.43016713631744297 0.5521931237352466 0.38596457661460964 
Task14 0.01479112378964314 0.11983183732393557 0.02740118530135356 0.0812525726756984 0.6622838759562059 0.5356934656258564 0.7038959021082631 
Task15 0.07837233222531466 0.11890812137569862 0.22471767868026307 0.24529889421574427 0.9466626574589105 0.6817682592215311 0.580972433169288 
Task16 0.0009255177635112253 0.028296551084417074 0.017363981194603986 0.017347983392939588 0.9526108025411113 0.6735213175536193 0.9890894393950553 
Task17 0.009482849571940921 0.01814266677361517 0.014395533406207538 0.01124771287777332 0.4118425307449276 0.3065064547481614 0.6845126630984644 
Task18 0.0076078913907286164 0.10224409871501088 0.1148808119377196 0.013193105665972718 0.7332105862286518 0.7004732482286988 0.8152121597995892 
Task19 0.01349044622570142 0.40373764188735584 0.20765107294843244 0.31051224335514477 0.5454624982476651 0.9233108110090102 0.3270529400386619 
Task20 0.09443048675653125 0.0880567167101578 0.15789166521849055 0.1655011003289975 0.4857089714837443 0.8168165855083493 0.34235523116321054 
Task21 0.025999524356942662 0.050411835045714934 0.08571109674193306 0.050011599889827396 0.6415882463225245 0.4259438100325825 0.789288988589401 
Task22 0.05494609456624455 0.07043804945815747 0.07253913916618132 0.08943706863724833 0.4456246299146187 0.31438338662023746 0.5981250233300981 
Task23 0.088981855257708 0.14786708184483183 0.40879522879793273 0.2747412086798093 0.39666934936978554 0.49656294205089335 0.8590865345814895 
Task24 0.039881127304659654 0.4446295354399513 0.3625892256526553 0.15232342551691977 0.6665262454844818 0.763390823732024 0.41994498909932515 
Task25 0.04400443672320155 0.7845117333208415 0.066481679043672 0.09121536733446181 0.7993026104258897 0.8187749983437775 0.7644108727309045 
Task26 0.07548949821753141 0.1940247142681299 0.12821016742546776 0.14539786977673796 0.4323801746161729 0.7154116401725286 0.945276870808986 
Task27 0.11227278179503158 0.41850347476915545 0.23928143284762757 0.2272737482423533 0.8648966515013736 0.4258266459452843 0.378322472861975 
Task28 0.03754801049943434 0.22267817627456382 0.2794307258461397 0.22011442308891527 0.8036115688691992 0.8033470316689124 0.5745172087354917 
Task29 0.038732020432089974 0.14674133737823686 0.03660111985987632 0.23867233962582296 0.677411073594157 0.5748246428010957 0.8453563314695438 
Task30 0.01637113828902344 0.04641351884915925 0.0769088403445143 0.268371235736392 0.82495304484605 0.440780590128533 0.9482143917950676 
Task31 0.03929206232265932 0.09489226994924596 0.17098111515263745 0.16658436173065702 0.3238535489332323 0.5594298173551722 0.7746783584484824 
Task32 0.06277757095326952 0.09153874196467719 0.18912696021790346 0.23010817604443481 0.7103693602356944 0.44911924238396483 0.9109260615119252 
Task33 0.10284776654031796 0.0931634669774044 0.18033554417344505 0.1884939957788151 0.3253019270298983 0.6957868286810867 0.6956317032523189 
Task34 0.0027362821223277495 0.00764016133741285 0.006916056852011664 0.0017608685868057592 0.9635017784118454 0.697979603464879 0.8431768548879508 
Task35 0.014000861823054022 0.05306274197299647 0.037264486218650604 0.04083500543821142 0.7522139537839599 0.41478265200727765 0.49141484298413796 
Task36 0.03314303901935339 0.05370746761179836 0.007101612812503047 0.18747764254010857 0.31320936158773843 0.9717134419193525 0.9290403585097378 
Task37 0.11626053091974889 0.19337862416913548 0.1273566405416322 0.27602017063050116 0.7395700740427458 0.9718339951752768 0.9220693001160576 
Task38 0.021788244126483506 0.09006936814252245 0.07096096331747373 0.1412431301033315 0.35193767626008143 0.3390130038498648 0.8979118871938938 
Task39 0.046174255667081644 0.04487406663109732 0.09031070481900243 0.08996424927885208 0.4683734354827704 0.8606740908452857 0.5493317069699036 
Task40 0.0301406848074984 0.03412255176191565 0.053061133375525024 0.03893405556039478 0.4702330358834004 0.7863851900094821 0.7713184644176027 
Task41 0.0006683648806841601 0.11409369317684326 0.07059009380048255 0.10371274387965922 0.600092690825379 0.451846122473534 0.9315800505014555 
Task42 0.01746744743367535 0.010244641200464108 0.04416852268264036 0.029447480939008164 0.5892612688168453 0.8299942283157016 0.30523308493128437 
Task43 0.09195966095918134 0.033777805401051755 0.3836839394986304 0.28179152549386316 0.30752594550347595 0.5616958120771 0.9617307244486113 
Task44 0.01898608448659278 0.22497461128738605 0.07061599680366751 0.5046143767505792 0.8927175890495176 0.6615591076309482 0.901065867339951 
Task45 0.03519979993617127 0.47517639716768306 0.16623513943276244 0.27424784413404063 0.5152013362792001 0.9357260483780174 0.7756528289484961 
Task46 0.09236689775077507 0.22618914403867774 0.45059791426402745 0.06479539109816049 0.7878805597255258 0.3852317783067887 0.6067798449103046 
Task47 0.06863089080504281 0.11533856968310438 0.13921677949278768 0.20343370962725343 0.5135155911232357 0.41749298612006147 0.7125769280894778 
Task48 0.10037240440703063 0.2754976954435072 0.2527495209755507 0.059330568873290454 0.7587827289950027 0.3629817251546721 0.5678829005676119 
Task49 0.015138561818293057 0.21418898464056865 0.14963134611147383 0.36231005337076233 0.6187722655914442 0.814255716475595 0.5479349979572562 
Task50 0.13194763683367614 0.18405191830281817 0.22246471151815364 0.20677107084632237 0.4577416344221006 0.8233199493017627 0.3953505333266706 
Task51 0.047401685503218306 0.20123694791262825 0.12989830895469057 0.0929595857924556 0.4905035986542994 0.7213546874586638 0.8865531313571589 
Task52 0.044406041848387263 0.16961927060319434 0.38241584767223635 0.28698221902030985 0.4607753128225827 0.47723710954336057 0.5447635172407597 
Task53 0.019673367013538386 0.18334809527221282 0.2418260834602222 0.35336307359342567 0.4030834496767084 0.903274355654518 0.8779647560976129 
Task54 0.05764515864561157 0.13145215759474493 0.05536931767289903 0.1270364100652279 0.3288254185694804 0.8492192108893217 0.6174620944590072 
Task55 0.0377197651616084 0.0006003313543177732 0.04457962753381519 0.12766785494817742 0.8054905751084551 0.8819130120919068 0.808671605567773 
Task56 0.051664163361334135 0.2047737176674716 0.2769281610557545 0.20003961237438986 0.693398974620896 0.8174419255730636 0.6580158003570304 
Task57 0.04025731843009067 0.6730931591091509 0.024966063446198183 0.15262895787131037 0.42856414421696354 0.5285988334126936 0.8918639312379248 
Task58 0.01864862016504348 0.13687851975003532 0.04597456736518463 0.2637750774491587 0.4140727427835916 0.3454408551750273 0.7225224453711265 
Task59 0.07044276328855893 0.03236823231989189 0.27356444780470474 0.18662755745730503 0.6590816278658095 0.7055553537889148 0.953101401296421 
Task60 0.04583614807728982 0.21752938623161786 0.15995523698667605 0.22295091259185829 0.4282573254428136 0.5278408910963378 0.7067634251201629 
Task61 0.05797016389522023 0.2150493439581982 0.0059684124017799324 0.08761055656991273 0.5405035589677735 0.5285713499582614 0.5845533497344897 
Task62 0.06052371718251821 0.5083802015223685 0.1335973749201475 0.2580957711724254 0.625876125927493 0.35378762850866996 0.8474889481984336 
Task63 0.10899135791311139 0.282291974878687 0.008415724902507637 0.4481224103353105 0.8280708268719517 0.7216673194592067 0.9241697465342769 
Task64 0.0895873855584124 0.18409511578407203 0.2811070451920483 0.1106627745151761 0.9248238943880795 0.5582042529188893 0.9934763075139139 
Task65 0.006548118249512009 0.007761713132422749 0.01662636471072659 0.10461705599178811 0.9627708120918601 0.5013040043239844 0.5875792126891626 
Task66 0.0019990126608674195 0.7224568746413209 0.0899410585598768 0.12649858754962548 0.8512529907731587 0.8224521346996088 0.7860637082514028 
Task67 0.0690828127571373 0.14519878931064703 0.14804000046319338 0.016702504611567977 0.5964255861994112 0.4028741173110441 0.856364368323075 
Task68 0.08099830156209935 0.09966159777167839 0.21296763371566838 0.3919295636148783 0.6513025401082229 0.4989104922907229 0.9917741833606506 
Task69 0.05817940019544126 0.16917096494909942 0.17057798631535845 0.017275039850988192 0.7451657560691732 0.580430379752404 0.7635794113622707 
Task70 0.14311895097361177 0.023042277197966275 0.7284660499235233 0.0905327084923616 0.7526213809560331 0.8800468736323079 0.5556428989970329 
Task71 0.009850211411378785 0.05872028365101663 0.013583346735760775 0.12178002744292593 0.9513627470956141 0.8806535046087263 0.33597302729261036 
Task72 0.02083936424405782 0.17749010503968388 0.254238770500986 0.11996945123323506 0.7713244403750029 0.874169365390671 0.5491015543276105 
Task73 0.03369573469762317 0.04310611211688711 0.1899533932299448 0.11143643239564166 0.3037222446951506 0.30636971515137035 0.7362915413546364 
Task74 0.0777700030785801 0.1286090705296495 0.2439778941992943 0.2848382160716786 0.35536324080742004 0.3010908130747593 0.5278631093766686 
Task75 0.03939983084705049 0.16257976823156012 0.12225225888598493 0.08214475259135237 0.6915531231426226 0.46463805076441517 0.7133705058238593 
Task76 0.010874214406791106 0.006355400926162994 0.19139634144622222 0.011386104189790006 0.4508743940025938 0.8894294072155868 0.9534119145406859 
Task77 0.049159659486080726 0.3734065198487013 0.12549504955511973 0.003674341589232211 0.40347279489278753 0.4700533617289139 0.8585031684571502 
Task78 0.015294335630608032 0.05088515010067317 0.0018644521159393748 0.046359784408650115 0.904427568839475 0.38304566854722344 0.8486047814246536 
Task79 0.03171303672816601 0.5049851376155476 0.07494537081714307 0.16372899830743348 0.8330930363701765 0.8767470911396364 0.5807689399211473 
Task80 0.0037449893333726184 0.00788868933421565 0.0016545133113534524 0.0121665122371175 0.5901580939953207 0.6910207569592846 0.8700210540503197 
Task81 0.16600748058497802 0.04205172237809651 0.2690153642828926 0.39960072544884156 0.8012131585590363 0.6092373179259388 0.38781914028893094 
Task82 0.15573788846339626 0.047601226313028634 0.02272492173225474 0.6398492942449635 0.40105042742941743 0.8188870396140018 0.4369840368340031 
Task83 0.04806155659604081 0.21959522701097436 0.15050800399273065 0.5217842553486793 0.660045316655395 0.380089165477198 0.9670435091218454 
Task84 0.022384246270541364 0.019912227934534534 0.03541658884093303 0.04530212450577794 0.3927727183434163 0.6519596015723139 0.5945102953962578 
Task85 0.06940019241047352 0.17922411032402988 0.1831695838945666 0.1488295236615755 0.32507706097233613 0.9540504087527226 0.6029679364567704 
Task86 0.02439051467904613 0.20279914588537432 0.18180738346360645 0.14860174304821522 0.46161083641588424 0.5139932023604368 0.6998028270229621 
Task87 0.12871647418988375 0.03276007595676003 0.10294290434746506 0.39720583671007764 0.44296341771842396 0.8021512784246094 0.7795745218752839 
Task88 0.005451714033039476 0.02006840728100724 0.021860914577646808 0.02986942070401099 0.8860767937754146 0.7578405635682244 0.6376907671607288 
Task89 0.03477117105978489 0.02195768975272265 0.27758427854620527 0.2614561606186088 0.7118155998963543 0.3775043292496564 0.8106993671198348 
Task90 0.015202307244938899 0.0015691052946502449 0.03556350512131212 0.033616425910174226 0.7384526726526488 0.4693977534734307 0.8513006051060512 
Task91 0.050739672238192875 0.19684014993507035 0.28770741082283213 0.08669182299071922 0.7392149926714312 0.9359271094909076 0.5963772241990126 
Task92 0.017906708645224208 0.10989587387309764 0.004745015996162879 0.5541815833592344 0.605122608202399 0.6167860288959303 0.396166261304611 
Task93 0.19436391360226216 0.2801268227204381 0.24374477680255682 0.28059559613487967 0.56670293933438 0.39710161218331297 0.9643261500342006 
Task94 0.0030241002645460704 0.028453912278497247 0.03139163970197638 0.006786929893372405 0.5916485952858954 0.7347811640226075 0.9547853801480004 
Task95 0.09121072879948876 0.00532519864225236 0.3575242649239244 0.17242159214098993 0.9782874797373615 0.5773673904191128 0.45198567749655916 
Task96 0.08926872278114188 0.13865386609890185 0.17185213961523024 0.21386236534072423 0.9199563137853326 0.34598823515157007 0.8950108215685697 
Task97 0.0009024114423519828 0.01780529118547269 0.01562865534660907 0.007249224953077059 0.8925994732903868 0.37177144976843685 0.6357457583947248 
Task98 0.02906961674628327 0.4300333664962296 0.048326027944420404 0.2442592621146461 0.7298187547289086 0.4701095995308508 0.3092254269784052 
Task99 0.13681128466969367 0.27930437236970157 0.22816305725947708 0.21351713754591756 0.8363885356811178 0.5736875804387291 0.31523267128352855 
