files/tasks_parameters/ExAp01/sample8.txt 1.61779 6.77015 2.19458 0.288816 4.75038
files/tasks_parameters/ExAp01/sample12.txt 1.91424 9.58351 2.46081 0.337498 5.55109
files/tasks_parameters/ExAp01/sample2.txt 1.79224 8.44418 2.50701 0.319127 5.24892
files/tasks_parameters/ExAp01/sample44.txt 1.57086 6.96299 2.23089 0.28229 4.64304
files/tasks_parameters/ExAp01/sample27.txt 1.60015 7.74306 2.16676 0.28602 4.70438
files/tasks_parameters/ExAp01/sample17.txt 1.62806 7.35053 2.25579 0.292348 4.80846
files/tasks_parameters/ExAp01/sample9.txt 1.57692 6.89392 2.21068 0.282399 4.64482
files/tasks_parameters/ExAp01/sample34.txt 1.66142 6.62788 2.3772 0.297742 4.89718
files/tasks_parameters/ExAp01/sample40.txt 1.58786 7.75686 2.17534 0.285619 4.69779
files/tasks_parameters/ExAp01/sample33.txt 1.88738 8.14826 2.6463 0.338073 5.56054
files/tasks_parameters/ExAp01/sample48.txt 1.50725 7.64107 2.14272 0.270011 4.44107
files/tasks_parameters/ExAp01/sample29.txt 1.56757 7.139 1.93769 0.286306 4.70908
files/tasks_parameters/ExAp01/sample11.txt 1.55996 6.88688 2.12981 0.280008 4.6055
files/tasks_parameters/ExAp01/sample14.txt 1.39085 6.11983 1.97599 0.247458 4.07012
files/tasks_parameters/ExAp01/sample0.txt 1.64358 8.2738 2.14256 0.289132 4.75556
files/tasks_parameters/ExAp01/sample7.txt 1.50585 6.87011 2.05821 0.269886 4.43901
files/tasks_parameters/ExAp01/sample23.txt 1.63573 6.52032 2.38087 0.291712 4.798
files/tasks_parameters/ExAp01/sample13.txt 1.67391 8.73247 2.33415 0.295393 4.85854
files/tasks_parameters/ExAp01/sample22.txt 1.63166 6.9777 2.28948 0.283979 4.67082
files/tasks_parameters/ExAp01/sample25.txt 1.49934 6.23444 2.2122 0.267298 4.39644
files/tasks_parameters/ExAp01/sample36.txt 1.42974 6.6174 1.9458 0.253823 4.17481
files/tasks_parameters/ExAp01/sample46.txt 1.82886 7.42369 2.49128 0.327273 5.3829
files/tasks_parameters/ExAp01/sample31.txt 1.45397 7.22028 2.13584 0.25377 4.17394
files/tasks_parameters/ExAp01/sample37.txt 1.71568 8.90704 2.16981 0.295708 4.86373
files/tasks_parameters/ExAp01/sample16.txt 1.4199 8.18243 1.88294 0.24945 4.10288
files/tasks_parameters/ExAp01/sample10.txt 1.60474 6.96646 2.31217 0.285748 4.69991
files/tasks_parameters/ExAp01/sample39.txt 1.40719 6.4161 1.97266 0.251967 4.14428
files/tasks_parameters/ExAp01/sample19.txt 1.73904 8.16711 2.23199 0.308463 5.07351
files/tasks_parameters/ExAp01/sample20.txt 1.45832 7.28549 1.88944 0.25994 4.27542
files/tasks_parameters/ExAp01/sample43.txt 1.42996 6.86804 2.00142 0.25616 4.21326
files/tasks_parameters/ExAp01/sample32.txt 1.59358 8.15663 2.12995 0.281726 4.63376
files/tasks_parameters/ExAp01/sample45.txt 1.55632 7.75184 2.10599 0.274935 4.52206
files/tasks_parameters/ExAp01/sample26.txt 1.48918 7.4944 1.88956 0.267248 4.39562
files/tasks_parameters/ExAp01/sample5.txt 1.62154 8.08362 2.09961 0.28454 4.68004
files/tasks_parameters/ExAp01/sample21.txt 1.47361 6.11814 2.17119 0.26143 4.29993
files/tasks_parameters/ExAp01/sample38.txt 1.49529 7.761 1.96293 0.263659 4.33659
files/tasks_parameters/ExAp01/sample1.txt 1.61224 7.83752 2.13261 0.289228 4.75715
files/tasks_parameters/ExAp01/sample15.txt 1.59334 7.37971 2.12057 0.285825 4.70118
files/tasks_parameters/ExAp01/sample24.txt 1.64433 8.28531 2.25272 0.296628 4.87887
files/tasks_parameters/ExAp01/sample3.txt 1.72233 7.33359 2.39135 0.305084 5.01795
files/tasks_parameters/ExAp01/sample6.txt 1.59033 7.09894 2.24425 0.281804 4.63504
files/tasks_parameters/ExAp01/sample30.txt 1.74933 8.17669 2.03701 0.299204 4.92123
files/tasks_parameters/ExAp01/sample42.txt 1.66642 7.70416 2.42413 0.29743 4.89205
files/tasks_parameters/ExAp01/sample4.txt 1.74483 7.41691 2.36261 0.307803 5.06266
files/tasks_parameters/ExAp01/sample28.txt 1.46983 7.0562 2.07657 0.266428 4.38214
files/tasks_parameters/ExAp01/sample18.txt 1.51582 7.60139 2.1377 0.268016 4.40826
files/tasks_parameters/ExAp01/sample35.txt 1.83157 9.66795 2.28028 0.32244 5.3034
files/tasks_parameters/ExAp01/sample47.txt 1.40131 6.84842 2.12104 0.251655 4.13915
files/tasks_parameters/ExAp01/sample49.txt 1.45206 7.1497 2.11412 0.255889 4.20879
files/tasks_parameters/ExAp01/sample41.txt 1.48059 6.59911 2.07359 0.265885 4.37321
