files/tasks_parameters/ExAp01/sample8.txt 1.08631 3.76817 4.3855 0.450105 8.02385
files/tasks_parameters/ExAp01/sample12.txt 1.45832 5.03638 5.18776 0.610564 10.8843
files/tasks_parameters/ExAp01/sample2.txt 1.37318 4.58991 5.64606 0.613877 10.9434
files/tasks_parameters/ExAp01/sample44.txt 1.22675 3.77401 5.66946 0.551838 9.8374
files/tasks_parameters/ExAp01/sample27.txt 1.29117 4.13937 5.56136 0.55779 9.9435
files/tasks_parameters/ExAp01/sample17.txt 1.11667 3.76163 5.38341 0.520991 9.28751
files/tasks_parameters/ExAp01/sample9.txt 1.08934 3.69889 5.2981 0.511699 9.12187
files/tasks_parameters/ExAp01/sample34.txt 1.11657 3.52435 5.83741 0.49187 8.76838
files/tasks_parameters/ExAp01/sample40.txt 1.1516 4.06185 5.0335 0.496884 8.85776
files/tasks_parameters/ExAp01/sample33.txt 1.47768 4.82091 5.83886 0.651963 11.6223
files/tasks_parameters/ExAp01/sample48.txt 1.08761 4.01134 5.07085 0.447927 7.98503
files/tasks_parameters/ExAp01/sample29.txt 1.3993 4.20847 5.0406 0.643694 11.4749
files/tasks_parameters/ExAp01/sample11.txt 1.3024 3.94699 5.29198 0.557276 9.93434
files/tasks_parameters/ExAp01/sample14.txt 1.05546 3.54059 4.58345 0.466713 8.31992
files/tasks_parameters/ExAp01/sample0.txt 1.44814 4.82755 4.90216 0.623551 11.1158
files/tasks_parameters/ExAp01/sample7.txt 1.11609 3.60766 5.11185 0.509566 9.08383
files/tasks_parameters/ExAp01/sample23.txt 1.40956 3.81403 5.45799 0.582911 10.3913
files/tasks_parameters/ExAp01/sample13.txt 1.44752 4.8894 5.26818 0.624499 11.1327
files/tasks_parameters/ExAp01/sample22.txt 1.22142 3.76156 4.95746 0.534216 9.52327
files/tasks_parameters/ExAp01/sample25.txt 0.944937 2.94144 4.92622 0.403639 7.19552
files/tasks_parameters/ExAp01/sample36.txt 1.22089 3.56164 4.5806 0.501799 8.94537
files/tasks_parameters/ExAp01/sample46.txt 1.22672 3.84833 4.7121 0.530701 9.4606
files/tasks_parameters/ExAp01/sample31.txt 1.06073 3.764 5.08385 0.479734 8.55203
files/tasks_parameters/ExAp01/sample37.txt 1.49766 4.43254 5.65111 0.65143 11.6128
files/tasks_parameters/ExAp01/sample16.txt 1.23715 4.49741 4.8895 0.509171 9.07679
files/tasks_parameters/ExAp01/sample10.txt 1.36877 3.87086 6.07511 0.60993 10.873
files/tasks_parameters/ExAp01/sample39.txt 1.03383 3.66299 4.54281 0.463671 8.26569
files/tasks_parameters/ExAp01/sample19.txt 1.34058 3.86694 5.14047 0.615987 10.981
files/tasks_parameters/ExAp01/sample20.txt 1.3418 4.09945 5.13368 0.580369 10.346
files/tasks_parameters/ExAp01/sample43.txt 1.13754 3.75825 5.55698 0.530892 9.46401
files/tasks_parameters/ExAp01/sample32.txt 1.39051 4.0352 5.29178 0.587643 10.4757
files/tasks_parameters/ExAp01/sample45.txt 1.20073 3.94578 4.87833 0.541081 9.64565
files/tasks_parameters/ExAp01/sample26.txt 1.03896 3.50998 4.55035 0.474009 8.44998
files/tasks_parameters/ExAp01/sample5.txt 1.34446 4.00994 5.27725 0.587681 10.4764
files/tasks_parameters/ExAp01/sample21.txt 0.941644 2.8974 4.54677 0.430037 7.66611
files/tasks_parameters/ExAp01/sample38.txt 1.11439 3.56689 4.78573 0.492366 8.77723
files/tasks_parameters/ExAp01/sample1.txt 1.10135 3.69002 4.55048 0.481074 8.57592
files/tasks_parameters/ExAp01/sample15.txt 1.16096 3.73223 5.42493 0.524964 9.35834
files/tasks_parameters/ExAp01/sample24.txt 1.20372 4.18053 5.40377 0.542575 9.67228
files/tasks_parameters/ExAp01/sample3.txt 1.10877 3.70547 4.7118 0.470503 8.38748
files/tasks_parameters/ExAp01/sample6.txt 1.3424 4.07521 5.71419 0.626702 11.172
files/tasks_parameters/ExAp01/sample30.txt 1.4414 3.97446 5.82388 0.626709 11.1721
files/tasks_parameters/ExAp01/sample42.txt 1.27305 4.44207 5.58473 0.537025 9.57334
files/tasks_parameters/ExAp01/sample4.txt 1.36572 3.92181 4.49751 0.556974 9.92897
files/tasks_parameters/ExAp01/sample28.txt 1.03457 3.13496 4.88321 0.444588 7.9255
files/tasks_parameters/ExAp01/sample18.txt 1.22441 3.95301 4.52898 0.537438 9.5807
files/tasks_parameters/ExAp01/sample35.txt 1.82734 5.75923 6.25034 0.752488 13.4143
files/tasks_parameters/ExAp01/sample47.txt 1.14767 3.44018 5.14289 0.540033 9.62697
files/tasks_parameters/ExAp01/sample49.txt 1.20678 3.38981 4.72409 0.493041 8.78926
files/tasks_parameters/ExAp01/sample41.txt 1.10207 3.58692 5.27252 0.492391 8.77766
