files/tasks_parameters/ExAp01/sample8.txt 0.710555 3.15778 1.5595 0.203411 3.62613
files/tasks_parameters/ExAp01/sample12.txt 0.807324 3.94962 1.6705 0.207924 3.70658
files/tasks_parameters/ExAp01/sample2.txt 0.79127 3.78275 1.74131 0.200098 3.56706
files/tasks_parameters/ExAp01/sample44.txt 0.694961 3.59825 1.65317 0.200005 3.56541
files/tasks_parameters/ExAp01/sample27.txt 0.698211 3.45743 1.5148 0.182129 3.24674
files/tasks_parameters/ExAp01/sample17.txt 0.825598 2.77299 1.44514 0.14646 2.61088
files/tasks_parameters/ExAp01/sample9.txt 0.719777 2.99933 1.451 0.177444 3.16322
files/tasks_parameters/ExAp01/sample34.txt 0.825289 3.02928 1.58429 0.157984 2.81631
files/tasks_parameters/ExAp01/sample40.txt 0.765114 3.86889 1.52122 0.168379 3.00163
files/tasks_parameters/ExAp01/sample33.txt 0.802381 3.63695 1.71905 0.199765 3.56113
files/tasks_parameters/ExAp01/sample48.txt 0.685949 3.39061 1.49062 0.154728 2.75828
files/tasks_parameters/ExAp01/sample29.txt 0.777574 3.30472 1.38739 0.223868 3.99081
files/tasks_parameters/ExAp01/sample11.txt 0.710707 3.10585 1.41612 0.174079 3.10323
files/tasks_parameters/ExAp01/sample14.txt 0.658797 2.70971 1.43432 0.162214 2.89173
files/tasks_parameters/ExAp01/sample0.txt 0.759969 3.6937 1.5439 0.18367 3.27421
files/tasks_parameters/ExAp01/sample7.txt 0.799885 2.70501 1.42221 0.143463 2.55747
files/tasks_parameters/ExAp01/sample23.txt 0.758458 3.2697 1.57822 0.181448 3.23461
files/tasks_parameters/ExAp01/sample13.txt 0.754172 3.84225 1.67648 0.198247 3.53407
files/tasks_parameters/ExAp01/sample22.txt 0.819575 3.09569 1.56121 0.148796 2.65253
files/tasks_parameters/ExAp01/sample25.txt 0.727932 2.73966 1.5007 0.148149 2.64099
files/tasks_parameters/ExAp01/sample36.txt 0.752013 2.85948 1.28553 0.130042 2.31821
files/tasks_parameters/ExAp01/sample46.txt 0.75862 3.58643 1.69998 0.210103 3.74542
files/tasks_parameters/ExAp01/sample31.txt 0.681288 3.4832 1.53782 0.1722 3.06974
files/tasks_parameters/ExAp01/sample37.txt 0.758185 3.95293 1.50705 0.171701 3.06085
files/tasks_parameters/ExAp01/sample16.txt 0.620634 3.31216 1.30115 0.150249 2.67843
files/tasks_parameters/ExAp01/sample10.txt 0.958999 3.17098 1.61789 0.153776 2.74131
files/tasks_parameters/ExAp01/sample39.txt 0.678309 3.26617 1.44406 0.165669 2.95331
files/tasks_parameters/ExAp01/sample19.txt 0.731069 3.63532 1.52509 0.196094 3.4957
files/tasks_parameters/ExAp01/sample20.txt 0.663634 3.20793 1.25367 0.147335 2.62649
files/tasks_parameters/ExAp01/sample43.txt 0.650316 3.11551 1.4202 0.150644 2.68548
files/tasks_parameters/ExAp01/sample32.txt 0.732598 3.5311 1.42482 0.168744 3.00814
files/tasks_parameters/ExAp01/sample45.txt 0.73466 3.80283 1.48324 0.19807 3.53093
files/tasks_parameters/ExAp01/sample26.txt 0.63964 3.21645 1.29701 0.166061 2.96031
files/tasks_parameters/ExAp01/sample5.txt 0.641171 3.5889 1.52559 0.178903 3.18924
files/tasks_parameters/ExAp01/sample21.txt 0.696505 2.75242 1.55936 0.19512 3.47833
files/tasks_parameters/ExAp01/sample38.txt 0.65838 3.31563 1.37515 0.166157 2.96201
files/tasks_parameters/ExAp01/sample1.txt 0.697755 3.74964 1.51696 0.19701 3.51202
files/tasks_parameters/ExAp01/sample15.txt 0.699778 3.32916 1.48508 0.180707 3.2214
files/tasks_parameters/ExAp01/sample24.txt 0.83814 3.45951 1.59549 0.16529 2.94657
files/tasks_parameters/ExAp01/sample3.txt 0.874401 3.70014 1.70809 0.237107 4.22682
files/tasks_parameters/ExAp01/sample6.txt 0.715723 3.33003 1.58323 0.184714 3.29283
files/tasks_parameters/ExAp01/sample30.txt 0.870653 4.1841 1.4861 0.239623 4.27167
files/tasks_parameters/ExAp01/sample42.txt 0.749536 3.43221 1.70276 0.177383 3.16214
files/tasks_parameters/ExAp01/sample4.txt 0.809956 3.72477 1.6136 0.196448 3.50201
files/tasks_parameters/ExAp01/sample28.txt 0.694927 3.11323 1.45032 0.158819 2.83121
files/tasks_parameters/ExAp01/sample18.txt 0.765575 3.47418 1.45209 0.149064 2.6573
files/tasks_parameters/ExAp01/sample35.txt 0.819184 4.57086 1.49394 0.185031 3.29847
files/tasks_parameters/ExAp01/sample47.txt 0.705646 3.13768 1.52397 0.16417 2.9266
files/tasks_parameters/ExAp01/sample49.txt 0.770108 3.13288 1.49657 0.156154 2.7837
files/tasks_parameters/ExAp01/sample41.txt 0.763885 2.81964 1.49636 0.150876 2.68961
