digraph G {
0 ->11 0 ->14 1 ->9 1 ->10 1 ->11 1 ->12 2 ->9 2 ->12 3 ->6 3 ->7 3 ->11 3 ->12 3 ->13 4 ->7 4 ->8 4 ->9 4 ->12 4 ->14 5 ->9 5 ->14 6 ->15 6 ->19 6 ->20 6 ->21 7 ->18 7 ->19 7 ->20 8 ->16 8 ->18 8 ->19 8 ->21 9 ->15 9 ->16 9 ->20 9 ->22 10 ->18 10 ->19 10 ->22 11 ->15 11 ->16 11 ->17 11 ->18 11 ->19 11 ->21 11 ->22 12 ->16 12 ->16 12 ->17 12 ->22 13 ->16 13 ->17 13 ->20 13 ->21 13 ->22 14 ->15 14 ->17 14 ->18 14 ->20 14 ->21 14 ->22 15 ->23 15 ->24 15 ->25 15 ->27 15 ->28 15 ->31 15 ->33 16 ->24 16 ->25 16 ->27 16 ->28 16 ->31 16 ->32 16 ->33 17 ->25 17 ->27 17 ->31 17 ->32 17 ->33 18 ->23 18 ->25 18 ->28 18 ->32 19 ->25 19 ->26 20 ->23 20 ->27 20 ->28 20 ->29 21 ->23 21 ->28 21 ->30 21 ->33 22 ->23 22 ->24 22 ->25 22 ->26 22 ->28 22 ->31 22 ->32 22 ->33 23 ->35 23 ->37 23 ->38 23 ->41 24 ->35 24 ->37 24 ->38 25 ->34 25 ->38 25 ->40 26 ->35 26 ->37 26 ->39 26 ->42 27 ->35 27 ->37 27 ->38 27 ->41 27 ->42 28 ->34 28 ->37 28 ->38 28 ->41 28 ->42 29 ->34 29 ->40 29 ->41 29 ->41 29 ->42 30 ->34 30 ->39 30 ->41 30 ->42 30 ->42 31 ->34 31 ->41 31 ->42 31 ->42 32 ->34 32 ->35 32 ->37 33 ->34 33 ->36 33 ->37 33 ->38 33 ->40 34 ->43 34 ->45 34 ->49 34 ->54 35 ->45 35 ->47 35 ->49 35 ->53 35 ->54 36 ->43 36 ->46 36 ->53 36 ->54 36 ->54 37 ->47 37 ->48 37 ->49 37 ->51 37 ->53 37 ->55 38 ->47 38 ->48 38 ->50 38 ->54 38 ->55 39 ->44 39 ->46 39 ->47 39 ->48 39 ->49 39 ->50 40 ->47 40 ->49 40 ->53 41 ->45 41 ->51 41 ->53 41 ->55 42 ->45 42 ->46 42 ->50 42 ->52 42 ->53 42 ->54 42 ->55 43 ->57 43 ->60 43 ->63 44 ->57 44 ->58 44 ->59 44 ->62 44 ->63 44 ->65 45 ->59 45 ->60 45 ->62 45 ->63 45 ->65 46 ->59 46 ->61 46 ->63 47 ->63 48 ->56 48 ->59 48 ->64 48 ->65 49 ->57 49 ->59 49 ->64 50 ->60 50 ->62 50 ->63 50 ->64 51 ->59 51 ->60 51 ->62 51 ->63 51 ->64 52 ->59 52 ->62 52 ->62 52 ->64 53 ->57 53 ->58 53 ->59 53 ->60 53 ->62 53 ->63 54 ->58 54 ->59 54 ->60 54 ->62 55 ->56 56 ->67 56 ->70 56 ->72 56 ->74 56 ->75 56 ->76 56 ->78 57 ->67 57 ->69 57 ->71 57 ->75 57 ->75 57 ->78 57 ->79 58 ->71 58 ->72 58 ->74 58 ->79 59 ->66 59 ->68 59 ->72 59 ->79 60 ->70 60 ->75 60 ->77 61 ->67 61 ->68 61 ->72 61 ->74 61 ->79 62 ->67 62 ->72 62 ->73 62 ->75 62 ->78 63 ->68 63 ->70 63 ->72 63 ->74 64 ->67 64 ->75 64 ->77 64 ->78 64 ->79 65 ->66 65 ->70 65 ->71 65 ->72 65 ->75 65 ->78 65 ->79 66 ->82 66 ->83 66 ->84 67 ->80 67 ->82 67 ->83 67 ->84 67 ->86 68 ->82 68 ->83 68 ->83 68 ->85 68 ->86 69 ->80 69 ->83 69 ->86 70 ->82 70 ->86 71 ->83 71 ->84 71 ->85 72 ->83 72 ->84 72 ->85 73 ->82 73 ->85 73 ->85 73 ->86 74 ->80 74 ->83 74 ->85 75 ->80 75 ->82 75 ->83 75 ->84 75 ->85 76 ->80 76 ->82 76 ->83 76 ->84 76 ->85 77 ->82 77 ->84 77 ->86 78 ->81 78 ->82 79 ->81 79 ->82 79 ->84 80 ->92 80 ->94 80 ->95 80 ->97 81 ->87 81 ->88 81 ->92 81 ->93 81 ->95 81 ->98 82 ->87 82 ->90 82 ->98 83 ->88 83 ->89 83 ->93 83 ->94 83 ->95 83 ->96 83 ->97 83 ->99 84 ->89 84 ->90 84 ->96 84 ->98 85 ->87 85 ->88 85 ->91 85 ->93 85 ->94 86 ->88 86 ->88 86 ->90 
}
