digraph G {
0 ->11 1 ->11 2 ->9 2 ->12 3 ->9 4 ->9 4 ->11 5 ->10 5 ->11 6 ->8 6 ->9 7 ->9 8 ->13 8 ->14 8 ->15 8 ->18 8 ->19 8 ->20 8 ->21 9 ->14 9 ->18 9 ->19 9 ->20 10 ->13 10 ->15 10 ->17 10 ->22 11 ->16 11 ->17 11 ->18 11 ->21 12 ->13 12 ->15 12 ->20 12 ->22 13 ->23 13 ->26 13 ->27 14 ->23 14 ->25 15 ->23 15 ->27 16 ->23 16 ->25 16 ->26 17 ->25 18 ->23 18 ->27 19 ->23 19 ->25 20 ->23 20 ->24 20 ->27 21 ->26 22 ->27 23 ->29 23 ->31 23 ->33 23 ->35 24 ->28 24 ->32 24 ->33 24 ->34 24 ->35 25 ->29 25 ->30 25 ->33 26 ->28 26 ->34 26 ->35 27 ->29 27 ->35 28 ->36 28 ->42 28 ->43 29 ->41 29 ->44 30 ->42 30 ->44 31 ->36 31 ->37 31 ->38 31 ->39 31 ->40 31 ->42 32 ->36 32 ->37 32 ->38 32 ->41 33 ->36 33 ->37 33 ->39 33 ->40 34 ->37 34 ->40 34 ->44 35 ->36 35 ->37 35 ->42 35 ->43 35 ->44 36 ->48 36 ->49 36 ->50 36 ->53 36 ->57 37 ->46 37 ->48 37 ->49 37 ->56 37 ->57 38 ->46 38 ->50 38 ->51 38 ->52 38 ->54 38 ->55 39 ->45 39 ->49 39 ->50 39 ->51 39 ->55 39 ->55 39 ->57 39 ->58 40 ->49 40 ->50 40 ->51 40 ->51 40 ->55 40 ->56 41 ->46 41 ->47 41 ->49 41 ->50 41 ->52 41 ->53 41 ->54 41 ->55 41 ->56 41 ->58 42 ->47 42 ->49 42 ->51 42 ->52 42 ->54 42 ->57 43 ->48 43 ->49 43 ->50 43 ->52 43 ->54 43 ->55 43 ->57 43 ->58 44 ->48 44 ->52 44 ->54 44 ->58 45 ->64 45 ->67 45 ->68 46 ->59 46 ->63 46 ->64 46 ->66 46 ->67 46 ->68 46 ->69 46 ->70 47 ->59 47 ->61 47 ->63 47 ->64 47 ->66 47 ->67 47 ->68 47 ->70 48 ->61 48 ->62 48 ->63 48 ->68 48 ->70 49 ->59 49 ->60 49 ->62 49 ->63 49 ->65 49 ->70 50 ->61 50 ->63 50 ->65 50 ->69 50 ->70 51 ->61 51 ->63 51 ->68 51 ->70 52 ->62 52 ->63 52 ->66 52 ->70 53 ->59 53 ->61 53 ->62 53 ->63 53 ->66 53 ->67 53 ->68 54 ->59 54 ->63 54 ->64 54 ->65 54 ->66 54 ->70 55 ->63 55 ->64 55 ->66 55 ->68 56 ->59 56 ->61 56 ->64 56 ->66 56 ->67 56 ->68 56 ->70 57 ->62 57 ->64 57 ->68 58 ->59 58 ->61 58 ->62 58 ->66 58 ->67 58 ->68 58 ->69 59 ->71 59 ->72 59 ->76 59 ->80 59 ->81 60 ->72 60 ->73 60 ->79 60 ->81 61 ->71 61 ->72 61 ->75 61 ->77 61 ->80 61 ->81 62 ->71 62 ->74 62 ->75 62 ->76 62 ->78 62 ->80 63 ->71 63 ->74 63 ->75 63 ->80 63 ->81 64 ->71 64 ->72 64 ->73 64 ->74 64 ->75 64 ->78 64 ->80 65 ->71 65 ->73 65 ->74 65 ->75 65 ->75 65 ->78 65 ->79 65 ->80 66 ->72 66 ->73 66 ->75 66 ->77 66 ->79 66 ->80 67 ->72 67 ->73 67 ->74 67 ->78 67 ->79 67 ->80 67 ->81 68 ->79 69 ->71 69 ->74 70 ->71 70 ->72 70 ->73 70 ->74 70 ->76 70 ->80 71 ->84 71 ->86 72 ->82 72 ->85 72 ->86 73 ->83 73 ->84 73 ->85 73 ->86 74 ->83 74 ->85 74 ->86 74 ->87 75 ->82 75 ->84 75 ->85 76 ->83 76 ->84 76 ->85 77 ->84 77 ->86 77 ->87 78 ->83 79 ->87 80 ->82 80 ->83 81 ->84 81 ->85 81 ->86 82 ->88 82 ->89 82 ->90 83 ->88 83 ->90 83 ->91 83 ->93 84 ->92 85 ->89 85 ->92 85 ->93 86 ->88 86 ->90 86 ->92 86 ->93 87 ->89 87 ->90 87 ->92 87 ->93 88 ->96 88 ->97 88 ->99 90 ->95 90 ->98 91 ->94 92 ->94 92 ->95 92 ->96 92 ->97 92 ->99 93 ->94 93 ->95 93 ->97 93 ->98 
}
