digraph G {
0 ->11 0 ->12 0 ->14 0 ->16 0 ->17 0 ->20 0 ->21 1 ->12 1 ->14 1 ->15 1 ->16 1 ->17 1 ->18 1 ->23 2 ->15 2 ->17 2 ->20 2 ->23 3 ->15 3 ->17 3 ->20 3 ->23 4 ->15 4 ->16 5 ->12 5 ->23 6 ->13 6 ->14 6 ->16 6 ->17 6 ->21 7 ->11 7 ->14 7 ->16 7 ->17 7 ->19 7 ->22 7 ->23 8 ->11 8 ->13 8 ->14 8 ->15 8 ->19 8 ->22 8 ->23 9 ->13 9 ->14 9 ->15 9 ->16 9 ->17 9 ->23 9 ->23 10 ->14 10 ->16 10 ->17 11 ->27 11 ->32 12 ->28 12 ->29 13 ->25 13 ->28 13 ->30 13 ->32 14 ->24 14 ->26 14 ->28 14 ->31 15 ->24 15 ->26 15 ->28 15 ->30 15 ->31 16 ->24 16 ->25 16 ->26 16 ->28 17 ->24 17 ->29 17 ->30 18 ->24 18 ->26 18 ->27 18 ->30 18 ->31 19 ->24 19 ->26 19 ->29 19 ->30 20 ->27 20 ->30 21 ->24 21 ->26 22 ->28 22 ->29 22 ->32 23 ->24 23 ->27 23 ->28 23 ->29 23 ->30 23 ->32 24 ->33 24 ->34 24 ->35 24 ->36 25 ->33 25 ->34 25 ->36 26 ->34 26 ->34 26 ->35 27 ->35 27 ->36 28 ->33 28 ->35 29 ->33 29 ->34 29 ->37 30 ->33 31 ->33 31 ->37 32 ->33 32 ->34 32 ->37 33 ->38 33 ->41 33 ->43 34 ->39 34 ->42 34 ->43 34 ->44 34 ->45 35 ->38 35 ->40 35 ->41 35 ->42 35 ->44 35 ->45 36 ->38 36 ->44 36 ->45 37 ->38 37 ->40 37 ->43 37 ->45 38 ->47 38 ->49 38 ->54 38 ->56 39 ->49 39 ->49 39 ->51 39 ->52 39 ->54 39 ->56 39 ->57 40 ->46 40 ->55 40 ->56 41 ->46 41 ->50 41 ->53 41 ->56 42 ->47 42 ->51 42 ->56 42 ->57 43 ->48 43 ->56 43 ->57 44 ->46 44 ->48 44 ->50 44 ->51 44 ->54 44 ->55 45 ->47 45 ->54 45 ->55 46 ->63 46 ->65 46 ->66 46 ->67 46 ->69 46 ->70 47 ->61 47 ->65 47 ->66 47 ->68 47 ->70 48 ->61 48 ->62 48 ->63 48 ->67 48 ->68 48 ->69 48 ->70 49 ->58 49 ->59 49 ->64 49 ->68 49 ->69 49 ->70 50 ->65 50 ->67 50 ->69 51 ->59 51 ->63 51 ->65 51 ->69 51 ->70 52 ->60 52 ->62 52 ->65 52 ->69 52 ->70 53 ->65 53 ->66 53 ->70 54 ->59 54 ->61 54 ->65 54 ->66 54 ->70 55 ->59 55 ->60 55 ->65 55 ->68 55 ->69 56 ->59 56 ->64 56 ->65 57 ->59 57 ->68 58 ->71 58 ->76 58 ->81 59 ->72 59 ->73 59 ->78 59 ->80 59 ->81 60 ->73 60 ->73 60 ->75 60 ->76 60 ->78 60 ->80 61 ->71 61 ->75 61 ->75 61 ->76 61 ->78 61 ->80 62 ->71 62 ->73 62 ->75 62 ->76 62 ->77 62 ->80 63 ->71 63 ->73 63 ->74 63 ->75 63 ->76 63 ->77 63 ->78 63 ->80 63 ->81 64 ->73 64 ->74 64 ->76 64 ->80 65 ->76 65 ->77 65 ->78 65 ->80 65 ->81 66 ->73 66 ->78 67 ->72 67 ->77 67 ->79 67 ->80 67 ->81 68 ->73 68 ->75 68 ->81 69 ->75 69 ->75 69 ->81 70 ->71 70 ->73 70 ->76 71 ->82 72 ->82 73 ->86 74 ->82 74 ->84 74 ->86 75 ->82 75 ->83 76 ->82 76 ->86 77 ->82 78 ->84 78 ->85 78 ->86 80 ->82 80 ->86 81 ->82 81 ->86 82 ->88 82 ->90 82 ->91 82 ->92 82 ->95 82 ->96 82 ->97 83 ->88 83 ->89 83 ->90 83 ->92 83 ->95 84 ->87 84 ->91 84 ->93 84 ->94 84 ->98 85 ->87 85 ->90 85 ->92 85 ->93 85 ->95 85 ->97 86 ->88 86 ->91 86 ->92 86 ->94 86 ->95 86 ->96 86 ->97 86 ->98 89 ->99 90 ->99 92 ->99 
}
