digraph G {
0 ->8 0 ->11 0 ->12 1 ->8 1 ->9 1 ->11 2 ->12 3 ->7 3 ->8 4 ->6 4 ->8 4 ->10 4 ->12 5 ->8 5 ->11 5 ->12 6 ->13 6 ->14 6 ->15 7 ->13 7 ->14 7 ->15 7 ->17 8 ->15 8 ->16 8 ->17 8 ->17 9 ->15 9 ->16 9 ->17 10 ->13 10 ->14 11 ->13 11 ->14 11 ->17 12 ->14 12 ->16 13 ->18 13 ->19 13 ->22 13 ->23 13 ->25 13 ->26 13 ->27 13 ->28 14 ->18 14 ->19 14 ->21 14 ->23 14 ->24 14 ->28 15 ->20 15 ->22 15 ->23 15 ->24 15 ->25 15 ->27 16 ->19 16 ->20 16 ->21 16 ->24 16 ->26 17 ->19 17 ->21 17 ->24 17 ->25 17 ->28 18 ->29 18 ->33 19 ->33 20 ->29 20 ->31 21 ->29 21 ->30 22 ->29 22 ->30 22 ->32 23 ->29 23 ->30 23 ->31 23 ->33 24 ->30 24 ->31 24 ->31 24 ->32 25 ->30 25 ->31 26 ->29 26 ->30 26 ->31 26 ->33 27 ->31 28 ->29 28 ->31 28 ->32 28 ->33 29 ->37 29 ->42 29 ->44 29 ->45 30 ->37 30 ->39 30 ->40 30 ->42 30 ->44 30 ->45 31 ->34 31 ->38 31 ->39 31 ->41 31 ->43 31 ->44 31 ->45 31 ->46 32 ->35 32 ->36 32 ->37 32 ->39 32 ->41 32 ->43 33 ->34 33 ->37 33 ->45 33 ->46 34 ->49 34 ->57 35 ->48 35 ->49 35 ->52 35 ->53 35 ->54 35 ->57 36 ->49 36 ->49 36 ->54 36 ->56 36 ->57 36 ->57 37 ->47 37 ->49 37 ->52 37 ->53 37 ->54 38 ->52 38 ->54 38 ->57 39 ->53 40 ->49 40 ->54 41 ->48 41 ->49 41 ->51 41 ->52 41 ->57 42 ->47 42 ->52 42 ->54 42 ->55 42 ->57 43 ->47 43 ->48 43 ->49 43 ->50 43 ->52 43 ->54 44 ->54 44 ->57 45 ->47 45 ->49 45 ->57 46 ->47 46 ->54 47 ->62 47 ->63 47 ->64 47 ->66 48 ->65 48 ->67 49 ->58 49 ->65 50 ->58 50 ->66 50 ->67 51 ->58 51 ->59 51 ->61 51 ->64 51 ->66 52 ->58 52 ->61 52 ->62 52 ->64 52 ->66 53 ->58 53 ->63 53 ->64 53 ->65 53 ->68 54 ->62 54 ->66 55 ->58 55 ->62 55 ->64 56 ->58 56 ->60 56 ->61 56 ->64 57 ->58 57 ->64 57 ->65 57 ->67 58 ->69 58 ->71 58 ->73 58 ->75 59 ->71 59 ->72 59 ->73 59 ->75 60 ->70 60 ->71 60 ->73 60 ->75 60 ->76 60 ->77 61 ->69 61 ->71 61 ->76 62 ->76 63 ->69 63 ->76 64 ->69 64 ->72 64 ->73 64 ->74 64 ->75 64 ->76 65 ->71 65 ->75 65 ->76 66 ->75 66 ->76 66 ->76 67 ->69 67 ->71 67 ->74 67 ->75 68 ->75 69 ->79 69 ->81 70 ->79 70 ->81 70 ->82 71 ->80 71 ->81 72 ->78 72 ->80 73 ->80 74 ->80 74 ->81 75 ->78 75 ->79 75 ->80 75 ->81 75 ->82 76 ->78 76 ->80 76 ->81 76 ->82 77 ->78 78 ->84 78 ->91 79 ->84 79 ->86 79 ->90 80 ->84 80 ->87 80 ->88 80 ->90 80 ->93 81 ->83 81 ->85 81 ->89 82 ->83 82 ->87 82 ->90 82 ->91 82 ->92 83 ->94 84 ->95 85 ->96 85 ->97 87 ->94 87 ->99 88 ->94 88 ->96 89 ->94 89 ->96 89 ->98 90 ->94 90 ->96 91 ->94 91 ->96 92 ->94 93 ->94 93 ->96 93 ->98 
}
