files/tasks_parameters/ExAp01/sample8.txt 1.08287 7.2562 4.46819 0.454772 11.7539
files/tasks_parameters/ExAp01/sample12.txt 1.46933 9.70908 5.28286 0.618515 15.9859
files/tasks_parameters/ExAp01/sample2.txt 1.4346 8.14159 5.7401 0.620531 16.038
files/tasks_parameters/ExAp01/sample44.txt 1.32957 7.25164 5.75904 0.557631 14.4123
files/tasks_parameters/ExAp01/sample27.txt 1.33416 8.10944 5.64946 0.564878 14.5996
files/tasks_parameters/ExAp01/sample17.txt 1.23434 7.11225 5.46658 0.527183 13.6254
files/tasks_parameters/ExAp01/sample9.txt 1.20665 7.62559 5.37813 0.517277 13.3694
files/tasks_parameters/ExAp01/sample34.txt 1.24997 7.04587 5.93037 0.497709 12.8636
files/tasks_parameters/ExAp01/sample40.txt 1.19376 8.03037 5.123 0.502383 12.9844
files/tasks_parameters/ExAp01/sample33.txt 1.51141 9.22935 5.92956 0.659262 17.0391
files/tasks_parameters/ExAp01/sample48.txt 1.0772 8.12182 5.1577 0.452491 11.6949
files/tasks_parameters/ExAp01/sample29.txt 1.48203 8.06133 5.12331 0.650652 16.8165
files/tasks_parameters/ExAp01/sample11.txt 1.30332 7.63104 5.37897 0.563302 14.5589
files/tasks_parameters/ExAp01/sample14.txt 1.12715 6.66403 4.66322 0.471536 12.1872
files/tasks_parameters/ExAp01/sample0.txt 1.48081 9.3266 4.98971 0.6311 16.3112
files/tasks_parameters/ExAp01/sample7.txt 1.21973 7.34863 5.19436 0.515527 13.3241
files/tasks_parameters/ExAp01/sample23.txt 1.36181 6.68564 5.54308 0.588617 15.2132
files/tasks_parameters/ExAp01/sample13.txt 1.48904 9.31093 5.35591 0.632849 16.3564
files/tasks_parameters/ExAp01/sample22.txt 1.27414 7.65588 5.04866 0.540336 13.9653
files/tasks_parameters/ExAp01/sample25.txt 1.03212 6.17035 5.0141 0.408296 10.5527
files/tasks_parameters/ExAp01/sample36.txt 1.17505 7.03772 4.66274 0.507647 13.1205
files/tasks_parameters/ExAp01/sample46.txt 1.25004 7.73433 4.79934 0.536843 13.8751
files/tasks_parameters/ExAp01/sample31.txt 1.17353 6.96928 5.16482 0.485817 12.5563
files/tasks_parameters/ExAp01/sample37.txt 1.52963 9.52443 5.74224 0.65799 17.0062
files/tasks_parameters/ExAp01/sample16.txt 1.31728 8.63521 4.97261 0.516328 13.3448
files/tasks_parameters/ExAp01/sample10.txt 1.4251 7.28353 6.16876 0.615651 15.9119
files/tasks_parameters/ExAp01/sample39.txt 1.11994 6.3405 4.6137 0.468873 12.1183
files/tasks_parameters/ExAp01/sample19.txt 1.42697 8.85528 5.22306 0.622152 16.0799
files/tasks_parameters/ExAp01/sample20.txt 1.35624 8.1141 5.21177 0.586994 15.1712
files/tasks_parameters/ExAp01/sample43.txt 1.26624 7.21373 5.6367 0.53748 13.8915
files/tasks_parameters/ExAp01/sample32.txt 1.40187 8.30592 5.38137 0.593918 15.3502
files/tasks_parameters/ExAp01/sample45.txt 1.26616 7.94069 4.96323 0.547271 14.1446
files/tasks_parameters/ExAp01/sample26.txt 1.131 7.57061 4.62637 0.480146 12.4097
files/tasks_parameters/ExAp01/sample5.txt 1.38416 8.0307 5.35681 0.59407 15.3541
files/tasks_parameters/ExAp01/sample21.txt 1.03864 5.87802 4.61744 0.434264 11.2238
files/tasks_parameters/ExAp01/sample38.txt 1.15853 7.66999 4.86632 0.496808 12.8403
files/tasks_parameters/ExAp01/sample1.txt 1.15647 7.21312 4.63213 0.486293 12.5686
files/tasks_parameters/ExAp01/sample15.txt 1.2568 8.02273 5.50855 0.531063 13.7257
files/tasks_parameters/ExAp01/sample24.txt 1.29044 8.66348 5.4905 0.548998 14.1892
files/tasks_parameters/ExAp01/sample3.txt 1.13867 7.74268 4.79918 0.477387 12.3384
files/tasks_parameters/ExAp01/sample6.txt 1.4514 8.57133 5.80157 0.633604 16.3759
files/tasks_parameters/ExAp01/sample30.txt 1.48865 8.18878 5.90888 0.633576 16.3752
files/tasks_parameters/ExAp01/sample42.txt 1.32862 8.57689 5.67253 0.54426 14.0667
files/tasks_parameters/ExAp01/sample4.txt 1.31556 8.40354 4.57985 0.563519 14.5645
files/tasks_parameters/ExAp01/sample28.txt 1.05779 6.44114 4.96426 0.449721 11.6233
files/tasks_parameters/ExAp01/sample18.txt 1.26714 8.56363 4.60946 0.543766 14.054
files/tasks_parameters/ExAp01/sample35.txt 1.77872 11.0387 6.34514 0.761377 19.6783
files/tasks_parameters/ExAp01/sample47.txt 1.24832 7.14493 5.22131 0.545046 14.0871
files/tasks_parameters/ExAp01/sample49.txt 1.23071 6.65996 4.80244 0.498533 12.8849
files/tasks_parameters/ExAp01/sample41.txt 1.15045 7.09069 5.35462 0.497129 12.8486
