Task0 0.02862419829571336 0.346918931916967 0.0020433243161894687 0.264182143584693 0.8498551650530239 0.9146327890849479 0.5759108211405183 
Task1 0.0955122179292873 0.2051379060324313 0.11603243691709156 0.11124546087365023 0.4386130789506531 0.9350112602448202 0.8150937158184057 
Task2 0.020908244629875006 0.013872862550500483 0.0705731347915434 0.008074182158946423 0.6688508595174507 0.6537203199964914 0.475684045523264 
Task3 0.0036884715318820913 0.014041745599888767 0.015281398474156297 0.004812990258061907 0.655208152891688 0.511165625292896 0.7114264298277628 
Task4 0.030780087740976167 0.22910815232696663 0.22509895187515153 0.36334818941086766 0.43127219340764866 0.3313191838228499 0.37606728289129493 
Task5 0.04777083747912999 0.5401179800009458 0.2758449833146438 0.11004324715585254 0.9925658716383656 0.8616101402525782 0.4690726940930543 
Task6 0.17740665488977705 0.21799190352001868 0.2806969399624977 0.2573250598427558 0.3640231530913014 0.46012484472542414 0.3917069482185129 
Task7 0.027606778814822368 0.11601473399419489 0.16401971077447616 0.14755359709440607 0.994933395682658 0.9981031741363533 0.7731997476257573 
Task8 0.0022474537559477466 0.009466690103421976 0.00994305971175095 0.0023014220085476483 0.7371772357842836 0.9576382456039907 0.7518389628580107 
Task9 0.11237068929777354 0.226608203363462 0.12063707810159308 0.17403542371241174 0.6779545999604655 0.8910977947483358 0.8568531736204337 
Task10 0.015985558234142352 0.03429356995356831 0.022842449495819216 0.01871154610491245 0.825214599213246 0.887606758777173 0.5532997365553125 
Task11 0.002620601685125574 0.0027385280018855694 0.02149312538460828 0.026641858894593643 0.7495718793543347 0.3662751496472806 0.8000471656301009 
Task12 0.009943129509492554 0.1628253617522107 0.08817278680795382 0.6149980011791059 0.7981248025063814 0.6554273808807696 0.8231601834645721 
Task13 0.01742770891387054 0.06987807280426427 0.06400858906464223 0.03192919459659246 0.8208866130746444 0.3027403832906298 0.4223386002433993 
Task14 0.1556848576287273 0.4914755263486096 0.2409759995635893 0.020782598895463054 0.8822144932430718 0.4088019864223489 0.5054462464005468 
Task15 0.006460297787650609 0.011262400228303963 0.18699199584916779 0.09844380274920846 0.8037374530846959 0.7161663893255019 0.7354907957364751 
Task16 0.056566069837225334 0.1164755096814504 0.3387850621294489 0.32798064779203306 0.7070036698015375 0.42671770347553306 0.37654111130294277 
Task17 0.005965646867791396 0.17319977117830082 0.006374603186922236 0.13220603855358207 0.3381191542351517 0.38511541585067405 0.4875377505601765 
Task18 0.036038972143326936 0.4080062340888607 0.04327840605403817 0.3016808900275126 0.7827162449822477 0.7818598925913254 0.9626115937380597 
Task19 0.14736745180523325 0.10006824768970922 0.39734647249464156 0.16554511687831147 0.6066514476394078 0.9523975139743643 0.8486587416644134 
Task20 0.024151914274788723 0.015204039436949238 0.08262936327240276 0.06918734016195605 0.8557300690663103 0.8017593466086106 0.728724395020075 
Task21 0.047075006165872894 0.6406406752405566 0.012850034042891315 0.11605501440618289 0.9954165654147074 0.5842051148107449 0.31784323862206537 
Task22 0.0011252131152814713 0.009101775317814233 0.015104879713841664 0.009725244707157814 0.7913970769628982 0.8877738383163101 0.8465949928222236 
Task23 0.18044448305278643 0.06902397328698867 0.15483078890980365 0.4985710167970414 0.7714093097356938 0.4057267275841042 0.42911671138400265 
Task24 0.01124842908844173 0.023284860544919347 0.004325669519106072 0.029013861703208993 0.6715963362815123 0.7229752471460005 0.7161941669113359 
Task25 0.02050973202771001 0.04699315394728936 0.015597670213121561 0.02498823734889968 0.4989919971274128 0.4526904105900842 0.8350369996351485 
Task26 0.016978090764291222 0.059361192016644394 0.15502550437173307 0.14798126855466584 0.5510590316639097 0.43297493345802807 0.856418840975518 
Task27 0.08424675034199003 0.11209758279169184 0.18605444441788532 0.0984055174932859 0.5568679117855824 0.44738039756354525 0.5855298829093492 
Task28 0.13248004312577183 0.15293691044595545 0.14004175491389226 0.4308912531535584 0.38218111809594524 0.8805118738127358 0.9314495801898974 
Task29 0.09738322926194408 0.15480079290716764 0.015325948774644105 0.531985793870568 0.7255939213979745 0.38161425901257096 0.9660247110153375 
Task30 0.024408538292661815 0.052950364752269836 0.05475594841377861 0.19121428103303587 0.849091691455244 0.7191683549439807 0.9456514176781026 
Task31 0.08228532622095637 0.14553696744937497 0.18810596622394155 0.1055790066747156 0.49116618188749916 0.9148486334249879 0.6926385906345587 
Task32 0.016783546798609165 0.026916819177019234 0.01680269492786503 0.0272328325199901 0.5431240963230645 0.7488269824949868 0.907555676567736 
Task33 0.01842201337754564 0.0399112846550833 0.011373388393824159 0.027726390855509837 0.5262913884011723 0.8300997893777813 0.3963231942277706 
Task34 0.03390627421191666 0.10710918705344852 0.04045508219933936 0.021566252894946895 0.436444295183489 0.5887803504515481 0.7780027491909108 
Task35 0.033602169397846805 0.24002201949624963 0.23728751676945015 0.3987337814367336 0.5770677653988141 0.9825184242240803 0.7086567602121552 
Task36 0.02465699338184183 0.04483447212750469 0.01908516482078478 0.12214849254261885 0.8171816917293033 0.6279743895093057 0.7327104066814212 
Task37 0.04341287720386611 0.22886257209509026 0.286456668371966 0.4171722290979583 0.9036546945119264 0.8459781112485962 0.6713835581302234 
Task38 0.05282378326468933 0.1016947346344657 0.05393086442995739 0.17628134819024727 0.7445075053218355 0.5464300741339064 0.9686905886357118 
Task39 0.005353438151769233 0.044657721265980825 0.01581628074677144 0.04720144664070209 0.9154409833862409 0.7938387644502714 0.5796466544121863 
Task40 0.05349973894083704 0.11151619110689184 0.28917066101387917 0.13351313614574886 0.35317240247218 0.5096889093994676 0.5413795584267395 
Task41 0.03880808091172447 0.1016979750830304 0.09491598842429845 0.017614691188112586 0.7046211071007914 0.6536888871256035 0.6748010135057517 
Task42 0.11520263598676579 0.33781484920982063 0.3302291983454628 0.08618263552875798 0.39350988319613994 0.3149446210120505 0.4374603631565041 
Task43 0.0067863430384926884 0.00044712732218115596 0.07740690026760541 0.0983221195733903 0.524390403096797 0.476321116417888 0.3771054957404484 
Task44 0.09555223257705836 0.1842513496453633 0.24914357409675916 0.027431824496984388 0.3107113427030577 0.30097736416190995 0.4081914627853239 
Task45 0.12107350791012589 0.19925361820789145 0.07032237307281994 0.3888334986890779 0.7888911699999221 0.5890729245616858 0.6927899121090666 
Task46 0.03197494697402876 0.05789583705910175 0.20239091872188386 0.1298685006311591 0.7398763619286237 0.817013334006151 0.7829716269896885 
Task47 0.17910716691858594 0.309159263060195 0.37047636003338835 0.05937131881699743 0.6599352920064736 0.8145077393235745 0.6307636449011209 
Task48 0.06367216301792211 0.15401117811924872 0.2315274399534671 0.1703114326376204 0.49820294911690916 0.8947768626200312 0.5756261456773328 
Task49 0.004680256826057059 0.018338562787061165 0.01642907297553814 0.02393778445083469 0.809710663880274 0.30941555905896084 0.6979859015028416 
Task50 0.04036825411398876 0.07346804479290478 0.4150702578075963 0.11287421367673957 0.5006237812514821 0.9426905463624715 0.9226767208934723 
Task51 0.061914758609274 0.032722676064859034 0.36849202378638246 0.3413642993925651 0.5323662184343919 0.486457161330051 0.4035161802328994 
Task52 0.023964848773863946 0.11856494746348047 0.04348411591107872 0.04653177428808214 0.4774735792713527 0.6990338110078462 0.46248734875265685 
Task53 0.021172678359341637 0.033910647040468145 0.037653061245450974 0.04083993011649134 0.49736499368377496 0.7284352611383784 0.6405547912260874 
Task54 0.13844747981529662 0.2700718289894601 0.0884006386440644 0.28419044324726933 0.7982199441379757 0.5464698286729193 0.6185603766625394 
Task55 0.028273811944823198 0.08839853869493118 0.24070174704820613 0.01311046838040903 0.5303275373119432 0.9798944332534285 0.8415623663050569 
Task56 0.023109693320201442 0.11759076053879852 0.23828172871837966 0.10668759544254618 0.7783576745812018 0.844761564247313 0.33302321771828514 
Task57 0.023598190492902165 0.12388688837959544 0.16177222284460246 0.06384812637263017 0.9143543937568113 0.7069409749806788 0.3817066574256364 
Task58 0.07976026050415785 0.29075584680796673 0.09063135751198517 0.016515192489051426 0.9292510036164503 0.31830104985683066 0.426666547591091 
Task59 0.039548519984396714 0.11858915874134134 0.05447106141037102 0.22681943911099056 0.3490758083097371 0.850889620151134 0.6986692967734008 
Task60 0.05830828225607626 0.14499110788124633 0.15344597600085963 0.11110799363915967 0.3309682018916736 0.4766494472219421 0.8832386637744036 
Task61 0.05872862142429319 0.15792406099183467 0.1712048394727489 0.17550692833319412 0.41726949220591175 0.40105898905389414 0.39315887198895855 
Task62 0.0034905465454818344 0.014319079185440776 0.010755508367636868 0.015206778664839939 0.5452690742521331 0.5137048038299499 0.37252135684668375 
Task63 0.09224481363889019 0.17966386042833946 0.10528395061061877 0.4756194539796127 0.6504213639273988 0.5658182959874971 0.8800855816214059 
Task64 0.03633513618270508 0.1827711638254258 0.08642291648400018 0.0253347049340127 0.8702836932539921 0.7628165838717946 0.5846738994565074 
Task65 0.08938999535668414 0.18626037131661877 0.22218019638957645 0.1581404465417262 0.9958039161599204 0.7701007029865831 0.630425171096257 
Task66 0.07697112750823507 0.26646974487640024 0.20167483530205071 0.04379377294016318 0.5187885482736425 0.7768968134612236 0.6952638747383095 
Task67 0.04488866349540236 0.04555417293702231 0.39709598509502597 0.09410417425584668 0.9764006876828595 0.7677284235599595 0.4154115896462514 
Task68 0.04214703574627929 0.517128486757118 0.01296879971466861 0.22227021025960977 0.7755695163612268 0.9246737266097342 0.8570776530558932 
Task69 0.11634744171752485 0.11648067870004818 0.17601221873345904 0.17673324538059967 0.46385557591160576 0.6056839199272178 0.410833082819718 
Task70 0.09027842134209868 0.1755552175243695 0.12692765176699183 0.13691500285255995 0.980630312847707 0.827078144755006 0.4698796817999047 
Task71 0.020079068470781034 0.08440501574676397 0.035868288608865394 0.05390210117994313 0.43361434433483437 0.986747302580465 0.4508195340919498 
Task72 0.0029828908567958896 0.0413587240944794 0.4693029323044685 0.2791168360024679 0.9838516563252817 0.7108050041141367 0.768192242954833 
Task73 0.013500074819967388 0.3588169545754173 0.3051113973259354 0.13757916191194602 0.41739457568976623 0.4993571400928076 0.7799452622690288 
Task74 0.005213707697381932 0.16830068485702826 0.00030951078423704876 0.15863771584950823 0.8023176038176836 0.7916839945665654 0.719050286356747 
Task75 0.1215848149684667 0.06618624155409451 0.1394654206840555 0.502186652961912 0.7843291842651365 0.8012776629730747 0.436481169365767 
Task76 0.02411970881959509 0.21907020802719734 0.3592478229525047 0.07121309094772536 0.4215119317812136 0.5403222344865437 0.9624463314559581 
Task77 0.04854522996904856 0.21392526889199062 0.16665538549374004 0.163803025012935 0.3026592502023737 0.7958337475169082 0.30098543322342114 
Task78 0.02436306725134872 0.11754854935429229 0.016113790348779616 0.06781780277275676 0.5536731175981444 0.5750432983661824 0.7421725855764802 
Task79 0.021066910942265437 0.13158702292772595 0.13445583431303162 0.09429022358756876 0.8494721962250191 0.6707880118030958 0.8369536716570827 
Task80 0.007161799001378535 0.040946023420447356 0.01896789842805633 0.11417552389834898 0.9445469522141057 0.4494394763395152 0.5571778025665556 
Task81 0.010374948655839543 0.12091740932114028 0.03035422480848135 0.09376533950822419 0.8838250249208184 0.7398616960417909 0.6720124020689163 
Task82 0.022613666121964138 0.05353710871021318 0.0695649264946591 0.0727670386710626 0.5879268791064306 0.7919044113063887 0.4887439291979532 
Task83 0.0014780647982212153 0.015799766558384557 0.0062766377679256274 0.0184039782666734 0.4469952648724191 0.32339527085343045 0.8847189691369797 
Task84 0.018321647842462725 0.08417007314945756 0.3372474307515318 0.007493206760287395 0.6494781502912019 0.58006525184727 0.31699335321857786 
Task85 0.06638162050312071 0.7222127008482897 0.009991729482689839 0.012921372274678003 0.7414786792249806 0.3261204831090762 0.34353981723973437 
Task86 0.023955485158695555 0.7105532791437706 0.12284943432472066 0.12016319155707143 0.9369746506797751 0.6713870654405024 0.8746034514679089 
Task87 0.05124428207335745 0.23406607874394067 0.03209393733000001 0.23460100493247166 0.584581875993994 0.8034877976571073 0.33579134628980833 
Task88 0.06948271593664294 0.35326413333637185 0.04444312658638828 0.3218101176342781 0.817253564000427 0.6398536559348638 0.9647953227270822 
Task89 0.02039143441110676 0.029130001410333003 0.037248358717377576 0.025760547127702302 0.8238370370102619 0.44544560978850467 0.680505330589732 
Task90 0.07881111201062344 0.35976988343725264 0.31031196438194275 0.12763864132704325 0.5117509941984919 0.31973704358712346 0.4477620107168399 
Task91 0.010858237966920143 0.009119751898077675 0.012654985299753672 0.06605347746395508 0.5466987033598475 0.387840976671116 0.848926585090561 
Task92 0.08850673416949996 0.16511168890594852 0.21207167483762634 0.043980873275229815 0.46241006697332565 0.514695843594392 0.7405197648838091 
Task93 0.06065022333040661 0.06974795528291282 0.7737359544951041 0.0852984956914695 0.8268140592863018 0.36765819144278444 0.8108333078663641 
Task94 0.007250542953540389 0.005057660994312177 0.11593822880379054 0.07631861047171014 0.6440988785222563 0.5326050986265758 0.3718528800692354 
Task95 0.09371779770652265 0.1736500937959731 0.2672430515551262 0.1642815155268097 0.6727844159204921 0.6824478283179878 0.5013507045955921 
Task96 0.16497887161583494 0.30631191277698017 0.29163599576996047 0.14287610523207275 0.7383170530325149 0.7065290680813974 0.6376147369119394 
Task97 0.12183956808768931 0.07398789731192386 0.3724841732041673 0.10043191797933991 0.7725307285591888 0.39536192416095917 0.41876109318094334 
Task98 0.009200924520749172 0.14956794683673527 0.16415675461417914 0.01941596688461262 0.6059841867146356 0.42507753516457913 0.9125136477409088 
Task99 0.0579954943727538 0.02477574069280829 0.32845683615194976 0.27460729129560996 0.5851108499498172 0.8014559210199099 0.5194932695972846 
