Task0 0.015534929722002653 0.04111726464481507 0.006749580444774769 0.16494487322900583 0.5788207168984665 0.7419952612364342 0.32899337373723436 
Task1 0.15938215768265795 0.43506165290187104 0.18427763032805328 0.04501956849096833 0.9652408375043262 0.5526062640164795 0.39009062777748177 
Task2 0.11324788281890198 0.26660689583790226 0.2997630761040811 0.09419278406135274 0.46421124627360766 0.6404258477305971 0.9120302644343068 
Task3 0.00548398565261057 0.013635558834668122 0.0691235648795359 0.07930447510790635 0.8598479396735887 0.35553647430644936 0.4731159504445152 
Task4 0.007283611823680547 0.11540029973283679 0.05468080654242598 0.6002520353091247 0.7387683051719052 0.9904176550492358 0.3178778340547192 
Task5 0.051915056168972074 0.008252875579299266 0.16171358968506258 0.073424909895764 0.8159375467984327 0.5960033653611589 0.5964843764193681 
Task6 0.009756240702950034 0.027650694979799294 0.1331492067900804 0.18945696332925072 0.8262103755300312 0.7744108131016583 0.7519887462912058 
Task7 0.02088704578996968 0.016236963073253532 0.08589964139407551 0.13741048845560283 0.38877449349362964 0.9985770310066724 0.596240285993163 
Task8 0.013489939475886444 0.07147447825504812 0.11779254732916836 0.15192155959727657 0.9663062785471119 0.9043644326577582 0.3346132468539932 
Task9 0.0508686794792199 0.08911876955521299 0.14874171763494856 0.3420789555939591 0.6994548358276793 0.4438964168159461 0.9831086284215693 
Task10 0.08001443033884247 0.13912886741601369 0.2621288705236885 0.052857933402056176 0.3398238894925525 0.9047630303744312 0.5485555387297893 
Task11 0.01924501151410535 0.07578190815629438 0.0862548766117706 0.022536220171796705 0.7761823461538784 0.3446227729253648 0.9642894990720343 
Task12 0.034629433556373705 0.059528841526003816 0.06356726812447161 0.10521464943396446 0.5425526808851215 0.5834328852338 0.803487444055903 
Task13 0.019059764789416248 0.07943072247962084 0.0390505084990719 0.09900846695934086 0.9329979710129048 0.45173157394220076 0.940389993113786 
Task14 0.044392965242870584 0.4075342120254495 0.14189849724720735 0.19973576321830946 0.4243682516770855 0.6411677484736436 0.677094932904907 
Task15 0.0022869226386680735 9.010897397352564e-05 0.008566199982700178 0.00766554989065898 0.45147203053875273 0.9881095834613483 0.6230390800653214 
Task16 0.000891829801302502 0.04932325439277133 0.11142399640968309 0.07701297137464827 0.30942972417629655 0.3326599760405405 0.9743826892569021 
Task17 0.0486682288399116 0.14906936374282 0.1263147749642029 0.01678470539829497 0.7512843293911444 0.4834425820846858 0.43019596964817186 
Task18 0.03284038221463056 0.30806282410416397 0.0028124891468141 0.16937812097741872 0.390693008318926 0.5206895083628016 0.7319368467819841 
Task19 0.11477660475442197 0.05108028749214585 0.5452881997390532 0.07717434197336129 0.9593723446098403 0.7557316286630409 0.5402106756989958 
Task20 0.03369545477500572 0.0750827409647626 0.03818618665896435 0.13201381879072016 0.5670140732749351 0.8330878356443951 0.5002145070150557 
Task21 0.04898359617599292 0.11631107848434762 0.07988338121984828 0.34569060555293407 0.9483372548882758 0.8303088985434361 0.755761000372781 
Task22 0.10045377877236665 0.13008814404100613 0.16563680926735005 0.157191631787964 0.4679285146033587 0.33065616199419856 0.8154537093479919 
Task23 0.09755710031716164 0.03977110794398338 0.33048498204871 0.2507725457309913 0.646656646134804 0.8612874017960337 0.8708559528437947 
Task24 0.10727981645311457 0.2970493369606234 0.10011398338408246 0.3832483311494637 0.8255134409091258 0.9789774539148748 0.9745539139329724 
Task25 0.1593355918158906 0.18376701985316346 0.4521008160274007 0.18107351748382997 0.7042178043371896 0.8912972411510431 0.3310254022285522 
Task26 0.11002581750587191 0.18922896736704317 0.19893180709287223 0.06366407416945201 0.6562058022775491 0.341751640616916 0.30926069298599496 
Task27 0.02455180685467534 0.05206243976185291 0.40596635954775306 0.11900762158349582 0.5574438372277852 0.4247865263850344 0.6556203654581898 
Task28 0.030754613280594218 0.06252322161548163 0.506538218915711 0.15790639374660967 0.719558902550103 0.3060618182947554 0.9197322188052306 
Task29 0.06327942842212983 0.07962407611215556 0.266365078529709 0.011249717151932298 0.4531559410150171 0.9103286270947621 0.4386062669216853 
Task30 0.06978677968301339 0.1120844059151614 0.11635760595433917 0.08408024917364394 0.3196851044058739 0.43771169658243125 0.6001804898456016 
Task31 0.002555480253087678 0.25112095811071466 0.2583085065238326 0.21551333667504424 0.468197220493893 0.42718778417592307 0.7576508112429805 
Task32 0.11448849701305941 0.1943685116617481 0.2559170376520722 0.20534241469652945 0.7871828885849894 0.5937382307596392 0.7772608159430177 
Task33 0.00868664962371544 0.010065942470883214 0.02147893835177358 0.017221731150794787 0.5444837267535658 0.503909914646471 0.4084465281273841 
Task34 0.09845970038203256 0.21169647861806362 0.11018060766048765 0.348444641305384 0.7694042874077045 0.8900499551883128 0.43821203413959176 
Task35 0.04301124460274592 0.13165711594781015 0.0462011921619245 0.10891305342739915 0.6930723211432985 0.6819296794049824 0.6421006003946776 
Task36 0.030806634074238955 0.38505211796896854 0.22978669946855404 0.03096482542751666 0.4779665300339717 0.6046339549694736 0.9673857948340014 
Task37 0.05937026223714968 0.03462026533776761 0.06965846650840399 0.1440341054290229 0.3464350500671978 0.6368009849971685 0.5017800834140197 
Task38 0.02596310120675586 0.16526804218955524 0.22416123641303576 0.31858542620863367 0.6142402923876058 0.32129068002454836 0.5752909870760795 
Task39 0.1952812831361448 0.20192179925787804 0.2722610374388558 0.3152393736603401 0.8327632689785487 0.9036956299740215 0.8715289524840859 
Task40 0.07082568041299933 0.36431147419843346 0.18438299496561739 0.2116436242669812 0.40464993008535616 0.9391855958195883 0.6683190237330007 
Task41 0.0019320943996437969 0.03810977738574294 0.03650243444125172 0.04598052966830099 0.6159331972255975 0.34989028993540194 0.6959235834488464 
Task42 0.0020996735501431826 0.009992004311716608 0.0057684154701433685 0.010481849107617805 0.353061132658864 0.960768151967972 0.7096137094854158 
Task43 0.030211163355645082 0.1431190355575649 0.19542627831204093 0.1031064826470046 0.9072574069092061 0.72954310208872 0.6249945331533182 
Task44 0.0036050106092583396 0.027461678141268063 0.06991091782560661 0.024029114522296984 0.5111841933451876 0.9052897896037129 0.7014586472695116 
Task45 0.12349431484168728 0.1522325701613565 0.3471076687074104 0.010146874871431136 0.5716584597147187 0.8342527187493329 0.3271423981877218 
Task46 0.16457575663705165 0.03749107951011803 0.22500681293367664 0.45849934359709776 0.743169681966776 0.4201423103576144 0.924262969116534 
Task47 0.07244017079870914 0.2397509638461582 0.14817795313776166 0.08290678909965728 0.7517893276276617 0.5761637337269624 0.40132149497396646 
Task48 0.08709508260830495 0.17509216036962005 0.08137047379341346 0.18403284401728953 0.3407765671110184 0.35107582073301646 0.8215019553230338 
Task49 0.03823337763345702 0.15906935871855293 0.12621881292791842 0.24528968905562057 0.30626368105499113 0.889062058263598 0.5827159558970865 
Task50 0.00012089911387296802 0.09538820017004286 0.12134987310427607 0.4618140166568069 0.5153358261615142 0.40830994194429465 0.8153963027641495 
Task51 0.05448409618590846 0.09033601405762885 0.0767348274743561 0.09398159581637697 0.8953666176794404 0.711951848998456 0.5098486206501065 
Task52 0.008622726960581964 0.05448363068083665 0.008323763031422526 0.05919887248243296 0.6253403289497921 0.6494599641650649 0.3066643802302935 
Task53 0.0781431412277733 0.21624850335838866 0.22571195116137602 0.09176058037348186 0.7131386682967817 0.8258422707138562 0.9990799190174837 
Task54 0.034611665832425934 0.09339439326445048 0.172914507133201 0.10519969877623409 0.8899213319753472 0.3366045031625766 0.548890004486974 
Task55 0.06097374230706665 0.29033274580625223 0.0032568621430556373 0.14600318052850939 0.7192337340427395 0.8669984877114203 0.7545406831663177 
Task56 0.0028400090695716775 0.018693751531340248 0.04573204107628919 0.024034561890826502 0.36629956171425065 0.6988033760089405 0.4564340455203067 
Task57 0.11138863650228235 0.116765793319831 0.16357201820272768 0.37907027783848196 0.5664358212569669 0.3424866620740593 0.8682973847122573 
Task58 0.02317879533757137 0.08159283995964099 0.10849094609920516 0.0994834248572404 0.6769060442180288 0.3580451381275888 0.5967870961928478 
Task59 0.0983947898905728 0.21847986145510534 0.12729148681962857 0.12733473071674814 0.34694118702391574 0.8255349924081883 0.6639526528771322 
Task60 0.01174741056219999 0.07056192077604675 0.011644065066374963 0.026318637324079835 0.9285945585568838 0.7155373038135318 0.7419775033684872 
Task61 0.060695407817167084 0.25482858029245586 0.032928020690437855 0.45165165340088054 0.6958279009662438 0.9061314877687496 0.4621210383819765 
Task62 0.022050273073942955 0.016846368999407474 0.21950099984925264 0.3206496058415231 0.31054188577867536 0.5091137243466356 0.8699403967248547 
Task63 0.005926283910533252 0.3510936187571349 0.35726596925585746 0.01408478188034443 0.8507386887407569 0.9060131861467651 0.5427419593558247 
Task64 0.013335661286254866 0.01897924157938483 0.04087824875821253 0.053176246468705536 0.716197737830519 0.8143224951782648 0.8610309380856469 
Task65 0.0950951495354101 0.6246324400316882 0.1105008115902918 0.02017733768984844 0.3562065824664238 0.5435683286922449 0.7801352603393277 
Task66 0.07798993629876906 0.19613354802712302 0.016573780092469168 0.2608532246355488 0.6196147961163734 0.3591051187973235 0.662611958721206 
Task67 0.022865931506072062 0.16305618156737542 0.111262092774588 0.060320081282080606 0.4345105469004793 0.7008075055153715 0.8636679275338761 
Task68 0.08159521660676274 0.1457087338884157 0.33560095034041404 0.196812789220834 0.9847990935068616 0.635613057911512 0.3096450690788546 
Task69 0.006644076043143523 0.05700836762172625 0.03879370189793601 0.044282197767669125 0.6148451423664989 0.551047570345931 0.9626494582992577 
Task70 0.003673965642390556 0.010835775180221769 0.010041419360447305 0.010620127308440263 0.4812976001792613 0.7426046891247979 0.5622676769027724 
Task71 0.04744887768191691 0.11571973690522779 0.2633280992564463 0.26897179391219334 0.32992759145049694 0.7850914900028367 0.7799650308950274 
Task72 0.022908283741085222 0.053624739041121305 0.1329033224175686 0.07088142232503993 0.5429145913884654 0.8292469568454148 0.7977632819296245 
Task73 0.01815639879601146 0.009452874152112068 0.03885096856436563 0.0372246698843173 0.4036134438723945 0.858086887009224 0.5093303299248978 
Task74 0.0071929057510064336 0.040269893282038075 0.01314149265177862 0.028022924086695194 0.7042748296241259 0.9922928316138295 0.8601624596474651 
Task75 0.05710109452780973 0.07482403664521106 0.2837171718592569 0.27982922507356406 0.7764237604600585 0.32210753424683847 0.8237780180150949 
Task76 0.0872724769545281 0.3784240480948417 0.3064947720500567 0.1279436090879235 0.9457822865119294 0.7168368391935827 0.4756022151635157 
Task77 0.15387239877624725 0.24037625477452654 0.2157738393299045 0.3525152057238017 0.43389518348402856 0.323229587903506 0.43153665034676997 
Task78 0.05797864586540846 0.35062858294102955 0.30230144713313345 0.0746162103429292 0.35220219402079844 0.5862287416704052 0.37734012195806976 
Task79 0.03274951693454681 0.1128052790541938 0.017258233052724323 0.024342941956316404 0.8199016382322248 0.35297874836030824 0.5997827870974779 
Task80 0.03601726491878104 0.05439743163590073 0.07330904670625404 0.13930720592532936 0.7641364646207929 0.49023585975059547 0.9464430802946067 
Task81 0.04089169341189086 0.08841743967665441 0.24281738607143727 0.038002962955877094 0.6940923361169081 0.8954049477693242 0.7102185017886521 
Task82 0.001898783164968488 0.013147544501872553 0.013809336881187384 0.008549163086048063 0.6774726397058182 0.4917190669319398 0.7050965130616358 
Task83 0.010175136512091346 0.033571773720124994 0.08223821646649974 0.013937113745705627 0.9516513756637177 0.47895540903717765 0.5889908039318807 
Task84 0.008917716640400147 0.022559596394703438 0.022233719858025015 0.02541223484244017 0.6627482823608862 0.5661834386278806 0.894291856669194 
Task85 0.037574089467081795 0.505123224497535 0.3156501895320145 0.07807713277569707 0.8907090886929774 0.9499104454435561 0.8651578833572224 
Task86 0.014322665392790037 0.20862232581914697 0.2603200540864084 0.15610694622377236 0.9964125616015977 0.46398314366603816 0.6815111959431903 
Task87 0.09639172576606647 0.2857191801258828 0.25527851281981817 0.30560631850107545 0.6410965258453645 0.7609258238766802 0.5804139189492259 
Task88 0.05461103232051324 0.13968428638462105 0.05857976995569163 0.10774196089787695 0.512713177056968 0.5506904929963468 0.9741102434354019 
Task89 0.013979195954321013 0.047462704388224565 0.03689018880028681 0.07939092535982899 0.4635500856960395 0.6966193766044393 0.9227178652318464 
Task90 0.11203447106836291 0.11893599484004957 0.24089692087155035 0.2448970170602398 0.626006963849613 0.904678726123106 0.992422389872073 
Task91 0.01417362400428318 0.06475599188721959 0.07067961798459799 0.03567755076849482 0.9043687643488283 0.6450443144088605 0.5115726603751761 
Task92 0.018594945665541627 0.03636643266440089 0.031557143100118104 0.03298830615078901 0.962384334246746 0.9668728420279933 0.9207180339923651 
Task93 0.019585293673017833 0.17819215901733385 0.5036232044765148 0.03585117996392406 0.6709722362407634 0.3395770128255596 0.539584017418425 
Task94 0.048942934003991814 0.29848583602102985 0.11041868318545361 0.021590575239279274 0.3697187314874778 0.46172912280312917 0.3190344882560516 
Task95 0.09802783038543063 0.2111030341797859 0.30748345169156427 0.22877211507142053 0.749360020156532 0.8187540183256077 0.928376648133745 
Task96 0.0029663756422434163 0.09404770245493134 0.23674366428205695 0.07038309196991227 0.7669275021125626 0.36279290390326635 0.8081751829554296 
Task97 0.05218521968716635 0.12926103648887055 0.1105968443111834 0.21752183340274958 0.6316137444997888 0.9708165259995685 0.6220816615725137 
Task98 0.08602500111511914 0.28275644996616384 0.14517961227704357 0.07498300945186313 0.527760780930659 0.4171628467943409 0.6952396596308565 
Task99 0.03954901450428669 0.1956515797896123 0.30270072732033126 0.2546779179266657 0.5290690882756075 0.6147310320231385 0.4304530755086148 
