Task0 0.04532182691582208 0.038611569652764445 0.12072777676274311 0.05456280617496386 0.40366031464284835 0.803222934683131 0.898781167354215 
Task1 0.0004458714267185171 0.0010965894394933777 0.00375393549865065 0.005542624580852661 0.663523194744375 0.864691272161064 0.7641821189289943 
Task2 0.054657950746824426 0.1486483150152169 0.18636047388157667 0.1952594809832984 0.6378257117868642 0.5234562180739775 0.570154198765049 
Task3 0.1223218987316411 0.048220987386975216 0.221054463038547 0.2485963413658812 0.9623622997445904 0.4981379365496754 0.9665994037191292 
Task4 0.10732362507569373 0.034000115659175885 0.020912629340879108 0.47996052632188624 0.782610272967545 0.6320424475682367 0.4703168671696407 
Task5 0.00022736045207919316 0.010752605605973974 0.005910211257115611 0.007549267731435115 0.9364080720038053 0.5692044814608372 0.8660946539218195 
Task6 0.1437538375517898 0.18716512128060264 0.275253828791638 0.132372087053942 0.8535224155060779 0.6863862222925774 0.4568611562418158 
Task7 0.05789610474594823 0.2846717435121056 0.1301770103810763 0.31107611156446335 0.8471842752246814 0.7316798198420791 0.8630487956574833 
Task8 0.006507301975270926 0.2764840283760822 0.18841934690952547 0.12695410676861105 0.8161660164195275 0.5226840686418472 0.35046853270426415 
Task9 0.026051008372117757 0.04112326048827292 0.042644210031308666 0.06049720825295282 0.626344652143399 0.43137618332101885 0.7047959871639946 
Task10 0.04306986513847769 0.3206323332642121 0.18087464433700362 0.3717555907796833 0.5018037905792148 0.48763501135698484 0.5709103677813963 
Task11 0.022876292236849026 0.008190924402323753 0.035581335893472024 0.04974159600152159 0.7800345169713986 0.7385793913534082 0.7811305692947641 
Task12 0.02572843912121851 0.011123561510311904 0.045446775125232104 0.049649714540066 0.8844245847345256 0.7775809560749534 0.6580495719545879 
Task13 0.04243803047980326 0.11375647683938049 0.005550968510916299 0.09932872202776419 0.6510683860173907 0.9529398376664853 0.9526808320888567 
Task14 0.04693665058992825 0.29712757542495494 0.24204094345914848 0.06422631481365149 0.6336447191976119 0.31187455089601174 0.5686301958989024 
Task15 0.004062296048929723 0.006186923772643046 0.009226084912435208 0.009591608379097524 0.4984720862578866 0.8056617570423463 0.9388050153524465 
Task16 0.004954881478962491 0.3653004768924814 0.00020514199121089108 0.22482752073777423 0.7365509866772599 0.7621885679515514 0.5707286169200161 
Task17 0.05141042639171168 0.05647413594161806 0.08430807725274683 0.14539897733360574 0.9762377148891501 0.7163810839146436 0.39543361185108855 
Task18 0.07803521937349903 0.28959433334876106 0.08789016050851724 0.0234794035305725 0.584805233846355 0.9473226960143868 0.30808548580447304 
Task19 0.0008944968325584682 0.005170210917522517 0.02973066826784267 0.058009841266489386 0.43024337922808126 0.3322223199251922 0.6148421261033032 
Task20 0.09114804090877907 0.12219242927823483 0.12087929477823062 0.4009799593535118 0.7205248620891107 0.490280278114948 0.42812811666266426 
Task21 0.045528643713485646 0.1870276580760421 0.26493271960757664 0.2659495319165608 0.8419180935530821 0.6768057089189474 0.5193601889075821 
Task22 0.00396703295670966 0.022288469995577622 0.0039752813139617834 0.004526113475333684 0.45836451124689126 0.7000636911909315 0.720445563809194 
Task23 0.07465009919919165 0.3466769481145081 0.12112333969609514 0.26557711685979946 0.9787254004680246 0.7828968936422182 0.7246478530018576 
Task24 0.030275426807653757 0.37484739986508836 0.2731702229214374 0.3072822619279785 0.8446391392689192 0.7024631081011063 0.7312977143581316 
Task25 0.1613989447655214 0.10034194217917178 0.18046215856531633 0.36489778244345733 0.7355249807026718 0.7290476719981428 0.8412752745651393 
Task26 0.0329840343872605 0.29576382232115145 0.04364829107319949 0.05157713821693647 0.5905924868820911 0.4614181276411062 0.4845837505185482 
Task27 0.005578486332815762 0.15743805837336303 0.06118146157034038 0.18596803964591252 0.41724016799512653 0.5081060437536893 0.32750037661206327 
Task28 0.0947338411919513 0.4249565245009998 0.1402974327039067 0.24833485065266772 0.6047430063424202 0.3078374327838238 0.7026807171736082 
Task29 0.050495153043360254 0.21137345902454555 0.3324235559254235 0.21202836770309214 0.5444070102240567 0.42544284825454237 0.7883369215709701 
Task30 0.005576616827794473 0.022321623629799184 0.008986910216770807 0.0041078301206673076 0.6762622317515976 0.6647935162063375 0.46819664873665734 
Task31 0.03509073503492969 0.11843715141586071 0.13656463789807116 0.12031901444778713 0.6683056994791576 0.35308104975671656 0.4182507180576865 
Task32 0.0541245524818256 0.04964221540981807 0.2988507453685994 0.26919926996590227 0.6103692120499857 0.821477618222459 0.7551898828755521 
Task33 0.012474581899066526 0.06662264647567974 0.001532254338486215 0.05809277052265488 0.9388803697964354 0.493078684727335 0.39135298075795005 
Task34 0.1541545059654296 0.16767848513651185 0.39248429284251535 0.06087346217546617 0.3160092872503689 0.5314893030158123 0.6213218815609394 
Task35 0.04421729354881727 0.37818072510826667 0.33031954963018656 0.18856517884487492 0.9994855321293621 0.6866287291821604 0.9149065078563405 
Task36 0.007693609366097802 0.10848341820746894 0.282650827783537 0.0041146782322570965 0.5442244223632937 0.9944236927746279 0.523882205538537 
Task37 0.0689517355127052 0.11512451113381479 0.4733792063609221 0.28521861326486364 0.6991075176223017 0.3929294134339023 0.7033043906213545 
Task38 0.0008684251483679205 0.2823745422763279 0.2803085794909385 0.22834118228913652 0.32538433643776865 0.35405034170014316 0.7618069931198959 
Task39 0.08580897453121697 0.15086949852401763 0.1401241872950704 0.12111398664977224 0.31675734597848326 0.370775164084548 0.4355738472049588 
Task40 0.03394523172019303 0.0935744266315992 0.11846346891176136 0.07096878960895418 0.8894664453870644 0.631855552402858 0.9413112121607543 
Task41 0.004054435967938725 0.00113748987482677 0.003494482249748696 0.013435294555260721 0.9424601809436615 0.32651661929510745 0.7601794580984227 
Task42 0.005461795664388954 0.05162134499018582 0.01245673011696824 0.013994705238510414 0.8445809260712684 0.9294974639916587 0.920180803565126 
Task43 0.0168549204065538 0.2841884677519565 0.13253769302291002 0.22660629184609218 0.970263101036775 0.4439778810943454 0.9086814044396172 
Task44 0.00974089424409676 0.10239601330907165 0.06733512598050914 0.09256074492052253 0.6609085590069548 0.3260504910319373 0.9624501753053138 
Task45 0.05397137872530119 0.06983468736974281 0.16333459495594171 0.14705926605230366 0.9378027110719562 0.5776518387868732 0.9782981660845347 
Task46 0.03214127329590224 0.08503990722276553 0.0691696086053083 0.13395752176489803 0.8972096497154234 0.7220559396010653 0.39899229857019325 
Task47 0.06008876449074357 0.11081759511968843 0.0842182613461054 0.04550865751058056 0.7940500437634215 0.6054353618937609 0.9771682574941853 
Task48 0.12448334539400431 0.6394386516832091 0.13664701900183396 0.04049724738524613 0.7153378919202367 0.3616325047786448 0.7761492547894491 
Task49 0.004805164944104336 0.08335521356751446 0.07633172020123498 2.2952882429114388e-05 0.4886331255887408 0.6310683351153465 0.678130665443745 
Task50 0.006633193371555112 0.013157352721836582 0.04833443374484991 0.029509257983209594 0.9061517738035492 0.973528741492401 0.4584163496496074 
Task51 0.016985894331598965 0.04014550003888377 0.026498190278391853 0.0324157763160833 0.9784606644585843 0.4379731026038529 0.7142038011226453 
Task52 0.0058747646659540196 0.11408227853177089 0.08906054455768278 0.048255094689537065 0.8994567500193205 0.6128595891672155 0.4138296352526499 
Task53 0.08637978196940153 0.13656763579878636 0.05737318633270582 0.1524496390910109 0.7615609728711354 0.5855831351881251 0.8061404356121209 
Task54 0.024076840008519583 0.015562401659080486 0.06736768755099845 0.031451198938193405 0.5322460919641049 0.7953724874271184 0.8808248594250954 
Task55 0.001252958335095348 0.029137662026224673 0.016621336255007033 0.017256881248993824 0.6147587323528876 0.6650733779736935 0.5236849077144342 
Task56 0.12064980447373692 0.3146511818981567 0.30871977889766583 0.10969357973196366 0.9519099689534358 0.9329277638661915 0.6541844836723738 
Task57 0.055958155033281255 0.1128479411788862 0.15139236082525243 0.12561791584529863 0.6808903047894386 0.9810701578840844 0.63224278474879 
Task58 0.09409465034117724 0.05188529229977999 0.3022685542636043 0.1256383772911955 0.961673685437864 0.9703502025568131 0.7179595241543354 
Task59 0.06794111638820553 0.25356897614494844 0.011645144292328618 0.48396650383058837 0.5676468607113953 0.7282910324045861 0.30120692084721423 
Task60 0.11980988852477809 0.19233938490113395 0.2585386079466203 0.15716462536603606 0.5084090124073787 0.5905730837941885 0.9446003222716728 
Task61 0.10076206130287833 0.26602949450949726 0.0669674874478466 0.29923876411637906 0.3580715028539373 0.6157108437025198 0.36107195278054266 
Task62 0.02135097111418989 0.09865878069248911 0.17011392297968644 0.15577550159727357 0.5915683387533923 0.6860483218942681 0.32307076439747723 
Task63 0.1290725083555521 0.250080942607522 0.26033551998257337 0.24904663491480206 0.9274560009003465 0.9935148730386902 0.6711104007245958 
Task64 0.10905493394236909 0.21814385132625008 0.12006279801561251 0.16118022670917181 0.42624120056408643 0.7717283720994645 0.6079223623736933 
Task65 0.016447800918306124 0.03383128691100264 0.08089589701118959 0.13230460294790408 0.8875876389396298 0.5544279458487881 0.9867698649077441 
Task66 0.1089968017048122 0.18667359091268448 0.06722335558758724 0.1836822505566845 0.944104518435428 0.6416760060389669 0.7404553510414864 
Task67 0.05272948676180602 0.11331712250435812 0.21866362920426494 0.151303518427565 0.7594511251087617 0.3945938768118946 0.34070534427709576 
Task68 0.0526809725612452 0.04571393077481204 0.018469558300654505 0.7898904963696756 0.8076806935407046 0.392222084182325 0.95263753645441 
Task69 0.0003135532193395281 0.07310748999442372 0.28214245779606967 0.20435886721429508 0.6225836035407335 0.9307643296322226 0.4408309555752813 
Task70 0.00037530785308096016 0.0037008924465664872 0.00390631908828113 0.0034731650248444267 0.5401400640356923 0.7536468450123841 0.3154915870760285 
Task71 0.0018816183671215372 0.0048673820412184305 0.002638865627934531 0.0349009009415171 0.7947915606947932 0.9994022834188387 0.7618177357316052 
Task72 0.02714523467554236 0.15278888264389237 0.012990377934543367 0.14907257706510352 0.9986405031150214 0.9899299936652877 0.9424589249676034 
Task73 0.1320294623224544 0.11027466715904986 0.28563108421853584 0.3845966246016397 0.4159120119662407 0.861826058692035 0.5462167093070838 
Task74 0.024764608204357108 0.08872081567580022 0.1370674075630295 0.013516843246172788 0.5230759758342935 0.6354448577422118 0.5388737958731524 
Task75 0.06313486851528242 0.13069407715841913 0.1407157864756573 0.06142472808335424 0.7065622305891571 0.6289993756366644 0.739332326854726 
Task76 0.1011093061103179 0.35420636037335895 0.21341907474981917 0.1242361535374508 0.6214289496793649 0.9847926433711138 0.8472964658751225 
Task77 0.039797550384086694 0.15566043961775058 0.18372475643827008 0.22628180018018137 0.7761223280084208 0.3720426375577985 0.988847189497297 
Task78 0.011616632138000769 0.34673638901541887 0.02239091301529661 0.12126501715081985 0.8915636635082793 0.30138333538065504 0.6667118820038366 
Task79 0.09539430177234094 0.37246594958035717 0.15590929364856618 0.050844351571679526 0.6853789604551797 0.7811328170626752 0.34932392162765413 
Task80 0.003303557899873433 0.003255342786334679 0.007772107081404147 0.019504088349797385 0.3054507154653608 0.5471074364144646 0.9327488094321474 
Task81 0.01836600159314737 0.0905442723967394 0.2857000359607078 0.3450990597444978 0.45182831972962334 0.4778924468607616 0.6915775284452281 
Task82 0.0013578885620620935 0.016850124015977363 0.005726018232474647 0.011185263711078796 0.7710938064049638 0.7061001234913197 0.7358239627530883 
Task83 0.08972602159818022 0.23317053031779683 0.09726673842972619 0.05057572786320588 0.44312850566643114 0.9717635249333652 0.6017127880246349 
Task84 0.00029843384440692575 0.30644700395590213 0.2653300437972767 0.08916384988975462 0.42916144406556395 0.6210389758834116 0.4623689521538707 
Task85 0.025827595065554685 0.27060081978325373 0.43097757347648025 0.055110930031519206 0.8467760665119086 0.5070557294812943 0.978377690519523 
Task86 0.039258298429536674 0.12483001743672587 0.0619847072287234 0.12152578167267443 0.8849887893440573 0.6217892979447122 0.7241893239481753 
Task87 0.12907209690012897 0.31374586189698805 0.12112607659166723 0.3079692840954935 0.7622788358357124 0.7287815825150302 0.42660515292721457 
Task88 0.12774986758137108 0.14061826805941594 0.15329150636538524 0.24288036568308793 0.4654658438404372 0.7196008250256162 0.5560591310965074 
Task89 0.013288528672873157 0.028279496598492004 0.04693481272645614 0.03962479778845299 0.31716970550106005 0.5608447975858953 0.6664559427712251 
Task90 0.00023886541419297844 0.0035598302852115405 0.007052776321829752 0.008598356828533597 0.6910505680326797 0.3330086780672975 0.7656028387650868 
Task91 0.03302019917402622 0.15066628108155308 0.08237604636121917 0.1045638337007377 0.5538632353219415 0.7480419053731542 0.9663895255743711 
Task92 0.0208600715381415 0.07839954589549702 0.04072301308752869 0.15285918514941133 0.7300388841762602 0.3580132971704498 0.7767066439686671 
Task93 0.058581915200248684 0.0662978349595878 0.14448176254665693 0.07845573772674058 0.9768014238982325 0.6809204931530674 0.6437929071757564 
Task94 0.11939271259766462 0.4816285392063836 0.34265155932784885 0.019348774897322743 0.45240183843096443 0.6014402196949338 0.74877033685726 
Task95 0.06450825962698496 0.16366446456008138 0.3144878751232443 0.17391667542470302 0.5761495803549748 0.5328177722568618 0.5183926413256803 
Task96 0.0860895492721331 0.2212429901651254 0.07340019747387304 0.07562317928877016 0.39065922196544567 0.9008145415115223 0.8614017364876247 
Task97 0.0034861947012826615 0.3740301660315428 0.5523163865141794 0.056943251008944304 0.9120263230633339 0.5963005589178632 0.6524023312256635 
Task98 0.0019581508152388123 0.20405785789863332 0.00149410322237359 0.3357114115449829 0.7477540364505815 0.538023169670198 0.6245986229321008 
Task99 0.01420505477873832 0.07690479040193549 0.08149548350854191 0.05952611902523709 0.39391253494792644 0.47526921702162545 0.6036899009987038 
