Task0 0.07849481080424739 0.14000627660042686 0.08899994983236698 0.10716877738459811 0.46393287245910586 0.4371614157741317 0.7798855089934404 
Task1 0.050431635111871945 0.23455413355613713 0.2200979097336461 0.1055710978410208 0.5165545929820089 0.7675891118410629 0.9269064768789324 
Task2 0.00877943441298027 0.14610672713020825 0.0865712143406563 0.03513443414034049 0.6156070227400687 0.3351601250431864 0.9685574438127413 
Task3 0.13777452042287566 0.029919612907896884 0.28099779233238065 0.2784805526034318 0.3239951338965955 0.6920206735749281 0.8496623072429472 
Task4 0.06124178543390463 0.08359731762022429 0.05649010257183586 0.1652407196850878 0.6554373012524741 0.5689076706762419 0.8777467850334413 
Task5 0.0208614688583804 0.025840919414757097 0.04182054973894042 0.047844577239821016 0.9751736032105784 0.3932399521492437 0.39729483157122036 
Task6 0.05018652777400951 0.17175858660223473 0.04136173060244016 0.17667867378555066 0.662880286553262 0.323567424688406 0.32330768908114643 
Task7 0.0651744128687158 0.27771316881147057 0.15809952310806638 0.10747950649028933 0.4944316613853148 0.7379785348527969 0.6864755764836137 
Task8 0.054281104524991616 0.1440236435864856 0.09559168741413344 0.13235373599333697 0.4164676240906396 0.8651217987654427 0.5513241143715035 
Task9 0.12988031751834755 0.17606318334175913 0.13349569009703358 0.4305776285158476 0.8992885770797217 0.4152363389045651 0.9248891712719167 
Task10 0.03823363133872963 0.08111081668419283 0.3405613472074626 0.5202021518243491 0.5401125879704805 0.9788198790956797 0.6419093536058184 
Task11 0.058664873422179145 0.341892046759415 0.005849323207600216 0.07068595735310532 0.7092466228028945 0.564765365047865 0.9015377937365425 
Task12 0.03461726101446546 0.13303177502541136 0.47840049904073145 0.14022329566732022 0.31801849919561564 0.39020067984332585 0.668880534226696 
Task13 0.02839018279077286 0.0722559955790809 0.061462181618003126 0.09711433488152323 0.5581756428863848 0.3243558716592208 0.897173861228086 
Task14 0.009278642491911755 0.022241610802816107 0.009460380250600973 0.006585238336003047 0.490570106061906 0.8135759119432413 0.8882191039198244 
Task15 0.08738665210214842 0.4026300415335836 0.04386884277855861 0.17700933334635444 0.310203881020568 0.3863122898952879 0.4031082189317534 
Task16 0.02303075723675898 0.08313151382365669 0.0025166242411863294 0.08207561848194281 0.3243737859861839 0.4747675209779064 0.49559846194764867 
Task17 0.08987397216446079 0.3097307425979579 0.185392992236 0.26961014444095377 0.8414001352862974 0.8892196078506649 0.5471643296161973 
Task18 0.027723446646224916 0.3434792218121593 0.31168259170253376 0.27660402005520474 0.3896736497796231 0.38719638273220497 0.38880709813696435 
Task19 0.04058637417397175 0.32613737471820703 0.07738878745144888 0.2385604860758974 0.749523068083854 0.7783883012849255 0.34119900482891846 
Task20 0.09877968086009603 0.3611005418308891 0.13722241805642058 0.3937577299248676 0.9872123734526788 0.7104544189366735 0.7038141360321228 
Task21 0.006239644446122243 0.17628264228945706 0.15811965605391343 0.0021475037590492994 0.38650450405560227 0.3573457373005333 0.8773019860484506 
Task22 0.12026670944382109 0.007451730843532294 0.340256196368948 0.37449824259901304 0.6092404745920093 0.42694467787542345 0.958897567655727 
Task23 0.010394416483770175 0.25460659635063754 0.2712922539043772 0.0754123291478204 0.734089359074593 0.45645775947559464 0.7631637088402851 
Task24 0.050840004640383754 0.02372706237825017 0.22510543935509675 0.08694262731016841 0.35113477782497216 0.39168752926961 0.30383025548127496 
Task25 0.069525368272463 0.08304144683877661 0.1703994430081447 0.06724880176822703 0.7990072853842356 0.35791544911695655 0.4759194228786017 
Task26 0.11256520571277139 0.3443443612689456 0.1461983551134105 0.2164280031174967 0.7438661635455958 0.632908695758974 0.9721734728071516 
Task27 0.04536765458884226 0.25379164454501746 0.1621988574982918 0.24226566611202324 0.6670334630815657 0.3672387928028136 0.8414434336912724 
Task28 0.10529529106059772 0.0388835201991725 0.4405771722919039 0.33323324737237414 0.4719637051426811 0.3400715517918595 0.5362371857356614 
Task29 0.04203249180375149 0.17923824149558443 0.019618765834668983 0.19679479925360396 0.6376421311721211 0.7399380193567735 0.49313994791896765 
Task30 0.002926338615297719 0.03152806621335682 0.016444505971790473 0.02508704864526007 0.9483180143405192 0.4014438902226441 0.5485761407338938 
Task31 0.04860621829561394 0.026698476682161347 0.22216236741321904 0.041045490079720505 0.6696880172364439 0.7504976463795443 0.9884645908386593 
Task32 0.006023629221171297 0.1526163596997208 0.2581772449338509 0.16675773178884104 0.8509713102419549 0.9705652452366738 0.3156721975135111 
Task33 0.05972829264351066 0.09184632788034768 0.3973909840252854 0.3592226275664213 0.5640063739090222 0.7924599728915676 0.963874135072412 
Task34 0.008386545988453162 0.12901575164224546 0.006257479755230622 0.05819615413271887 0.3720090193732109 0.5937221716759953 0.9529854511325877 
Task35 0.0630966192312725 0.47353809408854325 0.0790702825400828 0.27432388757189163 0.7339727212880995 0.9207660037950387 0.9474702532200436 
Task36 0.00021206739690388137 0.0020957387659304013 0.0012968414280297598 0.0007803878761009613 0.8293879926906982 0.5384062069222252 0.3283275619246916 
Task37 0.046729479678246436 0.2833524638148763 0.18684435237760855 0.19308262703402132 0.9769359674219547 0.5416458635757423 0.3824319376665992 
Task38 0.05232361223275522 0.09802208381154609 0.11774509194677302 0.11690758145029345 0.43587040463214377 0.7621242098745689 0.5536327642291918 
Task39 0.00872610925585854 0.012241658715971916 0.03923101127491366 0.019107486843146764 0.9139944017421129 0.4176147065670053 0.4197902802603123 
Task40 0.08690723348287703 0.24079020863852704 0.22172531191134123 0.23936288842105288 0.6887290577683601 0.9223391210169181 0.7289304869550486 
Task41 0.012096976676408583 0.0035627359843334594 0.10815349072711078 0.09031106294758455 0.9245198280639111 0.6299707431525482 0.9047416330319418 
Task42 0.005311556898523284 0.03084518849940777 0.02640437193465385 0.009308890278493517 0.37084877759234547 0.6024520022358189 0.8711315532838271 
Task43 0.05109151748035668 0.20938154972494097 0.08721222132231748 0.2442441417679174 0.5238421110317837 0.8268138347373715 0.5490031921981119 
Task44 0.015272471698007422 0.0017279645944233582 0.030187944875470784 0.11061315026953966 0.5572031552302396 0.906767044130091 0.38911670971836376 
Task45 0.026847795068535196 0.051071813953899196 0.06253319862768468 0.1663310249487639 0.6973176386472077 0.8042057105339611 0.4136639845071838 
Task46 0.04436381617607305 0.03998688089627252 0.09080685287333089 0.08530104544276729 0.37943712963457676 0.3448840368949701 0.9485843903622857 
Task47 0.053817905113599594 0.10050099406727885 0.10996096630635221 0.27404260839498334 0.562001012778846 0.8743773694613701 0.9100264462533723 
Task48 0.011714107790217781 0.012992596360328136 0.3581577674295844 0.34608247268968173 0.6270550868701061 0.6812881450869706 0.39750707322856504 
Task49 0.1729691154213354 0.21080849376819383 0.4614144943546024 0.030074643652610394 0.6910718399566647 0.9370128960861399 0.5053973427853286 
Task50 0.015308811487740149 0.03812404073710048 0.04382076441992737 0.03128699070785529 0.5897734860206812 0.8931305320904823 0.9714268063540519 
Task51 0.021304571601829334 0.17700680002513727 0.10244101831498363 0.1757131873037419 0.9159889380455921 0.8269664481684365 0.6671567986173834 
Task52 0.03733129493260745 0.13619079469051484 0.041569061916599835 0.08617202491756247 0.8499706980432913 0.5160836472760649 0.5704406389029176 
Task53 0.003528798805790188 0.10002194488323522 0.014669615247897404 0.061227562050767945 0.5147500457882368 0.49597038301630414 0.336366004934869 
Task54 0.02734564822793145 0.1890512801148673 0.231744160210734 0.23779750652080428 0.626415441215506 0.5295416895041245 0.30892509003465046 
Task55 0.005652934817277656 0.23723284536170178 0.1915088368529029 0.06351949567717052 0.4718613598492839 0.5453898338629496 0.7899898585067097 
Task56 0.0033585825764141266 0.03387468113356824 0.21017595604721576 0.12482981826503968 0.48336503554605087 0.31269774553629753 0.8793993799357458 
Task57 0.03645223259148579 0.050991276152105816 0.1868974650474413 0.2440598231906744 0.5874090160405715 0.8410756128861845 0.42441660252430613 
Task58 0.016694462183600288 0.20446733941700623 0.23988772651999737 0.33715397622441984 0.770499492713946 0.41715345248765234 0.48054980128017155 
Task59 0.12368556942442915 0.14390643044062307 0.4791072433920174 0.20164496197929904 0.9029989867455537 0.9787350737397804 0.41177350863641426 
Task60 0.008094885300595565 0.0017921452720897405 0.014727217634284334 0.027784681005739633 0.7749845057834877 0.4929633522329063 0.6743064906567288 
Task61 0.005590393432956219 0.1020288610736851 0.08016820865012951 0.03414254138922216 0.446109638633914 0.9114337911567516 0.7855626065557102 
Task62 0.10745838511294505 0.20464757274643308 0.33562312712005726 0.25464518729290875 0.7578067547812188 0.8072389926758747 0.856531310107099 
Task63 0.13377803025336135 0.26301842592992347 0.2730798019540924 0.19890754360925667 0.9676663445630986 0.656868483697953 0.8812684564598676 
Task64 0.04555125654900438 0.32121976035656274 0.12965652107412196 0.3363639375452864 0.4950013744787739 0.5962782919780854 0.3485482575312383 
Task65 0.005287313761972871 0.01034608702611571 0.052566492373093285 0.0337804321210377 0.40336881784688267 0.40089092461695874 0.3301220242954903 
Task66 0.031054351258183902 0.09749968074033237 0.28532728038728106 0.20260477462239393 0.7902144609066246 0.801403807073511 0.9720790476795915 
Task67 0.09200362209051867 0.23767533086329645 0.12424770775489569 0.26013335604229926 0.5145467888014789 0.30332448271967966 0.7819483593229818 
Task68 0.04027037553867572 0.06849312777206436 0.0497906308219899 0.07456319701442006 0.5279929973625886 0.6781988600547739 0.4290859958356008 
Task69 0.05190014011044791 0.09848103455821709 0.17987239305355676 0.16659515031116187 0.5679150476631691 0.572264868774113 0.8605581450125823 
Task70 0.022281355250094302 0.03284815063172508 0.038942845580065596 0.03338699854653248 0.5592597039195969 0.7433459543104217 0.3421520137403897 
Task71 0.03233699436301404 0.16850436151318376 0.042990001393871165 0.2108860999854987 0.594522223460346 0.49953845516885453 0.8927011255184516 
Task72 0.040122023358307404 0.015996015856820353 0.056482976270853386 0.09811053568900406 0.5615100047632895 0.6557332310044084 0.44455595528980885 
Task73 0.03879088495084112 0.11064475226857927 0.12382032358792264 0.06773912559559675 0.9980377369927942 0.7256771960598847 0.8455716096510884 
Task74 0.02729788974484108 0.0423909979834966 0.012567848516074172 0.11132620138103035 0.883993094493237 0.7012551867112582 0.5994669281631647 
Task75 0.007348814650063763 0.1778677599184447 0.1816037048449682 0.148225561247287 0.8836146181867546 0.34985163600062763 0.7794600498041075 
Task76 0.02879873949403432 0.07695679663542826 0.10593377428283009 0.14467403811101048 0.37040039049303414 0.3152687785200034 0.7089368331857091 
Task77 0.06016366092225987 0.1820556496155818 0.29950670342191316 0.3094236536371565 0.822673003438541 0.3934042785669468 0.6641716541571885 
Task78 0.024909031317863792 0.11595141827631195 0.07727320788609666 0.02056880288078431 0.4791658176119135 0.8625481204752437 0.9582471872677862 
Task79 0.04282205650715475 0.029278695160633156 0.1154109594746708 0.153486246327305 0.9400111413031038 0.3571771715900308 0.3794555768023552 
Task80 0.0004268181227017189 0.09345192052877271 0.08612620017138313 0.18062632073254453 0.6769442038996373 0.8342202638365523 0.8850454825188054 
Task81 0.048893961541707616 0.051383432778493 0.014391296506502439 0.3921716676674932 0.9026420611089254 0.5775800781635569 0.47836902307462886 
Task82 0.032628888767764486 0.0612584849597841 0.24627898178723484 0.06663297584420183 0.9533022472734165 0.33612415293852904 0.6189883465259716 
Task83 0.020220069418510102 0.12397231263875691 0.011438061812479375 0.08342049608069133 0.46953717292620356 0.7590019887905268 0.8534619912565493 
Task84 0.020760090108358234 0.1762130972677221 0.010833185976751362 0.10176254880848092 0.9781043046683688 0.32934430052050095 0.7613108352168121 
Task85 0.023188745138885105 0.02784309943346469 0.19704998770344698 0.3801032537347132 0.42432379828280786 0.33096753390232253 0.6894337309868671 
Task86 0.04734491958686991 0.11072013489194703 0.12729941928662286 0.1626532736008972 0.4178516526361405 0.46787394032968943 0.423359956852268 
Task87 0.020412978967305522 0.04523599661667649 0.07601515552592106 0.016654923322772165 0.6209688838301888 0.8893602499803119 0.5253755518530969 
Task88 0.012152009960471874 0.08087110722146947 0.2195750425077915 0.31675095646546964 0.8342505323825726 0.7763434921228423 0.4655460536773264 
Task89 0.06457432890830055 0.08693532647701632 0.08402152834797694 0.11818503367959737 0.410124810463273 0.7510772123696914 0.6130731547124699 
Task90 0.035234459179450436 0.10429999039278401 0.08438575458546806 0.006768407100625004 0.8968847397000901 0.9562510530806612 0.758405047885463 
Task91 0.006890342892970159 0.07823865996058701 0.00020531345181397918 0.0281185256783608 0.7264825866081479 0.6877131000607021 0.6703854981781439 
Task92 0.06871016881187496 0.12062089023418 0.2598621284093309 0.15074084299704282 0.8842762509173787 0.3997254083866919 0.3784186355501067 
Task93 0.07335404475081057 0.2178643555600738 0.21260175709005008 0.40872804651375744 0.718476520207402 0.32239279475331717 0.802240421764592 
Task94 0.0512186272078033 0.22460468453933422 0.24504449672868434 0.17087945171827057 0.31166013283603994 0.44028591551354307 0.5158035341094449 
Task95 0.05451389848418232 0.1845499895174546 0.13597312888841365 0.013699781502028531 0.9162218764325074 0.5977297587018766 0.48944729355112726 
Task96 0.04697588236139773 0.2123941985961909 0.0009062740631096311 0.09793412676652652 0.5110219747180628 0.9376135806189343 0.9549591323655666 
Task97 0.0007128573882239979 0.010683020973059905 0.003279638270272537 0.008389441424671995 0.49918104136176966 0.3177440810883997 0.4855954576042821 
Task98 0.00809036012507808 0.014745246181374756 0.020785712277652406 0.006638424095168998 0.905837825244576 0.675297794075338 0.4970209239178202 
Task99 0.02260061627963637 0.14017080684502917 0.14106522664809082 0.15796986661909163 0.902028954668658 0.5453001614004533 0.5248319263099164 
