files/tasks_parameters/ExAp01/sample8.txt 1.15279 6.77015 2.19458 0.288816 9.6141
files/tasks_parameters/ExAp01/sample12.txt 1.34091 9.58351 2.46081 0.337498 11.2346
files/tasks_parameters/ExAp01/sample2.txt 1.21003 8.44418 2.50701 0.319127 10.6231
files/tasks_parameters/ExAp01/sample44.txt 1.07679 6.96299 2.23089 0.28229 9.39686
files/tasks_parameters/ExAp01/sample27.txt 1.11318 7.74306 2.16676 0.28602 9.52101
files/tasks_parameters/ExAp01/sample17.txt 1.11402 7.35053 2.25579 0.292348 9.73165
files/tasks_parameters/ExAp01/sample9.txt 1.15542 6.89392 2.21068 0.282399 9.40047
files/tasks_parameters/ExAp01/sample34.txt 1.09613 6.62788 2.3772 0.297742 9.91121
files/tasks_parameters/ExAp01/sample40.txt 1.01207 7.75686 2.17534 0.285619 9.50768
files/tasks_parameters/ExAp01/sample33.txt 1.30541 8.14826 2.6463 0.338073 11.2538
files/tasks_parameters/ExAp01/sample48.txt 1.00937 7.64107 2.14272 0.270011 8.98812
files/tasks_parameters/ExAp01/sample29.txt 1.22354 7.139 1.93769 0.286306 9.53053
files/tasks_parameters/ExAp01/sample11.txt 1.07048 6.88688 2.12981 0.280008 9.3209
files/tasks_parameters/ExAp01/sample14.txt 0.856589 6.11983 1.97599 0.247458 8.23735
files/tasks_parameters/ExAp01/sample0.txt 1.12668 8.2738 2.14256 0.289132 9.6246
files/tasks_parameters/ExAp01/sample7.txt 0.988646 6.87011 2.05821 0.269886 8.98393
files/tasks_parameters/ExAp01/sample23.txt 1.13727 6.52032 2.38087 0.291712 9.71048
files/tasks_parameters/ExAp01/sample13.txt 1.1693 8.73247 2.33415 0.295393 9.83301
files/tasks_parameters/ExAp01/sample22.txt 1.0265 6.9777 2.28948 0.283979 9.45308
files/tasks_parameters/ExAp01/sample25.txt 0.924051 6.23444 2.2122 0.267298 8.89779
files/tasks_parameters/ExAp01/sample36.txt 0.935302 6.6174 1.9458 0.253823 8.44923
files/tasks_parameters/ExAp01/sample46.txt 1.32727 7.42369 2.49128 0.327273 10.8942
files/tasks_parameters/ExAp01/sample31.txt 0.989823 7.22028 2.13584 0.25377 8.44747
files/tasks_parameters/ExAp01/sample37.txt 1.09529 8.90704 2.16981 0.295708 9.84351
files/tasks_parameters/ExAp01/sample16.txt 0.969657 8.18243 1.88294 0.24945 8.30367
files/tasks_parameters/ExAp01/sample10.txt 1.0985 6.96646 2.31217 0.285748 9.51196
files/tasks_parameters/ExAp01/sample39.txt 0.966959 6.4161 1.97266 0.251967 8.38745
files/tasks_parameters/ExAp01/sample19.txt 1.30133 8.16711 2.23199 0.308463 10.2681
files/tasks_parameters/ExAp01/sample20.txt 1.03276 7.28549 1.88944 0.25994 8.65286
files/tasks_parameters/ExAp01/sample43.txt 0.94193 6.86804 2.00142 0.25616 8.52704
files/tasks_parameters/ExAp01/sample32.txt 1.10237 8.15663 2.12995 0.281726 9.37809
files/tasks_parameters/ExAp01/sample45.txt 1.18086 7.75184 2.10599 0.274935 9.15202
files/tasks_parameters/ExAp01/sample26.txt 1.0249 7.4944 1.88956 0.267248 8.89613
files/tasks_parameters/ExAp01/sample5.txt 1.13798 8.08362 2.09961 0.28454 9.47176
files/tasks_parameters/ExAp01/sample21.txt 1.0662 6.11814 2.17119 0.26143 8.70245
files/tasks_parameters/ExAp01/sample38.txt 1.01363 7.761 1.96293 0.263659 8.77666
files/tasks_parameters/ExAp01/sample1.txt 1.15798 7.83752 2.13261 0.289228 9.62781
files/tasks_parameters/ExAp01/sample15.txt 1.07989 7.37971 2.12057 0.285825 9.51454
files/tasks_parameters/ExAp01/sample24.txt 1.11314 8.28531 2.25272 0.296628 9.87415
files/tasks_parameters/ExAp01/sample3.txt 1.27648 7.33359 2.39135 0.305084 10.1556
files/tasks_parameters/ExAp01/sample6.txt 1.02035 7.09894 2.24425 0.281804 9.38068
files/tasks_parameters/ExAp01/sample30.txt 1.3334 8.17669 2.03701 0.299204 9.95989
files/tasks_parameters/ExAp01/sample42.txt 1.09322 7.70416 2.42413 0.29743 9.90083
files/tasks_parameters/ExAp01/sample4.txt 1.23575 7.41691 2.36261 0.307803 10.2461
files/tasks_parameters/ExAp01/sample28.txt 1.1028 7.0562 2.07657 0.266428 8.86884
files/tasks_parameters/ExAp01/sample18.txt 1.00037 7.60139 2.1377 0.268016 8.9217
files/tasks_parameters/ExAp01/sample35.txt 1.32702 9.66795 2.28028 0.32244 10.7334
files/tasks_parameters/ExAp01/sample47.txt 0.97944 6.84842 2.12104 0.251655 8.37707
files/tasks_parameters/ExAp01/sample49.txt 0.969038 7.1497 2.11412 0.255889 8.51802
files/tasks_parameters/ExAp01/sample41.txt 1.00904 6.59911 2.07359 0.265885 8.85077
