files/tasks_parameters/ExAp01/sample8.txt 1.86146 6.77015 2.19458 0.288816 5.18277
files/tasks_parameters/ExAp01/sample12.txt 2.19144 9.58351 2.46081 0.337498 6.05636
files/tasks_parameters/ExAp01/sample2.txt 2.0704 8.44418 2.50701 0.319127 5.7267
files/tasks_parameters/ExAp01/sample44.txt 1.82632 6.96299 2.23089 0.28229 5.06566
files/tasks_parameters/ExAp01/sample27.txt 1.84659 7.74306 2.16676 0.28602 5.13259
files/tasks_parameters/ExAp01/sample17.txt 1.89877 7.35053 2.25579 0.292348 5.24614
files/tasks_parameters/ExAp01/sample9.txt 1.83619 6.89392 2.21068 0.282399 5.06761
files/tasks_parameters/ExAp01/sample34.txt 1.93392 6.62788 2.3772 0.297742 5.34293
files/tasks_parameters/ExAp01/sample40.txt 1.85677 7.75686 2.17534 0.285619 5.1254
files/tasks_parameters/ExAp01/sample33.txt 2.18208 8.14826 2.6463 0.338073 6.06668
files/tasks_parameters/ExAp01/sample48.txt 1.73865 7.64107 2.14272 0.270011 4.84531
files/tasks_parameters/ExAp01/sample29.txt 1.82229 7.139 1.93769 0.286306 5.13772
files/tasks_parameters/ExAp01/sample11.txt 1.82067 6.88688 2.12981 0.280008 5.02471
files/tasks_parameters/ExAp01/sample14.txt 1.62324 6.11983 1.97599 0.247458 4.44059
files/tasks_parameters/ExAp01/sample0.txt 1.86579 8.2738 2.14256 0.289132 5.18843
files/tasks_parameters/ExAp01/sample7.txt 1.74756 6.87011 2.05821 0.269886 4.84306
files/tasks_parameters/ExAp01/sample23.txt 1.89296 6.52032 2.38087 0.291712 5.23472
files/tasks_parameters/ExAp01/sample13.txt 1.92383 8.73247 2.33415 0.295393 5.30078
files/tasks_parameters/ExAp01/sample22.txt 1.8111 6.9777 2.28948 0.283979 5.09597
files/tasks_parameters/ExAp01/sample25.txt 1.73736 6.23444 2.2122 0.267298 4.79662
files/tasks_parameters/ExAp01/sample36.txt 1.62486 6.6174 1.9458 0.253823 4.55481
files/tasks_parameters/ExAp01/sample46.txt 2.11846 7.42369 2.49128 0.327273 5.87287
files/tasks_parameters/ExAp01/sample31.txt 1.65818 7.22028 2.13584 0.25377 4.55386
files/tasks_parameters/ExAp01/sample37.txt 1.89747 8.90704 2.16981 0.295708 5.30644
files/tasks_parameters/ExAp01/sample16.txt 1.60408 8.18243 1.88294 0.24945 4.47634
files/tasks_parameters/ExAp01/sample10.txt 1.83684 6.96646 2.31217 0.285748 5.12771
files/tasks_parameters/ExAp01/sample39.txt 1.64024 6.4161 1.97266 0.251967 4.52151
files/tasks_parameters/ExAp01/sample19.txt 2.00017 8.16711 2.23199 0.308463 5.53532
files/tasks_parameters/ExAp01/sample20.txt 1.67575 7.28549 1.88944 0.25994 4.66458
files/tasks_parameters/ExAp01/sample43.txt 1.64421 6.86804 2.00142 0.25616 4.59676
files/tasks_parameters/ExAp01/sample32.txt 1.81817 8.15663 2.12995 0.281726 5.05554
files/tasks_parameters/ExAp01/sample45.txt 1.77228 7.75184 2.10599 0.274935 4.93367
files/tasks_parameters/ExAp01/sample26.txt 1.72907 7.4944 1.88956 0.267248 4.79573
files/tasks_parameters/ExAp01/sample5.txt 1.85147 8.08362 2.09961 0.28454 5.10604
files/tasks_parameters/ExAp01/sample21.txt 1.71268 6.11814 2.17119 0.26143 4.69132
files/tasks_parameters/ExAp01/sample38.txt 1.71839 7.761 1.96293 0.263659 4.73132
files/tasks_parameters/ExAp01/sample1.txt 1.87361 7.83752 2.13261 0.289228 5.19016
files/tasks_parameters/ExAp01/sample15.txt 1.85391 7.37971 2.12057 0.285825 5.1291
files/tasks_parameters/ExAp01/sample24.txt 1.91457 8.28531 2.25272 0.296628 5.32296
files/tasks_parameters/ExAp01/sample3.txt 1.96689 7.33359 2.39135 0.305084 5.4747
files/tasks_parameters/ExAp01/sample6.txt 1.83555 7.09894 2.24425 0.281804 5.05694
files/tasks_parameters/ExAp01/sample30.txt 1.94239 8.17669 2.03701 0.299204 5.36918
files/tasks_parameters/ExAp01/sample42.txt 1.92747 7.70416 2.42413 0.29743 5.33734
files/tasks_parameters/ExAp01/sample4.txt 1.97716 7.41691 2.36261 0.307803 5.52348
files/tasks_parameters/ExAp01/sample28.txt 1.71286 7.0562 2.07657 0.266428 4.78101
files/tasks_parameters/ExAp01/sample18.txt 1.71228 7.60139 2.1377 0.268016 4.80951
files/tasks_parameters/ExAp01/sample35.txt 2.06756 9.66795 2.28028 0.32244 5.78613
files/tasks_parameters/ExAp01/sample47.txt 1.62855 6.84842 2.12104 0.251655 4.51591
files/tasks_parameters/ExAp01/sample49.txt 1.65111 7.1497 2.11412 0.255889 4.59189
files/tasks_parameters/ExAp01/sample41.txt 1.72668 6.59911 2.07359 0.265885 4.77128
