files/tasks_parameters/ExAp01/sample8.txt 0.791465 3.15778 1.5595 0.203411 4.08294
files/tasks_parameters/ExAp01/sample12.txt 0.806027 3.94962 1.6705 0.207924 4.17352
files/tasks_parameters/ExAp01/sample2.txt 0.7723 3.78275 1.74131 0.200098 4.01643
files/tasks_parameters/ExAp01/sample44.txt 0.69082 3.59825 1.65317 0.200005 4.01457
files/tasks_parameters/ExAp01/sample27.txt 0.681226 3.45743 1.5148 0.182129 3.65574
files/tasks_parameters/ExAp01/sample17.txt 0.925109 2.77299 1.44514 0.14646 2.93979
files/tasks_parameters/ExAp01/sample9.txt 0.728395 2.99933 1.451 0.177444 3.56171
files/tasks_parameters/ExAp01/sample34.txt 0.831645 3.02928 1.58429 0.157984 3.1711
files/tasks_parameters/ExAp01/sample40.txt 0.764924 3.86889 1.52122 0.168379 3.37977
files/tasks_parameters/ExAp01/sample33.txt 0.805353 3.63695 1.71905 0.199765 4.00975
files/tasks_parameters/ExAp01/sample48.txt 0.682426 3.39061 1.49062 0.154728 3.10576
files/tasks_parameters/ExAp01/sample29.txt 0.736993 3.30472 1.38739 0.223868 4.49356
files/tasks_parameters/ExAp01/sample11.txt 0.707448 3.10585 1.41612 0.174079 3.49416
files/tasks_parameters/ExAp01/sample14.txt 0.65583 2.70971 1.43432 0.162214 3.25602
files/tasks_parameters/ExAp01/sample0.txt 0.7486 3.6937 1.5439 0.18367 3.68668
files/tasks_parameters/ExAp01/sample7.txt 0.809856 2.70501 1.42221 0.143463 2.87965
files/tasks_parameters/ExAp01/sample23.txt 0.75565 3.2697 1.57822 0.181448 3.64209
files/tasks_parameters/ExAp01/sample13.txt 0.733647 3.84225 1.67648 0.198247 3.97928
files/tasks_parameters/ExAp01/sample22.txt 0.879891 3.09569 1.56121 0.148796 2.98669
files/tasks_parameters/ExAp01/sample25.txt 0.746637 2.73966 1.5007 0.148149 2.97369
files/tasks_parameters/ExAp01/sample36.txt 0.75928 2.85948 1.28553 0.130042 2.61025
files/tasks_parameters/ExAp01/sample46.txt 0.753045 3.58643 1.69998 0.210103 4.21725
files/tasks_parameters/ExAp01/sample31.txt 0.691311 3.4832 1.53782 0.1722 3.45645
files/tasks_parameters/ExAp01/sample37.txt 0.776948 3.95293 1.50705 0.171701 3.44644
files/tasks_parameters/ExAp01/sample16.txt 0.606127 3.31216 1.30115 0.150249 3.01585
files/tasks_parameters/ExAp01/sample10.txt 1.08636 3.17098 1.61789 0.153776 3.08665
files/tasks_parameters/ExAp01/sample39.txt 0.699279 3.26617 1.44406 0.165669 3.32536
files/tasks_parameters/ExAp01/sample19.txt 0.73825 3.63532 1.52509 0.196094 3.93607
files/tasks_parameters/ExAp01/sample20.txt 0.662661 3.20793 1.25367 0.147335 2.95736
files/tasks_parameters/ExAp01/sample43.txt 0.648094 3.11551 1.4202 0.150644 3.02379
files/tasks_parameters/ExAp01/sample32.txt 0.722684 3.5311 1.42482 0.168744 3.38709
files/tasks_parameters/ExAp01/sample45.txt 0.748982 3.80283 1.48324 0.19807 3.97574
files/tasks_parameters/ExAp01/sample26.txt 0.63282 3.21645 1.29701 0.166061 3.33324
files/tasks_parameters/ExAp01/sample5.txt 0.636311 3.5889 1.52559 0.178903 3.59101
files/tasks_parameters/ExAp01/sample21.txt 0.680268 2.75242 1.55936 0.19512 3.91652
files/tasks_parameters/ExAp01/sample38.txt 0.664457 3.31563 1.37515 0.166157 3.33515
files/tasks_parameters/ExAp01/sample1.txt 0.729041 3.74964 1.51696 0.19701 3.95444
files/tasks_parameters/ExAp01/sample15.txt 0.698554 3.32916 1.48508 0.180707 3.62722
files/tasks_parameters/ExAp01/sample24.txt 0.843979 3.45951 1.59549 0.16529 3.31776
files/tasks_parameters/ExAp01/sample3.txt 0.896972 3.70014 1.70809 0.237107 4.75929
files/tasks_parameters/ExAp01/sample6.txt 0.730089 3.33003 1.58323 0.184714 3.70765
files/tasks_parameters/ExAp01/sample30.txt 0.810147 4.1841 1.4861 0.239623 4.80979
files/tasks_parameters/ExAp01/sample42.txt 0.747833 3.43221 1.70276 0.177383 3.56049
files/tasks_parameters/ExAp01/sample4.txt 0.785506 3.72477 1.6136 0.196448 3.94317
files/tasks_parameters/ExAp01/sample28.txt 0.689545 3.11323 1.45032 0.158819 3.18787
files/tasks_parameters/ExAp01/sample18.txt 0.769617 3.47418 1.45209 0.149064 2.99206
files/tasks_parameters/ExAp01/sample35.txt 0.806087 4.57086 1.49394 0.185031 3.714
files/tasks_parameters/ExAp01/sample47.txt 0.716344 3.13768 1.52397 0.16417 3.29528
files/tasks_parameters/ExAp01/sample49.txt 0.776571 3.13288 1.49657 0.156154 3.13438
files/tasks_parameters/ExAp01/sample41.txt 0.761871 2.81964 1.49636 0.150876 3.02843
