files/tasks_parameters/ExAp01/sample8.txt 1.43855 6.77015 2.19458 0.288816 6.2158
files/tasks_parameters/ExAp01/sample12.txt 1.68592 9.58351 2.46081 0.337498 7.26352
files/tasks_parameters/ExAp01/sample2.txt 1.60509 8.44418 2.50701 0.319127 6.86815
files/tasks_parameters/ExAp01/sample44.txt 1.41827 6.96299 2.23089 0.28229 6.07535
files/tasks_parameters/ExAp01/sample27.txt 1.42682 7.74306 2.16676 0.28602 6.15562
files/tasks_parameters/ExAp01/sample17.txt 1.45238 7.35053 2.25579 0.292348 6.2918
files/tasks_parameters/ExAp01/sample9.txt 1.41605 6.89392 2.21068 0.282399 6.07769
files/tasks_parameters/ExAp01/sample34.txt 1.48431 6.62788 2.3772 0.297742 6.40789
files/tasks_parameters/ExAp01/sample40.txt 1.42183 7.75686 2.17534 0.285619 6.147
files/tasks_parameters/ExAp01/sample33.txt 1.69337 8.14826 2.6463 0.338073 7.27589
files/tasks_parameters/ExAp01/sample48.txt 1.34161 7.64107 2.14272 0.270011 5.81109
files/tasks_parameters/ExAp01/sample29.txt 1.40739 7.139 1.93769 0.286306 6.16177
files/tasks_parameters/ExAp01/sample11.txt 1.40039 6.88688 2.12981 0.280008 6.02624
files/tasks_parameters/ExAp01/sample14.txt 1.23597 6.11983 1.97599 0.247458 5.3257
files/tasks_parameters/ExAp01/sample0.txt 1.44789 8.2738 2.14256 0.289132 6.22259
files/tasks_parameters/ExAp01/sample7.txt 1.36167 6.87011 2.05821 0.269886 5.80838
files/tasks_parameters/ExAp01/sample23.txt 1.45391 6.52032 2.38087 0.291712 6.27811
files/tasks_parameters/ExAp01/sample13.txt 1.47356 8.73247 2.33415 0.295393 6.35734
files/tasks_parameters/ExAp01/sample22.txt 1.40996 6.9777 2.28948 0.283979 6.1117
files/tasks_parameters/ExAp01/sample25.txt 1.34162 6.23444 2.2122 0.267298 5.75269
files/tasks_parameters/ExAp01/sample36.txt 1.26936 6.6174 1.9458 0.253823 5.46268
files/tasks_parameters/ExAp01/sample46.txt 1.6319 7.42369 2.49128 0.327273 7.04345
files/tasks_parameters/ExAp01/sample31.txt 1.26544 7.22028 2.13584 0.25377 5.46154
files/tasks_parameters/ExAp01/sample37.txt 1.48018 8.90704 2.16981 0.295708 6.36412
files/tasks_parameters/ExAp01/sample16.txt 1.27393 8.18243 1.88294 0.24945 5.36857
files/tasks_parameters/ExAp01/sample10.txt 1.42614 6.96646 2.31217 0.285748 6.14977
files/tasks_parameters/ExAp01/sample39.txt 1.25625 6.4161 1.97266 0.251967 5.42274
files/tasks_parameters/ExAp01/sample19.txt 1.54422 8.16711 2.23199 0.308463 6.63863
files/tasks_parameters/ExAp01/sample20.txt 1.30641 7.28549 1.88944 0.25994 5.59433
files/tasks_parameters/ExAp01/sample43.txt 1.2789 6.86804 2.00142 0.25616 5.51299
files/tasks_parameters/ExAp01/sample32.txt 1.39696 8.15663 2.12995 0.281726 6.06322
files/tasks_parameters/ExAp01/sample45.txt 1.36643 7.75184 2.10599 0.274935 5.91705
files/tasks_parameters/ExAp01/sample26.txt 1.32686 7.4944 1.88956 0.267248 5.75162
files/tasks_parameters/ExAp01/sample5.txt 1.40036 8.08362 2.09961 0.28454 6.12378
files/tasks_parameters/ExAp01/sample21.txt 1.31546 6.11814 2.17119 0.26143 5.6264
files/tasks_parameters/ExAp01/sample38.txt 1.3131 7.761 1.96293 0.263659 5.67437
files/tasks_parameters/ExAp01/sample1.txt 1.43323 7.83752 2.13261 0.289228 6.22467
files/tasks_parameters/ExAp01/sample15.txt 1.4318 7.37971 2.12057 0.285825 6.15143
files/tasks_parameters/ExAp01/sample24.txt 1.48199 8.28531 2.25272 0.296628 6.38393
files/tasks_parameters/ExAp01/sample3.txt 1.52641 7.33359 2.39135 0.305084 6.56592
files/tasks_parameters/ExAp01/sample6.txt 1.40272 7.09894 2.24425 0.281804 6.06489
files/tasks_parameters/ExAp01/sample30.txt 1.47513 8.17669 2.03701 0.299204 6.43937
files/tasks_parameters/ExAp01/sample42.txt 1.48081 7.70416 2.42413 0.29743 6.40118
files/tasks_parameters/ExAp01/sample4.txt 1.53375 7.41691 2.36261 0.307803 6.62442
files/tasks_parameters/ExAp01/sample28.txt 1.32467 7.0562 2.07657 0.266428 5.73397
files/tasks_parameters/ExAp01/sample18.txt 1.33374 7.60139 2.1377 0.268016 5.76815
files/tasks_parameters/ExAp01/sample35.txt 1.59926 9.66795 2.28028 0.32244 6.93943
files/tasks_parameters/ExAp01/sample47.txt 1.26186 6.84842 2.12104 0.251655 5.41602
files/tasks_parameters/ExAp01/sample49.txt 1.28017 7.1497 2.11412 0.255889 5.50715
files/tasks_parameters/ExAp01/sample41.txt 1.31828 6.59911 2.07359 0.265885 5.72229
