0 15
4 13
4 14
4 16
5 15
6 13
6 16
7 12
7 16
8 13
8 15
9 16
10 15
10 16
11 15
12 22
12 24
13 18
13 21
13 22
14 17
14 20
14 21
14 23
15 19
15 23
16 17
16 24
16 25
16 26
17 27
17 30
17 31
17 34
18 27
18 33
18 35
19 27
19 28
19 31
19 32
19 33
19 36
20 32
21 29
21 31
21 32
21 33
21 35
22 27
22 29
22 32
22 33
23 32
23 35
23 36
24 36
25 31
25 35
25 36
26 31
27 37
27 42
27 47
27 48
27 49
28 37
28 43
28 45
28 46
28 47
29 39
29 47
29 49
30 41
30 42
30 43
31 44
31 47
32 45
32 46
33 38
33 41
33 42
33 43
33 44
33 45
34 42
34 45
34 49
35 37
35 40
35 41
35 42
35 44
35 45
35 49
36 37
36 46
37 50
37 53
38 50
38 52
39 52
40 51
41 51
42 50
43 50
44 50
44 52
44 54
45 54
48 53
49 51
49 52
50 56
50 57
50 58
50 59
51 55
51 58
52 55
52 56
52 57
53 58
54 57
55 60
55 62
55 65
55 68
55 69
55 70
55 71
55 72
55 73
56 60
56 62
56 64
56 66
56 68
56 71
57 61
57 62
57 63
57 64
57 67
58 65
58 66
58 70
58 72
59 61
59 65
59 67
59 69
59 71
59 73
60 76
60 83
60 84
61 74
61 75
61 76
61 77
61 80
62 75
62 77
62 78
62 82
62 84
63 75
63 78
63 81
63 84
64 78
64 81
65 76
66 74
66 75
66 76
66 80
67 78
67 84
68 76
69 75
69 76
69 77
69 82
69 84
70 75
70 76
70 77
70 79
70 80
70 84
71 77
71 78
72 77
72 78
72 79
72 80
72 82
73 75
73 78
73 84
74 87
74 93
74 95
74 96
75 88
75 92
75 93
75 95
76 92
76 95
77 86
77 91
77 92
77 93
78 91
78 96
79 86
79 87
79 92
79 94
80 86
80 89
80 93
81 86
81 88
81 91
82 85
82 86
82 90
82 95
82 96
83 85
83 86
83 90
83 95
83 96
84 87
84 90
84 91
85 97
85 98
87 97
87 98
88 97
88 98
88 99
90 98
92 97
92 99
93 99
93 99
94 97
94 98
95 98
96 97
