0 16
0 21
0 24
1 19
1 24
2 14
2 15
2 17
2 20
3 14
3 16
4 19
5 17
5 19
6 14
6 21
6 22
6 24
7 17
7 19
7 22
7 24
8 14
8 17
8 21
8 23
8 24
9 17
9 24
10 16
11 17
11 21
12 17
12 19
12 20
12 21
13 14
13 18
13 21
13 21
14 25
14 29
14 31
15 25
15 28
15 32
16 25
16 31
16 32
18 25
18 32
19 26
19 27
20 25
20 28
20 29
20 30
21 27
21 29
21 30
22 26
23 26
23 30
23 31
24 29
24 31
25 36
25 38
25 40
25 41
26 33
26 34
26 36
26 37
26 40
27 33
27 34
27 36
27 37
27 40
27 41
28 33
28 38
28 39
29 35
29 39
29 41
30 37
30 38
31 33
31 35
31 37
31 39
32 36
32 40
32 41
33 44
33 46
33 47
34 43
34 44
34 47
34 48
34 49
35 44
35 47
35 49
36 47
37 42
37 49
39 45
40 42
40 44
41 44
41 46
41 47
41 49
42 52
42 54
42 57
42 59
43 50
43 54
43 56
43 57
43 61
44 50
44 51
44 53
44 56
44 60
45 53
45 55
45 59
45 60
45 61
46 50
46 55
46 60
46 61
47 54
47 60
48 51
48 52
48 55
48 57
48 58
49 52
49 55
49 57
50 67
50 70
51 62
51 64
51 68
52 62
52 65
52 66
52 67
52 69
53 63
53 65
53 66
53 70
54 63
54 70
55 62
55 63
56 62
56 65
56 70
57 62
57 66
57 67
57 70
58 65
58 67
59 64
60 64
61 62
61 70
62 73
62 75
63 73
63 75
63 77
64 71
64 72
64 73
64 75
64 76
64 77
65 75
65 76
65 77
66 72
67 71
68 73
68 74
69 71
70 76
71 80
71 82
71 83
71 84
71 87
72 80
72 82
72 85
73 82
73 84
74 78
74 80
75 78
75 79
75 84
75 85
75 86
76 79
76 81
77 81
77 81
78 91
78 93
78 97
79 88
79 89
79 93
79 94
79 96
79 97
80 89
80 92
80 93
80 97
81 95
81 96
81 97
82 89
82 94
82 95
83 91
83 93
83 94
83 95
84 88
84 90
84 96
85 88
85 90
85 93
86 91
86 92
86 94
86 96
87 97
88 98
90 98
91 98
92 98
95 99
96 98
