0 12
0 14
0 16
0 18
1 12
2 11
2 14
2 16
3 11
3 14
3 16
3 18
4 13
4 15
4 16
5 13
5 17
5 18
5 19
7 11
7 12
7 15
7 16
8 12
9 13
10 11
10 12
10 13
10 18
11 22
11 23
11 25
11 29
11 31
12 20
12 21
12 22
12 24
12 25
12 26
12 27
12 28
13 21
13 28
14 21
15 20
15 30
16 20
16 25
16 26
16 29
16 31
16 33
17 20
17 26
17 28
17 32
17 33
18 22
18 25
18 26
18 29
19 22
19 23
19 25
19 31
19 33
20 34
21 35
21 36
21 37
22 34
23 34
24 35
24 37
25 34
25 35
26 34
26 35
27 34
28 35
30 36
31 38
32 35
32 37
33 37
34 40
34 43
34 44
34 48
34 49
35 39
35 40
35 43
35 47
35 48
35 49
36 41
36 48
37 42
37 43
37 45
37 46
37 47
38 39
38 41
38 44
38 45
39 50
39 52
39 53
39 54
39 57
39 58
40 50
40 52
41 51
41 52
41 55
42 50
42 52
42 54
42 57
42 60
43 52
43 53
43 60
44 53
44 56
44 60
45 54
45 56
45 57
46 53
47 52
47 53
47 54
47 59
48 53
48 56
49 50
49 54
49 55
49 57
49 58
50 61
50 62
50 63
51 61
51 62
51 64
51 65
51 67
51 69
52 61
52 64
52 67
52 70
52 71
52 72
53 63
53 65
53 67
53 71
54 63
54 64
54 67
54 71
55 62
55 63
55 64
55 65
55 68
56 71
57 66
57 68
57 72
58 65
58 66
58 67
58 69
59 61
59 62
59 65
59 66
59 67
60 64
60 68
60 71
61 76
61 77
61 78
62 73
62 78
62 78
63 75
64 75
64 77
65 79
66 76
66 78
66 79
67 74
67 78
68 74
68 79
69 74
69 79
70 73
70 74
70 79
70 80
71 73
72 74
72 75
72 78
73 84
73 86
74 81
74 86
75 82
75 84
75 86
76 83
77 83
77 84
77 85
78 81
78 85
79 81
80 84
81 87
82 90
82 91
83 89
83 90
83 92
85 91
86 87
86 88
86 89
87 94
87 95
87 99
88 93
88 96
89 94
89 96
89 97
90 93
91 93
91 94
91 96
91 98
92 95
92 98
