0.316810821
Task0 15 31 1 
Task1 15 31 15 
Task2 7 31 1 
Task3 7 31 31 
Task4 7 31 31 
Task5 31 15 1 
Task6 31 7 15 
Task7 1 31 3 
Task8 31 31 15 
Task9 31 7 15 
Task10 1 3 31 
Task11 7 31 3 
Task12 63 127 31 
Task13 63 31 7 
Task14 255 31 255 
Task15 31 7 15 
Task16 63 15 15 
Task17 15 63 1 
Task18 31 31 15 
Task19 31 3 7 
Task20 63 7 7 
Task21 1 31 7 
Task22 63 1 3 
Task23 15 31 7 
Task24 31 31 7 
Task25 63 15 3 
Task26 63 15 15 
Task27 3 31 15 
Task28 3 7 31 
Task29 15 1 31 
Task30 63 63 31 
Task31 31 3 3 
Task32 15 3 31 
Task33 63 1 31 
Task34 7 31 15 
Task35 31 7 15 
Task36 7 7 31 
Task37 31 31 15 
Task38 127 255 255 
Task39 7 3 63 
Task40 31 31 15 
Task41 63 31 31 
Task42 3 15 31 
Task43 15 63 1 
Task44 31 3 31 
Task45 31 1 63 
Task46 7 31 63 
Task47 127 1 127 
Task48 31 31 63 
Task49 7 1 63 
Task50 63 15 7 
Task51 31 63 1 
Task52 31 31 31 
Task53 31 63 63 
Task54 31 7 1 
Task55 7 31 3 
Task56 31 15 15 
Task57 31 31 63 
Task58 31 1 15 
Task59 15 31 3 
Task60 31 3 3 
Task61 63 63 63 
Task62 1 63 7 
Task63 63 15 15 
Task64 7 3 31 
Task65 7 15 31 
Task66 7 7 31 
Task67 1 15 63 
Task68 3 7 31 
Task69 31 1 31 
Task70 31 3 15 
Task71 1 31 63 
Task72 63 7 15 
Task73 3 1 63 
Task74 31 31 7 
Task75 31 1 15 
Task76 255 127 63 
Task77 31 63 31 
Task78 7 15 31 
Task79 31 15 31 
Task80 15 3 15 
Task81 3 7 63 
Task82 7 15 31 
Task83 1 7 31 
Task84 15 15 63 
Task85 15 7 15 
Task86 31 63 31 
Task87 1 15 63 
Task88 15 63 31 
Task89 15 31 7 
Task90 31 7 127 
Task91 7 1 31 
Task92 15 31 3 
Task93 15 31 3 
Task94 3 63 3 
Task95 1 31 7 
Task96 31 15 1 
Task97 31 63 7 
Task98 63 15 15 
Task99 31 7 1 
