Task0 1 3 1 
Task1 3 1 1 
Task2 1 1 1 
Task3 1 1 1 
Task4 1 1 1 
Task5 1 3 1 
Task6 3 1 3 
Task7 3 3 1 
Task8 1 1 1 
Task9 1 3 3 
Task10 1 1 1 
Task11 3 7 15 
Task12 1 1 1 
Task13 1 7 3 
Task14 1 1 1 
Task15 1 7 1 
Task16 3 1 3 
Task17 3 1 3 
Task18 1 1 1 
Task19 1 3 1 
Task20 3 1 3 
Task21 1 1 1 
Task22 1 3 1 
Task23 3 1 1 
Task24 1 3 1 
Task25 1 1 3 
Task26 1 1 1 
Task27 1 1 1 
Task28 1 3 1 
Task29 1 1 1 
Task30 7 1 3 
Task31 1 1 1 
Task32 1 1 1 
Task33 3 1 1 
Task34 1 1 1 
Task35 1 3 3 
Task36 1 3 1 
Task37 1 1 3 
Task38 1 1 1 
Task39 1 1 1 
Task40 1 1 1 
Task41 3 1 1 
Task42 1 1 7 
Task43 3 1 1 
Task44 1 1 1 
Task45 1 1 1 
Task46 3 1 1 
Task47 1 1 1 
Task48 1 1 1 
Task49 1 1 1 
Task50 1 1 1 
Task51 1 1 1 
Task52 1 1 1 
Task53 1 1 3 
Task54 1 1 1 
Task55 1 1 1 
Task56 1 3 1 
Task57 7 3 1 
Task58 1 1 1 
Task59 1 1 1 
Task60 1 1 1 
Task61 1 1 1 
Task62 1 1 1 
Task63 1 1 3 
Task64 1 1 1 
Task65 1 1 7 
Task66 1 1 1 
Task67 1 1 1 
Task68 1 1 1 
Task69 1 1 1 
Task70 1 1 1 
Task71 1 1 1 
Task72 3 7 3 
Task73 1 1 1 
Task74 1 1 1 
Task75 3 1 1 
Task76 1 1 1 
Task77 1 1 1 
Task78 1 3 3 
Task79 1 3 3 
Task80 1 3 3 
Task81 1 1 1 
Task82 1 1 1 
Task83 3 1 3 
Task84 1 3 1 
Task85 1 1 1 
Task86 3 1 1 
Task87 1 1 3 
Task88 1 1 1 
Task89 1 1 1 
Task90 1 1 3 
Task91 1 1 1 
Task92 1 1 1 
Task93 15 3 7 
Task94 7 1 1 
Task95 1 1 3 
Task96 1 3 1 
Task97 1 1 3 
Task98 1 1 1 
Task99 1 3 3 
