0.297600978
Task0 7 1 15 
Task1 31 31 15 
Task2 63 63 31 
Task3 15 15 31 
Task4 31 31 15 
Task5 1 31 31 
Task6 1 1 15 
Task7 31 15 31 
Task8 63 7 15 
Task9 7 3 31 
Task10 15 15 15 
Task11 15 3 3 
Task12 7 7 63 
Task13 7 31 1 
Task14 15 15 3 
Task15 15 15 7 
Task16 3 7 31 
Task17 3 15 31 
Task18 31 7 1 
Task19 31 63 7 
Task20 31 15 63 
Task21 7 1 31 
Task22 31 7 15 
Task23 7 7 15 
Task24 127 255 255 
Task25 15 7 7 
Task26 15 31 15 
Task27 15 15 15 
Task28 15 3 15 
Task29 7 31 1 
Task30 15 1 31 
Task31 15 7 15 
Task32 63 1 31 
Task33 7 15 7 
Task34 3 1 15 
Task35 15 7 31 
Task36 7 15 1 
Task37 3 7 31 
Task38 31 7 3 
Task39 3 1 31 
Task40 7 31 15 
Task41 31 7 15 
Task42 7 15 15 
Task43 31 15 7 
Task44 31 15 3 
Task45 7 31 1 
Task46 15 7 15 
Task47 63 255 127 
Task48 3 7 15 
Task49 31 7 7 
Task50 7 63 15 
Task51 15 31 31 
Task52 1 15 7 
Task53 15 7 15 
Task54 31 7 3 
Task55 31 63 31 
Task56 31 3 1 
Task57 63 31 3 
Task58 31 1 15 
Task59 7 31 31 
Task60 31 255 127 
Task61 7 31 31 
Task62 31 7 31 
Task63 7 3 15 
Task64 3 3 31 
Task65 1 15 15 
Task66 1 15 31 
Task67 7 7 31 
Task68 63 3 255 
Task69 31 15 7 
Task70 15 31 3 
Task71 7 31 7 
Task72 63 15 3 
Task73 3 3 31 
Task74 1 7 15 
Task75 3 15 15 
Task76 15 7 31 
Task77 3 31 7 
Task78 31 63 63 
Task79 15 1 63 
Task80 31 31 3 
Task81 3 15 1 
Task82 63 31 15 
Task83 31 63 7 
Task84 7 7 31 
Task85 31 3 7 
Task86 15 3 63 
Task87 1 3 15 
Task88 15 1 31 
Task89 31 3 1 
Task90 31 1 15 
Task91 63 15 15 
Task92 7 3 31 
Task93 63 63 127 
Task94 7 15 31 
Task95 15 7 15 
Task96 7 15 3 
Task97 15 31 31 
Task98 31 15 15 
Task99 15 15 15 
