Task0 7 15 1 
Task1 1 1 1 
Task2 3 3 1 
Task3 3 3 1 
Task4 1 1 1 
Task5 1 1 1 
Task6 1 1 1 
Task7 1 1 1 
Task8 1 1 1 
Task9 1 1 1 
Task10 1 1 1 
Task11 1 1 1 
Task12 1 1 1 
Task13 3 1 1 
Task14 1 1 1 
Task15 1 1 1 
Task16 1 1 1 
Task17 1 1 1 
Task18 1 1 3 
Task19 15 1 15 
Task20 3 15 31 
Task21 3 1 3 
Task22 1 1 1 
Task23 1 1 1 
Task24 1 1 3 
Task25 1 3 1 
Task26 1 1 1 
Task27 1 1 1 
Task28 3 3 1 
Task29 1 1 1 
Task30 1 1 1 
Task31 3 1 1 
Task32 1 1 1 
Task33 1 1 1 
Task34 1 1 1 
Task35 1 1 1 
Task36 3 3 1 
Task37 1 1 1 
Task38 1 1 1 
Task39 3 1 1 
Task40 1 1 3 
Task41 1 1 1 
Task42 1 1 3 
Task43 1 1 1 
Task44 1 1 1 
Task45 1 1 1 
Task46 3 1 1 
Task47 1 1 1 
Task48 1 1 1 
Task49 1 1 1 
Task50 1 3 1 
Task51 1 3 1 
Task52 1 1 1 
Task53 1 3 3 
Task54 1 3 1 
Task55 1 1 3 
Task56 1 1 1 
Task57 1 1 1 
Task58 1 1 1 
Task59 1 1 1 
Task60 1 7 7 
Task61 1 1 1 
Task62 1 1 1 
Task63 1 7 1 
Task64 1 1 1 
Task65 1 1 1 
Task66 1 1 1 
Task67 1 1 1 
Task68 3 1 1 
Task69 1 1 1 
Task70 1 1 1 
Task71 1 1 1 
Task72 1 1 1 
Task73 1 1 1 
Task74 7 63 31 
Task75 1 3 1 
Task76 1 1 3 
Task77 1 1 1 
Task78 1 1 1 
Task79 1 1 1 
Task80 1 1 1 
Task81 1 1 1 
Task82 1 1 1 
Task83 1 1 1 
Task84 3 7 7 
Task85 3 1 1 
Task86 1 3 1 
Task87 1 1 1 
Task88 1 1 1 
Task89 1 1 1 
Task90 1 1 1 
Task91 1 3 3 
Task92 1 7 1 
Task93 1 3 3 
Task94 1 1 1 
Task95 1 1 1 
Task96 1 1 1 
Task97 1 1 1 
Task98 1 1 1 
Task99 1 1 1 
