files/tasks_parameters/ExAp01/sample8.txt 1.09757 7.2562 4.46819 0.454772 17.9803
files/tasks_parameters/ExAp01/sample12.txt 1.52326 9.70908 5.28286 0.618515 24.4542
files/tasks_parameters/ExAp01/sample2.txt 1.41731 8.14159 5.7401 0.620531 24.534
files/tasks_parameters/ExAp01/sample44.txt 1.3269 7.25164 5.75904 0.557631 22.0471
files/tasks_parameters/ExAp01/sample27.txt 1.31121 8.10944 5.64946 0.564878 22.3336
files/tasks_parameters/ExAp01/sample17.txt 1.2176 7.11225 5.46658 0.527183 20.8433
files/tasks_parameters/ExAp01/sample9.txt 1.18983 7.62559 5.37813 0.517277 20.4516
files/tasks_parameters/ExAp01/sample34.txt 1.21864 7.04587 5.93037 0.497709 19.6779
files/tasks_parameters/ExAp01/sample40.txt 1.16039 8.03037 5.123 0.502383 19.8627
files/tasks_parameters/ExAp01/sample33.txt 1.54703 9.22935 5.92956 0.659262 26.0653
files/tasks_parameters/ExAp01/sample48.txt 1.07893 8.12182 5.1577 0.452491 17.8901
files/tasks_parameters/ExAp01/sample29.txt 1.49293 8.06133 5.12331 0.650652 25.7249
files/tasks_parameters/ExAp01/sample11.txt 1.30472 7.63104 5.37897 0.563302 22.2713
files/tasks_parameters/ExAp01/sample14.txt 1.11143 6.66403 4.66322 0.471536 18.6431
files/tasks_parameters/ExAp01/sample0.txt 1.46321 9.3266 4.98971 0.6311 24.9518
files/tasks_parameters/ExAp01/sample7.txt 1.22526 7.34863 5.19436 0.515527 20.3824
files/tasks_parameters/ExAp01/sample23.txt 1.36438 6.68564 5.54308 0.588617 23.2722
files/tasks_parameters/ExAp01/sample13.txt 1.46815 9.31093 5.35591 0.632849 25.021
files/tasks_parameters/ExAp01/sample22.txt 1.30234 7.65588 5.04866 0.540336 21.3633
files/tasks_parameters/ExAp01/sample25.txt 1.0025 6.17035 5.0141 0.408296 16.1428
files/tasks_parameters/ExAp01/sample36.txt 1.18783 7.03772 4.66274 0.507647 20.0709
files/tasks_parameters/ExAp01/sample46.txt 1.26493 7.73433 4.79934 0.536843 21.2252
files/tasks_parameters/ExAp01/sample31.txt 1.16849 6.96928 5.16482 0.485817 19.2078
files/tasks_parameters/ExAp01/sample37.txt 1.5345 9.52443 5.74224 0.65799 26.015
files/tasks_parameters/ExAp01/sample16.txt 1.30275 8.63521 4.97261 0.516328 20.4141
files/tasks_parameters/ExAp01/sample10.txt 1.40499 7.28353 6.16876 0.615651 24.341
files/tasks_parameters/ExAp01/sample39.txt 1.10416 6.3405 4.6137 0.468873 18.5379
files/tasks_parameters/ExAp01/sample19.txt 1.39059 8.85528 5.22306 0.622152 24.5981
files/tasks_parameters/ExAp01/sample20.txt 1.35626 8.1141 5.21177 0.586994 23.208
files/tasks_parameters/ExAp01/sample43.txt 1.24171 7.21373 5.6367 0.53748 21.2504
files/tasks_parameters/ExAp01/sample32.txt 1.39043 8.30592 5.38137 0.593918 23.4818
files/tasks_parameters/ExAp01/sample45.txt 1.25309 7.94069 4.96323 0.547271 21.6375
files/tasks_parameters/ExAp01/sample26.txt 1.11798 7.57061 4.62637 0.480146 18.9835
files/tasks_parameters/ExAp01/sample5.txt 1.36631 8.0307 5.35681 0.59407 23.4878
files/tasks_parameters/ExAp01/sample21.txt 1.03251 5.87802 4.61744 0.434264 17.1695
files/tasks_parameters/ExAp01/sample38.txt 1.15589 7.66999 4.86632 0.496808 19.6423
files/tasks_parameters/ExAp01/sample1.txt 1.17015 7.21312 4.63213 0.486293 19.2266
files/tasks_parameters/ExAp01/sample15.txt 1.2315 8.02273 5.50855 0.531063 20.9966
files/tasks_parameters/ExAp01/sample24.txt 1.32598 8.66348 5.4905 0.548998 21.7058
files/tasks_parameters/ExAp01/sample3.txt 1.11957 7.74268 4.79918 0.477387 18.8745
files/tasks_parameters/ExAp01/sample6.txt 1.42808 8.57133 5.80157 0.633604 25.0508
files/tasks_parameters/ExAp01/sample30.txt 1.53213 8.18878 5.90888 0.633576 25.0497
files/tasks_parameters/ExAp01/sample42.txt 1.31981 8.57689 5.67253 0.54426 21.5184
files/tasks_parameters/ExAp01/sample4.txt 1.27608 8.40354 4.57985 0.563519 22.2799
files/tasks_parameters/ExAp01/sample28.txt 1.0381 6.44114 4.96426 0.449721 17.7806
files/tasks_parameters/ExAp01/sample18.txt 1.34792 8.56363 4.60946 0.543766 21.4989
files/tasks_parameters/ExAp01/sample35.txt 1.83809 11.0387 6.34514 0.761377 30.1026
files/tasks_parameters/ExAp01/sample47.txt 1.22564 7.14493 5.22131 0.545046 21.5495
files/tasks_parameters/ExAp01/sample49.txt 1.2432 6.65996 4.80244 0.498533 19.7105
files/tasks_parameters/ExAp01/sample41.txt 1.14834 7.09069 5.35462 0.497129 19.655
