files/tasks_parameters/ExAp01/sample8.txt 1.10576 6.77015 2.19458 0.288816 11.4189
files/tasks_parameters/ExAp01/sample12.txt 1.28622 9.58351 2.46081 0.337498 13.3437
files/tasks_parameters/ExAp01/sample2.txt 1.12232 8.44418 2.50701 0.319127 12.6173
files/tasks_parameters/ExAp01/sample44.txt 0.989905 6.96299 2.23089 0.28229 11.1609
files/tasks_parameters/ExAp01/sample27.txt 1.10144 7.74306 2.16676 0.28602 11.3084
files/tasks_parameters/ExAp01/sample17.txt 1.05134 7.35053 2.25579 0.292348 11.5586
files/tasks_parameters/ExAp01/sample9.txt 1.07344 6.89392 2.21068 0.282399 11.1652
files/tasks_parameters/ExAp01/sample34.txt 1.04936 6.62788 2.3772 0.297742 11.7718
files/tasks_parameters/ExAp01/sample40.txt 1.05736 7.75686 2.17534 0.285619 11.2925
files/tasks_parameters/ExAp01/sample33.txt 1.24953 8.14826 2.6463 0.338073 13.3664
files/tasks_parameters/ExAp01/sample48.txt 1.01967 7.64107 2.14272 0.270011 10.6754
files/tasks_parameters/ExAp01/sample29.txt 1.14532 7.139 1.93769 0.286306 11.3197
files/tasks_parameters/ExAp01/sample11.txt 0.997458 6.88688 2.12981 0.280008 11.0707
files/tasks_parameters/ExAp01/sample14.txt 0.844024 6.11983 1.97599 0.247458 9.78374
files/tasks_parameters/ExAp01/sample0.txt 1.07746 8.2738 2.14256 0.289132 11.4314
files/tasks_parameters/ExAp01/sample7.txt 0.98992 6.87011 2.05821 0.269886 10.6705
files/tasks_parameters/ExAp01/sample23.txt 1.06049 6.52032 2.38087 0.291712 11.5334
files/tasks_parameters/ExAp01/sample13.txt 1.08095 8.73247 2.33415 0.295393 11.6789
files/tasks_parameters/ExAp01/sample22.txt 0.998432 6.9777 2.28948 0.283979 11.2277
files/tasks_parameters/ExAp01/sample25.txt 0.875362 6.23444 2.2122 0.267298 10.5682
files/tasks_parameters/ExAp01/sample36.txt 0.958012 6.6174 1.9458 0.253823 10.0354
files/tasks_parameters/ExAp01/sample46.txt 1.22636 7.42369 2.49128 0.327273 12.9394
files/tasks_parameters/ExAp01/sample31.txt 0.936451 7.22028 2.13584 0.25377 10.0333
files/tasks_parameters/ExAp01/sample37.txt 1.05847 8.90704 2.16981 0.295708 11.6914
files/tasks_parameters/ExAp01/sample16.txt 0.936432 8.18243 1.88294 0.24945 9.8625
files/tasks_parameters/ExAp01/sample10.txt 1.0517 6.96646 2.31217 0.285748 11.2976
files/tasks_parameters/ExAp01/sample39.txt 0.932387 6.4161 1.97266 0.251967 9.96202
files/tasks_parameters/ExAp01/sample19.txt 1.17568 8.16711 2.23199 0.308463 12.1957
files/tasks_parameters/ExAp01/sample20.txt 0.931156 7.28549 1.88944 0.25994 10.2773
files/tasks_parameters/ExAp01/sample43.txt 0.921234 6.86804 2.00142 0.25616 10.1278
files/tasks_parameters/ExAp01/sample32.txt 1.10078 8.15663 2.12995 0.281726 11.1386
files/tasks_parameters/ExAp01/sample45.txt 1.09503 7.75184 2.10599 0.274935 10.8701
files/tasks_parameters/ExAp01/sample26.txt 0.949673 7.4944 1.88956 0.267248 10.5662
files/tasks_parameters/ExAp01/sample5.txt 1.04507 8.08362 2.09961 0.28454 11.2499
files/tasks_parameters/ExAp01/sample21.txt 0.969643 6.11814 2.17119 0.26143 10.3362
files/tasks_parameters/ExAp01/sample38.txt 0.954105 7.761 1.96293 0.263659 10.4243
files/tasks_parameters/ExAp01/sample1.txt 1.15434 7.83752 2.13261 0.289228 11.4352
files/tasks_parameters/ExAp01/sample15.txt 1.01524 7.37971 2.12057 0.285825 11.3007
files/tasks_parameters/ExAp01/sample24.txt 1.0498 8.28531 2.25272 0.296628 11.7278
files/tasks_parameters/ExAp01/sample3.txt 1.2599 7.33359 2.39135 0.305084 12.0621
files/tasks_parameters/ExAp01/sample6.txt 0.981445 7.09894 2.24425 0.281804 11.1417
files/tasks_parameters/ExAp01/sample30.txt 1.21726 8.17669 2.03701 0.299204 11.8297
files/tasks_parameters/ExAp01/sample42.txt 1.03122 7.70416 2.42413 0.29743 11.7595
files/tasks_parameters/ExAp01/sample4.txt 1.19658 7.41691 2.36261 0.307803 12.1696
files/tasks_parameters/ExAp01/sample28.txt 0.997079 7.0562 2.07657 0.266428 10.5338
files/tasks_parameters/ExAp01/sample18.txt 0.932645 7.60139 2.1377 0.268016 10.5966
files/tasks_parameters/ExAp01/sample35.txt 1.19001 9.66795 2.28028 0.32244 12.7483
files/tasks_parameters/ExAp01/sample47.txt 0.943843 6.84842 2.12104 0.251655 9.94968
files/tasks_parameters/ExAp01/sample49.txt 0.934757 7.1497 2.11412 0.255889 10.1171
files/tasks_parameters/ExAp01/sample41.txt 0.943303 6.59911 2.07359 0.265885 10.5123
