files/tasks_parameters/ExAp01/sample8.txt 0.867984 3.15778 1.5595 0.203411 3.63925
files/tasks_parameters/ExAp01/sample12.txt 0.991641 3.94962 1.6705 0.207924 3.71999
files/tasks_parameters/ExAp01/sample2.txt 0.937228 3.78275 1.74131 0.200098 3.57997
files/tasks_parameters/ExAp01/sample44.txt 0.894265 3.59825 1.65317 0.200005 3.57831
files/tasks_parameters/ExAp01/sample27.txt 0.828954 3.45743 1.5148 0.182129 3.25848
files/tasks_parameters/ExAp01/sample17.txt 0.725239 2.77299 1.44514 0.14646 2.62033
files/tasks_parameters/ExAp01/sample9.txt 0.809301 2.99933 1.451 0.177444 3.17466
files/tasks_parameters/ExAp01/sample34.txt 0.750248 3.02928 1.58429 0.157984 2.8265
files/tasks_parameters/ExAp01/sample40.txt 0.803702 3.86889 1.52122 0.168379 3.01249
files/tasks_parameters/ExAp01/sample33.txt 0.857354 3.63695 1.71905 0.199765 3.57401
files/tasks_parameters/ExAp01/sample48.txt 0.740489 3.39061 1.49062 0.154728 2.76826
files/tasks_parameters/ExAp01/sample29.txt 0.94692 3.30472 1.38739 0.223868 4.00525
files/tasks_parameters/ExAp01/sample11.txt 0.78053 3.10585 1.41612 0.174079 3.11446
files/tasks_parameters/ExAp01/sample14.txt 0.701838 2.70971 1.43432 0.162214 2.90219
files/tasks_parameters/ExAp01/sample0.txt 0.875112 3.6937 1.5439 0.18367 3.28605
files/tasks_parameters/ExAp01/sample7.txt 0.71645 2.70501 1.42221 0.143463 2.56672
files/tasks_parameters/ExAp01/sample23.txt 0.848388 3.2697 1.57822 0.181448 3.24631
files/tasks_parameters/ExAp01/sample13.txt 0.913025 3.84225 1.67648 0.198247 3.54686
files/tasks_parameters/ExAp01/sample22.txt 0.726584 3.09569 1.56121 0.148796 2.66213
files/tasks_parameters/ExAp01/sample25.txt 0.635901 2.73966 1.5007 0.148149 2.65054
files/tasks_parameters/ExAp01/sample36.txt 0.640051 2.85948 1.28553 0.130042 2.3266
files/tasks_parameters/ExAp01/sample46.txt 0.901926 3.58643 1.69998 0.210103 3.75897
files/tasks_parameters/ExAp01/sample31.txt 0.860404 3.4832 1.53782 0.1722 3.08085
files/tasks_parameters/ExAp01/sample37.txt 0.840462 3.95293 1.50705 0.171701 3.07192
files/tasks_parameters/ExAp01/sample16.txt 0.748597 3.31216 1.30115 0.150249 2.68812
files/tasks_parameters/ExAp01/sample10.txt 0.778352 3.17098 1.61789 0.153776 2.75123
files/tasks_parameters/ExAp01/sample39.txt 0.747363 3.26617 1.44406 0.165669 2.964
files/tasks_parameters/ExAp01/sample19.txt 0.915594 3.63532 1.52509 0.196094 3.50834
files/tasks_parameters/ExAp01/sample20.txt 0.688706 3.20793 1.25367 0.147335 2.63599
files/tasks_parameters/ExAp01/sample43.txt 0.692426 3.11551 1.4202 0.150644 2.69519
files/tasks_parameters/ExAp01/sample32.txt 0.840066 3.5311 1.42482 0.168744 3.01902
files/tasks_parameters/ExAp01/sample45.txt 0.915723 3.80283 1.48324 0.19807 3.5437
files/tasks_parameters/ExAp01/sample26.txt 0.752968 3.21645 1.29701 0.166061 2.97102
files/tasks_parameters/ExAp01/sample5.txt 0.818021 3.5889 1.52559 0.178903 3.20078
files/tasks_parameters/ExAp01/sample21.txt 0.846677 2.75242 1.55936 0.19512 3.49092
files/tasks_parameters/ExAp01/sample38.txt 0.76511 3.31563 1.37515 0.166157 2.97273
files/tasks_parameters/ExAp01/sample1.txt 0.900434 3.74964 1.51696 0.19701 3.52472
files/tasks_parameters/ExAp01/sample15.txt 0.824822 3.32916 1.48508 0.180707 3.23305
files/tasks_parameters/ExAp01/sample24.txt 0.800132 3.45951 1.59549 0.16529 2.95723
files/tasks_parameters/ExAp01/sample3.txt 1.03846 3.70014 1.70809 0.237107 4.24211
files/tasks_parameters/ExAp01/sample6.txt 0.815978 3.33003 1.58323 0.184714 3.30474
files/tasks_parameters/ExAp01/sample30.txt 1.13239 4.1841 1.4861 0.239623 4.28712
files/tasks_parameters/ExAp01/sample42.txt 0.814522 3.43221 1.70276 0.177383 3.17357
files/tasks_parameters/ExAp01/sample4.txt 0.953647 3.72477 1.6136 0.196448 3.51467
files/tasks_parameters/ExAp01/sample28.txt 0.736103 3.11323 1.45032 0.158819 2.84145
files/tasks_parameters/ExAp01/sample18.txt 0.743674 3.47418 1.45209 0.149064 2.66692
files/tasks_parameters/ExAp01/sample35.txt 0.942838 4.57086 1.49394 0.185031 3.3104
files/tasks_parameters/ExAp01/sample47.txt 0.773768 3.13768 1.52397 0.16417 2.93718
files/tasks_parameters/ExAp01/sample49.txt 0.77823 3.13288 1.49657 0.156154 2.79377
files/tasks_parameters/ExAp01/sample41.txt 0.696574 2.81964 1.49636 0.150876 2.69934
