files/tasks_parameters/ExAp01/sample8.txt 1.18801 6.77015 2.19458 0.288816 9.89964
files/tasks_parameters/ExAp01/sample12.txt 1.39195 9.58351 2.46081 0.337498 11.5683
files/tasks_parameters/ExAp01/sample2.txt 1.25124 8.44418 2.50701 0.319127 10.9386
files/tasks_parameters/ExAp01/sample44.txt 1.10366 6.96299 2.23089 0.28229 9.67595
files/tasks_parameters/ExAp01/sample27.txt 1.14358 7.74306 2.16676 0.28602 9.80378
files/tasks_parameters/ExAp01/sample17.txt 1.15377 7.35053 2.25579 0.292348 10.0207
files/tasks_parameters/ExAp01/sample9.txt 1.19344 6.89392 2.21068 0.282399 9.67966
files/tasks_parameters/ExAp01/sample34.txt 1.13016 6.62788 2.3772 0.297742 10.2056
files/tasks_parameters/ExAp01/sample40.txt 1.03264 7.75686 2.17534 0.285619 9.79005
files/tasks_parameters/ExAp01/sample33.txt 1.33128 8.14826 2.6463 0.338073 11.588
files/tasks_parameters/ExAp01/sample48.txt 1.01384 7.64107 2.14272 0.270011 9.25506
files/tasks_parameters/ExAp01/sample29.txt 1.26802 7.139 1.93769 0.286306 9.81358
files/tasks_parameters/ExAp01/sample11.txt 1.10198 6.88688 2.12981 0.280008 9.59773
files/tasks_parameters/ExAp01/sample14.txt 0.882061 6.11983 1.97599 0.247458 8.482
files/tasks_parameters/ExAp01/sample0.txt 1.15463 8.2738 2.14256 0.289132 9.91045
files/tasks_parameters/ExAp01/sample7.txt 1.02834 6.87011 2.05821 0.269886 9.25075
files/tasks_parameters/ExAp01/sample23.txt 1.17319 6.52032 2.38087 0.291712 9.99887
files/tasks_parameters/ExAp01/sample13.txt 1.2116 8.73247 2.33415 0.295393 10.125
files/tasks_parameters/ExAp01/sample22.txt 1.0556 6.9777 2.28948 0.283979 9.73383
files/tasks_parameters/ExAp01/sample25.txt 0.94367 6.23444 2.2122 0.267298 9.16205
files/tasks_parameters/ExAp01/sample36.txt 0.941922 6.6174 1.9458 0.253823 8.70017
files/tasks_parameters/ExAp01/sample46.txt 1.36847 7.42369 2.49128 0.327273 11.2178
files/tasks_parameters/ExAp01/sample31.txt 1.02403 7.22028 2.13584 0.25377 8.69836
files/tasks_parameters/ExAp01/sample37.txt 1.13177 8.90704 2.16981 0.295708 10.1359
files/tasks_parameters/ExAp01/sample16.txt 1.00544 8.18243 1.88294 0.24945 8.55028
files/tasks_parameters/ExAp01/sample10.txt 1.09193 6.96646 2.31217 0.285748 9.79446
files/tasks_parameters/ExAp01/sample39.txt 0.987133 6.4161 1.97266 0.251967 8.63656
files/tasks_parameters/ExAp01/sample19.txt 1.34496 8.16711 2.23199 0.308463 10.573
files/tasks_parameters/ExAp01/sample20.txt 1.05226 7.28549 1.88944 0.25994 8.90985
files/tasks_parameters/ExAp01/sample43.txt 0.979189 6.86804 2.00142 0.25616 8.78029
files/tasks_parameters/ExAp01/sample32.txt 1.13404 8.15663 2.12995 0.281726 9.65662
files/tasks_parameters/ExAp01/sample45.txt 1.21402 7.75184 2.10599 0.274935 9.42383
files/tasks_parameters/ExAp01/sample26.txt 1.06053 7.4944 1.88956 0.267248 9.16035
files/tasks_parameters/ExAp01/sample5.txt 1.18057 8.08362 2.09961 0.28454 9.75307
files/tasks_parameters/ExAp01/sample21.txt 1.10039 6.11814 2.17119 0.26143 8.96091
files/tasks_parameters/ExAp01/sample38.txt 1.04465 7.761 1.96293 0.263659 9.03732
files/tasks_parameters/ExAp01/sample1.txt 1.19574 7.83752 2.13261 0.289228 9.91375
files/tasks_parameters/ExAp01/sample15.txt 1.11838 7.37971 2.12057 0.285825 9.79712
files/tasks_parameters/ExAp01/sample24.txt 1.12256 8.28531 2.25272 0.296628 10.1674
files/tasks_parameters/ExAp01/sample3.txt 1.32024 7.33359 2.39135 0.305084 10.4573
files/tasks_parameters/ExAp01/sample6.txt 1.04616 7.09894 2.24425 0.281804 9.65929
files/tasks_parameters/ExAp01/sample30.txt 1.39065 8.17669 2.03701 0.299204 10.2557
files/tasks_parameters/ExAp01/sample42.txt 1.1263 7.70416 2.42413 0.29743 10.1949
files/tasks_parameters/ExAp01/sample4.txt 1.27644 7.41691 2.36261 0.307803 10.5504
files/tasks_parameters/ExAp01/sample28.txt 1.1395 7.0562 2.07657 0.266428 9.13224
files/tasks_parameters/ExAp01/sample18.txt 1.03565 7.60139 2.1377 0.268016 9.18667
files/tasks_parameters/ExAp01/sample35.txt 1.3751 9.66795 2.28028 0.32244 11.0521
files/tasks_parameters/ExAp01/sample47.txt 1.0136 6.84842 2.12104 0.251655 8.62586
files/tasks_parameters/ExAp01/sample49.txt 0.990863 7.1497 2.11412 0.255889 8.771
files/tasks_parameters/ExAp01/sample41.txt 1.04471 6.59911 2.07359 0.265885 9.11364
