files/tasks_parameters/ExAp01/sample8.txt 0.757854 3.15778 1.5595 0.203411 4.45612
files/tasks_parameters/ExAp01/sample12.txt 0.776326 3.94962 1.6705 0.207924 4.55498
files/tasks_parameters/ExAp01/sample2.txt 0.762531 3.78275 1.74131 0.200098 4.38353
files/tasks_parameters/ExAp01/sample44.txt 0.692775 3.59825 1.65317 0.200005 4.3815
files/tasks_parameters/ExAp01/sample27.txt 0.710091 3.45743 1.5148 0.182129 3.98988
files/tasks_parameters/ExAp01/sample17.txt 0.582943 2.77299 1.44514 0.14646 3.20849
files/tasks_parameters/ExAp01/sample9.txt 0.61117 2.99933 1.451 0.177444 3.88725
files/tasks_parameters/ExAp01/sample34.txt 0.578625 3.02928 1.58429 0.157984 3.46094
files/tasks_parameters/ExAp01/sample40.txt 0.614212 3.86889 1.52122 0.168379 3.68868
files/tasks_parameters/ExAp01/sample33.txt 0.841689 3.63695 1.71905 0.199765 4.37624
files/tasks_parameters/ExAp01/sample48.txt 0.602515 3.39061 1.49062 0.154728 3.38962
files/tasks_parameters/ExAp01/sample29.txt 0.755133 3.30472 1.38739 0.223868 4.90427
files/tasks_parameters/ExAp01/sample11.txt 0.661225 3.10585 1.41612 0.174079 3.81353
files/tasks_parameters/ExAp01/sample14.txt 0.663799 2.70971 1.43432 0.162214 3.55362
files/tasks_parameters/ExAp01/sample0.txt 0.699216 3.6937 1.5439 0.18367 4.02364
files/tasks_parameters/ExAp01/sample7.txt 0.568287 2.70501 1.42221 0.143463 3.14284
files/tasks_parameters/ExAp01/sample23.txt 0.650811 3.2697 1.57822 0.181448 3.97498
files/tasks_parameters/ExAp01/sample13.txt 0.722058 3.84225 1.67648 0.198247 4.34299
files/tasks_parameters/ExAp01/sample22.txt 0.572164 3.09569 1.56121 0.148796 3.25967
files/tasks_parameters/ExAp01/sample25.txt 0.551987 2.73966 1.5007 0.148149 3.24548
files/tasks_parameters/ExAp01/sample36.txt 0.519341 2.85948 1.28553 0.130042 2.84883
files/tasks_parameters/ExAp01/sample46.txt 0.753394 3.58643 1.69998 0.210103 4.60271
files/tasks_parameters/ExAp01/sample31.txt 0.670796 3.4832 1.53782 0.1722 3.77237
files/tasks_parameters/ExAp01/sample37.txt 0.681585 3.95293 1.50705 0.171701 3.76145
files/tasks_parameters/ExAp01/sample16.txt 0.606799 3.31216 1.30115 0.150249 3.2915
files/tasks_parameters/ExAp01/sample10.txt 0.589765 3.17098 1.61789 0.153776 3.36877
files/tasks_parameters/ExAp01/sample39.txt 0.690307 3.26617 1.44406 0.165669 3.6293
files/tasks_parameters/ExAp01/sample19.txt 0.720439 3.63532 1.52509 0.196094 4.29583
files/tasks_parameters/ExAp01/sample20.txt 0.572927 3.20793 1.25367 0.147335 3.22767
files/tasks_parameters/ExAp01/sample43.txt 0.575241 3.11551 1.4202 0.150644 3.30016
files/tasks_parameters/ExAp01/sample32.txt 0.61506 3.5311 1.42482 0.168744 3.69667
files/tasks_parameters/ExAp01/sample45.txt 0.724331 3.80283 1.48324 0.19807 4.33912
files/tasks_parameters/ExAp01/sample26.txt 0.622731 3.21645 1.29701 0.166061 3.63789
files/tasks_parameters/ExAp01/sample5.txt 0.693103 3.5889 1.52559 0.178903 3.91923
files/tasks_parameters/ExAp01/sample21.txt 0.653873 2.75242 1.55936 0.19512 4.27449
files/tasks_parameters/ExAp01/sample38.txt 0.636675 3.31563 1.37515 0.166157 3.63999
files/tasks_parameters/ExAp01/sample1.txt 0.734797 3.74964 1.51696 0.19701 4.31588
files/tasks_parameters/ExAp01/sample15.txt 0.696157 3.32916 1.48508 0.180707 3.95875
files/tasks_parameters/ExAp01/sample24.txt 0.612758 3.45951 1.59549 0.16529 3.62101
files/tasks_parameters/ExAp01/sample3.txt 0.898655 3.70014 1.70809 0.237107 5.19429
files/tasks_parameters/ExAp01/sample6.txt 0.691313 3.33003 1.58323 0.184714 4.04653
files/tasks_parameters/ExAp01/sample30.txt 0.939724 4.1841 1.4861 0.239623 5.24941
files/tasks_parameters/ExAp01/sample42.txt 0.689608 3.43221 1.70276 0.177383 3.88592
files/tasks_parameters/ExAp01/sample4.txt 0.719403 3.72477 1.6136 0.196448 4.30358
files/tasks_parameters/ExAp01/sample28.txt 0.597029 3.11323 1.45032 0.158819 3.47924
files/tasks_parameters/ExAp01/sample18.txt 0.559278 3.47418 1.45209 0.149064 3.26553
files/tasks_parameters/ExAp01/sample35.txt 0.703117 4.57086 1.49394 0.185031 4.05346
files/tasks_parameters/ExAp01/sample47.txt 0.632269 3.13768 1.52397 0.16417 3.59647
files/tasks_parameters/ExAp01/sample49.txt 0.577033 3.13288 1.49657 0.156154 3.42086
files/tasks_parameters/ExAp01/sample41.txt 0.571983 2.81964 1.49636 0.150876 3.30523
