files/tasks_parameters/ExAp01/sample8.txt 1.10098 6.77015 2.19458 0.288816 7.67484
files/tasks_parameters/ExAp01/sample12.txt 1.35159 9.58351 2.46081 0.337498 8.96849
files/tasks_parameters/ExAp01/sample2.txt 1.24952 8.44418 2.50701 0.319127 8.48031
files/tasks_parameters/ExAp01/sample44.txt 1.09502 6.96299 2.23089 0.28229 7.50142
files/tasks_parameters/ExAp01/sample27.txt 1.1243 7.74306 2.16676 0.28602 7.60053
files/tasks_parameters/ExAp01/sample17.txt 1.1048 7.35053 2.25579 0.292348 7.76868
files/tasks_parameters/ExAp01/sample9.txt 1.06833 6.89392 2.21068 0.282399 7.5043
files/tasks_parameters/ExAp01/sample34.txt 1.15218 6.62788 2.3772 0.297742 7.91202
files/tasks_parameters/ExAp01/sample40.txt 1.07161 7.75686 2.17534 0.285619 7.58988
files/tasks_parameters/ExAp01/sample33.txt 1.26318 8.14826 2.6463 0.338073 8.98376
files/tasks_parameters/ExAp01/sample48.txt 1.11234 7.64107 2.14272 0.270011 7.17512
files/tasks_parameters/ExAp01/sample29.txt 1.08301 7.139 1.93769 0.286306 7.60812
files/tasks_parameters/ExAp01/sample11.txt 1.05986 6.88688 2.12981 0.280008 7.44078
files/tasks_parameters/ExAp01/sample14.txt 0.936942 6.11983 1.97599 0.247458 6.5758
files/tasks_parameters/ExAp01/sample0.txt 1.10908 8.2738 2.14256 0.289132 7.68322
files/tasks_parameters/ExAp01/sample7.txt 1.02461 6.87011 2.05821 0.269886 7.17178
files/tasks_parameters/ExAp01/sample23.txt 1.10262 6.52032 2.38087 0.291712 7.75178
files/tasks_parameters/ExAp01/sample13.txt 1.12833 8.73247 2.33415 0.295393 7.84959
files/tasks_parameters/ExAp01/sample22.txt 1.12704 6.9777 2.28948 0.283979 7.5463
files/tasks_parameters/ExAp01/sample25.txt 1.02155 6.23444 2.2122 0.267298 7.10302
files/tasks_parameters/ExAp01/sample36.txt 1.00616 6.6174 1.9458 0.253823 6.74494
files/tasks_parameters/ExAp01/sample46.txt 1.30715 7.42369 2.49128 0.327273 8.69676
files/tasks_parameters/ExAp01/sample31.txt 0.968353 7.22028 2.13584 0.25377 6.74353
files/tasks_parameters/ExAp01/sample37.txt 1.22027 8.90704 2.16981 0.295708 7.85798
files/tasks_parameters/ExAp01/sample16.txt 1.0441 8.18243 1.88294 0.24945 6.62873
files/tasks_parameters/ExAp01/sample10.txt 1.11615 6.96646 2.31217 0.285748 7.5933
files/tasks_parameters/ExAp01/sample39.txt 0.956986 6.4161 1.97266 0.251967 6.69562
files/tasks_parameters/ExAp01/sample19.txt 1.20984 8.16711 2.23199 0.308463 8.19691
files/tasks_parameters/ExAp01/sample20.txt 0.985264 7.28549 1.88944 0.25994 6.90749
files/tasks_parameters/ExAp01/sample43.txt 0.974452 6.86804 2.00142 0.25616 6.80705
files/tasks_parameters/ExAp01/sample32.txt 1.07067 8.15663 2.12995 0.281726 7.48644
files/tasks_parameters/ExAp01/sample45.txt 1.07382 7.75184 2.10599 0.274935 7.30596
files/tasks_parameters/ExAp01/sample26.txt 1.01071 7.4944 1.88956 0.267248 7.10169
files/tasks_parameters/ExAp01/sample5.txt 1.09764 8.08362 2.09961 0.28454 7.56121
files/tasks_parameters/ExAp01/sample21.txt 0.990101 6.11814 2.17119 0.26143 6.94708
files/tasks_parameters/ExAp01/sample38.txt 0.991852 7.761 1.96293 0.263659 7.00632
files/tasks_parameters/ExAp01/sample1.txt 1.10367 7.83752 2.13261 0.289228 7.68578
files/tasks_parameters/ExAp01/sample15.txt 1.09425 7.37971 2.12057 0.285825 7.59536
files/tasks_parameters/ExAp01/sample24.txt 1.10877 8.28531 2.25272 0.296628 7.88243
files/tasks_parameters/ExAp01/sample3.txt 1.1714 7.33359 2.39135 0.305084 8.10714
files/tasks_parameters/ExAp01/sample6.txt 1.06502 7.09894 2.24425 0.281804 7.4885
files/tasks_parameters/ExAp01/sample30.txt 1.26227 8.17669 2.03701 0.299204 7.95088
files/tasks_parameters/ExAp01/sample42.txt 1.12664 7.70416 2.42413 0.29743 7.90373
files/tasks_parameters/ExAp01/sample4.txt 1.16085 7.41691 2.36261 0.307803 8.17937
files/tasks_parameters/ExAp01/sample28.txt 1.00806 7.0562 2.07657 0.266428 7.0799
files/tasks_parameters/ExAp01/sample18.txt 1.0574 7.60139 2.1377 0.268016 7.1221
files/tasks_parameters/ExAp01/sample35.txt 1.26822 9.66795 2.28028 0.32244 8.56833
files/tasks_parameters/ExAp01/sample47.txt 0.959927 6.84842 2.12104 0.251655 6.68733
files/tasks_parameters/ExAp01/sample49.txt 1.0408 7.1497 2.11412 0.255889 6.79985
files/tasks_parameters/ExAp01/sample41.txt 0.989297 6.59911 2.07359 0.265885 7.06548
