Task0 0.045424167126740425 0.1558306994969325 0.299615608294325 0.1998089777435609 0.6442045861113007 0.7083529463052146 0.5667814141657253 
Task1 0.021921554884900506 0.19389805384901876 0.24930503929494952 0.37168266462784494 0.40813954224097143 0.9564903346666109 0.4632755875130981 
Task2 0.1275055616958216 0.3243729844584272 0.2545608988033589 0.12667795547206623 0.9880613284449691 0.35687787357289835 0.38754581857175385 
Task3 0.038027647811861034 0.05616109607871195 0.09007632408410729 0.11524799722409533 0.8426925572999708 0.41915751663499967 0.757200178750332 
Task4 0.139053262706236 0.4652945410818837 0.16578614355880278 0.023173845392468015 0.7876236762878308 0.7542098975001297 0.35025004563259604 
Task5 0.028187909255837588 0.04917673887396713 0.07725943119500589 0.013950267169491975 0.35514889884012013 0.46357439764358116 0.440704940647657 
Task6 0.08663330321548847 0.3303896769625382 0.29409872147502264 0.2844852572354974 0.3795045216908539 0.663740282995861 0.9067766996286504 
Task7 0.1396192623366473 0.03947137239759536 0.10418616871253514 0.43123278191744246 0.4681632017003179 0.38728846056512334 0.374684398150148 
Task8 0.01539868419425768 0.1085424356194423 0.066101775269487 0.11988539319181843 0.9412616292771994 0.7204402260642632 0.4976453969738662 
Task9 0.014509337747377454 0.11509471435976212 0.15405478998713426 0.3991783682734606 0.9655038488632193 0.8504841564044832 0.7378911070509104 
Task10 0.001842457079133056 0.002263681883148345 0.0038495137969180356 0.0038543607186007586 0.9175073447501645 0.34227146920172774 0.6095505664557316 
Task11 0.03924975282922699 0.07986443522288529 0.09164711498665305 0.15219553262725577 0.8374594325662317 0.3250627576359005 0.6255864660370403 
Task12 0.1060836693974158 0.39225269470048685 0.4576196328559115 0.015884659984568263 0.5138810214797279 0.9532781026721706 0.7892820806960815 
Task13 0.0031100799235457316 0.004883103930995786 0.03685101774895247 0.012491214903798687 0.69509044285864 0.4184316237846676 0.3335694550634131 
Task14 0.03416222145035237 0.16464796231733694 0.13185196790222806 0.19695467435955524 0.48749643370147566 0.4002308270670188 0.8064234557390952 
Task15 0.09014249909114544 0.07242388653422432 0.17250467750099652 0.1516139526694751 0.4994958135062061 0.46443644428964326 0.8085787824108448 
Task16 0.006096411774497314 0.05421078527291888 0.036112259724977544 0.006966361399826282 0.4706847469931954 0.5156123710142619 0.9356085849917377 
Task17 0.020604449946404885 0.20738120642482413 0.16933986524048147 0.2097165087212252 0.5265098308050111 0.8668544109119558 0.47796417064295105 
Task18 0.04885707393976332 0.23817303008701554 0.2774246675596667 0.22475001533838482 0.804591721744282 0.631944039920182 0.40916666597097334 
Task19 0.09288617377811208 0.05716081904633818 0.1477245007969398 0.1777316627661444 0.5370907244496628 0.7155627803946893 0.7302794154937209 
Task20 0.1562976572003366 0.618996937285659 0.04666364365395776 0.13954159057927187 0.9724391134689665 0.6742886060931683 0.9237693858926963 
Task21 0.04449007017174443 0.25059943622730896 0.48523897006392647 0.10276222737818592 0.5125594608973301 0.7669319949799408 0.5271825545180842 
Task22 0.011196765304563564 0.027114535978555347 0.36671326633439427 0.11951276728091673 0.577457220203162 0.8684279854884582 0.549462671972505 
Task23 0.014705070456319537 0.052154885123611196 0.05400569327580775 0.03155986701932856 0.5893428328063344 0.4758725042660439 0.9927567583889576 
Task24 0.061426027750205836 0.5844697418816344 0.08053646664695098 0.01086357912194907 0.6692850000004974 0.8778973495696836 0.3728659031943547 
Task25 0.005040606543132295 0.032059428627276114 0.07742261564829332 0.032414347772492844 0.4504007885506254 0.9661185786964124 0.6692954161991356 
Task26 0.024765045068680897 0.12534640936445335 0.26424631589549247 0.16877747999157286 0.44621895657567306 0.6334012554373918 0.8522083248546757 
Task27 0.015572420054267897 0.15103433910940633 0.15444168494363306 0.15389296724557744 0.5106851830585217 0.564583239337294 0.43529571512052767 
Task28 0.12825542330734374 0.22562735358715946 0.21597050750351168 0.16430840313431222 0.6499063852159542 0.9101435802056179 0.40075310668856534 
Task29 0.03820240658997578 0.1512177699710927 0.10533655411729947 0.03666766865590019 0.9315100950056778 0.6842268190952148 0.5920616026661792 
Task30 0.12584776448685775 0.3335554697838342 0.1340870085026049 0.0896215399974117 0.967014569029562 0.7977844035144481 0.8519644902171877 
Task31 0.010688465390130915 0.01522322468282467 0.018989716538496026 0.018419509067660853 0.43186038797565984 0.6597284822660622 0.760042226614983 
Task32 0.02622963617772611 0.01387279672652016 0.06902050791296974 0.04120513304749425 0.3239338727219339 0.45738431138739144 0.9403371948843764 
Task33 0.034184819000751425 0.09029611906498095 0.04965807341093071 0.08156492628552993 0.7353011018663276 0.8053758662214971 0.6841332397613278 
Task34 0.038278352037039234 0.14547768922408638 0.027287701331498028 0.28361293931502013 0.7280388317985811 0.363904520434194 0.9005886861943915 
Task35 0.041178087839057714 0.12801281670180842 0.14070036372781708 0.2237887348055057 0.5996082591025809 0.5726341458144086 0.8384754959684189 
Task36 0.011775690181931062 0.23524673361251147 0.19891984200228688 0.3173863953655884 0.5424957794077795 0.8209888010717323 0.49083495392862775 
Task37 0.011186719885323841 0.08514008700302005 0.053148477540565196 0.017158395428098317 0.3966279791804451 0.7320193021571686 0.9548245394179049 
Task38 0.009833036460128692 0.04801449955870518 0.12136092944329507 0.06348133161057992 0.4249331464826024 0.964042376719179 0.9966761085460978 
Task39 0.05783294102241108 0.14507290608765358 0.17938704618311638 0.13460282941782756 0.40829042979301616 0.9747138088893734 0.9398769100099766 
Task40 0.030031980858718332 0.0074684581131267795 0.07049533872762792 0.0479264938239053 0.4905733449813952 0.6232914073573248 0.3320198629355242 
Task41 0.008823658354414845 0.029501756658938817 0.03897456380831573 0.004822463779078585 0.9800270139692842 0.9512634142656815 0.4870711508958955 
Task42 0.060303135855707075 0.11564929163786151 0.19176034992204555 0.36488052011703964 0.46199587693130306 0.8394055994458722 0.7962730151173516 
Task43 0.012218634977435059 0.05276690994992955 0.008722077630251448 0.05348705615175544 0.869534091484361 0.40973448150825864 0.6788496964202821 
Task44 0.08280114817035207 0.25699709051974506 0.09790384689461411 0.25883045139631145 0.7275876422143777 0.6236427568799947 0.6395112082386234 
Task45 0.0324525035612609 0.16808067997536436 0.06653014790871188 0.23868886723608893 0.6072121424177579 0.9760097853616609 0.9728839767655095 
Task46 0.11473383616795434 0.15310285550536012 0.22936509248508963 0.1771225139559503 0.8225255643979332 0.6787223975166254 0.7263837328223353 
Task47 0.009524939427268647 0.06518787640166376 0.017697313017581828 0.002857188009858449 0.5837363427607789 0.6115373316784993 0.49909258082312213 
Task48 0.0023759951247692454 0.14028972674323997 0.1262323485543345 0.10019015164598932 0.6788035302873661 0.45488566824075743 0.4740154768812217 
Task49 0.037800258368024975 0.06771686750823037 0.15903800264486415 0.11673544400889026 0.8867556723602521 0.5817167766713587 0.6104604607491764 
Task50 0.14399117405435638 0.20771059477311535 0.17791304429975435 0.2278284608082148 0.6692824622828302 0.7139242244158046 0.7090311212522756 
Task51 0.01697915689056266 0.14435317071257073 0.14957904178095527 0.28913495233060205 0.528182761289139 0.6592357686556549 0.9064678961483539 
Task52 0.12190884785471387 0.286977326917862 0.08349103000022517 0.2830070917835698 0.5912937157902678 0.5610712854438487 0.6006872181970667 
Task53 0.05341980515137597 0.22104154076251673 0.2148005358981334 0.19915880159384325 0.7050725857720374 0.5161116350832823 0.5248949220140765 
Task54 0.0454197025984141 0.06908937160389272 0.043148238457473675 0.1426736173440289 0.3107915122628988 0.5067563600428613 0.7282917074478383 
Task55 0.0881682805896214 0.17799771588014443 0.18483269072246308 0.22150686521265392 0.8460510397452516 0.734562117873427 0.6809470587739501 
Task56 0.0004761974385117744 0.002520852188845819 0.008049349759158494 0.0015894483386114054 0.5912722925585586 0.8889163170747616 0.7767793396958615 
Task57 0.06334804309071626 0.15836880657529423 0.25101443587412103 0.30086959068587643 0.685719989035253 0.6508805413949209 0.7973384904379825 
Task58 0.007009147055262824 0.09783243381541253 0.01433960810388542 0.15508714725873485 0.6097716849930266 0.3627596194725056 0.7040240328487223 
Task59 0.06603406360431543 0.08749093215875617 0.25600407115271134 0.479975893967158 0.5275532092886823 0.4274871864446287 0.8729427891354651 
Task60 0.12091675664466307 0.3083002563953573 0.2064462823505528 0.14036050450434664 0.3971989184224018 0.487841161001309 0.5785668143738123 
Task61 0.0021070205527777435 0.05773323029443468 0.07142436667499157 0.015241874642772144 0.5827400967473859 0.6901664020203284 0.5703280872995885 
Task62 0.01254338560347855 0.17119925161883978 0.14932491493166072 0.17717719039501392 0.623292759430399 0.6618431134800833 0.7637312885128866 
Task63 0.0005333041638054592 0.0007218749701261884 0.0005894087818215273 0.005742817000652685 0.6767566614420029 0.48896434224570634 0.4413261661274609 
Task64 0.00315753758094007 0.10077749411404237 0.03695260019521784 0.09824348994422899 0.6393259758224651 0.5834369381253264 0.529243289265117 
Task65 0.06226531939968505 0.4306423044326251 0.12252580086064814 0.2390799156224981 0.8943160110736121 0.8076492677229401 0.8459269776613894 
Task66 0.04011542871164798 0.17957910564150067 0.14027620639279004 0.10170140722147426 0.6037805066980123 0.4805147387389676 0.9557684289622819 
Task67 0.009224064384596498 0.08279580161519223 0.04109418271818884 0.32315004248968127 0.9851188506101158 0.6526055475707003 0.5202294309159957 
Task68 0.000502839380812156 0.017809866193403828 0.01242311422592316 0.006043733316807884 0.5896899801266032 0.4347188937145834 0.4355741883983011 
Task69 0.0068137419557360605 0.2770728854568443 0.39222889333667826 0.04822918464272486 0.5678677164572671 0.35812828929665663 0.4519379944038513 
Task70 0.05091895841096552 0.1248388123265733 0.11986771814178722 0.15694946931879686 0.32135286499597226 0.45503756912839666 0.39825332130160884 
Task71 0.005254981421367653 0.2567451740622512 0.21527175636334156 0.02236363454956459 0.9376891715247739 0.3870415511391112 0.5719913764696329 
Task72 0.021775016737761468 0.05776493048049144 0.38943783720389574 0.1349090649038896 0.6752432488310036 0.7726772122428728 0.8313964766031072 
Task73 0.003225795254219961 0.017517034016412348 0.016313405144181788 0.03156354373523939 0.4184782704092157 0.7397172613011489 0.6593324462319119 
Task74 0.00014619175441047463 0.0031802296495257528 0.0037376686171558377 0.007978018664172278 0.684303882413386 0.8410050973074199 0.9629121857960068 
Task75 0.041709299437664576 0.20289853346562592 0.07025177401654661 0.0361549791329456 0.6228729731974496 0.7579243435501137 0.42773103907871624 
Task76 0.06084099444063269 0.09494471320375325 0.06015733397588129 0.10264907712604256 0.45362195361052743 0.7561305572618948 0.5156477395779477 
Task77 0.07372839054953617 0.23679960814578477 0.08148592241934069 0.03506256917474673 0.4629175474225209 0.9810092423203205 0.8990188083273958 
Task78 0.0688116749626004 0.2764731645309483 0.408748654732517 0.024597068399433496 0.518439663025562 0.4275303240525865 0.5762291249433551 
Task79 0.025350813176037802 0.10502306252282087 0.2874034689760616 0.12804028286544206 0.8701849781948858 0.31783353331316616 0.40366456539638623 
Task80 0.09825589146118098 0.08386158004432685 0.11040639340902456 0.600912149027214 0.7547202391297021 0.6398032250110428 0.6231802845324361 
Task81 0.10019599689266948 0.24350859225786867 0.034884417964525065 0.17409138474433386 0.8407625351591559 0.9131732000475412 0.6379531005853666 
Task82 0.02571918311954506 0.06986431888445847 0.09291323082829624 0.022550763465321314 0.9729558369273474 0.6844324472588222 0.7114042969833085 
Task83 0.1086353246114208 0.06648992151105246 0.20791633465353546 0.2571369896918834 0.31411367172040755 0.9936016784720445 0.6842699804130588 
Task84 0.010477913050469892 0.05262836050458645 0.1388554235258538 0.13574635472640642 0.8567977767410089 0.36239677042183027 0.334656001115819 
Task85 0.04531940161083291 0.06497344496451311 0.05931108207253381 0.16109160475513168 0.6879362530688734 0.8853575068430226 0.614714828234382 
Task86 0.037013083077958 0.16705368526713654 0.28623843792135045 0.34550960194596547 0.8947591638229522 0.6169534324098448 0.6140289113765184 
Task87 0.0025821497818269324 0.03797569289138765 0.0126027957187317 0.002889710932654557 0.7728323588485553 0.7254804928896658 0.9858639228391752 
Task88 0.03763850419254892 0.0814508226265971 0.021474403535471996 0.07418571126687223 0.9662559938187072 0.6499180187590881 0.5617246238968625 
Task89 0.013670268551502855 0.25507062788575247 0.16135431759255275 0.0778066815072946 0.9746388228807625 0.4275702603974943 0.9459161579723645 
Task90 0.010046251940676187 0.38335344866081766 0.39157387605128846 0.19814238246691396 0.991735347281586 0.567523685735979 0.6987774454114679 
Task91 0.09976303657360518 0.1692610714264529 0.5005100272244105 0.013332727783670159 0.3199210178099952 0.8990783007815515 0.6539222168945064 
Task92 0.08243915759947047 0.12331516953386801 0.21616886922561157 0.10986166992979118 0.9190935115145924 0.6330904633446932 0.9363998847701132 
Task93 0.05555021125739061 0.05740796201585703 0.14886042996135948 0.12240013578477607 0.6110058936266904 0.9070953066666483 0.7223277175220465 
Task94 0.04438097105895327 0.20753205982715522 0.009733853519397042 0.1067477320799855 0.3982111561279308 0.4264742498976868 0.5433018701440712 
Task95 0.008865381729308626 0.021815843650098914 0.015407262481549597 0.026533963829401166 0.3152915263680438 0.5998810641640615 0.4741043255979646 
Task96 0.11015394247531535 0.5753022438046386 0.08767957183865037 0.06179098142749538 0.7604401536925041 0.9421422568120854 0.5626880592159733 
Task97 0.0846929052439709 0.27893097156158175 0.03908151811055897 0.09719423255471922 0.31509541006902364 0.4878500014588676 0.33969313527634215 
Task98 7.628127760941804e-05 0.09199385544163903 0.014964150245336707 0.12185435017608373 0.5650897508741035 0.7628624597709263 0.6534169972684003 
Task99 0.003172224395426511 0.011439130916719095 0.000787285747734496 0.009999213881562318 0.7676168122638343 0.544779683206604 0.4695585604684976 
