digraph G {
0 ->14 0 ->17 0 ->19 0 ->20 1 ->14 1 ->15 1 ->18 1 ->19 2 ->16 3 ->14 3 ->16 3 ->22 4 ->20 4 ->21 4 ->22 5 ->13 5 ->15 5 ->16 5 ->17 5 ->19 6 ->15 6 ->15 6 ->18 6 ->19 6 ->21 7 ->14 7 ->16 7 ->19 7 ->22 8 ->12 8 ->13 8 ->15 8 ->16 8 ->18 8 ->20 9 ->14 9 ->15 9 ->18 9 ->19 10 ->18 10 ->20 10 ->22 11 ->16 11 ->18 12 ->23 12 ->25 12 ->27 12 ->30 13 ->24 13 ->25 13 ->27 13 ->30 14 ->24 14 ->25 14 ->26 14 ->28 15 ->23 15 ->24 15 ->26 15 ->30 16 ->26 16 ->28 16 ->29 17 ->23 17 ->28 18 ->23 18 ->25 18 ->26 18 ->28 18 ->31 19 ->30 19 ->31 20 ->28 20 ->29 20 ->30 21 ->24 21 ->25 21 ->29 22 ->23 22 ->24 22 ->27 22 ->31 23 ->35 23 ->39 23 ->41 23 ->42 23 ->43 24 ->41 25 ->40 25 ->44 26 ->32 26 ->33 26 ->35 26 ->36 26 ->38 26 ->44 27 ->33 27 ->37 28 ->37 28 ->40 29 ->32 29 ->33 29 ->36 29 ->40 30 ->32 30 ->34 30 ->37 30 ->41 30 ->44 31 ->34 31 ->35 31 ->36 31 ->41 31 ->42 32 ->51 32 ->52 32 ->54 32 ->55 32 ->57 33 ->45 33 ->49 33 ->52 33 ->54 33 ->56 33 ->57 33 ->58 34 ->50 34 ->54 34 ->55 34 ->57 35 ->52 35 ->54 36 ->45 36 ->47 36 ->48 36 ->53 37 ->47 37 ->51 37 ->54 37 ->57 37 ->58 38 ->45 38 ->46 38 ->52 38 ->54 38 ->55 39 ->49 39 ->51 39 ->55 40 ->47 40 ->49 40 ->50 40 ->52 40 ->53 40 ->54 41 ->56 41 ->58 42 ->46 42 ->47 42 ->49 42 ->51 42 ->55 42 ->56 43 ->45 43 ->50 43 ->51 43 ->55 43 ->56 43 ->57 44 ->46 44 ->47 44 ->49 44 ->52 45 ->59 46 ->59 47 ->62 47 ->63 48 ->60 48 ->62 48 ->63 48 ->64 49 ->59 49 ->62 50 ->60 50 ->64 51 ->59 51 ->60 51 ->62 51 ->63 51 ->64 52 ->63 52 ->64 53 ->60 53 ->63 54 ->63 56 ->59 56 ->60 56 ->61 57 ->59 57 ->60 59 ->65 59 ->66 59 ->68 60 ->65 60 ->66 60 ->69 60 ->73 60 ->76 61 ->71 62 ->68 62 ->71 62 ->75 62 ->76 63 ->65 63 ->67 63 ->68 63 ->70 63 ->72 63 ->76 64 ->69 64 ->70 64 ->74 65 ->79 65 ->80 66 ->78 66 ->80 67 ->77 68 ->77 68 ->79 69 ->79 69 ->80 69 ->81 70 ->79 71 ->78 72 ->78 72 ->79 73 ->78 73 ->79 73 ->80 74 ->77 75 ->80 77 ->83 77 ->84 77 ->88 77 ->89 78 ->83 78 ->85 78 ->87 79 ->86 80 ->82 80 ->84 80 ->85 80 ->89 81 ->86 81 ->89 82 ->95 82 ->96 83 ->92 83 ->99 84 ->91 84 ->96 85 ->96 85 ->98 85 ->99 86 ->94 86 ->98 87 ->92 87 ->94 87 ->98 87 ->99 88 ->90 88 ->92 88 ->94 88 ->97 88 ->98 88 ->99 89 ->92 89 ->93 89 ->94 89 ->97 
}
