digraph G {
0 ->15 0 ->16 0 ->20 1 ->14 1 ->19 1 ->20 1 ->25 2 ->16 2 ->25 2 ->26 3 ->18 3 ->23 3 ->26 4 ->21 4 ->22 4 ->23 4 ->24 5 ->17 5 ->18 5 ->21 5 ->24 5 ->26 6 ->16 6 ->17 6 ->18 6 ->21 6 ->23 6 ->26 7 ->14 7 ->18 7 ->21 7 ->25 8 ->15 8 ->16 8 ->19 8 ->25 8 ->26 9 ->14 9 ->15 9 ->20 9 ->21 10 ->14 10 ->16 10 ->24 10 ->26 11 ->14 11 ->16 11 ->18 11 ->20 12 ->17 12 ->20 13 ->16 13 ->20 13 ->25 14 ->27 14 ->31 15 ->27 15 ->31 16 ->29 19 ->27 19 ->28 20 ->27 20 ->31 22 ->28 23 ->30 24 ->31 25 ->27 26 ->27 26 ->31 27 ->32 27 ->35 27 ->36 27 ->37 27 ->38 27 ->39 27 ->41 28 ->32 28 ->34 28 ->38 28 ->41 29 ->32 29 ->33 29 ->34 29 ->37 30 ->34 30 ->35 31 ->35 31 ->40 31 ->41 32 ->43 32 ->45 32 ->46 33 ->42 33 ->46 33 ->49 33 ->50 33 ->51 34 ->42 34 ->44 34 ->45 34 ->47 34 ->51 34 ->52 35 ->44 35 ->46 35 ->47 35 ->47 35 ->49 36 ->42 36 ->45 36 ->52 37 ->42 37 ->50 38 ->47 38 ->48 38 ->51 39 ->43 39 ->44 39 ->48 39 ->50 39 ->51 40 ->42 40 ->44 40 ->47 40 ->48 40 ->50 40 ->51 41 ->44 41 ->45 41 ->48 41 ->50 41 ->52 42 ->56 42 ->61 43 ->57 43 ->60 44 ->58 44 ->60 44 ->61 45 ->56 45 ->58 45 ->59 46 ->56 46 ->60 47 ->54 47 ->56 47 ->57 47 ->60 48 ->53 48 ->54 48 ->57 48 ->60 49 ->53 49 ->56 49 ->57 49 ->58 50 ->54 50 ->58 51 ->55 51 ->58 52 ->57 52 ->61 53 ->66 53 ->67 53 ->69 54 ->63 54 ->64 55 ->67 56 ->62 56 ->64 57 ->62 57 ->66 58 ->66 59 ->64 59 ->69 60 ->65 61 ->66 61 ->68 62 ->70 62 ->80 63 ->73 63 ->76 64 ->70 64 ->74 64 ->75 64 ->76 64 ->82 64 ->83 65 ->70 65 ->72 65 ->74 65 ->76 65 ->78 65 ->81 66 ->71 66 ->72 66 ->73 66 ->80 66 ->82 67 ->72 67 ->78 67 ->82 67 ->83 68 ->70 68 ->72 68 ->74 68 ->75 68 ->82 68 ->83 69 ->74 69 ->75 69 ->76 69 ->77 69 ->79 69 ->81 70 ->87 70 ->94 70 ->95 71 ->93 72 ->85 72 ->89 72 ->90 72 ->91 72 ->95 72 ->97 73 ->95 74 ->91 74 ->93 74 ->94 74 ->95 75 ->84 75 ->87 75 ->94 75 ->95 75 ->97 76 ->84 76 ->85 76 ->86 76 ->87 76 ->88 76 ->90 76 ->94 76 ->95 76 ->97 77 ->85 77 ->87 77 ->93 77 ->97 78 ->87 79 ->84 79 ->93 79 ->95 79 ->97 80 ->87 80 ->93 80 ->94 80 ->97 81 ->86 81 ->88 82 ->92 82 ->96 83 ->85 83 ->89 84 ->98 88 ->98 89 ->99 90 ->99 91 ->98 92 ->98 92 ->99 93 ->98 93 ->99 94 ->98 95 ->99 97 ->98 
}
