digraph G {
0 ->16 0 ->19 2 ->12 2 ->13 2 ->18 3 ->13 3 ->14 3 ->17 4 ->13 4 ->14 4 ->17 5 ->14 5 ->14 5 ->17 6 ->15 6 ->18 6 ->19 7 ->11 7 ->19 8 ->10 9 ->10 9 ->12 9 ->14 10 ->20 11 ->22 11 ->23 11 ->24 12 ->20 12 ->23 13 ->23 13 ->23 14 ->22 14 ->24 16 ->21 17 ->20 17 ->22 17 ->24 18 ->23 18 ->25 19 ->24 19 ->25 20 ->28 20 ->31 20 ->32 20 ->33 21 ->31 21 ->34 22 ->27 22 ->29 22 ->33 23 ->26 23 ->34 24 ->28 24 ->30 25 ->27 25 ->28 25 ->29 25 ->30 25 ->31 25 ->32 26 ->37 26 ->38 26 ->39 27 ->37 27 ->39 28 ->35 30 ->35 30 ->36 30 ->39 31 ->36 31 ->37 31 ->38 31 ->39 32 ->35 32 ->36 32 ->37 32 ->38 32 ->39 33 ->38 35 ->45 35 ->49 35 ->51 35 ->52 36 ->40 36 ->41 36 ->42 37 ->41 37 ->49 37 ->50 38 ->43 38 ->46 38 ->51 38 ->53 39 ->44 39 ->46 39 ->47 39 ->48 39 ->52 40 ->63 40 ->65 41 ->62 42 ->56 42 ->59 42 ->64 42 ->66 43 ->56 43 ->57 43 ->59 43 ->63 43 ->65 43 ->66 44 ->56 44 ->61 45 ->55 45 ->56 45 ->64 45 ->65 46 ->54 46 ->55 46 ->65 47 ->54 47 ->55 47 ->58 47 ->64 48 ->54 48 ->55 48 ->57 48 ->58 48 ->64 49 ->56 49 ->64 49 ->65 50 ->56 50 ->64 50 ->66 51 ->54 51 ->55 51 ->66 52 ->55 52 ->61 52 ->65 52 ->66 53 ->60 53 ->64 53 ->66 54 ->68 54 ->70 55 ->70 55 ->74 55 ->75 55 ->79 56 ->67 56 ->68 56 ->69 56 ->75 56 ->76 57 ->70 57 ->75 58 ->72 58 ->73 58 ->78 59 ->70 59 ->75 59 ->76 60 ->72 60 ->79 61 ->68 61 ->71 61 ->72 61 ->74 62 ->68 62 ->73 62 ->77 63 ->73 64 ->67 64 ->68 64 ->71 64 ->72 64 ->73 64 ->75 64 ->76 65 ->67 65 ->70 65 ->76 66 ->75 67 ->84 67 ->89 67 ->92 68 ->84 68 ->87 68 ->89 69 ->80 69 ->85 69 ->89 69 ->90 69 ->92 70 ->87 70 ->93 71 ->84 71 ->86 71 ->90 71 ->91 72 ->84 72 ->90 72 ->92 73 ->81 73 ->82 73 ->85 73 ->88 73 ->89 73 ->92 74 ->81 74 ->82 74 ->84 74 ->87 74 ->92 75 ->81 75 ->82 76 ->80 76 ->81 76 ->89 77 ->80 77 ->81 77 ->85 77 ->87 77 ->93 78 ->80 78 ->83 78 ->85 78 ->87 78 ->89 79 ->80 79 ->82 79 ->85 79 ->87 80 ->95 80 ->96 80 ->99 81 ->95 81 ->96 81 ->97 82 ->95 82 ->96 82 ->97 82 ->99 83 ->96 85 ->94 87 ->97 87 ->98 88 ->96 88 ->97 88 ->98 88 ->99 90 ->95 92 ->96 93 ->98 
}
