files/tasks_parameters/ExAp01/sample8.txt 0.847878 3.15778 1.5595 0.203411 4.48814
files/tasks_parameters/ExAp01/sample12.txt 0.963762 3.94962 1.6705 0.207924 4.58771
files/tasks_parameters/ExAp01/sample2.txt 0.912456 3.78275 1.74131 0.200098 4.41503
files/tasks_parameters/ExAp01/sample44.txt 0.872207 3.59825 1.65317 0.200005 4.41299
files/tasks_parameters/ExAp01/sample27.txt 0.807875 3.45743 1.5148 0.182129 4.01856
files/tasks_parameters/ExAp01/sample17.txt 0.703497 2.77299 1.44514 0.14646 3.23155
files/tasks_parameters/ExAp01/sample9.txt 0.806081 2.99933 1.451 0.177444 3.91518
files/tasks_parameters/ExAp01/sample34.txt 0.729969 3.02928 1.58429 0.157984 3.48581
files/tasks_parameters/ExAp01/sample40.txt 0.782249 3.86889 1.52122 0.168379 3.71519
files/tasks_parameters/ExAp01/sample33.txt 0.837395 3.63695 1.71905 0.199765 4.40769
files/tasks_parameters/ExAp01/sample48.txt 0.718978 3.39061 1.49062 0.154728 3.41398
files/tasks_parameters/ExAp01/sample29.txt 0.92522 3.30472 1.38739 0.223868 4.93952
files/tasks_parameters/ExAp01/sample11.txt 0.761116 3.10585 1.41612 0.174079 3.84094
files/tasks_parameters/ExAp01/sample14.txt 0.684998 2.70971 1.43432 0.162214 3.57916
files/tasks_parameters/ExAp01/sample0.txt 0.851074 3.6937 1.5439 0.18367 4.05256
files/tasks_parameters/ExAp01/sample7.txt 0.695731 2.70501 1.42221 0.143463 3.16543
files/tasks_parameters/ExAp01/sample23.txt 0.825696 3.2697 1.57822 0.181448 4.00355
files/tasks_parameters/ExAp01/sample13.txt 0.889507 3.84225 1.67648 0.198247 4.3742
files/tasks_parameters/ExAp01/sample22.txt 0.705519 3.09569 1.56121 0.148796 3.2831
files/tasks_parameters/ExAp01/sample25.txt 0.62095 2.73966 1.5007 0.148149 3.26881
files/tasks_parameters/ExAp01/sample36.txt 0.620985 2.85948 1.28553 0.130042 2.8693
files/tasks_parameters/ExAp01/sample46.txt 0.8798 3.58643 1.69998 0.210103 4.63579
files/tasks_parameters/ExAp01/sample31.txt 0.836187 3.4832 1.53782 0.1722 3.79949
files/tasks_parameters/ExAp01/sample37.txt 0.815965 3.95293 1.50705 0.171701 3.78848
files/tasks_parameters/ExAp01/sample16.txt 0.727211 3.31216 1.30115 0.150249 3.31515
files/tasks_parameters/ExAp01/sample10.txt 0.755499 3.17098 1.61789 0.153776 3.39298
files/tasks_parameters/ExAp01/sample39.txt 0.726635 3.26617 1.44406 0.165669 3.65538
files/tasks_parameters/ExAp01/sample19.txt 0.889918 3.63532 1.52509 0.196094 4.3267
files/tasks_parameters/ExAp01/sample20.txt 0.670669 3.20793 1.25367 0.147335 3.25087
files/tasks_parameters/ExAp01/sample43.txt 0.670886 3.11551 1.4202 0.150644 3.32388
files/tasks_parameters/ExAp01/sample32.txt 0.81612 3.5311 1.42482 0.168744 3.72324
files/tasks_parameters/ExAp01/sample45.txt 0.891936 3.80283 1.48324 0.19807 4.3703
files/tasks_parameters/ExAp01/sample26.txt 0.733469 3.21645 1.29701 0.166061 3.66404
files/tasks_parameters/ExAp01/sample5.txt 0.795842 3.5889 1.52559 0.178903 3.94739
files/tasks_parameters/ExAp01/sample21.txt 0.834998 2.75242 1.55936 0.19512 4.30521
files/tasks_parameters/ExAp01/sample38.txt 0.745038 3.31563 1.37515 0.166157 3.66615
files/tasks_parameters/ExAp01/sample1.txt 0.876921 3.74964 1.51696 0.19701 4.3469
files/tasks_parameters/ExAp01/sample15.txt 0.803735 3.32916 1.48508 0.180707 3.9872
files/tasks_parameters/ExAp01/sample24.txt 0.778115 3.45951 1.59549 0.16529 3.64703
files/tasks_parameters/ExAp01/sample3.txt 1.01361 3.70014 1.70809 0.237107 5.23162
files/tasks_parameters/ExAp01/sample6.txt 0.794572 3.33003 1.58323 0.184714 4.07561
files/tasks_parameters/ExAp01/sample30.txt 1.10166 4.1841 1.4861 0.239623 5.28714
files/tasks_parameters/ExAp01/sample42.txt 0.793448 3.43221 1.70276 0.177383 3.91384
files/tasks_parameters/ExAp01/sample4.txt 0.92764 3.72477 1.6136 0.196448 4.33451
files/tasks_parameters/ExAp01/sample28.txt 0.717229 3.11323 1.45032 0.158819 3.50425
files/tasks_parameters/ExAp01/sample18.txt 0.721529 3.47418 1.45209 0.149064 3.289
files/tasks_parameters/ExAp01/sample35.txt 0.915582 4.57086 1.49394 0.185031 4.08259
files/tasks_parameters/ExAp01/sample47.txt 0.75315 3.13768 1.52397 0.16417 3.62231
files/tasks_parameters/ExAp01/sample49.txt 0.755776 3.13288 1.49657 0.156154 3.44545
files/tasks_parameters/ExAp01/sample41.txt 0.678731 2.81964 1.49636 0.150876 3.32899
