files/tasks_parameters/ExAp01/sample8.txt 0.732739 3.15778 1.5595 0.203411 3.45425
files/tasks_parameters/ExAp01/sample12.txt 0.849869 3.94962 1.6705 0.207924 3.53088
files/tasks_parameters/ExAp01/sample2.txt 0.825882 3.78275 1.74131 0.200098 3.39798
files/tasks_parameters/ExAp01/sample44.txt 0.746675 3.59825 1.65317 0.200005 3.39641
files/tasks_parameters/ExAp01/sample27.txt 0.720533 3.45743 1.5148 0.182129 3.09284
files/tasks_parameters/ExAp01/sample17.txt 0.797107 2.77299 1.44514 0.14646 2.48712
files/tasks_parameters/ExAp01/sample9.txt 0.752003 2.99933 1.451 0.177444 3.01328
files/tasks_parameters/ExAp01/sample34.txt 0.817378 3.02928 1.58429 0.157984 2.68282
files/tasks_parameters/ExAp01/sample40.txt 0.757029 3.86889 1.52122 0.168379 2.85935
files/tasks_parameters/ExAp01/sample33.txt 0.808182 3.63695 1.71905 0.199765 3.39233
files/tasks_parameters/ExAp01/sample48.txt 0.682098 3.39061 1.49062 0.154728 2.62753
files/tasks_parameters/ExAp01/sample29.txt 0.810376 3.30472 1.38739 0.223868 3.80164
files/tasks_parameters/ExAp01/sample11.txt 0.717528 3.10585 1.41612 0.174079 2.95614
files/tasks_parameters/ExAp01/sample14.txt 0.663037 2.70971 1.43432 0.162214 2.75466
files/tasks_parameters/ExAp01/sample0.txt 0.782087 3.6937 1.5439 0.18367 3.11901
files/tasks_parameters/ExAp01/sample7.txt 0.775165 2.70501 1.42221 0.143463 2.43624
files/tasks_parameters/ExAp01/sample23.txt 0.777501 3.2697 1.57822 0.181448 3.08129
files/tasks_parameters/ExAp01/sample13.txt 0.793272 3.84225 1.67648 0.198247 3.36655
files/tasks_parameters/ExAp01/sample22.txt 0.791001 3.09569 1.56121 0.148796 2.5268
files/tasks_parameters/ExAp01/sample25.txt 0.724204 2.73966 1.5007 0.148149 2.5158
files/tasks_parameters/ExAp01/sample36.txt 0.665731 2.85948 1.28553 0.130042 2.20833
files/tasks_parameters/ExAp01/sample46.txt 0.791803 3.58643 1.69998 0.210103 3.56788
files/tasks_parameters/ExAp01/sample31.txt 0.725639 3.4832 1.53782 0.1722 2.92423
files/tasks_parameters/ExAp01/sample37.txt 0.760365 3.95293 1.50705 0.171701 2.91576
files/tasks_parameters/ExAp01/sample16.txt 0.642207 3.31216 1.30115 0.150249 2.55147
files/tasks_parameters/ExAp01/sample10.txt 0.848814 3.17098 1.61789 0.153776 2.61137
files/tasks_parameters/ExAp01/sample39.txt 0.681658 3.26617 1.44406 0.165669 2.81332
files/tasks_parameters/ExAp01/sample19.txt 0.769146 3.63532 1.52509 0.196094 3.33
files/tasks_parameters/ExAp01/sample20.txt 0.663123 3.20793 1.25367 0.147335 2.50199
files/tasks_parameters/ExAp01/sample43.txt 0.64896 3.11551 1.4202 0.150644 2.55819
files/tasks_parameters/ExAp01/sample32.txt 0.766615 3.5311 1.42482 0.168744 2.86555
files/tasks_parameters/ExAp01/sample45.txt 0.765508 3.80283 1.48324 0.19807 3.36355
files/tasks_parameters/ExAp01/sample26.txt 0.666702 3.21645 1.29701 0.166061 2.81999
files/tasks_parameters/ExAp01/sample5.txt 0.682147 3.5889 1.52559 0.178903 3.03807
files/tasks_parameters/ExAp01/sample21.txt 0.727488 2.75242 1.55936 0.19512 3.31346
files/tasks_parameters/ExAp01/sample38.txt 0.681621 3.31563 1.37515 0.166157 2.82161
files/tasks_parameters/ExAp01/sample1.txt 0.744422 3.74964 1.51696 0.19701 3.34554
files/tasks_parameters/ExAp01/sample15.txt 0.722155 3.32916 1.48508 0.180707 3.0687
files/tasks_parameters/ExAp01/sample24.txt 0.798512 3.45951 1.59549 0.16529 2.8069
files/tasks_parameters/ExAp01/sample3.txt 0.901573 3.70014 1.70809 0.237107 4.02646
files/tasks_parameters/ExAp01/sample6.txt 0.736709 3.33003 1.58323 0.184714 3.13675
files/tasks_parameters/ExAp01/sample30.txt 0.940163 4.1841 1.4861 0.239623 4.06919
files/tasks_parameters/ExAp01/sample42.txt 0.761674 3.43221 1.70276 0.177383 3.01225
files/tasks_parameters/ExAp01/sample4.txt 0.825138 3.72477 1.6136 0.196448 3.33601
files/tasks_parameters/ExAp01/sample28.txt 0.705154 3.11323 1.45032 0.158819 2.697
files/tasks_parameters/ExAp01/sample18.txt 0.731986 3.47418 1.45209 0.149064 2.53134
files/tasks_parameters/ExAp01/sample35.txt 0.836725 4.57086 1.49394 0.185031 3.14212
files/tasks_parameters/ExAp01/sample47.txt 0.719224 3.13768 1.52397 0.16417 2.78787
files/tasks_parameters/ExAp01/sample49.txt 0.759796 3.13288 1.49657 0.156154 2.65175
files/tasks_parameters/ExAp01/sample41.txt 0.767359 2.81964 1.49636 0.150876 2.56212
