0.28692682
Task0 63 15 15 
Task1 15 255 15 
Task2 3 1 31 
Task3 3 63 3 
Task4 7 31 15 
Task5 7 7 63 
Task6 63 31 127 
Task7 31 31 63 
Task8 1 63 7 
Task9 15 1 3 
Task10 255 127 255 
Task11 31 1 15 
Task12 31 1 15 
Task13 7 63 31 
Task14 1 3 15 
Task15 31 31 3 
Task16 7 15 31 
Task17 15 31 7 
Task18 63 255 127 
Task19 7 31 63 
Task20 15 3 31 
Task21 7 3 31 
Task22 63 3 1 
Task23 63 1 31 
Task24 7 63 31 
Task25 31 31 63 
Task26 15 1 31 
Task27 63 7 31 
Task28 31 63 31 
Task29 15 7 1 
Task30 255 255 255 
Task31 63 63 31 
Task32 15 7 31 
Task33 63 3 15 
Task34 255 255 63 
Task35 63 3 15 
Task36 15 1 31 
Task37 31 7 7 
Task38 63 63 31 
Task39 7 31 1 
Task40 15 3 31 
Task41 15 15 31 
Task42 31 15 63 
Task43 15 7 31 
Task44 15 15 1 
Task45 63 31 63 
Task46 63 63 63 
Task47 31 63 3 
Task48 15 1 7 
Task49 63 31 255 
Task50 3 7 15 
Task51 15 15 255 
Task52 15 31 31 
Task53 15 31 63 
Task54 3 63 7 
Task55 15 3 63 
Task56 7 31 15 
Task57 31 15 15 
Task58 7 15 15 
Task59 1 63 1 
Task60 63 63 7 
Task61 15 15 31 
Task62 15 31 31 
Task63 31 15 31 
Task64 255 3 63 
Task65 1 63 7 
Task66 15 63 3 
Task67 255 15 255 
Task68 63 3 15 
Task69 31 31 63 
Task70 31 31 15 
Task71 15 31 1 
Task72 127 1 15 
Task73 31 63 7 
Task74 31 15 15 
Task75 31 7 1 
Task76 3 1 15 
Task77 7 15 1 
Task78 3 7 63 
Task79 31 255 255 
Task80 3 63 63 
Task81 1 1 63 
Task82 15 1 31 
Task83 255 31 127 
Task84 15 15 15 
Task85 63 15 31 
Task86 7 7 7 
Task87 3 15 3 
Task88 31 31 15 
Task89 255 1 31 
Task90 7 63 15 
Task91 7 15 63 
Task92 1 31 7 
Task93 3 7 31 
Task94 31 7 1 
Task95 15 3 63 
Task96 31 1 31 
Task97 15 127 255 
Task98 63 15 15 
Task99 7 15 7 
