files/tasks_parameters/ExAp01/sample8.txt 1.86141 6.77015 2.19458 0.288816 5.2262
files/tasks_parameters/ExAp01/sample12.txt 2.1908 9.58351 2.46081 0.337498 6.10712
files/tasks_parameters/ExAp01/sample2.txt 2.0704 8.44418 2.50701 0.319127 5.77468
files/tasks_parameters/ExAp01/sample44.txt 1.82618 6.96299 2.23089 0.28229 5.10811
files/tasks_parameters/ExAp01/sample27.txt 1.84628 7.74306 2.16676 0.28602 5.1756
files/tasks_parameters/ExAp01/sample17.txt 1.89877 7.35053 2.25579 0.292348 5.2901
files/tasks_parameters/ExAp01/sample9.txt 1.83619 6.89392 2.21068 0.282399 5.11007
files/tasks_parameters/ExAp01/sample34.txt 1.93378 6.62788 2.3772 0.297742 5.38771
files/tasks_parameters/ExAp01/sample40.txt 1.85637 7.75686 2.17534 0.285619 5.16835
files/tasks_parameters/ExAp01/sample33.txt 2.18191 8.14826 2.6463 0.338073 6.11751
files/tasks_parameters/ExAp01/sample48.txt 1.73842 7.64107 2.14272 0.270011 4.88592
files/tasks_parameters/ExAp01/sample29.txt 1.82195 7.139 1.93769 0.286306 5.18077
files/tasks_parameters/ExAp01/sample11.txt 1.82067 6.88688 2.12981 0.280008 5.06682
files/tasks_parameters/ExAp01/sample14.txt 1.62324 6.11983 1.97599 0.247458 4.4778
files/tasks_parameters/ExAp01/sample0.txt 1.86567 8.2738 2.14256 0.289132 5.23191
files/tasks_parameters/ExAp01/sample7.txt 1.74756 6.87011 2.05821 0.269886 4.88364
files/tasks_parameters/ExAp01/sample23.txt 1.89267 6.52032 2.38087 0.291712 5.27859
files/tasks_parameters/ExAp01/sample13.txt 1.92362 8.73247 2.33415 0.295393 5.3452
files/tasks_parameters/ExAp01/sample22.txt 1.8111 6.9777 2.28948 0.283979 5.13867
files/tasks_parameters/ExAp01/sample25.txt 1.73736 6.23444 2.2122 0.267298 4.83682
files/tasks_parameters/ExAp01/sample36.txt 1.62419 6.6174 1.9458 0.253823 4.59298
files/tasks_parameters/ExAp01/sample46.txt 2.11846 7.42369 2.49128 0.327273 5.92208
files/tasks_parameters/ExAp01/sample31.txt 1.65785 7.22028 2.13584 0.25377 4.59203
files/tasks_parameters/ExAp01/sample37.txt 1.89747 8.90704 2.16981 0.295708 5.35091
files/tasks_parameters/ExAp01/sample16.txt 1.60378 8.18243 1.88294 0.24945 4.51385
files/tasks_parameters/ExAp01/sample10.txt 1.83684 6.96646 2.31217 0.285748 5.17068
files/tasks_parameters/ExAp01/sample39.txt 1.64024 6.4161 1.97266 0.251967 4.5594
files/tasks_parameters/ExAp01/sample19.txt 2.00015 8.16711 2.23199 0.308463 5.58171
files/tasks_parameters/ExAp01/sample20.txt 1.67547 7.28549 1.88944 0.25994 4.70367
files/tasks_parameters/ExAp01/sample43.txt 1.64394 6.86804 2.00142 0.25616 4.63528
files/tasks_parameters/ExAp01/sample32.txt 1.81803 8.15663 2.12995 0.281726 5.09791
files/tasks_parameters/ExAp01/sample45.txt 1.77177 7.75184 2.10599 0.274935 4.97501
files/tasks_parameters/ExAp01/sample26.txt 1.72907 7.4944 1.88956 0.267248 4.83592
files/tasks_parameters/ExAp01/sample5.txt 1.8513 8.08362 2.09961 0.28454 5.14882
files/tasks_parameters/ExAp01/sample21.txt 1.71268 6.11814 2.17119 0.26143 4.73063
files/tasks_parameters/ExAp01/sample38.txt 1.71805 7.761 1.96293 0.263659 4.77097
files/tasks_parameters/ExAp01/sample1.txt 1.87341 7.83752 2.13261 0.289228 5.23365
files/tasks_parameters/ExAp01/sample15.txt 1.85365 7.37971 2.12057 0.285825 5.17208
files/tasks_parameters/ExAp01/sample24.txt 1.91457 8.28531 2.25272 0.296628 5.36756
files/tasks_parameters/ExAp01/sample3.txt 1.96689 7.33359 2.39135 0.305084 5.52058
files/tasks_parameters/ExAp01/sample6.txt 1.83526 7.09894 2.24425 0.281804 5.09932
files/tasks_parameters/ExAp01/sample30.txt 1.94239 8.17669 2.03701 0.299204 5.41417
files/tasks_parameters/ExAp01/sample42.txt 1.92722 7.70416 2.42413 0.29743 5.38207
files/tasks_parameters/ExAp01/sample4.txt 1.97669 7.41691 2.36261 0.307803 5.56976
files/tasks_parameters/ExAp01/sample28.txt 1.71286 7.0562 2.07657 0.266428 4.82108
files/tasks_parameters/ExAp01/sample18.txt 1.71207 7.60139 2.1377 0.268016 4.84981
files/tasks_parameters/ExAp01/sample35.txt 2.06706 9.66795 2.28028 0.32244 5.83462
files/tasks_parameters/ExAp01/sample47.txt 1.62807 6.84842 2.12104 0.251655 4.55375
files/tasks_parameters/ExAp01/sample49.txt 1.65111 7.1497 2.11412 0.255889 4.63037
files/tasks_parameters/ExAp01/sample41.txt 1.72643 6.59911 2.07359 0.265885 4.81126
