files/tasks_parameters/ExAp01/sample8.txt 1.09897 7.2562 4.46819 0.454772 12.0912
files/tasks_parameters/ExAp01/sample12.txt 1.53916 9.70908 5.28286 0.618515 16.4446
files/tasks_parameters/ExAp01/sample2.txt 1.48331 8.14159 5.7401 0.620531 16.4982
files/tasks_parameters/ExAp01/sample44.txt 1.33391 7.25164 5.75904 0.557631 14.8259
files/tasks_parameters/ExAp01/sample27.txt 1.38167 8.10944 5.64946 0.564878 15.0186
files/tasks_parameters/ExAp01/sample17.txt 1.27515 7.11225 5.46658 0.527183 14.0164
files/tasks_parameters/ExAp01/sample9.txt 1.24695 7.62559 5.37813 0.517277 13.753
files/tasks_parameters/ExAp01/sample34.txt 1.28077 7.04587 5.93037 0.497709 13.2327
files/tasks_parameters/ExAp01/sample40.txt 1.21937 8.03037 5.123 0.502383 13.357
files/tasks_parameters/ExAp01/sample33.txt 1.56811 9.22935 5.92956 0.659262 17.528
files/tasks_parameters/ExAp01/sample48.txt 1.11254 8.12182 5.1577 0.452491 12.0305
files/tasks_parameters/ExAp01/sample29.txt 1.53396 8.06133 5.12331 0.650652 17.2991
files/tasks_parameters/ExAp01/sample11.txt 1.34918 7.63104 5.37897 0.563302 14.9767
files/tasks_parameters/ExAp01/sample14.txt 1.16422 6.66403 4.66322 0.471536 12.5369
files/tasks_parameters/ExAp01/sample0.txt 1.54185 9.3266 4.98971 0.6311 16.7792
files/tasks_parameters/ExAp01/sample7.txt 1.2513 7.34863 5.19436 0.515527 13.7065
files/tasks_parameters/ExAp01/sample23.txt 1.39155 6.68564 5.54308 0.588617 15.6497
files/tasks_parameters/ExAp01/sample13.txt 1.55062 9.31093 5.35591 0.632849 16.8257
files/tasks_parameters/ExAp01/sample22.txt 1.32637 7.65588 5.04866 0.540336 14.3661
files/tasks_parameters/ExAp01/sample25.txt 1.01018 6.17035 5.0141 0.408296 10.8555
files/tasks_parameters/ExAp01/sample36.txt 1.21833 7.03772 4.66274 0.507647 13.497
files/tasks_parameters/ExAp01/sample46.txt 1.30004 7.73433 4.79934 0.536843 14.2732
files/tasks_parameters/ExAp01/sample31.txt 1.21437 6.96928 5.16482 0.485817 12.9166
files/tasks_parameters/ExAp01/sample37.txt 1.5634 9.52443 5.74224 0.65799 17.4942
files/tasks_parameters/ExAp01/sample16.txt 1.32816 8.63521 4.97261 0.516328 13.7278
files/tasks_parameters/ExAp01/sample10.txt 1.47824 7.28353 6.16876 0.615651 16.3685
files/tasks_parameters/ExAp01/sample39.txt 1.15822 6.3405 4.6137 0.468873 12.4661
files/tasks_parameters/ExAp01/sample19.txt 1.48159 8.85528 5.22306 0.622152 16.5414
files/tasks_parameters/ExAp01/sample20.txt 1.4069 8.1141 5.21177 0.586994 15.6066
files/tasks_parameters/ExAp01/sample43.txt 1.31587 7.21373 5.6367 0.53748 14.2901
files/tasks_parameters/ExAp01/sample32.txt 1.42738 8.30592 5.38137 0.593918 15.7907
files/tasks_parameters/ExAp01/sample45.txt 1.31718 7.94069 4.96323 0.547271 14.5505
files/tasks_parameters/ExAp01/sample26.txt 1.17573 7.57061 4.62637 0.480146 12.7658
files/tasks_parameters/ExAp01/sample5.txt 1.4149 8.0307 5.35681 0.59407 15.7947
files/tasks_parameters/ExAp01/sample21.txt 1.07619 5.87802 4.61744 0.434264 11.5459
files/tasks_parameters/ExAp01/sample38.txt 1.19152 7.66999 4.86632 0.496808 13.2088
files/tasks_parameters/ExAp01/sample1.txt 1.21248 7.21312 4.63213 0.486293 12.9292
files/tasks_parameters/ExAp01/sample15.txt 1.30396 8.02273 5.50855 0.531063 14.1195
files/tasks_parameters/ExAp01/sample24.txt 1.32867 8.66348 5.4905 0.548998 14.5964
files/tasks_parameters/ExAp01/sample3.txt 1.17873 7.74268 4.79918 0.477387 12.6924
files/tasks_parameters/ExAp01/sample6.txt 1.50001 8.57133 5.80157 0.633604 16.8458
files/tasks_parameters/ExAp01/sample30.txt 1.53926 8.18878 5.90888 0.633576 16.8451
files/tasks_parameters/ExAp01/sample42.txt 1.35346 8.57689 5.67253 0.54426 14.4704
files/tasks_parameters/ExAp01/sample4.txt 1.37205 8.40354 4.57985 0.563519 14.9825
files/tasks_parameters/ExAp01/sample28.txt 1.07716 6.44114 4.96426 0.449721 11.9569
files/tasks_parameters/ExAp01/sample18.txt 1.32345 8.56363 4.60946 0.543766 14.4573
files/tasks_parameters/ExAp01/sample35.txt 1.83902 11.0387 6.34514 0.761377 20.243
files/tasks_parameters/ExAp01/sample47.txt 1.29093 7.14493 5.22131 0.545046 14.4913
files/tasks_parameters/ExAp01/sample49.txt 1.23289 6.65996 4.80244 0.498533 13.2547
files/tasks_parameters/ExAp01/sample41.txt 1.17954 7.09069 5.35462 0.497129 13.2173
