files/tasks_parameters/ExAp01/sample8.txt 0.714982 3.15778 1.5595 0.203411 3.64885
files/tasks_parameters/ExAp01/sample12.txt 0.814715 3.94962 1.6705 0.207924 3.7298
files/tasks_parameters/ExAp01/sample2.txt 0.807344 3.78275 1.74131 0.200098 3.58941
files/tasks_parameters/ExAp01/sample44.txt 0.719096 3.59825 1.65317 0.200005 3.58775
files/tasks_parameters/ExAp01/sample27.txt 0.718675 3.45743 1.5148 0.182129 3.26708
files/tasks_parameters/ExAp01/sample17.txt 0.604416 2.77299 1.44514 0.14646 2.62724
files/tasks_parameters/ExAp01/sample9.txt 0.696029 2.99933 1.451 0.177444 3.18304
files/tasks_parameters/ExAp01/sample34.txt 0.664946 3.02928 1.58429 0.157984 2.83396
files/tasks_parameters/ExAp01/sample40.txt 0.721105 3.86889 1.52122 0.168379 3.02044
files/tasks_parameters/ExAp01/sample33.txt 0.796983 3.63695 1.71905 0.199765 3.58345
files/tasks_parameters/ExAp01/sample48.txt 0.643543 3.39061 1.49062 0.154728 2.77556
files/tasks_parameters/ExAp01/sample29.txt 0.785367 3.30472 1.38739 0.223868 4.01582
files/tasks_parameters/ExAp01/sample11.txt 0.697511 3.10585 1.41612 0.174079 3.12268
files/tasks_parameters/ExAp01/sample14.txt 0.662815 2.70971 1.43432 0.162214 2.90985
files/tasks_parameters/ExAp01/sample0.txt 0.744711 3.6937 1.5439 0.18367 3.29473
files/tasks_parameters/ExAp01/sample7.txt 0.62765 2.70501 1.42221 0.143463 2.57349
files/tasks_parameters/ExAp01/sample23.txt 0.733661 3.2697 1.57822 0.181448 3.25488
files/tasks_parameters/ExAp01/sample13.txt 0.772379 3.84225 1.67648 0.198247 3.55622
files/tasks_parameters/ExAp01/sample22.txt 0.633814 3.09569 1.56121 0.148796 2.66915
files/tasks_parameters/ExAp01/sample25.txt 0.602463 2.73966 1.5007 0.148149 2.65754
files/tasks_parameters/ExAp01/sample36.txt 0.548638 2.85948 1.28553 0.130042 2.33274
files/tasks_parameters/ExAp01/sample46.txt 0.765324 3.58643 1.69998 0.210103 3.76889
files/tasks_parameters/ExAp01/sample31.txt 0.701895 3.4832 1.53782 0.1722 3.08898
files/tasks_parameters/ExAp01/sample37.txt 0.709519 3.95293 1.50705 0.171701 3.08003
files/tasks_parameters/ExAp01/sample16.txt 0.619857 3.31216 1.30115 0.150249 2.69521
files/tasks_parameters/ExAp01/sample10.txt 0.698072 3.17098 1.61789 0.153776 2.75849
files/tasks_parameters/ExAp01/sample39.txt 0.683804 3.26617 1.44406 0.165669 2.97182
files/tasks_parameters/ExAp01/sample19.txt 0.7436 3.63532 1.52509 0.196094 3.5176
files/tasks_parameters/ExAp01/sample20.txt 0.607547 3.20793 1.25367 0.147335 2.64295
files/tasks_parameters/ExAp01/sample43.txt 0.608244 3.11551 1.4202 0.150644 2.70231
files/tasks_parameters/ExAp01/sample32.txt 0.714469 3.5311 1.42482 0.168744 3.02699
files/tasks_parameters/ExAp01/sample45.txt 0.762905 3.80283 1.48324 0.19807 3.55305
files/tasks_parameters/ExAp01/sample26.txt 0.608609 3.21645 1.29701 0.166061 2.97886
files/tasks_parameters/ExAp01/sample5.txt 0.657547 3.5889 1.52559 0.178903 3.20922
files/tasks_parameters/ExAp01/sample21.txt 0.70119 2.75242 1.55936 0.19512 3.50013
files/tasks_parameters/ExAp01/sample38.txt 0.653669 3.31563 1.37515 0.166157 2.98057
files/tasks_parameters/ExAp01/sample1.txt 0.715662 3.74964 1.51696 0.19701 3.53402
files/tasks_parameters/ExAp01/sample15.txt 0.704471 3.32916 1.48508 0.180707 3.24159
files/tasks_parameters/ExAp01/sample24.txt 0.716105 3.45951 1.59549 0.16529 2.96503
files/tasks_parameters/ExAp01/sample3.txt 0.869402 3.70014 1.70809 0.237107 4.2533
files/tasks_parameters/ExAp01/sample6.txt 0.724471 3.33003 1.58323 0.184714 3.31347
files/tasks_parameters/ExAp01/sample30.txt 0.894412 4.1841 1.4861 0.239623 4.29843
files/tasks_parameters/ExAp01/sample42.txt 0.735573 3.43221 1.70276 0.177383 3.18195
files/tasks_parameters/ExAp01/sample4.txt 0.787141 3.72477 1.6136 0.196448 3.52395
files/tasks_parameters/ExAp01/sample28.txt 0.64021 3.11323 1.45032 0.158819 2.84895
files/tasks_parameters/ExAp01/sample18.txt 0.632763 3.47418 1.45209 0.149064 2.67395
files/tasks_parameters/ExAp01/sample35.txt 0.775339 4.57086 1.49394 0.185031 3.31914
files/tasks_parameters/ExAp01/sample47.txt 0.663397 3.13768 1.52397 0.16417 2.94493
files/tasks_parameters/ExAp01/sample49.txt 0.65943 3.13288 1.49657 0.156154 2.80114
files/tasks_parameters/ExAp01/sample41.txt 0.634319 2.81964 1.49636 0.150876 2.70646
