files/tasks_parameters/ExAp01/sample8.txt 2.005 6.77015 2.19458 0.288816 4.9981
files/tasks_parameters/ExAp01/sample12.txt 2.34845 9.58351 2.46081 0.337498 5.84057
files/tasks_parameters/ExAp01/sample2.txt 2.20869 8.44418 2.50701 0.319127 5.52264
files/tasks_parameters/ExAp01/sample44.txt 1.95645 6.96299 2.23089 0.28229 4.88516
files/tasks_parameters/ExAp01/sample27.txt 1.97726 7.74306 2.16676 0.28602 4.9497
files/tasks_parameters/ExAp01/sample17.txt 2.03662 7.35053 2.25579 0.292348 5.05921
files/tasks_parameters/ExAp01/sample9.txt 1.94255 6.89392 2.21068 0.282399 4.88704
files/tasks_parameters/ExAp01/sample34.txt 2.05077 6.62788 2.3772 0.297742 5.15256
files/tasks_parameters/ExAp01/sample40.txt 1.96599 7.75686 2.17534 0.285619 4.94277
files/tasks_parameters/ExAp01/sample33.txt 2.34172 8.14826 2.6463 0.338073 5.85051
files/tasks_parameters/ExAp01/sample48.txt 1.85215 7.64107 2.14272 0.270011 4.67267
files/tasks_parameters/ExAp01/sample29.txt 1.94622 7.139 1.93769 0.286306 4.95465
files/tasks_parameters/ExAp01/sample11.txt 1.92576 6.88688 2.12981 0.280008 4.84567
files/tasks_parameters/ExAp01/sample14.txt 1.72277 6.11983 1.97599 0.247458 4.28237
files/tasks_parameters/ExAp01/sample0.txt 2.01298 8.2738 2.14256 0.289132 5.00356
files/tasks_parameters/ExAp01/sample7.txt 1.87791 6.87011 2.05821 0.269886 4.67049
files/tasks_parameters/ExAp01/sample23.txt 2.00459 6.52032 2.38087 0.291712 5.0482
files/tasks_parameters/ExAp01/sample13.txt 2.04842 8.73247 2.33415 0.295393 5.1119
files/tasks_parameters/ExAp01/sample22.txt 1.96153 6.9777 2.28948 0.283979 4.91439
files/tasks_parameters/ExAp01/sample25.txt 1.85278 6.23444 2.2122 0.267298 4.62571
files/tasks_parameters/ExAp01/sample36.txt 1.77336 6.6174 1.9458 0.253823 4.39252
files/tasks_parameters/ExAp01/sample46.txt 2.29378 7.42369 2.49128 0.327273 5.66361
files/tasks_parameters/ExAp01/sample31.txt 1.76677 7.22028 2.13584 0.25377 4.3916
files/tasks_parameters/ExAp01/sample37.txt 2.04705 8.90704 2.16981 0.295708 5.11736
files/tasks_parameters/ExAp01/sample16.txt 1.74148 8.18243 1.88294 0.24945 4.31684
files/tasks_parameters/ExAp01/sample10.txt 1.98072 6.96646 2.31217 0.285748 4.945
files/tasks_parameters/ExAp01/sample39.txt 1.76863 6.4161 1.97266 0.251967 4.3604
files/tasks_parameters/ExAp01/sample19.txt 2.13903 8.16711 2.23199 0.308463 5.33809
files/tasks_parameters/ExAp01/sample20.txt 1.7747 7.28549 1.88944 0.25994 4.49838
files/tasks_parameters/ExAp01/sample43.txt 1.75697 6.86804 2.00142 0.25616 4.43297
files/tasks_parameters/ExAp01/sample32.txt 1.94447 8.15663 2.12995 0.281726 4.8754
files/tasks_parameters/ExAp01/sample45.txt 1.90186 7.75184 2.10599 0.274935 4.75787
files/tasks_parameters/ExAp01/sample26.txt 1.85807 7.4944 1.88956 0.267248 4.62485
files/tasks_parameters/ExAp01/sample5.txt 1.97424 8.08362 2.09961 0.28454 4.9241
files/tasks_parameters/ExAp01/sample21.txt 1.80936 6.11814 2.17119 0.26143 4.52416
files/tasks_parameters/ExAp01/sample38.txt 1.84069 7.761 1.96293 0.263659 4.56274
files/tasks_parameters/ExAp01/sample1.txt 1.98294 7.83752 2.13261 0.289228 5.00523
files/tasks_parameters/ExAp01/sample15.txt 1.96332 7.37971 2.12057 0.285825 4.94634
files/tasks_parameters/ExAp01/sample24.txt 2.05967 8.28531 2.25272 0.296628 5.13329
files/tasks_parameters/ExAp01/sample3.txt 2.11513 7.33359 2.39135 0.305084 5.27963
files/tasks_parameters/ExAp01/sample6.txt 1.96482 7.09894 2.24425 0.281804 4.87675
files/tasks_parameters/ExAp01/sample30.txt 2.0361 8.17669 2.03701 0.299204 5.17787
files/tasks_parameters/ExAp01/sample42.txt 2.07307 7.70416 2.42413 0.29743 5.14716
files/tasks_parameters/ExAp01/sample4.txt 2.10458 7.41691 2.36261 0.307803 5.32667
files/tasks_parameters/ExAp01/sample28.txt 1.81055 7.0562 2.07657 0.266428 4.61066
files/tasks_parameters/ExAp01/sample18.txt 1.85555 7.60139 2.1377 0.268016 4.63814
files/tasks_parameters/ExAp01/sample35.txt 2.24126 9.66795 2.28028 0.32244 5.57997
files/tasks_parameters/ExAp01/sample47.txt 1.75359 6.84842 2.12104 0.251655 4.355
files/tasks_parameters/ExAp01/sample49.txt 1.76562 7.1497 2.11412 0.255889 4.42828
files/tasks_parameters/ExAp01/sample41.txt 1.86537 6.59911 2.07359 0.265885 4.60127
