files/tasks_parameters/ExAp01/sample8.txt 0.724913 3.15778 1.5595 0.203411 6.50498
files/tasks_parameters/ExAp01/sample12.txt 0.76759 3.94962 1.6705 0.207924 6.6493
files/tasks_parameters/ExAp01/sample2.txt 0.730516 3.78275 1.74131 0.200098 6.39902
files/tasks_parameters/ExAp01/sample44.txt 0.68647 3.59825 1.65317 0.200005 6.39606
files/tasks_parameters/ExAp01/sample27.txt 0.712924 3.45743 1.5148 0.182129 5.82438
files/tasks_parameters/ExAp01/sample17.txt 0.537528 2.77299 1.44514 0.14646 4.68371
files/tasks_parameters/ExAp01/sample9.txt 0.670165 2.99933 1.451 0.177444 5.67455
files/tasks_parameters/ExAp01/sample34.txt 0.593053 3.02928 1.58429 0.157984 5.05224
files/tasks_parameters/ExAp01/sample40.txt 0.639209 3.86889 1.52122 0.168379 5.38469
files/tasks_parameters/ExAp01/sample33.txt 0.726957 3.63695 1.71905 0.199765 6.38838
files/tasks_parameters/ExAp01/sample48.txt 0.585293 3.39061 1.49062 0.154728 4.94813
files/tasks_parameters/ExAp01/sample29.txt 0.751906 3.30472 1.38739 0.223868 7.15919
files/tasks_parameters/ExAp01/sample11.txt 0.616894 3.10585 1.41612 0.174079 5.56695
files/tasks_parameters/ExAp01/sample14.txt 0.579555 2.70971 1.43432 0.162214 5.18754
files/tasks_parameters/ExAp01/sample0.txt 0.698622 3.6937 1.5439 0.18367 5.87367
files/tasks_parameters/ExAp01/sample7.txt 0.551497 2.70501 1.42221 0.143463 4.58789
files/tasks_parameters/ExAp01/sample23.txt 0.654271 3.2697 1.57822 0.181448 5.80263
files/tasks_parameters/ExAp01/sample13.txt 0.68387 3.84225 1.67648 0.198247 6.33984
files/tasks_parameters/ExAp01/sample22.txt 0.594726 3.09569 1.56121 0.148796 4.75843
files/tasks_parameters/ExAp01/sample25.txt 0.516313 2.73966 1.5007 0.148149 4.73772
files/tasks_parameters/ExAp01/sample36.txt 0.495438 2.85948 1.28553 0.130042 4.15869
files/tasks_parameters/ExAp01/sample46.txt 0.748483 3.58643 1.69998 0.210103 6.71898
files/tasks_parameters/ExAp01/sample31.txt 0.629427 3.4832 1.53782 0.1722 5.50687
files/tasks_parameters/ExAp01/sample37.txt 0.649853 3.95293 1.50705 0.171701 5.49091
files/tasks_parameters/ExAp01/sample16.txt 0.592162 3.31216 1.30115 0.150249 4.80489
files/tasks_parameters/ExAp01/sample10.txt 0.63447 3.17098 1.61789 0.153776 4.91769
files/tasks_parameters/ExAp01/sample39.txt 0.59227 3.26617 1.44406 0.165669 5.298
files/tasks_parameters/ExAp01/sample19.txt 0.731231 3.63532 1.52509 0.196094 6.271
files/tasks_parameters/ExAp01/sample20.txt 0.510025 3.20793 1.25367 0.147335 4.71171
files/tasks_parameters/ExAp01/sample43.txt 0.593054 3.11551 1.4202 0.150644 4.81753
files/tasks_parameters/ExAp01/sample32.txt 0.635174 3.5311 1.42482 0.168744 5.39635
files/tasks_parameters/ExAp01/sample45.txt 0.759293 3.80283 1.48324 0.19807 6.33419
files/tasks_parameters/ExAp01/sample26.txt 0.616942 3.21645 1.29701 0.166061 5.31055
files/tasks_parameters/ExAp01/sample5.txt 0.683764 3.5889 1.52559 0.178903 5.72124
files/tasks_parameters/ExAp01/sample21.txt 0.676766 2.75242 1.55936 0.19512 6.23985
files/tasks_parameters/ExAp01/sample38.txt 0.583016 3.31563 1.37515 0.166157 5.31361
files/tasks_parameters/ExAp01/sample1.txt 0.743118 3.74964 1.51696 0.19701 6.30027
files/tasks_parameters/ExAp01/sample15.txt 0.624675 3.32916 1.48508 0.180707 5.77893
files/tasks_parameters/ExAp01/sample24.txt 0.636631 3.45951 1.59549 0.16529 5.2859
files/tasks_parameters/ExAp01/sample3.txt 0.890462 3.70014 1.70809 0.237107 7.58256
files/tasks_parameters/ExAp01/sample6.txt 0.646626 3.33003 1.58323 0.184714 5.90707
files/tasks_parameters/ExAp01/sample30.txt 0.841608 4.1841 1.4861 0.239623 7.66302
files/tasks_parameters/ExAp01/sample42.txt 0.659625 3.43221 1.70276 0.177383 5.67261
files/tasks_parameters/ExAp01/sample4.txt 0.739589 3.72477 1.6136 0.196448 6.28231
files/tasks_parameters/ExAp01/sample28.txt 0.575625 3.11323 1.45032 0.158819 5.07895
files/tasks_parameters/ExAp01/sample18.txt 0.54385 3.47418 1.45209 0.149064 4.76698
files/tasks_parameters/ExAp01/sample35.txt 0.686168 4.57086 1.49394 0.185031 5.91719
files/tasks_parameters/ExAp01/sample47.txt 0.605655 3.13768 1.52397 0.16417 5.25008
files/tasks_parameters/ExAp01/sample49.txt 0.574593 3.13288 1.49657 0.156154 4.99373
files/tasks_parameters/ExAp01/sample41.txt 0.583936 2.81964 1.49636 0.150876 4.82493
