digraph G {
1 ->15 1 ->16 1 ->18 1 ->20 1 ->23 1 ->25 1 ->27 2 ->16 2 ->18 2 ->19 3 ->16 3 ->18 3 ->21 4 ->16 4 ->18 4 ->21 4 ->25 4 ->26 4 ->27 5 ->14 5 ->19 5 ->20 5 ->21 5 ->22 5 ->24 6 ->16 6 ->17 6 ->18 6 ->19 6 ->20 6 ->22 7 ->15 7 ->16 7 ->25 7 ->27 8 ->16 8 ->20 8 ->22 8 ->27 9 ->19 9 ->20 9 ->25 9 ->26 10 ->14 10 ->19 10 ->20 10 ->21 10 ->22 10 ->27 11 ->14 11 ->17 11 ->19 11 ->22 11 ->22 11 ->27 12 ->18 12 ->25 13 ->15 13 ->17 13 ->21 13 ->22 13 ->24 14 ->28 14 ->31 14 ->34 14 ->35 15 ->28 15 ->32 16 ->30 16 ->32 17 ->30 17 ->31 17 ->32 17 ->34 18 ->31 18 ->33 18 ->34 19 ->28 20 ->34 21 ->32 22 ->30 23 ->28 23 ->30 24 ->33 24 ->34 25 ->28 25 ->35 26 ->29 26 ->30 26 ->32 26 ->33 26 ->34 26 ->35 27 ->33 27 ->34 28 ->36 28 ->37 28 ->41 29 ->37 29 ->37 29 ->38 29 ->41 30 ->38 30 ->41 31 ->38 32 ->38 32 ->40 33 ->36 34 ->36 35 ->39 36 ->42 36 ->43 36 ->46 36 ->47 37 ->42 37 ->44 37 ->45 37 ->50 38 ->43 38 ->44 38 ->46 38 ->47 38 ->49 39 ->43 39 ->44 39 ->46 39 ->49 41 ->48 41 ->49 42 ->56 43 ->56 44 ->53 44 ->54 44 ->56 45 ->52 45 ->53 45 ->54 46 ->53 46 ->54 46 ->57 47 ->51 47 ->55 47 ->57 49 ->54 49 ->55 49 ->56 49 ->57 50 ->52 50 ->54 50 ->57 50 ->57 51 ->58 51 ->59 51 ->61 51 ->62 51 ->64 52 ->65 52 ->66 53 ->59 53 ->63 53 ->67 53 ->68 54 ->58 54 ->60 54 ->63 54 ->65 54 ->67 54 ->68 55 ->62 55 ->63 55 ->67 56 ->58 56 ->59 56 ->63 56 ->67 56 ->68 57 ->64 57 ->65 58 ->69 58 ->75 58 ->82 59 ->69 59 ->70 59 ->72 59 ->75 59 ->80 59 ->81 60 ->70 60 ->70 60 ->73 60 ->81 61 ->69 61 ->74 61 ->81 61 ->81 62 ->69 62 ->70 62 ->73 62 ->76 62 ->80 62 ->82 63 ->69 63 ->76 63 ->78 64 ->72 64 ->73 65 ->70 65 ->73 65 ->78 65 ->81 66 ->72 66 ->78 66 ->82 67 ->71 67 ->72 67 ->78 67 ->80 67 ->81 68 ->69 68 ->72 68 ->73 68 ->77 68 ->78 68 ->79 68 ->82 69 ->84 69 ->85 69 ->86 69 ->87 69 ->88 69 ->92 70 ->85 70 ->87 70 ->92 71 ->84 71 ->85 71 ->87 71 ->89 71 ->92 71 ->93 72 ->86 72 ->89 72 ->93 73 ->85 73 ->88 73 ->89 73 ->90 73 ->93 73 ->94 74 ->83 74 ->86 74 ->92 74 ->94 75 ->83 75 ->85 75 ->87 75 ->90 75 ->92 76 ->83 76 ->84 76 ->89 76 ->91 77 ->83 77 ->87 77 ->88 77 ->89 77 ->90 77 ->93 78 ->84 78 ->86 78 ->88 78 ->89 78 ->92 78 ->93 79 ->83 79 ->84 79 ->85 79 ->87 79 ->90 79 ->92 80 ->83 80 ->84 80 ->85 80 ->88 80 ->90 81 ->86 81 ->87 81 ->88 81 ->89 81 ->90 81 ->94 82 ->83 82 ->84 82 ->93 83 ->97 84 ->97 85 ->97 86 ->98 87 ->98 89 ->97 89 ->98 90 ->96 90 ->99 91 ->99 93 ->95 93 ->96 
}
