digraph G {
0 ->21 1 ->21 1 ->23 2 ->15 2 ->17 2 ->19 2 ->20 3 ->18 3 ->19 4 ->17 4 ->21 5 ->17 6 ->14 6 ->16 6 ->17 6 ->20 7 ->17 7 ->19 7 ->23 8 ->16 8 ->17 8 ->23 9 ->15 10 ->15 10 ->19 10 ->23 11 ->15 11 ->19 11 ->20 11 ->21 11 ->22 12 ->19 13 ->15 13 ->18 13 ->19 14 ->27 14 ->28 14 ->31 15 ->26 15 ->29 16 ->25 16 ->27 16 ->29 17 ->27 19 ->25 19 ->28 19 ->29 19 ->30 20 ->24 20 ->31 21 ->31 23 ->28 23 ->31 24 ->33 24 ->34 24 ->39 25 ->33 25 ->34 25 ->35 25 ->36 26 ->32 26 ->38 27 ->32 28 ->39 29 ->32 29 ->33 29 ->36 29 ->38 29 ->39 30 ->32 30 ->33 30 ->36 30 ->38 30 ->39 31 ->34 31 ->36 31 ->37 31 ->38 32 ->45 32 ->48 32 ->49 33 ->46 34 ->40 34 ->42 34 ->44 34 ->49 35 ->40 35 ->42 35 ->44 35 ->46 35 ->47 36 ->40 36 ->42 36 ->48 36 ->50 37 ->44 38 ->40 38 ->41 38 ->42 38 ->43 38 ->49 39 ->45 39 ->46 39 ->47 39 ->49 40 ->54 41 ->55 41 ->56 43 ->54 44 ->52 45 ->53 45 ->56 47 ->55 47 ->56 48 ->51 48 ->57 49 ->51 49 ->56 50 ->51 50 ->52 50 ->57 51 ->62 52 ->62 53 ->60 54 ->60 54 ->61 55 ->63 56 ->58 56 ->59 56 ->60 56 ->62 57 ->61 57 ->62 58 ->66 58 ->69 59 ->65 59 ->68 60 ->64 60 ->68 61 ->66 61 ->69 62 ->64 62 ->65 62 ->69 63 ->66 63 ->67 64 ->70 64 ->76 65 ->70 65 ->71 65 ->75 66 ->71 66 ->73 67 ->73 67 ->75 68 ->72 68 ->76 69 ->70 69 ->73 69 ->74 69 ->75 69 ->76 70 ->77 70 ->78 70 ->79 70 ->80 70 ->82 70 ->85 70 ->87 71 ->78 71 ->80 71 ->84 71 ->85 71 ->86 72 ->78 72 ->82 72 ->83 72 ->84 72 ->85 72 ->86 73 ->80 73 ->86 74 ->79 74 ->81 74 ->84 75 ->77 76 ->85 77 ->91 77 ->95 78 ->88 78 ->89 78 ->93 79 ->90 79 ->93 79 ->95 80 ->88 80 ->89 80 ->91 80 ->94 81 ->89 81 ->91 81 ->91 81 ->95 81 ->96 81 ->97 82 ->88 82 ->89 82 ->94 82 ->95 82 ->96 83 ->90 83 ->97 84 ->92 84 ->94 84 ->95 85 ->90 85 ->94 86 ->88 86 ->90 86 ->94 86 ->97 87 ->88 87 ->89 87 ->90 87 ->92 87 ->94 88 ->98 88 ->99 89 ->98 89 ->99 90 ->98 94 ->99 95 ->98 95 ->99 96 ->98 
}
