digraph G {
0 ->10 0 ->16 0 ->17 1 ->9 1 ->10 1 ->15 1 ->16 1 ->17 1 ->20 2 ->12 2 ->19 3 ->8 3 ->11 3 ->13 3 ->14 3 ->15 3 ->16 4 ->13 5 ->11 5 ->17 5 ->20 6 ->11 6 ->15 6 ->18 6 ->20 7 ->11 7 ->13 7 ->15 7 ->16 7 ->18 8 ->24 8 ->27 9 ->25 9 ->28 10 ->21 10 ->22 10 ->26 10 ->28 11 ->25 11 ->28 12 ->22 12 ->26 12 ->27 13 ->26 14 ->22 15 ->25 16 ->21 17 ->22 17 ->23 17 ->24 17 ->25 17 ->27 17 ->28 18 ->22 18 ->27 18 ->28 19 ->21 19 ->22 20 ->22 20 ->23 21 ->29 21 ->32 21 ->38 22 ->30 22 ->32 22 ->36 22 ->37 22 ->41 22 ->42 23 ->29 23 ->39 24 ->29 24 ->33 24 ->36 24 ->39 25 ->31 25 ->39 26 ->31 26 ->33 26 ->34 26 ->40 27 ->30 27 ->31 27 ->32 27 ->33 27 ->35 27 ->36 28 ->31 28 ->33 28 ->37 28 ->39 28 ->40 29 ->47 29 ->51 30 ->44 30 ->51 31 ->43 31 ->46 31 ->47 31 ->48 31 ->50 32 ->43 32 ->45 32 ->47 33 ->43 33 ->45 33 ->47 34 ->45 34 ->48 34 ->50 34 ->53 35 ->46 36 ->45 36 ->46 36 ->50 37 ->45 38 ->43 38 ->45 38 ->51 39 ->43 39 ->50 40 ->45 40 ->46 40 ->47 40 ->50 40 ->51 40 ->52 41 ->49 42 ->44 42 ->48 42 ->50 43 ->54 43 ->57 44 ->56 44 ->58 45 ->55 45 ->57 46 ->56 46 ->57 48 ->56 51 ->55 52 ->56 53 ->55 54 ->60 54 ->61 54 ->66 54 ->68 55 ->60 55 ->62 55 ->63 55 ->64 55 ->67 57 ->60 57 ->62 57 ->67 57 ->68 58 ->59 58 ->65 58 ->67 58 ->68 59 ->77 60 ->69 60 ->73 60 ->77 60 ->78 61 ->75 62 ->71 63 ->70 63 ->73 63 ->74 64 ->69 64 ->73 64 ->77 65 ->73 65 ->75 65 ->76 66 ->69 66 ->70 66 ->72 66 ->75 66 ->76 66 ->78 67 ->75 67 ->77 67 ->78 68 ->75 68 ->76 68 ->78 69 ->81 69 ->84 70 ->81 71 ->82 73 ->81 73 ->83 74 ->80 74 ->81 74 ->83 75 ->79 75 ->80 79 ->85 79 ->86 79 ->88 79 ->89 79 ->91 79 ->92 79 ->95 80 ->85 80 ->91 80 ->94 80 ->96 81 ->85 82 ->91 82 ->95 82 ->96 83 ->86 83 ->87 83 ->90 83 ->93 83 ->95 84 ->86 84 ->87 84 ->88 84 ->92 87 ->97 87 ->98 88 ->98 89 ->97 89 ->98 90 ->98 93 ->97 94 ->98 95 ->99 96 ->98 
}
