digraph G {
0 ->11 0 ->14 0 ->17 1 ->17 1 ->18 2 ->11 2 ->13 2 ->18 3 ->7 3 ->9 3 ->10 3 ->11 3 ->13 3 ->15 3 ->17 4 ->9 4 ->10 4 ->10 4 ->16 5 ->8 5 ->15 5 ->16 5 ->17 6 ->12 6 ->13 6 ->14 7 ->20 8 ->22 8 ->25 9 ->20 9 ->22 10 ->21 10 ->22 10 ->23 11 ->21 11 ->22 11 ->25 12 ->24 12 ->25 13 ->20 13 ->24 14 ->20 14 ->22 14 ->24 14 ->25 15 ->19 15 ->21 16 ->21 17 ->19 17 ->21 18 ->21 18 ->22 19 ->27 19 ->30 20 ->27 20 ->29 20 ->30 22 ->26 23 ->29 23 ->31 24 ->27 24 ->29 25 ->26 25 ->28 25 ->29 25 ->30 26 ->35 26 ->37 26 ->38 27 ->32 27 ->34 27 ->37 27 ->39 28 ->32 28 ->33 28 ->35 29 ->33 29 ->34 29 ->35 30 ->38 30 ->39 31 ->34 31 ->36 31 ->37 31 ->38 31 ->39 31 ->40 32 ->41 32 ->44 33 ->41 33 ->42 33 ->43 34 ->41 34 ->42 34 ->45 37 ->43 37 ->44 38 ->42 39 ->41 39 ->44 39 ->45 40 ->41 41 ->46 41 ->48 42 ->47 42 ->49 42 ->50 43 ->47 43 ->48 43 ->49 44 ->47 44 ->48 44 ->49 46 ->51 46 ->56 46 ->57 46 ->61 46 ->62 47 ->51 47 ->55 47 ->57 47 ->58 47 ->59 47 ->62 47 ->63 48 ->53 48 ->54 48 ->58 48 ->59 48 ->62 48 ->63 49 ->52 49 ->53 49 ->58 49 ->60 49 ->63 50 ->52 50 ->54 50 ->57 51 ->64 51 ->69 52 ->64 52 ->66 52 ->69 53 ->64 53 ->65 53 ->66 53 ->72 53 ->73 54 ->68 54 ->72 54 ->74 55 ->68 55 ->69 55 ->70 55 ->71 55 ->72 55 ->73 55 ->74 56 ->65 56 ->66 56 ->68 56 ->70 57 ->65 57 ->66 57 ->72 57 ->73 57 ->74 58 ->64 58 ->69 58 ->70 58 ->71 58 ->73 59 ->65 59 ->66 59 ->69 59 ->70 59 ->71 59 ->74 60 ->67 60 ->69 60 ->69 60 ->74 61 ->66 61 ->67 61 ->71 61 ->72 62 ->64 62 ->67 62 ->74 63 ->64 63 ->67 63 ->70 64 ->75 64 ->79 64 ->80 66 ->77 66 ->78 66 ->80 67 ->75 67 ->80 68 ->75 69 ->75 70 ->79 71 ->76 71 ->79 72 ->75 73 ->77 74 ->81 75 ->82 75 ->86 75 ->87 75 ->90 75 ->91 76 ->82 76 ->83 76 ->87 76 ->89 76 ->93 77 ->82 77 ->85 77 ->87 77 ->88 77 ->91 77 ->93 78 ->83 78 ->84 78 ->85 78 ->88 78 ->93 79 ->86 79 ->90 80 ->86 80 ->92 81 ->82 81 ->84 81 ->90 82 ->95 82 ->96 82 ->96 82 ->98 84 ->98 84 ->99 86 ->99 87 ->95 87 ->96 88 ->94 88 ->95 89 ->94 89 ->99 90 ->94 90 ->96 90 ->98 90 ->99 91 ->94 91 ->97 91 ->98 92 ->96 93 ->94 93 ->95 93 ->96 
}
