digraph G {
0 ->16 0 ->17 2 ->16 2 ->17 3 ->14 3 ->17 4 ->12 4 ->18 5 ->14 5 ->15 5 ->16 5 ->17 5 ->18 6 ->12 6 ->16 7 ->13 7 ->17 7 ->19 8 ->17 8 ->18 9 ->16 10 ->12 10 ->14 10 ->16 10 ->19 11 ->14 11 ->18 12 ->20 13 ->20 13 ->21 14 ->24 15 ->23 15 ->24 16 ->22 16 ->24 17 ->20 18 ->20 19 ->21 19 ->22 19 ->24 20 ->27 20 ->30 21 ->27 22 ->26 22 ->28 23 ->25 23 ->26 23 ->27 23 ->28 23 ->30 24 ->26 24 ->29 25 ->35 25 ->37 26 ->35 26 ->36 27 ->33 27 ->34 28 ->31 29 ->31 29 ->32 29 ->35 29 ->37 29 ->38 30 ->32 30 ->37 31 ->39 31 ->40 31 ->41 31 ->43 31 ->44 31 ->45 31 ->46 31 ->47 32 ->39 32 ->46 33 ->39 33 ->43 33 ->47 34 ->39 34 ->42 34 ->43 34 ->46 34 ->49 35 ->40 35 ->47 35 ->48 36 ->41 36 ->45 36 ->48 37 ->41 37 ->42 37 ->45 38 ->42 38 ->43 38 ->47 39 ->53 40 ->50 40 ->52 40 ->54 40 ->55 41 ->53 41 ->55 42 ->51 43 ->50 43 ->51 43 ->53 43 ->54 44 ->55 45 ->51 45 ->55 46 ->50 46 ->55 47 ->50 48 ->50 48 ->51 48 ->55 50 ->57 50 ->61 50 ->65 50 ->68 51 ->58 51 ->64 52 ->57 52 ->62 52 ->67 53 ->58 53 ->62 53 ->66 54 ->57 54 ->60 54 ->63 54 ->67 54 ->68 55 ->56 55 ->59 55 ->62 55 ->63 56 ->71 56 ->74 56 ->76 56 ->78 57 ->69 57 ->73 57 ->76 57 ->78 58 ->70 58 ->71 58 ->74 59 ->70 59 ->71 59 ->76 60 ->73 60 ->77 61 ->69 61 ->71 61 ->73 62 ->70 62 ->77 63 ->70 63 ->75 63 ->77 64 ->69 64 ->70 64 ->72 64 ->76 65 ->71 65 ->72 65 ->75 65 ->76 65 ->77 66 ->71 66 ->75 66 ->77 67 ->74 67 ->76 68 ->70 68 ->74 68 ->76 68 ->77 69 ->79 70 ->81 70 ->83 71 ->81 71 ->83 72 ->80 72 ->81 74 ->79 74 ->83 75 ->83 75 ->83 76 ->79 76 ->82 77 ->79 77 ->82 79 ->84 79 ->85 79 ->86 79 ->87 79 ->89 79 ->90 79 ->92 80 ->85 80 ->89 80 ->90 81 ->87 81 ->89 81 ->90 81 ->92 81 ->93 82 ->85 82 ->92 82 ->94 83 ->84 83 ->88 83 ->91 83 ->94 84 ->95 84 ->96 84 ->97 85 ->95 85 ->97 85 ->99 87 ->96 87 ->98 88 ->95 88 ->98 88 ->99 89 ->95 89 ->96 89 ->97 89 ->98 90 ->95 90 ->96 90 ->97 91 ->97 92 ->98 93 ->97 93 ->98 93 ->99 94 ->95 94 ->98 
}
