digraph G {
0 ->11 0 ->13 0 ->14 0 ->16 1 ->11 1 ->12 1 ->14 1 ->17 2 ->11 2 ->17 2 ->19 3 ->11 3 ->12 3 ->16 3 ->18 4 ->10 4 ->14 4 ->16 4 ->18 5 ->9 5 ->11 5 ->14 5 ->15 5 ->18 6 ->12 6 ->18 7 ->10 7 ->12 7 ->13 7 ->15 7 ->16 8 ->10 8 ->13 8 ->15 8 ->19 9 ->20 9 ->23 9 ->29 10 ->22 10 ->29 10 ->30 11 ->20 11 ->21 11 ->23 11 ->28 11 ->30 12 ->20 12 ->21 12 ->23 12 ->24 12 ->26 12 ->30 13 ->20 13 ->24 13 ->25 14 ->23 14 ->24 14 ->25 14 ->30 15 ->23 16 ->24 16 ->29 16 ->30 17 ->27 18 ->20 18 ->24 18 ->27 18 ->28 18 ->29 20 ->34 20 ->35 20 ->37 20 ->38 21 ->37 22 ->36 23 ->33 23 ->35 23 ->37 24 ->32 24 ->37 25 ->35 25 ->36 25 ->37 26 ->33 26 ->37 27 ->33 27 ->34 28 ->31 28 ->35 28 ->36 29 ->32 29 ->35 29 ->36 30 ->35 30 ->38 31 ->44 31 ->45 31 ->47 32 ->40 32 ->41 32 ->43 32 ->44 32 ->45 32 ->46 33 ->41 33 ->43 33 ->45 34 ->41 34 ->42 35 ->43 35 ->44 36 ->39 36 ->40 36 ->46 36 ->48 37 ->40 37 ->40 37 ->41 37 ->43 37 ->47 37 ->48 38 ->39 38 ->47 39 ->52 39 ->55 39 ->56 40 ->52 41 ->50 41 ->52 41 ->53 42 ->50 42 ->51 42 ->53 42 ->56 43 ->51 43 ->56 44 ->51 44 ->54 45 ->49 45 ->53 45 ->54 45 ->56 46 ->50 46 ->51 46 ->54 47 ->51 47 ->52 48 ->52 49 ->58 49 ->62 50 ->57 50 ->61 51 ->58 51 ->59 51 ->61 52 ->60 52 ->63 53 ->57 53 ->59 53 ->63 54 ->57 54 ->59 54 ->61 54 ->62 55 ->62 55 ->63 56 ->57 58 ->67 58 ->72 59 ->65 59 ->66 59 ->69 59 ->71 60 ->64 60 ->66 60 ->69 60 ->71 60 ->73 61 ->64 61 ->66 62 ->65 62 ->66 62 ->68 62 ->72 62 ->73 63 ->70 63 ->71 63 ->72 63 ->73 63 ->74 64 ->82 64 ->83 65 ->75 65 ->77 65 ->78 65 ->83 65 ->84 66 ->75 66 ->78 66 ->80 66 ->81 66 ->83 66 ->85 67 ->76 67 ->79 67 ->85 68 ->79 68 ->84 69 ->76 69 ->78 69 ->80 69 ->83 69 ->84 70 ->79 70 ->80 71 ->80 71 ->83 72 ->78 72 ->80 72 ->85 73 ->75 73 ->78 74 ->76 74 ->77 74 ->81 74 ->83 75 ->86 75 ->88 75 ->90 75 ->92 75 ->94 76 ->87 76 ->88 76 ->90 76 ->92 76 ->94 77 ->88 77 ->90 77 ->92 78 ->86 78 ->89 78 ->93 79 ->91 80 ->87 80 ->89 81 ->87 81 ->89 81 ->93 82 ->95 82 ->97 82 ->98 83 ->87 83 ->92 83 ->98 84 ->86 84 ->92 85 ->86 85 ->87 85 ->89 85 ->96 90 ->99 
}
