files/tasks_parameters/ExAp01/sample8.txt 1.08399 3.76817 4.3855 0.450105 35.4936
files/tasks_parameters/ExAp01/sample12.txt 1.575 5.03638 5.18776 0.610564 48.1468
files/tasks_parameters/ExAp01/sample2.txt 1.50946 4.58991 5.64606 0.613877 48.408
files/tasks_parameters/ExAp01/sample44.txt 1.29757 3.77401 5.66946 0.551838 43.5158
files/tasks_parameters/ExAp01/sample27.txt 1.30619 4.13937 5.56136 0.55779 43.9852
files/tasks_parameters/ExAp01/sample17.txt 1.24035 3.76163 5.38341 0.520991 41.0834
files/tasks_parameters/ExAp01/sample9.txt 1.17657 3.69889 5.2981 0.511699 40.3507
files/tasks_parameters/ExAp01/sample34.txt 1.17674 3.52435 5.83741 0.49187 38.787
files/tasks_parameters/ExAp01/sample40.txt 1.16884 4.06185 5.0335 0.496884 39.1824
files/tasks_parameters/ExAp01/sample33.txt 1.56415 4.82091 5.83886 0.651963 51.4113
files/tasks_parameters/ExAp01/sample48.txt 1.1533 4.01134 5.07085 0.447927 35.3218
files/tasks_parameters/ExAp01/sample29.txt 1.53981 4.20847 5.0406 0.643694 50.7593
files/tasks_parameters/ExAp01/sample11.txt 1.31975 3.94699 5.29198 0.557276 43.9447
files/tasks_parameters/ExAp01/sample14.txt 1.08728 3.54059 4.58345 0.466713 36.8032
files/tasks_parameters/ExAp01/sample0.txt 1.53372 4.82755 4.90216 0.623551 49.1708
files/tasks_parameters/ExAp01/sample7.txt 1.17699 3.60766 5.11185 0.509566 40.1824
files/tasks_parameters/ExAp01/sample23.txt 1.45398 3.81403 5.45799 0.582911 45.9662
files/tasks_parameters/ExAp01/sample13.txt 1.46197 4.8894 5.26818 0.624499 49.2456
files/tasks_parameters/ExAp01/sample22.txt 1.29183 3.76156 4.95746 0.534216 42.1263
files/tasks_parameters/ExAp01/sample25.txt 0.988837 2.94144 4.92622 0.403639 31.8295
files/tasks_parameters/ExAp01/sample36.txt 1.21631 3.56164 4.5806 0.501799 39.5699
files/tasks_parameters/ExAp01/sample46.txt 1.26561 3.84833 4.7121 0.530701 41.8491
files/tasks_parameters/ExAp01/sample31.txt 1.13493 3.764 5.08385 0.479734 37.83
files/tasks_parameters/ExAp01/sample37.txt 1.5256 4.43254 5.65111 0.65143 51.3693
files/tasks_parameters/ExAp01/sample16.txt 1.26291 4.49741 4.8895 0.509171 40.1513
files/tasks_parameters/ExAp01/sample10.txt 1.37887 3.87086 6.07511 0.60993 48.0967
files/tasks_parameters/ExAp01/sample39.txt 1.09164 3.66299 4.54281 0.463671 36.5634
files/tasks_parameters/ExAp01/sample19.txt 1.50879 3.86694 5.14047 0.615987 48.5744
files/tasks_parameters/ExAp01/sample20.txt 1.38715 4.09945 5.13368 0.580369 45.7657
files/tasks_parameters/ExAp01/sample43.txt 1.21036 3.75825 5.55698 0.530892 41.8641
files/tasks_parameters/ExAp01/sample32.txt 1.51505 4.0352 5.29178 0.587643 46.3393
files/tasks_parameters/ExAp01/sample45.txt 1.25632 3.94578 4.87833 0.541081 42.6676
files/tasks_parameters/ExAp01/sample26.txt 1.11328 3.50998 4.55035 0.474009 37.3786
files/tasks_parameters/ExAp01/sample5.txt 1.42269 4.00994 5.27725 0.587681 46.3422
files/tasks_parameters/ExAp01/sample21.txt 0.940722 2.8974 4.54677 0.430037 33.9111
files/tasks_parameters/ExAp01/sample38.txt 1.18022 3.56689 4.78573 0.492366 38.8261
files/tasks_parameters/ExAp01/sample1.txt 1.19556 3.69002 4.55048 0.481074 37.9357
files/tasks_parameters/ExAp01/sample15.txt 1.20629 3.73223 5.42493 0.524964 41.3967
files/tasks_parameters/ExAp01/sample24.txt 1.37159 4.18053 5.40377 0.542575 42.7854
files/tasks_parameters/ExAp01/sample3.txt 1.17731 3.70547 4.7118 0.470503 37.1021
files/tasks_parameters/ExAp01/sample6.txt 1.40916 4.07521 5.71419 0.626702 49.4194
files/tasks_parameters/ExAp01/sample30.txt 1.49685 3.97446 5.82388 0.626709 49.4199
files/tasks_parameters/ExAp01/sample42.txt 1.30299 4.44207 5.58473 0.537025 42.3477
files/tasks_parameters/ExAp01/sample4.txt 1.28906 3.92181 4.49751 0.556974 43.9209
files/tasks_parameters/ExAp01/sample28.txt 1.072 3.13496 4.88321 0.444588 35.0585
files/tasks_parameters/ExAp01/sample18.txt 1.29315 3.95301 4.52898 0.537438 42.3803
files/tasks_parameters/ExAp01/sample35.txt 2.0445 5.75923 6.25034 0.752488 59.3383
files/tasks_parameters/ExAp01/sample47.txt 1.19023 3.44018 5.14289 0.540033 42.585
files/tasks_parameters/ExAp01/sample49.txt 1.16087 3.38981 4.72409 0.493041 38.8794
files/tasks_parameters/ExAp01/sample41.txt 1.14347 3.58692 5.27252 0.492391 38.828
