files/tasks_parameters/ExAp01/sample8.txt 1.089 3.76817 4.3855 0.450105 19.5277
files/tasks_parameters/ExAp01/sample12.txt 1.55127 5.03638 5.18776 0.610564 26.4892
files/tasks_parameters/ExAp01/sample2.txt 1.466 4.58991 5.64606 0.613877 26.633
files/tasks_parameters/ExAp01/sample44.txt 1.29282 3.77401 5.66946 0.551838 23.9414
files/tasks_parameters/ExAp01/sample27.txt 1.30608 4.13937 5.56136 0.55779 24.1996
files/tasks_parameters/ExAp01/sample17.txt 1.20325 3.76163 5.38341 0.520991 22.6031
files/tasks_parameters/ExAp01/sample9.txt 1.21626 3.69889 5.2981 0.511699 22.2
files/tasks_parameters/ExAp01/sample34.txt 1.13513 3.52435 5.83741 0.49187 21.3397
files/tasks_parameters/ExAp01/sample40.txt 1.16885 4.06185 5.0335 0.496884 21.5572
files/tasks_parameters/ExAp01/sample33.txt 1.59074 4.82091 5.83886 0.651963 28.2853
files/tasks_parameters/ExAp01/sample48.txt 1.11508 4.01134 5.07085 0.447927 19.4333
files/tasks_parameters/ExAp01/sample29.txt 1.54553 4.20847 5.0406 0.643694 27.9266
files/tasks_parameters/ExAp01/sample11.txt 1.31879 3.94699 5.29198 0.557276 24.1773
files/tasks_parameters/ExAp01/sample14.txt 1.08636 3.54059 4.58345 0.466713 20.2483
files/tasks_parameters/ExAp01/sample0.txt 1.58452 4.82755 4.90216 0.623551 27.0526
files/tasks_parameters/ExAp01/sample7.txt 1.19131 3.60766 5.11185 0.509566 22.1074
files/tasks_parameters/ExAp01/sample23.txt 1.45515 3.81403 5.45799 0.582911 25.2895
files/tasks_parameters/ExAp01/sample13.txt 1.47602 4.8894 5.26818 0.624499 27.0938
files/tasks_parameters/ExAp01/sample22.txt 1.29323 3.76156 4.95746 0.534216 23.1769
files/tasks_parameters/ExAp01/sample25.txt 0.98898 2.94144 4.92622 0.403639 17.5118
files/tasks_parameters/ExAp01/sample36.txt 1.25826 3.56164 4.5806 0.501799 21.7705
files/tasks_parameters/ExAp01/sample46.txt 1.2565 3.84833 4.7121 0.530701 23.0244
files/tasks_parameters/ExAp01/sample31.txt 1.13523 3.764 5.08385 0.479734 20.8132
files/tasks_parameters/ExAp01/sample37.txt 1.5874 4.43254 5.65111 0.65143 28.2622
files/tasks_parameters/ExAp01/sample16.txt 1.23867 4.49741 4.8895 0.509171 22.0903
files/tasks_parameters/ExAp01/sample10.txt 1.4002 3.87086 6.07511 0.60993 26.4617
files/tasks_parameters/ExAp01/sample39.txt 1.08798 3.66299 4.54281 0.463671 20.1163
files/tasks_parameters/ExAp01/sample19.txt 1.40818 3.86694 5.14047 0.615987 26.7245
files/tasks_parameters/ExAp01/sample20.txt 1.30941 4.09945 5.13368 0.580369 25.1792
files/tasks_parameters/ExAp01/sample43.txt 1.15484 3.75825 5.55698 0.530892 23.0327
files/tasks_parameters/ExAp01/sample32.txt 1.52584 4.0352 5.29178 0.587643 25.4948
files/tasks_parameters/ExAp01/sample45.txt 1.23205 3.94578 4.87833 0.541081 23.4747
files/tasks_parameters/ExAp01/sample26.txt 1.11243 3.50998 4.55035 0.474009 20.5648
files/tasks_parameters/ExAp01/sample5.txt 1.38255 4.00994 5.27725 0.587681 25.4964
files/tasks_parameters/ExAp01/sample21.txt 0.933921 2.8974 4.54677 0.430037 18.6571
files/tasks_parameters/ExAp01/sample38.txt 1.16959 3.56689 4.78573 0.492366 21.3612
files/tasks_parameters/ExAp01/sample1.txt 1.1568 3.69002 4.55048 0.481074 20.8713
files/tasks_parameters/ExAp01/sample15.txt 1.20629 3.73223 5.42493 0.524964 22.7755
files/tasks_parameters/ExAp01/sample24.txt 1.3439 4.18053 5.40377 0.542575 23.5395
files/tasks_parameters/ExAp01/sample3.txt 1.15371 3.70547 4.7118 0.470503 20.4127
files/tasks_parameters/ExAp01/sample6.txt 1.41981 4.07521 5.71419 0.626702 27.1894
files/tasks_parameters/ExAp01/sample30.txt 1.49305 3.97446 5.82388 0.626709 27.1897
files/tasks_parameters/ExAp01/sample42.txt 1.29681 4.44207 5.58473 0.537025 23.2987
files/tasks_parameters/ExAp01/sample4.txt 1.32314 3.92181 4.49751 0.556974 24.1642
files/tasks_parameters/ExAp01/sample28.txt 1.06464 3.13496 4.88321 0.444588 19.2884
files/tasks_parameters/ExAp01/sample18.txt 1.22931 3.95301 4.52898 0.537438 23.3167
files/tasks_parameters/ExAp01/sample35.txt 1.90882 5.75923 6.25034 0.752488 32.6466
files/tasks_parameters/ExAp01/sample47.txt 1.16153 3.44018 5.14289 0.540033 23.4293
files/tasks_parameters/ExAp01/sample49.txt 1.23208 3.38981 4.72409 0.493041 21.3905
files/tasks_parameters/ExAp01/sample41.txt 1.16119 3.58692 5.27252 0.492391 21.3623
