1 20
2 18
2 20
2 21
4 17
4 18
4 19
4 20
4 23
5 17
5 21
5 23
6 18
7 18
7 19
7 21
7 23
8 23
9 18
9 21
9 23
10 23
11 20
11 22
11 23
12 17
12 18
12 19
12 23
13 17
13 19
13 22
13 23
15 17
15 18
15 20
15 21
16 17
17 24
17 26
17 28
17 30
17 31
18 31
18 33
19 29
19 32
19 33
20 29
20 32
21 28
21 31
21 33
22 29
23 25
23 27
23 28
23 30
24 36
24 40
24 41
24 45
24 46
24 48
24 49
25 35
25 37
25 43
25 44
25 47
26 43
26 44
26 45
26 46
27 38
27 42
27 48
27 50
28 35
28 40
28 48
28 49
29 34
29 37
29 38
29 43
29 47
29 49
30 34
30 36
30 38
30 39
30 47
30 48
31 34
31 37
31 39
31 43
31 48
31 50
32 39
32 42
32 43
32 45
32 46
33 36
33 37
33 44
33 45
33 47
34 54
34 56
34 58
35 53
35 54
35 58
35 60
36 54
36 56
37 51
37 55
37 56
38 51
38 52
38 55
39 51
39 52
39 54
39 58
39 59
40 51
40 52
40 54
40 56
40 58
41 51
41 54
41 58
41 59
43 56
44 51
45 51
45 56
45 58
46 58
46 59
46 60
47 55
47 59
48 51
48 55
48 57
48 59
48 60
49 52
49 57
49 59
49 59
50 54
50 56
50 60
51 62
51 63
52 63
52 63
52 65
53 61
53 63
53 64
53 68
54 62
55 62
55 64
55 67
56 61
56 62
56 64
56 66
56 67
57 67
57 68
58 66
58 67
59 61
59 65
59 66
60 63
60 64
60 66
60 67
61 69
61 70
61 71
61 73
61 76
61 79
62 70
62 71
62 76
62 78
63 73
63 74
63 75
63 79
63 83
64 74
64 78
64 82
65 70
65 80
65 83
66 72
66 75
66 77
66 78
66 82
66 83
67 81
67 82
68 70
68 71
68 75
68 78
68 79
69 84
69 88
69 89
69 90
69 95
70 86
71 84
71 85
71 86
71 88
71 90
72 88
72 91
72 93
72 95
73 88
73 91
73 94
74 88
74 89
74 91
74 94
75 90
75 91
76 84
76 85
76 87
76 92
76 96
77 87
77 95
77 96
78 84
78 85
78 90
78 91
78 92
79 88
79 89
79 91
80 84
80 87
80 93
81 86
81 87
81 90
81 96
82 85
82 90
83 84
83 85
83 89
83 95
84 98
84 99
85 99
90 99
91 99
92 97
92 99
93 99
94 99
95 97
