Task0 0.08722256509534118 0.21692639346397213 0.15046086150242852 0.050053763947011026 0.4124107427833472 0.6991117438974246 0.9198976368574803 
Task1 0.08579356235832016 0.14243116076026105 0.11034450702173386 0.1488783899443581 0.3440157625632092 0.8423018782936806 0.7442122950373997 
Task2 0.08147431064694328 0.34281992678104245 0.2960704524819277 0.0610477028572567 0.6980261889552156 0.5986453607236966 0.6456786373194798 
Task3 0.03843005051312877 0.11767854180975595 0.17362608496845514 0.2598195946517135 0.7868917613127369 0.38332448800181557 0.40376976834639133 
Task4 0.07354480454452172 0.06336289582112363 0.06413385811267489 0.20544173640001875 0.9977008136244883 0.442983433244727 0.613729620977405 
Task5 0.020206025418746304 0.01891757144136099 0.07526450563568499 0.04606911583767087 0.9088037455279259 0.73211773560225 0.4235845562832914 
Task6 0.012727744091206894 0.02816576375651987 0.0023362333608427876 0.06084865192819727 0.8347890300140965 0.7613452199724768 0.52071855431183 
Task7 0.09122716540845326 0.15523426879895166 0.31700006495547084 0.2633217363278593 0.5897370336953514 0.6831873112495463 0.8426621639570331 
Task8 0.050279185208782294 0.4524949183756434 0.1023746496527917 0.20314337757241363 0.8650425336410821 0.6154766827323541 0.7742012037507171 
Task9 0.03174132823696833 0.03887550947267116 0.07136479322695895 0.2507490474281253 0.7861420595302928 0.5604314738673644 0.711883552482731 
Task10 0.034526289468080784 0.06108331640508254 0.1387847389656391 0.08262996780129916 0.5764090796416121 0.5665136114180856 0.5837008436971058 
Task11 0.05550061667642637 0.29896721818269884 0.19485158427711097 0.1465726451041998 0.4458730079233473 0.7589536711748865 0.3001801221505363 
Task12 0.0032649480354809586 0.030511649051500875 0.031487809519829234 0.016311851382188523 0.8689227425635726 0.46215700503010615 0.5920348923003071 
Task13 0.022608639941324286 0.09866576466162323 0.125212871513577 0.004733572330595749 0.8576939572042901 0.8038969304854766 0.8523242158708626 
Task14 0.02827985182464592 0.23620676835173518 0.1237911097442321 0.1255618081218073 0.3000287146138251 0.4459265225820218 0.744687644910782 
Task15 0.08404776577245093 0.060586553604849186 0.0750496985736218 0.22114565509522568 0.9459815044879374 0.4355552293472717 0.9209678692666814 
Task16 0.0429725282346758 0.2731575663689705 0.2509356728606843 0.14591491573252385 0.7928258155339004 0.5735093653920447 0.6339825935657941 
Task17 0.08740578443261568 0.06368391566652623 0.22256699902298324 0.07312165617948348 0.5419985215501815 0.45059482377364124 0.8076305136063489 
Task18 0.003959293755703377 0.1017094824594105 0.09959857090138503 0.08576335579322389 0.5544023526477849 0.7553706756247505 0.7409909220768042 
Task19 0.023428831786013224 0.10282018790396466 0.286404963160943 0.17577325128634175 0.7270399591732293 0.8085836021566195 0.8676489092766166 
Task20 0.07654818415875703 0.11615921654256625 0.16918934084810092 0.02452698733726037 0.9667135611134958 0.5120693912417897 0.46491398514054605 
Task21 0.00594351170729179 0.30582604566634125 0.3037061404291375 0.027351488327669253 0.44143631693929075 0.6129461168261543 0.4240556618321122 
Task22 0.10317126346691437 0.23317274024820783 0.028178668231586934 0.19796075754248998 0.417371277047047 0.742025655855318 0.731020760925545 
Task23 0.031140303528361366 0.19204507848239538 0.14963185068797796 0.21661692784606118 0.38574677786070216 0.690577747737638 0.8637670819772651 
Task24 0.008612655995169968 0.01824230183376657 0.045980700881999605 0.024247417615630294 0.33293364989685764 0.5153266877676878 0.6311502708391636 
Task25 0.0013153160840129751 0.034340173236054546 0.07602980262345865 0.06220945499326245 0.9223715121483167 0.4234102233556056 0.5417362954597633 
Task26 0.10168927972684541 0.19446644022028145 0.20352689250646924 0.20309894677293758 0.45852755246963794 0.4060735153020117 0.9430407774544025 
Task27 0.022573592147601105 0.04413963565249454 0.029307661906515542 0.030668458524872506 0.8635159105085501 0.8201485466489558 0.482749176018658 
Task28 0.07463557658481458 0.15402517934470766 0.11189522007840921 0.4339457971755098 0.8638549906220816 0.8324207394115415 0.6229208671979236 
Task29 0.07012931463133337 0.09179493820587824 0.2689667067133369 0.34551888624397925 0.6778573156457883 0.959384658157727 0.9559631882194592 
Task30 0.05857018740540351 0.08059828994900278 0.19920703640176685 0.03521233816236368 0.6297800634895867 0.8350060828552688 0.42287451757761424 
Task31 0.11465991921583651 0.2392009081167858 0.24260414139083866 0.10354542305396958 0.4883346025426798 0.9658094615257804 0.6835000124859523 
Task32 0.0001392676463707577 0.00685801971109949 0.006823560146594648 0.010212428901996112 0.7842320313915851 0.32589324684225335 0.8629497207793235 
Task33 0.09460290132764347 0.3901766807984594 0.22977468575854207 0.1554017998430711 0.5461274241253858 0.5814432307295914 0.715945582999413 
Task34 0.004391373515287735 0.0648038549481405 0.18405992624694895 0.08851254524077998 0.5993157585165418 0.6784931072219647 0.6644580408821081 
Task35 0.007299283450534315 0.04616937509724899 0.04916598051657108 0.022800801107594682 0.633868763872534 0.5228603166301053 0.5928551101943808 
Task36 0.07504442988444131 0.13467451734248695 0.1500784212414075 0.08905159925511127 0.6766952228251915 0.6196747752668962 0.4246950837496007 
Task37 0.15556885592023062 0.22116301856273898 0.1080774746661304 0.3108203002123415 0.45481552344862103 0.4401013921779767 0.8092333342225135 
Task38 0.023582578616318503 0.12592048081646257 0.367229168205094 0.1205718944626104 0.6103579118917332 0.7845944898800514 0.8216502946006141 
Task39 0.019643293875946995 0.11329134275493345 0.06915051024651507 0.07956665796052458 0.9820562542034978 0.9106205071100315 0.6592297374210654 
Task40 0.027725665455709435 0.05935447576722856 0.23160514487971293 0.2487321881545347 0.7536619581180186 0.9623524423849776 0.5537145458918054 
Task41 0.01599168668101535 0.08733113584155876 0.14723107288280057 0.07772445582314823 0.7785067525990231 0.3685012154907148 0.7273338578849442 
Task42 0.023244945588034006 0.1883493735929056 0.12952573787336533 0.2347023039726568 0.4297059446083368 0.5633643191955333 0.9057491161214963 
Task43 0.06012763110399196 0.08422080614147905 0.09754384386571222 0.12450047861310154 0.5330812982118841 0.6348263154330067 0.4888874048595018 
Task44 0.07485875347867811 0.07347197115749261 0.22593151889253843 0.06648951941336821 0.4366361551408337 0.49042206095857876 0.5690718168094202 
Task45 0.021620547789020544 0.0412200907157483 0.06064424028166041 0.015074465570091925 0.8251421480187611 0.8151143354978645 0.3908181678486855 
Task46 0.02025983609307917 0.04734687012815142 0.09934623562929315 0.12665746154090882 0.4330560474516628 0.5051023430015316 0.8118543558026043 
Task47 0.04391703063184878 0.1683588043854276 0.4152641556348371 0.2308024629933574 0.4740236466065589 0.6601538193815071 0.41457896289742857 
Task48 0.13190828773639934 0.27003238447440014 0.22014138287182655 0.10403454317557435 0.7097054554954908 0.9050452407009906 0.41955014177383965 
Task49 0.010018973688637947 0.034254637018124916 0.19989295611037783 0.14510597390063293 0.43256084436612896 0.9641033494663278 0.47085427934584445 
Task50 0.05308084394457703 0.038869717021790255 0.25144443510261066 0.1347355394705817 0.35641418386098367 0.4746788586074658 0.3199440286537755 
Task51 0.1010755110029569 0.24495459155067326 0.1447526296160812 0.11498227471983188 0.6188286159539922 0.43857215836192576 0.574603804967758 
Task52 0.019324770330771266 0.12277363093505564 0.22091174058798138 0.027597085918354768 0.9230337684201979 0.4688087857061637 0.7847406560558154 
Task53 0.06593805415402422 0.32916948418929903 0.03806015575382829 0.38547189539375915 0.41039472089582857 0.8906440076976241 0.9229854659610086 
Task54 0.1160503778425372 0.24861014122409983 0.11576111970324462 0.22081019947451355 0.4434141697566208 0.7769288379660222 0.9415532059426468 
Task55 0.014609701933997327 0.06974842111449317 0.1804007780011267 0.11827650388677347 0.8286596484310413 0.7980201435967267 0.9300282973317076 
Task56 0.006156098716569744 0.008190713322344025 0.013575839017745818 0.014870904011312852 0.5455146574835963 0.9280763612498906 0.42754765210087475 
Task57 0.012692612836959933 0.03473367769046777 0.01300680697612155 0.029617145312872028 0.9572674637764045 0.6351300173519892 0.8142892135708988 
Task58 0.001248855820267082 0.0029191458736487685 0.0019546455332601818 0.0007787419311918773 0.9545847037212118 0.8370317991345977 0.44966127980323783 
Task59 0.02618851662086543 0.1038141434159676 0.033252644048321775 0.23891530838162234 0.9175587958365097 0.468942604320455 0.6312994169000967 
Task60 0.04351094395545664 0.18176560894053573 0.3478240223569509 0.18907948126894983 0.7254855079361198 0.9976053542513186 0.8793883546260459 
Task61 0.02188392111019535 0.12237763007031606 0.12480658408652522 0.18753908840202216 0.5903987411516947 0.37154706888596756 0.8058758514838686 
Task62 0.09985141426632456 0.11764134110889918 0.24209041552820965 0.10005719368613075 0.5943323102384417 0.46301591785507623 0.5540298811415441 
Task63 0.003148600900435871 0.20454888024260698 0.5976106118839908 0.19370860659807881 0.3990782107779409 0.40301572205240077 0.6609428565014672 
Task64 0.05238334255016038 0.1469030813774623 0.11687915163328334 0.05152129957882127 0.6111448667310564 0.987853865825858 0.5051466200589241 
Task65 0.05114849567378267 0.12035938953367376 0.10226317185136641 0.030984894069946204 0.8640909877081087 0.5277455112237853 0.6450699424250432 
Task66 0.0251850142103429 0.0032450222686654785 0.1155460867620267 0.08631135311734768 0.439674237187721 0.39901574420342695 0.39677592263992556 
Task67 0.05409829826820828 0.17325755351253042 0.1719942166116924 0.07403475143241761 0.6006490939647122 0.6244123976853484 0.6282949142478813 
Task68 0.0008191367195675865 0.13143106994013998 0.005021985921619648 0.019783214539671315 0.7704545580418777 0.6430101764204104 0.8824157953343013 
Task69 0.03497308077423104 0.13806749598637025 0.14479565374098416 0.08535268002988952 0.5787872091920263 0.5018800361652017 0.336190741272146 
Task70 0.08399252012984894 0.4146755635296122 0.26128390943776353 0.19468386253440226 0.9848178872658595 0.6546419310625741 0.7004329378416974 
Task71 0.08536278970261245 0.08615170250442376 0.12826630880487805 0.14714645010745878 0.6484914189205693 0.4264836369164312 0.44856088283886886 
Task72 0.11369679758293307 0.1308592165490276 0.09696286412216623 0.2431704655486949 0.8392764099603245 0.9806695695361913 0.7041933643314648 
Task73 0.0037910981683204788 0.002026520808015687 0.015302008857305873 0.008221212236010172 0.7888296236554052 0.9316230807245212 0.9473109386265117 
Task74 0.08423595308495184 0.19104307782218335 0.18089294420984264 0.36411374509882166 0.3644467475153404 0.35189237794176814 0.8194151322279986 
Task75 0.06514399985996756 0.352270480756153 0.2651163432362585 0.17682478535357402 0.9009122140447621 0.7802777790081369 0.9241216632897626 
Task76 0.1380616110120033 0.2495933854237711 0.09740173615845829 0.48249134288508516 0.8781493000429388 0.6407643518345517 0.322397905866362 
Task77 0.12610237536595292 0.0396969772128919 0.6379433334352351 0.16657120489979277 0.6420172960847534 0.9911282733817783 0.3118580575322687 
Task78 0.028635434591844873 0.19658586291627694 0.44927252181364774 0.14931501151138804 0.7490066079087374 0.4473640672632073 0.517427813792025 
Task79 0.010789115000442367 0.4652125511560225 0.06730822609147025 0.40614565958939425 0.8823421887719693 0.6575512657253635 0.5005554487305794 
Task80 0.12300578491954538 0.1720449300474642 0.10777484202569158 0.2232477538142239 0.41186691358495625 0.3322603261569563 0.32276159066119525 
Task81 0.011682787840075851 0.023937573228001583 0.002145955876007833 0.04182450813936523 0.7500603066746813 0.5466438479426737 0.9366713163960119 
Task82 0.024227293005130813 0.2915954263524264 0.2887208866020081 0.04693688038059777 0.7347141080619293 0.9905307460007517 0.8658805260593547 
Task83 0.10783084726472292 0.14894442913807604 0.35486859987364794 0.3003229823489451 0.3639180226367081 0.824292712000902 0.7597585580106783 
Task84 0.047163436075371094 0.09455496919621491 0.12331443111384012 0.04465881465037473 0.8251659552454538 0.730983815619097 0.692818849381174 
Task85 0.0002307738192702763 0.07908926213266977 0.0783722749079206 0.03451616491688761 0.8218894375792014 0.574827862199536 0.392062153154514 
Task86 0.11288993244546554 0.2146183397508869 0.3073862931313504 0.16101560575465132 0.3943428606487583 0.7812625413595418 0.8066171115500487 
Task87 0.025689689524734 0.44560943326021835 0.26620539701984847 0.08801839426534869 0.3223477076571807 0.7217011820276445 0.8393598279852699 
Task88 0.1061424838429499 0.2524990937412818 0.028612176506475656 0.303641195239095 0.6036319480266548 0.7148897669628198 0.7584277075261336 
Task89 0.04543378226408843 0.20278836544498743 0.38109493530610256 0.11677250740493739 0.6613538654969626 0.7574314836408599 0.8059926709662988 
Task90 0.053771920092565484 0.1532887798709082 0.3496076271208016 0.3441857522370703 0.9059764849955769 0.7640896916531528 0.5880758122423867 
Task91 0.04181405198053062 0.08209693546504315 0.5711644406148008 0.2839108816747273 0.3395698627060644 0.5779022810328877 0.7237856474751718 
Task92 0.008938068269343822 0.020925114056454416 0.10047500643490803 0.022548467031581934 0.6556820457219978 0.33725811844537784 0.3032274756344592 
Task93 0.02663427542504164 0.03307484782541851 0.06561608873530589 0.05715212991756837 0.6184905179782535 0.7394768705654978 0.9986143779153698 
Task94 0.1158186047171219 0.00409153389579696 0.18532969441646527 0.28614469793226044 0.5915595652351021 0.8973620714974995 0.34507406467616514 
Task95 0.0480113832602447 0.038833336263142317 0.14780283581637083 0.023710817463685904 0.7425836398004261 0.4103605349803815 0.8908972822690413 
Task96 0.08086641584414041 0.15743229133397393 0.2215901051228026 0.13091697239746516 0.7815866707056862 0.9482679253744157 0.432793034702627 
Task97 0.0566112672359981 0.0727151635551452 0.12232433234998148 0.1414046131178105 0.744377752053369 0.37131213429389553 0.893541558348222 
Task98 0.0637172312991332 0.4183487647521657 0.003148138782062077 0.16661684505651603 0.7192347696372922 0.9132811759316652 0.6788424709650602 
Task99 0.0488362591838557 0.1688566079025268 0.15601418006442 0.08529789752042645 0.993864749128351 0.7145151104043392 0.647137432996397 
