Task0 0.031912937650629185 0.25662452982822404 0.04418966156478553 0.0916371202109039 0.5476885796136441 0.9885776007918619 0.7960988363127057 
Task1 0.050153285676660296 0.2831273026355861 0.18219607314324182 0.33077749071745605 0.5737433241128822 0.5999957292153069 0.45380347588559994 
Task2 0.0316110861849147 0.07650407443663933 0.02307851325830869 0.056824229739872084 0.37764491910670284 0.4433162955435853 0.7312332912231827 
Task3 0.1312010235545253 0.08677052887292067 0.0033016637722424946 0.4559563265569789 0.504601433796005 0.539558363621591 0.3267174180870372 
Task4 0.002403705295665595 0.23510760415893395 0.021340396356716872 0.2433986913980328 0.8497234787586119 0.35149703860795284 0.5864737107716953 
Task5 0.05039953234036164 0.1051201397747722 0.04258705942530024 0.11162504440199508 0.5734066022928259 0.6111904620129451 0.5455692986492167 
Task6 0.0005754009025179856 0.01396243334393732 0.04739803637449684 0.1363309667603866 0.6003101999593231 0.9377555468322911 0.6874057700122254 
Task7 0.11627766586815684 0.38872370915951426 0.22726232068306143 0.06596645414845324 0.6515834686528381 0.9382183148103662 0.44433077665159065 
Task8 0.0341346285220403 0.15768762978684714 0.01915301077754722 0.19341258221122296 0.45121562045255015 0.6388720083837116 0.743494026281079 
Task9 0.04729609747517478 0.2136617099980238 0.1427332187925332 0.23949278472148802 0.355772234243324 0.31341842601839787 0.38244506466092654 
Task10 0.18747280922937576 0.0642044367554255 0.3682865185271843 0.37569230336111464 0.7286188413796861 0.5033756257747477 0.8050938704339072 
Task11 0.10482071260495998 0.3263578990480888 0.09105810324320739 0.3578156581916813 0.6642349730958209 0.35636489162823387 0.8059120638088584 
Task12 0.054406398234945225 0.07252040499499902 0.011994887653900834 0.1610174846200552 0.7426689575397378 0.6368078246768087 0.6340608916444662 
Task13 0.05964091224481061 0.042871408228946736 0.296125589991002 0.0016205872684091354 0.3832858503046711 0.7844428816427184 0.7707675960204772 
Task14 0.06288229616519263 0.37098972372980316 0.2838247802264352 0.18193146451421627 0.543130182046033 0.6773981554183783 0.37541963501970593 
Task15 0.08989190727994503 0.26975770021003537 0.09911572870665322 0.2258749349795694 0.9321476109996427 0.772741169570741 0.34595957440847913 
Task16 0.021747331219132058 0.03634648646643958 0.06823034149125913 0.08382642082052466 0.9550016935927685 0.579176093712385 0.6436302545074357 
Task17 0.05037686810543154 0.11121980456643195 0.2302924494671011 0.24154477043265954 0.7596915585627709 0.7431815599926821 0.6078769907581447 
Task18 0.020309926989378307 0.08289781183834931 0.02143978857064012 0.10296356038822634 0.4333656374286158 0.568917593077969 0.4090667059926532 
Task19 0.009172818852934275 0.018311238919900403 0.15159037892045465 0.026171632412333074 0.8102040792867917 0.5955282271464826 0.49713257017884455 
Task20 0.012231318018324545 0.49430407008734395 0.22838223740251476 0.15779837018520643 0.7518780940001131 0.8127341021502745 0.5249931330847375 
Task21 0.029654848442653804 0.1181867463161833 0.16540330812204204 0.05931233004649253 0.66899627330947 0.3920770376628233 0.5813059088423631 
Task22 0.06463566787040442 0.07881681084643827 0.03527176244504499 0.15576002671853947 0.43288921827208443 0.3274149765780114 0.7552385910506364 
Task23 0.011844238606300175 0.23794438280664293 0.18034888365913537 0.28013869401882974 0.4170951897895591 0.4587963289138763 0.9741037964116244 
Task24 0.15543134238655665 0.245488785918768 0.30086500865509674 0.08278153540563933 0.44407450417586547 0.45989086626590664 0.34300035603931345 
Task25 0.01942144591939048 0.17057668539415027 0.308126629754673 0.09680392359092813 0.8330325841712412 0.9582676464995219 0.3259841475490422 
Task26 0.06211463876113562 0.052297363866388016 0.41835046225483685 0.39503313179699534 0.8602950889386212 0.7407275735054889 0.5662575618708723 
Task27 0.029929258628922515 0.011948440032151043 0.2352077839948675 0.15229729913994136 0.7559126217515757 0.4926284820660752 0.5084652538761076 
Task28 0.013379344447596508 0.008648220535759477 0.09897836744948704 0.062030454727128835 0.756917263251614 0.4842568987515036 0.5904659613047689 
Task29 0.007097989048559213 0.057896606924674715 0.022910096373801443 0.004181512996156752 0.4213291223201978 0.8071563955272034 0.43399758464005295 
Task30 0.05578503852429918 0.27930114951352564 0.3858915875481709 0.08273179213684774 0.5512757571753992 0.6149159013019305 0.4506772843214787 
Task31 0.09549081387055795 0.16506645946831097 0.09101064032657816 0.19059214497043758 0.5407355995462251 0.6731889351933362 0.3210366112556269 
Task32 0.07683603879362604 0.23459296538009686 0.1629266947926161 0.3093131975344704 0.6896971880118731 0.7156173865937538 0.8999423649932883 
Task33 0.017772062308345143 0.033935718098806994 0.021914832521710174 0.021806850504468612 0.34988608247534575 0.9069672289553674 0.582123590072696 
Task34 0.01242290050864091 0.08700815209160671 0.0673626897620362 0.08756901740252564 0.37410585041199884 0.9030427034883235 0.41512192067656045 
Task35 0.01507935119170883 0.0016616188607777834 0.05423815300051075 0.00864422269922526 0.37177517595320747 0.7856136714889375 0.7954177938002299 
Task36 0.038898636492979866 0.08322452732971274 0.13522583423821646 0.07640212608254833 0.6165635726996157 0.6542333334759614 0.9699714059647881 
Task37 0.036001286838761755 0.1880789133936457 0.07720877741587202 0.06024124591371964 0.30058333925375635 0.8162424557473866 0.32365297836995827 
Task38 0.048638188865173224 0.09841674694121098 0.1486978727108932 0.15110487870446357 0.7228627908152613 0.8030239215618633 0.8679723738660456 
Task39 0.0332693489836735 0.10370202535450587 0.09928004335310328 0.07000089240536879 0.5094691820949884 0.37820630442775616 0.7044427461283451 
Task40 0.08148375276756635 0.004832466845637666 0.12283949987597458 0.22611561053281784 0.31255935589017736 0.854756451515666 0.8001518684104814 
Task41 0.0043198489145151505 0.030264006600361566 0.006602098589770252 0.007858051877588052 0.979868542116425 0.3408341709775281 0.33546979600809296 
Task42 0.059591771956018565 0.04474846698708465 0.11448232320922817 0.33022494459629076 0.6575216255102504 0.6765946906177551 0.7110800367583096 
Task43 0.04073944145385915 0.36372629134497814 0.026254561806827146 0.15920710391718007 0.5865720662518044 0.40869749680277906 0.9267933537369195 
Task44 0.030156330350282666 0.055541044317972646 0.13852213781658343 0.0663010270952261 0.6896764195294263 0.7110824651177546 0.3739267441652222 
Task45 0.09400629938909238 0.3875864336865689 0.07159698175479323 0.02006754230279661 0.8347679510294661 0.47623823998002984 0.3075597130520264 
Task46 0.0017801117661925276 0.11924729418146539 0.12204622478823564 0.08087849837916931 0.8493880152646018 0.5177222477618614 0.7477157160207121 
Task47 0.06493283694599315 0.14163935107097503 0.12541620759757954 0.05640101494130166 0.5558795129326302 0.6701612156399088 0.3489422457162068 
Task48 0.1343275475599392 0.1546955493325016 0.15780362865717448 0.26410198647190347 0.5210580678358374 0.5741962355213056 0.7346654537225185 
Task49 0.06455539921549086 0.12376879206955671 0.12195619037684116 0.06746118390460065 0.3735200646079494 0.8940319212314445 0.9539050382117369 
Task50 0.02535095224050662 0.15195746493396073 0.0485966557449913 0.23121757120318984 0.663254550429727 0.3051263731175878 0.4376556390161348 
Task51 0.0001239643829723463 0.003737872272707315 0.0010660500692776696 0.0004967039110833963 0.3021354785008271 0.6034020739462111 0.6837918813365584 
Task52 0.010050499583285988 0.010412363684879307 0.029987327870002283 0.037376032104321666 0.6364258453666143 0.8492185253618667 0.8234963228795666 
Task53 0.05712694192328408 0.020837230150522072 0.10479723840670212 0.261704588425449 0.9482668404800394 0.7715489792251771 0.3755296932675048 
Task54 0.06183612256420699 0.18639905383741184 0.002668663955813829 0.08567194475411306 0.6167105404607528 0.9202702209711648 0.43201976141073734 
Task55 0.13346501260128998 0.2663065010733149 0.2654011182401453 0.2848886404678116 0.4198340628912706 0.9612361654784203 0.30527220458684556 
Task56 0.04725426186863732 0.06893314842562068 0.08887859804000386 0.08501622702862913 0.39889123356706696 0.33632599838879595 0.7725302132734831 
Task57 0.0670097426932623 0.3448431507509208 0.15463119191936658 0.245613738441124 0.6877940610896582 0.9504657336429077 0.9646734291177528 
Task58 0.050298376790160526 0.11206953858581532 0.2592118339391461 0.0233085969742278 0.6526765160464157 0.6051952875625544 0.9491763911846427 
Task59 0.04722302793336364 0.08859132550008306 0.12461079949054957 0.08396639175917789 0.7167395152156624 0.7571826844405461 0.8366169971559618 
Task60 0.0178022746098893 0.039143226559823385 0.02405757577634857 0.050556545820160774 0.45139580052141776 0.5732435753898624 0.8366832962412518 
Task61 0.030950194131086496 0.030679263631973062 0.15476748465155238 0.04142719443653064 0.6981125431958269 0.6279431010271057 0.9951417612659037 
Task62 0.06732502864838463 0.11432326273288866 0.3998881851866872 0.35153784608362604 0.8162134740007962 0.6044164991195307 0.3778366119416375 
Task63 0.02587455045592752 0.13951525753970986 0.09820671331424939 0.16930321449964106 0.48131353877429106 0.9917834906993015 0.3874882548995445 
Task64 0.029971909256964517 0.24912161109174547 0.07272446110597866 0.19680760670993241 0.5660111632605311 0.9376089171895796 0.6553583892337451 
Task65 0.027399306376458592 0.41096875499902347 0.2564713060941767 0.12184197504117276 0.42188021601018943 0.4137233405011862 0.3466268380697153 
Task66 0.029990339744435063 0.1492918184338054 0.06189479329388828 0.21104912590045327 0.7839034025132559 0.4857698465936916 0.9476618019652379 
Task67 0.0740246845895524 0.11989390897571203 0.15244467967942807 0.5298342538952288 0.4024839370452332 0.332863083112181 0.5858854492091115 
Task68 0.0383266363686242 0.07359831067104797 0.032880708104823145 0.07517654148695908 0.32328413808778056 0.4718214042251558 0.5410029440837463 
Task69 0.06446955595567092 0.13840090491264986 0.43470261079371353 0.33178995876395345 0.4196862538735832 0.5471967444204923 0.5402715261752252 
Task70 0.012494779409064627 0.04788006178643949 0.03845433663383309 0.02327946215625708 0.9005811944980993 0.8079586799355212 0.6865165056500135 
Task71 0.004975908103431713 0.4101450916859201 0.2150386956819105 0.11822678532420053 0.8185489794377958 0.9936596716862087 0.3840696049869534 
Task72 0.024508992306799024 0.0014050566206128005 0.02005893892960552 0.14785541447194392 0.5791428035951494 0.7273774164961238 0.442550962844672 
Task73 0.0038090676773732905 0.2816075055191586 0.0633521487735187 0.3029830600261247 0.7670408756710996 0.4640102105913361 0.7871241972690926 
Task74 0.1241442998629397 0.5402928518050472 0.016347365769501045 0.20191970783714921 0.908700146225353 0.4739346550214517 0.8254139064517585 
Task75 0.07684526012565535 0.18838520505187 0.22760574988665064 0.013661353227713323 0.542713632397577 0.5802451269432756 0.7058952035449941 
Task76 0.06422783205719369 0.17521247274124407 0.06964374381729564 0.1488381865896384 0.4462048246799425 0.611353405102036 0.8649167188178013 
Task77 0.06829517225474074 0.15764109171756766 0.13804122560042148 0.015306520292470429 0.6115650653925406 0.49614169146826337 0.8772437493709633 
Task78 0.06142531324193907 0.17110079969839606 0.1439479084091368 0.17691513864358382 0.48057882118330464 0.32558823238416673 0.3712579781231621 
Task79 0.07762415182956446 0.09979669271496142 0.19359003380436243 0.2754953100247162 0.5312662291246372 0.6099750964887941 0.7884040782864601 
Task80 0.08016848907544917 0.1767539015322978 0.21385011798479633 0.15243016822944072 0.3873748959205156 0.3648092424503907 0.5575830489787708 
Task81 0.02322496378679476 0.053177285368914785 0.061705876970081244 0.060660252239106226 0.8658162091109787 0.512730055576273 0.46372020964714694 
Task82 0.06395259542827199 0.18397219559011307 0.15320508577382236 0.17149702873683728 0.8084931429727484 0.9305293648874358 0.30870680773660475 
Task83 0.03017233147394244 0.13210805334270864 0.12035879967440499 0.1122015153027965 0.5545330570553821 0.39319313364704367 0.6531492340909877 
Task84 0.0019406011826673078 0.005931555669076133 0.0337918318933201 0.05334914830780131 0.359196277032183 0.5166327259441512 0.45906331193134065 
Task85 0.18595099209523047 0.23745445317989664 0.47421218394822884 0.04149706764945122 0.8096974784335746 0.48295088867934616 0.593169223150428 
Task86 0.004695023616231299 0.08471103485939226 0.0841741194315277 0.13401241425570923 0.4135011801784866 0.44879184962886687 0.713421260729872 
Task87 0.08386861104631008 0.1116296891139012 0.06431572272785065 0.17651135861270836 0.5246484672562095 0.8602802707337407 0.8637303138766736 
Task88 9.655232416308793e-05 0.0031334688141276784 0.002024535906556329 0.0008109803595755202 0.5966792599469093 0.9235772718541013 0.7442636046070232 
Task89 0.0007995484548854022 0.006232457309119467 0.004769664507868254 0.005176054720607388 0.4441443778995215 0.8234184486322318 0.9746410768064873 
Task90 0.12617223917946105 0.1851051061019145 0.41053110025622697 0.2109373760807569 0.5684646498475763 0.3539119023209101 0.863763028612311 
Task91 0.0016143548062693305 0.0024314240095883975 0.021909527146701604 0.02655072081773126 0.8144638463666527 0.40875638772833306 0.8415286953672381 
Task92 0.09197902116945793 0.39525904430562764 0.22292022303308962 0.07938793453845153 0.5237958291646061 0.8424545054414456 0.9001534537284619 
Task93 0.04145657742542269 0.24468465788604704 0.06968787528788323 0.11775386072363993 0.6572097615867711 0.6611566351553835 0.6121288017496891 
Task94 0.06464361925911817 0.10125917026515138 0.42902343499408996 0.026586362932886205 0.5225173554432355 0.35426698581116395 0.3545561972632793 
Task95 0.04726148277122853 0.16820294676589342 0.148659328665543 0.34703922993147374 0.37646590530226304 0.3541464027124519 0.3636921177885932 
Task96 0.03255994340167769 0.06884837294321337 0.06355487073811111 0.027213677846651622 0.5619358840947624 0.5382260412933451 0.48684481822677006 
Task97 0.015219351149878727 0.053318238498240945 0.0518371014455704 0.04826750331689376 0.9982627195564799 0.7611142144426801 0.500197914019241 
Task98 0.056192615620034775 0.5676408430034738 0.012141789189456999 0.18102045094501523 0.351028412773559 0.8006234336738594 0.9185656834981812 
Task99 0.13547468782576333 0.18450409053215475 0.28858599541247565 0.2520844015478832 0.7970170182585393 0.7831049509374205 0.9703966214947728 
