Task0 0.06921843486513837 0.1746847411299731 0.07063810325506335 0.07301507823210494 0.5281405149431262 0.9265860221390949 0.7090207032838636 
Task1 0.05021482779225052 0.19315199945929132 0.07358613801939866 0.15908264668717395 0.417681296830939 0.4337828872930841 0.7335533742508169 
Task2 0.0011726682450559508 0.001586682151107878 0.00955202934233645 0.0407036178925224 0.6258382604537616 0.5464230671140493 0.4857833515125998 
Task3 0.008113984951942915 0.02537158174531991 0.05930972795363863 0.05188718421259003 0.6119393192391246 0.8855157552072053 0.5834110371923461 
Task4 0.055720669315099475 0.587678134286103 0.17896418598777925 0.04356386868850657 0.56956831941639 0.9450343574399589 0.5588403614202356 
Task5 0.002498558332424329 0.026844714571107688 0.030573200957194454 0.02671214501628099 0.8780193548902222 0.7226404354080878 0.40117024779169663 
Task6 0.09298358718489955 0.05949091473087724 0.17251024312825322 0.1413519078623618 0.3056026276940471 0.49039331214603055 0.5229571352963799 
Task7 0.0467399176290159 0.0051034982189805895 0.35248928296041077 0.21464058017683782 0.5143104817382156 0.47916968353528255 0.4531332318558834 
Task8 0.016709783758813754 0.16080836567088994 0.04459481125698827 0.15381911165920994 0.7810232465257405 0.900373561501215 0.6038619317106539 
Task9 0.08244821722411734 0.19490034288009164 0.24183733760094478 0.10407493522911743 0.587554175577458 0.4279656054318335 0.7084941673112886 
Task10 0.03421732642121589 0.26228519573860903 0.07030021886979948 0.038578470457366724 0.690035220465897 0.9241303826952814 0.45976437823124733 
Task11 0.031573492173491334 0.25402133805328025 0.0754580690231089 0.02628178150473676 0.9982211440063988 0.6377767412024054 0.5647486987513846 
Task12 0.018110962615461555 0.2225338466608358 0.23070128009267463 0.029704047968890014 0.39001338443459566 0.4169696817381751 0.4239742536823659 
Task13 0.023143924742026884 0.041979702275307035 0.09159843573342284 0.17210788878168365 0.9746662667881285 0.761228554935 0.8165830724848941 
Task14 0.1355170842606444 0.5047768056811904 0.2804155520089633 0.061320299802513724 0.8651093364306166 0.5558920729673402 0.34763511711300316 
Task15 0.02143919582102148 0.16885881758173368 0.19531490014334593 0.1951965746338115 0.4828085909928048 0.39638504089250753 0.6927989616781521 
Task16 0.0701361962827836 0.21024668912232247 0.07832164009741725 0.30263341305759855 0.6140318402409848 0.30858055946605084 0.5731613752525776 
Task17 0.057884490459357334 0.26104892992263573 0.23190309228824363 0.13693779036728862 0.7558079578065975 0.7039031870408743 0.7580508724864146 
Task18 0.01817165854020835 0.1564260159998262 0.013593609497624583 0.07173891285718896 0.4710014760615504 0.6325069444640646 0.40896924779872285 
Task19 0.03957697580632507 0.6802982707352155 0.23892980770115366 0.02205708404735686 0.7932949849004416 0.8501518355942834 0.37043833571862284 
Task20 0.0037983966851019408 0.018420883322228705 0.06037551441230023 0.03715111848105771 0.8258042607419709 0.746116615226224 0.5630621274736229 
Task21 0.03773954209284404 0.09946756888933736 0.24129413550732426 0.14621521724294764 0.6609948651709682 0.8265151430554794 0.7751656416095732 
Task22 0.00250032993460082 0.2198359227111485 0.21698722589009548 0.017539572241633602 0.9231935994129672 0.7208179930335543 0.41100327891310107 
Task23 0.1011789420945039 0.16379918743995284 0.08292873674580105 0.20569433072064344 0.8702187016355045 0.6098542514633747 0.614127752746385 
Task24 0.06773218750462304 0.03902847017806492 0.22792584275469746 0.022911392174459966 0.7989745329595288 0.47163815155095584 0.6842785979991868 
Task25 0.0037722806058819586 0.014564353952536907 0.0495586431562417 0.023483551732647677 0.4830484802585383 0.7491108988173065 0.5326049251910283 
Task26 0.017462479235817795 0.09566252472284667 0.09560141116171511 0.020126604238352785 0.5379223977776969 0.9956494240421427 0.9857334424568742 
Task27 0.00036611821590097404 0.016750823559707275 0.010518850776906553 0.0029018130988676134 0.46523991594391195 0.6938296909954864 0.9127977269467096 
Task28 0.09767113271682218 0.24761568668630765 0.2444321430530158 0.051892764695196436 0.35707618556771775 0.8942710006655987 0.6808792752916559 
Task29 0.09929369260644227 0.1472753999627569 0.17133707420164523 0.08164136357035222 0.39347596120744777 0.6137432907262732 0.3547845954277038 
Task30 0.11856078015779335 0.006226477249119821 0.4619347461985957 0.25645919276172224 0.8894735264480296 0.9515982627414246 0.34686852258782047 
Task31 0.020041719876974763 0.021699987198083064 0.04692119229689977 0.08284693465126956 0.4452370785701266 0.4892952872242663 0.9455678458583745 
Task32 0.08872970029884994 0.10346396908832532 0.5405372681863666 0.06839918345363787 0.358054639992922 0.6811584357715432 0.3605128058741148 
Task33 0.0031818183314300925 0.09220008758417611 0.15505089725357313 0.12793683192778144 0.4559067769140407 0.5704789095966782 0.7680459481051904 
Task34 0.02289866241085028 0.04363520998687651 0.16859971970700902 0.12043577484070003 0.6191905264957922 0.558688978937701 0.8700909182087231 
Task35 0.003869985460683886 0.13686872838397324 0.11619232580629096 0.12804065597968065 0.4848016116062943 0.5427017361100647 0.518449077384364 
Task36 0.0003403384879837461 0.1423027734538156 0.06429806416990459 0.0779997032434415 0.8109535466557019 0.36265975142328416 0.4148795427170876 
Task37 0.02629955518964536 0.10821605467193808 0.06858728975909702 0.026937539356142348 0.5425228379211361 0.4166432763213629 0.5121195777652412 
Task38 0.007733937828259715 0.0020544204161896955 0.07894676632723407 0.0862991744864036 0.934018804382412 0.7918293711612359 0.6552103263716437 
Task39 0.016543871119034916 0.13790805667853714 0.22362561374898152 0.15848125009035932 0.41541390644008597 0.6896660396761953 0.5269964819365809 
Task40 0.013155841919249293 0.04035868802423469 0.1700478645573678 0.12536823503967512 0.7295411444514103 0.33409067323719516 0.33093460103698596 
Task41 0.008017461146690719 0.2620870026750718 0.1366728161296618 0.025578363727221987 0.6716803356425274 0.8646018994041618 0.5944934521429579 
Task42 0.10040096658175234 0.27153503487071956 0.07396515146679923 0.542333619330796 0.8758018426248624 0.49576054680782444 0.3663457238723347 
Task43 0.11264991700464716 0.14644598547559284 0.3150509587268271 0.19211977892556825 0.3561004265275309 0.7186432652150385 0.4192491360292445 
Task44 0.09813456972362541 0.13533648293308087 0.05529780950544609 0.23515124388322872 0.8869517996152718 0.785544169354299 0.36115870248152687 
Task45 0.04892150128372291 0.0679399508318833 0.2273368505606587 0.06132528153427231 0.5668956482126251 0.5353324583568115 0.400989401370477 
Task46 0.06737610123610573 0.06034471755705681 0.12777720265657305 0.1524010030390496 0.8261274086071428 0.365101943826596 0.36040685827965435 
Task47 0.0008822776590048972 0.001461128576742956 0.0007135760423233346 0.0015774897493593151 0.7504567935574531 0.48975063547395636 0.9015824077230798 
Task48 0.12962442547413439 0.3300206505668526 0.03892721057169235 0.19753726995337914 0.855833269575146 0.4181274992731277 0.6138830170573542 
Task49 0.008347553008065303 0.027809253434456793 0.0031918661986934087 0.021057670096913114 0.8930872935656318 0.36800488818408283 0.9440418098047973 
Task50 0.06848901431410376 0.4841178860050388 0.2728659712434058 0.11533244508528014 0.8321339076183101 0.5043249746200837 0.8774810664867971 
Task51 0.1366385449521717 0.14843330634754262 0.3238931509669401 0.12451219008038492 0.7938512903070218 0.6770803502631647 0.77943041502419 
Task52 0.09670729155790668 0.10245921033583262 0.3039883495666588 0.22355783619722489 0.32952604107716016 0.4566455350842844 0.7812867195993065 
Task53 0.08784664510231416 0.1281287255154376 0.20355290827052558 0.05440509894022265 0.5989311976022412 0.8703659636841048 0.43286967309075364 
Task54 0.12541732343579762 0.4830723996327622 0.22838945359254798 0.07851027856282193 0.9124977087990978 0.3043151186031982 0.8812652831984513 
Task55 0.023184546670718873 0.13615537169002567 0.11743939716333694 0.16317250258410884 0.6543808316978634 0.8000904269993478 0.9559093151998823 
Task56 0.08051810116115947 0.1649582003990702 0.04359430137334029 0.16271647154250363 0.5679122311847956 0.418589137774734 0.95778605445684 
Task57 0.025317028202713233 0.07782252326178761 0.12018885526673576 0.05703108184313549 0.6448146282957234 0.8928472588699048 0.8013596760868495 
Task58 0.017223640184685293 0.02693815669319863 0.07346040922595051 0.12112469743283194 0.8100985773569809 0.5156264166843926 0.7553507913940365 
Task59 0.02834131356368827 0.38004989948360346 0.06036215755159233 0.3026849117793724 0.3436769372731522 0.694869523563455 0.3757032186252924 
Task60 0.004608378376076329 0.026924428314752055 0.06393383794129194 0.06942449635535548 0.8831935721984032 0.6850126412205708 0.33076352779552615 
Task61 0.03486258981948316 0.0916303079676302 0.05146687423976561 0.05274249711595677 0.39974760218706984 0.9850003793331048 0.9577673023005617 
Task62 0.022178432915047275 0.2411646130618775 0.13613819662625082 0.3259493061177581 0.7189800554515104 0.6733952208099365 0.9457958608927157 
Task63 0.015382566363772568 0.09226230721877743 0.08244037481010501 0.02775455813796981 0.4536673503105057 0.5452674063050813 0.7147822552555192 
Task64 0.00787230188402709 0.22093502177104798 0.26848182464511705 0.1137051483063935 0.48376273097455413 0.9348130029893034 0.7402980349640915 
Task65 0.17126778245230834 0.4334157308579086 0.24035084136320006 0.07514195223709037 0.4442986877582953 0.663623353671168 0.33117419139097554 
Task66 0.0030556803504375087 0.010512931864554046 0.004398254728525764 0.01331866787503702 0.8074552888526836 0.9721165501795745 0.5495948216139149 
Task67 0.02092326457974163 0.16092135917682973 0.1093533482887551 0.09824736534405831 0.48568840296247173 0.724461374907168 0.6547549295956814 
Task68 0.018341048800091277 0.05537233494232045 0.03607800045907169 0.08267860218428055 0.7547083696479151 0.5308607258010307 0.6074262240212118 
Task69 0.0013489016264871371 0.001005662627835458 0.0026548527800243703 0.0021695893371042256 0.4733777685681507 0.6022542582941375 0.43301212542047074 
Task70 0.1349787381304219 0.24271707425056774 0.07379814684677609 0.24540331125287668 0.6755394258398988 0.3174062759404897 0.865770756373657 
Task71 0.0409636106439586 0.12031985559073263 0.03373325442773557 0.2221972951123304 0.7089068513258336 0.49744102251692335 0.5296497885933581 
Task72 0.10276413495458417 0.21984299336178054 0.11582178269035244 0.29270984922880344 0.6104424458611786 0.45597566467361517 0.9072818460829937 
Task73 0.014877488143761382 0.3675126192395185 0.19732820082909938 0.37102449325813713 0.7548787819788207 0.4926647299731365 0.7509525627699951 
Task74 0.06897658527729417 0.032485506933276495 0.07804245045427613 0.1979700558375839 0.6977701850130672 0.3617090896258123 0.5413953072662839 
Task75 0.03227944820933468 0.013658212951443179 0.035345177594339465 0.16592495607219016 0.6982420518678367 0.3223805597504066 0.8327090431857527 
Task76 0.15644657422316 0.3014813915809897 0.06899585337122563 0.27050024502659614 0.41748669598579796 0.9980423267646583 0.4217853451344927 
Task77 0.033635273083406504 0.3752478380839786 0.21560680583578434 0.1565306757821247 0.8881794018959455 0.5579798728946674 0.8753153262858626 
Task78 0.02033420951508078 0.03155192304342245 0.03462010471714048 0.0911656257108105 0.65164621146326 0.9501626031984132 0.8535027189543343 
Task79 0.06860120925361851 0.32804757129640916 0.13782375809662692 0.10175036695360871 0.6023206332263122 0.787127111761292 0.42965947312881947 
Task80 0.06782015232390698 0.16456996054879852 0.2101066334280308 0.08519845406928937 0.42062033963610757 0.7249158598755596 0.8858330518789237 
Task81 0.018066026684260085 0.09368834767196337 0.0968686155558918 0.005500575466044624 0.42094846385696705 0.5402608068169509 0.8495862176085591 
Task82 0.008818129211703293 0.036592100005221444 0.03526210906764887 0.013987638285656565 0.7871523022515932 0.5687132073916199 0.45140596784049003 
Task83 0.01871952890393809 0.37757466103158777 0.2410987688421012 0.06306686210925537 0.9636262558027293 0.33367725667870385 0.8051151397054228 
Task84 0.024779495722933302 0.03641331098570704 0.04065050615469017 0.028436589170923145 0.6867358584389638 0.7497600973375973 0.9335175161393716 
Task85 0.07415868916339648 0.19626922139555103 0.15875712186548588 0.10709782046449735 0.3864326282488224 0.9572216502875444 0.7518065684711774 
Task86 0.12279991502447325 0.26423050166432127 0.13305553971882353 0.23714279804345834 0.4287197028026881 0.5205695262707234 0.43491942296834685 
Task87 0.04595519519846074 0.1422847401387454 0.15911199743251048 0.17546664851956945 0.36211787388978534 0.5630475253510574 0.5828735545051935 
Task88 0.018853840920802004 0.13608267243456365 0.566664400338745 0.018614532888945358 0.7006720846592253 0.3106837364312803 0.4781250337859908 
Task89 0.0015898504412993689 0.10027641142495153 0.22559858244352052 0.13699095818818338 0.48712323539132407 0.4640624733616918 0.8085895362283475 
Task90 0.009609686419808694 0.02606701690981348 0.02008010213695029 0.03407182884948746 0.856055441491127 0.6269590404009032 0.5655753119316942 
Task91 0.0452874452278763 0.06924382358623368 0.19261695422495262 0.17535529865773164 0.5091583558322565 0.3408734969764739 0.5593496552116769 
Task92 0.04443805674516442 0.3216129888991232 0.17972115256386248 0.36418762886193207 0.4442858178251554 0.4699719502342087 0.6669997425945562 
Task93 0.020583701855712982 0.37095626562091155 0.006890962960009872 0.25137514414146594 0.7820260356270521 0.6672208757149979 0.7554961114392494 
Task94 0.009572002546653309 0.010934765481830006 0.012486747803768943 0.016064382803832194 0.6327348808239569 0.5926423588445674 0.7824815572567434 
Task95 0.1270744472269339 0.3703758993946427 0.0789843632430792 0.1898629502589717 0.30509797028386343 0.3019572874215155 0.7160880893486281 
Task96 0.0038606646973871005 0.04628523900979099 0.1128346067106565 0.05022289396541788 0.904376632630483 0.7592879130719411 0.853115656042917 
Task97 0.031125766753005626 0.05308468734570168 0.07944741144010056 0.0018418628850158 0.6763487309467382 0.9428318384763548 0.4822513362065247 
Task98 0.018850324999697392 0.2679427177967693 0.06825867130107913 0.18859927388292608 0.3892850734331043 0.6061054952536121 0.659771641227117 
Task99 0.0585003413216157 0.05972395329827347 0.29078220423118495 0.4163314182536738 0.8674839700728809 0.8718225583452066 0.3390426930046293 
