Task0 0.03842378447316314 0.06627861692507715 0.02419528947177416 0.07550042082433726 0.5038842686447612 0.37934414261176475 0.3885798781915239 
Task1 0.0009978804349765758 0.18443415854799158 0.14266924920184484 0.17804870990813834 0.6201124904585746 0.5488819945586212 0.8334693837451037 
Task2 0.1014843429072445 0.07771653543760519 0.2864291761569942 0.2880651718033919 0.4410369745745675 0.7483900656065899 0.9924534521289716 
Task3 0.01987349885523069 0.11217297947845198 0.1110080411198629 0.11077522402683034 0.7174703486749432 0.7365738877191512 0.53505459804873 
Task4 0.058766856527912276 0.0890863318043039 0.1112370736577049 0.12929838407952507 0.6013086591571333 0.706377565762906 0.904103824368339 
Task5 0.08137073370386036 0.0428203916558268 0.33549571576437215 0.28503442993340167 0.9084504786150507 0.5664165580774696 0.4435890682598076 
Task6 0.031183280699113535 0.027838572011649677 0.021276855745747104 0.09329917122873933 0.9547187684214535 0.8075302654913146 0.3128302267027621 
Task7 0.004621131210317429 0.0873604395382695 0.08873254289828303 0.14613295880574584 0.5728635689070245 0.8591305525552126 0.6931346712561659 
Task8 0.06940001550174371 0.3101600784573396 0.049033172346815465 0.21580935711424745 0.6317894079558795 0.6279946312001432 0.9145650386779578 
Task9 0.020902906124303355 0.189961185955746 0.05728408360160585 0.3687853110547535 0.7831947220444361 0.5870932560705797 0.5477689792116158 
Task10 0.0033761808060558214 0.0331731428754845 0.034932943186989175 0.01100593619240602 0.710872347393082 0.7428212075767704 0.37986520523057976 
Task11 0.0137435990540874 0.0463538219056949 0.02741554561923656 0.017968876015970303 0.43699184009621495 0.7847863919542126 0.9884721885771679 
Task12 0.09952794460703365 0.09926101345981503 0.09583412527032588 0.46066879583467507 0.6868207838427716 0.6398838947273049 0.5882686982786209 
Task13 0.15201158935142434 0.24374213109639112 0.4629497337399805 0.05560995865620173 0.9208847877562754 0.5521349617993851 0.9007658079142962 
Task14 0.021950574097484507 0.07129804695111544 0.039139978215007164 0.021894965978487606 0.5635919923895668 0.40242724662246465 0.4504130213432407 
Task15 0.01979839100145857 0.18732130469159194 0.07920206913393105 0.06351920421210493 0.8188530526706594 0.4670353630966405 0.7991742961308077 
Task16 0.045030402621993176 0.1323332610222749 0.3049594103590076 0.33463142445051614 0.7823481552407433 0.7329613765818022 0.3741871996293583 
Task17 0.05911353427091129 0.062884840319217 0.19722612112505444 0.19818662944204768 0.8521964503561874 0.6629822661850435 0.5189365687788499 
Task18 0.12277461821385108 0.27232106291729796 0.21479969261576626 0.061646832734570625 0.43127670219219755 0.7143989562031221 0.39407171842647404 
Task19 0.03533158207241994 0.08820932374820709 0.08950504324158241 0.03126790999569207 0.7380817508957018 0.6073330044324328 0.7985795167194469 
Task20 0.025137398934845824 0.12099150434501267 0.03829266815593391 0.07452311865226813 0.9170900233125672 0.7749307953165755 0.557840143347264 
Task21 0.0017464174157659203 0.19188964433617092 0.03833965599564061 0.14434246347096472 0.8709259101911935 0.38358990202453136 0.3495262060956247 
Task22 0.09198289695548237 0.18657089498470275 0.06023841604831569 0.19072667350522435 0.6065284665058157 0.6560045294039343 0.851301616844272 
Task23 0.023778463296075206 0.051562383285950746 0.07819677434602515 0.06576747679288036 0.43462160329547184 0.8621713292341358 0.347189633664519 
Task24 0.12380524189568173 0.13729943934815095 0.09391337653185873 0.4266912020806336 0.9100855535597743 0.66515092702365 0.9838956100877283 
Task25 0.023302377529518865 0.13608235708951777 0.2670656071597076 0.1406231860239229 0.3764364601746002 0.957422145722661 0.9085138454185913 
Task26 0.007823734323151728 0.1784216806602567 0.11032497323683127 0.2550044328990306 0.6585631944215204 0.3067714673712277 0.7921525890339072 
Task27 0.1063612380602916 0.24901529228127517 0.22252835437484142 0.29987049858758763 0.4681876938621029 0.5525979023753858 0.5464767621416926 
Task28 0.0281957817547766 0.053873689600055376 0.025752308343813042 0.03670061838401598 0.521039585276084 0.7269292614671872 0.3782496810188787 
Task29 0.10859108038249199 0.4139259847936319 0.3227566268216967 0.10827349767344473 0.850120769369128 0.3070490285769807 0.5943012478547787 
Task30 0.08771738268036451 0.2013902288003061 0.05243324548384071 0.2811849159676634 0.5775830320130793 0.32714063827547163 0.46226153823911664 
Task31 0.0025356243834761994 0.012002614922702827 0.012157633448779607 0.01138156792859404 0.6040585653159122 0.915371984632593 0.5614887769414074 
Task32 0.013940760475094996 0.4516926273956241 0.0022948586743685197 0.24863269640254493 0.8479509814811776 0.426864318762053 0.823474681110441 
Task33 0.1241521314630336 0.16311468502150003 0.2008718256160679 0.23173850716054933 0.4805236131221233 0.3584469195895006 0.9426669656167865 
Task34 0.006703308997427072 0.16768711409779277 0.05327443730143247 0.26920240630207826 0.714834662835302 0.7531186731275281 0.3997711348897743 
Task35 0.05632202341827107 0.22076417243190952 0.069363424389351 0.14226062975199463 0.9072803302697667 0.6199384338978602 0.5455077137488215 
Task36 0.05394472117203342 0.20149205136776363 0.2376562070327412 0.030942896637896213 0.6725753345535477 0.5253870618827899 0.8307435161281533 
Task37 0.06695414878670228 0.03635897633260728 0.11997799090649751 0.15975147546370735 0.48666503984558784 0.758487228314827 0.4677640262009893 
Task38 0.07068458511141823 0.26500681073653615 0.17359272423993555 0.09258714455363934 0.39809430585753175 0.5343997711764727 0.6458067358722184 
Task39 0.10568109923953328 0.31968906972335626 0.12370214489638942 0.4175839967737849 0.8374788446201824 0.7174196677283942 0.33230946545055956 
Task40 0.04195323432224369 0.3634996676869588 0.2471449652665315 0.21305083553296275 0.799404893975123 0.338384595201221 0.35767360644539653 
Task41 0.15188089777388472 0.1547217876195218 0.18327043264167225 0.3794443872500966 0.35913143096201416 0.7354088623318422 0.8547920847038906 
Task42 0.030650227168053826 0.06069542001538949 0.06473479240292752 0.03645731036502953 0.9967284134393375 0.648080544957597 0.4529095539254919 
Task43 0.07970435038533598 0.17689411844905562 0.08169003865426033 0.11574818548349525 0.41908065139463463 0.3247817830675093 0.7582386565981991 
Task44 0.07343975621169854 0.250158791938949 0.10145018665888973 0.038181634638167025 0.6456579661546101 0.6022503819699612 0.41309879251197157 
Task45 0.004755245557871763 0.38635896834398115 0.40319712623630094 0.12531832363414527 0.7228360351392773 0.336834194630135 0.9811238511800571 
Task46 0.030521907389425805 0.22720925666385475 0.2537110215379048 0.14216042186536657 0.45455605078244243 0.9154735324148713 0.3091766906043442 
Task47 0.012685088104485936 0.011417228556863723 0.413150890977936 0.10616408003916143 0.30514227377388314 0.8534822815642606 0.7229602830835329 
Task48 0.00276842601864349 0.0036830437458045882 0.00860828556491608 0.006629382944725087 0.8583870350446314 0.85164817173692 0.5109898655668748 
Task49 0.06030569257166567 0.15768799060083474 0.10394211540346847 0.05808824737362593 0.6478081619451448 0.9769859498761042 0.7050978801407826 
Task50 0.0217230986224303 0.010139061611121948 0.10532516005723576 0.06083779952910024 0.4157473468108952 0.7374837000985976 0.9741944058094578 
Task51 0.1531208485611472 0.1238813546836664 0.3180847636001422 0.20469012029243783 0.30902211093043686 0.4602696969512775 0.355591642734007 
Task52 0.08685315507984424 0.023118076345873515 0.27416706852719513 0.14896897392082387 0.48705368177923003 0.4400658338765575 0.3233853934121206 
Task53 0.011713476264647875 0.46565414226257623 0.17634649811024242 0.33107610486779376 0.7152549983474632 0.4810442385065317 0.5656432597170431 
Task54 0.03263625272625008 0.07119135049966843 0.06610782670565585 0.01699283011448287 0.5420207051462175 0.9683351503695865 0.939415987919995 
Task55 0.04281911176496075 0.07357207575678927 0.13215067479772555 0.05329001306451857 0.6553898260783856 0.661230572039962 0.5736676674856142 
Task56 0.09861718776449667 0.3291981939947789 0.15746265982558397 0.059044382665493104 0.39128776345706573 0.6394705456883634 0.8099965843820975 
Task57 0.009724791932518573 0.03316810747826551 0.049044732974397875 0.0029669048383892146 0.6919460156648165 0.9747279524119625 0.5589015542543855 
Task58 0.016614331790057384 0.07491148483186448 0.015833908650119483 0.08506009019057119 0.40892982215887275 0.8894236785619376 0.7806199055449956 
Task59 0.034222702366595546 0.04763960299347496 0.1424025884203816 0.1362457320375845 0.7135468624514828 0.7081224333521429 0.7838014865105302 
Task60 0.09528650843334215 0.04880102287527962 0.23325256702414376 0.21628502919668968 0.93747302463482 0.834043190325515 0.9442021147598836 
Task61 0.016145908503057714 0.09915959874554846 0.35350761285734067 0.1905169266415413 0.4014476963463879 0.5555878278283866 0.4046128912762207 
Task62 0.047989346783001874 0.27472391779889804 0.06675052211636763 0.31415550215408794 0.6942637381727745 0.8116264261294166 0.7458800556210945 
Task63 0.011815451564197367 0.021478249307348436 0.009525168357719355 0.02459989584209731 0.8153251941654258 0.9858625624719852 0.6198738945839237 
Task64 0.026345933701178825 0.022093224041578364 0.031132924220105655 0.059686188778607506 0.5799946569085724 0.9050262548384513 0.40930106100957214 
Task65 0.0329599863800166 0.017998799863288863 0.145171533860633 0.2355074904646081 0.735110537998864 0.6730954862628888 0.8572740150462601 
Task66 0.16403325671667454 0.07136989667934761 0.36608154762381917 0.3427991922434151 0.9741310334915845 0.6161004008552027 0.3337163949237535 
Task67 0.0031592826227451205 0.006894023560224054 0.007342605927045865 0.005128035177967088 0.9771919001731817 0.925794473622338 0.41896812339615286 
Task68 0.1447793989287915 0.2880989998476739 0.011778523409302803 0.32937226601329445 0.912296952199485 0.5621551267092535 0.6601339474967031 
Task69 0.08820137954724264 0.38196478928628086 0.20624014532073953 0.1747493131788232 0.6725981426862047 0.6709458283738293 0.9736014522733756 
Task70 0.004788158453202873 0.07080993206543802 0.08656575956613557 0.029670016060131584 0.46340890779128285 0.43729977264731 0.39436995972670097 
Task71 0.10455518751445747 0.09207695696685017 0.55143980994508 0.03645140986483347 0.8417958008319393 0.959694661069471 0.30555907450620445 
Task72 0.0777851923257919 0.4603356909206265 0.22449108138735835 0.0399388129497347 0.7605542392033515 0.9668328683167837 0.6476913808992532 
Task73 0.02395106377374693 0.11502224930635865 0.12033777945003009 0.2917611421488985 0.6061657246854701 0.6759832139652862 0.4106566650879095 
Task74 0.03761737784696048 0.01219690825017289 0.07437689689928963 0.06677466037463593 0.6127823189794956 0.5924642748175991 0.33659634366871705 
Task75 0.08170294712104796 0.21195223381326364 0.3716386609376033 0.29614872124271374 0.6308604255171071 0.4083300193051583 0.39263619192418725 
Task76 0.04984617555666953 0.060282482863515965 0.10658961781620373 0.09800340525515201 0.3659390600912235 0.8223349715602122 0.3535614604884103 
Task77 0.0789200729900095 0.06641539493001482 0.3472876111069441 0.24983834591183865 0.5943053561300627 0.644810154399639 0.9953667842394596 
Task78 0.07603812851319819 0.3077601833832888 0.233657346374196 0.3565999429159461 0.7873928110599431 0.5897961825512201 0.6903409433728969 
Task79 0.03545528475246344 0.06467776887682386 1.8770599522522486e-05 0.07807617009388139 0.8966054507970749 0.8448043310649891 0.6100992299628831 
Task80 0.020076159857294128 0.16852765880960902 0.1678719156305445 0.051882960571277725 0.5285758386415972 0.5902355432760114 0.8579987794104755 
Task81 0.0455553413064932 0.20250129348586848 0.3604998522261168 0.0900455673131331 0.42763968876214675 0.3503584262592988 0.3418580053019259 
Task82 0.012282254750702578 0.049544720272396134 0.08996252736638514 0.029195189637295713 0.587712717664217 0.8704572003201909 0.6878300575491745 
Task83 0.09601541750474597 0.211754934575843 0.20056041659748108 0.070848813840618 0.9438443485211394 0.6718623343896302 0.9000612986072398 
Task84 0.0018641762901719177 0.003870331838716669 0.0031305759648914667 0.0037398790223779448 0.9551390486765101 0.7049616782595864 0.3818000019138395 
Task85 0.04784196307019412 0.2333146626653548 0.09686202327737546 0.14401769067570858 0.32920015208290015 0.6853476844643267 0.3654877656411175 
Task86 0.05172730747323658 0.1208660659106049 0.026482707597242323 0.1560802122311092 0.8975693806007132 0.6421779657995659 0.5944589851048634 
Task87 0.03786751676592184 0.0999190408985784 0.15346841714492587 0.23340572335599039 0.9442091182744781 0.8524088417386275 0.3066017463048663 
Task88 0.07437448459087403 0.23772581831943304 0.055945315770454626 0.3359262587449567 0.49102619031096706 0.692717380483342 0.5069435474385349 
Task89 0.0006174767890086468 0.013087695965745917 0.005581464056504083 0.0015147813476984397 0.37420387786104925 0.6464793740258402 0.5199182645310093 
Task90 0.012776153762608808 0.3132509107668296 0.014727532926534559 0.408546462537518 0.5086346163666586 0.4042150336704724 0.7906441047202919 
Task91 0.11477503646906473 0.2203046129164288 0.18552940205629603 0.11014628894547437 0.5672647763432865 0.8665056731373753 0.8311167794827157 
Task92 0.07159218780425684 0.31001354746678556 0.11297889025791719 0.3462212278715808 0.8148925829320932 0.7197530676106842 0.4431359255515817 
Task93 0.033331963080492355 0.1737117542551132 0.1348926742731745 0.19941698125343643 0.9394150759890065 0.9760952484257193 0.8494061516541389 
Task94 0.019221198663579263 0.04013583787549801 0.06737121559949574 0.15893387304414983 0.7962375451593915 0.6128454841887032 0.6773507918209394 
Task95 0.16031345445512768 0.20056259411905078 0.14289000961569634 0.30170237042602965 0.45434300370232383 0.566310393679694 0.6329274557730102 
Task96 0.04449693472897479 0.18335871784346064 0.15106301446549833 0.071525565422777 0.76488668095317 0.42280940564849256 0.48939532730084945 
Task97 0.022840676515662895 0.28949247186999144 0.3080420150188238 0.1877492572943971 0.5752934786852715 0.4722057638582786 0.3365938657151325 
Task98 0.14735690034081914 0.13828408631451844 0.22184917555430805 0.2590040414309007 0.563896633291346 0.8642342023590923 0.8911976970053379 
Task99 0.16762308382320745 0.25892542401820196 0.20048466602500284 0.3065396984910998 0.5751524925692475 0.4627622944025664 0.7281676321066889 
