Task0 0.020589585865848182 0.033547425394129284 0.03470986841718826 0.03381323897574422 0.998503769093134 0.9899814264153772 0.38312539405365426 
Task1 0.028646418909542785 0.03708426094342122 0.09444826179247945 0.08865745204257783 0.9146670421465097 0.4890459791141044 0.6373320552774719 
Task2 0.024120555993230625 0.08066923032166591 0.09218345382245707 0.036364575830811395 0.5850063444341356 0.8084007194883309 0.7309117548819584 
Task3 0.019478290827661393 0.13085950154758094 0.013928439913604033 0.07219548341436711 0.866938782430166 0.7881742328001407 0.663197405216958 
Task4 0.04477031067246391 0.31683067228109246 0.2230426291582707 0.256476646460431 0.8484597565468652 0.30810642411612876 0.5951398870346128 
Task5 0.06389202860609444 0.16062406904405396 0.20284413418377378 0.005690759817793229 0.45321438843567563 0.4096850015955938 0.5549969926263516 
Task6 0.02699681770780515 0.2338520096761944 0.1974664023460454 0.18632474736248186 0.3713551084152033 0.5176230272086785 0.81178206577401 
Task7 0.09862365956172876 0.1292908306201685 0.30249352509587724 0.02217150629869851 0.558644858184304 0.5549026908661567 0.5667944756273071 
Task8 0.10204626522428827 0.16010803202099025 0.16947055314862264 0.20003926742398195 0.4971705673157716 0.9611359295337181 0.5575959289157917 
Task9 0.027760747967909675 0.25395427860514935 0.2519080688220946 0.10216727045488515 0.7896806187117497 0.9792839515813891 0.8829804184164038 
Task10 0.08143905947099553 0.36564949829697146 0.006091076416735807 0.40550921427880104 0.5796766967941852 0.8171619115931179 0.7106055195188925 
Task11 0.06897715744088738 0.36231861489575057 0.28705174283519863 0.04950831790739211 0.6206843739846706 0.8997741579469245 0.6815397787509612 
Task12 0.09185881511279306 0.25155761392417464 0.09845525814198057 0.12741472235171394 0.49817293600770995 0.4226019693988351 0.5745731899567831 
Task13 0.04861210330819424 0.19925467079630815 0.037315665657519904 0.20901343056186397 0.41896455107384784 0.42441840953078996 0.6351039914644989 
Task14 0.035014582114229836 0.02731411627497359 0.13641810263135173 0.08542411688981663 0.5338796289856853 0.5808107164290753 0.4444789347824939 
Task15 0.04332380098643163 0.21655522845289166 0.0019667046459890835 0.0754008857717958 0.9416519041023186 0.6118938335000923 0.7811968893583181 
Task16 1.3079727353968397e-05 0.00016859344104278907 0.00227346849387276 0.000584249784932816 0.7466423041137487 0.853389517909932 0.8348879818628108 
Task17 0.03559812252134403 0.06530316547930363 0.06590105978547198 0.03736587547493864 0.7467999317120151 0.9271426977257231 0.7501745182873482 
Task18 0.07451697098450707 0.1570513351892554 0.2245999362936743 0.10459300263995426 0.5143153328463449 0.7717027627046243 0.34129732531257806 
Task19 0.01798559749427715 0.03261874619163286 0.009343548267661678 0.057322301816472854 0.4901425207920936 0.8000958064831978 0.9582036743939388 
Task20 0.1628428985791595 0.22676634236670348 0.23325849168873236 0.3384138234485761 0.7956307609243338 0.8730757130215281 0.5284031391673962 
Task21 0.10467704140728196 0.12094332390972247 0.28480301089817284 0.03422972134018584 0.5859646020315328 0.4824272762818521 0.5611072295171693 
Task22 0.17896673968437685 0.26880026041255095 0.4157829053733876 0.05734565162023018 0.6740802274230207 0.7577390988266697 0.9399250109954125 
Task23 0.001465263536408713 0.01963694335279435 0.04908746155669653 0.0612784971836725 0.5490463208178594 0.9581045108147952 0.6395419753971998 
Task24 0.02324784586009579 0.04962580225516907 0.07214573215525158 0.08291792482643043 0.3815000250509185 0.7701201298253451 0.7598499954117597 
Task25 0.041344980367289404 0.004596884931999634 0.12704151767178185 0.04113279482099039 0.5876151772362443 0.764439656749665 0.689198292007903 
Task26 0.05269661259906496 0.08346853340772946 0.076976581418987 0.05387641269750287 0.8629894160291773 0.963001974057315 0.39010543904399203 
Task27 0.021790147937559286 0.21452022240644014 0.23239474558723175 0.4247840977890297 0.8395725422031761 0.3807229859425317 0.3741016069265132 
Task28 0.0752320984705385 0.021665855668347535 0.10984610799830838 0.2657050560633157 0.9376863375157218 0.8433007692483767 0.46485676457459413 
Task29 0.060978524131367014 0.3687454118369332 0.051356891385973547 0.15075071354261182 0.919559155041137 0.9414755320554105 0.8595792287666357 
Task30 0.03228030770227131 0.011187620597631535 0.2704496286122065 0.007310676886326542 0.6386837382906323 0.8837565337771587 0.7829722290841403 
Task31 0.0574443694522282 0.15310444422129255 0.03232724655995476 0.11507257330507341 0.7700033144989551 0.892006635838344 0.8769141641095946 
Task32 0.034437893651379343 0.051507508751687144 0.07776015992451461 0.14766353686415806 0.8344720822746929 0.9304806844160411 0.5897888698770645 
Task33 0.1635768773147354 0.19436044065358846 0.31693644216123823 0.20057483033267492 0.9321861435054035 0.8537833328951303 0.9678700337437967 
Task34 0.012721618152739783 0.18536590214070156 0.23957924257360283 0.14076118863214088 0.6335845473195698 0.38543347566659547 0.9738674738692594 
Task35 0.1117570131749201 0.07098161969322961 0.36723309156922074 0.3278420208949041 0.6508109700675225 0.6819721021430936 0.5500388367050166 
Task36 0.16986611647135202 0.05056451471409257 0.39878936450416363 0.3232879957727315 0.42597702703831286 0.6747866022528889 0.42937346381741315 
Task37 0.10933526412610077 0.13584490144004766 0.395983484591911 0.1898208153654656 0.4133773345755362 0.8025038419412449 0.5621360627795996 
Task38 0.14091239395572658 0.2292444321690182 0.1609118650521844 0.28745431646306985 0.7837443141593796 0.8719402677455799 0.7224805999072349 
Task39 0.01660435964277741 0.012228748318607012 0.03401634921667034 0.054706855321746135 0.8591945780902803 0.443494195614752 0.8029928078292763 
Task40 0.04188249605711549 0.2567819481184644 0.36925631126043584 0.2418099665339746 0.6309924675582077 0.7516015827448248 0.5708385281661219 
Task41 0.03666714841286899 0.13947957307060957 0.118496981005872 0.11124565535852045 0.8613740054958847 0.7959074714237824 0.8733179825408217 
Task42 0.14343067347222724 0.28632951207082025 0.13279297511316332 0.16512813188423092 0.691549877459867 0.6975616682317184 0.8232388701843134 
Task43 0.03300945570283592 0.2091691145388526 0.36710391115545443 0.20286813325023473 0.6423918911038765 0.39588230944942926 0.815022847291178 
Task44 0.04939499743333022 0.10085413205275026 0.019269227094253914 0.5734080972567828 0.6343626307884673 0.540896596212639 0.7217370388193431 
Task45 0.054361027767583246 0.05282994123943618 0.14507522009194887 0.10255326881312073 0.46622354669475174 0.7998830960798282 0.9023927279197821 
Task46 0.007004707469389052 0.17541978756831486 0.24194112149029004 0.0727119678251083 0.5370969797364527 0.9413230254937603 0.8542534236680199 
Task47 0.042448328587626136 0.0698225004474559 0.2911865273242036 0.1648497477959891 0.6058835233156861 0.35133750085054627 0.42940295423185104 
Task48 0.031716043361509225 0.044730958040603515 0.053730059158950315 0.07980449545152223 0.8776045855164782 0.7292292808289655 0.5531664333202453 
Task49 0.017018074557614365 0.026128176679600244 0.08991997056535694 0.010807294448890715 0.5930354655319757 0.3630026639247618 0.764510418916664 
Task50 0.08454387930272556 0.2430132032033605 0.00928152664250347 0.19816442979817106 0.3345454126698658 0.4535454820898782 0.6982808756584719 
Task51 0.00011005806044039441 0.07649891556710686 0.3407503946099109 0.44941547146525607 0.7048676416211478 0.42746330127898646 0.301214622314482 
Task52 0.0660377281263819 0.0767411283768007 0.1651284408118345 0.125787181144641 0.9319148148062346 0.650257809672504 0.6594021508716998 
Task53 0.11794647239289098 0.322540096159651 0.18277019394658284 0.025914386108580035 0.8018293752951651 0.44302963898593084 0.8538549798885615 
Task54 0.007363136616503972 0.19378339284465812 0.061847198294013674 0.10354463883683047 0.3558738832561508 0.47456732065908136 0.7794888921016945 
Task55 0.11960198807827407 0.1790196616004618 0.1474391837963234 0.22329332449239384 0.766025532213373 0.9917608419492276 0.41015282298459543 
Task56 0.0014841481983322276 0.0041894216432469805 0.0056211097869232765 0.0050704489039261795 0.9424532388199378 0.6637505247288942 0.3312258651242831 
Task57 0.06323836582297435 0.2259004958479514 0.20941922700280607 0.02204323395057983 0.5355864578747538 0.623053757313021 0.9383657400554704 
Task58 0.006513306530124168 0.5014807863790967 0.38268309306112286 0.09929993910746808 0.7031273601844301 0.9276046773106092 0.71991299231208 
Task59 0.11083114608606168 0.25672205623746985 0.13922252564939644 0.16988052868820214 0.8036631193083088 0.6843988316163421 0.8463552564150434 
Task60 0.00036790730256056487 0.00013440573496399484 0.001376791676973859 0.0012862180289687287 0.9621487673955933 0.6223488896886642 0.6247734859108598 
Task61 0.006313419217918629 0.018124702256441017 0.021062830191753347 0.007472348020020623 0.4424197962570637 0.3055375775665855 0.5763042539662984 
Task62 0.008103636450842708 0.021301302856664043 0.01697498756613968 0.02532642940820175 0.7769256521735219 0.7807814014045622 0.37157149334996525 
Task63 0.034945101028340086 0.08406297665062676 0.03359440601197343 0.022264691006893135 0.49988041729614574 0.8617115472988433 0.8225161031955626 
Task64 0.008633380641689923 0.042086738335416755 0.39255942369470004 0.35658440906312877 0.4451445038907813 0.8037905671598888 0.7296505547178886 
Task65 0.046702523762912916 0.21807604769206154 0.2731462490247822 0.01163511518949372 0.552222746105542 0.5706763934917011 0.6742281905689461 
Task66 0.009426464138536504 0.03691193974796731 0.02642839239032889 0.012993605909135104 0.7054584087579419 0.42856549124437643 0.8499333883652727 
Task67 0.012648029868488007 0.002295954341170875 0.19834116603493482 0.22153670511793497 0.5680621726224397 0.6813104357423035 0.6990179827961518 
Task68 0.0021626746521534626 0.006218025173141658 0.0093902796305059 0.0010309303585352468 0.7531227220428525 0.698210385785011 0.6650055372114775 
Task69 0.07461251176279902 0.4199133107889831 0.09869347775138976 0.24305821666426058 0.3667043634254127 0.8223063711106968 0.5974642544587894 
Task70 0.003870818150161505 0.005817376185118148 0.012862657983644723 0.011750703217819597 0.7880363428619543 0.40842762223290074 0.6088441453573776 
Task71 0.09794391771089368 0.12931103321018297 0.1492756857266585 0.13371547326927058 0.6367819934600679 0.4118055434993243 0.7355585049086877 
Task72 0.09181859715516266 0.1585554780774298 0.1910745887084136 0.2527911608851002 0.35639184800637785 0.8215879024904733 0.7332708871832165 
Task73 0.003226420964681076 0.007978333274015838 0.0015937311367178841 0.012537783801563378 0.7861219228889038 0.3843045900649577 0.8209031691142323 
Task74 0.05748129316899269 0.13726640850525776 0.1408439965560647 0.44994618101994216 0.4374680048759026 0.6780347278826933 0.5963253077686419 
Task75 0.02131087844116359 0.01565718331558571 0.0905577605318731 0.0594947593097729 0.9088932407715598 0.45198156848002713 0.8175290719454156 
Task76 0.009144995652188972 0.05804487789185475 0.0233596892439273 0.03282814780373763 0.5668238952539714 0.9621773753727378 0.4797843315613135 
Task77 0.10686664657174887 0.16623161816548268 0.3921759483383856 0.19683961482483261 0.9519782405459565 0.5043087419375554 0.543937875729923 
Task78 0.045733997310871494 0.19389736315478276 0.2705404727107152 0.2814222338468327 0.7549565280026238 0.359933598192941 0.7111024475641408 
Task79 0.025578705799126814 0.02836554624899842 0.08958600270208714 0.028238325762546077 0.5577238305324401 0.688891942886851 0.7037794897786187 
Task80 0.08218209352954747 0.0075281372621129605 0.36416211359688566 0.2183824655331067 0.36262126073083534 0.5286230122714687 0.46304230522690915 
Task81 0.03998218420783087 0.18388561402184064 0.18188536561558658 0.19367275408399648 0.3047835648096412 0.48318394026132255 0.42934019161730386 
Task82 8.044785517954234e-05 0.0003616553898404255 0.00037513681621457394 0.0005983887102486156 0.30597220032590033 0.4013836169692863 0.4931943568159593 
Task83 0.007191506544325126 0.002315662901264371 0.0199983299401942 0.02038985203121815 0.8492535992982422 0.3564129596275086 0.5155405130421814 
Task84 0.0012595554278252382 0.01520650230897142 0.027688807343454906 0.0032812237793598104 0.38022797043344814 0.5264229513046899 0.642337605428932 
Task85 0.03812532778517357 0.18675429765813079 0.5270496591752803 0.07670472365019128 0.6128756995758788 0.6076403110741613 0.36080917034419396 
Task86 0.05669011130625954 0.12817908807762504 0.1348109427052689 0.10179742479043119 0.5053088407352961 0.4349901189940668 0.37976210911839475 
Task87 0.004955268184128926 0.026260193511794004 0.00744562004924693 0.04239087623015928 0.5156500838581805 0.4130916199243102 0.9279712729557195 
Task88 0.09103289199106916 0.12181521419079774 0.17799459365733022 0.18424484567403174 0.8072173737723749 0.6347934360872655 0.6225247229684118 
Task89 0.08771353171046835 0.327954925284566 0.012007189236294867 0.4173392922096131 0.9609423018286605 0.9497962928948589 0.6261926820838276 
Task90 0.04586479178922499 0.07025177278008683 0.13124229513348873 0.047168944448313606 0.6180022328457888 0.8922226071004047 0.35179445225404843 
Task91 0.005728376437676187 0.08711144414249049 0.005895620856740331 0.033010620235187665 0.7465648951110562 0.3374939296667092 0.9866445514243498 
Task92 0.0018103920309854203 0.07936376925880695 0.1039527203275682 0.015896634783993415 0.8550693435625385 0.48604990581341945 0.7027584788972804 
Task93 0.024304999036290072 0.03616889106689198 0.010355059613611531 0.05192708205331726 0.35465883119957875 0.7354666608124 0.43634080385168694 
Task94 0.025915060035631796 0.04698462088932179 0.03905980648027006 0.018379769962280523 0.9591264593145663 0.8961396803581148 0.8008354176756516 
Task95 0.023722820310622554 0.11251131199846023 0.12271655573950332 0.14722436538305864 0.8275208833990904 0.5914286758534535 0.98018688877806 
Task96 0.11307349850315457 0.33349190091375663 0.18613641817494717 0.3230771750543377 0.6811524100744901 0.7502361490887912 0.5548236706972969 
Task97 0.07293751370143699 0.1813880157404702 0.15767374124171893 0.17430314788809906 0.5625180382249726 0.31881215113331846 0.4079896852320131 
Task98 0.019159689330297082 0.09594176206319206 0.032170670645282534 0.1085480419505638 0.3505892700929196 0.9571802027776508 0.8479247573034594 
Task99 0.03569041352420773 0.18654425555488705 0.3922222413493717 0.38154128224349126 0.6582838427018094 0.8362032538860757 0.9911131222096212 
