Task0 0.09788405641814243 0.12832142768297955 0.07157246592302213 0.2010106574877014 0.31393560394296466 0.9380898268231537 0.7248471028610445 
Task1 0.07556646956972934 0.0768507454131895 0.24179179390460984 0.24802694829944003 0.962684912247129 0.7331124516941153 0.9233184133921282 
Task2 0.024004930052844545 0.03447913096505052 0.10034281957572432 0.10701553075279822 0.7408133328276254 0.9100042893835305 0.7631587361324648 
Task3 0.011139646151852133 0.45542526788133253 0.29792009070352127 0.053434950611568714 0.3438117523063571 0.566906123882944 0.8203349291956559 
Task4 0.04758849280582019 0.38852670855004334 0.033737603732656184 0.09740270947967032 0.908159261137885 0.7576416574198088 0.920612774418401 
Task5 0.06541980984263779 0.13303003189259077 0.42633998146355 0.05644876388767646 0.6388878140611876 0.7246387714997915 0.4812996980936245 
Task6 0.061755637831607126 0.20590974799164918 0.32760074900282987 0.2140565760363291 0.8691206861391978 0.4642774734231622 0.8393082393977043 
Task7 0.11571165355885342 0.22924210746899576 0.4133777945498152 0.09333289990295522 0.8935802831435016 0.9024014672431642 0.8285331714178441 
Task8 0.06679096249780414 0.16999320082661998 0.20988629987921822 0.43836356072164206 0.879119518579196 0.7631751361254211 0.43599981670238047 
Task9 0.1534127000729907 0.3654688299398573 0.2530848716491415 0.03247022568134782 0.9738266351964535 0.673070562106735 0.5565312564918166 
Task10 0.00011407076372406577 0.07896309677682571 0.08357346150847698 0.009139402117251444 0.3390848246574208 0.48812486117053483 0.8490567453370794 
Task11 1.3618114316428142e-05 1.8114122834030012e-05 5.5198726707427255e-05 8.519861835668978e-05 0.5164989952808619 0.7446101298547971 0.8112266847692289 
Task12 0.011015693625887972 0.1683472413983483 0.20325434435786532 0.33977103261524005 0.9868544877383547 0.8094098542453267 0.5203221830242132 
Task13 0.032247874717277976 0.11765515091402463 0.028324875325873702 0.07551013662760944 0.778344642825276 0.8347430032886214 0.3414637510540819 
Task14 0.05889057106380057 0.368596091031676 0.16339388116860026 0.3282409461754004 0.7252871260248102 0.6849681057857873 0.3980582219891817 
Task15 0.1625588089243997 0.24677206617333694 0.06701776763912587 0.4470398936202869 0.7597710565561133 0.8965292409807779 0.9520840213742152 
Task16 0.06079084322821881 0.11502860957955062 0.03879139859528346 0.1495338778882795 0.3129558589494432 0.7667466137835592 0.4829370029685645 
Task17 0.12625042349400523 0.30866349756157685 0.24173686341478773 0.17858989144345072 0.8106423702058905 0.559081236376404 0.9519797590456112 
Task18 0.006561125771013637 0.024452100185726026 0.1123350337432784 0.07908939770436817 0.4953788994223887 0.3791225507411773 0.7521189208622397 
Task19 0.12787807374041307 0.12998591623536196 0.3447721674217902 0.2454110874266564 0.5408293861129722 0.38286300501585796 0.3155520114763869 
Task20 0.07118410953058647 0.2609477387083472 0.26675074368479035 0.3023969991044569 0.9810836211146303 0.9838252019166707 0.6603882511543482 
Task21 0.06572847925894698 0.11323840474113314 0.4862428628704673 0.1856196845786785 0.9006508434550549 0.5128503763293286 0.661087619220516 
Task22 0.012917002601491468 0.0005638315917850298 0.12311769594724961 0.07659353580057762 0.508302822366896 0.4951426812228763 0.6540389391677166 
Task23 0.07179177188464379 0.08340808752793538 0.14116597638774742 0.11589690498672978 0.7526524938943919 0.6846990831306213 0.5292868719772882 
Task24 0.010303949968773754 0.11502784587110301 0.0641318661364416 0.07648584794835402 0.4104019983530672 0.9047436559028805 0.5187131548773436 
Task25 0.0050825086218807825 0.002006569189559802 0.004807350043891905 0.014532249917630491 0.7492693495064269 0.7501365856997192 0.9533368552835084 
Task26 0.0869224570614199 0.1971970366803246 0.22524094918033868 0.1547973825657668 0.8878697156161661 0.746413157223044 0.33540367964648776 
Task27 0.16364719090902058 0.21329145551211764 0.2525215851929614 0.24167598347178593 0.7723306829184103 0.5957997631456766 0.7047260995726847 
Task28 0.07338904032627971 0.1020720873113428 0.07442646919601642 0.13160917402395167 0.6538775209912019 0.974213693694989 0.884137278711868 
Task29 0.11421533506875181 0.253670097500485 0.16459992916328253 0.22762138662012119 0.6826478621523193 0.6569815338265677 0.5612151962831422 
Task30 0.015345451099367594 0.07868458694195674 0.0953933942197339 0.05290267585773904 0.5272213048736406 0.5101658669456572 0.6025544319968774 
Task31 0.0020546730410500075 0.08865616924780124 0.08783186520417072 0.247035450342475 0.9302313390330172 0.3258754046822739 0.8465973653127306 
Task32 0.017480874011940685 0.02696258393594102 0.017307366672287012 0.029383967621701992 0.7320605271758402 0.3235739449856417 0.5427144827538897 
Task33 0.031333346418501405 0.1612186801665133 0.07851106003484884 0.10032520783232744 0.4157917389732486 0.8397081894212859 0.928908799211337 
Task34 0.0029933120505592175 0.0029400977794398543 0.017869129686362405 0.018672578897284343 0.3477731706151935 0.9504154468548809 0.38420904496233843 
Task35 0.03777307011641612 0.40772454232480504 0.36141708276636286 0.10966717118192948 0.43852228924503667 0.4272858073461897 0.6802189075375824 
Task36 0.08266315759314198 0.2261547065732841 0.24872837158628625 0.3125008908607412 0.4635198128108698 0.7075022832843978 0.6256275286720148 
Task37 0.02518506539998977 0.20457221103806622 0.18419954919427745 0.224677862332176 0.33575489404781966 0.4042119521706492 0.5055198710412245 
Task38 0.17129563810652335 0.0213558877849479 0.5485265520948386 0.17070741327294808 0.7114701590996932 0.5193452483085128 0.6664993142271163 
Task39 0.006775908438826092 0.06315392361891484 0.016829969609478846 0.03168644177432121 0.9229433399648252 0.7257510378255085 0.9432565944669564 
Task40 0.11846851005386062 0.18496772080800816 0.49766395220923476 0.05779873976398481 0.5030530969545471 0.4377853294703991 0.8292599078044622 
Task41 0.00464562985568073 0.013466124109468276 0.008954539192448667 0.04822178678891887 0.806769969765492 0.3807173851941632 0.7150627103524844 
Task42 0.08035723694374595 0.04601311956679529 0.22235845733421475 0.16391633024498145 0.6727090887800461 0.9615706329088283 0.946059265644863 
Task43 0.03929506882441043 0.1002069735590678 0.300706359100776 0.17161073209801309 0.38651039902425255 0.6083740869144018 0.8341212205650219 
Task44 0.14767585090079435 0.2268107150639014 0.11254711539962957 0.2568900851632276 0.6028618838667089 0.5397535380011892 0.8805069839596675 
Task45 0.0012159663958363146 0.00767640172685673 0.01544784793682621 0.011937447153796129 0.4452264154374357 0.5972048425603785 0.9540502850027901 
Task46 0.06261757422140292 0.25215265260939346 0.43516753299711164 0.164552533173332 0.31759986554133707 0.543199816357617 0.9502756785597894 
Task47 0.07127376953077123 0.1948706362935863 0.3317649851528161 0.19334743386715098 0.3037639630790705 0.9037122684005521 0.9945787188622668 
Task48 0.05615814321304531 0.044175296963650364 0.1960196511872303 0.032791186270780134 0.7914780330578063 0.42181954084585926 0.8639896093224317 
Task49 0.09676978876964108 0.2149838948975143 0.06525800731959197 0.1960174235097515 0.6575711584751986 0.8596343273413762 0.6585894162582653 
Task50 0.09079156339825768 0.04001225500958278 0.3332275330427564 0.30403473042521617 0.6643282675624238 0.6232047545144372 0.38358789122433845 
Task51 0.019757791818885456 0.014017386431187405 0.37932390864316395 0.15153079380303655 0.6785825057319081 0.5637853880793 0.9298773453914462 
Task52 0.1297667368115087 0.12084870122997737 0.26672856010998824 0.36289722845594036 0.889321201518769 0.574185941274092 0.8501649462909115 
Task53 0.02761303278377222 0.019888333226753634 0.1421140326309753 0.24090725787564635 0.8472804198494874 0.47751760898885237 0.6161914923097098 
Task54 0.0078119788562726914 0.13474467761465186 0.08404313495873887 0.05102841749812762 0.7825903054165111 0.528584110934846 0.6840860565905997 
Task55 0.04726672407989537 0.03634518837016832 0.07408894991052539 0.08777806878987397 0.38994198983588346 0.49152115415207354 0.7032529016852616 
Task56 0.08638988634595725 0.2449562201206553 0.35917984254333324 0.01496510790192772 0.9847164815991305 0.775650072674508 0.9820069224000691 
Task57 0.009015802559437378 0.17767723186643397 0.37393239511227994 0.3396686691646573 0.7102269429102525 0.6732758414484552 0.887701967461977 
Task58 0.03793496361418234 0.25912079766561613 0.138808714878802 0.23937912719583132 0.9545923354939783 0.32233066276779065 0.39108073276135497 
Task59 0.006420353565101087 0.09046978352862066 0.01984413084728163 0.029786149767826575 0.3190417092504458 0.8507812080353672 0.4900263651583312 
Task60 0.09984521778268808 0.3189687526635949 0.14972294359289612 0.32618872432268947 0.793914535960153 0.43949070309297106 0.5098248655168157 
Task61 0.1181777117654436 0.04494964845986508 0.3673375330996355 0.33887778785491623 0.36064037602027693 0.5179296610183596 0.611634231090052 
Task62 0.028940386800608814 0.04782662270011844 0.2022364958915538 0.10790998761703229 0.5548847288735046 0.6097783916487167 0.704895585696738 
Task63 0.08618029201247279 0.3039674495918427 0.1469737402055443 0.23158067698904264 0.34902180582918246 0.9208303833491376 0.9857576431331705 
Task64 0.02326354184187748 0.013406350265124187 0.1073550936288768 0.011697581898684344 0.7274083500555829 0.579310293562179 0.6118146226163128 
Task65 0.014355754797000594 0.14870824119475035 0.07961314715506505 0.10849738534617558 0.506940938972188 0.37218214309475584 0.9966934031322252 
Task66 0.11243629577801202 0.06050331920592153 0.30595405605749304 0.18813348457698661 0.40942496853025184 0.8392433420777077 0.9701470575123501 
Task67 0.0638098318358297 0.2431073596642721 0.09743575167122727 0.16903885577700462 0.6789887821945277 0.8618781932190376 0.3560772467762241 
Task68 0.05880489822116604 0.020730729339550703 0.129415343547391 0.1135518883090706 0.3610186175250447 0.7564682840044812 0.6335460688723644 
Task69 0.016774689657561192 0.43885416868780525 0.37942732876381086 0.0423868483013895 0.7886484042372458 0.6349157353019761 0.8446358864779044 
Task70 0.06021700232613393 0.27763097412867194 0.19654056112162455 0.37902343752216616 0.540677954026081 0.6544441278017084 0.7830342524192475 
Task71 0.002339103166467998 0.18118606748291363 0.4256672447392945 0.11394395003958763 0.9131782488417224 0.9370493669000848 0.5936547655730486 
Task72 0.13740532090761143 0.4325493093102442 0.11629961762084103 0.17668447580029267 0.911887219945839 0.7064262422344665 0.5145887041579624 
Task73 0.041459639643364445 0.07559137635620922 0.04384807260164927 0.07045389138691982 0.43898080328920425 0.5714816219122818 0.3303994606191208 
Task74 0.008419558376619547 0.08087386832001646 0.08585690771991947 0.04084933766752688 0.3916582126351122 0.3201713085262802 0.9171989806812408 
Task75 0.055352518268300954 0.0881757341373405 0.02811549753090802 0.12220360594571213 0.617095394285532 0.7212864644134969 0.7705766297285026 
Task76 0.01130842171342163 0.007004733702983764 0.020509443432559914 0.05429693119793501 0.7093334102462368 0.9752740902739372 0.5703379448329742 
Task77 0.16169337190028596 0.35502668111166746 0.2942725161243782 0.1850098169956584 0.6735510882046609 0.7400912469520485 0.8311435126142046 
Task78 0.0012228500424303704 0.008634936038156562 0.024843149616312045 0.019522643741583134 0.9993708134789792 0.5803342143537653 0.49382785800168555 
Task79 0.002868267307072005 0.25281688079502745 0.5020063838743785 0.14423809789738168 0.38755625433231017 0.7423270497427187 0.5348395928609633 
Task80 0.04995437154023601 0.09609173573213 0.3023135740808347 0.00970346173130436 0.5037759322599625 0.3764313026436116 0.9795677972068546 
Task81 0.007544357886527529 0.20526884524216674 0.31635122466390153 0.3057869983907489 0.6896933547942805 0.7039206290340883 0.6626595356586826 
Task82 0.038814823932595804 0.09824336441121856 0.09427858834478305 0.022266654125395528 0.9981319338017431 0.9661586785218641 0.7350172426993979 
Task83 0.007316921042766633 0.39649748682324576 0.1479970922741155 0.14045703096932127 0.9509783630861754 0.4649012998506308 0.7183887677234141 
Task84 0.01353107594045044 0.07519200479064661 0.1648481979880685 0.07889224548330874 0.6701686717687529 0.6051377912682778 0.9070316604380162 
Task85 0.05956216601790221 0.18380344605196197 0.08975127389421877 0.18056097750776237 0.3799894182753846 0.46453825850314967 0.3285606479375597 
Task86 0.00685186560511455 0.002007433387034379 0.02736502104355692 0.013990556049286796 0.4500150193250972 0.30839011001426736 0.9497984620755517 
Task87 0.1723453924238335 0.23880436091311857 0.290528960787388 0.25961149371828046 0.8619752620764449 0.7991184443063437 0.8858760802979426 
Task88 0.017890708410481227 0.04179971920745897 0.01587216044466628 0.015203588601256961 0.640262581780559 0.9910562893838122 0.3233206774454259 
Task89 0.02304448831121095 0.12826146973503014 0.2818205368466407 0.22036899746256303 0.5624175896121579 0.5969774648187327 0.45164552533971947 
Task90 0.009851878082476775 0.009912718536515906 0.03386375260588046 0.042678165497681775 0.8022108598400706 0.5279008592718035 0.5199687511588801 
Task91 0.009916912773733856 0.06047629627930285 0.011953719229427543 0.23329262150624644 0.9596565682985545 0.9105477933181796 0.9281746999006559 
Task92 0.12257010214740868 0.2075175224757744 0.15338841397073028 0.13436142278168542 0.8327523213827466 0.7465223658049192 0.4746016094572123 
Task93 0.013279750023645256 0.04800751623385629 0.012887473847910903 0.007840403148082 0.9424958921159192 0.32939327753868686 0.6270830538862173 
Task94 0.0625540944079955 0.038674266255314796 0.3009935271240305 0.1436625199223617 0.844361185200994 0.944018715715903 0.9462853001187856 
Task95 0.17113592294616908 0.33300338417190384 0.07948984384091674 0.2767702346370606 0.39921208286777893 0.3396914417370899 0.6676590916952218 
Task96 0.021969120994212117 0.15608783774288 0.20479427272878187 0.17305812480195087 0.9708149740038234 0.5173105229891128 0.8993782981787637 
Task97 0.0380913130237546 0.16956271956904298 0.03942556460560356 0.1302533566438066 0.7056548428348987 0.5295755417007737 0.5998176526907804 
Task98 0.12424304497315541 0.3755723733497067 0.1715380419664341 0.1464199604028053 0.9017169017248239 0.7898508822093386 0.9946161689731827 
Task99 0.0011502088155023126 0.027524053072020355 0.01095636237126686 0.00906595884804437 0.7893146814061904 0.9321308526208714 0.5185717132463044 
