1 18
2 14
2 16
2 17
3 16
4 16
5 17
5 18
6 15
6 17
6 18
7 14
7 18
8 14
8 15
8 18
8 19
9 14
10 14
11 17
11 18
12 14
13 15
14 21
14 26
15 23
16 20
16 23
16 24
16 26
17 21
17 22
17 23
17 24
17 25
17 26
18 24
19 21
20 28
20 29
20 30
21 29
21 29
21 31
21 32
21 34
21 36
22 32
22 35
22 36
22 38
23 38
24 28
24 33
24 35
24 36
25 28
25 31
25 33
25 38
26 27
26 28
26 31
26 32
26 36
26 37
27 39
27 42
28 42
28 51
29 42
29 43
30 43
30 45
30 50
30 51
30 52
31 40
31 43
31 44
31 45
31 47
31 48
31 51
31 53
32 44
32 52
33 42
33 46
33 49
34 43
34 44
34 51
35 40
35 41
35 50
35 51
35 53
36 47
36 53
37 39
37 43
37 47
37 52
37 53
38 42
38 43
38 45
38 50
38 52
39 55
39 56
40 55
40 56
41 55
44 54
46 54
46 57
48 56
49 55
50 55
50 56
50 58
51 55
53 54
54 59
54 65
54 66
54 67
54 68
55 62
55 65
55 68
55 71
56 60
56 61
56 69
56 70
56 72
57 61
57 62
57 64
57 67
57 70
57 71
58 63
58 65
59 73
59 76
59 77
60 78
60 79
61 73
61 74
62 76
62 78
63 74
63 78
64 74
64 79
65 74
65 75
65 77
66 73
66 77
67 76
68 76
69 73
69 74
69 77
70 73
70 74
70 76
70 77
71 73
71 74
71 75
72 78
73 81
73 82
75 80
76 83
77 80
77 83
78 80
78 82
78 83
79 83
80 87
80 89
80 90
80 93
81 84
81 91
81 92
81 94
81 95
82 84
82 85
82 86
82 96
83 85
83 86
83 88
83 92
83 96
85 97
85 99
87 97
87 98
87 99
88 97
88 98
88 99
89 97
89 98
89 99
92 98
92 99
94 97
94 99
95 97
