0 8
0 12
1 7
1 9
1 10
1 13
2 8
2 13
3 8
3 9
3 11
4 6
4 11
5 7
5 11
5 13
5 14
6 15
6 17
7 15
7 17
8 15
8 16
8 17
9 15
9 16
10 18
11 16
13 16
14 16
14 17
14 18
15 21
15 23
16 19
16 20
16 21
16 22
16 23
17 20
17 22
18 19
19 24
19 29
20 28
20 30
21 24
21 25
21 27
21 30
22 24
23 26
23 30
24 33
24 34
24 35
24 36
24 37
25 31
25 32
25 39
25 40
26 31
26 32
26 33
26 35
26 37
27 32
27 38
28 32
28 38
29 31
29 34
29 37
29 38
30 31
30 33
30 38
30 41
31 45
31 46
31 52
32 47
32 49
32 54
33 51
34 47
34 52
35 43
35 45
35 47
35 48
35 52
36 45
36 48
36 51
36 52
37 43
37 45
37 47
37 51
37 54
38 42
38 45
38 48
39 42
39 46
39 48
39 53
39 54
40 46
40 50
40 52
41 44
41 45
41 47
41 49
41 52
42 55
42 57
42 58
42 59
43 58
44 58
45 58
46 57
47 57
48 55
48 57
48 58
49 55
49 58
49 59
51 56
51 57
53 55
53 56
55 68
55 70
55 71
56 61
56 66
56 67
56 68
56 73
57 60
57 61
57 63
57 65
57 67
57 69
57 71
57 72
57 73
58 65
58 67
59 60
59 61
59 62
59 64
59 68
59 70
60 74
60 75
60 76
62 75
62 76
62 77
63 75
63 77
65 75
65 77
66 76
66 77
67 77
68 76
68 77
69 77
70 75
70 76
74 78
74 83
74 84
74 88
74 89
74 90
74 91
75 79
75 80
75 81
75 83
75 84
75 85
75 87
75 89
75 91
76 78
76 80
76 82
76 85
76 86
77 82
77 88
78 95
79 98
79 99
80 98
81 92
81 98
82 92
82 94
82 97
82 98
83 92
83 94
83 97
84 92
84 97
84 99
85 92
85 94
85 97
86 97
86 99
87 92
87 96
87 99
88 98
88 99
89 94
90 93
90 94
90 99
91 93
91 96
91 97
