0 5
0 6
0 7
1 7
1 8
2 8
3 4
3 5
4 10
4 13
4 15
4 18
4 20
4 22
4 23
4 24
5 18
5 24
6 12
6 13
6 16
6 17
6 18
6 19
6 20
6 23
7 9
7 11
7 12
7 16
7 17
7 19
7 21
7 22
8 9
8 14
8 19
8 20
8 21
9 28
9 31
10 26
10 27
11 25
11 27
12 25
12 31
13 25
13 30
13 31
13 32
14 27
14 31
14 33
15 28
16 25
16 26
16 30
17 25
17 31
17 33
18 25
18 27
18 30
19 25
19 28
19 30
20 25
20 30
21 27
21 31
22 28
22 30
22 33
23 27
23 33
24 29
24 33
25 35
25 36
25 37
26 34
27 36
30 36
31 34
31 35
32 34
32 36
33 37
34 38
34 39
34 40
34 41
34 42
35 43
36 40
36 44
37 38
37 41
38 46
38 47
38 49
39 46
39 48
40 48
40 48
40 49
41 47
43 45
43 49
44 46
44 48
45 51
45 55
45 56
45 58
45 62
45 63
45 64
46 50
46 52
46 56
46 60
46 61
47 51
47 52
47 53
47 54
47 59
47 61
47 62
47 64
48 50
48 52
48 57
48 62
49 51
49 53
49 55
49 57
50 71
50 74
50 75
50 77
51 70
51 73
51 77
53 70
54 71
54 72
54 77
55 67
55 68
55 73
56 71
56 74
56 75
56 76
57 66
57 69
57 70
58 69
58 70
58 75
58 76
59 70
59 70
59 73
59 76
60 66
60 69
60 73
60 76
61 68
61 69
61 73
61 76
61 77
62 65
62 67
62 68
62 71
62 75
62 76
62 77
63 67
63 68
63 69
63 71
63 77
64 66
64 71
64 77
65 78
65 79
65 80
65 81
66 79
66 80
67 79
68 80
69 81
70 79
70 80
70 81
71 81
71 83
72 79
72 82
72 83
73 83
74 78
75 78
75 79
75 83
76 79
76 82
77 78
77 80
79 84
79 85
80 86
82 84
82 86
83 85
83 86
84 88
84 90
84 93
85 89
85 90
85 91
85 93
85 94
85 96
86 87
86 88
86 89
86 92
86 94
86 95
87 98
88 98
89 99
90 99
91 99
93 98
95 98
95 99
96 97
96 98
