files/tasks_parameters/ExAp01/sample8.txt 1.07811 7.2562 4.46819 0.454772 9.91479
files/tasks_parameters/ExAp01/sample12.txt 1.45739 9.70908 5.28286 0.618515 13.4846
files/tasks_parameters/ExAp01/sample2.txt 1.42703 8.14159 5.7401 0.620531 13.5286
files/tasks_parameters/ExAp01/sample44.txt 1.31104 7.25164 5.75904 0.557631 12.1573
files/tasks_parameters/ExAp01/sample27.txt 1.33008 8.10944 5.64946 0.564878 12.3153
files/tasks_parameters/ExAp01/sample17.txt 1.24399 7.11225 5.46658 0.527183 11.4935
files/tasks_parameters/ExAp01/sample9.txt 1.19961 7.62559 5.37813 0.517277 11.2775
files/tasks_parameters/ExAp01/sample34.txt 1.24653 7.04587 5.93037 0.497709 10.8509
files/tasks_parameters/ExAp01/sample40.txt 1.1721 8.03037 5.123 0.502383 10.9528
files/tasks_parameters/ExAp01/sample33.txt 1.49757 9.22935 5.92956 0.659262 14.373
files/tasks_parameters/ExAp01/sample48.txt 1.07604 8.12182 5.1577 0.452491 9.86504
files/tasks_parameters/ExAp01/sample29.txt 1.4686 8.06133 5.12331 0.650652 14.1853
files/tasks_parameters/ExAp01/sample11.txt 1.29541 7.63104 5.37897 0.563302 12.2809
files/tasks_parameters/ExAp01/sample14.txt 1.12247 6.66403 4.66322 0.471536 10.2803
files/tasks_parameters/ExAp01/sample0.txt 1.46978 9.3266 4.98971 0.6311 13.759
files/tasks_parameters/ExAp01/sample7.txt 1.20632 7.34863 5.19436 0.515527 11.2393
files/tasks_parameters/ExAp01/sample23.txt 1.37212 6.68564 5.54308 0.588617 12.8328
files/tasks_parameters/ExAp01/sample13.txt 1.47527 9.31093 5.35591 0.632849 13.7972
files/tasks_parameters/ExAp01/sample22.txt 1.2766 7.65588 5.04866 0.540336 11.7802
files/tasks_parameters/ExAp01/sample25.txt 1.03386 6.17035 5.0141 0.408296 8.90153
files/tasks_parameters/ExAp01/sample36.txt 1.2028 7.03772 4.66274 0.507647 11.0675
files/tasks_parameters/ExAp01/sample46.txt 1.259 7.73433 4.79934 0.536843 11.7041
files/tasks_parameters/ExAp01/sample31.txt 1.18138 6.96928 5.16482 0.485817 10.5916
files/tasks_parameters/ExAp01/sample37.txt 1.51361 9.52443 5.74224 0.65799 14.3453
files/tasks_parameters/ExAp01/sample16.txt 1.33186 8.63521 4.97261 0.516328 11.2568
files/tasks_parameters/ExAp01/sample10.txt 1.42202 7.28353 6.16876 0.615651 13.4222
files/tasks_parameters/ExAp01/sample39.txt 1.11776 6.3405 4.6137 0.468873 10.2222
files/tasks_parameters/ExAp01/sample19.txt 1.41173 8.85528 5.22306 0.622152 13.564
files/tasks_parameters/ExAp01/sample20.txt 1.34477 8.1141 5.21177 0.586994 12.7974
files/tasks_parameters/ExAp01/sample43.txt 1.25871 7.21373 5.6367 0.53748 11.7179
files/tasks_parameters/ExAp01/sample32.txt 1.38484 8.30592 5.38137 0.593918 12.9484
files/tasks_parameters/ExAp01/sample45.txt 1.25153 7.94069 4.96323 0.547271 11.9314
files/tasks_parameters/ExAp01/sample26.txt 1.12871 7.57061 4.62637 0.480146 10.468
files/tasks_parameters/ExAp01/sample5.txt 1.37681 8.0307 5.35681 0.59407 12.9517
files/tasks_parameters/ExAp01/sample21.txt 1.03094 5.87802 4.61744 0.434264 9.46768
files/tasks_parameters/ExAp01/sample38.txt 1.1455 7.66999 4.86632 0.496808 10.8312
files/tasks_parameters/ExAp01/sample1.txt 1.13979 7.21312 4.63213 0.486293 10.602
files/tasks_parameters/ExAp01/sample15.txt 1.2576 8.02273 5.50855 0.531063 11.578
files/tasks_parameters/ExAp01/sample24.txt 1.28967 8.66348 5.4905 0.548998 11.9691
files/tasks_parameters/ExAp01/sample3.txt 1.13377 7.74268 4.79918 0.477387 10.4078
files/tasks_parameters/ExAp01/sample6.txt 1.4424 8.57133 5.80157 0.633604 13.8136
files/tasks_parameters/ExAp01/sample30.txt 1.53358 8.18878 5.90888 0.633576 13.813
files/tasks_parameters/ExAp01/sample42.txt 1.32203 8.57689 5.67253 0.54426 11.8658
files/tasks_parameters/ExAp01/sample4.txt 1.29903 8.40354 4.57985 0.563519 12.2857
files/tasks_parameters/ExAp01/sample28.txt 1.05034 6.44114 4.96426 0.449721 9.80467
files/tasks_parameters/ExAp01/sample18.txt 1.29604 8.56363 4.60946 0.543766 11.855
files/tasks_parameters/ExAp01/sample35.txt 1.79092 11.0387 6.34514 0.761377 16.5993
files/tasks_parameters/ExAp01/sample47.txt 1.23894 7.14493 5.22131 0.545046 11.8829
files/tasks_parameters/ExAp01/sample49.txt 1.2305 6.65996 4.80244 0.498533 10.8689
files/tasks_parameters/ExAp01/sample41.txt 1.1553 7.09069 5.35462 0.497129 10.8382
