files/tasks_parameters/ExAp01/sample8.txt 1.17397 6.77015 2.19458 0.288816 6.29668
files/tasks_parameters/ExAp01/sample12.txt 1.38101 9.58351 2.46081 0.337498 7.35803
files/tasks_parameters/ExAp01/sample2.txt 1.2594 8.44418 2.50701 0.319127 6.9575
files/tasks_parameters/ExAp01/sample44.txt 1.08622 6.96299 2.23089 0.28229 6.1544
files/tasks_parameters/ExAp01/sample27.txt 1.16248 7.74306 2.16676 0.28602 6.23571
files/tasks_parameters/ExAp01/sample17.txt 1.15361 7.35053 2.25579 0.292348 6.37366
files/tasks_parameters/ExAp01/sample9.txt 1.16937 6.89392 2.21068 0.282399 6.15676
files/tasks_parameters/ExAp01/sample34.txt 1.12777 6.62788 2.3772 0.297742 6.49126
files/tasks_parameters/ExAp01/sample40.txt 1.05641 7.75686 2.17534 0.285619 6.22697
files/tasks_parameters/ExAp01/sample33.txt 1.30056 8.14826 2.6463 0.338073 7.37056
files/tasks_parameters/ExAp01/sample48.txt 1.0305 7.64107 2.14272 0.270011 5.88669
files/tasks_parameters/ExAp01/sample29.txt 1.25582 7.139 1.93769 0.286306 6.24194
files/tasks_parameters/ExAp01/sample11.txt 1.09236 6.88688 2.12981 0.280008 6.10465
files/tasks_parameters/ExAp01/sample14.txt 0.902384 6.11983 1.97599 0.247458 5.39499
files/tasks_parameters/ExAp01/sample0.txt 1.16076 8.2738 2.14256 0.289132 6.30355
files/tasks_parameters/ExAp01/sample7.txt 1.03695 6.87011 2.05821 0.269886 5.88395
files/tasks_parameters/ExAp01/sample23.txt 1.17735 6.52032 2.38087 0.291712 6.3598
files/tasks_parameters/ExAp01/sample13.txt 1.19706 8.73247 2.33415 0.295393 6.44005
files/tasks_parameters/ExAp01/sample22.txt 1.06744 6.9777 2.28948 0.283979 6.19122
files/tasks_parameters/ExAp01/sample25.txt 0.967776 6.23444 2.2122 0.267298 5.82753
files/tasks_parameters/ExAp01/sample36.txt 0.969762 6.6174 1.9458 0.253823 5.53376
files/tasks_parameters/ExAp01/sample46.txt 1.35268 7.42369 2.49128 0.327273 7.13509
files/tasks_parameters/ExAp01/sample31.txt 1.02336 7.22028 2.13584 0.25377 5.5326
files/tasks_parameters/ExAp01/sample37.txt 1.15891 8.90704 2.16981 0.295708 6.44693
files/tasks_parameters/ExAp01/sample16.txt 1.02225 8.18243 1.88294 0.24945 5.43842
files/tasks_parameters/ExAp01/sample10.txt 1.09979 6.96646 2.31217 0.285748 6.22978
files/tasks_parameters/ExAp01/sample39.txt 0.974231 6.4161 1.97266 0.251967 5.49329
files/tasks_parameters/ExAp01/sample19.txt 1.3234 8.16711 2.23199 0.308463 6.725
files/tasks_parameters/ExAp01/sample20.txt 1.04102 7.28549 1.88944 0.25994 5.66712
files/tasks_parameters/ExAp01/sample43.txt 0.974921 6.86804 2.00142 0.25616 5.58472
files/tasks_parameters/ExAp01/sample32.txt 1.1152 8.15663 2.12995 0.281726 6.1421
files/tasks_parameters/ExAp01/sample45.txt 1.20024 7.75184 2.10599 0.274935 5.99404
files/tasks_parameters/ExAp01/sample26.txt 1.06575 7.4944 1.88956 0.267248 5.82645
files/tasks_parameters/ExAp01/sample5.txt 1.1809 8.08362 2.09961 0.28454 6.20345
files/tasks_parameters/ExAp01/sample21.txt 1.07923 6.11814 2.17119 0.26143 5.6996
files/tasks_parameters/ExAp01/sample38.txt 1.04585 7.761 1.96293 0.263659 5.7482
files/tasks_parameters/ExAp01/sample1.txt 1.17216 7.83752 2.13261 0.289228 6.30565
files/tasks_parameters/ExAp01/sample15.txt 1.12667 7.37971 2.12057 0.285825 6.23147
files/tasks_parameters/ExAp01/sample24.txt 1.13536 8.28531 2.25272 0.296628 6.46699
files/tasks_parameters/ExAp01/sample3.txt 1.29546 7.33359 2.39135 0.305084 6.65135
files/tasks_parameters/ExAp01/sample6.txt 1.05792 7.09894 2.24425 0.281804 6.1438
files/tasks_parameters/ExAp01/sample30.txt 1.37273 8.17669 2.03701 0.299204 6.52315
files/tasks_parameters/ExAp01/sample42.txt 1.11551 7.70416 2.42413 0.29743 6.48447
files/tasks_parameters/ExAp01/sample4.txt 1.25837 7.41691 2.36261 0.307803 6.71061
files/tasks_parameters/ExAp01/sample28.txt 1.11947 7.0562 2.07657 0.266428 5.80857
files/tasks_parameters/ExAp01/sample18.txt 1.04592 7.60139 2.1377 0.268016 5.84319
files/tasks_parameters/ExAp01/sample35.txt 1.34395 9.66795 2.28028 0.32244 7.02972
files/tasks_parameters/ExAp01/sample47.txt 1.00912 6.84842 2.12104 0.251655 5.48649
files/tasks_parameters/ExAp01/sample49.txt 1.01881 7.1497 2.11412 0.255889 5.5788
files/tasks_parameters/ExAp01/sample41.txt 1.02319 6.59911 2.07359 0.265885 5.79674
