files/tasks_parameters/ExAp01/sample8.txt 0.776031 3.15778 1.5595 0.203411 4.32827
files/tasks_parameters/ExAp01/sample12.txt 0.806027 3.94962 1.6705 0.207924 4.42429
files/tasks_parameters/ExAp01/sample2.txt 0.767224 3.78275 1.74131 0.200098 4.25776
files/tasks_parameters/ExAp01/sample44.txt 0.686719 3.59825 1.65317 0.200005 4.25579
files/tasks_parameters/ExAp01/sample27.txt 0.71004 3.45743 1.5148 0.182129 3.87541
files/tasks_parameters/ExAp01/sample17.txt 0.73375 2.77299 1.44514 0.14646 3.11643
files/tasks_parameters/ExAp01/sample9.txt 0.724992 2.99933 1.451 0.177444 3.77572
files/tasks_parameters/ExAp01/sample34.txt 0.703773 3.02928 1.58429 0.157984 3.36164
files/tasks_parameters/ExAp01/sample40.txt 0.73061 3.86889 1.52122 0.168379 3.58285
files/tasks_parameters/ExAp01/sample33.txt 0.784223 3.63695 1.71905 0.199765 4.25068
files/tasks_parameters/ExAp01/sample48.txt 0.671179 3.39061 1.49062 0.154728 3.29237
files/tasks_parameters/ExAp01/sample29.txt 0.768153 3.30472 1.38739 0.223868 4.76356
files/tasks_parameters/ExAp01/sample11.txt 0.707448 3.10585 1.41612 0.174079 3.70412
files/tasks_parameters/ExAp01/sample14.txt 0.666943 2.70971 1.43432 0.162214 3.45167
files/tasks_parameters/ExAp01/sample0.txt 0.728356 3.6937 1.5439 0.18367 3.9082
files/tasks_parameters/ExAp01/sample7.txt 0.672939 2.70501 1.42221 0.143463 3.05267
files/tasks_parameters/ExAp01/sample23.txt 0.760005 3.2697 1.57822 0.181448 3.86094
files/tasks_parameters/ExAp01/sample13.txt 0.729752 3.84225 1.67648 0.198247 4.21838
files/tasks_parameters/ExAp01/sample22.txt 0.731009 3.09569 1.56121 0.148796 3.16615
files/tasks_parameters/ExAp01/sample25.txt 0.70837 2.73966 1.5007 0.148149 3.15237
files/tasks_parameters/ExAp01/sample36.txt 0.640259 2.85948 1.28553 0.130042 2.76709
files/tasks_parameters/ExAp01/sample46.txt 0.753956 3.58643 1.69998 0.210103 4.47065
files/tasks_parameters/ExAp01/sample31.txt 0.707655 3.4832 1.53782 0.1722 3.66414
files/tasks_parameters/ExAp01/sample37.txt 0.74763 3.95293 1.50705 0.171701 3.65353
files/tasks_parameters/ExAp01/sample16.txt 0.601234 3.31216 1.30115 0.150249 3.19706
files/tasks_parameters/ExAp01/sample10.txt 0.745298 3.17098 1.61789 0.153776 3.27212
files/tasks_parameters/ExAp01/sample39.txt 0.718423 3.26617 1.44406 0.165669 3.52517
files/tasks_parameters/ExAp01/sample19.txt 0.759874 3.63532 1.52509 0.196094 4.17258
files/tasks_parameters/ExAp01/sample20.txt 0.647752 3.20793 1.25367 0.147335 3.13506
files/tasks_parameters/ExAp01/sample43.txt 0.63738 3.11551 1.4202 0.150644 3.20548
files/tasks_parameters/ExAp01/sample32.txt 0.720937 3.5311 1.42482 0.168744 3.59061
files/tasks_parameters/ExAp01/sample45.txt 0.758231 3.80283 1.48324 0.19807 4.21463
files/tasks_parameters/ExAp01/sample26.txt 0.630619 3.21645 1.29701 0.166061 3.53352
files/tasks_parameters/ExAp01/sample5.txt 0.627095 3.5889 1.52559 0.178903 3.80678
files/tasks_parameters/ExAp01/sample21.txt 0.661032 2.75242 1.55936 0.19512 4.15185
files/tasks_parameters/ExAp01/sample38.txt 0.659056 3.31563 1.37515 0.166157 3.53555
files/tasks_parameters/ExAp01/sample1.txt 0.708133 3.74964 1.51696 0.19701 4.19205
files/tasks_parameters/ExAp01/sample15.txt 0.693144 3.32916 1.48508 0.180707 3.84517
files/tasks_parameters/ExAp01/sample24.txt 0.768879 3.45951 1.59549 0.16529 3.51712
files/tasks_parameters/ExAp01/sample3.txt 0.891256 3.70014 1.70809 0.237107 5.04526
files/tasks_parameters/ExAp01/sample6.txt 0.710205 3.33003 1.58323 0.184714 3.93043
files/tasks_parameters/ExAp01/sample30.txt 0.91199 4.1841 1.4861 0.239623 5.0988
files/tasks_parameters/ExAp01/sample42.txt 0.741159 3.43221 1.70276 0.177383 3.77443
files/tasks_parameters/ExAp01/sample4.txt 0.783428 3.72477 1.6136 0.196448 4.18011
files/tasks_parameters/ExAp01/sample28.txt 0.685445 3.11323 1.45032 0.158819 3.37942
files/tasks_parameters/ExAp01/sample18.txt 0.703568 3.47418 1.45209 0.149064 3.17184
files/tasks_parameters/ExAp01/sample35.txt 0.755426 4.57086 1.49394 0.185031 3.93716
files/tasks_parameters/ExAp01/sample47.txt 0.695446 3.13768 1.52397 0.16417 3.49328
files/tasks_parameters/ExAp01/sample49.txt 0.695644 3.13288 1.49657 0.156154 3.32271
files/tasks_parameters/ExAp01/sample41.txt 0.715429 2.81964 1.49636 0.150876 3.2104
