0.35476567
Task0 63 15 1 
Task1 1 31 3 
Task2 1 31 15 
Task3 31 3 31 
Task4 31 31 15 
Task5 63 255 63 
Task6 3 31 15 
Task7 31 7 3 
Task8 31 15 1 
Task9 1 31 1 
Task10 63 255 255 
Task11 15 63 7 
Task12 31 31 255 
Task13 127 127 255 
Task14 1 15 63 
Task15 31 15 7 
Task16 15 15 63 
Task17 1 31 1 
Task18 63 7 15 
Task19 7 63 31 
Task20 3 15 31 
Task21 31 15 31 
Task22 1 7 63 
Task23 7 15 15 
Task24 7 15 31 
Task25 7 15 31 
Task26 1 31 3 
Task27 3 1 31 
Task28 63 63 63 
Task29 1 7 31 
Task30 7 31 31 
Task31 7 15 31 
Task32 63 7 31 
Task33 31 15 7 
Task34 31 15 15 
Task35 7 31 1 
Task36 15 31 1 
Task37 3 31 31 
Task38 63 31 15 
Task39 63 31 15 
Task40 7 31 1 
Task41 15 127 63 
Task42 31 15 127 
Task43 31 31 31 
Task44 7 1 31 
Task45 31 7 15 
Task46 31 31 15 
Task47 7 7 63 
Task48 31 15 15 
Task49 31 15 15 
Task50 31 3 1 
Task51 1 15 31 
Task52 31 63 7 
Task53 31 15 63 
Task54 7 63 31 
Task55 15 7 15 
Task56 3 7 15 
Task57 63 31 31 
Task58 15 31 31 
Task59 15 3 63 
Task60 3 1 31 
Task61 31 63 7 
Task62 63 1 15 
Task63 63 7 31 
Task64 3 1 63 
Task65 7 7 31 
Task66 1 31 7 
Task67 31 3 7 
Task68 1 31 3 
Task69 31 31 31 
Task70 3 63 31 
Task71 3 1 31 
Task72 1 31 15 
Task73 127 255 63 
Task74 127 255 127 
Task75 1 7 31 
Task76 63 31 3 
Task77 3 15 31 
Task78 31 1 7 
Task79 15 3 15 
Task80 15 31 63 
Task81 1 31 31 
Task82 63 63 1 
Task83 1 31 7 
Task84 3 3 31 
Task85 31 3 7 
Task86 31 31 7 
Task87 1 31 7 
Task88 31 7 15 
Task89 31 31 7 
Task90 63 127 127 
Task91 63 3 15 
Task92 15 7 7 
Task93 1 31 31 
Task94 3 31 7 
Task95 63 31 31 
Task96 15 7 31 
Task97 15 63 31 
Task98 31 7 31 
Task99 31 15 15 
