Task0 0.14899971944647938 0.21324991595739753 0.2549299423778745 0.31062362574802455 0.6661001006389607 0.5365890382295666 0.8649714101966579 
Task1 0.08726557840926139 0.1767575204939297 0.14486916982368878 0.15278201174053185 0.44064501015739826 0.31997157543504345 0.36308005288376144 
Task2 0.06788432931872253 0.12746433694869952 0.05570446994192695 0.144467077096526 0.7556360417484482 0.3551740798631748 0.36981008907168444 
Task3 0.03360128156290888 0.21492410596463232 0.20168724887966744 0.281616153679331 0.8427987561146013 0.3387684163566999 0.4297452636946746 
Task4 0.002013472927526983 0.017286589389506096 0.004366252690217411 0.01736966888912426 0.6868029750107221 0.6360500985107944 0.9868807718734931 
Task5 0.013493865092305933 0.19222374993155678 0.22994106424730057 0.0436123780616998 0.5251387231803712 0.323597510003281 0.43403300366343156 
Task6 0.025473153714133008 0.03669562153827931 0.1314932125497149 0.1585622008017708 0.7284375830512306 0.3520293036814395 0.3091640182863557 
Task7 0.023402902576761926 0.07799212851843712 0.035294105668137316 0.008498488874717066 0.9814169408362583 0.6675650209259331 0.8995988547586493 
Task8 0.04784840960285392 0.05657046899599892 0.10306774741549253 0.12645371864099092 0.4406919731701483 0.5330992255299891 0.45009452700866037 
Task9 0.03772868294208763 0.28891274337904044 0.2678085753497143 0.09504109360310692 0.4075804756542014 0.9865476246199143 0.5164105538796763 
Task10 0.018907474679547523 0.04926759048774822 0.02481885843794702 0.02894842485991595 0.7016824341033546 0.5562443775237779 0.8485876472688623 
Task11 0.03952255078090306 0.2162037222014752 0.1131401157552508 0.15540415425707704 0.43601500500433477 0.3984278529219616 0.5218335353492082 
Task12 0.0038075995198232613 0.1375017366612117 0.07196750804669794 0.09589027740174261 0.8356387536823016 0.7395590213160834 0.7483378875201858 
Task13 0.02231641697788615 0.06039994608384641 0.365261705126996 0.1974203735884965 0.5321317485478362 0.4274983272614671 0.8068656307189022 
Task14 0.02233338279709505 0.20610044869455144 0.041408287669702865 0.04464039024783373 0.4843536409202749 0.3624666514569006 0.5895267126732364 
Task15 0.06626877557327916 0.1822473696646103 0.17984195553736262 0.0445381614393539 0.6039414187260428 0.5124145095722827 0.3569411532773506 
Task16 0.0063445344090710286 0.21836521793275093 0.23442517643711888 0.00031707278541519724 0.7426442628569163 0.3003342448322425 0.7696014236414657 
Task17 0.0604155143271941 0.05511541552587318 0.28353225707388224 0.0012888445509990755 0.7933410817632016 0.47337354088261835 0.9038450070078086 
Task18 0.025501960809713616 0.08329425350522765 0.10023978746690355 0.06298421022265396 0.5607374793927612 0.9037224098040302 0.4378065944107108 
Task19 0.02877292965273435 0.11957935563575743 0.383454922301319 0.08477668667451328 0.7464638525032381 0.6160628677504401 0.7446259196179963 
Task20 0.06410217602236545 0.18226785854966238 0.1769494661831924 0.48039294805478006 0.5783622852228442 0.3230221529427066 0.7016102493634994 
Task21 0.0021366453576872196 0.008996083939146431 0.011422040946736949 0.018211068350553923 0.39593469066877307 0.9479010360520328 0.8233682173807177 
Task22 0.000910885052236637 0.015606340964793824 0.04385582496245078 0.05069097648994245 0.9306507002454765 0.4640169352992087 0.46587841131236557 
Task23 0.04033722466164578 0.06760185114211752 0.046195185111145544 0.12581909766390992 0.33752608044637766 0.7116706071922925 0.4802910480690722 
Task24 0.060314944291539815 0.0019405664060061873 0.2834988157932578 0.2465417582834298 0.38735989029101736 0.8006980276455091 0.8849431761543205 
Task25 0.06987126484665532 0.21099721837648677 0.1276137946478419 0.40301208903804847 0.7463959319930455 0.7978964874552565 0.8635097592285408 
Task26 0.1486722029902478 0.2578132725666586 0.18805390579338904 0.23726099722127023 0.7404160955671091 0.6753262571116687 0.7017738129711846 
Task27 0.003593545271155803 0.032831697878544334 0.015808757514410278 0.037728742461331316 0.8087310838457851 0.464263459893866 0.4308278737720799 
Task28 0.13978100111236735 0.34148707270215556 0.1963462492210726 0.1128508790780765 0.5815604817256885 0.9701795198928655 0.7017051978079203 
Task29 0.12528355426183196 0.4815599939928791 0.16502472216174538 0.15851527791569012 0.5410390560060316 0.586688805250458 0.39341430987315645 
Task30 0.11526729629174642 0.25524766604352594 0.2862975037508051 0.2664291622363638 0.9326693683076912 0.8806015113650556 0.9455894400621394 
Task31 0.03978180635783354 0.04075312362550238 0.17403664209093828 0.5982726722958426 0.3984244037547501 0.7922261105089958 0.5459421595942158 
Task32 0.06597129324532369 0.6365355558828517 0.053641864444358915 0.06797474481140345 0.8281269178271657 0.6970175760371479 0.4822720762242352 
Task33 0.026724208776514716 0.4607021730431316 0.24104697913782958 0.03491040086624723 0.6368099194302368 0.887573806066773 0.9975049479621771 
Task34 0.0030807063956286716 0.018701510055598527 0.037972802707343226 0.0286089260756007 0.536078923402959 0.9548231910158371 0.3512492172091179 
Task35 0.04356270476018564 0.18037442305489784 0.17005691584009605 0.17006373777199993 0.5534358424017456 0.516675788676129 0.40962263725081616 
Task36 0.020354262670842085 0.027347869405674578 0.17725864647673983 0.01967376102640317 0.9427615439465471 0.7033138196966509 0.7614415936524128 
Task37 0.0002289847869176895 0.4542633695486277 0.27132574724304387 0.2502862054276973 0.8614350559329349 0.9978378299050747 0.8984842346151627 
Task38 0.13258147252550592 0.1241445666843437 0.2105364477662018 0.25340224975625647 0.7380589282840476 0.591947025053442 0.633934902106509 
Task39 0.05634406906391833 0.44358184692025626 0.11090333844151318 0.0883719830930061 0.44484502405179116 0.8048578918374387 0.542202057230679 
Task40 0.1193339641043313 0.1576769381518705 0.29027785452105137 0.17004196828149346 0.5600587712817222 0.40187265760679336 0.752159350468736 
Task41 0.029569721252384305 0.18775804816410377 0.18412455537565875 0.03958582764572162 0.38224749857664786 0.7564343506356939 0.7734265038512986 
Task42 0.015244190599731334 0.0380904358289524 0.047997414093471545 0.05743474577104491 0.37019358908786854 0.8411892876077927 0.9231004110272747 
Task43 0.09030251886069093 0.24065774123211994 0.013254700713270454 0.18871979552884915 0.6032828375551067 0.7415475805146627 0.7455680822806637 
Task44 0.04020658700107164 0.12295281973706945 0.06901585778305977 0.10574638264941971 0.6688365087340393 0.9990133498929679 0.7657671767896819 
Task45 0.0866406524695687 0.31829616883703804 0.04961845844712079 0.21259455845361386 0.7006061968658667 0.6168675649468611 0.560170983236655 
Task46 0.007784801003132072 0.08909588711794474 0.06160644492941 0.03647284993950217 0.42072729899734174 0.449891309794492 0.840593305962956 
Task47 0.018475120659959113 0.11669328579913252 0.04279403034295035 0.0006832039209105384 0.7984466488502195 0.4945967019867018 0.9895760752085652 
Task48 0.005355789214237182 0.026791181152832706 0.08021368531248076 0.11354183552067179 0.4101548286702364 0.3761263267090993 0.6734203392620071 
Task49 0.004283946102948947 0.08299620622610589 0.15410230985730455 0.2181483682420968 0.9115878492555014 0.8900365791926559 0.6478935115957143 
Task50 0.01773380062421267 0.033203207930357324 0.016166310503686672 0.02549064244297122 0.32759170493975115 0.498757986051855 0.8930014686132215 
Task51 0.16882347220565805 0.0559008209508191 0.5658908169845775 0.16125981628677802 0.8874526783526351 0.3954245106850464 0.9007152184429348 
Task52 0.015569983145542123 0.05121417270519949 0.20331105753553946 0.012962631041406499 0.6359440598193766 0.33591429590707667 0.4456401201465681 
Task53 0.04003602360033807 0.06803762981694636 0.052686992971032014 0.07311111378985859 0.9963980786963227 0.3571672207031854 0.6926303317697226 
Task54 0.10051613049244092 0.5048435055890441 0.02746985446200568 0.3053712755714201 0.6910689952904676 0.8410196280420077 0.7254822999223127 
Task55 0.14332948264271977 0.3087439949536318 0.2966106969949069 0.0021615131052137356 0.649920181668246 0.6451114894231422 0.8207812173145246 
Task56 0.07386258509754622 0.14531580743889894 0.1311968630595398 0.039988801351695906 0.8940364461882093 0.8936644073874833 0.3039641164022015 
Task57 0.05575779957698004 0.18409295804359574 0.2454941983277244 0.019232694702619683 0.6513999699884945 0.30501384652629837 0.47172445725185097 
Task58 0.03341893924963762 0.05274509037993834 0.06247957483837063 0.07609963665383286 0.7723905558991673 0.4153849733997823 0.8191298867822461 
Task59 0.053290543031848055 0.0533627711546929 0.11478357217070771 0.12471944075984112 0.9259547388793865 0.9806933788811214 0.5977184466253345 
Task60 0.045499474238918196 0.06440831335543841 0.15518412152221647 0.03255598096533397 0.905336417105578 0.8763818493697877 0.8300225560802881 
Task61 0.049602820865252376 0.23087540185955432 0.012637934102112308 0.12453978403764257 0.9930371221691832 0.3176995966452467 0.31326955119667116 
Task62 0.02401099511375245 0.03440284362226428 0.03471204793891475 0.08629742734061976 0.37491695189279767 0.5281911085286473 0.45640521504099746 
Task63 0.08045352754884744 0.05346378977240247 0.23783478910703426 0.08229363820689503 0.41482655995987083 0.71030577289087 0.8788870326643934 
Task64 0.023673378661612086 0.11503242237736369 0.22143917196286453 0.2911124131952282 0.4004488953561068 0.6037650850642864 0.9587975569561682 
Task65 0.054490447480677905 0.026345446225431692 0.17085494039818908 0.16948249918974342 0.7908016666629382 0.5565527759257625 0.7967023193248854 
Task66 0.02602505407837419 0.014681360540231054 0.03423550237595344 0.433120854931413 0.3291706466587097 0.9615222157212933 0.3377744160916997 
Task67 0.03409791152755438 0.05018364857835164 0.07467244383096118 0.07110306994841495 0.645813794671817 0.5576934955047995 0.32618266647511357 
Task68 0.028084827771354404 0.22886009651629324 0.42970848013366897 0.10126909172785213 0.617739928904635 0.5514075955374312 0.37789619926515133 
Task69 0.003390486962803439 0.2779533879138962 0.22483804762281479 0.08592804971784859 0.8898868334283194 0.7453820082280935 0.6309357791247354 
Task70 0.03757067802147031 0.15389484706444007 0.09893141482938952 0.10256320592218164 0.5090886938957682 0.6772455350717826 0.3030984570597399 
Task71 0.04522391199828038 0.074910900434074 0.07869585785439641 0.07176446479556237 0.41347729764575286 0.663243840759461 0.9435778431020458 
Task72 0.0181077952750659 0.05658195970930874 0.05533674398734255 0.188089101315063 0.9739258915867459 0.7826093251089095 0.5712577355233912 
Task73 0.0009639339589844222 0.32158449268793216 0.07407247714860027 0.5470158474884942 0.46955819715108665 0.8902772635882832 0.7617571667612646 
Task74 0.10524082294022379 0.10837076260997651 0.46062599326430154 0.19264798783100698 0.7180884546242299 0.8423285503436808 0.9810631165612849 
Task75 0.007490669170372891 0.036581331156270915 0.06659130383096121 0.04196537567188356 0.4352249914581904 0.5327374994129614 0.7052770420328217 
Task76 0.06821233387715762 0.12770789130297688 0.6106459768356316 0.013138361269261968 0.3462634085701932 0.7498247097152597 0.34806372878967695 
Task77 0.12698243417036267 0.34939214193416573 0.17914873508261528 0.03252567787101549 0.6855963159446136 0.6095347263968725 0.6537977889559027 
Task78 0.003239469608797042 0.013479471306917037 0.0271169645040825 0.025036706882495565 0.3462368201661963 0.30378050136448276 0.3052908170142805 
Task79 0.009717956363685023 0.0325082946554983 0.0003435373645472122 0.02114779875601565 0.6535066213316223 0.7681119968812216 0.4084472515487531 
Task80 0.020702865221434285 0.16199564822622498 0.0342369417162881 0.19552440068431737 0.7974078719785269 0.9292920689465092 0.7199877549576827 
Task81 0.04887236545149272 0.13039204758782835 0.24893683594599245 0.1926364152638789 0.4645570274544971 0.3078228669521866 0.9724211679959422 
Task82 0.046295306114885346 0.1445175213451155 0.036995204108793076 0.17033243023780972 0.3064525069883837 0.540116419932726 0.6478392967545094 
Task83 0.01068734106939931 0.0664161961860223 0.31693767586166505 0.009913734584864707 0.9599307267619135 0.3249640590226609 0.3428546684712899 
Task84 0.0007095285543904777 0.017020280467896026 0.008720599267114063 0.012540278121291801 0.810125912075188 0.8712628633930788 0.8995725642550776 
Task85 0.02972501702004619 0.09459406639188962 0.07876011292536321 0.11337556758715071 0.3038761999891891 0.8474775174790854 0.445255294060126 
Task86 0.008008440628912185 0.08654781172594722 0.05231871307726083 0.09511221026798608 0.9239211331704666 0.653160869554831 0.4515340467748758 
Task87 0.014797816053227148 0.5244474923743562 0.05716855522765058 0.33406081821678646 0.7723428485297201 0.8983836313785567 0.9999230626835032 
Task88 0.10448706176503549 0.2822556263589258 0.25409726375517644 0.16292597104718298 0.6378636027429893 0.601431684116277 0.9850342600295314 
Task89 0.09043288984741568 0.3212885201671198 0.2465055658456649 0.09034695326921507 0.43386399070706827 0.47953737711669026 0.9931973622138717 
Task90 0.06999115750025571 0.1855733084670953 0.13909455538064097 0.05070892386673678 0.6396068768861589 0.3100337566495904 0.714596132252617 
Task91 0.014827478221113854 0.06128138772273788 0.013575183792685065 0.07327507106172888 0.595588574681162 0.6652100081626977 0.9388726970843109 
Task92 0.1505083193930249 0.32673315106453993 0.21998791356317643 0.14909387826402543 0.6671806005352761 0.4764920005619092 0.7639626752517822 
Task93 0.00785288269226077 0.2554409230435827 0.04953795508898745 0.2044392960925028 0.35336778384742745 0.9108556736652613 0.9743721144200361 
Task94 0.017976082987007775 0.0834695286500766 0.06283909444450071 0.11568521791282203 0.8839164208686441 0.8337172292173276 0.9757364129635633 
Task95 0.027610207515534144 0.002676198426436608 0.10703671011366668 0.007961426952533067 0.5222417736751318 0.7133950112142101 0.45775502439319415 
Task96 0.03671002906347895 0.028494787479915195 0.3187700115201073 0.2792193743123371 0.6507958770240061 0.48667360784428 0.6312835944291217 
Task97 0.022511693443150647 0.09488070310327015 0.0795565997208016 0.07669877248530045 0.829308656681149 0.501822948641494 0.33032079279791215 
Task98 0.048722366915335186 0.0009871112424414009 0.11461878184193514 0.17378898298627418 0.6940333211331402 0.6355698573841452 0.7557160391394238 
Task99 0.009694215091510392 0.31189030620277597 0.026913245260393147 0.3278056964177049 0.8253395472659226 0.45673397372246977 0.367413230014467 
