Task0 0.03251776489811156 0.05676613875773953 0.3335054548741485 0.09931485194991152 0.6289688000820477 0.30888952542749804 0.9270201289058086 
Task1 0.027155778048185815 0.0004992944313535817 0.08812763401938095 0.18040927632119516 0.7680850200558582 0.9378505432495168 0.6465014617452103 
Task2 0.13649338877877806 0.3001597688703193 0.11406606696452624 0.24149001676998802 0.6286170495155183 0.8623035138246078 0.9893490008504435 
Task3 0.01078406934177517 0.04565537540761219 0.05040731079220912 0.006115458555075591 0.5618278404433699 0.4979049228971556 0.4431445862675756 
Task4 0.0049118537714008086 0.022996702932078967 0.06021737881391369 0.017139673704532055 0.3750546308483867 0.43265573497680543 0.9732997576608489 
Task5 0.028014398424995514 0.08307261562461563 0.06649979202529302 0.09881719644654033 0.932769230508246 0.5086911255990101 0.7454276521473694 
Task6 0.008699811997905118 0.04302215684051446 0.0005512764897350255 0.042289700358982475 0.4882879981892011 0.7629933574371202 0.7258409163143429 
Task7 0.010808312703562455 0.02437562671541275 0.023174904296791022 0.015999924823679873 0.3378311126309884 0.35067192962763044 0.40131386358724386 
Task8 0.006893155555958277 0.1011918802195394 0.701272754906242 0.1745795205403572 0.6451926204494616 0.5971684911050927 0.6301565561280524 
Task9 0.06268913976634201 0.039283867723740415 0.0936888031177111 0.20990025240332147 0.3967726184299447 0.46490134120080734 0.7233668510033955 
Task10 0.1495099907903833 0.19614958352371525 0.28888135487438 0.22060916818478032 0.7137740294064461 0.818977245514616 0.774241272298632 
Task11 0.01081081185954879 0.25660096213464756 0.10132352380652165 0.040736899517749635 0.5308731916595443 0.7204300320862134 0.5122890115651257 
Task12 0.012191705480102608 0.06826328044194949 0.12079141275331647 0.049059431741180194 0.5847117229926463 0.38154996677239483 0.7995408237567809 
Task13 0.09496951079719368 0.18669624326125153 0.18062169591060936 0.20434693363048684 0.6203000846363511 0.9309927151631234 0.8491782779910093 
Task14 0.04656138212001842 0.3163306734949394 0.2722788732972176 0.32895287556664327 0.7809442289473788 0.957716845858888 0.6763969597061766 
Task15 0.041157902704411595 0.1342332381082856 0.01686610455762524 0.08475422213243465 0.7947909562743152 0.38592162284806575 0.6760614927651634 
Task16 0.06758439394065938 0.004785712030261074 0.22138726383108154 0.059621203660555865 0.7222902454087168 0.42191935017280335 0.7121523821162414 
Task17 0.008589096472697238 0.012792581188904183 0.03839781445880157 0.05872097341804198 0.4646263174753481 0.5076286134482207 0.8438485669531433 
Task18 0.0631616182301661 0.0289076230089322 0.22154374384635692 0.035397465878884295 0.38675936806538247 0.8003453019761064 0.8941271642249877 
Task19 0.01795954457072723 0.2124443758567197 0.2655253328519126 0.0026941406282023034 0.9246732821112931 0.3859524173749933 0.7119883098408173 
Task20 0.1116487190335896 0.18762897306087606 0.5875852004229871 0.06682205736053544 0.8399607520437575 0.44075383791853806 0.44441228913566266 
Task21 0.03470346712455962 0.25873874677775177 0.034764174820216785 0.1617335684801392 0.9979919688629391 0.8753835457989898 0.3629939977537271 
Task22 0.005584223376974392 0.04554676977994468 0.21138053911458937 0.03289140666682782 0.4780222529743426 0.762574271486371 0.5126981187182564 
Task23 0.023719204816632818 0.24971479160016222 0.11393725570382711 0.5280252489364006 0.36010971006453535 0.8748773671483423 0.7653324241377086 
Task24 0.09421634731459029 0.10302524654095918 0.28512212124100533 0.0885081502989479 0.31595444638765074 0.9556377719099256 0.7416267471436768 
Task25 0.0010579263003304706 0.09697737530202902 0.006310982334317102 0.02558532752270479 0.427683387691069 0.48912882682696307 0.4136231718089578 
Task26 0.02003364362766888 0.05185877429170408 0.04832557215280758 0.001325392220892623 0.3949731323800629 0.9449050010066891 0.8893837201754511 
Task27 0.13231550017433624 0.32951084266699326 0.40478757368337953 0.10790991313761895 0.7516182473798091 0.7240630764978199 0.8892365816525716 
Task28 0.019091918559830105 0.42477895816571926 0.13489354554039398 0.2147854907667365 0.6438907754158574 0.9122832267203234 0.39484145754905836 
Task29 0.01980134944559505 0.05259119327536526 0.04408918380776544 0.08878383314074384 0.7234121684822148 0.3681965659112259 0.6396694398020105 
Task30 0.01920214927512618 0.14440242806675269 0.32616964304680546 0.246367317075818 0.5843621613299905 0.5673661737627759 0.7402047309006693 
Task31 0.05914098180735735 0.4051271949418317 0.2841244039670821 0.17987979643505297 0.6585977452696603 0.6361923095581827 0.5291975683631133 
Task32 0.0006133380018501748 0.20187958850327806 0.019196346268648738 0.27981622584042853 0.5639222354099799 0.7330926240755902 0.9624365281208986 
Task33 0.05967769058957995 0.15520160075869735 0.11638412854717615 0.2644380642073054 0.6986779943222419 0.6481493208921909 0.5482416730717556 
Task34 0.05808838184854376 0.18586822254637908 0.3519627616236754 0.03576114938136459 0.5399594307297773 0.36021715131320775 0.3734040410127031 
Task35 0.012544291780945044 0.6266420727900683 0.15922880583000112 0.1907571465941005 0.7411965579617947 0.46762540049577184 0.6075400340304187 
Task36 0.0607385824085239 0.49778652899296894 0.11777434606417325 0.003076223040473273 0.986566020321413 0.7032576839231364 0.5908225744556383 
Task37 0.001484834959820124 0.12694971395503543 0.013294463873404537 0.1326315635752238 0.8550462323792336 0.5788298156230186 0.3006366334449295 
Task38 0.0029171572746771626 0.01826420810957784 0.3051871100438013 0.27577071457225394 0.6134570992039452 0.44029157705889943 0.6939179475437293 
Task39 0.000549493424112058 0.005487086904470765 0.01788342811008799 0.013613752553779503 0.37456278217532535 0.4970226683036838 0.7568706602376422 
Task40 0.014916334788570532 0.25257796735731547 0.024448870111603266 0.023227025247589687 0.35134026632879806 0.5995757324611879 0.31143953775910815 
Task41 0.052668594183058415 0.16870926197574876 0.17866807566743675 0.09624003267860179 0.5920470475278024 0.716686150387936 0.393879954116939 
Task42 0.09563198086368258 0.03596885840282048 0.06593116185305292 0.6037321998318261 0.7207813024793306 0.9666360915009826 0.6032591214000587 
Task43 0.13043500361272825 0.16687756126898173 0.4158706687614124 0.2603349946963356 0.6472173858174832 0.37156382138044386 0.8687479655806338 
Task44 0.03450109955124247 0.028796196478706643 0.19673834641229687 0.1750969611282488 0.7728204492042686 0.6551665180049641 0.3960787834012773 
Task45 0.12926303574206024 0.1804082834089797 0.3758931632829187 0.10049765646295404 0.813064498213683 0.6477062774683883 0.49699223518231517 
Task46 0.10028125534828844 0.1337307645615302 0.2052792215260697 0.2716548795829388 0.4402833790547175 0.5062923710242292 0.6330589404520331 
Task47 0.014570319208073963 0.3304930243833905 0.20913109987133982 0.1424565659024964 0.9567494010225299 0.32535838930931654 0.796869409326473 
Task48 0.00237168455974753 0.0033160569984885895 0.006505098178390627 0.0021103159980435902 0.8298422330271029 0.8741271518264573 0.43212197354147364 
Task49 0.042248248434511526 0.41946700117927127 0.03747831081385922 0.3272573315206695 0.4384721341826303 0.45614500975750005 0.7550854539960594 
Task50 0.015746319888343796 0.03578938346259316 0.07465047077803426 0.06955851304594111 0.49075886875963587 0.9352030139464345 0.9303563982267096 
Task51 0.0075354160773048245 0.10975290448222401 0.16005942078079166 0.14929622138926046 0.7346092463380757 0.42434167848157606 0.7668166970516914 
Task52 0.08611285668256884 0.11806737021114613 0.13802215891549677 0.16274362395027175 0.888739597780674 0.3761773878432547 0.4848841759497494 
Task53 0.13428933871124152 0.25979233608302726 0.018195416021981273 0.35253596379014335 0.40144511575066977 0.5897128668421252 0.44878532609601507 
Task54 0.007738564479038992 0.012817644653543068 0.019782140084040167 0.013067183298910805 0.6190446310001207 0.8737863977140918 0.48339636683658427 
Task55 0.05099861930089802 0.1997726756831971 0.5612393707663509 0.031906291570234446 0.4796057666437724 0.5334185126036853 0.8568601766292674 
Task56 0.11086307431051513 0.1787211725837488 0.39249867273246564 0.14139121030900065 0.8969539405591826 0.6477352673233763 0.6709483482104113 
Task57 0.13854986098712743 0.14869144334057088 0.3219787950469847 0.38893625027528533 0.6966058979369221 0.47280474983463994 0.4221286342825028 
Task58 0.11488870900520701 0.1065840688114971 0.5840717834990404 0.163753117812678 0.3427675414911725 0.7823761226615179 0.8793692722169593 
Task59 0.008553806694190305 0.16197661607745711 0.1757622463690945 0.25493198855349014 0.7216773843775763 0.5930208321475174 0.5788489416658542 
Task60 0.018545826694794106 0.2302076689151459 0.1319876983203436 0.03282232293853686 0.8554832304347155 0.9875187742438671 0.39903248964544263 
Task61 0.15426664451448086 0.4669920699728393 0.28638195013652995 0.04124341168965078 0.9288533313774399 0.6629290878864003 0.8183142577386395 
Task62 0.0017212736465098423 0.006223825268331058 0.008768807379414266 0.010009943161134691 0.6957492849619897 0.9410699998229388 0.9079560468684802 
Task63 0.11568506184620195 0.20073525596073577 0.0943803052907846 0.19615507428151627 0.7272772540260661 0.7118075476522593 0.9500853420264086 
Task64 0.07205519039400421 0.15643086992448418 0.02098637870519216 0.14448226128908623 0.6365781918510869 0.31997286650706047 0.70450032005294 
Task65 0.01699039856584081 0.11988067506550665 0.18599627958483433 0.084277861687072 0.338344340165594 0.36338786208749785 0.5188534695212558 
Task66 0.12175472629299404 0.18912268497720253 0.40499598813236765 0.1923536247930517 0.9338336362227262 0.5284235141673788 0.59751314035237 
Task67 0.14501927633939027 0.3430659916529976 0.12983653052002767 0.3068097804841692 0.7854759036940184 0.9138392151573129 0.4914734861485343 
Task68 0.01703377958203391 0.21217034880260394 0.05885571679084404 0.1859282816361707 0.9372645501548569 0.8860681731704079 0.45490823091490123 
Task69 0.08865227526227445 0.15201415317149072 0.017297289194468667 0.3128273220892585 0.523112110242441 0.5246066101913709 0.842463844143615 
Task70 0.06137498943183841 0.06251911881404247 0.14938853477533498 0.10501359725801222 0.879955266772672 0.8821049973574238 0.8620597988933669 
Task71 0.05845799649407358 0.2017778823367367 0.1322791627824373 0.10570679959357915 0.5347097617931825 0.731392148141507 0.47956589304922104 
Task72 0.13500189723996056 0.14417777290019917 0.26973154946200273 0.21957077792951618 0.9036494363050185 0.559666246026825 0.6823704994631201 
Task73 0.04753384696837024 0.2537750505998501 0.2690062893181798 0.05934286076967074 0.4398357112098844 0.8257374336190577 0.6551422430378968 
Task74 0.11224415429938536 0.16594948146658664 0.2940954572184547 0.33962658948630875 0.6837144881763508 0.9794430560680842 0.9319666892107328 
Task75 0.019153771497899822 0.0625936667086583 0.07190709778415894 0.21233982810729488 0.37574036283894235 0.6189717796455089 0.33646767845738346 
Task76 0.1060593927724218 0.07258095134403653 0.14789220016858884 0.30342900661749767 0.9959486091281518 0.3389383685078891 0.6777533834188718 
Task77 0.008382683332138641 0.05716357790822711 0.6970981436884275 0.17535082182930278 0.30172628536147167 0.8965155302820853 0.3279910573227851 
Task78 0.004062507580724897 0.02912372155730215 0.03852814036901237 0.027265964222068454 0.3651874909672858 0.6795702481859995 0.49756259683153925 
Task79 0.13799337740992354 0.2612638391033546 0.13388483173473342 0.4008774260718347 0.7499207938989203 0.7109404711966351 0.42522624097163264 
Task80 0.040544898824532445 0.25928741625318263 0.18557628462619924 0.07271018204777727 0.5430870247398418 0.3998533420960669 0.9391369423681593 
Task81 0.0699809509540033 0.2110162133496057 0.24870010411556068 0.2465189325040281 0.3092832919842887 0.37158220971325856 0.9307219409539698 
Task82 0.06781433375235499 0.1841699051445536 0.16466666093713905 0.15746527672887214 0.7370082447885021 0.8288663055136618 0.6178002498481059 
Task83 0.015354719114791738 0.227229992632082 0.22508118977877448 0.23374385294834124 0.527784514937345 0.6528857778662838 0.8748812029253188 
Task84 0.024772151268962067 0.0552201982119423 0.038681032143917056 0.04479990503905275 0.7968219740138951 0.7808177417582074 0.34302101860678247 
Task85 0.06713716134355407 0.03138531141009821 0.06432150531916007 0.41919686285062857 0.7752594518885914 0.6631981755464242 0.6022960564640419 
Task86 0.11600076952781314 0.08969742415580041 0.1718469466804619 0.5398532709363146 0.914916445055233 0.8906281772086115 0.66629129699884 
Task87 0.002612561244996677 0.0014274176128695644 0.006638341294381913 0.003269980404714902 0.5727944545005008 0.9651841410459434 0.3393802714659141 
Task88 0.000620268297155362 0.007283369810611643 0.0010858877146201287 0.006841773983146526 0.8439530415624463 0.33258997058417544 0.5303338353686688 
Task89 0.08433395280195156 0.28079643706060936 0.1912431320407171 0.0321082355718906 0.38756586719208846 0.9618381622563326 0.6057184267632798 
Task90 0.0045815149982612975 0.005864411106790768 0.0520680201689124 0.029662288699620256 0.7369046911116439 0.38532037164309896 0.7316517430863645 
Task91 0.005279551246542721 0.03306353558657118 0.00024806995862018905 0.013522300053010142 0.8075010441710115 0.46155859255022225 0.8093781326181668 
Task92 0.08007380395957445 0.06538007691219108 0.12485436746175144 0.14831117814802122 0.3144141668934671 0.4324544204304883 0.32034941701822556 
Task93 0.11529908246685955 0.06822181977575266 0.4235939152734119 0.19808686168486817 0.6987948061145521 0.35031895408289765 0.4807987837545208 
Task94 0.08810616184935194 0.26117936373618467 0.26026182834398687 0.25612553599700005 0.9442818894301648 0.4373071349342306 0.34745281288098256 
Task95 0.01680787364933794 0.031200333012551602 0.0021479549443039554 0.03935689693201229 0.9174261125297347 0.42604703348833384 0.4010179641507227 
Task96 0.08890735413323322 0.2519809808088294 0.24824900352292237 0.13245382994851718 0.6273745913012609 0.46177507901004783 0.5079342010264059 
Task97 0.062232429582186784 0.16878903232333414 0.06083460545717034 0.15105129335244485 0.6431864964059602 0.8693078575320625 0.5088237524128489 
Task98 0.022262186104282787 0.15801033669566178 0.2987938394989439 0.24435745525425137 0.6282407482525455 0.8655646250742659 0.40486431218755947 
Task99 0.018164336314689594 0.06706952419900745 0.012648790337636669 0.04468206291864123 0.5228485238426451 0.8283489092175023 0.5107931768787339 
