Task0 0.09874245960409682 0.26428366085306193 0.13430942193232545 0.25705324922999384 0.6351101260454317 0.9568481175225934 0.9686367515175103 
Task1 0.058650440627267514 0.0737175973089756 0.6368445907309676 0.22857655346908773 0.5120146835763084 0.5905620149950479 0.8501549649037512 
Task2 0.028114087628482165 0.042240589632388074 0.005141894663569441 0.09271782506919726 0.9954447317432913 0.9653209950732027 0.5146323231244897 
Task3 0.02957143926499104 0.05631724463636114 0.13514146443951078 0.07792612312566177 0.7550582305855628 0.3079442011625204 0.7893784602777196 
Task4 0.058870177682703896 0.14119952022373236 0.1687093505465295 0.20221621731279565 0.9793168121520985 0.41891825072557975 0.6174838590252417 
Task5 0.1071377771904721 0.11269325406580075 0.18414722540600773 0.19544926707517804 0.4170201697914163 0.7023693993393838 0.32120217678982443 
Task6 0.005959906987971049 0.15266293060197814 0.06454256734880477 0.11170065249190801 0.9152963690190572 0.8462258589471314 0.6287523039356464 
Task7 0.11076240309938107 0.133099579373341 0.15932139302544915 0.4184571205798602 0.7077651201288481 0.8462048358698679 0.8586990166575554 
Task8 0.0039213699994512345 0.034467962909706044 0.2541118114864224 0.10552521150797073 0.39167214038161713 0.4736187119907186 0.5969801263316976 
Task9 0.0017932224484804137 0.02136463665921628 0.0021524971565724943 0.008657510294738333 0.36941997814689875 0.6081425154920095 0.45936791154293105 
Task10 0.11573359821922179 0.04715718423716867 0.08318974167977242 0.3885182528857647 0.6398694703156798 0.8642439520902556 0.9935982031387893 
Task11 0.02128679237975915 0.06946281683655782 0.0057102743845667886 0.07750025116667623 0.5496071792261953 0.785209087944374 0.7989653619812759 
Task12 0.19260105185844706 0.3808661956784646 0.050979495786500004 0.36948445336213187 0.3997523151628999 0.5954539930409093 0.6696012630902062 
Task13 0.005200638814493538 0.17969783645934245 0.35456912492658466 0.2559403774808774 0.852058550275445 0.4909685733359137 0.5488618572038162 
Task14 0.00010698102300263049 0.0004011634371838925 0.0053088087837120275 0.010883385429753731 0.3594489616322404 0.4888164443798792 0.44204876671409504 
Task15 0.05458453487330386 0.2599811473096815 0.325827367753301 0.09364058690031689 0.3893187321988368 0.4833893003799652 0.4386453838799178 
Task16 0.022832357304894836 0.04590577412808771 0.11944274924587871 0.04312910965419552 0.7058004543996864 0.9685676628134292 0.3517652268184652 
Task17 0.06901531533072745 0.24700435805054458 0.14819257530559063 0.1563610020446694 0.8787318474985195 0.4234568779905421 0.799531703373616 
Task18 0.021981128249759542 0.008467974415773696 0.05184171116678938 0.0278210189639968 0.7660239373135767 0.8755461696394604 0.90919154323528 
Task19 0.10603924374038481 0.1260676685706011 0.2735299611866532 0.2973141910337192 0.5946228669006492 0.6397336124529216 0.4853708814417845 
Task20 0.12779855681874008 0.2752232968624509 0.09769657721168061 0.3430470740764293 0.5284563134646523 0.9301480659525709 0.3893982874481777 
Task21 0.048794036308249064 0.09899752750026125 0.034919566544141245 0.24622833334367009 0.9420714051841286 0.36727621894611195 0.587255962351845 
Task22 0.09205545578790256 0.4342191555033395 0.16655020596682915 0.06801535124540323 0.3349719997240699 0.44710018254086914 0.43487952336564023 
Task23 0.04663475785832891 0.23646447762515269 0.011915744721409289 0.13286559675112952 0.45313873290510354 0.8190341305866728 0.4236195872165741 
Task24 0.04830798346700829 0.0797393836426531 0.17697346424746724 0.16448223746680768 0.9821863360834528 0.6817525225924304 0.7435586213556721 
Task25 0.041141267520481396 0.07373215801968223 0.06420582453655897 0.05806030792383998 0.8907479902876039 0.8947278400431036 0.6562021322686693 
Task26 0.049773460023340356 0.2872831688780396 0.036607519647779196 0.17395613098725193 0.7224776900228234 0.3843543248110103 0.45777267834676433 
Task27 0.02749871289995506 0.3271695222993345 0.13849278517418734 0.13799445002334776 0.5608517698851604 0.7685800924111953 0.3795331163214244 
Task28 0.028287225945219017 0.07403082150164146 0.060005628899110756 0.10574326980230773 0.8893748740453424 0.6395753123668528 0.9545582388223863 
Task29 0.0003412610096454819 0.0019389189544933385 0.0021472899343090916 0.000582413695866845 0.3824313975210195 0.9698501131160855 0.7255291873681335 
Task30 0.04732255838397287 0.2997047204769338 0.24218950897245775 0.1234916541599426 0.9123481917138203 0.9073620477284403 0.773474045692596 
Task31 0.06410689848853428 0.1363232940405963 0.11876546702110152 0.10940880688773802 0.448305842662586 0.4282341563141443 0.5699588137028828 
Task32 0.006557136421294242 0.13042190097887993 0.1499033696426137 0.18542945819093637 0.47437663192775326 0.7465751713187969 0.4738882465696592 
Task33 0.11911414246265054 0.2648428000257028 0.12427533409631755 0.2332030147821991 0.37314767335347526 0.9030174682965924 0.6085542551257321 
Task34 0.00029365310133882687 0.00028678493430311344 0.0008417338198021612 0.0004534633252722157 0.44141971891000975 0.703317380144227 0.7908914095486443 
Task35 0.07176791794697862 0.32543649038150696 0.0745414292693523 0.3604818846906076 0.48514766400933407 0.6026195518965418 0.8505151546071417 
Task36 0.04487414501688061 0.21474142160424559 0.01210372859828199 0.161868187883749 0.7272498690510631 0.8633658410344469 0.42730346341438047 
Task37 0.08555532278555548 0.24505726383037355 0.08889215365294365 0.1144876603470662 0.5774161569053395 0.5729326679853345 0.9730739251587461 
Task38 0.11034327110530145 0.23393879141114646 0.3194875737350713 0.2723841736219061 0.3675817116041177 0.40363849076919467 0.4984849860045898 
Task39 0.014406684173388142 0.052899930986150846 0.190848212758336 0.018293779993318646 0.7424062810390047 0.6164600186508677 0.6268944784062136 
Task40 0.00010499558806729197 0.25344954791269714 0.026518842296377947 0.25475663911360824 0.8389435639027207 0.5258856063703179 0.6752061277041728 
Task41 0.07720966939918299 0.07831009148925344 0.12436559571203282 0.1095477937720099 0.6235360001981325 0.9897125270937057 0.616285397915731 
Task42 0.03206678040984811 0.2669281225569398 0.1292505866724925 0.058575788533962725 0.9907586025810442 0.9825268749954217 0.44143980660196014 
Task43 0.010942946268968851 0.04499636402325577 0.017993120718245458 0.04276804131194344 0.8516010197279582 0.8340489414158097 0.6045767867906742 
Task44 0.016182952185734557 0.24240159954870447 0.09297893288596602 0.016300729942717907 0.7354087122651554 0.3655501864373949 0.41310349235785526 
Task45 0.027931894639358596 0.10548963559162126 0.24221742255594186 0.1415424543105627 0.6819915535666716 0.9901249769608265 0.6893192653780809 
Task46 0.034421738548382166 0.043684552824191765 0.08613081893319131 0.08397924755997102 0.7183568053035017 0.8266757223542527 0.8067017605808535 
Task47 0.03850654218891418 0.09742550869689538 0.15690601525737374 0.05191729252677292 0.33561075006605373 0.37124906045485784 0.8115803703239051 
Task48 0.010529740394678322 0.03995854840799094 0.008829780060285241 0.04789197813128868 0.4316933872640819 0.7292694678000843 0.7516646931467617 
Task49 0.11100632457898232 0.25008057244330884 0.037947357020164385 0.286094573021014 0.9317479866857898 0.5329747081742805 0.6756968798895994 
Task50 0.008994345373694137 0.030015926237583073 0.02751316095150413 0.03699686145892037 0.8044329502076946 0.47936566309219597 0.3314177685420098 
Task51 0.10791501647415465 0.12279876709732522 0.07272875366865317 0.5587526648062006 0.8929334750060045 0.6153283631838362 0.6680642767521197 
Task52 0.08926623751396581 0.1255148798974829 0.11960382959316547 0.12422685332444941 0.7451775149300033 0.555414594716481 0.5014738087991104 
Task53 0.024267833808795214 0.1966570408102159 0.30092427222797563 0.15627807782854394 0.9705572884629143 0.8731469844179527 0.5297257439359069 
Task54 0.04089589364657504 0.036066597175312756 0.1330017955170158 0.06712116504832151 0.5489429829043648 0.4131395961959359 0.6395307889767364 
Task55 0.05213872518715259 0.1280440396277299 0.031791271471259964 0.2516674616382352 0.721320613302299 0.8180963121380846 0.6128567647957973 
Task56 0.01136516003924516 0.022300592566736912 0.037145189377412825 0.023309118305809177 0.7235090169747894 0.5548868482597694 0.6619923704423275 
Task57 0.04319866908901683 0.08570317474093904 0.08024546449921408 0.10842216646757274 0.4793793360094088 0.7327075049129932 0.6649357836878175 
Task58 0.021756040036015445 0.04976827008288419 0.046028345930406396 0.07719973826268008 0.6748344560909838 0.39799851555213867 0.6202180479829704 
Task59 0.052533741517832716 0.029611724589911573 0.5257814342035902 0.060434587565652946 0.9040478767663584 0.39602487781562956 0.6495850975913282 
Task60 0.07779089513694332 0.17698624597331997 0.11699686002095847 0.12330583685743456 0.49453729539381935 0.37436642040050183 0.8780345520297443 
Task61 0.002576894256214365 0.003169668360548871 0.007772276813451898 0.008695099937406262 0.4550250074910074 0.8177634920456189 0.7270894193861857 
Task62 0.11470516943618969 0.2902788726123694 0.12228816505994869 0.38471602487879375 0.7590629171320289 0.32481353702284055 0.805409084187815 
Task63 0.08892011270651591 0.2267457768734113 0.0578222313413036 0.11484910090229292 0.7929069824489674 0.6189032946967459 0.5869221953464837 
Task64 0.01971711335984049 0.2528921252809666 0.055365049959062544 0.11823036297135153 0.43940008740257264 0.8701502759048931 0.41925684566100807 
Task65 0.05153007502531271 0.017895002795426867 0.11302816562000037 0.12386099903793549 0.952476343307503 0.36000833707288427 0.8641118399062089 
Task66 0.03536246953311493 0.24925800000345605 0.2674081938464247 0.05261250271632311 0.8717913027926545 0.49745424650473474 0.4426538083826888 
Task67 0.07595024519944155 0.2404177024660556 0.014834760189502269 0.1463473248765625 0.8019337059738203 0.7566455858319325 0.7340544715411093 
Task68 0.06120402954351056 0.45234061344398774 0.05990889745926809 0.3296822504259769 0.6794946733191773 0.8946737126515538 0.9665914786597491 
Task69 0.06835889532360385 0.23982993451552162 0.24690395038689164 0.3316218422132724 0.750661208118015 0.6409597466079668 0.6041248896213898 
Task70 0.09888467814574728 0.12745229710087383 0.24775928148834123 0.15412137789990707 0.5184940208657352 0.8438467062762878 0.7721749189240963 
Task71 0.006150719496383867 0.2552351675320676 0.23208418378486292 0.005397912458533194 0.8087525807145646 0.6116609195335005 0.5267832764428007 
Task72 0.024330923085114278 0.45750323245559266 0.01919325148106997 0.37327579278468015 0.5923065841268176 0.47761370104861983 0.9660879147655042 
Task73 0.08137595469802493 0.2597303545819722 0.3016615264293434 0.06351474387816186 0.8020946928957811 0.720322910903386 0.7143044395342201 
Task74 0.0020522248530959134 0.03453910379469613 0.05875675345220997 0.03423770888920184 0.4682904356837216 0.9581724770467506 0.5834486446103471 
Task75 0.02422908595847647 0.2209748810333123 0.09223424382748763 0.012356002220422794 0.6697925133747702 0.8183392356535781 0.59714379985607 
Task76 0.03876945632720046 0.08776505710304965 0.0498476667642587 0.14745704483191813 0.4528681137874543 0.3922244766002978 0.3551569206759153 
Task77 0.0371077992251011 0.10885596977021757 0.10867586501529351 0.031822920850136056 0.6224827273495833 0.3046142347579808 0.40113447307934913 
Task78 0.0021595340980845664 0.03524164470281524 0.044829287469916976 0.2255885568378578 0.5930193048968111 0.5008494878370476 0.5475504605334564 
Task79 0.08660553410091265 0.019046627943720102 0.1662391727731312 0.4674106072912967 0.5739313838924143 0.7032964962309001 0.90451195695384 
Task80 0.1103711818819348 0.07386110900551413 0.30405153418926434 0.25233454401617755 0.9472578545258243 0.5702933517761943 0.5054819913737707 
Task81 0.0035543268416951806 0.007497354499645564 0.03447729027626623 0.22091631444021118 0.43799829747148344 0.476425958589305 0.3090833720347789 
Task82 0.0011074155018423882 0.26137483455618166 0.0058953091239883045 0.24454045769339613 0.51279049645845 0.4558482695919205 0.4029009380766665 
Task83 0.040396159709170466 0.09959260078875348 0.017235575447098923 0.05029571801652015 0.823898172184305 0.8983234287652331 0.8951058950617923 
Task84 0.016889498721252904 0.11964147019054444 0.10603710104570904 0.038619231760191726 0.8553962421263419 0.9550487941333003 0.447666917587179 
Task85 0.0007427374569918822 0.10322059469467469 0.12252986445172445 0.19915353348033576 0.49005509117674584 0.8313298808649099 0.7911952965391762 
Task86 0.04304035048408525 0.23779819986964454 0.11032261513241426 0.1853793715891736 0.8280591413004192 0.3220819331958947 0.5897023548114695 
Task87 0.005897565339373461 0.008987921500170026 0.01450277254135721 0.005054477997343297 0.8030014561723751 0.47167694644758096 0.9226138793104832 
Task88 0.08147886077098869 0.24989352091492478 0.055171863486497344 0.17618808992550747 0.7825504175008354 0.3375263386557107 0.9096000547568457 
Task89 0.07901414099568768 0.460097836184782 0.02632031315029102 0.16362674683899003 0.5026286777610297 0.8250542139806718 0.6012447734064846 
Task90 0.10791678414044195 0.1464604537284064 0.3549871793202308 0.2282703527314508 0.8893144951858485 0.6122214737247801 0.7937842950353281 
Task91 0.07976252841954486 0.16008224284395162 0.17726229004381255 0.31380580549489817 0.5510131109727877 0.42952912261404685 0.3786770281925428 
Task92 0.0759421793295201 0.04914139748158635 0.26307118930227136 0.26435478252910877 0.8371127537743674 0.3789340237032474 0.8978883922185901 
Task93 0.08941357397278568 0.20646626592683592 0.3114465564306572 0.352205494777827 0.9707723868880924 0.7882028783521792 0.45682618102145545 
Task94 0.10890267610704586 0.3814806983463355 0.27114922794082924 0.021663857077228014 0.31191064138109476 0.46151018608843813 0.3315644515513721 
Task95 0.020980485347141975 0.2908058062866354 0.10815694664678085 0.40800976861848076 0.6682085657608149 0.7654568778675265 0.40957450306218257 
Task96 0.013079977784032236 0.08428136674168991 0.004424565987217615 0.037651016281069864 0.8200734840234236 0.5595612419632872 0.6069644388315472 
Task97 0.002053490648997221 0.0007085302048002136 0.014954624237233418 0.04032727941463302 0.5776744763364408 0.9047493508962339 0.960905797608788 
Task98 0.1282003756142438 0.2558999271838096 0.3086238290620088 0.26439033618871066 0.36259713541671673 0.7367740568356487 0.6155625518955645 
Task99 0.017617357000733965 0.026479088473212405 0.062257075925768804 0.05060117607239683 0.3465414258981445 0.5117362381594973 0.722426572500231 
