files/tasks_parameters/ExAp01/sample8.txt 1.14171 7.2562 4.46819 0.454772 29.7197
files/tasks_parameters/ExAp01/sample12.txt 1.58748 9.70908 5.28286 0.618515 40.4204
files/tasks_parameters/ExAp01/sample2.txt 1.56508 8.14159 5.7401 0.620531 40.5522
files/tasks_parameters/ExAp01/sample44.txt 1.37102 7.25164 5.75904 0.557631 36.4416
files/tasks_parameters/ExAp01/sample27.txt 1.36067 8.10944 5.64946 0.564878 36.9153
files/tasks_parameters/ExAp01/sample17.txt 1.25289 7.11225 5.46658 0.527183 34.4519
files/tasks_parameters/ExAp01/sample9.txt 1.21847 7.62559 5.37813 0.517277 33.8045
files/tasks_parameters/ExAp01/sample34.txt 1.19032 7.04587 5.93037 0.497709 32.5257
files/tasks_parameters/ExAp01/sample40.txt 1.21243 8.03037 5.123 0.502383 32.8311
files/tasks_parameters/ExAp01/sample33.txt 1.66964 9.22935 5.92956 0.659262 43.0833
files/tasks_parameters/ExAp01/sample48.txt 1.12956 8.12182 5.1577 0.452491 29.5706
files/tasks_parameters/ExAp01/sample29.txt 1.47172 8.06133 5.12331 0.650652 42.5206
files/tasks_parameters/ExAp01/sample11.txt 1.39778 7.63104 5.37897 0.563302 36.8122
files/tasks_parameters/ExAp01/sample14.txt 1.21497 6.66403 4.66322 0.471536 30.8153
files/tasks_parameters/ExAp01/sample0.txt 1.61317 9.3266 4.98971 0.6311 41.2429
files/tasks_parameters/ExAp01/sample7.txt 1.23515 7.34863 5.19436 0.515527 33.6901
files/tasks_parameters/ExAp01/sample23.txt 1.40489 6.68564 5.54308 0.588617 38.4666
files/tasks_parameters/ExAp01/sample13.txt 1.5635 9.31093 5.35591 0.632849 41.3572
files/tasks_parameters/ExAp01/sample22.txt 1.33202 7.65588 5.04866 0.540336 35.3114
files/tasks_parameters/ExAp01/sample25.txt 1.06305 6.17035 5.0141 0.408296 26.6825
files/tasks_parameters/ExAp01/sample36.txt 1.27521 7.03772 4.66274 0.507647 33.1751
files/tasks_parameters/ExAp01/sample46.txt 1.3505 7.73433 4.79934 0.536843 35.0831
files/tasks_parameters/ExAp01/sample31.txt 1.25952 6.96928 5.16482 0.485817 31.7485
files/tasks_parameters/ExAp01/sample37.txt 1.58698 9.52443 5.74224 0.65799 43.0001
files/tasks_parameters/ExAp01/sample16.txt 1.34771 8.63521 4.97261 0.516328 33.7424
files/tasks_parameters/ExAp01/sample10.txt 1.4613 7.28353 6.16876 0.615651 40.2333
files/tasks_parameters/ExAp01/sample39.txt 1.1376 6.3405 4.6137 0.468873 30.6412
files/tasks_parameters/ExAp01/sample19.txt 1.47549 8.85528 5.22306 0.622152 40.6582
files/tasks_parameters/ExAp01/sample20.txt 1.38281 8.1141 5.21177 0.586994 38.3605
files/tasks_parameters/ExAp01/sample43.txt 1.26409 7.21373 5.6367 0.53748 35.1247
files/tasks_parameters/ExAp01/sample32.txt 1.48243 8.30592 5.38137 0.593918 38.813
files/tasks_parameters/ExAp01/sample45.txt 1.39317 7.94069 4.96323 0.547271 35.7646
files/tasks_parameters/ExAp01/sample26.txt 1.10472 7.57061 4.62637 0.480146 31.3779
files/tasks_parameters/ExAp01/sample5.txt 1.42251 8.0307 5.35681 0.59407 38.8229
files/tasks_parameters/ExAp01/sample21.txt 1.07753 5.87802 4.61744 0.434264 28.3795
files/tasks_parameters/ExAp01/sample38.txt 1.2347 7.66999 4.86632 0.496808 32.4668
files/tasks_parameters/ExAp01/sample1.txt 1.1788 7.21312 4.63213 0.486293 31.7797
files/tasks_parameters/ExAp01/sample15.txt 1.23184 8.02273 5.50855 0.531063 34.7054
files/tasks_parameters/ExAp01/sample24.txt 1.37245 8.66348 5.4905 0.548998 35.8774
files/tasks_parameters/ExAp01/sample3.txt 1.20719 7.74268 4.79918 0.477387 31.1976
files/tasks_parameters/ExAp01/sample6.txt 1.47621 8.57133 5.80157 0.633604 41.4065
files/tasks_parameters/ExAp01/sample30.txt 1.70495 8.18878 5.90888 0.633576 41.4047
files/tasks_parameters/ExAp01/sample42.txt 1.36122 8.57689 5.67253 0.54426 35.5678
files/tasks_parameters/ExAp01/sample4.txt 1.27288 8.40354 4.57985 0.563519 36.8264
files/tasks_parameters/ExAp01/sample28.txt 1.07622 6.44114 4.96426 0.449721 29.3896
files/tasks_parameters/ExAp01/sample18.txt 1.34231 8.56363 4.60946 0.543766 35.5356
files/tasks_parameters/ExAp01/sample35.txt 1.90365 11.0387 6.34514 0.761377 49.7566
files/tasks_parameters/ExAp01/sample47.txt 1.33043 7.14493 5.22131 0.545046 35.6192
files/tasks_parameters/ExAp01/sample49.txt 1.28411 6.65996 4.80244 0.498533 32.5796
files/tasks_parameters/ExAp01/sample41.txt 1.19839 7.09069 5.35462 0.497129 32.4878
