files/tasks_parameters/ExAp01/sample8.txt 1.15574 7.2562 4.46819 0.454772 30.1856
files/tasks_parameters/ExAp01/sample12.txt 1.57072 9.70908 5.28286 0.618515 41.0541
files/tasks_parameters/ExAp01/sample2.txt 1.55579 8.14159 5.7401 0.620531 41.1879
files/tasks_parameters/ExAp01/sample44.txt 1.34448 7.25164 5.75904 0.557631 37.0129
files/tasks_parameters/ExAp01/sample27.txt 1.38694 8.10944 5.64946 0.564878 37.494
files/tasks_parameters/ExAp01/sample17.txt 1.22551 7.11225 5.46658 0.527183 34.992
files/tasks_parameters/ExAp01/sample9.txt 1.19626 7.62559 5.37813 0.517277 34.3344
files/tasks_parameters/ExAp01/sample34.txt 1.1998 7.04587 5.93037 0.497709 33.0356
files/tasks_parameters/ExAp01/sample40.txt 1.25152 8.03037 5.123 0.502383 33.3458
files/tasks_parameters/ExAp01/sample33.txt 1.70433 9.22935 5.92956 0.659262 43.7587
files/tasks_parameters/ExAp01/sample48.txt 1.15438 8.12182 5.1577 0.452491 30.0342
files/tasks_parameters/ExAp01/sample29.txt 1.52233 8.06133 5.12331 0.650652 43.1872
files/tasks_parameters/ExAp01/sample11.txt 1.38658 7.63104 5.37897 0.563302 37.3893
files/tasks_parameters/ExAp01/sample14.txt 1.14755 6.66403 4.66322 0.471536 31.2983
files/tasks_parameters/ExAp01/sample0.txt 1.52653 9.3266 4.98971 0.6311 41.8894
files/tasks_parameters/ExAp01/sample7.txt 1.27876 7.34863 5.19436 0.515527 34.2183
files/tasks_parameters/ExAp01/sample23.txt 1.38062 6.68564 5.54308 0.588617 39.0696
files/tasks_parameters/ExAp01/sample13.txt 1.54684 9.31093 5.35591 0.632849 42.0055
files/tasks_parameters/ExAp01/sample22.txt 1.32717 7.65588 5.04866 0.540336 35.8649
files/tasks_parameters/ExAp01/sample25.txt 1.07738 6.17035 5.0141 0.408296 27.1008
files/tasks_parameters/ExAp01/sample36.txt 1.3374 7.03772 4.66274 0.507647 33.6952
files/tasks_parameters/ExAp01/sample46.txt 1.34186 7.73433 4.79934 0.536843 35.6331
files/tasks_parameters/ExAp01/sample31.txt 1.21658 6.96928 5.16482 0.485817 32.2463
files/tasks_parameters/ExAp01/sample37.txt 1.58866 9.52443 5.74224 0.65799 43.6742
files/tasks_parameters/ExAp01/sample16.txt 1.33123 8.63521 4.97261 0.516328 34.2714
files/tasks_parameters/ExAp01/sample10.txt 1.46824 7.28353 6.16876 0.615651 40.864
files/tasks_parameters/ExAp01/sample39.txt 1.1308 6.3405 4.6137 0.468873 31.1216
files/tasks_parameters/ExAp01/sample19.txt 1.45202 8.85528 5.22306 0.622152 41.2955
files/tasks_parameters/ExAp01/sample20.txt 1.36763 8.1141 5.21177 0.586994 38.9619
files/tasks_parameters/ExAp01/sample43.txt 1.25475 7.21373 5.6367 0.53748 35.6754
files/tasks_parameters/ExAp01/sample32.txt 1.49056 8.30592 5.38137 0.593918 39.4215
files/tasks_parameters/ExAp01/sample45.txt 1.39691 7.94069 4.96323 0.547271 36.3253
files/tasks_parameters/ExAp01/sample26.txt 1.16331 7.57061 4.62637 0.480146 31.8698
files/tasks_parameters/ExAp01/sample5.txt 1.38221 8.0307 5.35681 0.59407 39.4316
files/tasks_parameters/ExAp01/sample21.txt 1.03063 5.87802 4.61744 0.434264 28.8244
files/tasks_parameters/ExAp01/sample38.txt 1.17877 7.66999 4.86632 0.496808 32.9758
files/tasks_parameters/ExAp01/sample1.txt 1.13047 7.21312 4.63213 0.486293 32.2779
files/tasks_parameters/ExAp01/sample15.txt 1.24744 8.02273 5.50855 0.531063 35.2494
files/tasks_parameters/ExAp01/sample24.txt 1.30617 8.66348 5.4905 0.548998 36.4399
files/tasks_parameters/ExAp01/sample3.txt 1.15711 7.74268 4.79918 0.477387 31.6867
files/tasks_parameters/ExAp01/sample6.txt 1.48336 8.57133 5.80157 0.633604 42.0557
files/tasks_parameters/ExAp01/sample30.txt 1.64041 8.18878 5.90888 0.633576 42.0538
files/tasks_parameters/ExAp01/sample42.txt 1.33047 8.57689 5.67253 0.54426 36.1254
files/tasks_parameters/ExAp01/sample4.txt 1.3549 8.40354 4.57985 0.563519 37.4037
files/tasks_parameters/ExAp01/sample28.txt 1.06415 6.44114 4.96426 0.449721 29.8504
files/tasks_parameters/ExAp01/sample18.txt 1.31947 8.56363 4.60946 0.543766 36.0927
files/tasks_parameters/ExAp01/sample35.txt 1.86986 11.0387 6.34514 0.761377 50.5366
files/tasks_parameters/ExAp01/sample47.txt 1.32732 7.14493 5.22131 0.545046 36.1776
files/tasks_parameters/ExAp01/sample49.txt 1.29117 6.65996 4.80244 0.498533 33.0903
files/tasks_parameters/ExAp01/sample41.txt 1.21797 7.09069 5.35462 0.497129 32.9971
