Task0 0.04431096306774663 0.04708528379425876 0.08343602484836782 0.1232820342569417 0.511976535103876 0.645129642493605 0.45074458703895093 
Task1 0.000891266363764667 0.04053611881825736 0.02247048601430864 0.017413509467093125 0.7532146890976232 0.3929763822597351 0.9537484925839819 
Task2 0.14518453087746666 0.2320628893851116 0.18356052486856483 0.35582477477889923 0.4955338328054394 0.3949627942896846 0.6426783378451142 
Task3 0.12046146979196487 0.16153087045693648 0.26620243929630133 0.20961500616593123 0.819821386461218 0.5920147525056279 0.7534275631125134 
Task4 0.09260115639716528 0.16491231813165871 0.26243878800603854 0.008678519030855411 0.5816693508809221 0.8937102667452326 0.9404012240895447 
Task5 0.15901058878724064 0.530115966043749 0.1226292132826932 0.042874373767345 0.7826280896084155 0.9666856938972217 0.7687298368608896 
Task6 0.07035041618996037 0.07500220319241575 0.13678754819552194 0.18525683390025283 0.5492503601045489 0.6813738109952339 0.5384006115291824 
Task7 0.022201574114677283 0.029723585112751662 0.04507204809427961 0.05875272752444995 0.6099662513703574 0.4505692464255998 0.901986827942336 
Task8 0.12968893853109364 0.30073158237998215 0.16544543252996383 0.19784758778499223 0.8638144461316553 0.8478071278852926 0.5584356353815101 
Task9 0.028229861693417437 0.06330097407254048 0.25128124270592406 0.03015078447186739 0.6181152478468572 0.33457699428248966 0.7213473814938602 
Task10 0.1449396944625713 0.12579026587206535 0.4440105354650095 0.08839231759131318 0.329086573332666 0.6503562692742002 0.9393008605866038 
Task11 0.082441491085333 0.3395600534174422 0.5085394147091018 0.05485595124543787 0.6867835330493453 0.8981673009624351 0.7570600059331961 
Task12 0.0030867345897978202 0.04030167310933847 0.03424965590141464 0.03091717499131383 0.8561005407024675 0.6667294517927091 0.5348197386458801 
Task13 0.038436885430504546 0.11824279832517476 0.23926253645132395 0.4099012342876933 0.4058447599003422 0.6007475769400277 0.9043144091597439 
Task14 0.052518597938493373 0.2505434537346358 0.17619218493081285 0.19907568492345598 0.5582934107294095 0.6784773684688107 0.6271347039793822 
Task15 0.026350682577714148 0.023779409146738695 0.11289449519726388 0.08779749423776072 0.9511288579495809 0.9814721630114442 0.5911833521730752 
Task16 0.03298434159713312 0.057551053445768885 0.07862317185929613 0.041485229952090315 0.9843242481828469 0.452945804846162 0.3348679783773749 
Task17 0.005144097997818665 0.023716666754438454 0.003221746669784711 0.007278820986717001 0.5402294536408601 0.7185347541785966 0.342899481815801 
Task18 0.046774916016806216 0.09561312641498336 0.3618885698078969 0.24450758871171216 0.4846239339528773 0.9671579040537592 0.5513035414864385 
Task19 0.04137682266156099 0.12205219157494143 0.02581929378361826 0.2403331158774987 0.75302019045314 0.5220907585629166 0.44283489834386525 
Task20 0.08353259699550353 0.399421851218018 0.09785707800845903 0.2634124696039913 0.32320050220184704 0.6425996965036864 0.8087362771783204 
Task21 0.08919115141684102 0.4262645350287831 0.13506714912340645 0.15040590252732314 0.9647355144551111 0.6306673883043024 0.8430603139659729 
Task22 0.0038362160559536054 0.2762052455055454 0.48931076455893985 0.1292051155773313 0.48158522992756664 0.40574341152608967 0.6894314034720508 
Task23 0.03522514581660149 0.05414019541415144 0.040399611154544816 0.07609046199455605 0.45045693391772823 0.593248004406134 0.612596865116644 
Task24 0.06818669086314719 0.20632341268689722 0.22947968883904318 0.07838461159787388 0.9314999261097325 0.8849872943836361 0.9592026244597658 
Task25 0.10848223852736787 0.03046219917865519 0.3269649807087916 0.11754131104983942 0.5501360895845797 0.9212061666841491 0.9442219435662544 
Task26 0.07640680948782583 0.054981845128268404 0.20450524653980093 0.3982284368156182 0.8484302503248737 0.8223623877907209 0.36749868461801416 
Task27 0.1400992678378054 0.23771682333043656 0.17744290923454278 0.19362326195528015 0.7042136781185588 0.942753785399302 0.6734697361737338 
Task28 0.016575019954607428 0.04078184786524152 0.07362032653580829 0.06328037582575953 0.547139179619756 0.4658406718825868 0.8774446735305483 
Task29 0.005270692336097362 0.047388258020002745 0.07742970496548467 0.08857585673416309 0.7835614075534448 0.936359010625821 0.600436970042406 
Task30 0.0028067184255819873 0.008944547894999742 0.004343472066090054 0.004530543359650606 0.7885349323300899 0.49318641666751983 0.33301567702017715 
Task31 0.07269654085853164 0.28113404567380346 0.4189429636251613 0.20981805646153784 0.5520968285372333 0.30301150198599325 0.35053098021508794 
Task32 0.0028650059327778184 0.13120276761683697 0.050782054427536784 0.06139739847712619 0.5735192003534411 0.36194796541357926 0.7825031764097592 
Task33 0.025725537758396252 0.06402063274652327 0.04981743053877349 0.020267993699294252 0.32441266815093167 0.5446039327109904 0.7120817819180523 
Task34 0.026516164915940024 0.03484287320868096 0.031049684427778043 0.04621150495045849 0.7328577908706714 0.45951290307018083 0.8775371959255818 
Task35 0.017016684142538686 0.017120048914990922 0.059027362071870024 0.1010224780098231 0.5026273737171914 0.5609109726215247 0.9505702801581439 
Task36 0.06523999920447238 0.2132774942854599 0.19119993272882846 0.09310717716325331 0.36250025853100354 0.6667105199247909 0.39399352914686475 
Task37 0.034237139894036865 0.37429720772796227 0.5149266182933645 0.05051786007990319 0.3411458096268052 0.5836717859961267 0.8104316977131356 
Task38 0.014344679563298988 0.16094489304868095 0.07524457020124098 0.19300578076861435 0.3101466316830702 0.4514950359817258 0.7258331318269721 
Task39 0.031483719454952035 0.10376733055391629 0.08786558828523476 0.06529148994506595 0.3191857460819226 0.3056239838972137 0.5231014254071277 
Task40 0.04304488480565614 0.022089086725690894 0.11013050305285647 0.06890582954208312 0.7060394817578347 0.6928986967980384 0.44897842422700895 
Task41 0.10990081964286566 0.04589153548300842 0.22581656977655612 0.2119013185372041 0.8291795732839027 0.6858611045314484 0.6095569398554499 
Task42 0.09507115545530008 0.22744429558324794 0.4029070005318952 0.19353783304774982 0.49535132548594707 0.8609536179836697 0.7205869180277071 
Task43 0.025602619470085564 0.15890789736039526 0.31174996925491794 0.0883647040885349 0.9429111606582408 0.4850346297025786 0.3639360615030759 
Task44 0.005381576437250139 0.014001572869409106 0.15372136288706784 0.14477396598886816 0.9441977482953101 0.6543732241886028 0.974409283411807 
Task45 0.038411470354366754 0.0678273738183794 0.2682178026631193 0.2860406514659116 0.6868191638549342 0.35133270733113003 0.8078639736396633 
Task46 0.08765761001123143 0.15411848592380667 0.09493766165288337 0.10868317832755023 0.4260790456169381 0.9747138307633922 0.7595441878346403 
Task47 0.0032579547311090396 0.3003461404188094 0.024416081329942003 0.5313796212074291 0.9808450543011646 0.9076812725895766 0.6483418255321134 
Task48 0.09963892313038462 0.038890489873461616 0.2897338720492333 0.36682454343652104 0.5390250943272329 0.3993732715310324 0.8994592622379123 
Task49 0.032340206129532 0.09960768817523118 0.2514813860720012 0.07375632908589413 0.7569754976091689 0.5960576677379995 0.7844998045031024 
Task50 0.0314335484688653 0.014576889021379527 0.14810420377430653 0.08538859838251876 0.5122141471561235 0.4234554475137624 0.7765192287141804 
Task51 0.034452290073822646 0.11296678043402157 0.14725724265324114 0.11899367327062998 0.5987335440041237 0.3058803611216739 0.6794936614016966 
Task52 0.005798432997514382 0.06155696166309246 0.010212617627577561 0.0003292045040460941 0.8771127890188191 0.8084781478164378 0.591718398960839 
Task53 0.01735650131888692 0.32949576073131875 0.30916589831000646 0.1920434420715657 0.3622991157191879 0.5806289297948317 0.5587824532325266 
Task54 0.10392998202478206 0.39359890831918404 0.16312010583334655 0.2868717876061899 0.5879720404683264 0.865449783959636 0.42975888957818864 
Task55 0.03042153987230523 0.13772585132379594 0.10089348060960691 0.5732967070990611 0.8290791307045187 0.910656063436357 0.5947539852646488 
Task56 0.12356467615618495 0.2405636785821113 0.2174407446463982 0.08776177321965228 0.3488199023310139 0.9962710693468553 0.3015921467905109 
Task57 0.023411203316607967 0.05127567833505722 0.10241375580894121 0.06193336798830722 0.549977528507106 0.8520862011552575 0.3455863837617693 
Task58 0.039211604997241585 0.05645935710024587 0.3206753390181467 0.050925229329361645 0.6251671843416023 0.45847301569507315 0.9394611713467433 
Task59 0.09774635780115168 0.11578237941325052 0.3626766652876955 0.3991522043975652 0.6106676615459503 0.5841013088272974 0.35297209043076694 
Task60 0.01942158190693966 0.06335710066515637 0.01640525097948146 0.2189018382544267 0.6376926516738624 0.5053126298796476 0.9066124909501105 
Task61 0.05754361888545046 0.1999639719239685 0.3026053046322047 0.10983973567825824 0.7119657158354866 0.868520392811849 0.3231385516974074 
Task62 0.002863120594583976 0.007593059192440114 0.006048811887082262 0.008199494439414923 0.36537793657516954 0.71331283507724 0.9037516914903376 
Task63 0.04926997462474889 0.06497139769951685 0.22287738584579705 0.034357348050709655 0.6799810903406741 0.7253431600207847 0.3547329579145887 
Task64 0.04805629647242904 0.2755680495003565 0.06199467511552675 0.15838194685907073 0.6884526932921459 0.544101531911591 0.7741660758510094 
Task65 0.0183054304122831 0.12477337946268358 0.1570278174598614 0.0563067193736536 0.5132786650975565 0.7203719660624069 0.38720175937023615 
Task66 0.0324720346941731 0.0887199693554475 0.1100329591901486 0.030767436858085948 0.5742979751153945 0.7966833298786657 0.5567679121012428 
Task67 0.037612678950007236 0.03804425534686034 0.11185990217320527 0.027567686161581825 0.48387551720059035 0.856723758898293 0.8251580061022918 
Task68 0.09845358278991748 0.3005183644279312 0.07362832866274181 0.128598078426138 0.9040367652342445 0.9814391812332952 0.8358650377200505 
Task69 0.09088889555458307 0.08929672330727277 0.16654579406241665 0.27755711363355173 0.6275484109186793 0.7689800271049418 0.8500237751901252 
Task70 0.01194253626385059 0.016125289377130994 0.015550991471054326 0.04562440760844616 0.5823404649228578 0.6238757654061226 0.658626044564192 
Task71 0.0037816930228384677 0.14274470025223718 0.26646420188531017 0.5757362747095521 0.6241198567149981 0.7221409913448669 0.5913180079972449 
Task72 0.04674919909604504 0.02087103133234958 0.09051477172728432 0.15645782451562754 0.7342202748628328 0.33017752463664785 0.4886022190221203 
Task73 0.02903579827896957 0.65113804445241 0.13914251171318073 0.04144381541781347 0.3651562422892434 0.44447967516576675 0.9032954069351506 
Task74 0.07528560286801184 0.09659381709304136 0.13873297784333594 0.5837913482856413 0.7023030323312759 0.5727475869237055 0.3502776010243023 
Task75 0.01967894832522699 0.11446743989191734 0.03470469805596917 0.0659994769732817 0.3427963790943912 0.6891479668474487 0.8528633075759906 
Task76 0.12277363522307351 0.27520560192956295 0.24540745168061434 0.039052968525644986 0.6731004956712764 0.9869587990520683 0.9224754821495067 
Task77 0.007601061752823093 0.05955990223226954 0.10366175035947765 0.13712829231475143 0.7441599877686309 0.4708970544511435 0.5956509793434452 
Task78 0.11710047247954734 0.37936134355838863 0.013376526143397634 0.38985960015099896 0.9461299979570703 0.9470487621826698 0.8781829354578088 
Task79 0.0736877762288888 0.07875444461438971 0.10331202811085424 0.14472774522456372 0.9362446743321875 0.9458953117353959 0.6673144777712177 
Task80 0.10340132366167673 0.01319029711037223 0.21750557710261031 0.24372642071440986 0.440633097698523 0.7144618737565844 0.3596568327885591 
Task81 0.028068889783375548 0.016435937915650747 0.05985285995587219 0.03852599237490652 0.8340468631733566 0.6014824976971006 0.5337079637200782 
Task82 0.04479792294860899 0.05835907371583083 0.0939676412212387 0.4668970624514402 0.9542643697792819 0.7753005005352528 0.3548513748194095 
Task83 0.055810001997731194 0.26051405327390814 0.09740579670555614 0.35792934653966585 0.7319333378516903 0.8305219325711037 0.6660966556374345 
Task84 0.06342978827558862 0.49593938668182036 0.13948333660106327 0.15248519561563706 0.8630518609739284 0.4145615965483642 0.6736627931517811 
Task85 0.0003034763915252173 0.0013069743396859528 0.005624831605008857 0.005824170178543454 0.75373343577473 0.9236912450634513 0.5142018215127677 
Task86 0.018016935307254654 0.24764189858883986 0.1697655457599385 0.14061188094869437 0.7340191811708716 0.5627580455812389 0.9298317589190137 
Task87 0.01738080189794939 0.0328991449038651 0.030967873750459028 0.038473766596333184 0.9808090355934862 0.9261365683936844 0.9643239126825007 
Task88 0.07252967831323777 0.30907032117587796 0.05389477185460656 0.09135990142307351 0.7313067699116533 0.7243151976939561 0.8867827901474319 
Task89 0.0061906706641676095 0.00800308189830985 0.020876953152779085 0.0009816984912911046 0.5919785155364392 0.9033713662449641 0.620202508093845 
Task90 0.06775147518749382 0.17335873857549988 0.10560204121559534 0.2618762964032985 0.7328038496147093 0.5846604598797868 0.8680864591957114 
Task91 0.035252829064901986 0.007096173695283089 0.1103890639229392 0.045510470089567115 0.9833853627626392 0.32619566375734454 0.5494022776952894 
Task92 0.020402258898816694 0.05456379326412314 0.4468977787754817 0.019282311107989763 0.6189592148345349 0.5619269798383997 0.8413741699060708 
Task93 0.04991116553633346 0.25135931335401557 0.27812033436510386 0.33555785432455165 0.6413019839795936 0.6610868438796951 0.43992640102745834 
Task94 0.03847321240695768 0.07995409263534214 0.3847041398680803 0.08423197455599626 0.4679734095656082 0.5612599120576953 0.868390098314646 
Task95 0.10361377563217157 0.20892875950985607 0.12566000260297808 0.20698517983445694 0.41664047781202246 0.39699039144052783 0.30344119274206527 
Task96 0.11715151165539096 0.26770973546953025 0.1720867941876672 0.22163422608805572 0.6778154356749041 0.3659117544900762 0.7278780508411709 
Task97 0.023478717256833332 0.2622075135116653 0.2855368179771508 0.1644939822240762 0.6302362610631924 0.41786296919957466 0.49574745816343346 
Task98 0.06557482889265068 0.6174894561665583 0.10716176557685592 0.1603929987426048 0.413615727335142 0.5690528688595873 0.3640746585345515 
Task99 0.01951723848973592 0.031578432495718484 0.030997761373985445 0.024525200005243195 0.7955946933740181 0.35281298694773455 0.7523674414406698 
