Task0 0.035680202853992975 0.13455277134473956 0.03161179836784022 0.1201800131593937 0.5760137041559519 0.904068749013788 0.47123226090683706 
Task1 0.00729160007359864 0.10971697584098809 0.06056002057871992 0.02786340396822166 0.384091459362498 0.8154234524751276 0.9555964999428688 
Task2 0.0632739683691884 0.11467556438818198 0.3368037401191941 0.13099048905940083 0.9332370985087408 0.7346773671099676 0.9143409280164869 
Task3 0.0885823573162131 0.2124286787414663 0.1687468297863783 0.25331359146986304 0.4064701870791848 0.39264436603307545 0.5107532625704253 
Task4 0.006721708870573725 0.11772744720479299 0.07249490623436423 0.058705883522589083 0.3557728977292992 0.4382248852934876 0.4882849430560179 
Task5 0.18438474147408176 0.33009898906327584 0.15568917327447385 0.309990918903184 0.9614507019661225 0.385958549624139 0.5185391948452154 
Task6 0.04000788100067881 0.168138713176499 0.09752750332249464 0.21450213589383224 0.73347620400364 0.612314820691432 0.69509840894555 
Task7 0.004079660147841112 0.016890152895777524 0.04197141484902908 0.04701609213811092 0.5093434748329699 0.7928663340667363 0.8314322057633581 
Task8 0.019943349514807123 0.054637324178664404 0.021752490100895753 0.32093506884653966 0.7842301842675938 0.48046863380349103 0.9473931901975048 
Task9 0.12508780294275307 0.5839339518812466 0.04598146257933057 0.03837699715346054 0.6899607550731757 0.9406659278382357 0.8038113012722348 
Task10 0.0013994525814544554 0.05363194032061993 0.025827501353373968 0.008738165487478505 0.33935187325490856 0.34139417200454303 0.3310432261580344 
Task11 0.017792288019889926 0.12369887220327942 0.0395962053167233 0.0716157161334166 0.6615007731250443 0.5067335766811557 0.593891762457971 
Task12 0.03596702092552845 0.03890840249153405 0.03061013421111364 0.07961505909472232 0.3230896789074034 0.4374248110423906 0.5390467918652825 
Task13 0.13751175930027792 0.2876101588549953 0.2006596160039142 0.08804020956635564 0.5838636453950561 0.6406499748915546 0.3175810026647965 
Task14 0.07473604996024652 0.13471391937785857 0.09416306755516453 0.13171262334440914 0.8413847559613439 0.67663157577963 0.3393642012252752 
Task15 0.006668472784555108 0.07087230630867057 0.044566198984940464 0.029234433835757443 0.5900690416585159 0.3265455990934871 0.652577212737067 
Task16 0.08281521492674053 0.22567090594773434 0.13546227610340475 0.11320190950265967 0.44026042873231797 0.8932105926181222 0.659632399035979 
Task17 0.046553427070688484 0.5927670466637158 0.15569123048341432 0.08703703224412306 0.9525049576729909 0.44386408580312936 0.7130737141815837 
Task18 0.004309339063918621 0.029305680946968168 0.04348606701708299 0.04173485254897481 0.5295584724014897 0.7861162548646818 0.6422441539654602 
Task19 0.052502471321023605 0.29053094488795983 0.28052915057769395 0.3079315360555303 0.5321068386075432 0.48511361857188057 0.38081538129044745 
Task20 0.08532441581977686 0.24210482764394822 0.08273007053263282 0.05942225445510822 0.38379448027281976 0.5637884814456846 0.9301326747379397 
Task21 0.03817374021092158 0.3077558488601018 0.09763362012141143 0.5406535020675234 0.35897379584255473 0.8481539219145138 0.46428580449069307 
Task22 0.12439335970500824 0.030507716603188698 0.2679328360489202 0.2542936176998305 0.9791815823648424 0.40732635621559227 0.7889889376496224 
Task23 0.010955833521647968 0.058558226834556776 0.055560833158001255 0.07112461417152191 0.3937462028052433 0.6377924096323149 0.46324884919449155 
Task24 0.10289570605634586 0.16256694764432061 0.17668965661449626 0.1415531326925508 0.8813638277739877 0.44496935088402556 0.6210930774537577 
Task25 0.03716939064303953 0.4233374304438322 0.04043016372470969 0.35240202690681766 0.7845706891028179 0.6585732659520505 0.7176055261190241 
Task26 0.07376413401629509 0.13716008447675462 0.04558376193314226 0.1142502954768579 0.4573227163533467 0.5587409753514148 0.5186249087821229 
Task27 0.027427485599065715 0.16976357002069506 0.32931746130790457 0.42194616906513804 0.7181485460193965 0.4869699299503295 0.9103717614326678 
Task28 0.04104949019379372 0.08555310846102429 0.4528752702104338 0.1660453897721712 0.629539509520211 0.7126119110251272 0.7625337510009174 
Task29 0.003148950034425315 0.04720039622088668 0.027631606016979275 0.007975509856582831 0.8014007361635758 0.5491959046469562 0.49466173744515535 
Task30 0.03010251489625754 0.09025556197056492 0.14029678548282618 0.18193872565712232 0.6797807162936158 0.7741220055264518 0.4445676386647553 
Task31 0.014967979397634494 0.12557098171772454 0.001739208893961568 0.051613829004827166 0.30166971274562565 0.48520834171917904 0.40375153204318887 
Task32 0.04933601411312293 0.2948749453247072 0.2859269756750389 0.18518739059389974 0.44034756370316275 0.455578261584371 0.8784827067643977 
Task33 0.0035540270642009414 0.03667267388348903 0.03147752465732762 0.04190394329453635 0.45817469026015006 0.7025059949058905 0.8668364820536716 
Task34 0.021623183584754183 0.04093159710199557 0.1842981698048699 0.1413667025833913 0.7909358186201707 0.46164525456024563 0.5361089458741416 
Task35 0.0005997884007285862 0.003193697645427178 0.000650032547115964 0.0027805291764757714 0.36153011721074324 0.8201430529306528 0.43917335235014404 
Task36 0.03382143049774582 0.1380565372854944 0.21423650655595428 0.11293865623218148 0.8638038714055025 0.8416922604685266 0.4054606384515107 
Task37 0.025463004551059126 0.11957020593674418 0.07473242928363194 0.08941145167502512 0.4812700457749901 0.6449969654144571 0.7322940621175653 
Task38 0.00750328430328753 0.03440437602955658 0.025867530131972804 0.0020266531206883046 0.869877624234741 0.3071746009672835 0.4846900307843527 
Task39 0.047502221717460213 0.08915299498087458 0.24005908595793762 0.08263205207019104 0.6535665300252778 0.5847823051757566 0.486291891404044 
Task40 0.0013721916948572807 0.08473741160687233 0.05831476802211048 0.09715619079997664 0.7828142461068539 0.6673524445460419 0.7889717491416661 
Task41 0.05952091339167997 0.35186159122163174 0.12607374468976223 0.34532763637859903 0.49080040253631885 0.4216299295553753 0.509997914717667 
Task42 0.007745271006401796 0.0362091258500364 0.17332439158939025 0.259284021605818 0.6728199691354597 0.5360435931816653 0.3509966231980953 
Task43 0.0068753835488733666 0.083298199867382 0.018948727704975434 0.07063357706971497 0.6702332028851554 0.8038068289040885 0.5364416599803419 
Task44 0.12025889670892874 0.1752708043956632 0.18083991623609671 0.28971471088437245 0.3803531702185206 0.6977060889910425 0.7275490152486619 
Task45 0.09797906490345783 0.29299762895683407 0.03365555262134723 0.297072169351255 0.364787898937749 0.551255606474537 0.4419761741447463 
Task46 0.04848959954362522 0.033026420498034045 0.06118804485986495 0.7184455367880774 0.8802379245414376 0.9485703404869663 0.6878692099335786 
Task47 0.1668126133828376 0.12804463504997088 0.015628373396340357 0.5867491773917067 0.7010830074692473 0.7730537975621845 0.6185017358466649 
Task48 0.01631708746333833 0.010775527047286943 0.036166221758943004 0.02255526221022188 0.41199074215428916 0.45915731608476806 0.6650960879859287 
Task49 0.01203608435440464 0.1920138242261865 0.21105037600633664 0.027347593984792865 0.7433610233968535 0.6410863089306993 0.9512789989523194 
Task50 0.00294614830738 0.07563461952183555 0.04153622168534029 0.036069374722164656 0.3022987040483357 0.4909469371174211 0.4111753612818956 
Task51 0.03028441317581875 0.20065724538207774 0.2672208343939576 0.03617075677767818 0.43331451959097894 0.8109816064841597 0.41422710043185534 
Task52 0.039957435117105755 0.24684174384627106 0.17313182327902377 0.013953870042630354 0.46248813576169856 0.6842960970542951 0.3868896923565897 
Task53 0.0007506826428541562 0.044818909692761054 0.0008601726392342117 0.01532904068580263 0.5814510066654308 0.8235320460610682 0.8904366203888983 
Task54 0.021594366684506476 0.04975130437044946 0.4854929020431931 0.3054626869809708 0.5257913505628945 0.4570687126001264 0.31895845823104324 
Task55 0.04587833038148518 0.18780525157838182 0.12312236198831954 0.055710893571343574 0.6721539712029185 0.33146985812292895 0.6990726953128439 
Task56 0.06361763767345738 0.27757570511213087 0.12002220533985367 0.04679341965372483 0.7275163480742539 0.5702859861990632 0.711208069922003 
Task57 0.12744230956958283 0.3922858760730733 0.4335596073797591 0.0395932539997999 0.37290185979648605 0.34431304379641436 0.45696147094277606 
Task58 0.05312432540702029 0.1179916190992119 0.036496612802479275 0.12572600973961215 0.4668085291604014 0.47242434085864576 0.38450766332195074 
Task59 0.012846169154554426 0.016127017796654187 0.1542181913142867 0.1829974231740508 0.6357491720653532 0.7453769889134471 0.31932452977778053 
Task60 0.014680275300302126 0.021518081774167006 0.005148217348541687 0.08697234472761405 0.9552593737759256 0.3523578184269808 0.9015436281421652 
Task61 0.07164490481983293 0.13776613161625623 0.09324830062790401 0.13631801720891304 0.9062875566832092 0.5575075136827755 0.6331079967892521 
Task62 0.02302687540801139 0.06895865434361817 0.019725423270992373 0.04647020632859752 0.9947250047938165 0.6089574343654534 0.5912209207137262 
Task63 0.05402555108426516 0.09217341641957316 0.381646403100941 0.1621319145597837 0.3595643124151788 0.9440299074096583 0.8617411022050236 
Task64 0.050097001881059366 0.1318651198489929 0.29192559557402575 0.3017487764524541 0.4295710718937577 0.7414778709868567 0.3366316001600922 
Task65 0.05246281872733992 0.17461861509385113 0.01327265978207452 0.29871707481007925 0.5367948327239993 0.6984753073161813 0.7094523733246315 
Task66 0.04352799375615767 0.31760864494668356 0.216571336954642 0.21585840210016952 0.5744339957934013 0.6111808724986274 0.6579282638023718 
Task67 0.0519070554595977 0.1648141325745612 0.23385530331958113 0.14672391396082946 0.7344818552782107 0.8957835598159427 0.8993954609984167 
Task68 0.048244055656049195 0.2467155736590435 0.13314675024099207 0.012963043721310852 0.5037937327175089 0.919369261320522 0.8183522392751086 
Task69 0.09568581824205438 0.015024140723714562 0.516730046063404 0.16935927963061564 0.8300641722261555 0.8018135464291443 0.5062916616505795 
Task70 0.0026073199215907806 0.08616239360362528 0.09057986956933202 0.05130711405606466 0.3674497650198036 0.3209012200695164 0.9553187649468304 
Task71 0.005045327521806446 0.27636156646657123 0.06420422215566429 0.21724355819650917 0.9930923736727091 0.8576449744882675 0.7409695536140795 
Task72 0.03321874074777391 0.021227324682278954 0.0678708606330133 0.04945706197794436 0.3537291428115803 0.3888740612695717 0.4607898006157649 
Task73 0.02021223408484739 0.0477049630800103 0.08880641378336651 0.019972614274664017 0.9140938384028086 0.9981049849293759 0.6103219123331078 
Task74 0.0025175696902694483 0.13830353044816904 0.15904049847668048 0.06095825819051346 0.9434100665598362 0.7996452820538329 0.7620356345998701 
Task75 0.16235991390397664 0.31089478869138193 0.23721711457311098 0.1892845462758563 0.8965632186151702 0.9437465862986536 0.6447530336746741 
Task76 0.09438605477014476 0.044527585114261914 0.3470663228897807 0.2287035745740593 0.9762705213694085 0.5504562889872704 0.7272396009979378 
Task77 0.005545185972634603 0.17646424927255985 0.09269971255233965 0.08055537289728629 0.6661855076514358 0.46828982660667107 0.40198987495903526 
Task78 0.04566525653038022 0.13878502066368303 0.18738071860265598 0.05726969959821599 0.991945088396698 0.7835325911912323 0.6794054597188908 
Task79 0.05724327530867352 0.14606726477357534 0.42002656174958636 0.04859564279192616 0.6413681464367167 0.5228825532829472 0.9351251508854161 
Task80 0.05496601586058012 0.07304698963152326 0.09951693408423391 0.12459315776906685 0.33095982695128673 0.5238064809369557 0.7860862795668977 
Task81 0.06132920955811774 0.22591490060766395 0.14410072199564922 0.03956143513379211 0.7742434388986049 0.5445430359953282 0.8496796246513305 
Task82 0.05413451186864306 0.31844560214576656 0.0623622504820373 0.19297071978492275 0.9023210133431621 0.4776636123504391 0.9823075912614481 
Task83 0.04002083052228553 0.19919849235887016 0.057495849922959655 0.058577475513307116 0.6416105426342398 0.3005204492316183 0.7994364228449757 
Task84 0.174798551820728 0.16405026904785616 0.2700512321780704 0.37537567124556404 0.8011054180043891 0.5529714970749257 0.602811814566867 
Task85 0.051729841338587906 0.19191769958761196 0.08242529668603339 0.10876724351882534 0.5088352873172514 0.7409242917942127 0.9359020957992827 
Task86 0.009921405314981226 0.08454556342643704 0.023134143299815134 0.024421049819222294 0.6370546328489682 0.9843339346697264 0.9956261981707812 
Task87 0.04242532891896405 0.5036439854846794 0.002608685916178631 0.25646271568049567 0.8548736798622147 0.629066516655373 0.7745359002298902 
Task88 0.019242146589818643 0.0894631365076351 0.09389177237571582 0.03807083050623183 0.3868268225812692 0.7062977555028545 0.5110548166912248 
Task89 0.1301705412285466 0.24948303215543466 0.18638463820532003 0.09930699217812106 0.9883562816248885 0.934427475733258 0.7102284714749012 
Task90 0.0022028163461319996 0.383984707805189 0.30188925760442814 0.11162862119508897 0.7033809391731215 0.41792131932868126 0.4089283317211708 
Task91 0.1005900786128761 0.18850583300631635 0.1761505509470561 0.1325252891287923 0.5286079400517754 0.3331988150540881 0.8233821519753892 
Task92 0.016356999282895846 0.07690829644054652 0.13261693977739125 0.17033965237882365 0.8368576930697522 0.7463179109508502 0.31781053387216435 
Task93 0.0019462648704575258 0.006991264133039237 0.002456220256967399 0.009775999910728802 0.36127811181369934 0.966712454702557 0.3806635719735666 
Task94 0.12886647214647848 0.38657614483067204 0.19391399366432294 0.07667970048236496 0.5757269701847323 0.46097451474108925 0.3102830865396023 
Task95 0.0389495409865746 0.006128341305251491 0.0266686499433074 0.17676414618456682 0.773576536601529 0.7122824587818468 0.4402800267933721 
Task96 0.10591868339596985 0.5030245333887191 0.024775773274455234 0.24151438209435874 0.3009547389946506 0.4040250084225079 0.4769772446566892 
Task97 0.009071590274201975 0.017928863875351326 0.12497249289520325 0.13325338988669017 0.8672544202677575 0.829594375415105 0.4599960750471763 
Task98 0.04766447707923916 0.19708185980728035 0.2224316704401273 0.004132665410068521 0.9661060992700341 0.532589133486176 0.3949056137276897 
Task99 0.000668099964079606 0.011271578622256627 0.012457600144231567 0.0028122247951361495 0.3486440797961965 0.9780052020664862 0.5009163749565455 
