files/tasks_parameters/ExAp01/sample8.txt 1.08528 3.76817 4.3855 0.450105 8.88519
files/tasks_parameters/ExAp01/sample12.txt 1.45489 5.03638 5.18776 0.610564 12.0527
files/tasks_parameters/ExAp01/sample2.txt 1.37058 4.58991 5.64606 0.613877 12.1181
files/tasks_parameters/ExAp01/sample44.txt 1.24421 3.77401 5.66946 0.551838 10.8934
files/tasks_parameters/ExAp01/sample27.txt 1.28924 4.13937 5.56136 0.55779 11.0109
files/tasks_parameters/ExAp01/sample17.txt 1.11554 3.76163 5.38341 0.520991 10.2845
files/tasks_parameters/ExAp01/sample9.txt 1.09746 3.69889 5.2981 0.511699 10.1011
files/tasks_parameters/ExAp01/sample34.txt 1.13586 3.52435 5.83741 0.49187 9.70965
files/tasks_parameters/ExAp01/sample40.txt 1.14773 4.06185 5.0335 0.496884 9.80862
files/tasks_parameters/ExAp01/sample33.txt 1.47531 4.82091 5.83886 0.651963 12.8699
files/tasks_parameters/ExAp01/sample48.txt 1.07224 4.01134 5.07085 0.447927 8.8422
files/tasks_parameters/ExAp01/sample29.txt 1.39588 4.20847 5.0406 0.643694 12.7067
files/tasks_parameters/ExAp01/sample11.txt 1.30035 3.94699 5.29198 0.557276 11.0008
files/tasks_parameters/ExAp01/sample14.txt 1.05342 3.54059 4.58345 0.466713 9.21305
files/tasks_parameters/ExAp01/sample0.txt 1.44535 4.82755 4.90216 0.623551 12.309
files/tasks_parameters/ExAp01/sample7.txt 1.11318 3.60766 5.11185 0.509566 10.059
files/tasks_parameters/ExAp01/sample23.txt 1.43041 3.81403 5.45799 0.582911 11.5068
files/tasks_parameters/ExAp01/sample13.txt 1.4177 4.8894 5.26818 0.624499 12.3278
files/tasks_parameters/ExAp01/sample22.txt 1.22496 3.76156 4.95746 0.534216 10.5456
files/tasks_parameters/ExAp01/sample25.txt 0.90612 2.94144 4.92622 0.403639 7.96794
files/tasks_parameters/ExAp01/sample36.txt 1.21896 3.56164 4.5806 0.501799 9.90564
files/tasks_parameters/ExAp01/sample46.txt 1.22396 3.84833 4.7121 0.530701 10.4762
files/tasks_parameters/ExAp01/sample31.txt 1.06438 3.764 5.08385 0.479734 9.47007
files/tasks_parameters/ExAp01/sample37.txt 1.49454 4.43254 5.65111 0.65143 12.8594
files/tasks_parameters/ExAp01/sample16.txt 1.23609 4.49741 4.8895 0.509171 10.0512
files/tasks_parameters/ExAp01/sample10.txt 1.36647 3.87086 6.07511 0.60993 12.0402
files/tasks_parameters/ExAp01/sample39.txt 1.11364 3.66299 4.54281 0.463671 9.15299
files/tasks_parameters/ExAp01/sample19.txt 1.33761 3.86694 5.14047 0.615987 12.1597
files/tasks_parameters/ExAp01/sample20.txt 1.33942 4.09945 5.13368 0.580369 11.4566
files/tasks_parameters/ExAp01/sample43.txt 1.13713 3.75825 5.55698 0.530892 10.48
files/tasks_parameters/ExAp01/sample32.txt 1.38764 4.0352 5.29178 0.587643 11.6002
files/tasks_parameters/ExAp01/sample45.txt 1.21092 3.94578 4.87833 0.541081 10.6811
files/tasks_parameters/ExAp01/sample26.txt 1.04254 3.50998 4.55035 0.474009 9.35707
files/tasks_parameters/ExAp01/sample5.txt 1.34267 4.00994 5.27725 0.587681 11.601
files/tasks_parameters/ExAp01/sample21.txt 0.939831 2.8974 4.54677 0.430037 8.48905
files/tasks_parameters/ExAp01/sample38.txt 1.285 3.56689 4.78573 0.492366 9.71944
files/tasks_parameters/ExAp01/sample1.txt 1.09874 3.69002 4.55048 0.481074 9.49652
files/tasks_parameters/ExAp01/sample15.txt 1.16001 3.73223 5.42493 0.524964 10.3629
files/tasks_parameters/ExAp01/sample24.txt 1.1997 4.18053 5.40377 0.542575 10.7106
files/tasks_parameters/ExAp01/sample3.txt 1.09285 3.70547 4.7118 0.470503 9.28785
files/tasks_parameters/ExAp01/sample6.txt 1.34391 4.07521 5.71419 0.626702 12.3713
files/tasks_parameters/ExAp01/sample30.txt 1.44286 3.97446 5.82388 0.626709 12.3714
files/tasks_parameters/ExAp01/sample42.txt 1.27186 4.44207 5.58473 0.537025 10.601
files/tasks_parameters/ExAp01/sample4.txt 1.3617 3.92181 4.49751 0.556974 10.9948
files/tasks_parameters/ExAp01/sample28.txt 1.03385 3.13496 4.88321 0.444588 8.77629
files/tasks_parameters/ExAp01/sample18.txt 1.22233 3.95301 4.52898 0.537438 10.6092
files/tasks_parameters/ExAp01/sample35.txt 1.8236 5.75923 6.25034 0.752488 14.8543
files/tasks_parameters/ExAp01/sample47.txt 1.14607 3.44018 5.14289 0.540033 10.6604
files/tasks_parameters/ExAp01/sample49.txt 1.20429 3.38981 4.72409 0.493041 9.73277
files/tasks_parameters/ExAp01/sample41.txt 1.1026 3.58692 5.27252 0.492391 9.71992
