0.32442887000000004
Task0 31 7 31 
Task1 31 31 63 
Task2 31 15 31 
Task3 7 31 3 
Task4 7 63 31 
Task5 31 63 15 
Task6 7 7 63 
Task7 31 255 63 
Task8 1 1 31 
Task9 31 15 63 
Task10 63 31 15 
Task11 31 63 31 
Task12 7 63 31 
Task13 63 31 31 
Task14 7 63 15 
Task15 31 255 127 
Task16 15 31 31 
Task17 31 15 15 
Task18 63 31 31 
Task19 63 63 31 
Task20 63 15 1 
Task21 31 7 7 
Task22 15 31 7 
Task23 3 31 3 
Task24 63 15 63 
Task25 31 255 15 
Task26 3 31 63 
Task27 127 15 63 
Task28 15 15 31 
Task29 15 63 31 
Task30 31 15 3 
Task31 1 31 7 
Task32 1 1 31 
Task33 255 15 63 
Task34 63 31 31 
Task35 3 63 7 
Task36 7 255 15 
Task37 15 15 63 
Task38 7 7 63 
Task39 63 255 7 
Task40 7 63 31 
Task41 3 31 3 
Task42 1 15 63 
Task43 31 63 63 
Task44 3 63 31 
Task45 63 15 15 
Task46 3 3 31 
Task47 15 63 7 
Task48 7 31 15 
Task49 7 63 31 
Task50 15 63 1 
Task51 255 31 255 
Task52 7 31 63 
Task53 7 31 31 
Task54 63 3 15 
Task55 15 63 15 
Task56 1 63 1 
Task57 63 7 15 
Task58 1 31 15 
Task59 31 255 255 
Task60 1 31 7 
Task61 7 255 255 
Task62 31 1 1 
Task63 31 1 3 
Task64 63 15 3 
Task65 15 31 63 
Task66 63 31 31 
Task67 15 31 15 
Task68 7 63 7 
Task69 7 63 1 
Task70 63 7 7 
Task71 31 31 3 
Task72 63 1 7 
Task73 63 15 31 
Task74 3 15 31 
Task75 127 63 63 
Task76 7 31 63 
Task77 255 63 31 
Task78 7 1 31 
Task79 63 63 3 
Task80 63 31 63 
Task81 15 31 1 
Task82 15 127 31 
Task83 1 31 3 
Task84 15 63 3 
Task85 255 31 31 
Task86 7 63 63 
Task87 31 7 31 
Task88 31 7 15 
Task89 7 3 31 
Task90 1 63 15 
Task91 31 7 3 
Task92 63 1 31 
Task93 31 63 63 
Task94 7 63 255 
Task95 3 15 63 
Task96 31 31 63 
Task97 31 63 63 
Task98 63 7 31 
Task99 15 7 63 
