digraph G {
0 ->11 0 ->12 0 ->15 1 ->17 2 ->11 2 ->15 2 ->17 3 ->14 3 ->15 3 ->16 3 ->17 4 ->11 5 ->10 5 ->11 5 ->13 5 ->15 5 ->18 6 ->12 6 ->13 6 ->15 6 ->16 6 ->17 7 ->10 7 ->12 7 ->13 7 ->14 8 ->13 8 ->16 8 ->17 9 ->12 9 ->13 9 ->16 9 ->19 10 ->20 10 ->26 10 ->29 10 ->32 10 ->34 11 ->21 11 ->22 11 ->27 11 ->29 11 ->31 11 ->32 12 ->21 12 ->22 12 ->23 12 ->29 12 ->30 13 ->20 13 ->21 13 ->22 13 ->24 14 ->26 14 ->32 14 ->33 15 ->22 15 ->26 15 ->28 15 ->33 16 ->20 16 ->25 16 ->30 16 ->31 17 ->21 17 ->23 17 ->26 17 ->34 18 ->28 18 ->29 18 ->34 19 ->22 19 ->23 19 ->32 19 ->33 19 ->34 20 ->43 21 ->36 21 ->41 21 ->42 22 ->35 22 ->36 22 ->37 22 ->41 23 ->35 23 ->36 23 ->42 24 ->35 24 ->36 25 ->36 25 ->36 25 ->37 25 ->43 26 ->35 26 ->36 26 ->40 26 ->42 27 ->38 28 ->40 28 ->42 28 ->43 29 ->39 31 ->37 31 ->38 32 ->38 32 ->40 33 ->41 33 ->42 34 ->35 34 ->37 34 ->39 34 ->41 35 ->45 35 ->50 35 ->51 37 ->46 37 ->47 37 ->48 38 ->47 38 ->48 38 ->49 38 ->50 38 ->51 40 ->45 40 ->49 40 ->50 40 ->51 41 ->44 41 ->48 41 ->49 41 ->50 41 ->51 42 ->46 42 ->48 42 ->49 42 ->51 43 ->49 44 ->52 44 ->57 44 ->62 45 ->52 45 ->54 45 ->56 45 ->57 45 ->63 45 ->65 46 ->52 46 ->58 46 ->60 46 ->64 46 ->65 47 ->56 47 ->58 47 ->64 48 ->54 48 ->56 48 ->58 48 ->59 48 ->63 49 ->58 49 ->59 49 ->61 49 ->62 50 ->53 50 ->55 50 ->61 50 ->62 50 ->64 50 ->65 51 ->52 51 ->54 51 ->59 51 ->62 52 ->66 52 ->71 53 ->66 53 ->68 53 ->71 54 ->69 55 ->69 55 ->72 56 ->72 57 ->66 57 ->69 57 ->70 57 ->72 58 ->70 59 ->67 59 ->70 60 ->67 60 ->70 61 ->66 61 ->70 61 ->71 62 ->68 62 ->70 62 ->71 63 ->66 63 ->67 63 ->71 64 ->66 64 ->67 64 ->69 65 ->66 65 ->70 65 ->72 66 ->75 66 ->77 66 ->78 66 ->79 67 ->74 67 ->79 68 ->73 68 ->76 68 ->80 69 ->74 69 ->77 69 ->78 69 ->79 70 ->78 71 ->74 71 ->76 72 ->74 72 ->78 73 ->85 73 ->88 74 ->85 74 ->87 74 ->88 75 ->83 75 ->84 76 ->84 76 ->85 77 ->81 77 ->82 77 ->84 77 ->90 78 ->83 78 ->85 78 ->86 78 ->89 78 ->90 79 ->83 79 ->86 79 ->88 79 ->90 80 ->82 80 ->84 80 ->89 81 ->93 81 ->96 82 ->93 82 ->95 82 ->96 82 ->97 82 ->98 82 ->103 82 ->105 83 ->93 83 ->101 83 ->102 84 ->93 84 ->94 84 ->97 84 ->98 84 ->99 85 ->92 85 ->100 86 ->94 86 ->96 86 ->98 86 ->103 87 ->96 87 ->97 88 ->91 88 ->94 88 ->96 88 ->97 88 ->103 88 ->104 88 ->105 89 ->91 89 ->98 89 ->99 89 ->105 90 ->91 90 ->92 90 ->93 90 ->94 90 ->98 90 ->99 90 ->102 90 ->103 90 ->104 91 ->106 91 ->115 92 ->106 92 ->115 93 ->106 93 ->114 93 ->115 93 ->116 94 ->110 94 ->112 94 ->114 94 ->115 95 ->108 95 ->111 95 ->112 95 ->115 95 ->116 96 ->113 96 ->114 97 ->106 97 ->109 97 ->114 98 ->106 98 ->113 98 ->114 99 ->112 100 ->112 100 ->115 101 ->115 101 ->116 102 ->113 102 ->116 103 ->109 103 ->113 103 ->116 104 ->112 104 ->113 104 ->116 105 ->106 105 ->107 105 ->108 105 ->111 105 ->112 105 ->113 105 ->116 106 ->118 106 ->119 106 ->122 106 ->126 106 ->127 106 ->128 106 ->129 106 ->130 107 ->120 107 ->121 107 ->126 107 ->129 108 ->119 108 ->123 108 ->126 108 ->128 108 ->130 108 ->131 109 ->117 109 ->120 109 ->121 109 ->124 109 ->125 109 ->128 109 ->129 109 ->131 110 ->117 110 ->118 110 ->119 110 ->121 110 ->122 110 ->128 110 ->129 110 ->130 110 ->131 111 ->117 111 ->118 111 ->119 111 ->121 111 ->122 111 ->123 111 ->124 112 ->121 112 ->124 112 ->132 113 ->119 113 ->120 113 ->122 113 ->126 113 ->129 113 ->131 114 ->120 114 ->124 114 ->126 114 ->128 114 ->131 115 ->117 115 ->125 115 ->133 116 ->120 116 ->121 116 ->123 116 ->129 116 ->130 116 ->131 116 ->133 117 ->136 117 ->137 117 ->138 117 ->144 118 ->137 119 ->140 119 ->141 119 ->145 120 ->139 120 ->142 120 ->146 121 ->134 121 ->135 121 ->136 121 ->137 121 ->142 121 ->146 122 ->134 122 ->135 122 ->136 122 ->139 122 ->141 122 ->143 122 ->144 123 ->134 123 ->135 123 ->136 123 ->139 123 ->141 123 ->144 124 ->134 124 ->136 124 ->140 125 ->134 125 ->136 125 ->140 126 ->135 126 ->137 126 ->141 127 ->135 127 ->144 127 ->145 128 ->134 128 ->135 128 ->145 129 ->136 129 ->139 129 ->141 129 ->145 130 ->145 131 ->140 132 ->136 132 ->140 132 ->145 132 ->146 133 ->140 134 ->147 135 ->147 136 ->149 140 ->147 140 ->149 141 ->147 141 ->149 142 ->149 144 ->147 146 ->147 146 ->148 
}
