digraph G {
0 ->14 0 ->16 1 ->14 1 ->17 1 ->18 2 ->14 2 ->17 2 ->18 3 ->17 4 ->14 4 ->16 4 ->18 5 ->18 6 ->16 6 ->17 6 ->18 7 ->14 8 ->15 8 ->16 8 ->17 8 ->18 9 ->16 11 ->16 11 ->18 11 ->19 12 ->19 13 ->14 13 ->16 14 ->20 14 ->24 14 ->25 14 ->26 14 ->29 15 ->23 15 ->24 15 ->26 16 ->20 16 ->21 16 ->22 16 ->25 16 ->27 16 ->28 16 ->31 18 ->21 18 ->22 18 ->29 18 ->30 18 ->32 18 ->33 19 ->20 19 ->21 19 ->30 19 ->31 19 ->32 20 ->35 21 ->35 21 ->41 21 ->43 22 ->39 22 ->42 22 ->43 23 ->39 23 ->43 23 ->43 24 ->35 25 ->42 25 ->43 26 ->34 26 ->42 26 ->43 27 ->37 27 ->41 27 ->42 28 ->40 28 ->41 29 ->38 29 ->40 29 ->42 30 ->36 30 ->38 30 ->39 30 ->40 30 ->41 31 ->37 31 ->39 31 ->40 31 ->41 32 ->38 32 ->42 33 ->35 34 ->46 34 ->49 34 ->50 34 ->51 34 ->52 35 ->46 35 ->48 35 ->50 36 ->46 36 ->49 37 ->44 37 ->48 37 ->49 38 ->45 38 ->47 38 ->53 39 ->47 39 ->47 39 ->48 40 ->46 41 ->49 42 ->45 42 ->48 42 ->49 42 ->52 42 ->53 43 ->45 43 ->48 43 ->52 43 ->53 44 ->54 44 ->55 45 ->58 47 ->59 48 ->58 48 ->60 49 ->54 49 ->57 50 ->55 50 ->57 50 ->58 50 ->60 51 ->54 51 ->56 51 ->57 51 ->60 52 ->58 53 ->55 53 ->59 53 ->60 54 ->62 54 ->64 54 ->66 54 ->68 55 ->64 55 ->65 55 ->68 55 ->69 56 ->62 56 ->65 56 ->66 57 ->62 57 ->63 57 ->64 57 ->67 57 ->69 58 ->63 58 ->65 58 ->67 58 ->69 59 ->62 59 ->63 59 ->68 60 ->61 60 ->63 60 ->64 60 ->65 60 ->66 60 ->68 60 ->69 61 ->76 61 ->80 61 ->81 62 ->70 62 ->77 62 ->78 62 ->80 63 ->76 63 ->79 64 ->71 64 ->74 64 ->76 64 ->79 65 ->70 65 ->71 65 ->75 65 ->76 65 ->77 65 ->79 65 ->80 65 ->81 66 ->74 66 ->79 66 ->80 66 ->81 67 ->72 67 ->73 67 ->74 68 ->70 68 ->73 69 ->70 69 ->80 70 ->85 70 ->86 70 ->87 72 ->82 72 ->85 72 ->86 73 ->84 73 ->85 73 ->88 74 ->83 75 ->82 75 ->84 76 ->82 77 ->82 77 ->84 77 ->86 78 ->83 79 ->84 79 ->86 79 ->87 80 ->86 80 ->86 81 ->82 81 ->87 82 ->96 82 ->97 83 ->89 83 ->91 83 ->92 83 ->94 84 ->89 84 ->94 85 ->91 85 ->93 86 ->89 86 ->90 86 ->96 86 ->97 87 ->95 87 ->97 88 ->90 88 ->97 89 ->100 89 ->101 91 ->102 92 ->102 92 ->103 93 ->99 93 ->102 94 ->100 94 ->101 95 ->98 95 ->100 95 ->102 96 ->98 96 ->99 96 ->101 97 ->99 97 ->100 97 ->101 98 ->108 99 ->106 99 ->110 100 ->105 100 ->106 100 ->107 100 ->108 100 ->109 100 ->110 100 ->111 101 ->105 101 ->110 102 ->104 102 ->107 103 ->108 104 ->116 104 ->121 105 ->112 105 ->113 105 ->115 105 ->116 105 ->119 105 ->120 105 ->121 106 ->113 106 ->114 106 ->118 106 ->119 107 ->112 108 ->117 108 ->118 108 ->120 109 ->112 109 ->114 109 ->115 109 ->116 109 ->118 109 ->119 110 ->112 110 ->115 110 ->116 110 ->119 110 ->120 111 ->114 111 ->115 112 ->122 113 ->122 113 ->125 113 ->126 114 ->122 114 ->127 115 ->122 115 ->125 116 ->123 117 ->124 117 ->125 118 ->125 119 ->124 119 ->126 119 ->127 120 ->124 120 ->126 120 ->127 121 ->124 121 ->126 122 ->128 122 ->134 123 ->128 123 ->129 123 ->130 123 ->133 124 ->133 124 ->136 124 ->137 125 ->130 125 ->131 125 ->135 126 ->133 126 ->135 127 ->132 127 ->135 127 ->136 128 ->138 128 ->141 128 ->144 128 ->145 128 ->149 129 ->139 129 ->140 130 ->145 130 ->149 131 ->138 131 ->141 131 ->142 131 ->145 131 ->146 131 ->147 132 ->139 132 ->141 132 ->142 132 ->143 132 ->148 133 ->142 133 ->143 133 ->144 133 ->146 133 ->149 134 ->141 134 ->142 134 ->146 134 ->147 134 ->149 135 ->138 135 ->142 135 ->145 136 ->143 137 ->139 137 ->140 137 ->141 137 ->145 
}
