digraph G {
0 ->15 0 ->17 0 ->18 0 ->20 0 ->23 0 ->25 0 ->28 1 ->16 1 ->20 1 ->27 2 ->15 2 ->16 2 ->17 2 ->18 2 ->23 2 ->26 3 ->15 3 ->19 3 ->21 3 ->23 4 ->15 4 ->17 4 ->23 4 ->25 4 ->27 5 ->16 5 ->23 5 ->23 5 ->27 5 ->27 6 ->16 6 ->19 6 ->25 7 ->17 7 ->20 7 ->27 7 ->28 8 ->17 8 ->18 8 ->19 8 ->20 9 ->15 9 ->17 9 ->19 9 ->20 9 ->22 10 ->19 10 ->20 10 ->27 11 ->18 11 ->20 11 ->21 11 ->25 11 ->28 12 ->15 12 ->21 12 ->24 12 ->25 12 ->28 13 ->15 13 ->17 13 ->19 13 ->21 13 ->25 13 ->28 14 ->15 14 ->17 14 ->18 14 ->19 14 ->21 14 ->24 14 ->25 14 ->28 15 ->30 15 ->34 16 ->30 17 ->31 18 ->30 18 ->31 18 ->33 19 ->31 19 ->32 19 ->33 19 ->35 20 ->29 21 ->29 22 ->31 23 ->32 23 ->34 24 ->35 25 ->36 26 ->30 26 ->32 27 ->30 27 ->34 27 ->35 27 ->36 28 ->33 28 ->34 28 ->35 28 ->36 29 ->38 29 ->40 29 ->46 30 ->39 30 ->44 31 ->37 31 ->42 31 ->43 31 ->46 32 ->37 32 ->39 32 ->40 33 ->40 33 ->41 33 ->43 34 ->38 34 ->39 34 ->42 35 ->38 35 ->45 36 ->37 36 ->38 36 ->39 36 ->43 36 ->44 37 ->47 37 ->53 38 ->49 38 ->53 38 ->55 38 ->58 38 ->59 39 ->50 40 ->47 40 ->49 40 ->54 40 ->55 41 ->48 41 ->51 41 ->56 41 ->60 42 ->48 42 ->56 42 ->57 42 ->58 42 ->59 43 ->48 43 ->52 43 ->59 44 ->47 44 ->48 44 ->53 44 ->56 44 ->59 45 ->58 45 ->59 46 ->49 46 ->53 46 ->54 46 ->58 47 ->63 47 ->64 47 ->69 47 ->71 48 ->61 48 ->64 48 ->69 48 ->70 49 ->62 49 ->68 49 ->69 49 ->70 50 ->61 50 ->62 50 ->65 50 ->68 50 ->69 50 ->70 51 ->63 51 ->64 51 ->65 51 ->66 51 ->67 51 ->68 51 ->69 52 ->65 52 ->67 52 ->68 52 ->69 53 ->61 53 ->63 53 ->65 53 ->70 53 ->71 54 ->61 54 ->63 54 ->65 55 ->61 55 ->62 55 ->63 55 ->64 56 ->63 56 ->64 56 ->65 56 ->69 56 ->71 57 ->61 57 ->63 57 ->70 58 ->62 58 ->65 59 ->61 59 ->62 60 ->62 60 ->68 61 ->74 61 ->75 61 ->86 62 ->72 62 ->77 62 ->79 62 ->85 63 ->75 63 ->84 64 ->72 64 ->79 64 ->80 64 ->81 64 ->84 64 ->85 64 ->86 64 ->87 64 ->88 65 ->84 65 ->85 65 ->86 66 ->83 66 ->85 67 ->78 67 ->88 68 ->72 68 ->73 68 ->74 68 ->77 68 ->81 69 ->72 69 ->77 69 ->79 69 ->82 69 ->83 69 ->84 69 ->87 70 ->72 70 ->74 70 ->80 70 ->83 70 ->85 70 ->88 71 ->73 71 ->75 71 ->76 71 ->77 71 ->81 71 ->84 71 ->85 71 ->88 72 ->89 72 ->93 73 ->95 74 ->89 74 ->91 74 ->93 75 ->90 75 ->91 75 ->92 75 ->94 75 ->95 76 ->93 77 ->95 78 ->91 78 ->95 79 ->91 79 ->92 79 ->93 79 ->95 80 ->92 81 ->91 81 ->95 82 ->90 82 ->91 82 ->92 83 ->89 83 ->91 84 ->89 84 ->91 84 ->92 84 ->93 85 ->89 85 ->93 85 ->94 86 ->91 87 ->93 88 ->90 88 ->92 89 ->96 89 ->97 89 ->101 89 ->102 89 ->104 90 ->97 90 ->102 90 ->104 91 ->98 91 ->100 91 ->101 91 ->103 92 ->97 92 ->100 92 ->103 93 ->99 93 ->102 94 ->96 94 ->98 94 ->104 95 ->96 95 ->100 95 ->103 96 ->106 96 ->111 96 ->114 96 ->115 96 ->116 97 ->105 97 ->107 97 ->114 98 ->105 98 ->106 98 ->107 98 ->113 98 ->115 98 ->116 99 ->105 99 ->113 99 ->115 100 ->113 100 ->115 100 ->115 101 ->106 101 ->108 101 ->109 101 ->110 101 ->111 101 ->112 101 ->113 102 ->107 102 ->108 102 ->109 102 ->116 103 ->106 103 ->108 103 ->110 104 ->105 104 ->113 104 ->116 105 ->117 105 ->118 105 ->121 105 ->122 105 ->123 105 ->125 105 ->127 106 ->118 106 ->123 106 ->125 106 ->127 107 ->119 107 ->122 107 ->123 107 ->125 107 ->126 107 ->127 108 ->118 108 ->127 109 ->121 109 ->126 110 ->119 110 ->122 110 ->126 111 ->126 112 ->117 112 ->120 112 ->126 113 ->118 113 ->120 113 ->123 113 ->127 114 ->120 114 ->123 115 ->117 115 ->119 115 ->120 115 ->122 115 ->126 115 ->128 116 ->117 116 ->118 116 ->119 116 ->121 116 ->122 116 ->123 116 ->124 117 ->134 117 ->135 117 ->137 117 ->138 118 ->129 118 ->130 118 ->131 118 ->133 118 ->135 118 ->137 119 ->129 119 ->135 119 ->137 119 ->142 120 ->134 120 ->135 120 ->136 120 ->141 120 ->143 121 ->130 121 ->133 121 ->134 121 ->139 121 ->140 121 ->141 122 ->133 122 ->136 123 ->129 123 ->130 123 ->139 124 ->129 124 ->130 124 ->133 124 ->136 124 ->139 125 ->129 125 ->130 125 ->132 125 ->136 125 ->137 125 ->139 126 ->132 126 ->134 126 ->141 126 ->142 128 ->130 128 ->133 128 ->135 128 ->138 128 ->141 129 ->144 129 ->147 129 ->148 130 ->144 130 ->145 130 ->149 131 ->145 131 ->149 132 ->144 132 ->145 132 ->148 132 ->149 134 ->145 136 ->147 137 ->146 138 ->145 138 ->148 139 ->144 139 ->147 139 ->148 140 ->144 140 ->145 140 ->147 140 ->149 141 ->144 141 ->146 141 ->147 141 ->149 142 ->144 142 ->146 142 ->149 143 ->144 
}
