digraph G {
0 ->19 0 ->21 0 ->27 1 ->19 1 ->21 1 ->24 1 ->25 2 ->18 2 ->20 2 ->24 2 ->27 3 ->16 3 ->20 3 ->24 4 ->18 4 ->20 4 ->21 4 ->24 5 ->17 5 ->19 5 ->24 6 ->21 6 ->24 6 ->25 7 ->16 7 ->18 7 ->19 7 ->22 8 ->18 8 ->21 8 ->23 9 ->16 9 ->20 9 ->28 11 ->17 11 ->22 11 ->23 11 ->26 11 ->27 12 ->23 12 ->24 13 ->24 13 ->27 14 ->26 15 ->20 15 ->25 15 ->27 16 ->29 16 ->32 16 ->34 16 ->41 16 ->42 16 ->43 17 ->32 17 ->34 17 ->35 17 ->37 17 ->40 17 ->43 17 ->45 18 ->37 18 ->38 18 ->40 18 ->43 19 ->31 19 ->32 19 ->38 20 ->41 21 ->29 21 ->30 21 ->34 21 ->36 22 ->32 22 ->39 22 ->40 22 ->45 23 ->34 23 ->41 23 ->42 23 ->45 24 ->29 24 ->34 24 ->37 24 ->38 24 ->39 24 ->40 24 ->41 24 ->43 24 ->44 25 ->29 25 ->31 25 ->34 25 ->36 25 ->37 25 ->41 25 ->41 25 ->44 25 ->45 26 ->33 26 ->36 26 ->43 27 ->29 27 ->32 27 ->34 27 ->36 27 ->43 27 ->45 28 ->43 29 ->46 31 ->46 31 ->47 31 ->49 31 ->51 32 ->46 32 ->51 33 ->46 33 ->48 33 ->50 34 ->46 34 ->47 34 ->48 34 ->51 35 ->46 35 ->48 36 ->46 36 ->49 36 ->51 37 ->49 37 ->51 38 ->51 39 ->47 39 ->50 40 ->47 41 ->46 41 ->47 42 ->47 42 ->50 42 ->51 43 ->47 43 ->50 44 ->47 44 ->48 44 ->49 45 ->46 46 ->54 46 ->55 47 ->53 47 ->55 48 ->55 49 ->53 49 ->54 49 ->56 49 ->58 50 ->52 50 ->56 50 ->57 51 ->52 51 ->53 51 ->54 51 ->56 52 ->60 52 ->64 52 ->65 52 ->66 52 ->67 53 ->59 53 ->61 54 ->59 54 ->61 54 ->64 55 ->61 55 ->65 55 ->67 56 ->59 56 ->62 56 ->63 56 ->64 57 ->66 58 ->60 58 ->66 58 ->67 59 ->68 59 ->74 59 ->78 59 ->79 60 ->68 60 ->69 60 ->71 60 ->76 61 ->70 61 ->73 61 ->74 61 ->75 61 ->78 61 ->79 62 ->70 62 ->73 62 ->77 62 ->78 63 ->71 63 ->73 63 ->77 64 ->71 64 ->72 65 ->70 65 ->72 65 ->74 65 ->79 66 ->70 66 ->74 66 ->76 66 ->80 67 ->68 67 ->70 67 ->71 67 ->73 67 ->76 67 ->78 68 ->91 68 ->94 69 ->82 69 ->84 69 ->92 69 ->94 70 ->87 70 ->89 71 ->81 71 ->82 72 ->81 72 ->82 72 ->87 72 ->88 72 ->90 73 ->84 73 ->85 74 ->81 74 ->82 74 ->83 74 ->86 75 ->82 75 ->88 75 ->90 75 ->93 76 ->83 76 ->87 76 ->89 76 ->93 77 ->87 77 ->94 78 ->83 78 ->88 78 ->90 79 ->82 79 ->83 79 ->91 79 ->93 80 ->83 80 ->83 80 ->89 80 ->91 80 ->93 81 ->95 81 ->96 81 ->97 81 ->99 81 ->103 81 ->107 82 ->95 82 ->96 82 ->99 82 ->101 82 ->102 82 ->103 82 ->104 82 ->105 83 ->95 83 ->96 83 ->97 83 ->105 84 ->95 84 ->96 84 ->102 84 ->106 85 ->95 85 ->101 85 ->102 85 ->103 86 ->102 86 ->107 87 ->97 87 ->98 87 ->99 88 ->98 88 ->99 88 ->101 89 ->102 89 ->103 90 ->97 90 ->99 90 ->105 90 ->106 90 ->107 91 ->99 91 ->100 91 ->104 91 ->105 92 ->97 92 ->106 93 ->95 93 ->100 93 ->101 93 ->102 93 ->103 93 ->106 93 ->107 94 ->95 94 ->96 94 ->97 94 ->102 94 ->105 94 ->107 95 ->111 95 ->114 95 ->117 95 ->119 96 ->109 96 ->112 96 ->113 96 ->114 96 ->116 96 ->119 97 ->110 97 ->112 97 ->115 97 ->118 98 ->109 98 ->112 98 ->114 99 ->108 99 ->112 100 ->111 100 ->114 100 ->116 100 ->117 100 ->119 101 ->108 101 ->109 101 ->110 101 ->111 101 ->112 101 ->113 101 ->114 101 ->119 102 ->109 102 ->112 102 ->114 102 ->115 103 ->109 103 ->113 103 ->117 103 ->119 104 ->111 104 ->113 104 ->115 104 ->118 105 ->111 105 ->112 105 ->113 105 ->115 105 ->119 106 ->111 106 ->115 106 ->118 107 ->113 107 ->114 108 ->121 108 ->128 109 ->121 109 ->124 110 ->123 110 ->128 111 ->123 111 ->125 111 ->126 111 ->128 112 ->120 112 ->121 112 ->123 112 ->125 113 ->121 113 ->125 113 ->127 114 ->122 114 ->123 114 ->124 114 ->127 115 ->120 115 ->125 116 ->120 116 ->121 116 ->125 116 ->127 117 ->127 117 ->128 118 ->121 118 ->125 119 ->127 120 ->129 120 ->132 120 ->135 121 ->130 121 ->131 121 ->134 121 ->135 122 ->129 122 ->130 122 ->131 122 ->134 122 ->135 123 ->132 123 ->135 124 ->133 124 ->134 125 ->132 126 ->134 127 ->130 127 ->133 128 ->135 129 ->137 129 ->139 129 ->142 131 ->138 131 ->139 131 ->146 131 ->147 132 ->136 132 ->143 132 ->144 132 ->146 132 ->147 133 ->140 133 ->141 133 ->143 133 ->144 133 ->147 134 ->142 134 ->145 134 ->147 135 ->143 135 ->146 137 ->148 137 ->149 138 ->148 138 ->149 141 ->149 142 ->149 143 ->148 144 ->149 145 ->148 145 ->149 
}
