digraph G {
0 ->24 1 ->19 1 ->21 1 ->24 4 ->17 4 ->23 5 ->16 5 ->19 5 ->20 5 ->23 5 ->24 6 ->16 6 ->21 6 ->22 7 ->17 7 ->19 7 ->20 7 ->21 7 ->23 8 ->17 8 ->23 9 ->16 9 ->23 10 ->20 11 ->17 11 ->19 11 ->20 11 ->21 13 ->18 13 ->19 13 ->21 13 ->24 14 ->16 14 ->19 14 ->20 14 ->22 14 ->24 15 ->16 15 ->19 16 ->31 16 ->32 17 ->25 17 ->30 17 ->31 17 ->32 18 ->29 20 ->26 20 ->29 20 ->32 20 ->33 21 ->27 21 ->28 21 ->32 21 ->33 22 ->25 22 ->29 22 ->31 22 ->32 23 ->31 24 ->25 24 ->26 24 ->31 24 ->33 25 ->38 25 ->39 25 ->40 25 ->42 25 ->43 25 ->44 25 ->47 25 ->48 26 ->35 26 ->40 26 ->42 26 ->47 27 ->34 27 ->35 28 ->44 28 ->48 29 ->37 29 ->44 29 ->46 29 ->47 30 ->34 30 ->41 30 ->43 31 ->36 31 ->39 31 ->41 31 ->43 31 ->44 32 ->36 32 ->39 32 ->41 32 ->43 32 ->45 32 ->48 33 ->34 33 ->40 33 ->41 33 ->43 33 ->48 34 ->50 34 ->55 34 ->56 35 ->50 35 ->53 35 ->57 36 ->51 36 ->56 37 ->56 37 ->60 38 ->52 38 ->55 38 ->58 39 ->49 39 ->52 39 ->55 39 ->57 40 ->52 40 ->54 40 ->60 41 ->49 41 ->50 41 ->60 42 ->50 42 ->50 42 ->58 42 ->60 43 ->49 43 ->50 43 ->52 43 ->55 43 ->56 43 ->60 44 ->52 44 ->54 44 ->55 44 ->56 44 ->57 44 ->60 45 ->49 45 ->52 45 ->53 45 ->54 45 ->58 45 ->59 45 ->60 46 ->49 46 ->52 46 ->53 46 ->54 46 ->55 46 ->57 47 ->49 47 ->53 47 ->55 47 ->57 48 ->50 48 ->53 48 ->54 48 ->57 49 ->62 50 ->62 51 ->62 51 ->63 52 ->62 52 ->64 52 ->65 52 ->66 53 ->63 54 ->63 54 ->65 55 ->62 55 ->64 56 ->63 57 ->63 58 ->64 59 ->61 59 ->65 60 ->62 60 ->65 61 ->69 61 ->71 61 ->74 61 ->76 61 ->77 62 ->67 62 ->68 62 ->70 62 ->71 62 ->72 62 ->74 62 ->76 63 ->69 63 ->71 63 ->75 64 ->73 64 ->74 65 ->69 65 ->72 65 ->76 66 ->67 67 ->79 67 ->79 67 ->80 67 ->81 67 ->85 67 ->88 67 ->90 67 ->91 67 ->93 68 ->86 68 ->88 68 ->94 69 ->80 69 ->81 69 ->82 69 ->91 69 ->92 69 ->94 70 ->81 70 ->91 70 ->92 71 ->81 71 ->85 71 ->92 71 ->93 71 ->94 72 ->80 72 ->82 72 ->84 72 ->85 72 ->87 72 ->89 73 ->85 73 ->93 74 ->78 74 ->79 74 ->82 74 ->91 74 ->92 75 ->79 75 ->82 75 ->83 75 ->86 75 ->88 75 ->91 76 ->79 76 ->87 76 ->91 76 ->92 76 ->93 77 ->78 77 ->79 77 ->85 77 ->93 78 ->96 78 ->98 78 ->99 79 ->95 79 ->97 79 ->102 79 ->105 80 ->99 80 ->102 80 ->105 80 ->106 81 ->98 81 ->99 81 ->100 81 ->102 82 ->97 82 ->98 82 ->106 82 ->108 83 ->95 83 ->96 83 ->97 83 ->98 83 ->102 84 ->96 84 ->102 85 ->98 85 ->102 85 ->109 86 ->104 86 ->106 86 ->108 87 ->96 87 ->97 87 ->99 87 ->104 87 ->108 87 ->109 88 ->98 88 ->99 88 ->102 88 ->105 88 ->109 89 ->96 89 ->98 89 ->106 89 ->107 90 ->96 90 ->99 90 ->101 90 ->102 90 ->105 91 ->101 91 ->103 91 ->106 92 ->95 92 ->106 92 ->108 93 ->96 93 ->97 93 ->98 93 ->108 94 ->97 94 ->105 95 ->112 95 ->114 95 ->117 95 ->118 96 ->111 96 ->112 98 ->112 98 ->114 99 ->113 99 ->114 99 ->115 99 ->117 99 ->119 100 ->114 100 ->115 101 ->114 101 ->115 101 ->117 102 ->110 102 ->113 102 ->115 102 ->117 103 ->111 103 ->112 103 ->115 103 ->117 104 ->111 104 ->113 104 ->115 104 ->119 105 ->111 105 ->113 105 ->114 105 ->120 106 ->110 106 ->112 106 ->113 106 ->114 106 ->117 107 ->112 107 ->116 108 ->114 109 ->110 109 ->119 110 ->121 110 ->122 111 ->122 111 ->124 111 ->127 112 ->122 112 ->124 112 ->126 112 ->128 113 ->124 113 ->124 113 ->125 113 ->128 114 ->121 114 ->122 114 ->123 114 ->128 115 ->127 116 ->127 117 ->122 117 ->124 117 ->126 117 ->127 117 ->128 118 ->121 118 ->124 118 ->126 118 ->127 119 ->125 120 ->121 120 ->127 121 ->131 121 ->134 121 ->143 122 ->132 122 ->134 122 ->135 122 ->140 122 ->142 122 ->143 123 ->134 123 ->136 123 ->139 123 ->140 123 ->145 124 ->130 124 ->132 124 ->136 124 ->139 124 ->140 124 ->141 125 ->132 125 ->137 125 ->139 125 ->141 125 ->144 126 ->129 126 ->130 126 ->135 126 ->136 126 ->138 126 ->141 126 ->142 126 ->144 126 ->145 127 ->132 127 ->133 127 ->135 127 ->136 127 ->139 128 ->134 128 ->137 128 ->143 130 ->146 130 ->148 131 ->148 133 ->148 133 ->149 135 ->146 135 ->147 136 ->147 138 ->146 138 ->148 139 ->146 142 ->149 143 ->149 144 ->149 145 ->149 
}
