files/tasks_parameters/ExAp01/sample8.txt 0.798039 3.15778 1.5595 0.203411 4.49026
files/tasks_parameters/ExAp01/sample12.txt 0.765755 3.94962 1.6705 0.207924 4.58988
files/tasks_parameters/ExAp01/sample2.txt 0.712288 3.78275 1.74131 0.200098 4.41711
files/tasks_parameters/ExAp01/sample44.txt 0.689916 3.59825 1.65317 0.200005 4.41507
files/tasks_parameters/ExAp01/sample27.txt 0.665877 3.45743 1.5148 0.182129 4.02045
files/tasks_parameters/ExAp01/sample17.txt 0.54892 2.77299 1.44514 0.14646 3.23307
files/tasks_parameters/ExAp01/sample9.txt 0.637861 2.99933 1.451 0.177444 3.91703
files/tasks_parameters/ExAp01/sample34.txt 0.545771 3.02928 1.58429 0.157984 3.48746
files/tasks_parameters/ExAp01/sample40.txt 0.594628 3.86889 1.52122 0.168379 3.71694
files/tasks_parameters/ExAp01/sample33.txt 0.698436 3.63695 1.71905 0.199765 4.40977
files/tasks_parameters/ExAp01/sample48.txt 0.598941 3.39061 1.49062 0.154728 3.41559
files/tasks_parameters/ExAp01/sample29.txt 0.712037 3.30472 1.38739 0.223868 4.94185
files/tasks_parameters/ExAp01/sample11.txt 0.601862 3.10585 1.41612 0.174079 3.84275
files/tasks_parameters/ExAp01/sample14.txt 0.575739 2.70971 1.43432 0.162214 3.58085
files/tasks_parameters/ExAp01/sample0.txt 0.680267 3.6937 1.5439 0.18367 4.05447
files/tasks_parameters/ExAp01/sample7.txt 0.531683 2.70501 1.42221 0.143463 3.16693
files/tasks_parameters/ExAp01/sample23.txt 0.641311 3.2697 1.57822 0.181448 4.00544
files/tasks_parameters/ExAp01/sample13.txt 0.666326 3.84225 1.67648 0.198247 4.37626
files/tasks_parameters/ExAp01/sample22.txt 0.549162 3.09569 1.56121 0.148796 3.28465
files/tasks_parameters/ExAp01/sample25.txt 0.510287 2.73966 1.5007 0.148149 3.27035
files/tasks_parameters/ExAp01/sample36.txt 0.511466 2.85948 1.28553 0.130042 2.87066
files/tasks_parameters/ExAp01/sample46.txt 0.742378 3.58643 1.69998 0.210103 4.63798
files/tasks_parameters/ExAp01/sample31.txt 0.600493 3.4832 1.53782 0.1722 3.80128
files/tasks_parameters/ExAp01/sample37.txt 0.648645 3.95293 1.50705 0.171701 3.79027
files/tasks_parameters/ExAp01/sample16.txt 0.570579 3.31216 1.30115 0.150249 3.31672
files/tasks_parameters/ExAp01/sample10.txt 0.592935 3.17098 1.61789 0.153776 3.39458
files/tasks_parameters/ExAp01/sample39.txt 0.625574 3.26617 1.44406 0.165669 3.6571
files/tasks_parameters/ExAp01/sample19.txt 0.713938 3.63532 1.52509 0.196094 4.32875
files/tasks_parameters/ExAp01/sample20.txt 0.503191 3.20793 1.25367 0.147335 3.2524
files/tasks_parameters/ExAp01/sample43.txt 0.539263 3.11551 1.4202 0.150644 3.32545
files/tasks_parameters/ExAp01/sample32.txt 0.612487 3.5311 1.42482 0.168744 3.72499
files/tasks_parameters/ExAp01/sample45.txt 0.733026 3.80283 1.48324 0.19807 4.37236
files/tasks_parameters/ExAp01/sample26.txt 0.613601 3.21645 1.29701 0.166061 3.66577
files/tasks_parameters/ExAp01/sample5.txt 0.63971 3.5889 1.52559 0.178903 3.94926
files/tasks_parameters/ExAp01/sample21.txt 0.655686 2.75242 1.55936 0.19512 4.30724
files/tasks_parameters/ExAp01/sample38.txt 0.582435 3.31563 1.37515 0.166157 3.66788
files/tasks_parameters/ExAp01/sample1.txt 0.719415 3.74964 1.51696 0.19701 4.34895
files/tasks_parameters/ExAp01/sample15.txt 0.646916 3.32916 1.48508 0.180707 3.98908
files/tasks_parameters/ExAp01/sample24.txt 0.598612 3.45951 1.59549 0.16529 3.64875
files/tasks_parameters/ExAp01/sample3.txt 0.89291 3.70014 1.70809 0.237107 5.23409
files/tasks_parameters/ExAp01/sample6.txt 0.640699 3.33003 1.58323 0.184714 4.07753
files/tasks_parameters/ExAp01/sample30.txt 0.813927 4.1841 1.4861 0.239623 5.28963
files/tasks_parameters/ExAp01/sample42.txt 0.651597 3.43221 1.70276 0.177383 3.91569
files/tasks_parameters/ExAp01/sample4.txt 0.738713 3.72477 1.6136 0.196448 4.33655
files/tasks_parameters/ExAp01/sample28.txt 0.578997 3.11323 1.45032 0.158819 3.5059
files/tasks_parameters/ExAp01/sample18.txt 0.537863 3.47418 1.45209 0.149064 3.29055
files/tasks_parameters/ExAp01/sample35.txt 0.69287 4.57086 1.49394 0.185031 4.08452
files/tasks_parameters/ExAp01/sample47.txt 0.607371 3.13768 1.52397 0.16417 3.62402
files/tasks_parameters/ExAp01/sample49.txt 0.553192 3.13288 1.49657 0.156154 3.44707
files/tasks_parameters/ExAp01/sample41.txt 0.557612 2.81964 1.49636 0.150876 3.33056
