0.17426063117000376
Task0 1 3 1 
Task1 1 7 1 
Task2 7 7 7 
Task3 15 7 3 
Task4 7 15 31 
Task5 3 1 1 
Task6 7 15 15 
Task7 15 1 15 
Task8 1 1 1 
Task9 15 7 3 
Task10 31 31 3 
Task11 3 31 31 
Task12 7 1 15 
Task13 1 1 1 
Task14 15 1 15 
Task15 1 31 7 
Task16 3 3 1 
Task17 1 1 7 
Task18 1 1 3 
Task19 1 3 15 
Task20 3 7 7 
Task21 15 7 15 
Task22 1 7 15 
Task23 3 3 3 
Task24 3 3 3 
Task25 15 15 15 
Task26 7 31 31 
Task27 1 3 1 
Task28 15 31 7 
Task29 7 15 1 
Task30 255 255 255 
Task31 31 3 63 
Task32 3 31 7 
Task33 3 1 1 
Task34 31 63 7 
Task35 1 3 1 
Task36 1 3 3 
Task37 1 1 1 
Task38 31 15 1 
Task39 1 1 3 
Task40 15 3 31 
Task41 15 31 31 
Task42 63 3 1 
Task43 7 1 3 
Task44 1 3 1 
Task45 15 7 15 
Task46 31 31 3 
Task47 7 1 3 
Task48 15 3 63 
Task49 15 15 31 
Task50 1 7 3 
Task51 3 3 3 
Task52 3 7 15 
Task53 7 7 31 
Task54 7 1 7 
Task55 15 63 7 
Task56 1 7 7 
Task57 7 31 1 
Task58 7 7 1 
Task59 7 3 3 
Task60 7 3 3 
Task61 15 7 15 
Task62 1 1 3 
Task63 7 31 1 
Task64 15 15 7 
Task65 15 3 3 
Task66 3 1 3 
Task67 7 7 3 
Task68 7 7 7 
Task69 3 1 1 
Task70 7 3 3 
Task71 7 7 7 
Task72 7 7 1 
Task73 1 3 3 
Task74 7 1 3 
Task75 7 3 7 
Task76 3 1 1 
Task77 1 3 3 
Task78 1 3 1 
Task79 15 1 31 
Task80 3 7 15 
Task81 3 1 15 
Task82 31 7 1 
Task83 7 7 3 
Task84 7 1 15 
Task85 1 3 7 
Task86 1 7 3 
Task87 3 7 3 
Task88 3 15 7 
Task89 1 7 1 
Task90 15 7 1 
Task91 15 3 3 
Task92 1 15 31 
Task93 31 31 1 
Task94 7 31 31 
Task95 3 3 1 
Task96 3 15 15 
Task97 7 1 1 
Task98 3 15 3 
Task99 3 15 15 
