files/tasks_parameters/ExAp01/sample8.txt 1.19432 6.77015 2.19458 0.288816 9.75369
files/tasks_parameters/ExAp01/sample12.txt 1.39118 9.58351 2.46081 0.337498 11.3977
files/tasks_parameters/ExAp01/sample2.txt 1.2353 8.44418 2.50701 0.319127 10.7773
files/tasks_parameters/ExAp01/sample44.txt 1.05642 6.96299 2.23089 0.28229 9.53329
files/tasks_parameters/ExAp01/sample27.txt 1.23935 7.74306 2.16676 0.28602 9.65924
files/tasks_parameters/ExAp01/sample17.txt 1.10305 7.35053 2.25579 0.292348 9.87294
files/tasks_parameters/ExAp01/sample9.txt 1.04937 6.89392 2.21068 0.282399 9.53696
files/tasks_parameters/ExAp01/sample34.txt 1.12237 6.62788 2.3772 0.297742 10.0551
files/tasks_parameters/ExAp01/sample40.txt 1.06139 7.75686 2.17534 0.285619 9.64572
files/tasks_parameters/ExAp01/sample33.txt 1.30264 8.14826 2.6463 0.338073 11.4171
files/tasks_parameters/ExAp01/sample48.txt 0.95417 7.64107 2.14272 0.270011 9.11861
files/tasks_parameters/ExAp01/sample29.txt 1.11709 7.139 1.93769 0.286306 9.6689
files/tasks_parameters/ExAp01/sample11.txt 1.09126 6.88688 2.12981 0.280008 9.45623
files/tasks_parameters/ExAp01/sample14.txt 0.975002 6.11983 1.97599 0.247458 8.35695
files/tasks_parameters/ExAp01/sample0.txt 1.2466 8.2738 2.14256 0.289132 9.76434
files/tasks_parameters/ExAp01/sample7.txt 1.05179 6.87011 2.05821 0.269886 9.11437
files/tasks_parameters/ExAp01/sample23.txt 1.07028 6.52032 2.38087 0.291712 9.85146
files/tasks_parameters/ExAp01/sample13.txt 1.19848 8.73247 2.33415 0.295393 9.97577
files/tasks_parameters/ExAp01/sample22.txt 1.16699 6.9777 2.28948 0.283979 9.59033
files/tasks_parameters/ExAp01/sample25.txt 1.0077 6.23444 2.2122 0.267298 9.02697
files/tasks_parameters/ExAp01/sample36.txt 1.00109 6.6174 1.9458 0.253823 8.57191
files/tasks_parameters/ExAp01/sample46.txt 1.36779 7.42369 2.49128 0.327273 11.0524
files/tasks_parameters/ExAp01/sample31.txt 0.997292 7.22028 2.13584 0.25377 8.57012
files/tasks_parameters/ExAp01/sample37.txt 1.19078 8.90704 2.16981 0.295708 9.98643
files/tasks_parameters/ExAp01/sample16.txt 1.03353 8.18243 1.88294 0.24945 8.42423
files/tasks_parameters/ExAp01/sample10.txt 1.09047 6.96646 2.31217 0.285748 9.65006
files/tasks_parameters/ExAp01/sample39.txt 0.956385 6.4161 1.97266 0.251967 8.50923
files/tasks_parameters/ExAp01/sample19.txt 1.27593 8.16711 2.23199 0.308463 10.4172
files/tasks_parameters/ExAp01/sample20.txt 0.967182 7.28549 1.88944 0.25994 8.77849
files/tasks_parameters/ExAp01/sample43.txt 0.929164 6.86804 2.00142 0.25616 8.65085
files/tasks_parameters/ExAp01/sample32.txt 1.06114 8.15663 2.12995 0.281726 9.51425
files/tasks_parameters/ExAp01/sample45.txt 1.0548 7.75184 2.10599 0.274935 9.28489
files/tasks_parameters/ExAp01/sample26.txt 0.908772 7.4944 1.88956 0.267248 9.02529
files/tasks_parameters/ExAp01/sample5.txt 1.17984 8.08362 2.09961 0.28454 9.60928
files/tasks_parameters/ExAp01/sample21.txt 0.903973 6.11814 2.17119 0.26143 8.8288
files/tasks_parameters/ExAp01/sample38.txt 0.989466 7.761 1.96293 0.263659 8.90409
files/tasks_parameters/ExAp01/sample1.txt 1.08465 7.83752 2.13261 0.289228 9.76759
files/tasks_parameters/ExAp01/sample15.txt 1.00242 7.37971 2.12057 0.285825 9.65268
files/tasks_parameters/ExAp01/sample24.txt 1.20172 8.28531 2.25272 0.296628 10.0175
files/tasks_parameters/ExAp01/sample3.txt 1.29067 7.33359 2.39135 0.305084 10.3031
files/tasks_parameters/ExAp01/sample6.txt 1.02084 7.09894 2.24425 0.281804 9.51688
files/tasks_parameters/ExAp01/sample30.txt 1.33159 8.17669 2.03701 0.299204 10.1045
files/tasks_parameters/ExAp01/sample42.txt 1.17809 7.70416 2.42413 0.29743 10.0446
files/tasks_parameters/ExAp01/sample4.txt 1.19366 7.41691 2.36261 0.307803 10.3949
files/tasks_parameters/ExAp01/sample28.txt 0.997469 7.0562 2.07657 0.266428 8.9976
files/tasks_parameters/ExAp01/sample18.txt 1.06489 7.60139 2.1377 0.268016 9.05123
files/tasks_parameters/ExAp01/sample35.txt 1.28267 9.66795 2.28028 0.32244 10.8892
files/tasks_parameters/ExAp01/sample47.txt 0.98677 6.84842 2.12104 0.251655 8.49869
files/tasks_parameters/ExAp01/sample49.txt 1.10743 7.1497 2.11412 0.255889 8.64169
files/tasks_parameters/ExAp01/sample41.txt 1.02535 6.59911 2.07359 0.265885 8.97928
