Task0 0.1339861960349469 0.11340834864470876 0.6736428898150298 0.010038091144568098 0.7918648589932631 0.7519206648465635 0.8608504965812009 
Task1 0.1760169392467091 0.2985668649139849 0.21677985620982163 0.2559257051145682 0.48471302310710923 0.9511637464387648 0.7072808691635475 
Task2 0.015295121598031617 0.14052957391020313 0.12578142378108376 0.16694852000670157 0.7705430709832196 0.9548613452483468 0.4767956737278941 
Task3 0.021009432114206177 0.19880073444397095 0.3157371395318903 0.08311380935156523 0.34276002195717314 0.510655759033606 0.8375946336197593 
Task4 0.11839979396084431 0.1330858384895068 0.24006549856233175 0.39326797560476234 0.32472557306991484 0.649229032045246 0.5226530449180872 
Task5 0.14456046791087868 0.5400597908768228 0.022516123107289187 0.2363989022689468 0.9308539457482468 0.38377132018328386 0.4761401114496804 
Task6 0.04113663388253865 0.5143507064973588 0.033466250590440866 0.35488438136792444 0.6277999459809606 0.6668092854837412 0.9626605150963583 
Task7 0.012914225372489164 0.29249274008729004 0.40683989304231793 0.25732510427227623 0.7861686350842934 0.7027285136687262 0.5846380464010665 
Task8 0.05478285074723234 0.20802775943184001 0.28598877558132696 0.32071549070337546 0.38136522230291187 0.6684958710621673 0.8430449642013154 
Task9 0.014438211825213104 0.04050764276049152 0.018778721562163644 0.002332593092301769 0.9960795993832838 0.9986058096536812 0.5494702712564754 
Task10 0.12678406725290706 0.2834635346208011 0.14338533341654547 0.3712945380425851 0.5661052789791462 0.5049391677435608 0.6253161735558466 
Task11 0.009333559921931741 0.5939437101010471 0.1279042709060943 0.05545347688987321 0.5874967751393982 0.3651262637017554 0.4159467156882165 
Task12 0.18274364133536233 0.41560862663189446 0.12607423567809123 0.2632963049729841 0.7782826623662426 0.32799493156000253 0.32843711086357813 
Task13 0.06696292843762827 0.1377019870556244 0.12123363104682855 0.1480104507099529 0.6525545875991952 0.5450859489759529 0.40428664690983146 
Task14 0.08213650643867268 0.2988024365012615 0.39623411543422254 0.05360359881463389 0.5529301871308743 0.47154765848066627 0.7313535532670753 
Task15 0.16666531353477987 0.34588475513237066 0.21359200267951423 0.1484984694430663 0.40675138437689545 0.8505782051672972 0.44152546745808496 
Task16 0.0584567030646248 0.0845832975716875 0.39724398377663744 0.19532907222920884 0.5841477384369302 0.7145020655760315 0.9729653315958091 
Task17 0.002942263132787981 0.18612295234183512 0.19584295818937977 0.1886154478753028 0.8134865864143765 0.7869612227526146 0.56091839084928 
Task18 0.029356203270292643 0.10120322616270452 0.038416061782049475 0.2197719444364724 0.7629289231804779 0.4068480826046387 0.4107739171121188 
Task19 0.10435834749096523 0.21507081128897168 0.0002670208312588949 0.5780718141744067 0.8463463999917193 0.3197770667363443 0.39948076844685954 
Task20 0.09192683165343661 0.20514300004365768 0.19024908315238143 0.21193794315153658 0.9485148653635509 0.8115418585150682 0.7332135227739753 
Task21 0.020582543224378736 0.061834808359061494 0.19647276621982454 0.017828302526034043 0.7759934738509265 0.7102448202787371 0.7930975669078633 
Task22 0.014722475138735343 0.003036638714555244 0.5005193080102417 0.4017163603248261 0.6895761193332357 0.9582620354849616 0.36918832693400505 
Task23 0.16220398682915452 0.4909699749151882 0.03850513323763322 0.29371463788800756 0.6573525735367511 0.3047431357763695 0.7990814311332651 
Task24 0.09501229601649992 0.1090433640912387 0.5869944653225985 0.09361352758788108 0.4852015099143165 0.6200728352387905 0.6178766581847503 
Task25 0.014097431365517782 0.18086745845768612 0.48708784590405807 0.024272563036384594 0.6592299386646924 0.9336064546875784 0.3808222357505684 
Task26 0.004352613086081405 0.002540232795069573 0.007051524919799451 0.01659513071896304 0.7090267320429509 0.6946317951782285 0.30040492914882144 
Task27 0.16156210695216014 0.3274421276054647 0.3322419090390797 0.15401334754859713 0.7927024302821126 0.3375369555293941 0.9535281605110086 
Task28 0.00965528516436324 0.23235760940363845 0.0964065295497453 0.19660548223258423 0.4173763342936365 0.9277771670006618 0.9442043936448823 
Task29 0.06210705738685793 0.2389191649549898 0.1169680178073272 0.23842962634988998 0.3640268699780135 0.48484958958102753 0.30845160030718466 
Task30 0.05812322086877488 0.012439942025886663 0.0838611311076478 0.18431645051663176 0.7722302383712741 0.8625616755993448 0.4527143259786487 
Task31 0.02011092399252583 0.12460985007688592 0.14509672521038197 0.11496400432552392 0.9324569693982405 0.6633759910149962 0.9664477011722432 
Task32 0.16651357585056817 0.4127424664502534 0.13553945392435493 0.2648152831435283 0.9797715947661492 0.44891073310681845 0.9885060401742223 
Task33 0.08260122860617808 0.3199325310081938 0.08359971350796917 0.1100594854149651 0.8444610172296341 0.8056001732534839 0.5806327477111655 
Task34 0.11433460925925852 0.2651168760462404 0.1885857504108302 0.32054103054040467 0.7240108310765259 0.5110184016751282 0.3567830713304735 
Task35 0.09658202826308802 0.2164196582843658 0.3166317653654735 0.3076222954148484 0.9990291714053179 0.5210678475682655 0.30713441242265743 
Task36 0.0029510644200013325 0.04405375940127192 0.161745523819642 0.05006656743711855 0.8221010304012597 0.31392923402047535 0.3022619561340292 
Task37 0.037271967920730995 0.13367728413392238 0.22578737998224352 0.13140935145885677 0.3701413066602445 0.9394317095957778 0.9219735477336688 
Task38 0.09272249289779189 0.18268221804730506 0.3027442472885109 0.15458897910467667 0.7139142376743725 0.6223356481152715 0.44611389274468993 
Task39 0.03348654993498998 0.10192860060064161 0.08081911411508827 0.14357402099918984 0.7883320915729846 0.6338051969784222 0.8452717887015009 
Task40 0.0885694581733238 0.17837431399085957 0.11201309953589744 0.07452708788558553 0.925721799317875 0.8987750509940333 0.5084678144998357 
Task41 0.0574980408718104 0.20248809419028352 0.17328093566085478 0.18807289145053785 0.6705983512440048 0.76079800734032 0.6567094210611719 
Task42 0.0006315292780250595 0.0009055171029215297 0.029233767523074942 0.007988667589473197 0.4108802156528912 0.8879089445988393 0.7390582793579931 
Task43 0.004535606040622986 0.04126945449948558 0.03866071417955064 0.0738374933629762 0.36837377437480273 0.4996805229207144 0.7586577543723606 
Task44 0.0709830584730207 0.10542151026485254 0.09236290277001254 0.14688799801911429 0.8444338805931371 0.30453839450167036 0.4634238284058062 
Task45 0.03712154135638241 0.07376217119493239 0.2186306583987613 0.19589777857097884 0.8385548023948213 0.762277792925564 0.6774790217524536 
Task46 0.09951411300551156 0.18660742364170463 0.18625710683397723 0.06555430437451448 0.746175107271233 0.8050154460819443 0.6615716890744627 
Task47 0.0048721218317285325 0.11647111488863489 0.061260936464266336 0.022140081534273912 0.8435210949440226 0.6592359900181137 0.39548093633407766 
Task48 0.07290300142998116 0.18683795948554754 0.022949053565752765 0.2083381099540687 0.5159388004099024 0.44758558611130217 0.6886388316567744 
Task49 0.014273266495996818 0.526586327131746 0.2703971005390332 0.16594355522973112 0.7009812041477665 0.3945496984280245 0.3315352617542721 
Task50 0.026268270064180275 0.06263105757891498 0.22835838840917866 0.11256878125933176 0.7429202118699718 0.6040743343769679 0.3300920157521427 
Task51 0.08050745779946301 0.19107392102216186 0.1714154602383637 0.13823626831346275 0.7600595078605272 0.3079716807773565 0.9223864121964898 
Task52 0.02493150041503327 0.027835504745757248 0.12639459528378044 0.1569127374920284 0.6821269134628734 0.34235848825147003 0.9506263478609247 
Task53 0.031403220089071295 0.10817626527898717 0.512455459791769 0.16979603439691823 0.41882475888147275 0.9235677682884094 0.523694834109485 
Task54 0.07453105925207293 0.32072330055713477 0.06515344370293595 0.2409536807164515 0.8064006825460008 0.4908743524532827 0.7459494297393368 
Task55 0.0493519906877409 0.07652835660423873 0.30705491967718046 0.1514638224450495 0.6481939560667527 0.6920068963438137 0.6521991301127024 
Task56 0.030030784564689387 0.006993129874265424 0.2123421180264146 0.07881319497293172 0.37737532570700183 0.4084464357415633 0.48986967176544494 
Task57 0.08414167508226325 0.2007568457855541 0.10815015541207078 0.4688927195996457 0.5570527057072969 0.7517040745949145 0.3077911370741632 
Task58 0.07825169227815336 0.07683927018776271 0.19081969743190716 0.15458162627665353 0.7794458729480958 0.68097234073135 0.31186626833761444 
Task59 0.012352462765179484 0.14783573845777562 0.04987206814216817 0.22597425333621937 0.5325624921196556 0.7922947480330118 0.7506702603803435 
Task60 0.03373779932774443 0.21075697461719675 0.08147993237410453 0.2187754941156256 0.6600339280892562 0.6370054743243299 0.5925257065942295 
Task61 0.004215644263505984 0.021305324433758644 0.022598167125866066 0.012224983954425577 0.9917561394857681 0.7649963274865261 0.3262146077772273 
Task62 0.12254575877054448 0.282106869165236 0.10070226185184815 0.35593249097242663 0.9066805229426713 0.5070795615451489 0.7544691937855633 
Task63 0.11847812744067383 0.35636636151968476 0.09978731068979388 0.2761762144377764 0.9152916665991435 0.4253676533633425 0.8521205990270075 
Task64 0.004805588308584274 0.03576703867945047 0.04419015999769126 0.03568577035196212 0.35679198952607477 0.47191582856547576 0.6025127129654739 
Task65 0.043165149985652664 0.06619345298441423 0.08663253793644245 0.09532972705756394 0.5294194653025232 0.812184640122996 0.891527876233043 
Task66 0.06490361737882049 0.25770230798283433 0.16778889681163814 0.199898616905634 0.5644545538473431 0.8518691846673123 0.5845174687089785 
Task67 0.11183004034937859 0.17405033128575095 0.1593921726509292 0.2748541030446852 0.32167022192074707 0.5605288121532466 0.9924543012838727 
Task68 0.08049569452349062 0.3257450904236392 0.16414441112599715 0.11397252909961167 0.6362728983155118 0.9965776688387937 0.7407496582990757 
Task69 0.005038354072290673 0.020075291612762704 0.005305683710064584 0.007059985192188724 0.964395223339847 0.8479417241152498 0.8931671474787906 
Task70 0.08503723515526125 0.18675752399017256 0.1927258045587647 0.18518283197702304 0.7407827299194008 0.47420101156632166 0.9686920428463852 
Task71 0.03185373318591729 0.06102998990975267 0.0013418442888322845 0.21054793438551425 0.6228099603201067 0.3561582657561476 0.8912708966897338 
Task72 0.06343367680302746 0.03559948327761499 0.07293772271237714 0.24182236202089807 0.6406726171032036 0.55588171700005 0.49545690747305593 
Task73 0.011184113850937498 0.013827187950571654 0.04391163119633704 0.050585779489159696 0.8441452930557816 0.922797577564668 0.8535878686681679 
Task74 0.03311800668882075 0.0675056715373832 0.06253176553340568 0.030425372064350177 0.5450757211037298 0.9619292924665825 0.7611746732568422 
Task75 0.04497704694082857 0.12139389260532145 0.1390511882914772 0.061149897026381995 0.5800830793344829 0.6466770333566783 0.8386554933253596 
Task76 0.011588543458366463 0.014355423492994651 0.006003366463991829 0.04676367033345119 0.6737415571929535 0.581927105532121 0.5337976367857361 
Task77 0.1539587954808002 0.10034797096639812 0.32155453277974455 0.395232752093585 0.5393436185013678 0.8303465009983004 0.3527767052506608 
Task78 0.012319887746147288 0.025394729839436275 0.010406186897387499 0.019219061350049145 0.4935413009097951 0.3416189572147863 0.38326133408430574 
Task79 0.024939859623279274 0.16778067268244157 0.18682959682889155 0.0241991882640874 0.3272931038872254 0.5540243099531184 0.8160540805094356 
Task80 0.009980733112046076 0.05770627559822729 0.0367934279547344 0.013314771628150372 0.31818764515968895 0.44117915413137543 0.4102376073310221 
Task81 0.09477230241040294 0.14858211837599483 0.1301847843801806 0.14823541442555804 0.4832608307897931 0.5329846204152772 0.7158607627643667 
Task82 0.007390495946320665 0.17280451837068933 0.15081210959779015 0.09712718025012941 0.41127044267587165 0.43059204297886433 0.4317261634305322 
Task83 0.011545833367003025 0.3609726677807763 0.1166775071772956 0.18321681936903703 0.41033364537566674 0.6678008233486981 0.7841701342378977 
Task84 0.09680678353918884 0.20379541093229112 0.19540018483934368 0.061485245939363976 0.44888152535351056 0.4011850804254342 0.8731662587879225 
Task85 0.08304157645490852 0.5383631202297248 0.03394271012690798 0.10132869323964455 0.9556140324980562 0.3885875082959841 0.9021652446877098 
Task86 0.027308605401993508 0.49596063426585685 0.4212886480267884 0.04588056853345707 0.9158400543188419 0.7034013353600439 0.6355090921530915 
Task87 0.11895378360670947 0.35922952732674424 0.2334259663168629 0.006002701665662108 0.5986435364881091 0.524956008312842 0.45292598355547337 
Task88 0.004455311835819148 0.018515580854777922 0.0437035120261014 0.04889317974529542 0.40745566508011916 0.9691757676641652 0.39397377343158824 
Task89 0.012450292331821171 0.04171112747205657 0.25778044390905536 0.23424497130536276 0.8458098299885088 0.7067525562730872 0.8759869794442074 
Task90 0.0002480509221257698 0.05619502007414928 0.15755876436362076 0.04767146705792506 0.8625546496285306 0.4156539105189277 0.738561710027992 
Task91 0.06966973810289823 0.28137468517766484 0.25109469398907897 0.2060475924724811 0.5000357118048329 0.4690489828764014 0.3458525029213576 
Task92 0.0563630140358337 0.2477095934126686 0.24763990386374488 0.28306361410732217 0.6514365552242027 0.4457696434514763 0.6022557285894561 
Task93 0.003987170269334693 0.32514727536633237 0.19474060523043582 0.04781076055275151 0.9407177987911748 0.7013619313092252 0.40008018952156715 
Task94 0.014107746360500844 0.32997630094483543 0.444778326838386 0.07079648909905074 0.41760183213017626 0.8898099807316056 0.4701167683118016 
Task95 0.014923697024942697 0.023340935672061424 0.023358550502537653 0.022065448926752294 0.6651092220258004 0.4727798245575695 0.7599584148349869 
Task96 0.010735311761328116 0.06178633952744249 0.017501939334128296 0.0943899513395866 0.6735445396030393 0.3360967101381234 0.46778600310532925 
Task97 0.026014534067708255 0.5456755717250216 0.17124955996606747 0.08472707624550138 0.815040946816241 0.5419445138062017 0.5640860946334889 
Task98 0.012891917213479546 0.22847904588546947 0.10429415196087354 0.13233509621922565 0.7549909630089001 0.7805972122321343 0.5058124443595893 
Task99 0.12862774755793357 0.3515715710452951 0.34061016712674064 0.015279821833274735 0.3078921098166009 0.6374905486112525 0.7373042574940831 
