Task0 0.09985065689241689 0.14952485096856805 0.18129386375413695 0.2961685886897305 0.8881896500749695 0.8334917258113947 0.8651392594564773 
Task1 0.09157035812572538 0.03830004257822304 0.4889839629064891 0.11488955805302364 0.626942330693768 0.7612426276498092 0.796955635539949 
Task2 0.06379455393614443 0.18058847288679755 0.09387754880653874 0.3493218377555873 0.6756428296829051 0.8004189488755722 0.7396389899535931 
Task3 0.05107980004708054 0.20268492055900542 0.0535244788193971 0.17305729028254654 0.9315636329598067 0.7526164929617167 0.9907194790106575 
Task4 0.0363992910549303 0.3342633045539588 0.12805680280913218 0.2859649647548533 0.969962844953248 0.926081042049749 0.37976637899826515 
Task5 0.014779593523657538 0.20279761335366153 0.14166203696519997 0.21700703109326724 0.7178226133963321 0.8501192071334474 0.7665943519963205 
Task6 0.011450637205493462 0.015933234127988947 0.09506737767968625 0.4949196112477168 0.5804693111123764 0.49077558319495596 0.9028497390790811 
Task7 0.11901049714771085 0.2637741075482616 0.23002537591977046 0.04819267180969659 0.3537898249919696 0.9166190457053514 0.6749843266525957 
Task8 0.020562110795263735 0.04807879992867801 0.048459902114527144 0.08303968570143179 0.805273038998656 0.37552970708794997 0.4760437398605063 
Task9 0.006232373669005326 0.2219863341519282 0.05024172403463056 0.18729052708052668 0.5353499403560953 0.606375357129386 0.9290355938429407 
Task10 0.1257599128448214 0.03937477789033623 0.41536944718164526 0.16310004784791365 0.3059322341104049 0.7105996097655326 0.35512173058403956 
Task11 0.05824452382561192 0.1258162415904781 0.14760937281843306 0.021389520683667944 0.7196671598560418 0.8677051182750852 0.35258869592809183 
Task12 0.00018354322055824527 0.12367800490662728 0.025690134845949262 0.029917052709066996 0.9039363226834594 0.38071744809300745 0.7497347890802424 
Task13 0.004570825378204237 0.18504964661249584 0.27442643694365915 0.31392646973360666 0.8452121290563999 0.9348175064577731 0.3578872625749274 
Task14 0.08618184642658806 0.0736267548318871 0.1480991804595719 0.36151339205101285 0.45431087401906783 0.9054458316764282 0.5593187323506813 
Task15 0.04602096171028523 0.099280292668741 0.10157081362533892 0.1665226239881743 0.5953696908571575 0.5954937649928437 0.6379731840666394 
Task16 0.020312951341058295 0.14817078701468067 0.07503999081613376 0.15295385850279433 0.7722145422487066 0.40796607065527263 0.9823745972020752 
Task17 0.12364847894877039 0.21303604097818252 0.19775037150464353 0.11085766157403515 0.5016378034829053 0.8058011810331653 0.44974906846929963 
Task18 0.04973765955502816 0.17941435535713784 0.24941407519376774 0.170358713038325 0.6025983452430484 0.4915216834457283 0.9148158553534029 
Task19 0.012076932777154593 0.0474877515879142 0.015726190505934153 0.0009426661757464515 0.43979864477990555 0.8065354573189778 0.7113563609030332 
Task20 0.12068845575298352 0.3977773861345717 0.3195696381324715 0.012181820799324651 0.7785470234715997 0.8551238975344282 0.940253206224082 
Task21 0.0720178969836753 0.27951493978364456 0.00934274732361471 0.459082208284333 0.329580658414003 0.49900967647184513 0.9917902944976702 
Task22 0.07508737519751467 0.07153240541825795 0.13687278217012055 0.47332186534542675 0.5806985540889845 0.8135416482881657 0.9475910035629227 
Task23 0.009611450275700225 0.029044986342501782 0.03175780031918001 0.021959197994458005 0.8290883118539303 0.3524982926915487 0.37194172352893673 
Task24 0.037494913915535354 0.05304941886200393 0.08776969933810257 0.0462840905307195 0.5817686082161346 0.4295734719816173 0.5782047690956573 
Task25 0.01774330964400232 0.13392329625495691 0.1469153192891708 0.024645638873791745 0.9387280291420999 0.9662010492192097 0.6846646634006784 
Task26 0.028290675682893944 0.25643815346648546 0.06342989586920725 0.16900516016774642 0.45779414967591003 0.3954714114109744 0.9619117906875705 
Task27 0.03927884102157102 0.2397932236456845 0.08560802803544887 0.162653618398129 0.5883791663221927 0.6629144343077363 0.5227182384700924 
Task28 0.002469559976449352 0.013571185617180643 0.07138317719921042 0.07100372224671146 0.8733952220278978 0.501113924470625 0.48289814014387344 
Task29 0.17545442951309223 0.12023230244502014 0.34410119022710456 0.2627261726099625 0.4637839719395703 0.6708684262873978 0.989583544783279 
Task30 0.01247859415135692 0.250839888411541 0.26520619100607173 0.08095696894581404 0.9448959099932104 0.9039212664045488 0.4613940079257315 
Task31 0.04727187545749384 0.12972481729200466 0.20912890580525373 0.13982301535883856 0.7926913316746236 0.9660595711479134 0.6949057095496276 
Task32 0.0406951534264513 0.08429935684042937 0.11642124621925204 0.053973267875165265 0.5433510333307892 0.9611967944768065 0.7326607061527832 
Task33 0.05158079889579939 0.7203387807835819 0.0035295620611157296 0.12120767613166804 0.777911935626755 0.6979661301291609 0.4233282812320702 
Task34 0.035040188534661926 0.08926505520010015 0.07897735550163873 0.2538890578660513 0.4810233722259878 0.42174227620781474 0.34249328577215254 
Task35 0.12524687898654535 0.31515400767270263 0.23402232010646914 0.11268968800907374 0.902443966174348 0.5388478207503734 0.46291713613441743 
Task36 0.010183978385884036 0.06953336410554749 0.15980825741746854 0.19652704849184768 0.5994024053922615 0.6777115365022772 0.3905795913300727 
Task37 0.007440230166038874 0.055551291796135605 0.07119446539166355 0.012082841603216484 0.7224299706790095 0.9953945427409374 0.7760291340664209 
Task38 0.13169927157973088 0.21396645564765152 0.2753324013252653 0.15371587960363656 0.8087995010564968 0.3368619057336352 0.6650905182515185 
Task39 0.0632721905459067 0.2514344633643785 0.015918785878654307 0.05588884244292035 0.6165739439654983 0.3137953459802723 0.46024984625278537 
Task40 0.0390970605249446 0.11863280361759038 0.13173252513331318 0.10497141159414813 0.8177070389057184 0.3079117896739931 0.9441474089106889 
Task41 0.11771987379815398 0.24084746709579896 0.17904313508530928 0.2077271282747602 0.7721094241154167 0.7181612225642672 0.8197397896508349 
Task42 0.10987596767675457 0.24902753482223444 0.14022196265394543 0.19395235554163334 0.9193554206570855 0.9301864253530963 0.5190713979454277 
Task43 0.014025406208722566 0.5471444616785155 0.18695900616147346 0.10689900541874951 0.46675760221860496 0.36560166672025374 0.4221333585623762 
Task44 0.0670958784657963 0.13699094198382064 0.059996037355633094 0.08549394882388923 0.3390684643542433 0.4842766979008675 0.3907176176486921 
Task45 0.007654341927563605 0.06777122210535957 0.19010951227675799 0.16596247220796317 0.9147016170016358 0.7244690414682995 0.7452380452910226 
Task46 0.06880826099095771 0.2890602745949714 0.24746984569355673 0.28292452110855854 0.9353606399352277 0.585438620785403 0.3165073684633386 
Task47 0.12245721358941092 0.01829962787940388 0.6417247764251586 0.06825083374231512 0.4584343670783425 0.3259869034730247 0.48518093981258315 
Task48 0.04982922177737173 0.5453267617039281 0.10334912050906324 0.28877545898951823 0.46068435429224136 0.8632302424659308 0.811458651354944 
Task49 0.042729720315744284 0.15078619024658485 0.056054312759907764 0.10476008079556971 0.8081250932757145 0.5083586876165581 0.9321508610040221 
Task50 0.0662375398197086 0.09698730494743633 0.28507378683600143 0.24055742674151653 0.7587810005586055 0.7545738924205693 0.618046526945637 
Task51 0.09087915571404448 0.041708254939678786 0.16529865515362901 0.20296327870816358 0.3610995106904341 0.4812113534445608 0.42310977661304494 
Task52 0.003939553385197419 0.020317876073855604 0.022450790427507403 0.014849434934123011 0.3334388194693803 0.7111252930072346 0.9827021132171718 
Task53 0.020022040272976285 0.017961095393660895 0.18897404369696386 0.1881080875636909 0.879126306826157 0.9481217145599261 0.5750770602823623 
Task54 0.03866610908490289 0.3915479169324341 0.3448698500710261 0.02846390060345257 0.7300308629285344 0.7815609445955125 0.5001293349429254 
Task55 0.07111511219358713 0.02866503935850854 0.2117094795493943 0.19220830549085738 0.8984484842235252 0.9093208553112646 0.6077436538354255 
Task56 0.12845872753295742 0.13181785099243512 0.3196425370861697 0.13981194075104914 0.43312065230833685 0.8235162597387573 0.34995192785346063 
Task57 0.07834821051510898 0.3123612992265611 0.15040353442835064 0.10091604740262142 0.8970478364657091 0.43895634101697667 0.5776984866195513 
Task58 0.03618506400685649 0.2491623143191362 0.06864572112990405 0.09285351483824808 0.3953397151379111 0.4766009905333047 0.49994200225600854 
Task59 0.01301799637974875 0.28771673635448614 0.19047794215750014 0.20941597513664795 0.46134965945232287 0.5365363560141332 0.3849492752657161 
Task60 0.010503696402756517 0.09424046350390233 0.05678355425705262 0.08503897954425198 0.5298299668442249 0.7765303958957221 0.6036911184481857 
Task61 0.019856160736186953 0.02774618625859501 0.05527947612362825 0.008548294167713305 0.7547606195404548 0.7459707727428536 0.3735224843946824 
Task62 0.005075196986077933 0.05678251769483569 0.07950439217052928 0.005087311864136811 0.3110313949168015 0.6908711901331587 0.7740307380340523 
Task63 0.0005497330048702452 0.0014888772833398305 0.004713671266707964 0.0002901919307871531 0.4253476228185939 0.8654676114449651 0.751549977509641 
Task64 0.060674740371303645 0.07829094878688383 0.07252068152954026 0.10286553150035155 0.3808008452554068 0.9623703281099891 0.9320802348242696 
Task65 0.044198062800839155 0.2042268339567673 0.5971691936163049 0.08710470817219178 0.31248723007125034 0.47829488099112677 0.654752104188856 
Task66 0.061643870177609146 0.17590945934328694 0.07612653748155619 0.2855098786792868 0.6418057116714333 0.793846859822825 0.5945595642314252 
Task67 0.045180261521279796 0.03678692180745146 0.08409695869639498 0.08301573273624538 0.6817145859609253 0.4333270896973335 0.6931732951191575 
Task68 0.064506928107779 0.38371705258645655 0.09672063579066825 0.15548560976756817 0.5291166393501445 0.5969557224201663 0.47982512840642294 
Task69 0.013021781583259054 0.04400456812263105 0.04789453840508768 0.03477803611947924 0.6079056744067823 0.4668145010836777 0.7094416988048029 
Task70 0.1346392079852009 0.2963048214773023 0.2966655999726462 0.13953900533789815 0.6941264618990461 0.5919415258900069 0.6874168528954021 
Task71 0.07347415495231098 0.14323871713299435 0.15297312527702972 0.09741156627948551 0.5460704492227381 0.8728840631387629 0.4581362393539299 
Task72 0.006931662013161888 0.033245044653262355 0.3675516602073226 0.43350723302441413 0.8001941306514899 0.8810409927232838 0.3730464763109018 
Task73 0.0005986882787466555 0.09301674318468017 0.04021379023402236 0.0970774872318772 0.6709278273841086 0.5020817521658592 0.7949552741851748 
Task74 0.029191885679354868 0.09141698360165154 0.13741249709286957 0.059839757314318204 0.5677583945623015 0.5927796872813456 0.497919603217597 
Task75 0.017142704815629673 0.06114103481357261 0.02360408578327789 0.00023728982111085082 0.5332804103106665 0.7571629396088625 0.7365209094147838 
Task76 0.005031790331174445 0.0033351865036591716 0.017211901770893608 0.061556651818633165 0.9917361976078076 0.8435243441155551 0.7937333670012005 
Task77 0.0009656840029451183 0.003321705397661163 0.014559572843752117 0.004014769699979205 0.6465493396022683 0.972503851314483 0.9254380257349946 
Task78 0.028370502705171004 0.15432039218104204 0.24726977138043893 0.24701623063932074 0.8956309987254842 0.41059425011703304 0.831823204149869 
Task79 0.06081552778174843 0.0490605780125197 0.047859842802275586 0.2685924635039516 0.9149340205307404 0.35671459117246457 0.895239158712924 
Task80 0.006668756297396481 0.058833576928162684 0.028292246517306743 0.15280349993755055 0.9049653982491215 0.8167059291138838 0.6662799722150412 
Task81 0.06971716006776693 0.17205390994941155 0.05192093175531016 0.470507842539453 0.9609836915213419 0.4813174218421107 0.9170914229459428 
Task82 0.018235190077177926 0.2691992906210053 0.08295379126457347 0.4746453542027101 0.6493635042126924 0.8297086106316551 0.3890461902145997 
Task83 0.030719279936501757 0.33183215075098255 0.06148748398887455 0.2165898773728051 0.312504435047655 0.48073274525765497 0.3136073398330715 
Task84 0.022767178893865866 0.04026184599471371 0.11973431565646986 0.3962085895158992 0.4970518516330658 0.9780063070504137 0.7434376672986971 
Task85 0.11332072355319278 0.040311000037661 0.19034878826440227 0.3510925627375434 0.34285778761121816 0.9752276170183689 0.5887221866271535 
Task86 0.003174251484639535 0.011976799530858888 0.0806704296986318 0.08437758438297914 0.6777272249553907 0.5774629261465908 0.39700290398224247 
Task87 0.018312930121785195 0.038922304658039156 0.06266040796874053 0.08540463182711047 0.9918899476689165 0.7160349468909037 0.7975565781783822 
Task88 0.014441732149189316 0.06280820082765226 0.021075466429670366 0.06302482054286622 0.560351670484756 0.5243947190758491 0.7860750983583127 
Task89 0.036695850784481836 0.09099662428531038 0.0068306021010537 0.10392812598345123 0.737270224840196 0.40882717979436434 0.5857437245036222 
Task90 0.1197788741220666 0.17117665871692309 0.22895559633555737 0.3621403725793391 0.5397464747294906 0.7239798675083746 0.7183609662075409 
Task91 0.0783601444926244 0.18366481935469073 0.3359639894892377 0.3649072276297069 0.6554037857355056 0.47038050110525004 0.7413955849230724 
Task92 0.05887543261396559 0.12288989663609765 0.4222526964540394 0.043904370497645055 0.4309007783385902 0.3289115955860795 0.4615602999873437 
Task93 0.009472587827382487 0.010486342892406323 0.015430720581563891 0.016085389981805243 0.7079444106071919 0.7042651401783432 0.4684366430877273 
Task94 0.14907146220246692 0.5387162127645277 0.07814931295120775 0.006260469103624599 0.38345603482622553 0.7911154690083005 0.8158023794473448 
Task95 0.14100026928103238 0.14164526166932595 0.05701986742853304 0.5203659283035865 0.8248416879048008 0.44295042390631295 0.3830243297048704 
Task96 0.07457829382643702 0.4143863844970065 0.13236519840609556 0.3052508525615667 0.3817564799931308 0.9381312779478017 0.7599472691310998 
Task97 0.09645205635733545 0.33335255421032667 0.2197776133833575 0.3066115929832715 0.7058082471664466 0.3517995534204432 0.3269886940345313 
Task98 0.12244187699035532 0.241956645118341 0.2330682964145152 0.04316175802226229 0.41826035138953305 0.9835489560602895 0.6681419990153878 
Task99 0.12684156765175866 0.28909319159122443 0.3561208938329191 0.03706781133518073 0.7125526277625713 0.8498553967655404 0.5303541085533308 
