0.29291955
Task0 1 3 31 
Task1 1 15 3 
Task2 63 7 3 
Task3 7 1 7 
Task4 15 3 15 
Task5 3 7 7 
Task6 7 31 31 
Task7 31 63 63 
Task8 127 15 15 
Task9 3 1 15 
Task10 15 63 31 
Task11 1 3 31 
Task12 15 63 15 
Task13 7 63 31 
Task14 7 15 1 
Task15 1 3 15 
Task16 15 1 15 
Task17 31 3 63 
Task18 63 15 3 
Task19 7 3 31 
Task20 15 15 63 
Task21 31 1 7 
Task22 7 15 15 
Task23 31 1 31 
Task24 31 255 255 
Task25 3 31 15 
Task26 31 15 15 
Task27 7 15 3 
Task28 15 1 15 
Task29 63 1 15 
Task30 7 7 15 
Task31 7 7 15 
Task32 7 7 15 
Task33 31 1 7 
Task34 63 7 3 
Task35 7 3 7 
Task36 63 63 255 
Task37 3 7 15 
Task38 3 255 31 
Task39 31 3 3 
Task40 31 15 31 
Task41 7 7 7 
Task42 15 63 31 
Task43 15 3 7 
Task44 15 31 31 
Task45 15 3 63 
Task46 63 1 15 
Task47 15 31 1 
Task48 31 31 15 
Task49 1 31 7 
Task50 31 1 31 
Task51 15 15 3 
Task52 7 31 63 
Task53 1 15 3 
Task54 255 255 31 
Task55 31 15 127 
Task56 7 3 15 
Task57 15 15 15 
Task58 255 255 255 
Task59 7 7 15 
Task60 31 7 3 
Task61 3 15 15 
Task62 31 15 7 
Task63 1 15 7 
Task64 3 1 31 
Task65 31 31 7 
Task66 7 3 7 
Task67 63 31 31 
Task68 15 7 3 
Task69 15 3 31 
Task70 7 7 1 
Task71 31 15 63 
Task72 3 7 3 
Task73 1 3 15 
Task74 7 31 1 
Task75 15 3 15 
Task76 15 7 15 
Task77 1 31 3 
Task78 31 15 15 
Task79 15 1 15 
Task80 3 3 15 
Task81 63 1 31 
Task82 31 63 63 
Task83 63 7 63 
Task84 15 7 3 
Task85 255 255 31 
Task86 63 15 31 
Task87 1 63 63 
Task88 15 1 1 
Task89 1 15 63 
Task90 7 15 31 
Task91 63 15 31 
Task92 31 7 1 
Task93 31 1 15 
Task94 7 1 31 
Task95 31 63 7 
Task96 63 1 15 
Task97 15 15 15 
Task98 15 3 7 
Task99 31 31 1 
