files/tasks_parameters/ExAp01/sample8.txt 1.00459 3.76817 4.3855 0.450105 7.84071
files/tasks_parameters/ExAp01/sample12.txt 1.32317 5.03638 5.18776 0.610564 10.6359
files/tasks_parameters/ExAp01/sample2.txt 1.3076 4.58991 5.64606 0.613877 10.6936
files/tasks_parameters/ExAp01/sample44.txt 1.18413 3.77401 5.66946 0.551838 9.61286
files/tasks_parameters/ExAp01/sample27.txt 1.20276 4.13937 5.56136 0.55779 9.71654
files/tasks_parameters/ExAp01/sample17.txt 1.1137 3.76163 5.38341 0.520991 9.07552
files/tasks_parameters/ExAp01/sample9.txt 1.10044 3.69889 5.2981 0.511699 8.91366
files/tasks_parameters/ExAp01/sample34.txt 1.07336 3.52435 5.83741 0.49187 8.56824
files/tasks_parameters/ExAp01/sample40.txt 1.07049 4.06185 5.0335 0.496884 8.65558
files/tasks_parameters/ExAp01/sample33.txt 1.38257 4.82091 5.83886 0.651963 11.357
files/tasks_parameters/ExAp01/sample48.txt 0.982942 4.01134 5.07085 0.447927 7.80277
files/tasks_parameters/ExAp01/sample29.txt 1.35686 4.20847 5.0406 0.643694 11.213
files/tasks_parameters/ExAp01/sample11.txt 1.22314 3.94699 5.29198 0.557276 9.70759
files/tasks_parameters/ExAp01/sample14.txt 1.03462 3.54059 4.58345 0.466713 8.13002
files/tasks_parameters/ExAp01/sample0.txt 1.34934 4.82755 4.90216 0.623551 10.8621
files/tasks_parameters/ExAp01/sample7.txt 1.09899 3.60766 5.11185 0.509566 8.87649
files/tasks_parameters/ExAp01/sample23.txt 1.2647 3.81403 5.45799 0.582911 10.1542
files/tasks_parameters/ExAp01/sample13.txt 1.34037 4.8894 5.26818 0.624499 10.8786
files/tasks_parameters/ExAp01/sample22.txt 1.15354 3.76156 4.95746 0.534216 9.3059
files/tasks_parameters/ExAp01/sample25.txt 0.885107 2.94144 4.92622 0.403639 7.03128
files/tasks_parameters/ExAp01/sample36.txt 1.07088 3.56164 4.5806 0.501799 8.74119
files/tasks_parameters/ExAp01/sample46.txt 1.13593 3.84833 4.7121 0.530701 9.24466
files/tasks_parameters/ExAp01/sample31.txt 1.04915 3.764 5.08385 0.479734 8.35683
files/tasks_parameters/ExAp01/sample37.txt 1.38941 4.43254 5.65111 0.65143 11.3477
files/tasks_parameters/ExAp01/sample16.txt 1.16737 4.49741 4.8895 0.509171 8.86961
files/tasks_parameters/ExAp01/sample10.txt 1.31949 3.87086 6.07511 0.60993 10.6248
files/tasks_parameters/ExAp01/sample39.txt 1.0093 3.66299 4.54281 0.463671 8.07703
files/tasks_parameters/ExAp01/sample19.txt 1.31151 3.86694 5.14047 0.615987 10.7303
files/tasks_parameters/ExAp01/sample20.txt 1.23381 4.09945 5.13368 0.580369 10.1099
files/tasks_parameters/ExAp01/sample43.txt 1.14747 3.75825 5.55698 0.530892 9.248
files/tasks_parameters/ExAp01/sample32.txt 1.29758 4.0352 5.29178 0.587643 10.2366
files/tasks_parameters/ExAp01/sample45.txt 1.16753 3.94578 4.87833 0.541081 9.42548
files/tasks_parameters/ExAp01/sample26.txt 1.02541 3.50998 4.55035 0.474009 8.25711
files/tasks_parameters/ExAp01/sample5.txt 1.28818 4.00994 5.27725 0.587681 10.2372
files/tasks_parameters/ExAp01/sample21.txt 0.94729 2.8974 4.54677 0.430037 7.49113
files/tasks_parameters/ExAp01/sample38.txt 1.06004 3.56689 4.78573 0.492366 8.57688
files/tasks_parameters/ExAp01/sample1.txt 1.05496 3.69002 4.55048 0.481074 8.38017
files/tasks_parameters/ExAp01/sample15.txt 1.13501 3.73223 5.42493 0.524964 9.14473
files/tasks_parameters/ExAp01/sample24.txt 1.16365 4.18053 5.40377 0.542575 9.45151
files/tasks_parameters/ExAp01/sample3.txt 1.01091 3.70547 4.7118 0.470503 8.19603
files/tasks_parameters/ExAp01/sample6.txt 1.3252 4.07521 5.71419 0.626702 10.917
files/tasks_parameters/ExAp01/sample30.txt 1.35393 3.97446 5.82388 0.626709 10.9171
files/tasks_parameters/ExAp01/sample42.txt 1.19813 4.44207 5.58473 0.537025 9.35482
files/tasks_parameters/ExAp01/sample4.txt 1.19553 3.92181 4.49751 0.556974 9.70233
files/tasks_parameters/ExAp01/sample28.txt 0.949984 3.13496 4.88321 0.444588 7.7446
files/tasks_parameters/ExAp01/sample18.txt 1.15409 3.95301 4.52898 0.537438 9.36201
files/tasks_parameters/ExAp01/sample35.txt 1.62215 5.75923 6.25034 0.752488 13.1081
files/tasks_parameters/ExAp01/sample47.txt 1.15245 3.44018 5.14289 0.540033 9.40723
files/tasks_parameters/ExAp01/sample49.txt 1.07517 3.38981 4.72409 0.493041 8.58864
files/tasks_parameters/ExAp01/sample41.txt 1.04844 3.58692 5.27252 0.492391 8.57731
