0.1776403
Task0 63 7 15 
Task1 15 31 3 
Task2 127 255 3 
Task3 31 63 1 
Task4 15 1 63 
Task5 15 63 31 
Task6 63 15 7 
Task7 1 15 63 
Task8 31 3 3 
Task9 127 7 3 
Task10 3 1 31 
Task11 15 15 63 
Task12 31 31 31 
Task13 15 63 15 
Task14 1 31 1 
Task15 63 15 7 
Task16 1 3 63 
Task17 1 3 127 
Task18 63 15 7 
Task19 1 15 63 
Task20 1 63 3 
Task21 63 31 63 
Task22 63 1 7 
Task23 31 63 31 
Task24 31 3 31 
Task25 15 63 3 
Task26 127 255 63 
Task27 31 3 31 
Task28 63 31 7 
Task29 255 127 127 
Task30 31 63 31 
Task31 255 63 255 
Task32 1 15 31 
Task33 7 31 7 
Task34 63 31 15 
Task35 63 31 63 
Task36 63 1 31 
Task37 63 3 3 
Task38 15 63 63 
Task39 31 7 31 
Task40 15 63 15 
Task41 7 31 3 
Task42 255 63 3 
Task43 31 3 15 
Task44 63 3 1 
Task45 1 31 7 
Task46 1 63 31 
Task47 63 31 15 
Task48 63 15 7 
Task49 127 31 63 
