files/tasks_parameters/ExAp01/sample8.txt 1.0804 7.2562 4.46819 0.454772 11.5657
files/tasks_parameters/ExAp01/sample12.txt 1.52326 9.70908 5.28286 0.618515 15.7299
files/tasks_parameters/ExAp01/sample2.txt 1.41731 8.14159 5.7401 0.620531 15.7812
files/tasks_parameters/ExAp01/sample44.txt 1.3269 7.25164 5.75904 0.557631 14.1815
files/tasks_parameters/ExAp01/sample27.txt 1.3218 8.10944 5.64946 0.564878 14.3659
files/tasks_parameters/ExAp01/sample17.txt 1.22379 7.11225 5.46658 0.527183 13.4072
files/tasks_parameters/ExAp01/sample9.txt 1.18983 7.62559 5.37813 0.517277 13.1553
files/tasks_parameters/ExAp01/sample34.txt 1.24175 7.04587 5.93037 0.497709 12.6576
files/tasks_parameters/ExAp01/sample40.txt 1.16476 8.03037 5.123 0.502383 12.7765
files/tasks_parameters/ExAp01/sample33.txt 1.54703 9.22935 5.92956 0.659262 16.7662
files/tasks_parameters/ExAp01/sample48.txt 1.08525 8.12182 5.1577 0.452491 11.5076
files/tasks_parameters/ExAp01/sample29.txt 1.49293 8.06133 5.12331 0.650652 16.5472
files/tasks_parameters/ExAp01/sample11.txt 1.30472 7.63104 5.37897 0.563302 14.3258
files/tasks_parameters/ExAp01/sample14.txt 1.12631 6.66403 4.66322 0.471536 11.992
files/tasks_parameters/ExAp01/sample0.txt 1.46321 9.3266 4.98971 0.6311 16.05
files/tasks_parameters/ExAp01/sample7.txt 1.20315 7.34863 5.19436 0.515527 13.1108
files/tasks_parameters/ExAp01/sample23.txt 1.36438 6.68564 5.54308 0.588617 14.9696
files/tasks_parameters/ExAp01/sample13.txt 1.47105 9.31093 5.35591 0.632849 16.0945
files/tasks_parameters/ExAp01/sample22.txt 1.28317 7.65588 5.04866 0.540336 13.7417
files/tasks_parameters/ExAp01/sample25.txt 1.01203 6.17035 5.0141 0.408296 10.3837
files/tasks_parameters/ExAp01/sample36.txt 1.18338 7.03772 4.66274 0.507647 12.9104
files/tasks_parameters/ExAp01/sample46.txt 1.26811 7.73433 4.79934 0.536843 13.6529
files/tasks_parameters/ExAp01/sample31.txt 1.18179 6.96928 5.16482 0.485817 12.3552
files/tasks_parameters/ExAp01/sample37.txt 1.5345 9.52443 5.74224 0.65799 16.7338
files/tasks_parameters/ExAp01/sample16.txt 1.3058 8.63521 4.97261 0.516328 13.1311
files/tasks_parameters/ExAp01/sample10.txt 1.40957 7.28353 6.16876 0.615651 15.6571
files/tasks_parameters/ExAp01/sample39.txt 1.11475 6.3405 4.6137 0.468873 11.9243
files/tasks_parameters/ExAp01/sample19.txt 1.39059 8.85528 5.22306 0.622152 15.8224
files/tasks_parameters/ExAp01/sample20.txt 1.35626 8.1141 5.21177 0.586994 14.9283
files/tasks_parameters/ExAp01/sample43.txt 1.24787 7.21373 5.6367 0.53748 13.6691
files/tasks_parameters/ExAp01/sample32.txt 1.39917 8.30592 5.38137 0.593918 15.1044
files/tasks_parameters/ExAp01/sample45.txt 1.25309 7.94069 4.96323 0.547271 13.9181
files/tasks_parameters/ExAp01/sample26.txt 1.12282 7.57061 4.62637 0.480146 12.211
files/tasks_parameters/ExAp01/sample5.txt 1.36742 8.0307 5.35681 0.59407 15.1082
files/tasks_parameters/ExAp01/sample21.txt 1.03968 5.87802 4.61744 0.434264 11.0441
files/tasks_parameters/ExAp01/sample38.txt 1.14753 7.66999 4.86632 0.496808 12.6347
files/tasks_parameters/ExAp01/sample1.txt 1.17736 7.21312 4.63213 0.486293 12.3673
files/tasks_parameters/ExAp01/sample15.txt 1.26941 8.02273 5.50855 0.531063 13.5059
files/tasks_parameters/ExAp01/sample24.txt 1.30316 8.66348 5.4905 0.548998 13.962
files/tasks_parameters/ExAp01/sample3.txt 1.12984 7.74268 4.79918 0.477387 12.1408
files/tasks_parameters/ExAp01/sample6.txt 1.43479 8.57133 5.80157 0.633604 16.1137
files/tasks_parameters/ExAp01/sample30.txt 1.53291 8.18878 5.90888 0.633576 16.113
files/tasks_parameters/ExAp01/sample42.txt 1.3344 8.57689 5.67253 0.54426 13.8415
files/tasks_parameters/ExAp01/sample4.txt 1.27608 8.40354 4.57985 0.563519 14.3313
files/tasks_parameters/ExAp01/sample28.txt 1.03903 6.44114 4.96426 0.449721 11.4372
files/tasks_parameters/ExAp01/sample18.txt 1.34792 8.56363 4.60946 0.543766 13.8289
files/tasks_parameters/ExAp01/sample35.txt 1.84868 11.0387 6.34514 0.761377 19.3632
files/tasks_parameters/ExAp01/sample47.txt 1.22592 7.14493 5.22131 0.545046 13.8615
files/tasks_parameters/ExAp01/sample49.txt 1.24387 6.65996 4.80244 0.498533 12.6786
files/tasks_parameters/ExAp01/sample41.txt 1.14834 7.09069 5.35462 0.497129 12.6429
