files/tasks_parameters/ExAp01/sample8.txt 0.788058 3.15778 1.5595 0.203411 3.78764
files/tasks_parameters/ExAp01/sample12.txt 0.802414 3.94962 1.6705 0.207924 3.87167
files/tasks_parameters/ExAp01/sample2.txt 0.773478 3.78275 1.74131 0.200098 3.72594
files/tasks_parameters/ExAp01/sample44.txt 0.685794 3.59825 1.65317 0.200005 3.72422
files/tasks_parameters/ExAp01/sample27.txt 0.717465 3.45743 1.5148 0.182129 3.39134
files/tasks_parameters/ExAp01/sample17.txt 0.669653 2.77299 1.44514 0.14646 2.72717
files/tasks_parameters/ExAp01/sample9.txt 0.674937 2.99933 1.451 0.177444 3.30411
files/tasks_parameters/ExAp01/sample34.txt 0.682669 3.02928 1.58429 0.157984 2.94175
files/tasks_parameters/ExAp01/sample40.txt 0.730391 3.86889 1.52122 0.168379 3.13533
files/tasks_parameters/ExAp01/sample33.txt 0.782319 3.63695 1.71905 0.199765 3.71974
files/tasks_parameters/ExAp01/sample48.txt 0.651648 3.39061 1.49062 0.154728 2.88113
files/tasks_parameters/ExAp01/sample29.txt 0.75586 3.30472 1.38739 0.223868 4.16856
files/tasks_parameters/ExAp01/sample11.txt 0.720914 3.10585 1.41612 0.174079 3.24145
files/tasks_parameters/ExAp01/sample14.txt 0.664842 2.70971 1.43432 0.162214 3.02053
files/tasks_parameters/ExAp01/sample0.txt 0.718636 3.6937 1.5439 0.18367 3.42004
files/tasks_parameters/ExAp01/sample7.txt 0.627415 2.70501 1.42221 0.143463 2.67138
files/tasks_parameters/ExAp01/sample23.txt 0.709952 3.2697 1.57822 0.181448 3.37868
files/tasks_parameters/ExAp01/sample13.txt 0.734531 3.84225 1.67648 0.198247 3.69148
files/tasks_parameters/ExAp01/sample22.txt 0.654542 3.09569 1.56121 0.148796 2.77067
files/tasks_parameters/ExAp01/sample25.txt 0.62772 2.73966 1.5007 0.148149 2.75862
files/tasks_parameters/ExAp01/sample36.txt 0.614051 2.85948 1.28553 0.130042 2.42147
files/tasks_parameters/ExAp01/sample46.txt 0.754197 3.58643 1.69998 0.210103 3.91224
files/tasks_parameters/ExAp01/sample31.txt 0.692449 3.4832 1.53782 0.1722 3.20647
files/tasks_parameters/ExAp01/sample37.txt 0.741181 3.95293 1.50705 0.171701 3.19718
files/tasks_parameters/ExAp01/sample16.txt 0.602489 3.31216 1.30115 0.150249 2.79773
files/tasks_parameters/ExAp01/sample10.txt 0.697877 3.17098 1.61789 0.153776 2.86341
files/tasks_parameters/ExAp01/sample39.txt 0.68145 3.26617 1.44406 0.165669 3.08485
files/tasks_parameters/ExAp01/sample19.txt 0.71409 3.63532 1.52509 0.196094 3.6514
files/tasks_parameters/ExAp01/sample20.txt 0.618953 3.20793 1.25367 0.147335 2.74347
files/tasks_parameters/ExAp01/sample43.txt 0.638044 3.11551 1.4202 0.150644 2.80509
files/tasks_parameters/ExAp01/sample32.txt 0.725922 3.5311 1.42482 0.168744 3.14212
files/tasks_parameters/ExAp01/sample45.txt 0.731871 3.80283 1.48324 0.19807 3.68819
files/tasks_parameters/ExAp01/sample26.txt 0.608355 3.21645 1.29701 0.166061 3.09216
files/tasks_parameters/ExAp01/sample5.txt 0.669108 3.5889 1.52559 0.178903 3.33129
files/tasks_parameters/ExAp01/sample21.txt 0.657326 2.75242 1.55936 0.19512 3.63326
files/tasks_parameters/ExAp01/sample38.txt 0.64436 3.31563 1.37515 0.166157 3.09394
files/tasks_parameters/ExAp01/sample1.txt 0.729983 3.74964 1.51696 0.19701 3.66844
files/tasks_parameters/ExAp01/sample15.txt 0.700449 3.32916 1.48508 0.180707 3.36488
files/tasks_parameters/ExAp01/sample24.txt 0.742729 3.45951 1.59549 0.16529 3.07781
files/tasks_parameters/ExAp01/sample3.txt 0.907178 3.70014 1.70809 0.237107 4.41508
files/tasks_parameters/ExAp01/sample6.txt 0.702852 3.33003 1.58323 0.184714 3.43949
files/tasks_parameters/ExAp01/sample30.txt 0.848162 4.1841 1.4861 0.239623 4.46193
files/tasks_parameters/ExAp01/sample42.txt 0.736971 3.43221 1.70276 0.177383 3.30298
files/tasks_parameters/ExAp01/sample4.txt 0.784686 3.72477 1.6136 0.196448 3.65798
files/tasks_parameters/ExAp01/sample28.txt 0.643929 3.11323 1.45032 0.158819 2.95731
files/tasks_parameters/ExAp01/sample18.txt 0.632289 3.47418 1.45209 0.149064 2.77566
files/tasks_parameters/ExAp01/sample35.txt 0.758393 4.57086 1.49394 0.185031 3.44538
files/tasks_parameters/ExAp01/sample47.txt 0.67591 3.13768 1.52397 0.16417 3.05695
files/tasks_parameters/ExAp01/sample49.txt 0.663928 3.13288 1.49657 0.156154 2.90768
files/tasks_parameters/ExAp01/sample41.txt 0.643135 2.81964 1.49636 0.150876 2.8094
