0 7
0 8
0 9
0 9
0 10
0 11
0 12
0 13
1 5
1 7
1 10
1 13
2 5
2 6
2 7
2 10
2 12
2 14
3 7
3 8
3 10
3 11
4 6
4 7
4 8
4 9
4 10
4 11
4 12
4 13
4 14
5 17
5 19
5 20
5 21
5 23
5 25
6 15
6 16
6 19
6 20
6 21
6 22
6 23
6 25
6 26
6 27
7 16
7 16
7 17
7 19
7 20
7 21
7 22
7 23
7 25
7 27
8 19
8 20
8 21
8 22
8 23
8 24
8 26
8 27
9 15
9 16
9 20
9 21
9 23
9 24
9 26
10 18
10 20
10 20
10 21
10 23
11 17
11 18
11 19
11 21
11 23
11 26
12 16
12 17
12 19
12 21
12 22
12 23
12 24
12 25
13 16
13 17
13 19
13 21
13 24
14 16
14 19
14 19
14 20
14 21
14 22
14 23
14 25
15 28
15 31
15 32
15 34
15 35
15 36
15 37
15 38
15 39
15 40
16 29
16 32
16 35
16 36
16 37
16 38
16 39
16 40
17 31
17 32
17 35
17 36
17 37
17 38
17 39
17 40
18 30
18 31
18 35
18 36
18 37
18 38
18 39
18 40
19 28
19 31
19 32
19 36
19 37
19 38
19 39
19 40
20 28
20 37
20 38
20 40
21 28
21 34
21 35
21 37
21 38
21 40
22 28
22 29
22 32
22 35
22 37
22 38
22 39
22 40
23 28
23 29
23 36
23 37
23 37
23 38
23 39
23 40
24 28
24 32
24 34
24 36
24 37
24 38
24 39
24 40
25 28
25 29
25 32
25 33
25 34
25 36
25 38
25 40
26 28
26 32
26 33
26 35
26 36
26 36
26 38
26 39
26 40
27 30
27 32
27 34
27 36
27 36
27 37
27 38
27 39
27 40
28 41
28 44
28 45
28 46
28 48
28 49
29 41
29 44
29 45
29 46
29 48
29 49
29 50
30 41
30 42
30 44
30 45
30 46
30 47
30 48
30 49
30 50
31 41
31 45
31 46
31 48
31 49
31 50
32 41
32 42
32 44
32 45
32 46
32 48
32 49
32 50
33 44
33 45
33 46
33 48
33 49
33 50
34 44
34 45
34 48
34 48
34 49
34 50
35 41
35 45
35 46
35 48
35 49
35 50
36 43
36 44
36 47
36 49
36 49
36 50
37 44
37 45
37 46
37 47
37 49
38 42
38 43
38 44
38 47
38 48
38 49
38 50
39 41
39 43
39 44
39 45
39 47
39 49
40 44
40 45
40 47
40 48
41 51
41 52
41 54
41 55
41 56
41 59
41 60
42 51
42 52
42 54
42 55
42 56
42 57
42 59
42 60
43 51
43 52
43 55
43 55
43 56
43 59
43 60
43 60
44 52
44 52
44 53
44 55
44 56
44 59
44 60
45 52
45 53
45 55
45 59
45 60
46 52
46 53
46 54
46 57
46 58
46 59
46 60
47 51
47 52
47 53
47 54
47 55
47 57
47 58
47 59
47 60
48 52
48 54
48 55
48 59
49 54
49 54
49 55
49 59
49 60
50 51
50 52
50 54
50 55
50 57
50 59
50 60
51 61
51 63
51 64
51 65
51 67
51 68
51 71
51 71
51 72
52 61
52 62
52 63
52 65
52 67
52 68
52 69
52 71
52 72
53 61
53 64
53 65
53 66
53 68
53 68
53 73
54 61
54 62
54 65
54 67
54 68
54 70
54 71
54 72
54 73
55 62
55 62
55 64
55 67
55 68
55 70
55 72
55 72
55 73
56 61
56 62
56 64
56 65
56 66
56 67
56 68
56 69
56 70
56 71
56 72
56 73
56 74
57 61
57 62
57 65
57 66
57 67
57 69
57 70
57 71
57 72
57 73
57 74
58 61
58 62
58 65
58 66
58 68
58 70
58 71
58 72
58 73
59 61
59 65
59 65
59 66
59 67
59 68
59 69
59 71
59 72
60 61
60 62
60 65
60 66
60 67
60 68
60 70
60 71
60 72
60 73
61 75
61 76
61 77
61 79
62 75
62 76
62 79
63 75
63 76
63 77
63 79
63 80
64 76
64 76
64 77
64 79
65 76
65 77
65 77
65 80
66 76
66 77
66 79
67 75
67 76
67 77
67 79
67 80
68 75
68 76
68 77
68 79
69 75
69 76
69 77
69 79
70 75
70 76
70 79
70 80
71 75
71 76
71 77
71 79
71 80
72 75
72 76
72 77
72 78
72 80
73 75
73 77
73 77
73 79
73 80
74 75
74 76
74 77
75 84
75 85
75 86
75 87
75 90
75 91
76 84
76 85
76 88
76 89
76 90
76 91
77 81
77 82
77 83
77 84
77 86
77 89
77 91
78 83
78 84
78 89
78 91
79 84
79 86
79 88
79 89
79 91
80 84
80 85
80 86
80 88
80 89
80 91
81 93
81 94
81 96
82 96
83 92
83 94
83 96
84 94
84 95
84 96
85 94
85 96
85 96
86 92
86 94
86 96
87 92
87 94
88 93
88 94
89 92
90 94
90 96
91 94
91 96
92 97
93 97
93 99
94 97
94 98
94 99
95 97
95 99
95 99
96 97
96 99
