0 16
0 20
0 23
0 23
0 24
0 26
1 15
1 16
1 23
1 24
1 24
2 13
2 15
2 16
2 17
2 20
2 22
2 23
2 24
2 26
3 13
3 17
3 18
3 20
3 20
3 21
3 23
3 24
3 26
4 17
4 20
4 22
4 23
4 26
5 14
5 16
5 18
5 20
5 22
5 23
5 26
6 18
6 20
6 21
6 22
6 23
6 24
7 16
7 17
7 20
7 21
7 22
7 23
7 26
8 13
8 16
8 17
8 20
8 22
8 25
9 15
9 16
9 17
9 18
9 20
9 22
9 23
9 24
10 15
10 16
10 19
10 20
10 21
10 22
10 23
10 24
11 16
11 17
11 18
11 20
11 22
11 22
11 23
12 16
12 21
12 22
12 23
12 25
12 26
13 27
13 31
14 27
14 28
14 29
14 31
15 27
15 28
15 29
15 31
16 28
16 30
16 31
16 31
17 27
17 29
17 30
18 27
18 29
19 27
19 31
20 27
20 29
20 31
21 27
21 31
22 27
22 28
22 29
22 31
23 27
23 31
24 27
24 29
24 30
24 31
25 27
25 28
25 29
25 30
25 31
26 27
26 29
26 29
26 30
26 31
27 33
27 35
27 37
27 38
27 39
27 40
27 41
27 42
27 43
28 33
28 34
28 35
28 38
28 40
28 42
28 45
29 33
29 35
29 37
29 38
29 42
29 45
30 32
30 33
30 35
30 37
30 38
30 39
30 40
30 42
30 43
30 45
31 33
31 34
31 35
31 36
31 37
31 39
31 42
31 44
31 45
32 47
32 48
32 52
32 53
32 54
32 56
32 57
33 46
33 47
33 48
33 50
33 53
33 54
33 56
33 57
34 48
34 50
34 51
34 54
34 56
35 47
35 48
35 50
35 56
36 48
36 48
36 54
36 56
37 48
37 50
37 51
37 52
37 56
38 46
38 47
38 48
38 50
38 51
38 52
38 56
39 49
39 54
39 56
40 50
40 54
40 56
41 48
41 50
41 52
41 56
42 50
42 50
42 52
42 54
42 56
43 46
43 47
43 48
43 49
43 50
43 52
43 53
43 54
44 46
44 47
44 48
44 50
44 50
44 52
44 53
44 54
44 55
45 46
45 47
45 49
45 51
45 52
45 53
45 54
45 54
45 56
45 57
46 60
46 61
46 62
46 63
46 64
47 59
47 60
47 61
47 62
47 63
47 65
47 66
48 58
48 61
48 63
48 65
48 66
49 58
49 61
49 63
49 64
49 65
49 66
49 67
50 59
50 61
50 62
50 63
50 65
50 66
50 67
51 59
51 61
51 62
51 63
51 65
52 59
52 61
52 63
52 63
52 64
52 65
52 67
53 58
53 59
53 63
53 66
54 58
54 59
54 61
54 63
54 64
54 65
54 66
54 67
55 59
55 60
55 62
55 64
55 65
56 59
56 61
56 63
56 64
56 65
56 66
57 61
57 62
57 63
57 64
57 65
57 66
57 67
58 71
58 72
58 73
58 76
58 78
59 71
59 72
59 74
59 76
59 78
60 72
60 72
60 75
60 76
60 78
61 68
61 70
61 76
61 76
61 77
61 78
62 71
62 73
62 74
62 75
62 76
63 69
63 70
63 71
63 72
63 76
63 78
64 70
64 70
64 71
64 72
64 73
64 76
64 78
65 69
65 71
65 71
65 73
65 76
65 76
65 78
66 71
66 71
66 73
66 73
66 78
67 69
67 70
67 71
67 72
67 73
67 78
68 79
68 83
68 83
68 84
69 79
69 83
69 84
70 79
70 80
70 81
70 83
70 84
71 79
71 83
71 84
72 79
72 80
72 81
72 83
72 84
73 80
73 83
73 84
74 83
75 83
76 82
77 79
77 80
77 81
77 83
77 84
78 79
78 80
78 83
78 84
78 84
79 86
79 87
79 88
79 90
80 86
80 87
80 88
80 90
81 86
81 87
81 88
81 89
81 90
81 91
82 86
82 87
82 88
82 90
82 91
83 85
83 86
83 87
83 88
83 90
83 91
84 87
84 88
85 92
85 96
86 93
86 94
86 96
87 93
87 94
87 95
88 93
88 94
88 96
88 97
88 98
89 92
89 93
89 96
89 98
90 92
90 96
91 92
91 94
91 95
91 96
93 99
94 99
95 99
96 99
97 99
