0 7
0 8
0 9
0 10
0 11
0 13
1 8
1 8
1 10
1 10
1 11
1 12
2 8
2 9
2 10
2 11
2 13
3 8
3 9
3 10
3 11
3 12
3 13
4 9
4 13
5 8
5 9
5 10
5 13
6 9
6 9
6 10
6 13
7 14
7 15
7 18
7 19
7 20
7 23
8 14
8 18
8 19
8 20
8 20
8 22
8 23
9 14
9 18
9 19
9 20
9 22
9 23
9 23
10 14
10 17
10 18
10 19
10 20
10 23
11 14
11 16
11 18
11 20
11 21
11 23
12 14
12 16
12 18
12 19
12 23
13 14
13 16
13 18
13 20
14 25
14 26
14 30
14 31
14 33
15 24
15 26
15 27
15 28
15 29
15 33
15 34
16 24
16 25
16 26
16 31
16 33
16 33
16 34
17 24
17 25
17 28
17 31
17 32
17 33
17 34
17 35
18 24
18 26
18 28
18 30
18 31
18 33
18 34
18 35
19 24
19 25
19 26
19 30
19 33
19 34
19 35
20 25
20 26
20 27
20 30
20 31
20 32
20 33
20 34
20 35
21 25
21 26
21 27
21 31
21 32
21 33
21 34
22 26
22 26
22 28
22 30
22 31
22 34
22 34
23 25
23 26
23 28
23 31
23 31
23 34
23 35
24 38
24 39
24 40
24 41
25 39
25 40
25 41
26 38
26 40
27 38
27 39
28 37
28 38
28 39
28 40
29 38
30 36
30 40
30 42
31 36
31 39
31 40
31 42
32 37
32 39
32 40
33 40
34 38
34 39
34 40
34 42
35 40
35 42
36 43
36 50
36 51
36 53
37 43
37 44
37 45
37 49
37 50
37 52
38 43
38 44
39 43
39 44
39 45
39 46
39 48
39 52
40 43
40 45
40 48
40 49
40 50
41 43
41 44
41 45
41 48
41 49
41 50
42 43
42 45
42 47
42 48
42 50
43 54
43 55
43 61
43 62
44 55
44 57
44 59
44 62
45 56
45 58
45 59
46 56
46 57
46 58
46 59
47 56
47 57
47 58
47 61
48 56
48 58
48 59
49 57
49 58
49 59
49 62
50 56
50 57
50 59
50 60
50 62
51 57
51 59
51 62
52 57
53 55
53 58
53 62
54 63
54 64
54 66
54 67
54 69
54 71
55 63
55 66
55 67
55 67
55 68
55 69
55 70
55 71
56 63
56 68
56 69
56 71
57 63
57 64
57 68
57 69
57 70
57 71
58 63
58 65
58 66
58 67
58 68
58 69
59 63
59 65
59 67
59 67
59 68
59 69
59 70
60 63
60 65
60 67
60 68
60 71
61 63
61 65
61 67
61 68
61 71
62 63
62 67
62 68
62 69
62 71
63 72
63 73
63 76
64 72
64 73
64 76
65 73
65 73
65 75
65 76
65 77
66 72
66 73
66 75
66 76
66 77
67 72
67 73
67 76
67 76
67 77
68 73
68 75
68 76
69 74
70 72
70 73
70 74
70 77
71 72
71 73
71 76
71 77
72 78
72 79
72 80
72 81
72 82
72 83
72 85
72 87
72 88
72 90
73 78
73 79
73 81
73 83
73 85
73 87
73 88
73 90
74 78
74 83
74 86
74 87
74 88
75 78
75 83
75 84
75 85
75 86
75 87
75 88
75 91
76 78
76 79
76 80
76 81
76 83
76 88
76 90
76 91
77 78
77 80
77 81
77 83
77 88
77 89
77 91
78 92
78 95
78 98
79 92
79 93
79 94
79 99
80 92
80 94
80 96
80 97
80 98
80 99
81 93
81 94
81 95
81 96
81 98
82 93
83 93
84 92
84 93
84 95
84 96
84 97
84 99
85 92
85 93
85 95
85 96
85 97
86 93
86 96
86 98
86 99
87 93
87 96
87 98
87 99
88 92
88 93
88 96
88 98
88 99
89 92
89 94
89 96
89 98
89 99
90 95
90 96
90 97
90 98
90 99
91 92
91 95
91 96
91 98
91 99
