0 14
0 16
0 18
0 18
0 21
1 16
1 18
1 18
1 19
1 21
1 22
2 14
2 15
2 16
2 17
2 18
2 19
2 21
2 22
3 14
3 20
3 21
3 22
4 14
4 16
4 18
4 19
4 20
4 21
4 22
5 13
5 14
5 16
5 18
5 19
5 21
5 22
6 13
6 15
6 16
6 21
6 22
7 14
7 16
7 19
7 21
7 22
8 14
8 18
8 20
8 21
8 22
9 14
9 16
9 18
9 19
9 21
9 22
10 14
10 16
10 18
10 20
10 21
10 22
11 14
11 16
11 18
11 20
11 21
12 14
12 15
12 17
12 18
12 21
13 24
13 25
14 24
14 25
14 26
15 23
15 25
16 23
17 23
17 25
18 23
18 25
19 25
20 25
21 23
21 25
21 27
22 24
22 25
23 29
23 31
23 32
23 34
23 35
23 36
23 39
23 40
23 41
24 29
24 31
24 32
24 33
24 34
24 35
24 36
24 37
24 38
24 39
24 41
25 28
25 29
25 31
25 32
25 34
25 36
25 37
25 38
25 39
25 40
25 41
26 28
26 29
26 30
26 31
26 32
26 34
26 35
26 36
26 38
26 39
26 40
27 29
27 31
27 32
27 34
27 35
27 36
27 37
27 38
27 38
27 39
27 40
28 42
28 43
28 46
28 46
28 47
28 51
28 51
28 52
28 55
29 42
29 43
29 46
29 47
29 47
29 51
29 52
29 55
30 43
30 46
30 47
30 47
30 51
30 52
30 54
30 55
31 42
31 43
31 46
31 47
31 48
31 54
31 54
32 42
32 45
32 47
32 47
32 49
32 53
32 54
32 55
33 42
33 44
33 47
33 49
33 53
33 54
33 55
34 42
34 43
34 47
35 42
35 43
35 46
35 50
35 51
35 54
36 42
36 43
36 48
36 51
36 52
36 54
37 42
37 43
37 44
37 49
37 51
37 52
37 54
38 42
38 43
38 47
38 51
38 51
38 52
38 53
38 55
39 43
39 43
39 44
39 45
39 46
39 47
39 51
39 52
39 54
39 55
40 42
40 43
40 46
40 47
40 50
40 52
40 54
41 43
41 43
41 45
41 46
41 47
41 48
41 51
41 52
42 59
42 62
42 63
42 64
42 66
43 56
43 58
43 59
43 62
43 64
43 65
43 66
44 56
44 57
44 59
44 61
44 62
44 64
45 57
45 59
45 61
45 62
45 65
45 66
46 59
46 59
46 61
46 62
46 64
46 65
46 66
47 56
47 58
47 59
47 64
47 64
47 66
47 66
48 57
48 59
48 62
48 63
48 66
49 59
49 59
49 60
49 62
49 63
49 65
50 63
50 64
50 66
51 56
51 59
51 60
51 63
51 64
51 66
52 56
52 60
52 61
52 63
52 66
52 66
53 58
53 59
53 60
53 61
53 63
53 64
53 66
54 61
54 62
54 63
54 64
54 65
54 66
54 66
55 56
55 59
55 62
55 64
55 65
56 69
56 70
56 78
57 69
57 70
57 71
57 78
58 67
58 69
58 70
58 71
58 73
58 74
58 75
58 78
59 68
59 70
59 72
59 74
59 75
59 78
60 68
60 69
60 70
60 71
60 73
60 77
61 68
61 70
61 71
61 72
61 73
61 75
61 78
62 68
62 69
62 71
62 73
62 74
62 78
63 68
63 69
63 70
63 71
63 72
63 74
64 68
64 69
64 70
64 71
64 73
64 78
65 68
65 69
65 70
65 71
65 72
65 73
65 77
65 78
66 68
66 69
66 71
66 71
66 72
66 73
66 76
66 77
66 78
67 79
67 82
67 82
67 83
68 79
68 80
68 82
68 83
68 85
69 79
69 80
69 82
69 85
70 79
70 80
70 82
70 83
70 85
71 79
71 80
71 82
71 83
71 85
71 86
72 79
72 82
72 83
72 85
72 86
73 79
73 80
73 83
73 84
73 86
74 79
74 80
74 81
74 82
74 83
74 84
74 85
74 86
75 79
75 80
75 82
75 83
75 83
75 85
75 86
76 79
76 80
76 82
76 83
76 85
76 85
77 79
77 80
77 82
77 83
77 86
78 79
78 80
78 82
78 83
78 86
79 87
79 88
79 89
79 90
79 92
80 87
80 88
80 89
80 90
80 92
80 93
81 87
81 88
81 89
81 90
81 92
82 87
82 88
82 89
82 90
82 92
82 93
83 87
83 88
83 89
83 90
83 91
83 92
84 87
84 88
84 89
85 89
85 90
85 91
85 92
86 87
86 88
86 89
86 92
87 94
87 95
87 96
87 97
87 98
88 94
88 95
88 97
88 98
88 98
88 99
89 94
89 95
89 96
89 97
90 94
90 95
90 96
90 97
90 99
91 94
91 95
91 96
91 97
91 99
92 95
92 96
92 97
93 94
93 98
