files/tasks_parameters/ExAp01/sample8.txt 0.704595 3.15778 1.5595 0.203411 11.0454
files/tasks_parameters/ExAp01/sample12.txt 0.768517 3.94962 1.6705 0.207924 11.2905
files/tasks_parameters/ExAp01/sample2.txt 0.712949 3.78275 1.74131 0.200098 10.8655
files/tasks_parameters/ExAp01/sample44.txt 0.704506 3.59825 1.65317 0.200005 10.8605
files/tasks_parameters/ExAp01/sample27.txt 0.707465 3.45743 1.5148 0.182129 9.88976
files/tasks_parameters/ExAp01/sample17.txt 0.563863 2.77299 1.44514 0.14646 7.95291
files/tasks_parameters/ExAp01/sample9.txt 0.671655 2.99933 1.451 0.177444 9.63536
files/tasks_parameters/ExAp01/sample34.txt 0.606373 3.02928 1.58429 0.157984 8.57867
files/tasks_parameters/ExAp01/sample40.txt 0.648244 3.86889 1.52122 0.168379 9.14317
files/tasks_parameters/ExAp01/sample33.txt 0.784226 3.63695 1.71905 0.199765 10.8474
files/tasks_parameters/ExAp01/sample48.txt 0.62464 3.39061 1.49062 0.154728 8.40189
files/tasks_parameters/ExAp01/sample29.txt 0.764942 3.30472 1.38739 0.223868 12.1563
files/tasks_parameters/ExAp01/sample11.txt 0.645739 3.10585 1.41612 0.174079 9.45264
files/tasks_parameters/ExAp01/sample14.txt 0.59463 2.70971 1.43432 0.162214 8.8084
files/tasks_parameters/ExAp01/sample0.txt 0.702769 3.6937 1.5439 0.18367 9.97345
files/tasks_parameters/ExAp01/sample7.txt 0.538829 2.70501 1.42221 0.143463 7.79021
files/tasks_parameters/ExAp01/sample23.txt 0.654375 3.2697 1.57822 0.181448 9.85283
files/tasks_parameters/ExAp01/sample13.txt 0.701765 3.84225 1.67648 0.198247 10.765
files/tasks_parameters/ExAp01/sample22.txt 0.608763 3.09569 1.56121 0.148796 8.07978
files/tasks_parameters/ExAp01/sample25.txt 0.527646 2.73966 1.5007 0.148149 8.04462
files/tasks_parameters/ExAp01/sample36.txt 0.502629 2.85948 1.28553 0.130042 7.06142
files/tasks_parameters/ExAp01/sample46.txt 0.750225 3.58643 1.69998 0.210103 11.4088
files/tasks_parameters/ExAp01/sample31.txt 0.639974 3.4832 1.53782 0.1722 9.35063
files/tasks_parameters/ExAp01/sample37.txt 0.674162 3.95293 1.50705 0.171701 9.32354
files/tasks_parameters/ExAp01/sample16.txt 0.598824 3.31216 1.30115 0.150249 8.15867
files/tasks_parameters/ExAp01/sample10.txt 0.638906 3.17098 1.61789 0.153776 8.35021
files/tasks_parameters/ExAp01/sample39.txt 0.628029 3.26617 1.44406 0.165669 8.99598
files/tasks_parameters/ExAp01/sample19.txt 0.743585 3.63532 1.52509 0.196094 10.6481
files/tasks_parameters/ExAp01/sample20.txt 0.520055 3.20793 1.25367 0.147335 8.00046
files/tasks_parameters/ExAp01/sample43.txt 0.615307 3.11551 1.4202 0.150644 8.18014
files/tasks_parameters/ExAp01/sample32.txt 0.683179 3.5311 1.42482 0.168744 9.16298
files/tasks_parameters/ExAp01/sample45.txt 0.771886 3.80283 1.48324 0.19807 10.7554
files/tasks_parameters/ExAp01/sample26.txt 0.604913 3.21645 1.29701 0.166061 9.01729
files/tasks_parameters/ExAp01/sample5.txt 0.680717 3.5889 1.52559 0.178903 9.71463
files/tasks_parameters/ExAp01/sample21.txt 0.686152 2.75242 1.55936 0.19512 10.5952
files/tasks_parameters/ExAp01/sample38.txt 0.61374 3.31563 1.37515 0.166157 9.02248
files/tasks_parameters/ExAp01/sample1.txt 0.761996 3.74964 1.51696 0.19701 10.6978
files/tasks_parameters/ExAp01/sample15.txt 0.651564 3.32916 1.48508 0.180707 9.81259
files/tasks_parameters/ExAp01/sample24.txt 0.640464 3.45951 1.59549 0.16529 8.97543
files/tasks_parameters/ExAp01/sample3.txt 0.893585 3.70014 1.70809 0.237107 12.8751
files/tasks_parameters/ExAp01/sample6.txt 0.661365 3.33003 1.58323 0.184714 10.0302
files/tasks_parameters/ExAp01/sample30.txt 0.855569 4.1841 1.4861 0.239623 13.0118
files/tasks_parameters/ExAp01/sample42.txt 0.659941 3.43221 1.70276 0.177383 9.63206
files/tasks_parameters/ExAp01/sample4.txt 0.754757 3.72477 1.6136 0.196448 10.6673
files/tasks_parameters/ExAp01/sample28.txt 0.612319 3.11323 1.45032 0.158819 8.62403
files/tasks_parameters/ExAp01/sample18.txt 0.570176 3.47418 1.45209 0.149064 8.09431
files/tasks_parameters/ExAp01/sample35.txt 0.700857 4.57086 1.49394 0.185031 10.0474
files/tasks_parameters/ExAp01/sample47.txt 0.622354 3.13768 1.52397 0.16417 8.9146
files/tasks_parameters/ExAp01/sample49.txt 0.597082 3.13288 1.49657 0.156154 8.47932
files/tasks_parameters/ExAp01/sample41.txt 0.604477 2.81964 1.49636 0.150876 8.19271
