Task0 0.014528017844491 0.09306286266425899 0.008846844358132305 0.02824918865305772 0.8443256425747028 0.42262056067851594 0.9096643577342887 
Task1 0.0465787473816631 0.25062166880200193 0.022665881086850043 0.2744371624165635 0.9950281721549612 0.6161223882903129 0.679474495950166 
Task2 0.0023574024739069824 0.10799180595286338 0.05044120162006878 0.2923946813071925 0.8207323411560552 0.7417784340717015 0.33550633118256734 
Task3 0.02562798549991237 0.1418276210628154 0.2808129455943495 0.013320064017380843 0.7496395700501379 0.5473904048183839 0.6812734140551443 
Task4 0.15817076894224935 0.3611968749718579 0.12888350950423633 0.3114888903169559 0.4517171385617522 0.5771709739155368 0.76643065434349 
Task5 0.04699441289807468 0.16233899482218053 0.12297715561371653 0.15477220494487537 0.6960679167383028 0.8775665074056356 0.9483203316456128 
Task6 0.0028396839048452005 0.005811118122004911 0.006678454362181793 0.0032892766830557025 0.7987921239974605 0.9742672024386023 0.7733130069703946 
Task7 0.03413583993110492 0.10937899366022802 0.18620433947633305 0.19650466903842675 0.9847142937630349 0.3057669375752061 0.5915623677661093 
Task8 0.04001132493113995 0.054174780810212285 0.07608562439332274 0.35006776638011694 0.6330906804522087 0.31292934039300485 0.9043861254113237 
Task9 0.14006781401504234 0.3611160742266535 0.04567692653429797 0.19071077602182035 0.41212407688697406 0.44388485968141284 0.5441291419561798 
Task10 0.09902060005605984 0.3227003783790775 0.23209700312048112 0.22687235890496857 0.722474306578515 0.7571469007021708 0.9229066001998532 
Task11 0.04364453355551525 0.017647841927081718 0.07827303801653021 0.09245429834531042 0.4537308337687871 0.7070278551769886 0.45952999544740636 
Task12 0.015616304929084194 0.02782554359647569 0.021503139746781478 0.019219342226005125 0.5439419662599191 0.6497202251181247 0.7916098845029362 
Task13 0.014056760130630532 0.14975109002854 0.044468285838681454 0.12527852111289883 0.6790947893120951 0.652562862740357 0.6070734952544559 
Task14 0.023468365433059832 0.10626969553831887 0.10056660818361865 0.11094340997098853 0.7289689503036396 0.5486356609631364 0.9590440349079523 
Task15 0.03248320235205159 0.04382799228396258 0.07859815068867176 0.3647090599464313 0.800037058278255 0.5637759446219968 0.8106126810845209 
Task16 0.043515763181722754 0.16598723258106984 0.13289175871219533 0.09987169226699617 0.8748252602319624 0.7317543571422436 0.6730304575474451 
Task17 0.08626114402605733 0.028412387424421783 0.3196386931810804 0.19416060651613198 0.7702840541373248 0.31360907973267516 0.9085958516237749 
Task18 0.018022323666435493 0.01598767400901982 0.06099780188811588 0.023566052820408682 0.42371129782661376 0.5645057273378422 0.5775408537495227 
Task19 0.003728256809771007 0.04691284600575461 0.034712124933581535 0.13720591562436246 0.5545346928072699 0.5096100298865627 0.3680749915070653 
Task20 0.04109147208433962 0.4047781007973612 0.16565596185812267 0.10971373193535301 0.8480460333029867 0.45485906329245296 0.39313704593419135 
Task21 0.014186051703996784 0.04038563504719141 0.21858244385455408 0.18421773105393047 0.9139649169631001 0.7690690423085136 0.9398477945119192 
Task22 0.07846057563847231 0.18604364438301482 0.15172988930628717 0.005986628492295023 0.44591438625114044 0.7444983462374057 0.7831144292152261 
Task23 0.07160863604339081 0.09278367782983585 0.15513503601664091 0.12321476093732947 0.6649702877751564 0.40033115086558646 0.45692161370435697 
Task24 0.035037940779603614 0.1134713379757843 0.025420016830924742 0.14107342150329613 0.8489612021148025 0.4628138548898027 0.30481100245228154 
Task25 0.04978085801951503 0.17063435416736736 0.351774047895978 0.37324594744506906 0.496108347632529 0.7704291035510804 0.5395700195634694 
Task26 0.03340158803907377 0.06381524419168101 0.0730392853516522 0.06573438131365508 0.43056500592787794 0.4237471026150651 0.9377561113308499 
Task27 0.008029224632688476 0.09727696422075838 0.0596938026340233 0.06128436840104233 0.852694911166924 0.48637523172203784 0.6807824380093978 
Task28 0.14411859397690643 0.4038336328125181 0.25831232281044253 0.14522431075977946 0.37723689840369934 0.39855136901439014 0.9645014351378751 
Task29 0.036563166698617984 0.7158291351437622 0.03520107690084364 0.12816713559803608 0.5377652590643349 0.7587106565020431 0.7517228308897861 
Task30 0.060321135688258705 0.12339326551551773 0.1518739895790901 0.08166107259805885 0.9781479815593463 0.3469040962544754 0.991526353870954 
Task31 0.1478195439704073 0.37138398487817453 0.007360605748802213 0.23072913642373324 0.9377759571692919 0.3455077278980484 0.4137931362915384 
Task32 0.018985823192792944 0.1971694581960948 0.1936334200440903 0.10644667891408581 0.703756723372901 0.9942396088804009 0.3767401200519105 
Task33 0.10176357133413041 0.2143982030433087 0.18118177326834387 0.21595206184256113 0.33007568441912905 0.43093832213853966 0.910611861768307 
Task34 0.1633302938255607 0.3406586564885037 0.3066036172790267 0.13192964776851243 0.4098433738696579 0.8135183271067521 0.46147410880743434 
Task35 0.0038667092378843596 0.16499494120180228 0.007251330647005033 0.019197586804397822 0.31355251120225847 0.7832115209840977 0.6572518817311268 
Task36 0.010884332774517794 0.24930094182631202 0.3434006736800833 0.014170637565444857 0.3771279190505915 0.5586841737786611 0.5392394504709543 
Task37 0.07428652384022869 0.21745736684608666 0.20566488989021134 0.18036530697632375 0.8940364702130754 0.306845611802314 0.3863583557918898 
Task38 0.06057537296947942 0.19019118767680165 0.16644202175394984 0.018552222096509106 0.6473313093682731 0.7135174274461198 0.8967942538484694 
Task39 0.0022933440471768103 0.02106388524091067 0.006477111605992234 0.004175768532861219 0.7783502605578249 0.905388602227329 0.864957469564297 
Task40 0.02299885073902598 0.04995207838947206 0.10721511898686711 0.11414524235915449 0.7461832631867936 0.5002982027541919 0.5306089400167169 
Task41 0.048774231484509295 0.07426698399565339 0.07610686161272366 0.0637549340281897 0.3789589117147839 0.46819906877946266 0.754397218297014 
Task42 0.011202774620181585 0.03878817215447394 0.11097616785698128 0.2950530796827528 0.4760879555608517 0.8744830942933448 0.7282411019797783 
Task43 0.032779207370115734 0.1775638078209694 0.057265541972478205 0.09420104920207396 0.5745293797164328 0.8478550979435868 0.8670216416062018 
Task44 0.008814149025281402 0.004334025979043276 0.018279476115904227 0.04059075534539517 0.3608573782339613 0.9604257323610901 0.9051391023631918 
Task45 0.11073603911050492 0.16450083595037096 0.26557875549473275 0.1381609127052391 0.4204665691227579 0.49174677704864617 0.9637026832863018 
Task46 0.008892586638492019 0.02501534742734644 0.03064164219747724 0.03303973499415846 0.5323031716710829 0.8541270273538342 0.9630113316652245 
Task47 0.07149750080144011 0.11718512940784762 0.04542656241813463 0.28084488130323876 0.8456727848071985 0.4774469785714833 0.5868185685509352 
Task48 0.059985131377490494 0.2227549499807887 0.004009607370601421 0.1591748811772572 0.313758118488819 0.9132106798617778 0.315697171884062 
Task49 0.030102777117798785 0.008705535718390386 0.19111754272116632 0.03577719548065799 0.6500856348979841 0.644831955383387 0.5200327664179408 
Task50 0.00020270081754508823 0.0006725151233863012 0.012180011234385424 0.003145303823771213 0.7612705085823992 0.7226462408977127 0.765930155475901 
Task51 0.06675852577039268 0.06981985683072944 0.23582009146651978 0.13345298466624014 0.31734349785105975 0.8658125276191293 0.8016592355126122 
Task52 0.01023694148687888 0.45262356847852664 0.25894087309265784 0.15276471881475215 0.9648036656460386 0.9647700683149161 0.5621229346813842 
Task53 0.00744264915973985 0.039783320958157266 0.20188146907406432 0.2183417767413803 0.9964367202336457 0.8103075301625859 0.32491545811491973 
Task54 0.08877907104284954 0.1661346692806541 0.19928959199118232 0.3942730264984219 0.44033149118068365 0.6072281888102841 0.7259372491954021 
Task55 0.07528396530947336 0.04540210732751446 0.1067573947471648 0.5246022862809457 0.9823494147421132 0.8213464641895132 0.8982989276150515 
Task56 0.053388819899546594 0.22363923424021376 0.05744092389555018 0.19026973452470936 0.9809965244746732 0.5978838191649213 0.3706514111676807 
Task57 0.026173201577706064 0.15798684024484064 0.08152420713503254 0.15550790830536296 0.40002324532632033 0.9138729984911793 0.616330411228905 
Task58 0.006631974259054101 0.2488629178509338 0.04793395282322274 0.47151399271482675 0.9752402038840666 0.35755174398859196 0.650964619231382 
Task59 0.09113845416938361 0.41075571579268877 0.27567460049558795 0.02212216005259692 0.9826436677614805 0.8120800007633884 0.39169286282741994 
Task60 0.022525341184312004 0.2547308005455512 0.00609171009968054 0.25319848068602574 0.9462554775175258 0.7411830051906758 0.3806521138677681 
Task61 0.049157042019895736 0.22198252968179677 0.6246380363615024 0.03126791117019545 0.6959617027275415 0.6543648585885486 0.8308756802158701 
Task62 0.07822796268335915 0.17556610613612894 0.04839918000858967 0.10880413113022666 0.41578106931779657 0.9213555995974596 0.6166136879689369 
Task63 0.05635436781818723 0.022497295822659864 0.3995085057551259 0.45808328460775394 0.9539282427055584 0.5800345939218536 0.6340399479704448 
Task64 0.0548139747801409 0.07602745934046726 0.24696747285822807 0.06976662697870241 0.3777096026096387 0.3957634291153386 0.3485859106706129 
Task65 0.011819034782808742 0.07780145455988619 0.07107668571638477 0.09903325921491998 0.9317500688464824 0.6810423607198959 0.3870152804095433 
Task66 0.02168504721245377 0.14368602590556348 0.08195917371683877 0.1403142098410764 0.4494423583510987 0.8727861770053262 0.9833027749624337 
Task67 0.013147459757097772 0.09060361871838109 0.07832677018918151 0.07611197548354717 0.8306912092052163 0.5972627269234053 0.8322732092697216 
Task68 0.09208946157781443 0.18834649453157842 0.5219776803350892 0.10934874858361476 0.41930152825870004 0.8498526738116892 0.4280986969368308 
Task69 0.04206040930889094 0.5582879606876653 0.22859903109967786 0.07984781103459868 0.6380968260612115 0.8460951835972721 0.7070413291807227 
Task70 0.02186748282111204 0.21519240756111083 0.2955884860044651 0.026552206398954024 0.646294158316461 0.8892548234653781 0.8786026608296313 
Task71 0.08687054745586588 0.18327755001789978 0.2360324124148735 0.29653455916957355 0.37238005079279235 0.5626037479930117 0.8461330559308671 
Task72 0.01735845321762739 0.03926940933770818 0.22894943889152944 0.08097945284496097 0.9538921780032643 0.6675800017700178 0.7704963973085905 
Task73 0.09347985039416047 0.13946224317734676 0.5419331120000423 0.20388505597344173 0.5604803927945761 0.8951610038165128 0.9146116956039674 
Task74 0.071928849939957 0.06756404628905308 0.20536803551963737 0.24652741518422835 0.7877685710135772 0.9808959192651074 0.48274067353052724 
Task75 0.01756779026586547 0.2806374393138111 0.2777657140352415 0.2225173466409742 0.34531799393701745 0.7420938516595842 0.7307242934513025 
Task76 0.019366353543853538 0.04171875403333646 0.030753206799833392 0.009532722740438598 0.9627829673792134 0.35720946431946154 0.32631481664441736 
Task77 0.03579076147769309 0.2189221246655076 0.019817257263522174 0.15842112792230603 0.7346382277148876 0.9729996771704184 0.8965092618258463 
Task78 0.02720467618902781 0.1777420771341789 0.3015157071900361 0.139908088997048 0.319916707526183 0.9831357027445815 0.43997928393758595 
Task79 0.0636380546003084 0.12207665529912155 0.01914805889808386 0.1823054948695537 0.6507912536068226 0.5087430153259648 0.8856726350291939 
Task80 0.02814618031111942 0.12393722880401979 0.07727643219578112 0.004181225571449431 0.3723546288792958 0.9621870394180008 0.9563674557998532 
Task81 0.04884828755978553 0.023742310239371133 0.09231202723608377 0.13588225585219682 0.35597297346463663 0.5532772490420712 0.9594768085965757 
Task82 0.10043955174488427 0.36153702515354363 0.12026539036725659 0.1031968278271666 0.7044239649221917 0.6940855610557274 0.8338409730008802 
Task83 0.02312212338901278 0.21329499043776554 0.20982910094441243 0.30959251353834055 0.5352100462587259 0.6797989327772878 0.9314330899216077 
Task84 0.06131695013556539 0.16234783109038733 0.16912962656303554 0.17234311356801152 0.45486959317895015 0.7697310428896051 0.7180523665751786 
Task85 0.016644410934942937 0.573179184973057 0.23753855743039065 0.07045322938235908 0.9922355218692973 0.6612494491415262 0.9637139136555704 
Task86 0.00470733393480695 0.01727458287908624 0.15700414418050854 0.03335939732275241 0.38803732381701117 0.4924320597550748 0.7107726347168919 
Task87 0.015564215318945786 0.06165310524661153 0.09276858712373134 0.062149147714160906 0.6359488202441643 0.3922947994969565 0.9968198409742279 
Task88 0.000811495537757731 0.06141310669681749 0.027393480909004748 0.1673380062528718 0.7280161094249098 0.4782871853703755 0.7446252427981599 
Task89 0.02401634330890236 0.36918350842451797 0.04188463187371159 0.5559174547259713 0.7654120226293262 0.831818153266068 0.8308450237130043 
Task90 0.017032363386160765 0.04759009724998187 0.011783023126781473 0.029436226510204288 0.3901157457747182 0.6549383533923854 0.70105497882949 
Task91 0.07391276602792561 0.13240997352346665 0.220744161558425 0.2809790790793972 0.3324221975899407 0.38299841629234466 0.5213149085420659 
Task92 0.01062036320846131 0.017424343945684023 0.03584178371335875 0.023152718446881264 0.7679820397361901 0.3375408507755994 0.8591720599519292 
Task93 0.0710945565672597 0.18741295293316468 0.02607674499951195 0.5420319325360843 0.8817846285894271 0.7399388451558422 0.9559765183362074 
Task94 0.04066397257288055 0.05323094668654425 0.12651289107059685 0.1251535301924629 0.3707888827390916 0.5161769151793418 0.654747152040016 
Task95 0.0026133695117398696 0.08158635229539823 0.09779921297814322 0.2618746951314165 0.44829818605983096 0.7212795552498437 0.7049933308977745 
Task96 0.011626755535245994 0.15281839508599254 0.11003928912117322 0.21232684432330354 0.8573452419723668 0.8153404954430301 0.7552339958624192 
Task97 0.03318460211363716 0.22053872334473718 0.21081635771044593 0.14650556699795056 0.4198159880535744 0.9289893414446004 0.4772615576904667 
Task98 0.0804179501708822 0.21196110542248348 0.07066100781347356 0.20247295070725232 0.4434872092432542 0.6035865769071809 0.9783154014225091 
Task99 0.0015988476087746963 0.39369355992687305 0.11676479008050156 0.17070221181892406 0.6502991583512663 0.6416715835234386 0.957848396807959 
