Task0 0.013550302132761175 0.013534670220088864 0.00169612540493283 0.052612971046044836 0.6953260183554031 0.9200970668169322 0.3633878678786137 
Task1 0.0076876997826817025 0.01586241491479288 0.0006271471009039925 0.03617240897346814 0.8398015899695208 0.5391866346282873 0.42816489875063385 
Task2 0.10774675787323384 0.49137889361744214 0.11009527678074339 0.1948161390668802 0.6258906849011867 0.4265475815273184 0.4387533577234143 
Task3 0.037954797286516274 0.10787218802679127 0.052420456172223524 0.10224343025658483 0.6443824373866309 0.6002280569250755 0.5394678252299119 
Task4 0.02401689259828539 0.08369906298260943 0.001433999992089258 0.1875440816585157 0.8516226166437608 0.41017101533367206 0.6152910559345097 
Task5 0.14061209298268015 0.05458366153623266 0.1521302144460259 0.41215329865111633 0.6254892450840788 0.663238331118769 0.7041211994237491 
Task6 0.015427640805242082 0.06542215915825454 0.07618211784110437 0.035176911985703184 0.7587024066718933 0.8543211640335435 0.7127975551632677 
Task7 0.036500819440034096 0.052913886411221744 0.2989325986627001 0.23758635137507747 0.46406522497957003 0.401960821295873 0.8114424586344804 
Task8 0.007490917994706744 0.0014334412140167305 0.023689525594374674 0.024363023185834252 0.5936778752640204 0.6657587452269775 0.7415599260926771 
Task9 0.010986611381262348 0.2715090116487532 0.18682377231557712 0.10301946613047151 0.3845625891922092 0.3206885720683844 0.7269898194350672 
Task10 0.0884386619474827 0.052324848396521094 0.1648075301616881 0.16537576307838536 0.4329743621742402 0.6390036408247368 0.48337120058492966 
Task11 0.12121926558143775 0.016014323599129326 0.5445598272474413 0.29758329829413943 0.9817888426577166 0.3750034079453248 0.36788962041244655 
Task12 0.007729997224206297 0.30197192593676575 0.09254486218018633 0.1513338011121514 0.4072931919693512 0.6479710890660784 0.37505732221996674 
Task13 0.000570406463771396 0.27160608294582056 0.09084379968643709 0.0053578414986223235 0.3643470757423286 0.9418665425724939 0.43666410170331466 
Task14 0.05887121685800469 0.230600268386223 0.032138320855069784 0.041549852329790055 0.47596428259630474 0.5934651134522659 0.3633781146914512 
Task15 0.04201904191231969 0.17486740713515725 0.32068653661959445 0.18924658781194822 0.637379512340145 0.6411212381376492 0.7750505176134701 
Task16 0.01428301523745995 0.032590610664441376 0.016727611939137483 0.015060458552859828 0.7696899900382053 0.8269752603702385 0.8835875006731713 
Task17 0.007358600170159262 0.034616453490606366 0.008168116466742767 0.008699056946350823 0.769981787142116 0.5713544601346054 0.9823297282584853 
Task18 0.006656520628613506 0.07670375127402129 0.016657154372168578 0.013653132944662517 0.5557553895065912 0.6942526563765139 0.9691382930045893 
Task19 0.1294326102851467 0.438777727130395 0.06746153241924771 0.2717899414976873 0.9298319358267251 0.39295811269054337 0.44709421860843335 
Task20 0.014325172506024211 0.006364939102782977 0.006909895414857257 0.059031420754502906 0.5492628419934932 0.5670443404708395 0.7725182078808581 
Task21 0.020817168834319846 0.07947742037623383 0.09610776978500106 0.3541807645032297 0.9298302274433412 0.5177889776294703 0.39988495533076496 
Task22 0.12579688501804698 0.2736227199776921 0.28532798281412924 0.306885255967375 0.7868500298478533 0.5538979832174513 0.6284265943837788 
Task23 0.04780070070931421 0.2789105429356043 0.13314805894700907 0.3531716689282018 0.6970234624942964 0.9768500759741561 0.3975297015140032 
Task24 0.08135107343907938 0.08829864650368617 0.14613625732130328 0.13268400233728006 0.8718892380786247 0.9562541633492501 0.5640275616849475 
Task25 0.14153631979450754 0.3168962439222675 0.2631773896610637 0.25124114329858027 0.520539737618796 0.7160314976024893 0.40038888637583653 
Task26 0.0197689492098486 0.20395808104459562 0.220660354750621 0.1695883792939688 0.6107197921818222 0.4003192579651772 0.7196702218980416 
Task27 0.007744399234951719 0.006085240693910828 0.011294396193976914 0.02215999358162087 0.6436209662526127 0.645256993100096 0.5061501930409843 
Task28 0.0006453302546669426 0.20981704799056528 0.17268595859962732 0.2045690025899332 0.9769986242659092 0.7026577969234813 0.9494992938806515 
Task29 0.005150048518763183 0.4640201523505513 0.2578098657626213 0.2513871582544967 0.42241581859938904 0.608878098713848 0.7013952182981283 
Task30 0.0028880196717384924 0.004748000227862913 0.007115711453621903 0.0071287898684436425 0.894969972647673 0.7691325864815178 0.5350626351742029 
Task31 0.08267903559543353 0.21739750538324418 0.20356728035168722 0.10654727385490262 0.6403859944527318 0.5263282098528576 0.5360972939712125 
Task32 0.003010526059659778 0.006639514594458742 0.007325198169227595 0.009794000906061475 0.7491164816914995 0.6529055993596126 0.6931375017280021 
Task33 0.014084440347477517 0.03341770313795812 0.20675744690969777 0.18946333025026316 0.8523481420968604 0.9976133012824568 0.45945955468531885 
Task34 0.001245771707990095 0.003898956930968631 0.003162169933078272 0.0024735036064670673 0.8517300679472743 0.816044278252327 0.3837927253419257 
Task35 0.014513881989998364 0.02300707493990198 0.028031427668830815 0.01201677248447374 0.6361147755232375 0.7540091489069836 0.5651133130367153 
Task36 0.03437408743926668 0.5471815684140768 0.1635841043482217 0.21017377690859432 0.8181897239968638 0.8200851655872627 0.4660624156674995 
Task37 0.03370613601259093 0.26987147460505145 0.2281276376946193 0.35855652442789715 0.6320737499396518 0.30205603610047727 0.9880455815642726 
Task38 0.07661769479403721 0.09231876573657828 0.10073955344814234 0.1784351114024929 0.8209351185511693 0.8779216973303396 0.8972209760062282 
Task39 0.09501903868712178 0.13852084847303658 0.3285414710554965 0.036690535370769335 0.3477941971472549 0.7379041523688452 0.40298353251601504 
Task40 0.024727696552205282 0.004594128289708199 0.17630932095419855 0.09310017910917795 0.8200321501681507 0.9382618559209635 0.5169515726052087 
Task41 0.09447538925385979 0.17055519056913257 0.16848299314132478 0.11146769129215443 0.429196771101906 0.6104264514534359 0.3985437311558422 
Task42 0.0497088116398637 0.08812371362288782 0.1491231530604119 0.16063918878162828 0.9983166891978961 0.537573495462182 0.860217672574731 
Task43 0.0026234532950204855 0.0033492222081968263 0.0013774119742075315 0.010815782378761112 0.500194560209934 0.9616821004813318 0.8239768912995529 
Task44 0.007239079847406464 0.017904605089714986 0.05463805985918904 0.03931120470723882 0.8340830525718277 0.9279557262569718 0.691608204306887 
Task45 0.10700116917310924 0.35761967187503213 0.49025822762363774 0.003718846840695694 0.5755143349988286 0.3517432821900071 0.791482457673701 
Task46 0.02623190362605201 0.19044630968841292 0.15663108606734671 0.11599551677900212 0.6577295493947121 0.6578053196185116 0.9479972254493321 
Task47 0.003638772132276765 0.028850324750688487 0.00011027865684955529 0.027888738916065508 0.8093419140024698 0.6682186179398443 0.6592544878919373 
Task48 0.00811857086798595 0.035131008755673834 0.07915051559305396 0.018397882528621345 0.9182468426708399 0.963848906914639 0.9906094990997876 
Task49 0.10010100727765889 0.31535005173104474 0.04296784858133389 0.41442164144388566 0.7187455085613417 0.6480262274432478 0.7289719991506908 
Task50 0.0188256220619545 0.16188070558901219 0.17396199567799872 0.5800696012758028 0.7568670763647334 0.9631205511451313 0.9422112999549153 
Task51 0.001048814921513919 0.005579811573192235 0.0013516687456184009 0.001273314055335106 0.9003802185034571 0.5230106951726541 0.7717381548337333 
Task52 0.06309715573523933 0.05805704592197205 0.15930697811900624 0.0874135994230785 0.9238540932144288 0.7975617311660881 0.6400612203584953 
Task53 0.025303287114561458 0.07332478513437429 0.0339799389330451 0.03420410022216402 0.42395893108629484 0.6807007075103831 0.472548846060226 
Task54 0.03487326696292474 0.059137119585992735 0.05428895100013142 0.07194067131323668 0.8560827079437234 0.6406288025175519 0.6244291903726339 
Task55 0.025241636213717444 0.062111849390289936 0.003866978070141481 0.05501034621077035 0.8133228164475665 0.9327305817818894 0.6513546560969345 
Task56 0.0015792410466753044 0.09972655649319793 0.06170824011683406 0.13618243225144905 0.3264730267299748 0.6906518379223896 0.4252003397032983 
Task57 0.011766243703941168 0.14002086859738583 0.07201599816629675 0.1424437103803849 0.4867814620050898 0.5885798213731646 0.3031174071504311 
Task58 0.15662996485404204 0.3226021565218025 0.17012406362143115 0.14284192593520761 0.8455603798564906 0.7795380480583449 0.36805855340926075 
Task59 0.1553200846932407 0.21256185106329117 0.4038348971170481 0.22018579766059002 0.9563235469591038 0.7776991130403774 0.8246240312100293 
Task60 0.0006414560355124274 0.0028509403571637527 0.0004679899364486459 0.0010931978409297 0.4515839731344896 0.301839943734458 0.5377632547572907 
Task61 0.010649343939539438 0.020436682392148305 0.07372342306209514 0.035781827608328716 0.5744955887601207 0.7960133555227146 0.6271423844556814 
Task62 0.08184696476683155 0.22435102284233255 0.42220712401811394 0.15448891159879033 0.3790688533470788 0.3004626119471123 0.8700482937694514 
Task63 0.0688160356961506 0.09785921759651824 0.3796856105376035 0.43366109959552673 0.34569067173274903 0.7254957716486856 0.9282258345228478 
Task64 0.03359518006835793 0.017345198386726223 0.07302274489899865 0.05972805639859221 0.9906433644981563 0.8549608229147616 0.4255891429148103 
Task65 0.0006455751444302511 0.12429626954301018 0.14544066235512193 0.11802948130178255 0.6677325885152863 0.5578001088886043 0.372426782477951 
Task66 0.003362824434974171 0.0001350182833817415 0.050339830940419744 0.049555041830252736 0.9194010496816611 0.53372879267352 0.7981189784288732 
Task67 0.028909271876800806 0.24244926550440227 0.03797329901840124 0.4113347597481814 0.377152336691034 0.6930386875847421 0.3191141512824804 
Task68 0.001010943472062134 0.3529418103268053 0.3420504479627249 0.14719240858581936 0.822454328449804 0.714428628867839 0.8596940566575326 
Task69 0.03005164805281854 0.017208928104297413 0.062182541378360906 0.06469278816039337 0.5055317467358058 0.9583055758899444 0.6443893745392052 
Task70 0.1380545850128394 0.27672341067328404 0.25036493505799473 0.2059331650816154 0.5793789121720853 0.9660668018297922 0.9520611869306319 
Task71 0.04118810106420053 0.15095369732392608 0.08795951656274953 0.19593442949170362 0.903838359108901 0.4777397502899223 0.9787082892061494 
Task72 0.10547683404885877 0.08577991843921724 0.29308197775508793 0.04484039338416836 0.572879485634839 0.3803952581101632 0.4789675682861507 
Task73 0.004118159421152641 0.019481253894292682 0.05502734899807172 0.030556863398674604 0.9041630974534036 0.447059467422884 0.9597372551530827 
Task74 0.02769800640978406 0.2774992205028662 0.009029387494897831 0.24631640419806133 0.9691713142818716 0.5034763354536056 0.5711737317595638 
Task75 0.0028053480775512354 0.006795809607348971 0.0050930408114876905 0.005224530441746837 0.5960816210835429 0.45958346013122164 0.6308902156680596 
Task76 0.007892350851576782 0.2841415602648246 0.04736670899576442 0.3456844509473064 0.31764240942006405 0.6130674514060113 0.8214626755848913 
Task77 0.18254246697257567 0.07046428623865578 0.15180182865999226 0.5133671159010037 0.45862970076824605 0.6419697236151205 0.8123631629568651 
Task78 0.04294342700198124 0.09665004842594893 0.21792247587891111 0.09455201501215148 0.5849493001606598 0.8483023026682617 0.5104919952338608 
Task79 0.07099044158726502 0.07726144878823474 0.27321345920812445 0.14321843281506538 0.7999560733840727 0.9747602154515993 0.5759172928954386 
Task80 0.06568645604092804 0.3975022517897044 0.41185765885608383 0.059492768464653185 0.32810521873186643 0.6469503219726873 0.8091238401284342 
Task81 0.008386194513162484 0.01940439956657973 0.04451026861576168 0.05687946983623098 0.9689821672922794 0.7986946283783922 0.5183517549936455 
Task82 0.006833346703944481 0.2662475722991229 0.45314732618710984 0.08405864603233286 0.9123309701832063 0.4535390042582648 0.8149424243516556 
Task83 0.022561099252820484 0.21529795708130803 0.1770969009274779 0.1184837890315799 0.4199920303505885 0.7535879553273197 0.8036100773307213 
Task84 0.1418075923857079 0.25553134412176226 0.1522630090402385 0.44203164668116346 0.5952310371339847 0.9276924992174362 0.5178712415757993 
Task85 0.030081073293017044 0.005675259160213277 0.1116315962719541 0.39196069127605687 0.4234647295908578 0.988503043962061 0.6952918823926351 
Task86 0.07277323902533213 0.18618056446089615 0.3219561780812259 0.2759008570808531 0.7223504037761197 0.7246312947185124 0.6953954515986938 
Task87 0.03724470998373378 0.013717351314763964 0.17426573242587676 0.0038999808746245437 0.9081591256838855 0.6286707627027797 0.9059565336226894 
Task88 0.03692916571879572 0.3610305878456468 0.4378994215139006 0.1143793050439011 0.35637515683502463 0.711638595973447 0.33220184455563767 
Task89 0.10982521844315196 0.26210675034482833 0.154952851206429 0.2702461403158695 0.9935419864733328 0.8754934693022116 0.9902310332017059 
Task90 0.013259101490758178 0.00036555699379543907 0.03338385864065246 0.02184472252578714 0.46273627011739743 0.9084215476699347 0.4927507764770226 
Task91 0.19018358512585515 0.4047442942673447 0.27828500851776616 0.11836102317546156 0.7658197616059346 0.5430758304574962 0.5252548598767591 
Task92 0.16145870121769093 0.05733837152095842 0.5165786979418059 0.16369366417641085 0.9712681419475817 0.8676194686688252 0.6336250991952133 
Task93 0.016732326288300594 0.14406835887117891 0.2749467459418284 0.0688018693102017 0.39698547842176246 0.4811027619977494 0.3687245835211699 
Task94 0.0020871360868210667 0.05664813597811335 0.033069010504894074 0.019848777730804786 0.9479220885629873 0.3286412524036583 0.39679403337783425 
Task95 0.04812318293256848 0.15594680713338768 0.06370872126545135 0.1555188441655413 0.39214585516313694 0.9489240276796835 0.720520337697781 
Task96 0.018224371290609585 0.010310321801522651 0.048375212853431326 0.03546069595157465 0.5806786324606918 0.8775151262983236 0.668026475190223 
Task97 0.042379913993590465 0.21670536261724377 0.23639937523995813 0.012571327647847836 0.5667834741616523 0.5644502589272316 0.4331303742480607 
Task98 0.026941174712646874 0.21684749023559338 0.26704318790746423 0.2204163587403338 0.9094140546971095 0.8958145376869944 0.9207865444070884 
Task99 0.059025787133267595 0.07377996875327318 0.19060246721826082 0.19491390496866887 0.5485553222490787 0.732574533739452 0.674365557952609 
