Task0 0.034320792016743054 0.09661156370164012 0.15526442122913287 0.07048959937698711 0.3183967582339353 0.31416101726849627 0.4838318984478851 
Task1 0.026425446436545062 0.016396537943865246 0.16196528483202724 0.0032633199461020433 0.3230154912801774 0.6089985772562998 0.3735386955326687 
Task2 0.12594955616112963 0.06552292006412534 0.32852893456689936 0.3516617372705487 0.9415241709581113 0.7183339489234437 0.9996207687246801 
Task3 0.0032943302321213736 0.018099371802660837 0.1301132571972839 0.09389146287206841 0.3068381511969276 0.87090967005293 0.4737225588821518 
Task4 0.03474647803258952 0.14016556451473342 0.279022053120877 0.05783255372183102 0.8581412418054379 0.457358629743685 0.7226986161074621 
Task5 0.07480498824690576 0.047746673656263255 0.3891066629717634 0.4564452439071158 0.871907337606596 0.9053165618480394 0.3699148868712557 
Task6 0.04988922787019533 0.09890986517972591 0.2456698005179861 0.36158812214701286 0.9944532422120722 0.4070669146591229 0.31050901855874485 
Task7 0.0871141384351382 0.21081620206872373 0.24614030372524787 0.2873417263800047 0.4500740932407872 0.6716301468763533 0.7297461380146473 
Task8 0.007868553123086937 0.27708331950441245 0.1708467776237036 0.23745090767123023 0.4065894335750607 0.7009472532459633 0.5691269611663219 
Task9 0.1323880307916427 0.07206156210044468 0.19027678997239553 0.3459520597834904 0.5437970127361849 0.5470536919285249 0.5606815201646556 
Task10 0.02116735615374528 0.30174379795387335 0.07556476672551057 0.4559104082011084 0.6788932457897219 0.8831984848412924 0.9106091090878565 
Task11 0.012323317540504029 0.18159116867008263 0.028741000678144932 0.151937170796297 0.39481965818021036 0.5731886950322833 0.32251036021721263 
Task12 0.15694636397087933 0.09258314632147374 0.07672794471764575 0.4851388882618152 0.6706398264911992 0.6611608726686864 0.5657897082943122 
Task13 0.15151680075930465 0.3886729727093731 0.023230089249306363 0.1952456125048313 0.410131587180944 0.9515704929211977 0.5564684712411263 
Task14 0.015295509056008717 0.23312036161969898 0.38207653938835234 0.2209908016063453 0.8287356552607577 0.42851804657625325 0.9342870808757899 
Task15 0.01606627287697331 0.06487037565038253 0.001502844234673822 0.06594982270066485 0.5702718608342948 0.4954651562771098 0.5449924336977003 
Task16 0.07405762528967016 0.18402102520326233 0.2394567847293118 0.13631736251970472 0.42731444212770103 0.6502274874092733 0.6293013591957388 
Task17 0.004953131936457298 0.041792709787826426 0.0038497513386096523 0.056954035371091276 0.3500322069617839 0.5300023959653357 0.5665911843354845 
Task18 0.06943076092556959 0.5085880617834231 0.15887047776259677 0.2566619526343804 0.35268375318494516 0.6726354312655936 0.8888786693591868 
Task19 0.019016324911460214 0.14507319939226504 0.043212805641577104 0.1610367066377332 0.9002106726828452 0.40556932031939674 0.7629871580424126 
Task20 0.06893757724567454 0.4052246163897934 0.1878363242795659 0.21837122407710358 0.4072417429710178 0.8290757936461455 0.3163653390480216 
Task21 0.02652072514451084 0.1061294961592162 0.6336738938045717 0.021657551176679998 0.43775712376469667 0.7686549771495788 0.4934314741177562 
Task22 0.013560416002597088 0.10175048499863541 0.07267569393454794 0.0063590856433825655 0.6437896107272576 0.9996250807905835 0.4153435095409894 
Task23 0.11175732671836959 0.42519190785976774 0.19228348902213013 0.14970118325577758 0.33402789043617026 0.9206422107090821 0.8555410452095564 
Task24 0.06863102259497655 0.11217469801676835 0.1629175095129336 0.2891551187904143 0.8412030513045523 0.5508537990396588 0.4109085524990682 
Task25 0.051442930099119426 0.1309339752863955 0.13014562001784383 0.1446106342452547 0.9393609434491579 0.42417750600050264 0.40944130510042576 
Task26 0.0034957484112921587 0.05870094179579615 0.013035774891694645 0.027945375700348447 0.7216776572863236 0.88117408472008 0.5105457289940251 
Task27 0.01246936898634333 0.053286794891130786 0.05865442661212408 0.0018090720131017962 0.3538824548624794 0.38362622144556074 0.6370296948626513 
Task28 0.004886943799932068 0.24169178555653487 0.0594747286073317 0.5805605528281192 0.3356569016679271 0.38068969520501095 0.47836738998880424 
Task29 0.024108977407749463 0.028372642183713232 0.02768916012012338 0.04086001373539279 0.9117470168019373 0.9863150641721463 0.5578822627029643 
Task30 0.026643195635472086 0.050968240925275486 0.0506959803604056 0.06876215026147607 0.34539346789279596 0.9175267277332324 0.8766811248529642 
Task31 0.001494576406148628 0.008577090943052052 0.0023441432180025742 0.0028068003811787 0.8037232580348757 0.6282256205018488 0.3648107594366113 
Task32 0.1224109428106068 0.27553157377530946 0.23927000236776055 0.20606631304770484 0.6255916368913974 0.48689486542465954 0.898223063640708 
Task33 0.013476758810228617 0.8280752761354999 0.13663455164089966 0.020693256474508013 0.5634009168575235 0.4712567161078882 0.3571856776553628 
Task34 0.0035276387893989555 0.08461930236872262 0.05932498455675156 0.1620358246411321 0.7779590549395232 0.9312276332095719 0.44314606496803055 
Task35 0.15193751966009925 0.10211938797861032 0.4164132519660529 0.2052934053046328 0.7310175740808796 0.8432748186475851 0.6339613702675884 
Task36 0.044178723051359295 0.15216628276797212 0.11744709307629865 0.16210347316929455 0.9319912681356539 0.5241381637770851 0.3514410847872075 
Task37 0.08556445248493412 0.2181227650513294 0.01797340951899467 0.38473863721558027 0.7569137079371807 0.782703362008506 0.5193217402403003 
Task38 0.024494317948302213 0.19561726301917845 0.09994065045029837 0.14803306922098927 0.6271960766286534 0.453422554552349 0.7714416516140807 
Task39 0.0003817850428851058 0.00037935402611058064 0.0003642875249019 0.0008361068715096971 0.4124393175755262 0.7301738381267189 0.3882715569659173 
Task40 0.10053801004098933 0.1655946892738164 0.3232978491889584 0.2477288234000004 0.3880920237979047 0.975818449780482 0.3790067061591902 
Task41 0.10144335283546571 0.20613046795237125 0.08685460691030276 0.17934284846621956 0.8119120464841922 0.7229480113021209 0.5009366885449291 
Task42 0.005127515472176403 0.1389075517666681 0.0190953390806866 0.1250979938091198 0.6537359618148073 0.9292262220276992 0.3188890566124958 
Task43 0.13540057955110094 0.026503408664393983 0.7237401188750833 0.040469600813054556 0.601362308291348 0.819308463861095 0.5213263572192626 
Task44 0.016008485032664818 0.05496333468961821 0.1976922049765856 0.6446570488062682 0.9135729520928471 0.6288815146633604 0.7812651079549926 
Task45 0.0034499335818878266 0.03621922775928663 0.026710167038980197 0.06060418991509124 0.4186040067642373 0.3139812544605063 0.3355323713879697 
Task46 0.07566077756872946 0.004821315729138067 0.20114237771719826 0.20100390489826453 0.30764293713536855 0.8520513321075194 0.5911602580156076 
Task47 0.1531504387868322 0.48917850156695836 0.11746204815758962 0.06936041457594395 0.326938122922243 0.7905528333591405 0.9017493384339867 
Task48 0.05472909016086557 0.08139571615930312 0.3061747594064828 0.09568096033306082 0.7044886097117978 0.5652642957983961 0.5967083643129161 
Task49 0.15613779295744046 0.20750935654206 0.4801234658422849 0.05366419839186683 0.8221983561819577 0.8620747705247473 0.4310372065958539 
Task50 0.0029381398104565324 0.010762995311380521 0.019136257319060577 0.004827120723097256 0.855650111770025 0.8487945941944635 0.7757797752936968 
Task51 0.017918184108020447 0.02086107960150628 0.022562394803825863 0.038121065921303945 0.505513830050741 0.7323862279844526 0.5740963116309358 
Task52 0.06018233307007445 0.003074979419954368 0.16572380986105117 0.19756904857550087 0.5722263076127094 0.4271337204406985 0.3830444792647323 
Task53 0.07341343552160817 0.24858670726329893 0.31171216377674427 0.08763815653018718 0.8811506721084108 0.3918398118795724 0.6121410759788094 
Task54 0.028913732749512953 0.037828131796935595 0.09121173608703942 0.037603315839605536 0.7257685318310596 0.7774439248076713 0.8115366048954036 
Task55 0.03822441465300451 0.05440191400315893 0.13937346596240735 0.13221571770842994 0.8991069004674854 0.9050011879720548 0.8631550672457691 
Task56 0.00858054966896702 0.28953608070441983 0.20306429825775685 0.13246958407904189 0.37801420377362194 0.7221288706545175 0.8044397621321455 
Task57 0.03543614700519725 0.2364224998166126 0.40445836210939834 0.09735427656770962 0.8003289433161933 0.8349452734931331 0.6277623985597709 
Task58 0.04193938338817028 0.16207900030012892 0.08921084194127726 0.33374946607155637 0.5263766354461579 0.389107666157414 0.9385798345233387 
Task59 0.021763939216354916 0.03365807387160175 0.1711476765012539 0.11805517810665253 0.6289001846622898 0.8910907639780503 0.85247032355523 
Task60 0.027060661433107914 0.22730613850584608 0.172873279231388 0.10088945156066097 0.8301568458224804 0.60488427900109 0.8235355872505277 
Task61 0.16408186152263696 0.10979163089181387 0.08973031668874996 0.477529242955545 0.9891931181344309 0.6815645239792156 0.916111354830095 
Task62 0.039915431410027506 0.1428308214647194 0.044279293722184365 0.07531513884588266 0.5298341713039325 0.48404554664437166 0.35428000045996566 
Task63 0.1310724144216196 0.3088458487807171 0.36726628585695426 0.047073879847249034 0.5164255490357426 0.8815901400080479 0.6385338942367659 
Task64 0.08130120933230964 0.22184233528280015 0.27983072551892535 0.06007085687111114 0.3365784143325304 0.9389940019564453 0.6296991007966135 
Task65 0.06592239361440651 0.10832363076747781 0.1893653302342273 0.11884318013801755 0.7794006694226823 0.7333860442560978 0.9282421487853019 
Task66 0.0984254336977226 0.029701158904445107 0.00926855026794055 0.5290087099474261 0.8024153210496174 0.44007320648104925 0.7325977160552251 
Task67 0.0029601375250805782 0.034473776015232376 0.062171054069783835 0.027181001909004913 0.6623989322066868 0.7553706689380273 0.6350688720689548 
Task68 0.019103767928915612 0.13565306427081741 0.023553190020439266 0.08471169212738147 0.7735319353703238 0.7628070271343272 0.8848612319363798 
Task69 0.1267925466616781 0.32927792603762035 0.13965191589714926 0.2819682292268862 0.74245552484208 0.7978672291881015 0.5122350351172632 
Task70 0.0339061100275225 0.09170312996698436 0.15065583825336704 0.20129164701401536 0.5557825607607643 0.5358889308580483 0.6812517619099949 
Task71 0.12128677196312942 0.10175569666894076 0.013269763260267412 0.3998689691118331 0.6621897268539458 0.43684644391017224 0.5537234426172395 
Task72 0.048200546791005425 0.20514951025600858 0.23220176832625133 0.30606715666171463 0.761784150234704 0.9535852941215928 0.9130989486904577 
Task73 0.0007566859768803994 0.0014822996801532522 0.0024331235322793345 0.002938134528020668 0.9850791102155261 0.5874206284668935 0.5903816778669653 
Task74 0.029915143130670178 0.070631179336267 0.05089453325875761 0.05334419092730711 0.5746263184852636 0.6932361115536919 0.71252703521986 
Task75 0.030909738398588446 0.2613837133656004 0.17894772695936625 0.45723555931227305 0.566069280699718 0.33790063909156137 0.9404252528424322 
Task76 0.12010641006832987 0.33448603274399225 0.2789868158990765 0.10360021961881115 0.8607826302413251 0.3248266973247627 0.43117602352543594 
Task77 0.10007734118828397 0.044723413030350136 0.1053412305130281 0.2564366478754548 0.8127610725242811 0.377129202350021 0.5973606922513464 
Task78 0.016919438922903596 0.052238844984768586 0.03608114592374412 0.019384187837015135 0.5067924955002313 0.43307800441605704 0.9786088425804609 
Task79 0.026386373426618683 0.2293674112695335 0.20299947547030586 0.23236799570637917 0.9484850294072027 0.6683341619924379 0.9507103048144674 
Task80 0.0815293473570969 0.1796913604377725 0.14572673531077587 0.10399395003063937 0.7014125415209174 0.5792559667893067 0.33048766301692384 
Task81 0.006916327072266197 0.005339309301321662 0.002444494339022121 0.02305362010532633 0.5411062190008963 0.6207479367013387 0.9740207548989173 
Task82 0.036334811026724846 0.1486986319723105 0.055028600699968136 0.1363059388302616 0.3449034093774683 0.6651417586802375 0.7404541523209878 
Task83 0.06183095599994805 0.30480487870801676 0.07235431864798846 0.2751805298293093 0.49424126257788326 0.8768227131661743 0.3126261546544766 
Task84 0.07553873944238443 0.05225053312417183 0.15798226252553177 0.21048584325185554 0.5436680711532322 0.871678483593618 0.8400582493006203 
Task85 0.0736444941948802 0.07450776891693714 0.19989526998576024 0.2143314472445637 0.6519667417774642 0.698000644539952 0.7817242329497778 
Task86 0.08774264764768074 0.08475650656125412 0.07171916207201523 0.27454136584405053 0.5551474576086093 0.3912945773048003 0.36267396137584257 
Task87 0.07079043069567081 0.05613374636509563 0.1846759996782588 0.16809299675514208 0.4550556888434132 0.9042495609689805 0.3846557450946546 
Task88 0.03682631036025312 0.1253739891477791 0.35040848712366773 0.1531772630992242 0.8476555591669601 0.9765081189270142 0.4883033484694679 
Task89 0.01541579537855375 0.10103349147294395 0.07208414769309038 0.000633938599690711 0.5083409791387511 0.34851298597416525 0.6034570997792869 
Task90 0.09135254163596333 0.22626986296406226 0.18136517613483755 0.24959745830632057 0.4281214813160925 0.746229889121857 0.6298297455751873 
Task91 0.05531959444160177 0.03775673746798277 0.5436026731149848 0.12106478090043252 0.9375217590265328 0.6240007913818942 0.6810959582958961 
Task92 0.015064531517803292 0.028466303532914825 0.021957503310486043 0.04219057440837848 0.5966881877649648 0.33392452394101835 0.706336172256429 
Task93 0.036726974525427884 0.13040508823167196 0.27867347880718624 0.08309598210249118 0.9588535882303137 0.9677398620196964 0.40192799347247976 
Task94 0.15210736279473833 0.22737437196712346 0.28856376944157874 0.134585587244262 0.8110948866761298 0.4494666801897077 0.6692439430338816 
Task95 0.008697573519091676 0.047367560786723835 0.0320820044642888 0.16479045601072123 0.5062902781999984 0.9060097169521464 0.993416695466655 
Task96 0.01233663528936771 0.3300663966049977 0.028322537581128807 0.18175734304507743 0.5612734277716749 0.48763831085853676 0.9376537132636928 
Task97 0.016302918526314502 0.2016675884987548 0.10835607076851572 0.08868925634970044 0.4908252811730667 0.3760433776793703 0.8476348973581154 
Task98 0.04405231461838441 0.013360976795104822 0.09248053402299339 0.25465769029734225 0.9924592900687406 0.6306788219013866 0.9397734782921947 
Task99 0.01941836477421936 0.10864170225847278 0.06788475671143891 0.03108821374641013 0.45891444471185144 0.561321927909195 0.5140836627046779 
