files/tasks_parameters/ExAp01/sample8.txt 1.68213 6.77015 2.19458 0.288816 6.45298
files/tasks_parameters/ExAp01/sample12.txt 1.97823 9.58351 2.46081 0.337498 7.54067
files/tasks_parameters/ExAp01/sample2.txt 1.85685 8.44418 2.50701 0.319127 7.13021
files/tasks_parameters/ExAp01/sample44.txt 1.66257 6.96299 2.23089 0.28229 6.30717
files/tasks_parameters/ExAp01/sample27.txt 1.68061 7.74306 2.16676 0.28602 6.39049
files/tasks_parameters/ExAp01/sample17.txt 1.70166 7.35053 2.25579 0.292348 6.53187
files/tasks_parameters/ExAp01/sample9.txt 1.65297 6.89392 2.21068 0.282399 6.30959
files/tasks_parameters/ExAp01/sample34.txt 1.77043 6.62788 2.3772 0.297742 6.65239
files/tasks_parameters/ExAp01/sample40.txt 1.68034 7.75686 2.17534 0.285619 6.38154
files/tasks_parameters/ExAp01/sample33.txt 1.99795 8.14826 2.6463 0.338073 7.55351
files/tasks_parameters/ExAp01/sample48.txt 1.59058 7.64107 2.14272 0.270011 6.03281
files/tasks_parameters/ExAp01/sample29.txt 1.64596 7.139 1.93769 0.286306 6.39688
files/tasks_parameters/ExAp01/sample11.txt 1.63262 6.88688 2.12981 0.280008 6.25618
files/tasks_parameters/ExAp01/sample14.txt 1.46939 6.11983 1.97599 0.247458 5.5289
files/tasks_parameters/ExAp01/sample0.txt 1.68073 8.2738 2.14256 0.289132 6.46002
files/tasks_parameters/ExAp01/sample7.txt 1.58591 6.87011 2.05821 0.269886 6.03001
files/tasks_parameters/ExAp01/sample23.txt 1.72233 6.52032 2.38087 0.291712 6.51766
files/tasks_parameters/ExAp01/sample13.txt 1.73443 8.73247 2.33415 0.295393 6.59991
files/tasks_parameters/ExAp01/sample22.txt 1.66273 6.9777 2.28948 0.283979 6.3449
files/tasks_parameters/ExAp01/sample25.txt 1.59082 6.23444 2.2122 0.267298 5.97219
files/tasks_parameters/ExAp01/sample36.txt 1.51189 6.6174 1.9458 0.253823 5.67112
files/tasks_parameters/ExAp01/sample46.txt 1.91485 7.42369 2.49128 0.327273 7.3122
files/tasks_parameters/ExAp01/sample31.txt 1.48628 7.22028 2.13584 0.25377 5.66994
files/tasks_parameters/ExAp01/sample37.txt 1.7645 8.90704 2.16981 0.295708 6.60696
files/tasks_parameters/ExAp01/sample16.txt 1.46123 8.18243 1.88294 0.24945 5.57341
files/tasks_parameters/ExAp01/sample10.txt 1.68486 6.96646 2.31217 0.285748 6.38442
files/tasks_parameters/ExAp01/sample39.txt 1.48047 6.4161 1.97266 0.251967 5.62965
files/tasks_parameters/ExAp01/sample19.txt 1.83149 8.16711 2.23199 0.308463 6.89193
files/tasks_parameters/ExAp01/sample20.txt 1.52892 7.28549 1.88944 0.25994 5.80779
files/tasks_parameters/ExAp01/sample43.txt 1.4921 6.86804 2.00142 0.25616 5.72334
files/tasks_parameters/ExAp01/sample32.txt 1.69035 8.15663 2.12995 0.281726 6.29457
files/tasks_parameters/ExAp01/sample45.txt 1.62147 7.75184 2.10599 0.274935 6.14282
files/tasks_parameters/ExAp01/sample26.txt 1.55952 7.4944 1.88956 0.267248 5.97108
files/tasks_parameters/ExAp01/sample5.txt 1.66608 8.08362 2.09961 0.28454 6.35744
files/tasks_parameters/ExAp01/sample21.txt 1.54026 6.11814 2.17119 0.26143 5.84108
files/tasks_parameters/ExAp01/sample38.txt 1.55362 7.761 1.96293 0.263659 5.89089
files/tasks_parameters/ExAp01/sample1.txt 1.70002 7.83752 2.13261 0.289228 6.46217
files/tasks_parameters/ExAp01/sample15.txt 1.68023 7.37971 2.12057 0.285825 6.38615
files/tasks_parameters/ExAp01/sample24.txt 1.74272 8.28531 2.25272 0.296628 6.62752
files/tasks_parameters/ExAp01/sample3.txt 1.79007 7.33359 2.39135 0.305084 6.81645
files/tasks_parameters/ExAp01/sample6.txt 1.67112 7.09894 2.24425 0.281804 6.29631
files/tasks_parameters/ExAp01/sample30.txt 1.78064 8.17669 2.03701 0.299204 6.68507
files/tasks_parameters/ExAp01/sample42.txt 1.76538 7.70416 2.42413 0.29743 6.64543
files/tasks_parameters/ExAp01/sample4.txt 1.84799 7.41691 2.36261 0.307803 6.87718
files/tasks_parameters/ExAp01/sample28.txt 1.5788 7.0562 2.07657 0.266428 5.95275
files/tasks_parameters/ExAp01/sample18.txt 1.57897 7.60139 2.1377 0.268016 5.98824
files/tasks_parameters/ExAp01/sample35.txt 1.88143 9.66795 2.28028 0.32244 7.20421
files/tasks_parameters/ExAp01/sample47.txt 1.47522 6.84842 2.12104 0.251655 5.62268
files/tasks_parameters/ExAp01/sample49.txt 1.50641 7.1497 2.11412 0.255889 5.71728
files/tasks_parameters/ExAp01/sample41.txt 1.52362 6.59911 2.07359 0.265885 5.94063
