Task0 0.28789731896798265 0.13991784610315885 0.013415860317943751 0.1389329119793426 0.8937173239079503 0.8153883207802113 0.8735410604730656 
Task1 0.07817581155559132 0.005226263839818229 0.04304400700565437 0.04538258006304106 0.9886381505318994 0.8481795640328462 0.9246806689733169 
Task2 0.3146162105643547 0.21982569835525134 0.12077834323629769 0.023190357259956915 0.9150746291097261 0.957678374900246 0.8324864874092851 
Task3 0.15048423066861868 0.052766354814995496 0.06369984079592866 0.07304705401721691 0.8327964550384105 0.8955409045879824 0.8688868782422818 
Task4 0.42230152363828527 0.2665877815767783 0.02335708282482226 0.2588838433011088 0.9261242869178089 0.9525595142551269 0.9994414740280915 
Task5 0.3839907197918696 0.1842334847135459 0.2858976261412829 0.09686353684756757 0.8281660637228907 0.9438349386891771 0.8631046698281104 
Task6 0.056343424280144216 0.027895429448794133 0.047961534744022066 0.0003190436039566722 0.8234156640340352 0.8009854364600947 0.93775199002162 
Task7 0.009646238994495807 0.005131590834979647 0.0022936185272431644 0.006425630163702092 0.9121468391394848 0.9111885966654669 0.9483542781401699 
Task8 0.1427800496426018 0.06617665518194868 0.05018524153034033 0.05419961944467636 0.9025607492660422 0.9181884633785046 0.8805182328407909 
Task9 0.34756056631419163 0.11144345657365164 0.15938731053279942 0.11969342239035027 0.950354428901504 0.994533154492531 0.9471431000822578 
Task10 0.3021473313641791 0.1437423151773121 0.17922616469322641 0.07185927000063408 0.9936465712981348 0.9582027205727333 0.8770838785210182 
Task11 0.31486283500056944 0.059837966078881484 0.02942743258304484 0.35259324415693305 0.9565551825563363 0.9994208168272893 0.8504517327380721 
Task12 0.0147904930524088 0.0017027757744893463 0.010191706700749828 0.007241502933475871 0.9927046649283632 0.8216994910688595 0.8427079667254963 
Task13 0.2142040616067468 0.05342223898711447 0.08893484294858639 0.09104612911891259 0.8870966402357502 0.8826760223919917 0.912066111219306 
Task14 0.24041656829602492 0.13826932447793108 0.021414843563261874 0.14305167539583583 0.8845705183564706 0.932904699074834 0.9231565379987693 
Task15 0.0820825016229165 0.05125836860288569 0.033264563412349055 0.03308396460030117 0.8248817922336077 0.8414177560579627 0.8222959008878467 
Task16 0.2542552810235086 0.09396222885267946 0.22226578969596683 0.038153686691815784 0.9825351214682865 0.9208533007441884 0.8541579804478511 
Task17 0.14812569916784213 0.0625830593793257 0.023692595227212787 0.07477423456235846 0.8347268416098617 0.999586090113604 0.972943304102202 
Task18 0.36537155537011384 0.18194939393284032 0.17339603472334228 0.14948267203036336 0.9775979707724555 0.9116801428958982 0.9257471525887282 
Task19 0.30135807674492376 0.17720455356801082 0.05154085711807696 0.13470589063783736 0.937662080236541 0.9775385825500471 0.9341448004368181 
Task20 0.31960867765262807 0.1125510432508778 0.1338136140345486 0.09968741669394103 0.9095732928323874 0.9113163480493613 0.8328263135562756 
Task21 0.1371795825885647 0.0011845840950265296 0.07389642429286725 0.07208914495633097 0.8122334100989631 0.9749820594836683 0.8843795826129136 
Task22 0.384402442173866 0.08400153518053137 0.21912463117166 0.10920150765729116 0.8631610155888141 0.8218134857345222 0.9756339354824245 
Task23 0.3445340571542322 0.11891177701248942 0.12463675797313438 0.10624570297739039 0.8973118255938279 0.9618119362482059 0.9889414804293579 
Task24 0.10530444751684137 0.060416853941544335 0.031229490335134766 0.035582565274616354 0.8428613313722657 0.9258651715625607 0.933159664261139 
Task25 0.375818425537385 0.021005102278516225 0.3491543987942654 0.04672111420702541 0.8500688757328936 0.9864119485372405 0.8759776463348714 
Task26 0.22422727572988518 0.05331819026412704 0.06772611741485234 0.19942313054405109 0.9389585677249545 0.8420542693593988 0.8894238700361884 
Task27 0.23782491277489856 0.14793371766475294 0.05986362018162693 0.03167013086815785 0.8531341121922279 0.8284258268927678 0.8836396575743852 
Task28 0.14612227777056958 0.11318992081822285 0.00023644706112711214 0.04809920166906076 0.8200898278171206 0.812218977617344 0.9764775776798686 
Task29 0.3907394407174516 0.16764402135843495 0.28819034153588374 0.031052225874211564 0.9361192715061353 0.9969215160299432 0.9481200923233644 
Task30 0.0828707453289044 0.05128478377353131 0.00810838115993727 0.026813080644359236 0.9660643373935397 0.8634431649371083 0.960260456012369 
Task31 0.2791990727804309 0.023303178652586604 0.2909806776630904 0.07525887492840676 0.8483231923579233 0.9007264236117687 0.959664075576214 
Task32 0.35415884144987464 0.18045678018712352 0.193040569602179 0.06951938376679727 0.8033657409595502 0.8136797187163703 0.9037258691166892 
Task33 0.12271805202838934 0.10890644228284038 0.006853930841143395 0.011818431052093618 0.8314885137025353 0.8217125269878822 0.8585142197302477 
Task34 0.13247227778832607 0.025129680047802836 0.03373198237543017 0.12699365900369367 0.8746027163637978 0.8421179239485241 0.9488502337963276 
Task35 0.3778939938752272 0.29318803828245793 0.07216606961150739 0.11478910525365647 0.967286718005831 0.8088551114362222 0.8469752959797301 
Task36 0.014098735364193645 0.006182771738839325 0.004901660624599874 0.0036319945831961914 0.9708305251998898 0.9655947743053365 0.9314183478297027 
Task37 0.41827809482518263 0.04617361552937123 0.09541384475614294 0.3091482395447828 0.8801179094005618 0.9453791661987111 0.829935198096508 
Task38 0.37443276945531656 0.2661806194685626 0.072561133758686 0.068028356057471 0.8758671455436043 0.8390149558721165 0.9748138980106805 
Task39 0.07627094177556124 0.018494663747193944 0.07117607525690087 0.023853362155811846 0.8921120160410135 0.8123943377686652 0.9311599443977446 
Task40 0.3800990464399532 0.2141796079725854 0.22231339990882537 0.12277015089962626 0.9505079630308235 0.8551110930706065 0.8271508032896054 
Task41 0.0001780141419672137 9.989762709194986e-05 4.540842128541741e-05 5.6942017272862385e-05 0.8501199340567064 0.8506256745465937 0.9180659642829364 
Task42 0.3052016180515007 0.08161107082926047 0.13181524680070267 0.15270902483636287 0.8787797362584773 0.8629931085741933 0.9762347391387157 
Task43 0.15878219679407063 0.056139669911078764 0.04610074380755568 0.08457644051592514 0.8408382158664282 0.8670087393589181 0.804498442129996 
Task44 0.09620217310661873 0.06148006079465991 0.07196835402381907 0.003964375634464732 0.9211202631439214 0.9249562865835096 0.9677050693925415 
Task45 0.3231030723482511 0.16713133358441512 0.03657068244747873 0.1827511868186378 0.9432307881406067 0.828072309769885 0.8360367420204167 
Task46 0.2571670027943266 0.15446034506626027 0.029912085025482055 0.14216815104717603 0.8824886796800967 0.9753861466809519 0.966894321857125 
Task47 0.36107556310813943 0.17328665599526144 0.06018096806481658 0.2478618821351913 0.8891639495089698 0.8431511618175651 0.9821278850151759 
Task48 0.12760496895657022 0.05971393714821502 0.0937214144080498 0.017224068744952758 0.9790527382159049 0.9126288523829994 0.8839910083389853 
Task49 0.0799099947266087 0.07818611888581756 0.021259243182944674 0.005637603353933608 0.9817332802986413 0.9368098410505091 0.8243064932116181 
Task50 0.08062710982014253 0.01792021418737377 0.03306223319192277 0.04128463610329086 0.8146019241811822 0.8065850591079554 0.8426845812688969 
Task51 0.33376266304422864 0.05163729614964173 0.22768514405742188 0.11127441259097884 0.9671704127128741 0.8470225779801798 0.9618788915268496 
Task52 0.20955995974844746 0.09437630679034612 0.13108634300792238 0.08550997740327952 0.9833890957182282 0.8938687237301145 0.9257219723335333 
Task53 0.42865573734741824 0.280033662070329 0.1423743919790427 0.14261393885295226 0.8537699315503879 0.9984065160427641 0.8556306675823679 
Task54 0.17158394057024814 0.07190139521925235 0.05908446927195315 0.08401411465191749 0.8288839940272096 0.835269585863162 0.8486641461358294 
Task55 0.20721254416654758 0.13176776124108888 0.06907993212528622 0.07693846569915648 0.8863633760051401 0.9138232417583855 0.9653800215902926 
Task56 0.015427180974910998 0.006718117449790027 0.0014073778335006912 0.00852418759599745 0.9877858910876891 0.8564656315010605 0.9993004301189468 
Task57 0.027074358672897883 0.011068687261048926 0.007272299228314133 0.017340017906283405 0.889290153073121 0.959174893973044 0.970109716480315 
Task58 0.23650949939221635 0.0881300490318472 0.10370622834474458 0.1057324254382193 0.9903700390176151 0.8156292317526662 0.9877102136729199 
Task59 0.3551402222299742 0.12886155402492153 0.01094661145448585 0.28901989513256593 0.8828681217282002 0.8013175621219764 0.8350518539487789 
Task60 0.3828081792462523 0.3420224110516782 0.042700003475765316 0.08564552896130527 0.8490059765949426 0.8065883006474341 0.9327455899362036 
Task61 0.047778157154223684 0.011301970193027255 0.02499090136413093 0.027753726619306713 0.9776937802829748 0.9928496742179634 0.9639632098045234 
Task62 0.2600457524899787 0.15789964023765368 0.18964058967053346 0.029310200345189816 0.9536168800597389 0.8504422884649276 0.8684773100422426 
Task63 0.41626608989486 0.2840462475388351 0.031125806987324065 0.1921426379931563 0.8915198175895365 0.8033800195400551 0.9161994023867969 
Task64 0.3669636066032832 0.09884328007597669 0.20930585789196335 0.14576822658015584 0.9705805116271811 0.9013056947906599 0.8230991124319947 
Task65 0.4116770086397049 0.21550981853846585 0.09282011882920833 0.10700363495953982 0.9621203851456874 0.8023947865939042 0.8334409076097107 
Task66 0.15994211987205947 0.0837846090265759 0.08880097622759733 0.06094431429079973 0.814989210638108 0.8702813748475268 0.8326823503880965 
Task67 0.3883214276490192 0.2766799076441423 0.10351644685049835 0.07792491069332437 0.9224886604754895 0.8834162292921628 0.9985369045337966 
Task68 0.2361146336752428 0.10601755843400532 0.11949207364694216 0.0902901249856212 0.8036276423577441 0.9083183860479712 0.838107416131062 
Task69 0.23456665515610634 0.08125732036739722 0.04229253674774593 0.1569444334261502 0.8512299532104058 0.9815693371125593 0.8769673772192932 
Task70 0.22355210732254435 0.05878736921982502 0.16852192801152274 0.0016573706827820475 0.9705006703852845 0.8730901831939756 0.948883403193247 
Task71 0.08145572167454579 0.011474334934714947 0.08370878161991217 0.015222195805703605 0.9419553025583107 0.865475210698723 0.8161799887780137 
Task72 0.2717208340851755 0.0532621958445959 0.15977683878161236 0.07766127339455699 0.8176314421328523 0.9582892085943462 0.9914359587395577 
Task73 0.24703098591804598 0.08348354221644175 0.114590872660773 0.12703565056236618 0.9248143374050541 0.9809383666387007 0.9981736482736989 
Task74 0.41913650311396183 0.09967822527489671 0.018210835415906873 0.35712755761502313 0.8490104095679155 0.8152228185477617 0.9092506336994672 
Task75 0.30751070394962315 0.13097941565728533 0.05955797837612934 0.19737046605828668 0.9882606517503647 0.8315477913201117 0.9208725084297373 
Task76 0.05386387791969463 0.004879475995678369 0.03509440289189845 0.015399957852876196 0.9962851650315361 0.922768582741379 0.8850333743948031 
Task77 0.2343561881252136 0.09763326732124294 0.061002514182012926 0.07735205389638411 0.9212129020690102 0.954153494068773 0.8520172396754525 
Task78 0.08689071638651569 0.0032889260101663883 0.06603106304022342 0.058541582705146124 0.8261859724844964 0.8198573006251314 0.8498111361307283 
Task79 0.24311443610677844 0.0875426837766013 0.2113816289676371 0.04577760884955779 0.9832817884628844 0.9559128156532416 0.9531281815747453 
Task80 0.4027101561549428 0.07849906022373569 0.27108615362374544 0.14331909103606078 0.9121782519264329 0.881853534856226 0.9264019883730691 
Task81 0.22661685544949442 0.04123291332878886 0.17835852711706485 0.043311294641434586 0.8821923156690605 0.8433534400685844 0.8633325569306778 
Task82 0.04949507946840004 0.010123791599011072 0.03185154595743951 0.008354103194260758 0.8231919806152623 0.8466808842500104 0.9912040151374854 
Task83 0.10204972374905318 0.09350869391645386 0.03622078969948118 0.017845648720459056 0.9823244363072046 0.9890705985126298 0.8368307322760885 
Task84 0.267770759624495 0.01878753799219739 0.15757397486486294 0.1614254157842837 0.8376541548158728 0.9171223933781565 0.9314011350639428 
Task85 0.3513058396855156 0.16224419719670025 0.04643718478215366 0.15396387427050134 0.9269285975123315 0.8435815289430557 0.9492110590515312 
Task86 0.19741561353436685 0.12995954993316666 0.003371035092488533 0.11689774425745152 0.822717867938599 0.8158107776031984 0.9147390580470517 
Task87 0.4022862376849476 0.22385617996577442 0.019064186977313224 0.30940938723928313 0.83729087281773 0.8190657611657615 0.963826973601046 
Task88 0.1607700763639895 0.20266889820542713 0.006088886841939608 0.02162255686563105 0.9505981577102671 0.9344786284242314 0.8193586732279055 
Task89 0.37284365658552493 0.11217597363681327 0.18251020732584305 0.09655194575985657 0.9658071329922332 0.9347946555652584 0.9132316562630866 
Task90 0.1330704691556313 0.03312427457816848 0.08289954831025947 0.06429188209960403 0.9278621623389478 0.9432885434912216 0.9614546851888432 
Task91 0.1777840173963728 0.09120361604565885 0.06128936855765313 0.048184263031867854 0.8926156152759747 0.8060855799371375 0.8195014169570662 
Task92 0.41091953483540594 0.2584207143073085 0.1349655332290886 0.03277801401260094 0.9629690256434434 0.8113178616752637 0.9453170154317246 
Task93 0.06755554815008771 0.043828612808628126 0.02422868147980432 0.026428607555831478 0.9459795360799347 0.926789286750995 0.9316829410834864 
Task94 0.293597068969782 0.16254839751694125 0.06861178549791604 0.07217996343587674 0.9879806331361095 0.9857270216515948 0.9958823422861514 
Task95 0.35257302110347893 0.17060635118220452 0.1612299229863214 0.06659469108288024 0.8314910478660735 0.8437353701954831 0.9383763125099153 
Task96 0.06945103770351006 0.037874592168192056 0.018307149311657323 0.016943062778644786 0.8400038307192391 0.8775574395122947 0.9879051867675114 
Task97 0.24438353194072213 0.002005306090845429 0.14448152425954625 0.14735072911640723 0.9178848833466774 0.9364919751617428 0.9113594954910332 
Task98 0.13424552506943638 0.04610779082521849 0.15068138693981784 0.004330543942901048 0.9726890882919913 0.9831087741344547 0.8100981444086137 
Task99 0.04353584741305922 0.01982207067250758 0.018945090057383485 0.018089825514514924 0.8734478940918443 0.8129694641138727 0.8956725535600543 
