Task0 0.02153141707213014 0.0004454173831483222 0.01794835059474394 0.005358935457432716 0.9417761989944741 0.9302776845603943 0.9074054072159119 
Task1 0.38383189404280227 0.14552979579856884 0.12329216107448357 0.19868738862741014 0.9880386830430437 0.8832743375067874 0.8774066093687175 
Task2 0.02855753495406733 0.012306001824780451 0.007529251612796299 0.01226522925063266 0.8554643802320089 0.8376299898379531 0.8505658618556755 
Task3 0.0486225521473136 0.020070540529916067 0.005473281653484502 0.04389389180092183 0.8474023019682868 0.8981705564306214 0.9789130850156045 
Task4 0.3457750951284491 0.24114631845799786 0.016492121505608467 0.21123299211426846 0.8967578431780255 0.9695305344601969 0.9530887795324609 
Task5 0.2647370986885015 0.1577597692112154 0.07357557927455033 0.09249959062996917 0.9455511792900188 0.8833632843910492 0.9246894275266069 
Task6 0.24309569473469206 0.056507981027766704 0.0844758290547513 0.13207916629988853 0.9760045817274848 0.8602662540679045 0.9994174292611178 
Task7 0.1682667340204863 0.11054855315769839 0.017182228640749055 0.06679319846904437 0.8038813267095708 0.8827025203099399 0.811559364658216 
Task8 0.3995469419502179 0.08405463976059435 0.21250041443654036 0.24701567739844094 0.8332752223591537 0.9236906132258982 0.8703550008400928 
Task9 0.2851512819327812 0.04800760159451588 0.10035802169378519 0.1619071292238403 0.8156180551633334 0.8789013509067581 0.9146785387070734 
Task10 0.0439954859710716 0.008689152389211075 0.019711200999456672 0.023230771088718308 0.8166992417854246 0.8350836805880516 0.9805127218725317 
Task11 0.35997935161809536 0.013429704631143426 0.3367696177139186 0.013474792693334611 0.8999396163337232 0.8493106961883752 0.8468751597464923 
Task12 0.08570018640901722 0.060049784891855834 0.05311803519977769 0.011268801241809182 0.8006249050941142 0.8606217970155112 0.8689911634941765 
Task13 0.32233784387811953 0.13107652812065632 0.17067833115031686 0.02346919360645671 0.8832807291358938 0.9027135459122857 0.8999291142731894 
Task14 0.15828260992551463 0.032219916051505905 0.06284515914794687 0.06440548602243804 0.9135531906331931 0.8380787469349045 0.9492331230928452 
Task15 0.4643831338775445 0.22204767532280345 0.15769616108117648 0.1431678155532867 0.8828097730053488 0.891017006462444 0.9737675919181824 
Task16 0.3295274053735909 0.031763742286994114 0.08155382810783515 0.2319741303993038 0.9145191118203341 0.9408714521642347 0.891554590275641 
Task17 0.20839059880355892 0.042415398693452254 0.11922453170635477 0.13954571209373284 0.9851083931924818 0.9784153607061544 0.8842764404201151 
Task18 0.33592416235903066 0.0891418241185731 0.2298899420434978 0.061500360236698574 0.9270997593584723 0.952010247783275 0.8702837148061207 
Task19 0.4197270121097429 0.19242939183810778 0.1880249608359101 0.09745777448620355 0.9001809615135852 0.8863707468415859 0.9149306155179302 
Task20 0.40879996954064907 0.18747553417966345 0.22602009986765015 0.16617030069162358 0.8278296280226878 0.8034791233270561 0.8332877297311725 
Task21 0.1704591732580114 0.09499354756975398 0.10207030550297773 0.047634882876448965 0.9046256842946657 0.9204095437468547 0.9055344566603829 
Task22 0.3316871230777296 0.026034679809318204 0.07787331127440769 0.2307096601809816 0.9460851830362811 0.9693404057998449 0.8121458922262834 
Task23 0.1273798672618458 0.04857949796261273 0.05096060873934089 0.08902682079654861 0.9065622897144932 0.9241175643309324 0.9439797130633151 
Task24 0.4165410303341158 0.05562350161359674 0.2330320845163216 0.1866901431522474 0.9362895661021963 0.8332836336047509 0.8113473167240621 
Task25 0.20362338199042582 0.23562741958191977 0.0401891317033786 0.011906054655507913 0.9913826728122273 0.8509707696953117 0.9013651773682911 
Task26 0.20577484867204052 0.16975882070069534 0.006929019424614594 0.05348464438798939 0.9218190211527624 0.9888672606455925 0.8094196853877609 
Task27 0.12390808021123424 0.033110825635616174 0.06310596663232516 0.058162109224028403 0.8797119608579975 0.8989678464984382 0.8047765647223666 
Task28 0.1618749083672702 0.005325779682987353 0.07889238008007161 0.11163570311628103 0.855221372885025 0.9907007121490923 0.9968311612907699 
Task29 0.35477620604171106 0.1315615927835738 0.09033360134591988 0.14840612153631907 0.8636921309563055 0.9999619904428976 0.969150208172799 
Task30 0.1884525196245767 0.11737724118358658 0.05996295500948519 0.018058052827608587 0.95896190539843 0.96784370361714 0.9820524931372564 
Task31 0.3563632554060228 0.16198675501651175 0.07466094031252511 0.12070620200149587 0.8674710684582694 0.8691807984937936 0.8471672717204064 
Task32 0.3407285419776092 0.07064266248530915 0.17185642595862713 0.2052279136288526 0.8532741077589361 0.9231110789728143 0.9985545847406638 
Task33 0.30877121981307054 0.1988128995862269 0.046121723126804993 0.1925432894651821 0.902761449728163 0.850701642454393 0.8872082009124049 
Task34 0.0781638110932243 0.048985089633402444 0.01166485268710453 0.03622801573886866 0.9806374283090641 0.9694287564606617 0.8932623485129818 
Task35 0.1551308988922855 0.005790232430840022 0.007022168256941237 0.15519070581815547 0.8692452804471215 0.8939849252802244 0.9560011692072232 
Task36 0.041692401049652196 0.01807235360298556 0.014856276455904953 0.019551857684959123 0.8904308735304434 0.8453895146314325 0.9193466635149491 
Task37 0.3950647452220555 0.11980571023050192 0.2448015398282624 0.17266121937092271 0.9826860298005484 0.9171821727487837 0.9472445866822796 
Task38 0.3051440900688298 0.05196734627026362 0.13984512654618686 0.13239409308065792 0.9526377372181873 0.8324882893780371 0.8130372907990818 
Task39 0.396298567756085 0.10321874389136881 0.1638129056163691 0.16730765428092634 0.8206156358021882 0.9239477772032452 0.8866574577090786 
Task40 0.11193707874239911 0.03988478717904983 0.03674239964573647 0.08786903061403462 0.9047295844216022 0.8498107802098892 0.914765919973781 
Task41 0.3183805917275799 0.048328642274784304 0.080921399078473 0.23918745108641312 0.9799289391331141 0.8758023756169986 0.9906932327612124 
Task42 0.14427807199624107 0.038476659708007885 0.00994188519349595 0.12099443854794265 0.9236619637237838 0.9387719007540358 0.9887499009649925 
Task43 0.058090720894877435 0.029767899188229942 0.026940850629793067 0.015679537984510588 0.9193663697741421 0.901041137819198 0.8052135520835626 
Task44 0.12111233375669318 0.11268546772165393 0.011590883588083729 0.023706344111847917 0.9495151155897068 0.8546335886801708 0.872253882729655 
Task45 0.19066341103723777 0.13498194076195483 0.12954890162248828 0.016592477765062487 0.9683720539746051 0.9096710392793553 0.9744026301691486 
Task46 0.2660854448477919 0.1005684452397474 0.16901146156604063 0.03365796472738143 0.9700496118389978 0.8417985203400162 0.8662451936452725 
Task47 0.17259364611315178 0.13713785759503336 0.018545865939219097 0.06948299713655211 0.8317556336145834 0.9222715530360253 0.9536359344424585 
Task48 0.31699727547751416 0.12335000039068028 0.12366481624672458 0.08158822409173092 0.9564813560357838 0.8762501772291832 0.886338541301614 
Task49 0.48464099760734347 0.2591165249255214 0.09364122957719045 0.15792903933334257 0.8637435448573529 0.8617384584784832 0.8607025900482476 
Task50 0.24451975470147538 0.13701186356663922 0.05467054542142742 0.1403494463857132 0.8120818328146476 0.8682284962677667 0.875191668591686 
Task51 0.24703806372618026 0.050192940616914386 0.20971368137126545 0.007777199771504691 0.841392552482248 0.8736563578699572 0.994041284026436 
Task52 0.4259239904205983 0.13124120505263848 0.07346980326792601 0.32603873389220617 0.8943921452267325 0.8895964205442558 0.8605687368544097 
Task53 0.21270417405557415 0.11473053344960212 0.12043213433325509 0.03056809794526694 0.8251817207351205 0.8923542167860354 0.976030945077301 
Task54 0.40372402969042465 0.04101334827067828 0.1972877701997776 0.3334444113683179 0.9721245830936146 0.9067791375568672 0.9220720888804423 
Task55 0.22995546001822217 0.002528156321920029 0.14271871360300867 0.12834121569643528 0.9394412617562639 0.858253694306305 0.8526680945399105 
Task56 0.3614274972049315 0.10434470829335218 0.17336227554207084 0.09829193294550229 0.9652879284099789 0.8640201420362807 0.9633385937123984 
Task57 0.3416690926464489 0.13729992801725788 0.16795348812768846 0.044054814387169204 0.9647725326495595 0.9521136771445087 0.971175767600335 
Task58 0.25775259984490745 0.05576702065998628 0.18391680889382822 0.05146477106755425 0.9781593768931149 0.9495656016267031 0.8602227354764964 
Task59 0.27620759031891884 0.10196648700804761 0.12418353970695668 0.10289982466833157 0.9078547264842808 0.9278717696334635 0.9656602632765096 
Task60 0.043799527154859706 0.006609148024355929 0.030748957684118314 0.017587332776634303 0.8723155222204904 0.8107060291288338 0.8740842450663799 
Task61 0.3985028920948703 0.20659721135788192 0.23285679977703097 0.012524050112874779 0.8560193560090171 0.8915621755027301 0.9116617233124132 
Task62 0.036160449217651144 0.011319155254957044 0.018655057750431206 0.017892325645580333 0.9071104516682214 0.9572523301973188 0.9897938504441564 
Task63 0.31364938124285746 0.04899505651852649 0.1412035161504268 0.1892001069385301 0.8557625283981519 0.8859173874322095 0.8417046955357386 
Task64 0.15325354676414923 0.03023389062852533 0.11042149044564092 0.06793910299247514 0.8000039548152509 0.8805054181766587 0.8823700648009862 
Task65 0.08868278841206136 0.009216486679407313 0.07768880172343301 0.020594552987641044 0.8233438449160173 0.8723340533997973 0.9763878715401981 
Task66 0.47430791399935596 0.30077731724513174 0.03149498782804129 0.17267996717330641 0.8714301989273441 0.8931990779598918 0.873535301047365 
Task67 0.22196782063636214 0.06818301147621948 0.05016518105822884 0.13860357249301605 0.8532788466886461 0.9772509008893763 0.9511508456246962 
Task68 0.2295157813460254 0.008244604537194316 0.19454765715805966 0.049000307744377 0.988535483617994 0.9800304256342194 0.96192839059864 
Task69 0.3920507054029365 0.18544537432696598 0.2299131034342338 0.10493725962557834 0.977994055451838 0.9296631480991752 0.9783568956173034 
Task70 0.1779516531954821 0.01659925736242853 0.1209708083480203 0.11561398749251153 0.994482674085904 0.8587518779126782 0.9558683347270672 
Task71 0.027538207036624265 0.01877462491617664 0.016366299382262233 0.00578888687239138 0.8430526266201437 0.8377911787028298 0.9377101299799202 
Task72 0.0931265184131328 0.11213331122700865 0.011198706137548472 0.010188774998302307 0.8373356307931764 0.9490781281518946 0.9470045317196465 
Task73 0.10691819591674423 0.020692021315118086 0.05571810911101521 0.08087593336827505 0.9638228758936801 0.8979580210440218 0.8493774621121757 
Task74 0.15223013211731998 0.06554461704356565 0.045359309676059625 0.04195046205660852 0.9022271648736452 0.9628110296548057 0.8982392454741087 
Task75 0.06439180114855673 0.013541155108632665 0.0019672228615094985 0.06600485252557191 0.8377485645880928 0.826263237684079 0.8450482716122462 
Task76 0.08436097179516173 0.036297375162904565 0.04082146254432176 0.03988308826315133 0.9978469110995362 0.8743391499821045 0.8206198945396972 
Task77 0.022753462126666228 0.009204429896270787 0.006274994488073251 0.011576461929964903 0.9871014512891494 0.8518362662121244 0.9518828227462564 
Task78 0.4132412323314502 0.14510607678665005 0.024407249655780786 0.3594083962678819 0.8874362097929996 0.9609650929113848 0.9867624847429567 
Task79 0.12790995291468574 0.0464653330385331 0.06981092342052893 0.06243568251052867 0.8930699832330119 0.9101880955112844 0.8396333127978028 
Task80 0.36261787869525125 0.1547479102592267 0.020839563967797674 0.3042125884387064 0.8751454475948821 0.8063116870361868 0.8289223328115963 
Task81 0.3529246426036451 0.1263017079291243 0.21709701314193514 0.04957376697591288 0.9641984960337662 0.8944313621366063 0.831550888357632 
Task82 0.41856031029167073 0.17346534006420994 0.007370209799044456 0.3179274514758285 0.9923959670101526 0.947604558059248 0.8662490438977579 
Task83 0.24530871103917326 0.13154722516250925 0.02667784856994056 0.1788598340318248 0.8401012429194523 0.9617708926745321 0.9756601489356348 
Task84 0.06318743322348808 0.0267797174195198 0.011757920428499696 0.03601141656193457 0.9431469640028081 0.9888341645810304 0.9349389344015994 
Task85 0.37833783877706734 0.36417035748274196 0.04634673266980949 0.13147091278502906 0.8899399222840532 0.8009849066693885 0.9754266232944041 
Task86 0.1718051697203059 0.09146537355423558 0.026211132201359545 0.08150758823379294 0.8046524468789492 0.9782264557904566 0.8920265401689453 
Task87 0.29874112812755566 0.10027638522141674 0.2583925906277206 0.008461156543877732 0.8200421333387942 0.9788768050752108 0.9695404800379728 
Task88 0.2666989060425653 0.017172968090791888 0.17716742338162766 0.11443066829325918 0.955647572979601 0.9886586821096511 0.8353191074460845 
Task89 0.3108501780380479 0.15183575949901473 0.06367280898289579 0.18736506204598244 0.9078036447813596 0.8836973706914406 0.9206361405871485 
Task90 0.11521493462625447 0.005928314535478346 0.036115216122679865 0.08102208246984488 0.9547414718280545 0.8179814666196912 0.8414116857957057 
Task91 0.2965987998767598 0.14409725724837366 0.12245420926175678 0.14431077550450935 0.984175913562239 0.8374865086059853 0.8836175394947877 
Task92 0.12528060189028867 0.01417483375433062 0.10994487725535829 0.05402295519119291 0.9510898095919424 0.8639722513150636 0.8989358964953332 
Task93 0.13997904019539462 0.03025066590323381 0.10288099520740426 0.04647550247280827 0.8054111034196971 0.9959289356861695 0.8358075991483318 
Task94 0.049168586180359596 0.007744336126203567 0.023585033932995277 0.024929729928671956 0.829685250054545 0.8549919998106914 0.9291555902765878 
Task95 0.36537590318983587 0.10255835457612711 0.11770966514942444 0.2132113684512266 0.8337929286133716 0.8908230696412182 0.9566113604504285 
Task96 0.2845747384602671 0.06500882953806485 0.1484814903279921 0.10431686852007238 0.9370864748810256 0.9035151218821303 0.9202101612408752 
Task97 0.07452042275586829 0.051971998322307006 0.01572807617409436 0.024678844774439206 0.8581762472193551 0.8691275284053543 0.9595016506141085 
Task98 0.06268579981640811 0.057649951420829106 0.016344347353504856 0.005409827521513391 0.953198301441191 0.8636961664638984 0.8296865322806359 
Task99 0.1721616882428524 0.04019857192827414 0.11481670774815977 0.047285239947399596 0.9972684245943385 0.9970363553646988 0.9511192979765809 
