Task0 0.3617453610710413 0.0337940686457638 0.2570376574919571 0.14629288136761276 0.8258695509901657 0.8434446310370853 0.9952161153577348 
Task1 0.0789794189771389 0.019927933529758232 0.015265419185307034 0.07796274415458208 0.8962678735000897 0.9133284801331852 0.9595222306086104 
Task2 0.40787921218804873 0.13702875085870309 0.1148629608686853 0.3008444503916204 0.8563540788916552 0.8036664310238181 0.9733718400113605 
Task3 0.04697922331490117 0.02992257759383357 0.006212880776044036 0.02655926627048354 0.9544770871558679 0.871352643958523 0.9803588270947554 
Task4 0.3641613502750647 0.09667701338234769 0.2986688117642649 0.09840706586468656 0.8994875822883852 0.8073142434093269 0.9163596220354026 
Task5 0.012399859220868975 0.010112804366641828 0.0004354362612789272 0.005855556481592338 0.8689661151460042 0.8732862475054609 0.9527376281206194 
Task6 0.25743226662596813 0.1999194600704032 0.046646939799459476 0.13735960334509223 0.9210571141706951 0.9998113539707623 0.9525191280148162 
Task7 0.01648781055670477 0.0031647707825697754 0.00522731327219692 0.008462198629543203 0.8341698537964746 0.8624896032979643 0.8602237383607408 
Task8 0.3524498983788672 0.038228912039728474 0.15862896486006461 0.265660139258214 0.9005232046085837 0.8990651612604686 0.9327931686858922 
Task9 0.17552479225112977 0.08372751147785341 0.03350569161567989 0.08664215144813213 0.839755039160079 0.9638214758471233 0.8379995927261065 
Task10 0.15285232003377322 0.09951087345754403 0.09409860257487491 0.009301965552645439 0.8936880783187323 0.8189605405363092 0.8631397025687282 
Task11 0.1576319771899895 0.04926804816149177 0.070459524857796 0.07249476786520613 0.9544312989362347 0.9139484090085954 0.9616275712244071 
Task12 0.14399350233071534 0.10780807108655635 0.017395577565378743 0.07579272454784346 0.8201239215799314 0.8532066670232039 0.8021989404541163 
Task13 0.22391904939411916 0.11808823022434803 0.037533698821429644 0.12400920425563793 0.8495735050947527 0.9639485777167077 0.821482979192565 
Task14 0.31581967575578873 0.0010421529268875907 0.16718579530099748 0.2635348320213123 0.8090053993244708 0.836299048830143 0.933754173201992 
Task15 0.32682154563124316 0.10848461081845119 0.2631359334947724 0.11325031880789779 0.8595435186581466 0.923772546948792 0.8406553918779105 
Task16 0.32028740747337103 0.10111484669707745 0.13000540943461658 0.1405125387857108 0.947051670770572 0.8444312754316028 0.8326192524387556 
Task17 0.35930244225138264 0.11155112443255456 0.2124357123812971 0.04696600525452074 0.9823168248201879 0.8665070048643938 0.8298185235238048 
Task18 0.16632745534268273 0.009851564086122635 0.08184919221230211 0.07885928412958285 0.9041129620219942 0.9162961766222475 0.8602189082929204 
Task19 0.01813105085567638 0.011593263002202469 0.009596237998474373 0.002166313422013651 0.9770495833551446 0.8571034474859428 0.9871246616265601 
Task20 0.0641468224064141 0.02894466748720802 0.015219138059228933 0.02797956157777837 0.9464553212508124 0.8512792146950497 0.8337366364424542 
Task21 0.08709874935312206 0.05649908788408911 0.0512243292293403 0.006640628289485859 0.9401057261781521 0.9197131917700423 0.838430000035201 
Task22 0.11434732128534397 0.058207992451343844 0.04351635174247443 0.05245229285845663 0.8433021466771823 0.8261167511731357 0.972766609991415 
Task23 0.007217809245491485 0.0023262077308846656 0.004884776639395332 0.0022464221386221993 0.8958340366627201 0.8879489072632872 0.889502943202165 
Task24 0.24873121368470644 0.08816730213956944 0.14341345396102517 0.03491630468064226 0.8454229777703827 0.8329348230734552 0.8470013412582508 
Task25 0.36983499243775364 0.08139806215063285 0.2105741460921612 0.1845313611876621 0.9325495632734397 0.927599142913317 0.8603704337179992 
Task26 0.29412500132181624 0.12449513402498552 0.06892155824080007 0.13202274599474703 0.9468516946396502 0.9654204839707807 0.9795317634803824 
Task27 0.1871616530762212 0.050726322849533066 0.07237945177656538 0.08275203193191302 0.9621091819168411 0.8725879899857526 0.9851314631215539 
Task28 0.40356516146628113 0.16616658425772013 0.13051107965442957 0.10913799771290228 0.9485641469545647 0.8699456456578107 0.8052249148734703 
Task29 0.26711667110403764 0.06352554198009722 0.15692455040682388 0.11119957403712113 0.9198842750950714 0.9053188053772544 0.9717412964514146 
Task30 0.33042833886325956 0.16733842848054262 0.09672115239198616 0.15223604382780168 0.9265890166212938 0.8567634816448365 0.9322016061697714 
Task31 0.03058325363536038 0.00805537963189091 0.008704732568652467 0.015691161747383674 0.9896912201579898 0.9247678484603505 0.8343316768252743 
Task32 0.34973611371505686 0.19094920419943864 0.2342872450470214 0.08100041473339359 0.9147264143845127 0.8634054442734513 0.9442018774697942 
Task33 0.23295734406596888 0.0113525523925442 0.11146657788529359 0.1682657577401619 0.8557088635447533 0.9840364162160822 0.9991262036441617 
Task34 0.21225238184183448 0.11513849099320408 0.018494195279045545 0.08697962831710264 0.9074943656137299 0.8151930805484188 0.8951701876818334 
Task35 0.3312071313453149 0.0464127092089825 0.29527155792245036 0.13237743051580544 0.8070597497609584 0.805053796316708 0.9957042630680478 
Task36 0.19112933434848622 0.052955057382829636 0.0922477416462298 0.08343478409258782 0.9545128068372164 0.9352404897006413 0.8428635514191487 
Task37 0.2447721707440702 0.07743616649039557 0.11068390900823921 0.09200678175901644 0.9480875674782447 0.9395390107741157 0.8840174148833211 
Task38 0.414526409666307 0.2319978275545497 0.08190572018236746 0.20562527989528792 0.9920370842376978 0.8069885135957576 0.8782707783685514 
Task39 0.23643855358310928 0.09644097170884995 0.055453300752583486 0.09589958486216706 0.8867601597094731 0.9049709966884851 0.9414818914654387 
Task40 0.2683816620209128 0.12557877829358507 0.0540275366557153 0.1284208509549501 0.8758250289733199 0.9784489901578249 0.9195786744054242 
Task41 0.20643148347385418 0.16799689813918411 0.018622842636681004 0.026010491483722253 0.8982182579595777 0.853250845772875 0.8258321843789994 
Task42 0.10889731299515593 0.043634828946419055 0.06370041667258947 0.026509576131471896 0.9466356678951542 0.9896946647707707 0.823578752015078 
Task43 0.3063809351484778 0.13236339866792227 0.1520518356283601 0.04433771272716509 0.9919409261536859 0.9100861705113694 0.9061039827834948 
Task44 0.20581363232037075 0.012561322222407875 0.13501565348924147 0.06671245634871555 0.9877326231807266 0.8226057694413976 0.9567836831301991 
Task45 0.08171536501989236 0.03636252794734236 0.0306119166536987 0.02246717070156373 0.8002980800798793 0.8253434947115629 0.8410052651593407 
Task46 0.3026761428841853 0.18526290100811302 0.1796769878761161 0.03618526545646578 0.9188918143628199 0.9985457379179833 0.9461752125736451 
Task47 0.3462993655666659 0.15797088712078697 0.09395292981018268 0.2367446672462342 0.9870033166291812 0.8457800178527882 0.9716472051306801 
Task48 0.052775690091389695 0.002437954709800417 0.0424169326118948 0.03311364152923621 0.944264152203059 0.9289788872036259 0.8673578637747035 
Task49 0.2869609089151904 0.17041603847778658 0.13507582736577367 0.05366898647548758 0.8472873696326393 0.9079563610736848 0.9799273635431209 
Task50 0.10049893673742774 0.026159389195152073 0.03934510824789447 0.042680182911657184 0.9695734098108039 0.9121890575316888 0.8490312547327381 
Task51 0.2623263419477427 0.12742488654945283 0.04873566402208173 0.13942418306153434 0.8470002149409842 0.8315489932654333 0.8468374762816719 
Task52 0.4147141630564011 0.1941018820852503 0.15902081367999693 0.1491881826313109 0.8328771385265215 0.9521034167884804 0.8506837010132989 
Task53 0.30718371484664186 0.21201203660589554 0.04470740074592783 0.08033861712935464 0.903490509140624 0.8252645444351794 0.8190301059116964 
Task54 0.13929581666652774 0.04509725888009902 0.040573172944370316 0.056735598613281195 0.8185737791622711 0.8619047072134925 0.9839399698901979 
Task55 0.4199968425397413 0.05210619655179774 0.2862205832123328 0.11863774530049087 0.8346211079095485 0.8691888918352746 0.8171130308913647 
Task56 0.3863529071182053 0.24411341572295914 0.03997285791171616 0.10605083399323594 0.96155885722645 0.9438066907285582 0.8897136253907533 
Task57 0.3519860699621795 0.1610082623647172 0.07599212004416092 0.1567463353574449 0.9881125011771557 0.8763080483572165 0.8095612294790341 
Task58 0.4395468064566073 0.10335924894313975 0.2824096052987405 0.11511709405081344 0.9707741780432998 0.8045833793665348 0.9854869726770068 
Task59 0.15868202172676601 0.055226118689682455 0.009086439895990962 0.10084819517425493 0.9182134479854156 0.8595396089060003 0.9993255383304216 
Task60 0.4545092651901996 0.10305592385889974 0.03961973108683001 0.3513340360303332 0.9732189814180542 0.9102897667484683 0.9480586231552575 
Task61 0.2370207389514089 0.10896933419570991 0.07334907487511039 0.08107624718307442 0.9998756773974755 0.9072136757530279 0.9845540817372394 
Task62 0.03006338532073868 0.01218311014320102 0.0160619768414139 0.00923603309119384 0.9472161513173819 0.9069920948058101 0.9175448196808695 
Task63 0.25064994365306814 0.140121906785584 0.03227406461861021 0.09614899068161609 0.9409162893664984 0.8572422732819078 0.9650032780853081 
Task64 0.25768129274299123 0.09202811713518994 0.12224146523757534 0.17001517938606825 0.8909753291109229 0.8257207634056868 0.8275881321773148 
Task65 0.02156766302270187 0.007498484211524994 0.010178482332755104 0.007486670108762105 0.9540879540658271 0.8453416544535823 0.8989319452006632 
Task66 0.3763018129461129 0.18656854609278223 0.07614520425018159 0.2886857406029127 0.8491395458556418 0.8468890649618676 0.8737816546922156 
Task67 0.09542228908013793 0.0355893779334853 0.046631705098970876 0.05157011352312874 0.9791624402072575 0.9233860570767071 0.9931459663357147 
Task68 0.21673425139287134 0.11392582041266627 0.0680106222565434 0.08612280402777216 0.8252692961949418 0.9443489205194728 0.8743347923601161 
Task69 0.26728086707455556 0.20187214717653476 0.04101760282021966 0.10277540706244695 0.9833939547225448 0.942668784003949 0.8171366703644845 
Task70 0.43560307349022964 0.06475510366582438 0.169967513858165 0.2239857867774581 0.8926150199803463 0.895908364931867 0.8849243094700316 
Task71 0.47907264613263334 0.03555611342471767 0.07277949679614151 0.4111489594967687 0.829057216411567 0.8659327356931559 0.904133179302952 
Task72 0.27741811271850086 0.14210198891443399 0.14149748825100536 0.07501734489519032 0.8919285910996189 0.9707304581811693 0.8846238238256244 
Task73 0.00017778744518371836 8.397828109393619e-05 8.533799528404184e-06 8.547661137490439e-05 0.8716245952900974 0.9356893584295912 0.9932222071402961 
Task74 0.06074383004128461 0.029048664044673017 0.02520565429897662 0.016898834058111562 0.9974037847171657 0.9578464671388356 0.9984735429371854 
Task75 0.07213004812608895 0.05614487951600437 0.03946099839451771 0.009814406213227505 0.8847112729501219 0.815515941443285 0.8004307389998929 
Task76 0.037339178664980696 0.016128023173852556 0.01039253187808404 0.019419324203741296 0.854672614118879 0.9280596510504627 0.8359399820321683 
Task77 0.343157148737444 0.0616508662934751 0.13624646565253443 0.1741105688788812 0.8688985386926689 0.8524335816745643 0.9338829471712493 
Task78 0.19946280452149004 0.04148239290742433 0.1268467541084291 0.09432992391187556 0.9182260498736575 0.8337531886909622 0.939660238891012 
Task79 0.35061287148255643 0.21257681663949898 0.12503142162755568 0.01890645936712025 0.8368663036074445 0.9884788141996242 0.9525730477001763 
Task80 0.45619935302756254 0.1519020505973907 0.1396466902520315 0.16639079144527943 0.8700686870498873 0.9044632294553356 0.8198227934816883 
Task81 0.013849874173684633 0.003198750568544337 0.004862080471534975 0.010282298699959981 0.9451742450002285 0.8958902548770862 0.9925472167653562 
Task82 0.1210497761679702 0.05473941938007176 0.10393576924622015 0.017425650800954897 0.9865718187774175 0.9947891852039719 0.9882090587259704 
Task83 0.22598760997904743 0.05707040685002205 0.08456607193493475 0.10815715836583381 0.9491923727960033 0.905586431007376 0.9545239050134319 
Task84 0.08756422108962328 0.03873851134802348 0.02292923703636325 0.03909430375944162 0.9138118412205603 0.8456061829690854 0.9607637193749115 
Task85 0.0814665990965696 0.043993247203892555 0.04622200713633939 0.031020072197027286 0.9447869649557127 0.8602098121853434 0.9453972601473523 
Task86 0.20723490427541885 0.008389313264351465 0.04586881075684158 0.2425931861531753 0.830340501227073 0.8580911436815849 0.9365804082462477 
Task87 0.14170951583905672 0.042078778911021124 0.06144335722113244 0.04809276388562781 0.807928303302823 0.9984090772957955 0.9178633310500267 
Task88 0.1155480911787068 0.035582010404263203 0.08725773778056646 0.04695035428798958 0.9869480428876125 0.9585900065156294 0.9027250827012013 
Task89 0.1158035519945559 0.05142214478302273 0.005350385001075078 0.08420541369595022 0.8349385448599923 0.9545065111345498 0.9316694756382362 
Task90 0.3929624949362711 0.19140048200335888 0.2629290949140416 0.008269324153018225 0.8588488914434779 0.9079396756352909 0.931124255106259 
Task91 0.32996020797938863 0.1602098429442078 0.082433923653357 0.1065481350395147 0.8335143872211366 0.9228167034752937 0.8745001003652021 
Task92 0.313284299789103 0.09723475238026519 0.32358014968482324 0.025699058660941562 0.9055774755154129 0.8144633930111081 0.9956911617396542 
Task93 0.009420764291652681 0.004385714319707148 0.006314456952738028 0.0024532161486981205 0.8752313163977431 0.9033960003984488 0.8968748858418389 
Task94 0.3027021435585178 0.08651879297911835 0.21476510168039778 0.13408125728046483 0.9889334097144692 0.9463848527225022 0.8233491381506969 
Task95 0.3573112549433392 0.11669084995502556 0.23998329177179537 0.0930592056884805 0.8730612297244318 0.9778628397035549 0.8729814316990031 
Task96 0.3465758174306595 0.005865629004662576 0.242121001374642 0.2663064137338156 0.9660090254897091 0.9793671983113753 0.9952235516380347 
Task97 0.0839175803760163 0.030910574686596706 0.04991541785276393 0.015241580194893483 0.8108528782659379 0.9612485588103968 0.9193346024913347 
Task98 0.18232232451994454 0.0840648984675283 0.06326275777524647 0.08594559905172054 0.8860710362647907 0.9686995623259067 0.8130782200643191 
Task99 0.2089144440668656 0.13264980377053834 0.004049444979261575 0.14647577737002881 0.8119732423237536 0.952766608787511 0.8321422313655972 
