Task0 0.3255557392189379 0.05977598646174884 0.22971110887067447 0.07131352176908391 0.8951468981484669 0.8709233005739246 0.8250981550127904 
Task1 0.1802458988819445 0.095545690196088 0.016564357143739026 0.10751410989386269 0.8279468454666365 0.944307848539289 0.9070830455167195 
Task2 0.26979386424167423 0.085782927292247 0.18845457327628465 0.11505231069927503 0.8007986171921994 0.9234093272711911 0.9309842610039735 
Task3 0.11614911790239404 0.030662416573356242 0.03980116709611653 0.04608078393870674 0.8707495573894231 0.8374180163381985 0.9645789678217633 
Task4 0.05879511523926841 0.01787832637644662 0.01149132978606079 0.03247853878874085 0.8987124484709783 0.9525153144579974 0.8597275795575581 
Task5 0.0680450249136855 0.031864425642632324 0.03591996727150999 0.00934121739971322 0.8912454212355188 0.9580015586146462 0.836694355435724 
Task6 0.07353946989237821 0.043631211474343415 0.013173015591853486 0.025064526087872303 0.8717840606871341 0.9754725502350763 0.9824457561082665 
Task7 0.10337889053883963 0.005398682399417096 0.07657773986933218 0.04589924542693565 0.996638562682133 0.8378884165579553 0.9433788175233474 
Task8 0.1792799902521759 0.063656109657118 0.000984504774858023 0.12182752116217285 0.9633063529553603 0.9315154763266472 0.9681725244847532 
Task9 0.2634678873985589 0.16043538406458768 0.08995996385085654 0.06352417071395217 0.9852786061763055 0.8153317709553598 0.9744981005658481 
Task10 0.13735817543977644 0.012184961813739697 0.10899752611841199 0.06769746094979603 0.833772392765711 0.9525254634091994 0.9620336297260673 
Task11 0.35267115463444926 0.011267828772891052 0.03886992292236176 0.3058827680535025 0.8168851949466849 0.9073388611492863 0.8040428131269153 
Task12 0.18629555191442898 0.059976813011150244 0.05770981519973128 0.07705562307571338 0.8462250741498295 0.9165706149792759 0.9859479184504447 
Task13 0.07572670112418282 0.054386173056741864 0.006462491283055385 0.04091938684625731 0.9422151369697523 0.954127013702487 0.8443973650696294 
Task14 0.17437337805897893 0.08164192479870279 0.06779141103009426 0.057901833531072526 0.9412335603140558 0.8086826906653846 0.8594676747875962 
Task15 0.07273460835511003 0.034720144709173735 0.02494388140097129 0.02303259052092863 0.8242001071597775 0.8012436993473662 0.8667876785876871 
Task16 0.33444463391538237 0.22276325837119412 0.19136916085471192 0.0012543977624632884 0.8154456115442157 0.9488092522456592 0.9697447894730512 
Task17 0.027089023670916316 0.011242141159225474 0.008846159621763548 0.01147091224198041 0.8722955868905623 0.8430968982096461 0.880104467241819 
Task18 0.027443570592335334 0.016426056303955223 0.009855366729715433 0.005571090261682602 0.8018783819046417 0.8006981041107508 0.8023084634054921 
Task19 0.16008281701198923 0.0018786747416387683 0.14388286991081625 0.08416036721165045 0.8396233817095731 0.9080214859885658 0.8507613426753335 
Task20 0.24750877903508442 0.043342218217920656 0.08147240262503745 0.14119762727843455 0.8981061202477811 0.9882752092658692 0.8589016023755522 
Task21 0.09799753481126908 0.014867464836936992 0.00482096046641338 0.10415454126403596 0.9306103480195312 0.900269493581753 0.9901670708852354 
Task22 0.050029769460509896 0.015473104711850273 0.009455007183160868 0.03520706415710009 0.9823562785175273 0.8468236765625369 0.8432056176380407 
Task23 0.3257442940258013 0.10303897649096312 0.11917190113014117 0.10793803560021702 0.9241444959628106 0.9096967278260802 0.8740864421456143 
Task24 0.4238656199654553 0.03711811824692925 0.31307989022763055 0.11669297757203159 0.8180179116217141 0.9328537756235236 0.9346003932900666 
Task25 0.2164651848140695 0.13895819329970752 0.03460745146774421 0.11191081660395343 0.8762593233151068 0.8020689067313594 0.9169051787589086 
Task26 0.3063993582146014 0.1594428687034518 0.08478309907665527 0.0727229461589132 0.8114750214970488 0.8880676377014058 0.8340755916059471 
Task27 0.4269981634702007 0.10738788436413792 0.25516670335706443 0.11573958228525442 0.9478968142493507 0.8863660064238509 0.9474785834674929 
Task28 0.43340047010529553 0.11851038759068486 0.1426242909985402 0.1948773358752108 0.871506719395684 0.8536118554852776 0.8057015596508731 
Task29 0.40485898304206525 0.08024715864669625 0.15352180677145646 0.2192419211312667 0.867202143256811 0.9858175524310301 0.805465855510037 
Task30 0.12078552412679869 0.00029263813542149684 0.10964280653713702 0.05959060611741028 0.8671587676421754 0.9688530328617881 0.9282944539166815 
Task31 0.41541549083273643 0.3132218170938509 0.08218316444438252 0.025507128410840522 0.9571013373617115 0.8001318140976765 0.8559724222976319 
Task32 0.004288275172246489 0.001864532329903854 0.00037921600791255227 0.002432782489604197 0.884449943541615 0.9502378298412993 0.8606061777891483 
Task33 0.41579743608090547 0.1683096732041406 0.3184517425389386 0.013150178632182834 0.8876344276125373 0.8347927663094322 0.9074991116801555 
Task34 0.05953685028956159 0.02547210145047428 0.029198443587443713 0.01035951042925987 0.9198058815387473 0.9906530763942685 0.8217094446471107 
Task35 0.06926611286971136 0.009414872738662627 0.04865154328761526 0.01330121200536969 0.8192033595586455 0.9662945355951421 0.9784324606616118 
Task36 0.32111867108670145 0.09494003580888552 0.1178311463627053 0.11916795455125857 0.8277594066863138 0.9889713170026105 0.8542882746154944 
Task37 0.17290138120003035 0.12766886831779362 0.0380394732274893 0.030420206115442747 0.9848697322573156 0.9042242953852512 0.833155547676872 
Task38 0.06002851238060421 0.03533092664178937 0.029879062675626216 0.017109186844424158 0.8240775672264304 0.8961599310779572 0.9814665326699566 
Task39 0.3060695067391324 0.15718551235740993 0.14010701771196188 0.026251237569789705 0.8329401169988812 0.9316886702839349 0.9961855233431263 
Task40 0.07921821545463843 0.0009412390440944931 0.03381230235856926 0.0475866521126276 0.8144110955449917 0.8549301208603842 0.8312147110369108 
Task41 0.31979896357635584 0.07089183065405379 0.1843568699065084 0.11349669763184819 0.9683913761904172 0.8146852993064931 0.840860243753319 
Task42 0.010354686527908058 0.006392969744835358 0.0010514471900505112 0.006090782855126624 0.8386836227421642 0.9022715535544957 0.8425901699566577 
Task43 0.2951733229565066 0.13247407068529432 0.1876589963288433 0.07862419473605192 0.9683793851454714 0.8044600994628355 0.884253647511694 
Task44 0.3620804786607587 0.032497818835954956 0.13867867662000632 0.28956040301643626 0.8198967118860963 0.9386177852435773 0.8544664386573838 
Task45 0.2123621133749914 0.11916118789441615 0.0007493288516817074 0.16819479854525282 0.9658008554335729 0.8378478346629047 0.8742993292469147 
Task46 0.41587178101640204 0.2368733251037822 0.23825346005315004 0.029495049674722326 0.8559122776074458 0.8047497589742667 0.9572881721056818 
Task47 0.2607295380847326 0.08392116647918836 0.1284770619353853 0.05056652867348157 0.943158270029822 0.9388219978359473 0.918084037443152 
Task48 0.12892151734328078 0.011182691271681212 0.021976299130955317 0.13202711009021073 0.8848568984249641 0.9892932547051757 0.9416045653602483 
Task49 0.2974088396361065 0.1366515518887249 0.18302483108715778 0.05277839713204818 0.9523388316811237 0.9019248105087232 0.9789036635926797 
Task50 0.1648890439864006 0.024268353672219713 0.1276192103353626 0.06487699274031618 0.9599397690059188 0.8057779154431295 0.8692986388574199 
Task51 0.354937772855271 0.20844036627342727 0.17102242519192212 0.11020709148523972 0.8173441504929755 0.8141749106230847 0.9504334523433372 
Task52 0.15098852738969185 0.04862133870506638 0.07685891756539423 0.07786931026541494 0.9465917803096032 0.8464123990786684 0.8091967703649171 
Task53 0.36192581561270376 0.08650806717425989 0.2196172695773074 0.23470987779497318 0.8680902787462353 0.9075654456633704 0.8057529508406536 
Task54 0.4201099594699071 0.047911236479487175 0.08229131806374859 0.3918666381825353 0.9531518290816157 0.9986377098490036 0.9705708957972192 
Task55 0.15568583891635776 0.08149411076093757 0.03882702487312056 0.08291905882874497 0.9580340408297713 0.8141062374648296 0.9205537693120718 
Task56 0.13220931555872012 0.054139889117858456 0.04657389323332063 0.0688439125992536 0.9983772411270937 0.8647221071630318 0.8975827519465984 
Task57 0.3659632671413132 0.21934809874203906 0.08306952214652014 0.20604874718090793 0.9804583144993684 0.8776268701188102 0.9869303844467554 
Task58 0.24213068946984215 0.19617719973780823 0.005913186281690751 0.08972047799998253 0.9619296260747378 0.9197541100871652 0.8744301905815557 
Task59 0.42809787213392225 0.24750218730924464 0.06624637707542311 0.1388037313792528 0.8280699152510812 0.9631067065745866 0.9604375254642668 
Task60 0.09546817923739427 0.054461195304352436 0.04916286755795239 0.02700142982133969 0.8984782373841826 0.8417939284582947 0.8258190260949679 
Task61 0.013235903470563054 0.002538177794393139 0.00566961421220448 0.010472220913549003 0.8411896351641026 0.897342505528648 0.8588773828756247 
Task62 0.3376902379137208 0.039103737926380853 0.12181168832588954 0.2939554872713258 0.8362671547975036 0.840713626009003 0.9752181464852696 
Task63 0.33554181850360904 0.19227225572250842 0.09804260455682133 0.06623824576821603 0.8667603434985118 0.8070446442205469 0.803219162855519 
Task64 0.08860396622470629 0.05559387830941774 0.0505925354669481 0.01880193766869101 0.9042706021692472 0.8645187627086508 0.84590384659107 
Task65 0.07463288560381978 0.038176975700580235 0.032545956705670245 0.02252463626897926 0.8284008784486595 0.9223645477099851 0.8811447131552719 
Task66 0.12275304203141732 0.06080054916640376 0.05154782002176748 0.016209242899332392 0.8125041389080366 0.9361656667770898 0.8268255727758104 
Task67 0.007128102371251906 0.0009186684596639216 0.007683120857475667 0.0002498850786104138 0.8802266853017121 0.9451513013566123 0.8596972354702702 
Task68 0.024685062426027148 0.013409090623722053 0.010523297878028678 0.005303455187690412 0.9034194904391182 0.9475007415562944 0.931126491899966 
Task69 0.3858363521397667 0.3116172693853865 0.10398235061475623 0.13610062016078855 0.9734711105345305 0.8267844949044936 0.8806327084139842 
Task70 0.04349686118932184 0.023007714884223027 0.020227460095667022 0.004283251435331688 0.849417199893009 0.8766006059517839 0.9992712883045842 
Task71 0.24991364820854112 0.15554842444217604 0.008576898299686816 0.20270696817839765 0.956766149617967 0.9260541720218302 0.9692691528863117 
Task72 0.4488529108586264 0.06741071615100973 0.25390444815327556 0.18684219799997862 0.8164794140737619 0.9212333280608077 0.8883245379114149 
Task73 0.3975104071969825 0.08921884192533315 0.2212916357245181 0.15853015631909564 0.8066898617331492 0.8249784877121848 0.8616451724882257 
Task74 0.1868061161870466 0.004550563994194349 0.01710639175762897 0.19465963312030599 0.8089960287185002 0.8270752892247668 0.8651508377969235 
Task75 0.3127887086403121 0.10156732322511887 0.09509594903134412 0.23573771679194927 0.9382677330781302 0.853222067702667 0.9170723167013508 
Task76 0.17690030906897294 0.10426525649960912 0.07893080377013054 0.039723949055408554 0.9058696157223648 0.941334231365268 0.9343146406407807 
Task77 0.08778640151499201 0.03841496504755586 0.03290593466695893 0.01849891046492468 0.9683096131390008 0.8455365002155493 0.9367777020669921 
Task78 0.38670461865809747 0.1884422830129701 0.08776260949674766 0.22727468514477978 0.9585276758841277 0.8186124274343479 0.905670427952035 
Task79 0.293300841947405 0.16723155354387506 0.14218156094608825 0.08423470859361974 0.8583488904126997 0.8572461171388681 0.9385465675257587 
Task80 0.13619161106792124 0.09644791518876822 0.022972105760375772 0.07985922171464636 0.8223151983896122 0.8180588127984387 0.8454246271927728 
Task81 0.44662364138360194 0.20275034414745335 0.14670860397318358 0.14066505167818275 0.8251702870859668 0.9752736241339439 0.8448353149761342 
Task82 0.35861152547824615 0.11259072616307672 0.18677233583409916 0.18434251702451923 0.8935247457901362 0.8251223104058553 0.8731880969210144 
Task83 0.05929680434251531 0.039514714009807245 0.008828800315117513 0.014039722858661835 0.9105108845504857 0.9179846335186386 0.8408489794303071 
Task84 0.2710002110577866 0.21125507710124544 0.05034186731456073 0.03579166898260873 0.9159012020893091 0.8961659507861697 0.8687837337589435 
Task85 0.035995498177065426 0.023731647854258034 0.015404362046472 0.005115863799811313 0.8303109845025914 0.9830889953325719 0.9191641198074851 
Task86 0.2142242395099725 0.09121955795210798 0.06607308399372443 0.09651016128419038 0.8305994982386679 0.977026285793201 0.8597144480740813 
Task87 0.3081988119718675 0.12448751669528882 0.05031721883722253 0.1376512879668657 0.8901546270876559 0.9163598697950482 0.8944932570573702 
Task88 0.45176357945230716 0.275069078095286 0.06518682025343969 0.1763861665422891 0.9506655298158733 0.8465518296771644 0.9208278160804031 
Task89 0.30915358629202616 0.03242487248781552 0.25354647466339036 0.15854192343843207 0.8236382058003777 0.9693141219019241 0.8936726369732941 
Task90 0.15440935027746222 0.11037818646315739 0.01606305564648895 0.05257307165745748 0.9460973619360602 0.894702735405 0.9763044135201083 
Task91 0.13139811002097523 0.16221714694153483 0.005508579810178396 0.022127937893890916 0.980077124540806 0.971198759244685 0.8250519711501274 
Task92 0.36453866502321824 0.24103216121828194 0.10024841887097564 0.10928574513156539 0.8109225464695312 0.9557845609913213 0.8308710294323527 
Task93 0.42349640847329495 0.14125905644344944 0.16271429887224917 0.22868500434501463 0.9448264092870318 0.9902822579182251 0.85073066332246 
Task94 0.1007914102773279 0.030698456007663216 0.01641176689009845 0.06057115970958645 0.9161473217367716 0.9028070503885239 0.8414780793400901 
Task95 0.05164722305745393 0.03983005208045334 0.03103550521339209 0.0012752781947686406 0.9619036672952881 0.8182903234116686 0.9588376986612235 
Task96 0.11673183515947529 0.06321562093271407 0.03623249047305973 0.022315386921305417 0.8647935969849717 0.8221250375336892 0.8592537932488564 
Task97 0.09935713815304187 0.04797237294783484 0.03197795127159078 0.031180793037046732 0.9260049765971967 0.8543495597311055 0.9554346040767487 
Task98 0.4053650812727429 0.040021983770925564 0.2307752332795878 0.20115685068646338 0.8498411918369857 0.8474210010991817 0.9346288481342635 
Task99 0.31985388455901337 0.14380777086693247 0.0772909361008205 0.16007920813001636 0.9741923706493676 0.8285767181170952 0.9955411133788534 
