0.47421409999999997
Task0 31 127 63 
Task1 31 127 255 
Task2 7 127 127 
Task3 127 255 127 
Task4 255 31 7 
Task5 63 1 63 
Task6 255 127 15 
Task7 1 255 63 
Task8 15 255 127 
Task9 255 15 31 
Task10 15 15 255 
Task11 63 127 15 
Task12 63 255 255 
Task13 15 255 255 
Task14 255 15 31 
Task15 63 63 7 
Task16 15 15 255 
Task17 63 31 255 
Task18 63 63 255 
Task19 255 255 255 
Task20 63 15 15 
Task21 63 1 63 
Task22 255 1 1 
Task23 15 255 7 
Task24 3 31 255 
Task25 63 7 127 
Task26 127 127 255 
Task27 31 255 3 
Task28 1 255 15 
Task29 255 63 63 
Task30 1 15 255 
Task31 31 15 255 
Task32 31 15 127 
Task33 63 31 255 
Task34 7 63 255 
Task35 255 31 15 
Task36 31 15 127 
Task37 127 31 31 
Task38 255 255 127 
Task39 63 31 15 
Task40 63 127 7 
Task41 31 255 31 
Task42 31 255 255 
Task43 63 255 127 
Task44 15 127 15 
Task45 255 63 15 
Task46 127 1 15 
Task47 255 255 255 
Task48 7 63 127 
Task49 1 255 31 
Task50 255 31 15 
Task51 7 127 63 
Task52 63 127 255 
Task53 127 255 7 
Task54 63 7 127 
Task55 31 127 63 
Task56 15 31 255 
Task57 1 15 255 
Task58 3 31 127 
Task59 63 255 3 
Task60 1 1 255 
Task61 63 127 31 
Task62 31 63 7 
Task63 15 63 31 
Task64 127 255 255 
Task65 7 15 255 
Task66 63 63 31 
Task67 63 15 255 
Task68 127 127 63 
Task69 63 31 127 
Task70 127 15 255 
Task71 127 127 127 
Task72 15 31 255 
Task73 127 127 63 
Task74 255 15 1 
Task75 127 255 127 
Task76 255 3 31 
Task77 15 255 127 
Task78 3 15 255 
Task79 7 3 255 
Task80 127 15 3 
Task81 255 255 63 
Task82 63 31 127 
Task83 63 7 127 
Task84 255 1 7 
Task85 31 31 255 
Task86 31 63 255 
Task87 1 15 255 
Task88 255 1 31 
Task89 63 7 255 
Task90 63 31 63 
Task91 63 63 3 
Task92 7 255 1 
Task93 255 31 31 
Task94 15 63 7 
Task95 255 127 63 
Task96 31 127 31 
Task97 3 255 255 
Task98 31 63 7 
Task99 1 255 15 
