files/tasks_parameters/ExAp01/sample8.txt 4.09588 6.77015 2.19458 0.288816 8.20151
files/tasks_parameters/ExAp01/sample12.txt 4.80951 9.58351 2.46081 0.337498 9.58394
files/tasks_parameters/ExAp01/sample2.txt 4.54507 8.44418 2.50701 0.319127 9.06225
files/tasks_parameters/ExAp01/sample44.txt 4.0853 6.96299 2.23089 0.28229 8.01619
files/tasks_parameters/ExAp01/sample27.txt 4.09017 7.74306 2.16676 0.28602 8.1221
files/tasks_parameters/ExAp01/sample17.txt 4.09698 7.35053 2.25579 0.292348 8.30179
files/tasks_parameters/ExAp01/sample9.txt 4.12469 6.89392 2.21068 0.282399 8.01927
files/tasks_parameters/ExAp01/sample34.txt 4.18389 6.62788 2.3772 0.297742 8.45496
files/tasks_parameters/ExAp01/sample40.txt 4.05166 7.75686 2.17534 0.285619 8.11072
files/tasks_parameters/ExAp01/sample33.txt 4.65818 8.14826 2.6463 0.338073 9.60026
files/tasks_parameters/ExAp01/sample48.txt 3.65059 7.64107 2.14272 0.270011 7.6675
files/tasks_parameters/ExAp01/sample29.txt 3.47471 7.139 1.93769 0.286306 8.13022
files/tasks_parameters/ExAp01/sample11.txt 3.98116 6.88688 2.12981 0.280008 7.95139
files/tasks_parameters/ExAp01/sample14.txt 3.39912 6.11983 1.97599 0.247458 7.02705
files/tasks_parameters/ExAp01/sample0.txt 4.20802 8.2738 2.14256 0.289132 8.21047
files/tasks_parameters/ExAp01/sample7.txt 3.83681 6.87011 2.05821 0.269886 7.66393
files/tasks_parameters/ExAp01/sample23.txt 4.1339 6.52032 2.38087 0.291712 8.28373
files/tasks_parameters/ExAp01/sample13.txt 4.23344 8.73247 2.33415 0.295393 8.38826
files/tasks_parameters/ExAp01/sample22.txt 4.09271 6.9777 2.28948 0.283979 8.06415
files/tasks_parameters/ExAp01/sample25.txt 3.87726 6.23444 2.2122 0.267298 7.59045
files/tasks_parameters/ExAp01/sample36.txt 3.52525 6.6174 1.9458 0.253823 7.2078
files/tasks_parameters/ExAp01/sample46.txt 4.60221 7.42369 2.49128 0.327273 9.29356
files/tasks_parameters/ExAp01/sample31.txt 3.58367 7.22028 2.13584 0.25377 7.2063
files/tasks_parameters/ExAp01/sample37.txt 4.18481 8.90704 2.16981 0.295708 8.39722
files/tasks_parameters/ExAp01/sample16.txt 3.48351 8.18243 1.88294 0.24945 7.08362
files/tasks_parameters/ExAp01/sample10.txt 4.03131 6.96646 2.31217 0.285748 8.11438
files/tasks_parameters/ExAp01/sample39.txt 3.6517 6.4161 1.97266 0.251967 7.15509
files/tasks_parameters/ExAp01/sample19.txt 4.48379 8.16711 2.23199 0.308463 8.75941
files/tasks_parameters/ExAp01/sample20.txt 3.76271 7.28549 1.88944 0.25994 7.38151
files/tasks_parameters/ExAp01/sample43.txt 3.69566 6.86804 2.00142 0.25616 7.27417
files/tasks_parameters/ExAp01/sample32.txt 4.00231 8.15663 2.12995 0.281726 8.00018
files/tasks_parameters/ExAp01/sample45.txt 3.81279 7.75184 2.10599 0.274935 7.80732
files/tasks_parameters/ExAp01/sample26.txt 3.82535 7.4944 1.88956 0.267248 7.58903
files/tasks_parameters/ExAp01/sample5.txt 4.02009 8.08362 2.09961 0.28454 8.08008
files/tasks_parameters/ExAp01/sample21.txt 3.79661 6.11814 2.17119 0.26143 7.42381
files/tasks_parameters/ExAp01/sample38.txt 3.73648 7.761 1.96293 0.263659 7.48712
files/tasks_parameters/ExAp01/sample1.txt 4.16933 7.83752 2.13261 0.289228 8.2132
files/tasks_parameters/ExAp01/sample15.txt 3.97045 7.37971 2.12057 0.285825 8.11658
files/tasks_parameters/ExAp01/sample24.txt 4.24405 8.28531 2.25272 0.296628 8.42335
files/tasks_parameters/ExAp01/sample3.txt 4.38599 7.33359 2.39135 0.305084 8.66348
files/tasks_parameters/ExAp01/sample6.txt 3.96852 7.09894 2.24425 0.281804 8.00239
files/tasks_parameters/ExAp01/sample30.txt 4.2632 8.17669 2.03701 0.299204 8.4965
files/tasks_parameters/ExAp01/sample42.txt 4.27199 7.70416 2.42413 0.29743 8.44611
files/tasks_parameters/ExAp01/sample4.txt 4.38709 7.41691 2.36261 0.307803 8.74067
files/tasks_parameters/ExAp01/sample28.txt 3.79928 7.0562 2.07657 0.266428 7.56575
files/tasks_parameters/ExAp01/sample18.txt 3.80684 7.60139 2.1377 0.268016 7.61084
files/tasks_parameters/ExAp01/sample35.txt 4.51596 9.66795 2.28028 0.32244 9.15631
files/tasks_parameters/ExAp01/sample47.txt 3.64823 6.84842 2.12104 0.251655 7.14623
files/tasks_parameters/ExAp01/sample49.txt 3.59324 7.1497 2.11412 0.255889 7.26647
files/tasks_parameters/ExAp01/sample41.txt 3.83141 6.59911 2.07359 0.265885 7.55034
