digraph G {
0 ->17 0 ->18 1 ->10 1 ->16 1 ->18 1 ->19 2 ->11 2 ->12 2 ->13 2 ->14 2 ->17 2 ->19 3 ->12 3 ->13 3 ->19 4 ->10 4 ->13 4 ->14 4 ->15 4 ->17 5 ->15 5 ->17 6 ->18 6 ->19 7 ->15 7 ->16 7 ->19 8 ->18 9 ->10 9 ->11 9 ->17 10 ->21 10 ->22 10 ->26 11 ->21 11 ->23 11 ->24 12 ->25 12 ->26 13 ->22 13 ->23 13 ->26 13 ->29 14 ->22 15 ->24 16 ->20 16 ->21 16 ->26 17 ->20 17 ->21 17 ->26 18 ->25 18 ->27 19 ->21 19 ->25 19 ->28 20 ->32 20 ->36 20 ->38 21 ->30 21 ->33 22 ->33 22 ->35 22 ->38 23 ->31 23 ->32 23 ->33 23 ->37 24 ->31 24 ->32 24 ->35 24 ->38 25 ->37 26 ->31 26 ->34 26 ->35 27 ->30 27 ->34 27 ->35 27 ->38 28 ->31 28 ->32 28 ->36 29 ->31 29 ->32 29 ->33 29 ->38 30 ->39 30 ->44 30 ->47 31 ->39 31 ->44 31 ->48 32 ->39 32 ->42 32 ->43 32 ->47 34 ->42 34 ->46 34 ->47 35 ->40 35 ->41 35 ->42 35 ->48 36 ->40 36 ->42 36 ->48 37 ->41 37 ->43 38 ->39 38 ->41 38 ->45 38 ->47 39 ->49 40 ->49 40 ->51 40 ->56 40 ->57 41 ->53 41 ->54 41 ->57 42 ->49 42 ->53 42 ->54 42 ->56 43 ->51 43 ->53 43 ->56 43 ->56 43 ->57 44 ->50 44 ->53 44 ->56 45 ->50 45 ->52 45 ->54 46 ->50 46 ->52 46 ->54 47 ->50 47 ->51 47 ->53 47 ->58 48 ->49 48 ->50 48 ->52 48 ->55 49 ->59 49 ->63 49 ->65 49 ->67 50 ->60 50 ->61 50 ->62 50 ->66 50 ->67 51 ->59 51 ->61 51 ->66 52 ->61 52 ->66 52 ->66 52 ->67 53 ->64 53 ->67 54 ->63 54 ->66 55 ->59 55 ->61 55 ->65 56 ->60 56 ->61 56 ->63 56 ->65 57 ->59 57 ->60 58 ->59 58 ->60 58 ->63 59 ->69 59 ->70 59 ->72 59 ->73 59 ->75 60 ->71 60 ->74 60 ->76 61 ->69 61 ->70 62 ->69 62 ->73 62 ->76 63 ->73 63 ->76 64 ->69 65 ->73 67 ->68 67 ->72 67 ->73 67 ->76 69 ->83 69 ->84 70 ->81 70 ->82 70 ->83 70 ->84 71 ->81 71 ->82 71 ->83 72 ->77 72 ->79 72 ->80 72 ->82 72 ->84 73 ->80 73 ->81 73 ->82 74 ->77 74 ->78 74 ->83 74 ->85 75 ->79 75 ->80 76 ->80 77 ->88 77 ->90 77 ->91 77 ->94 78 ->87 78 ->89 78 ->92 78 ->94 79 ->87 79 ->92 80 ->86 80 ->94 81 ->86 81 ->92 81 ->94 82 ->86 83 ->87 83 ->89 83 ->93 84 ->86 84 ->87 84 ->90 84 ->94 84 ->95 85 ->86 85 ->88 85 ->89 85 ->92 85 ->95 86 ->97 87 ->98 87 ->99 88 ->98 88 ->99 89 ->99 91 ->96 91 ->97 92 ->97 92 ->97 93 ->97 95 ->99 
}
