digraph G {
0 ->10 0 ->11 0 ->15 1 ->15 1 ->18 2 ->10 2 ->11 2 ->13 2 ->15 2 ->16 2 ->18 3 ->13 3 ->17 3 ->18 4 ->16 5 ->12 5 ->13 5 ->14 6 ->11 6 ->12 6 ->13 6 ->14 6 ->15 6 ->18 7 ->10 7 ->14 7 ->17 7 ->18 8 ->15 9 ->11 9 ->12 10 ->21 10 ->23 10 ->24 11 ->21 11 ->23 11 ->24 11 ->26 12 ->21 12 ->23 12 ->26 12 ->27 13 ->23 13 ->25 13 ->27 13 ->27 14 ->20 14 ->22 14 ->24 14 ->25 15 ->20 15 ->25 16 ->20 16 ->23 16 ->24 16 ->25 17 ->21 18 ->19 18 ->21 18 ->24 21 ->32 21 ->35 21 ->36 22 ->33 23 ->28 23 ->31 23 ->34 23 ->35 23 ->36 25 ->35 26 ->29 26 ->30 26 ->35 27 ->30 27 ->36 28 ->41 28 ->43 28 ->45 28 ->46 30 ->37 30 ->38 30 ->39 30 ->43 31 ->37 31 ->39 32 ->39 32 ->46 33 ->46 33 ->46 34 ->39 35 ->38 35 ->39 35 ->40 35 ->41 35 ->42 35 ->43 36 ->43 36 ->44 36 ->46 37 ->49 37 ->50 37 ->51 37 ->53 38 ->51 38 ->53 38 ->54 39 ->52 39 ->55 40 ->47 40 ->50 40 ->53 40 ->55 41 ->47 41 ->50 41 ->55 42 ->51 43 ->48 43 ->54 44 ->51 44 ->55 45 ->50 45 ->51 45 ->55 46 ->47 46 ->52 47 ->61 47 ->62 48 ->57 48 ->59 48 ->61 49 ->56 49 ->59 49 ->61 49 ->63 50 ->56 50 ->57 50 ->58 50 ->60 50 ->61 50 ->63 51 ->57 51 ->58 52 ->58 52 ->62 52 ->63 52 ->65 53 ->58 53 ->62 53 ->63 53 ->64 54 ->63 54 ->64 54 ->65 55 ->57 55 ->58 55 ->61 55 ->62 55 ->65 56 ->68 57 ->67 57 ->69 57 ->70 57 ->73 57 ->75 58 ->67 58 ->73 58 ->74 59 ->66 59 ->69 59 ->73 59 ->75 60 ->69 60 ->71 60 ->72 60 ->74 60 ->75 61 ->67 61 ->70 61 ->75 62 ->68 62 ->72 62 ->75 63 ->68 63 ->69 63 ->71 63 ->74 64 ->68 64 ->72 64 ->73 65 ->68 66 ->76 66 ->80 66 ->83 67 ->76 67 ->78 67 ->80 67 ->82 67 ->83 68 ->82 68 ->84 69 ->77 69 ->82 70 ->79 70 ->83 72 ->80 72 ->83 73 ->76 73 ->79 73 ->80 73 ->83 74 ->76 74 ->79 74 ->80 74 ->81 74 ->84 75 ->76 75 ->77 75 ->81 75 ->84 76 ->85 76 ->93 76 ->94 77 ->85 77 ->89 77 ->91 77 ->94 78 ->85 78 ->91 78 ->92 78 ->94 79 ->86 79 ->88 79 ->89 79 ->90 80 ->86 80 ->87 81 ->87 81 ->87 81 ->92 82 ->90 82 ->91 82 ->92 83 ->85 83 ->87 83 ->93 84 ->85 84 ->87 84 ->88 84 ->91 84 ->92 84 ->93 84 ->94 85 ->96 85 ->98 86 ->97 87 ->96 87 ->98 88 ->95 88 ->96 88 ->97 89 ->95 89 ->98 94 ->95 94 ->96 94 ->99 
}
