digraph G {
0 ->14 0 ->18 2 ->11 2 ->14 2 ->16 2 ->18 3 ->14 3 ->16 4 ->10 4 ->14 4 ->16 4 ->17 5 ->10 6 ->11 6 ->13 7 ->10 7 ->16 8 ->10 8 ->12 8 ->15 8 ->17 8 ->18 9 ->13 9 ->18 10 ->19 10 ->20 10 ->26 10 ->27 11 ->19 11 ->25 11 ->26 12 ->19 12 ->22 12 ->23 12 ->27 13 ->22 13 ->23 13 ->25 14 ->21 14 ->22 14 ->23 15 ->21 15 ->22 15 ->24 15 ->26 15 ->27 16 ->20 16 ->21 16 ->23 16 ->27 16 ->27 17 ->19 17 ->20 17 ->23 17 ->26 18 ->19 18 ->25 19 ->30 19 ->36 19 ->37 20 ->31 20 ->32 20 ->35 20 ->37 21 ->32 21 ->35 22 ->28 22 ->31 22 ->35 23 ->28 23 ->30 23 ->31 23 ->33 23 ->36 23 ->37 24 ->29 25 ->28 25 ->29 25 ->32 25 ->33 25 ->34 25 ->36 26 ->31 27 ->29 27 ->30 27 ->34 27 ->35 28 ->39 28 ->44 29 ->38 29 ->46 30 ->39 30 ->42 31 ->45 32 ->41 32 ->42 32 ->47 33 ->45 34 ->39 34 ->40 34 ->43 35 ->44 35 ->47 36 ->41 36 ->44 38 ->51 38 ->55 39 ->50 39 ->51 39 ->54 39 ->56 40 ->52 41 ->48 41 ->51 41 ->52 41 ->53 42 ->48 42 ->51 43 ->50 43 ->53 43 ->54 43 ->55 43 ->57 44 ->52 44 ->57 45 ->50 45 ->53 45 ->55 46 ->49 46 ->50 46 ->52 47 ->49 47 ->50 48 ->58 48 ->61 48 ->65 49 ->66 50 ->60 50 ->62 50 ->64 50 ->66 51 ->60 51 ->64 51 ->66 52 ->58 52 ->60 52 ->66 53 ->60 53 ->61 53 ->62 54 ->60 54 ->62 54 ->66 55 ->58 55 ->61 55 ->65 56 ->59 56 ->63 56 ->65 57 ->63 58 ->68 58 ->69 58 ->73 59 ->71 60 ->67 60 ->71 60 ->72 60 ->76 61 ->67 61 ->69 61 ->74 62 ->68 62 ->75 63 ->70 63 ->71 63 ->75 64 ->69 64 ->71 64 ->73 64 ->75 65 ->73 66 ->73 67 ->77 67 ->80 67 ->84 67 ->85 68 ->78 68 ->80 68 ->83 68 ->85 69 ->79 69 ->83 69 ->85 70 ->78 71 ->84 72 ->79 72 ->80 73 ->78 73 ->83 74 ->77 74 ->83 75 ->79 75 ->80 75 ->81 75 ->82 75 ->85 76 ->80 76 ->81 76 ->82 76 ->83 76 ->84 76 ->85 77 ->88 77 ->93 77 ->94 77 ->95 78 ->90 78 ->91 78 ->92 78 ->94 78 ->95 79 ->88 80 ->86 80 ->89 80 ->90 80 ->95 81 ->90 81 ->91 81 ->94 81 ->95 82 ->87 82 ->88 82 ->93 83 ->87 83 ->89 83 ->92 83 ->94 84 ->92 84 ->93 85 ->90 85 ->91 86 ->97 87 ->98 88 ->99 89 ->96 89 ->99 90 ->96 90 ->97 90 ->99 92 ->98 93 ->98 94 ->96 
}
