files/tasks_parameters/ExAp01/sample8.txt 1.14657 6.77015 2.19458 0.288816 9.71016
files/tasks_parameters/ExAp01/sample12.txt 1.28746 9.58351 2.46081 0.337498 11.3469
files/tasks_parameters/ExAp01/sample2.txt 1.16745 8.44418 2.50701 0.319127 10.7292
files/tasks_parameters/ExAp01/sample44.txt 1.14104 6.96299 2.23089 0.28229 9.49075
files/tasks_parameters/ExAp01/sample27.txt 1.07908 7.74306 2.16676 0.28602 9.61613
files/tasks_parameters/ExAp01/sample17.txt 1.13939 7.35053 2.25579 0.292348 9.82888
files/tasks_parameters/ExAp01/sample9.txt 1.01966 6.89392 2.21068 0.282399 9.49439
files/tasks_parameters/ExAp01/sample34.txt 1.11789 6.62788 2.3772 0.297742 10.0102
files/tasks_parameters/ExAp01/sample40.txt 1.03039 7.75686 2.17534 0.285619 9.60267
files/tasks_parameters/ExAp01/sample33.txt 1.20732 8.14826 2.6463 0.338073 11.3662
files/tasks_parameters/ExAp01/sample48.txt 0.948481 7.64107 2.14272 0.270011 9.07791
files/tasks_parameters/ExAp01/sample29.txt 1.00399 7.139 1.93769 0.286306 9.62575
files/tasks_parameters/ExAp01/sample11.txt 1.08487 6.88688 2.12981 0.280008 9.41403
files/tasks_parameters/ExAp01/sample14.txt 0.951576 6.11983 1.97599 0.247458 8.31965
files/tasks_parameters/ExAp01/sample0.txt 1.11706 8.2738 2.14256 0.289132 9.72076
files/tasks_parameters/ExAp01/sample7.txt 1.01753 6.87011 2.05821 0.269886 9.07369
files/tasks_parameters/ExAp01/sample23.txt 1.09637 6.52032 2.38087 0.291712 9.80749
files/tasks_parameters/ExAp01/sample13.txt 1.09871 8.73247 2.33415 0.295393 9.93125
files/tasks_parameters/ExAp01/sample22.txt 1.0195 6.9777 2.28948 0.283979 9.54753
files/tasks_parameters/ExAp01/sample25.txt 1.10061 6.23444 2.2122 0.267298 8.98669
files/tasks_parameters/ExAp01/sample36.txt 0.936455 6.6174 1.9458 0.253823 8.53365
files/tasks_parameters/ExAp01/sample46.txt 1.23431 7.42369 2.49128 0.327273 11.0031
files/tasks_parameters/ExAp01/sample31.txt 0.937702 7.22028 2.13584 0.25377 8.53187
files/tasks_parameters/ExAp01/sample37.txt 1.13563 8.90704 2.16981 0.295708 9.94186
files/tasks_parameters/ExAp01/sample16.txt 1.0148 8.18243 1.88294 0.24945 8.38663
files/tasks_parameters/ExAp01/sample10.txt 1.15915 6.96646 2.31217 0.285748 9.60699
files/tasks_parameters/ExAp01/sample39.txt 0.959619 6.4161 1.97266 0.251967 8.47125
files/tasks_parameters/ExAp01/sample19.txt 1.21108 8.16711 2.23199 0.308463 10.3707
files/tasks_parameters/ExAp01/sample20.txt 0.923942 7.28549 1.88944 0.25994 8.73931
files/tasks_parameters/ExAp01/sample43.txt 0.911929 6.86804 2.00142 0.25616 8.61224
files/tasks_parameters/ExAp01/sample32.txt 1.02847 8.15663 2.12995 0.281726 9.47179
files/tasks_parameters/ExAp01/sample45.txt 1.04967 7.75184 2.10599 0.274935 9.24345
files/tasks_parameters/ExAp01/sample26.txt 0.949721 7.4944 1.88956 0.267248 8.98502
files/tasks_parameters/ExAp01/sample5.txt 1.08021 8.08362 2.09961 0.28454 9.56639
files/tasks_parameters/ExAp01/sample21.txt 1.04158 6.11814 2.17119 0.26143 8.7894
files/tasks_parameters/ExAp01/sample38.txt 0.923154 7.761 1.96293 0.263659 8.86435
files/tasks_parameters/ExAp01/sample1.txt 1.0734 7.83752 2.13261 0.289228 9.724
files/tasks_parameters/ExAp01/sample15.txt 0.984552 7.37971 2.12057 0.285825 9.6096
files/tasks_parameters/ExAp01/sample24.txt 1.12299 8.28531 2.25272 0.296628 9.9728
files/tasks_parameters/ExAp01/sample3.txt 1.16507 7.33359 2.39135 0.305084 10.2571
files/tasks_parameters/ExAp01/sample6.txt 1.08123 7.09894 2.24425 0.281804 9.47441
files/tasks_parameters/ExAp01/sample30.txt 1.20224 8.17669 2.03701 0.299204 10.0594
files/tasks_parameters/ExAp01/sample42.txt 1.13191 7.70416 2.42413 0.29743 9.99975
files/tasks_parameters/ExAp01/sample4.txt 1.13865 7.41691 2.36261 0.307803 10.3485
files/tasks_parameters/ExAp01/sample28.txt 1.03582 7.0562 2.07657 0.266428 8.95744
files/tasks_parameters/ExAp01/sample18.txt 1.04873 7.60139 2.1377 0.268016 9.01084
files/tasks_parameters/ExAp01/sample35.txt 1.31824 9.66795 2.28028 0.32244 10.8406
files/tasks_parameters/ExAp01/sample47.txt 0.944697 6.84842 2.12104 0.251655 8.46076
files/tasks_parameters/ExAp01/sample49.txt 1.00597 7.1497 2.11412 0.255889 8.60312
files/tasks_parameters/ExAp01/sample41.txt 0.961299 6.59911 2.07359 0.265885 8.9392
