0.3700614099999999
Task0 15 255 31 
Task1 7 7 63 
Task2 31 15 15 
Task3 255 255 7 
Task4 3 7 31 
Task5 31 15 63 
Task6 127 127 255 
Task7 31 1 7 
Task8 63 63 31 
Task9 31 63 31 
Task10 31 15 1 
Task11 63 255 127 
Task12 15 63 15 
Task13 7 15 31 
Task14 15 31 255 
Task15 7 15 31 
Task16 15 63 3 
Task17 15 15 31 
Task18 255 127 63 
Task19 31 31 31 
Task20 63 31 31 
Task21 127 63 127 
Task22 63 31 63 
Task23 7 63 7 
Task24 31 7 31 
Task25 15 7 63 
Task26 31 31 63 
Task27 15 63 31 
Task28 31 31 31 
Task29 255 127 127 
Task30 31 31 63 
Task31 31 3 31 
Task32 63 31 1 
Task33 3 31 63 
Task34 31 63 63 
Task35 1 63 255 
Task36 15 1 31 
Task37 15 31 31 
Task38 15 63 3 
Task39 1 31 7 
Task40 3 15 63 
Task41 63 1 7 
Task42 31 63 1 
Task43 31 63 3 
Task44 31 3 63 
Task45 7 3 63 
Task46 31 31 7 
Task47 31 3 7 
Task48 63 31 15 
Task49 3 31 31 
Task50 63 1 15 
Task51 63 31 63 
Task52 15 63 31 
Task53 63 15 15 
Task54 31 7 15 
Task55 15 3 31 
Task56 31 1 1 
Task57 7 3 31 
Task58 15 31 15 
Task59 15 31 3 
Task60 3 7 31 
Task61 63 15 15 
Task62 31 15 15 
Task63 7 31 31 
Task64 1 31 1 
Task65 127 31 31 
Task66 31 15 63 
Task67 3 1 63 
Task68 31 7 1 
Task69 31 63 63 
Task70 1 1 15 
Task71 31 127 31 
Task72 31 127 31 
Task73 31 31 15 
Task74 63 63 63 
Task75 15 31 7 
Task76 63 15 1 
Task77 31 7 3 
Task78 31 7 31 
Task79 15 63 255 
Task80 255 31 255 
Task81 1 63 31 
Task82 15 15 63 
Task83 63 15 3 
Task84 15 15 63 
Task85 63 15 15 
Task86 31 7 31 
Task87 31 15 3 
Task88 15 7 63 
Task89 63 3 15 
Task90 31 63 7 
Task91 15 7 31 
Task92 7 7 63 
Task93 63 63 255 
Task94 63 7 7 
Task95 1 31 15 
Task96 63 7 7 
Task97 15 31 1 
Task98 15 7 31 
Task99 15 31 7 
