files/tasks_parameters/ExAp01/sample8.txt 0.97887 3.76817 4.3855 0.450105 7.32625
files/tasks_parameters/ExAp01/sample12.txt 1.3541 5.03638 5.18776 0.610564 9.938
files/tasks_parameters/ExAp01/sample2.txt 1.3293 4.58991 5.64606 0.613877 9.99192
files/tasks_parameters/ExAp01/sample44.txt 1.18376 3.77401 5.66946 0.551838 8.98211
files/tasks_parameters/ExAp01/sample27.txt 1.21641 4.13937 5.56136 0.55779 9.07899
files/tasks_parameters/ExAp01/sample17.txt 1.13144 3.76163 5.38341 0.520991 8.48004
files/tasks_parameters/ExAp01/sample9.txt 1.11055 3.69889 5.2981 0.511699 8.3288
files/tasks_parameters/ExAp01/sample34.txt 1.08277 3.52435 5.83741 0.49187 8.00604
files/tasks_parameters/ExAp01/sample40.txt 1.09561 4.06185 5.0335 0.496884 8.08765
files/tasks_parameters/ExAp01/sample33.txt 1.40176 4.82091 5.83886 0.651963 10.6118
files/tasks_parameters/ExAp01/sample48.txt 0.979259 4.01134 5.07085 0.447927 7.29079
files/tasks_parameters/ExAp01/sample29.txt 1.3777 4.20847 5.0406 0.643694 10.4772
files/tasks_parameters/ExAp01/sample11.txt 1.20988 3.94699 5.29198 0.557276 9.07063
files/tasks_parameters/ExAp01/sample14.txt 1.04464 3.54059 4.58345 0.466713 7.59657
files/tasks_parameters/ExAp01/sample0.txt 1.36584 4.82755 4.90216 0.623551 10.1494
files/tasks_parameters/ExAp01/sample7.txt 1.11023 3.60766 5.11185 0.509566 8.29407
files/tasks_parameters/ExAp01/sample23.txt 1.25844 3.81403 5.45799 0.582911 9.4879
files/tasks_parameters/ExAp01/sample13.txt 1.36206 4.8894 5.26818 0.624499 10.1648
files/tasks_parameters/ExAp01/sample22.txt 1.16884 3.76156 4.95746 0.534216 8.6953
files/tasks_parameters/ExAp01/sample25.txt 0.905741 2.94144 4.92622 0.403639 6.56993
files/tasks_parameters/ExAp01/sample36.txt 1.08667 3.56164 4.5806 0.501799 8.16765
files/tasks_parameters/ExAp01/sample46.txt 1.15028 3.84833 4.7121 0.530701 8.63808
files/tasks_parameters/ExAp01/sample31.txt 1.06217 3.764 5.08385 0.479734 7.8085
files/tasks_parameters/ExAp01/sample37.txt 1.40949 4.43254 5.65111 0.65143 10.6032
files/tasks_parameters/ExAp01/sample16.txt 1.12902 4.49741 4.8895 0.509171 8.28764
files/tasks_parameters/ExAp01/sample10.txt 1.33839 3.87086 6.07511 0.60993 9.92767
files/tasks_parameters/ExAp01/sample39.txt 1.02532 3.66299 4.54281 0.463671 7.54706
files/tasks_parameters/ExAp01/sample19.txt 1.3366 3.86694 5.14047 0.615987 10.0263
files/tasks_parameters/ExAp01/sample20.txt 1.25607 4.09945 5.13368 0.580369 9.44651
files/tasks_parameters/ExAp01/sample43.txt 1.15895 3.75825 5.55698 0.530892 8.64119
files/tasks_parameters/ExAp01/sample32.txt 1.28566 4.0352 5.29178 0.587643 9.56492
files/tasks_parameters/ExAp01/sample45.txt 1.17536 3.94578 4.87833 0.541081 8.80703
files/tasks_parameters/ExAp01/sample26.txt 1.03607 3.50998 4.55035 0.474009 7.71532
files/tasks_parameters/ExAp01/sample5.txt 1.26871 4.00994 5.27725 0.587681 9.56552
files/tasks_parameters/ExAp01/sample21.txt 0.963715 2.8974 4.54677 0.430037 6.9996
files/tasks_parameters/ExAp01/sample38.txt 1.0737 3.56689 4.78573 0.492366 8.01412
files/tasks_parameters/ExAp01/sample1.txt 1.06675 3.69002 4.55048 0.481074 7.83031
files/tasks_parameters/ExAp01/sample15.txt 1.15066 3.73223 5.42493 0.524964 8.5447
files/tasks_parameters/ExAp01/sample24.txt 1.17869 4.18053 5.40377 0.542575 8.83136
files/tasks_parameters/ExAp01/sample3.txt 1.02174 3.70547 4.7118 0.470503 7.65826
files/tasks_parameters/ExAp01/sample6.txt 1.34463 4.07521 5.71419 0.626702 10.2007
files/tasks_parameters/ExAp01/sample30.txt 1.36183 3.97446 5.82388 0.626709 10.2008
files/tasks_parameters/ExAp01/sample42.txt 1.1839 4.44207 5.58473 0.537025 8.74101
files/tasks_parameters/ExAp01/sample4.txt 1.22182 3.92181 4.49751 0.556974 9.06572
files/tasks_parameters/ExAp01/sample28.txt 0.957731 3.13496 4.88321 0.444588 7.23645
files/tasks_parameters/ExAp01/sample18.txt 1.1756 3.95301 4.52898 0.537438 8.74773
files/tasks_parameters/ExAp01/sample35.txt 1.63825 5.75923 6.25034 0.752488 12.248
files/tasks_parameters/ExAp01/sample47.txt 1.17128 3.44018 5.14289 0.540033 8.78998
files/tasks_parameters/ExAp01/sample49.txt 1.09949 3.38981 4.72409 0.493041 8.02511
files/tasks_parameters/ExAp01/sample41.txt 1.05939 3.58692 5.27252 0.492391 8.01451
