files/tasks_parameters/ExAp01/sample8.txt 1.08638 7.2562 4.46819 0.454772 15.7508
files/tasks_parameters/ExAp01/sample12.txt 1.50436 9.70908 5.28286 0.618515 21.4219
files/tasks_parameters/ExAp01/sample2.txt 1.45573 8.14159 5.7401 0.620531 21.4917
files/tasks_parameters/ExAp01/sample44.txt 1.31478 7.25164 5.75904 0.557631 19.3132
files/tasks_parameters/ExAp01/sample27.txt 1.3537 8.10944 5.64946 0.564878 19.5642
files/tasks_parameters/ExAp01/sample17.txt 1.25081 7.11225 5.46658 0.527183 18.2587
files/tasks_parameters/ExAp01/sample9.txt 1.22452 7.62559 5.37813 0.517277 17.9156
files/tasks_parameters/ExAp01/sample34.txt 1.2369 7.04587 5.93037 0.497709 17.2378
files/tasks_parameters/ExAp01/sample40.txt 1.195 8.03037 5.123 0.502383 17.3997
files/tasks_parameters/ExAp01/sample33.txt 1.53781 9.22935 5.92956 0.659262 22.8331
files/tasks_parameters/ExAp01/sample48.txt 1.08943 8.12182 5.1577 0.452491 15.6717
files/tasks_parameters/ExAp01/sample29.txt 1.50716 8.06133 5.12331 0.650652 22.5349
files/tasks_parameters/ExAp01/sample11.txt 1.32359 7.63104 5.37897 0.563302 19.5096
files/tasks_parameters/ExAp01/sample14.txt 1.1425 6.66403 4.66322 0.471536 16.3314
files/tasks_parameters/ExAp01/sample0.txt 1.50939 9.3266 4.98971 0.6311 21.8577
files/tasks_parameters/ExAp01/sample7.txt 1.227 7.34863 5.19436 0.515527 17.855
files/tasks_parameters/ExAp01/sample23.txt 1.36709 6.68564 5.54308 0.588617 20.3864
files/tasks_parameters/ExAp01/sample13.txt 1.5178 9.31093 5.35591 0.632849 21.9183
files/tasks_parameters/ExAp01/sample22.txt 1.29717 7.65588 5.04866 0.540336 18.7142
files/tasks_parameters/ExAp01/sample25.txt 1.01176 6.17035 5.0141 0.408296 14.1411
files/tasks_parameters/ExAp01/sample36.txt 1.19495 7.03772 4.66274 0.507647 17.582
files/tasks_parameters/ExAp01/sample46.txt 1.27378 7.73433 4.79934 0.536843 18.5932
files/tasks_parameters/ExAp01/sample31.txt 1.18907 6.96928 5.16482 0.485817 16.826
files/tasks_parameters/ExAp01/sample37.txt 1.53453 9.52443 5.74224 0.65799 22.7891
files/tasks_parameters/ExAp01/sample16.txt 1.3008 8.63521 4.97261 0.516328 17.8827
files/tasks_parameters/ExAp01/sample10.txt 1.44966 7.28353 6.16876 0.615651 21.3227
files/tasks_parameters/ExAp01/sample39.txt 1.13448 6.3405 4.6137 0.468873 16.2391
files/tasks_parameters/ExAp01/sample19.txt 1.45393 8.85528 5.22306 0.622152 21.5479
files/tasks_parameters/ExAp01/sample20.txt 1.38007 8.1141 5.21177 0.586994 20.3302
files/tasks_parameters/ExAp01/sample43.txt 1.28799 7.21373 5.6367 0.53748 18.6153
files/tasks_parameters/ExAp01/sample32.txt 1.41514 8.30592 5.38137 0.593918 20.57
files/tasks_parameters/ExAp01/sample45.txt 1.29154 7.94069 4.96323 0.547271 18.9544
files/tasks_parameters/ExAp01/sample26.txt 1.15091 7.57061 4.62637 0.480146 16.6296
files/tasks_parameters/ExAp01/sample5.txt 1.38889 8.0307 5.35681 0.59407 20.5752
files/tasks_parameters/ExAp01/sample21.txt 1.05403 5.87802 4.61744 0.434264 15.0405
files/tasks_parameters/ExAp01/sample38.txt 1.16677 7.66999 4.86632 0.496808 17.2066
files/tasks_parameters/ExAp01/sample1.txt 1.18412 7.21312 4.63213 0.486293 16.8425
files/tasks_parameters/ExAp01/sample15.txt 1.27671 8.02273 5.50855 0.531063 18.393
files/tasks_parameters/ExAp01/sample24.txt 1.30128 8.66348 5.4905 0.548998 19.0142
files/tasks_parameters/ExAp01/sample3.txt 1.15265 7.74268 4.79918 0.477387 16.534
files/tasks_parameters/ExAp01/sample6.txt 1.47319 8.57133 5.80157 0.633604 21.9445
files/tasks_parameters/ExAp01/sample30.txt 1.51668 8.18878 5.90888 0.633576 21.9435
files/tasks_parameters/ExAp01/sample42.txt 1.35117 8.57689 5.67253 0.54426 18.8501
files/tasks_parameters/ExAp01/sample4.txt 1.34383 8.40354 4.57985 0.563519 19.5171
files/tasks_parameters/ExAp01/sample28.txt 1.06147 6.44114 4.96426 0.449721 15.5758
files/tasks_parameters/ExAp01/sample18.txt 1.29562 8.56363 4.60946 0.543766 18.833
files/tasks_parameters/ExAp01/sample35.txt 1.80259 11.0387 6.34514 0.761377 26.3698
files/tasks_parameters/ExAp01/sample47.txt 1.26815 7.14493 5.22131 0.545046 18.8773
files/tasks_parameters/ExAp01/sample49.txt 1.21389 6.65996 4.80244 0.498533 17.2664
files/tasks_parameters/ExAp01/sample41.txt 1.15886 7.09069 5.35462 0.497129 17.2177
