files/tasks_parameters/ExAp01/sample8.txt 1.31033 6.77015 2.19458 0.288816 4.98719
files/tasks_parameters/ExAp01/sample12.txt 1.57258 9.58351 2.46081 0.337498 5.82782
files/tasks_parameters/ExAp01/sample2.txt 1.42522 8.44418 2.50701 0.319127 5.51059
files/tasks_parameters/ExAp01/sample44.txt 1.22795 6.96299 2.23089 0.28229 4.8745
files/tasks_parameters/ExAp01/sample27.txt 1.27677 7.74306 2.16676 0.28602 4.9389
files/tasks_parameters/ExAp01/sample17.txt 1.33122 7.35053 2.25579 0.292348 5.04816
files/tasks_parameters/ExAp01/sample9.txt 1.28754 6.89392 2.21068 0.282399 4.87637
files/tasks_parameters/ExAp01/sample34.txt 1.31091 6.62788 2.3772 0.297742 5.14131
files/tasks_parameters/ExAp01/sample40.txt 1.24949 7.75686 2.17534 0.285619 4.93198
files/tasks_parameters/ExAp01/sample33.txt 1.49127 8.14826 2.6463 0.338073 5.83774
files/tasks_parameters/ExAp01/sample48.txt 1.21312 7.64107 2.14272 0.270011 4.66247
files/tasks_parameters/ExAp01/sample29.txt 1.3584 7.139 1.93769 0.286306 4.94384
files/tasks_parameters/ExAp01/sample11.txt 1.24884 6.88688 2.12981 0.280008 4.8351
files/tasks_parameters/ExAp01/sample14.txt 1.08426 6.11983 1.97599 0.247458 4.27302
files/tasks_parameters/ExAp01/sample0.txt 1.31709 8.2738 2.14256 0.289132 4.99263
files/tasks_parameters/ExAp01/sample7.txt 1.22008 6.87011 2.05821 0.269886 4.6603
files/tasks_parameters/ExAp01/sample23.txt 1.30907 6.52032 2.38087 0.291712 5.03718
files/tasks_parameters/ExAp01/sample13.txt 1.38464 8.73247 2.33415 0.295393 5.10075
files/tasks_parameters/ExAp01/sample22.txt 1.28385 6.9777 2.28948 0.283979 4.90366
files/tasks_parameters/ExAp01/sample25.txt 1.15094 6.23444 2.2122 0.267298 4.61561
files/tasks_parameters/ExAp01/sample36.txt 1.15203 6.6174 1.9458 0.253823 4.38293
files/tasks_parameters/ExAp01/sample46.txt 1.48219 7.42369 2.49128 0.327273 5.65124
files/tasks_parameters/ExAp01/sample31.txt 1.18721 7.22028 2.13584 0.25377 4.38202
files/tasks_parameters/ExAp01/sample37.txt 1.34787 8.90704 2.16981 0.295708 5.10619
files/tasks_parameters/ExAp01/sample16.txt 1.16397 8.18243 1.88294 0.24945 4.30742
files/tasks_parameters/ExAp01/sample10.txt 1.28231 6.96646 2.31217 0.285748 4.9342
files/tasks_parameters/ExAp01/sample39.txt 1.13057 6.4161 1.97266 0.251967 4.35088
files/tasks_parameters/ExAp01/sample19.txt 1.48979 8.16711 2.23199 0.308463 5.32644
files/tasks_parameters/ExAp01/sample20.txt 1.16268 7.28549 1.88944 0.25994 4.48856
files/tasks_parameters/ExAp01/sample43.txt 1.13484 6.86804 2.00142 0.25616 4.42329
files/tasks_parameters/ExAp01/sample32.txt 1.29492 8.15663 2.12995 0.281726 4.86476
files/tasks_parameters/ExAp01/sample45.txt 1.3449 7.75184 2.10599 0.274935 4.74749
files/tasks_parameters/ExAp01/sample26.txt 1.20575 7.4944 1.88956 0.267248 4.61475
files/tasks_parameters/ExAp01/sample5.txt 1.30018 8.08362 2.09961 0.28454 4.91335
files/tasks_parameters/ExAp01/sample21.txt 1.2066 6.11814 2.17119 0.26143 4.51428
files/tasks_parameters/ExAp01/sample38.txt 1.18815 7.761 1.96293 0.263659 4.55278
files/tasks_parameters/ExAp01/sample1.txt 1.31996 7.83752 2.13261 0.289228 4.9943
files/tasks_parameters/ExAp01/sample15.txt 1.27742 7.37971 2.12057 0.285825 4.93554
files/tasks_parameters/ExAp01/sample24.txt 1.33079 8.28531 2.25272 0.296628 5.12209
files/tasks_parameters/ExAp01/sample3.txt 1.43575 7.33359 2.39135 0.305084 5.2681
files/tasks_parameters/ExAp01/sample6.txt 1.23971 7.09894 2.24425 0.281804 4.86611
files/tasks_parameters/ExAp01/sample30.txt 1.48507 8.17669 2.03701 0.299204 5.16656
files/tasks_parameters/ExAp01/sample42.txt 1.29696 7.70416 2.42413 0.29743 5.13593
files/tasks_parameters/ExAp01/sample4.txt 1.45596 7.41691 2.36261 0.307803 5.31504
files/tasks_parameters/ExAp01/sample28.txt 1.2681 7.0562 2.07657 0.266428 4.60059
files/tasks_parameters/ExAp01/sample18.txt 1.19458 7.60139 2.1377 0.268016 4.62801
files/tasks_parameters/ExAp01/sample35.txt 1.53504 9.66795 2.28028 0.32244 5.56778
files/tasks_parameters/ExAp01/sample47.txt 1.13946 6.84842 2.12104 0.251655 4.34549
files/tasks_parameters/ExAp01/sample49.txt 1.14605 7.1497 2.11412 0.255889 4.41861
files/tasks_parameters/ExAp01/sample41.txt 1.15423 6.59911 2.07359 0.265885 4.59122
