files/tasks_parameters/ExAp01/sample8.txt 1.12803 7.2562 4.46819 0.454772 28.2196
files/tasks_parameters/ExAp01/sample12.txt 1.63679 9.70908 5.28286 0.618515 38.3801
files/tasks_parameters/ExAp01/sample2.txt 1.51044 8.14159 5.7401 0.620531 38.5052
files/tasks_parameters/ExAp01/sample44.txt 1.38103 7.25164 5.75904 0.557631 34.6021
files/tasks_parameters/ExAp01/sample27.txt 1.31151 8.10944 5.64946 0.564878 35.0519
files/tasks_parameters/ExAp01/sample17.txt 1.25236 7.11225 5.46658 0.527183 32.7128
files/tasks_parameters/ExAp01/sample9.txt 1.23178 7.62559 5.37813 0.517277 32.0981
files/tasks_parameters/ExAp01/sample34.txt 1.23493 7.04587 5.93037 0.497709 30.8839
files/tasks_parameters/ExAp01/sample40.txt 1.22326 8.03037 5.123 0.502383 31.1739
files/tasks_parameters/ExAp01/sample33.txt 1.64345 9.22935 5.92956 0.659262 40.9086
files/tasks_parameters/ExAp01/sample48.txt 1.18154 8.12182 5.1577 0.452491 28.078
files/tasks_parameters/ExAp01/sample29.txt 1.56839 8.06133 5.12331 0.650652 40.3743
files/tasks_parameters/ExAp01/sample11.txt 1.36807 7.63104 5.37897 0.563302 34.954
files/tasks_parameters/ExAp01/sample14.txt 1.1404 6.66403 4.66322 0.471536 29.2598
files/tasks_parameters/ExAp01/sample0.txt 1.51435 9.3266 4.98971 0.6311 39.161
files/tasks_parameters/ExAp01/sample7.txt 1.28074 7.34863 5.19436 0.515527 31.9895
files/tasks_parameters/ExAp01/sample23.txt 1.42217 6.68564 5.54308 0.588617 36.5249
files/tasks_parameters/ExAp01/sample13.txt 1.70722 9.31093 5.35591 0.632849 39.2696
files/tasks_parameters/ExAp01/sample22.txt 1.32131 7.65588 5.04866 0.540336 33.5289
files/tasks_parameters/ExAp01/sample25.txt 1.09399 6.17035 5.0141 0.408296 25.3356
files/tasks_parameters/ExAp01/sample36.txt 1.2318 7.03772 4.66274 0.507647 31.5005
files/tasks_parameters/ExAp01/sample46.txt 1.41461 7.73433 4.79934 0.536843 33.3122
files/tasks_parameters/ExAp01/sample31.txt 1.25704 6.96928 5.16482 0.485817 30.146
files/tasks_parameters/ExAp01/sample37.txt 1.63674 9.52443 5.74224 0.65799 40.8296
files/tasks_parameters/ExAp01/sample16.txt 1.3636 8.63521 4.97261 0.516328 32.0392
files/tasks_parameters/ExAp01/sample10.txt 1.41551 7.28353 6.16876 0.615651 38.2024
files/tasks_parameters/ExAp01/sample39.txt 1.13607 6.3405 4.6137 0.468873 29.0945
files/tasks_parameters/ExAp01/sample19.txt 1.64606 8.85528 5.22306 0.622152 38.6058
files/tasks_parameters/ExAp01/sample20.txt 1.4019 8.1141 5.21177 0.586994 36.4242
files/tasks_parameters/ExAp01/sample43.txt 1.32411 7.21373 5.6367 0.53748 33.3517
files/tasks_parameters/ExAp01/sample32.txt 1.61601 8.30592 5.38137 0.593918 36.8538
files/tasks_parameters/ExAp01/sample45.txt 1.44152 7.94069 4.96323 0.547271 33.9593
files/tasks_parameters/ExAp01/sample26.txt 1.17166 7.57061 4.62637 0.480146 29.794
files/tasks_parameters/ExAp01/sample5.txt 1.47564 8.0307 5.35681 0.59407 36.8632
files/tasks_parameters/ExAp01/sample21.txt 1.10218 5.87802 4.61744 0.434264 26.947
files/tasks_parameters/ExAp01/sample38.txt 1.22583 7.66999 4.86632 0.496808 30.828
files/tasks_parameters/ExAp01/sample1.txt 1.21577 7.21312 4.63213 0.486293 30.1755
files/tasks_parameters/ExAp01/sample15.txt 1.2485 8.02273 5.50855 0.531063 32.9535
files/tasks_parameters/ExAp01/sample24.txt 1.40496 8.66348 5.4905 0.548998 34.0665
files/tasks_parameters/ExAp01/sample3.txt 1.18433 7.74268 4.79918 0.477387 29.6228
files/tasks_parameters/ExAp01/sample6.txt 1.63335 8.57133 5.80157 0.633604 39.3164
files/tasks_parameters/ExAp01/sample30.txt 1.72217 8.18878 5.90888 0.633576 39.3147
files/tasks_parameters/ExAp01/sample42.txt 1.32879 8.57689 5.67253 0.54426 33.7724
files/tasks_parameters/ExAp01/sample4.txt 1.3895 8.40354 4.57985 0.563519 34.9675
files/tasks_parameters/ExAp01/sample28.txt 1.14513 6.44114 4.96426 0.449721 27.9061
files/tasks_parameters/ExAp01/sample18.txt 1.39948 8.56363 4.60946 0.543766 33.7418
files/tasks_parameters/ExAp01/sample35.txt 1.94463 11.0387 6.34514 0.761377 47.245
files/tasks_parameters/ExAp01/sample47.txt 1.32235 7.14493 5.22131 0.545046 33.8212
files/tasks_parameters/ExAp01/sample49.txt 1.33232 6.65996 4.80244 0.498533 30.935
files/tasks_parameters/ExAp01/sample41.txt 1.21446 7.09069 5.35462 0.497129 30.8479
