files/tasks_parameters/ExAp01/sample8.txt 0.797853 3.15778 1.5595 0.203411 4.54993
files/tasks_parameters/ExAp01/sample12.txt 0.806027 3.94962 1.6705 0.207924 4.65087
files/tasks_parameters/ExAp01/sample2.txt 0.768993 3.78275 1.74131 0.200098 4.47581
files/tasks_parameters/ExAp01/sample44.txt 0.688402 3.59825 1.65317 0.200005 4.47374
files/tasks_parameters/ExAp01/sample27.txt 0.680558 3.45743 1.5148 0.182129 4.07388
files/tasks_parameters/ExAp01/sample17.txt 0.925109 2.77299 1.44514 0.14646 3.27603
files/tasks_parameters/ExAp01/sample9.txt 0.741846 2.99933 1.451 0.177444 3.96908
files/tasks_parameters/ExAp01/sample34.txt 0.831645 3.02928 1.58429 0.157984 3.5338
files/tasks_parameters/ExAp01/sample40.txt 0.764924 3.86889 1.52122 0.168379 3.76633
files/tasks_parameters/ExAp01/sample33.txt 0.804487 3.63695 1.71905 0.199765 4.46837
files/tasks_parameters/ExAp01/sample48.txt 0.682426 3.39061 1.49062 0.154728 3.46098
files/tasks_parameters/ExAp01/sample29.txt 0.762684 3.30472 1.38739 0.223868 5.00752
files/tasks_parameters/ExAp01/sample11.txt 0.707448 3.10585 1.41612 0.174079 3.89382
files/tasks_parameters/ExAp01/sample14.txt 0.65605 2.70971 1.43432 0.162214 3.62844
files/tasks_parameters/ExAp01/sample0.txt 0.745902 3.6937 1.5439 0.18367 4.10835
files/tasks_parameters/ExAp01/sample7.txt 0.809856 2.70501 1.42221 0.143463 3.20901
files/tasks_parameters/ExAp01/sample23.txt 0.761361 3.2697 1.57822 0.181448 4.05867
files/tasks_parameters/ExAp01/sample13.txt 0.731127 3.84225 1.67648 0.198247 4.43442
files/tasks_parameters/ExAp01/sample22.txt 0.901802 3.09569 1.56121 0.148796 3.32829
files/tasks_parameters/ExAp01/sample25.txt 0.746637 2.73966 1.5007 0.148149 3.31381
files/tasks_parameters/ExAp01/sample36.txt 0.837011 2.85948 1.28553 0.130042 2.9088
files/tasks_parameters/ExAp01/sample46.txt 0.758949 3.58643 1.69998 0.210103 4.69961
files/tasks_parameters/ExAp01/sample31.txt 0.707751 3.4832 1.53782 0.1722 3.85179
files/tasks_parameters/ExAp01/sample37.txt 0.774256 3.95293 1.50705 0.171701 3.84063
files/tasks_parameters/ExAp01/sample16.txt 0.609796 3.31216 1.30115 0.150249 3.36079
files/tasks_parameters/ExAp01/sample10.txt 1.10417 3.17098 1.61789 0.153776 3.43969
files/tasks_parameters/ExAp01/sample39.txt 0.70073 3.26617 1.44406 0.165669 3.7057
files/tasks_parameters/ExAp01/sample19.txt 0.748663 3.63532 1.52509 0.196094 4.38627
files/tasks_parameters/ExAp01/sample20.txt 0.662661 3.20793 1.25367 0.147335 3.29562
files/tasks_parameters/ExAp01/sample43.txt 0.647248 3.11551 1.4202 0.150644 3.36964
files/tasks_parameters/ExAp01/sample32.txt 0.722684 3.5311 1.42482 0.168744 3.7745
files/tasks_parameters/ExAp01/sample45.txt 0.741718 3.80283 1.48324 0.19807 4.43047
files/tasks_parameters/ExAp01/sample26.txt 0.628249 3.21645 1.29701 0.166061 3.71448
files/tasks_parameters/ExAp01/sample5.txt 0.633265 3.5889 1.52559 0.178903 4.00174
files/tasks_parameters/ExAp01/sample21.txt 0.655571 2.75242 1.55936 0.19512 4.36448
files/tasks_parameters/ExAp01/sample38.txt 0.660475 3.31563 1.37515 0.166157 3.71662
files/tasks_parameters/ExAp01/sample1.txt 0.733785 3.74964 1.51696 0.19701 4.40674
files/tasks_parameters/ExAp01/sample15.txt 0.693441 3.32916 1.48508 0.180707 4.04209
files/tasks_parameters/ExAp01/sample24.txt 0.861271 3.45951 1.59549 0.16529 3.69724
files/tasks_parameters/ExAp01/sample3.txt 0.883352 3.70014 1.70809 0.237107 5.30365
files/tasks_parameters/ExAp01/sample6.txt 0.730089 3.33003 1.58323 0.184714 4.13172
files/tasks_parameters/ExAp01/sample30.txt 0.924978 4.1841 1.4861 0.239623 5.35992
files/tasks_parameters/ExAp01/sample42.txt 0.747833 3.43221 1.70276 0.177383 3.96773
files/tasks_parameters/ExAp01/sample4.txt 0.767973 3.72477 1.6136 0.196448 4.39418
files/tasks_parameters/ExAp01/sample28.txt 0.689545 3.11323 1.45032 0.158819 3.55249
files/tasks_parameters/ExAp01/sample18.txt 0.769617 3.47418 1.45209 0.149064 3.33428
files/tasks_parameters/ExAp01/sample35.txt 0.804544 4.57086 1.49394 0.185031 4.13879
files/tasks_parameters/ExAp01/sample47.txt 0.712947 3.13768 1.52397 0.16417 3.67218
files/tasks_parameters/ExAp01/sample49.txt 0.776571 3.13288 1.49657 0.156154 3.49288
files/tasks_parameters/ExAp01/sample41.txt 0.761307 2.81964 1.49636 0.150876 3.37481
