files/tasks_parameters/ExAp01/sample8.txt 0.791764 3.15778 1.5595 0.203411 4.67906
files/tasks_parameters/ExAp01/sample12.txt 0.806027 3.94962 1.6705 0.207924 4.78286
files/tasks_parameters/ExAp01/sample2.txt 0.772754 3.78275 1.74131 0.200098 4.60284
files/tasks_parameters/ExAp01/sample44.txt 0.691143 3.59825 1.65317 0.200005 4.60071
files/tasks_parameters/ExAp01/sample27.txt 0.682035 3.45743 1.5148 0.182129 4.18949
files/tasks_parameters/ExAp01/sample17.txt 0.925109 2.77299 1.44514 0.14646 3.36901
files/tasks_parameters/ExAp01/sample9.txt 0.728789 2.99933 1.451 0.177444 4.08172
files/tasks_parameters/ExAp01/sample34.txt 0.831645 3.02928 1.58429 0.157984 3.63409
files/tasks_parameters/ExAp01/sample40.txt 0.764924 3.86889 1.52122 0.168379 3.87322
files/tasks_parameters/ExAp01/sample33.txt 0.800579 3.63695 1.71905 0.199765 4.59518
files/tasks_parameters/ExAp01/sample48.txt 0.682426 3.39061 1.49062 0.154728 3.55921
files/tasks_parameters/ExAp01/sample29.txt 0.744141 3.30472 1.38739 0.223868 5.14963
files/tasks_parameters/ExAp01/sample11.txt 0.707448 3.10585 1.41612 0.174079 4.00432
files/tasks_parameters/ExAp01/sample14.txt 0.664883 2.70971 1.43432 0.162214 3.73141
files/tasks_parameters/ExAp01/sample0.txt 0.74897 3.6937 1.5439 0.18367 4.22495
files/tasks_parameters/ExAp01/sample7.txt 0.809856 2.70501 1.42221 0.143463 3.30008
files/tasks_parameters/ExAp01/sample23.txt 0.75565 3.2697 1.57822 0.181448 4.17385
files/tasks_parameters/ExAp01/sample13.txt 0.733989 3.84225 1.67648 0.198247 4.56027
files/tasks_parameters/ExAp01/sample22.txt 0.901802 3.09569 1.56121 0.148796 3.42275
files/tasks_parameters/ExAp01/sample25.txt 0.746637 2.73966 1.5007 0.148149 3.40786
files/tasks_parameters/ExAp01/sample36.txt 0.850926 2.85948 1.28553 0.130042 2.99136
files/tasks_parameters/ExAp01/sample46.txt 0.754511 3.58643 1.69998 0.210103 4.83298
files/tasks_parameters/ExAp01/sample31.txt 0.691751 3.4832 1.53782 0.1722 3.96111
files/tasks_parameters/ExAp01/sample37.txt 0.777322 3.95293 1.50705 0.171701 3.94963
files/tasks_parameters/ExAp01/sample16.txt 0.60624 3.31216 1.30115 0.150249 3.45617
files/tasks_parameters/ExAp01/sample10.txt 1.10417 3.17098 1.61789 0.153776 3.53731
files/tasks_parameters/ExAp01/sample39.txt 0.699845 3.26617 1.44406 0.165669 3.81087
files/tasks_parameters/ExAp01/sample19.txt 0.744432 3.63532 1.52509 0.196094 4.51075
files/tasks_parameters/ExAp01/sample20.txt 0.662661 3.20793 1.25367 0.147335 3.38915
files/tasks_parameters/ExAp01/sample43.txt 0.648213 3.11551 1.4202 0.150644 3.46527
files/tasks_parameters/ExAp01/sample32.txt 0.722684 3.5311 1.42482 0.168744 3.88162
files/tasks_parameters/ExAp01/sample45.txt 0.750645 3.80283 1.48324 0.19807 4.5562
files/tasks_parameters/ExAp01/sample26.txt 0.633587 3.21645 1.29701 0.166061 3.8199
files/tasks_parameters/ExAp01/sample5.txt 0.636913 3.5889 1.52559 0.178903 4.11531
files/tasks_parameters/ExAp01/sample21.txt 0.682117 2.75242 1.55936 0.19512 4.48834
files/tasks_parameters/ExAp01/sample38.txt 0.665003 3.31563 1.37515 0.166157 3.8221
files/tasks_parameters/ExAp01/sample1.txt 0.72984 3.74964 1.51696 0.19701 4.5318
files/tasks_parameters/ExAp01/sample15.txt 0.699662 3.32916 1.48508 0.180707 4.15681
files/tasks_parameters/ExAp01/sample24.txt 0.861271 3.45951 1.59549 0.16529 3.80217
files/tasks_parameters/ExAp01/sample3.txt 0.902254 3.70014 1.70809 0.237107 5.45416
files/tasks_parameters/ExAp01/sample6.txt 0.730089 3.33003 1.58323 0.184714 4.24898
files/tasks_parameters/ExAp01/sample30.txt 0.819439 4.1841 1.4861 0.239623 5.51204
files/tasks_parameters/ExAp01/sample42.txt 0.747833 3.43221 1.70276 0.177383 4.08033
files/tasks_parameters/ExAp01/sample4.txt 0.785869 3.72477 1.6136 0.196448 4.51889
files/tasks_parameters/ExAp01/sample28.txt 0.689545 3.11323 1.45032 0.158819 3.65331
files/tasks_parameters/ExAp01/sample18.txt 0.769617 3.47418 1.45209 0.149064 3.42891
files/tasks_parameters/ExAp01/sample35.txt 0.806306 4.57086 1.49394 0.185031 4.25625
files/tasks_parameters/ExAp01/sample47.txt 0.716601 3.13768 1.52397 0.16417 3.7764
files/tasks_parameters/ExAp01/sample49.txt 0.776571 3.13288 1.49657 0.156154 3.59201
files/tasks_parameters/ExAp01/sample41.txt 0.76195 2.81964 1.49636 0.150876 3.47059
