0.33058077999999996
Task0 1 63 3 
Task1 1 31 255 
Task2 255 31 31 
Task3 15 31 1 
Task4 3 15 1 
Task5 15 63 31 
Task6 15 1 7 
Task7 15 15 7 
Task8 15 255 31 
Task9 3 15 15 
Task10 31 31 31 
Task11 31 7 1 
Task12 3 15 3 
Task13 31 15 15 
Task14 127 63 255 
Task15 31 7 31 
Task16 1 31 3 
Task17 7 31 15 
Task18 127 127 15 
Task19 3 15 1 
Task20 3 63 1 
Task21 7 1 31 
Task22 15 31 7 
Task23 63 3 31 
Task24 15 15 3 
Task25 63 1 3 
Task26 255 15 1 
Task27 127 127 15 
Task28 127 7 255 
Task29 15 31 31 
Task30 63 255 63 
Task31 31 31 15 
Task32 31 1 15 
Task33 7 7 31 
Task34 7 63 1 
Task35 63 63 31 
Task36 31 15 1 
Task37 7 1 63 
Task38 1 31 15 
Task39 7 31 7 
Task40 31 1 1 
Task41 31 31 63 
Task42 3 7 255 
Task43 3 63 7 
Task44 1 15 31 
Task45 7 31 7 
Task46 15 15 15 
Task47 7 63 7 
Task48 15 15 15 
Task49 31 1 7 
Task50 31 15 15 
Task51 7 31 7 
Task52 3 15 15 
Task53 63 1 127 
Task54 15 15 31 
Task55 63 255 3 
Task56 31 255 63 
Task57 7 63 127 
Task58 31 63 7 
Task59 15 15 31 
Task60 31 15 15 
Task61 31 63 3 
Task62 15 15 15 
Task63 31 15 15 
Task64 31 3 31 
Task65 15 31 3 
Task66 15 255 63 
Task67 63 15 255 
Task68 31 7 255 
Task69 127 3 63 
Task70 127 255 255 
Task71 127 31 63 
Task72 15 127 63 
Task73 255 31 7 
Task74 63 31 63 
Task75 3 3 63 
Task76 3 31 15 
Task77 1 15 31 
Task78 15 7 7 
Task79 7 3 63 
Task80 31 31 3 
Task81 31 31 7 
Task82 63 63 127 
Task83 31 15 15 
Task84 7 3 15 
Task85 1 3 63 
Task86 15 31 255 
Task87 3 7 31 
Task88 15 3 63 
Task89 63 7 1 
Task90 1 31 3 
Task91 255 1 127 
Task92 7 15 63 
Task93 1 63 7 
Task94 7 31 63 
Task95 3 1 15 
Task96 15 31 7 
Task97 15 3 31 
Task98 7 7 31 
Task99 31 3 15 
