0.36733957
Task0 63 63 255 
Task1 255 255 255 
Task2 255 31 255 
Task3 127 255 255 
Task4 255 31 15 
Task5 63 31 63 
Task6 15 63 7 
Task7 255 127 127 
Task8 15 3 255 
Task9 255 15 255 
Task10 7 7 255 
Task11 3 7 255 
Task12 31 7 7 
Task13 63 7 15 
Task14 63 7 127 
Task15 127 255 255 
Task16 255 1 7 
Task17 255 3 15 
Task18 127 31 63 
Task19 63 63 31 
Task20 15 255 15 
Task21 15 255 31 
Task22 15 127 127 
Task23 255 31 127 
Task24 255 15 63 
Task25 255 63 63 
Task26 3 63 15 
Task27 15 255 15 
Task28 255 31 1 
Task29 127 1 31 
Task30 63 31 63 
Task31 3 15 255 
Task32 255 15 7 
Task33 127 31 63 
Task34 3 1 255 
Task35 255 255 127 
Task36 127 127 255 
Task37 63 127 7 
Task38 63 7 7 
Task39 63 31 15 
Task40 255 255 127 
Task41 127 31 63 
Task42 127 15 127 
Task43 127 255 7 
Task44 63 63 255 
Task45 63 31 15 
Task46 63 127 63 
Task47 255 3 7 
Task48 31 63 31 
Task49 127 31 7 
Task50 127 15 31 
Task51 63 7 15 
Task52 31 63 255 
Task53 1 15 255 
Task54 15 255 31 
Task55 3 63 15 
Task56 255 31 31 
Task57 255 127 255 
Task58 1 255 3 
Task59 1 63 127 
Task60 255 1 15 
Task61 31 63 7 
Task62 255 3 31 
Task63 127 255 15 
Task64 255 3 255 
Task65 255 3 3 
Task66 31 7 255 
Task67 31 7 255 
Task68 63 63 255 
Task69 1 127 15 
Task70 127 31 1 
Task71 31 15 255 
Task72 63 127 255 
Task73 31 255 15 
Task74 31 63 7 
Task75 127 7 255 
Task76 3 1 255 
Task77 255 15 63 
Task78 255 63 15 
Task79 15 255 15 
Task80 15 127 15 
Task81 63 63 7 
Task82 255 31 63 
Task83 63 255 127 
Task84 3 3 63 
Task85 255 127 255 
Task86 63 31 255 
Task87 127 63 31 
Task88 255 15 15 
Task89 127 7 31 
Task90 63 15 15 
Task91 127 31 15 
Task92 255 31 7 
Task93 63 15 7 
Task94 255 15 255 
Task95 7 63 7 
Task96 3 255 255 
Task97 63 31 63 
Task98 31 3 127 
Task99 15 255 7 
