Task0 0.009261426031198146 0.08186018855981636 0.3026907287719894 0.3220837971249357 0.47128392105652017 0.6728840766891089 0.6193403395697691 
Task1 0.06493221510029738 0.39906155144905864 0.03665854212825869 0.2972236100866799 0.6358172972775956 0.6524497599420948 0.4706831861221079 
Task2 0.028343370027153363 0.05093703313665202 0.13323955854338312 0.08499184217887062 0.7875232886227179 0.9651475049234963 0.34477657806631334 
Task3 0.12578715869202767 0.3750928455365021 0.04712240319804179 0.11479246181696807 0.40605476641629995 0.5094098278431236 0.3502142723233637 
Task4 0.008381026004377254 0.016618285529161694 0.005061508117894034 0.013135297252816864 0.6588336000009185 0.6474061879453065 0.8987413610899457 
Task5 0.019376782032752293 0.007464331845867739 0.043333205673747516 0.04490320899958308 0.6989326298158896 0.830758460147726 0.5543872344970544 
Task6 0.07399039240612834 0.1475481999470283 0.06361455586441919 0.17600924757247385 0.5832190053347706 0.9255863271319231 0.5178997107618143 
Task7 0.010013139105312638 0.05441393523921622 0.03403464180782031 0.051196259823632795 0.5290335679727538 0.8887498972217749 0.7534533604860197 
Task8 0.02772907073007516 0.17409378576447207 0.1731133085102973 0.1131821497771897 0.6263917742334238 0.32414484503962204 0.9706750793090928 
Task9 0.0020886681066525094 0.030471291902643933 0.03204752122546745 0.027588661260548153 0.8860712860413822 0.5394578776085611 0.9759412503488987 
Task10 0.0037464931569087022 0.03450676427062386 0.012952780440791288 0.037492183102802834 0.7964357712633867 0.7017044166758354 0.6359672604162219 
Task11 0.051716770969494334 0.21958033770348406 0.34153063493973657 0.1312537580916701 0.8762093769332937 0.6122194099244962 0.9781508630464579 
Task12 0.012008355570257648 0.04682209588338185 0.006761220415521007 0.15417205345792104 0.3458127180598416 0.7425697607677981 0.33890368080824507 
Task13 0.03554041466618901 0.2374062507114634 0.0749367010771751 0.38054840276133045 0.94918317314449 0.4214159548306924 0.47095357047011555 
Task14 0.033058688764055336 0.44613615345380436 0.16163584498130032 0.24466704700331052 0.5896924927805007 0.5678058556952665 0.8317918555522481 
Task15 0.07733038692287818 0.22838151472638646 0.13626892090319223 0.033105348603132315 0.7966834283795964 0.5804244292720475 0.32509643491648854 
Task16 0.13551398487612143 0.2828101077432579 0.46581006298448013 0.03989170712265552 0.3138138657241211 0.6428030522522643 0.5318540405123429 
Task17 0.026053404739086617 0.03232592358345121 0.034940330719031965 0.03864685793159918 0.8736909175905838 0.7113185775898812 0.9453110662134103 
Task18 0.05339625518209976 0.450028743213395 0.1908176742023862 0.09835193014388371 0.675282044364529 0.9954556811350159 0.39344814846487147 
Task19 0.05404419888656965 0.016934381355448756 0.14685561162566635 0.2720789012500408 0.519122986135899 0.3457545412838327 0.7526684769607214 
Task20 0.025991615605761777 0.027510406854197932 0.029114685519760146 0.07515325785602425 0.7430330423018465 0.9586791629657185 0.7194834190208621 
Task21 0.020484923559956864 0.07981684656717906 0.0425806755269265 0.03947923195511511 0.500207462388772 0.987692214917077 0.4034954811302838 
Task22 0.04820712448431575 0.04375781361530979 0.08801917426047025 0.06334961081010558 0.38717458450988695 0.5549745353833759 0.8244883380728307 
Task23 0.14207816590735137 0.08665932602878676 0.1914718485358144 0.5386239497697852 0.597573712793959 0.7578103588549039 0.5923602547889968 
Task24 0.020805641032106553 0.03858396591003962 0.08814836603477282 0.11830803463042269 0.7112937432756403 0.8110655062276537 0.6567602051443727 
Task25 0.0473090748834761 0.01148866935555789 0.2625296359344768 0.2741038517154747 0.39205443018587693 0.5094494643858132 0.45849509153069223 
Task26 0.0892534798652596 0.13819743646028398 0.16846248327626065 0.07132889299590181 0.41353318573238645 0.38224958926214325 0.465773061224082 
Task27 0.02111972372537003 0.05322552036519458 0.06629663771358546 0.06814855429941166 0.5108371293420184 0.9281041571651949 0.7246793629713075 
Task28 0.12000742761600537 0.05047342196042141 0.3278583303688839 0.2755528170514396 0.48362692861219647 0.6846529230744616 0.4206791480672022 
Task29 0.027588321846945 0.014828116623114574 0.019881065543724485 0.09779521248244409 0.8440535193121208 0.4472304848714643 0.7109546038290835 
Task30 0.045719374979908654 0.3015110938581378 0.26446399836797735 0.18215920151111697 0.3268112442164739 0.6799167468150773 0.7570868361851534 
Task31 0.034732343328010035 0.005764713798548569 0.07812601106720919 0.05860313179257602 0.5847553870083098 0.6736614282780055 0.3632458842886947 
Task32 0.12720091797486355 0.11580568804670151 0.07557342635493842 0.3735717662469972 0.38816503737458824 0.8709468307263368 0.5013345921577095 
Task33 0.04170243742453774 0.01615113310733353 0.545802619604296 0.074368147918109 0.5367600535007235 0.45673738874733255 0.8844042918511341 
Task34 0.09269408120011784 0.1552217803424344 0.1475776684810827 0.2947454623473523 0.9063502034476176 0.7156727679992736 0.6236334105813672 
Task35 0.003543659185499442 0.2277583067405976 0.10381863908273872 0.09135114926093711 0.9344250092510968 0.9703851154055005 0.8473756073466119 
Task36 0.0015043297117398632 0.012058958510178604 0.031951134193985084 0.06086944990779461 0.8834200276161099 0.7779888818877649 0.384329217910448 
Task37 0.060565876828173264 0.13137097298627576 0.03483111213193545 0.20164066651346374 0.8464486906883473 0.6304338388759376 0.32272676813621104 
Task38 0.026991866486448964 0.016073829753821964 0.16248061490691137 0.09268853333466014 0.4197432859054671 0.7730000734768686 0.8041988266337163 
Task39 0.08703139200167241 0.19229568207918318 0.23259920209696802 0.199362749971926 0.7153805347844124 0.4793256490140352 0.3979347368876929 
Task40 0.04216195686661555 0.15628528543328982 0.3299115968127034 0.0744730157613801 0.466659430050947 0.7517694842958429 0.8707708271534973 
Task41 0.00040510328627801976 0.0008808537753247465 0.0004160486630383459 0.0032832583114068194 0.35375548712603494 0.933339636936984 0.3123548071117032 
Task42 0.1037513035466906 0.08864529892143166 0.2155074817564843 0.30825829597030086 0.6230668419210933 0.48839443491401957 0.8812390226131206 
Task43 0.03501963935511497 0.15721559125909898 0.20174635253368037 0.08435187569091525 0.46423282140350447 0.8382076126852509 0.3655380322780256 
Task44 0.04247452793132113 0.14172952946199197 0.1452591314649433 0.14368980302234238 0.9798192969824244 0.43863278111232606 0.3212771791387298 
Task45 0.08519936963703108 0.14515110894695948 0.24574442590232382 0.07311596093828591 0.3420398110393197 0.8564014481988709 0.713764649710763 
Task46 0.016665108076524993 0.039810595891450376 0.03148186600598396 0.006918249869668588 0.6639379380350151 0.42633838783445055 0.38947191781125345 
Task47 0.040949962043345334 0.06925044460620756 0.18027452612273354 0.27428066402034856 0.9444503814949745 0.6316111219784601 0.4679549967266446 
Task48 0.08357887736283603 0.35319761667216193 0.17832608386618973 0.2693189208667672 0.8959218193165934 0.3823460684464969 0.4799239225281938 
Task49 0.0020064478128886 0.006986537592522967 0.006201415533423445 0.005492552365561837 0.4827535087977999 0.9815993399607932 0.35669647596299814 
Task50 0.009497885740601677 0.0042411455201217425 0.08648212771333051 0.059352967303467834 0.5453377100345896 0.4107040877597722 0.8348467196657376 
Task51 0.0706216430432284 0.024459679382781076 0.34164927186036453 0.08966422600255389 0.7068770163063668 0.8503892811410085 0.6757132584891778 
Task52 0.016268766956991695 0.05980804807345831 0.010713109204107832 0.05897818712383855 0.7953699606260486 0.7966674679264638 0.5065962954431026 
Task53 0.04704654147349253 0.002650352149362579 0.018824692706905937 0.17249886161061798 0.6600027904813626 0.5587969700396176 0.5272358758911727 
Task54 0.1160811664381069 0.10630952165341462 0.18035150454392587 0.18825236200346546 0.5428146211411721 0.4859991427931093 0.7438849053444967 
Task55 0.01233539413256499 0.04371997721773602 0.07506311668827785 0.0689856202165799 0.8945112523815293 0.3054288847585151 0.8993602667120668 
Task56 0.04950079473201258 0.11148173053172603 0.07994644634055005 0.1697074931942086 0.9890091656986686 0.6168472697683449 0.5381229956451932 
Task57 0.00014863487529507912 0.0020749609606236954 0.002226811868191579 0.002301032319254787 0.9923179738701171 0.5071440986494506 0.47999799990821634 
Task58 0.0425166658918609 0.3323127568370103 0.2017105198789355 0.3968659659755608 0.3987805005118229 0.5526317708858044 0.7675005545849964 
Task59 0.04731631648897045 0.25240148290125913 0.3464617750885126 0.07468314360882364 0.4577604393189195 0.3068473328468221 0.5848087254721746 
Task60 0.0671376101218366 0.17794956304984774 0.1123757400996043 0.047460117883006546 0.6828146378649977 0.8006324761288892 0.8425166491383405 
Task61 0.029283375414269893 0.10229790802102641 0.04025061965741901 0.08046031280127401 0.5318477762624387 0.8680298895474072 0.8311259047162023 
Task62 0.06972665821299055 0.06392691061848531 0.0820812477908327 0.21082518782661025 0.9231742123058955 0.9159980046559628 0.5042270486183875 
Task63 0.004607704282962208 0.42409925003756427 0.364855711978449 0.07688355655915048 0.323881853353402 0.5318027205018148 0.48866526549077904 
Task64 0.07653788284307625 0.24800131802585737 0.21281672655529318 0.13609709473375806 0.689301523617958 0.8573562982266014 0.5010055304403391 
Task65 0.05164721456535932 0.010223688433147436 0.10479213498842305 0.11571772433988584 0.7686267515867874 0.6366454251777147 0.41960042790945495 
Task66 0.05246140698109105 0.09766905038130638 0.15919539125306317 0.07387515883106002 0.3406302659075148 0.39095529869501255 0.3609367808722884 
Task67 0.0257418194077278 0.04702428579338977 0.09027991059905857 0.03053892905797955 0.7569037840150327 0.9861691312670513 0.6727324976802969 
Task68 0.06121982435976178 0.28289440571878244 0.2264174725754654 0.24790412556013883 0.9987157359277552 0.47912875853444065 0.4981930192006407 
Task69 0.022263574391374025 0.11084240179193246 0.06101156076638476 0.0353124106926016 0.3832484350129174 0.5969337664136705 0.38505473848131866 
Task70 0.012638403377873643 0.12353303297150138 0.1260005711367683 0.10433382039608731 0.4428654662098186 0.5321005326889872 0.40356509432787163 
Task71 0.022759867578344854 0.18494764400123903 0.32226504465788747 0.29003986377753377 0.4045343940675739 0.9435915830270685 0.5885528036250499 
Task72 0.025807497009971113 0.05094420889438357 0.059616391966958664 0.0329078483077931 0.3363849552868874 0.335337736352368 0.5734480517506051 
Task73 0.08993036055142786 0.31601127286227654 0.10147203415861347 0.21528611295177374 0.8533127994784007 0.5042423873255835 0.325459014434172 
Task74 0.12105827862764884 0.08468999428341911 0.11041284090133988 0.47609536549357556 0.6925421897190693 0.4648374670244769 0.9415865615968764 
Task75 0.02910194921858557 0.03645682121146418 0.013928452641154769 0.07617109806365303 0.4874148906699232 0.5713459326635879 0.37148798844075653 
Task76 0.11556520377340888 0.2797168389330199 0.26947709842551615 0.10809976783512065 0.6647293465148252 0.5241489814339144 0.7379474915364126 
Task77 0.0375695817011743 0.005355863622053684 0.09195763489934289 0.07604278949489288 0.8465857041446245 0.38341539459681667 0.8855452303630724 
Task78 0.06393212778397407 0.11800959977111902 0.04975500936945339 0.09962841739695619 0.46207682315827436 0.3921477367322683 0.37881332453557054 
Task79 0.025248303690461254 0.001841271060217631 0.08058196341837778 0.026780608722162424 0.382308271437404 0.8488230553191918 0.5076907432977955 
Task80 0.0029120641848277185 0.06749337819067838 0.0643440632179297 0.07324871692182244 0.5513128254357018 0.8769877004556019 0.41361860033324505 
Task81 0.027037363083396722 0.12945243563769895 0.020106717058436325 0.05430076758723366 0.8881979592679785 0.5706049739749822 0.8467931081486402 
Task82 0.09270371092348748 0.022064329927055943 0.4231229785806853 0.1584146969992607 0.40038944296158535 0.7326709029676248 0.6967784232605565 
Task83 0.025122870083030314 0.22611236738300508 0.06965528258062113 0.20334032532937088 0.7170452527622164 0.5818012156132836 0.7383995970602901 
Task84 0.039417800132542424 0.051237577581125 0.17405598346182755 0.15303846204917484 0.6330737682996636 0.6098356213667901 0.7904747988157247 
Task85 0.03441055816215277 0.07366128120024697 0.2650760975455899 0.1451695869432052 0.5333560458330759 0.5184823174198339 0.6002944625804062 
Task86 0.08526726106494627 0.44547678619691156 0.11890529526850703 0.3196149873632903 0.5784932272538146 0.9404699592581471 0.6495348432506116 
Task87 0.09142872239300422 0.2384556424851119 0.0960567620161235 0.2893109189574241 0.4478175198841615 0.46380321564780597 0.338039158581815 
Task88 0.002324653722153996 0.02003492870364969 0.09027844898787347 0.045313405845350894 0.5031379515157226 0.5127934116671794 0.9080601904130352 
Task89 0.07427007901825561 0.11723985686696213 0.06457499811064357 0.13913590074177914 0.9870801829548499 0.7300917189963698 0.840902214691289 
Task90 0.03994648474230394 0.20737424681176264 0.07508969796775299 0.2104012203391386 0.3318768830904128 0.5391752160235779 0.36025862732264247 
Task91 0.03166540328810421 0.10502045912977805 0.18496149906930254 0.09444630658989508 0.8777485022646212 0.5354675825997934 0.7223435174462391 
Task92 0.04052000862579543 0.2991727412186052 0.26444752043284986 0.0783768704011087 0.3646558070956901 0.8286954505009649 0.8899512807864116 
Task93 0.13596827168517828 0.18699694055217178 0.09133099372559644 0.35166207667083554 0.37064275067885766 0.6009959676437706 0.8688238159817543 
Task94 0.00020004005129213668 0.014915229141422006 0.001633612132017807 0.021491640495579282 0.8340286832471488 0.8321279499306271 0.5675044100282396 
Task95 0.12447493129066008 0.3760127489639866 0.43942408024373947 0.027526646283741376 0.9015926948010216 0.5408084490665501 0.41557374484510223 
Task96 0.15342155323945086 0.15268265643114298 0.241681629849217 0.30695195180041457 0.3800762220346393 0.487767261059585 0.8940908875737001 
Task97 0.15373018434442395 0.18227653082267845 0.2901488166736682 0.25298190727288744 0.3759353500429637 0.8708334770569994 0.40206063931964475 
Task98 0.07925983713125954 0.2957489512034852 0.48524613951774326 0.04064898123872621 0.9541263585512263 0.5779234013101185 0.34345261452939674 
Task99 0.0677786634987463 0.02309270413992566 0.47556581878158455 0.09279909700918362 0.6274128491922212 0.315683142084102 0.5710297760484027 
