Task0 0.01837780109394798 0.0016885567534202495 0.23013426375108598 0.2816664540420479 0.566751102867924 0.4019593322066385 0.8512498858443036 
Task1 0.03882859565098512 0.07046472657774706 0.04844742812342505 0.0644636116347584 0.30304177337589633 0.4321310147711664 0.8326676462669067 
Task2 0.011628986354792497 0.08280530483841292 0.06494008444806104 0.3232348962948912 0.37763915555944333 0.9584669645209785 0.9040169460138607 
Task3 0.017347795477743462 0.01900160881223664 0.052375848387857325 0.029267215543741516 0.6859293468363453 0.6463070402509205 0.9050497343922002 
Task4 0.011495543281456045 0.05805519530286886 0.11591747364213212 0.20577537394573586 0.5136533652995747 0.34976336261367863 0.8572569300616584 
Task5 0.044672259475603215 0.14432926760011028 0.1182393878873093 0.002971572257191526 0.6176842341889996 0.3333928813679047 0.7150828410961708 
Task6 0.06327060253970095 0.4246095611267868 0.26216914753368725 0.1891456639738618 0.7488837716829788 0.703983841407303 0.48674348074549956 
Task7 0.053198325932288466 0.267479083157702 0.4420149013183735 0.19221026430392218 0.3148860247880617 0.6571100534846296 0.8303958025827014 
Task8 0.09403689475702294 0.04754988889376262 0.6033338855166543 0.2332072259654463 0.8376846280536212 0.4449662893821505 0.4401660982679767 
Task9 0.039101452115597624 0.504313332118852 0.14599281011656373 0.0662221757584271 0.843672270679271 0.9102332580224188 0.9975552320114991 
Task10 0.0025367496166480183 0.007136545353032632 0.0031877477581246294 0.003648207769834348 0.8494382067011919 0.675935684212063 0.8546959855341068 
Task11 0.0005849216286554735 0.007170723210850306 0.009520950176335061 0.025912522423564725 0.34313807677483316 0.8720410229859854 0.5632460338667 
Task12 0.13079098650151852 0.07978656151779896 0.5966725611141003 0.12460684461410731 0.5754142166562055 0.7926932250609496 0.3543139971800529 
Task13 0.19486687343207953 0.16252640958027922 0.4945430824066408 0.1247467818407855 0.590894480663892 0.7230659490489428 0.7936126439420452 
Task14 0.1272721143377143 0.33351615378768745 0.2724581727694548 0.044682438643836885 0.5249117923347789 0.6667063551276702 0.7514595671761037 
Task15 0.002926877194596582 0.1256393470859757 0.47848233500332155 0.1643771184755161 0.86825139517638 0.6794786912802995 0.7556247530214355 
Task16 0.015311277403764856 0.07741579321048558 0.04476474675328219 0.09609396883739223 0.3181723879422385 0.490638505442479 0.6399268113155261 
Task17 0.02216027635147587 0.00881135457496241 0.06746821366483212 0.03326873449282276 0.8330055611860878 0.7977160850545493 0.4044034767215017 
Task18 0.053749454288106416 0.2617844420603857 0.30325993233012305 0.3362969187037364 0.6061966480747367 0.5517172449242793 0.861392572099698 
Task19 0.06907001864707003 0.2603382300669895 0.07290971215119113 0.19677730411444938 0.8528313817856334 0.9225521393820522 0.8169658404816527 
Task20 0.015006888288785427 0.22919776076223602 0.15833763890206987 0.16734081991532054 0.5011936639507932 0.6996579892471883 0.48161740344044357 
Task21 0.03424862011013605 0.15908398704443638 0.19296717951970468 0.2963811986113356 0.5173953177696431 0.30243441148557415 0.32588926622980546 
Task22 0.030063682993800724 0.05876015600490768 0.21502962899342754 0.05778646549949907 0.815443171599018 0.9741899319649325 0.9543005185746143 
Task23 0.04516025122418686 0.00852652345860397 0.4554601369616155 0.1957417756924511 0.40368253939012905 0.8847167182413369 0.9225923172805139 
Task24 0.06583917937474477 0.19012278750776496 0.4847266366104805 0.2125047689025324 0.6086662010754222 0.49213378902336935 0.33227856721119375 
Task25 0.09411820957644602 0.12696345106520912 0.11740689981340276 0.13776661048441202 0.4603466816700921 0.8276378943477372 0.95258443918646 
Task26 0.006869580833297044 0.048749781487162 0.02602164399396736 0.29556264188164444 0.8375417394417295 0.6527519464720296 0.3528829193142169 
Task27 0.02256813411788638 0.017213581548025648 0.14776981743866496 0.005425851169948523 0.35839392437173445 0.4806474214096911 0.7818857560013603 
Task28 0.04430613904394703 0.4584730393015648 0.11247602716274578 0.19977639567102734 0.6370840944173588 0.722465854541448 0.9172577689164116 
Task29 0.015774232052596725 0.01992548285897725 0.057703377269773995 0.05193792796514932 0.9042034851403304 0.43052740424782115 0.6395492624539187 
Task30 0.025250204715213508 0.13787544860713097 0.25910797671410096 0.2671499851500685 0.4948863460074615 0.5907338923402774 0.7965359802492815 
Task31 0.034618543859956045 0.07733041671390135 0.04942854707657436 0.05939242837913831 0.34366200390764523 0.8731109126501615 0.8971998526752316 
Task32 0.06657118730711678 0.017170339375607885 0.16467466061210992 0.10862039978559455 0.7522507608605384 0.5892213496172505 0.3361222057418536 
Task33 0.019840821316918677 0.060465948101607575 0.042798303048960755 0.08446491247333776 0.5521730321047102 0.6616647647675743 0.859932187575045 
Task34 0.09469229779399242 0.22303009955511835 0.1044334710725344 0.2655179270837163 0.6974065948832805 0.48873112364858134 0.5016851749674254 
Task35 1.650694755208483e-05 0.0002126350751680238 0.00024364034573838044 0.0001715673798604618 0.3293762485886086 0.3492955690992664 0.5915006382403354 
Task36 0.07473868251603716 0.26832864894970526 0.08441018048988698 0.11472594534212921 0.4404908803486371 0.37903784020577547 0.3762017380889523 
Task37 0.009977654313514085 0.04909693622592181 0.106720746882443 0.048994444367540566 0.6836342539541214 0.7570484818524812 0.9579309880380298 
Task38 0.0038895205017926227 0.00672221662974323 0.17643697198143637 0.1427871824789517 0.4038501959664689 0.4428790318626868 0.6342024963973858 
Task39 0.12937608776862786 0.32940241989078267 0.14970460274300237 0.10283696775020983 0.98304577866969 0.9871922102964932 0.5333028733266632 
Task40 0.03106949380437694 0.05338981858758851 0.2590497225178119 0.0587747457244587 0.34018290374712734 0.5753435232379123 0.6331211238953591 
Task41 0.001685113139629834 0.00548718264412882 0.0955606601668832 0.056968975106730005 0.8437749620942621 0.5052890612367076 0.5616027594777921 
Task42 0.0006794976169896819 0.12237770155677676 0.5074175655593713 0.25107383566670394 0.5546164308584279 0.9576822656405002 0.9510681179370675 
Task43 0.011986109583432252 0.029122444075763386 0.03815231148166433 0.0021111767567833827 0.8404237519268261 0.6738440290220027 0.7758272942066043 
Task44 0.051257035254945446 0.1328805464177921 0.10870909921017466 0.18128039513740038 0.9846859612581003 0.5418391303615542 0.9653533637515201 
Task45 0.028435155156626493 0.07312906045298276 0.046520041996171796 0.06061380593668183 0.413353129837631 0.5359110881361293 0.8557284154350844 
Task46 0.10783145088003775 0.18622353847931014 0.2271473863899204 0.01828563115296312 0.5129569754715462 0.5730080230214099 0.8692593799396766 
Task47 0.07765144485503944 0.07264294980596706 0.3594051690929328 0.1429903721444493 0.9150425932245347 0.8254362490167488 0.5819566142523123 
Task48 0.14722632211636832 0.08547901207077035 0.5537634269955459 0.1944535271067281 0.5154895553385014 0.35707538835176034 0.4808464717864861 
Task49 0.003107331304053883 0.03459787450291231 0.08510635012140597 0.06561589983159681 0.8881341167521415 0.5814238006181112 0.6196016566621164 
Task50 0.05557205081026862 0.10924836950464181 0.1120873601977338 0.2990483670679458 0.353514245982892 0.9171249010189979 0.5083298355998729 
Task51 0.04007074904411188 0.011845350590271886 0.061093035743232035 0.1569380568718726 0.30472655012930194 0.5171059485536551 0.7141074344587102 
Task52 0.11303989372096784 0.40846493672237505 0.14267543018144677 0.19517929564221562 0.948596716727689 0.9852532713488342 0.4166036043763229 
Task53 0.05157828827857232 0.4586050227800655 0.17221585323119934 0.2149616793306841 0.9000527389135562 0.36111010674937194 0.7249415052953716 
Task54 0.05901509586535649 0.04356721787291905 0.2049695912894831 0.1424677728265059 0.7829812956818591 0.750137259647667 0.31303741062951823 
Task55 0.0052889952777975995 0.2650291042559856 0.2876223508968035 0.3161378246257466 0.5386664644695465 0.8553572741450672 0.8471315413966458 
Task56 0.13356818984820393 0.029548840127348434 0.502029160406067 0.2834556883233838 0.6786201677286687 0.7106028628700336 0.572094371345953 
Task57 0.10290881117122405 0.14432841109329003 0.14541938016733705 0.18688945537908477 0.392970976345044 0.9257264017916487 0.958898260543092 
Task58 0.09236955864454853 0.12218157253411965 0.555275163684753 0.0026829478187256187 0.3852124733610034 0.5454924757116129 0.6268917854401106 
Task59 0.08116815033590499 0.17823648794183683 0.3057313078214534 0.22457788206489326 0.9812848118402526 0.9697254833576547 0.7856851076274713 
Task60 0.07577701653894872 0.2027919435373615 0.15931197543050707 0.01646188654008297 0.9429648564109987 0.3321213213120141 0.841520724658334 
Task61 0.014188365035588889 0.028611670277268145 0.022858650964043676 0.08332617629563503 0.7947169953591233 0.6961777954816701 0.851533259470181 
Task62 0.13462338561089432 0.3721534412132376 0.023574534712003308 0.17885601466078838 0.6713072276417239 0.9852149318364705 0.8449950735609537 
Task63 0.05113007141033265 0.31016406427830107 0.3183559263876377 0.2172201136662513 0.9449982520138842 0.30038988121452326 0.5800076720073157 
Task64 0.14636751544080154 0.33589214945296375 0.12264319877626968 0.33928859273090506 0.8010063625072616 0.8351211337987141 0.4317947305301976 
Task65 0.03106975300127854 0.082782083722468 0.0655530700435977 0.02612327847746962 0.4252896849833643 0.9275977123436923 0.9065100633643663 
Task66 0.0018933211180183587 0.0038958786449544524 0.009091177467301715 0.0102506764740195 0.36194060480608836 0.9119821835855668 0.4861901808189084 
Task67 0.14557697107036496 0.42509461405298304 0.2548678563319165 0.04071777916290341 0.6803269548106845 0.6455065985995561 0.687384516903101 
Task68 0.014533227122658978 0.30944279897719457 0.3117064521332683 0.1155831216526655 0.45262877828922576 0.5895307099052731 0.4197517211396715 
Task69 0.1118884980738904 0.12482599793784308 0.05246063969168461 0.29552332920442886 0.545519073407619 0.7486409805062887 0.37193204997760576 
Task70 0.024341050698641387 0.2796023887236144 0.3155079158553793 0.09981391958310563 0.8399545231572172 0.41358846369760355 0.7074045382394849 
Task71 0.09160803703555784 0.15779334369962789 0.21837699244968714 0.051900597967398994 0.46779421677094 0.47188577129397324 0.8903467481213936 
Task72 0.03145302983284391 0.1725834684829821 0.13518038764385434 0.050258070952368596 0.7261914300972626 0.6345583130486656 0.8849907529939569 
Task73 0.00499904454205346 0.022651270344345758 0.012145246349263816 0.01852925012962075 0.399437556873571 0.39107982655506296 0.8140219970427229 
Task74 0.07715769498307401 0.28325370518022597 0.13936388573586925 0.2314431832814411 0.5088298747147089 0.6127275744608514 0.5275264452976853 
Task75 0.05644173035424791 0.08510117929609687 0.05281348219151895 0.43252314747585513 0.36131321006570016 0.44730986510131776 0.37748379276779526 
Task76 0.11594173508848045 0.29302503408620295 0.08353981311965451 0.171349524343505 0.9254323016750134 0.31824066148066044 0.9710801582367792 
Task77 0.06508997808186343 0.15074160981133736 0.16176173941212452 0.05018656670563754 0.788255733918616 0.6271366768100692 0.515851587718099 
Task78 0.0027816369439040544 0.01032340972678004 0.018027655973878873 0.015280601093019493 0.5981461345276418 0.8238470365304642 0.545017577969032 
Task79 0.022115976762604992 0.16634482058686156 0.23578442770926386 0.11347596927064667 0.5431752333842884 0.4012703132199235 0.8550162060264181 
Task80 0.06745155932055694 0.13480846046910336 0.2541246479215078 0.20291803274010287 0.5707470732970773 0.9513138919216366 0.7360347945663244 
Task81 0.0007916231759401242 0.007883595770020896 0.03367796215482076 0.04120279208819099 0.9124587857405946 0.31515411042714553 0.6488914557220526 
Task82 0.09296313867387378 0.13882025571631823 0.2971841260425039 0.23578892175537988 0.35273982745660576 0.9738708896323449 0.8986708907175611 
Task83 0.002519553814485356 0.6279264794449706 0.31663246428130587 0.02749426364987621 0.8370582157958271 0.44370995413444037 0.8323247232671478 
Task84 0.038708889657257585 0.35078426898362225 0.11194685268114798 0.13731267559381502 0.6038139755950018 0.5070164640044026 0.552486593970042 
Task85 0.0798666629518712 0.1593220347404237 0.12282810342656751 0.08919231046563635 0.727587336702153 0.31082393826658605 0.4989053218288943 
Task86 0.14935606997093068 0.39932418224518657 0.0012066406441341155 0.35901540817925504 0.5422196859017038 0.6394084348735645 0.3032443381245996 
Task87 0.10873764045576223 0.19837506457137918 0.10641719334646468 0.1387097046225205 0.707737432689867 0.802602123231595 0.48024435288670186 
Task88 0.009164147880535274 0.01167394331236871 0.06317624031057892 0.024375384410022887 0.6928789957995778 0.8057160035451107 0.7139870465792455 
Task89 0.04535161944239376 0.07720117281119185 0.058333437442970974 0.07104857789710367 0.3118418511019428 0.4096986658898873 0.8224799375912306 
Task90 0.10799033001094906 0.24597876417026013 0.2807069782328054 0.11345979765044584 0.6589441009369867 0.6401138671867117 0.43841160091359144 
Task91 0.0019553550309926605 0.12712264282061056 0.16203001455891475 0.20947709852396118 0.9114840550773993 0.3720348350015467 0.36530946607896503 
Task92 0.0007326698148156554 0.003700981610269139 0.0013117860101644044 0.0034554379335084893 0.9494157718268761 0.4280494129841828 0.9860886605062711 
Task93 0.003948534234388918 0.0856729453261149 0.04711838880482031 0.8188721471836367 0.3734847512390508 0.7563085256011961 0.6325157684985308 
Task94 0.013131353714943225 0.07261931282999504 0.026014680733011514 0.02429115481556916 0.9581793988410814 0.9541534665291345 0.8603869750898203 
Task95 0.052247507376499955 0.13645355413492904 0.23210924309024517 0.21756586752318594 0.3866068584990046 0.5155162006826122 0.9406499355905173 
Task96 0.00014192616230319284 0.05774904879503275 0.019832468021625273 0.09041175722381949 0.8121257481204849 0.6738633121705323 0.5878293635090845 
Task97 0.02981406732229906 0.3166739824826491 0.24020567893521322 0.3966586450333467 0.8716364934435019 0.3640170122991625 0.3542243596452736 
Task98 0.03360418110794776 0.0638280552860651 0.0440184490061439 0.05364877485446324 0.7056718403684561 0.6339587327793699 0.6148814759139631 
Task99 0.09633501432459671 0.18904804225297717 0.20955265680788004 0.2409376647708771 0.3539242255094804 0.6571260945134634 0.5311327463432269 
