Task0 0.06442517287901633 0.21117796384862755 0.10631489405650349 0.1256636612845024 0.3064041419432064 0.5548793738833505 0.5958990435715396 
Task1 0.020077227925599784 0.10308979535155338 0.0938294301102467 0.3156112807764098 0.7714183652650208 0.4525709002724829 0.9597170991774064 
Task2 0.0237600860518439 0.042569712092955854 0.03518453770732904 0.09697935559977974 0.7747024400726323 0.8682021481158881 0.45879770019822563 
Task3 0.1253036245114414 0.35947799709010153 0.07472990809612522 0.13256768173224473 0.8638116821651785 0.7217391236623669 0.9545085188248443 
Task4 0.04366258731854121 0.09469583625833493 0.0668458142707994 0.0173617041196202 0.5505049928262868 0.9719991964432257 0.49480895255705226 
Task5 0.022919015570373857 0.2082737279186778 0.009218648137203371 0.16387456080529225 0.5707741532133515 0.351908187612997 0.9042970823301972 
Task6 0.011843154240543557 0.17318627208749404 0.14321236523429484 0.17882484460729028 0.47767140126626156 0.9110941882915409 0.9351460334611461 
Task7 0.0796185874240215 0.5701499702260007 0.15672694026229167 0.15002306255525644 0.7124413003534458 0.8285123918156465 0.3595463572168922 
Task8 0.1553640307835576 0.2297477629490616 0.39148278210382875 0.027245559957425978 0.45236822203196375 0.8697678251893952 0.5665034493990878 
Task9 0.04724341613892234 0.02466184357017899 0.285561046855114 0.02981698634275967 0.8446035024711003 0.982998310282116 0.5552012965500593 
Task10 0.029410344937012892 0.1295996044591874 0.03693075376037514 0.010215403727536026 0.6394701228086125 0.7643778771589271 0.40662078101753135 
Task11 0.004588481700499769 0.024534988043485865 0.0670636293282287 0.01192307346311062 0.5672617787541612 0.863692711969889 0.4228098099436567 
Task12 0.028758034887952776 0.14736571669756232 0.11419347859756875 0.19479382323538272 0.7314897127966236 0.7066141338305664 0.3127827327975049 
Task13 0.011867479469705148 0.10540479328610866 0.12640198551029302 0.008876461559854703 0.389130988950431 0.919818276971123 0.42759455369385335 
Task14 0.10653458651526099 0.0029291422341138455 0.041673753686357375 0.4589088262118795 0.7007127396233885 0.8284348387973959 0.9363148715934826 
Task15 0.06340061241929483 0.3801816342225294 0.03719422726923547 0.45462008499151574 0.6297715766422605 0.8843427526656928 0.5582618153234697 
Task16 0.0003725204886868075 0.1283569310363155 0.03992034435823332 0.03591236799256763 0.392778963386866 0.9147199170570424 0.33979612802917536 
Task17 0.1813034598441748 0.22552238613781414 0.524502555818375 0.02876187572748224 0.8680780119663416 0.9176173365511817 0.696617083192659 
Task18 0.13773936427801847 0.08283998880670156 0.1092475312946325 0.4696452963912963 0.8645690222278879 0.4822273490188259 0.5990157601791355 
Task19 0.029392737661478045 0.08655480665625225 0.1334640687246908 0.010311069471996585 0.6989596697238847 0.38561006293255196 0.4014483683507567 
Task20 0.032448359376571326 0.03773222209526294 0.12989857013004183 0.3082096773595054 0.6487418721862754 0.8602375652929524 0.44946247223652813 
Task21 0.01901796156826811 0.18020205375794493 0.10206346673992257 0.09274022284628479 0.4976421567889977 0.7967912266257489 0.9501206598577145 
Task22 0.01606351621776252 0.04934818989898332 0.050849061865076865 0.04691415944277291 0.5009565943304323 0.9588184906356083 0.33632713512270324 
Task23 0.052820173457987576 0.08273906848507567 0.22688473231898498 0.21312655398549446 0.9904439039447599 0.6963619332500778 0.6375993266480464 
Task24 0.02938178287399084 0.055088416699072336 0.06228647218876191 0.03529965586563574 0.6503434553914524 0.4923638467983215 0.799130564948254 
Task25 0.03444433452840289 0.3700456969698199 0.014309678443292905 0.42402022049239146 0.41551274680080263 0.4709504294794128 0.5841328815420919 
Task26 0.10298553951211295 0.348266520070147 0.20635255709378864 0.09738805630026987 0.9962925018299389 0.43161091259307593 0.8983800309049303 
Task27 0.05574847197625474 0.18829700043647285 0.060678769731046425 0.013232125932820438 0.40862203498668453 0.5095930458419419 0.48437181175295746 
Task28 0.0219891431023554 0.04354377828594689 0.028668390921550033 0.03319896342769211 0.48580583332559857 0.5083491865181999 0.7357854668387088 
Task29 0.0033568137744317233 0.26355458369634854 0.1459406042658567 0.1414645830142559 0.4398052905049394 0.7698938851323551 0.8942100913251463 
Task30 0.055796236586305205 0.0687941324834925 0.11584717980618063 0.1244660783059658 0.599829837991742 0.8553277155445156 0.9492697428622188 
Task31 0.024111314680222408 0.28085990074537426 0.20899381019420468 0.3449704423037797 0.4932260685006349 0.9732910886393036 0.4873942762756662 
Task32 0.006698684897665759 0.25499677399277476 0.19725032831538372 0.16225606416031912 0.7688260807651848 0.7119745577444057 0.9721850820194222 
Task33 0.09875242542311329 0.07623835925959994 0.30701927561373243 0.18662205945894683 0.7655473425433517 0.9663823299293532 0.8092282530756996 
Task34 0.06388552757173624 0.1863631121778295 0.6597340202440248 0.016729210751765186 0.9778519656290323 0.32279735935496245 0.7072462986482955 
Task35 0.09912025141958478 0.09125533548191792 0.16547650242418582 0.22336591796524088 0.9412614407201036 0.3845946023481153 0.9580207568814825 
Task36 0.04675873536591857 0.42128478052211044 0.05031698340294513 0.1745785521700207 0.6584648219101775 0.8904885403916878 0.4909969886822224 
Task37 0.03973543336258892 0.15285417610937058 0.030781190870576597 0.24779616278151084 0.5251459046833755 0.9259958719012027 0.7167243053412196 
Task38 0.09119063111039866 0.09220897792113614 0.1457406541839591 0.1723154612380334 0.8071276196983375 0.7891050305469246 0.5615772702290927 
Task39 0.04521412758056514 0.2574621242000878 0.08241728506402528 0.47614679702135615 0.5958136251284506 0.6109009817842627 0.9448716653887863 
Task40 0.05083578403856419 0.3227907230701522 0.15571716676962583 0.21312524336114233 0.9915386155930146 0.5557794994124716 0.3859300086600453 
Task41 0.051149928173077334 0.05251437208829322 0.06745487683787851 0.14358435118880364 0.822000587633853 0.8193043986038606 0.8888652350206658 
Task42 0.01892476316259027 0.11813040133694602 0.044481823869717683 0.013317404569450571 0.6102278039126323 0.7113369704256047 0.6903596529205297 
Task43 0.033353484017567984 0.011646470705848806 0.20349967727230575 0.23442915768341982 0.9486829250289335 0.7857154378463329 0.336167549973007 
Task44 0.05685080490904543 0.3163470714633008 0.2838771710523543 0.2934054720984918 0.47507911111885714 0.4820003034705515 0.638149818724489 
Task45 0.026488903415168692 0.37888096463836884 0.23523214330464154 0.09794544075293023 0.9684100047061719 0.5937002598126657 0.6285113870951773 
Task46 0.19763334440027117 0.13623140614939924 0.45702401363198164 0.205781538082536 0.5802575905012712 0.636758636156822 0.9764513289711119 
Task47 0.07963540533238105 0.04935188883756609 0.12184768880418276 0.2849027362479705 0.8495033394173248 0.9487128803343838 0.7127549679124471 
Task48 0.08021557277605681 0.2288526210699565 0.10635312032595967 0.22783772188427892 0.6690804689814155 0.6250920644464624 0.7076085023425123 
Task49 0.052930274337770186 0.1777615559998424 0.17628924674960006 0.055522677710379435 0.5025050979145183 0.7971815957644987 0.6190348965996684 
Task50 0.057538859259822536 0.017098536400890874 0.26391327029378375 0.26192217708584614 0.47216945082163825 0.911639207176794 0.619973816374163 
Task51 0.026789802319708896 0.06289874326152624 0.050762260961881536 0.005287826220472983 0.6232648886090268 0.7042221081207592 0.7969584294895355 
Task52 0.03908431305239211 0.121180614184571 0.06741100813692882 0.11307682050959811 0.7632960361133783 0.3032261566383962 0.3663023987002893 
Task53 0.05703144886923903 0.027849201845555272 0.1546116411790912 0.21569180059943083 0.7729199102547508 0.9719586633960318 0.6644322500577449 
Task54 0.0036521858401374744 0.009083754298964216 0.07548912745135815 0.04766524551072408 0.9863618780868144 0.49374369275526414 0.8934811042937336 
Task55 0.016772234592863002 0.024853825446383426 0.042408523895661736 0.10311279404099559 0.645548019228642 0.7758839748334299 0.3683925094220223 
Task56 0.047261755911492426 0.25603713496135727 0.13490947045956075 0.16664554599531028 0.6130775790429097 0.6970136178900811 0.5746461815217152 
Task57 0.007045559201535066 0.036028826780556245 0.034879954419679775 0.013280620813321596 0.8076877451239324 0.7417156790233183 0.307956135384317 
Task58 0.00027199702841239207 0.2507523849953459 0.07136076326485029 0.033388480369478085 0.7668991531941132 0.8856143826849352 0.6619513680801243 
Task59 0.04668174980770075 0.17832792645378792 0.21719222960302811 0.13508487233351682 0.8697188364791073 0.9982248617805829 0.4271028874203015 
Task60 0.02480060923300544 0.5408270877829743 0.06114370961285047 0.29130744505184153 0.7801607395019896 0.598287655980393 0.5298120376490592 
Task61 0.04078204423385213 0.21325765125628882 0.5945525486773018 0.06348527050033038 0.734757454365153 0.5145628337182506 0.699779625352513 
Task62 0.0010126415668861982 0.004335882958404594 0.0009321853647771442 0.0033649451013351944 0.5952942543040474 0.4205656731329984 0.6049635610930486 
Task63 0.02051321576191538 0.08271761987153481 0.1294050750478893 0.0895548866813793 0.528887269722658 0.5522897538445105 0.634935424283118 
Task64 0.11644157394777704 0.329083139406547 0.25807860417555406 0.17507933740159357 0.5322325770413563 0.5558725946022798 0.612542585466751 
Task65 0.01225414225088367 0.06446640595384123 0.4884550724253375 0.11840032104305356 0.9152304845896875 0.8276247127925445 0.5046299316119933 
Task66 0.0459248457755306 0.0961967883529454 0.0654489722297522 0.02498738175910942 0.6165966475190375 0.374702079890888 0.7190497286159931 
Task67 0.03835205465430224 0.1312547925981637 0.23318211512199793 0.3659830818720645 0.6650715539703804 0.3095011934288058 0.9115787784514573 
Task68 0.00733191296499856 0.5159189159503561 0.0061567803888578024 0.43172044444909285 0.5874647258336054 0.47870975994723103 0.8496013527158588 
Task69 0.06551820295762771 0.10409099649551434 0.2678717528617865 0.02224169426222235 0.9083647973491749 0.6231472727565144 0.9410758011050231 
Task70 0.0034402035884179703 0.295231187082351 0.16534303289473684 0.12620811791516628 0.5208538294270366 0.9991338441811326 0.7792768995541919 
Task71 0.08233994299031673 0.2086055812207097 0.03955784309986477 0.1429083057086085 0.7120116364434812 0.5691389412371237 0.6696042108947298 
Task72 0.005847879672849872 0.553775047556758 0.07943113803287 0.3398240293990986 0.4428060831743287 0.4071961310697092 0.37150132972851346 
Task73 0.0944186269923245 0.05616433442486493 0.21150187534100198 0.13336165522807394 0.6887164845674646 0.9992776579221134 0.34152632639995945 
Task74 0.06707509951944218 0.26576094591554894 0.1466140856604827 0.11730229931073428 0.4162040551924839 0.6355730821594473 0.7573809498864528 
Task75 0.022403189477119532 0.04809015233395546 0.37321878890461657 0.12053628328612064 0.8805364079133773 0.8296656312081074 0.9348062489732931 
Task76 0.051948031324442236 0.2503568689897943 0.18973319394377636 0.1309012231751119 0.4441589027218173 0.8321910691610859 0.6144648540088358 
Task77 0.022692973140543114 0.169879089557051 0.05286898237548406 0.17294656752609253 0.5447980418724543 0.8064448394166466 0.7302440236229928 
Task78 0.00712758678071528 0.033019796140271784 0.009657328927037377 0.009144671422439061 0.8758496287925106 0.43200181258831305 0.4574004456072781 
Task79 0.05215738758681629 0.23318545700095938 0.45469545405199063 0.043406636413441176 0.7696113983175283 0.9845669493858826 0.9580847390368863 
Task80 0.05772601877855441 0.04171762289257526 0.07762963652626684 0.2119334056857607 0.48400267795676366 0.5671514080544212 0.331684219616705 
Task81 0.05251447218599267 0.10605125579893004 0.10708775876299498 0.01191799770829492 0.6778682635046649 0.6308508231137466 0.46686463221691654 
Task82 0.15175077363548767 0.21445826905995927 0.39004656046621355 0.20940314376227911 0.811766591686157 0.7009795963621526 0.5409797633614328 
Task83 0.006723805496808519 0.017253678559852506 0.01074021245666558 0.0039271054838887105 0.7617193283745965 0.6758086817430402 0.4948214568045044 
Task84 0.01846253695074796 0.2158619846328232 0.3560719706534063 0.12450080945506209 0.3813723441080929 0.6262785807854394 0.7812171185158681 
Task85 0.03363383328061067 0.4089509588393894 0.1633906350441248 0.12416408063364313 0.8396759347818998 0.9704508175430433 0.5179943738791286 
Task86 0.017580513081062465 0.028065475422870835 0.036990943261737186 0.021720731140896624 0.38757071032897494 0.8486005042652729 0.9950016637979615 
Task87 0.02081427873287572 0.056130957807244565 0.11669699531949829 0.015802584536356766 0.7786813557380547 0.35541301628890676 0.5735195734076357 
Task88 0.10510371622852598 0.17400996553484185 0.2582095969197447 0.1655591891516879 0.4224628827314951 0.526573557366911 0.4640667159692014 
Task89 0.061868792508697736 0.11942128051834079 0.34415319471683736 0.2925054331796356 0.7133449510850336 0.5689354409443661 0.6994671978547029 
Task90 0.062023501813161415 0.32694855240782555 0.2820973441639412 0.24202751806873815 0.38701682553748634 0.3731009395890399 0.7312900978657759 
Task91 0.017709294432900147 0.05945900279454997 0.32099489586703633 0.4721655234160742 0.3286445649944365 0.9099315317747698 0.35552375966149163 
Task92 0.05422118356546176 0.04342419156314928 0.09506632274723109 0.3062236643712 0.609295067478721 0.9987099442124165 0.9513216476196016 
Task93 0.09978182433173624 0.1428882256845843 0.17189363829991264 0.16450433617921556 0.9181853949004573 0.3862891548147406 0.8637015462294046 
Task94 0.11377506131369841 0.3428700915409561 0.20898478551718788 0.15267508897349547 0.916542209251918 0.5743207977819669 0.5139328912217412 
Task95 0.03918710934998679 0.05129100434565091 0.037429940274534015 0.15128240408951052 0.34622192078361147 0.5706579511639783 0.902337754565455 
Task96 0.0012210231281552318 0.0006009356093926554 0.01444507609659845 0.0040781978790298936 0.3614656767582152 0.4842147193833628 0.7323400568789054 
Task97 0.015476631259947601 0.11680194633699606 0.05903797329453672 0.1246902261992122 0.7940149314969774 0.7117520439326377 0.8663019794437603 
Task98 0.008310761542464528 0.08237589551382175 0.03629751570082736 0.052072539085340326 0.36153378985551077 0.9925544049599662 0.32033434656790405 
Task99 0.06177606604900868 0.11587758320908749 0.056717084748248194 0.08344908804677598 0.8452681147460783 0.9937868850558871 0.6207457191220118 
