Task0 0.04766126771839599 0.07301776867397225 0.2591897781999082 0.05304080634698748 0.568465416552113 0.4086927072118882 0.45695192613916663 
Task1 0.06108698063296404 0.252609040232137 0.3392121774192463 0.21049714524127008 0.39575106037388164 0.6165820972010934 0.644599447390263 
Task2 0.012540388595691683 0.028387245062004317 0.06604635733873088 0.09554887124384828 0.6716268657916273 0.7556913553649713 0.8579146948194074 
Task3 0.04855983006607872 0.19949447589610525 0.17148323586650543 0.14969375687700548 0.8223249015918892 0.6146738389870643 0.3346435632707001 
Task4 0.0762338354980496 0.5180022036442645 0.10448231642917302 0.14334360400483417 0.8840831189235743 0.9798501226698901 0.9350462409153961 
Task5 0.0016785359374411623 0.0023463262835119276 0.004217808755722942 0.003353160440504537 0.8511644233071809 0.3255069153403505 0.7030326317726012 
Task6 0.11946074218174106 0.0999422533671728 0.3379429892161035 0.3040765897529367 0.8757128661618505 0.6873166176017432 0.5964920372589646 
Task7 0.017366143014489695 0.0757602707438636 0.01166165641796988 0.06330819892997919 0.47598402964456343 0.5451412953252299 0.4875860108483535 
Task8 0.12441464782960707 0.3480116231079583 0.22159578852153736 0.23148976133145133 0.5775119205997297 0.49698042219233546 0.43166445001754006 
Task9 0.007776532613949518 0.004737635638438524 0.018677118685722572 0.015913034530476614 0.4313128311090401 0.9863917940423617 0.5087539358855726 
Task10 0.06404713865890083 0.11744773369358018 0.261226626338934 0.05663396482014327 0.43437411636033463 0.33884336340810955 0.7586619758859683 
Task11 0.0030926330146909342 0.030802908431261457 0.054145686302773804 0.007332665806497533 0.30272748889983886 0.7518617881525509 0.5690773940627921 
Task12 0.00993525731875265 0.023017924520046414 0.023658933150278755 0.0030032075434044347 0.4051139689449501 0.5806630572867046 0.4360682954985467 
Task13 0.023807711060331367 0.17699609899692464 0.19491030154729186 0.3256340739913074 0.7385529451183511 0.9946634263445928 0.7641727842152404 
Task14 0.07221499313066851 0.012666948712785312 0.15850136676831866 0.14432211037273326 0.5834507369171162 0.3225900736425788 0.6236518183322806 
Task15 0.011125248114152452 0.02694953378555003 0.010229368381230767 0.014392352183043815 0.44685915708646856 0.69543642776344 0.9266351057474946 
Task16 0.06946715097665326 0.1003820992808922 0.1563395982869286 0.11671477607434014 0.3838126125422689 0.6773999395273103 0.5597339983928994 
Task17 0.012951094457313926 0.1314310908283085 0.03279227934998583 0.05075309020798135 0.917563673931884 0.35629988549756664 0.7198002683307168 
Task18 0.041958434710086284 0.13836671531726882 0.23793463550283675 0.22839216837810228 0.3054135959121019 0.6562113305616653 0.489952818340194 
Task19 0.0042558332222895215 0.30815594573088 0.2743055844154319 0.07587888604207739 0.7551637804138311 0.8527514245963401 0.8098415889484878 
Task20 0.029127098827255296 0.23907249343457213 0.268781134037269 0.09623567788578294 0.9757219369921513 0.8067197256905414 0.8938877364459523 
Task21 0.0022341586542268597 0.019206535399366575 0.04411017998505691 0.02173492272684907 0.6205889850002466 0.7352682202594811 0.4286696561210006 
Task22 0.0446517294252519 0.04361170542210296 0.1145021555643852 0.0517411286583701 0.5824281414988104 0.9966849947232534 0.9571850382589604 
Task23 0.050879196391394904 0.2814656835505177 0.30703625933626794 0.24521834664293637 0.419710028662906 0.6452740813317046 0.35386399663516716 
Task24 0.13779023003342922 0.3427785216533698 0.00969713381059896 0.24056100859766633 0.7237007723704157 0.6497945022500928 0.6654482588766999 
Task25 0.10931055231324915 0.18023043157604793 0.12262010507475629 0.42462602179535464 0.5787528421059711 0.8701940366286767 0.4198295366059527 
Task26 0.07211922266953347 0.2284749689681649 0.07781326480108239 0.11354823831918658 0.6305387286213796 0.9234726919337157 0.687498541607481 
Task27 0.10380060015276693 0.28535947728143374 0.2977458556940554 0.30387727272725396 0.9928414479903489 0.6598011038042577 0.930340209631453 
Task28 0.0429650171260586 0.27739980203124726 0.30516720917643264 0.1418109375180103 0.45198151122532326 0.7764389618400293 0.6390315532535219 
Task29 0.004103222853974024 0.031075303855962674 0.009267878547371452 0.024429769633024224 0.8645554676284477 0.8471110798537465 0.7026389983421188 
Task30 0.04282224417543976 0.1492967845513723 0.05963635886799 0.29271826585832944 0.6443291978515818 0.6960419127376577 0.3522544555068229 
Task31 0.02131722519298161 0.31877662594517225 0.3192754134985216 0.15760791756469583 0.6201567134153503 0.6953664255990869 0.5854086693997633 
Task32 0.07407432716367628 0.34131667396321197 0.06497520389797477 0.19619685315680863 0.8287962483076525 0.531340321433029 0.6175874659437857 
Task33 0.006778338228722968 0.012155119595573739 0.014938433292280204 0.022120305555827047 0.6727100228699368 0.5777698209645967 0.5955116522852458 
Task34 0.06267119984736336 0.059113681261241335 0.2006992874045421 0.03282744981185249 0.6660494815840312 0.7943465594502929 0.767539694679909 
Task35 0.011500798085792432 0.04531969379431001 0.012637838275218267 0.004775603666723306 0.9661321298849419 0.3448906816231137 0.39999526166892085 
Task36 0.014719873364793693 0.32586248007118807 0.01739307907302983 0.19226900805853214 0.4444605638405304 0.9144484202825358 0.8776491423461203 
Task37 0.02651447560943271 0.23169860784865864 0.18317709519346875 0.4179910826524079 0.7392445516040378 0.9394473452873595 0.7505399576525866 
Task38 0.06070704306638604 0.17804861044055867 0.08489084661841606 0.2570483645938683 0.6361442377936797 0.7302050944897094 0.33821164437784 
Task39 0.0037056159210244787 0.019056053455576052 0.013961445975814314 0.00623684147830578 0.32356046099045366 0.675498997732137 0.347596878591738 
Task40 0.026450729964928227 0.0222458955729826 0.06886313102095476 0.1787088128729185 0.32367517406696744 0.7149195369003946 0.4023636844024081 
Task41 0.06157607782654907 0.16966009679618746 0.23554433822034224 0.0909553096090212 0.7127075748407752 0.7405550992300598 0.9727459067039199 
Task42 0.15999093179314947 0.3166148808984406 0.41176852132429725 0.07918627440143435 0.6813971154611427 0.8030963540156775 0.9289247326764318 
Task43 0.011790796429394172 0.204370595825942 0.04246493930266253 0.02519979152545181 0.4261677733244381 0.4206329009028346 0.7935143163086213 
Task44 0.09980173435398347 0.051231669149178705 0.2305932041172048 0.3512483362843622 0.9632237071554661 0.6343599634144781 0.6464834181205374 
Task45 0.005274829909082606 0.06453642755247657 0.32365730709579055 0.5807519229496731 0.6865202505485479 0.7549724962959825 0.5440724259284422 
Task46 0.08632853614993304 0.21666931433081202 0.5596696176114827 0.014249625990677108 0.48692120092714797 0.8839524943247745 0.9572476877278575 
Task47 0.05965437776435236 0.043082405539873726 0.13317356617674622 0.11327467968741284 0.32683100717194974 0.3299536646383718 0.8081626368294592 
Task48 0.03799758346854626 0.05310347137519187 0.07940951412202131 0.10140546596045666 0.6938644784683161 0.8816895450344604 0.6354407074275503 
Task49 0.09139149931279578 0.21756331047774402 0.2615691357800336 0.340323829522442 0.42848331235870146 0.524187372914389 0.529366436117398 
Task50 0.08702800799649639 0.1839362008844616 0.3506277761344543 0.20830363966803048 0.604199033791347 0.5949491129877056 0.8908898637864053 
Task51 0.05812018518421728 0.15104620137706062 0.049632740135992004 0.19143324386566923 0.4710994404385803 0.9044522474179799 0.5006011019068116 
Task52 0.0510577943573485 0.0455206100639549 0.18482283414453757 0.016078021030706484 0.9751937878983696 0.907249293702681 0.6074605217030937 
Task53 0.007024320942015516 0.09616601960179201 0.7131701551041293 0.170683467323368 0.4243958517341505 0.3444759369554491 0.9672613957826446 
Task54 0.013026151703639188 0.06940353325313342 0.03702557654418006 0.202510983598815 0.5701723138056384 0.7230249749185653 0.967802283130577 
Task55 0.01623128294529282 0.16070374754399006 0.018586263576925634 0.14042562571860612 0.4425126998043464 0.47484663154164214 0.7235631461927662 
Task56 0.06830804978349661 0.31924080397248583 0.033570235867827605 0.4137445077241833 0.5241153829405342 0.5515677574286446 0.6612048400284208 
Task57 0.019532822293119166 0.0438776028561808 0.030055207514476334 0.031159170433038376 0.5917441774278726 0.7866152197063195 0.34745208590345844 
Task58 0.02997902398943213 0.006552569655400154 0.08080889134677462 0.05653113109544092 0.6369932239977805 0.76063001791648 0.6092672157782548 
Task59 0.08803698539550289 0.3432812807288189 0.03768593254308406 0.18426708928407654 0.8855287367828071 0.5661856825145821 0.6697518159622045 
Task60 0.08952270948290521 0.13426823997441126 0.07363213856263993 0.17169450919364862 0.9025607562172915 0.6091002034134468 0.6239486677599959 
Task61 0.014057437608293309 0.09286877476158419 0.024452215888196516 0.15627726480768253 0.3595313315342751 0.6346019110342924 0.7048816618808231 
Task62 0.1781262707678722 0.35778894184839816 0.22016328973986005 0.17847228238082324 0.4329457922912553 0.7705858528227534 0.3285739075898181 
Task63 0.0644925833542709 0.3042001785275158 0.035657035403729005 0.2046892104611707 0.3378990674092232 0.7428993449513387 0.7423130452518418 
Task64 0.018707082227618306 0.04491149916377143 0.19593906988870835 0.12723855949342783 0.4424730628404412 0.4356520627798467 0.6475259353399005 
Task65 0.11647987675892722 0.3874267982424182 0.17043007694168338 0.29169565474241277 0.8519406749496865 0.857703913750238 0.7655058476010068 
Task66 0.034721410998155 0.11491878212121936 0.02596983031403016 0.02713987369390911 0.6312072644814803 0.6873254088629487 0.395942584247267 
Task67 0.1346879667626964 0.5654362027526563 0.10554813230321895 0.043055703897701185 0.5926129668051371 0.6008580746210832 0.6415834669637539 
Task68 0.012474572713938929 0.09106665059558272 0.046537317584340133 0.06464717612168144 0.8861242641669351 0.363913182485601 0.5860168552376215 
Task69 0.0091901650505071 0.22317578907079233 0.044549684132190764 0.09078511136402238 0.5692944810945464 0.30579928430345094 0.4553610589395226 
Task70 0.018865715129925704 0.318570565048709 0.13677646808601557 0.23622119428831415 0.5222279129951922 0.9709474193635341 0.9395585226234657 
Task71 0.07518940623357684 0.1885696114508511 0.015540626439735255 0.5926379743099663 0.7749987250967845 0.5743124968316455 0.6586392969634851 
Task72 0.009737887921958604 0.07617086282679089 0.019985970645326256 0.035579877601780156 0.8406655994379468 0.6450472579916458 0.46311648811805 
Task73 0.12654664119849182 0.44356421788842404 0.04940799764143905 0.29821810528074993 0.5780198443173207 0.45223826414578044 0.9310751478229955 
Task74 0.026536224912463723 0.056820791943584636 0.041700297248540484 0.05735173524468563 0.8758452433706874 0.6296140505716692 0.332664796794485 
Task75 0.03298612979216773 0.01662800183763346 0.044169446787690234 0.275373715847322 0.550646582327716 0.6752937620479619 0.35272386657171606 
Task76 0.04830844531931189 0.051238433815551626 0.3586971827001716 0.013896213959042863 0.7569537091801853 0.7992954875334926 0.5533527565584175 
Task77 0.11435045894711098 0.1081037666618095 0.14677826501894248 0.42472981453653436 0.5463947919278231 0.5814084696516844 0.7775731077741399 
Task78 0.07299555321804921 0.08583205725443026 0.2381452191192941 0.41562083783003206 0.7100210545019656 0.5188515045851566 0.5938045869011572 
Task79 0.011352871707509097 0.0234138500535386 0.03762294947454291 0.03866747030263572 0.5275425381165767 0.844350256939346 0.6988669104353982 
Task80 0.13064900696065207 0.2939125189774545 0.3187749850214837 0.16400484181386873 0.7940923012168661 0.3686500174185216 0.9477359303536035 
Task81 0.08595239947566556 0.17422063935588628 0.03983386757963263 0.5545310417881285 0.5272898347538242 0.8283823997756248 0.5512691892166856 
Task82 0.050475048705573934 0.08929299517881964 0.0015407318831464664 0.4634043181529868 0.40801813420311367 0.7258434250704693 0.6789375920093991 
Task83 0.0062537529715197 0.10934886396635514 0.01201306451595046 0.08911097469060132 0.9869464135309458 0.4990825784705122 0.835165537976023 
Task84 0.050214681943888534 0.16222905319950018 0.09718868422306308 0.16306371404435654 0.4973416550762758 0.8739168087927285 0.5935471026332864 
Task85 0.05197115542600722 0.04236481782795817 0.2117947648648095 0.049105135828143166 0.8805718878324804 0.6526499819916958 0.8810955487057457 
Task86 0.0052471236955684815 0.028329972782942643 0.0366165783066213 0.030668748718431595 0.7568355085766019 0.610115161122496 0.45776492908090516 
Task87 0.010897089624118311 0.04423759992082672 0.055361971944245365 0.02532952509132652 0.6462487820734062 0.7771153785413734 0.557309855778414 
Task88 0.022138558434319965 0.05781410326340794 0.03945401989468866 0.047643705651654815 0.8591489813272564 0.41163925217121483 0.4326216698308113 
Task89 0.040306196132218045 0.4742821263006936 0.03520451706296123 0.11793909940760962 0.607870539272547 0.9148455387810368 0.6133140929911087 
Task90 0.05193826816450229 0.041942905513222266 0.22728208984162426 0.10330363208139183 0.9005517703988035 0.3241997939175003 0.7516415086801627 
Task91 0.030907444168558576 0.046738950077393225 0.1783538468299731 0.14443658214667104 0.8580711183485032 0.37916333354417564 0.8703505285565512 
Task92 0.06032896284222264 0.0538478384439978 0.2836085959281888 0.12517098094008047 0.7052885388480741 0.516677179620386 0.3201560260448463 
Task93 0.029233778260942374 0.07456056967877792 0.10286254705414473 0.1652238365512803 0.7867831441137443 0.3052481070858113 0.3983404979154629 
Task94 0.12910920845624826 0.4816648686341124 0.22912374996514714 0.04858865045109783 0.7348893491150212 0.8185814678092478 0.3046635965926677 
Task95 0.002921326234680925 0.20550258790969445 0.14254595697522524 0.05921762468549648 0.3325639861293124 0.9539978865423842 0.5448717158282841 
Task96 0.02859293732801878 0.03500424615866644 0.05993382609868683 0.09177468794392234 0.6540618783353269 0.8047215386440871 0.3781090135856503 
Task97 0.11136697763220828 0.002071467539382178 0.4920986956337187 0.31765627555474313 0.8891254184145654 0.4308632683766691 0.4889267522000372 
Task98 0.0770605308932454 0.14733070950278648 0.5036551427747253 0.17421887382388423 0.8345162539974078 0.8027041652111935 0.3502361095049432 
Task99 0.02995514184406184 0.08819117856495974 0.11326154155457109 0.3187349930757135 0.48388964302005816 0.9633756919661354 0.7262844308192111 
