Task0 0.017507647678217244 0.02349519581371712 0.31975507435779466 0.07117500599914292 0.6950054432488388 0.693325131307476 0.6025478086328282 
Task1 0.1262439377406045 0.053386103495032956 0.30984336228899706 0.2005401652944858 0.6203972393473686 0.6016702980766754 0.7707325053358274 
Task2 0.12250871997326451 0.2634282837095645 0.11180703053015041 0.30878879555046707 0.41677581707744554 0.43501806614518995 0.554915366357688 
Task3 0.0036343896778842904 0.033189067383384 0.024177758471922536 0.12291651940983715 0.3751714139694976 0.33836643540695854 0.9115611879645429 
Task4 0.012706855978803203 0.04081596845772331 0.05339311030956658 0.04179540866495933 0.484886333230456 0.6857211426885332 0.8358301487174251 
Task5 0.0312364698114644 0.15692272857341513 0.23173267380749799 0.047417776658882124 0.7611572454918307 0.8121546289042347 0.6637806974124976 
Task6 0.14142518037493892 0.05720766830544095 0.2338607165892304 0.4928318463963345 0.49496162547354905 0.7121620587883957 0.8301461130802525 
Task7 0.011075643113857092 0.029839325471742062 0.16222913535164663 0.1213529098724977 0.8553299478892067 0.5901132435504759 0.6683681099644323 
Task8 0.06310060964496401 0.13973735335939025 0.1744544405995949 0.11276682993694144 0.8928098625604504 0.40802861700928794 0.7164161356961881 
Task9 0.028404729991714905 0.25677752323861225 0.11083042896404724 0.21707226811456376 0.3009417888693285 0.4620026940581293 0.64710203919781 
Task10 0.1603300359700235 0.2006232105510047 0.17113460537744477 0.27410930441781955 0.9281633726185614 0.9601179849192938 0.37845912324723885 
Task11 0.02432524955924707 0.023540354094803623 0.008266041701662888 0.11543133563718035 0.6364215728748412 0.8219411567224097 0.38947559052578173 
Task12 0.0683514635212949 0.21983850342155498 0.27813301113088484 0.18991011577790137 0.3462365035633048 0.653807525288588 0.5166650882173982 
Task13 0.0096097672549485 0.010602898141533028 0.02484895514214609 0.03686472527399386 0.9569454698339772 0.45377736956802883 0.3471277967136555 
Task14 0.03061149266867109 0.3590769165543048 0.27907140581595197 0.14970331747075188 0.440706847332179 0.9876621221044672 0.7891024901923677 
Task15 0.04752840852182515 0.08275701840150383 0.09766257647462491 0.08946205253369707 0.616606291036232 0.5093511024365505 0.9743011199692551 
Task16 0.05450701200747085 0.2016114637396131 0.12934130838881025 0.12470239955424013 0.43478761393780097 0.3579942679389137 0.4685110199901671 
Task17 0.005714658519517519 0.38356499903464997 0.19134468721992423 0.30429450097006194 0.6276280583833511 0.7436543416980987 0.4234959322272918 
Task18 0.07508528814757684 0.1308292020778993 0.16188790210846268 0.06023097848516201 0.8405495189113976 0.7737202571667321 0.860344953420523 
Task19 0.004844302992777054 0.05096617145621472 0.32671682306290706 0.14948355179978695 0.7072224628957022 0.9365122823316052 0.30414936622885247 
Task20 0.0429913229039347 0.16316628116474732 0.09806259456450121 0.1173062285799152 0.6147308566354599 0.3868072334269612 0.3540074390406591 
Task21 0.12421740938102314 0.11647843045597682 0.3955138775416219 0.12255942882467642 0.6016670009908469 0.598789009301056 0.7956137180606668 
Task22 0.06735334432905456 0.1973549251204365 0.1572189393788638 0.006316904097483304 0.8417618541836709 0.40980213041681274 0.49525021981769285 
Task23 0.07228667351033245 0.17992490691984253 0.2265933994208116 0.037621361477759734 0.390170577110339 0.8702954457466572 0.32518183096896935 
Task24 0.1077549884853842 0.34139777159751766 0.4079095916614348 0.0960144199775635 0.5473136195693111 0.8643318932225612 0.5291561204674164 
Task25 0.062440315144099715 0.15248107797381144 0.04646738432869044 0.09098337429780329 0.93284286233556 0.6611198227453671 0.4190614090032861 
Task26 0.0034648424810667395 0.01621600825759169 0.04252638097126655 0.020376249183185088 0.8572440257702836 0.31604558516194986 0.8050177092967659 
Task27 0.0040386457764851865 0.08722389582856314 0.032449807836217676 0.0067191596561519485 0.6334824860757486 0.7750363929873977 0.850262228754058 
Task28 0.010956798839503708 0.15980616241774093 0.24375791998716814 0.22035439260325373 0.32773045423377645 0.7900143005261187 0.9597911280626712 
Task29 0.004593062595773807 0.002309223576288206 0.015003660017057222 0.005018313097425836 0.8709423596122736 0.672457882266021 0.40984652211934297 
Task30 0.02836165625668224 0.21781227962376404 0.10957202966265707 0.328478301292399 0.8520242915163809 0.7666201926939586 0.9593800787326898 
Task31 0.046312118098078836 0.43801947793895296 0.01077243340438153 0.48502893272669434 0.9915346088564434 0.37015285828608796 0.587207451767251 
Task32 0.014798565549863925 0.2157739110292413 0.1625498341153617 0.07986361572001975 0.3488896296627836 0.4053231530176595 0.30227234225246735 
Task33 0.030339107638263682 0.1751567887644009 0.16283032276962828 0.610584383389065 0.37936659360454394 0.6156361034774642 0.7651962285958104 
Task34 0.08406922540292919 0.2642632529950013 0.2948862574024292 0.11771679564019301 0.3670280444480829 0.4419610613596697 0.37690228071446435 
Task35 0.021825594044765632 0.052941225834490555 0.12688310297319652 0.17665528040186623 0.7877637342760179 0.5201372188091015 0.6354054263777007 
Task36 0.0026950318910854342 0.003628519819574242 0.00742617212663077 0.007125323346299678 0.6611159657869038 0.4963506702616962 0.4057507535320958 
Task37 0.08016623126965876 0.3097491971224056 0.012606983031477316 0.16470998839337356 0.5722473985040375 0.4983973469540347 0.33987506390719513 
Task38 0.017956371052894892 0.018921711823965567 0.1874613655418683 0.18310902698623718 0.5732539592706093 0.5590620775959333 0.8931065624850638 
Task39 0.07372286307776674 0.10999509593093262 0.07780708108999386 0.16936611490808154 0.33192824603736726 0.7437865132563279 0.4338346165896813 
Task40 0.02194005681919411 0.008903531779892941 0.14389728204436192 0.31515092128175115 0.5260671702452491 0.7618274727506033 0.31711668845976 
Task41 0.08749089133056273 0.2560838697083655 0.2369038760621652 0.04495955072886779 0.9394967869929238 0.6528770813995599 0.8182559588727103 
Task42 0.0013266654224070248 0.1778004260823284 0.13813887288092724 0.1985854815546133 0.9956320530006291 0.9144741476675515 0.42902164869543397 
Task43 0.016260867774432173 0.41672641192242926 0.06446745495286185 0.044470048782122504 0.7646931175408822 0.8767249926760634 0.3042369003856028 
Task44 0.017055664856906856 0.15119656375869048 0.006085628859901091 0.14967785924929536 0.8691086167002933 0.8100719899018125 0.5194614431598993 
Task45 0.012597322863093396 0.33189400890996285 0.18606062577960295 0.27069066109516376 0.34987304051324253 0.6358725469401225 0.39997105440274666 
Task46 0.14751587121570742 0.12599111272368455 0.26991266871626374 0.3998716025849266 0.4705502271197315 0.891101283638905 0.8823284205374902 
Task47 0.03598339126597577 0.09409715961078507 0.13387038549138278 0.08062997728149092 0.6004667874530718 0.3657831446955789 0.9941741449377031 
Task48 0.0024998861941576012 0.010677977139837095 0.0021082734399074598 0.0032734063156942394 0.3316237208506049 0.3257862568634588 0.6536981290197555 
Task49 0.05114408508190743 0.2938001607244095 0.24667282303725466 0.025765269063139005 0.8202736708718803 0.785081576053777 0.32198117946794935 
Task50 0.033672871064280574 0.19258453022934338 0.09930715045121102 0.097444630083329 0.5230485621839466 0.35128711967598114 0.8306847770526524 
Task51 0.042996620722866294 0.29593543476388645 0.011032080585091796 0.2340513009996344 0.5131731420224234 0.8511795435691372 0.4651984043324221 
Task52 0.13744141627908074 0.5468541522779939 0.1283435060464628 0.11381713669042104 0.6396325335655493 0.9960114287411623 0.8453944713821266 
Task53 0.055270144924685995 0.22760784881394466 0.14262225306404283 0.06411326816792765 0.7202887167587317 0.7148927097149274 0.8150736644421974 
Task54 0.03122932312337464 0.07160882036595144 0.07643027895836087 0.056666849577782535 0.5788055814974472 0.3961319042307762 0.331315254983819 
Task55 0.020046650841159364 0.06457562916994308 0.23147822678747595 0.33299297688985435 0.8596965888843007 0.804845480256325 0.817215975613913 
Task56 0.1368101140918783 0.29966215075669445 0.18362167948619085 0.3705280320711782 0.3621252108722507 0.6715408740236217 0.9507867042749589 
Task57 0.038407228813260544 0.10268875076990398 0.09318694246115759 0.07191730508193879 0.9346625353553131 0.6277982290531186 0.43113703715176466 
Task58 0.011126140528338314 0.041302871744622986 0.043927475125888286 0.05130435420615255 0.7814914083116601 0.43730663868063346 0.5092397150559704 
Task59 0.004675077436840364 0.0633405592893303 0.059740820144313846 0.057979020476208745 0.3542024159653767 0.733943592461098 0.5366410506425046 
Task60 0.07038697177142865 0.10135686618269271 0.1926908014336335 0.2082662877328677 0.5018103247557061 0.658650497657592 0.30067821616213686 
Task61 0.11089269316402478 0.08217415509194828 0.06852388741402772 0.5757286026839785 0.5804302221408755 0.5438383019783694 0.5957373647309522 
Task62 0.0018878610166273642 0.2005177727532521 0.33457057772063725 0.29546095687502594 0.8011315831581383 0.5282361367048874 0.395980714990395 
Task63 0.016179960875624268 0.16940442943830372 0.061109179572195575 0.4187418198001482 0.9708067957878912 0.4392650555755543 0.9355839709652833 
Task64 0.059949230911802355 0.5793004043932025 0.06634843813321908 0.01871297870487853 0.32959626669619 0.3921834061272763 0.5669569096677475 
Task65 0.0054172334982596 0.10263078453491122 0.18993768070361566 0.12951417932835027 0.7448953699284344 0.4074395817654526 0.713460000862242 
Task66 0.0687671897495185 0.3423298250497894 0.40936963591342224 0.1545137691763093 0.7129463538794032 0.4880797057246639 0.7392795588869641 
Task67 0.020938251400553096 0.03851258738954374 0.10460391815352174 0.05239336833023792 0.5086738791594863 0.8408998364470248 0.5441944022546729 
Task68 0.001242200893432654 0.04197023156308319 0.045557239728301946 0.2754591469618526 0.353171536230273 0.7726090593476113 0.9493266238196458 
Task69 0.020704624934020036 0.005013886383498208 0.16992210115996947 0.13160657872542428 0.360402141141644 0.578332395555823 0.8576006547677173 
Task70 0.0001588580434296845 0.0006652473369312628 0.000983233505230698 0.005405555529259644 0.9971124794124928 0.7401570998067902 0.8895151804962922 
Task71 0.053909871764027666 0.30946103488038507 0.22102897070038124 0.21019563415261708 0.44707760661107354 0.8673259802946991 0.7931207937804623 
Task72 0.023655821196008616 0.12530759968802221 0.036659083976632846 0.11501206002164169 0.5427610347980822 0.8128569334308335 0.7328331648668504 
Task73 0.0007092413237894696 0.02096336594519978 0.014714340303737602 0.018439090988364507 0.8761049439873925 0.8884222492878957 0.5608523456798803 
Task74 0.06762710159617635 0.22186803709875816 0.2177228119506742 0.024978105935797964 0.48774253144737817 0.8939530281040038 0.927852542534678 
Task75 0.005545445225937503 0.016323222031761248 0.010726085313642603 0.004199942400142333 0.6851052298976642 0.9597522052405025 0.9939746131263303 
Task76 0.03755242032369447 0.34913718595584137 0.35976725690214767 0.0531694554312487 0.6301283149821277 0.37184456248397724 0.44767143040966945 
Task77 0.056745030143538176 0.2347463033797285 0.34355736979790097 0.23424906001890392 0.59094513055625 0.5463539768277592 0.988506198133571 
Task78 0.10132263590582209 0.12335526793276097 0.28582914912507307 0.4208813746294955 0.5605424544582269 0.8878367385961374 0.8248586755889138 
Task79 0.009570652463163529 0.07627357716522938 0.028524570884138623 0.06526785295449063 0.6854270302642869 0.5207449068065056 0.38659443941578425 
Task80 0.00805497534284329 0.04485813590370683 0.04236698188220518 0.017588943088639994 0.7479169457154521 0.822382108157113 0.7686741989855508 
Task81 0.008285965202574604 0.02789088212439534 0.00815044819104265 0.01767439834111842 0.4384676786602958 0.5835739655780596 0.7141704027390967 
Task82 0.027571319349871427 0.4424927870809552 0.024340484210113658 0.3115994624401756 0.538198292933405 0.8211219037886694 0.7385027066030743 
Task83 0.004490054912471929 0.24623133079584544 0.14496457147700698 0.11050201814182274 0.8439578892147428 0.33086336539613587 0.9057933719545888 
Task84 0.01953727961090185 0.17468050226797874 0.153068591425295 0.16907725812876534 0.5302932803685283 0.8189277512687798 0.8854638297326101 
Task85 0.0068962279307178565 0.05319752652945331 0.0550735425715157 0.00809629732534697 0.6110755513551395 0.7572599345105453 0.5643142663893197 
Task86 0.03767620624503947 0.15471291827445796 0.06330081554393817 0.1501424377294126 0.9912625365743299 0.39493213102102864 0.6497011732332083 
Task87 0.07988996471156572 0.13246128951344638 0.37698594859777845 0.2057001811764246 0.5189107890537088 0.9595014809638658 0.5500168204065901 
Task88 0.10656107416784232 0.21247115016898677 0.12112446013644161 0.1495826044147266 0.6587571962533926 0.9411947346136647 0.5902147798864915 
Task89 0.003915912899808028 0.012251666611088246 0.08581565905858551 0.03248971441082825 0.37946564995063475 0.8673805903982039 0.6579814458499418 
Task90 0.003375675475049935 0.006865828134614442 0.04498102961584698 0.04886532232109768 0.7561505115902578 0.6546135175155402 0.9473962747493814 
Task91 0.09156706328919877 0.19559105223850892 0.21012849141217574 0.22394944659242585 0.5626538770148961 0.8177333072072921 0.32704913266013436 
Task92 0.04017455959335194 0.08002031456816354 0.01402152079785556 0.10586434011948548 0.7486696234033015 0.3448500899956252 0.8090878548851943 
Task93 0.0077793707797128575 0.016497545286168515 0.013621468692514974 0.09104291508524054 0.562062822623959 0.6709500129948025 0.8006114483163131 
Task94 0.050837326785854994 0.07932133145286785 0.169080681375274 0.008782902737275645 0.9094030842280831 0.7766196322496101 0.437745856770481 
Task95 0.013431497574646189 0.4009499413473066 0.24982386897181746 0.11790449453237946 0.699100192132802 0.531310810100196 0.9923025181608947 
Task96 0.00423281175748713 0.008157726664402112 0.006475502534940087 0.029367524057233613 0.5636254625134419 0.8453030701376891 0.5742554217680598 
Task97 0.008596807195041401 0.07689383600519926 0.044297028598533336 0.05454551062282315 0.9016202259410302 0.73588699104349 0.6285675309185317 
Task98 0.014913361061502298 0.03119047653392502 0.043438305292436155 0.02771357942919138 0.4277946954037292 0.6933903185318948 0.7886294513259462 
Task99 0.024352269159552537 0.14337128490379253 0.5050425471970785 0.1712641616188193 0.42331406984856823 0.5689571154313213 0.7166786650301231 
