Task0 0.045740099571685566 0.011787898343763523 0.01751531569296327 0.3646169701796696 0.7829958019191579 0.6511505484673915 0.8401303021363227 
Task1 0.010598189233910591 0.6899846552660788 0.1242907293936876 0.0995964477741282 0.5472830572379173 0.4652751112643316 0.5077449067613777 
Task2 0.009186843310564352 0.020154590065442818 0.07093215687227723 0.03555822118758092 0.7197493198377223 0.7694334137331003 0.6221272158953686 
Task3 0.012945839017213119 0.07156904203773787 0.059659186866993126 0.13266276903475102 0.4415854024453722 0.5693368269509653 0.5636598607135906 
Task4 0.06659485005835807 0.026041470305403266 0.4893301827467933 0.014214926044519112 0.4498097936937163 0.6382230569965497 0.7628255229117329 
Task5 0.07554328589382053 0.030041383314428946 0.1482395463310373 0.2871992583823951 0.9076807529561981 0.7853151971879828 0.7655226049090111 
Task6 0.05724451189948869 0.06175982992009559 0.06770604116220447 0.34797478247962615 0.9557997550368025 0.9894283071107737 0.3606311684667316 
Task7 0.07427159975107264 0.12839149974204017 0.0024461476548633186 0.3674307152198899 0.6940460056851292 0.7796461717950027 0.763773607430242 
Task8 0.18147057746148992 0.004714368068424198 0.6505661667605321 0.11099910418238876 0.6234878741632675 0.4007390088558418 0.8376290781098867 
Task9 0.1511402940059696 0.22398855362622183 0.24502183579899037 0.19909775608215768 0.7149736467527528 0.9233148660512149 0.7247753123802096 
Task10 0.02714381019567226 0.054205531183670684 0.055435815759949957 0.09014225110236714 0.5799169739386383 0.7657726987474767 0.5659716447896435 
Task11 0.09269134660275297 0.07584718592961641 0.20828747365107375 0.16295205546118965 0.8510567919212155 0.7392774771950037 0.5512258482059782 
Task12 0.06375705603475355 0.11365651346133064 0.06808837002805795 0.17221160992371795 0.857147344756719 0.774988717150777 0.9617984484107047 
Task13 0.09947934622099915 0.2195825339840443 0.15711323182944587 0.06797887497775106 0.46685140497468847 0.9401581173370694 0.9489969972294721 
Task14 0.11945630007515251 0.0649132403165038 0.372419934295962 0.3171086337484541 0.3162907452426045 0.6428007301857728 0.6374618752003753 
Task15 0.00849458249429623 0.023444542593842183 0.009889408287591996 0.004363456280691494 0.8352345550933147 0.3193363844344297 0.9307996485512806 
Task16 1.0759693809815806e-05 0.002760710818582027 0.0048336767919328035 0.0017875245397217052 0.8474877019997862 0.6671097487128431 0.5592724632074186 
Task17 0.00015501034913686826 0.0014265148283665698 0.0006814342330422251 0.002575685606277743 0.38666763398950166 0.6865177490694823 0.32790852345978944 
Task18 0.043621371686888975 0.03510874620583073 0.565992626795446 0.2703785377818888 0.521545884570694 0.6721223926449778 0.6014193190459187 
Task19 0.033603096252387644 0.023663015521070408 0.23305288488422596 0.10533734752182988 0.8643641421930848 0.7514687367505033 0.47699275339368247 
Task20 0.006573259115626434 0.03122163488534466 0.03779315281027956 0.010111907400472065 0.7118824428571041 0.6384951877524638 0.49416184481334613 
Task21 0.036011654110540345 0.25502117931245205 0.3689733903708453 0.33524758770134105 0.7179151706329849 0.6830481264760242 0.7234554921661331 
Task22 0.14470233588976036 0.24432698511521322 0.21299620385688803 0.308767763286095 0.3375925115273527 0.3277370454914961 0.3163378141133717 
Task23 0.10317824906164832 0.3475424936702546 0.13781985491166868 0.07699999124652028 0.7485870536426262 0.70703737696358 0.9931196786397627 
Task24 0.0036344887889647854 0.019945875957789398 0.020742041436555888 0.00563111388472093 0.6144239701886973 0.9383716062006116 0.7034865480494443 
Task25 0.07741704784467998 0.22887452540078804 0.23963217308076137 0.11562566700900274 0.9520860574807366 0.9102871429418757 0.4198913611389964 
Task26 0.1128398902389306 0.06122900804434495 0.17317939424131995 0.2470784272114624 0.6973494037898034 0.6201378110617844 0.8390969798056125 
Task27 0.03865357899723926 0.10229268039403233 0.14744831544358986 0.19939806731070756 0.6121631788716617 0.37519800328072045 0.850736809566577 
Task28 0.03283731931674493 0.5036953400935182 0.2632980563167165 0.1622754785623383 0.6829155526981392 0.3306975844268308 0.6648308422398013 
Task29 0.020628648544335448 0.10044395094615027 0.09090220801952742 0.060577405576859825 0.6354370940856078 0.8033779485235224 0.8419114320031811 
Task30 0.012018023934470753 0.34224627761709436 0.24557887302337528 0.3476331993415293 0.32382703368205423 0.8887804658629039 0.4051723164340709 
Task31 0.010721129923074743 0.11071061568047891 0.11331423750777257 0.09304594064037688 0.9512344933462393 0.5592123438978147 0.3473179720047465 
Task32 0.030980605242947504 0.03314872241739952 0.0493069095360697 0.10426540120700198 0.4798002363000535 0.777260707069419 0.7726924913153939 
Task33 0.0006441755926608223 0.0007762740475679261 0.00548824078802555 0.0007669751754064323 0.39099640831509486 0.3862125392882863 0.6289657451467596 
Task34 0.02943135362161723 0.10321487429030929 0.0128199567416171 0.18935026904851815 0.9458734814802312 0.46961292262223864 0.8995727031985452 
Task35 0.04244175445836072 0.11749011542337691 0.0715387600923454 0.05502113496061992 0.818445961517493 0.42873253721363064 0.38471209206883156 
Task36 0.10309624553148009 0.09116971477841465 0.1258444405378308 0.3619643618543426 0.8206175831503555 0.518878413939134 0.5200373092004991 
Task37 0.07528789343669443 0.17618934828964852 0.14830094696885754 0.17879359420930413 0.3944273113124033 0.4010372300049928 0.9983814117473322 
Task38 0.004192957852331403 0.011338534869081216 0.3133234833146446 0.07040116622932897 0.45886238768382664 0.4612253756891788 0.8057833021407717 
Task39 0.08323825707726089 0.19253811535440626 0.13913575586110352 0.41983876506555284 0.5911603544122525 0.3799925130537724 0.5919231545851124 
Task40 0.05633791056352169 0.12769621796172306 0.012311973028412278 0.3007713932593006 0.6182092041926572 0.864297028161551 0.3041606736354235 
Task41 0.0911485395712564 0.18934205231392287 0.15880874212807436 0.20409943264930647 0.3453885089827985 0.6400150568427398 0.3320029279659725 
Task42 0.1362732162750491 0.35213621882097157 0.2755516047390893 0.21164693413855148 0.7358684149385089 0.5357096644141041 0.8047129503408681 
Task43 0.15769358872561165 0.12612759853384076 0.1025666193499649 0.5186734783702506 0.6283152773703202 0.9725599604860331 0.37316574035931727 
Task44 0.025231419781151537 0.1455974611862513 0.13784425010944373 0.15957025158820923 0.5336514882568418 0.6948562716446112 0.6440774133924387 
Task45 0.03684632914150842 0.0664562169534825 0.07591669778639916 0.15883649180458834 0.5620859999698061 0.5007925366343479 0.7615827063758241 
Task46 0.07345480409025185 0.11850740841563437 0.2937753241807655 0.01935973884496293 0.7354978071042235 0.44046316917832395 0.6476678057988869 
Task47 0.016176093754440367 0.019209319516483036 0.042085313171375 0.04219483645224051 0.9729877313810396 0.4234497022503487 0.9447783338274454 
Task48 0.04362153934212894 0.08272683444453133 0.09493124951075071 0.10610338620991391 0.34552110368591143 0.6902570272505293 0.7976524785068263 
Task49 0.07379571771932074 0.1443726035865054 0.13432673287713953 0.11750669888657579 0.9387643573018685 0.9342243874752123 0.304634797626809 
Task50 0.0018167612597327994 0.0217367838624122 0.019693509733482283 0.018711319204879468 0.5064067074647178 0.46003471640325944 0.7865573420252421 
Task51 0.01547743437265192 0.12861292778371605 0.5741621059927988 0.03369344152118603 0.40708866640267416 0.6002758604051905 0.9412153405064587 
Task52 0.05913956151280928 0.009877553933557891 0.41153582491680907 0.15799574029342045 0.5769515256036135 0.8156735816092826 0.9613723951174129 
Task53 0.13221914031041992 0.13628016141849525 0.25195055170149927 0.275415196069901 0.45884902531315797 0.4361065888894902 0.95613992196025 
Task54 0.011293985579528303 0.008447283819717185 0.024629130056819964 0.024367304211713854 0.8748139647602327 0.375762926911966 0.46759433413535223 
Task55 0.13945820053054686 0.1837453490086788 0.3357616341444579 0.10107010256817504 0.9053309622679442 0.6289949886552074 0.8467335312021631 
Task56 0.0005631525243828342 0.0024646550870319815 0.010845415699222838 0.02583279472791191 0.36601427300688466 0.47879765186975826 0.880153831994396 
Task57 0.04974893737696774 0.3529030637745391 0.20492246328041033 0.0725195470212887 0.8231950887464063 0.9348840481229932 0.6067102788357923 
Task58 0.04467304716499433 0.2537985348889537 0.1741165487962664 0.0783986239711659 0.4987780945787029 0.7801477099004317 0.8859499225842937 
Task59 0.016823214245322873 0.043556980953722374 0.06911515256364423 0.03680953067027556 0.976713933363091 0.9490380079212639 0.4375768039683368 
Task60 0.00015211743616534444 0.0006153489801917171 0.0004556763126705917 0.00013760960098877057 0.7234182893257937 0.8062289855149809 0.3359178377389452 
Task61 0.008617760685983465 0.2623215279616401 0.02032270892869495 0.2925616526627957 0.8392365850967245 0.760117410136248 0.3506445713625648 
Task62 0.09966864910107753 0.07712183520344842 0.2830176067867731 0.2409493211862606 0.3872551559459045 0.6170683913483328 0.8997974476295612 
Task63 0.05837040137129993 0.1509541243307693 0.15597346776057505 0.01968846305510392 0.3459346987034606 0.974836306529687 0.5463881687813634 
Task64 0.0292768384605313 0.04580754256948321 0.15475858641826157 0.1815853640129089 0.4145650648780692 0.732204815596045 0.4983844302187833 
Task65 0.09997371545967886 0.2727940874168856 0.09674069840322039 0.294533406915385 0.5245945548746282 0.9396217701286207 0.47276703853945284 
Task66 0.04554678897864928 0.048451412165322956 0.07556938627829388 0.06885568768602576 0.4067599388020231 0.8228263112256624 0.9018430755354423 
Task67 0.00822346269415522 0.15085453678932134 0.13486493015466594 0.5390655459453355 0.3033733321547806 0.6133939934953871 0.44719750195454877 
Task68 0.02403931291106535 0.01703573027424294 0.10292684272724258 0.09421096152845339 0.8951454974170496 0.5885631694717842 0.9094748457342483 
Task69 0.05268775937918167 0.060279871500286755 0.06162052729286754 0.1376241277806498 0.5593353134508763 0.5821882905572138 0.5624283181378487 
Task70 0.13219992633425984 0.33972579763690497 0.13788905668016074 0.2999103440537051 0.9459408697803944 0.49724059598298254 0.6132959644624142 
Task71 0.04066996907886809 0.5299713470812873 0.17479023431391594 0.09012619297040542 0.4079120488720625 0.42620522355663115 0.6278913743104799 
Task72 0.022092716657605913 0.25253095807090287 0.2719826429255469 0.08753727088473164 0.9773733157229323 0.5994991745309386 0.706206876029876 
Task73 0.0041059157578148 0.09349458175500769 0.12048748040902295 0.061152589818336184 0.9160974490564155 0.937688305790974 0.8832832563006114 
Task74 0.09029023508201951 0.1669278465321675 0.18987574937853718 0.09892015386701752 0.49267513404216684 0.980118925916726 0.5681115865208932 
Task75 0.08966832288125463 0.21547945297452234 0.2174503366035266 0.16577853593639028 0.7049276115411283 0.6643265166855057 0.7304603265636769 
Task76 0.008095617556078951 0.00879676347451961 0.13183322395323896 0.08546471852725404 0.8106023760119285 0.5321287315237669 0.3695775237993892 
Task77 0.0719390085444479 0.09327102451739097 0.19495713070553508 0.05360234136172942 0.3007105526420706 0.9658188788594708 0.8971191733634736 
Task78 0.0040368146918872035 0.09873494567575064 0.07075984827920706 0.067760593241607 0.3517061882489781 0.7397609210374141 0.9444037821797 
Task79 0.023916781958818377 0.042660103818068444 0.09642698148325093 0.04363802320187524 0.621475169197968 0.6300101031288159 0.3152770651928136 
Task80 0.1405497831178984 0.14908851525453734 0.27324041686509404 0.1557495921065678 0.6142600099835878 0.49448531096909953 0.3430295536292802 
Task81 0.018970157446299332 0.037515321853103425 0.0003732648887601438 0.18091539370892423 0.8161379354721041 0.41622220539707494 0.3368456443323735 
Task82 0.0232587052560147 0.10409586066151781 0.04393578597283141 0.08403102011744389 0.7996378946746054 0.31935739207959923 0.6968459550438559 
Task83 0.09195976383847519 0.12181020957426411 0.25658344225191587 0.08559444516513255 0.4400663154728256 0.37497593825231784 0.6694745467193619 
Task84 0.02286098858541328 0.039981598277784657 0.030986340846247115 0.055850417417556045 0.41381562113348835 0.46190315940480725 0.5473014739353161 
Task85 0.0028254625117690654 0.010607607231783198 0.012389699920108306 0.009637697796541023 0.9294915644281583 0.4677785110905202 0.7203977268799726 
Task86 0.05765008189947601 0.3116192525889019 0.22158632183953667 0.3873047877483924 0.480109771679784 0.621670607220968 0.4594526893942112 
Task87 0.0023394173919062834 0.029496653929556072 0.11463764790971892 0.02879230497148684 0.3410382728634256 0.7787461099855925 0.6550006345757646 
Task88 0.004422121127707911 0.036684044985691354 0.011319473117101039 0.019649361213430933 0.4724127058549969 0.5439340731182275 0.30120718017686243 
Task89 0.012913621542230547 0.006890051373531375 0.0840535335833469 0.029242657773139925 0.38540172907047543 0.9027176296324138 0.4605227524294917 
Task90 0.024613806132404156 0.10604111602477925 0.03130840179122424 0.006901620330779644 0.5809205672412656 0.7641179602127623 0.6634846602956139 
Task91 0.051858093923198484 0.11075093322108591 0.0726709076194356 0.06960332383700656 0.6017530344203396 0.6349199407643022 0.4494869740639251 
Task92 0.007831790197695056 0.026594147670961348 0.047824413331163926 0.03787845585790801 0.7583260266886442 0.8600874879507816 0.43891527244214185 
Task93 0.07054222699752279 0.040742886940927016 0.3657284041098821 0.08741199708591203 0.6796517251863696 0.6853565412443738 0.40552780608459893 
Task94 0.1304951683232942 0.31378851158188065 0.3873375889612242 0.06318151402955201 0.9197630458536241 0.3211197444514922 0.37466077169905276 
Task95 0.07626125547071869 0.21116818413563132 0.1467258339175242 0.014138824901928616 0.8516039520425924 0.8991144341805457 0.6551845691770448 
Task96 0.10352007696211565 0.3014508589496123 0.4794283875055601 0.07431944265142103 0.6492530595136873 0.4969325269501925 0.35614038614276994 
Task97 0.014264208604270943 0.04797343870646998 0.03563670635260315 0.03548788214536157 0.5893377240106126 0.3647761143099564 0.5603770151663087 
Task98 0.02156712925133736 0.08019795298325001 0.19111691092713284 0.1754311212245378 0.9551094126943867 0.4114983448354585 0.3718453843029247 
Task99 0.003806199279958374 0.32679251884093347 0.25901900522269383 0.25763073423792293 0.46753067469798004 0.7043009774421408 0.8798370228746648 
