Task0 0.11853410164537824 0.22860395424977462 0.1192462809920827 0.12983421697515987 0.8330313894004153 0.8488088883782325 0.9855308500266888 
Task1 0.10991262424871004 0.16747460504320247 0.4215137555181856 0.04513067906260633 0.4060493397905903 0.5386540058821068 0.38326392449278546 
Task2 0.01149717866174154 0.15647157644276014 0.029439401682752588 0.15447917885967083 0.6424124116102281 0.30678053767712105 0.9604009533345104 
Task3 0.0070182613507029906 0.026299798407154965 0.038729025156885394 0.024955042829863352 0.7492484385810438 0.79693226927369 0.5771482640126375 
Task4 0.009767921120491648 0.02486823348002754 0.0442407944631914 0.020678568806178667 0.7837073141039859 0.3929448387476995 0.605530777820342 
Task5 0.09530900436502077 0.005810040677845714 0.2639696551663464 0.20828070425575604 0.33416682573566836 0.9824699402044517 0.370122413978539 
Task6 0.012294501763112515 0.062389806764922236 0.06431402678137182 0.05424931416096496 0.7251105528903642 0.9233374850990477 0.5269222525200575 
Task7 0.013361558347724444 0.02357577180580302 0.012230773803756659 0.01944473258771159 0.7081719548128227 0.8124271627288253 0.938511522427544 
Task8 0.02639346806821314 0.09234840598508408 0.09503165213877443 0.03645024074768957 0.6146181822351502 0.4687322471156972 0.5501803214471466 
Task9 0.11352400566126894 0.041308188744560756 0.5790838970452225 0.19807591996513904 0.954821537387847 0.9836211558285934 0.4823723402669101 
Task10 0.07164469047901921 0.18412341738272078 0.051381561880176424 0.17784587630907459 0.9642729414990265 0.3173450550484723 0.32824263843757884 
Task11 0.0015998396842995827 0.01236960126507284 0.08641477005843616 0.029090228235335705 0.40475120912948037 0.9347359182787036 0.5367786249914285 
Task12 0.009040756954619337 0.05195123736055183 0.0920385569161622 0.13454399276788787 0.6789001080713558 0.627141150026528 0.8446660637228143 
Task13 0.11038535707361351 0.2069663777013486 0.03577247681315194 0.23025406641112944 0.9701967029508858 0.7295185843854957 0.7395512226940952 
Task14 0.029437372472295904 0.08391953104669873 0.04715336932707601 0.07740451513741076 0.8152501469063147 0.9332670508634737 0.8318726988111358 
Task15 0.011545950415953025 0.05552501861179974 0.0995432151369965 0.018596414186977543 0.49647132856459014 0.582723881270045 0.7290462171430208 
Task16 0.0022377348040505934 0.03577880804461124 0.032489447518757514 0.02564283370365216 0.9471365384998414 0.6307901130176963 0.35336366509838596 
Task17 0.011623689349528088 0.016097726123200123 0.03558010131741921 0.04371574858319635 0.34649252908066486 0.7403292118895212 0.5454333513983364 
Task18 0.02318854181270116 0.2368650455192561 0.2559978941356996 0.11886589296070733 0.46631942552007555 0.6130634329682316 0.5752887823871135 
Task19 0.014961858957665821 0.17365269682057477 0.20584218681118496 0.07463108814792749 0.46155640887980265 0.4937420844038298 0.31566046440540496 
Task20 0.011501666997219181 0.2364190739143091 0.20779012119449408 0.012650068113976861 0.8655522757710785 0.6124877550255198 0.9418892103784657 
Task21 0.0015809335613609535 0.00040648536950229193 0.018007051181923375 0.020436774833843024 0.9874740723756332 0.6088201311677596 0.9122872744687178 
Task22 0.1391870380503795 0.5717299224380394 0.09792537506840544 0.03067041111255006 0.31230633120525075 0.5126227133731932 0.6361093816730494 
Task23 0.03160439594643296 0.02158470358779427 0.08982171098795756 0.08488408138073987 0.8782758764004965 0.49362011886885226 0.9255490198871696 
Task24 0.022500058284248253 0.3176539856336156 0.09099637258845694 0.0931368077613391 0.835379044871025 0.42003858996503907 0.6668195980864109 
Task25 0.003355105451625764 0.009589449849680218 0.010310631476230809 0.0004305767225517617 0.7166986171300417 0.8006261135452282 0.6492451270435394 
Task26 0.025986994645015353 0.07648275548719884 0.1007615494609199 0.02140346202651881 0.35761297747625365 0.3875505677973557 0.8693034048685702 
Task27 0.037049513002303865 0.12259717687288835 0.20644568863756574 0.04171643872678539 0.8382520462922212 0.6558873209235374 0.9867689637985526 
Task28 0.03452644880123207 0.07491810380350834 0.1981741790684944 0.16459359437669835 0.6199087575826867 0.8372001944489575 0.7780940559476046 
Task29 0.08081861487825591 0.4482120242809298 0.03266206196008235 0.3404167948544535 0.7957539801195412 0.6766117691491249 0.32476896276840794 
Task30 0.025542855769476187 0.33528671781267794 0.4167773909604453 0.0870740317673939 0.7787804549954778 0.32406985645106884 0.40747497323058285 
Task31 0.1575585953698579 0.03327584608802796 0.2703045625919866 0.3690345612187445 0.8703685487985622 0.4547920674107956 0.8145507486497641 
Task32 0.08590563125236804 0.004983338033307278 0.3931631221222611 0.3244280969035919 0.7188824749422786 0.7220788386278887 0.6657625164285605 
Task33 0.024485690174305293 0.019691453073420268 0.0950725285128977 0.10522790906473317 0.8245455865761127 0.6854676994350409 0.7953913570007387 
Task34 0.0074025916130667615 0.023944192748553188 0.007921165939992626 0.05596695814603313 0.9114217820702175 0.31978240408135394 0.4770254957619086 
Task35 0.006010395411480452 0.015429170664120088 0.005858215175298321 0.010813067541544109 0.36246917891631536 0.45480824828900673 0.9288255942754984 
Task36 0.07019726326486474 0.2669584992965721 0.15449493454216306 0.3090872283122459 0.527409583859933 0.33797534830377335 0.5412659463931577 
Task37 0.17266513238494707 0.3933153142247713 0.19405199692408004 0.16271041715725765 0.9361777118808494 0.8042836359674208 0.8499161297353812 
Task38 0.018290742070073557 0.08375017325879971 0.10098236754132205 0.03293878900000904 0.8059884496187621 0.6975665236261218 0.3381308582770002 
Task39 0.00209999904285782 0.059229052599657404 0.10658783316369282 0.11826078792984858 0.896963170404073 0.977812811274481 0.4640389511978144 
Task40 0.03681254569538878 0.27362444805910846 0.2577632311671134 0.17698412647056974 0.36259071659408304 0.3015138097243378 0.606199532674836 
Task41 0.03613930185927297 0.07535453445352262 0.11669040766024992 0.2725150712238877 0.7423518016218553 0.9994299700545148 0.6534460668929574 
Task42 0.01596026016564834 0.02187216500026691 0.3674274374929545 0.0951423032315676 0.6190510733349849 0.485700968675144 0.8389317843563708 
Task43 0.006914330641033729 0.018386287510918507 0.027035229896427877 0.006886846025109897 0.5636496078482318 0.6888464374031438 0.5365431365657694 
Task44 0.05551232825320089 0.23980191197009665 0.26243589707197873 0.1748686779718902 0.9768858824871673 0.3172335782734108 0.9144622722258531 
Task45 0.0010500029332722331 0.03442637062112272 0.00240267625769901 0.01592227440603137 0.6976474241395647 0.7696866891580472 0.8641438605037195 
Task46 0.050358202983164534 0.1684061646975344 0.20013243109304307 0.030832059713454995 0.4338709023914515 0.7443123814537003 0.39177657904087365 
Task47 0.027097815797667874 0.05740908518237023 0.16464644037428167 0.05077337038047513 0.6995017694955372 0.5391261237041993 0.5167346507700281 
Task48 0.020603810493186575 0.1295205690301765 0.28967733691352937 0.05262744325626807 0.9137603027033658 0.9272657109079301 0.3005267067569147 
Task49 0.12089227649607982 0.23127927349555494 0.07747308308090269 0.17999559301148482 0.6881737653052917 0.8913219799974141 0.6818334376539331 
Task50 0.0474959503952699 0.2606527869115593 0.1598419837427294 0.018025209112969703 0.6147297101169622 0.4838394998083538 0.9724063010698296 
Task51 0.0511558254471145 0.02988429632837463 0.7621230342303095 0.14385990972107926 0.6105558026310903 0.4540792329509179 0.7338743653382425 
Task52 0.1243754227553314 0.32825459207682134 0.22876646485948554 0.2621083995550033 0.4461318335833057 0.5323831491482192 0.540962749574585 
Task53 0.0039881374741153365 0.07456941410329591 0.0015907467902059225 0.06934699750863715 0.3561808264813979 0.7642260034053243 0.6996223716534606 
Task54 0.0015773742925341003 0.006059112114686846 0.1349568057582597 0.00688134953319289 0.4123073296012047 0.8960909743603711 0.918464404336319 
Task55 0.06171192836197614 0.14082869282991778 0.08640397218387978 0.1456559499105092 0.7985279217811269 0.5043359919979568 0.8974693244143159 
Task56 0.023736700059227733 0.28571845942545926 0.03898779324915648 0.30713695716995276 0.5141559680548581 0.769914263227978 0.591246481535721 
Task57 0.05008606171554224 0.2604038427042588 0.06646423135923764 0.20653159061563225 0.896838385954853 0.4816044941583431 0.48018857585521585 
Task58 0.014851075402287117 0.3120982368021461 0.39834477348228137 0.050430232486011646 0.4594300359593077 0.5495791795714998 0.7860984371038747 
Task59 0.16458786195034597 0.3182630518138928 0.3089233296726518 0.18682393358517446 0.30447353601671673 0.7467029286509024 0.9374112786933688 
Task60 0.16009900530252075 0.17432705170178617 0.13988872193680849 0.3869384160218445 0.3166704571614542 0.4429941950007762 0.3169763129046365 
Task61 0.07832714946044099 0.1523830693587794 0.13126358066487623 0.15023213273463903 0.6872429957130526 0.5941401304994705 0.6618168512487597 
Task62 0.11567219774150156 0.2727318105113514 0.24288445037359432 0.2876133059121556 0.9649974497755984 0.6411301999516736 0.980946405297606 
Task63 0.037760189228099136 0.22119744000663846 0.20129926973310674 0.31058981191432583 0.8919546329537167 0.7840595316068446 0.8314946849810747 
Task64 0.06615874719022512 0.16202564139282644 0.17137876728818335 0.06906834744500621 0.4738936158889684 0.9541272514341839 0.34458325460304384 
Task65 0.1471792733645838 0.11011854844008588 0.15355640757532046 0.3277555756139175 0.5403722649194191 0.9201128798059552 0.5562910742766015 
Task66 0.030548126893312554 0.1703140865590935 0.29635625540398663 0.13657429595379508 0.7279888121945184 0.3008051037704929 0.32309262628272933 
Task67 0.04653442275905964 0.12224436857269527 0.2422523251261964 0.13493433597419935 0.9351705502624263 0.8375867686923062 0.9812429467897374 
Task68 0.01469767389325725 0.19249883495849077 0.015568828577493346 0.41357942869854275 0.6131671455866745 0.3196499397628062 0.4790338646776533 
Task69 0.06585456209527772 0.08082243545298172 0.23985964925808473 0.156844446953548 0.7012157136187767 0.7908636537632789 0.4072642433747248 
Task70 0.012781197229211142 0.03179099268095579 0.08133049588315289 0.0802123568493883 0.6531715443269276 0.9448368724157945 0.9495885855965553 
Task71 0.02265021076221854 0.06517206464486773 0.054522813729854104 0.01663313435151133 0.6799266047636462 0.8416544014319542 0.46653362938441995 
Task72 0.012510778245171881 0.009462914943079461 0.4207103880697358 0.1474039349047983 0.7687167895296896 0.7080311003554521 0.4900542085022932 
Task73 0.019731128552964085 0.1052928007567924 0.05512852687980798 0.08957578394148459 0.649593977882353 0.8033019703675488 0.6177957342979344 
Task74 0.026434410589453554 0.11645226602692578 0.5090191930304502 0.34120227395942354 0.826870105405604 0.5076009556040381 0.8111727927523948 
Task75 0.04874715056674839 0.10497904505406863 0.3948868567208493 0.07207458456221175 0.8291058895847421 0.6208023982182788 0.4715268622448412 
Task76 0.16021857833792105 0.2825284339990344 0.3908359689504121 0.11429701848682099 0.3714205118158346 0.5301255530449995 0.4230298195309752 
Task77 0.032197662767936605 0.0328122482283194 0.04330317679235722 0.08327516611408907 0.3450672395852924 0.510998891326665 0.49218396625804195 
Task78 0.07360922433568083 0.16096280026871812 0.0021759783243791926 0.14721885445437097 0.3663712560271818 0.36540170478004635 0.9977584609014629 
Task79 0.07212970758844608 0.13417343946635113 0.18590656957868176 0.007187075573992399 0.6471673415428725 0.4305344781549298 0.8002652240938462 
Task80 0.037438726891151596 0.07346330726486276 0.055159961729964326 0.19003659975961007 0.34016864706546174 0.6743157748847828 0.5945698534883131 
Task81 0.00024811270832914104 0.001438242994636422 0.0009382502181715337 0.0018328429251765084 0.7141428618867156 0.5456015404799679 0.724157073794621 
Task82 0.11487636310210707 0.17708328449219654 0.19571352064122394 0.1837038131250654 0.5013857795842712 0.6516691042922906 0.6933155417381349 
Task83 0.0015611621443501664 0.01286450772432178 0.028985362774107484 0.02370530229073645 0.9028995571301821 0.30245367420886 0.5700252590736629 
Task84 0.024442121447689927 0.07353449211441533 0.06923129961122887 0.03542754444090694 0.9566091724957311 0.35061685010789195 0.34212343932298217 
Task85 0.044268177684647074 0.11929753552546785 0.40097813982583386 0.051915418163553786 0.5544463193463378 0.4976843725687358 0.3065923779919066 
Task86 0.00012362580207601613 0.0005129627090161503 0.0005080449394253271 0.0003176109186165089 0.9781939744680834 0.5099168626631739 0.7791789630408958 
Task87 0.08904335409520682 0.3736866423294241 0.04267259886900155 0.3242890311767914 0.36094945257446903 0.7308402226966186 0.5833763927486231 
Task88 0.04285312573754604 0.3336896879673667 0.2475823201641844 0.04605710360398074 0.9627938335691333 0.7860930535473063 0.9967205571748674 
Task89 0.011254575243365279 0.10622769418633918 0.11404651289764363 0.11817994952381375 0.46099020688713477 0.9616875758898928 0.8325327422990052 
Task90 0.016292388125339032 0.36049001738394293 0.13421037723231016 0.32060102027967846 0.4536142572963558 0.7033931515619105 0.7073827382859538 
Task91 0.017337397824934507 0.015506401377068605 0.036470408068654314 0.37162099235627166 0.838303144491191 0.969527456808148 0.4915293109950962 
Task92 0.07955524833289773 0.06374441793152304 0.014812861600776972 0.4104376933803123 0.7270907581475827 0.3198598822009871 0.3135145423951381 
Task93 0.014094206195196668 0.2004052243394064 0.0540210356746117 0.021984702768843678 0.47963524630162097 0.5195051223023279 0.3938157430864693 
Task94 0.019953660603634082 0.07897923807139261 0.29248007272628723 0.38402723148601686 0.581518478959522 0.9420091366923602 0.9210638730006178 
Task95 0.1548181927571472 0.0685761617180079 0.595693253358179 0.17744222876267693 0.4925728475441593 0.4817690789815674 0.6088893644855234 
Task96 0.031372003774115934 0.2305069884815701 0.00646468338421459 0.04386803876711447 0.31244718827302775 0.9976074063588871 0.5589828917073402 
Task97 0.0008114522886906133 0.22090712273423851 0.3164053562410972 0.0858910304248144 0.6014614687987521 0.9395935234156472 0.7400801404685569 
Task98 0.02875238288444669 0.09728548333010817 0.1818111746454063 0.13832851931541634 0.7409043302507615 0.39487958700209014 0.7947437958405128 
Task99 0.06821637636585824 0.2823514767709847 0.020181591931499994 0.24305181143578689 0.745139385440238 0.4093572275220302 0.725839618434929 
