Task0 0.0070171445597833875 0.5243276255195681 0.2323560248245149 0.14134496828528417 0.626927716254495 0.8897056762046347 0.7719219925446307 
Task1 0.05360654787145225 0.16345980177891103 0.394681049416887 0.23712822747093715 0.5102074980942033 0.740526663585046 0.904305249550978 
Task2 0.0968501837767983 0.16321431416759444 0.017429082869947335 0.6800230472939801 0.5209283303574165 0.44084639883896776 0.35593976581314957 
Task3 0.10552072198429831 0.08036785192131553 0.425584077718679 0.1823843720742799 0.8350325873010991 0.9280335758620362 0.9968880054879359 
Task4 0.016710553052696725 0.05216787993203102 0.08950235467000213 0.09568728887347622 0.5412225708723347 0.9664266632454985 0.4120581564881106 
Task5 0.012632864599420042 0.015600521108092506 0.019147938352679764 0.02069462684265603 0.9570345840225039 0.9103024133551076 0.6387904317468969 
Task6 0.009360523824074823 0.33345804814251845 0.06475011979704502 0.08484119400468212 0.5510477231630505 0.6171286891957349 0.6179971290182382 
Task7 0.02512883015755161 0.22051660810916354 0.2898209590810389 0.012394916351281924 0.6545118537289851 0.7744945525085527 0.5363719027256331 
Task8 0.028166962721373454 0.08952569211009806 0.20499261589685633 0.2316888089988365 0.6276626593643237 0.9492766324432851 0.4342150145395396 
Task9 0.04031021815629787 0.14141056607757474 0.2579866536432218 0.08556302282799907 0.6186650800795321 0.4710835707282226 0.6108181723964003 
Task10 0.1006467515510524 0.14262629510953123 0.1562540442306051 0.10860366459544349 0.42467941122715824 0.8221811832448158 0.6690167338309446 
Task11 0.05509517569257996 0.2317207193375724 0.11383766642529851 0.12273910235717794 0.7226439932384533 0.9021357801411405 0.4496955293465392 
Task12 0.010390491120099038 0.17126853883616167 0.13831294910475592 0.09140859856962909 0.6604942440168142 0.7912015613794044 0.4217284136933108 
Task13 0.01398799022883552 0.02893149248993465 0.05672693545234905 0.02945074668839162 0.6933777982374533 0.5973470123200126 0.6058491217433919 
Task14 0.05819534763084334 0.0915042237597332 0.04036187978336344 0.11731586595884905 0.3219583237960447 0.8032890590484043 0.4620192050014882 
Task15 0.029550922874086373 0.0894983020375298 0.01294489945795886 0.06907888173239739 0.6675586879729938 0.4645911075957403 0.8268217180679072 
Task16 0.0283961739343649 0.017401300837730296 0.0718533145576861 0.032613017308041725 0.3333312674375138 0.9991195150294359 0.7138699737738547 
Task17 0.0037210354488146483 0.00510894866626356 0.020482776700483093 0.1223852200662188 0.48851658183811664 0.41896865949698264 0.4189816333522651 
Task18 0.09079861365122933 0.35646300440965434 0.3592040186634272 0.1405760778716567 0.9067460768005264 0.5176531685340253 0.8983336066121925 
Task19 0.0761897073589122 0.3167863841408196 0.027317584496034174 0.23881735425915196 0.45782215713187463 0.4099304496447604 0.8457839239121976 
Task20 0.05708373772584052 0.09459424157665518 0.10934616915350173 0.18999404820776422 0.6355522124975526 0.9219080726511757 0.5588401682583979 
Task21 0.1217422057902467 0.3408389235950129 0.14199509644876984 0.08508919330555423 0.6323795318586422 0.6865290980208327 0.4708415217756218 
Task22 0.08216063380131249 0.2557652520581364 0.2270779791368095 0.2653780780663177 0.32701202364811066 0.49282088333181606 0.7919307256762551 
Task23 0.0895033799652495 0.0013321425143289704 0.38242734764625175 0.2537515082587126 0.4383781462915784 0.7814999093741881 0.45851244484031245 
Task24 4.567684858740554e-05 9.182109997096342e-05 5.24649523600302e-05 9.008474146924942e-05 0.7565520817065534 0.5560033799507782 0.6477587246738825 
Task25 0.04910632724116885 0.1421041647502795 0.027507816953116777 0.14076051717345459 0.5976955466691614 0.7914866949076549 0.8255905933194716 
Task26 0.05398833017198157 0.023501973330297084 0.03622214067206433 0.4505368840637453 0.7564918632365878 0.34960343742169697 0.7304125908701367 
Task27 0.024808254018479494 0.28085901823353665 0.09170134418311411 0.1736698624558216 0.4963451664243738 0.3164735850997142 0.8246190313446271 
Task28 0.03847202620919112 0.08104948681388438 0.08843509025601076 0.04762315157983823 0.7295728696013488 0.7670565439340995 0.626108355801742 
Task29 0.0444169132452248 0.27945576283925316 0.2799832125489793 0.10102270543029543 0.8773519152393714 0.42065120048740834 0.6000895785183011 
Task30 0.06229925140085575 0.27855317499058185 0.1333389845265319 0.05890095936873953 0.7854611029635152 0.36796572358737134 0.7997979178646195 
Task31 0.13434182454769894 0.053798181103192136 0.24351712823125785 0.3012892897131219 0.3907710754102608 0.34634416946961494 0.9283138696797 
Task32 0.02608792003928474 0.21237442776262402 0.12845203036924233 0.2266468262568732 0.6681456558987608 0.7125174312190801 0.7655285789100239 
Task33 0.0017916994830995756 2.8759959634331523e-05 0.005166803218338998 0.003363398546764104 0.5312358824839736 0.3887220587407075 0.5399807755668433 
Task34 0.004582044911997781 0.00455800825204924 0.020087557760569336 0.012820525212437137 0.6829243214330645 0.4710262957358952 0.6962749035414808 
Task35 0.02568052735087349 0.16322966545220233 0.1096108217821257 0.15234306148879606 0.8505813498855372 0.47043547142793785 0.6835928975773845 
Task36 0.008705881095822399 0.006204435306427544 0.007449151425476369 0.024129096942934566 0.7000266282927903 0.9245459379094054 0.744823286626188 
Task37 0.023803003682301527 0.17674577352838725 0.12540234343802856 0.08435772008066993 0.694453433969637 0.7445647189186299 0.3063541304197425 
Task38 0.02324261352666606 0.1280878851670655 0.11723424752427633 0.024627636890430144 0.9257134185762534 0.38189118767497104 0.7959195652829054 
Task39 0.07266791730201272 0.013424709977735148 0.28451623248683805 0.22660359905605784 0.5393986438132705 0.9998206294097003 0.7971453067890404 
Task40 0.0728627489467699 0.24031576754923326 0.03355013027234329 0.2562991157326699 0.5298060374109155 0.3586332517029328 0.6750028188029207 
Task41 0.07643586758217194 0.009850232305886376 0.1674971890321719 0.18073182828909592 0.7528502418202913 0.6118163312057342 0.3965273077359978 
Task42 0.05606378799355546 0.2475792630235642 0.1837333679141613 0.26691504352231976 0.37551096656763316 0.7779394813256533 0.792479030974321 
Task43 0.03128867562321132 0.060400418765911464 0.0229977911069319 0.05581317956953922 0.5663664098214756 0.488849069078268 0.4760015129921027 
Task44 0.11118296701773998 0.5362651686028539 0.13484299867398414 0.19901588319103733 0.7607666311501662 0.992446828451774 0.9812962877507345 
Task45 0.0759090929570302 0.03656366140604229 0.02620345191097925 0.5199110769213162 0.30624921075780137 0.3631743236205396 0.6249336084782745 
Task46 0.030363303746018495 0.06469597970971866 0.07719305170655578 0.08956810986351904 0.4665927721992743 0.7368594115267557 0.3087434768052251 
Task47 0.03491900494590168 0.13922181094819608 0.20421434513841405 0.10500323752583597 0.9743217923101204 0.7589483206663394 0.67964136125421 
Task48 0.032977536490238754 0.16221816053071608 0.029917228097962035 0.2511893708832788 0.30665479447215527 0.6038302463386298 0.831650576981863 
Task49 0.0008034436038594196 0.24513438778724325 0.35300144247163595 0.2797874754406152 0.45547686640527507 0.597265222030475 0.36860801649010166 
Task50 0.03150668787378455 0.13742681681408428 0.3512517944241181 0.29306550892688193 0.6172479674906532 0.876597706673905 0.7778627054877656 
Task51 0.03934127609202022 0.14248181855389397 0.1356952918854468 0.3486244105194576 0.7656389060340418 0.6275245824326583 0.6534212068692986 
Task52 0.04296132763792853 0.2076359063486495 0.026740782877458083 0.1880956684359548 0.8610468225963741 0.7671216114971229 0.868102733480989 
Task53 0.022248808177006144 0.021273781030427114 0.08894783156989722 0.08703428057841305 0.8857525902388024 0.7919853505645016 0.5441975128791942 
Task54 0.06229717845680256 0.3660223819534154 0.38121702877536995 0.05950981237260688 0.3342914750260959 0.5147147637314391 0.35509994142820184 
Task55 0.01943273892320177 0.41109694437889216 0.3229316692558269 0.22646655872643823 0.4007324414176124 0.9962414848497672 0.8801684000186918 
Task56 0.005629746147170092 0.011743043307831989 0.0102975210838248 0.010303289963476483 0.7247162915236738 0.3966056403798706 0.9847730129898624 
Task57 0.009222501872291957 0.13928338257734585 0.013762092079531397 0.43441487718901756 0.46382079646330454 0.7843585390256178 0.3001762895550517 
Task58 0.04030514475671166 0.14460257027835555 0.4162383874256957 0.2489849917746795 0.49229632206505436 0.8357651689688816 0.8255997152042029 
Task59 0.09397323191962441 0.22916193726617048 0.11968872058802689 0.16534888256556435 0.6672371319427033 0.8199088608270615 0.4105163639228056 
Task60 0.051373158002979785 0.07887558633576054 0.17886618669564308 0.17915240514659886 0.5114943778798259 0.7405872245422568 0.49891211344554043 
Task61 0.0018692202173540534 0.11172377661992673 0.1388430176724106 0.06252151770682556 0.4736142429707614 0.7512967329872906 0.9465584898330999 
Task62 0.002713841254353408 0.2744816614355892 0.12465695840593533 0.24484937815011362 0.5308345548682369 0.905774871534365 0.9795154415484051 
Task63 0.04324369344133716 0.015325219593094698 0.1397365623722656 0.1853892933186005 0.439672301721719 0.31833761862381177 0.8811809127136461 
Task64 0.0717336705167675 0.17315161105310112 0.1523144658880215 0.1321377625498926 0.9254871628269004 0.44985869108867177 0.4733971984292836 
Task65 0.08140002927692444 0.20478325633165576 0.1618224822501137 0.1634335618457104 0.32439168333506513 0.7613134223224114 0.36214567148773413 
Task66 0.06349304915084937 0.2526744702227466 0.09139268546904629 0.14683713723045558 0.4737926928165975 0.8160047960751071 0.7113925167707636 
Task67 0.06079004261111383 0.06701773758214971 0.10820985277145612 0.1299346968608647 0.7911244471639471 0.37933613875907196 0.5034456059395805 
Task68 0.07089622235282109 0.2946203191519119 0.24530757192395447 0.28579307457601266 0.35898240354855393 0.9056793790082658 0.4322360017082082 
Task69 0.055760475098569795 0.16091182732240347 0.14704037238368453 0.2623408635941749 0.8655564823724817 0.7388326767569848 0.9219715396301811 
Task70 0.06903896456649294 0.04235792881153367 0.07288082841324732 0.20983354336277266 0.8645334361248198 0.9056092239604701 0.9239981306457365 
Task71 0.018018739565034327 0.18324072209410253 0.5731606700751667 0.13218762262648326 0.6387006391979331 0.9033855480161466 0.5788547305996044 
Task72 0.00852634237628338 0.12228181420327 0.05072633932298197 0.08805149877034388 0.7374047172224611 0.6468830963255808 0.8453882557637866 
Task73 0.02485582805132808 0.061393826392485966 0.08234263506654398 0.05899453664279251 0.7313020404597256 0.6157338354444974 0.725804119475232 
Task74 0.0039056826833660232 0.05833140187173007 0.19396809071123958 0.047639637180610026 0.6750737983632102 0.5339533116439078 0.7455724443208223 
Task75 0.009804090163568972 0.02805371858354362 0.5130298047844807 0.13141925268907118 0.41185998287165865 0.6545491533874701 0.45127488489627143 
Task76 0.12945348665770098 0.23392970311631903 0.253190381702775 0.21306194035404535 0.7686337160446147 0.4109922828355211 0.7835233075756631 
Task77 0.00419724663598671 0.01657247551402105 0.005476851569226049 0.014642671895244345 0.9837312161377054 0.4175275031267981 0.3522994350134185 
Task78 0.015784058488725158 0.1492074942634306 0.1361389049980474 0.1282147767019171 0.9756535705483123 0.6076427433028406 0.6435188993737868 
Task79 0.0031815547948606145 0.19250409384008202 0.023030298479617427 0.05675671170586801 0.9981743044144982 0.5053761916988099 0.8506712701475216 
Task80 0.01515037093042912 0.0762875548287673 0.04364232905017161 0.06732509440526069 0.7260073128051956 0.40027502114468255 0.3480808202024739 
Task81 0.12402910343495684 0.16478064698621184 0.24820092079497502 0.19529742436800587 0.5667597446037455 0.973138672859597 0.48973371914291713 
Task82 0.002895596676748452 0.00924570828809449 0.0044602577896448135 0.01603843191740496 0.9290426919395742 0.8068574924804128 0.35150486539890247 
Task83 0.001906633509302581 0.03725805564804057 0.028786923168655464 0.022749996339696817 0.4483714087171257 0.73238458895307 0.7099637387915869 
Task84 0.04875633043880313 0.04393674083220854 0.05980625523890506 0.10602368429944671 0.4292303805021719 0.4839678282111102 0.9980461573320831 
Task85 0.05719167453624266 0.23917351008176493 0.3679798490025528 0.08929371956522103 0.48710761409643843 0.9571658365981788 0.6028166223949443 
Task86 0.04191173291513317 0.04845938976195468 0.053944592494661193 0.21721170364439774 0.9788259643287325 0.7502331986894876 0.7268913437838297 
Task87 0.00770109149584824 0.03914300635606219 0.009926720686362182 0.009185216990995487 0.7154455843445553 0.7967785261743532 0.6206767718216473 
Task88 0.011864117880411857 0.1108199325596359 0.18289328077548933 0.016351031119087873 0.6159185446257502 0.4841200716702748 0.45507553985383653 
Task89 0.02595748489951069 0.002460963909413612 0.5114544605296106 0.18475520292242523 0.9245582417025642 0.9459710083455781 0.416708842388524 
Task90 0.0028801298939773205 0.008275974652265851 0.0002635626929428514 0.020064628148975087 0.8053819112855294 0.783330247925517 0.6777254165234134 
Task91 0.03569859539330795 0.5474444189481412 0.3145908598737876 0.08900145567519598 0.7113467036660501 0.3587193226184531 0.46887224994688126 
Task92 0.049579469481756906 0.2520754368620568 0.12508767811004298 0.5266637707647653 0.5525252331468122 0.9054146152224236 0.4086825786599572 
Task93 0.05877107525441737 0.1471659179553802 0.15749790541446618 0.07015958708892892 0.8831777393130378 0.5105991434403154 0.8508129325248182 
Task94 0.17025621588209844 0.040259335918794235 0.39232261339611085 0.31299001022784395 0.9887989008400937 0.8828684626161478 0.5308002866497787 
Task95 0.019090611597954457 0.16731518007617335 0.2770829343012614 0.3483990289115942 0.5796445124978149 0.6875089604326177 0.9428473128615247 
Task96 0.07584645279844969 0.17349021424215536 0.06433864423342253 0.15455676992055814 0.435085000950836 0.34918967404670614 0.9373031098190674 
Task97 0.13279333767831927 0.3150235934188808 0.21815338203976267 0.011163228945522087 0.45446441010289057 0.7742606725471034 0.5666203663428824 
Task98 0.0003635671275988198 0.01588192308380185 0.014043238132127675 0.004961251916721599 0.3194172543684109 0.4277000501736312 0.889787637398503 
Task99 0.04603848548864864 0.12911536030850315 0.08165138739939407 0.13301783923366792 0.5106243090412543 0.7840783527801212 0.6152602530270708 
