Task0 0.012462399610600106 0.16410826464149345 0.050006971057197716 0.12864545467897873 0.2898771478782518 0.39364942099810096 0.32846053387607144 
Task1 0.037617815713729144 0.16182625936926825 0.08416643742921098 0.10852885784771162 0.37265315107822217 0.26531038782375455 0.2425709231632921 
Task2 0.01143860544395948 0.2807976826544749 0.15387897777665038 0.007615858333077516 0.3813693428338515 0.2345253792585063 0.35641902286250715 
Task3 0.011242548330323298 0.03659705850422137 0.040738472194737696 0.0304876309057545 0.2748246949851473 0.3315987495591971 0.35976176823052847 
Task4 0.010275740579749847 0.17148336865897867 0.04693745327809559 0.13653348215036878 0.327260415164926 0.2874737642643516 0.355946320195732 
Task5 0.0004370805361016657 0.008127909846327677 0.013917520264985139 0.015881508216220572 0.2572372348967169 0.37462580288654374 0.3122902571247679 
Task6 0.028000625068412503 0.14203126273816255 0.11960096626829299 0.12981127007111137 0.3097958030032516 0.22688230438921408 0.31044562500537276 
Task7 0.07598054432821001 0.2738650806672996 0.23842007072692384 0.32456970736244595 0.2343170970514506 0.28094639784345427 0.2443706739592098 
Task8 0.009365335975845001 0.06064532017840265 0.11620299544020375 0.02013067460530644 0.35888980405677295 0.3628270286639001 0.3587480962932592 
Task9 0.05211553512565632 0.4258411266547946 0.02491652981894494 0.09928995420269673 0.3988907735473226 0.3666616127790475 0.32607475868531494 
Task10 0.009356626092219761 0.07630359290149318 0.057608321900230366 0.08917904745281373 0.35976674407933235 0.21702803866815615 0.3919053886328849 
Task11 0.02862334869273341 0.25381580315123886 0.11107856531821954 0.17938337369678445 0.3110355669821458 0.28809641121233354 0.3261136793029902 
Task12 0.001708881274585136 0.04897801951972737 0.0467010670684192 0.03079209716335878 0.3395921012010906 0.3102362987790705 0.3251199720483277 
Task13 0.05494563020724982 0.17944516538155017 0.35463248741506204 0.056412713547975064 0.2339416165503518 0.30412301238955264 0.33874047745413516 
Task14 0.011734552655556802 0.08330271283541188 0.0067606195384196915 0.07353528533301446 0.30583579645748504 0.3750506076589304 0.27765050437501526 
Task15 0.031538079438866905 0.039958277265378275 0.3925372405140197 0.07399133444951728 0.34633472188287573 0.3948010665597968 0.37284499271665994 
Task16 0.044370517610983554 0.16720941538060122 0.3504431555577453 0.3438799023296847 0.21314434317144457 0.37991995237878234 0.27525398770951354 
Task17 0.02301990790767851 0.12447874132579971 0.003833167921237236 0.15861958028264853 0.35805140627522003 0.3196516200263029 0.2813902662000314 
Task18 0.017805787180395046 0.02190487672012564 0.09808001514290707 0.08085246007298201 0.3004348815405187 0.2624616016992378 0.30373555004749253 
Task19 0.0028337338025823744 0.08454964215284384 0.02237116570348462 0.06563767766283658 0.39086258535972584 0.3233520484802336 0.326076008910637 
Task20 0.0033889395117000605 0.00845439618609929 0.018604067352185862 0.010682448224881905 0.30506270928874807 0.22349182429767248 0.35410558254703794 
Task21 0.026469015648621055 0.08712056490049343 0.14459674475244544 0.025953788517508847 0.20161129800050404 0.30036379035734434 0.36743243242401524 
Task22 0.04171679212431623 0.15211408702385557 0.173808239553264 0.21979780763940543 0.36646737985839006 0.3718399225628487 0.39512863779140217 
Task23 0.053705464847073545 0.1298425244903303 0.3982432133639052 0.004126485300755418 0.35342874118986856 0.3529405094795758 0.354469370501444 
Task24 0.026058165908934193 0.0439988562717743 0.19172761719670137 0.6784642459766541 0.21670417669783534 0.3351531751229294 0.27557906881657057 
Task25 0.07127723857125808 0.28597893503301425 0.30375056754577995 0.12430424996926574 0.29290997844584366 0.3096740251052915 0.3495181010526308 
Task26 0.04189610107904808 0.23765181413331796 0.29908517924324207 0.27723985738795237 0.3742467239914665 0.3308225852744653 0.22100927805699955 
Task27 0.021879946892458386 0.02282001689782076 0.2672132983568963 0.024693652100886646 0.2827575370346596 0.27131930841305074 0.28872570074528403 
Task28 0.05755638594094703 0.2686642397991511 0.45978084666435526 0.012343225860295598 0.34122641282978694 0.24216303548774037 0.3540328174807226 
Task29 0.04960554824128479 0.32712044327124273 0.04013942244708118 0.29496821164316606 0.3958764660586981 0.39059005460083157 0.3038218169674237 
Task30 0.0038029809157809824 0.39376466341649347 0.3615760616716461 0.08174002280425258 0.32482849991834734 0.25963502213715417 0.2974880767441984 
Task31 0.014948440000954117 0.12133946657808856 0.08062436655246036 0.10299713309676865 0.2362642731145785 0.3164982285864837 0.2316653651613501 
Task32 0.0020989135935923125 0.00038999114429428725 0.10185446206451725 0.15147014260063674 0.26819355168049336 0.30626199852510766 0.24364393736961001 
Task33 0.04499180031412626 0.28321283176845713 0.23024258180150786 0.07714741843806651 0.2499834772552466 0.24577534922193373 0.30641315578121586 
Task34 0.0006563021756452873 0.3066056159527063 0.010462909646267142 0.30576486061297004 0.2434175500521934 0.31097405837634995 0.23276127231455748 
Task35 0.010105953580034518 0.013484710800994316 0.11093424678715894 0.11959349704650811 0.344330836601081 0.2649430711717267 0.25493475975033403 
Task36 0.01727353550031553 0.05749835436116916 0.11266612812315305 0.10521308873991546 0.3015284848290597 0.24004409396572124 0.3168905154332098 
Task37 0.05722877482333767 0.4721198338963741 0.21142004700990571 0.050837183542540736 0.28643720873927614 0.3881604001740944 0.32610173317300195 
Task38 0.03228210559546727 0.32108116176005425 0.2357650413642639 0.008940480420606876 0.2664103090332268 0.2887571057399845 0.3930351016560224 
Task39 0.02879955583028479 0.052215866209459054 0.12687363923363423 0.1441755168651157 0.21959204597419482 0.20537211253761212 0.20270319891581604 
Task40 0.030301785246653824 0.3589083710987808 0.10660866425291349 0.44269874810138826 0.35752492676068337 0.290611542805361 0.23098133126397136 
Task41 0.06430117687716033 0.07200396069659898 0.16939123990238944 0.42664675756346515 0.2877378899538423 0.21319691353480608 0.29318179358978297 
Task42 0.0048256822657438865 0.01722624610513097 0.05181796962964523 0.016871918527910087 0.3522396573048784 0.24654874400668178 0.2280219807304941 
Task43 0.036085991847984535 0.2252850477309453 0.02381757095944989 0.24767794191462691 0.3598628567238286 0.20436308197240718 0.33051468089503255 
Task44 0.01914260454129604 0.306476290706607 0.27012925660757725 0.22558638024397223 0.2621431180028362 0.2953986299571293 0.2973364573770861 
Task45 0.05064673462045989 0.16302615260988637 0.1943811718739095 0.13182938540631636 0.27490636763589965 0.39421944167727074 0.24521509299915226 
Task46 0.0575590242575582 0.1633209777769641 0.27896103765219354 0.23550609188644825 0.2057012345138655 0.2923966284277759 0.31154711099074106 
Task47 0.00018689557061209153 0.015929280218732397 0.0029615089886298233 0.002946288501412229 0.37067032587551885 0.2966857681079039 0.3866238107791034 
Task48 0.006079485589919032 0.04550593604565575 0.1274188268094141 0.12282951912787263 0.3890745295398638 0.2474074056126849 0.23191174485781774 
Task49 0.02093637103819982 0.024178679723321016 0.1071469867427609 0.15903530901162005 0.3880426511800549 0.25091358085367077 0.35729421741161693 
Task50 0.028106729284668387 0.43669198873685583 0.2543248088793129 0.09563019299956795 0.30553844438324 0.3309813428901685 0.33184642939788267 
Task51 0.015756890432423964 0.31109492265878264 0.06331041530323574 0.10404318245848515 0.27469114176242077 0.24773377267164487 0.3669257746153477 
Task52 0.021565209441792018 0.4880896119597861 0.1312833396184642 0.203085327693574 0.32792378713937276 0.2632175581567974 0.3423717845426312 
Task53 0.0023555279928598283 0.0592422451532318 0.06130449481313281 0.06693426210810637 0.3696742598302828 0.3939057568247536 0.3650819869564079 
Task54 0.018201018086260585 0.08660656207924634 0.07447661579363282 0.05391905526312286 0.2689750405180572 0.3774692523845486 0.2209095016497109 
Task55 0.07660753938481368 0.2806557318958828 0.1747056380354418 0.32547958345200845 0.3567133458346467 0.33129801558240246 0.3914771744007443 
Task56 0.02546483897838752 0.39691525654412757 0.319995517877793 0.10808498938148638 0.28262219210495443 0.20716418996211872 0.3115379632647343 
Task57 0.01085973847842771 0.13320004058970206 0.07359997309885409 0.29400587902929676 0.20553386218831204 0.22696846811949328 0.25347743020602653 
Task58 0.0002996227547215686 0.11513695480272204 0.25428460493418914 0.4385590272365323 0.35393261407945353 0.3300902195295719 0.31714140284305004 
Task59 0.018537948877503218 0.05315790306882145 0.2931207658717151 0.1464896235137982 0.25726373895660093 0.2828281198642528 0.21142517235925884 
Task60 0.07039715829516027 0.3059458291048246 0.3328312235201053 0.15853797609716194 0.33072143249035746 0.31620013086590787 0.2267015884692498 
Task61 0.00011606557821511516 0.019317364763133543 0.0337613388563755 0.017026264055536516 0.20987409366161058 0.2394956075769686 0.3578392127034301 
Task62 0.023895143794944597 0.20390925941965998 0.1801000132651886 0.30141380594046735 0.2781936473431622 0.3445397632910576 0.3912170840390823 
Task63 0.04701411738308261 0.00504958288851465 0.3347684276060831 0.3126767283651286 0.36793996295526493 0.3784431496670463 0.2740147360791512 
Task64 0.006707283542074467 0.013922647544868287 0.006262084373539359 0.11749454048667886 0.26662577432204126 0.20039525817803056 0.27505455021654907 
Task65 0.00291819443639512 0.1287963998986254 0.04736852185297431 0.1334142719244235 0.2672592200336325 0.3875849409411474 0.3582197185395639 
Task66 0.0033583381743842607 0.009739176754485674 0.04162083947158933 0.0029896966221922647 0.3005191596404991 0.23016746454905432 0.3623122989202633 
Task67 0.03191030571848827 0.36279774275966403 0.26990070554594425 0.2701381987796399 0.29132257124063266 0.25681600104992386 0.27058257179800854 
Task68 0.0006145987384942818 0.010798981564072285 0.010128895622615468 0.004897765093446816 0.23157319493259076 0.382035368928735 0.3705812523911024 
Task69 0.005930034233084061 0.07425942172906476 0.01324453903360688 0.05137993881192723 0.24577567264059258 0.3905959205102159 0.29018861917374206 
Task70 0.013149549878787211 0.3129003550516698 0.10196986073628242 0.1534831934119124 0.39278856805044804 0.34268922395280244 0.35467056227324967 
Task71 0.05913736288750344 0.15909655809448103 0.42252992001708034 0.23632670151568033 0.25906739792111183 0.33151669412438095 0.22105086229454865 
Task72 0.07548347611130611 0.29230451464453483 0.2972792193490698 0.17432992870298666 0.33913041346698813 0.2812943989924805 0.21532753111089786 
Task73 0.06361455440155772 0.33492498219768835 0.08364638917937131 0.15829598212748647 0.3253414987245422 0.3651860468146427 0.2647705203692974 
Task74 0.00820556711351833 0.04309588464062599 0.03381359760748378 0.05040295930893806 0.2432833092940831 0.3419837020839357 0.27090958161827017 
Task75 0.08256111370502428 0.38177252621664065 0.35025493572057964 0.011052284913963704 0.24148167220171143 0.2313527051947786 0.273427857557706 
Task76 0.016185492090330364 0.04994438668791931 0.026576726503393405 0.07375231960826246 0.250025749976613 0.3064793339041884 0.35564806903431584 
Task77 0.02920526756878216 0.012602053413877021 0.06386161714993614 0.20337276037743104 0.35360137712294504 0.34531633695861896 0.25447535681767675 
Task78 0.03974810547100042 0.3548953273839717 0.19198785927842132 0.4008398554891034 0.3859536044982947 0.3249347303965319 0.2727175060691975 
Task79 0.040205430414988766 0.2811205218985689 0.234639798258409 0.1234883316504161 0.21891732897936123 0.39710585548294214 0.3666941319756819 
Task80 0.03787559757516733 0.3274911977107678 0.06780423111430786 0.3192056304558703 0.27141641736373673 0.3440584200878207 0.34038748499954596 
Task81 0.003215846388705878 0.00239611339500184 0.014418678196099677 0.01706764327257573 0.27214467640001866 0.20875971052655404 0.2374468101197788 
Task82 0.002895124727873296 0.020840675377583138 0.02865202715893493 0.008621327022875139 0.37307298536438327 0.3092351081548285 0.23629187023156217 
Task83 0.04792854640281466 0.21645845029670577 0.1900708703626387 0.06382292430342555 0.31140022567037734 0.35813017057067953 0.24207184843227716 
Task84 0.011621486569648252 0.049565418788135716 0.06302275834627628 0.03994504994690276 0.345697651050647 0.3641473686703883 0.3185407356095444 
Task85 0.009309874247012285 0.05259326237277263 0.05119160281369666 0.004118142157976904 0.25850432168359994 0.2689080327906862 0.20722543006064031 
Task86 0.03451120346515183 0.50384940686527 0.28530430551844993 0.09850522955350775 0.2843012238647149 0.22200918728127914 0.34401653123373355 
Task87 0.010133688251326906 0.021834530119084462 0.07659075771641702 0.03275604919741319 0.3712240185178083 0.38909029700495684 0.30458703926286745 
Task88 0.05247277275205407 0.11288446660543591 0.2515348938699058 0.3843642678144985 0.24718461638040257 0.3845188697513263 0.2820731717706213 
Task89 0.025780261599677265 0.13212393863434171 0.07806426475694615 0.06599834111030253 0.23613947683097722 0.3500221422437548 0.23556040162031655 
Task90 0.044616467328717394 0.4252449631585835 0.2640831834265077 0.2642598533121953 0.37968236322263604 0.37621508029813744 0.3612603632234257 
Task91 0.06770642953881278 0.43819739919927336 0.19982666702192764 0.12529547040977296 0.2817914881148499 0.3763245120549033 0.23254449992172657 
Task92 0.010649944355059834 0.017365767948443522 0.03803116686514116 0.04170403249213092 0.3937089961245971 0.32774804210477626 0.2133645370038124 
Task93 0.008896101472120218 0.04871006385439955 0.055377340740867774 0.035944229552296654 0.3604485415510588 0.35232616921092175 0.2105705340524796 
Task94 0.004496004248995046 0.02191297354595427 0.03548916394200843 0.02898705133793333 0.3306298238737708 0.34693639452108893 0.2374611001263851 
Task95 6.760710416102509e-05 0.19097385005606754 0.3774722029499954 0.38425566585582466 0.21925273892502026 0.34312301347930363 0.39231861530442746 
Task96 0.0008046267278345399 0.10163998398107825 0.06759100685326337 0.03671296365525906 0.35392170512761373 0.20266479407729998 0.2992871349235447 
Task97 0.0600590091685665 0.20974971745728224 0.21494289574285444 0.3167378082293179 0.3789776910083397 0.3705253393816341 0.2854533403220133 
Task98 0.018243737199290948 0.24180408991135505 0.30649281304882764 0.11920914706865139 0.3875451937280084 0.2591660929375409 0.3217046156052203 
Task99 0.0002332288228538288 0.022623583248618417 0.18391211790294631 0.328969960237893 0.31838939553939855 0.21661143779086076 0.28176409412123754 
