Task0 0.029859867832407683 0.23600480058008233 0.04764097996441414 0.11499589645261027 0.28336140641484 0.27998112813956505 0.2301271725862926 
Task1 0.007057441508083155 0.11849485437111949 0.01958997359830825 0.07713533756928552 0.24670595523901562 0.203296160487824 0.3085642132536141 
Task2 0.037079362929423036 0.125789801893898 0.11038009687116636 0.23366511733711234 0.21296962915970027 0.3942055691729222 0.3321534011077656 
Task3 0.007992063715722857 0.0042032315775093225 0.07400146693488865 0.0014992175052276813 0.2835933760961145 0.20287351274663257 0.35333400282620375 
Task4 0.003660853210659432 0.035409132427171294 0.037951792061791244 0.05356141409372323 0.307131423383159 0.3161702198203885 0.3767387264609027 
Task5 0.081505550486308 0.7276143749600618 0.13578390265464013 0.03831829730194738 0.29817322535465457 0.31567836597394067 0.24767016714213447 
Task6 0.01911796876954126 0.4156036436979726 0.11093970191431021 0.22846330988389238 0.3101736500565463 0.2791335741291054 0.2977295748210155 
Task7 0.0316743699794641 0.16500502489319516 0.1825439493500758 0.10783600105945296 0.20053445348250068 0.2769409791837283 0.3041872298153708 
Task8 0.016702396042963575 0.11098860787905955 0.17691047474927205 0.0395686897258136 0.2772846945256124 0.34275814480649947 0.33387903007573383 
Task9 0.022546565879099843 0.08723123457840602 0.13875369685982025 0.07028698146362537 0.27050402988795846 0.31786359288490557 0.23337935680971406 
Task10 0.04770468862632128 0.0890584306843126 0.1764876415494056 0.2138254684582379 0.29863493388201146 0.3178784621830709 0.2778909542662146 
Task11 0.00601437437480427 0.026181662100973682 0.024019022118930585 0.013554861447968585 0.29377440040526426 0.22027864458302496 0.28066213669161905 
Task12 0.05720525601101382 0.38302841211057587 0.17617911875617215 0.16594876346683737 0.31701547581547057 0.20752543443486607 0.3201949642281057 
Task13 0.026237979268477596 0.05118479222654764 0.29010776868910704 0.29397167341048436 0.31089371004736044 0.21277894768525446 0.2722731016327672 
Task14 0.006513524605060928 0.29724093324835354 0.33626700376096497 0.2307827948822681 0.22538614362067713 0.31086047042726717 0.27320840668165863 
Task15 0.001370896552360455 0.09228135581649284 0.033193848568211115 0.054846261532228026 0.3942856144845504 0.3722790658872454 0.343118901097996 
Task16 0.04156322541333279 0.374082850037902 0.09484285674796318 0.29883557699084395 0.31592816136181595 0.2127505159791164 0.218191764376329 
Task17 0.030067835584964068 0.13555281939740205 0.11797019087120635 0.10245868575599597 0.36480211680446867 0.2681398362745772 0.31469276627668064 
Task18 0.00268437493872822 0.030843117408572544 0.025689057049291347 0.022042574001703116 0.2733588553038879 0.2968889429314512 0.2747365969983924 
Task19 0.07642506203341681 0.1067467877762121 0.4196935544970191 0.31490607949670296 0.3356855418099679 0.33181153676517794 0.3684600833109626 
Task20 0.012335666167838948 0.10828532073991244 0.3056361161518875 0.2631769068414969 0.3993001657352025 0.21088176952242807 0.3305439969304488 
Task21 0.004308499785407059 0.009702431486421477 0.025032892573273912 0.042355988912519744 0.22972265293446442 0.3434266551794921 0.3075145461623387 
Task22 0.014233722469878711 0.07797902467115313 0.0538663056795331 0.0020506093291889453 0.27261574292160384 0.20634518154462017 0.22268002792330138 
Task23 0.0167803528737768 0.3468025519918973 0.056470574174572505 0.3071953689234963 0.2259360404891464 0.36976650896916463 0.3866676045272731 
Task24 0.006201807385939981 0.01714753100269302 0.11396274753006716 0.021854008101782604 0.2736889832479225 0.23562819151944525 0.374304951153633 
Task25 0.019991359475026144 0.13303098107234226 0.22522670340201367 0.005695283014561536 0.2867893277169022 0.24470481330924762 0.36839011161467683 
Task26 0.08725738867743374 0.016661114734493433 0.26473090363017193 0.5913618987077636 0.2564853643653518 0.31744857887625083 0.3255719447504011 
Task27 0.03771974205960204 0.23239148366927606 0.3794410815954598 0.07643805584866172 0.23545391127301826 0.35123894830504665 0.2776062313920515 
Task28 0.041480727023142004 0.5250610684945806 0.22009493633378946 0.15998876413162463 0.24822020809415346 0.24171376077742956 0.3545316138772997 
Task29 0.0064484796087243565 0.001417550831631161 0.03966538556398404 0.03563047674821548 0.25627336144475027 0.3811042200150091 0.37183576003622976 
Task30 0.031110913138490345 0.14157318863001944 0.11715928449823755 0.05594834242070677 0.25947873096135543 0.3818023500812342 0.2454924133082813 
Task31 0.05149132808459825 0.10425033198961514 0.21740739943339862 0.16038099457373142 0.2608060905691475 0.38810877257618437 0.3628584326335437 
Task32 0.0003599859908969115 0.0009845797301522505 0.010183671091581753 0.007717452208629757 0.2906180442896794 0.37678734880889914 0.2156208065126759 
Task33 0.037572419766594 0.19430942695852169 0.12112124589005575 0.2081319563257106 0.39959775526162844 0.2620160926510814 0.29301563054809554 
Task34 0.04031592255033015 0.40304107788238713 0.08570018600843232 0.24427561129960132 0.23224065549102407 0.3184374341522535 0.21125424234126888 
Task35 0.07022497493571096 0.2988804787644287 0.5243725284557031 0.04826530095252064 0.20907053476427997 0.3876869246409915 0.28020467289733636 
Task36 0.010600059063022112 0.01583423295152467 0.0558389605750464 0.050629490014096765 0.2734408804471244 0.3065331727061116 0.3977673347239486 
Task37 0.011048947216032012 0.1131306739854227 0.7590301243207037 0.09850843821454318 0.34548932279434563 0.3169344510878161 0.30437061487891415 
Task38 0.03789065525999077 0.21010653748314123 0.0665100661558936 0.1662400510088412 0.3995184732081082 0.23612026393403698 0.23520842593959576 
Task39 0.029319833449972986 0.2139572797737729 0.13792198242551446 0.3223684215772162 0.2219837437428155 0.23870587671968083 0.2668620656221262 
Task40 0.02270534787998678 0.13402004325789393 0.03143689367858803 0.10326256188359377 0.33727757214350484 0.2511484214319491 0.22837812031751747 
Task41 0.022848463522152376 0.07038695789603065 0.03376780714835635 0.11014733287147643 0.21265448375506368 0.3433577782550985 0.23616598015255785 
Task42 0.04161087858252108 0.12750336294536763 0.1719207644128474 0.3503453045307279 0.350629543394204 0.25864849018378727 0.32155590513881765 
Task43 0.06998783003665375 0.28378410751598826 0.24261280329966906 0.16273424820599244 0.2837818084268992 0.3764631383022255 0.29359159630441745 
Task44 0.02663537217741244 0.014259839774700392 0.07133482013970156 0.2581195912967482 0.2720836804288268 0.34878143231964326 0.3276811126181807 
Task45 0.0485240983501057 0.23215904204839904 0.2452940540176323 0.12339967108430623 0.2673708175123642 0.2706636724388929 0.2930978675421845 
Task46 0.020194027830698576 0.05230143034914674 0.109037680517018 0.3856484511979924 0.24077326054898265 0.2750262019557439 0.3775257193695449 
Task47 0.011873141703011557 0.24980814195612744 0.10085829387476154 0.1224645474360519 0.3595972350472242 0.20078011449711416 0.23304738379205017 
Task48 0.005467428546981028 0.06039482240472264 0.06305556506856981 0.08975391883726104 0.2948039144637427 0.3911936698578502 0.30409160664868995 
Task49 0.039915629143924776 0.35529080127471857 0.0041518564844247 0.32915965647724965 0.3259793889421515 0.27500375849402026 0.2970801720957341 
Task50 0.014677388914693607 0.3465311865273859 0.0915256062824969 0.008022346519358344 0.3808221213184749 0.20650828622978062 0.2391840823497351 
Task51 0.00560156912765128 0.08939277507113011 0.03435805037773575 0.08524054654401592 0.3448896170325899 0.22790931779701476 0.33107950449590107 
Task52 0.003302733172839636 0.24024667909616026 0.03637222036235442 0.24546942268853908 0.2336798256954341 0.25349342539762226 0.3594754484705732 
Task53 0.0016470572216520226 0.022431714773297882 0.027981436438130978 0.0446385743957787 0.20858880932613427 0.3397610710832263 0.3508654963608417 
Task54 0.007225418917447533 0.23054832436772518 0.09817832476171465 0.34588771978283256 0.23604939275838213 0.24060463433206147 0.2947983597503411 
Task55 0.037700728347599896 0.03937399348486011 0.21660849900861498 0.6175255193027254 0.37930998964336404 0.24956456432351465 0.2092367705943673 
Task56 0.018376486628607438 0.07169966080070575 0.09091793813806882 0.017879597735777006 0.26583981828318703 0.28938208054642883 0.21711918903684488 
Task57 0.04429501599088956 0.1152202960374269 0.16604211467133892 0.2323915301622862 0.30922711859715535 0.3923723969412727 0.3600424098954562 
Task58 0.018458333656119097 0.34066228008509203 0.3018732231746909 0.05337334704268355 0.3927005420035663 0.3204395175466801 0.22436613876688183 
Task59 0.07509372641204179 0.36764712096604435 0.03351920597620091 0.347022785346339 0.20918791766763803 0.30836429702081036 0.39731944130304636 
Task60 0.0675326467937053 0.24535858494964566 0.29871130690809183 0.26550161094617986 0.3596579190042095 0.27688079105128643 0.33672255825003616 
Task61 0.04700335426587666 0.6016642002370279 0.02408223965000001 0.18495372282362266 0.2532688879754788 0.30187810084247557 0.3830365225404853 
Task62 0.014836956442845436 0.015137044810854098 0.042200545686882376 0.24502814561207173 0.3485273926741575 0.33373647455058364 0.2642118969779232 
Task63 0.007082771491547815 0.02389949978816904 0.11443325390534863 0.06087484005937164 0.2809040918870005 0.28324490772638167 0.30898979874573934 
Task64 0.01900075654280892 0.3676885843881807 0.05986349234340462 0.020254973397344514 0.3737239846690291 0.25711692699693756 0.21164465269242722 
Task65 0.0151210371355995 0.018531011501607526 0.10800989408058806 0.02929288976039389 0.23803670327463677 0.38747153617806446 0.2550524117457102 
Task66 0.0460903510843541 0.18844457905176892 0.22424288272669862 0.21427286521012495 0.32478800273016545 0.35166024045666355 0.27920878723379905 
Task67 0.004100734586857065 0.0917737258086496 0.11742628192500026 0.10509069641081838 0.2892413269175776 0.39880980826888857 0.31850516142346946 
Task68 0.01251595851981436 0.33519644454262987 0.11722858658106776 0.25146657771252195 0.35646597204959873 0.36599520515260275 0.35104761597482237 
Task69 0.0025464699333774916 0.06571700181735374 0.05747484328491816 0.12058009554475888 0.3574681852121189 0.3081905535124808 0.3893320064409689 
Task70 0.04302025047561765 0.4671568897641319 0.04746888463973062 0.031087229349080106 0.33093985234139167 0.28297977208279845 0.2676160467510708 
Task71 0.00550806042114922 0.04890214420418171 0.13975659825508469 0.09429623717455789 0.22094684050029184 0.3302849416905254 0.23343201016159798 
Task72 0.01583342135984147 0.10811660387572271 0.20023270218649414 0.2472500081894722 0.3812626748537027 0.2293603763674818 0.2223545884088029 
Task73 0.0012315434737604934 0.23521608571871422 0.1763926846798601 0.025166932956621865 0.22271501150741949 0.27996549964782064 0.3165047599107805 
Task74 0.030859769133325228 0.289362104730592 0.1289935249525835 0.5183999838342463 0.22208974808212212 0.2474838262724191 0.32358985882778946 
Task75 0.01808593445394467 0.05140880442041065 0.1339651636450928 0.11897437713845359 0.3464035979260762 0.38533377690128584 0.3194737554533849 
Task76 0.0033260873075505585 0.02208899501131104 0.22667111734865483 0.22259193753722809 0.20521900557804282 0.3456427528828493 0.3105712303876053 
Task77 0.024520737342872103 0.23126308878278104 0.17743213348688716 0.4901790006512545 0.2557482099458584 0.2881340820535466 0.3728308840139926 
Task78 0.005284908854019496 0.33639527518805346 0.25249976084130293 0.09179576994712138 0.3971528558488368 0.21272438844986605 0.39505822766460896 
Task79 0.038866218788572514 0.41315665940248103 0.11075177697548964 0.213108104294998 0.2540015692776018 0.23847028368836276 0.22421045883597993 
Task80 0.0007062827201958114 0.10089956608054036 0.005905660132294842 0.27452206787079264 0.3852940792785551 0.21235805787399178 0.3060408591599001 
Task81 0.07645362553641373 0.292047012957298 0.08274916734377911 0.5472179814135376 0.3783507374286358 0.24127749418994424 0.3556980433988046 
Task82 0.05110144120213347 0.2427466743299727 0.03933431402181005 0.40464491643169986 0.33545295959397115 0.3242086146826886 0.2553310019736117 
Task83 0.005243860394629515 0.019210517532933034 0.0781781843801994 0.03734712131585498 0.2770552486707714 0.3405069224505013 0.29554050178829155 
Task84 0.011238359918316128 0.019037372290153634 0.11585849293301553 0.04862440703300957 0.3029358497988769 0.2735632386042673 0.21164262382854807 
Task85 0.07053027643118988 0.4897727974400598 0.0667778124728683 0.22482548245507994 0.3853783954180121 0.2567952768393462 0.26231934030541115 
Task86 0.003910929644478124 0.0636212010170131 0.0002680663651834987 0.23180480889275124 0.2551128832538959 0.3597940339387047 0.32580276350602455 
Task87 0.002340344270578406 0.033003772634176434 0.2773369461265145 0.06908238686046425 0.3946638575107677 0.3574561926607631 0.39898095975986747 
Task88 0.026728779520665435 0.19857270409659072 0.17150813099781698 0.19128063819122842 0.20964724377543886 0.3234552766917988 0.3881208488270173 
Task89 0.005043402214087256 0.05111887840298826 0.15694864860193355 0.08083972768125894 0.3184258306357094 0.20257062191440767 0.2061432076191457 
Task90 0.03496449908918849 0.3078592776478097 0.07328468998877685 0.49097795416144685 0.25974128472777125 0.28848236352573065 0.26988495113335503 
Task91 0.03700092212791136 0.1205428942981669 0.6234909547343668 5.8940374298804395e-05 0.335697685538071 0.3904341345413405 0.3513937130570076 
Task92 0.027441403991818377 0.10537870786411842 0.21034874290604672 0.32943995438097157 0.2704165072817825 0.3837250569375534 0.3959898909899616 
Task93 0.02870171387937661 0.0673531630949159 0.19950108673510292 0.22064786712837986 0.2866120377036795 0.2349098852693433 0.3111373667691733 
Task94 0.002734668426971168 0.15106901834277942 0.19046476928543174 0.21471948582488545 0.28246490305050026 0.397520159374082 0.3305523001160927 
Task95 0.02426556072356774 0.7969962471003674 0.0719591552336544 0.001048404099708585 0.36842085239165295 0.3739828984392016 0.3509596237109866 
Task96 0.01462138185940177 0.0877182668466334 0.3383884279085652 0.5254472559194971 0.2128113188996803 0.3754111097744906 0.24681736788570174 
Task97 0.01410525832955671 0.15779876680981836 0.10118487044616613 0.0830891647784418 0.20195565084891326 0.36536508799451684 0.3245306035027326 
Task98 0.025402580835406537 0.05825854039511697 0.07328002001707012 0.11995817730148868 0.3282730984132385 0.20971248071760262 0.3321636097256807 
Task99 0.008415925749762685 0.0752682998586232 0.16178460629087663 0.015154601417063557 0.24433649126861814 0.38815495769257446 0.3366139182105975 
