files/tasks_parameters/ExAp01/sample8.txt 1.14384 6.77015 2.19458 0.288816 6.25025
files/tasks_parameters/ExAp01/sample12.txt 1.35165 9.58351 2.46081 0.337498 7.30377
files/tasks_parameters/ExAp01/sample2.txt 1.27508 8.44418 2.50701 0.319127 6.9062
files/tasks_parameters/ExAp01/sample44.txt 1.14091 6.96299 2.23089 0.28229 6.10902
files/tasks_parameters/ExAp01/sample27.txt 1.14472 7.74306 2.16676 0.28602 6.18972
files/tasks_parameters/ExAp01/sample17.txt 1.16956 7.35053 2.25579 0.292348 6.32666
files/tasks_parameters/ExAp01/sample9.txt 1.13007 6.89392 2.21068 0.282399 6.11136
files/tasks_parameters/ExAp01/sample34.txt 1.17796 6.62788 2.3772 0.297742 6.4434
files/tasks_parameters/ExAp01/sample40.txt 1.1375 7.75686 2.17534 0.285619 6.18106
files/tasks_parameters/ExAp01/sample33.txt 1.34569 8.14826 2.6463 0.338073 7.31621
files/tasks_parameters/ExAp01/sample48.txt 1.08444 7.64107 2.14272 0.270011 5.84328
files/tasks_parameters/ExAp01/sample29.txt 1.13422 7.139 1.93769 0.286306 6.19591
files/tasks_parameters/ExAp01/sample11.txt 1.11759 6.88688 2.12981 0.280008 6.05963
files/tasks_parameters/ExAp01/sample14.txt 1.0031 6.11983 1.97599 0.247458 5.3552
files/tasks_parameters/ExAp01/sample0.txt 1.17442 8.2738 2.14256 0.289132 6.25707
files/tasks_parameters/ExAp01/sample7.txt 1.10312 6.87011 2.05821 0.269886 5.84056
files/tasks_parameters/ExAp01/sample23.txt 1.17465 6.52032 2.38087 0.291712 6.3129
files/tasks_parameters/ExAp01/sample13.txt 1.18848 8.73247 2.33415 0.295393 6.39256
files/tasks_parameters/ExAp01/sample22.txt 1.13761 6.9777 2.28948 0.283979 6.14556
files/tasks_parameters/ExAp01/sample25.txt 1.07288 6.23444 2.2122 0.267298 5.78456
files/tasks_parameters/ExAp01/sample36.txt 1.03176 6.6174 1.9458 0.253823 5.49295
files/tasks_parameters/ExAp01/sample46.txt 1.30779 7.42369 2.49128 0.327273 7.08248
files/tasks_parameters/ExAp01/sample31.txt 1.02887 7.22028 2.13584 0.25377 5.49181
files/tasks_parameters/ExAp01/sample37.txt 1.24239 8.90704 2.16981 0.295708 6.39939
files/tasks_parameters/ExAp01/sample16.txt 1.04 8.18243 1.88294 0.24945 5.39831
files/tasks_parameters/ExAp01/sample10.txt 1.18677 6.96646 2.31217 0.285748 6.18384
files/tasks_parameters/ExAp01/sample39.txt 1.03961 6.4161 1.97266 0.251967 5.45278
files/tasks_parameters/ExAp01/sample19.txt 1.28739 8.16711 2.23199 0.308463 6.67541
files/tasks_parameters/ExAp01/sample20.txt 1.04089 7.28549 1.88944 0.25994 5.62533
files/tasks_parameters/ExAp01/sample43.txt 1.02356 6.86804 2.00142 0.25616 5.54354
files/tasks_parameters/ExAp01/sample32.txt 1.12207 8.15663 2.12995 0.281726 6.09681
files/tasks_parameters/ExAp01/sample45.txt 1.11408 7.75184 2.10599 0.274935 5.94984
files/tasks_parameters/ExAp01/sample26.txt 1.08964 7.4944 1.88956 0.267248 5.78349
files/tasks_parameters/ExAp01/sample5.txt 1.1321 8.08362 2.09961 0.28454 6.15771
files/tasks_parameters/ExAp01/sample21.txt 1.04845 6.11814 2.17119 0.26143 5.65757
files/tasks_parameters/ExAp01/sample38.txt 1.05871 7.761 1.96293 0.263659 5.70581
files/tasks_parameters/ExAp01/sample1.txt 1.16463 7.83752 2.13261 0.289228 6.25916
files/tasks_parameters/ExAp01/sample15.txt 1.14498 7.37971 2.12057 0.285825 6.18552
files/tasks_parameters/ExAp01/sample24.txt 1.18162 8.28531 2.25272 0.296628 6.41931
files/tasks_parameters/ExAp01/sample3.txt 1.22398 7.33359 2.39135 0.305084 6.6023
files/tasks_parameters/ExAp01/sample6.txt 1.1204 7.09894 2.24425 0.281804 6.0985
files/tasks_parameters/ExAp01/sample30.txt 1.20819 8.17669 2.03701 0.299204 6.47505
files/tasks_parameters/ExAp01/sample42.txt 1.19131 7.70416 2.42413 0.29743 6.43665
files/tasks_parameters/ExAp01/sample4.txt 1.23685 7.41691 2.36261 0.307803 6.66113
files/tasks_parameters/ExAp01/sample28.txt 1.058 7.0562 2.07657 0.266428 5.76574
files/tasks_parameters/ExAp01/sample18.txt 1.0986 7.60139 2.1377 0.268016 5.80011
files/tasks_parameters/ExAp01/sample35.txt 1.28655 9.66795 2.28028 0.32244 6.97788
files/tasks_parameters/ExAp01/sample47.txt 1.00314 6.84842 2.12104 0.251655 5.44603
files/tasks_parameters/ExAp01/sample49.txt 1.02025 7.1497 2.11412 0.255889 5.53767
files/tasks_parameters/ExAp01/sample41.txt 1.06738 6.59911 2.07359 0.265885 5.754
