files/tasks_parameters/ExAp01/sample8.txt 0.97887 3.76817 4.3855 0.450105 8.52671
files/tasks_parameters/ExAp01/sample12.txt 1.3541 5.03638 5.18776 0.610564 11.5664
files/tasks_parameters/ExAp01/sample2.txt 1.3293 4.58991 5.64606 0.613877 11.6292
files/tasks_parameters/ExAp01/sample44.txt 1.18376 3.77401 5.66946 0.551838 10.4539
files/tasks_parameters/ExAp01/sample27.txt 1.21641 4.13937 5.56136 0.55779 10.5667
files/tasks_parameters/ExAp01/sample17.txt 1.13144 3.76163 5.38341 0.520991 9.86957
files/tasks_parameters/ExAp01/sample9.txt 1.11055 3.69889 5.2981 0.511699 9.69355
files/tasks_parameters/ExAp01/sample34.txt 1.08277 3.52435 5.83741 0.49187 9.3179
files/tasks_parameters/ExAp01/sample40.txt 1.09561 4.06185 5.0335 0.496884 9.41289
files/tasks_parameters/ExAp01/sample33.txt 1.40176 4.82091 5.83886 0.651963 12.3507
files/tasks_parameters/ExAp01/sample48.txt 0.979259 4.01134 5.07085 0.447927 8.48546
files/tasks_parameters/ExAp01/sample29.txt 1.3777 4.20847 5.0406 0.643694 12.194
files/tasks_parameters/ExAp01/sample11.txt 1.20988 3.94699 5.29198 0.557276 10.5569
files/tasks_parameters/ExAp01/sample14.txt 1.04464 3.54059 4.58345 0.466713 8.84134
files/tasks_parameters/ExAp01/sample0.txt 1.36584 4.82755 4.90216 0.623551 11.8124
files/tasks_parameters/ExAp01/sample7.txt 1.11023 3.60766 5.11185 0.509566 9.65312
files/tasks_parameters/ExAp01/sample23.txt 1.25844 3.81403 5.45799 0.582911 11.0426
files/tasks_parameters/ExAp01/sample13.txt 1.36206 4.8894 5.26818 0.624499 11.8304
files/tasks_parameters/ExAp01/sample22.txt 1.16884 3.76156 4.95746 0.534216 10.1201
files/tasks_parameters/ExAp01/sample25.txt 0.905741 2.94144 4.92622 0.403639 7.64647
files/tasks_parameters/ExAp01/sample36.txt 1.08667 3.56164 4.5806 0.501799 9.50599
files/tasks_parameters/ExAp01/sample46.txt 1.15028 3.84833 4.7121 0.530701 10.0535
files/tasks_parameters/ExAp01/sample31.txt 1.06217 3.764 5.08385 0.479734 9.088
files/tasks_parameters/ExAp01/sample37.txt 1.40949 4.43254 5.65111 0.65143 12.3406
files/tasks_parameters/ExAp01/sample16.txt 1.12902 4.49741 4.8895 0.509171 9.64564
files/tasks_parameters/ExAp01/sample10.txt 1.33839 3.87086 6.07511 0.60993 11.5544
files/tasks_parameters/ExAp01/sample39.txt 1.02532 3.66299 4.54281 0.463671 8.78371
files/tasks_parameters/ExAp01/sample19.txt 1.3366 3.86694 5.14047 0.615987 11.6692
files/tasks_parameters/ExAp01/sample20.txt 1.25607 4.09945 5.13368 0.580369 10.9944
files/tasks_parameters/ExAp01/sample43.txt 1.15895 3.75825 5.55698 0.530892 10.0571
files/tasks_parameters/ExAp01/sample32.txt 1.28566 4.0352 5.29178 0.587643 11.1322
files/tasks_parameters/ExAp01/sample45.txt 1.17536 3.94578 4.87833 0.541081 10.2501
files/tasks_parameters/ExAp01/sample26.txt 1.03607 3.50998 4.55035 0.474009 8.97955
files/tasks_parameters/ExAp01/sample5.txt 1.26871 4.00994 5.27725 0.587681 11.1329
files/tasks_parameters/ExAp01/sample21.txt 0.963715 2.8974 4.54677 0.430037 8.14655
files/tasks_parameters/ExAp01/sample38.txt 1.0737 3.56689 4.78573 0.492366 9.3273
files/tasks_parameters/ExAp01/sample1.txt 1.06675 3.69002 4.55048 0.481074 9.11338
files/tasks_parameters/ExAp01/sample15.txt 1.15066 3.73223 5.42493 0.524964 9.94483
files/tasks_parameters/ExAp01/sample24.txt 1.17869 4.18053 5.40377 0.542575 10.2785
files/tasks_parameters/ExAp01/sample3.txt 1.02174 3.70547 4.7118 0.470503 8.91313
files/tasks_parameters/ExAp01/sample6.txt 1.34463 4.07521 5.71419 0.626702 11.8721
files/tasks_parameters/ExAp01/sample30.txt 1.36183 3.97446 5.82388 0.626709 11.8723
files/tasks_parameters/ExAp01/sample42.txt 1.1839 4.44207 5.58473 0.537025 10.1733
files/tasks_parameters/ExAp01/sample4.txt 1.22182 3.92181 4.49751 0.556974 10.5512
files/tasks_parameters/ExAp01/sample28.txt 0.957731 3.13496 4.88321 0.444588 8.4222
files/tasks_parameters/ExAp01/sample18.txt 1.1756 3.95301 4.52898 0.537438 10.1811
files/tasks_parameters/ExAp01/sample35.txt 1.63825 5.75923 6.25034 0.752488 14.255
files/tasks_parameters/ExAp01/sample47.txt 1.17128 3.44018 5.14289 0.540033 10.2303
files/tasks_parameters/ExAp01/sample49.txt 1.09949 3.38981 4.72409 0.493041 9.34009
files/tasks_parameters/ExAp01/sample41.txt 1.05939 3.58692 5.27252 0.492391 9.32776
