files/tasks_parameters/ExAp01/sample8.txt 0.777477 3.15778 1.5595 0.203411 4.70008
files/tasks_parameters/ExAp01/sample12.txt 0.810258 3.94962 1.6705 0.207924 4.80435
files/tasks_parameters/ExAp01/sample2.txt 0.767597 3.78275 1.74131 0.200098 4.62352
files/tasks_parameters/ExAp01/sample44.txt 0.686719 3.59825 1.65317 0.200005 4.62138
files/tasks_parameters/ExAp01/sample27.txt 0.700731 3.45743 1.5148 0.182129 4.20832
files/tasks_parameters/ExAp01/sample17.txt 0.925109 2.77299 1.44514 0.14646 3.38415
files/tasks_parameters/ExAp01/sample9.txt 0.713853 2.99933 1.451 0.177444 4.10007
files/tasks_parameters/ExAp01/sample34.txt 0.831645 3.02928 1.58429 0.157984 3.65042
files/tasks_parameters/ExAp01/sample40.txt 0.764924 3.86889 1.52122 0.168379 3.89063
files/tasks_parameters/ExAp01/sample33.txt 0.802878 3.63695 1.71905 0.199765 4.61583
files/tasks_parameters/ExAp01/sample48.txt 0.682426 3.39061 1.49062 0.154728 3.5752
files/tasks_parameters/ExAp01/sample29.txt 0.776349 3.30472 1.38739 0.223868 5.17277
files/tasks_parameters/ExAp01/sample11.txt 0.707448 3.10585 1.41612 0.174079 4.02231
files/tasks_parameters/ExAp01/sample14.txt 0.667136 2.70971 1.43432 0.162214 3.74818
files/tasks_parameters/ExAp01/sample0.txt 0.744758 3.6937 1.5439 0.18367 4.24393
files/tasks_parameters/ExAp01/sample7.txt 0.809856 2.70501 1.42221 0.143463 3.31491
files/tasks_parameters/ExAp01/sample23.txt 0.760294 3.2697 1.57822 0.181448 4.1926
files/tasks_parameters/ExAp01/sample13.txt 0.730044 3.84225 1.67648 0.198247 4.58076
files/tasks_parameters/ExAp01/sample22.txt 0.901802 3.09569 1.56121 0.148796 3.43813
files/tasks_parameters/ExAp01/sample25.txt 0.746637 2.73966 1.5007 0.148149 3.42317
files/tasks_parameters/ExAp01/sample36.txt 0.837011 2.85948 1.28553 0.130042 3.0048
files/tasks_parameters/ExAp01/sample46.txt 0.763603 3.58643 1.69998 0.210103 4.8547
files/tasks_parameters/ExAp01/sample31.txt 0.706349 3.4832 1.53782 0.1722 3.9789
files/tasks_parameters/ExAp01/sample37.txt 0.773139 3.95293 1.50705 0.171701 3.96738
files/tasks_parameters/ExAp01/sample16.txt 0.609471 3.31216 1.30115 0.150249 3.4717
files/tasks_parameters/ExAp01/sample10.txt 1.10417 3.17098 1.61789 0.153776 3.55321
files/tasks_parameters/ExAp01/sample39.txt 0.70203 3.26617 1.44406 0.165669 3.82799
files/tasks_parameters/ExAp01/sample19.txt 0.771122 3.63532 1.52509 0.196094 4.53102
files/tasks_parameters/ExAp01/sample20.txt 0.662661 3.20793 1.25367 0.147335 3.40438
files/tasks_parameters/ExAp01/sample43.txt 0.646905 3.11551 1.4202 0.150644 3.48084
files/tasks_parameters/ExAp01/sample32.txt 0.722684 3.5311 1.42482 0.168744 3.89906
files/tasks_parameters/ExAp01/sample45.txt 0.759592 3.80283 1.48324 0.19807 4.57668
files/tasks_parameters/ExAp01/sample26.txt 0.635002 3.21645 1.29701 0.166061 3.83706
files/tasks_parameters/ExAp01/sample5.txt 0.631435 3.5889 1.52559 0.178903 4.1338
files/tasks_parameters/ExAp01/sample21.txt 0.661732 2.75242 1.55936 0.19512 4.50851
files/tasks_parameters/ExAp01/sample38.txt 0.676658 3.31563 1.37515 0.166157 3.83927
files/tasks_parameters/ExAp01/sample1.txt 0.70831 3.74964 1.51696 0.19701 4.55217
files/tasks_parameters/ExAp01/sample15.txt 0.693207 3.32916 1.48508 0.180707 4.17548
files/tasks_parameters/ExAp01/sample24.txt 0.861271 3.45951 1.59549 0.16529 3.81925
files/tasks_parameters/ExAp01/sample3.txt 0.876203 3.70014 1.70809 0.237107 5.47867
files/tasks_parameters/ExAp01/sample6.txt 0.730089 3.33003 1.58323 0.184714 4.26807
files/tasks_parameters/ExAp01/sample30.txt 0.923882 4.1841 1.4861 0.239623 5.53681
files/tasks_parameters/ExAp01/sample42.txt 0.747833 3.43221 1.70276 0.177383 4.09866
files/tasks_parameters/ExAp01/sample4.txt 0.784011 3.72477 1.6136 0.196448 4.53919
files/tasks_parameters/ExAp01/sample28.txt 0.689545 3.11323 1.45032 0.158819 3.66972
files/tasks_parameters/ExAp01/sample18.txt 0.769617 3.47418 1.45209 0.149064 3.44432
files/tasks_parameters/ExAp01/sample35.txt 0.803918 4.57086 1.49394 0.185031 4.27538
files/tasks_parameters/ExAp01/sample47.txt 0.71237 3.13768 1.52397 0.16417 3.79337
files/tasks_parameters/ExAp01/sample49.txt 0.776571 3.13288 1.49657 0.156154 3.60815
files/tasks_parameters/ExAp01/sample41.txt 0.761155 2.81964 1.49636 0.150876 3.48619
