0.4202054999999999
Task0 31 31 15 
Task1 31 63 1 
Task2 31 31 63 
Task3 3 31 15 
Task4 31 255 63 
Task5 31 15 63 
Task6 7 1 63 
Task7 31 63 1 
Task8 31 1 7 
Task9 63 63 127 
Task10 3 7 31 
Task11 15 31 63 
Task12 63 7 3 
Task13 1 63 1 
Task14 3 63 7 
Task15 31 63 15 
Task16 15 63 7 
Task17 63 31 3 
Task18 1 255 63 
Task19 7 31 31 
Task20 3 1 63 
Task21 15 63 15 
Task22 63 3 63 
Task23 3 127 31 
Task24 63 63 63 
Task25 3 63 3 
Task26 63 63 15 
Task27 3 7 63 
Task28 63 31 7 
Task29 31 31 7 
Task30 31 3 15 
Task31 31 1 63 
Task32 31 255 63 
Task33 63 15 1 
Task34 15 63 15 
Task35 31 15 3 
Task36 1 31 63 
Task37 127 255 31 
Task38 3 3 63 
Task39 63 15 31 
Task40 31 15 63 
Task41 3 63 3 
Task42 63 1 3 
Task43 63 63 255 
Task44 255 255 63 
Task45 63 31 7 
Task46 63 63 31 
Task47 63 255 255 
Task48 7 31 7 
Task49 31 31 15 
Task50 7 63 3 
Task51 15 255 31 
Task52 31 255 255 
Task53 63 7 31 
Task54 7 15 63 
Task55 15 31 7 
Task56 15 15 31 
Task57 63 3 15 
Task58 15 127 31 
Task59 1 15 63 
Task60 31 15 31 
Task61 63 31 1 
Task62 63 127 15 
Task63 63 31 31 
Task64 3 3 31 
Task65 31 1 3 
Task66 63 63 31 
Task67 63 1 31 
Task68 255 255 255 
Task69 31 31 15 
Task70 31 63 63 
Task71 255 255 31 
Task72 127 63 255 
Task73 255 3 1 
Task74 7 3 63 
Task75 255 127 3 
Task76 255 31 31 
Task77 7 63 7 
Task78 3 63 31 
Task79 63 63 31 
Task80 1 63 3 
Task81 31 31 255 
Task82 1 1 63 
Task83 31 63 63 
Task84 15 15 63 
Task85 15 127 31 
Task86 255 63 255 
Task87 31 63 63 
Task88 255 31 63 
Task89 127 63 15 
Task90 63 127 63 
Task91 1 15 63 
Task92 7 15 63 
Task93 255 127 31 
Task94 63 15 31 
Task95 255 255 127 
Task96 15 63 127 
Task97 63 15 31 
Task98 31 31 31 
Task99 31 31 15 
