files/tasks_parameters/ExAp01/sample8.txt 1.06281 6.77015 2.19458 0.288816 6.61061
files/tasks_parameters/ExAp01/sample12.txt 1.23893 9.58351 2.46081 0.337498 7.72487
files/tasks_parameters/ExAp01/sample2.txt 1.12816 8.44418 2.50701 0.319127 7.30438
files/tasks_parameters/ExAp01/sample44.txt 1.00221 6.96299 2.23089 0.28229 6.46124
files/tasks_parameters/ExAp01/sample27.txt 1.0488 7.74306 2.16676 0.28602 6.5466
files/tasks_parameters/ExAp01/sample17.txt 1.05151 7.35053 2.25579 0.292348 6.69143
files/tasks_parameters/ExAp01/sample9.txt 1.02014 6.89392 2.21068 0.282399 6.46372
files/tasks_parameters/ExAp01/sample34.txt 1.05452 6.62788 2.3772 0.297742 6.81489
files/tasks_parameters/ExAp01/sample40.txt 1.01103 7.75686 2.17534 0.285619 6.53743
files/tasks_parameters/ExAp01/sample33.txt 1.21113 8.14826 2.6463 0.338073 7.73803
files/tasks_parameters/ExAp01/sample48.txt 1.04272 7.64107 2.14272 0.270011 6.18018
files/tasks_parameters/ExAp01/sample29.txt 1.02484 7.139 1.93769 0.286306 6.55314
files/tasks_parameters/ExAp01/sample11.txt 0.962557 6.88688 2.12981 0.280008 6.40901
files/tasks_parameters/ExAp01/sample14.txt 0.87844 6.11983 1.97599 0.247458 5.66396
files/tasks_parameters/ExAp01/sample0.txt 1.06744 8.2738 2.14256 0.289132 6.61783
files/tasks_parameters/ExAp01/sample7.txt 1.00072 6.87011 2.05821 0.269886 6.17731
files/tasks_parameters/ExAp01/sample23.txt 1.07911 6.52032 2.38087 0.291712 6.67687
files/tasks_parameters/ExAp01/sample13.txt 1.07838 8.73247 2.33415 0.295393 6.76113
files/tasks_parameters/ExAp01/sample22.txt 1.03378 6.9777 2.28948 0.283979 6.49989
files/tasks_parameters/ExAp01/sample25.txt 0.972464 6.23444 2.2122 0.267298 6.11807
files/tasks_parameters/ExAp01/sample36.txt 0.909697 6.6174 1.9458 0.253823 5.80965
files/tasks_parameters/ExAp01/sample46.txt 1.24813 7.42369 2.49128 0.327273 7.49082
files/tasks_parameters/ExAp01/sample31.txt 0.934311 7.22028 2.13584 0.25377 5.80844
files/tasks_parameters/ExAp01/sample37.txt 1.09927 8.90704 2.16981 0.295708 6.76835
files/tasks_parameters/ExAp01/sample16.txt 0.911776 8.18243 1.88294 0.24945 5.70956
files/tasks_parameters/ExAp01/sample10.txt 1.1075 6.96646 2.31217 0.285748 6.54038
files/tasks_parameters/ExAp01/sample39.txt 0.938738 6.4161 1.97266 0.251967 5.76717
files/tasks_parameters/ExAp01/sample19.txt 1.155 8.16711 2.23199 0.308463 7.06029
files/tasks_parameters/ExAp01/sample20.txt 0.906692 7.28549 1.88944 0.25994 5.94966
files/tasks_parameters/ExAp01/sample43.txt 0.88955 6.86804 2.00142 0.25616 5.86315
files/tasks_parameters/ExAp01/sample32.txt 1.03432 8.15663 2.12995 0.281726 6.44833
files/tasks_parameters/ExAp01/sample45.txt 1.03873 7.75184 2.10599 0.274935 6.29288
files/tasks_parameters/ExAp01/sample26.txt 0.96303 7.4944 1.88956 0.267248 6.11694
files/tasks_parameters/ExAp01/sample5.txt 1.09316 8.08362 2.09961 0.28454 6.51273
files/tasks_parameters/ExAp01/sample21.txt 0.926217 6.11814 2.17119 0.26143 5.98376
files/tasks_parameters/ExAp01/sample38.txt 0.933779 7.761 1.96293 0.263659 6.03479
files/tasks_parameters/ExAp01/sample1.txt 1.04432 7.83752 2.13261 0.289228 6.62003
files/tasks_parameters/ExAp01/sample15.txt 1.00516 7.37971 2.12057 0.285825 6.54215
files/tasks_parameters/ExAp01/sample24.txt 1.08346 8.28531 2.25272 0.296628 6.78941
files/tasks_parameters/ExAp01/sample3.txt 1.11261 7.33359 2.39135 0.305084 6.98296
files/tasks_parameters/ExAp01/sample6.txt 1.00859 7.09894 2.24425 0.281804 6.45011
files/tasks_parameters/ExAp01/sample30.txt 1.12387 8.17669 2.03701 0.299204 6.84837
files/tasks_parameters/ExAp01/sample42.txt 1.09966 7.70416 2.42413 0.29743 6.80776
files/tasks_parameters/ExAp01/sample4.txt 1.16229 7.41691 2.36261 0.307803 7.04518
files/tasks_parameters/ExAp01/sample28.txt 0.973369 7.0562 2.07657 0.266428 6.09817
files/tasks_parameters/ExAp01/sample18.txt 0.976633 7.60139 2.1377 0.268016 6.13452
files/tasks_parameters/ExAp01/sample35.txt 1.16297 9.66795 2.28028 0.32244 7.3802
files/tasks_parameters/ExAp01/sample47.txt 0.907412 6.84842 2.12104 0.251655 5.76003
files/tasks_parameters/ExAp01/sample49.txt 0.936321 7.1497 2.11412 0.255889 5.85694
files/tasks_parameters/ExAp01/sample41.txt 0.924606 6.59911 2.07359 0.265885 6.08575
