files/tasks_parameters/ExAp01/sample8.txt 0.761405 3.15778 1.5595 0.203411 4.20048
files/tasks_parameters/ExAp01/sample12.txt 0.779508 3.94962 1.6705 0.207924 4.29366
files/tasks_parameters/ExAp01/sample2.txt 0.767022 3.78275 1.74131 0.200098 4.13205
files/tasks_parameters/ExAp01/sample44.txt 0.685554 3.59825 1.65317 0.200005 4.13014
files/tasks_parameters/ExAp01/sample27.txt 0.722955 3.45743 1.5148 0.182129 3.76099
files/tasks_parameters/ExAp01/sample17.txt 0.588675 2.77299 1.44514 0.14646 3.02442
files/tasks_parameters/ExAp01/sample9.txt 0.641974 2.99933 1.451 0.177444 3.66424
files/tasks_parameters/ExAp01/sample34.txt 0.580387 3.02928 1.58429 0.157984 3.26239
files/tasks_parameters/ExAp01/sample40.txt 0.622037 3.86889 1.52122 0.168379 3.47706
files/tasks_parameters/ExAp01/sample33.txt 0.812776 3.63695 1.71905 0.199765 4.12518
files/tasks_parameters/ExAp01/sample48.txt 0.614143 3.39061 1.49062 0.154728 3.19517
files/tasks_parameters/ExAp01/sample29.txt 0.713404 3.30472 1.38739 0.223868 4.62292
files/tasks_parameters/ExAp01/sample11.txt 0.665956 3.10585 1.41612 0.174079 3.59475
files/tasks_parameters/ExAp01/sample14.txt 0.663147 2.70971 1.43432 0.162214 3.34976
files/tasks_parameters/ExAp01/sample0.txt 0.718296 3.6937 1.5439 0.18367 3.79281
files/tasks_parameters/ExAp01/sample7.txt 0.566183 2.70501 1.42221 0.143463 2.96255
files/tasks_parameters/ExAp01/sample23.txt 0.669476 3.2697 1.57822 0.181448 3.74694
files/tasks_parameters/ExAp01/sample13.txt 0.724878 3.84225 1.67648 0.198247 4.09384
files/tasks_parameters/ExAp01/sample22.txt 0.591283 3.09569 1.56121 0.148796 3.07267
files/tasks_parameters/ExAp01/sample25.txt 0.583819 2.73966 1.5007 0.148149 3.0593
files/tasks_parameters/ExAp01/sample36.txt 0.522654 2.85948 1.28553 0.130042 2.6854
files/tasks_parameters/ExAp01/sample46.txt 0.765305 3.58643 1.69998 0.210103 4.33866
files/tasks_parameters/ExAp01/sample31.txt 0.69029 3.4832 1.53782 0.1722 3.55596
files/tasks_parameters/ExAp01/sample37.txt 0.686004 3.95293 1.50705 0.171701 3.54566
files/tasks_parameters/ExAp01/sample16.txt 0.597706 3.31216 1.30115 0.150249 3.10267
files/tasks_parameters/ExAp01/sample10.txt 0.61488 3.17098 1.61789 0.153776 3.17551
files/tasks_parameters/ExAp01/sample39.txt 0.705175 3.26617 1.44406 0.165669 3.42109
files/tasks_parameters/ExAp01/sample19.txt 0.703859 3.63532 1.52509 0.196094 4.04939
files/tasks_parameters/ExAp01/sample20.txt 0.575128 3.20793 1.25367 0.147335 3.0425
files/tasks_parameters/ExAp01/sample43.txt 0.577327 3.11551 1.4202 0.150644 3.11084
files/tasks_parameters/ExAp01/sample32.txt 0.625221 3.5311 1.42482 0.168744 3.4846
files/tasks_parameters/ExAp01/sample45.txt 0.741955 3.80283 1.48324 0.19807 4.09019
files/tasks_parameters/ExAp01/sample26.txt 0.607624 3.21645 1.29701 0.166061 3.42919
files/tasks_parameters/ExAp01/sample5.txt 0.653915 3.5889 1.52559 0.178903 3.69439
files/tasks_parameters/ExAp01/sample21.txt 0.65856 2.75242 1.55936 0.19512 4.02927
files/tasks_parameters/ExAp01/sample38.txt 0.644167 3.31563 1.37515 0.166157 3.43117
files/tasks_parameters/ExAp01/sample1.txt 0.727414 3.74964 1.51696 0.19701 4.06829
files/tasks_parameters/ExAp01/sample15.txt 0.66868 3.32916 1.48508 0.180707 3.73164
files/tasks_parameters/ExAp01/sample24.txt 0.620386 3.45951 1.59549 0.16529 3.41328
files/tasks_parameters/ExAp01/sample3.txt 0.88245 3.70014 1.70809 0.237107 4.8963
files/tasks_parameters/ExAp01/sample6.txt 0.695989 3.33003 1.58323 0.184714 3.81439
files/tasks_parameters/ExAp01/sample30.txt 0.790987 4.1841 1.4861 0.239623 4.94826
files/tasks_parameters/ExAp01/sample42.txt 0.689745 3.43221 1.70276 0.177383 3.66299
files/tasks_parameters/ExAp01/sample4.txt 0.746638 3.72477 1.6136 0.196448 4.05669
files/tasks_parameters/ExAp01/sample28.txt 0.601096 3.11323 1.45032 0.158819 3.27964
files/tasks_parameters/ExAp01/sample18.txt 0.581518 3.47418 1.45209 0.149064 3.07819
files/tasks_parameters/ExAp01/sample35.txt 0.707366 4.57086 1.49394 0.185031 3.82092
files/tasks_parameters/ExAp01/sample47.txt 0.642481 3.13768 1.52397 0.16417 3.39014
files/tasks_parameters/ExAp01/sample49.txt 0.596831 3.13288 1.49657 0.156154 3.22461
files/tasks_parameters/ExAp01/sample41.txt 0.563961 2.81964 1.49636 0.150876 3.11561
