Task0 0.06387055880596151 0.06996952468289976 0.18359619150442127 0.02328003531748658 0.8214684083624386 0.6031398394222423 0.8134587979013155 
Task1 0.07030200057279412 0.285908483545182 0.15207543464370776 0.2507209482568496 0.5648878113405499 0.8858551605601306 0.7946323523800898 
Task2 0.005637118682943532 0.013981687051555546 0.006075689924256941 0.012398915793568235 0.5286033817933099 0.37877592898258805 0.7837928883469344 
Task3 0.037540520258142175 0.15034145503052512 0.0038192723073229777 0.14784332694425498 0.7861758453440528 0.5624563688036582 0.7825329560096561 
Task4 0.042392462335070165 0.12511798351451267 0.1133979204591555 0.14181719926207434 0.49124424424108715 0.8952733591290509 0.40191149499252876 
Task5 0.03562149136360821 0.2829922284767317 0.2042832210043375 0.29298825547555607 0.7924297792852688 0.5384091694387497 0.8556482882048431 
Task6 0.014101078550363305 0.2945084622216224 0.060656546097965516 0.3293632540661811 0.7930493403077022 0.7175419491390145 0.6417821604283747 
Task7 0.021829625826036952 0.0807910658543282 0.08898242318050649 0.28331479550845134 0.4603408054128941 0.8190740427718626 0.30662133113261325 
Task8 0.008817328794102436 0.3578841530608464 0.15270364957355514 0.2038412343974594 0.8389771792164982 0.5784503523658118 0.4837876210596196 
Task9 0.0034183521557736058 7.190947783868857e-05 0.0005590252307230877 0.01636822570366368 0.6231707416982786 0.46069571182618085 0.8494733988284744 
Task10 0.07854137664544487 0.015857493902957185 0.08943756987775874 0.602391401396746 0.35684909241169316 0.9890213396490801 0.431288457480418 
Task11 0.12272181595550705 0.2719308774461171 0.1076507252774391 0.2763046284349997 0.9551643013806601 0.8266062453109222 0.909638026031186 
Task12 0.0026409370314649126 0.051206582679457956 0.09543605526399462 0.07447169934418366 0.42972881668807983 0.5247419801958771 0.7422782079418895 
Task13 0.0376776820238229 0.4261672935417814 0.005177759161366993 0.16008596551065937 0.9333141266359757 0.7301536161730737 0.9444115622414126 
Task14 0.043981202382616214 0.04546905892658813 0.28453690152636 0.3480496379616691 0.5445265914672626 0.5386941710596964 0.3929645564648708 
Task15 0.004246425634053549 0.046675353776474034 0.11347491442054929 0.15289560516430062 0.7567711292827248 0.8485652528844732 0.8682118169889823 
Task16 0.06081868008350551 0.05293858244996817 0.21139415581132778 0.15242016915208315 0.6673758431378712 0.6317695019692777 0.689885401388429 
Task17 0.027523089648915155 0.05549567194720554 0.32424337350970744 0.12546702543200577 0.34326637013543126 0.46424047530471707 0.8246203282360671 
Task18 0.09404731156035541 0.13702028092882088 0.1846566962125168 0.13186243839303105 0.39928514936992976 0.4250651710152372 0.8037796719070931 
Task19 0.05193430317957827 0.11941777276045111 0.10397608328496488 0.07302497025269067 0.9755665919407208 0.3386835543854031 0.7796843329492857 
Task20 0.16321190597282204 0.2852108645022369 0.2739683702679906 0.18548141402222265 0.5394535309068939 0.93351032446702 0.971470441041193 
Task21 0.0019038801797419923 0.05607627611828733 0.4145817009941304 0.1582001328492978 0.43277787244370425 0.4855319167179152 0.5521521970664925 
Task22 5.535270507822066e-05 9.810236426563354e-05 0.00013723766093199334 0.00010793649426441137 0.52481010191063 0.5982794807626963 0.8557424795547677 
Task23 0.08606016347984344 0.3099241062414074 0.045147070532860094 0.22833092638200944 0.5848382399724131 0.5517403234979905 0.34456813573305356 
Task24 0.048274325082501554 0.09633197964746759 0.330491018405298 0.1677295938282075 0.4003316321473085 0.44945693775333273 0.685656907835126 
Task25 0.16514097881204726 0.21213228254223188 0.32368026107277675 0.1508764961024331 0.9186830886658375 0.8706424150986998 0.7676368093824655 
Task26 0.10161157384791339 0.18182659091404224 0.36241109259926163 0.23030306650438426 0.4247820814366223 0.5615751027889959 0.7003165807792293 
Task27 0.07071012505080619 0.2876080532937909 0.38741521352247166 0.20074290590329513 0.3796421663016379 0.5893854475499508 0.5149485787090218 
Task28 0.010819974726217816 0.03464588606409177 0.02219053336841691 0.03885805026081833 0.7290246900099635 0.6798566549292808 0.7769153669801242 
Task29 0.08372877567448467 0.13773984715107865 0.10344872378758284 0.11459088927545255 0.3634330040121385 0.9303509652470148 0.4749068624934645 
Task30 0.016980839688346374 0.31651171311383647 0.05150804680832236 0.4107660709209128 0.7608962202377836 0.67737244172884 0.4221361254634404 
Task31 0.01735852119556365 0.09084068818132894 0.14478311391640125 0.1263274274652705 0.5338278642138315 0.5953298623512095 0.638961603157923 
Task32 0.14468481928003862 0.2009926327311969 0.20068801064953953 0.30543041839500684 0.6504332157091659 0.48627815294680377 0.4581302935911052 
Task33 0.07030443808493803 0.1400764601152645 0.16083898725170193 0.020006324889464407 0.44167780403277934 0.3326387726271426 0.723051608655695 
Task34 0.03676285512123802 0.16426981120613834 0.1345130912295982 0.11258651826552935 0.4920223448895612 0.750058065278333 0.3875758441998906 
Task35 0.03240722101080742 0.019591602232369405 0.0901223101873857 0.030801838626440953 0.8345907533056942 0.6018722484391735 0.8758634193281258 
Task36 0.0747069638484669 0.018204097137209725 0.22539152238931706 0.23548086325684459 0.6237585018709051 0.6312693023944024 0.6170513728850606 
Task37 0.05283534224806561 0.2386143846765676 0.08536818808098251 0.2462175838864033 0.38971185879130255 0.7868917605180845 0.39510256042765424 
Task38 0.06921830475018488 0.12275638298947229 0.5453035566842542 0.056227916478568576 0.49706067623331507 0.6356047018222735 0.6800527659230298 
Task39 0.0004719643032258517 0.07522437742290783 0.04278585338455765 0.03684878664516149 0.7789334578216247 0.6036671598985558 0.34865729685197777 
Task40 0.12184140200364156 0.22229786334958768 0.22319040683634075 0.1709535845156797 0.6196436049484131 0.6962453927544089 0.7935810898209265 
Task41 0.06696798277957955 0.019795543937951708 0.34928281653664517 0.38460212415497697 0.40588349475028207 0.8415587740641144 0.580039213822173 
Task42 0.09363664597929253 0.16185307613925035 0.49079527679693735 0.22122560390488685 0.513818078103173 0.8489586962222693 0.8237269629336235 
Task43 0.004855624522606823 0.17355716735505633 0.005951941586128361 0.11627640389757295 0.7557238847885612 0.9193495166062964 0.40844296566451643 
Task44 0.036612544950627705 0.28290528727054953 0.29720734051670933 0.2943125548874922 0.7956100563903209 0.7848285076034278 0.7799544072107294 
Task45 0.01224440588563598 0.05367263902101201 0.019485535597579356 0.04597243399053961 0.602969433670683 0.4334711105812894 0.8053296365091227 
Task46 0.0010064594818093545 0.01027603689028689 0.02109152808677638 3.6444337136782104e-06 0.45428761248848437 0.45669266867837643 0.7294296100875421 
Task47 0.12152218851405358 0.09963768947292341 0.22928262120309528 0.3687382493373235 0.45932326262886336 0.9921022327938172 0.8805004547480328 
Task48 0.11750961980132123 0.39779390734014297 0.05896582983676066 0.14876128076948916 0.4891726618101365 0.6142079883606395 0.5217211502192844 
Task49 0.018836846116929453 0.06840828480300415 0.057266334658348905 0.07624077132610929 0.8831075736828331 0.806206777454944 0.30992275298917593 
Task50 0.020732765357974248 0.10864610388522293 0.13938314847000877 0.20134814943250248 0.8077362144087168 0.7514966865172954 0.35175783578217035 
Task51 0.1611313397135919 0.27529893635971975 0.07550590579522631 0.407549383065509 0.7322986090655725 0.7695217273117541 0.9107449505573553 
Task52 0.05606131558035418 0.17001463298946584 0.23784261455107927 0.07527222028766607 0.5332448745439431 0.45595993627944875 0.9563570018380749 
Task53 0.035771446148218734 0.23815531626204697 0.2381191859289041 0.11600233848278006 0.4447353761196443 0.4836288254044967 0.3119123340330081 
Task54 0.023231262765915275 0.11260481116391305 0.024909571524743886 0.06587787014211281 0.5444889700116621 0.34870923603510795 0.7369672486509696 
Task55 0.000511270003717449 0.007377431380060984 0.0005049357486405209 0.013548599090284235 0.4211151799324897 0.3153422955876912 0.37499644532111676 
Task56 0.0031424148470390947 0.007803620263757913 0.005775415526264643 0.011134805289549247 0.8302788476609422 0.6182481461998186 0.6916501239252384 
Task57 0.11637536488135333 0.15748034454426174 0.15250048479498407 0.2706039045030037 0.6582172065876686 0.83501725370202 0.7491357462598791 
Task58 0.12755514315659497 0.06681849548988684 0.23569238196659098 0.25745335071296677 0.6834914609666025 0.40426205294754347 0.7065143889956005 
Task59 0.1453948022077198 0.2851494490580588 0.2064396870146358 0.3480436428925331 0.6971268645633937 0.42101340457028336 0.9020790672728165 
Task60 0.11781369906894792 0.13363786608899547 0.29945058888743664 0.12484069026091647 0.9238880572575834 0.3654857455840589 0.5551135593825443 
Task61 0.012693373775307026 0.015153187425324517 0.009960161667805454 0.03384461992196665 0.6380249114685417 0.6006257843941767 0.4864842432626896 
Task62 0.04758126260219744 0.09059880084914447 0.3134988437107087 0.31449040713518933 0.3699412108960414 0.6643062613334483 0.727716569648698 
Task63 0.01727984594205545 0.0740953674594352 0.0024012569596185028 0.06994090868524072 0.8465225476456433 0.5308747242566908 0.3517904262914068 
Task64 0.031892685854495645 0.14439016437230395 0.10761623707783138 0.13966654329571823 0.60395513868963 0.37703414414804204 0.837895834796772 
Task65 0.06745724382642823 0.6932869435534098 0.1484612966962576 0.06395791420234317 0.8699613110717062 0.8618309720653166 0.3035908991100792 
Task66 0.06725879932556969 0.06080489750324151 0.21585875428015958 0.17122767068966877 0.5168869111507526 0.48319186700313976 0.35291871859392615 
Task67 0.02430914225536828 0.05325685394825047 0.026410137016258876 0.057460547206701795 0.450136724982838 0.3345598643610867 0.6442987728827847 
Task68 0.05204760055947262 0.15170801452502783 0.08615650309855127 0.10062030670368384 0.5484324462966145 0.45984998510595815 0.931149082806501 
Task69 0.007741532022862875 0.0440504334814025 0.027588340949900717 0.022387168554419756 0.6298842178906054 0.43935865324041484 0.7508342069440765 
Task70 0.040899222912852924 0.18491739073423183 0.1887926754078718 0.4594780654016532 0.6643158550607788 0.9456010415735767 0.6833933142125024 
Task71 0.06920577152065761 0.1029680384970389 0.18136342866680405 0.032366420966788975 0.7508876111878008 0.3227005697480405 0.6324153124134463 
Task72 0.0464745469336185 0.33120357092332214 0.49294925653764426 0.1291129313007733 0.9476693233033722 0.5669618698525151 0.4937819430998277 
Task73 0.14078086337152526 0.2545668902096505 0.2441885838827308 0.13316270642378236 0.6699683362463001 0.4167989851409116 0.6173751918101237 
Task74 0.04197786994236073 0.20632138858390756 0.13857311890348104 0.0227144292417935 0.32044327347088697 0.7341772060039936 0.4593516245017651 
Task75 0.00279882422459621 0.036192403349192694 0.12934451238244654 0.17692421742499254 0.8915593121514656 0.33819501586859935 0.5148389233553867 
Task76 0.0003590630049017097 0.00019114629059944216 0.001669859998228429 0.005920003485208554 0.39786026259455176 0.933959273698654 0.867115473509076 
Task77 0.0017293143124945218 0.0030246082022747896 0.0030711130574379106 0.002669418618944248 0.9338077750447289 0.6636718978927233 0.41949651449714936 
Task78 0.11085272250358508 0.13423866816871524 0.07871026709707152 0.3190065913761746 0.7921357730787433 0.39447250977801374 0.8938792291722772 
Task79 0.021882840257462666 0.047157682661549016 0.19921880960791993 0.0030682584187219516 0.3501003986929427 0.6990132455829094 0.4573629874419395 
Task80 0.03025702108661285 0.17864379794398433 0.04621510714137682 0.042279522665637205 0.7562785115929642 0.7352936249925623 0.5267923788590173 
Task81 0.018362445574184746 0.34585102304073845 0.27721945571684975 0.247961074211796 0.7887053990980645 0.3767397289403346 0.951640920073751 
Task82 0.040001823326727415 0.0015636941423606845 0.1907437266088447 0.027033497267288483 0.7913953029628651 0.569122706281129 0.6828578043235034 
Task83 0.0021393463603489346 0.030329918621190926 0.01587283507598727 0.008513593072350464 0.6738444892190885 0.9234647366866882 0.5961197274330312 
Task84 0.09533341027978766 0.2896505497130858 0.11963925484951894 0.2658014616764552 0.7503731023336357 0.669991930298844 0.6083850972727134 
Task85 0.01582851156294811 0.03285767636598002 0.02342370016295286 0.03381683808193617 0.887184210592669 0.43513848436720626 0.7043702248151833 
Task86 0.009728042078104482 0.03795563989651145 0.20706772015186223 0.2426825499955245 0.9756744888762456 0.6834817165283249 0.7370301177148594 
Task87 0.07821656672257085 0.17460290752921054 0.17996453608391033 0.022473975720247882 0.7468900453908154 0.6964025213494132 0.5786336303091795 
Task88 0.002145091648451543 0.11439920111627865 0.2589921274612912 0.4495011719824178 0.8197448748180787 0.8394452257735388 0.6900795820661624 
Task89 0.0669170944545355 0.06081922590186051 0.12426120178421428 0.11408023593769562 0.9880747906583933 0.9692210398375951 0.8412535979434561 
Task90 0.11441693254337834 0.1559603460109739 0.1727024700988288 0.16095867968289918 0.5532744233937658 0.7393100210160157 0.8676257107176069 
Task91 0.051280132782251776 0.2904007249034454 0.30489267360186295 0.1442817501448354 0.9686744597333266 0.7785287106893213 0.6283424673570868 
Task92 0.02930613457513773 0.023920284755204455 0.4356660911297016 0.17960027208270782 0.6217640731122627 0.9550773961217625 0.8585504932836814 
Task93 0.03718840630187104 0.027386789435310734 0.16158222403483385 0.1627822647726553 0.3191104129799838 0.9611226515046953 0.3562328817410777 
Task94 0.06617299804197162 0.13389570327796302 0.02971506410981085 0.18531554142075513 0.573787426623946 0.9928805954198738 0.8790886659863886 
Task95 0.06709614512384224 0.4096944564718997 0.1222084808914764 0.25804696871133326 0.5808430404927079 0.3129048960923212 0.8809894404590535 
Task96 0.02413130805865158 0.1111692480650418 0.2160952412215536 0.5268715873565952 0.6103467768519967 0.7832536893161336 0.9441887564047395 
Task97 0.03992635557783389 0.06644825319719663 0.04404259283981059 0.18165451400742766 0.6681069325782962 0.3145647175716067 0.9870029874053301 
Task98 0.04026024658666543 0.08681408204025053 0.07967710197947313 0.31289107983361397 0.717582826432341 0.5822228286275243 0.6462092530429271 
Task99 0.014184588762515722 0.010633561508276716 0.09468646918882682 0.05414338577457415 0.828203836159427 0.8254905720148422 0.7555752377608924 
