0.357806737
Task0 63 15 63 
Task1 63 7 31 
Task2 31 63 7 
Task3 15 31 63 
Task4 255 255 255 
Task5 127 15 63 
Task6 15 63 3 
Task7 63 3 1 
Task8 255 255 31 
Task9 63 15 7 
Task10 31 7 1 
Task11 15 63 7 
Task12 63 15 7 
Task13 7 63 15 
Task14 63 127 31 
Task15 1 7 63 
Task16 7 15 63 
Task17 3 63 7 
Task18 3 63 15 
Task19 1 63 15 
Task20 255 255 127 
Task21 1 31 3 
Task22 255 3 63 
Task23 3 7 63 
Task24 7 63 7 
Task25 31 15 15 
Task26 63 31 63 
Task27 15 63 1 
Task28 31 15 15 
Task29 1 3 63 
Task30 63 31 31 
Task31 63 3 1 
Task32 3 15 31 
Task33 63 255 127 
Task34 63 15 3 
Task35 127 1 255 
Task36 3 3 63 
Task37 31 15 63 
Task38 63 3 1 
Task39 255 255 255 
Task40 1 63 3 
Task41 63 1 3 
Task42 63 63 127 
Task43 63 127 255 
Task44 7 3 63 
Task45 63 31 15 
Task46 63 1 7 
Task47 63 63 63 
Task48 255 255 127 
Task49 7 127 127 
Task50 3 7 31 
Task51 15 31 63 
Task52 15 3 63 
Task53 1 31 1 
Task54 127 31 31 
Task55 31 63 63 
Task56 63 127 15 
Task57 63 127 31 
Task58 31 63 63 
Task59 3 255 31 
Task60 63 31 15 
Task61 31 63 3 
Task62 63 3 63 
Task63 15 63 15 
Task64 3 127 31 
Task65 31 31 7 
Task66 63 15 15 
Task67 31 7 15 
Task68 1 63 3 
Task69 15 63 7 
Task70 15 15 63 
Task71 7 63 3 
Task72 63 31 1 
Task73 7 31 3 
Task74 31 15 63 
Task75 63 7 3 
Task76 15 63 7 
Task77 63 31 15 
Task78 31 63 127 
Task79 31 7 63 
Task80 3 31 15 
Task81 127 31 63 
Task82 7 3 31 
Task83 1 31 3 
Task84 3 3 31 
Task85 15 127 63 
Task86 63 31 63 
Task87 15 31 15 
Task88 7 63 31 
Task89 255 255 127 
Task90 63 63 7 
Task91 15 63 15 
Task92 63 1 15 
Task93 31 15 3 
Task94 63 1 7 
Task95 255 31 127 
Task96 31 127 31 
Task97 127 31 63 
Task98 63 63 15 
Task99 31 1 63 
