0.29291955
Task0 1 3 31 
Task1 3 31 7 
Task2 255 15 3 
Task3 7 1 7 
Task4 15 3 15 
Task5 3 7 7 
Task6 7 63 31 
Task7 31 63 63 
Task8 127 15 15 
Task9 3 1 15 
Task10 15 63 31 
Task11 1 3 31 
Task12 15 63 15 
Task13 7 63 31 
Task14 7 15 1 
Task15 1 3 15 
Task16 15 1 15 
Task17 63 15 127 
Task18 255 31 7 
Task19 15 3 63 
Task20 15 15 63 
Task21 63 3 15 
Task22 7 31 31 
Task23 31 1 31 
Task24 31 255 255 
Task25 7 63 31 
Task26 31 15 15 
Task27 7 15 3 
Task28 15 1 15 
Task29 63 1 15 
Task30 7 7 15 
Task31 7 7 15 
Task32 7 7 15 
Task33 63 3 7 
Task34 255 31 7 
Task35 7 3 7 
Task36 63 63 255 
Task37 3 7 15 
Task38 3 255 31 
Task39 63 7 3 
Task40 31 15 31 
Task41 15 15 15 
Task42 31 255 127 
Task43 31 7 15 
Task44 31 63 31 
Task45 63 3 255 
Task46 63 1 15 
Task47 15 31 1 
Task48 31 31 15 
Task49 1 31 7 
Task50 63 1 63 
Task51 15 15 3 
Task52 7 31 63 
Task53 3 31 7 
Task54 255 255 31 
Task55 31 15 127 
Task56 7 3 15 
Task57 31 15 15 
Task58 255 255 255 
Task59 7 7 15 
Task60 63 7 3 
Task61 3 15 15 
Task62 31 15 7 
Task63 1 31 15 
Task64 3 1 31 
Task65 63 31 15 
Task66 7 3 7 
Task67 127 63 63 
Task68 31 15 3 
Task69 15 3 31 
Task70 7 7 1 
Task71 31 31 127 
Task72 3 7 3 
Task73 1 3 15 
Task74 7 31 1 
Task75 15 3 15 
Task76 15 7 15 
Task77 1 63 3 
Task78 31 15 15 
Task79 31 3 31 
Task80 7 3 31 
Task81 63 1 31 
Task82 31 63 63 
Task83 127 15 127 
Task84 15 7 3 
Task85 255 255 31 
Task86 255 31 63 
Task87 3 127 127 
Task88 15 1 1 
Task89 1 63 255 
Task90 15 31 63 
Task91 63 15 63 
Task92 31 7 1 
Task93 63 1 31 
Task94 15 1 63 
Task95 63 127 15 
Task96 63 1 15 
Task97 15 15 15 
Task98 15 3 7 
Task99 63 63 1 
