files/tasks_parameters/ExAp01/sample8.txt 1.11762 7.2562 4.46819 0.454772 10.1192
files/tasks_parameters/ExAp01/sample12.txt 1.64043 9.70908 5.28286 0.618515 13.7626
files/tasks_parameters/ExAp01/sample2.txt 1.52658 8.14159 5.7401 0.620531 13.8075
files/tasks_parameters/ExAp01/sample44.txt 1.39804 7.25164 5.75904 0.557631 12.4079
files/tasks_parameters/ExAp01/sample27.txt 1.3183 8.10944 5.64946 0.564878 12.5692
files/tasks_parameters/ExAp01/sample17.txt 1.26953 7.11225 5.46658 0.527183 11.7304
files/tasks_parameters/ExAp01/sample9.txt 1.21393 7.62559 5.37813 0.517277 11.51
files/tasks_parameters/ExAp01/sample34.txt 1.2448 7.04587 5.93037 0.497709 11.0746
files/tasks_parameters/ExAp01/sample40.txt 1.22744 8.03037 5.123 0.502383 11.1786
files/tasks_parameters/ExAp01/sample33.txt 1.63735 9.22935 5.92956 0.659262 14.6693
files/tasks_parameters/ExAp01/sample48.txt 1.15839 8.12182 5.1577 0.452491 10.0684
files/tasks_parameters/ExAp01/sample29.txt 1.55476 8.06133 5.12331 0.650652 14.4777
files/tasks_parameters/ExAp01/sample11.txt 1.35889 7.63104 5.37897 0.563302 12.5341
files/tasks_parameters/ExAp01/sample14.txt 1.13168 6.66403 4.66322 0.471536 10.4922
files/tasks_parameters/ExAp01/sample0.txt 1.64519 9.3266 4.98971 0.6311 14.0427
files/tasks_parameters/ExAp01/sample7.txt 1.30127 7.34863 5.19436 0.515527 11.471
files/tasks_parameters/ExAp01/sample23.txt 1.4053 6.68564 5.54308 0.588617 13.0974
files/tasks_parameters/ExAp01/sample13.txt 1.65195 9.31093 5.35591 0.632849 14.0816
files/tasks_parameters/ExAp01/sample22.txt 1.29523 7.65588 5.04866 0.540336 12.0231
files/tasks_parameters/ExAp01/sample25.txt 1.0295 6.17035 5.0141 0.408296 9.08502
files/tasks_parameters/ExAp01/sample36.txt 1.19007 7.03772 4.66274 0.507647 11.2957
files/tasks_parameters/ExAp01/sample46.txt 1.35236 7.73433 4.79934 0.536843 11.9453
files/tasks_parameters/ExAp01/sample31.txt 1.19045 6.96928 5.16482 0.485817 10.81
files/tasks_parameters/ExAp01/sample37.txt 1.63274 9.52443 5.74224 0.65799 14.641
files/tasks_parameters/ExAp01/sample16.txt 1.43884 8.63521 4.97261 0.516328 11.4888
files/tasks_parameters/ExAp01/sample10.txt 1.39877 7.28353 6.16876 0.615651 13.6989
files/tasks_parameters/ExAp01/sample39.txt 1.14417 6.3405 4.6137 0.468873 10.4329
files/tasks_parameters/ExAp01/sample19.txt 1.63011 8.85528 5.22306 0.622152 13.8436
files/tasks_parameters/ExAp01/sample20.txt 1.39419 8.1141 5.21177 0.586994 13.0612
files/tasks_parameters/ExAp01/sample43.txt 1.30697 7.21373 5.6367 0.53748 11.9595
files/tasks_parameters/ExAp01/sample32.txt 1.60321 8.30592 5.38137 0.593918 13.2153
files/tasks_parameters/ExAp01/sample45.txt 1.42252 7.94069 4.96323 0.547271 12.1774
files/tasks_parameters/ExAp01/sample26.txt 1.12662 7.57061 4.62637 0.480146 10.6838
files/tasks_parameters/ExAp01/sample5.txt 1.49363 8.0307 5.35681 0.59407 13.2187
files/tasks_parameters/ExAp01/sample21.txt 1.02755 5.87802 4.61744 0.434264 9.66285
files/tasks_parameters/ExAp01/sample38.txt 1.18492 7.66999 4.86632 0.496808 11.0545
files/tasks_parameters/ExAp01/sample1.txt 1.18368 7.21312 4.63213 0.486293 10.8206
files/tasks_parameters/ExAp01/sample15.txt 1.28125 8.02273 5.50855 0.531063 11.8167
files/tasks_parameters/ExAp01/sample24.txt 1.38797 8.66348 5.4905 0.548998 12.2158
files/tasks_parameters/ExAp01/sample3.txt 1.18752 7.74268 4.79918 0.477387 10.6224
files/tasks_parameters/ExAp01/sample6.txt 1.50521 8.57133 5.80157 0.633604 14.0984
files/tasks_parameters/ExAp01/sample30.txt 1.64691 8.18878 5.90888 0.633576 14.0978
files/tasks_parameters/ExAp01/sample42.txt 1.30673 8.57689 5.67253 0.54426 12.1104
files/tasks_parameters/ExAp01/sample4.txt 1.34993 8.40354 4.57985 0.563519 12.5389
files/tasks_parameters/ExAp01/sample28.txt 1.0744 6.44114 4.96426 0.449721 10.0068
files/tasks_parameters/ExAp01/sample18.txt 1.32774 8.56363 4.60946 0.543766 12.0994
files/tasks_parameters/ExAp01/sample35.txt 1.98239 11.0387 6.34514 0.761377 16.9415
files/tasks_parameters/ExAp01/sample47.txt 1.32345 7.14493 5.22131 0.545046 12.1279
files/tasks_parameters/ExAp01/sample49.txt 1.32698 6.65996 4.80244 0.498533 11.0929
files/tasks_parameters/ExAp01/sample41.txt 1.18983 7.09069 5.35462 0.497129 11.0617
