files/tasks_parameters/ExAp01/sample8.txt 3.87138 6.77015 2.19458 0.288816 6.41572
files/tasks_parameters/ExAp01/sample12.txt 4.55033 9.58351 2.46081 0.337498 7.49713
files/tasks_parameters/ExAp01/sample2.txt 4.22763 8.44418 2.50701 0.319127 7.08904
files/tasks_parameters/ExAp01/sample44.txt 3.79824 6.96299 2.23089 0.28229 6.27075
files/tasks_parameters/ExAp01/sample27.txt 3.86683 7.74306 2.16676 0.28602 6.3536
files/tasks_parameters/ExAp01/sample17.txt 3.91721 7.35053 2.25579 0.292348 6.49416
files/tasks_parameters/ExAp01/sample9.txt 3.76447 6.89392 2.21068 0.282399 6.27316
files/tasks_parameters/ExAp01/sample34.txt 3.92372 6.62788 2.3772 0.297742 6.61398
files/tasks_parameters/ExAp01/sample40.txt 3.86427 7.75686 2.17534 0.285619 6.3447
files/tasks_parameters/ExAp01/sample33.txt 4.39408 8.14826 2.6463 0.338073 7.5099
files/tasks_parameters/ExAp01/sample48.txt 3.60601 7.64107 2.14272 0.270011 5.99798
files/tasks_parameters/ExAp01/sample29.txt 3.37987 7.139 1.93769 0.286306 6.35995
files/tasks_parameters/ExAp01/sample11.txt 3.66806 6.88688 2.12981 0.280008 6.22006
files/tasks_parameters/ExAp01/sample14.txt 3.35677 6.11983 1.97599 0.247458 5.49698
files/tasks_parameters/ExAp01/sample0.txt 3.80352 8.2738 2.14256 0.289132 6.42272
files/tasks_parameters/ExAp01/sample7.txt 3.61076 6.87011 2.05821 0.269886 5.99519
files/tasks_parameters/ExAp01/sample23.txt 3.87802 6.52032 2.38087 0.291712 6.48003
files/tasks_parameters/ExAp01/sample13.txt 3.87027 8.73247 2.33415 0.295393 6.5618
files/tasks_parameters/ExAp01/sample22.txt 3.78934 6.9777 2.28948 0.283979 6.30827
files/tasks_parameters/ExAp01/sample25.txt 3.62427 6.23444 2.2122 0.267298 5.93771
files/tasks_parameters/ExAp01/sample36.txt 3.37882 6.6174 1.9458 0.253823 5.63837
files/tasks_parameters/ExAp01/sample46.txt 4.4227 7.42369 2.49128 0.327273 7.26998
files/tasks_parameters/ExAp01/sample31.txt 3.4293 7.22028 2.13584 0.25377 5.6372
files/tasks_parameters/ExAp01/sample37.txt 3.992 8.90704 2.16981 0.295708 6.56881
files/tasks_parameters/ExAp01/sample16.txt 3.21243 8.18243 1.88294 0.24945 5.54123
files/tasks_parameters/ExAp01/sample10.txt 3.88568 6.96646 2.31217 0.285748 6.34756
files/tasks_parameters/ExAp01/sample39.txt 3.4139 6.4161 1.97266 0.251967 5.59715
files/tasks_parameters/ExAp01/sample19.txt 4.1465 8.16711 2.23199 0.308463 6.85214
files/tasks_parameters/ExAp01/sample20.txt 3.54722 7.28549 1.88944 0.25994 5.77426
files/tasks_parameters/ExAp01/sample43.txt 3.4297 6.86804 2.00142 0.25616 5.6903
files/tasks_parameters/ExAp01/sample32.txt 3.79451 8.15663 2.12995 0.281726 6.25822
files/tasks_parameters/ExAp01/sample45.txt 3.66696 7.75184 2.10599 0.274935 6.10736
files/tasks_parameters/ExAp01/sample26.txt 3.62221 7.4944 1.88956 0.267248 5.9366
files/tasks_parameters/ExAp01/sample5.txt 3.89057 8.08362 2.09961 0.28454 6.32073
files/tasks_parameters/ExAp01/sample21.txt 3.48362 6.11814 2.17119 0.26143 5.80735
files/tasks_parameters/ExAp01/sample38.txt 3.50676 7.761 1.96293 0.263659 5.85687
files/tasks_parameters/ExAp01/sample1.txt 3.88434 7.83752 2.13261 0.289228 6.42486
files/tasks_parameters/ExAp01/sample15.txt 3.78965 7.37971 2.12057 0.285825 6.34928
files/tasks_parameters/ExAp01/sample24.txt 3.94455 8.28531 2.25272 0.296628 6.58925
files/tasks_parameters/ExAp01/sample3.txt 4.09055 7.33359 2.39135 0.305084 6.7771
files/tasks_parameters/ExAp01/sample6.txt 3.72056 7.09894 2.24425 0.281804 6.25995
files/tasks_parameters/ExAp01/sample30.txt 3.88443 8.17669 2.03701 0.299204 6.64647
files/tasks_parameters/ExAp01/sample42.txt 4.01155 7.70416 2.42413 0.29743 6.60706
files/tasks_parameters/ExAp01/sample4.txt 4.13962 7.41691 2.36261 0.307803 6.83748
files/tasks_parameters/ExAp01/sample28.txt 3.56279 7.0562 2.07657 0.266428 5.91839
files/tasks_parameters/ExAp01/sample18.txt 3.65997 7.60139 2.1377 0.268016 5.95366
files/tasks_parameters/ExAp01/sample35.txt 4.3531 9.66795 2.28028 0.32244 7.16262
files/tasks_parameters/ExAp01/sample47.txt 3.35073 6.84842 2.12104 0.251655 5.59022
files/tasks_parameters/ExAp01/sample49.txt 3.44506 7.1497 2.11412 0.255889 5.68427
files/tasks_parameters/ExAp01/sample41.txt 3.4441 6.59911 2.07359 0.265885 5.90633
