files/tasks_parameters/ExAp01/sample8.txt 1.19272 6.77015 2.19458 0.288816 9.57152
files/tasks_parameters/ExAp01/sample12.txt 1.29064 9.58351 2.46081 0.337498 11.1849
files/tasks_parameters/ExAp01/sample2.txt 1.16717 8.44418 2.50701 0.319127 10.576
files/tasks_parameters/ExAp01/sample44.txt 1.08445 6.96299 2.23089 0.28229 9.35524
files/tasks_parameters/ExAp01/sample27.txt 1.07465 7.74306 2.16676 0.28602 9.47884
files/tasks_parameters/ExAp01/sample17.txt 1.12562 7.35053 2.25579 0.292348 9.68854
files/tasks_parameters/ExAp01/sample9.txt 1.02218 6.89392 2.21068 0.282399 9.35883
files/tasks_parameters/ExAp01/sample34.txt 1.11561 6.62788 2.3772 0.297742 9.8673
files/tasks_parameters/ExAp01/sample40.txt 1.07196 7.75686 2.17534 0.285619 9.46556
files/tasks_parameters/ExAp01/sample33.txt 1.21056 8.14826 2.6463 0.338073 11.2039
files/tasks_parameters/ExAp01/sample48.txt 0.954867 7.64107 2.14272 0.270011 8.9483
files/tasks_parameters/ExAp01/sample29.txt 1.00716 7.139 1.93769 0.286306 9.48831
files/tasks_parameters/ExAp01/sample11.txt 1.05171 6.88688 2.12981 0.280008 9.27961
files/tasks_parameters/ExAp01/sample14.txt 0.933326 6.11983 1.97599 0.247458 8.20086
files/tasks_parameters/ExAp01/sample0.txt 1.11788 8.2738 2.14256 0.289132 9.58197
files/tasks_parameters/ExAp01/sample7.txt 1.01945 6.87011 2.05821 0.269886 8.94414
files/tasks_parameters/ExAp01/sample23.txt 1.03871 6.52032 2.38087 0.291712 9.66746
files/tasks_parameters/ExAp01/sample13.txt 1.08801 8.73247 2.33415 0.295393 9.78945
files/tasks_parameters/ExAp01/sample22.txt 1.02061 6.9777 2.28948 0.283979 9.41121
files/tasks_parameters/ExAp01/sample25.txt 1.0908 6.23444 2.2122 0.267298 8.85838
files/tasks_parameters/ExAp01/sample36.txt 0.944677 6.6174 1.9458 0.253823 8.41181
files/tasks_parameters/ExAp01/sample46.txt 1.23095 7.42369 2.49128 0.327273 10.846
files/tasks_parameters/ExAp01/sample31.txt 0.94026 7.22028 2.13584 0.25377 8.41006
files/tasks_parameters/ExAp01/sample37.txt 1.11739 8.90704 2.16981 0.295708 9.79991
files/tasks_parameters/ExAp01/sample16.txt 1.01824 8.18243 1.88294 0.24945 8.26688
files/tasks_parameters/ExAp01/sample10.txt 1.13669 6.96646 2.31217 0.285748 9.46983
files/tasks_parameters/ExAp01/sample39.txt 0.970066 6.4161 1.97266 0.251967 8.3503
files/tasks_parameters/ExAp01/sample19.txt 1.21182 8.16711 2.23199 0.308463 10.2226
files/tasks_parameters/ExAp01/sample20.txt 0.931086 7.28549 1.88944 0.25994 8.61453
files/tasks_parameters/ExAp01/sample43.txt 0.907471 6.86804 2.00142 0.25616 8.48927
files/tasks_parameters/ExAp01/sample32.txt 1.02784 8.15663 2.12995 0.281726 9.33655
files/tasks_parameters/ExAp01/sample45.txt 1.03007 7.75184 2.10599 0.274935 9.11148
files/tasks_parameters/ExAp01/sample26.txt 0.95086 7.4944 1.88956 0.267248 8.85673
files/tasks_parameters/ExAp01/sample5.txt 1.0704 8.08362 2.09961 0.28454 9.4298
files/tasks_parameters/ExAp01/sample21.txt 1.02624 6.11814 2.17119 0.26143 8.6639
files/tasks_parameters/ExAp01/sample38.txt 0.907715 7.761 1.96293 0.263659 8.73778
files/tasks_parameters/ExAp01/sample1.txt 1.07652 7.83752 2.13261 0.289228 9.58516
files/tasks_parameters/ExAp01/sample15.txt 1.00536 7.37971 2.12057 0.285825 9.47239
files/tasks_parameters/ExAp01/sample24.txt 1.12428 8.28531 2.25272 0.296628 9.83041
files/tasks_parameters/ExAp01/sample3.txt 1.20338 7.33359 2.39135 0.305084 10.1106
files/tasks_parameters/ExAp01/sample6.txt 1.17771 7.09894 2.24425 0.281804 9.33913
files/tasks_parameters/ExAp01/sample30.txt 1.20361 8.17669 2.03701 0.299204 9.91578
files/tasks_parameters/ExAp01/sample42.txt 1.13373 7.70416 2.42413 0.29743 9.85697
files/tasks_parameters/ExAp01/sample4.txt 1.14115 7.41691 2.36261 0.307803 10.2007
files/tasks_parameters/ExAp01/sample28.txt 1.0041 7.0562 2.07657 0.266428 8.82955
files/tasks_parameters/ExAp01/sample18.txt 1.03977 7.60139 2.1377 0.268016 8.88218
files/tasks_parameters/ExAp01/sample35.txt 1.27014 9.66795 2.28028 0.32244 10.6858
files/tasks_parameters/ExAp01/sample47.txt 0.947588 6.84842 2.12104 0.251655 8.33996
files/tasks_parameters/ExAp01/sample49.txt 0.988274 7.1497 2.11412 0.255889 8.48028
files/tasks_parameters/ExAp01/sample41.txt 0.962247 6.59911 2.07359 0.265885 8.81157
