files/tasks_parameters/ExAp01/sample8.txt 1.06111 6.77015 2.19458 0.288816 6.39773
files/tasks_parameters/ExAp01/sample12.txt 1.25879 9.58351 2.46081 0.337498 7.47612
files/tasks_parameters/ExAp01/sample2.txt 1.13559 8.44418 2.50701 0.319127 7.06917
files/tasks_parameters/ExAp01/sample44.txt 1.00757 6.96299 2.23089 0.28229 6.25317
files/tasks_parameters/ExAp01/sample27.txt 1.0405 7.74306 2.16676 0.28602 6.33578
files/tasks_parameters/ExAp01/sample17.txt 1.0693 7.35053 2.25579 0.292348 6.47595
files/tasks_parameters/ExAp01/sample9.txt 1.03557 6.89392 2.21068 0.282399 6.25557
files/tasks_parameters/ExAp01/sample34.txt 1.04362 6.62788 2.3772 0.297742 6.59544
files/tasks_parameters/ExAp01/sample40.txt 1.00296 7.75686 2.17534 0.285619 6.32691
files/tasks_parameters/ExAp01/sample33.txt 1.2318 8.14826 2.6463 0.338073 7.48885
files/tasks_parameters/ExAp01/sample48.txt 0.963234 7.64107 2.14272 0.270011 5.98117
files/tasks_parameters/ExAp01/sample29.txt 1.0964 7.139 1.93769 0.286306 6.34212
files/tasks_parameters/ExAp01/sample11.txt 0.994774 6.88688 2.12981 0.280008 6.20262
files/tasks_parameters/ExAp01/sample14.txt 0.870578 6.11983 1.97599 0.247458 5.48157
files/tasks_parameters/ExAp01/sample0.txt 1.08553 8.2738 2.14256 0.289132 6.40472
files/tasks_parameters/ExAp01/sample7.txt 0.968705 6.87011 2.05821 0.269886 5.97838
files/tasks_parameters/ExAp01/sample23.txt 1.08606 6.52032 2.38087 0.291712 6.46187
files/tasks_parameters/ExAp01/sample13.txt 1.08193 8.73247 2.33415 0.295393 6.54341
files/tasks_parameters/ExAp01/sample22.txt 0.994924 6.9777 2.28948 0.283979 6.29058
files/tasks_parameters/ExAp01/sample25.txt 0.956466 6.23444 2.2122 0.267298 5.92106
files/tasks_parameters/ExAp01/sample36.txt 0.901681 6.6174 1.9458 0.253823 5.62257
files/tasks_parameters/ExAp01/sample46.txt 1.22347 7.42369 2.49128 0.327273 7.2496
files/tasks_parameters/ExAp01/sample31.txt 0.93471 7.22028 2.13584 0.25377 5.6214
files/tasks_parameters/ExAp01/sample37.txt 1.09945 8.90704 2.16981 0.295708 6.55039
files/tasks_parameters/ExAp01/sample16.txt 0.930057 8.18243 1.88294 0.24945 5.5257
files/tasks_parameters/ExAp01/sample10.txt 1.08376 6.96646 2.31217 0.285748 6.32976
files/tasks_parameters/ExAp01/sample39.txt 0.910189 6.4161 1.97266 0.251967 5.58145
files/tasks_parameters/ExAp01/sample19.txt 1.1707 8.16711 2.23199 0.308463 6.83293
files/tasks_parameters/ExAp01/sample20.txt 0.921647 7.28549 1.88944 0.25994 5.75807
files/tasks_parameters/ExAp01/sample43.txt 0.957011 6.86804 2.00142 0.25616 5.67435
files/tasks_parameters/ExAp01/sample32.txt 1.05769 8.15663 2.12995 0.281726 6.24068
files/tasks_parameters/ExAp01/sample45.txt 1.06552 7.75184 2.10599 0.274935 6.09024
files/tasks_parameters/ExAp01/sample26.txt 0.9621 7.4944 1.88956 0.267248 5.91996
files/tasks_parameters/ExAp01/sample5.txt 1.09424 8.08362 2.09961 0.28454 6.30301
files/tasks_parameters/ExAp01/sample21.txt 0.971006 6.11814 2.17119 0.26143 5.79107
files/tasks_parameters/ExAp01/sample38.txt 0.955555 7.761 1.96293 0.263659 5.84045
files/tasks_parameters/ExAp01/sample1.txt 1.04325 7.83752 2.13261 0.289228 6.40685
files/tasks_parameters/ExAp01/sample15.txt 1.0157 7.37971 2.12057 0.285825 6.33148
files/tasks_parameters/ExAp01/sample24.txt 1.07567 8.28531 2.25272 0.296628 6.57078
files/tasks_parameters/ExAp01/sample3.txt 1.18572 7.33359 2.39135 0.305084 6.7581
files/tasks_parameters/ExAp01/sample6.txt 1.00644 7.09894 2.24425 0.281804 6.2424
files/tasks_parameters/ExAp01/sample30.txt 1.18376 8.17669 2.03701 0.299204 6.62784
files/tasks_parameters/ExAp01/sample42.txt 1.09509 7.70416 2.42413 0.29743 6.58854
files/tasks_parameters/ExAp01/sample4.txt 1.1898 7.41691 2.36261 0.307803 6.81831
files/tasks_parameters/ExAp01/sample28.txt 0.971136 7.0562 2.07657 0.266428 5.90179
files/tasks_parameters/ExAp01/sample18.txt 0.960421 7.60139 2.1377 0.268016 5.93697
files/tasks_parameters/ExAp01/sample35.txt 1.1912 9.66795 2.28028 0.32244 7.14254
files/tasks_parameters/ExAp01/sample47.txt 0.942041 6.84842 2.12104 0.251655 5.57454
files/tasks_parameters/ExAp01/sample49.txt 0.933189 7.1497 2.11412 0.255889 5.66834
files/tasks_parameters/ExAp01/sample41.txt 0.936158 6.59911 2.07359 0.265885 5.88977
