files/tasks_parameters/ExAp01/sample8.txt 1.08361 3.76817 4.3855 0.450105 9.31164
files/tasks_parameters/ExAp01/sample12.txt 1.49418 5.03638 5.18776 0.610564 12.6312
files/tasks_parameters/ExAp01/sample2.txt 1.38452 4.58991 5.64606 0.613877 12.6997
files/tasks_parameters/ExAp01/sample44.txt 1.24953 3.77401 5.66946 0.551838 11.4162
files/tasks_parameters/ExAp01/sample27.txt 1.29418 4.13937 5.56136 0.55779 11.5394
files/tasks_parameters/ExAp01/sample17.txt 1.1945 3.76163 5.38341 0.520991 10.7781
files/tasks_parameters/ExAp01/sample9.txt 1.1433 3.69889 5.2981 0.511699 10.5859
files/tasks_parameters/ExAp01/sample34.txt 1.13513 3.52435 5.83741 0.49187 10.1757
files/tasks_parameters/ExAp01/sample40.txt 1.15486 4.06185 5.0335 0.496884 10.2794
files/tasks_parameters/ExAp01/sample33.txt 1.55311 4.82091 5.83886 0.651963 13.4876
files/tasks_parameters/ExAp01/sample48.txt 1.07591 4.01134 5.07085 0.447927 9.26658
files/tasks_parameters/ExAp01/sample29.txt 1.45631 4.20847 5.0406 0.643694 13.3165
files/tasks_parameters/ExAp01/sample11.txt 1.31879 3.94699 5.29198 0.557276 11.5288
files/tasks_parameters/ExAp01/sample14.txt 1.08353 3.54059 4.58345 0.466713 9.65523
files/tasks_parameters/ExAp01/sample0.txt 1.50724 4.82755 4.90216 0.623551 12.8998
files/tasks_parameters/ExAp01/sample7.txt 1.15002 3.60766 5.11185 0.509566 10.5417
files/tasks_parameters/ExAp01/sample23.txt 1.4156 3.81403 5.45799 0.582911 12.0591
files/tasks_parameters/ExAp01/sample13.txt 1.46298 4.8894 5.26818 0.624499 12.9194
files/tasks_parameters/ExAp01/sample22.txt 1.29069 3.76156 4.95746 0.534216 11.0517
files/tasks_parameters/ExAp01/sample25.txt 0.976769 2.94144 4.92622 0.403639 8.35037
files/tasks_parameters/ExAp01/sample36.txt 1.25826 3.56164 4.5806 0.501799 10.3811
files/tasks_parameters/ExAp01/sample46.txt 1.23268 3.84833 4.7121 0.530701 10.979
files/tasks_parameters/ExAp01/sample31.txt 1.07786 3.764 5.08385 0.479734 9.92459
files/tasks_parameters/ExAp01/sample37.txt 1.52462 4.43254 5.65111 0.65143 13.4766
files/tasks_parameters/ExAp01/sample16.txt 1.27234 4.49741 4.8895 0.509171 10.5336
files/tasks_parameters/ExAp01/sample10.txt 1.38978 3.87086 6.07511 0.60993 12.618
files/tasks_parameters/ExAp01/sample39.txt 1.04986 3.66299 4.54281 0.463671 9.59229
files/tasks_parameters/ExAp01/sample19.txt 1.4097 3.86694 5.14047 0.615987 12.7434
files/tasks_parameters/ExAp01/sample20.txt 1.30362 4.09945 5.13368 0.580369 12.0065
files/tasks_parameters/ExAp01/sample43.txt 1.15418 3.75825 5.55698 0.530892 10.9829
files/tasks_parameters/ExAp01/sample32.txt 1.42892 4.0352 5.29178 0.587643 12.157
files/tasks_parameters/ExAp01/sample45.txt 1.22596 3.94578 4.87833 0.541081 11.1937
files/tasks_parameters/ExAp01/sample26.txt 1.11326 3.50998 4.55035 0.474009 9.80616
files/tasks_parameters/ExAp01/sample5.txt 1.3559 4.00994 5.27725 0.587681 12.1578
files/tasks_parameters/ExAp01/sample21.txt 0.935093 2.8974 4.54677 0.430037 8.89648
files/tasks_parameters/ExAp01/sample38.txt 1.17206 3.56689 4.78573 0.492366 10.1859
files/tasks_parameters/ExAp01/sample1.txt 1.15522 3.69002 4.55048 0.481074 9.95231
files/tasks_parameters/ExAp01/sample15.txt 1.20629 3.73223 5.42493 0.524964 10.8603
files/tasks_parameters/ExAp01/sample24.txt 1.2753 4.18053 5.40377 0.542575 11.2246
files/tasks_parameters/ExAp01/sample3.txt 1.08376 3.70547 4.7118 0.470503 9.73363
files/tasks_parameters/ExAp01/sample6.txt 1.38737 4.07521 5.71419 0.626702 12.965
files/tasks_parameters/ExAp01/sample30.txt 1.49546 3.97446 5.82388 0.626709 12.9652
files/tasks_parameters/ExAp01/sample42.txt 1.29681 4.44207 5.58473 0.537025 11.1098
files/tasks_parameters/ExAp01/sample4.txt 1.40564 3.92181 4.49751 0.556974 11.5225
files/tasks_parameters/ExAp01/sample28.txt 1.0237 3.13496 4.88321 0.444588 9.19751
files/tasks_parameters/ExAp01/sample18.txt 1.22803 3.95301 4.52898 0.537438 11.1183
files/tasks_parameters/ExAp01/sample35.txt 1.80911 5.75923 6.25034 0.752488 15.5672
files/tasks_parameters/ExAp01/sample47.txt 1.16153 3.44018 5.14289 0.540033 11.172
files/tasks_parameters/ExAp01/sample49.txt 1.2295 3.38981 4.72409 0.493041 10.1999
files/tasks_parameters/ExAp01/sample41.txt 1.10214 3.58692 5.27252 0.492391 10.1864
