0.32682283999999995
Task0 3 31 3 
Task1 15 3 31 
Task2 31 31 15 
Task3 7 63 63 
Task4 63 7 15 
Task5 7 15 31 
Task6 3 63 31 
Task7 63 3 3 
Task8 7 63 31 
Task9 1 31 1 
Task10 63 15 63 
Task11 63 1 31 
Task12 31 15 15 
Task13 15 31 7 
Task14 1 31 31 
Task15 15 31 31 
Task16 63 63 15 
Task17 63 31 15 
Task18 31 3 31 
Task19 127 7 15 
Task20 31 7 1 
Task21 63 255 63 
Task22 127 63 255 
Task23 31 15 3 
Task24 1 31 63 
Task25 3 15 63 
Task26 15 15 63 
Task27 31 1 63 
Task28 3 15 63 
Task29 15 7 63 
Task30 7 31 7 
Task31 7 31 1 
Task32 63 63 31 
Task33 31 3 3 
Task34 31 31 7 
Task35 31 63 7 
Task36 255 127 15 
Task37 63 31 63 
Task38 3 15 63 
Task39 7 3 31 
Task40 63 63 31 
Task41 31 31 15 
Task42 63 15 31 
Task43 3 63 63 
Task44 15 63 31 
Task45 7 31 31 
Task46 3 31 1 
Task47 31 15 1 
Task48 255 255 255 
Task49 63 63 31 
Task50 7 15 31 
Task51 127 31 31 
Task52 7 63 7 
Task53 31 31 31 
Task54 1 31 1 
Task55 63 1 31 
Task56 63 31 15 
Task57 7 31 15 
Task58 15 63 31 
Task59 31 7 31 
Task60 63 31 31 
Task61 31 31 31 
Task62 15 63 15 
Task63 15 63 1 
Task64 7 1 31 
Task65 7 7 31 
Task66 31 63 15 
Task67 1 15 31 
Task68 31 31 7 
Task69 7 3 31 
Task70 15 31 31 
Task71 15 63 7 
Task72 31 31 31 
Task73 31 63 1 
Task74 15 63 15 
Task75 63 15 15 
Task76 15 31 31 
Task77 31 15 15 
Task78 1 31 15 
Task79 31 1 31 
Task80 31 7 7 
Task81 63 31 15 
Task82 63 7 7 
Task83 15 31 7 
Task84 63 3 1 
Task85 31 3 15 
Task86 63 15 31 
Task87 255 127 255 
Task88 63 7 7 
Task89 3 63 3 
Task90 1 31 63 
Task91 63 7 63 
Task92 31 1 31 
Task93 7 31 31 
Task94 127 255 127 
Task95 7 31 7 
Task96 127 63 31 
Task97 31 3 7 
Task98 15 31 15 
Task99 15 31 31 
