0.36360704
Task0 31 7 63 
Task1 31 63 63 
Task2 63 1 15 
Task3 63 7 31 
Task4 15 31 127 
Task5 1 1 63 
Task6 7 63 7 
Task7 15 7 63 
Task8 31 31 63 
Task9 63 15 31 
Task10 31 63 1 
Task11 7 63 31 
Task12 127 31 31 
Task13 15 31 3 
Task14 63 7 31 
Task15 127 7 63 
Task16 63 31 15 
Task17 1 15 63 
Task18 3 63 15 
Task19 1 255 255 
Task20 63 31 7 
Task21 63 15 7 
Task22 7 63 15 
Task23 15 31 255 
Task24 31 15 31 
Task25 63 31 1 
Task26 31 63 31 
Task27 7 63 127 
Task28 63 7 7 
Task29 31 63 63 
Task30 1 63 7 
Task31 15 3 63 
Task32 63 31 31 
Task33 1 255 31 
Task34 63 31 7 
Task35 31 31 63 
Task36 15 63 7 
Task37 15 15 63 
Task38 7 31 7 
Task39 63 1 3 
Task40 63 15 31 
Task41 63 3 15 
Task42 31 63 3 
Task43 63 255 63 
Task44 63 15 63 
Task45 63 7 63 
Task46 3 1 63 
Task47 15 7 63 
Task48 255 63 15 
Task49 31 63 63 
Task50 31 3 63 
Task51 7 63 3 
Task52 1 7 63 
Task53 7 31 15 
Task54 63 31 15 
Task55 15 31 31 
Task56 63 31 63 
Task57 63 63 63 
Task58 15 63 255 
Task59 31 63 7 
Task60 63 127 255 
Task61 63 1 15 
Task62 3 63 15 
Task63 255 31 31 
Task64 15 31 255 
Task65 31 15 63 
Task66 63 1 3 
Task67 63 7 7 
Task68 63 15 15 
Task69 255 31 255 
Task70 1 63 7 
Task71 31 31 15 
Task72 31 15 31 
Task73 1 3 63 
Task74 127 255 63 
Task75 7 31 127 
Task76 7 15 63 
Task77 15 31 7 
Task78 63 7 15 
Task79 7 63 15 
Task80 63 15 15 
Task81 15 63 3 
Task82 63 255 127 
Task83 31 1 63 
Task84 7 63 1 
Task85 63 15 3 
Task86 63 7 7 
Task87 63 7 3 
Task88 1 3 63 
Task89 63 3 1 
Task90 63 31 63 
Task91 31 15 1 
Task92 15 31 7 
Task93 63 1 1 
Task94 7 63 7 
Task95 63 7 1 
Task96 7 15 31 
Task97 255 127 127 
Task98 31 3 63 
Task99 31 31 15 
