0.30711269999999996
Task0 31 15 7 
Task1 63 15 1 
Task2 7 63 15 
Task3 15 15 63 
Task4 31 255 63 
Task5 63 15 63 
Task6 15 15 15 
Task7 1 7 31 
Task8 63 63 63 
Task9 31 15 15 
Task10 15 3 7 
Task11 31 7 7 
Task12 63 15 15 
Task13 31 15 1 
Task14 15 15 255 
Task15 63 31 15 
Task16 31 7 31 
Task17 15 255 255 
Task18 31 3 15 
Task19 3 31 31 
Task20 63 1 31 
Task21 7 31 63 
Task22 15 15 15 
Task23 1 31 3 
Task24 31 63 7 
Task25 31 15 3 
Task26 255 255 255 
Task27 15 7 31 
Task28 15 15 7 
Task29 15 1 63 
Task30 3 31 1 
Task31 31 15 7 
Task32 31 1 7 
Task33 255 127 255 
Task34 3 31 3 
Task35 31 7 1 
Task36 15 31 31 
Task37 63 31 1 
Task38 31 31 7 
Task39 31 31 31 
Task40 31 15 7 
Task41 63 255 31 
Task42 7 255 127 
Task43 3 3 31 
Task44 31 31 63 
Task45 1 15 63 
Task46 7 15 7 
Task47 31 63 63 
Task48 1 7 63 
Task49 7 31 7 
Task50 7 31 1 
Task51 31 31 31 
Task52 1 31 1 
Task53 31 15 31 
Task54 31 7 15 
Task55 1 31 3 
Task56 3 3 31 
Task57 63 3 15 
Task58 3 31 7 
Task59 31 63 15 
Task60 63 63 15 
Task61 3 3 31 
Task62 3 15 15 
Task63 31 31 3 
Task64 7 15 3 
Task65 31 15 31 
Task66 15 7 3 
Task67 63 31 31 
Task68 31 31 15 
Task69 15 7 31 
Task70 31 15 1 
Task71 3 31 7 
Task72 31 31 1 
Task73 1 31 3 
Task74 15 7 15 
Task75 63 127 127 
Task76 3 1 31 
Task77 7 31 15 
Task78 127 7 3 
Task79 3 1 31 
Task80 15 31 15 
Task81 63 7 15 
Task82 31 63 31 
Task83 31 63 3 
Task84 7 31 3 
Task85 15 63 7 
Task86 127 255 127 
Task87 7 31 1 
Task88 7 31 7 
Task89 255 127 63 
Task90 31 31 1 
Task91 31 63 127 
Task92 1 31 1 
Task93 3 31 3 
Task94 15 1 15 
Task95 31 7 63 
Task96 31 7 1 
Task97 63 255 1 
Task98 31 63 63 
Task99 31 3 3 
