0.4727335899999999
Task0 31 255 31 
Task1 63 255 127 
Task2 255 255 255 
Task3 63 255 255 
Task4 15 1 63 
Task5 31 63 127 
Task6 1 1 63 
Task7 31 63 127 
Task8 63 3 15 
Task9 127 31 7 
Task10 255 31 255 
Task11 63 15 127 
Task12 255 31 127 
Task13 255 7 127 
Task14 31 31 127 
Task15 63 31 255 
Task16 31 255 15 
Task17 31 255 7 
Task18 7 255 15 
Task19 15 7 63 
Task20 255 255 31 
Task21 63 63 7 
Task22 31 63 63 
Task23 15 127 127 
Task24 255 31 7 
Task25 255 255 255 
Task26 7 63 3 
Task27 31 255 7 
Task28 255 15 31 
Task29 255 127 63 
Task30 63 7 31 
Task31 63 127 127 
Task32 7 7 63 
Task33 63 15 7 
Task34 63 127 7 
Task35 255 7 15 
Task36 255 63 63 
Task37 31 63 255 
Task38 255 7 15 
Task39 63 255 3 
Task40 3 31 63 
Task41 7 7 63 
Task42 255 3 15 
Task43 127 255 127 
Task44 255 15 31 
Task45 63 127 31 
Task46 63 127 7 
Task47 63 255 15 
Task48 15 3 255 
Task49 63 7 31 
Task50 3 3 63 
Task51 31 255 1 
Task52 255 3 1 
Task53 63 31 1 
Task54 3 15 127 
Task55 63 15 31 
Task56 31 63 127 
Task57 255 63 255 
Task58 255 127 127 
Task59 3 15 255 
Task60 63 7 3 
Task61 15 255 255 
Task62 31 255 255 
Task63 15 15 255 
Task64 63 1 7 
Task65 1 7 255 
Task66 7 63 31 
Task67 255 1 1 
Task68 255 31 15 
Task69 31 255 255 
Task70 255 3 63 
Task71 255 127 255 
Task72 63 63 15 
Task73 3 63 31 
Task74 63 7 63 
Task75 255 7 63 
Task76 63 63 15 
Task77 127 63 63 
Task78 255 255 31 
Task79 31 255 15 
Task80 15 3 63 
Task81 63 63 3 
Task82 63 255 255 
Task83 3 31 255 
Task84 15 7 63 
Task85 7 255 31 
Task86 7 63 63 
Task87 63 31 1 
Task88 63 63 31 
Task89 15 127 255 
Task90 63 63 127 
Task91 1 255 31 
Task92 255 255 127 
Task93 31 63 255 
Task94 127 127 255 
Task95 63 255 31 
Task96 63 127 31 
Task97 255 31 255 
Task98 1 7 63 
Task99 255 15 15 
