0.28942016
Task0 7 7 15 
Task1 7 3 31 
Task2 3 15 15 
Task3 31 7 15 
Task4 31 7 7 
Task5 1 1 15 
Task6 31 15 15 
Task7 31 1 15 
Task8 15 3 15 
Task9 15 7 31 
Task10 3 15 31 
Task11 31 1 1 
Task12 3 15 15 
Task13 15 7 31 
Task14 31 3 15 
Task15 7 63 15 
Task16 15 15 15 
Task17 15 15 3 
Task18 7 7 31 
Task19 15 7 15 
Task20 15 7 7 
Task21 31 15 3 
Task22 15 15 7 
Task23 3 63 15 
Task24 7 31 15 
Task25 3 3 15 
Task26 15 31 7 
Task27 15 1 3 
Task28 1 15 31 
Task29 31 31 1 
Task30 31 1 7 
Task31 127 63 255 
Task32 3 31 7 
Task33 31 15 31 
Task34 1 3 15 
Task35 15 3 3 
Task36 31 15 1 
Task37 3 15 31 
Task38 15 31 3 
Task39 15 31 3 
Task40 3 15 31 
Task41 15 31 7 
Task42 255 31 3 
Task43 31 7 15 
Task44 15 15 63 
Task45 31 31 31 
Task46 7 255 7 
Task47 7 31 1 
Task48 7 15 31 
Task49 15 15 31 
Task50 7 3 15 
Task51 31 15 7 
Task52 7 31 3 
Task53 15 255 127 
Task54 3 3 15 
Task55 15 63 1 
Task56 1 31 1 
Task57 63 15 15 
Task58 15 1 31 
Task59 1 3 15 
Task60 15 1 7 
Task61 15 1 7 
Task62 3 31 1 
Task63 31 31 7 
Task64 31 3 31 
Task65 7 31 31 
Task66 1 31 3 
Task67 31 15 63 
Task68 15 7 1 
Task69 3 63 31 
Task70 7 31 1 
Task71 15 3 7 
Task72 63 15 1 
Task73 15 15 15 
Task74 3 7 15 
Task75 3 1 31 
Task76 31 7 1 
Task77 1 31 3 
Task78 127 127 255 
Task79 31 15 7 
Task80 31 15 7 
Task81 7 1 3 
Task82 15 1 7 
Task83 31 63 127 
Task84 3 15 7 
Task85 7 15 3 
Task86 15 3 63 
Task87 1 31 15 
Task88 15 1 3 
Task89 15 15 7 
Task90 31 31 15 
Task91 3 1 15 
Task92 7 15 3 
Task93 7 3 15 
Task94 63 15 15 
Task95 3 3 15 
Task96 7 3 15 
Task97 31 7 31 
Task98 7 31 7 
Task99 7 3 15 
