files/tasks_parameters/ExAp01/sample8.txt 1.70989 6.77015 2.19458 0.288816 4.6242
files/tasks_parameters/ExAp01/sample12.txt 2.08891 9.58351 2.46081 0.337498 5.40364
files/tasks_parameters/ExAp01/sample2.txt 1.91392 8.44418 2.50701 0.319127 5.1095
files/tasks_parameters/ExAp01/sample44.txt 1.69097 6.96299 2.23089 0.28229 4.51971
files/tasks_parameters/ExAp01/sample27.txt 1.7258 7.74306 2.16676 0.28602 4.57942
files/tasks_parameters/ExAp01/sample17.txt 1.75161 7.35053 2.25579 0.292348 4.68073
files/tasks_parameters/ExAp01/sample9.txt 1.67044 6.89392 2.21068 0.282399 4.52145
files/tasks_parameters/ExAp01/sample34.txt 1.81076 6.62788 2.3772 0.297742 4.7671
files/tasks_parameters/ExAp01/sample40.txt 1.71146 7.75686 2.17534 0.285619 4.57301
files/tasks_parameters/ExAp01/sample33.txt 2.04348 8.14826 2.6463 0.338073 5.41284
files/tasks_parameters/ExAp01/sample48.txt 1.6366 7.64107 2.14272 0.270011 4.32311
files/tasks_parameters/ExAp01/sample29.txt 1.70608 7.139 1.93769 0.286306 4.584
files/tasks_parameters/ExAp01/sample11.txt 1.64674 6.88688 2.12981 0.280008 4.48317
files/tasks_parameters/ExAp01/sample14.txt 1.47865 6.11983 1.97599 0.247458 3.96201
files/tasks_parameters/ExAp01/sample0.txt 1.75137 8.2738 2.14256 0.289132 4.62925
files/tasks_parameters/ExAp01/sample7.txt 1.62705 6.87011 2.05821 0.269886 4.3211
files/tasks_parameters/ExAp01/sample23.txt 1.76272 6.52032 2.38087 0.291712 4.67055
files/tasks_parameters/ExAp01/sample13.txt 1.8205 8.73247 2.33415 0.295393 4.72949
files/tasks_parameters/ExAp01/sample22.txt 1.72298 6.9777 2.28948 0.283979 4.54675
files/tasks_parameters/ExAp01/sample25.txt 1.62329 6.23444 2.2122 0.267298 4.27966
files/tasks_parameters/ExAp01/sample36.txt 1.58336 6.6174 1.9458 0.253823 4.06392
files/tasks_parameters/ExAp01/sample46.txt 1.93948 7.42369 2.49128 0.327273 5.23992
files/tasks_parameters/ExAp01/sample31.txt 1.57237 7.22028 2.13584 0.25377 4.06307
files/tasks_parameters/ExAp01/sample37.txt 1.86046 8.90704 2.16981 0.295708 4.73454
files/tasks_parameters/ExAp01/sample16.txt 1.56209 8.18243 1.88294 0.24945 3.9939
files/tasks_parameters/ExAp01/sample10.txt 1.73628 6.96646 2.31217 0.285748 4.57507
files/tasks_parameters/ExAp01/sample39.txt 1.53528 6.4161 1.97266 0.251967 4.0342
files/tasks_parameters/ExAp01/sample19.txt 1.91281 8.16711 2.23199 0.308463 4.93875
files/tasks_parameters/ExAp01/sample20.txt 1.54595 7.28549 1.88944 0.25994 4.16186
files/tasks_parameters/ExAp01/sample43.txt 1.53777 6.86804 2.00142 0.25616 4.10134
files/tasks_parameters/ExAp01/sample32.txt 1.74342 8.15663 2.12995 0.281726 4.51068
files/tasks_parameters/ExAp01/sample45.txt 1.69963 7.75184 2.10599 0.274935 4.40194
files/tasks_parameters/ExAp01/sample26.txt 1.59087 7.4944 1.88956 0.267248 4.27887
files/tasks_parameters/ExAp01/sample5.txt 1.71868 8.08362 2.09961 0.28454 4.55573
files/tasks_parameters/ExAp01/sample21.txt 1.55696 6.11814 2.17119 0.26143 4.18571
files/tasks_parameters/ExAp01/sample38.txt 1.60077 7.761 1.96293 0.263659 4.2214
files/tasks_parameters/ExAp01/sample1.txt 1.74733 7.83752 2.13261 0.289228 4.63079
files/tasks_parameters/ExAp01/sample15.txt 1.72345 7.37971 2.12057 0.285825 4.57631
files/tasks_parameters/ExAp01/sample24.txt 1.80051 8.28531 2.25272 0.296628 4.74927
files/tasks_parameters/ExAp01/sample3.txt 1.82085 7.33359 2.39135 0.305084 4.88466
files/tasks_parameters/ExAp01/sample6.txt 1.71613 7.09894 2.24425 0.281804 4.51193
files/tasks_parameters/ExAp01/sample30.txt 1.90433 8.17669 2.03701 0.299204 4.79052
files/tasks_parameters/ExAp01/sample42.txt 1.80553 7.70416 2.42413 0.29743 4.76211
files/tasks_parameters/ExAp01/sample4.txt 1.91233 7.41691 2.36261 0.307803 4.92818
files/tasks_parameters/ExAp01/sample28.txt 1.59345 7.0562 2.07657 0.266428 4.26574
files/tasks_parameters/ExAp01/sample18.txt 1.65081 7.60139 2.1377 0.268016 4.29117
files/tasks_parameters/ExAp01/sample35.txt 1.97244 9.66795 2.28028 0.32244 5.16253
files/tasks_parameters/ExAp01/sample47.txt 1.5402 6.84842 2.12104 0.251655 4.02921
files/tasks_parameters/ExAp01/sample49.txt 1.54233 7.1497 2.11412 0.255889 4.097
files/tasks_parameters/ExAp01/sample41.txt 1.55111 6.59911 2.07359 0.265885 4.25705
