files/tasks_parameters/ExAp01/sample8.txt 0.728566 3.15778 1.5595 0.203411 3.89281
files/tasks_parameters/ExAp01/sample12.txt 0.82259 3.94962 1.6705 0.207924 3.97917
files/tasks_parameters/ExAp01/sample2.txt 0.80065 3.78275 1.74131 0.200098 3.8294
files/tasks_parameters/ExAp01/sample44.txt 0.709072 3.59825 1.65317 0.200005 3.82763
files/tasks_parameters/ExAp01/sample27.txt 0.711711 3.45743 1.5148 0.182129 3.48551
files/tasks_parameters/ExAp01/sample17.txt 0.925109 2.77299 1.44514 0.14646 2.8029
files/tasks_parameters/ExAp01/sample9.txt 0.707916 2.99933 1.451 0.177444 3.39585
files/tasks_parameters/ExAp01/sample34.txt 0.831645 3.02928 1.58429 0.157984 3.02344
files/tasks_parameters/ExAp01/sample40.txt 0.765221 3.86889 1.52122 0.168379 3.22239
files/tasks_parameters/ExAp01/sample33.txt 0.803935 3.63695 1.71905 0.199765 3.82303
files/tasks_parameters/ExAp01/sample48.txt 0.688408 3.39061 1.49062 0.154728 2.96113
files/tasks_parameters/ExAp01/sample29.txt 0.775526 3.30472 1.38739 0.223868 4.28431
files/tasks_parameters/ExAp01/sample11.txt 0.712545 3.10585 1.41612 0.174079 3.33146
files/tasks_parameters/ExAp01/sample14.txt 0.661184 2.70971 1.43432 0.162214 3.1044
files/tasks_parameters/ExAp01/sample0.txt 0.765945 3.6937 1.5439 0.18367 3.51501
files/tasks_parameters/ExAp01/sample7.txt 0.809856 2.70501 1.42221 0.143463 2.74555
files/tasks_parameters/ExAp01/sample23.txt 0.763607 3.2697 1.57822 0.181448 3.4725
files/tasks_parameters/ExAp01/sample13.txt 0.764808 3.84225 1.67648 0.198247 3.79398
files/tasks_parameters/ExAp01/sample22.txt 0.883712 3.09569 1.56121 0.148796 2.84761
files/tasks_parameters/ExAp01/sample25.txt 0.746637 2.73966 1.5007 0.148149 2.83522
files/tasks_parameters/ExAp01/sample36.txt 0.759979 2.85948 1.28553 0.130042 2.4887
files/tasks_parameters/ExAp01/sample46.txt 0.766553 3.58643 1.69998 0.210103 4.02087
files/tasks_parameters/ExAp01/sample31.txt 0.693316 3.4832 1.53782 0.1722 3.2955
files/tasks_parameters/ExAp01/sample37.txt 0.770878 3.95293 1.50705 0.171701 3.28596
files/tasks_parameters/ExAp01/sample16.txt 0.623881 3.31216 1.30115 0.150249 2.87541
files/tasks_parameters/ExAp01/sample10.txt 1.08636 3.17098 1.61789 0.153776 2.94292
files/tasks_parameters/ExAp01/sample39.txt 0.683245 3.26617 1.44406 0.165669 3.17051
files/tasks_parameters/ExAp01/sample19.txt 0.745272 3.63532 1.52509 0.196094 3.75279
files/tasks_parameters/ExAp01/sample20.txt 0.664192 3.20793 1.25367 0.147335 2.81965
files/tasks_parameters/ExAp01/sample43.txt 0.651246 3.11551 1.4202 0.150644 2.88298
files/tasks_parameters/ExAp01/sample32.txt 0.741287 3.5311 1.42482 0.168744 3.22937
files/tasks_parameters/ExAp01/sample45.txt 0.741441 3.80283 1.48324 0.19807 3.7906
files/tasks_parameters/ExAp01/sample26.txt 0.646998 3.21645 1.29701 0.166061 3.17802
files/tasks_parameters/ExAp01/sample5.txt 0.653276 3.5889 1.52559 0.178903 3.42379
files/tasks_parameters/ExAp01/sample21.txt 0.703426 2.75242 1.55936 0.19512 3.73414
files/tasks_parameters/ExAp01/sample38.txt 0.664183 3.31563 1.37515 0.166157 3.17985
files/tasks_parameters/ExAp01/sample1.txt 0.705259 3.74964 1.51696 0.19701 3.7703
files/tasks_parameters/ExAp01/sample15.txt 0.705769 3.32916 1.48508 0.180707 3.45832
files/tasks_parameters/ExAp01/sample24.txt 0.844264 3.45951 1.59549 0.16529 3.16327
files/tasks_parameters/ExAp01/sample3.txt 0.849327 3.70014 1.70809 0.237107 4.53767
files/tasks_parameters/ExAp01/sample6.txt 0.741721 3.33003 1.58323 0.184714 3.535
files/tasks_parameters/ExAp01/sample30.txt 0.881025 4.1841 1.4861 0.239623 4.58582
files/tasks_parameters/ExAp01/sample42.txt 0.752698 3.43221 1.70276 0.177383 3.39469
files/tasks_parameters/ExAp01/sample4.txt 0.795193 3.72477 1.6136 0.196448 3.75956
files/tasks_parameters/ExAp01/sample28.txt 0.698826 3.11323 1.45032 0.158819 3.03942
files/tasks_parameters/ExAp01/sample18.txt 0.772181 3.47418 1.45209 0.149064 2.85273
files/tasks_parameters/ExAp01/sample35.txt 0.825916 4.57086 1.49394 0.185031 3.54105
files/tasks_parameters/ExAp01/sample47.txt 0.717654 3.13768 1.52397 0.16417 3.14183
files/tasks_parameters/ExAp01/sample49.txt 0.780866 3.13288 1.49657 0.156154 2.98842
files/tasks_parameters/ExAp01/sample41.txt 0.764811 2.81964 1.49636 0.150876 2.88741
