files/tasks_parameters/ExAp01/sample8.txt 1.14046 6.77015 2.19458 0.288816 9.28024
files/tasks_parameters/ExAp01/sample12.txt 1.20356 9.58351 2.46081 0.337498 10.8445
files/tasks_parameters/ExAp01/sample2.txt 1.14513 8.44418 2.50701 0.319127 10.2542
files/tasks_parameters/ExAp01/sample44.txt 0.998821 6.96299 2.23089 0.28229 9.07055
files/tasks_parameters/ExAp01/sample27.txt 1.19404 7.74306 2.16676 0.28602 9.19038
files/tasks_parameters/ExAp01/sample17.txt 1.06676 7.35053 2.25579 0.292348 9.39371
files/tasks_parameters/ExAp01/sample9.txt 1.02004 6.89392 2.21068 0.282399 9.07403
files/tasks_parameters/ExAp01/sample34.txt 1.06625 6.62788 2.3772 0.297742 9.56703
files/tasks_parameters/ExAp01/sample40.txt 1.04597 7.75686 2.17534 0.285619 9.17751
files/tasks_parameters/ExAp01/sample33.txt 1.27977 8.14826 2.6463 0.338073 10.863
files/tasks_parameters/ExAp01/sample48.txt 0.981098 7.64107 2.14272 0.270011 8.67599
files/tasks_parameters/ExAp01/sample29.txt 0.989553 7.139 1.93769 0.286306 9.19957
files/tasks_parameters/ExAp01/sample11.txt 1.00187 6.88688 2.12981 0.280008 8.99723
files/tasks_parameters/ExAp01/sample14.txt 0.888295 6.11983 1.97599 0.247458 7.9513
files/tasks_parameters/ExAp01/sample0.txt 1.0374 8.2738 2.14256 0.289132 9.29038
files/tasks_parameters/ExAp01/sample7.txt 1.01685 6.87011 2.05821 0.269886 8.67196
files/tasks_parameters/ExAp01/sample23.txt 1.09592 6.52032 2.38087 0.291712 9.37327
files/tasks_parameters/ExAp01/sample13.txt 1.06366 8.73247 2.33415 0.295393 9.49155
files/tasks_parameters/ExAp01/sample22.txt 1.02329 6.9777 2.28948 0.283979 9.12481
files/tasks_parameters/ExAp01/sample25.txt 0.941454 6.23444 2.2122 0.267298 8.58881
files/tasks_parameters/ExAp01/sample36.txt 0.919187 6.6174 1.9458 0.253823 8.15583
files/tasks_parameters/ExAp01/sample46.txt 1.24401 7.42369 2.49128 0.327273 10.5159
files/tasks_parameters/ExAp01/sample31.txt 0.991375 7.22028 2.13584 0.25377 8.15413
files/tasks_parameters/ExAp01/sample37.txt 1.08867 8.90704 2.16981 0.295708 9.50169
files/tasks_parameters/ExAp01/sample16.txt 0.913384 8.18243 1.88294 0.24945 8.01531
files/tasks_parameters/ExAp01/sample10.txt 1.0528 6.96646 2.31217 0.285748 9.18165
files/tasks_parameters/ExAp01/sample39.txt 0.923842 6.4161 1.97266 0.251967 8.09619
files/tasks_parameters/ExAp01/sample19.txt 1.14131 8.16711 2.23199 0.308463 9.91152
files/tasks_parameters/ExAp01/sample20.txt 0.895056 7.28549 1.88944 0.25994 8.35238
files/tasks_parameters/ExAp01/sample43.txt 0.925322 6.86804 2.00142 0.25616 8.23093
files/tasks_parameters/ExAp01/sample32.txt 1.00459 8.15663 2.12995 0.281726 9.05243
files/tasks_parameters/ExAp01/sample45.txt 1.02321 7.75184 2.10599 0.274935 8.8342
files/tasks_parameters/ExAp01/sample26.txt 0.965889 7.4944 1.88956 0.267248 8.58721
files/tasks_parameters/ExAp01/sample5.txt 1.07661 8.08362 2.09961 0.28454 9.14284
files/tasks_parameters/ExAp01/sample21.txt 0.931048 6.11814 2.17119 0.26143 8.40025
files/tasks_parameters/ExAp01/sample38.txt 1.03357 7.761 1.96293 0.263659 8.47188
files/tasks_parameters/ExAp01/sample1.txt 1.06813 7.83752 2.13261 0.289228 9.29347
files/tasks_parameters/ExAp01/sample15.txt 1.05102 7.37971 2.12057 0.285825 9.18414
files/tasks_parameters/ExAp01/sample24.txt 1.03635 8.28531 2.25272 0.296628 9.53126
files/tasks_parameters/ExAp01/sample3.txt 1.17078 7.33359 2.39135 0.305084 9.80297
files/tasks_parameters/ExAp01/sample6.txt 0.95604 7.09894 2.24425 0.281804 9.05493
files/tasks_parameters/ExAp01/sample30.txt 1.13446 8.17669 2.03701 0.299204 9.61403
files/tasks_parameters/ExAp01/sample42.txt 1.07737 7.70416 2.42413 0.29743 9.55701
files/tasks_parameters/ExAp01/sample4.txt 1.15512 7.41691 2.36261 0.307803 9.89031
files/tasks_parameters/ExAp01/sample28.txt 0.986639 7.0562 2.07657 0.266428 8.56086
files/tasks_parameters/ExAp01/sample18.txt 0.96355 7.60139 2.1377 0.268016 8.61189
files/tasks_parameters/ExAp01/sample35.txt 1.12182 9.66795 2.28028 0.32244 10.3606
files/tasks_parameters/ExAp01/sample47.txt 0.956856 6.84842 2.12104 0.251655 8.08616
files/tasks_parameters/ExAp01/sample49.txt 0.992182 7.1497 2.11412 0.255889 8.22222
files/tasks_parameters/ExAp01/sample41.txt 0.970437 6.59911 2.07359 0.265885 8.54342
