0 6
0 7
0 9
0 13
0 15
1 7
1 10
1 11
1 13
1 15
1 16
2 6
2 7
2 8
2 10
2 13
2 15
2 16
3 7
3 14
4 9
5 11
5 12
6 20
6 22
6 25
6 26
6 27
6 29
7 22
7 26
7 28
7 29
8 17
8 19
8 20
8 21
8 22
8 24
8 27
8 28
9 17
9 19
9 24
9 29
10 18
10 21
10 24
10 27
10 29
11 17
11 18
11 23
11 24
11 25
11 26
11 27
11 28
11 29
12 19
12 20
12 24
12 25
12 26
12 27
12 28
12 30
13 17
13 20
13 22
13 25
13 26
13 28
13 30
13 30
14 17
14 20
14 26
14 27
15 20
15 29
16 20
16 21
16 22
16 29
16 30
17 34
18 31
18 34
19 32
19 34
19 35
20 31
20 35
21 34
22 31
22 32
22 33
22 34
22 35
23 31
23 32
23 33
24 31
24 33
25 31
25 33
25 34
26 32
27 32
28 32
28 33
29 31
30 31
30 35
31 36
31 37
32 39
33 37
33 40
34 38
35 36
35 38
36 41
36 42
36 46
36 48
36 49
36 53
37 41
37 43
37 50
37 53
38 41
38 43
38 44
38 45
38 51
38 53
39 42
39 44
39 44
39 49
39 52
40 42
40 46
40 47
41 55
41 56
41 58
41 61
42 56
42 58
42 61
43 56
43 58
43 59
43 60
43 61
44 54
44 55
44 60
44 62
45 54
45 56
45 60
46 55
46 56
46 57
46 61
46 62
47 55
47 56
47 61
47 62
48 62
49 55
49 62
50 57
50 61
51 55
51 56
51 58
52 55
52 57
53 56
53 59
53 60
53 62
54 67
54 68
55 67
56 65
56 67
57 65
57 66
58 63
58 67
59 64
59 65
60 68
61 64
61 65
61 68
62 63
62 67
62 68
63 69
63 72
63 73
63 77
65 70
65 74
66 71
66 73
66 75
66 77
67 70
67 72
67 76
67 78
68 70
68 74
68 75
68 77
69 83
70 80
70 81
70 83
70 85
70 87
71 80
71 84
71 85
71 87
71 89
72 79
72 80
72 81
72 84
73 80
73 82
73 83
73 84
74 84
74 86
74 88
74 89
75 80
75 81
75 83
75 84
75 85
76 81
77 81
77 83
77 84
77 85
78 81
78 83
79 91
79 93
80 90
80 91
80 93
81 91
81 92
82 92
83 90
83 92
83 93
83 94
84 90
84 91
84 92
84 94
84 97
85 92
85 94
85 96
85 97
86 92
86 93
86 94
87 92
87 93
87 94
88 90
88 93
88 94
89 93
89 95
89 97
90 98
90 99
91 99
91 99
92 98
92 99
96 98
97 98
97 99
