0 7
0 10
0 11
1 13
1 16
2 6
2 10
2 13
2 14
2 15
2 16
3 6
3 11
3 13
3 15
3 16
4 7
4 8
4 10
4 11
4 12
4 15
4 16
5 6
5 9
5 11
5 12
5 15
6 18
6 23
7 18
7 24
8 17
8 18
8 20
8 21
9 19
9 20
9 21
9 22
10 20
10 21
10 22
10 24
11 18
11 20
11 22
11 24
12 20
12 20
12 22
13 19
13 22
13 22
14 21
15 18
15 20
15 21
16 21
16 22
17 25
17 31
18 28
19 29
20 26
20 29
20 30
21 26
22 28
22 31
23 27
23 28
23 29
24 28
25 38
25 39
25 40
26 33
26 36
27 32
27 33
27 37
27 40
28 33
28 36
28 37
28 40
29 37
29 38
29 39
30 34
30 36
30 40
31 32
31 35
31 38
31 39
31 41
32 45
32 46
32 47
32 49
32 50
33 43
33 45
33 47
33 49
33 50
34 42
34 43
34 45
34 46
34 47
34 49
34 50
34 51
35 42
35 43
35 46
36 42
36 43
36 44
36 45
36 48
37 45
38 50
39 42
39 44
39 47
39 48
39 50
40 46
40 47
40 49
40 51
41 44
41 45
42 53
42 62
43 52
43 54
43 59
44 53
44 54
44 56
44 58
44 60
44 62
45 54
45 54
45 57
45 59
45 60
45 62
46 57
46 58
46 60
47 54
47 55
47 59
47 60
47 61
48 53
48 55
48 59
48 61
48 62
49 52
50 52
50 55
50 57
50 59
50 60
51 53
51 55
53 67
53 69
54 73
55 63
56 66
56 67
56 70
56 71
57 63
57 64
57 65
57 68
57 69
57 72
57 73
58 63
58 68
58 69
58 72
59 63
59 64
59 65
59 69
59 70
59 71
60 64
61 64
61 70
61 73
62 70
62 72
63 77
63 79
64 77
64 78
64 79
65 77
66 75
67 74
68 79
69 76
70 76
70 77
70 79
71 74
71 79
72 78
73 74
73 79
74 84
75 80
75 83
75 84
76 80
76 82
76 83
77 84
78 82
78 83
79 81
79 82
79 83
80 86
80 87
80 93
80 94
80 95
80 96
81 86
81 87
81 89
81 90
81 92
81 96
81 97
82 92
83 85
83 87
83 88
84 85
84 88
84 88
84 91
84 95
85 99
86 98
86 99
87 98
88 99
90 98
91 98
92 98
93 99
94 98
95 99
96 98
96 99
97 99
