0 9
0 10
0 15
0 18
1 9
1 10
1 11
1 12
1 14
1 15
1 17
1 18
2 9
2 13
2 14
2 15
2 16
2 18
3 11
3 14
3 17
3 18
4 13
4 14
4 15
4 16
5 8
5 10
5 11
5 12
5 15
5 16
5 17
6 8
6 9
6 10
6 12
6 16
7 9
7 10
7 13
7 14
7 16
7 18
8 21
8 24
9 21
9 22
10 19
10 20
10 21
10 23
10 24
11 19
11 22
12 19
12 23
12 24
13 19
13 20
13 24
14 19
14 21
14 22
14 25
15 19
15 22
15 25
16 21
16 22
16 23
16 25
17 20
17 22
17 24
18 24
19 27
19 30
19 31
19 32
19 33
19 37
20 26
20 28
20 29
20 30
21 29
21 33
21 34
21 35
21 39
22 28
22 34
22 35
22 36
23 26
23 27
23 28
23 30
23 32
23 35
23 37
23 38
24 26
24 27
24 29
24 31
24 34
24 38
25 27
25 29
25 30
25 31
25 32
25 34
25 37
26 40
27 42
28 40
28 43
28 47
29 40
29 42
29 45
29 46
31 40
32 41
33 40
33 43
33 46
34 44
34 46
34 46
35 45
36 46
37 40
37 43
37 44
38 40
38 44
39 40
39 43
39 44
39 46
40 48
40 55
41 48
41 50
41 51
41 53
41 54
42 48
42 50
43 49
43 50
43 55
44 49
44 51
44 52
44 53
44 55
45 49
45 52
46 49
46 53
47 48
47 51
48 57
48 58
48 60
48 62
49 58
51 57
51 58
51 59
51 60
52 57
52 58
52 59
53 56
53 60
53 61
54 60
54 61
54 61
55 58
56 66
56 67
57 64
57 67
58 63
58 64
58 68
59 63
59 64
59 65
59 66
59 68
60 63
60 65
61 65
61 66
62 63
62 65
62 66
62 68
63 69
63 72
63 73
64 71
64 73
64 74
64 75
65 72
66 69
66 73
66 76
67 70
67 75
67 76
68 69
68 72
68 76
68 77
69 78
69 79
70 78
70 80
71 78
71 79
71 82
72 80
73 79
74 78
74 80
75 80
75 81
76 79
76 80
77 78
77 79
78 83
78 84
78 85
78 87
78 90
78 93
78 94
79 88
79 90
80 85
80 86
80 87
80 89
80 92
80 93
81 84
81 86
81 89
81 90
81 91
81 92
82 83
82 84
82 91
82 93
83 97
86 96
86 98
87 96
88 96
89 99
90 96
92 99
94 95
