0 8
1 9
1 11
2 11
3 9
3 10
4 8
4 10
4 13
5 8
5 11
5 12
5 13
6 8
7 8
7 11
8 19
8 22
8 24
9 14
9 19
9 26
10 16
10 18
10 20
10 21
10 23
10 25
10 26
11 15
11 18
11 20
11 21
11 23
11 26
12 15
12 16
12 17
12 24
12 25
12 26
13 14
13 15
13 16
13 18
13 22
13 23
13 24
14 30
14 32
14 33
15 30
16 27
17 32
17 33
18 28
18 33
20 32
20 33
21 32
22 32
22 33
23 28
24 28
24 29
24 30
25 30
25 33
26 27
26 29
26 31
26 32
26 33
27 37
27 38
28 39
28 40
29 41
30 34
30 37
30 38
30 40
30 41
31 35
31 37
32 37
32 40
32 41
33 36
33 41
34 46
35 46
36 42
36 48
37 42
38 42
38 43
38 45
39 42
39 43
39 45
39 47
39 48
40 42
40 44
40 46
40 47
41 43
41 45
41 46
41 48
42 49
42 50
42 54
42 55
42 57
42 58
43 53
43 54
43 56
43 58
43 59
44 51
44 53
44 55
44 57
44 58
45 51
45 54
45 55
45 59
46 49
46 54
46 59
47 52
47 54
47 57
47 59
48 53
48 59
49 61
50 63
51 60
52 60
52 61
53 60
53 61
53 62
54 60
54 61
54 62
54 63
54 64
55 60
55 61
55 62
55 64
56 60
56 62
56 63
57 60
57 61
57 62
59 62
59 63
60 65
60 68
60 70
60 72
61 67
61 71
61 72
62 65
62 66
62 69
62 70
63 67
63 69
63 70
63 73
64 69
64 73
65 74
65 76
65 78
65 83
66 74
66 78
66 80
66 81
66 82
66 83
67 74
67 78
67 79
67 81
67 84
68 76
68 77
68 78
68 79
68 80
68 83
68 84
69 76
69 78
69 82
70 76
70 82
70 84
71 82
71 82
72 74
72 76
73 75
73 76
73 81
74 85
74 88
74 91
75 86
75 88
75 89
76 85
76 87
77 85
77 86
77 91
78 85
78 88
79 85
79 86
79 87
79 88
80 88
80 91
81 86
81 87
81 91
82 86
82 87
82 90
82 91
83 85
83 86
83 88
84 85
85 96
85 96
87 93
87 94
88 92
88 94
88 95
89 95
90 95
90 96
91 94
91 96
92 97
92 98
92 99
93 98
95 97
96 97
96 98
