files/tasks_parameters/ExAp01/sample8.txt 1.14823 7.2562 4.46819 0.454772 26.3352
files/tasks_parameters/ExAp01/sample12.txt 1.60089 9.70908 5.28286 0.618515 35.8173
files/tasks_parameters/ExAp01/sample2.txt 1.56237 8.14159 5.7401 0.620531 35.934
files/tasks_parameters/ExAp01/sample44.txt 1.34548 7.25164 5.75904 0.557631 32.2915
files/tasks_parameters/ExAp01/sample27.txt 1.30871 8.10944 5.64946 0.564878 32.7113
files/tasks_parameters/ExAp01/sample17.txt 1.25654 7.11225 5.46658 0.527183 30.5284
files/tasks_parameters/ExAp01/sample9.txt 1.21993 7.62559 5.37813 0.517277 29.9547
files/tasks_parameters/ExAp01/sample34.txt 1.20453 7.04587 5.93037 0.497709 28.8216
files/tasks_parameters/ExAp01/sample40.txt 1.20795 8.03037 5.123 0.502383 29.0922
files/tasks_parameters/ExAp01/sample33.txt 1.60796 9.22935 5.92956 0.659262 38.1769
files/tasks_parameters/ExAp01/sample48.txt 1.13077 8.12182 5.1577 0.452491 26.203
files/tasks_parameters/ExAp01/sample29.txt 1.4747 8.06133 5.12331 0.650652 37.6783
files/tasks_parameters/ExAp01/sample11.txt 1.37867 7.63104 5.37897 0.563302 32.62
files/tasks_parameters/ExAp01/sample14.txt 1.21166 6.66403 4.66322 0.471536 27.306
files/tasks_parameters/ExAp01/sample0.txt 1.63731 9.3266 4.98971 0.6311 36.546
files/tasks_parameters/ExAp01/sample7.txt 1.27387 7.34863 5.19436 0.515527 29.8534
files/tasks_parameters/ExAp01/sample23.txt 1.38462 6.68564 5.54308 0.588617 34.0859
files/tasks_parameters/ExAp01/sample13.txt 1.56922 9.31093 5.35591 0.632849 36.6473
files/tasks_parameters/ExAp01/sample22.txt 1.30262 7.65588 5.04866 0.540336 31.29
files/tasks_parameters/ExAp01/sample25.txt 1.0683 6.17035 5.0141 0.408296 23.6438
files/tasks_parameters/ExAp01/sample36.txt 1.32471 7.03772 4.66274 0.507647 29.3971
files/tasks_parameters/ExAp01/sample46.txt 1.35912 7.73433 4.79934 0.536843 31.0878
files/tasks_parameters/ExAp01/sample31.txt 1.21138 6.96928 5.16482 0.485817 28.133
files/tasks_parameters/ExAp01/sample37.txt 1.58809 9.52443 5.74224 0.65799 38.1032
files/tasks_parameters/ExAp01/sample16.txt 1.32757 8.63521 4.97261 0.516328 29.8998
files/tasks_parameters/ExAp01/sample10.txt 1.46521 7.28353 6.16876 0.615651 35.6514
files/tasks_parameters/ExAp01/sample39.txt 1.13182 6.3405 4.6137 0.468873 27.1517
files/tasks_parameters/ExAp01/sample19.txt 1.47363 8.85528 5.22306 0.622152 36.0279
files/tasks_parameters/ExAp01/sample20.txt 1.38267 8.1141 5.21177 0.586994 33.9919
files/tasks_parameters/ExAp01/sample43.txt 1.26564 7.21373 5.6367 0.53748 31.1246
files/tasks_parameters/ExAp01/sample32.txt 1.48875 8.30592 5.38137 0.593918 34.3929
files/tasks_parameters/ExAp01/sample45.txt 1.32147 7.94069 4.96323 0.547271 31.6916
files/tasks_parameters/ExAp01/sample26.txt 1.10511 7.57061 4.62637 0.480146 27.8045
files/tasks_parameters/ExAp01/sample5.txt 1.40488 8.0307 5.35681 0.59407 34.4017
files/tasks_parameters/ExAp01/sample21.txt 1.07954 5.87802 4.61744 0.434264 25.1476
files/tasks_parameters/ExAp01/sample38.txt 1.26825 7.66999 4.86632 0.496808 28.7694
files/tasks_parameters/ExAp01/sample1.txt 1.17952 7.21312 4.63213 0.486293 28.1605
files/tasks_parameters/ExAp01/sample15.txt 1.23513 8.02273 5.50855 0.531063 30.753
files/tasks_parameters/ExAp01/sample24.txt 1.37269 8.66348 5.4905 0.548998 31.7916
files/tasks_parameters/ExAp01/sample3.txt 1.19983 7.74268 4.79918 0.477387 27.6447
files/tasks_parameters/ExAp01/sample6.txt 1.49801 8.57133 5.80157 0.633604 36.6911
files/tasks_parameters/ExAp01/sample30.txt 1.69013 8.18878 5.90888 0.633576 36.6895
files/tasks_parameters/ExAp01/sample42.txt 1.32639 8.57689 5.67253 0.54426 31.5173
files/tasks_parameters/ExAp01/sample4.txt 1.29479 8.40354 4.57985 0.563519 32.6325
files/tasks_parameters/ExAp01/sample28.txt 1.1055 6.44114 4.96426 0.449721 26.0427
files/tasks_parameters/ExAp01/sample18.txt 1.34748 8.56363 4.60946 0.543766 31.4887
files/tasks_parameters/ExAp01/sample35.txt 1.91526 11.0387 6.34514 0.761377 44.0902
files/tasks_parameters/ExAp01/sample47.txt 1.33242 7.14493 5.22131 0.545046 31.5628
files/tasks_parameters/ExAp01/sample49.txt 1.28943 6.65996 4.80244 0.498533 28.8693
files/tasks_parameters/ExAp01/sample41.txt 1.19501 7.09069 5.35462 0.497129 28.788
