Task0 0.009754069016424533 0.04332702144240061 0.0302789479301065 0.05503843298048853 0.5841604461510255 0.7788950437407984 0.6323186905506417 
Task1 0.0770062670982881 0.3555067327730491 0.34205045993477556 0.11252683383354053 0.33761178732241093 0.8603106015435864 0.6083153229181413 
Task2 0.005156788661849434 0.018483055350569197 6.84156112033334e-05 0.027382218745412277 0.800340754666719 0.5449465142778016 0.40270537024633224 
Task3 0.08535382066648071 0.42842103277936744 0.15976771733410766 0.10638228425016431 0.823777562284562 0.6039781241924207 0.649287481638303 
Task4 0.04024780245936398 0.15870081436818315 0.2981023143278552 0.049520126351817344 0.7633306424305104 0.8327411941960323 0.8484311966574627 
Task5 0.07125203613869581 0.10279110596003867 0.052423051024885675 0.16992909134533762 0.7595470934132675 0.9998579357829038 0.7036146243552497 
Task6 0.03476192643466779 0.21694530142852989 0.2125617660269541 0.0862049749307485 0.6731105338559096 0.8398301406684425 0.7058332413460754 
Task7 0.011316447081904846 0.01903695038740409 0.04901432914125652 0.03261472096501262 0.7140411081659729 0.8992631769246546 0.3660513346325944 
Task8 0.00697699058016139 0.08248936492000439 0.13772697235365214 0.006405121966992544 0.7388981906328588 0.48797880683574174 0.7570548046309747 
Task9 0.029568817349359334 0.3636624194003324 0.24474608115094112 0.02146748448469902 0.5759087631050556 0.3000314336008569 0.4376562574902333 
Task10 0.03605567443722829 0.11293609156661978 0.05475628593881412 0.2291968574116807 0.7454796799298178 0.926018421376458 0.45900089426088714 
Task11 0.04418882250283034 0.18350861833858997 0.05811565031480903 0.2156864724143792 0.3750189728328298 0.702272929918365 0.5439022385079534 
Task12 0.051265412606447645 0.10353006221312219 0.22547734854849258 0.34706197727753374 0.649744469898176 0.3192803955054259 0.7216469533700203 
Task13 0.028091968682473566 0.08016057543577507 0.05280058057934761 0.0452784888270241 0.5393816666182694 0.6571467251940424 0.42753539237867766 
Task14 0.058595342007065176 0.4674520671203027 0.3460357942730139 0.07752283900758011 0.7232200694543774 0.5460483318477141 0.5301034369523505 
Task15 0.015348749551119785 0.07706105180664168 0.0376126155450109 0.44530013504407173 0.9323419246448554 0.8130512601115756 0.6212949619076034 
Task16 0.04702893239003649 0.2520914809315728 0.2365317340443864 0.2856105721019134 0.3064649540294265 0.5267928437318905 0.37956642777018595 
Task17 0.054375427849796244 0.13505241031076934 0.026917748649094263 0.17714635646025412 0.3300091017978163 0.8920084237991419 0.7125061618216084 
Task18 0.00460580724807035 0.05188239017303815 0.16806774119872037 0.19802107005915365 0.6800905713979192 0.8723285309731721 0.692593652022986 
Task19 0.006195588351030837 0.07407220253045649 0.04350899317290859 0.07911176623519639 0.9063288922627741 0.6624734682906179 0.3172234965584705 
Task20 0.07745746910736154 0.12243996314121389 0.10244122040337482 0.4265351099676464 0.7316138330470641 0.7237688748904842 0.7490742226918379 
Task21 0.07221440400927351 0.11648306574210493 0.1439021645289404 0.1251409910591796 0.8129979682855313 0.34736440923428136 0.3963988189165355 
Task22 0.08088460865756647 0.3290107707630069 0.20428965517526448 0.02274187553773011 0.6836535352037545 0.8656229137287337 0.586401023161739 
Task23 0.014496691632229695 0.29905575454659 0.06102747861448237 0.3709579689939675 0.6007372856295773 0.6964637077641453 0.9331791187520149 
Task24 0.12022515121086692 0.17888453441375615 0.1632015380801383 0.16185905816164242 0.7273734106251726 0.46384923396327665 0.937432993802148 
Task25 0.0001769128837539696 0.08075951086246591 0.09913773504369186 0.10589029440068952 0.6637077402343317 0.5488626710946545 0.8362159480840345 
Task26 0.08459450620427138 0.1535902243669003 0.051174292917182174 0.3887970016264936 0.8471282115588494 0.6957777102476893 0.7025945099716883 
Task27 0.031205116551586993 0.1482074114539514 0.017193473949444933 0.19641955540317535 0.9792344848717229 0.5392790761381887 0.5818490414728317 
Task28 0.07860763745621333 0.3330607520327754 0.12391594820751972 0.33575390346354234 0.6433845091598787 0.6345266264224743 0.7013461673221117 
Task29 0.04157487243131396 0.1956621671733766 0.01905080156218622 0.18913007238602444 0.5672157188700931 0.9192496037665714 0.911362936176886 
Task30 0.051207982165833936 0.22450162966674253 0.06237592112479664 0.021702508033782247 0.47552871861336865 0.381717529536958 0.8622010634844779 
Task31 0.09711604752011332 0.1514421811378642 0.012774861947603388 0.32519242225966505 0.32480155175395964 0.6535561510370022 0.8367701497582076 
Task32 0.08170234222178721 0.18836599482571117 0.08153853957079465 0.059263416265471526 0.9704758170573178 0.8328848349986702 0.33899090909149854 
Task33 0.03523889210840949 0.11988213877904991 0.012486737870129671 0.09746726564729681 0.5627341679311046 0.4597848652201171 0.5216278556372305 
Task34 0.12020485556447187 0.2784592177401099 0.3320251033398112 0.2277782802470952 0.3264329577886355 0.8591231717392469 0.8131962215404389 
Task35 0.11526787158481279 0.1712846577328266 0.14004409375011842 0.27916718347622227 0.8754831694883844 0.9878622884281694 0.5486969034504979 
Task36 0.0017776636682681104 0.002666316140282204 0.003877999172859109 0.002456452971510519 0.3263786680666896 0.9782145653479597 0.6630065313392521 
Task37 0.0157455199143933 0.031234763842347944 0.09753038895693822 0.04507112208073359 0.951627842186731 0.7679651309672832 0.34009917891706765 
Task38 0.0944135902231301 0.2316596880835794 0.33665090871354375 0.1466769151233423 0.7780538260033938 0.717520733440768 0.5404869715702519 
Task39 0.15792308086612528 0.3962590086053058 0.30731671290517726 0.09076685162277913 0.9693904842918835 0.90709815926474 0.9877054898683906 
Task40 0.05473166618807968 0.15460098235214012 0.16922520492691903 0.0028048872740986633 0.6888284644695148 0.8453661129346144 0.5210523839614543 
Task41 0.05936810014811149 0.5274390571852693 0.1782415408624325 0.01685951462093333 0.6346324172288951 0.5845245364787801 0.516315840638785 
Task42 0.008030975282921215 0.0013966353942634758 0.014113725700897473 0.03615089562204058 0.41133890419290403 0.654533339402092 0.9191543910069697 
Task43 0.01741465314071969 0.30748170517101464 0.215979261374511 0.29430310307781693 0.86987405425538 0.9283729196180772 0.4948867372692074 
Task44 0.06270880762206389 0.009259471685212328 0.17000767268818678 0.17109795765664224 0.5503161250295592 0.6912683753858544 0.9515590179894908 
Task45 0.00881471897586514 0.04467852140742865 0.007200152320379786 0.05235323405456749 0.6712322732486653 0.5420438511990153 0.6232371184280084 
Task46 0.02177279047773019 0.06464990172499266 0.43954205263590523 0.013668825260707906 0.5727619803069876 0.3974440858321656 0.4147968201886715 
Task47 0.03919881993039105 0.059225316641556176 0.056510574672394884 0.06106408024912912 0.9403115802403321 0.4975867443631307 0.9847113327393417 
Task48 0.03327280934024176 0.0040969991044884 0.018072350230567993 0.11127873872372192 0.9691395271003651 0.4418589221299588 0.7355645171810381 
Task49 0.034456371411422757 0.038328627234058305 0.1216264297203347 0.16557563177173343 0.9115075167931008 0.77215626087777 0.9820572873327755 
Task50 0.15465763382975453 0.07013557861205971 0.037772864052246516 0.7172511297534835 0.41441814477550204 0.8314694279159087 0.46338965535248305 
Task51 0.002964776760771752 0.05764365192325091 0.0359647428233955 0.0690752622877139 0.58750013611118 0.6246444898335468 0.32967656115779753 
Task52 0.034151984292754255 0.5827131232827469 0.06592279359816945 0.0011983859264766603 0.7387792607652075 0.895919553142575 0.7616416965310046 
Task53 0.005038837240055632 0.012297699799528284 0.013323339114598981 0.0008679616139464961 0.5329124297209658 0.964928485764883 0.6011329218151341 
Task54 0.019547740523862128 0.01925826349992265 0.024975847541567404 0.053126511339933215 0.3732182573414458 0.5342773380903549 0.8914650405443172 
Task55 0.07186944557837481 0.05244398944751893 0.09843548580740615 0.25022018539147195 0.34511111455682225 0.9849070835776406 0.34147934689106446 
Task56 0.039890339845015214 0.34419087477794585 0.05759448763365706 0.06641446564796728 0.40053268223975075 0.6199207287340129 0.8707843301668419 
Task57 0.013474883971091601 0.032357520064800145 0.012258804444961498 0.010474086463523666 0.8710548740661359 0.38899649680140075 0.49796492771664347 
Task58 0.13254769259090907 0.22920286636391035 0.22285690065173666 0.37220809680001526 0.9775261425008315 0.6238997174552448 0.8510690591702745 
Task59 0.04184899969295586 0.009053417717195584 0.1770427979014664 0.4125133073366673 0.96920980171988 0.748013267612978 0.7387679466120752 
Task60 0.008082868500025722 0.033602502981249484 0.03148521186966547 0.008739060331261655 0.8456152932606835 0.9077146468079327 0.39564264125227755 
Task61 0.03874531929980218 0.04404917855104606 0.0725696700759089 0.08088218225434207 0.5142094171220035 0.8154565692830691 0.39618102419863493 
Task62 0.08605286517702054 0.18164192662002185 0.2508651305289561 0.011014551034706296 0.5917907680586696 0.9594746328891486 0.802618792235249 
Task63 0.019262743296698238 0.009263278868446308 0.3984808545585177 0.22248991280178615 0.9967769961091373 0.3750006709864797 0.49105982245366775 
Task64 0.0932759652851593 0.015893599026095575 0.1525559921428869 0.5289036334264341 0.6084983453752169 0.869608412694624 0.6922484463116658 
Task65 0.1426422943215961 0.2566545355855832 0.17488151606615396 0.3411675300892333 0.8112508249212327 0.949337430815004 0.6955787631257828 
Task66 0.028217314706703012 0.06116386218579234 0.07001329471731518 0.09975902686492583 0.776310878040245 0.6349903494514899 0.5659453818180814 
Task67 0.07177896284845854 0.21553305701462852 0.04331200473996528 0.21066110816956454 0.4072051466736375 0.44100890570983214 0.6856646248797087 
Task68 0.06831346625251282 0.18713970510744868 0.23942192422358333 0.2463527700274709 0.6899678954161084 0.8716680953790039 0.5624425736576616 
Task69 0.003695999634270706 0.012878319006604853 0.011375911524511258 0.001846111596598716 0.8009489124170286 0.6367161745722927 0.7686041616763992 
Task70 0.025697274074479057 0.22089287059682708 0.18910279787938328 0.23367222420587644 0.3298363234618047 0.9728623231873716 0.33957014883592174 
Task71 0.007719816661742629 0.16617860692598677 0.18018622942636076 0.09778774388341763 0.8259208586553941 0.7950937506901596 0.8122473995906012 
Task72 0.013667527403503382 0.057422622299201746 0.024044611669722046 0.005126742602150723 0.9548021038457184 0.41986497222226105 0.8593770723281404 
Task73 0.0061955085076662204 0.013651713696604804 0.022343508811497666 0.016886166980567396 0.7297573737760388 0.9359942005806983 0.41455057994208333 
Task74 0.1739169426945674 0.3047420792867264 0.3501843638553234 0.13629541309699386 0.325694224485939 0.6372080140812987 0.8602854194074714 
Task75 0.12367371666279885 0.4396285750531776 0.3269037704759348 0.0274486208816061 0.6743814179895059 0.8006463944835882 0.3566273863105197 
Task76 0.013798630999434373 0.1290170123871511 0.04971240435128122 0.10115960940331309 0.6511513600502432 0.9659097812463193 0.4595343074329745 
Task77 0.07352215287642361 0.17010396821549673 0.18543223148504628 0.2606669486175406 0.5220851111878099 0.7180890935024719 0.7320425666840128 
Task78 0.055030840198538225 0.13784582631668504 0.10106208391842453 0.09674770889706291 0.37270917558608607 0.34412940564637323 0.41896970466938077 
Task79 0.03528223126280533 0.08570936361247423 0.201614355163276 0.1342746838659479 0.9254154032693667 0.8194047661436972 0.838057895242267 
Task80 0.0656609231135062 0.20410377185935483 0.0748978228588846 0.004980124429013528 0.5251975909192461 0.4959703890012975 0.8108956648330994 
Task81 0.011852073251516012 0.038944299204017575 0.10035368401477972 0.02851440300190546 0.4642902397914819 0.8065294148392816 0.7239540030859708 
Task82 0.007240754557259308 0.07799072203728674 0.053363648132724546 0.08671861816311026 0.41970206938768173 0.5602361616950893 0.8419575037318399 
Task83 0.06895894156918529 0.11648865793278035 0.1554222954235196 0.11427542459946965 0.5191888489638037 0.9233630414133804 0.49997369780441503 
Task84 0.01559210096907666 0.08814926363674579 0.006134781242330669 0.014777442752264414 0.5370369610267722 0.696555549992057 0.8085170279051845 
Task85 0.025344658729072232 0.02892321473895742 0.059774079563003485 0.014626481371184727 0.6120651468023174 0.4760871574273844 0.6705956356811593 
Task86 0.03272885769061593 0.3421555256814961 0.08482262051516788 0.39463082894727985 0.7100208795524308 0.35355423627352794 0.8644216899561472 
Task87 0.14271809786684736 0.05957051480045089 0.4120021110692506 0.18678175003512978 0.7639555711030037 0.7821495215957927 0.32296233031088967 
Task88 0.01854363360844101 0.1012811626371183 0.4152000170655681 0.13548859827500104 0.5218576041255767 0.3247648941154031 0.6483441307833229 
Task89 0.01896777566324773 0.057010394102303345 0.02427762685475395 0.02337738978342718 0.8159466418826415 0.8973000070721875 0.5314165559279448 
Task90 0.08778589131795671 0.10956093783687083 0.05225122691938751 0.5468397919321027 0.5178288222980703 0.8332186436086733 0.9302408310468739 
Task91 0.05435279422887241 0.32171031176430115 0.15615374801661172 0.057470266610982805 0.6454813370143613 0.9496519307064624 0.975688239028655 
Task92 0.050632919117101625 0.14677180155376202 0.11340000559191597 0.031669777957200385 0.4977050433362123 0.8939240961837487 0.3501325872583163 
Task93 0.06843317422135992 0.1371583542113555 0.2094939808691166 0.11149689642279864 0.4183590829265515 0.3678091167146735 0.9769157767742342 
Task94 0.02521630425176095 0.09771647888308117 0.08419996232896439 0.06928414724809304 0.7108872147127052 0.7632516084994381 0.7791183111899376 
Task95 0.022086011769207558 0.13490607785823291 0.1001273439372484 0.00880920264728222 0.7815581902827583 0.5528760588461915 0.963122012798582 
Task96 0.008801855834905739 0.0038040037495109735 0.01575166774218908 0.29687258684523743 0.5525298940256571 0.5296347739858823 0.3180039106826351 
Task97 0.013363379147475834 0.021495121223597112 0.026564056688532834 0.019920149006338074 0.3071164880029162 0.6690224320872945 0.7658047017520277 
Task98 0.07130999980151448 0.13389838666034634 0.12733326954723814 0.10011790587143327 0.8464972872453365 0.3605422108294632 0.7844000611409689 
Task99 0.00046544907458278325 0.002588925123443316 0.0018609294414193584 0.00019065339427084367 0.6898051477487501 0.4060647288794614 0.42124250352137194 
