Task0 0.040146550286057625 0.2623373400047524 0.1489780306248207 0.08704241672303897 0.6645294762990112 0.7375097833588659 0.4610196599238046 
Task1 0.037625967697659676 0.31064424542764446 0.2740392252864699 0.053260194491139154 0.6004996959515414 0.6351062546717657 0.6244471261939586 
Task2 0.11485558371218242 0.13874583698627246 0.3350248418370597 0.1865484610413361 0.4947881475160868 0.4205811249105508 0.5030885123708806 
Task3 0.010557590004229464 0.08430576657038259 0.23374696892411656 0.22827349753175533 0.764854859517054 0.9676631220650749 0.5975194479096971 
Task4 0.012605594831656321 0.017881334349777823 0.003592979196445582 0.043229823642975826 0.9063523237143116 0.34232470907030643 0.6191919950857377 
Task5 0.042833103039218924 0.4215314343207205 0.07283049083872642 0.08285644789906985 0.5183001874699475 0.9338594605343009 0.4445731209422976 
Task6 0.018945630085250985 0.047844836008386855 0.14320208016155594 0.054258372802767456 0.5002233052602065 0.4472771385224712 0.9179578679370883 
Task7 0.02986902271224571 0.06723703855658249 0.021421911361245105 0.06722696198710675 0.464588053800996 0.3470263279822405 0.8964429893829222 
Task8 0.02043491210312333 0.09584468182412577 0.1548356696435556 0.06102603338296028 0.48103958656914214 0.5015005734357221 0.5536724704064548 
Task9 0.07266121497552099 0.12496875579601557 0.07865277259768767 0.12675168562290953 0.4238193728802995 0.627589592803505 0.9378110691597872 
Task10 0.050611056087281614 0.26626862911765725 0.20159453365677885 0.09265105073422676 0.8470742258444954 0.5932118228285732 0.7384894837287496 
Task11 0.09143232942422716 0.08686427965274415 0.13407606187573654 0.44590744050192876 0.7826254112518893 0.9505169958849584 0.4369170373447268 
Task12 0.12203715236099552 0.012653996210886446 0.24577105778188985 0.44512217538461796 0.7529492122112302 0.41135527612249856 0.5360581855483022 
Task13 0.017264009283910673 0.026848195839788133 0.11119612037636216 0.10549618384309413 0.9196027883775875 0.7123809659535123 0.5695349967296603 
Task14 0.044260347982113916 0.32401011475490943 0.07459170001787227 0.0911154202049712 0.9462654236313994 0.3365778682228172 0.33851392489925747 
Task15 0.005416426306769076 0.2243092972934715 0.11669788211276011 0.44081143632771513 0.7512543804877531 0.7318746616360368 0.4561940855210264 
Task16 0.041983869322849025 0.34692863091850856 0.33077979314435435 0.08904422399971149 0.9826321524269648 0.6169922133525239 0.7366212642453911 
Task17 0.044494758567155505 0.040918431866004135 0.0271670689020854 0.12270364698457908 0.7289875075419041 0.7355360912889517 0.7445527214770502 
Task18 0.029660858925187623 0.000673797023417135 0.3039068517847665 0.11257584630780791 0.5701991239036779 0.7687427443332099 0.4492280066148973 
Task19 0.027686708729654612 0.1982162395698179 0.4055246344517358 0.05142161015950048 0.3292313812930494 0.9547728963117439 0.8844738699926487 
Task20 0.014787381050362895 0.09088366249422401 0.06815505707926282 0.1411569190332259 0.8267333881783929 0.6017335726638816 0.7772666629174148 
Task21 0.012443825652407798 0.051999957104379255 0.13644978102491764 0.15366975459955207 0.7516999962941976 0.5280712861015032 0.5080998529826813 
Task22 0.11594852472341416 0.20588856076314432 0.12694305928592958 0.4584323988493898 0.7147285095978995 0.5690486226783269 0.4836550726656216 
Task23 0.0032739811492575547 0.3473183137234784 0.15588394024753388 0.306603934515347 0.5113558490278812 0.6354610386374391 0.860176248940709 
Task24 0.02233241389907706 0.02656007385441961 0.0876463295432408 0.0020533075522926767 0.6331349183852739 0.8486175500005946 0.3021734895115616 
Task25 0.051138841344785045 0.09756156408236648 0.3155239232726903 0.31311570037190006 0.37392096055356827 0.9583011201273997 0.8258139385450083 
Task26 0.05084240541121501 0.17119321446866567 0.10132752135359574 0.0677152991373845 0.765607458072537 0.3457644195844772 0.4281731620959006 
Task27 0.07650309715839043 0.28344221270490616 0.08589291652259258 0.10823367320364331 0.5450829760550515 0.8221696926359536 0.9437703985635537 
Task28 0.17945041725252475 0.014305372384160069 0.41847337179636035 0.2961739192185605 0.830730837037805 0.773518208041887 0.4798178111640314 
Task29 0.020608773662349436 0.03757985622190125 0.15659437490706696 0.17818700749778624 0.6034729967014569 0.6470618408984258 0.9849313497675212 
Task30 0.03700698689740298 0.13833130946640962 0.12828805979651406 0.02586002003502366 0.3464341348122812 0.3969238572643493 0.5336148846479005 
Task31 0.008594200574936253 0.12019071850845826 0.10224937988865992 0.12950923006443177 0.7028375859269831 0.5011139015468951 0.361230676346237 
Task32 0.06186830348505932 0.037509401213941744 0.07556526056151727 0.19822832974210955 0.772041181182569 0.38334653700981 0.42377711230015025 
Task33 0.13297666599445762 0.30667486464905025 0.25484041018414877 0.29961474221144463 0.32168141424121083 0.6672029796319829 0.5438415894764939 
Task34 0.0015834675833913303 0.011498456952461175 0.0316884012106914 0.013690567818518887 0.8938292037547473 0.4148571041179177 0.9740096771505193 
Task35 0.11649348017614833 0.38308153244047166 0.11925013408969862 0.051477571368223875 0.7702515021923189 0.8967961426653095 0.3060334956107777 
Task36 0.030924970032954212 0.36449242667968945 0.011113883673647117 0.37944702919576034 0.7093738621832477 0.41461120047355243 0.9083575004821962 
Task37 0.07884160591731379 0.579019685398437 0.09666501196921133 0.16419836658259895 0.7129621153962877 0.8755098976034992 0.545942867898877 
Task38 0.00738379814471529 0.008029902327853595 0.015743354349282944 0.03393218645453632 0.8165472654635795 0.663466963475146 0.962225160118602 
Task39 0.02304838677416132 0.13028951642349323 0.11479637828376904 0.038746937811227004 0.9244679482777314 0.45285982354260723 0.6812697306657594 
Task40 0.0565076129304743 0.18033744793294743 0.22482463337709604 0.11866596786491551 0.6653674148336299 0.41080778892010594 0.6095544023520562 
Task41 0.0196996132176148 0.2062535583298732 0.3546839200540235 0.37569785996645966 0.9408020385563294 0.7000738393099298 0.8292628069482961 
Task42 0.08602344522749286 0.273288400875136 0.45531437457616364 0.17892423500023183 0.4087342011673849 0.9377190615265185 0.5233257013681312 
Task43 0.036943520432735855 0.01462657214111378 0.23050488728979915 0.19262784310621697 0.5619851561860099 0.31062377701501653 0.7711313556961408 
Task44 0.004672835791619361 0.008422740856103493 0.008618763992932023 0.005772328802909051 0.8173782596499113 0.5532452233832024 0.49044549747073607 
Task45 0.045292241405267934 0.06794972253897501 0.12018413470417279 0.11454931432767432 0.5808314753910038 0.7247450173368138 0.8561228717814982 
Task46 0.022414001844129873 0.253771888914261 0.37392862772002566 0.2664353813186207 0.728510617945638 0.7996225679487288 0.9036923153942529 
Task47 0.01263641505070738 0.01878328480238959 0.13845716140832381 0.08915730384363571 0.8539568515998848 0.9012500247464552 0.41190660576031507 
Task48 0.0015784010415207247 0.23980772593437208 0.0026281279775092464 0.26919197103415826 0.7909037919004817 0.3909696521579865 0.8018453650122475 
Task49 0.07620429923372152 0.2109170703599048 0.18713518763325904 0.2005390041122377 0.4426533856185375 0.4382614586005923 0.49489585212547027 
Task50 0.10840806581086367 0.1436940911027747 0.08516948488054117 0.21661647390891497 0.6846095733628692 0.9984269174753688 0.6632939610212714 
Task51 0.044174050295887765 0.00692364264070094 0.08041294273934077 0.1456309273851092 0.9814512385764276 0.4881330926006997 0.3288318115116183 
Task52 0.08514898712250119 0.2632064320517672 0.2556131226841509 0.20167396668815954 0.7700021976915008 0.4801662315643282 0.7924310952647762 
Task53 0.07978917664790136 0.2529201733238307 0.024221442252398837 0.08404876683175201 0.8045862439652041 0.8323564737631846 0.473417983091598 
Task54 0.1421445455882143 0.5771840423600331 0.17946278390533463 0.01131441092331275 0.7924210724298455 0.6158106372444054 0.367319281345564 
Task55 0.16872822626980266 0.23238221217809482 0.25577675996809895 0.27995979809503413 0.6763292107172627 0.9469943771431211 0.34095311260057154 
Task56 0.003334798014346365 0.14209525242706353 0.30241897345787516 0.12012769027735257 0.796621131147581 0.3983039710898294 0.5398235656540422 
Task57 0.0007072785024140343 0.29958382284881374 0.5116921432530425 0.018090746658551267 0.3152824478568655 0.3470110150630407 0.6050812699616752 
Task58 0.01789637218307714 0.034226705357297035 0.046288839489105206 0.0696554386516699 0.8374269170227118 0.3102238581072032 0.3252541033566111 
Task59 0.000681073576299597 0.21315691951907714 0.1489776772445632 0.04924336197901 0.3816003485384756 0.5008947236752889 0.44403322098865705 
Task60 0.08386551938944155 0.027129164387905337 0.5580097120571577 0.04750877762479639 0.4816688584964317 0.391601745427693 0.8399031243845034 
Task61 0.0786173176223811 0.19781482995594996 0.1565736474695133 0.22353380728514227 0.7371831627787848 0.3910462259563204 0.39808528299308416 
Task62 0.026821368741323733 0.04477030424921707 0.20311599168692188 0.029308051294167446 0.4833603348017059 0.6352996117904045 0.5638840691779528 
Task63 0.027572273330413767 0.052656286967616324 0.12825985604870713 0.00647357155066183 0.8409513360853378 0.7407552505198778 0.869024278130802 
Task64 0.019526710208039894 0.031094443401946337 0.12605406180303608 0.11265830262337138 0.7988235189999536 0.43419703388351283 0.8521145586585275 
Task65 0.03198254591561566 0.19772333748269597 0.10003353430903061 0.49445924040310435 0.9588625350997353 0.8185452320329971 0.521467811216789 
Task66 0.02004890983560039 0.10508397491726088 0.18874133248492148 0.5327442123631139 0.8096446900548047 0.37087136372815904 0.7390351748678727 
Task67 0.011210504248663223 0.1138177325425572 0.05795842426222739 0.17989020702364858 0.9568517943814447 0.5178202504511773 0.9386430204286702 
Task68 0.08228509205170334 0.14829039379502482 0.12232705926250928 0.14100259170353963 0.5291419430832132 0.8968324788331752 0.9894289684849356 
Task69 0.08547458011295389 0.0017243992030369724 0.32537429149806896 0.3825986232974452 0.35479865399255495 0.39250376201534576 0.43945291499480876 
Task70 0.0898074991500743 0.08890980645538382 0.1407710622297019 0.13960862102630406 0.5081735169970464 0.7233792326692114 0.3636297868892236 
Task71 0.05667125969118738 0.40100394638009346 0.0037915078665982233 0.33580550889635424 0.6652070026829479 0.3281831442004113 0.8319071122111024 
Task72 0.008560364767665637 0.18838839030006263 0.155591279268409 0.14610322817935856 0.6589614036247466 0.36769421816801373 0.550497668948691 
Task73 0.04448042924217403 0.10465071455009751 0.034561001741177766 0.714710084727172 0.3968186084120309 0.6666086381628882 0.36366585500453863 
Task74 0.04764851868794737 0.04152530757938196 0.09860087281569509 0.0761165936725317 0.6399328360185288 0.4552324066170668 0.39478938420056875 
Task75 0.008789682456537443 0.05883601472728764 0.028915842957729844 0.05842729914488675 0.7486012962455294 0.5041623279291754 0.8880478524271029 
Task76 0.020567823755194 0.20069197771803493 0.27425859323472934 0.234201931958244 0.3030132297387448 0.3337111930119412 0.7296031419064037 
Task77 0.040327239883122715 0.40461834401222296 0.008187325626423353 0.029372777007893383 0.41332724760283523 0.7853845263390566 0.9988163321458932 
Task78 0.015771540531599338 0.03861623816650734 0.011825066257298364 0.04336465123045451 0.6383266570419998 0.9747776123940806 0.9847959914980462 
Task79 0.0028985887340606613 0.009074724262444133 0.012870946105398956 0.01773217993202829 0.36108237859497544 0.5610324340058275 0.8099115645028896 
Task80 0.015574750112938615 0.12506132924409305 0.09601215324134066 0.059192946649212645 0.37365525366491426 0.30994104298248853 0.3626981688386212 
Task81 0.012796621640584191 0.020956924051222896 0.012324807492887115 0.03427176091436025 0.609823521447951 0.8741125755505983 0.6748499935878971 
Task82 0.0026333172246708514 0.0053150922580305045 0.001590005239153034 0.005911823512336838 0.8529743733954247 0.5563136932243209 0.6621603185987801 
Task83 0.0014243801990963104 0.17102197798446026 0.22970223283706467 0.22181202102569092 0.9796166164360265 0.9571588500240122 0.7902174945597695 
Task84 0.033441619131916324 0.19678201048789046 0.6123816553208139 0.13858186723392352 0.6927935061309334 0.7520091820248433 0.4655620025148789 
Task85 0.009868315095410645 0.00916915853976047 0.021290270255713437 0.014868523413441026 0.3515798195607026 0.4697674968653779 0.34754139118743427 
Task86 0.0870971525867434 0.25718127866515994 0.136981961025961 0.4691750119280593 0.6331501342979657 0.6469463199348617 0.4840862764065908 
Task87 0.11354123469783846 0.22752433653648668 0.3485410736776637 0.2027421745905316 0.5736409694360526 0.39858132895596293 0.9573075661236383 
Task88 0.0333252140717266 0.4398406196645817 0.029393146761118483 0.04215505324115986 0.6629357393661244 0.4218172506212863 0.40618298264678077 
Task89 0.016497650150437845 0.22265011399845422 0.1709602755148242 0.24356956874239638 0.734420451385662 0.8137040557667923 0.9626565871635273 
Task90 0.07229208571324822 0.26767930324821293 0.11408761359580187 0.21475653391703786 0.6742172027789939 0.4981425342789858 0.30072133362119013 
Task91 0.04252521354419071 0.038144776521999865 0.10209641934450779 0.09431193120084432 0.6749712381613158 0.4088801365174825 0.7194834034414541 
Task92 0.10311503158641228 0.3394037581615867 0.10493223940139396 0.11333802159791123 0.7288709455002751 0.5197435066369704 0.519011798501595 
Task93 0.13520882635170475 0.3975617996929338 0.13615872308179675 0.168429019492404 0.43426013433398913 0.9872707135392815 0.38387930651496915 
Task94 0.013906799367685747 0.004444647461453009 0.08431442226816516 0.06517837964238249 0.3543933323956234 0.9665033008295991 0.7892891546923155 
Task95 0.10009711233135171 0.5403992137412875 0.03523724263458377 0.2103077065760969 0.3661216677269765 0.7508172675133717 0.5672162930586846 
Task96 0.029213186068821125 0.21922808640062488 0.2587185064205645 0.08037834375570903 0.9978655265074061 0.6498876911254705 0.7841460343513276 
Task97 0.02566072575507227 0.0368004517937713 0.04362019936668138 0.0423788738136565 0.5340594532561758 0.40968770248446457 0.6447607707900116 
Task98 0.04190337763432138 0.3747627902071003 0.4848466008038877 0.01701671249320867 0.45566250095835736 0.311680520711616 0.569950736938871 
Task99 0.09433112710080158 0.22572756339016942 0.1350305201433346 0.20597604568460037 0.808602503948413 0.8742765923763327 0.9307032548475189 
