Task0 0.05739183773740344 0.1385565386598661 0.21748933909717777 0.09158748530601199 0.8113835951418242 0.693110151034753 0.37079780972362214 
Task1 0.006641019150228146 0.004459245086461656 0.042845685185269544 0.013695702477648904 0.8537674080042332 0.860200491569074 0.3897621882026656 
Task2 0.018637746384425353 0.1298173285562596 0.13568965216654896 0.06752869595658663 0.8107122875536492 0.7809098082817354 0.607279683104436 
Task3 0.004064041396909519 0.09150948458663352 0.07761799689930829 0.09598592114503524 0.9853330326882128 0.3179356921715851 0.5958239621747199 
Task4 0.13965720938239257 0.23328889191737565 0.3710953170037938 0.18651412770995593 0.8493216970389561 0.5495002917574983 0.3683314809397346 
Task5 0.0564159629209679 0.13585319334791482 0.004321214720686481 0.09844679457614414 0.32430862713506997 0.7765646265166641 0.8077731646242605 
Task6 0.03874329302329055 0.31093611218266337 0.25338290127380214 0.27163932676372193 0.7063241807251983 0.33461570134978286 0.46964918509908954 
Task7 0.11566640488735848 0.06817926958170965 0.30173372994254977 0.13621547510653162 0.5930236558649224 0.43603128550826753 0.30101805369923085 
Task8 0.016414941215014703 0.02686932007384632 0.42449996663002937 0.403720072278772 0.9257163068057692 0.8119605246102735 0.6477149862967733 
Task9 0.06948447699551333 0.1676985706795542 0.17022088638315439 0.30552259009388777 0.36432568043698343 0.3922742092578171 0.39625940877534793 
Task10 0.02987125597875944 0.16198162458821694 0.17048823576091982 0.09040225683140692 0.6933183584934146 0.4642642681502545 0.5524629916447419 
Task11 0.03634459637033087 0.11061740464231944 0.030960974716366246 0.030033031030308997 0.3202540218820817 0.5228457186039437 0.9692799540076644 
Task12 0.06120702942993633 0.20192958558190607 0.11541015875564792 0.3976870222001321 0.7347722541178441 0.7247401288970258 0.942121018645951 
Task13 0.007467621659077444 0.09144892713270328 0.03533417429465932 0.06380874623281065 0.9119879515195739 0.830750832992678 0.8108643567978733 
Task14 0.002363774555682476 0.07196061936174734 0.004868871780137591 0.26362010789673823 0.8800760703261912 0.37658585060157607 0.6469984233212523 
Task15 0.0035043337781282403 0.11567341235240182 0.11568124454686876 0.03433066579208515 0.3361277979771925 0.8000539986742339 0.6064159254274828 
Task16 0.03501312599024032 0.21505112364096216 0.525991881348427 0.013919426696270375 0.9052196481520789 0.3429178667901171 0.8781656622583669 
Task17 0.10520737809207 0.21394355159988748 0.2155195283482263 0.21200916430777947 0.4686349068223593 0.949568935125922 0.7652443014476425 
Task18 0.01026648754235737 0.07264702203872875 0.001228154494489883 0.05431566221714832 0.5297465622972378 0.8308158813885393 0.8537152317785024 
Task19 0.11702321171829286 0.26885278831404213 0.38189541788422576 0.06419815729296963 0.7874601108532742 0.6810909847966762 0.8904627031026364 
Task20 0.011050692630318206 0.05158870185371091 0.04600522237927632 0.012746651769521805 0.6101590068395211 0.959399595433664 0.913484735359744 
Task21 0.04505053424101663 0.3060725293622135 0.20505501671741663 0.32742035041458706 0.7298662270346762 0.7382806224109895 0.7762018412171245 
Task22 0.0005691723789144681 0.2950167514419251 0.17105241987090034 0.3820062756373801 0.5586839760990652 0.6982053581603307 0.9355738097432613 
Task23 0.0032611070559366833 0.06249915509890622 0.01484459938189398 0.06758179903841985 0.9261662970272138 0.8928094729876617 0.7589544735706584 
Task24 0.007595590806025641 0.056927394829679255 0.06617062179455674 0.062289162337988285 0.9040857068206596 0.7910391191976365 0.42172579430628065 
Task25 0.021182762854023374 0.044110518524320325 0.001941915004214573 0.060853589500528535 0.5052783552115174 0.5055916685093429 0.3148988378004653 
Task26 0.0012896658413842326 0.020097776461757595 0.004442128700546586 0.01932252314018503 0.9461988420979324 0.5145654651327556 0.9779405608268963 
Task27 0.15636818769234612 0.07583245945698454 0.2305628818265062 0.38702310555192015 0.7055419247675627 0.3795760483296767 0.5142024442209226 
Task28 0.004316117231554141 0.03624614661029346 0.04057071476810557 0.015682412218129035 0.8092519349919922 0.3177647396582986 0.46608720054300207 
Task29 0.1027025403814834 0.07460735348632459 0.30855281832172654 0.41868061824903346 0.8003890128607294 0.8420357417380464 0.3771233190698829 
Task30 0.07642640093976169 0.11395338818479477 0.23371207785114612 0.17758432794468232 0.7899999439995651 0.6285639419883777 0.9053045894408791 
Task31 0.02593549320407384 0.06419232612427281 0.017120983076280585 0.026929865972092414 0.5965366212241047 0.7122215547035653 0.9094139463327908 
Task32 0.018198946160120775 0.23654928607515607 0.2065675468760649 0.18305544341029426 0.36660137944188775 0.7588930375876406 0.3215481830369031 
Task33 0.047233863318313724 0.2966080005537586 0.026788346726915643 0.3050648032945386 0.3492071364160803 0.4803400360939302 0.5321414498905574 
Task34 0.06444823152140207 0.032419698305495875 0.21287979251811176 0.6634139413187872 0.4971035340215936 0.8008637049848975 0.9005126630206155 
Task35 0.0008234744742061864 0.019440653096193625 0.025409657028108542 0.010468806280897414 0.7607561505690676 0.9451496740268528 0.6455341665643907 
Task36 0.03775576139548826 0.011967462888124045 0.10839052241704798 0.1912411258146753 0.624934136156327 0.9458831976708837 0.8772191145670316 
Task37 0.01799161639255568 0.3454321722983576 0.27052163123889766 0.23178797891586553 0.4666693185103376 0.45083738725741035 0.8960016951201535 
Task38 0.03273555742943652 0.08968118033190765 0.31773305491883647 0.07575212228050313 0.7877366010703049 0.4881955624398183 0.8225158272487372 
Task39 0.04656574067857275 0.20976388037505672 0.22982439102120375 0.1346528938639303 0.9582975280172137 0.3748349126435835 0.513742437345401 
Task40 0.1199632700904977 0.3493389526961212 0.01650804270153493 0.3019141701558059 0.3833595628200173 0.7845843793211689 0.6560539279874316 
Task41 0.14771576591779767 0.055990215080457484 0.4147018645065149 0.34737187354246674 0.8881435443313828 0.5065867391746317 0.4523389064309965 
Task42 0.002780342635507047 0.027320218010330324 0.0020124828797889022 0.02922338388081524 0.4518556072197427 0.8666655491697308 0.6734053270481859 
Task43 0.020788217024575024 0.10154102215050975 0.14514481627534262 0.3741319483157832 0.42533956858447264 0.8107938856942065 0.49813589869224284 
Task44 0.04773923847815763 0.39532842355683717 0.008125455416106077 0.01551756370630306 0.7015363360914513 0.40965201738773765 0.588142109095277 
Task45 0.011262496551951337 0.2637987376376116 0.08853187712025788 0.034219642936103044 0.4680790712030163 0.5676827184341884 0.5648383523908395 
Task46 0.009055681311941226 0.0794100517438192 0.1308900075428729 0.022875842399895565 0.603221862458246 0.9378292219894422 0.8789844845486567 
Task47 0.0289546407632228 0.03816529886264768 0.06733455745665237 0.11837529500150981 0.5637763432844326 0.8817894961827915 0.5262807400587736 
Task48 0.0028601508869437065 0.0054524116646931554 0.00735507907155438 0.016576363722557653 0.43844332321344026 0.3915150383588886 0.7844677805738428 
Task49 0.02213089650322758 0.030730765043889077 0.04671131041763331 0.054033192412944714 0.3390565541951076 0.3856871167505156 0.5807775642870223 
Task50 0.04181584979800585 0.15334301926804686 0.25406860176324175 0.21173309856429792 0.88799097327769 0.8854155727720168 0.3339179709913917 
Task51 0.06477763615532343 0.31515871870945605 0.14591582106475692 0.19565723164792084 0.32009696565422313 0.7210174931240076 0.32813894964687645 
Task52 0.03929939469090183 0.1483516633262452 0.09919417620598653 0.12784488661882043 0.9093067645750086 0.6769907119639422 0.48798687441520283 
Task53 0.10015810886976038 0.1325640892689559 0.31238695469416045 0.0634970259766287 0.5355414044630973 0.4982563025711718 0.6318486342082208 
Task54 0.11152444000867774 0.1736856116881741 0.36496155546537246 0.1994481807688528 0.8538915594944276 0.34056474085889 0.6844066304006589 
Task55 0.05359843911762889 0.023654911686808715 0.16232996931802599 0.10967594060204977 0.60336292755914 0.32028478091443835 0.9732377887695214 
Task56 0.0003101753994749784 0.07182415028970282 0.04378708482089541 0.06200819423173698 0.49194259878589314 0.6135768809068409 0.44417490657873393 
Task57 0.013014005246794158 0.02956665158585415 0.028731148557967854 0.03866777149109474 0.5311952503917907 0.40941986720465995 0.5075942000162464 
Task58 0.08954488956403113 0.14704952209320374 0.0957357095825901 0.28392271906707023 0.4936372925869156 0.43771974867259794 0.48783289047575285 
Task59 0.007810229946743123 0.023054336605955173 0.049586610004652705 0.0027882904643456038 0.4080349338614703 0.7667733552193168 0.5864447914988864 
Task60 0.05978704630975212 0.22094403626905004 0.1722279843345838 0.1744629543300013 0.8846178552904966 0.6910566368855553 0.8206073577852799 
Task61 0.0061520491370671395 0.013180501054219562 0.20397798744157322 0.013494722942956965 0.4223645195957113 0.39765589264596857 0.9492575519739646 
Task62 0.09082799695915993 0.13555847303379195 0.4151094295947547 0.05825931774512821 0.7079864744814848 0.3120210025612555 0.7952873896075499 
Task63 0.1396071113294728 0.1643599904054157 0.4305283552255893 0.1179747032099029 0.40157932601807944 0.7470505549884665 0.5047452126727849 
Task64 0.0327961925266539 0.33703117241573466 0.24658948293210722 0.1801423461467822 0.526703675983175 0.6856279371034244 0.6243250057430135 
Task65 0.05858096777140941 0.11412880376159837 0.011325922032946283 0.5796246234220152 0.4917294101770785 0.5443681803779018 0.8270730934165136 
Task66 0.0015402555380209166 0.18498921642854138 0.224136947752964 0.21240198819619838 0.3756602481926833 0.921089010408574 0.6958958432142555 
Task67 0.005574084375905378 0.47954984721710014 0.03033598102199205 0.2650536409041408 0.7566759220243515 0.5689668869162958 0.4617145090039445 
Task68 0.001042164909125109 0.010432127213717895 0.023571963523801406 0.060870441918172834 0.7115631663369122 0.9155624034639149 0.4040078686465378 
Task69 0.030098413688138922 0.38750591562524983 0.29053700127833826 0.04911450417276928 0.9269224977113879 0.8080470825705064 0.6736214804039605 
Task70 0.164767065136223 0.003025271631328562 0.21586411946697492 0.6060322169296634 0.5786940091034267 0.9161295759428827 0.3399464739611098 
Task71 0.07716548735191801 0.13119835332364607 0.1761077034051558 0.08121796953533339 0.5083700430856175 0.3764103470353759 0.34012994509368444 
Task72 0.03381775623883577 0.09917221497539487 0.052666004044431086 0.08580442655057254 0.4740320552979501 0.4053882995415998 0.9052253249119142 
Task73 0.010630631979824648 0.05706661151990573 0.09648608501989125 0.10822266463482538 0.8042446012267819 0.4949248913882689 0.615079209182793 
Task74 0.10149161924637573 0.3638282930380427 0.15083398724687563 0.1084576855685776 0.6920763209750558 0.979392195196781 0.867004386718911 
Task75 0.10862070382204805 0.06911588070982243 0.29533399392560045 0.12390892425904054 0.9986010285662752 0.5310205556844153 0.657555883544064 
Task76 0.08564809935224486 0.3970603422641765 0.04168627717473422 0.02708656054476784 0.908841460832768 0.9439792775776445 0.7390129172267941 
Task77 0.06981305377242933 0.12415242948014589 0.010401836972450266 0.19505099540506815 0.9386177897496837 0.37622116692638574 0.7731869119526471 
Task78 0.04685486028998718 0.0827707166970887 0.08717908831477011 0.1123957141723336 0.6784791419385796 0.5506732929347353 0.7719710759395636 
Task79 0.015415369527415517 0.03239539946660588 0.024381944386969234 0.017844746165101028 0.41398129701354036 0.7132377561317652 0.6964929993034942 
Task80 0.015331802853073015 0.1958696652874965 0.0468658925380915 0.17887229387675418 0.3206213132838783 0.8187881890183561 0.44510996842103356 
Task81 0.003355712736321387 0.009494185590342125 0.0075090191581282896 0.010701260081273695 0.6746003132013081 0.8288599706247168 0.45616808119168806 
Task82 0.16243613402411672 0.054499135348286695 0.20161541910450598 0.5635441044085006 0.4293625728638072 0.9810149514955602 0.5907577651063655 
Task83 0.005695383403261782 0.012654952913208284 0.0036876553635467797 0.008973747948812352 0.9895394810578533 0.6689024460290134 0.5224387141267832 
Task84 0.13558816271010296 0.1624609733623229 0.13611309783571862 0.4337514517598066 0.42065809661024733 0.47678793731248553 0.8303573569877634 
Task85 0.02024010685277135 0.17349877438634104 0.1022151456284866 0.13006158231764706 0.7612813233615222 0.6189227935007822 0.7539470246251831 
Task86 0.007279724106439975 0.037388946239627505 0.038430221151011724 0.0008894739089470904 0.426382696569648 0.3086190021844691 0.5043179662730727 
Task87 0.02733200464987409 0.0769774848929453 0.1004021512134569 0.08862546867541148 0.9349075408332412 0.6003492429436994 0.46139495967228583 
Task88 0.006780507823072123 0.012839108071291709 0.01660914773780791 0.006759783881327372 0.7624526033251489 0.8474188848962088 0.3131061448946504 
Task89 0.030710503527866247 0.07467148068818708 0.07408339611791609 0.009665631393140481 0.5466132772715223 0.826189684787231 0.96390428209461 
Task90 0.04445130758731441 0.0694258588319274 0.26602627305480653 0.3536437548947135 0.8514345920436364 0.49555053593829734 0.39849384651018127 
Task91 0.04018381688737975 0.24151572390475917 0.002892805490128471 0.15111567014178268 0.9261864733464595 0.8334734717828465 0.6240547348876491 
Task92 0.16058170550073414 0.31014267727389705 0.11430477150921899 0.36162512344275405 0.35298023749606 0.9748973269797048 0.9419045787432676 
Task93 0.02497376176836694 0.020321604743729273 0.07021413642611046 0.08106819495527123 0.36386592496618353 0.7252033665186188 0.3903557388662547 
Task94 0.0164073993184579 0.0475484303169401 0.03534839257778968 0.002861754805457482 0.8481901420313585 0.9648367741078545 0.3914501237632279 
Task95 0.017961769459282698 0.007456312188180416 0.11684849307240988 0.042852726536577034 0.7183702085918571 0.5882273787488846 0.6157749642795525 
Task96 0.10536909582559272 0.20532283828386608 0.14918206409354295 0.48023269803363106 0.6014149936625685 0.6216713471450954 0.9099223633258686 
Task97 0.003692504519913058 0.02695442351906425 0.03284736355286655 0.024603475855960438 0.9996279384100943 0.8090887102719844 0.8480268873999268 
Task98 0.11893920676010358 0.342934988909385 0.35249353727806043 0.08969508922376744 0.5822397209984538 0.5579721529265462 0.869510090369227 
Task99 0.03180619988460629 0.12408674608358232 0.12958572134190405 0.21560219131824035 0.4393657281260426 0.7179585265796684 0.49809875883842636 
