Task0 0.020592508460081496 0.06839831844093641 0.1555058103656201 0.159181647094445 0.8583087178406146 0.774359590569423 0.3739498553228646 
Task1 0.01398079642504049 0.04722808547536627 0.0647259340636951 0.019321961811859606 0.831846040959588 0.3625512161626451 0.30509341329050954 
Task2 0.16569444201944994 0.43183292735565143 0.06308987725329594 0.28604330363063296 0.7203736808253836 0.6284367156109434 0.8124601270336698 
Task3 0.12161010696718423 0.30105464238414636 0.10397677336222232 0.15460458290938847 0.5599271049067281 0.46136201074605876 0.33718190072893905 
Task4 0.06893496884949153 0.04479225485734389 0.14381066066309284 0.1430033258392117 0.3390346176622224 0.9270312289105094 0.9281746843200149 
Task5 0.007341133618127307 0.46215699427821444 0.1583257404505663 0.0706872064173936 0.40120928716048493 0.326604728238823 0.854346349678381 
Task6 0.009342349552051476 0.020855864422796664 0.022190608712484326 0.018908807916558485 0.835128766079956 0.8314635471137173 0.542319081744252 
Task7 0.0753485133141035 0.12131227053651882 0.24331865312422263 0.07651721008837668 0.8357173881959694 0.4214937994907637 0.8999591303273617 
Task8 0.07999925806008881 0.028002811142806634 0.273073995252693 0.3703534312419253 0.9308945087246003 0.6014536728753058 0.8378975416209102 
Task9 0.07152101401465599 0.0745879286029651 0.2085235618803284 0.2694078626838448 0.5745342422993311 0.415524658102034 0.7793762888204285 
Task10 0.03214579262330763 0.22536782313828344 0.24414712799880356 0.017296394025457913 0.9251961258050425 0.5899619014959292 0.9561780800157373 
Task11 0.01570261498102312 0.017474823924350263 0.05649115770573062 0.06532543743431302 0.4673290487444608 0.6473633175895459 0.5585578934485154 
Task12 0.11326480125472835 0.22420519759864532 0.19846847513371607 0.070304919222645 0.36679508640029096 0.5770565757520778 0.8504626906285577 
Task13 0.04077255215536806 0.042588768818628886 0.10379325963418816 0.026187646514575506 0.771419323024575 0.4429086922918726 0.5354764972098839 
Task14 0.04957005761320436 0.05469436190176148 0.12353224826154771 0.1357505011197586 0.5341461873278915 0.4792942695523793 0.9546615887438605 
Task15 0.009090699480813579 0.021820915133563056 0.2612629948268203 0.21572791118473425 0.5076123868951988 0.7719241211987209 0.30110821903714413 
Task16 0.00028033484993760996 0.09963009426328612 0.20329171986290528 0.40097772153084144 0.6971766239747941 0.910246477226522 0.5815611365134123 
Task17 0.002553141205789236 0.04894648827082944 0.10439726895071877 0.07912203332797108 0.338489795819046 0.7902646097417263 0.7882606028086474 
Task18 0.013237322691979627 0.02715748033494897 0.024513505781234873 0.003996854042614944 0.6125014032818008 0.5629738193825838 0.7725000084768285 
Task19 0.03772632932401418 0.2265763173508193 0.44650785230399354 0.26963984228746996 0.5011372926436157 0.5591804107616736 0.9968064888952466 
Task20 0.06980038651363225 0.14432702872449932 0.2618234797231829 0.2213141018919685 0.9286518640601051 0.46316124237613854 0.6747388172033738 
Task21 0.14425428920240496 0.19184915599499955 0.3871637628343247 0.09675166694395552 0.5685698848072752 0.8170374936878697 0.34769917626013136 
Task22 0.011499675159560878 0.09465470595495884 0.4465839858076532 0.0862958950530211 0.9351479425237059 0.8939602561584301 0.37631969389064956 
Task23 0.031073104321303273 0.10311930293704984 0.18787715949882347 0.6724033955337979 0.9850416576958176 0.5335154785215321 0.40170488287231865 
Task24 0.03371113335166179 0.10410543885792191 0.15849763322287996 0.3556086923327622 0.35919313855835044 0.9823731606613793 0.4523850546957861 
Task25 0.004704603882639077 0.0392567706027306 0.0020515598387741097 0.0022405243965767214 0.6836328014691648 0.551745788185277 0.6192848768355941 
Task26 0.11967949263153779 0.3271997826702001 0.018269198974052398 0.20566701697882436 0.8227471102933226 0.907403696882519 0.9367532362897812 
Task27 0.009970998124333606 0.21434648793886255 0.17862979054580058 0.03436087629055024 0.7040675771141862 0.30309411470410047 0.869958907134573 
Task28 0.041182954355877 0.10804698175716644 0.10432532559262735 0.05004393999070007 0.6474447916505126 0.951257081551351 0.7687247956141801 
Task29 0.004617711765694562 0.07940022754878127 0.08717181396651516 0.09733936093387069 0.9771512064442593 0.6494076540301017 0.694093916006304 
Task30 0.04608417516106972 0.07959873180248839 0.06800720262882956 0.0664434242913603 0.847953646261463 0.9852232336700246 0.4471311439215947 
Task31 0.011941345614068634 0.20891538092660358 0.14191783051743584 0.20794495882800224 0.6207041352646232 0.5152503145623473 0.4968131755985662 
Task32 0.14160198261308296 0.17529389100702875 0.39713330241007794 0.09592137257827757 0.6275677390524548 0.9048972184359403 0.6183280186717601 
Task33 0.1297563396898072 0.5676645529490658 0.1719330927777029 0.08018747557588063 0.6298890025571182 0.40585023855022617 0.8104352778553394 
Task34 0.016849524559956582 0.0896105005567162 0.078547339065707 0.0561444502249194 0.4131073068802589 0.8717818583260069 0.603930363741519 
Task35 0.00047434725329138056 0.09453130214349657 0.01907615092963043 0.09815366661212628 0.40794929227312415 0.9186468419552878 0.4231056416523586 
Task36 0.012922105219621805 0.12805857495102446 0.08412088844207982 0.07118473016856854 0.9160337368992351 0.7501092403216976 0.3246276498739067 
Task37 0.11820644312670033 0.1938875232817868 0.17612755099703864 0.30682545272106204 0.7215099458848884 0.6478476393211865 0.3806485361519969 
Task38 0.1512701076636684 0.030448103010169907 0.21755711077809323 0.41536872809876807 0.8018834354005417 0.30019376665955805 0.42711354968874904 
Task39 0.047918398346189155 0.020684377898666274 0.23573166144538105 0.21299359919279517 0.962652887719424 0.47515705715646644 0.5338085110120361 
Task40 0.016543574403749945 0.171638256336973 0.14959517464474728 0.03604996443412888 0.7835628784507773 0.6961462497811103 0.41906122317285843 
Task41 0.004999446992070779 0.05256998975626378 0.08065919405769573 0.0991346421306684 0.3474874129779564 0.729692081380727 0.6100313607856755 
Task42 0.009956005235481095 0.03546799807837395 0.015449551924546242 0.022124170366640522 0.8278967096313574 0.5035510122120517 0.5744621585543959 
Task43 0.0011696472964840593 0.0887496806733994 0.14949704260991575 0.08217729460558759 0.5214144939424072 0.7981685311993312 0.9803460791940672 
Task44 0.0015199545800036152 0.029336266055372814 0.022066044228199546 0.034588142711796666 0.6470970028861516 0.7944970289601334 0.49655661079858415 
Task45 0.002361206634867727 0.008578508322029115 0.0008516089291254069 0.00019913292244741227 0.6323282110274633 0.39965183943596505 0.903174727994793 
Task46 0.16676646328364167 0.40248512771645245 0.11642197722652062 0.22337538334842763 0.4855001440404647 0.43197423102739313 0.4560787201198993 
Task47 0.029351744970896272 0.04489823047528021 0.02413892664020682 0.07387295840190078 0.7370910184881421 0.5748799082220317 0.8164984823494996 
Task48 0.08996222200740615 0.16319061401939058 0.19062147436296706 0.10006363048547637 0.9159734239132031 0.7028863232946145 0.4071167851847473 
Task49 0.08317661116379092 0.04526053986887152 0.19126717317972702 0.12260106853807194 0.9603214563623448 0.7227142170278396 0.5702544655248963 
Task50 0.0869150505273468 0.37488196258872947 0.09078775171061845 0.27170273872477857 0.8720210945535967 0.49377603812089615 0.7084601319610915 
Task51 0.009414764731009575 0.10573838368449175 0.13979029262294326 0.3183238383534805 0.5221652217208095 0.806072467613411 0.8571591810013726 
Task52 0.0920544970827098 0.34365892027065764 0.13585378168489087 0.06507507477638393 0.7205425104776904 0.9108724661845968 0.49381334546078887 
Task53 0.14583091795153338 0.3067198480756316 0.2561421711571932 0.1500846965725235 0.7506059375393885 0.6903953781211736 0.38925700073093783 
Task54 0.040332146127382944 0.24277614054438948 0.18531992848607026 0.1954257889762035 0.7851784557599195 0.7589083387238946 0.4350084149670893 
Task55 0.011573501725832953 0.0551221206137893 0.03426064066301603 0.2448983250748726 0.4100076841819851 0.7867759684246334 0.49597880896375296 
Task56 0.1603612949458891 0.17085804054574236 0.2941688941557306 0.19050288394887477 0.7271030852872942 0.7692665302291428 0.45216537744277807 
Task57 0.010110483781371289 0.003697824531657315 0.02792243588128612 0.012933220343962878 0.37535287782955057 0.7200722363371395 0.4315080885363657 
Task58 0.11201348627253348 0.14107533250947746 0.18680941669698717 0.4694661062723454 0.8119864782467061 0.44854032310160247 0.6362647734864386 
Task59 0.00490387789020226 0.07000543827497359 0.0351850213345458 0.057112052956668664 0.681068693492566 0.4623293005955318 0.6602858029087895 
Task60 0.02633833359393336 0.18056921354446143 0.22648167184660895 0.0003583663111311958 0.9123628199202101 0.5805817734708772 0.7206276918233729 
Task61 0.003194382606628639 0.005449234759028485 0.003313348601333242 0.015439150647524874 0.7163765990404729 0.4035623801576357 0.43862752718966846 
Task62 0.011575403117684497 0.15267154312572992 0.09943875721592933 0.07653506149561956 0.35461011984339974 0.9222505586891909 0.50410221362246 
Task63 0.0471530520534411 0.12278439168479309 0.30169540295990543 0.32927505309362565 0.6561409253385209 0.5930579783387027 0.8098032212716637 
Task64 0.012539514706535318 0.03311992628167654 0.007691117352800465 0.014627608499454993 0.8517485097234414 0.4711140070581248 0.3849325577039455 
Task65 0.0009354935505461259 0.0014853531845412892 0.0014924509559469641 0.0036219919259296565 0.6012485053487961 0.8833926345988674 0.5768224696366455 
Task66 0.03749735184556989 0.07617277576059792 0.06093998268496423 0.2007552984768569 0.9597421125525172 0.8276639986900007 0.33895356912884766 
Task67 0.0917107420257192 0.2128503800734027 0.18607084618699515 0.2353744505177553 0.881390907022872 0.7559966371637207 0.49152938882348424 
Task68 0.044449124931574206 0.12489504414195197 0.10851912799072726 0.11131163968431672 0.452012595522868 0.3560436354909219 0.40659433148304047 
Task69 0.04340109733554326 0.01037356152190439 0.28059579053652256 0.2172793789454522 0.6446717697244997 0.5518623923273998 0.5524677337416595 
Task70 0.01799629746706129 0.28337939572090104 0.3515143958353021 0.1986001868464635 0.8593894261813315 0.8577795414033393 0.7187208928024332 
Task71 0.014886233246256637 0.14147668772361027 0.1940276456506073 0.435928631303696 0.4367860724638675 0.3023241374128957 0.9787754199322425 
Task72 0.0037145510962188016 0.03822565736045122 0.05924035522805404 0.08242462049077989 0.6573466403805462 0.8401938993001317 0.301499737522819 
Task73 0.06161305072596458 0.17886467097138894 0.061728469620540266 0.2320296499698378 0.6081384576423012 0.37720754252986155 0.6243522991911387 
Task74 0.010899068611773354 0.09503787498811977 0.07974594334910758 0.1986335200266096 0.8327101829957955 0.9670097021908377 0.4170262304131718 
Task75 0.06338805666032651 0.01729427612511444 0.2107010409555622 0.09841218209610646 0.363270044463333 0.9987686093999644 0.8683817819346114 
Task76 0.0009741650295328132 0.005900733849477803 0.0010794902032752443 0.012740833654245267 0.9892340379270124 0.5262228331887637 0.8023226652535813 
Task77 0.006603065687341044 0.012318081704155673 0.014704362948996736 0.047645624686888016 0.594412596879455 0.4914410652550956 0.7061289353823359 
Task78 0.10951498932080689 0.21730620001996295 0.16965579221578767 0.13405823714171544 0.9339157249986771 0.8213537170158107 0.9437993606826816 
Task79 0.10947944602922198 0.09593604119135213 0.2440232099081288 0.49181992669992697 0.5946111952756985 0.38338798535888535 0.7806184121542454 
Task80 0.12720873518875409 0.23093718636191354 0.2980713018665224 0.11191145571450202 0.3405627456705627 0.922225181244763 0.4589556197795556 
Task81 0.005210933200042885 0.010958957664088229 0.011319520130594223 0.010604888795418554 0.6021574572001396 0.30993253561731077 0.5462315071663586 
Task82 0.13237981988517555 0.24385941505807995 0.3658214458873554 0.24573806385131627 0.9862673577407011 0.710143690252065 0.4735760212188961 
Task83 0.15519744339767477 0.1522074550249176 0.4950844100751842 0.15194992418252684 0.6810832423481552 0.33033318646141857 0.8320060248913628 
Task84 0.0052044875421570595 0.07365778662979611 0.18101677142311048 0.029358399181781913 0.8946476284813729 0.7589347540665798 0.5413144008239595 
Task85 0.10928133760535212 0.033574949941682315 0.4770749451052524 0.2768227348465629 0.8287881704622109 0.7542559506226021 0.46178425815369895 
Task86 0.059298708883093555 0.20506085826273512 0.10265315340230623 0.17668682011243453 0.6206639380029308 0.9609007525789492 0.4314710886152553 
Task87 0.026420761144722117 0.14849274063835666 0.07652583174307669 0.04818007174131798 0.36008162564099944 0.4324895220855001 0.5627248877902578 
Task88 0.01005520258618309 0.00315365383795927 0.06379096264379377 0.03346203113793281 0.642695278205448 0.4934564887898272 0.8237695658416262 
Task89 0.09384483952124706 0.064159041324834 0.18876330055439108 0.2266903417608206 0.8888245605968466 0.808093212453878 0.5461584912274513 
Task90 0.02113915290449171 0.012569049679176502 0.11809617685419806 0.07023901453266682 0.8442527359541276 0.47587254527166634 0.40919051108736826 
Task91 0.043740760229816475 0.19887873331171022 0.0583244157223402 0.3428309475935303 0.6833313570194286 0.33039716411825804 0.8790297300368191 
Task92 0.060217361798431394 0.1966077880783391 0.004016482806314152 0.15797185473252495 0.4726344158648158 0.5521912625236889 0.8472500607041376 
Task93 0.158973807990393 0.43750989713501065 0.22749337626361385 0.09752391467405029 0.3321774869299731 0.3996104016830756 0.3259970060383133 
Task94 0.05362986642829812 0.3177623163466385 0.555882921510381 0.027121819850357994 0.9530716820227292 0.4889665576872233 0.6246954635997112 
Task95 0.08962445590643431 0.1379859496476434 0.1842375846514753 0.11989643910239167 0.7666821081163141 0.39414902833999516 0.49375178919679436 
Task96 0.00786956713414705 0.01936642686885077 0.12007457934145906 0.02884521546449301 0.7733693851154322 0.49125986336587035 0.3674205948180254 
Task97 0.012485318184883682 0.10128638834367232 0.09004054332652552 0.14130991073354016 0.7117222934520213 0.35541660876780473 0.9130221247474823 
Task98 0.08223555543176438 0.1227529673908134 0.3709051669595609 0.26426656060949444 0.645555735297051 0.6720060051511625 0.7414354100491495 
Task99 0.026290484825445614 0.19200210967434136 0.5648656433044968 0.1157079381199217 0.8578959898469201 0.4892099000171809 0.427403095883936 
