Task0 0.022619315209704453 0.26481270226142295 0.24093084374973792 0.2966662684418542 0.9928380652968112 0.3275542114224211 0.7000272778288608 
Task1 0.025610764138034325 0.04199819042621169 0.044997190481007476 0.01790637490825538 0.8354198225001752 0.5212872597460456 0.32346684999219283 
Task2 0.06688287920862417 0.23880941809465844 0.18771575879963295 0.12840348103030452 0.5733232230026376 0.8694329277604593 0.34614410810832535 
Task3 0.09687726843489752 0.2607084152922512 0.22605423880291284 0.12121038367261505 0.3255890929812332 0.8197598656210616 0.4213367333483179 
Task4 0.031337892601446704 0.06781575216579327 0.10537612810771836 0.11171058186163281 0.7155613697306036 0.786597907039815 0.780237030152267 
Task5 0.028258749334737016 0.21252550614364296 0.20735773298779825 0.002210303012165838 0.9063322325418304 0.42612633806294786 0.37921327191128734 
Task6 0.1400411042562121 0.1556723369228815 0.11170178960536514 0.3185203885935415 0.361802078040162 0.3985642486226 0.6083920100039033 
Task7 0.05570312669414875 0.027652369296980665 0.14499284939528745 0.08468558904387029 0.585843486980744 0.9159022010662958 0.5019422381400571 
Task8 0.16506679425848253 0.026864640439678768 0.2749710345600971 0.4424562883391445 0.6401855767428695 0.41866332661296235 0.6868035376638334 
Task9 0.07146922517526288 0.1668928186487931 0.12467407501494635 0.13245631102096772 0.30366941033916117 0.6030341096898297 0.865833432658148 
Task10 0.010143427075243846 0.017839721234622415 0.023791342561139066 0.022976851210729954 0.91580362591658 0.6504947063466 0.9291468675207923 
Task11 0.0022662673859252377 0.007525132785785149 0.017645439780108907 0.022939034231423783 0.3429106618485044 0.431685976459837 0.9326574887877561 
Task12 0.01332598789216814 0.2341671404773224 0.12627845114884043 0.5535084101558023 0.7776238524160228 0.6937632029318572 0.526059375964999 
Task13 0.03171096563040228 0.12020369336672138 0.4141400497081667 0.15874284041034215 0.4579067718586811 0.6137029800586055 0.5686920898668181 
Task14 0.07260368871093127 0.15841579787536425 0.041517503162423794 0.708359965017968 0.8908647231176563 0.5654146296031541 0.3042384548875564 
Task15 0.0985311907162762 0.236968737572488 0.12296498478172195 0.050446813240909015 0.932878129516669 0.6477809142803426 0.4765134737632074 
Task16 0.0012951459556196014 0.0020655630606015423 0.0018062683059703994 0.0024469891875722157 0.8996457291486206 0.9975999374834155 0.6906836973851492 
Task17 0.1103013728699156 0.03013711293204668 0.29647160235021425 0.24744980343601872 0.7364783663407909 0.32744851085695864 0.783862664410083 
Task18 0.09058640617685464 0.18995922179601415 0.05643892481547003 0.18725284252603178 0.7599923615065767 0.5993956580083106 0.9009148215690657 
Task19 0.09429215126540665 0.1571002002889582 0.1661587064138071 0.21355563479124376 0.6922062327461271 0.8328129521924803 0.626301936267003 
Task20 0.01638656135873038 0.02851770320582875 0.15570246664906306 0.08133530386392805 0.9128207032566251 0.3248851385926819 0.8341582978845283 
Task21 0.005770556961107215 0.38539585717632646 0.13383651326292587 0.044914646208171996 0.6633070585201721 0.9699992392909396 0.6380303650984349 
Task22 0.008086157113205596 0.11418651333207393 0.032908413686842504 0.14450121174123076 0.35604414189464095 0.5987745697098773 0.339031806455222 
Task23 0.008133772983653703 0.004139690867658093 0.016818580413621713 0.01656950759408238 0.5064255461338527 0.3767821893767791 0.4239314653067102 
Task24 0.031065868853734743 0.03655737108944499 0.05529826652750805 0.04365008213413302 0.7231885564793459 0.5448185372519176 0.40736787087168636 
Task25 0.014683974776801535 0.13330818205212736 0.16751543986989229 0.03284060856718943 0.7715239748850762 0.963170513196761 0.3648037386705613 
Task26 0.09288189059969208 0.19381500314220954 0.18590615441117764 0.010192767233604764 0.4465984570626135 0.7099130448803159 0.35086721820484895 
Task27 0.00023032093564565812 0.16063448998585825 0.10657921896441849 0.3380764327714082 0.46579504768935653 0.8277859547225526 0.6206860336376008 
Task28 0.007467019601866032 0.21301103722928472 0.36247849398988347 0.06861004438133006 0.776284307151733 0.5558193106919801 0.3215781580728311 
Task29 0.07058570502461618 0.3126016326380207 0.0347303645034337 0.36518032453735316 0.5387218173386247 0.3688960249956825 0.7988322222332376 
Task30 0.000983996154374806 0.05165884039490792 0.05559197553640168 0.016193020173151843 0.6249596804507969 0.8845736083423617 0.970208196081987 
Task31 0.038522288294388994 0.11114326149406056 0.03378561699696177 0.09101896184303636 0.42540317124472576 0.3564914584316836 0.8550429054285185 
Task32 0.019683916827510785 0.039138232326618685 0.019892334594553744 0.025252378078770746 0.8350563509667748 0.4206300187765931 0.7939204053287515 
Task33 0.0697474278143878 0.3178494452096084 0.27306577917664526 0.1849490165553318 0.9177986548060242 0.7935775243729166 0.622476919233192 
Task34 0.015077032839186117 0.06391924517039718 0.02255681145445709 0.03623101248012485 0.35297559427374875 0.9632300556516755 0.3038703037865808 
Task35 0.0019752074023698402 0.40296945778574556 0.061540012980757106 0.14020002090524045 0.46331161516798136 0.5936853408776652 0.8132591503302322 
Task36 0.012186186186729592 0.024666098677561202 0.052970653734645455 0.019895568430029986 0.9784844357471789 0.46535300563323 0.4284247232039845 
Task37 0.0876572698951263 0.0291287191275635 0.24644067094312616 0.14252468547788263 0.4826138625361073 0.5981706946327108 0.7773616222076001 
Task38 0.0250984916563253 0.6748850081287768 0.2502457952722533 0.032769404618691184 0.47651591415764993 0.5071273506542745 0.310039053787626 
Task39 0.002730503525406713 0.19124922306055628 0.20497428776505341 0.05524369070474379 0.8051302904959647 0.4235112785565127 0.43944531717994534 
Task40 0.021798865601773156 0.031073303805672404 0.046389735040782185 0.012275077047238564 0.7813582329093964 0.9930601596224411 0.9915320899128841 
Task41 0.041153962506547584 0.01685669110239269 0.12300418822473924 0.12723246045382644 0.44269587301735447 0.9349639789763324 0.6414863626401587 
Task42 0.11883074986074611 0.1006193583123902 0.7230604626026269 0.03340298488763149 0.6083082038537964 0.540666602691314 0.631908061232421 
Task43 0.04308972359725841 0.3085921958549684 0.2137043315839028 0.01584727731049352 0.9327511168629896 0.595416711493168 0.8140676249208627 
Task44 0.047743684898989266 0.06809856138457657 0.13823938127864985 0.1637111053490051 0.442403344750012 0.5142327190071148 0.7854931099745219 
Task45 0.02294754091646792 0.15353377185666972 0.10593245030647859 0.1542274946800989 0.5113637536271776 0.4977603553946711 0.34230068422293125 
Task46 0.045075800179325255 0.006004001166873295 0.37612543554852534 0.28348172183182907 0.6720955248303353 0.9600100690078588 0.7884527250544986 
Task47 0.012857098918399671 0.24708075454119907 0.42150651170126413 0.04394438405682603 0.8390931990150836 0.6988924644929324 0.8147864222647994 
Task48 0.06615906998855643 0.08930386214537302 0.18253712934911182 0.14198963797464653 0.6302512683269661 0.7504319472931615 0.5419358877828505 
Task49 0.024574327523913572 0.06862735367035264 0.39236881276069113 0.35291025219169553 0.7483833965485099 0.8537780894200893 0.5620664059508698 
Task50 0.047329222801704145 0.07793536838893092 0.006579719383201237 0.1674916403873012 0.4775745614790585 0.502929735493964 0.8349193553290779 
Task51 0.05575786402348467 0.10757136836027101 0.006942473496888247 0.20154789324453581 0.6107775016609567 0.8572769657091965 0.9194134483794987 
Task52 0.04448148756394479 0.23504875649811996 0.2718057872657106 0.14928945502085306 0.8607096579993914 0.8944179629587181 0.9804993911175433 
Task53 0.03202293724817836 0.24351304906387441 0.04545371397477555 0.1205805532790342 0.6140464413628082 0.9401238985209603 0.74974670877037 
Task54 0.011780051922874447 0.2147918424938842 0.22675786527662192 0.18849094569550043 0.5477270574455791 0.6835846084432592 0.9660163088529174 
Task55 0.006706086919495139 0.11722155840691766 0.11307005070541762 0.0367033754979873 0.6275070009859691 0.9439352595819281 0.6154836254883811 
Task56 0.02337313769056115 0.09389596921304974 0.14145950460297851 0.03139906400304499 0.7387039050732065 0.5590588120740445 0.6529094331276113 
Task57 0.006776918408242815 0.18061931944075468 0.1807865513254029 0.011142941877586751 0.9672569241066074 0.4128631342309436 0.5443321091032626 
Task58 0.0316245603922468 0.040480539188948596 0.0825138773261765 0.09356540798795071 0.772251415859901 0.8071064741287823 0.7917520879273086 
Task59 0.1432961390615768 0.12963168311639595 0.161767647970377 0.4146445849787763 0.3789587290559781 0.39431374715190154 0.9043686688530581 
Task60 0.060753465824437275 0.020290281386200957 0.10102418419535257 0.4455320922957273 0.3910091701231444 0.415243522872249 0.5628255725118361 
Task61 0.08609906361638178 0.0029726371414647533 0.07768609726785547 0.37368608862701963 0.5935589479638893 0.8109982517398946 0.5325591907555494 
Task62 0.0221969677571711 0.33612283985288227 0.5287419847951971 0.07655998846399313 0.9352317918854798 0.6244479977437047 0.6745240210972516 
Task63 0.08491562098756128 0.35546839470502484 0.01678373094662114 0.32205466278237105 0.6368525721883352 0.5937980019524061 0.7483357145936744 
Task64 0.08724821647575451 0.051770463330318955 0.13362975587196174 0.19707281319369555 0.3130878952163737 0.3365681558831812 0.965509969482442 
Task65 0.1325595910089784 0.2802640058260509 0.4069997241474194 0.15455194347960374 0.9622071828151975 0.7094306446661112 0.8133198656140861 
Task66 0.09517144334030575 0.28375554429688943 0.26693307895120777 0.04174454055882264 0.4309572648505121 0.44223836273336914 0.9044634705057015 
Task67 0.02299453014704675 0.04250040307657482 0.038333933265258614 0.03289822346025356 0.6345881752253776 0.7907290854017737 0.4313830369905417 
Task68 0.015018175785907362 0.369276567058043 0.3088107316037611 0.0825531082079823 0.6589738656157202 0.8692937612654668 0.7358262273407604 
Task69 0.05348433532313956 0.11203760869508742 0.19219727361919364 0.20725069804982127 0.556423683901502 0.874281940754966 0.5756689078778239 
Task70 0.06946409430667325 0.0316396980477618 0.12003345501533629 0.16689151333297075 0.9914284433311256 0.7140503232938638 0.39585648389091765 
Task71 0.009671217670367918 0.002260156408443555 0.1866511903228458 0.06321629275017297 0.6033133935639423 0.8471138749921818 0.7516645501678828 
Task72 0.07048613847736176 0.4364879126750046 0.2171856031955143 0.0082230055225861 0.30330587168396006 0.6577833768287642 0.3687984985410906 
Task73 0.05775803213306987 0.16716116709509365 0.16939134114942211 0.03961066782527006 0.6171309710695869 0.6943814879147482 0.42777359748431626 
Task74 0.020359102301269347 0.09398011672196681 0.05810734261128908 0.004650071975926446 0.5839874609256936 0.4046769847585406 0.8284581489836618 
Task75 0.006247099376642955 0.015981770735222556 0.27637979024163695 0.3983202298014612 0.7574593878606294 0.9989740541687355 0.8224474966499671 
Task76 0.01364196357090461 0.07438002942241567 0.09225849248403649 0.004679323940466085 0.5013033311834607 0.678025834096473 0.64357652384984 
Task77 0.04581628296861174 0.36528396338648156 0.2542302023554285 0.03891214515328276 0.493551896190154 0.6657516213501501 0.6536506954326039 
Task78 0.014107486835036143 0.003879938482608887 0.01097120649227533 0.04516910625680942 0.8165433072676842 0.6764108158552515 0.7804872217756886 
Task79 0.0839078296828261 0.11197026151381317 0.11117638639668213 0.17022676490789984 0.4087798030721485 0.3878103606633662 0.8970144504639879 
Task80 0.008172994417221363 0.022106290625595156 0.03280199752367557 0.013141871799183294 0.7761979328942117 0.5048388682492138 0.5383213955662342 
Task81 0.13946623464450977 0.02514226875695107 0.1948883090724673 0.3690843690857378 0.521132393081392 0.9809651367573291 0.5732708850669527 
Task82 0.005247523592819187 0.06355311366343587 0.04991442611213804 0.09118855503981041 0.5115559081770589 0.7448499629115493 0.4871957577426344 
Task83 0.07334493757491456 0.24680553983328252 0.3551890981971077 0.008353550615999284 0.8789807367817666 0.7427947237224172 0.5552559814062692 
Task84 0.010125200601627051 0.04377410300515755 0.08310744045108567 0.04371192174786957 0.30558099434241054 0.7588369695687744 0.5615646994469131 
Task85 0.10903316047139265 0.48377139759018073 0.0648095013581334 0.0353294422161245 0.4288052366827674 0.3251834088801998 0.8289265658546328 
Task86 0.07869050945708536 0.14603752645321222 0.324315168217816 0.06767540967685173 0.9206107923417957 0.8912185083500752 0.8968619353847465 
Task87 0.003587324451231373 0.02253845475925766 0.019471847663610306 0.00698177269993379 0.4931102769357153 0.5778778398937785 0.45169867452166346 
Task88 0.00394088404083389 0.07572557875811373 0.008654367755059436 0.06984629228244624 0.8718731309259429 0.4374992049648694 0.9946321212648344 
Task89 0.006667183533206657 0.016948586881732678 0.013470049029434576 0.024627254831619795 0.9675203182656382 0.49306375303133176 0.6938074127627697 
Task90 0.0004202815451935683 0.0029355744666182235 0.0009322648587142858 0.005743798744461429 0.4053269224705255 0.3613538689896813 0.600075153559657 
Task91 0.07660939275918902 0.07927684097156518 0.10385425911521552 0.5921235253871554 0.6027227406769136 0.7993840825475159 0.3767594994804575 
Task92 0.08367429992604414 0.10789269878988961 0.10526431151948012 0.1896562312450953 0.7263325068753967 0.5990754735537879 0.9330115480690577 
Task93 0.004262707930804001 0.03255778123591887 0.01677135514395771 0.006142816138859538 0.6912620048429614 0.7344972022487917 0.7414985653443141 
Task94 0.06775408337746015 0.09602003577780632 0.13918954377002385 0.3126423700148084 0.3477581847396006 0.7582962702730183 0.555287989956186 
Task95 0.09607006415952035 0.1443441874760607 0.19449798087078668 0.1741019836779537 0.7523984476372854 0.982296425665713 0.6792637851830106 
Task96 0.05613234423422681 0.18713011082611405 0.04686437604972627 0.04929286825056906 0.9403322858829397 0.864262877826967 0.9002472818822649 
Task97 0.01055799368804559 0.28616595561358377 0.33533480087465445 0.025535877723391515 0.6109065183532952 0.5070524215206056 0.7340461506456801 
Task98 0.05275695114428791 0.14167828293802023 0.33102504795865056 0.10156385152001111 0.46885458906692323 0.3095607100671123 0.5147787145263772 
Task99 0.05689749118389883 0.16928209806297323 0.21250384920542148 0.3451014493328603 0.4630539723279876 0.803824984991776 0.582401500268267 
