files/tasks_parameters/ExAp01/sample8.txt 0.820814 3.15778 1.5595 0.203411 5.75298
files/tasks_parameters/ExAp01/sample12.txt 0.926497 3.94962 1.6705 0.207924 5.88061
files/tasks_parameters/ExAp01/sample2.txt 0.879289 3.78275 1.74131 0.200098 5.65926
files/tasks_parameters/ExAp01/sample44.txt 0.842579 3.59825 1.65317 0.200005 5.65665
files/tasks_parameters/ExAp01/sample27.txt 0.779607 3.45743 1.5148 0.182129 5.15105
files/tasks_parameters/ExAp01/sample17.txt 0.674533 2.77299 1.44514 0.14646 4.14225
files/tasks_parameters/ExAp01/sample9.txt 0.777342 2.99933 1.451 0.177444 5.01855
files/tasks_parameters/ExAp01/sample34.txt 0.702846 3.02928 1.58429 0.157984 4.46817
files/tasks_parameters/ExAp01/sample40.txt 0.753509 3.86889 1.52122 0.168379 4.76219
files/tasks_parameters/ExAp01/sample33.txt 0.819045 3.63695 1.71905 0.199765 5.64985
files/tasks_parameters/ExAp01/sample48.txt 0.690312 3.39061 1.49062 0.154728 4.3761
files/tasks_parameters/ExAp01/sample29.txt 0.895996 3.30472 1.38739 0.223868 6.33156
files/tasks_parameters/ExAp01/sample11.txt 0.735057 3.10585 1.41612 0.174079 4.92338
files/tasks_parameters/ExAp01/sample14.txt 0.662515 2.70971 1.43432 0.162214 4.58783
files/tasks_parameters/ExAp01/sample0.txt 0.818957 3.6937 1.5439 0.18367 5.19464
files/tasks_parameters/ExAp01/sample7.txt 0.66811 2.70501 1.42221 0.143463 4.05751
files/tasks_parameters/ExAp01/sample23.txt 0.795341 3.2697 1.57822 0.181448 5.13182
files/tasks_parameters/ExAp01/sample13.txt 0.857967 3.84225 1.67648 0.198247 5.60692
files/tasks_parameters/ExAp01/sample22.txt 0.677527 3.09569 1.56121 0.148796 4.20833
files/tasks_parameters/ExAp01/sample25.txt 0.600847 2.73966 1.5007 0.148149 4.19001
files/tasks_parameters/ExAp01/sample36.txt 0.595671 2.85948 1.28553 0.130042 3.67792
files/tasks_parameters/ExAp01/sample46.txt 0.85059 3.58643 1.69998 0.210103 5.94223
files/tasks_parameters/ExAp01/sample31.txt 0.803804 3.4832 1.53782 0.1722 4.87025
files/tasks_parameters/ExAp01/sample37.txt 0.783322 3.95293 1.50705 0.171701 4.85614
files/tasks_parameters/ExAp01/sample16.txt 0.698663 3.31216 1.30115 0.150249 4.24942
files/tasks_parameters/ExAp01/sample10.txt 0.725136 3.17098 1.61789 0.153776 4.34918
files/tasks_parameters/ExAp01/sample39.txt 0.707696 3.26617 1.44406 0.165669 4.68553
files/tasks_parameters/ExAp01/sample19.txt 0.855597 3.63532 1.52509 0.196094 5.54604
files/tasks_parameters/ExAp01/sample20.txt 0.6465 3.20793 1.25367 0.147335 4.16701
files/tasks_parameters/ExAp01/sample43.txt 0.648683 3.11551 1.4202 0.150644 4.2606
files/tasks_parameters/ExAp01/sample32.txt 0.784164 3.5311 1.42482 0.168744 4.77251
files/tasks_parameters/ExAp01/sample45.txt 0.868458 3.80283 1.48324 0.19807 5.60193
files/tasks_parameters/ExAp01/sample26.txt 0.707348 3.21645 1.29701 0.166061 4.69663
files/tasks_parameters/ExAp01/sample5.txt 0.766178 3.5889 1.52559 0.178903 5.05984
files/tasks_parameters/ExAp01/sample21.txt 0.807473 2.75242 1.55936 0.19512 5.51849
files/tasks_parameters/ExAp01/sample38.txt 0.718179 3.31563 1.37515 0.166157 4.69933
files/tasks_parameters/ExAp01/sample1.txt 0.845447 3.74964 1.51696 0.19701 5.57193
files/tasks_parameters/ExAp01/sample15.txt 0.775455 3.32916 1.48508 0.180707 5.11086
files/tasks_parameters/ExAp01/sample24.txt 0.748684 3.45951 1.59549 0.16529 4.67483
files/tasks_parameters/ExAp01/sample3.txt 0.980185 3.70014 1.70809 0.237107 6.70598
files/tasks_parameters/ExAp01/sample6.txt 0.765928 3.33003 1.58323 0.184714 5.22419
files/tasks_parameters/ExAp01/sample30.txt 1.06099 4.1841 1.4861 0.239623 6.77714
files/tasks_parameters/ExAp01/sample42.txt 0.765223 3.43221 1.70276 0.177383 5.01683
files/tasks_parameters/ExAp01/sample4.txt 0.892829 3.72477 1.6136 0.196448 5.55605
files/tasks_parameters/ExAp01/sample28.txt 0.691898 3.11323 1.45032 0.158819 4.4918
files/tasks_parameters/ExAp01/sample18.txt 0.692002 3.47418 1.45209 0.149064 4.2159
files/tasks_parameters/ExAp01/sample35.txt 0.879197 4.57086 1.49394 0.185031 5.23313
files/tasks_parameters/ExAp01/sample47.txt 0.725538 3.13768 1.52397 0.16417 4.64314
files/tasks_parameters/ExAp01/sample49.txt 0.725802 3.13288 1.49657 0.156154 4.41643
files/tasks_parameters/ExAp01/sample41.txt 0.65479 2.81964 1.49636 0.150876 4.26715
