files/tasks_parameters/ExAp01/sample8.txt 0.811765 3.15778 1.5595 0.203411 5.60501
files/tasks_parameters/ExAp01/sample12.txt 0.754758 3.94962 1.6705 0.207924 5.72936
files/tasks_parameters/ExAp01/sample2.txt 0.723357 3.78275 1.74131 0.200098 5.51371
files/tasks_parameters/ExAp01/sample44.txt 0.686612 3.59825 1.65317 0.200005 5.51116
files/tasks_parameters/ExAp01/sample27.txt 0.673579 3.45743 1.5148 0.182129 5.01857
files/tasks_parameters/ExAp01/sample17.txt 0.551617 2.77299 1.44514 0.14646 4.03571
files/tasks_parameters/ExAp01/sample9.txt 0.654355 2.99933 1.451 0.177444 4.88947
files/tasks_parameters/ExAp01/sample34.txt 0.581343 3.02928 1.58429 0.157984 4.35326
files/tasks_parameters/ExAp01/sample40.txt 0.612502 3.86889 1.52122 0.168379 4.63971
files/tasks_parameters/ExAp01/sample33.txt 0.69415 3.63695 1.71905 0.199765 5.50454
files/tasks_parameters/ExAp01/sample48.txt 0.596032 3.39061 1.49062 0.154728 4.26355
files/tasks_parameters/ExAp01/sample29.txt 0.746058 3.30472 1.38739 0.223868 6.16871
files/tasks_parameters/ExAp01/sample11.txt 0.666009 3.10585 1.41612 0.174079 4.79675
files/tasks_parameters/ExAp01/sample14.txt 0.580448 2.70971 1.43432 0.162214 4.46983
files/tasks_parameters/ExAp01/sample0.txt 0.706285 3.6937 1.5439 0.18367 5.06104
files/tasks_parameters/ExAp01/sample7.txt 0.546946 2.70501 1.42221 0.143463 3.95315
files/tasks_parameters/ExAp01/sample23.txt 0.666259 3.2697 1.57822 0.181448 4.99983
files/tasks_parameters/ExAp01/sample13.txt 0.67766 3.84225 1.67648 0.198247 5.46272
files/tasks_parameters/ExAp01/sample22.txt 0.524035 3.09569 1.56121 0.148796 4.10009
files/tasks_parameters/ExAp01/sample25.txt 0.512001 2.73966 1.5007 0.148149 4.08225
files/tasks_parameters/ExAp01/sample36.txt 0.480157 2.85948 1.28553 0.130042 3.58333
files/tasks_parameters/ExAp01/sample46.txt 0.736278 3.58643 1.69998 0.210103 5.7894
files/tasks_parameters/ExAp01/sample31.txt 0.624631 3.4832 1.53782 0.1722 4.74499
files/tasks_parameters/ExAp01/sample37.txt 0.63521 3.95293 1.50705 0.171701 4.73124
files/tasks_parameters/ExAp01/sample16.txt 0.597874 3.31216 1.30115 0.150249 4.14013
files/tasks_parameters/ExAp01/sample10.txt 0.619799 3.17098 1.61789 0.153776 4.23732
files/tasks_parameters/ExAp01/sample39.txt 0.604443 3.26617 1.44406 0.165669 4.56502
files/tasks_parameters/ExAp01/sample19.txt 0.731475 3.63532 1.52509 0.196094 5.4034
files/tasks_parameters/ExAp01/sample20.txt 0.507866 3.20793 1.25367 0.147335 4.05984
files/tasks_parameters/ExAp01/sample43.txt 0.544145 3.11551 1.4202 0.150644 4.15102
files/tasks_parameters/ExAp01/sample32.txt 0.621924 3.5311 1.42482 0.168744 4.64976
files/tasks_parameters/ExAp01/sample45.txt 0.725754 3.80283 1.48324 0.19807 5.45785
files/tasks_parameters/ExAp01/sample26.txt 0.63185 3.21645 1.29701 0.166061 4.57583
files/tasks_parameters/ExAp01/sample5.txt 0.646066 3.5889 1.52559 0.178903 4.9297
files/tasks_parameters/ExAp01/sample21.txt 0.689346 2.75242 1.55936 0.19512 5.37656
files/tasks_parameters/ExAp01/sample38.txt 0.589931 3.31563 1.37515 0.166157 4.57847
files/tasks_parameters/ExAp01/sample1.txt 0.751463 3.74964 1.51696 0.19701 5.42862
files/tasks_parameters/ExAp01/sample15.txt 0.637652 3.32916 1.48508 0.180707 4.97941
files/tasks_parameters/ExAp01/sample24.txt 0.631111 3.45951 1.59549 0.16529 4.55459
files/tasks_parameters/ExAp01/sample3.txt 0.919275 3.70014 1.70809 0.237107 6.53351
files/tasks_parameters/ExAp01/sample6.txt 0.641245 3.33003 1.58323 0.184714 5.08982
files/tasks_parameters/ExAp01/sample30.txt 0.848162 4.1841 1.4861 0.239623 6.60284
files/tasks_parameters/ExAp01/sample42.txt 0.653617 3.43221 1.70276 0.177383 4.8878
files/tasks_parameters/ExAp01/sample4.txt 0.755875 3.72477 1.6136 0.196448 5.41315
files/tasks_parameters/ExAp01/sample28.txt 0.545361 3.11323 1.45032 0.158819 4.37627
files/tasks_parameters/ExAp01/sample18.txt 0.556436 3.47418 1.45209 0.149064 4.10747
files/tasks_parameters/ExAp01/sample35.txt 0.677273 4.57086 1.49394 0.185031 5.09854
files/tasks_parameters/ExAp01/sample47.txt 0.625383 3.13768 1.52397 0.16417 4.52372
files/tasks_parameters/ExAp01/sample49.txt 0.560289 3.13288 1.49657 0.156154 4.30284
files/tasks_parameters/ExAp01/sample41.txt 0.541274 2.81964 1.49636 0.150876 4.1574
