files/tasks_parameters/ExAp01/sample8.txt 1.10411 7.2562 4.46819 0.454772 10.1193
files/tasks_parameters/ExAp01/sample12.txt 1.63152 9.70908 5.28286 0.618515 13.7628
files/tasks_parameters/ExAp01/sample2.txt 1.45516 8.14159 5.7401 0.620531 13.8077
files/tasks_parameters/ExAp01/sample44.txt 1.35997 7.25164 5.75904 0.557631 12.408
files/tasks_parameters/ExAp01/sample27.txt 1.3183 8.10944 5.64946 0.564878 12.5693
files/tasks_parameters/ExAp01/sample17.txt 1.25325 7.11225 5.46658 0.527183 11.7306
files/tasks_parameters/ExAp01/sample9.txt 1.19914 7.62559 5.37813 0.517277 11.5101
files/tasks_parameters/ExAp01/sample34.txt 1.2448 7.04587 5.93037 0.497709 11.0747
files/tasks_parameters/ExAp01/sample40.txt 1.201 8.03037 5.123 0.502383 11.1787
files/tasks_parameters/ExAp01/sample33.txt 1.61656 9.22935 5.92956 0.659262 14.6695
files/tasks_parameters/ExAp01/sample48.txt 1.15185 8.12182 5.1577 0.452491 10.0685
files/tasks_parameters/ExAp01/sample29.txt 1.53908 8.06133 5.12331 0.650652 14.4779
files/tasks_parameters/ExAp01/sample11.txt 1.35889 7.63104 5.37897 0.563302 12.5342
files/tasks_parameters/ExAp01/sample14.txt 1.13603 6.66403 4.66322 0.471536 10.4923
files/tasks_parameters/ExAp01/sample0.txt 1.51928 9.3266 4.98971 0.6311 14.0428
files/tasks_parameters/ExAp01/sample7.txt 1.23514 7.34863 5.19436 0.515527 11.4712
files/tasks_parameters/ExAp01/sample23.txt 1.40203 6.68564 5.54308 0.588617 13.0975
files/tasks_parameters/ExAp01/sample13.txt 1.60807 9.31093 5.35591 0.632849 14.0818
files/tasks_parameters/ExAp01/sample22.txt 1.28633 7.65588 5.04866 0.540336 12.0232
files/tasks_parameters/ExAp01/sample25.txt 1.0295 6.17035 5.0141 0.408296 9.08515
files/tasks_parameters/ExAp01/sample36.txt 1.18679 7.03772 4.66274 0.507647 11.2958
files/tasks_parameters/ExAp01/sample46.txt 1.35297 7.73433 4.79934 0.536843 11.9455
files/tasks_parameters/ExAp01/sample31.txt 1.16998 6.96928 5.16482 0.485817 10.8101
files/tasks_parameters/ExAp01/sample37.txt 1.59518 9.52443 5.74224 0.65799 14.6412
files/tasks_parameters/ExAp01/sample16.txt 1.33876 8.63521 4.97261 0.516328 11.489
files/tasks_parameters/ExAp01/sample10.txt 1.39877 7.28353 6.16876 0.615651 13.6991
files/tasks_parameters/ExAp01/sample39.txt 1.14417 6.3405 4.6137 0.468873 10.4331
files/tasks_parameters/ExAp01/sample19.txt 1.42656 8.85528 5.22306 0.622152 13.8437
files/tasks_parameters/ExAp01/sample20.txt 1.39217 8.1141 5.21177 0.586994 13.0614
files/tasks_parameters/ExAp01/sample43.txt 1.30697 7.21373 5.6367 0.53748 11.9597
files/tasks_parameters/ExAp01/sample32.txt 1.46616 8.30592 5.38137 0.593918 13.2155
files/tasks_parameters/ExAp01/sample45.txt 1.30262 7.94069 4.96323 0.547271 12.1775
files/tasks_parameters/ExAp01/sample26.txt 1.12279 7.57061 4.62637 0.480146 10.6839
files/tasks_parameters/ExAp01/sample5.txt 1.38077 8.0307 5.35681 0.59407 13.2189
files/tasks_parameters/ExAp01/sample21.txt 1.02755 5.87802 4.61744 0.434264 9.66298
files/tasks_parameters/ExAp01/sample38.txt 1.18513 7.66999 4.86632 0.496808 11.0547
files/tasks_parameters/ExAp01/sample1.txt 1.14035 7.21312 4.63213 0.486293 10.8207
files/tasks_parameters/ExAp01/sample15.txt 1.28125 8.02273 5.50855 0.531063 11.8169
files/tasks_parameters/ExAp01/sample24.txt 1.32473 8.66348 5.4905 0.548998 12.216
files/tasks_parameters/ExAp01/sample3.txt 1.18752 7.74268 4.79918 0.477387 10.6225
files/tasks_parameters/ExAp01/sample6.txt 1.51709 8.57133 5.80157 0.633604 14.0986
files/tasks_parameters/ExAp01/sample30.txt 1.68756 8.18878 5.90888 0.633576 14.0979
files/tasks_parameters/ExAp01/sample42.txt 1.3063 8.57689 5.67253 0.54426 12.1105
files/tasks_parameters/ExAp01/sample4.txt 1.30192 8.40354 4.57985 0.563519 12.5391
files/tasks_parameters/ExAp01/sample28.txt 1.11432 6.44114 4.96426 0.449721 10.0069
files/tasks_parameters/ExAp01/sample18.txt 1.33748 8.56363 4.60946 0.543766 12.0996
files/tasks_parameters/ExAp01/sample35.txt 1.94321 11.0387 6.34514 0.761377 16.9417
files/tasks_parameters/ExAp01/sample47.txt 1.32345 7.14493 5.22131 0.545046 12.128
files/tasks_parameters/ExAp01/sample49.txt 1.30058 6.65996 4.80244 0.498533 11.0931
files/tasks_parameters/ExAp01/sample41.txt 1.18983 7.09069 5.35462 0.497129 11.0618
