0 14
0 16
0 17
0 19
0 21
0 25
0 27
0 29
0 36
1 16
1 19
1 23
1 29
1 31
1 38
1 39
1 49
2 15
2 19
2 23
2 24
2 27
2 29
2 30
2 31
2 33
2 44
2 51
3 19
3 22
3 24
3 27
3 29
3 30
3 48
4 16
4 20
4 24
4 25
4 30
4 36
4 37
4 38
4 40
5 15
5 20
5 21
5 24
5 25
5 26
5 38
6 23
6 27
6 37
6 40
7 16
7 33
7 34
7 35
8 16
8 18
8 23
8 30
8 33
8 34
8 36
8 38
8 40
8 43
8 52
9 21
9 28
9 36
9 37
9 42
9 47
9 51
9 53
10 14
10 18
10 20
10 21
10 25
10 26
10 27
10 31
11 14
11 15
11 18
11 19
11 20
11 21
11 23
11 26
11 28
12 19
12 20
12 22
12 23
12 24
12 25
12 30
12 33
12 38
12 46
13 14
13 16
13 19
13 20
13 23
13 27
13 32
13 36
13 38
13 50
13 51
14 30
14 40
14 56
15 34
15 37
15 54
16 37
16 39
16 42
16 50
17 29
17 33
17 41
18 29
18 33
18 54
19 31
19 47
20 31
20 39
21 41
21 52
21 59
22 29
22 35
22 40
22 52
23 28
23 38
23 43
23 45
23 50
23 53
24 43
25 28
25 33
25 43
26 41
26 49
27 30
27 31
27 42
28 41
28 52
29 42
29 59
29 61
30 54
30 55
31 46
31 52
31 59
31 60
32 41
32 49
32 56
33 41
33 55
33 56
34 63
35 50
35 53
35 57
36 55
36 56
36 57
37 43
37 50
37 51
37 62
38 57
40 48
40 52
40 58
41 55
42 56
42 59
42 67
43 67
44 69
45 54
46 65
47 64
48 56
49 61
50 65
51 55
51 64
51 68
52 63
53 54
53 55
53 59
54 71
55 80
56 69
56 77
56 78
56 79
57 69
57 74
58 76
59 68
59 74
60 70
60 79
60 80
61 66
61 73
61 83
62 74
62 75
62 80
62 85
62 87
63 66
63 67
63 84
63 85
63 87
64 83
64 84
64 85
64 86
64 87
65 75
65 77
65 81
65 90
65 94
66 77
66 93
67 79
67 89
68 87
70 72
70 77
70 84
72 83
72 91
72 94
74 92
76 95
77 84
77 87
79 91
79 97
80 82
80 85
80 99
81 82
82 88
82 99
85 90
86 96
87 99
88 95
90 97
91 96
92 98
94 96
94 97
