0 9
0 18
0 26
0 30
1 8
1 9
1 10
1 24
1 27
2 8
2 11
2 14
2 18
2 19
2 23
2 27
3 7
3 13
3 25
4 8
4 9
4 14
4 19
4 21
4 22
5 14
5 25
6 9
6 11
6 16
6 19
6 22
6 30
7 12
7 17
7 24
7 25
7 29
7 30
7 31
7 36
7 40
8 32
8 34
8 37
9 18
9 27
9 30
9 32
9 41
9 42
10 15
10 23
10 31
10 34
10 36
10 41
11 12
11 20
11 30
11 38
12 42
13 44
13 47
14 43
14 44
15 37
15 48
16 28
18 30
18 44
19 45
22 24
22 29
23 40
23 43
23 47
24 33
24 38
24 49
25 32
25 34
25 46
26 36
26 46
26 52
27 36
27 44
27 48
27 49
28 44
28 47
29 35
29 48
30 37
30 39
30 53
31 45
31 60
32 61
33 44
33 53
33 54
34 48
34 59
35 47
35 48
37 51
37 57
39 43
39 52
42 45
42 48
43 49
43 59
43 64
43 66
43 72
44 50
44 53
44 58
44 64
45 50
45 56
45 63
45 70
46 63
47 62
48 68
49 57
49 59
49 60
49 72
49 74
49 75
49 76
50 71
50 72
50 73
51 55
51 67
51 71
51 72
51 73
51 74
52 56
52 58
52 69
52 76
53 55
53 65
53 76
55 63
56 68
56 78
57 64
57 67
57 75
57 77
58 75
58 83
59 64
59 74
60 78
61 67
61 79
61 84
62 71
62 74
62 81
64 73
64 90
65 73
65 78
65 90
65 91
66 86
66 89
67 74
70 75
70 83
70 91
71 88
71 92
73 79
73 82
73 85
73 90
73 93
73 98
74 80
74 84
74 95
75 82
75 84
75 89
75 96
76 87
76 94
76 97
77 88
77 89
77 91
77 95
77 97
80 91
84 91
85 90
85 97
86 89
86 92
92 99
