2 19
2 20
2 22
2 24
2 35
3 14
3 17
3 19
4 15
4 16
4 18
4 31
5 14
6 14
6 16
6 18
6 33
7 16
7 20
7 21
7 26
8 19
9 14
9 17
9 18
9 20
10 14
10 17
10 18
10 23
10 31
11 16
11 18
11 18
11 23
11 28
11 31
11 34
12 18
12 22
12 32
14 29
14 39
14 41
14 44
15 25
15 34
15 38
15 41
15 44
15 45
16 37
16 40
17 25
17 37
17 38
17 39
17 40
17 42
17 43
18 30
18 37
18 39
18 40
18 41
19 25
19 36
19 38
19 44
19 46
19 55
19 56
20 27
20 33
20 50
21 28
21 38
21 44
22 28
22 42
22 48
22 53
22 55
23 30
23 33
23 36
23 39
23 40
23 42
23 44
23 46
23 48
24 46
24 48
24 50
24 55
25 37
25 42
25 50
25 59
25 64
26 60
27 37
27 38
27 43
27 46
27 62
28 40
28 42
28 51
28 60
29 47
30 38
30 41
31 46
31 63
33 49
34 37
34 43
34 54
34 59
35 41
35 43
35 58
35 60
36 39
36 44
36 47
36 52
37 74
38 50
38 60
38 62
38 68
40 56
40 57
40 72
41 50
41 66
41 73
42 61
42 64
42 71
42 72
42 75
43 51
43 60
43 67
44 47
44 60
45 49
45 56
45 69
45 73
46 67
46 77
46 82
47 82
48 64
48 70
48 82
49 57
49 66
49 76
49 82
50 57
50 59
50 77
51 65
51 73
51 78
52 65
52 72
53 61
55 80
56 62
56 65
56 71
56 77
58 66
58 76
59 71
60 71
60 72
60 82
61 78
62 66
62 76
62 85
63 68
63 74
63 75
63 77
63 78
65 83
65 88
66 88
66 99
68 81
68 86
68 87
68 89
68 91
68 94
68 99
69 76
69 80
69 91
71 79
71 80
71 84
71 89
72 77
72 85
73 88
74 94
75 86
75 97
76 87
76 93
76 96
77 89
77 90
77 95
79 88
79 92
79 97
81 91
82 89
84 99
85 98
