0 9
0 16
0 36
1 9
1 11
1 15
1 16
1 17
1 18
1 20
1 22
2 13
2 15
2 27
2 30
3 8
3 10
3 11
3 12
3 19
3 22
3 30
3 32
4 11
4 18
4 22
4 23
4 28
4 33
5 11
5 13
5 14
5 15
5 18
5 21
5 27
5 29
6 17
6 18
7 10
7 13
7 16
7 20
7 21
9 21
9 38
9 39
10 23
10 34
10 39
10 41
11 34
11 41
12 20
12 26
12 29
12 42
12 45
12 48
13 24
13 26
13 35
13 39
13 43
13 47
14 42
14 46
15 22
15 27
15 46
16 21
16 37
16 46
16 48
17 26
17 29
17 36
17 39
17 41
17 51
18 25
18 30
18 32
18 37
18 38
18 44
18 52
18 53
18 54
18 55
19 25
19 41
19 43
19 47
19 52
19 57
20 23
20 28
20 34
20 38
20 40
20 50
21 25
21 39
21 41
21 42
21 53
21 59
22 31
22 37
22 48
22 50
22 51
22 58
22 59
23 49
23 59
23 61
23 66
24 57
24 63
24 67
25 42
25 46
25 57
25 61
26 37
26 41
26 55
27 39
27 48
27 53
27 62
27 66
29 43
29 62
30 55
31 39
31 43
31 54
31 60
31 62
31 63
31 68
32 48
32 59
33 60
34 37
34 63
35 41
35 48
35 58
36 56
36 61
37 62
37 69
37 71
37 72
38 51
38 52
38 58
38 64
38 69
38 76
39 64
39 65
39 68
39 73
40 52
40 54
41 57
41 66
42 52
42 59
42 73
43 69
43 74
43 76
44 52
44 57
44 59
44 69
45 53
45 70
45 75
46 57
46 66
47 61
47 62
47 71
48 61
48 62
49 64
49 65
49 86
50 65
50 80
51 68
51 75
52 66
52 83
53 63
53 75
53 76
54 64
54 69
54 79
55 75
56 73
56 87
57 80
58 61
59 63
59 65
59 76
60 79
60 96
61 72
61 78
61 93
61 94
62 77
62 78
62 88
62 96
63 72
63 81
63 82
63 86
63 96
64 78
64 81
64 83
64 86
65 80
65 83
65 90
65 93
66 70
66 79
66 89
67 72
67 73
67 84
67 90
68 71
68 96
69 83
69 90
69 95
70 84
70 95
71 79
71 92
71 93
72 77
72 85
72 89
75 78
75 80
75 88
75 90
75 93
76 81
76 96
77 92
78 91
78 95
79 98
80 90
80 97
81 91
81 93
82 97
83 93
83 96
84 99
85 95
85 98
86 95
86 98
94 98
