0 7
0 10
0 11
0 13
0 17
0 20
0 21
0 22
0 23
0 25
0 27
0 28
0 35
0 36
1 5
1 8
1 12
1 14
1 16
1 18
1 19
1 21
1 23
1 25
1 28
2 5
2 6
2 7
2 13
2 14
2 15
2 19
2 25
2 26
2 27
2 31
2 32
3 5
3 6
3 9
3 10
3 13
3 15
3 19
3 21
3 23
3 24
3 25
3 26
3 27
3 31
3 33
4 8
4 10
4 12
4 17
4 19
4 25
4 26
4 27
4 28
4 30
4 35
5 43
5 46
6 28
6 31
6 43
7 21
7 37
8 20
8 26
9 29
9 30
9 34
10 28
11 30
11 41
11 44
12 18
12 23
12 33
13 22
13 32
14 26
15 19
15 21
15 25
15 33
16 18
16 19
16 26
16 27
16 34
17 37
18 31
18 42
18 49
18 50
19 37
19 54
20 32
20 35
20 37
21 33
21 48
21 52
22 34
22 52
23 31
23 35
24 32
24 41
24 51
24 54
25 40
25 52
26 38
26 42
26 46
27 44
28 30
28 31
28 56
29 45
29 46
29 48
29 63
30 51
30 62
31 47
31 51
32 57
32 62
32 64
32 66
32 69
33 39
33 58
33 62
33 64
34 46
34 48
34 68
35 47
35 54
35 64
36 40
36 50
36 56
37 48
37 59
38 56
38 59
38 60
39 47
40 52
40 54
40 66
41 48
42 66
42 73
43 47
43 55
43 62
43 69
43 76
44 53
44 61
44 72
45 58
45 61
46 58
46 66
46 71
47 64
47 72
47 74
48 60
48 61
48 78
49 61
49 66
50 70
50 77
51 64
51 73
51 79
52 66
52 69
52 76
53 63
53 75
54 72
55 60
55 61
55 76
56 72
56 75
56 85
57 62
57 69
57 85
58 65
58 67
59 72
59 82
60 88
61 76
62 73
62 92
63 84
63 92
64 75
64 76
64 86
65 76
65 81
65 86
65 90
66 74
66 78
66 89
66 91
67 72
67 73
67 90
67 91
68 72
68 78
68 92
69 76
70 89
70 92
71 88
72 82
72 87
72 93
72 97
72 99
73 80
73 82
73 84
73 85
73 87
73 90
73 93
74 83
74 93
75 79
75 83
76 80
76 86
76 91
76 94
77 95
78 91
78 98
81 99
82 89
83 87
83 88
84 94
84 96
85 88
85 93
85 98
86 95
89 97
91 99
92 99
