0.31777626
Task0 1 31 3 
Task1 31 3 1 
Task2 3 1 31 
Task3 15 31 31 
Task4 255 127 255 
Task5 7 31 1 
Task6 15 63 15 
Task7 31 31 31 
Task8 31 31 7 
Task9 31 255 63 
Task10 15 15 1 
Task11 127 63 127 
Task12 63 1 7 
Task13 31 7 7 
Task14 7 7 255 
Task15 31 31 63 
Task16 63 3 1 
Task17 63 63 31 
Task18 7 63 63 
Task19 31 31 15 
Task20 15 15 31 
Task21 31 255 63 
Task22 31 7 3 
Task23 31 31 63 
Task24 3 255 63 
Task25 31 7 63 
Task26 63 63 7 
Task27 7 15 31 
Task28 7 31 1 
Task29 7 3 31 
Task30 15 63 31 
Task31 7 31 31 
Task32 15 31 1 
Task33 1 31 1 
Task34 1 15 31 
Task35 63 7 7 
Task36 7 127 255 
Task37 7 15 31 
Task38 3 31 3 
Task39 31 31 255 
Task40 3 7 31 
Task41 31 31 63 
Task42 7 3 31 
Task43 63 3 1 
Task44 1 31 15 
Task45 31 15 1 
Task46 3 31 1 
Task47 1 3 31 
Task48 31 3 3 
Task49 7 31 31 
Task50 3 31 7 
Task51 31 3 15 
Task52 255 7 255 
Task53 31 63 31 
Task54 7 31 15 
Task55 63 7 255 
Task56 255 63 31 
Task57 1 31 63 
Task58 1 7 31 
Task59 63 1 31 
Task60 1 31 63 
Task61 15 31 15 
Task62 255 31 63 
Task63 63 31 63 
Task64 15 31 15 
Task65 31 3 7 
Task66 31 7 3 
Task67 3 31 3 
Task68 63 31 63 
Task69 3 31 1 
Task70 63 63 15 
Task71 15 63 63 
Task72 255 255 15 
Task73 31 3 7 
Task74 7 15 63 
Task75 1 1 63 
Task76 3 1 63 
Task77 31 31 7 
Task78 7 31 1 
Task79 63 7 3 
Task80 1 1 31 
Task81 63 1 63 
Task82 7 31 15 
Task83 63 15 7 
Task84 63 7 15 
Task85 15 63 63 
Task86 15 3 3 
Task87 7 15 31 
Task88 31 15 63 
Task89 1 63 15 
Task90 7 31 3 
Task91 63 7 31 
Task92 7 31 15 
Task93 31 63 1 
Task94 31 15 63 
Task95 63 15 31 
Task96 7 15 63 
Task97 127 255 255 
Task98 31 3 1 
Task99 31 63 63 
