digraph G {
0 ->8 0 ->9 0 ->10 0 ->15 0 ->18 1 ->5 1 ->8 1 ->10 1 ->15 1 ->16 1 ->18 2 ->6 2 ->8 2 ->11 2 ->13 2 ->17 3 ->6 3 ->16 3 ->18 4 ->5 4 ->7 4 ->12 4 ->13 4 ->14 4 ->15 5 ->19 5 ->21 5 ->23 6 ->20 6 ->23 7 ->20 7 ->21 8 ->20 8 ->21 9 ->20 9 ->21 9 ->24 10 ->20 10 ->23 11 ->19 12 ->19 12 ->22 13 ->19 13 ->20 13 ->23 14 ->19 14 ->23 15 ->19 15 ->24 16 ->19 16 ->24 17 ->21 17 ->23 18 ->20 18 ->21 18 ->23 19 ->30 19 ->31 19 ->35 20 ->27 20 ->28 20 ->29 20 ->34 21 ->30 21 ->34 22 ->26 22 ->27 22 ->28 22 ->32 23 ->25 23 ->28 23 ->33 23 ->35 24 ->35 24 ->36 25 ->38 25 ->39 25 ->42 26 ->37 26 ->41 26 ->42 27 ->41 28 ->41 28 ->45 29 ->39 29 ->42 30 ->43 30 ->45 31 ->42 31 ->43 31 ->45 32 ->41 32 ->44 33 ->38 33 ->42 33 ->43 33 ->45 34 ->38 34 ->39 34 ->45 35 ->39 35 ->41 35 ->42 36 ->39 36 ->40 36 ->41 38 ->51 39 ->47 39 ->49 39 ->50 40 ->46 40 ->47 41 ->46 41 ->47 42 ->46 42 ->50 43 ->48 44 ->48 44 ->51 45 ->51 45 ->51 46 ->56 46 ->61 46 ->62 46 ->63 47 ->53 47 ->57 47 ->61 47 ->63 48 ->59 48 ->63 49 ->53 49 ->54 49 ->55 49 ->58 49 ->59 50 ->52 50 ->53 50 ->55 50 ->56 50 ->60 50 ->64 51 ->52 51 ->55 51 ->56 51 ->61 52 ->65 52 ->73 52 ->74 52 ->75 53 ->74 54 ->66 54 ->69 54 ->73 54 ->74 55 ->66 55 ->68 55 ->74 55 ->77 55 ->78 56 ->65 56 ->72 56 ->77 56 ->78 56 ->78 57 ->65 57 ->67 57 ->72 57 ->78 58 ->65 58 ->68 58 ->71 58 ->72 59 ->65 59 ->68 59 ->72 60 ->65 60 ->67 60 ->69 60 ->73 60 ->74 60 ->75 61 ->65 61 ->66 61 ->67 61 ->72 61 ->73 61 ->75 61 ->77 61 ->78 62 ->66 62 ->66 62 ->67 62 ->75 62 ->76 63 ->66 63 ->67 63 ->68 63 ->69 63 ->78 64 ->66 64 ->67 64 ->70 64 ->71 64 ->74 64 ->75 65 ->85 65 ->87 65 ->88 65 ->90 66 ->81 66 ->88 66 ->90 68 ->86 68 ->89 69 ->86 70 ->79 70 ->86 71 ->79 71 ->80 71 ->87 71 ->88 72 ->82 72 ->83 72 ->88 72 ->89 73 ->82 73 ->87 73 ->89 74 ->82 74 ->89 74 ->90 75 ->81 75 ->84 75 ->88 75 ->89 76 ->85 76 ->86 76 ->87 77 ->85 77 ->88 78 ->79 78 ->82 78 ->87 78 ->88 79 ->91 79 ->93 79 ->98 80 ->91 80 ->96 80 ->98 80 ->99 81 ->91 81 ->94 81 ->96 81 ->99 83 ->94 83 ->97 83 ->99 84 ->94 84 ->95 84 ->96 85 ->95 85 ->97 86 ->91 86 ->95 86 ->96 86 ->98 86 ->99 87 ->96 87 ->98 87 ->99 88 ->91 88 ->96 88 ->97 88 ->98 90 ->92 90 ->93 
}
