digraph G {
0 ->14 1 ->14 2 ->14 3 ->12 3 ->13 4 ->13 4 ->15 5 ->11 5 ->12 5 ->13 5 ->14 5 ->15 6 ->14 7 ->13 8 ->13 13 ->16 13 ->17 13 ->19 14 ->16 14 ->20 15 ->16 15 ->18 15 ->19 15 ->20 16 ->22 16 ->25 16 ->27 17 ->21 17 ->23 17 ->29 18 ->23 18 ->26 18 ->27 19 ->21 20 ->24 20 ->25 20 ->26 20 ->27 20 ->28 21 ->34 23 ->32 23 ->34 24 ->30 24 ->31 24 ->32 24 ->34 25 ->30 25 ->34 26 ->33 27 ->32 29 ->30 29 ->32 30 ->36 30 ->38 32 ->36 32 ->37 32 ->39 33 ->35 33 ->36 34 ->37 34 ->38 35 ->45 36 ->40 36 ->43 36 ->46 36 ->47 37 ->40 37 ->44 37 ->49 38 ->42 38 ->48 39 ->40 39 ->41 39 ->44 39 ->49 40 ->50 40 ->51 40 ->52 40 ->57 40 ->59 40 ->60 41 ->50 41 ->53 41 ->55 41 ->57 41 ->59 41 ->60 41 ->61 42 ->53 42 ->55 42 ->56 42 ->61 43 ->59 43 ->61 44 ->58 45 ->53 45 ->54 45 ->58 46 ->51 46 ->52 46 ->54 46 ->56 46 ->58 46 ->60 47 ->50 47 ->52 47 ->53 47 ->54 47 ->61 48 ->56 48 ->60 49 ->50 49 ->60 50 ->63 50 ->65 50 ->68 51 ->65 51 ->65 51 ->66 52 ->65 53 ->64 54 ->63 55 ->63 55 ->69 56 ->63 56 ->67 56 ->68 56 ->69 57 ->68 59 ->62 60 ->63 60 ->66 61 ->63 61 ->65 61 ->68 62 ->71 62 ->73 63 ->75 64 ->71 64 ->75 64 ->77 65 ->70 65 ->74 66 ->72 66 ->73 66 ->74 66 ->75 67 ->73 68 ->71 68 ->73 68 ->74 69 ->75 69 ->76 69 ->77 70 ->82 71 ->85 72 ->80 72 ->89 72 ->90 73 ->81 73 ->83 73 ->84 73 ->85 73 ->86 74 ->81 74 ->84 74 ->86 74 ->88 75 ->78 75 ->81 75 ->82 75 ->83 75 ->85 75 ->87 75 ->88 75 ->89 76 ->78 76 ->79 76 ->85 76 ->88 76 ->89 76 ->90 77 ->82 77 ->89 77 ->90 79 ->92 79 ->93 80 ->92 80 ->94 81 ->92 81 ->96 82 ->93 82 ->96 83 ->92 83 ->96 84 ->93 84 ->96 84 ->97 85 ->91 85 ->92 85 ->93 85 ->97 86 ->96 86 ->97 87 ->93 87 ->96 87 ->97 88 ->95 89 ->92 89 ->93 89 ->94 89 ->95 90 ->95 90 ->97 91 ->99 94 ->98 96 ->99 97 ->99 
}
