files/tasks_parameters/ExAp01/sample8.txt 0.792567 3.15778 1.5595 0.203411 4.72622
files/tasks_parameters/ExAp01/sample12.txt 0.806204 3.94962 1.6705 0.207924 4.83107
files/tasks_parameters/ExAp01/sample2.txt 0.814114 3.78275 1.74131 0.200098 4.64923
files/tasks_parameters/ExAp01/sample44.txt 0.683135 3.59825 1.65317 0.200005 4.64708
files/tasks_parameters/ExAp01/sample27.txt 0.720162 3.45743 1.5148 0.182129 4.23172
files/tasks_parameters/ExAp01/sample17.txt 0.620215 2.77299 1.44514 0.14646 3.40297
files/tasks_parameters/ExAp01/sample9.txt 0.678611 2.99933 1.451 0.177444 4.12287
files/tasks_parameters/ExAp01/sample34.txt 0.67876 3.02928 1.58429 0.157984 3.67072
files/tasks_parameters/ExAp01/sample40.txt 0.730591 3.86889 1.52122 0.168379 3.91226
files/tasks_parameters/ExAp01/sample33.txt 0.783038 3.63695 1.71905 0.199765 4.6415
files/tasks_parameters/ExAp01/sample48.txt 0.711976 3.39061 1.49062 0.154728 3.59508
files/tasks_parameters/ExAp01/sample29.txt 0.763462 3.30472 1.38739 0.223868 5.20154
files/tasks_parameters/ExAp01/sample11.txt 0.718913 3.10585 1.41612 0.174079 4.04468
files/tasks_parameters/ExAp01/sample14.txt 0.692831 2.70971 1.43432 0.162214 3.76902
files/tasks_parameters/ExAp01/sample0.txt 0.70088 3.6937 1.5439 0.18367 4.26753
files/tasks_parameters/ExAp01/sample7.txt 0.608977 2.70501 1.42221 0.143463 3.33335
files/tasks_parameters/ExAp01/sample23.txt 0.709405 3.2697 1.57822 0.181448 4.21592
files/tasks_parameters/ExAp01/sample13.txt 0.725253 3.84225 1.67648 0.198247 4.60623
files/tasks_parameters/ExAp01/sample22.txt 0.665496 3.09569 1.56121 0.148796 3.45725
files/tasks_parameters/ExAp01/sample25.txt 0.618605 2.73966 1.5007 0.148149 3.44221
files/tasks_parameters/ExAp01/sample36.txt 0.549587 2.85948 1.28553 0.130042 3.02151
files/tasks_parameters/ExAp01/sample46.txt 0.789059 3.58643 1.69998 0.210103 4.8817
files/tasks_parameters/ExAp01/sample31.txt 0.706345 3.4832 1.53782 0.1722 4.00103
files/tasks_parameters/ExAp01/sample37.txt 0.730663 3.95293 1.50705 0.171701 3.98944
files/tasks_parameters/ExAp01/sample16.txt 0.608851 3.31216 1.30115 0.150249 3.49101
files/tasks_parameters/ExAp01/sample10.txt 0.686393 3.17098 1.61789 0.153776 3.57297
files/tasks_parameters/ExAp01/sample39.txt 0.718028 3.26617 1.44406 0.165669 3.84928
files/tasks_parameters/ExAp01/sample19.txt 0.769359 3.63532 1.52509 0.196094 4.55622
files/tasks_parameters/ExAp01/sample20.txt 0.618953 3.20793 1.25367 0.147335 3.42331
files/tasks_parameters/ExAp01/sample43.txt 0.608658 3.11551 1.4202 0.150644 3.5002
files/tasks_parameters/ExAp01/sample32.txt 0.708001 3.5311 1.42482 0.168744 3.92074
files/tasks_parameters/ExAp01/sample45.txt 0.755724 3.80283 1.48324 0.19807 4.60213
files/tasks_parameters/ExAp01/sample26.txt 0.61699 3.21645 1.29701 0.166061 3.8584
files/tasks_parameters/ExAp01/sample5.txt 0.672921 3.5889 1.52559 0.178903 4.15679
files/tasks_parameters/ExAp01/sample21.txt 0.644108 2.75242 1.55936 0.19512 4.53358
files/tasks_parameters/ExAp01/sample38.txt 0.662078 3.31563 1.37515 0.166157 3.86062
files/tasks_parameters/ExAp01/sample1.txt 0.723724 3.74964 1.51696 0.19701 4.57748
files/tasks_parameters/ExAp01/sample15.txt 0.692954 3.32916 1.48508 0.180707 4.1987
files/tasks_parameters/ExAp01/sample24.txt 0.699887 3.45951 1.59549 0.16529 3.84049
files/tasks_parameters/ExAp01/sample3.txt 0.915587 3.70014 1.70809 0.237107 5.50914
files/tasks_parameters/ExAp01/sample6.txt 0.707805 3.33003 1.58323 0.184714 4.29181
files/tasks_parameters/ExAp01/sample30.txt 0.920174 4.1841 1.4861 0.239623 5.5676
files/tasks_parameters/ExAp01/sample42.txt 0.737756 3.43221 1.70276 0.177383 4.12146
files/tasks_parameters/ExAp01/sample4.txt 0.778511 3.72477 1.6136 0.196448 4.56444
files/tasks_parameters/ExAp01/sample28.txt 0.64148 3.11323 1.45032 0.158819 3.69013
files/tasks_parameters/ExAp01/sample18.txt 0.632363 3.47418 1.45209 0.149064 3.46347
files/tasks_parameters/ExAp01/sample35.txt 0.754639 4.57086 1.49394 0.185031 4.29915
files/tasks_parameters/ExAp01/sample47.txt 0.678849 3.13768 1.52397 0.16417 3.81446
files/tasks_parameters/ExAp01/sample49.txt 0.655554 3.13288 1.49657 0.156154 3.62821
files/tasks_parameters/ExAp01/sample41.txt 0.637827 2.81964 1.49636 0.150876 3.50557
