files/tasks_parameters/ExAp01/sample8.txt 1.08987 7.2562 4.46819 0.454772 9.27036
files/tasks_parameters/ExAp01/sample12.txt 1.62899 9.70908 5.28286 0.618515 12.6082
files/tasks_parameters/ExAp01/sample2.txt 1.45229 8.14159 5.7401 0.620531 12.6493
files/tasks_parameters/ExAp01/sample44.txt 1.37778 7.25164 5.75904 0.557631 11.3671
files/tasks_parameters/ExAp01/sample27.txt 1.3183 8.10944 5.64946 0.564878 11.5148
files/tasks_parameters/ExAp01/sample17.txt 1.25146 7.11225 5.46658 0.527183 10.7464
files/tasks_parameters/ExAp01/sample9.txt 1.19656 7.62559 5.37813 0.517277 10.5445
files/tasks_parameters/ExAp01/sample34.txt 1.2448 7.04587 5.93037 0.497709 10.1456
files/tasks_parameters/ExAp01/sample40.txt 1.201 8.03037 5.123 0.502383 10.2409
files/tasks_parameters/ExAp01/sample33.txt 1.61561 9.22935 5.92956 0.659262 13.4388
files/tasks_parameters/ExAp01/sample48.txt 1.15873 8.12182 5.1577 0.452491 9.22384
files/tasks_parameters/ExAp01/sample29.txt 1.52736 8.06133 5.12331 0.650652 13.2633
files/tasks_parameters/ExAp01/sample11.txt 1.35889 7.63104 5.37897 0.563302 11.4827
files/tasks_parameters/ExAp01/sample14.txt 1.13168 6.66403 4.66322 0.471536 9.61208
files/tasks_parameters/ExAp01/sample0.txt 1.61847 9.3266 4.98971 0.6311 12.8647
files/tasks_parameters/ExAp01/sample7.txt 1.26704 7.34863 5.19436 0.515527 10.5088
files/tasks_parameters/ExAp01/sample23.txt 1.40203 6.68564 5.54308 0.588617 11.9987
files/tasks_parameters/ExAp01/sample13.txt 1.60627 9.31093 5.35591 0.632849 12.9004
files/tasks_parameters/ExAp01/sample22.txt 1.28633 7.65588 5.04866 0.540336 11.0145
files/tasks_parameters/ExAp01/sample25.txt 1.0295 6.17035 5.0141 0.408296 8.32295
files/tasks_parameters/ExAp01/sample36.txt 1.19007 7.03772 4.66274 0.507647 10.3482
files/tasks_parameters/ExAp01/sample46.txt 1.35236 7.73433 4.79934 0.536843 10.9433
files/tasks_parameters/ExAp01/sample31.txt 1.16998 6.96928 5.16482 0.485817 9.9032
files/tasks_parameters/ExAp01/sample37.txt 1.59369 9.52443 5.74224 0.65799 13.4129
files/tasks_parameters/ExAp01/sample16.txt 1.34501 8.63521 4.97261 0.516328 10.5251
files/tasks_parameters/ExAp01/sample10.txt 1.39877 7.28353 6.16876 0.615651 12.5498
files/tasks_parameters/ExAp01/sample39.txt 1.14417 6.3405 4.6137 0.468873 9.5578
files/tasks_parameters/ExAp01/sample19.txt 1.40069 8.85528 5.22306 0.622152 12.6823
files/tasks_parameters/ExAp01/sample20.txt 1.39217 8.1141 5.21177 0.586994 11.9656
files/tasks_parameters/ExAp01/sample43.txt 1.30771 7.21373 5.6367 0.53748 10.9563
files/tasks_parameters/ExAp01/sample32.txt 1.46561 8.30592 5.38137 0.593918 12.1068
files/tasks_parameters/ExAp01/sample45.txt 1.29578 7.94069 4.96323 0.547271 11.1559
files/tasks_parameters/ExAp01/sample26.txt 1.12456 7.57061 4.62637 0.480146 9.78759
files/tasks_parameters/ExAp01/sample5.txt 1.38077 8.0307 5.35681 0.59407 12.1099
files/tasks_parameters/ExAp01/sample21.txt 1.02755 5.87802 4.61744 0.434264 8.85231
files/tasks_parameters/ExAp01/sample38.txt 1.18363 7.66999 4.86632 0.496808 10.1272
files/tasks_parameters/ExAp01/sample1.txt 1.18315 7.21312 4.63213 0.486293 9.9129
files/tasks_parameters/ExAp01/sample15.txt 1.28125 8.02273 5.50855 0.531063 10.8255
files/tasks_parameters/ExAp01/sample24.txt 1.31426 8.66348 5.4905 0.548998 11.1911
files/tasks_parameters/ExAp01/sample3.txt 1.18752 7.74268 4.79918 0.477387 9.73135
files/tasks_parameters/ExAp01/sample6.txt 1.51709 8.57133 5.80157 0.633604 12.9158
files/tasks_parameters/ExAp01/sample30.txt 1.58117 8.18878 5.90888 0.633576 12.9152
files/tasks_parameters/ExAp01/sample42.txt 1.30673 8.57689 5.67253 0.54426 11.0945
files/tasks_parameters/ExAp01/sample4.txt 1.29715 8.40354 4.57985 0.563519 11.4871
files/tasks_parameters/ExAp01/sample28.txt 1.05736 6.44114 4.96426 0.449721 9.1674
files/tasks_parameters/ExAp01/sample18.txt 1.36715 8.56363 4.60946 0.543766 11.0845
files/tasks_parameters/ExAp01/sample35.txt 1.93853 11.0387 6.34514 0.761377 15.5204
files/tasks_parameters/ExAp01/sample47.txt 1.32345 7.14493 5.22131 0.545046 11.1105
files/tasks_parameters/ExAp01/sample49.txt 1.29868 6.65996 4.80244 0.498533 10.1624
files/tasks_parameters/ExAp01/sample41.txt 1.18983 7.09069 5.35462 0.497129 10.1338
