0.38519162999999995
Task0 63 15 31 
Task1 63 127 255 
Task2 63 31 7 
Task3 31 7 63 
Task4 1 63 7 
Task5 255 3 15 
Task6 255 63 127 
Task7 3 31 3 
Task8 15 63 3 
Task9 31 63 15 
Task10 3 63 15 
Task11 1 31 63 
Task12 31 31 31 
Task13 63 15 15 
Task14 63 31 31 
Task15 63 7 3 
Task16 63 1 7 
Task17 255 127 31 
Task18 15 31 15 
Task19 15 31 63 
Task20 31 7 63 
Task21 63 255 7 
Task22 63 127 31 
Task23 127 15 255 
Task24 7 7 63 
Task25 63 63 127 
Task26 31 63 7 
Task27 7 7 63 
Task28 15 63 15 
Task29 63 15 15 
Task30 63 15 31 
Task31 31 15 63 
Task32 3 63 1 
Task33 31 255 7 
Task34 7 63 15 
Task35 255 1 255 
Task36 31 63 15 
Task37 1 31 7 
Task38 3 63 1 
Task39 15 31 31 
Task40 1 63 7 
Task41 3 7 63 
Task42 7 63 31 
Task43 63 255 15 
Task44 3 63 1 
Task45 255 63 1 
Task46 1 63 1 
Task47 63 15 31 
Task48 3 255 15 
Task49 15 63 15 
Task50 3 15 63 
Task51 63 63 15 
Task52 63 1 15 
Task53 15 31 63 
Task54 127 63 63 
Task55 127 31 63 
Task56 31 31 1 
Task57 63 31 3 
Task58 63 31 7 
Task59 7 63 7 
Task60 63 63 1 
Task61 31 15 31 
Task62 63 1 1 
Task63 63 1 63 
Task64 1 15 63 
Task65 31 15 63 
Task66 3 63 7 
Task67 3 63 3 
Task68 7 63 15 
Task69 1 63 3 
Task70 31 31 63 
Task71 15 7 63 
Task72 63 63 127 
Task73 31 31 31 
Task74 255 63 31 
Task75 63 15 7 
Task76 31 127 127 
Task77 31 7 1 
Task78 31 63 31 
Task79 7 7 63 
Task80 3 63 3 
Task81 31 15 31 
Task82 1 63 7 
Task83 31 63 1 
Task84 255 127 63 
Task85 63 31 15 
Task86 31 31 31 
Task87 63 255 31 
Task88 63 31 63 
Task89 31 31 63 
Task90 255 15 63 
Task91 31 3 15 
Task92 31 63 63 
Task93 255 31 63 
Task94 31 127 31 
Task95 15 7 31 
Task96 3 63 63 
Task97 1 1 63 
Task98 63 3 31 
Task99 63 127 63 
