Task0 1 1 1 
Task1 3 3 1 
Task2 1 3 1 
Task3 7 3 1 
Task4 1 1 1 
Task5 1 1 1 
Task6 1 1 1 
Task7 7 1 3 
Task8 1 1 1 
Task9 1 1 1 
Task10 1 1 3 
Task11 3 3 1 
Task12 1 1 3 
Task13 1 1 1 
Task14 1 3 3 
Task15 3 1 1 
Task16 1 1 3 
Task17 1 1 1 
Task18 1 1 1 
Task19 1 1 1 
Task20 1 1 1 
Task21 1 1 1 
Task22 1 1 1 
Task23 1 1 1 
Task24 1 1 1 
Task25 1 1 3 
Task26 1 3 3 
Task27 1 3 3 
Task28 1 1 1 
Task29 1 1 1 
Task30 3 3 1 
Task31 1 1 3 
Task32 3 1 1 
Task33 1 1 1 
Task34 1 1 1 
Task35 1 1 1 
Task36 3 7 1 
Task37 3 1 1 
Task38 1 1 1 
Task39 1 3 1 
Task40 3 1 1 
Task41 1 1 3 
Task42 1 1 1 
Task43 1 1 1 
Task44 1 1 1 
Task45 1 1 1 
Task46 1 3 1 
Task47 1 3 1 
Task48 1 1 3 
Task49 3 3 3 
Task50 3 3 1 
Task51 1 1 1 
Task52 1 1 1 
Task53 1 1 1 
Task54 1 3 1 
Task55 1 1 1 
Task56 1 1 1 
Task57 1 1 1 
Task58 1 1 1 
Task59 1 1 1 
Task60 1 1 1 
Task61 1 3 1 
Task62 1 1 1 
Task63 1 3 3 
Task64 1 1 1 
Task65 1 1 1 
Task66 3 1 1 
Task67 1 1 1 
Task68 1 3 1 
Task69 1 1 1 
Task70 3 1 3 
Task71 1 1 1 
Task72 3 3 7 
Task73 7 1 1 
Task74 1 1 1 
Task75 1 1 1 
Task76 1 1 1 
Task77 1 1 3 
Task78 1 1 1 
Task79 1 3 1 
Task80 1 1 1 
Task81 1 1 1 
Task82 1 1 1 
Task83 1 1 1 
Task84 1 1 1 
Task85 3 1 3 
Task86 1 1 1 
Task87 3 3 3 
Task88 1 1 1 
Task89 1 1 1 
Task90 1 1 3 
Task91 1 1 1 
Task92 1 1 1 
Task93 1 1 1 
Task94 1 1 3 
Task95 1 1 1 
Task96 1 1 1 
Task97 3 3 15 
Task98 1 1 1 
Task99 1 1 1 
