0.3766541399999999
Task0 3 63 1 
Task1 31 63 3 
Task2 1 63 1 
Task3 7 63 15 
Task4 7 7 63 
Task5 31 1 7 
Task6 15 63 7 
Task7 15 31 15 
Task8 31 63 3 
Task9 31 63 31 
Task10 7 63 1 
Task11 255 7 127 
Task12 63 31 127 
Task13 31 15 31 
Task14 255 255 127 
Task15 255 127 63 
Task16 15 63 31 
Task17 63 1 1 
Task18 255 7 63 
Task19 15 63 31 
Task20 3 63 63 
Task21 7 63 1 
Task22 31 3 63 
Task23 1 63 15 
Task24 15 63 15 
Task25 63 7 7 
Task26 31 7 7 
Task27 31 31 1 
Task28 31 7 63 
Task29 3 63 1 
Task30 15 31 1 
Task31 31 7 15 
Task32 31 31 127 
Task33 127 15 255 
Task34 15 63 63 
Task35 63 7 1 
Task36 63 31 31 
Task37 63 15 63 
Task38 31 63 31 
Task39 63 31 63 
Task40 7 255 31 
Task41 3 31 31 
Task42 31 31 3 
Task43 63 31 31 
Task44 7 3 31 
Task45 1 7 63 
Task46 3 15 63 
Task47 31 63 7 
Task48 63 3 1 
Task49 31 63 31 
Task50 63 127 255 
Task51 255 63 15 
Task52 31 1 31 
Task53 63 127 255 
Task54 15 7 63 
Task55 63 15 63 
Task56 15 31 63 
Task57 7 7 31 
Task58 15 63 255 
Task59 63 255 255 
Task60 3 63 7 
Task61 63 1 15 
Task62 63 15 31 
Task63 31 15 255 
Task64 31 255 31 
Task65 3 31 31 
Task66 63 31 7 
Task67 7 31 63 
Task68 7 7 63 
Task69 31 31 7 
Task70 63 7 3 
Task71 63 7 15 
Task72 7 63 15 
Task73 31 15 31 
Task74 31 1 63 
Task75 15 63 31 
Task76 63 3 63 
Task77 63 63 1 
Task78 63 3 7 
Task79 3 63 63 
Task80 15 3 255 
Task81 63 7 3 
Task82 127 63 31 
Task83 63 31 31 
Task84 63 31 7 
Task85 255 255 255 
Task86 3 15 63 
Task87 7 7 31 
Task88 63 31 31 
Task89 15 31 7 
Task90 255 3 127 
Task91 31 15 127 
Task92 127 3 15 
Task93 3 7 63 
Task94 15 1 63 
Task95 63 15 7 
Task96 31 15 15 
Task97 63 1 3 
Task98 31 31 3 
Task99 31 7 15 
