0.29929003299999996
Task0 15 63 15 
Task1 31 31 15 
Task2 15 7 31 
Task3 15 7 1 
Task4 3 15 31 
Task5 7 15 63 
Task6 255 255 127 
Task7 63 3 7 
Task8 3 1 31 
Task9 31 31 3 
Task10 1 31 7 
Task11 7 31 7 
Task12 3 7 31 
Task13 7 63 31 
Task14 255 3 255 
Task15 15 7 15 
Task16 31 7 3 
Task17 63 31 1 
Task18 31 63 3 
Task19 7 7 63 
Task20 3 7 31 
Task21 7 15 15 
Task22 255 127 31 
Task23 1 1 63 
Task24 31 15 1 
Task25 3 3 31 
Task26 1 1 31 
Task27 31 7 1 
Task28 3 31 3 
Task29 63 15 63 
Task30 15 31 15 
Task31 15 31 3 
Task32 31 1 1 
Task33 63 127 63 
Task34 15 15 15 
Task35 15 31 31 
Task36 63 31 63 
Task37 63 127 15 
Task38 7 63 1 
Task39 15 7 15 
Task40 31 31 15 
Task41 63 1 255 
Task42 63 31 15 
Task43 7 7 31 
Task44 3 1 31 
Task45 7 31 15 
Task46 127 31 31 
Task47 255 127 255 
Task48 7 31 7 
Task49 7 3 31 
Task50 1 63 15 
Task51 15 7 31 
Task52 31 3 1 
Task53 7 7 31 
Task54 31 15 7 
Task55 31 1 7 
Task56 15 15 3 
Task57 1 7 31 
Task58 255 127 255 
Task59 31 63 15 
Task60 15 15 31 
Task61 31 63 1 
Task62 3 31 15 
Task63 7 63 31 
Task64 63 7 3 
Task65 3 3 31 
Task66 7 3 31 
Task67 7 7 31 
Task68 31 3 3 
Task69 7 1 31 
Task70 31 7 7 
Task71 15 3 15 
Task72 1 31 31 
Task73 31 3 1 
Task74 7 31 7 
Task75 1 63 7 
Task76 3 31 1 
Task77 3 1 31 
Task78 127 255 127 
Task79 1 3 31 
Task80 15 255 63 
Task81 15 15 3 
Task82 63 15 31 
Task83 7 31 7 
Task84 1 31 7 
Task85 15 31 1 
Task86 15 31 15 
Task87 1 15 15 
Task88 1 7 31 
Task89 15 1 31 
Task90 31 31 15 
Task91 3 31 15 
Task92 31 7 3 
Task93 31 63 63 
Task94 3 31 15 
Task95 31 15 7 
Task96 3 3 31 
Task97 3 15 15 
Task98 31 31 31 
Task99 7 31 7 
