0.41255164
Task0 15 63 7 
Task1 63 3 7 
Task2 63 1 3 
Task3 63 7 1 
Task4 63 127 127 
Task5 255 31 3 
Task6 63 31 7 
Task7 31 127 255 
Task8 31 1 63 
Task9 63 63 31 
Task10 1 63 15 
Task11 63 15 3 
Task12 255 15 31 
Task13 7 63 1 
Task14 31 15 255 
Task15 7 15 255 
Task16 31 63 63 
Task17 127 255 255 
Task18 3 63 1 
Task19 3 63 15 
Task20 127 255 15 
Task21 63 127 15 
Task22 15 255 1 
Task23 255 255 63 
Task24 15 63 7 
Task25 63 7 63 
Task26 63 63 7 
Task27 3 63 1 
Task28 255 255 63 
Task29 15 63 255 
Task30 127 31 255 
Task31 63 63 15 
Task32 31 1 255 
Task33 127 255 127 
Task34 127 255 31 
Task35 255 127 7 
Task36 63 3 255 
Task37 63 1 63 
Task38 255 1 7 
Task39 63 15 3 
Task40 63 31 63 
Task41 1 15 63 
Task42 127 63 15 
Task43 31 63 63 
Task44 31 255 63 
Task45 7 1 63 
Task46 31 127 255 
Task47 31 7 63 
Task48 7 31 63 
Task49 31 31 63 
Task50 15 63 15 
Task51 1 3 63 
Task52 255 127 127 
Task53 3 63 63 
Task54 7 63 63 
Task55 127 63 15 
Task56 63 7 7 
Task57 63 255 63 
Task58 127 7 15 
Task59 1 63 1 
Task60 63 7 3 
Task61 31 63 127 
Task62 255 63 255 
Task63 3 3 63 
Task64 3 255 127 
Task65 127 127 31 
Task66 255 31 7 
Task67 63 31 63 
Task68 7 63 3 
Task69 63 255 63 
Task70 63 7 127 
Task71 255 31 63 
Task72 63 31 15 
Task73 15 255 63 
Task74 7 127 7 
Task75 31 63 31 
Task76 3 7 63 
Task77 255 63 31 
Task78 255 255 255 
Task79 255 3 127 
Task80 255 63 127 
Task81 15 63 15 
Task82 255 7 3 
Task83 63 63 31 
Task84 31 15 63 
Task85 15 63 7 
Task86 63 7 7 
Task87 63 255 15 
Task88 15 31 255 
Task89 255 63 255 
Task90 127 63 31 
Task91 127 31 255 
Task92 63 127 63 
Task93 15 7 127 
Task94 1 15 63 
Task95 7 63 15 
Task96 63 31 63 
Task97 3 63 31 
Task98 15 127 255 
Task99 31 63 31 
