Task0 1 1 1 
Task1 1 1 1 
Task2 1 1 1 
Task3 1 3 1 
Task4 1 1 1 
Task5 1 1 1 
Task6 1 1 1 
Task7 3 1 1 
Task8 1 3 1 
Task9 1 1 1 
Task10 1 3 1 
Task11 15 1 1 
Task12 1 1 1 
Task13 1 1 1 
Task14 1 3 1 
Task15 3 3 1 
Task16 1 1 1 
Task17 1 1 1 
Task18 3 1 1 
Task19 1 1 1 
Task20 1 1 3 
Task21 1 3 1 
Task22 1 1 1 
Task23 1 1 1 
Task24 1 1 1 
Task25 3 1 1 
Task26 1 1 1 
Task27 1 1 1 
Task28 3 1 7 
Task29 1 1 1 
Task30 1 1 1 
Task31 1 1 1 
Task32 1 1 1 
Task33 3 1 1 
Task34 1 1 1 
Task35 1 1 1 
Task36 1 1 1 
Task37 3 1 3 
Task38 1 3 1 
Task39 3 3 1 
Task40 1 3 1 
Task41 1 1 1 
Task42 1 3 1 
Task43 3 1 1 
Task44 1 1 1 
Task45 1 1 1 
Task46 1 1 1 
Task47 1 1 1 
Task48 1 1 1 
Task49 1 1 1 
Task50 3 7 15 
Task51 63 31 7 
Task52 1 1 1 
Task53 1 3 1 
Task54 1 1 1 
Task55 1 1 1 
Task56 3 1 3 
Task57 1 1 3 
Task58 1 3 1 
Task59 1 3 1 
Task60 1 3 1 
Task61 1 1 1 
Task62 1 1 1 
Task63 1 1 3 
Task64 1 3 1 
Task65 1 1 1 
Task66 1 1 1 
Task67 1 1 3 
Task68 1 1 1 
Task69 3 1 1 
Task70 1 1 1 
Task71 1 1 1 
Task72 1 1 3 
Task73 7 3 1 
Task74 1 1 1 
Task75 1 1 1 
Task76 1 1 1 
Task77 1 3 1 
Task78 1 1 1 
Task79 1 3 1 
Task80 1 1 3 
Task81 1 1 1 
Task82 1 1 1 
Task83 1 1 1 
Task84 1 1 1 
Task85 7 3 7 
Task86 1 1 1 
Task87 1 1 1 
Task88 1 1 3 
Task89 1 1 1 
Task90 3 1 1 
Task91 1 1 3 
Task92 3 1 1 
Task93 1 1 1 
Task94 1 1 3 
Task95 3 1 1 
Task96 3 1 1 
Task97 3 1 1 
Task98 1 1 1 
Task99 1 1 1 
