files/tasks_parameters/ExAp01/sample8.txt 1.13477 6.77015 2.19458 0.288816 10.8688
files/tasks_parameters/ExAp01/sample12.txt 1.33562 9.58351 2.46081 0.337498 12.7009
files/tasks_parameters/ExAp01/sample2.txt 1.3677 8.44418 2.50701 0.319127 12.0095
files/tasks_parameters/ExAp01/sample44.txt 1.19006 6.96299 2.23089 0.28229 10.6233
files/tasks_parameters/ExAp01/sample27.txt 1.29262 7.74306 2.16676 0.28602 10.7636
files/tasks_parameters/ExAp01/sample17.txt 1.16734 7.35053 2.25579 0.292348 11.0017
files/tasks_parameters/ExAp01/sample9.txt 1.20165 6.89392 2.21068 0.282399 10.6273
files/tasks_parameters/ExAp01/sample34.txt 1.10276 6.62788 2.3772 0.297742 11.2047
files/tasks_parameters/ExAp01/sample40.txt 1.01527 7.75686 2.17534 0.285619 10.7485
files/tasks_parameters/ExAp01/sample33.txt 1.28611 8.14826 2.6463 0.338073 12.7225
files/tasks_parameters/ExAp01/sample48.txt 1.04429 7.64107 2.14272 0.270011 10.1612
files/tasks_parameters/ExAp01/sample29.txt 1.07439 7.139 1.93769 0.286306 10.7744
files/tasks_parameters/ExAp01/sample11.txt 1.15145 6.88688 2.12981 0.280008 10.5374
files/tasks_parameters/ExAp01/sample14.txt 1.03668 6.11983 1.97599 0.247458 9.31242
files/tasks_parameters/ExAp01/sample0.txt 1.23171 8.2738 2.14256 0.289132 10.8807
files/tasks_parameters/ExAp01/sample7.txt 1.11652 6.87011 2.05821 0.269886 10.1564
files/tasks_parameters/ExAp01/sample23.txt 1.07353 6.52032 2.38087 0.291712 10.9778
files/tasks_parameters/ExAp01/sample13.txt 1.16641 8.73247 2.33415 0.295393 11.1163
files/tasks_parameters/ExAp01/sample22.txt 1.12718 6.9777 2.28948 0.283979 10.6868
files/tasks_parameters/ExAp01/sample25.txt 1.12597 6.23444 2.2122 0.267298 10.059
files/tasks_parameters/ExAp01/sample36.txt 1.10287 6.6174 1.9458 0.253823 9.55195
files/tasks_parameters/ExAp01/sample46.txt 1.45517 7.42369 2.49128 0.327273 12.3161
files/tasks_parameters/ExAp01/sample31.txt 0.987125 7.22028 2.13584 0.25377 9.54996
files/tasks_parameters/ExAp01/sample37.txt 1.21758 8.90704 2.16981 0.295708 11.1282
files/tasks_parameters/ExAp01/sample16.txt 1.10686 8.18243 1.88294 0.24945 9.38739
files/tasks_parameters/ExAp01/sample10.txt 1.11113 6.96646 2.31217 0.285748 10.7534
files/tasks_parameters/ExAp01/sample39.txt 0.965732 6.4161 1.97266 0.251967 9.48211
files/tasks_parameters/ExAp01/sample19.txt 1.28369 8.16711 2.23199 0.308463 11.6082
files/tasks_parameters/ExAp01/sample20.txt 1.02942 7.28549 1.88944 0.25994 9.78215
files/tasks_parameters/ExAp01/sample43.txt 0.935695 6.86804 2.00142 0.25616 9.63992
files/tasks_parameters/ExAp01/sample32.txt 1.13415 8.15663 2.12995 0.281726 10.602
files/tasks_parameters/ExAp01/sample45.txt 1.05931 7.75184 2.10599 0.274935 10.3465
files/tasks_parameters/ExAp01/sample26.txt 0.953773 7.4944 1.88956 0.267248 10.0572
files/tasks_parameters/ExAp01/sample5.txt 1.26551 8.08362 2.09961 0.28454 10.7079
files/tasks_parameters/ExAp01/sample21.txt 1.08165 6.11814 2.17119 0.26143 9.83822
files/tasks_parameters/ExAp01/sample38.txt 0.969069 7.761 1.96293 0.263659 9.92211
files/tasks_parameters/ExAp01/sample1.txt 1.19966 7.83752 2.13261 0.289228 10.8843
files/tasks_parameters/ExAp01/sample15.txt 1.04185 7.37971 2.12057 0.285825 10.7563
files/tasks_parameters/ExAp01/sample24.txt 1.14191 8.28531 2.25272 0.296628 11.1628
files/tasks_parameters/ExAp01/sample3.txt 1.26971 7.33359 2.39135 0.305084 11.4811
files/tasks_parameters/ExAp01/sample6.txt 1.12395 7.09894 2.24425 0.281804 10.605
files/tasks_parameters/ExAp01/sample30.txt 1.3604 8.17669 2.03701 0.299204 11.2598
files/tasks_parameters/ExAp01/sample42.txt 1.18795 7.70416 2.42413 0.29743 11.193
files/tasks_parameters/ExAp01/sample4.txt 1.33738 7.41691 2.36261 0.307803 11.5833
files/tasks_parameters/ExAp01/sample28.txt 1.13744 7.0562 2.07657 0.266428 10.0263
files/tasks_parameters/ExAp01/sample18.txt 1.12218 7.60139 2.1377 0.268016 10.0861
files/tasks_parameters/ExAp01/sample35.txt 1.40095 9.66795 2.28028 0.32244 12.1342
files/tasks_parameters/ExAp01/sample47.txt 1.01822 6.84842 2.12104 0.251655 9.47036
files/tasks_parameters/ExAp01/sample49.txt 1.05413 7.1497 2.11412 0.255889 9.62971
files/tasks_parameters/ExAp01/sample41.txt 1.07136 6.59911 2.07359 0.265885 10.0059
