files/tasks_parameters/ExAp01/sample8.txt 1.00693 3.76817 4.3855 0.450105 25.7658
files/tasks_parameters/ExAp01/sample12.txt 1.31757 5.03638 5.18776 0.610564 34.9511
files/tasks_parameters/ExAp01/sample2.txt 1.30979 4.58991 5.64606 0.613877 35.1407
files/tasks_parameters/ExAp01/sample44.txt 1.17828 3.77401 5.66946 0.551838 31.5893
files/tasks_parameters/ExAp01/sample27.txt 1.19887 4.13937 5.56136 0.55779 31.93
files/tasks_parameters/ExAp01/sample17.txt 1.1124 3.76163 5.38341 0.520991 29.8236
files/tasks_parameters/ExAp01/sample9.txt 1.09853 3.69889 5.2981 0.511699 29.2917
files/tasks_parameters/ExAp01/sample34.txt 1.0804 3.52435 5.83741 0.49187 28.1566
files/tasks_parameters/ExAp01/sample40.txt 1.07807 4.06185 5.0335 0.496884 28.4436
files/tasks_parameters/ExAp01/sample33.txt 1.37894 4.82091 5.83886 0.651963 37.3209
files/tasks_parameters/ExAp01/sample48.txt 0.968178 4.01134 5.07085 0.447927 25.6411
files/tasks_parameters/ExAp01/sample29.txt 1.35275 4.20847 5.0406 0.643694 36.8476
files/tasks_parameters/ExAp01/sample11.txt 1.20711 3.94699 5.29198 0.557276 31.9006
files/tasks_parameters/ExAp01/sample14.txt 1.03226 3.54059 4.58345 0.466713 26.7165
files/tasks_parameters/ExAp01/sample0.txt 1.34415 4.82755 4.90216 0.623551 35.6945
files/tasks_parameters/ExAp01/sample7.txt 1.11594 3.60766 5.11185 0.509566 29.1695
files/tasks_parameters/ExAp01/sample23.txt 1.26413 3.81403 5.45799 0.582911 33.3681
files/tasks_parameters/ExAp01/sample13.txt 1.33469 4.8894 5.26818 0.624499 35.7488
files/tasks_parameters/ExAp01/sample22.txt 1.151 3.76156 4.95746 0.534216 30.5806
files/tasks_parameters/ExAp01/sample25.txt 0.902179 2.94144 4.92622 0.403639 23.1059
files/tasks_parameters/ExAp01/sample36.txt 1.06838 3.56164 4.5806 0.501799 28.7249
files/tasks_parameters/ExAp01/sample46.txt 1.13058 3.84833 4.7121 0.530701 30.3794
files/tasks_parameters/ExAp01/sample31.txt 1.04537 3.764 5.08385 0.479734 27.4618
files/tasks_parameters/ExAp01/sample37.txt 1.391 4.43254 5.65111 0.65143 37.2904
files/tasks_parameters/ExAp01/sample16.txt 1.18455 4.49741 4.8895 0.509171 29.1469
files/tasks_parameters/ExAp01/sample10.txt 1.31728 3.87086 6.07511 0.60993 34.9148
files/tasks_parameters/ExAp01/sample39.txt 0.998116 3.66299 4.54281 0.463671 26.5424
files/tasks_parameters/ExAp01/sample19.txt 1.30676 3.86694 5.14047 0.615987 35.2615
files/tasks_parameters/ExAp01/sample20.txt 1.2296 4.09945 5.13368 0.580369 33.2226
files/tasks_parameters/ExAp01/sample43.txt 1.14196 3.75825 5.55698 0.530892 30.3903
files/tasks_parameters/ExAp01/sample32.txt 1.2951 4.0352 5.29178 0.587643 33.639
files/tasks_parameters/ExAp01/sample45.txt 1.17788 3.94578 4.87833 0.541081 30.9736
files/tasks_parameters/ExAp01/sample26.txt 1.0186 3.50998 4.55035 0.474009 27.1341
files/tasks_parameters/ExAp01/sample5.txt 1.27822 4.00994 5.27725 0.587681 33.6411
files/tasks_parameters/ExAp01/sample21.txt 0.944391 2.8974 4.54677 0.430037 24.617
files/tasks_parameters/ExAp01/sample38.txt 1.05758 3.56689 4.78573 0.492366 28.185
files/tasks_parameters/ExAp01/sample1.txt 1.05341 3.69002 4.55048 0.481074 27.5385
files/tasks_parameters/ExAp01/sample15.txt 1.13244 3.73223 5.42493 0.524964 30.051
files/tasks_parameters/ExAp01/sample24.txt 1.16116 4.18053 5.40377 0.542575 31.0591
files/tasks_parameters/ExAp01/sample3.txt 1.00936 3.70547 4.7118 0.470503 26.9334
files/tasks_parameters/ExAp01/sample6.txt 1.32155 4.07521 5.71419 0.626702 35.8749
files/tasks_parameters/ExAp01/sample30.txt 1.36691 3.97446 5.82388 0.626709 35.8753
files/tasks_parameters/ExAp01/sample42.txt 1.17625 4.44207 5.58473 0.537025 30.7414
files/tasks_parameters/ExAp01/sample4.txt 1.19083 3.92181 4.49751 0.556974 31.8834
files/tasks_parameters/ExAp01/sample28.txt 0.948519 3.13496 4.88321 0.444588 25.45
files/tasks_parameters/ExAp01/sample18.txt 1.15028 3.95301 4.52898 0.537438 30.765
files/tasks_parameters/ExAp01/sample35.txt 1.65882 5.75923 6.25034 0.752488 43.0753
files/tasks_parameters/ExAp01/sample47.txt 1.14889 3.44018 5.14289 0.540033 30.9136
files/tasks_parameters/ExAp01/sample49.txt 1.07315 3.38981 4.72409 0.493041 28.2236
files/tasks_parameters/ExAp01/sample41.txt 1.06081 3.58692 5.27252 0.492391 28.1864
