files/tasks_parameters/ExAp01/sample8.txt 1.21129 6.77015 2.19458 0.288816 5.89367
files/tasks_parameters/ExAp01/sample12.txt 1.42006 9.58351 2.46081 0.337498 6.88709
files/tasks_parameters/ExAp01/sample2.txt 1.2921 8.44418 2.50701 0.319127 6.5122
files/tasks_parameters/ExAp01/sample44.txt 1.14859 6.96299 2.23089 0.28229 5.7605
files/tasks_parameters/ExAp01/sample27.txt 1.17234 7.74306 2.16676 0.28602 5.8366
files/tasks_parameters/ExAp01/sample17.txt 1.20639 7.35053 2.25579 0.292348 5.96573
files/tasks_parameters/ExAp01/sample9.txt 1.21337 6.89392 2.21068 0.282399 5.76271
files/tasks_parameters/ExAp01/sample34.txt 1.16613 6.62788 2.3772 0.297742 6.0758
files/tasks_parameters/ExAp01/sample40.txt 1.0941 7.75686 2.17534 0.285619 5.82843
files/tasks_parameters/ExAp01/sample33.txt 1.3504 8.14826 2.6463 0.338073 6.89882
files/tasks_parameters/ExAp01/sample48.txt 1.08876 7.64107 2.14272 0.270011 5.50992
files/tasks_parameters/ExAp01/sample29.txt 1.28633 7.139 1.93769 0.286306 5.84243
files/tasks_parameters/ExAp01/sample11.txt 1.14121 6.88688 2.12981 0.280008 5.71393
files/tasks_parameters/ExAp01/sample14.txt 0.946171 6.11983 1.97599 0.247458 5.04969
files/tasks_parameters/ExAp01/sample0.txt 1.19792 8.2738 2.14256 0.289132 5.9001
files/tasks_parameters/ExAp01/sample7.txt 1.09375 6.87011 2.05821 0.269886 5.50736
files/tasks_parameters/ExAp01/sample23.txt 1.23072 6.52032 2.38087 0.291712 5.95275
files/tasks_parameters/ExAp01/sample13.txt 1.2466 8.73247 2.33415 0.295393 6.02786
files/tasks_parameters/ExAp01/sample22.txt 1.09527 6.9777 2.28948 0.283979 5.79496
files/tasks_parameters/ExAp01/sample25.txt 1.00129 6.23444 2.2122 0.267298 5.45455
files/tasks_parameters/ExAp01/sample36.txt 1.00134 6.6174 1.9458 0.253823 5.17958
files/tasks_parameters/ExAp01/sample46.txt 1.38374 7.42369 2.49128 0.327273 6.67842
files/tasks_parameters/ExAp01/sample31.txt 1.05288 7.22028 2.13584 0.25377 5.1785
files/tasks_parameters/ExAp01/sample37.txt 1.20779 8.90704 2.16981 0.295708 6.0343
files/tasks_parameters/ExAp01/sample16.txt 1.07093 8.18243 1.88294 0.24945 5.09034
files/tasks_parameters/ExAp01/sample10.txt 1.13629 6.96646 2.31217 0.285748 5.83105
files/tasks_parameters/ExAp01/sample39.txt 1.03365 6.4161 1.97266 0.251967 5.1417
files/tasks_parameters/ExAp01/sample19.txt 1.37003 8.16711 2.23199 0.308463 6.29458
files/tasks_parameters/ExAp01/sample20.txt 1.07807 7.28549 1.88944 0.25994 5.3044
files/tasks_parameters/ExAp01/sample43.txt 1.01503 6.86804 2.00142 0.25616 5.22728
files/tasks_parameters/ExAp01/sample32.txt 1.16969 8.15663 2.12995 0.281726 5.74899
files/tasks_parameters/ExAp01/sample45.txt 1.23771 7.75184 2.10599 0.274935 5.6104
files/tasks_parameters/ExAp01/sample26.txt 1.08748 7.4944 1.88956 0.267248 5.45354
files/tasks_parameters/ExAp01/sample5.txt 1.21193 8.08362 2.09961 0.28454 5.80641
files/tasks_parameters/ExAp01/sample21.txt 1.12972 6.11814 2.17119 0.26143 5.33481
files/tasks_parameters/ExAp01/sample38.txt 1.08222 7.761 1.96293 0.263659 5.3803
files/tasks_parameters/ExAp01/sample1.txt 1.2203 7.83752 2.13261 0.289228 5.90207
files/tasks_parameters/ExAp01/sample15.txt 1.14827 7.37971 2.12057 0.285825 5.83263
files/tasks_parameters/ExAp01/sample24.txt 1.17016 8.28531 2.25272 0.296628 6.05308
files/tasks_parameters/ExAp01/sample3.txt 1.33865 7.33359 2.39135 0.305084 6.22564
files/tasks_parameters/ExAp01/sample6.txt 1.1061 7.09894 2.24425 0.281804 5.75058
files/tasks_parameters/ExAp01/sample30.txt 1.39797 8.17669 2.03701 0.299204 6.10565
files/tasks_parameters/ExAp01/sample42.txt 1.15079 7.70416 2.42413 0.29743 6.06944
files/tasks_parameters/ExAp01/sample4.txt 1.31268 7.41691 2.36261 0.307803 6.28111
files/tasks_parameters/ExAp01/sample28.txt 1.15621 7.0562 2.07657 0.266428 5.4368
files/tasks_parameters/ExAp01/sample18.txt 1.07032 7.60139 2.1377 0.268016 5.46921
files/tasks_parameters/ExAp01/sample35.txt 1.39939 9.66795 2.28028 0.32244 6.57979
files/tasks_parameters/ExAp01/sample47.txt 1.04829 6.84842 2.12104 0.251655 5.13534
files/tasks_parameters/ExAp01/sample49.txt 1.04858 7.1497 2.11412 0.255889 5.22174
files/tasks_parameters/ExAp01/sample41.txt 1.06282 6.59911 2.07359 0.265885 5.42573
