files/tasks_parameters/ExAp01/sample8.txt 1.05874 6.77015 2.19458 0.288816 7.36317
files/tasks_parameters/ExAp01/sample12.txt 1.2862 9.58351 2.46081 0.337498 8.60428
files/tasks_parameters/ExAp01/sample2.txt 1.18606 8.44418 2.50701 0.319127 8.13592
files/tasks_parameters/ExAp01/sample44.txt 1.05457 6.96299 2.23089 0.28229 7.19679
files/tasks_parameters/ExAp01/sample27.txt 1.08434 7.74306 2.16676 0.28602 7.29187
files/tasks_parameters/ExAp01/sample17.txt 1.07816 7.35053 2.25579 0.292348 7.45319
files/tasks_parameters/ExAp01/sample9.txt 1.06516 6.89392 2.21068 0.282399 7.19956
files/tasks_parameters/ExAp01/sample34.txt 1.08743 6.62788 2.3772 0.297742 7.59071
files/tasks_parameters/ExAp01/sample40.txt 1.02112 7.75686 2.17534 0.285619 7.28166
files/tasks_parameters/ExAp01/sample33.txt 1.21737 8.14826 2.6463 0.338073 8.61893
files/tasks_parameters/ExAp01/sample48.txt 1.05795 7.64107 2.14272 0.270011 6.88374
files/tasks_parameters/ExAp01/sample29.txt 1.02015 7.139 1.93769 0.286306 7.29916
files/tasks_parameters/ExAp01/sample11.txt 1.03271 6.88688 2.12981 0.280008 7.13861
files/tasks_parameters/ExAp01/sample14.txt 0.902108 6.11983 1.97599 0.247458 6.30875
files/tasks_parameters/ExAp01/sample0.txt 1.08633 8.2738 2.14256 0.289132 7.37121
files/tasks_parameters/ExAp01/sample7.txt 1.03242 6.87011 2.05821 0.269886 6.88054
files/tasks_parameters/ExAp01/sample23.txt 1.11664 6.52032 2.38087 0.291712 7.43698
files/tasks_parameters/ExAp01/sample13.txt 1.0964 8.73247 2.33415 0.295393 7.53082
files/tasks_parameters/ExAp01/sample22.txt 1.11095 6.9777 2.28948 0.283979 7.23985
files/tasks_parameters/ExAp01/sample25.txt 0.99405 6.23444 2.2122 0.267298 6.81456
files/tasks_parameters/ExAp01/sample36.txt 0.940848 6.6174 1.9458 0.253823 6.47103
files/tasks_parameters/ExAp01/sample46.txt 1.27195 7.42369 2.49128 0.327273 8.34359
files/tasks_parameters/ExAp01/sample31.txt 0.914838 7.22028 2.13584 0.25377 6.46968
files/tasks_parameters/ExAp01/sample37.txt 1.19538 8.90704 2.16981 0.295708 7.53887
files/tasks_parameters/ExAp01/sample16.txt 1.0069 8.18243 1.88294 0.24945 6.35954
files/tasks_parameters/ExAp01/sample10.txt 1.09218 6.96646 2.31217 0.285748 7.28494
files/tasks_parameters/ExAp01/sample39.txt 0.952529 6.4161 1.97266 0.251967 6.42371
files/tasks_parameters/ExAp01/sample19.txt 1.19721 8.16711 2.23199 0.308463 7.86404
files/tasks_parameters/ExAp01/sample20.txt 0.932012 7.28549 1.88944 0.25994 6.62698
files/tasks_parameters/ExAp01/sample43.txt 0.928839 6.86804 2.00142 0.25616 6.53062
files/tasks_parameters/ExAp01/sample32.txt 1.04108 8.15663 2.12995 0.281726 7.18241
files/tasks_parameters/ExAp01/sample45.txt 1.06322 7.75184 2.10599 0.274935 7.00927
files/tasks_parameters/ExAp01/sample26.txt 1.01071 7.4944 1.88956 0.267248 6.8133
files/tasks_parameters/ExAp01/sample5.txt 1.10396 8.08362 2.09961 0.28454 7.25415
files/tasks_parameters/ExAp01/sample21.txt 0.969129 6.11814 2.17119 0.26143 6.66496
files/tasks_parameters/ExAp01/sample38.txt 0.942259 7.761 1.96293 0.263659 6.7218
files/tasks_parameters/ExAp01/sample1.txt 1.03954 7.83752 2.13261 0.289228 7.37366
files/tasks_parameters/ExAp01/sample15.txt 1.02784 7.37971 2.12057 0.285825 7.28692
files/tasks_parameters/ExAp01/sample24.txt 1.08374 8.28531 2.25272 0.296628 7.56233
files/tasks_parameters/ExAp01/sample3.txt 1.10035 7.33359 2.39135 0.305084 7.77791
files/tasks_parameters/ExAp01/sample6.txt 1.04306 7.09894 2.24425 0.281804 7.1844
files/tasks_parameters/ExAp01/sample30.txt 1.17605 8.17669 2.03701 0.299204 7.628
files/tasks_parameters/ExAp01/sample42.txt 1.09336 7.70416 2.42413 0.29743 7.58276
files/tasks_parameters/ExAp01/sample4.txt 1.11121 7.41691 2.36261 0.307803 7.84721
files/tasks_parameters/ExAp01/sample28.txt 0.966285 7.0562 2.07657 0.266428 6.79239
files/tasks_parameters/ExAp01/sample18.txt 1.01211 7.60139 2.1377 0.268016 6.83288
files/tasks_parameters/ExAp01/sample35.txt 1.1867 9.66795 2.28028 0.32244 8.22037
files/tasks_parameters/ExAp01/sample47.txt 0.906148 6.84842 2.12104 0.251655 6.41576
files/tasks_parameters/ExAp01/sample49.txt 0.981143 7.1497 2.11412 0.255889 6.52371
files/tasks_parameters/ExAp01/sample41.txt 0.984617 6.59911 2.07359 0.265885 6.77856
