files/tasks_parameters/ExAp01/sample8.txt 1.08361 3.76817 4.3855 0.450105 14.9628
files/tasks_parameters/ExAp01/sample12.txt 1.50473 5.03638 5.18776 0.610564 20.2969
files/tasks_parameters/ExAp01/sample2.txt 1.45265 4.58991 5.64606 0.613877 20.407
files/tasks_parameters/ExAp01/sample44.txt 1.25841 3.77401 5.66946 0.551838 18.3447
files/tasks_parameters/ExAp01/sample27.txt 1.29418 4.13937 5.56136 0.55779 18.5425
files/tasks_parameters/ExAp01/sample17.txt 1.1945 3.76163 5.38341 0.520991 17.3192
files/tasks_parameters/ExAp01/sample9.txt 1.1433 3.69889 5.2981 0.511699 17.0104
files/tasks_parameters/ExAp01/sample34.txt 1.13513 3.52435 5.83741 0.49187 16.3512
files/tasks_parameters/ExAp01/sample40.txt 1.15826 4.06185 5.0335 0.496884 16.5179
files/tasks_parameters/ExAp01/sample33.txt 1.55311 4.82091 5.83886 0.651963 21.6731
files/tasks_parameters/ExAp01/sample48.txt 1.06928 4.01134 5.07085 0.447927 14.8904
files/tasks_parameters/ExAp01/sample29.txt 1.49097 4.20847 5.0406 0.643694 21.3982
files/tasks_parameters/ExAp01/sample11.txt 1.31892 3.94699 5.29198 0.557276 18.5254
files/tasks_parameters/ExAp01/sample14.txt 1.08353 3.54059 4.58345 0.466713 15.5149
files/tasks_parameters/ExAp01/sample0.txt 1.50724 4.82755 4.90216 0.623551 20.7286
files/tasks_parameters/ExAp01/sample7.txt 1.15431 3.60766 5.11185 0.509566 16.9394
files/tasks_parameters/ExAp01/sample23.txt 1.39278 3.81403 5.45799 0.582911 19.3776
files/tasks_parameters/ExAp01/sample13.txt 1.46078 4.8894 5.26818 0.624499 20.7601
files/tasks_parameters/ExAp01/sample22.txt 1.29377 3.76156 4.95746 0.534216 17.7589
files/tasks_parameters/ExAp01/sample25.txt 0.976769 2.94144 4.92622 0.403639 13.4181
files/tasks_parameters/ExAp01/sample36.txt 1.25826 3.56164 4.5806 0.501799 16.6812
files/tasks_parameters/ExAp01/sample46.txt 1.2969 3.84833 4.7121 0.530701 17.642
files/tasks_parameters/ExAp01/sample31.txt 1.07786 3.764 5.08385 0.479734 15.9477
files/tasks_parameters/ExAp01/sample37.txt 1.52748 4.43254 5.65111 0.65143 21.6554
files/tasks_parameters/ExAp01/sample16.txt 1.2417 4.49741 4.8895 0.509171 16.9263
files/tasks_parameters/ExAp01/sample10.txt 1.38978 3.87086 6.07511 0.60993 20.2758
files/tasks_parameters/ExAp01/sample39.txt 1.12287 3.66299 4.54281 0.463671 15.4138
files/tasks_parameters/ExAp01/sample19.txt 1.4097 3.86694 5.14047 0.615987 20.4772
files/tasks_parameters/ExAp01/sample20.txt 1.30362 4.09945 5.13368 0.580369 19.2931
files/tasks_parameters/ExAp01/sample43.txt 1.15708 3.75825 5.55698 0.530892 17.6484
files/tasks_parameters/ExAp01/sample32.txt 1.42826 4.0352 5.29178 0.587643 19.5349
files/tasks_parameters/ExAp01/sample45.txt 1.22596 3.94578 4.87833 0.541081 17.9871
files/tasks_parameters/ExAp01/sample26.txt 1.11326 3.50998 4.55035 0.474009 15.7574
files/tasks_parameters/ExAp01/sample5.txt 1.38292 4.00994 5.27725 0.587681 19.5362
files/tasks_parameters/ExAp01/sample21.txt 0.935093 2.8974 4.54677 0.430037 14.2957
files/tasks_parameters/ExAp01/sample38.txt 1.17206 3.56689 4.78573 0.492366 16.3677
files/tasks_parameters/ExAp01/sample1.txt 1.15568 3.69002 4.55048 0.481074 15.9923
files/tasks_parameters/ExAp01/sample15.txt 1.20629 3.73223 5.42493 0.524964 17.4513
files/tasks_parameters/ExAp01/sample24.txt 1.27015 4.18053 5.40377 0.542575 18.0368
files/tasks_parameters/ExAp01/sample3.txt 1.08334 3.70547 4.7118 0.470503 15.6409
files/tasks_parameters/ExAp01/sample6.txt 1.3864 4.07521 5.71419 0.626702 20.8334
files/tasks_parameters/ExAp01/sample30.txt 1.49546 3.97446 5.82388 0.626709 20.8336
files/tasks_parameters/ExAp01/sample42.txt 1.29681 4.44207 5.58473 0.537025 17.8522
files/tasks_parameters/ExAp01/sample4.txt 1.40564 3.92181 4.49751 0.556974 18.5154
files/tasks_parameters/ExAp01/sample28.txt 1.02279 3.13496 4.88321 0.444588 14.7794
files/tasks_parameters/ExAp01/sample18.txt 1.22792 3.95301 4.52898 0.537438 17.866
files/tasks_parameters/ExAp01/sample35.txt 1.80909 5.75923 6.25034 0.752488 25.0148
files/tasks_parameters/ExAp01/sample47.txt 1.16153 3.44018 5.14289 0.540033 17.9523
files/tasks_parameters/ExAp01/sample49.txt 1.2295 3.38981 4.72409 0.493041 16.3901
files/tasks_parameters/ExAp01/sample41.txt 1.13897 3.58692 5.27252 0.492391 16.3685
