files/tasks_parameters/ExAp01/sample8.txt 1.10365 7.2562 4.46819 0.454772 13.5807
files/tasks_parameters/ExAp01/sample12.txt 1.62871 9.70908 5.28286 0.618515 18.4705
files/tasks_parameters/ExAp01/sample2.txt 1.45359 8.14159 5.7401 0.620531 18.5307
files/tasks_parameters/ExAp01/sample44.txt 1.36219 7.25164 5.75904 0.557631 16.6523
files/tasks_parameters/ExAp01/sample27.txt 1.3183 8.10944 5.64946 0.564878 16.8688
files/tasks_parameters/ExAp01/sample17.txt 1.25125 7.11225 5.46658 0.527183 15.7431
files/tasks_parameters/ExAp01/sample9.txt 1.19599 7.62559 5.37813 0.517277 15.4473
files/tasks_parameters/ExAp01/sample34.txt 1.23761 7.04587 5.93037 0.497709 14.8629
files/tasks_parameters/ExAp01/sample40.txt 1.201 8.03037 5.123 0.502383 15.0025
files/tasks_parameters/ExAp01/sample33.txt 1.6155 9.22935 5.92956 0.659262 19.6873
files/tasks_parameters/ExAp01/sample48.txt 1.15868 8.12182 5.1577 0.452491 13.5126
files/tasks_parameters/ExAp01/sample29.txt 1.52693 8.06133 5.12331 0.650652 19.4302
files/tasks_parameters/ExAp01/sample11.txt 1.35889 7.63104 5.37897 0.563302 16.8217
files/tasks_parameters/ExAp01/sample14.txt 1.13168 6.66403 4.66322 0.471536 14.0813
files/tasks_parameters/ExAp01/sample0.txt 1.6176 9.3266 4.98971 0.6311 18.8463
files/tasks_parameters/ExAp01/sample7.txt 1.2214 7.34863 5.19436 0.515527 15.395
files/tasks_parameters/ExAp01/sample23.txt 1.41687 6.68564 5.54308 0.588617 17.5777
files/tasks_parameters/ExAp01/sample13.txt 1.60607 9.31093 5.35591 0.632849 18.8985
files/tasks_parameters/ExAp01/sample22.txt 1.28633 7.65588 5.04866 0.540336 16.1359
files/tasks_parameters/ExAp01/sample25.txt 1.0295 6.17035 5.0141 0.408296 12.1928
files/tasks_parameters/ExAp01/sample36.txt 1.20231 7.03772 4.66274 0.507647 15.1597
files/tasks_parameters/ExAp01/sample46.txt 1.3517 7.73433 4.79934 0.536843 16.0316
files/tasks_parameters/ExAp01/sample31.txt 1.16998 6.96928 5.16482 0.485817 14.5078
files/tasks_parameters/ExAp01/sample37.txt 1.59352 9.52443 5.74224 0.65799 19.6493
files/tasks_parameters/ExAp01/sample16.txt 1.34468 8.63521 4.97261 0.516328 15.4189
files/tasks_parameters/ExAp01/sample10.txt 1.39877 7.28353 6.16876 0.615651 18.385
files/tasks_parameters/ExAp01/sample39.txt 1.14417 6.3405 4.6137 0.468873 14.0018
files/tasks_parameters/ExAp01/sample19.txt 1.42056 8.85528 5.22306 0.622152 18.5791
files/tasks_parameters/ExAp01/sample20.txt 1.39217 8.1141 5.21177 0.586994 17.5292
files/tasks_parameters/ExAp01/sample43.txt 1.24124 7.21373 5.6367 0.53748 16.0506
files/tasks_parameters/ExAp01/sample32.txt 1.46555 8.30592 5.38137 0.593918 17.736
files/tasks_parameters/ExAp01/sample45.txt 1.29558 7.94069 4.96323 0.547271 16.343
files/tasks_parameters/ExAp01/sample26.txt 1.12375 7.57061 4.62637 0.480146 14.3384
files/tasks_parameters/ExAp01/sample5.txt 1.38077 8.0307 5.35681 0.59407 17.7405
files/tasks_parameters/ExAp01/sample21.txt 1.02755 5.87802 4.61744 0.434264 12.9683
files/tasks_parameters/ExAp01/sample38.txt 1.18285 7.66999 4.86632 0.496808 14.836
files/tasks_parameters/ExAp01/sample1.txt 1.1627 7.21312 4.63213 0.486293 14.522
files/tasks_parameters/ExAp01/sample15.txt 1.28125 8.02273 5.50855 0.531063 15.8589
files/tasks_parameters/ExAp01/sample24.txt 1.31782 8.66348 5.4905 0.548998 16.3945
files/tasks_parameters/ExAp01/sample3.txt 1.16445 7.74268 4.79918 0.477387 14.256
files/tasks_parameters/ExAp01/sample6.txt 1.46475 8.57133 5.80157 0.633604 18.9211
files/tasks_parameters/ExAp01/sample30.txt 1.58089 8.18878 5.90888 0.633576 18.9203
files/tasks_parameters/ExAp01/sample42.txt 1.30493 8.57689 5.67253 0.54426 16.253
files/tasks_parameters/ExAp01/sample4.txt 1.29675 8.40354 4.57985 0.563519 16.8282
files/tasks_parameters/ExAp01/sample28.txt 1.05726 6.44114 4.96426 0.449721 13.4299
files/tasks_parameters/ExAp01/sample18.txt 1.36674 8.56363 4.60946 0.543766 16.2383
files/tasks_parameters/ExAp01/sample35.txt 1.938 11.0387 6.34514 0.761377 22.7367
files/tasks_parameters/ExAp01/sample47.txt 1.32345 7.14493 5.22131 0.545046 16.2765
files/tasks_parameters/ExAp01/sample49.txt 1.29578 6.65996 4.80244 0.498533 14.8875
files/tasks_parameters/ExAp01/sample41.txt 1.17588 7.09069 5.35462 0.497129 14.8456
