0.29812760999999993
Task0 15 31 63 
Task1 63 15 15 
Task2 15 31 127 
Task3 7 15 31 
Task4 1 15 15 
Task5 31 127 127 
Task6 31 1 31 
Task7 31 7 63 
Task8 127 15 31 
Task9 63 7 7 
Task10 1 31 3 
Task11 15 31 3 
Task12 7 15 255 
Task13 1 7 31 
Task14 63 31 1 
Task15 127 1 255 
Task16 3 63 255 
Task17 31 3 31 
Task18 31 7 15 
Task19 63 3 15 
Task20 63 15 63 
Task21 255 31 31 
Task22 31 63 7 
Task23 15 31 3 
Task24 7 255 63 
Task25 15 255 255 
Task26 31 15 7 
Task27 255 15 7 
Task28 255 63 63 
Task29 15 15 31 
Task30 15 15 15 
Task31 63 255 31 
Task32 63 63 7 
Task33 31 31 1 
Task34 31 15 15 
Task35 7 63 1 
Task36 7 3 15 
Task37 3 63 63 
Task38 127 255 255 
Task39 7 7 31 
Task40 3 31 31 
Task41 3 127 7 
Task42 15 7 63 
Task43 3 1 31 
Task44 7 7 31 
Task45 3 3 15 
Task46 15 63 3 
Task47 31 1 7 
Task48 3 7 31 
Task49 63 255 31 
Task50 7 15 31 
Task51 127 255 63 
Task52 255 127 127 
Task53 7 15 7 
Task54 63 31 3 
Task55 7 127 255 
Task56 31 7 31 
Task57 3 31 63 
Task58 3 31 31 
Task59 63 7 63 
Task60 31 7 1 
Task61 7 15 31 
Task62 31 1 7 
Task63 31 1 3 
Task64 15 15 7 
Task65 63 7 63 
Task66 3 7 63 
Task67 15 1 63 
Task68 31 63 63 
Task69 31 63 127 
Task70 15 15 31 
Task71 31 63 63 
Task72 7 15 7 
Task73 3 1 31 
Task74 31 15 255 
Task75 127 15 31 
Task76 7 7 31 
Task77 1 31 3 
Task78 7 31 7 
Task79 15 7 31 
Task80 7 7 255 
Task81 31 31 7 
Task82 3 255 31 
Task83 31 15 1 
Task84 63 255 255 
Task85 3 31 15 
Task86 7 63 31 
Task87 31 63 31 
Task88 15 15 7 
Task89 7 63 15 
Task90 63 15 15 
Task91 31 7 3 
Task92 7 15 255 
Task93 31 15 15 
Task94 63 1 7 
Task95 7 31 31 
Task96 127 31 3 
Task97 63 63 63 
Task98 63 3 63 
Task99 63 15 15 
