0.30945638
Task0 127 255 31 
Task1 31 1 7 
Task2 127 3 31 
Task3 31 1 3 
Task4 1 15 63 
Task5 7 7 31 
Task6 63 7 7 
Task7 255 31 127 
Task8 15 31 31 
Task9 7 31 31 
Task10 31 15 1 
Task11 31 7 255 
Task12 15 31 3 
Task13 15 63 31 
Task14 31 63 31 
Task15 63 7 1 
Task16 1 63 15 
Task17 7 15 15 
Task18 15 31 7 
Task19 15 63 7 
Task20 255 15 31 
Task21 31 7 3 
Task22 15 31 3 
Task23 63 31 31 
Task24 15 15 63 
Task25 1 15 15 
Task26 127 31 255 
Task27 7 3 31 
Task28 63 15 15 
Task29 15 1 31 
Task30 31 15 3 
Task31 31 7 7 
Task32 31 15 15 
Task33 1 31 15 
Task34 31 31 7 
Task35 1 15 15 
Task36 31 31 15 
Task37 1 63 15 
Task38 7 63 63 
Task39 31 7 31 
Task40 31 31 31 
Task41 63 3 63 
Task42 15 15 63 
Task43 255 127 127 
Task44 31 7 31 
Task45 7 31 63 
Task46 31 1 1 
Task47 3 15 3 
Task48 1 31 255 
Task49 31 3 31 
Task50 31 15 15 
Task51 1 1 31 
Task52 31 15 3 
Task53 15 15 15 
Task54 15 31 15 
Task55 63 15 255 
Task56 31 31 31 
Task57 31 63 127 
Task58 7 31 15 
Task59 3 31 15 
Task60 15 15 1 
Task61 31 255 31 
Task62 63 15 15 
Task63 7 31 1 
Task64 63 63 63 
Task65 15 15 63 
Task66 7 31 3 
Task67 63 63 31 
Task68 63 15 15 
Task69 63 31 127 
Task70 3 15 15 
Task71 3 31 1 
Task72 31 7 31 
Task73 31 15 15 
Task74 63 1 15 
Task75 31 7 7 
Task76 15 31 1 
Task77 31 1 3 
Task78 255 7 15 
Task79 3 31 1 
Task80 31 3 1 
Task81 127 255 127 
Task82 7 15 63 
Task83 7 63 1 
Task84 7 31 63 
Task85 15 31 31 
Task86 127 255 255 
Task87 3 15 15 
Task88 15 7 15 
Task89 15 7 15 
Task90 15 63 3 
Task91 63 1 1 
Task92 1 1 63 
Task93 31 1 3 
Task94 7 31 15 
Task95 31 15 3 
Task96 15 15 7 
Task97 31 7 63 
Task98 63 1 15 
Task99 63 63 31 
