files/tasks_parameters/ExAp01/sample8.txt 1.14161 6.77015 2.19458 0.288816 8.59476
files/tasks_parameters/ExAp01/sample12.txt 1.28363 9.58351 2.46081 0.337498 10.0435
files/tasks_parameters/ExAp01/sample2.txt 1.14042 8.44418 2.50701 0.319127 9.49677
files/tasks_parameters/ExAp01/sample44.txt 1.04069 6.96299 2.23089 0.28229 8.40056
files/tasks_parameters/ExAp01/sample27.txt 1.0995 7.74306 2.16676 0.28602 8.51154
files/tasks_parameters/ExAp01/sample17.txt 1.09863 7.35053 2.25579 0.292348 8.69984
files/tasks_parameters/ExAp01/sample9.txt 0.982917 6.89392 2.21068 0.282399 8.40378
files/tasks_parameters/ExAp01/sample34.txt 1.12493 6.62788 2.3772 0.297742 8.86036
files/tasks_parameters/ExAp01/sample40.txt 0.989198 7.75686 2.17534 0.285619 8.49962
files/tasks_parameters/ExAp01/sample33.txt 1.24938 8.14826 2.6463 0.338073 10.0606
files/tasks_parameters/ExAp01/sample48.txt 0.945172 7.64107 2.14272 0.270011 8.03514
files/tasks_parameters/ExAp01/sample29.txt 1.0464 7.139 1.93769 0.286306 8.52005
files/tasks_parameters/ExAp01/sample11.txt 1.02327 6.88688 2.12981 0.280008 8.33265
files/tasks_parameters/ExAp01/sample14.txt 0.884865 6.11983 1.97599 0.247458 7.36398
files/tasks_parameters/ExAp01/sample0.txt 1.14531 8.2738 2.14256 0.289132 8.60415
files/tasks_parameters/ExAp01/sample7.txt 1.04466 6.87011 2.05821 0.269886 8.03141
files/tasks_parameters/ExAp01/sample23.txt 1.07804 6.52032 2.38087 0.291712 8.68092
files/tasks_parameters/ExAp01/sample13.txt 1.10215 8.73247 2.33415 0.295393 8.79046
files/tasks_parameters/ExAp01/sample22.txt 1.04155 6.9777 2.28948 0.283979 8.45081
files/tasks_parameters/ExAp01/sample25.txt 1.03981 6.23444 2.2122 0.267298 7.9544
files/tasks_parameters/ExAp01/sample36.txt 1.06 6.6174 1.9458 0.253823 7.5534
files/tasks_parameters/ExAp01/sample46.txt 1.30576 7.42369 2.49128 0.327273 9.73917
files/tasks_parameters/ExAp01/sample31.txt 0.931249 7.22028 2.13584 0.25377 7.55183
files/tasks_parameters/ExAp01/sample37.txt 1.13312 8.90704 2.16981 0.295708 8.79985
files/tasks_parameters/ExAp01/sample16.txt 1.04098 8.18243 1.88294 0.24945 7.42326
files/tasks_parameters/ExAp01/sample10.txt 1.04075 6.96646 2.31217 0.285748 8.50345
files/tasks_parameters/ExAp01/sample39.txt 0.979942 6.4161 1.97266 0.251967 7.49817
files/tasks_parameters/ExAp01/sample19.txt 1.16705 8.16711 2.23199 0.308463 9.17941
files/tasks_parameters/ExAp01/sample20.txt 0.927132 7.28549 1.88944 0.25994 7.73544
files/tasks_parameters/ExAp01/sample43.txt 0.921272 6.86804 2.00142 0.25616 7.62296
files/tasks_parameters/ExAp01/sample32.txt 1.0519 8.15663 2.12995 0.281726 8.38377
files/tasks_parameters/ExAp01/sample45.txt 0.990249 7.75184 2.10599 0.274935 8.18167
files/tasks_parameters/ExAp01/sample26.txt 0.903507 7.4944 1.88956 0.267248 7.95292
files/tasks_parameters/ExAp01/sample5.txt 1.12885 8.08362 2.09961 0.28454 8.46751
files/tasks_parameters/ExAp01/sample21.txt 0.898753 6.11814 2.17119 0.26143 7.77977
files/tasks_parameters/ExAp01/sample38.txt 0.958292 7.761 1.96293 0.263659 7.84611
files/tasks_parameters/ExAp01/sample1.txt 1.01645 7.83752 2.13261 0.289228 8.60701
files/tasks_parameters/ExAp01/sample15.txt 0.99482 7.37971 2.12057 0.285825 8.50575
files/tasks_parameters/ExAp01/sample24.txt 1.1119 8.28531 2.25272 0.296628 8.82724
files/tasks_parameters/ExAp01/sample3.txt 1.27564 7.33359 2.39135 0.305084 9.07888
files/tasks_parameters/ExAp01/sample6.txt 1.01071 7.09894 2.24425 0.281804 8.38609
files/tasks_parameters/ExAp01/sample30.txt 1.17286 8.17669 2.03701 0.299204 8.90389
files/tasks_parameters/ExAp01/sample42.txt 1.1171 7.70416 2.42413 0.29743 8.85109
files/tasks_parameters/ExAp01/sample4.txt 1.21936 7.41691 2.36261 0.307803 9.15977
files/tasks_parameters/ExAp01/sample28.txt 0.988647 7.0562 2.07657 0.266428 7.92851
files/tasks_parameters/ExAp01/sample18.txt 1.02067 7.60139 2.1377 0.268016 7.97577
files/tasks_parameters/ExAp01/sample35.txt 1.25915 9.66795 2.28028 0.32244 9.59534
files/tasks_parameters/ExAp01/sample47.txt 0.917598 6.84842 2.12104 0.251655 7.48888
files/tasks_parameters/ExAp01/sample49.txt 1.00013 7.1497 2.11412 0.255889 7.61489
files/tasks_parameters/ExAp01/sample41.txt 1.00339 6.59911 2.07359 0.265885 7.91237
