Task0 0.04353677573406007 0.4302896490528289 0.8344853443445925 
Task1 0.1016155966527238 0.8747502597920033 0.581883702811137 
Task2 0.07151253560304595 0.3381097288805269 0.6151307618867962 
Task3 0.026621715660324174 0.5421614992449169 0.640642686399139 
Task4 0.006309267442384943 0.9195950235823872 0.8963567390789915 
Task5 0.10622551391947303 0.6128732144522759 0.3980312756327603 
Task6 0.024861358360340157 0.5389033457453821 0.8602735018303174 
Task7 0.03497368080336162 0.15245182147730985 0.8786901278830925 
Task8 0.11758077968684646 0.5527650652050102 0.8822985404394919 
Task9 0.050338165678298054 0.8935235393902863 0.45602051104421715 
Task10 0.09058224911090132 0.6881992175212902 0.61974291718932 
Task11 0.004963807070784933 0.9820624225498505 0.37462244054905564 
Task12 0.05695231184865621 0.47869040588142125 0.9414334846446042 
Task13 0.04367966615539501 0.6699979953199635 0.3210644474932689 
Task14 0.09568542601760063 0.3981787949055579 0.7772726922173951 
Task15 0.006061507525434861 0.05657676929503432 0.34379361004745645 
Task16 0.05519858773906112 0.27237446006132354 0.9652894851498646 
Task17 0.060056374153510866 0.45984118307226884 0.5625137152452928 
Task18 0.12536693283005582 0.7971987416199875 0.5434366408961419 
Task19 0.1292606682249426 0.6858371087955183 0.3434980795003113 
Task20 0.08787329754727775 0.45929396357344565 0.5052560636217314 
Task21 0.0674983908492873 0.5759245972700052 0.8072866622027646 
Task22 0.07707942520364357 0.409594677977882 0.6300353721607057 
Task23 0.059040903987200855 0.5718045936027334 0.8176761375165937 
Task24 0.07231362052091721 0.4587257692224204 0.986006664718519 
Task25 0.007240306493703593 0.35302057558597816 0.30848294445109614 
Task26 0.12169255618943267 0.6161878437408295 0.7851443784303482 
Task27 0.01949042199748849 0.11084595907223374 0.9495244441605017 
Task28 0.029065566067871737 0.691827451999225 0.6035737976447852 
Task29 0.00337488363747395 0.2731627488807098 0.8741323304618791 
Task30 0.018449644670735788 0.40885109746452264 0.8185662068222306 
Task31 0.01850133118078804 0.4317017463662 0.483688286725261 
Task32 0.023196247081063742 0.6436740311520867 0.5517778153587094 
Task33 0.03909304207922487 0.6150645011826089 0.6800841909458863 
Task34 0.061753914773465285 0.6653629115388322 0.5720530608668102 
Task35 0.03105891662446784 0.7250319009085421 0.7918460419468629 
Task36 0.06507563627815563 0.35972732164441346 0.4186864277968953 
Task37 0.015773447850766405 0.07441738324877045 0.937971879266398 
Task38 0.10561444970079786 0.767496009895127 0.7419895943688487 
Task39 0.009127890825249079 0.4623017179532957 0.34427139969745674 
Task40 0.004611873372152121 0.2760929890686083 0.7474005822315427 
Task41 0.0027600121105578815 0.9315256558000424 0.9306835597944823 
Task42 0.04211045164012154 0.35426404204205864 0.6324577528159726 
Task43 0.13186985965864495 0.6884071811987663 0.3566768783666817 
Task44 0.02807236093202606 0.4223711705966383 0.6627293068970406 
Task45 0.01224222726925385 0.0648099207150895 0.47517686309492224 
Task46 0.1418384801664425 0.855836866200194 0.727541228125046 
Task47 0.027276202399337177 0.11456684094671474 0.35456747613606104 
Task48 0.04607994309623224 0.43810407438378973 0.7030402056193631 
Task49 0.013876656813995341 0.1609881528760426 0.626730643172631 
Task50 0.005458975640329599 0.5715659265990449 0.4623568834079905 
Task51 0.05066664096949276 0.2572730850154454 0.8461977914666008 
Task52 0.034163039608467095 0.33255471792613833 0.4695495802082046 
Task53 0.03266119370986103 0.20978368991202728 0.7940325916966905 
Task54 0.03372425632633098 0.32485707214136683 0.3293947059208108 
Task55 0.08093693638730122 0.8465123315245812 0.4963697433538796 
Task56 0.015049291203766125 0.3730369528804656 0.312568165437997 
Task57 0.004651055180130682 0.03443860240115311 0.9653124257858503 
Task58 0.046418836365706845 0.2158956285623269 0.6890820770389006 
Task59 0.07997490788981379 0.5338057886612978 0.9717920705106591 
Task60 0.01772348254861556 0.07487550664214959 0.9481644371728641 
Task61 0.0008104895477314189 0.006251945480931574 0.6676768126063979 
Task62 0.10335470676811785 0.4930996223054982 0.32103548268200477 
Task63 0.06470790755921496 0.692562911632935 0.4271958316448626 
Task64 0.03225974803470613 0.230790402494331 0.34207063638634644 
Task65 0.024889855371973368 0.459866568359566 0.41057378282157686 
Task66 0.03483117069504205 0.5484632537395169 0.49317375671906893 
Task67 0.08129506088424451 0.8770853865511475 0.9397789360298963 
Task68 0.044333863399096084 0.36181061554696614 0.6101950563009799 
Task69 0.00721657556674219 0.5533043939687611 0.9475461463734622 
Task70 0.06850140991987806 0.2897849723392163 0.9874192605837409 
Task71 0.09891636626373945 0.7987874574830783 0.44294817672879866 
Task72 0.007339526994469912 0.40461644209584174 0.3393438482595431 
Task73 0.04408566964832819 0.18759427695220385 0.4808625203200366 
Task74 0.03114193453794762 0.37006685201714073 0.3758401787678735 
Task75 0.09952040529675255 0.6834692144321057 0.9372267149499776 
Task76 0.10931181145498241 0.6486965257952582 0.7467588105367982 
Task77 0.0684519211961485 0.7879395408939168 0.43665768634062097 
Task78 0.12857924364996343 0.6002224321799555 0.7004724057959373 
Task79 0.006743661400883792 0.06353538883619501 0.33022370995487277 
Task80 0.047267559434118527 0.27894089657506904 0.8632978444348509 
Task81 0.010781559810126237 0.363123855936698 0.4175589779966422 
Task82 0.04825300904083879 0.41644170444808365 0.8499696662578013 
Task83 0.11576858568375123 0.8343802929547831 0.8388983906075549 
Task84 0.0255137059578042 0.14086296465462925 0.6558650241216492 
Task85 0.02040607341896135 0.15828689895552442 0.34850231254492275 
Task86 0.11966783631250964 0.7535960410022247 0.41381615032664554 
Task87 0.08621102429952603 0.8616426848299671 0.4299850926660625 
Task88 0.04047448756912864 0.6106657783039923 0.8456367297132059 
Task89 0.04963282919064203 0.5090233593110681 0.6397681235460893 
Task90 0.025902348090765664 0.7455403041253211 0.3211484203400746 
Task91 0.11835602468021754 0.5264810629424695 0.9043040304291723 
Task92 0.004791417648442042 0.28513172513764007 0.8874683433312476 
Task93 0.005237681864578383 0.041188923210651276 0.5733227004843916 
Task94 0.014403866159254925 0.4306638428244415 0.6687206781880677 
Task95 0.07518976265105139 0.6086184553632755 0.3283439039777132 
Task96 0.00901172769823196 0.3470069608747319 0.4798009770083317 
Task97 0.03837924152974993 0.3151306222999285 0.7357477917461718 
Task98 0.02577950531954606 0.5205883964960019 0.7027383003350571 
Task99 0.02712740936966389 0.6175857323327978 0.3960589976493584 
