Task0 0.1027705982776626 0.7439873016631733 0.49438094933572885 
Task1 0.06718200857356847 0.40460130812000006 0.7906086724243804 
Task2 0.044826231970463065 0.8915257604540956 0.303189370955026 
Task3 0.06769332237251803 0.31855342606023784 0.9799939663804758 
Task4 0.07151193313540549 0.3034506828633645 0.8502188298584574 
Task5 0.00041044318179710214 0.03230518605497752 0.7336298407472315 
Task6 0.11694641466934907 0.789959653149738 0.9178081376051821 
Task7 0.08471023273558001 0.8232071261938757 0.43821447459763185 
Task8 0.0024399936437273285 0.02040970755425047 0.33599461096089767 
Task9 0.02388248264787658 0.49212118662780446 0.814392667215162 
Task10 0.004446926757025411 0.37932966881189467 0.7132526831460717 
Task11 0.0844470220914621 0.7101665502253073 0.4749824831374817 
Task12 0.09191097497542995 0.5828548082846494 0.4661324140393487 
Task13 0.08076828212938403 0.7857799264879729 0.5113364456850639 
Task14 0.0990361307123509 0.828777466103121 0.5888476516996856 
Task15 0.04199507257547472 0.4276265928678428 0.6169327822704421 
Task16 0.017705211618757686 0.090758180586649 0.9635863708754195 
Task17 0.0034445106503133934 0.7217983905714741 0.5764041399005813 
Task18 0.025599348189489408 0.33109481794551454 0.9346029445846422 
Task19 0.003083297096630706 0.14708620866210584 0.8234823190408809 
Task20 2.9406451231247235e-05 0.0028819903225878827 0.7706580832335262 
Task21 0.03308255245265374 0.6246437651081027 0.893858311448199 
Task22 0.03151614634715411 0.19062668111607045 0.8679950138490025 
Task23 0.0614738985090472 0.8132372437011492 0.7222646839185334 
Task24 0.00487291688015634 0.12261822109380117 0.3686829008707735 
Task25 0.007871619691612023 0.7757324250085721 0.40539737645743745 
Task26 0.00661338903632714 0.36121579157434025 0.8707782593794073 
Task27 0.017122613333002617 0.3029553068963337 0.40309930526035964 
Task28 0.07170559940419133 0.5829011979570993 0.8829517866735865 
Task29 0.005615995889484614 0.17104968818552332 0.7690440015022277 
Task30 0.16022059584901407 0.7566115051892297 0.6202172761802711 
Task31 0.015996102488625836 0.19705652670040638 0.6804443930155599 
Task32 0.007013631262992131 0.12270176147915882 0.3735671040827999 
Task33 0.0036025474043428255 0.11946338082192855 0.6801958305901312 
Task34 0.001586168442012679 0.017407263999877878 0.714801159200174 
Task35 0.030686181385153374 0.26614035853505197 0.9142706720014215 
Task36 0.02121462375060424 0.6561044529407959 0.7480229633147871 
Task37 0.034884682217944996 0.7310163775742132 0.502160623095192 
Task38 0.038479944430679515 0.6201985802120089 0.8455952672388727 
Task39 0.080890969773326 0.36000149826248956 0.6410828642754334 
Task40 0.030453767851171407 0.3249770138941946 0.6594032335216852 
Task41 0.08852014579527277 0.6894555046733741 0.5268584245919417 
Task42 0.01818181913323433 0.3444466791062242 0.6335542083245514 
Task43 0.0006208089919363723 0.21791918812555458 0.8903020688799632 
Task44 0.1524038615549195 0.684766090657958 0.4674976530014231 
Task45 0.022202004618412364 0.4905026501226364 0.832807050545439 
Task46 0.07520166266294827 0.7784213315993336 0.8353241786751917 
Task47 0.04588877698573705 0.24426594343029745 0.8309937709405149 
Task48 0.012860342599039376 0.7654467263677239 0.4319388380278683 
Task49 0.17050818133929946 0.7874657621133427 0.9910555727951418 
Task50 0.0028142325237206296 0.08115351047939443 0.9182769979183147 
Task51 0.1410723042764274 0.6950975222432807 0.9551897175486916 
Task52 0.06481884390631601 0.7540682333358144 0.8043968798360854 
Task53 0.026784220316443973 0.1641224140519564 0.6210095666584168 
Task54 0.054638465472272225 0.2245710569913855 0.7532926006889219 
Task55 0.09314711919398642 0.4116859884332329 0.9436731878457296 
Task56 0.1800633106424469 0.755219627466568 0.9889266016911413 
Task57 0.10558650977442115 0.5826899470139746 0.7053415911480829 
Task58 0.03207692595456201 0.21678868913814853 0.6027754245071897 
Task59 0.01986222411852822 0.6369269086256901 0.4506122562717782 
Task60 0.028567268962695194 0.20424759849606547 0.5617521469748827 
Task61 0.0786795504797754 0.8835172991357166 0.7451221410136366 
Task62 0.1268074315749093 0.8013623202091932 0.629794505619351 
Task63 0.01708211883097456 0.35280374090091404 0.5666247717950164 
Task64 0.03190475650871899 0.199893729756411 0.8651673733370686 
Task65 0.02299326556192474 0.19301371621647176 0.9937795852860547 
Task66 0.008915716699355574 0.700642748634107 0.9917842717756509 
Task67 0.058844201955430664 0.3560107866604456 0.40992598001163255 
Task68 0.08763879059036188 0.7561979569031553 0.8038560594710822 
Task69 0.004450588015805736 0.03712462316782377 0.6409576332403126 
Task70 0.055889807287534995 0.3224872118976969 0.3900441560124222 
Task71 0.09286369934858976 0.3725914474289073 0.4779907799932517 
Task72 0.04358844054871781 0.31036261416899047 0.8485345148908019 
Task73 0.1558510023488007 0.8248264580626817 0.6776214881544969 
Task74 0.05221279154787934 0.4210183720872073 0.5670691092228977 
Task75 1.994011960145453e-05 0.06905792818272043 0.5962812402685448 
Task76 0.03518279176983195 0.6067304145082854 0.7248814562162927 
Task77 0.04341308444651472 0.2992744237296254 0.7787137393505325 
Task78 0.024409464050702965 0.42338277368089244 0.33548663715697247 
Task79 0.014113257551340146 0.25669275274476483 0.3171352665611961 
Task80 0.06105808137556635 0.2666167216367924 0.9817628353932235 
Task81 0.02856341369508758 0.36316539543360826 0.8457705281422507 
Task82 0.14619670614459052 0.7035774311005538 0.6819434596352196 
Task83 0.07013616151216641 0.8014345377126342 0.4517407648861525 
Task84 0.04518083940332426 0.7977115639350504 0.31243735620987323 
Task85 0.002813995728304383 0.2319601145320604 0.48567103611740525 
Task86 0.07437109208802589 0.7539685268474835 0.9165400711158431 
Task87 0.06025934622880659 0.5249604103161258 0.8277720526170369 
Task88 0.08417882574567867 0.3606966873772776 0.8157963304676665 
Task89 0.022884258623444325 0.3194282138252402 0.5028168749270584 
Task90 0.004334815945666797 0.12167371783977371 0.9484273722889196 
Task91 0.07254492060435641 0.34506895524688896 0.5789204051015397 
Task92 0.028439933228999147 0.9437738156440346 0.354564842390009 
Task93 0.01602621969962667 0.0649566773771674 0.4512270355925728 
Task94 0.017711284523679538 0.7343755296454726 0.49610183275687253 
Task95 0.09479932281270487 0.6205796721714253 0.5026285940461434 
Task96 0.0807358169303781 0.6286003770797955 0.30442754097243996 
Task97 0.03980141386786466 0.8482990963954159 0.8011568332351398 
Task98 0.0806137440197306 0.336015207277147 0.36423729318313813 
Task99 0.0032899026178733483 0.06801643121495768 0.6484449746569987 
