0.33212245999999995
Task0 15 255 7 
Task1 31 63 31 
Task2 15 15 255 
Task3 255 31 31 
Task4 15 63 255 
Task5 255 63 31 
Task6 7 63 31 
Task7 255 63 15 
Task8 255 127 31 
Task9 255 127 127 
Task10 31 31 255 
Task11 255 63 15 
Task12 3 127 127 
Task13 1 255 1 
Task14 15 255 31 
Task15 7 63 1 
Task16 3 63 255 
Task17 127 31 31 
Task18 127 63 63 
Task19 3 255 3 
Task20 63 63 63 
Task21 31 63 63 
Task22 63 63 15 
Task23 127 255 127 
Task24 15 255 1 
Task25 127 15 31 
Task26 3 255 1 
Task27 15 127 127 
Task28 7 15 255 
Task29 31 3 255 
Task30 127 255 15 
Task31 127 31 15 
Task32 15 15 255 
Task33 255 63 63 
Task34 63 255 255 
Task35 63 255 255 
Task36 31 7 255 
Task37 63 15 255 
Task38 31 255 127 
Task39 1 7 255 
Task40 63 255 127 
Task41 7 127 255 
Task42 63 127 7 
Task43 127 255 63 
Task44 63 127 15 
Task45 63 127 255 
Task46 3 255 3 
Task47 63 1 15 
Task48 63 127 31 
Task49 255 15 255 
Task50 255 63 255 
Task51 15 63 127 
Task52 255 127 63 
Task53 7 255 7 
Task54 63 255 63 
Task55 15 15 63 
Task56 127 63 1 
Task57 15 255 31 
Task58 15 255 255 
Task59 31 127 63 
Task60 7 7 255 
Task61 15 255 63 
Task62 63 63 31 
Task63 255 255 127 
Task64 15 15 255 
Task65 63 63 127 
Task66 7 63 255 
Task67 63 63 255 
Task68 7 127 255 
Task69 15 63 255 
Task70 63 255 7 
Task71 31 63 63 
Task72 63 31 127 
Task73 7 7 255 
Task74 7 255 31 
Task75 127 127 255 
Task76 1 127 31 
Task77 1 255 15 
Task78 15 1 63 
Task79 31 63 127 
Task80 63 127 63 
Task81 127 127 63 
Task82 63 7 63 
Task83 255 31 255 
Task84 31 3 255 
Task85 31 15 255 
Task86 255 255 255 
Task87 31 127 63 
Task88 63 63 7 
Task89 15 7 255 
Task90 15 7 255 
Task91 255 63 127 
Task92 127 127 63 
Task93 7 63 7 
Task94 63 15 15 
Task95 3 31 127 
Task96 15 31 255 
Task97 3 255 15 
Task98 127 63 63 
Task99 63 63 127 
