digraph G {
0 ->14 0 ->16 0 ->21 1 ->18 1 ->19 1 ->21 2 ->15 2 ->23 3 ->18 4 ->14 4 ->16 4 ->18 5 ->14 5 ->16 5 ->21 6 ->14 6 ->16 6 ->18 6 ->20 6 ->22 6 ->23 7 ->16 7 ->23 8 ->14 8 ->20 8 ->21 9 ->19 10 ->16 11 ->16 11 ->17 11 ->19 11 ->23 12 ->19 13 ->19 14 ->24 14 ->25 14 ->26 15 ->25 18 ->26 19 ->26 23 ->26 24 ->28 24 ->30 25 ->28 25 ->29 26 ->27 26 ->29 26 ->30 27 ->34 27 ->36 27 ->41 28 ->31 28 ->32 28 ->35 28 ->37 28 ->38 28 ->40 29 ->31 29 ->33 29 ->39 30 ->32 30 ->36 30 ->37 30 ->39 31 ->42 31 ->44 31 ->49 31 ->50 32 ->42 32 ->43 33 ->43 33 ->47 34 ->42 34 ->46 35 ->45 35 ->48 35 ->49 35 ->50 36 ->45 36 ->48 37 ->42 37 ->45 37 ->46 37 ->47 37 ->49 38 ->42 38 ->43 39 ->43 39 ->44 39 ->49 40 ->43 40 ->44 40 ->49 41 ->45 41 ->49 41 ->50 42 ->54 42 ->55 42 ->58 43 ->54 43 ->56 43 ->57 43 ->58 44 ->52 44 ->53 44 ->55 44 ->57 44 ->58 45 ->52 45 ->53 45 ->56 45 ->57 45 ->58 46 ->51 46 ->52 46 ->55 46 ->56 46 ->57 47 ->57 47 ->59 48 ->53 48 ->58 48 ->59 49 ->51 51 ->60 51 ->64 52 ->62 52 ->63 52 ->64 53 ->61 53 ->62 53 ->63 53 ->64 55 ->61 55 ->64 55 ->65 56 ->60 56 ->61 56 ->62 56 ->65 57 ->65 58 ->60 58 ->61 58 ->65 59 ->62 59 ->64 59 ->65 60 ->70 60 ->71 60 ->72 60 ->75 60 ->81 61 ->69 61 ->77 61 ->79 62 ->68 62 ->69 62 ->70 62 ->76 62 ->77 62 ->78 62 ->79 63 ->66 63 ->69 63 ->76 63 ->78 63 ->79 63 ->80 63 ->81 64 ->66 64 ->70 64 ->72 64 ->73 64 ->74 64 ->75 64 ->80 65 ->67 65 ->68 65 ->72 65 ->73 65 ->75 65 ->80 66 ->82 66 ->83 67 ->83 68 ->84 68 ->88 69 ->83 69 ->85 69 ->86 69 ->88 70 ->83 70 ->85 70 ->86 70 ->88 71 ->83 71 ->85 71 ->86 71 ->87 72 ->86 72 ->88 73 ->82 74 ->82 74 ->84 74 ->88 75 ->82 75 ->86 76 ->82 76 ->85 76 ->86 77 ->82 77 ->83 77 ->84 77 ->85 78 ->83 78 ->86 78 ->88 79 ->88 80 ->82 81 ->82 81 ->83 81 ->88 82 ->89 82 ->90 82 ->91 82 ->95 83 ->89 83 ->90 83 ->91 83 ->92 83 ->95 84 ->92 84 ->93 84 ->94 85 ->91 85 ->92 86 ->89 86 ->91 86 ->93 86 ->94 87 ->92 87 ->94 88 ->90 88 ->93 90 ->96 91 ->96 91 ->98 91 ->99 92 ->98 92 ->99 93 ->97 93 ->98 94 ->98 
}
