files/tasks_parameters/ExAp01/sample8.txt 1.11877 7.2562 4.46819 0.454772 12.3138
files/tasks_parameters/ExAp01/sample12.txt 1.6387 9.70908 5.28286 0.618515 16.7475
files/tasks_parameters/ExAp01/sample2.txt 1.50039 8.14159 5.7401 0.620531 16.8021
files/tasks_parameters/ExAp01/sample44.txt 1.39788 7.25164 5.75904 0.557631 15.0989
files/tasks_parameters/ExAp01/sample27.txt 1.3183 8.10944 5.64946 0.564878 15.2952
files/tasks_parameters/ExAp01/sample17.txt 1.26926 7.11225 5.46658 0.527183 14.2745
files/tasks_parameters/ExAp01/sample9.txt 1.21353 7.62559 5.37813 0.517277 14.0063
files/tasks_parameters/ExAp01/sample34.txt 1.2448 7.04587 5.93037 0.497709 13.4764
files/tasks_parameters/ExAp01/sample40.txt 1.201 8.03037 5.123 0.502383 13.603
files/tasks_parameters/ExAp01/sample33.txt 1.63735 9.22935 5.92956 0.659262 17.8508
files/tasks_parameters/ExAp01/sample48.txt 1.16575 8.12182 5.1577 0.452491 12.2521
files/tasks_parameters/ExAp01/sample29.txt 1.55398 8.06133 5.12331 0.650652 17.6177
files/tasks_parameters/ExAp01/sample11.txt 1.35889 7.63104 5.37897 0.563302 15.2525
files/tasks_parameters/ExAp01/sample14.txt 1.13168 6.66403 4.66322 0.471536 12.7677
files/tasks_parameters/ExAp01/sample0.txt 1.64457 9.3266 4.98971 0.6311 17.0882
files/tasks_parameters/ExAp01/sample7.txt 1.30116 7.34863 5.19436 0.515527 13.9589
files/tasks_parameters/ExAp01/sample23.txt 1.40506 6.68564 5.54308 0.588617 15.9379
files/tasks_parameters/ExAp01/sample13.txt 1.65142 9.31093 5.35591 0.632849 17.1356
files/tasks_parameters/ExAp01/sample22.txt 1.29523 7.65588 5.04866 0.540336 14.6306
files/tasks_parameters/ExAp01/sample25.txt 1.0295 6.17035 5.0141 0.408296 11.0554
files/tasks_parameters/ExAp01/sample36.txt 1.19007 7.03772 4.66274 0.507647 13.7455
files/tasks_parameters/ExAp01/sample46.txt 1.3517 7.73433 4.79934 0.536843 14.5361
files/tasks_parameters/ExAp01/sample31.txt 1.19045 6.96928 5.16482 0.485817 13.1544
files/tasks_parameters/ExAp01/sample37.txt 1.63248 9.52443 5.74224 0.65799 17.8163
files/tasks_parameters/ExAp01/sample16.txt 1.43838 8.63521 4.97261 0.516328 13.9806
files/tasks_parameters/ExAp01/sample10.txt 1.39877 7.28353 6.16876 0.615651 16.6699
files/tasks_parameters/ExAp01/sample39.txt 1.14417 6.3405 4.6137 0.468873 12.6956
files/tasks_parameters/ExAp01/sample19.txt 1.62945 8.85528 5.22306 0.622152 16.846
files/tasks_parameters/ExAp01/sample20.txt 1.39412 8.1141 5.21177 0.586994 15.894
files/tasks_parameters/ExAp01/sample43.txt 1.30697 7.21373 5.6367 0.53748 14.5533
files/tasks_parameters/ExAp01/sample32.txt 1.60287 8.30592 5.38137 0.593918 16.0815
files/tasks_parameters/ExAp01/sample45.txt 1.42244 7.94069 4.96323 0.547271 14.8184
files/tasks_parameters/ExAp01/sample26.txt 1.15359 7.57061 4.62637 0.480146 13.0009
files/tasks_parameters/ExAp01/sample5.txt 1.4931 8.0307 5.35681 0.59407 16.0856
files/tasks_parameters/ExAp01/sample21.txt 1.02755 5.87802 4.61744 0.434264 11.7585
files/tasks_parameters/ExAp01/sample38.txt 1.18494 7.66999 4.86632 0.496808 13.452
files/tasks_parameters/ExAp01/sample1.txt 1.18204 7.21312 4.63213 0.486293 13.1673
files/tasks_parameters/ExAp01/sample15.txt 1.28125 8.02273 5.50855 0.531063 14.3795
files/tasks_parameters/ExAp01/sample24.txt 1.38769 8.66348 5.4905 0.548998 14.8652
files/tasks_parameters/ExAp01/sample3.txt 1.18752 7.74268 4.79918 0.477387 12.9262
files/tasks_parameters/ExAp01/sample6.txt 1.50447 8.57133 5.80157 0.633604 17.156
files/tasks_parameters/ExAp01/sample30.txt 1.69536 8.18878 5.90888 0.633576 17.1553
files/tasks_parameters/ExAp01/sample42.txt 1.30462 8.57689 5.67253 0.54426 14.7369
files/tasks_parameters/ExAp01/sample4.txt 1.34862 8.40354 4.57985 0.563519 15.2584
files/tasks_parameters/ExAp01/sample28.txt 1.0744 6.44114 4.96426 0.449721 12.1771
files/tasks_parameters/ExAp01/sample18.txt 1.32677 8.56363 4.60946 0.543766 14.7235
files/tasks_parameters/ExAp01/sample35.txt 1.98167 11.0387 6.34514 0.761377 20.6157
files/tasks_parameters/ExAp01/sample47.txt 1.32345 7.14493 5.22131 0.545046 14.7582
files/tasks_parameters/ExAp01/sample49.txt 1.32611 6.65996 4.80244 0.498533 13.4988
files/tasks_parameters/ExAp01/sample41.txt 1.18983 7.09069 5.35462 0.497129 13.4607
