files/tasks_parameters/ExAp01/sample8.txt 1.08914 3.76817 4.3855 0.450105 12.1875
files/tasks_parameters/ExAp01/sample12.txt 1.49418 5.03638 5.18776 0.610564 16.5322
files/tasks_parameters/ExAp01/sample2.txt 1.42961 4.58991 5.64606 0.613877 16.6219
files/tasks_parameters/ExAp01/sample44.txt 1.2798 3.77401 5.66946 0.551838 14.9421
files/tasks_parameters/ExAp01/sample27.txt 1.3061 4.13937 5.56136 0.55779 15.1032
files/tasks_parameters/ExAp01/sample17.txt 1.20337 3.76163 5.38341 0.520991 14.1068
files/tasks_parameters/ExAp01/sample9.txt 1.21642 3.69889 5.2981 0.511699 13.8552
files/tasks_parameters/ExAp01/sample34.txt 1.13513 3.52435 5.83741 0.49187 13.3183
files/tasks_parameters/ExAp01/sample40.txt 1.16951 4.06185 5.0335 0.496884 13.4541
files/tasks_parameters/ExAp01/sample33.txt 1.55311 4.82091 5.83886 0.651963 17.6531
files/tasks_parameters/ExAp01/sample48.txt 1.07975 4.01134 5.07085 0.447927 12.1285
files/tasks_parameters/ExAp01/sample29.txt 1.4872 4.20847 5.0406 0.643694 17.4293
files/tasks_parameters/ExAp01/sample11.txt 1.31879 3.94699 5.29198 0.557276 15.0893
files/tasks_parameters/ExAp01/sample14.txt 1.08636 3.54059 4.58345 0.466713 12.6372
files/tasks_parameters/ExAp01/sample0.txt 1.55839 4.82755 4.90216 0.623551 16.8838
files/tasks_parameters/ExAp01/sample7.txt 1.15002 3.60766 5.11185 0.509566 13.7975
files/tasks_parameters/ExAp01/sample23.txt 1.39278 3.81403 5.45799 0.582911 15.7834
files/tasks_parameters/ExAp01/sample13.txt 1.48647 4.8894 5.26818 0.624499 16.9095
files/tasks_parameters/ExAp01/sample22.txt 1.29069 3.76156 4.95746 0.534216 14.4649
files/tasks_parameters/ExAp01/sample25.txt 0.969765 2.94144 4.92622 0.403639 10.9293
files/tasks_parameters/ExAp01/sample36.txt 1.25826 3.56164 4.5806 0.501799 13.5872
files/tasks_parameters/ExAp01/sample46.txt 1.2671 3.84833 4.7121 0.530701 14.3697
files/tasks_parameters/ExAp01/sample31.txt 1.09431 3.764 5.08385 0.479734 12.9897
files/tasks_parameters/ExAp01/sample37.txt 1.5241 4.43254 5.65111 0.65143 17.6387
files/tasks_parameters/ExAp01/sample16.txt 1.27104 4.49741 4.8895 0.509171 13.7868
files/tasks_parameters/ExAp01/sample10.txt 1.38978 3.87086 6.07511 0.60993 16.515
files/tasks_parameters/ExAp01/sample39.txt 1.04986 3.66299 4.54281 0.463671 12.5548
files/tasks_parameters/ExAp01/sample19.txt 1.40825 3.86694 5.14047 0.615987 16.679
files/tasks_parameters/ExAp01/sample20.txt 1.30941 4.09945 5.13368 0.580369 15.7146
files/tasks_parameters/ExAp01/sample43.txt 1.15204 3.75825 5.55698 0.530892 14.3749
files/tasks_parameters/ExAp01/sample32.txt 1.42834 4.0352 5.29178 0.587643 15.9116
files/tasks_parameters/ExAp01/sample45.txt 1.23208 3.94578 4.87833 0.541081 14.6508
files/tasks_parameters/ExAp01/sample26.txt 1.11247 3.50998 4.55035 0.474009 12.8347
files/tasks_parameters/ExAp01/sample5.txt 1.35532 4.00994 5.27725 0.587681 15.9126
files/tasks_parameters/ExAp01/sample21.txt 0.933921 2.8974 4.54677 0.430037 11.6441
files/tasks_parameters/ExAp01/sample38.txt 1.16961 3.56689 4.78573 0.492366 13.3318
files/tasks_parameters/ExAp01/sample1.txt 1.15462 3.69002 4.55048 0.481074 13.026
files/tasks_parameters/ExAp01/sample15.txt 1.20629 3.73223 5.42493 0.524964 14.2144
files/tasks_parameters/ExAp01/sample24.txt 1.24514 4.18053 5.40377 0.542575 14.6913
files/tasks_parameters/ExAp01/sample3.txt 1.08376 3.70547 4.7118 0.470503 12.7398
files/tasks_parameters/ExAp01/sample6.txt 1.41981 4.07521 5.71419 0.626702 16.9692
files/tasks_parameters/ExAp01/sample30.txt 1.49318 3.97446 5.82388 0.626709 16.9694
files/tasks_parameters/ExAp01/sample42.txt 1.29681 4.44207 5.58473 0.537025 14.541
files/tasks_parameters/ExAp01/sample4.txt 1.36705 3.92181 4.49751 0.556974 15.0811
files/tasks_parameters/ExAp01/sample28.txt 1.07592 3.13496 4.88321 0.444588 12.0381
files/tasks_parameters/ExAp01/sample18.txt 1.22803 3.95301 4.52898 0.537438 14.5522
files/tasks_parameters/ExAp01/sample35.txt 1.90878 5.75923 6.25034 0.752488 20.3751
files/tasks_parameters/ExAp01/sample47.txt 1.16153 3.44018 5.14289 0.540033 14.6224
files/tasks_parameters/ExAp01/sample49.txt 1.19873 3.38981 4.72409 0.493041 13.35
files/tasks_parameters/ExAp01/sample41.txt 1.10214 3.58692 5.27252 0.492391 13.3324
