files/tasks_parameters/ExAp01/sample8.txt 0.764413 3.15778 1.5595 0.203411 10.0624
files/tasks_parameters/ExAp01/sample12.txt 0.774902 3.94962 1.6705 0.207924 10.2857
files/tasks_parameters/ExAp01/sample2.txt 0.773117 3.78275 1.74131 0.200098 9.89852
files/tasks_parameters/ExAp01/sample44.txt 0.700688 3.59825 1.65317 0.200005 9.89395
files/tasks_parameters/ExAp01/sample27.txt 0.737865 3.45743 1.5148 0.182129 9.00962
files/tasks_parameters/ExAp01/sample17.txt 0.559608 2.77299 1.44514 0.14646 7.24514
files/tasks_parameters/ExAp01/sample9.txt 0.628503 2.99933 1.451 0.177444 8.77786
files/tasks_parameters/ExAp01/sample34.txt 0.609277 3.02928 1.58429 0.157984 7.81521
files/tasks_parameters/ExAp01/sample40.txt 0.643032 3.86889 1.52122 0.168379 8.32947
files/tasks_parameters/ExAp01/sample33.txt 0.804376 3.63695 1.71905 0.199765 9.88206
files/tasks_parameters/ExAp01/sample48.txt 0.627875 3.39061 1.49062 0.154728 7.65417
files/tasks_parameters/ExAp01/sample29.txt 0.764346 3.30472 1.38739 0.223868 11.0744
files/tasks_parameters/ExAp01/sample11.txt 0.633183 3.10585 1.41612 0.174079 8.6114
files/tasks_parameters/ExAp01/sample14.txt 0.609914 2.70971 1.43432 0.162214 8.0245
files/tasks_parameters/ExAp01/sample0.txt 0.684061 3.6937 1.5439 0.18367 9.08586
files/tasks_parameters/ExAp01/sample7.txt 0.561201 2.70501 1.42221 0.143463 7.09691
files/tasks_parameters/ExAp01/sample23.txt 0.653197 3.2697 1.57822 0.181448 8.97598
files/tasks_parameters/ExAp01/sample13.txt 0.687163 3.84225 1.67648 0.198247 9.80698
files/tasks_parameters/ExAp01/sample22.txt 0.587279 3.09569 1.56121 0.148796 7.36072
files/tasks_parameters/ExAp01/sample25.txt 0.516715 2.73966 1.5007 0.148149 7.32868
files/tasks_parameters/ExAp01/sample36.txt 0.487006 2.85948 1.28553 0.130042 6.43299
files/tasks_parameters/ExAp01/sample46.txt 0.726767 3.58643 1.69998 0.210103 10.3935
files/tasks_parameters/ExAp01/sample31.txt 0.636441 3.4832 1.53782 0.1722 8.51846
files/tasks_parameters/ExAp01/sample37.txt 0.705053 3.95293 1.50705 0.171701 8.49379
files/tasks_parameters/ExAp01/sample16.txt 0.603683 3.31216 1.30115 0.150249 7.43259
files/tasks_parameters/ExAp01/sample10.txt 0.660956 3.17098 1.61789 0.153776 7.60708
files/tasks_parameters/ExAp01/sample39.txt 0.593386 3.26617 1.44406 0.165669 8.19538
files/tasks_parameters/ExAp01/sample19.txt 0.740611 3.63532 1.52509 0.196094 9.70049
files/tasks_parameters/ExAp01/sample20.txt 0.526857 3.20793 1.25367 0.147335 7.28845
files/tasks_parameters/ExAp01/sample43.txt 0.624435 3.11551 1.4202 0.150644 7.45215
files/tasks_parameters/ExAp01/sample32.txt 0.652688 3.5311 1.42482 0.168744 8.34752
files/tasks_parameters/ExAp01/sample45.txt 0.785748 3.80283 1.48324 0.19807 9.79824
files/tasks_parameters/ExAp01/sample26.txt 0.596633 3.21645 1.29701 0.166061 8.21479
files/tasks_parameters/ExAp01/sample5.txt 0.68592 3.5889 1.52559 0.178903 8.85007
files/tasks_parameters/ExAp01/sample21.txt 0.720579 2.75242 1.55936 0.19512 9.6523
files/tasks_parameters/ExAp01/sample38.txt 0.60863 3.31563 1.37515 0.166157 8.21952
files/tasks_parameters/ExAp01/sample1.txt 0.753089 3.74964 1.51696 0.19701 9.74576
files/tasks_parameters/ExAp01/sample15.txt 0.669933 3.32916 1.48508 0.180707 8.93932
files/tasks_parameters/ExAp01/sample24.txt 0.645171 3.45951 1.59549 0.16529 8.17666
files/tasks_parameters/ExAp01/sample3.txt 0.924729 3.70014 1.70809 0.237107 11.7293
files/tasks_parameters/ExAp01/sample6.txt 0.686595 3.33003 1.58323 0.184714 9.13754
files/tasks_parameters/ExAp01/sample30.txt 0.828046 4.1841 1.4861 0.239623 11.8538
files/tasks_parameters/ExAp01/sample42.txt 0.673496 3.43221 1.70276 0.177383 8.77486
files/tasks_parameters/ExAp01/sample4.txt 0.743948 3.72477 1.6136 0.196448 9.71799
files/tasks_parameters/ExAp01/sample28.txt 0.570593 3.11323 1.45032 0.158819 7.85653
files/tasks_parameters/ExAp01/sample18.txt 0.583036 3.47418 1.45209 0.149064 7.37396
files/tasks_parameters/ExAp01/sample35.txt 0.697991 4.57086 1.49394 0.185031 9.15318
files/tasks_parameters/ExAp01/sample47.txt 0.634379 3.13768 1.52397 0.16417 8.12124
files/tasks_parameters/ExAp01/sample49.txt 0.578027 3.13288 1.49657 0.156154 7.7247
files/tasks_parameters/ExAp01/sample41.txt 0.635041 2.81964 1.49636 0.150876 7.4636
