files/tasks_parameters/ExAp01/sample8.txt 1.07305 7.2562 4.46819 0.454772 12.7301
files/tasks_parameters/ExAp01/sample12.txt 1.4849 9.70908 5.28286 0.618515 17.3136
files/tasks_parameters/ExAp01/sample2.txt 1.44031 8.14159 5.7401 0.620531 17.3701
files/tasks_parameters/ExAp01/sample44.txt 1.30889 7.25164 5.75904 0.557631 15.6093
files/tasks_parameters/ExAp01/sample27.txt 1.33807 8.10944 5.64946 0.564878 15.8122
files/tasks_parameters/ExAp01/sample17.txt 1.23725 7.11225 5.46658 0.527183 14.7571
files/tasks_parameters/ExAp01/sample9.txt 1.21197 7.62559 5.37813 0.517277 14.4797
files/tasks_parameters/ExAp01/sample34.txt 1.25302 7.04587 5.93037 0.497709 13.932
files/tasks_parameters/ExAp01/sample40.txt 1.18138 8.03037 5.123 0.502383 14.0628
files/tasks_parameters/ExAp01/sample33.txt 1.52185 9.22935 5.92956 0.659262 18.4542
files/tasks_parameters/ExAp01/sample48.txt 1.07923 8.12182 5.1577 0.452491 12.6662
files/tasks_parameters/ExAp01/sample29.txt 1.49218 8.06133 5.12331 0.650652 18.2132
files/tasks_parameters/ExAp01/sample11.txt 1.30929 7.63104 5.37897 0.563302 15.7681
files/tasks_parameters/ExAp01/sample14.txt 1.13416 6.66403 4.66322 0.471536 13.1994
files/tasks_parameters/ExAp01/sample0.txt 1.49125 9.3266 4.98971 0.6311 17.6659
files/tasks_parameters/ExAp01/sample7.txt 1.21341 7.34863 5.19436 0.515527 14.4308
files/tasks_parameters/ExAp01/sample23.txt 1.35342 6.68564 5.54308 0.588617 16.4767
files/tasks_parameters/ExAp01/sample13.txt 1.49944 9.31093 5.35591 0.632849 17.7149
files/tasks_parameters/ExAp01/sample22.txt 1.28084 7.65588 5.04866 0.540336 15.1252
files/tasks_parameters/ExAp01/sample25.txt 1.01073 6.17035 5.0141 0.408296 11.4291
files/tasks_parameters/ExAp01/sample36.txt 1.18187 7.03772 4.66274 0.507647 14.2102
files/tasks_parameters/ExAp01/sample46.txt 1.2591 7.73433 4.79934 0.536843 15.0275
files/tasks_parameters/ExAp01/sample31.txt 1.17492 6.96928 5.16482 0.485817 13.5991
files/tasks_parameters/ExAp01/sample37.txt 1.51839 9.52443 5.74224 0.65799 18.4186
files/tasks_parameters/ExAp01/sample16.txt 1.2842 8.63521 4.97261 0.516328 14.4532
files/tasks_parameters/ExAp01/sample10.txt 1.43455 7.28353 6.16876 0.615651 17.2335
files/tasks_parameters/ExAp01/sample39.txt 1.12158 6.3405 4.6137 0.468873 13.1248
files/tasks_parameters/ExAp01/sample19.txt 1.43847 8.85528 5.22306 0.622152 17.4154
files/tasks_parameters/ExAp01/sample20.txt 1.36507 8.1141 5.21177 0.586994 16.4313
files/tasks_parameters/ExAp01/sample43.txt 1.27241 7.21373 5.6367 0.53748 15.0453
files/tasks_parameters/ExAp01/sample32.txt 1.39808 8.30592 5.38137 0.593918 16.6251
files/tasks_parameters/ExAp01/sample45.txt 1.2772 7.94069 4.96323 0.547271 15.3193
files/tasks_parameters/ExAp01/sample26.txt 1.13703 7.57061 4.62637 0.480146 13.4404
files/tasks_parameters/ExAp01/sample5.txt 1.37435 8.0307 5.35681 0.59407 16.6293
files/tasks_parameters/ExAp01/sample21.txt 1.04445 5.87802 4.61744 0.434264 12.156
files/tasks_parameters/ExAp01/sample38.txt 1.15293 7.66999 4.86632 0.496808 13.9068
files/tasks_parameters/ExAp01/sample1.txt 1.16906 7.21312 4.63213 0.486293 13.6124
files/tasks_parameters/ExAp01/sample15.txt 1.26147 8.02273 5.50855 0.531063 14.8656
files/tasks_parameters/ExAp01/sample24.txt 1.28597 8.66348 5.4905 0.548998 15.3677
files/tasks_parameters/ExAp01/sample3.txt 1.13875 7.74268 4.79918 0.477387 13.3631
files/tasks_parameters/ExAp01/sample6.txt 1.4582 8.57133 5.80157 0.633604 17.736
files/tasks_parameters/ExAp01/sample30.txt 1.50007 8.18878 5.90888 0.633576 17.7352
files/tasks_parameters/ExAp01/sample42.txt 1.33359 8.57689 5.67253 0.54426 15.2351
files/tasks_parameters/ExAp01/sample4.txt 1.32805 8.40354 4.57985 0.563519 15.7742
files/tasks_parameters/ExAp01/sample28.txt 1.06341 6.44114 4.96426 0.449721 12.5887
files/tasks_parameters/ExAp01/sample18.txt 1.28006 8.56363 4.60946 0.543766 15.2212
files/tasks_parameters/ExAp01/sample35.txt 1.78222 11.0387 6.34514 0.761377 21.3127
files/tasks_parameters/ExAp01/sample47.txt 1.25541 7.14493 5.22131 0.545046 15.2571
files/tasks_parameters/ExAp01/sample49.txt 1.19834 6.65996 4.80244 0.498533 13.9551
files/tasks_parameters/ExAp01/sample41.txt 1.15045 7.09069 5.35462 0.497129 13.9158
