0.35476567
Task0 63 15 1 
Task1 1 255 15 
Task2 3 63 63 
Task3 63 7 31 
Task4 127 255 31 
Task5 63 255 63 
Task6 3 255 31 
Task7 255 31 15 
Task8 63 15 3 
Task9 1 63 1 
Task10 63 255 255 
Task11 63 255 15 
Task12 31 31 255 
Task13 127 127 255 
Task14 1 15 63 
Task15 63 15 15 
Task16 63 63 255 
Task17 3 255 1 
Task18 127 7 31 
Task19 7 63 31 
Task20 7 31 63 
Task21 63 15 127 
Task22 1 15 255 
Task23 7 31 31 
Task24 15 31 63 
Task25 15 15 63 
Task26 7 255 7 
Task27 7 1 63 
Task28 63 63 63 
Task29 3 7 63 
Task30 15 63 63 
Task31 7 15 63 
Task32 63 7 31 
Task33 63 15 7 
Task34 63 31 31 
Task35 15 255 3 
Task36 15 63 3 
Task37 3 63 31 
Task38 63 31 15 
Task39 63 31 15 
Task40 15 63 1 
Task41 31 255 255 
Task42 31 15 127 
Task43 63 31 63 
Task44 31 1 255 
Task45 63 15 31 
Task46 63 63 31 
Task47 15 15 255 
Task48 63 31 31 
Task49 63 31 31 
Task50 255 7 3 
Task51 1 31 63 
Task52 127 255 31 
Task53 31 15 63 
Task54 15 255 127 
Task55 63 15 31 
Task56 7 31 63 
Task57 255 255 127 
Task58 15 63 63 
Task59 63 7 255 
Task60 7 3 255 
Task61 31 63 7 
Task62 255 1 31 
Task63 255 15 63 
Task64 7 3 255 
Task65 15 15 255 
Task66 1 255 15 
Task67 63 3 7 
Task68 3 63 3 
Task69 63 63 127 
Task70 7 255 127 
Task71 15 1 255 
Task72 1 63 31 
Task73 127 255 63 
Task74 127 255 127 
Task75 1 7 63 
Task76 255 127 7 
Task77 7 31 63 
Task78 63 1 15 
Task79 63 7 63 
Task80 31 63 255 
Task81 3 63 63 
Task82 63 63 1 
Task83 3 255 15 
Task84 3 7 63 
Task85 255 7 31 
Task86 63 63 15 
Task87 3 255 63 
Task88 63 15 15 
Task89 127 127 31 
Task90 255 255 255 
Task91 255 7 31 
Task92 63 63 31 
Task93 7 255 255 
Task94 7 255 127 
Task95 63 31 31 
Task96 31 7 63 
Task97 31 255 127 
Task98 255 15 255 
Task99 63 15 31 
