files/tasks_parameters/ExAp01/sample8.txt 1.11755 7.2562 4.46819 0.454772 14.7644
files/tasks_parameters/ExAp01/sample12.txt 1.63991 9.70908 5.28286 0.618515 20.0804
files/tasks_parameters/ExAp01/sample2.txt 1.50039 8.14159 5.7401 0.620531 20.1459
files/tasks_parameters/ExAp01/sample44.txt 1.38243 7.25164 5.75904 0.557631 18.1038
files/tasks_parameters/ExAp01/sample27.txt 1.32201 8.10944 5.64946 0.564878 18.3391
files/tasks_parameters/ExAp01/sample17.txt 1.26945 7.11225 5.46658 0.527183 17.1153
files/tasks_parameters/ExAp01/sample9.txt 1.21367 7.62559 5.37813 0.517277 16.7937
files/tasks_parameters/ExAp01/sample34.txt 1.23761 7.04587 5.93037 0.497709 16.1584
files/tasks_parameters/ExAp01/sample40.txt 1.201 8.03037 5.123 0.502383 16.3101
files/tasks_parameters/ExAp01/sample33.txt 1.63735 9.22935 5.92956 0.659262 21.4033
files/tasks_parameters/ExAp01/sample48.txt 1.1658 8.12182 5.1577 0.452491 14.6904
files/tasks_parameters/ExAp01/sample29.txt 1.55453 8.06133 5.12331 0.650652 21.1238
files/tasks_parameters/ExAp01/sample11.txt 1.35889 7.63104 5.37897 0.563302 18.2879
files/tasks_parameters/ExAp01/sample14.txt 1.13168 6.66403 4.66322 0.471536 15.3087
files/tasks_parameters/ExAp01/sample0.txt 1.64477 9.3266 4.98971 0.6311 20.489
files/tasks_parameters/ExAp01/sample7.txt 1.28973 7.34863 5.19436 0.515527 16.7369
files/tasks_parameters/ExAp01/sample23.txt 1.40523 6.68564 5.54308 0.588617 19.1098
files/tasks_parameters/ExAp01/sample13.txt 1.65028 9.31093 5.35591 0.632849 20.5458
files/tasks_parameters/ExAp01/sample22.txt 1.29523 7.65588 5.04866 0.540336 17.5423
files/tasks_parameters/ExAp01/sample25.txt 1.0295 6.17035 5.0141 0.408296 13.2556
files/tasks_parameters/ExAp01/sample36.txt 1.1881 7.03772 4.66274 0.507647 16.4811
files/tasks_parameters/ExAp01/sample46.txt 1.3517 7.73433 4.79934 0.536843 17.4289
files/tasks_parameters/ExAp01/sample31.txt 1.19045 6.96928 5.16482 0.485817 15.7723
files/tasks_parameters/ExAp01/sample37.txt 1.63266 9.52443 5.74224 0.65799 21.362
files/tasks_parameters/ExAp01/sample16.txt 1.4387 8.63521 4.97261 0.516328 16.7629
files/tasks_parameters/ExAp01/sample10.txt 1.39877 7.28353 6.16876 0.615651 19.9875
files/tasks_parameters/ExAp01/sample39.txt 1.14417 6.3405 4.6137 0.468873 15.2222
files/tasks_parameters/ExAp01/sample19.txt 1.62991 8.85528 5.22306 0.622152 20.1985
files/tasks_parameters/ExAp01/sample20.txt 1.39416 8.1141 5.21177 0.586994 19.0571
files/tasks_parameters/ExAp01/sample43.txt 1.30697 7.21373 5.6367 0.53748 17.4496
files/tasks_parameters/ExAp01/sample32.txt 1.60311 8.30592 5.38137 0.593918 19.2819
files/tasks_parameters/ExAp01/sample45.txt 1.42249 7.94069 4.96323 0.547271 17.7675
files/tasks_parameters/ExAp01/sample26.txt 1.16387 7.57061 4.62637 0.480146 15.5882
files/tasks_parameters/ExAp01/sample5.txt 1.49347 8.0307 5.35681 0.59407 19.2868
files/tasks_parameters/ExAp01/sample21.txt 1.02755 5.87802 4.61744 0.434264 14.0986
files/tasks_parameters/ExAp01/sample38.txt 1.18501 7.66999 4.86632 0.496808 16.1292
files/tasks_parameters/ExAp01/sample1.txt 1.165 7.21312 4.63213 0.486293 15.7878
files/tasks_parameters/ExAp01/sample15.txt 1.28125 8.02273 5.50855 0.531063 17.2413
files/tasks_parameters/ExAp01/sample24.txt 1.32473 8.66348 5.4905 0.548998 17.8235
files/tasks_parameters/ExAp01/sample3.txt 1.2142 7.74268 4.79918 0.477387 15.4986
files/tasks_parameters/ExAp01/sample6.txt 1.50499 8.57133 5.80157 0.633604 20.5703
files/tasks_parameters/ExAp01/sample30.txt 1.69593 8.18878 5.90888 0.633576 20.5694
files/tasks_parameters/ExAp01/sample42.txt 1.30413 8.57689 5.67253 0.54426 17.6697
files/tasks_parameters/ExAp01/sample4.txt 1.34954 8.40354 4.57985 0.563519 18.295
files/tasks_parameters/ExAp01/sample28.txt 1.0744 6.44114 4.96426 0.449721 14.6005
files/tasks_parameters/ExAp01/sample18.txt 1.30952 8.56363 4.60946 0.543766 17.6537
files/tasks_parameters/ExAp01/sample35.txt 1.98218 11.0387 6.34514 0.761377 24.7185
files/tasks_parameters/ExAp01/sample47.txt 1.32345 7.14493 5.22131 0.545046 17.6952
files/tasks_parameters/ExAp01/sample49.txt 1.32284 6.65996 4.80244 0.498533 16.1852
files/tasks_parameters/ExAp01/sample41.txt 1.2164 7.09069 5.35462 0.497129 16.1396
