0.39289627999999993
Task0 31 1 127 
Task1 63 7 7 
Task2 255 127 127 
Task3 7 7 63 
Task4 3 63 3 
Task5 3 63 7 
Task6 7 63 31 
Task7 15 63 7 
Task8 7 1 63 
Task9 63 31 31 
Task10 1 63 3 
Task11 31 31 31 
Task12 127 255 7 
Task13 15 31 3 
Task14 15 31 63 
Task15 63 31 63 
Task16 31 31 63 
Task17 63 1 31 
Task18 127 255 127 
Task19 63 255 15 
Task20 31 1 15 
Task21 63 255 127 
Task22 127 63 63 
Task23 255 63 255 
Task24 1 63 1 
Task25 255 15 1 
Task26 3 7 63 
Task27 7 63 7 
Task28 15 31 15 
Task29 15 15 127 
Task30 7 1 255 
Task31 127 127 255 
Task32 63 1 3 
Task33 31 63 31 
Task34 31 31 63 
Task35 31 255 31 
Task36 7 31 63 
Task37 31 63 63 
Task38 31 63 63 
Task39 1 63 31 
Task40 15 1 63 
Task41 3 63 1 
Task42 31 31 1 
Task43 127 255 31 
Task44 31 63 127 
Task45 7 255 63 
Task46 7 63 7 
Task47 3 63 7 
Task48 255 15 255 
Task49 31 63 31 
Task50 63 3 3 
Task51 3 7 63 
Task52 63 63 31 
Task53 7 63 31 
Task54 255 127 1 
Task55 31 255 31 
Task56 7 63 7 
Task57 15 63 15 
Task58 3 1 63 
Task59 127 127 31 
Task60 15 15 63 
Task61 7 7 63 
Task62 127 1 31 
Task63 7 15 255 
Task64 63 3 15 
Task65 31 7 7 
Task66 63 15 63 
Task67 63 3 7 
Task68 3 31 31 
Task69 15 31 63 
Task70 31 7 15 
Task71 255 63 63 
Task72 31 63 15 
Task73 63 63 3 
Task74 255 3 63 
Task75 1 127 31 
Task76 1 15 31 
Task77 3 7 63 
Task78 7 63 255 
Task79 31 15 15 
Task80 3 63 15 
Task81 15 63 31 
Task82 31 7 63 
Task83 255 63 63 
Task84 3 31 3 
Task85 31 31 3 
Task86 1 255 255 
Task87 63 255 63 
Task88 31 1 63 
Task89 7 63 15 
Task90 255 31 63 
Task91 31 31 31 
Task92 31 31 7 
Task93 31 7 3 
Task94 15 31 63 
Task95 63 1 7 
Task96 31 15 7 
Task97 63 3 1 
Task98 63 31 31 
Task99 31 3 63 
