Task0 1 1 1 
Task1 1 3 1 
Task2 1 1 1 
Task3 1 1 1 
Task4 1 3 3 
Task5 1 1 1 
Task6 1 1 1 
Task7 1 1 1 
Task8 1 3 3 
Task9 7 1 3 
Task10 1 1 1 
Task11 3 3 1 
Task12 3 3 1 
Task13 1 1 1 
Task14 15 1 15 
Task15 1 1 1 
Task16 1 1 1 
Task17 1 1 1 
Task18 1 1 1 
Task19 1 1 1 
Task20 1 1 1 
Task21 1 1 1 
Task22 3 1 1 
Task23 1 3 3 
Task24 1 1 3 
Task25 1 1 1 
Task26 1 3 1 
Task27 1 1 1 
Task28 1 1 1 
Task29 3 1 1 
Task30 1 1 1 
Task31 1 3 1 
Task32 1 1 1 
Task33 1 1 1 
Task34 1 7 1 
Task35 1 1 7 
Task36 7 7 15 
Task37 1 3 7 
Task38 1 1 1 
Task39 1 1 1 
Task40 1 3 1 
Task41 7 1 7 
Task42 1 1 1 
Task43 1 1 1 
Task44 1 1 1 
Task45 1 1 1 
Task46 1 1 1 
Task47 1 1 1 
Task48 1 1 1 
Task49 1 1 1 
Task50 1 3 1 
Task51 3 3 1 
Task52 1 1 3 
Task53 1 1 1 
Task54 1 1 3 
Task55 3 1 1 
Task56 3 1 1 
Task57 1 1 1 
Task58 1 1 1 
Task59 1 1 1 
Task60 1 1 1 
Task61 1 1 1 
Task62 1 1 1 
Task63 3 1 1 
Task64 1 7 1 
Task65 1 1 1 
Task66 1 1 1 
Task67 1 1 1 
Task68 3 1 1 
Task69 1 1 1 
Task70 1 1 1 
Task71 1 1 1 
Task72 1 1 1 
Task73 1 1 3 
Task74 1 1 3 
Task75 3 1 3 
Task76 1 1 1 
Task77 1 1 1 
Task78 7 7 1 
Task79 1 1 1 
Task80 1 1 1 
Task81 1 1 1 
Task82 3 1 1 
Task83 1 1 1 
Task84 1 1 1 
Task85 1 1 1 
Task86 7 3 31 
Task87 1 1 1 
Task88 1 1 3 
Task89 1 1 1 
Task90 1 1 1 
Task91 1 1 1 
Task92 7 3 1 
Task93 1 1 3 
Task94 1 1 1 
Task95 1 1 1 
Task96 1 1 1 
Task97 3 1 1 
Task98 1 3 3 
Task99 1 1 3 
Task100 3 1 3 
Task101 1 1 1 
Task102 1 1 3 
Task103 1 1 1 
Task104 1 1 1 
Task105 1 1 1 
Task106 1 3 1 
Task107 1 1 1 
Task108 7 1 1 
Task109 1 1 1 
Task110 1 1 1 
Task111 1 1 3 
Task112 1 3 1 
Task113 1 1 1 
Task114 1 1 1 
Task115 3 1 1 
Task116 3 1 1 
Task117 1 1 1 
Task118 3 3 1 
Task119 1 1 1 
Task120 3 3 1 
Task121 1 1 1 
Task122 1 1 1 
Task123 1 1 1 
Task124 1 1 1 
Task125 3 1 1 
Task126 1 1 1 
Task127 1 1 1 
Task128 1 1 1 
Task129 1 3 1 
Task130 1 1 1 
Task131 1 3 1 
Task132 3 1 3 
Task133 1 1 1 
Task134 3 1 3 
Task135 1 3 1 
Task136 1 1 1 
Task137 1 1 1 
Task138 1 1 1 
Task139 1 1 1 
Task140 1 1 1 
Task141 1 1 1 
Task142 1 1 1 
Task143 1 1 1 
Task144 1 1 1 
Task145 1 1 3 
Task146 1 3 1 
Task147 1 3 3 
Task148 1 1 1 
Task149 1 1 1 
Task150 1 1 1 
Task151 1 1 3 
Task152 15 15 1 
Task153 1 1 1 
Task154 1 1 1 
Task155 1 1 1 
Task156 3 1 1 
Task157 3 3 1 
Task158 1 1 1 
Task159 1 3 1 
Task160 127 255 255 
Task161 1 3 1 
Task162 1 1 1 
Task163 1 1 1 
Task164 1 15 7 
Task165 1 1 7 
Task166 1 3 1 
Task167 3 1 1 
Task168 1 1 1 
Task169 1 3 3 
Task170 1 1 1 
Task171 1 1 1 
Task172 1 1 1 
Task173 1 1 1 
Task174 1 1 1 
Task175 1 1 1 
Task176 3 1 1 
Task177 1 1 1 
Task178 1 1 1 
Task179 3 1 3 
Task180 1 1 1 
Task181 1 1 1 
Task182 1 3 1 
Task183 1 1 1 
Task184 1 1 1 
Task185 1 1 1 
Task186 1 1 1 
Task187 3 1 3 
Task188 1 1 1 
Task189 1 1 1 
Task190 1 1 1 
Task191 1 1 1 
Task192 1 1 3 
Task193 1 3 3 
Task194 3 1 1 
Task195 1 3 1 
Task196 1 1 1 
Task197 7 1 1 
Task198 1 1 1 
Task199 1 3 1 
