0.55318067
Task0 15 3 15 
Task1 15 15 7 
Task2 3 15 15 
Task3 1 63 15 
Task4 1 15 3 
Task5 15 7 63 
Task6 7 15 15 
Task7 7 3 15 
Task8 15 7 7 
Task9 15 15 7 
Task10 7 3 1 
Task11 3 1 7 
Task12 15 1 7 
Task13 7 15 1 
Task14 15 7 3 
Task15 15 7 7 
Task16 7 31 3 
Task17 15 3 1 
Task18 31 7 31 
Task19 1 31 15 
Task20 3 31 3 
Task21 7 3 15 
Task22 15 15 63 
Task23 15 15 15 
Task24 31 7 3 
Task25 31 15 1 
Task26 15 63 15 
Task27 15 31 1 
Task28 3 7 31 
Task29 15 15 31 
Task30 3 1 31 
Task31 15 7 3 
Task32 15 15 15 
Task33 15 1 7 
Task34 7 15 7 
Task35 15 7 1 
Task36 31 15 7 
Task37 31 31 31 
Task38 15 31 3 
Task39 63 15 3 
Task40 15 31 15 
Task41 15 1 3 
Task42 1 15 7 
Task43 3 3 15 
Task44 7 15 7 
Task45 7 7 31 
Task46 15 3 15 
Task47 15 7 7 
Task48 63 7 7 
Task49 7 31 7 
Task50 63 15 3 
Task51 15 15 15 
Task52 63 63 7 
Task53 15 1 15 
Task54 7 7 7 
Task55 15 1 3 
Task56 7 7 15 
Task57 1 15 15 
Task58 7 1 3 
Task59 7 1 15 
Task60 3 7 31 
Task61 15 31 3 
Task62 31 3 15 
Task63 15 3 1 
Task64 31 7 15 
Task65 15 31 31 
Task66 7 7 1 
Task67 15 1 15 
Task68 15 31 31 
Task69 15 15 7 
Task70 7 15 7 
Task71 3 7 31 
Task72 1 15 7 
Task73 1 31 31 
Task74 1 3 15 
Task75 15 1 7 
Task76 7 15 1 
Task77 15 15 15 
Task78 15 3 31 
Task79 31 63 7 
Task80 3 7 15 
Task81 31 7 7 
Task82 1 15 3 
Task83 31 31 31 
Task84 15 7 3 
Task85 7 7 7 
Task86 15 63 31 
Task87 31 7 15 
Task88 7 15 15 
Task89 7 1 15 
Task90 7 15 7 
Task91 7 7 15 
Task92 1 7 15 
Task93 15 7 31 
Task94 15 15 15 
Task95 31 31 15 
Task96 3 15 1 
Task97 15 63 15 
Task98 63 7 7 
Task99 15 15 1 
Task100 15 15 3 
Task101 15 1 31 
Task102 1 3 15 
Task103 1 15 7 
Task104 15 1 1 
Task105 15 3 7 
Task106 7 7 7 
Task107 31 3 31 
Task108 7 7 7 
Task109 3 15 7 
Task110 15 15 1 
Task111 3 15 15 
Task112 3 31 3 
Task113 7 3 1 
Task114 255 63 127 
Task115 63 31 63 
Task116 1 7 7 
Task117 3 15 7 
Task118 7 15 1 
Task119 1 63 31 
Task120 31 31 63 
Task121 15 1 15 
Task122 3 1 15 
Task123 127 255 255 
Task124 1 3 31 
Task125 15 31 31 
Task126 1 31 3 
Task127 3 15 15 
Task128 31 1 3 
Task129 3 1 15 
Task130 3 1 15 
Task131 255 255 63 
Task132 7 15 3 
Task133 15 31 31 
Task134 31 7 3 
Task135 15 7 1 
Task136 7 15 1 
Task137 3 15 15 
Task138 15 15 15 
Task139 3 15 7 
Task140 7 15 7 
Task141 63 15 3 
Task142 255 255 255 
Task143 3 15 31 
Task144 31 31 63 
Task145 7 15 7 
Task146 31 63 7 
Task147 7 3 15 
Task148 7 15 31 
Task149 31 31 31 
Task150 3 7 15 
Task151 15 7 15 
Task152 7 7 7 
Task153 31 7 15 
Task154 3 31 3 
Task155 15 7 1 
Task156 1 15 7 
Task157 15 7 7 
Task158 15 15 31 
Task159 3 15 7 
Task160 15 15 15 
Task161 7 15 7 
Task162 7 31 63 
Task163 31 1 3 
Task164 15 15 3 
Task165 15 3 7 
Task166 15 1 15 
Task167 15 1 3 
Task168 15 31 7 
Task169 15 7 3 
Task170 15 7 15 
Task171 31 15 1 
Task172 7 15 7 
Task173 7 7 7 
Task174 15 7 15 
Task175 15 3 3 
Task176 31 127 31 
Task177 3 15 7 
Task178 15 3 15 
Task179 15 1 3 
Task180 15 7 3 
Task181 7 15 7 
Task182 1 15 1 
Task183 1 1 31 
Task184 7 7 15 
Task185 1 31 7 
Task186 1 15 15 
Task187 7 1 31 
Task188 15 15 15 
Task189 31 63 63 
Task190 1 31 7 
Task191 3 31 3 
Task192 15 31 1 
Task193 7 15 1 
Task194 15 15 15 
Task195 1 31 15 
Task196 15 1 3 
Task197 15 7 31 
Task198 31 15 15 
Task199 7 3 15 
