Task0 1 1 1 
Task1 3 1 1 
Task2 3 3 1 
Task3 3 3 3 
Task4 1 1 1 
Task5 1 1 1 
Task6 1 1 1 
Task7 1 1 1 
Task8 1 1 1 
Task9 7 1 7 
Task10 3 3 3 
Task11 1 1 1 
Task12 1 3 1 
Task13 1 1 1 
Task14 1 3 1 
Task15 1 3 3 
Task16 1 1 1 
Task17 1 1 1 
Task18 1 1 1 
Task19 1 1 1 
Task20 1 1 1 
Task21 1 1 1 
Task22 3 1 1 
Task23 7 1 1 
Task24 1 1 1 
Task25 1 1 1 
Task26 1 1 1 
Task27 7 1 1 
Task28 1 3 3 
Task29 1 3 1 
Task30 1 1 1 
Task31 1 3 1 
Task32 1 1 1 
Task33 1 1 1 
Task34 1 1 1 
Task35 1 1 1 
Task36 1 1 1 
Task37 1 1 1 
Task38 1 1 1 
Task39 1 1 3 
Task40 3 3 1 
Task41 1 1 1 
Task42 7 1 7 
Task43 1 1 1 
Task44 7 1 1 
Task45 1 1 1 
Task46 7 63 31 
Task47 1 1 1 
Task48 3 1 3 
Task49 1 1 1 
Task50 1 1 3 
Task51 1 1 1 
Task52 1 1 3 
Task53 1 1 1 
Task54 63 255 31 
Task55 1 1 1 
Task56 1 1 1 
Task57 1 1 1 
Task58 3 1 1 
Task59 1 1 1 
Task60 1 1 1 
Task61 1 1 1 
Task62 1 1 3 
Task63 1 1 1 
Task64 3 7 1 
Task65 1 1 1 
Task66 1 1 1 
Task67 1 1 1 
Task68 1 1 1 
Task69 1 1 3 
Task70 1 1 1 
Task71 1 1 3 
Task72 1 1 1 
Task73 1 1 1 
Task74 1 1 1 
Task75 3 1 1 
Task76 1 1 1 
Task77 1 1 1 
Task78 1 1 1 
Task79 1 1 1 
Task80 1 1 1 
Task81 1 1 1 
Task82 1 1 1 
Task83 3 3 1 
Task84 1 7 3 
Task85 1 1 1 
Task86 1 1 1 
Task87 1 1 1 
Task88 1 1 1 
Task89 3 1 3 
Task90 1 1 1 
Task91 3 1 1 
Task92 1 1 1 
Task93 1 1 3 
Task94 1 1 1 
Task95 1 1 1 
Task96 1 1 1 
Task97 1 1 1 
Task98 1 1 1 
Task99 3 1 1 
Task100 1 1 1 
Task101 1 1 1 
Task102 1 1 1 
Task103 1 1 1 
Task104 3 3 1 
Task105 1 1 3 
Task106 3 1 1 
Task107 1 1 1 
Task108 1 1 1 
Task109 3 3 7 
Task110 1 1 1 
Task111 3 1 1 
Task112 3 1 1 
Task113 1 1 1 
Task114 1 1 1 
Task115 1 1 1 
Task116 1 1 1 
Task117 1 1 1 
Task118 3 3 1 
Task119 7 7 1 
Task120 1 1 1 
Task121 1 1 1 
Task122 1 1 1 
Task123 1 1 1 
Task124 1 1 1 
Task125 3 1 3 
Task126 1 1 3 
Task127 1 3 1 
Task128 1 3 1 
Task129 1 1 3 
Task130 3 1 1 
Task131 7 1 1 
Task132 1 1 1 
Task133 1 1 1 
Task134 1 1 1 
Task135 1 1 1 
Task136 1 1 1 
Task137 1 1 1 
Task138 1 1 1 
Task139 1 1 1 
Task140 1 1 1 
Task141 15 15 15 
Task142 1 1 1 
Task143 1 1 1 
Task144 1 1 1 
Task145 1 3 1 
Task146 1 1 1 
Task147 3 3 1 
Task148 1 15 7 
Task149 1 1 1 
Task150 1 3 3 
Task151 1 1 1 
Task152 1 1 1 
Task153 1 1 1 
Task154 1 1 1 
Task155 1 1 1 
Task156 1 1 1 
Task157 3 1 3 
Task158 1 3 3 
Task159 1 1 1 
Task160 1 1 3 
Task161 1 1 1 
Task162 1 3 1 
Task163 1 1 1 
Task164 1 1 1 
Task165 1 7 3 
Task166 1 1 1 
Task167 1 1 1 
Task168 1 3 1 
Task169 3 3 1 
Task170 1 1 1 
Task171 1 1 1 
Task172 1 1 1 
Task173 1 3 1 
Task174 1 1 1 
Task175 1 1 1 
Task176 1 1 3 
Task177 1 1 1 
Task178 1 1 1 
Task179 1 1 1 
Task180 1 1 1 
Task181 1 1 3 
Task182 1 3 1 
Task183 1 1 1 
Task184 1 1 1 
Task185 1 1 1 
Task186 1 1 1 
Task187 1 1 1 
Task188 1 1 1 
Task189 1 1 3 
Task190 1 1 3 
Task191 1 1 1 
Task192 1 1 1 
Task193 1 1 1 
Task194 1 1 1 
Task195 1 3 7 
Task196 3 1 1 
Task197 1 1 1 
Task198 1 3 3 
Task199 3 1 3 
