0.60609812
Task0 7 3 31 
Task1 3 31 63 
Task2 15 1 31 
Task3 15 15 31 
Task4 3 3 31 
Task5 63 15 1 
Task6 15 15 63 
Task7 63 63 7 
Task8 31 15 31 
Task9 1 7 31 
Task10 255 31 63 
Task11 1 1 31 
Task12 31 31 63 
Task13 7 15 31 
Task14 63 3 31 
Task15 31 7 15 
Task16 1 1 31 
Task17 15 31 7 
Task18 3 31 7 
Task19 31 1 7 
Task20 63 127 31 
Task21 3 31 1 
Task22 31 1 7 
Task23 3 15 3 
Task24 63 3 31 
Task25 15 15 31 
Task26 31 15 31 
Task27 7 15 31 
Task28 15 31 7 
Task29 31 15 15 
Task30 7 31 15 
Task31 31 15 15 
Task32 15 63 255 
Task33 7 31 31 
Task34 3 3 31 
Task35 31 63 63 
Task36 31 1 31 
Task37 7 31 1 
Task38 3 31 15 
Task39 3 31 1 
Task40 15 63 15 
Task41 1 31 1 
Task42 7 31 31 
Task43 1 31 1 
Task44 7 31 7 
Task45 31 15 31 
Task46 15 3 31 
Task47 3 7 31 
Task48 7 63 15 
Task49 7 15 15 
Task50 127 255 15 
Task51 63 3 63 
Task52 1 31 31 
Task53 31 15 1 
Task54 127 63 15 
Task55 63 63 31 
Task56 15 1 15 
Task57 63 3 7 
Task58 31 1 63 
Task59 7 31 3 
Task60 31 63 63 
Task61 3 15 31 
Task62 63 31 1 
Task63 31 3 15 
Task64 15 31 1 
Task65 31 31 31 
Task66 15 31 3 
Task67 63 1 15 
Task68 3 15 15 
Task69 15 63 1 
Task70 31 15 15 
Task71 15 63 15 
Task72 63 7 31 
Task73 63 3 31 
Task74 31 15 1 
Task75 7 31 1 
Task76 15 15 31 
Task77 15 15 31 
Task78 15 15 15 
Task79 7 255 127 
Task80 3 15 31 
Task81 31 7 7 
Task82 31 31 15 
Task83 127 255 31 
Task84 63 63 255 
Task85 1 15 7 
Task86 15 31 15 
Task87 63 7 31 
Task88 7 31 1 
Task89 31 7 3 
Task90 31 7 1 
Task91 31 1 15 
Task92 63 1 1 
Task93 31 31 15 
Task94 15 15 3 
Task95 3 3 31 
Task96 7 31 1 
Task97 1 7 31 
Task98 7 31 31 
Task99 15 15 31 
Task100 15 15 15 
Task101 7 31 63 
Task102 31 1 31 
Task103 15 15 63 
Task104 1 31 63 
Task105 31 7 15 
Task106 31 15 7 
Task107 15 15 1 
Task108 1 31 1 
Task109 15 31 3 
Task110 15 31 63 
Task111 31 63 1 
Task112 1 7 31 
Task113 31 127 15 
Task114 15 31 15 
Task115 31 1 15 
Task116 31 31 31 
Task117 63 15 7 
Task118 7 31 15 
Task119 15 1 31 
Task120 31 31 63 
Task121 1 7 31 
Task122 63 127 31 
Task123 31 15 15 
Task124 63 63 63 
Task125 1 7 31 
Task126 63 15 63 
Task127 15 15 7 
Task128 7 15 1 
Task129 1 31 15 
Task130 31 15 31 
Task131 3 31 31 
Task132 3 31 7 
Task133 7 3 31 
Task134 3 31 1 
Task135 7 15 15 
Task136 63 1 15 
Task137 3 63 31 
Task138 255 255 255 
Task139 127 255 255 
Task140 31 31 31 
Task141 31 1 15 
Task142 15 31 15 
Task143 15 63 3 
Task144 1 31 31 
Task145 31 1 7 
Task146 3 31 31 
Task147 31 31 1 
Task148 1 127 63 
Task149 3 15 63 
Task150 63 63 63 
Task151 7 63 7 
Task152 63 1 15 
Task153 15 15 31 
Task154 15 7 15 
Task155 7 31 15 
Task156 31 1 1 
Task157 15 31 15 
Task158 3 7 31 
Task159 1 3 31 
Task160 1 31 3 
Task161 31 1 7 
Task162 1 31 7 
Task163 1 31 1 
Task164 7 15 7 
Task165 1 1 31 
Task166 1 31 63 
Task167 3 31 15 
Task168 3 31 15 
Task169 63 31 31 
Task170 31 3 7 
Task171 15 31 7 
Task172 7 1 31 
Task173 31 31 3 
Task174 15 1 63 
Task175 15 15 15 
Task176 1 31 63 
Task177 15 15 31 
Task178 15 7 31 
Task179 3 15 1 
Task180 15 63 3 
Task181 31 15 1 
Task182 3 31 1 
Task183 31 7 1 
Task184 15 1 3 
Task185 1 15 31 
Task186 31 3 31 
Task187 1 7 31 
Task188 63 15 1 
Task189 127 63 31 
Task190 31 3 3 
Task191 15 3 7 
Task192 1 63 15 
Task193 3 7 31 
Task194 3 15 31 
Task195 7 31 15 
Task196 15 15 31 
Task197 63 15 15 
Task198 3 7 31 
Task199 255 15 63 
