Task0 3 1 1 
Task1 1 3 1 
Task2 1 7 3 
Task3 1 1 1 
Task4 1 1 1 
Task5 1 1 1 
Task6 1 1 1 
Task7 1 1 1 
Task8 1 1 1 
Task9 1 1 1 
Task10 1 1 1 
Task11 1 1 1 
Task12 1 1 1 
Task13 1 7 1 
Task14 15 7 15 
Task15 1 7 3 
Task16 1 1 1 
Task17 1 1 1 
Task18 1 1 1 
Task19 1 1 1 
Task20 1 1 1 
Task21 1 1 1 
Task22 1 1 1 
Task23 1 1 1 
Task24 1 3 1 
Task25 3 1 1 
Task26 1 1 3 
Task27 1 1 1 
Task28 1 15 7 
Task29 1 1 1 
Task30 3 1 7 
Task31 1 1 1 
Task32 1 1 1 
Task33 1 1 1 
Task34 1 1 1 
Task35 1 1 1 
Task36 1 1 1 
Task37 1 1 7 
Task38 1 1 1 
Task39 1 3 1 
Task40 1 1 1 
Task41 1 1 1 
Task42 7 3 3 
Task43 1 1 1 
Task44 255 63 31 
Task45 1 1 1 
Task46 1 3 1 
Task47 1 1 3 
Task48 1 3 1 
Task49 1 1 1 
Task50 1 1 1 
Task51 1 3 1 
Task52 1 3 1 
Task53 3 1 1 
Task54 1 1 1 
Task55 1 1 1 
Task56 1 1 1 
Task57 3 1 1 
Task58 1 1 3 
Task59 1 1 1 
Task60 1 1 1 
Task61 1 3 3 
Task62 3 1 1 
Task63 1 1 1 
Task64 1 1 1 
Task65 1 1 1 
Task66 3 3 1 
Task67 3 1 1 
Task68 1 3 3 
Task69 7 3 1 
Task70 1 3 1 
Task71 3 3 1 
Task72 1 1 1 
Task73 1 1 1 
Task74 1 1 1 
Task75 1 3 1 
Task76 1 1 1 
Task77 1 7 3 
Task78 1 1 3 
Task79 1 1 1 
Task80 3 1 1 
Task81 1 1 1 
Task82 1 3 1 
Task83 3 1 3 
Task84 1 1 1 
Task85 1 1 1 
Task86 3 1 1 
Task87 3 1 3 
Task88 1 1 3 
Task89 1 1 1 
Task90 1 3 1 
Task91 3 1 1 
Task92 3 1 1 
Task93 1 1 1 
Task94 1 1 3 
Task95 1 3 1 
Task96 1 1 1 
Task97 1 1 1 
Task98 1 1 1 
Task99 1 1 1 
Task100 1 1 1 
Task101 1 1 1 
Task102 1 1 3 
Task103 1 1 1 
Task104 1 1 1 
Task105 1 1 1 
Task106 1 1 1 
Task107 3 1 1 
Task108 1 1 1 
Task109 3 3 1 
Task110 3 3 1 
Task111 1 1 3 
Task112 1 3 1 
Task113 1 1 1 
Task114 3 1 1 
Task115 1 1 1 
Task116 1 1 1 
Task117 3 1 1 
Task118 1 1 1 
Task119 1 1 1 
Task120 1 1 1 
Task121 3 1 3 
Task122 1 1 1 
Task123 1 1 1 
Task124 1 1 1 
Task125 1 1 1 
Task126 1 1 1 
Task127 1 1 1 
Task128 1 1 1 
Task129 1 1 1 
Task130 1 1 1 
Task131 1 1 1 
Task132 3 15 1 
Task133 1 1 1 
Task134 1 1 3 
Task135 1 1 1 
Task136 1 3 1 
Task137 1 1 1 
Task138 1 1 1 
Task139 3 1 3 
Task140 3 3 7 
Task141 1 3 15 
Task142 1 1 1 
Task143 1 1 1 
Task144 1 1 1 
Task145 1 1 1 
Task146 1 1 1 
Task147 1 1 1 
Task148 1 1 1 
Task149 1 1 1 
Task150 3 1 1 
Task151 1 1 1 
Task152 1 1 1 
Task153 1 1 1 
Task154 1 1 1 
Task155 1 1 1 
Task156 1 3 1 
Task157 1 3 3 
Task158 1 3 3 
Task159 1 1 1 
Task160 1 1 1 
Task161 7 1 3 
Task162 3 3 1 
Task163 1 1 1 
Task164 1 1 1 
Task165 1 1 1 
Task166 1 1 1 
Task167 1 1 1 
Task168 1 1 1 
Task169 1 1 3 
Task170 1 3 3 
Task171 1 1 1 
Task172 1 1 3 
Task173 1 1 1 
Task174 3 15 1 
Task175 1 1 3 
Task176 7 1 1 
Task177 1 1 1 
Task178 1 3 3 
Task179 1 1 1 
Task180 1 1 1 
Task181 1 3 1 
Task182 3 3 1 
Task183 1 1 1 
Task184 1 1 1 
Task185 1 1 1 
Task186 1 1 1 
Task187 1 1 1 
Task188 15 3 7 
Task189 1 1 7 
Task190 1 1 1 
Task191 1 1 1 
Task192 1 1 1 
Task193 1 3 1 
Task194 1 1 1 
Task195 1 1 1 
Task196 1 1 1 
Task197 1 1 1 
Task198 7 7 1 
Task199 1 3 1 
