files/tasks_parameters/ExAp01/sample8.txt 0.789305 3.15778 1.5595 0.203411 3.91074
files/tasks_parameters/ExAp01/sample12.txt 0.806027 3.94962 1.6705 0.207924 3.9975
files/tasks_parameters/ExAp01/sample2.txt 0.770311 3.78275 1.74131 0.200098 3.84703
files/tasks_parameters/ExAp01/sample44.txt 0.689298 3.59825 1.65317 0.200005 3.84525
files/tasks_parameters/ExAp01/sample27.txt 0.718687 3.45743 1.5148 0.182129 3.50156
files/tasks_parameters/ExAp01/sample17.txt 0.794757 2.77299 1.44514 0.14646 2.8158
files/tasks_parameters/ExAp01/sample9.txt 0.719348 2.99933 1.451 0.177444 3.41149
files/tasks_parameters/ExAp01/sample34.txt 0.82455 3.02928 1.58429 0.157984 3.03736
files/tasks_parameters/ExAp01/sample40.txt 0.747968 3.86889 1.52122 0.168379 3.23722
files/tasks_parameters/ExAp01/sample33.txt 0.804827 3.63695 1.71905 0.199765 3.84064
files/tasks_parameters/ExAp01/sample48.txt 0.675149 3.39061 1.49062 0.154728 2.97477
files/tasks_parameters/ExAp01/sample29.txt 0.714368 3.30472 1.38739 0.223868 4.30404
files/tasks_parameters/ExAp01/sample11.txt 0.707448 3.10585 1.41612 0.174079 3.3468
files/tasks_parameters/ExAp01/sample14.txt 0.656756 2.70971 1.43432 0.162214 3.1187
files/tasks_parameters/ExAp01/sample0.txt 0.749338 3.6937 1.5439 0.18367 3.53119
files/tasks_parameters/ExAp01/sample7.txt 0.767579 2.70501 1.42221 0.143463 2.7582
files/tasks_parameters/ExAp01/sample23.txt 0.756523 3.2697 1.57822 0.181448 3.48849
files/tasks_parameters/ExAp01/sample13.txt 0.732139 3.84225 1.67648 0.198247 3.81145
files/tasks_parameters/ExAp01/sample22.txt 0.783248 3.09569 1.56121 0.148796 2.86072
files/tasks_parameters/ExAp01/sample25.txt 0.721425 2.73966 1.5007 0.148149 2.84827
files/tasks_parameters/ExAp01/sample36.txt 0.666179 2.85948 1.28553 0.130042 2.50016
files/tasks_parameters/ExAp01/sample46.txt 0.752752 3.58643 1.69998 0.210103 4.03939
files/tasks_parameters/ExAp01/sample31.txt 0.693404 3.4832 1.53782 0.1722 3.31068
files/tasks_parameters/ExAp01/sample37.txt 0.745977 3.95293 1.50705 0.171701 3.30109
files/tasks_parameters/ExAp01/sample16.txt 0.602195 3.31216 1.30115 0.150249 2.88865
files/tasks_parameters/ExAp01/sample10.txt 0.841491 3.17098 1.61789 0.153776 2.95647
files/tasks_parameters/ExAp01/sample39.txt 0.694959 3.26617 1.44406 0.165669 3.18511
files/tasks_parameters/ExAp01/sample19.txt 0.734423 3.63532 1.52509 0.196094 3.77007
files/tasks_parameters/ExAp01/sample20.txt 0.660052 3.20793 1.25367 0.147335 2.83264
files/tasks_parameters/ExAp01/sample43.txt 0.64758 3.11551 1.4202 0.150644 2.89626
files/tasks_parameters/ExAp01/sample32.txt 0.721661 3.5311 1.42482 0.168744 3.24424
files/tasks_parameters/ExAp01/sample45.txt 0.767123 3.80283 1.48324 0.19807 3.80806
files/tasks_parameters/ExAp01/sample26.txt 0.63186 3.21645 1.29701 0.166061 3.19266
files/tasks_parameters/ExAp01/sample5.txt 0.631367 3.5889 1.52559 0.178903 3.43956
files/tasks_parameters/ExAp01/sample21.txt 0.662968 2.75242 1.55936 0.19512 3.75134
files/tasks_parameters/ExAp01/sample38.txt 0.662065 3.31563 1.37515 0.166157 3.19449
files/tasks_parameters/ExAp01/sample1.txt 0.726038 3.74964 1.51696 0.19701 3.78766
files/tasks_parameters/ExAp01/sample15.txt 0.693661 3.32916 1.48508 0.180707 3.47424
files/tasks_parameters/ExAp01/sample24.txt 0.80973 3.45951 1.59549 0.16529 3.17784
files/tasks_parameters/ExAp01/sample3.txt 0.894346 3.70014 1.70809 0.237107 4.55857
files/tasks_parameters/ExAp01/sample6.txt 0.700965 3.33003 1.58323 0.184714 3.55128
files/tasks_parameters/ExAp01/sample30.txt 0.796852 4.1841 1.4861 0.239623 4.60694
files/tasks_parameters/ExAp01/sample42.txt 0.747833 3.43221 1.70276 0.177383 3.41032
files/tasks_parameters/ExAp01/sample4.txt 0.785048 3.72477 1.6136 0.196448 3.77687
files/tasks_parameters/ExAp01/sample28.txt 0.685445 3.11323 1.45032 0.158819 3.05342
files/tasks_parameters/ExAp01/sample18.txt 0.764248 3.47418 1.45209 0.149064 2.86587
files/tasks_parameters/ExAp01/sample35.txt 0.789121 4.57086 1.49394 0.185031 3.55736
files/tasks_parameters/ExAp01/sample47.txt 0.703034 3.13768 1.52397 0.16417 3.1563
files/tasks_parameters/ExAp01/sample49.txt 0.736707 3.13288 1.49657 0.156154 3.00218
files/tasks_parameters/ExAp01/sample41.txt 0.761529 2.81964 1.49636 0.150876 2.90071
