0.3694288600000001
Task0 127 15 63 
Task1 31 255 15 
Task2 31 7 15 
Task3 255 127 255 
Task4 3 63 7 
Task5 127 63 127 
Task6 31 31 255 
Task7 15 63 63 
Task8 255 3 15 
Task9 7 31 7 
Task10 255 7 31 
Task11 255 127 127 
Task12 1 31 3 
Task13 255 255 63 
Task14 15 255 15 
Task15 31 255 31 
Task16 15 255 31 
Task17 255 3 1 
Task18 255 127 127 
Task19 63 63 7 
Task20 127 63 127 
Task21 15 255 31 
Task22 63 63 63 
Task23 31 63 3 
Task24 63 3 1 
Task25 31 3 3 
Task26 255 255 255 
Task27 63 255 31 
Task28 3 63 3 
Task29 7 63 63 
Task30 15 63 15 
Task31 31 255 3 
Task32 1 31 31 
Task33 255 127 7 
Task34 31 63 15 
Task35 63 255 63 
Task36 31 31 3 
Task37 15 3 63 
Task38 31 63 255 
Task39 255 15 7 
Task40 63 15 1 
Task41 31 255 255 
Task42 31 31 31 
Task43 15 15 255 
Task44 127 63 31 
Task45 63 31 7 
Task46 31 7 7 
Task47 31 31 63 
Task48 31 63 255 
Task49 255 255 31 
Task50 255 31 63 
Task51 31 7 255 
Task52 63 63 31 
Task53 63 63 31 
Task54 255 127 3 
Task55 1 15 255 
Task56 63 255 63 
Task57 255 7 7 
Task58 255 63 7 
Task59 31 15 63 
Task60 1 63 3 
Task61 31 31 31 
Task62 63 255 15 
Task63 15 3 63 
Task64 255 3 3 
Task65 255 255 15 
Task66 255 255 255 
Task67 127 127 127 
Task68 255 1 31 
Task69 31 31 63 
Task70 255 63 7 
Task71 63 31 7 
Task72 255 63 3 
Task73 31 1 31 
Task74 31 3 31 
Task75 31 15 255 
Task76 1 31 31 
Task77 15 255 7 
Task78 127 127 127 
Task79 15 31 15 
Task80 7 63 7 
Task81 63 3 1 
Task82 255 3 127 
Task83 31 7 31 
Task84 63 7 31 
Task85 7 63 31 
Task86 31 63 7 
Task87 3 31 31 
Task88 15 63 15 
Task89 63 15 63 
Task90 7 63 7 
Task91 255 7 31 
Task92 127 63 63 
Task93 31 63 31 
Task94 31 1 63 
Task95 15 31 31 
Task96 1 63 63 
Task97 3 63 31 
Task98 7 127 127 
Task99 7 31 3 
