files/tasks_parameters/ExAp01/sample8.txt 1.53747 6.77015 2.19458 0.288816 4.75958
files/tasks_parameters/ExAp01/sample12.txt 1.81673 9.58351 2.46081 0.337498 5.56184
files/tasks_parameters/ExAp01/sample2.txt 1.70289 8.44418 2.50701 0.319127 5.25909
files/tasks_parameters/ExAp01/sample44.txt 1.51058 6.96299 2.23089 0.28229 4.65203
files/tasks_parameters/ExAp01/sample27.txt 1.53761 7.74306 2.16676 0.28602 4.71349
files/tasks_parameters/ExAp01/sample17.txt 1.57315 7.35053 2.25579 0.292348 4.81777
files/tasks_parameters/ExAp01/sample9.txt 1.4939 6.89392 2.21068 0.282399 4.65382
files/tasks_parameters/ExAp01/sample34.txt 1.58921 6.62788 2.3772 0.297742 4.90666
files/tasks_parameters/ExAp01/sample40.txt 1.51549 7.75686 2.17534 0.285619 4.70689
files/tasks_parameters/ExAp01/sample33.txt 1.79283 8.14826 2.6463 0.338073 5.57131
files/tasks_parameters/ExAp01/sample48.txt 1.46898 7.64107 2.14272 0.270011 4.44968
files/tasks_parameters/ExAp01/sample29.txt 1.51962 7.139 1.93769 0.286306 4.7182
files/tasks_parameters/ExAp01/sample11.txt 1.48156 6.88688 2.12981 0.280008 4.61443
files/tasks_parameters/ExAp01/sample14.txt 1.31589 6.11983 1.97599 0.247458 4.078
files/tasks_parameters/ExAp01/sample0.txt 1.5755 8.2738 2.14256 0.289132 4.76478
files/tasks_parameters/ExAp01/sample7.txt 1.45821 6.87011 2.05821 0.269886 4.44761
files/tasks_parameters/ExAp01/sample23.txt 1.56358 6.52032 2.38087 0.291712 4.80729
files/tasks_parameters/ExAp01/sample13.txt 1.60476 8.73247 2.33415 0.295393 4.86795
files/tasks_parameters/ExAp01/sample22.txt 1.50365 6.9777 2.28948 0.283979 4.67986
files/tasks_parameters/ExAp01/sample25.txt 1.42077 6.23444 2.2122 0.267298 4.40496
files/tasks_parameters/ExAp01/sample36.txt 1.36476 6.6174 1.9458 0.253823 4.1829
files/tasks_parameters/ExAp01/sample46.txt 1.72119 7.42369 2.49128 0.327273 5.39333
files/tasks_parameters/ExAp01/sample31.txt 1.37482 7.22028 2.13584 0.25377 4.18203
files/tasks_parameters/ExAp01/sample37.txt 1.61472 8.90704 2.16981 0.295708 4.87315
files/tasks_parameters/ExAp01/sample16.txt 1.36589 8.18243 1.88294 0.24945 4.11083
files/tasks_parameters/ExAp01/sample10.txt 1.54655 6.96646 2.31217 0.285748 4.70901
files/tasks_parameters/ExAp01/sample39.txt 1.34308 6.4161 1.97266 0.251967 4.15231
files/tasks_parameters/ExAp01/sample19.txt 1.65311 8.16711 2.23199 0.308463 5.08334
files/tasks_parameters/ExAp01/sample20.txt 1.39112 7.28549 1.88944 0.25994 4.2837
files/tasks_parameters/ExAp01/sample43.txt 1.35114 6.86804 2.00142 0.25616 4.22142
files/tasks_parameters/ExAp01/sample32.txt 1.50794 8.15663 2.12995 0.281726 4.64274
files/tasks_parameters/ExAp01/sample45.txt 1.49094 7.75184 2.10599 0.274935 4.53082
files/tasks_parameters/ExAp01/sample26.txt 1.409 7.4944 1.88956 0.267248 4.40414
files/tasks_parameters/ExAp01/sample5.txt 1.52739 8.08362 2.09961 0.28454 4.68911
files/tasks_parameters/ExAp01/sample21.txt 1.40487 6.11814 2.17119 0.26143 4.30826
files/tasks_parameters/ExAp01/sample38.txt 1.41018 7.761 1.96293 0.263659 4.34499
files/tasks_parameters/ExAp01/sample1.txt 1.51937 7.83752 2.13261 0.289228 4.76636
files/tasks_parameters/ExAp01/sample15.txt 1.5178 7.37971 2.12057 0.285825 4.71029
files/tasks_parameters/ExAp01/sample24.txt 1.58313 8.28531 2.25272 0.296628 4.88832
files/tasks_parameters/ExAp01/sample3.txt 1.59784 7.33359 2.39135 0.305084 5.02767
files/tasks_parameters/ExAp01/sample6.txt 1.50465 7.09894 2.24425 0.281804 4.64402
files/tasks_parameters/ExAp01/sample30.txt 1.66239 8.17669 2.03701 0.299204 4.93077
files/tasks_parameters/ExAp01/sample42.txt 1.58246 7.70416 2.42413 0.29743 4.90153
files/tasks_parameters/ExAp01/sample4.txt 1.65419 7.41691 2.36261 0.307803 5.07247
files/tasks_parameters/ExAp01/sample28.txt 1.40284 7.0562 2.07657 0.266428 4.39063
files/tasks_parameters/ExAp01/sample18.txt 1.43474 7.60139 2.1377 0.268016 4.4168
files/tasks_parameters/ExAp01/sample35.txt 1.73621 9.66795 2.28028 0.32244 5.31368
files/tasks_parameters/ExAp01/sample47.txt 1.34534 6.84842 2.12104 0.251655 4.14717
files/tasks_parameters/ExAp01/sample49.txt 1.34979 7.1497 2.11412 0.255889 4.21695
files/tasks_parameters/ExAp01/sample41.txt 1.41452 6.59911 2.07359 0.265885 4.38168
