0.11316045896165933
Task0 1 1 1 
Task1 1 1 1 
Task2 1 1 1 
Task3 7 1 1 
Task4 1 1 1 
Task5 1 1 1 
Task6 1 1 1 
Task7 1 3 3 
Task8 1 1 1 
Task9 1 1 1 
Task10 1 1 1 
Task11 1 1 3 
Task12 1 1 1 
Task13 1 1 1 
Task14 1 1 3 
Task15 1 1 3 
Task16 1 1 1 
Task17 1 1 1 
Task18 1 1 1 
Task19 1 1 1 
Task20 1 3 3 
Task21 1 1 1 
Task22 3 1 1 
Task23 3 3 1 
Task24 1 1 1 
Task25 1 7 7 
Task26 1 1 1 
Task27 1 1 3 
Task28 1 1 1 
Task29 1 1 1 
Task30 1 1 1 
Task31 3 1 1 
Task32 1 1 15 
Task33 1 1 3 
Task34 1 1 1 
Task35 1 1 7 
Task36 1 1 1 
Task37 3 1 1 
Task38 3 1 3 
Task39 1 1 1 
Task40 1 1 1 
Task41 1 1 1 
Task42 1 1 3 
Task43 3 1 1 
Task44 1 1 3 
Task45 3 1 7 
Task46 1 1 1 
Task47 1 1 1 
Task48 1 1 1 
Task49 7 3 1 
Task50 1 1 1 
Task51 15 3 7 
Task52 1 1 1 
Task53 1 1 3 
Task54 3 1 1 
Task55 3 1 1 
Task56 1 1 1 
Task57 1 1 1 
Task58 1 1 1 
Task59 1 3 1 
Task60 1 1 7 
Task61 7 1 3 
Task62 3 1 3 
Task63 1 3 1 
Task64 1 1 1 
Task65 1 1 1 
Task66 1 1 1 
Task67 1 3 1 
Task68 1 1 1 
Task69 1 1 1 
Task70 7 3 1 
Task71 3 1 1 
Task72 1 1 3 
Task73 7 1 3 
Task74 3 3 1 
Task75 1 1 1 
Task76 1 1 1 
Task77 3 1 1 
Task78 1 1 1 
Task79 1 3 3 
Task80 1 1 1 
Task81 7 3 3 
Task82 3 1 3 
Task83 1 1 1 
Task84 3 1 1 
Task85 1 1 3 
Task86 1 1 1 
Task87 1 1 1 
Task88 1 1 1 
Task89 3 1 1 
Task90 1 3 1 
Task91 1 1 1 
Task92 1 1 3 
Task93 3 1 1 
Task94 1 1 3 
Task95 1 1 1 
Task96 1 1 1 
Task97 1 1 1 
Task98 1 1 3 
Task99 7 7 1 
