0.1076406888533148
Task0 1 1 1 
Task1 1 1 1 
Task2 3 1 1 
Task3 3 1 1 
Task4 1 3 1 
Task5 3 3 1 
Task6 1 1 1 
Task7 1 1 1 
Task8 1 1 1 
Task9 1 3 1 
Task10 3 1 1 
Task11 1 1 1 
Task12 1 1 1 
Task13 1 1 1 
Task14 3 3 1 
Task15 1 3 1 
Task16 1 1 3 
Task17 1 1 1 
Task18 3 1 3 
Task19 1 1 1 
Task20 1 3 1 
Task21 1 1 1 
Task22 1 1 1 
Task23 1 1 1 
Task24 1 1 31 
Task25 1 1 1 
Task26 1 1 1 
Task27 1 1 1 
Task28 1 3 1 
Task29 3 1 1 
Task30 1 1 1 
Task31 1 1 1 
Task32 1 1 1 
Task33 1 1 1 
Task34 1 1 1 
Task35 1 1 1 
Task36 3 1 1 
Task37 3 1 3 
Task38 1 1 1 
Task39 1 1 1 
Task40 3 1 1 
Task41 1 1 1 
Task42 1 1 1 
Task43 3 1 1 
Task44 1 1 3 
Task45 1 1 1 
Task46 1 1 1 
Task47 1 3 1 
Task48 1 1 1 
Task49 1 1 1 
Task50 1 1 1 
Task51 1 1 1 
Task52 3 1 3 
Task53 1 1 1 
Task54 1 1 1 
Task55 1 1 1 
Task56 7 1 1 
Task57 1 1 1 
Task58 1 1 1 
Task59 1 1 1 
Task60 1 1 1 
Task61 1 1 1 
Task62 1 1 3 
Task63 1 1 1 
Task64 3 1 1 
Task65 1 1 1 
Task66 1 1 1 
Task67 7 1 1 
Task68 3 1 1 
Task69 3 1 3 
Task70 7 7 3 
Task71 3 3 1 
Task72 3 1 1 
Task73 1 1 1 
Task74 1 1 1 
Task75 1 1 1 
Task76 1 3 3 
Task77 1 3 1 
Task78 1 1 3 
Task79 3 1 1 
Task80 1 1 3 
Task81 1 1 1 
Task82 1 1 3 
Task83 1 1 1 
Task84 1 1 1 
Task85 1 7 15 
Task86 1 1 1 
Task87 1 3 3 
Task88 3 1 1 
Task89 3 3 1 
Task90 1 1 1 
Task91 1 3 1 
Task92 1 3 3 
Task93 3 1 1 
Task94 1 1 1 
Task95 1 1 7 
Task96 1 1 1 
Task97 3 1 1 
Task98 63 31 63 
Task99 31 15 15 
