0.12314169059320165
Task0 1 3 1 
Task1 1 1 1 
Task2 3 1 3 
Task3 1 1 1 
Task4 3 1 3 
Task5 1 1 1 
Task6 1 3 1 
Task7 1 1 1 
Task8 3 3 1 
Task9 1 3 1 
Task10 1 1 3 
Task11 1 1 1 
Task12 1 1 1 
Task13 3 1 3 
Task14 3 7 1 
Task15 1 3 1 
Task16 3 1 1 
Task17 3 1 3 
Task18 1 1 3 
Task19 1 1 1 
Task20 1 1 1 
Task21 7 7 1 
Task22 1 3 1 
Task23 1 1 1 
Task24 3 1 1 
Task25 1 1 3 
Task26 3 1 1 
Task27 3 3 1 
Task28 3 1 3 
Task29 1 3 1 
Task30 1 1 1 
Task31 1 1 1 
Task32 1 1 1 
Task33 7 3 1 
Task34 1 1 3 
Task35 1 1 1 
Task36 1 1 1 
Task37 1 1 1 
Task38 3 1 3 
Task39 1 1 1 
Task40 1 1 1 
Task41 7 1 1 
Task42 3 1 1 
Task43 1 1 1 
Task44 1 1 1 
Task45 1 7 3 
Task46 1 3 1 
Task47 1 1 1 
Task48 3 3 1 
Task49 1 1 1 
Task50 1 1 1 
Task51 1 1 3 
Task52 1 1 1 
Task53 1 7 3 
Task54 1 3 3 
Task55 1 1 1 
Task56 1 1 1 
Task57 1 1 1 
Task58 1 1 1 
Task59 3 1 1 
Task60 1 3 1 
Task61 1 1 1 
Task62 1 3 1 
Task63 1 1 3 
Task64 1 7 3 
Task65 3 1 1 
Task66 1 1 1 
Task67 7 7 1 
Task68 1 3 3 
Task69 1 1 1 
Task70 1 1 1 
Task71 1 3 1 
Task72 1 15 7 
Task73 3 1 1 
Task74 1 1 3 
Task75 1 1 1 
Task76 1 3 1 
Task77 1 1 1 
Task78 1 1 1 
Task79 3 3 1 
Task80 1 1 3 
Task81 3 1 1 
Task82 1 1 3 
Task83 3 1 1 
Task84 3 1 1 
Task85 3 1 1 
Task86 1 1 1 
Task87 1 1 1 
Task88 3 3 3 
Task89 1 1 1 
Task90 3 1 3 
Task91 15 31 7 
Task92 7 15 15 
Task93 7 15 7 
Task94 3 1 3 
Task95 1 3 15 
Task96 31 7 7 
Task97 7 7 7 
Task98 7 7 3 
Task99 1 7 3 
