0.1491033083524596
Task0 1 1 1 
Task1 1 1 1 
Task2 3 3 3 
Task3 1 1 3 
Task4 3 1 1 
Task5 1 1 1 
Task6 7 3 3 
Task7 1 1 1 
Task8 1 1 1 
Task9 1 1 1 
Task10 1 1 3 
Task11 7 1 1 
Task12 1 3 3 
Task13 1 1 1 
Task14 1 7 1 
Task15 3 1 1 
Task16 7 7 1 
Task17 1 1 1 
Task18 1 1 1 
Task19 1 3 1 
Task20 1 1 1 
Task21 3 1 1 
Task22 1 1 1 
Task23 1 1 1 
Task24 1 1 3 
Task25 1 1 1 
Task26 1 1 1 
Task27 3 1 3 
Task28 1 1 1 
Task29 1 3 7 
Task30 3 3 1 
Task31 1 1 3 
Task32 1 3 3 
Task33 1 15 1 
Task34 1 1 1 
Task35 1 1 1 
Task36 3 3 1 
Task37 1 3 1 
Task38 1 1 1 
Task39 1 1 1 
Task40 3 3 1 
Task41 1 3 1 
Task42 3 3 1 
Task43 3 1 3 
Task44 1 1 1 
Task45 3 1 1 
Task46 1 1 1 
Task47 63 63 1 
Task48 3 1 1 
Task49 3 1 3 
Task50 1 7 15 
Task51 3 1 1 
Task52 1 1 1 
Task53 1 1 1 
Task54 3 3 3 
Task55 1 1 1 
Task56 1 1 1 
Task57 1 1 1 
Task58 1 3 1 
Task59 1 1 1 
Task60 3 3 1 
Task61 1 15 1 
Task62 7 3 1 
Task63 1 1 1 
Task64 1 1 3 
Task65 1 3 7 
Task66 1 3 1 
Task67 1 1 1 
Task68 1 1 1 
Task69 1 1 3 
Task70 1 1 1 
Task71 3 1 1 
Task72 7 1 1 
Task73 1 1 1 
Task74 1 1 1 
Task75 1 3 3 
Task76 1 3 3 
Task77 1 1 3 
Task78 3 1 3 
Task79 1 1 1 
Task80 1 1 1 
Task81 3 1 1 
Task82 1 1 1 
Task83 1 3 3 
Task84 3 1 1 
Task85 3 1 3 
Task86 3 1 3 
Task87 7 7 1 
Task88 3 3 1 
Task89 1 3 1 
Task90 1 1 1 
Task91 7 1 3 
Task92 1 1 1 
Task93 3 7 1 
Task94 3 3 7 
Task95 3 1 1 
Task96 1 1 3 
Task97 1 1 3 
Task98 1 1 1 
Task99 1 1 3 
