0.12018420330858051
Task0 1 3 1 
Task1 3 7 1 
Task2 1 1 1 
Task3 1 1 1 
Task4 1 3 3 
Task5 1 1 1 
Task6 1 3 1 
Task7 1 1 1 
Task8 1 1 1 
Task9 1 1 1 
Task10 1 3 3 
Task11 3 3 1 
Task12 1 1 1 
Task13 1 1 1 
Task14 1 1 1 
Task15 1 1 1 
Task16 1 3 1 
Task17 1 1 3 
Task18 1 1 1 
Task19 1 1 3 
Task20 1 1 1 
Task21 3 3 1 
Task22 7 1 3 
Task23 7 1 1 
Task24 1 1 1 
Task25 3 1 3 
Task26 1 1 1 
Task27 1 1 1 
Task28 3 3 1 
Task29 1 1 1 
Task30 1 1 1 
Task31 1 1 1 
Task32 1 3 3 
Task33 1 1 1 
Task34 3 3 7 
Task35 3 7 1 
Task36 1 1 1 
Task37 3 1 1 
Task38 3 1 1 
Task39 3 1 1 
Task40 1 1 1 
Task41 1 1 3 
Task42 1 1 1 
Task43 1 1 1 
Task44 1 3 1 
Task45 1 1 1 
Task46 1 1 1 
Task47 1 1 1 
Task48 1 3 1 
Task49 1 3 3 
Task50 1 1 3 
Task51 1 1 1 
Task52 1 1 1 
Task53 1 1 7 
Task54 1 1 1 
Task55 1 1 1 
Task56 1 1 1 
Task57 1 3 1 
Task58 3 3 1 
Task59 1 1 1 
Task60 1 1 1 
Task61 1 1 1 
Task62 1 1 1 
Task63 3 1 1 
Task64 1 1 7 
Task65 1 3 1 
Task66 1 7 1 
Task67 1 1 1 
Task68 7 3 1 
Task69 1 1 1 
Task70 3 1 3 
Task71 1 1 1 
Task72 7 1 1 
Task73 1 1 1 
Task74 255 255 31 
Task75 1 1 1 
Task76 1 1 3 
Task77 1 3 1 
Task78 7 1 7 
Task79 1 1 1 
Task80 3 3 1 
Task81 1 1 3 
Task82 1 1 1 
Task83 1 1 1 
Task84 3 7 1 
Task85 1 1 1 
Task86 3 3 1 
Task87 3 1 7 
Task88 1 1 3 
Task89 3 1 1 
Task90 1 1 1 
Task91 1 1 1 
Task92 3 3 3 
Task93 3 1 1 
Task94 1 1 1 
Task95 1 1 1 
Task96 1 1 1 
Task97 1 1 1 
Task98 1 1 1 
Task99 1 1 3 
