files/tasks_parameters/ExAp01/sample8.txt 1.08421 3.76817 4.3855 0.450105 31.0661
files/tasks_parameters/ExAp01/sample12.txt 1.57642 5.03638 5.18776 0.610564 42.1409
files/tasks_parameters/ExAp01/sample2.txt 1.50854 4.58991 5.64606 0.613877 42.3695
files/tasks_parameters/ExAp01/sample44.txt 1.2932 3.77401 5.66946 0.551838 38.0876
files/tasks_parameters/ExAp01/sample27.txt 1.30619 4.13937 5.56136 0.55779 38.4984
files/tasks_parameters/ExAp01/sample17.txt 1.20947 3.76163 5.38341 0.520991 35.9586
files/tasks_parameters/ExAp01/sample9.txt 1.17735 3.69889 5.2981 0.511699 35.3173
files/tasks_parameters/ExAp01/sample34.txt 1.17742 3.52435 5.83741 0.49187 33.9487
files/tasks_parameters/ExAp01/sample40.txt 1.169 4.06185 5.0335 0.496884 34.2947
files/tasks_parameters/ExAp01/sample33.txt 1.56458 4.82091 5.83886 0.651963 44.9982
files/tasks_parameters/ExAp01/sample48.txt 1.14218 4.01134 5.07085 0.447927 30.9158
files/tasks_parameters/ExAp01/sample29.txt 1.54078 4.20847 5.0406 0.643694 44.4275
files/tasks_parameters/ExAp01/sample11.txt 1.3362 3.94699 5.29198 0.557276 38.463
files/tasks_parameters/ExAp01/sample14.txt 1.0973 3.54059 4.58345 0.466713 32.2124
files/tasks_parameters/ExAp01/sample0.txt 1.53414 4.82755 4.90216 0.623551 43.0372
files/tasks_parameters/ExAp01/sample7.txt 1.1774 3.60766 5.11185 0.509566 35.17
files/tasks_parameters/ExAp01/sample23.txt 1.45412 3.81403 5.45799 0.582911 40.2323
files/tasks_parameters/ExAp01/sample13.txt 1.46231 4.8894 5.26818 0.624499 43.1027
files/tasks_parameters/ExAp01/sample22.txt 1.29217 3.76156 4.95746 0.534216 36.8714
files/tasks_parameters/ExAp01/sample25.txt 0.989115 2.94144 4.92622 0.403639 27.859
files/tasks_parameters/ExAp01/sample36.txt 1.20114 3.56164 4.5806 0.501799 34.6339
files/tasks_parameters/ExAp01/sample46.txt 1.26681 3.84833 4.7121 0.530701 36.6288
files/tasks_parameters/ExAp01/sample31.txt 1.13511 3.764 5.08385 0.479734 33.1111
files/tasks_parameters/ExAp01/sample37.txt 1.52576 4.43254 5.65111 0.65143 44.9615
files/tasks_parameters/ExAp01/sample16.txt 1.24877 4.49741 4.8895 0.509171 35.1428
files/tasks_parameters/ExAp01/sample10.txt 1.37558 3.87086 6.07511 0.60993 42.0971
files/tasks_parameters/ExAp01/sample39.txt 1.09165 3.66299 4.54281 0.463671 32.0024
files/tasks_parameters/ExAp01/sample19.txt 1.50917 3.86694 5.14047 0.615987 42.5152
files/tasks_parameters/ExAp01/sample20.txt 1.38802 4.09945 5.13368 0.580369 40.0568
files/tasks_parameters/ExAp01/sample43.txt 1.21067 3.75825 5.55698 0.530892 36.642
files/tasks_parameters/ExAp01/sample32.txt 1.51535 4.0352 5.29178 0.587643 40.5589
files/tasks_parameters/ExAp01/sample45.txt 1.24435 3.94578 4.87833 0.541081 37.3452
files/tasks_parameters/ExAp01/sample26.txt 1.12208 3.50998 4.55035 0.474009 32.7159
files/tasks_parameters/ExAp01/sample5.txt 1.42328 4.00994 5.27725 0.587681 40.5615
files/tasks_parameters/ExAp01/sample21.txt 0.938726 2.8974 4.54677 0.430037 29.681
files/tasks_parameters/ExAp01/sample38.txt 1.18042 3.56689 4.78573 0.492366 33.9829
files/tasks_parameters/ExAp01/sample1.txt 1.19628 3.69002 4.55048 0.481074 33.2035
files/tasks_parameters/ExAp01/sample15.txt 1.20629 3.73223 5.42493 0.524964 36.2328
files/tasks_parameters/ExAp01/sample24.txt 1.37392 4.18053 5.40377 0.542575 37.4483
files/tasks_parameters/ExAp01/sample3.txt 1.17772 3.70547 4.7118 0.470503 32.4739
files/tasks_parameters/ExAp01/sample6.txt 1.4578 4.07521 5.71419 0.626702 43.2548
files/tasks_parameters/ExAp01/sample30.txt 1.49422 3.97446 5.82388 0.626709 43.2552
files/tasks_parameters/ExAp01/sample42.txt 1.30329 4.44207 5.58473 0.537025 37.0652
files/tasks_parameters/ExAp01/sample4.txt 1.28987 3.92181 4.49751 0.556974 38.4421
files/tasks_parameters/ExAp01/sample28.txt 1.06951 3.13496 4.88321 0.444588 30.6853
files/tasks_parameters/ExAp01/sample18.txt 1.29874 3.95301 4.52898 0.537438 37.0937
files/tasks_parameters/ExAp01/sample35.txt 2.04558 5.75923 6.25034 0.752488 51.9364
files/tasks_parameters/ExAp01/sample47.txt 1.19041 3.44018 5.14289 0.540033 37.2729
files/tasks_parameters/ExAp01/sample49.txt 1.16142 3.38981 4.72409 0.493041 34.0295
files/tasks_parameters/ExAp01/sample41.txt 1.14347 3.58692 5.27252 0.492391 33.9846
