files/tasks_parameters/ExAp01/sample8.txt 4.31336 6.77015 2.19458 0.288816 7.07706
files/tasks_parameters/ExAp01/sample12.txt 5.13602 9.58351 2.46081 0.337498 8.26995
files/tasks_parameters/ExAp01/sample2.txt 4.67328 8.44418 2.50701 0.319127 7.81979
files/tasks_parameters/ExAp01/sample44.txt 4.35839 6.96299 2.23089 0.28229 6.91715
files/tasks_parameters/ExAp01/sample27.txt 4.32666 7.74306 2.16676 0.28602 7.00853
files/tasks_parameters/ExAp01/sample17.txt 4.26628 7.35053 2.25579 0.292348 7.16358
files/tasks_parameters/ExAp01/sample9.txt 4.41083 6.89392 2.21068 0.282399 6.9198
files/tasks_parameters/ExAp01/sample34.txt 4.41776 6.62788 2.3772 0.297742 7.29576
files/tasks_parameters/ExAp01/sample40.txt 4.24793 7.75686 2.17534 0.285619 6.99872
files/tasks_parameters/ExAp01/sample33.txt 4.80283 8.14826 2.6463 0.338073 8.28403
files/tasks_parameters/ExAp01/sample48.txt 4.17813 7.64107 2.14272 0.270011 6.61626
files/tasks_parameters/ExAp01/sample29.txt 3.47471 7.139 1.93769 0.286306 7.01554
files/tasks_parameters/ExAp01/sample11.txt 4.25035 6.88688 2.12981 0.280008 6.86123
files/tasks_parameters/ExAp01/sample14.txt 3.75714 6.11983 1.97599 0.247458 6.06362
files/tasks_parameters/ExAp01/sample0.txt 4.46508 8.2738 2.14256 0.289132 7.08479
files/tasks_parameters/ExAp01/sample7.txt 4.05394 6.87011 2.05821 0.269886 6.61318
files/tasks_parameters/ExAp01/sample23.txt 4.51788 6.52032 2.38087 0.291712 7.148
files/tasks_parameters/ExAp01/sample13.txt 4.44274 8.73247 2.33415 0.295393 7.2382
files/tasks_parameters/ExAp01/sample22.txt 4.29095 6.9777 2.28948 0.283979 6.95853
files/tasks_parameters/ExAp01/sample25.txt 3.89537 6.23444 2.2122 0.267298 6.54977
files/tasks_parameters/ExAp01/sample36.txt 3.88082 6.6174 1.9458 0.253823 6.21958
files/tasks_parameters/ExAp01/sample46.txt 5.09169 7.42369 2.49128 0.327273 8.01938
files/tasks_parameters/ExAp01/sample31.txt 3.9092 7.22028 2.13584 0.25377 6.21829
files/tasks_parameters/ExAp01/sample37.txt 4.46191 8.90704 2.16981 0.295708 7.24593
files/tasks_parameters/ExAp01/sample16.txt 3.79506 8.18243 1.88294 0.24945 6.11243
files/tasks_parameters/ExAp01/sample10.txt 4.33613 6.96646 2.31217 0.285748 7.00187
files/tasks_parameters/ExAp01/sample39.txt 3.76535 6.4161 1.97266 0.251967 6.17411
files/tasks_parameters/ExAp01/sample19.txt 4.70132 8.16711 2.23199 0.308463 7.55847
files/tasks_parameters/ExAp01/sample20.txt 3.99603 7.28549 1.88944 0.25994 6.36948
files/tasks_parameters/ExAp01/sample43.txt 3.83693 6.86804 2.00142 0.25616 6.27686
files/tasks_parameters/ExAp01/sample32.txt 4.28753 8.15663 2.12995 0.281726 6.90333
files/tasks_parameters/ExAp01/sample45.txt 4.2663 7.75184 2.10599 0.274935 6.73691
files/tasks_parameters/ExAp01/sample26.txt 4.05975 7.4944 1.88956 0.267248 6.54855
files/tasks_parameters/ExAp01/sample5.txt 4.38752 8.08362 2.09961 0.28454 6.97228
files/tasks_parameters/ExAp01/sample21.txt 3.9507 6.11814 2.17119 0.26143 6.40598
files/tasks_parameters/ExAp01/sample38.txt 4.15276 7.761 1.96293 0.263659 6.46061
files/tasks_parameters/ExAp01/sample1.txt 4.4344 7.83752 2.13261 0.289228 7.08715
files/tasks_parameters/ExAp01/sample15.txt 4.47147 7.37971 2.12057 0.285825 7.00377
files/tasks_parameters/ExAp01/sample24.txt 4.49219 8.28531 2.25272 0.296628 7.26848
files/tasks_parameters/ExAp01/sample3.txt 4.71957 7.33359 2.39135 0.305084 7.47569
files/tasks_parameters/ExAp01/sample6.txt 4.39417 7.09894 2.24425 0.281804 6.90524
files/tasks_parameters/ExAp01/sample30.txt 4.39171 8.17669 2.03701 0.299204 7.3316
files/tasks_parameters/ExAp01/sample42.txt 4.57299 7.70416 2.42413 0.29743 7.28812
files/tasks_parameters/ExAp01/sample4.txt 4.72398 7.41691 2.36261 0.307803 7.54229
files/tasks_parameters/ExAp01/sample28.txt 4.12175 7.0562 2.07657 0.266428 6.52846
files/tasks_parameters/ExAp01/sample18.txt 4.09115 7.60139 2.1377 0.268016 6.56737
files/tasks_parameters/ExAp01/sample35.txt 4.89614 9.66795 2.28028 0.32244 7.90095
files/tasks_parameters/ExAp01/sample47.txt 3.85814 6.84842 2.12104 0.251655 6.16646
files/tasks_parameters/ExAp01/sample49.txt 3.77511 7.1497 2.11412 0.255889 6.27021
files/tasks_parameters/ExAp01/sample41.txt 4.14324 6.59911 2.07359 0.265885 6.51516
