0.357806737
Task0 63 15 63 
Task1 63 7 31 
Task2 31 63 7 
Task3 31 31 127 
Task4 255 255 255 
Task5 127 15 63 
Task6 31 255 7 
Task7 63 3 1 
Task8 255 255 31 
Task9 255 31 31 
Task10 255 15 1 
Task11 15 63 7 
Task12 255 31 15 
Task13 15 255 63 
Task14 255 255 127 
Task15 1 15 255 
Task16 7 15 63 
Task17 7 255 15 
Task18 7 255 31 
Task19 3 255 31 
Task20 255 255 127 
Task21 1 31 3 
Task22 255 3 63 
Task23 3 15 255 
Task24 15 255 15 
Task25 31 15 15 
Task26 63 31 63 
Task27 31 255 3 
Task28 63 31 31 
Task29 3 7 255 
Task30 127 63 63 
Task31 255 7 3 
Task32 3 15 31 
Task33 63 255 127 
Task34 255 15 7 
Task35 127 1 255 
Task36 7 3 255 
Task37 63 63 255 
Task38 255 3 1 
Task39 255 255 255 
Task40 1 255 7 
Task41 255 1 7 
Task42 63 63 127 
Task43 63 127 255 
Task44 15 7 255 
Task45 63 31 15 
Task46 255 1 31 
Task47 63 63 63 
Task48 255 255 127 
Task49 7 255 255 
Task50 15 15 255 
Task51 15 31 63 
Task52 31 7 255 
Task53 1 31 1 
Task54 255 63 63 
Task55 63 127 127 
Task56 63 127 15 
Task57 127 255 63 
Task58 63 127 127 
Task59 3 255 31 
Task60 63 31 15 
Task61 31 63 3 
Task62 127 7 127 
Task63 15 63 15 
Task64 7 255 63 
Task65 63 63 31 
Task66 255 31 31 
Task67 31 7 15 
Task68 1 255 7 
Task69 15 63 7 
Task70 15 15 63 
Task71 15 255 3 
Task72 255 63 1 
Task73 7 31 3 
Task74 63 31 127 
Task75 255 15 7 
Task76 31 255 15 
Task77 255 31 31 
Task78 63 127 255 
Task79 63 15 255 
Task80 3 31 15 
Task81 127 31 63 
Task82 7 3 31 
Task83 1 255 7 
Task84 7 3 63 
Task85 63 255 127 
Task86 127 63 127 
Task87 15 31 15 
Task88 15 127 31 
Task89 255 255 127 
Task90 127 255 15 
Task91 31 255 31 
Task92 255 3 31 
Task93 31 15 3 
Task94 255 1 7 
Task95 255 31 127 
Task96 31 127 31 
Task97 255 63 255 
Task98 127 127 31 
Task99 63 1 127 
