files/tasks_parameters/ExAp01/sample8.txt 1.3783 6.77015 2.19458 0.288816 6.2238
files/tasks_parameters/ExAp01/sample12.txt 1.60611 9.58351 2.46081 0.337498 7.27287
files/tasks_parameters/ExAp01/sample2.txt 1.5132 8.44418 2.50701 0.319127 6.87698
files/tasks_parameters/ExAp01/sample44.txt 1.35053 6.96299 2.23089 0.28229 6.08317
files/tasks_parameters/ExAp01/sample27.txt 1.36904 7.74306 2.16676 0.28602 6.16354
files/tasks_parameters/ExAp01/sample17.txt 1.39978 7.35053 2.25579 0.292348 6.2999
files/tasks_parameters/ExAp01/sample9.txt 1.33242 6.89392 2.21068 0.282399 6.08551
files/tasks_parameters/ExAp01/sample34.txt 1.41588 6.62788 2.3772 0.297742 6.41614
files/tasks_parameters/ExAp01/sample40.txt 1.36408 7.75686 2.17534 0.285619 6.15491
files/tasks_parameters/ExAp01/sample33.txt 1.61277 8.14826 2.6463 0.338073 7.28526
files/tasks_parameters/ExAp01/sample48.txt 1.28545 7.64107 2.14272 0.270011 5.81856
files/tasks_parameters/ExAp01/sample29.txt 1.36527 7.139 1.93769 0.286306 6.1697
files/tasks_parameters/ExAp01/sample11.txt 1.33712 6.88688 2.12981 0.280008 6.034
files/tasks_parameters/ExAp01/sample14.txt 1.16979 6.11983 1.97599 0.247458 5.33255
files/tasks_parameters/ExAp01/sample0.txt 1.35673 8.2738 2.14256 0.289132 6.2306
files/tasks_parameters/ExAp01/sample7.txt 1.27388 6.87011 2.05821 0.269886 5.81586
files/tasks_parameters/ExAp01/sample23.txt 1.38898 6.52032 2.38087 0.291712 6.28619
files/tasks_parameters/ExAp01/sample13.txt 1.40157 8.73247 2.33415 0.295393 6.36552
files/tasks_parameters/ExAp01/sample22.txt 1.35134 6.9777 2.28948 0.283979 6.11957
files/tasks_parameters/ExAp01/sample25.txt 1.26246 6.23444 2.2122 0.267298 5.76009
files/tasks_parameters/ExAp01/sample36.txt 1.21946 6.6174 1.9458 0.253823 5.46971
files/tasks_parameters/ExAp01/sample46.txt 1.57946 7.42369 2.49128 0.327273 7.05252
files/tasks_parameters/ExAp01/sample31.txt 1.22442 7.22028 2.13584 0.25377 5.46857
files/tasks_parameters/ExAp01/sample37.txt 1.41842 8.90704 2.16981 0.295708 6.37232
files/tasks_parameters/ExAp01/sample16.txt 1.17877 8.18243 1.88294 0.24945 5.37548
files/tasks_parameters/ExAp01/sample10.txt 1.36089 6.96646 2.31217 0.285748 6.15768
files/tasks_parameters/ExAp01/sample39.txt 1.19163 6.4161 1.97266 0.251967 5.42972
files/tasks_parameters/ExAp01/sample19.txt 1.46911 8.16711 2.23199 0.308463 6.64717
files/tasks_parameters/ExAp01/sample20.txt 1.23379 7.28549 1.88944 0.25994 5.60153
files/tasks_parameters/ExAp01/sample43.txt 1.20454 6.86804 2.00142 0.25616 5.52008
files/tasks_parameters/ExAp01/sample32.txt 1.32851 8.15663 2.12995 0.281726 6.07102
files/tasks_parameters/ExAp01/sample45.txt 1.31352 7.75184 2.10599 0.274935 5.92467
files/tasks_parameters/ExAp01/sample26.txt 1.27381 7.4944 1.88956 0.267248 5.75902
files/tasks_parameters/ExAp01/sample5.txt 1.34927 8.08362 2.09961 0.28454 6.13166
files/tasks_parameters/ExAp01/sample21.txt 1.23906 6.11814 2.17119 0.26143 5.63364
files/tasks_parameters/ExAp01/sample38.txt 1.25704 7.761 1.96293 0.263659 5.68168
files/tasks_parameters/ExAp01/sample1.txt 1.37059 7.83752 2.13261 0.289228 6.23268
files/tasks_parameters/ExAp01/sample15.txt 1.35944 7.37971 2.12057 0.285825 6.15935
files/tasks_parameters/ExAp01/sample24.txt 1.41912 8.28531 2.25272 0.296628 6.39215
files/tasks_parameters/ExAp01/sample3.txt 1.46832 7.33359 2.39135 0.305084 6.57437
files/tasks_parameters/ExAp01/sample6.txt 1.33158 7.09894 2.24425 0.281804 6.0727
files/tasks_parameters/ExAp01/sample30.txt 1.43353 8.17669 2.03701 0.299204 6.44766
files/tasks_parameters/ExAp01/sample42.txt 1.41675 7.70416 2.42413 0.29743 6.40942
files/tasks_parameters/ExAp01/sample4.txt 1.46537 7.41691 2.36261 0.307803 6.63295
files/tasks_parameters/ExAp01/sample28.txt 1.25643 7.0562 2.07657 0.266428 5.74135
files/tasks_parameters/ExAp01/sample18.txt 1.27064 7.60139 2.1377 0.268016 5.77557
files/tasks_parameters/ExAp01/sample35.txt 1.53468 9.66795 2.28028 0.32244 6.94836
files/tasks_parameters/ExAp01/sample47.txt 1.19379 6.84842 2.12104 0.251655 5.42299
files/tasks_parameters/ExAp01/sample49.txt 1.22274 7.1497 2.11412 0.255889 5.51424
files/tasks_parameters/ExAp01/sample41.txt 1.25973 6.59911 2.07359 0.265885 5.72965
