0 14
0 16
0 18
2 15
2 18
3 13
3 15
3 16
3 17
4 16
4 17
4 18
5 15
5 16
5 17
5 19
6 16
7 16
8 14
8 15
8 16
8 17
9 14
9 15
9 17
9 17
9 19
10 14
10 15
11 14
11 17
11 19
12 14
13 26
13 27
13 28
13 30
13 32
13 33
13 34
13 35
14 21
14 23
14 25
14 27
14 28
14 30
14 31
14 34
15 27
15 31
15 33
16 22
16 27
16 29
17 22
17 25
17 33
18 20
18 23
18 25
19 20
19 24
19 29
19 30
19 33
19 34
20 40
20 48
20 50
20 52
21 39
21 42
21 43
21 45
21 52
22 36
22 39
22 42
22 46
22 54
23 36
23 41
23 42
23 43
23 48
23 51
24 38
24 42
24 48
24 50
25 38
25 48
25 51
25 52
25 54
26 36
26 39
26 40
26 41
26 51
26 53
27 40
27 44
27 53
28 42
28 46
28 48
28 51
28 52
28 54
29 37
29 38
29 41
29 52
29 54
29 55
30 39
30 40
30 41
30 43
30 44
30 47
30 54
31 36
31 38
31 40
31 45
31 47
31 48
31 50
32 36
32 40
32 40
32 48
32 50
33 39
33 42
33 46
33 49
33 51
33 52
33 54
34 38
34 39
34 44
34 45
34 47
34 49
35 38
35 39
35 41
35 43
36 59
37 67
37 68
38 70
39 60
39 69
39 71
40 61
40 69
40 71
41 58
41 59
41 65
41 71
42 64
42 65
42 67
43 56
44 56
44 61
44 69
44 70
45 61
46 56
46 61
46 69
47 56
48 60
48 61
48 62
48 70
49 57
49 59
49 61
49 62
49 70
50 56
50 58
50 59
50 63
50 67
51 59
51 64
51 71
52 68
52 69
53 62
53 66
53 67
54 58
54 61
54 62
54 64
54 66
54 69
54 71
55 64
55 66
55 67
56 77
56 79
57 72
57 76
57 77
57 79
57 80
58 75
58 76
58 79
59 75
59 79
60 75
60 77
60 79
61 74
61 75
61 76
62 76
62 77
62 78
63 77
64 76
64 78
65 75
65 77
66 75
66 76
66 78
67 75
67 76
68 75
68 76
68 79
69 73
69 78
69 79
71 79
72 82
72 90
72 93
72 95
73 84
73 88
73 89
73 90
73 93
74 82
74 83
74 84
74 85
74 87
74 94
75 82
75 83
75 84
75 85
75 91
76 85
76 87
76 89
76 93
76 95
77 81
77 85
77 87
77 89
77 91
77 92
77 93
77 95
78 81
78 85
78 86
78 87
78 91
78 95
78 96
79 81
79 91
79 94
80 82
80 88
80 90
80 94
80 95
81 97
82 99
83 97
83 99
85 97
85 99
88 98
89 98
90 99
91 97
91 99
92 99
94 98
94 99
95 99
96 97
