0 16
0 18
0 24
1 13
1 15
1 17
1 19
1 20
1 21
1 23
1 25
1 26
2 22
2 23
2 25
2 26
3 13
3 15
3 17
3 19
3 24
3 25
3 26
4 18
4 22
4 23
5 16
5 18
5 20
5 23
5 24
5 26
5 27
6 16
6 17
6 18
6 19
6 20
6 21
6 27
7 15
7 16
7 17
7 18
7 20
7 21
7 23
8 15
8 16
8 24
8 25
9 15
9 16
9 24
10 14
10 17
10 19
10 22
10 25
10 26
11 15
11 18
11 19
11 20
11 21
11 22
11 25
12 16
12 18
12 24
12 26
12 27
13 31
13 39
14 28
14 32
14 33
14 34
14 37
15 28
15 29
15 33
15 34
15 35
15 40
15 44
16 31
16 35
16 39
16 42
17 33
17 34
17 35
17 42
18 39
18 40
18 44
19 39
19 40
19 42
20 35
20 40
21 29
21 33
22 28
22 30
22 31
22 33
22 35
22 40
22 41
23 28
23 29
23 31
23 33
23 34
23 35
23 40
23 44
24 29
24 29
24 31
24 33
24 34
24 37
24 39
24 40
24 42
25 29
25 31
25 35
25 36
25 39
25 40
25 43
26 29
26 38
27 29
27 32
27 34
27 43
28 45
28 47
28 51
28 54
29 51
29 60
30 47
30 49
30 51
30 52
30 53
31 47
31 49
31 51
31 54
32 47
32 55
32 59
33 45
33 50
33 53
34 45
34 47
34 50
34 53
35 50
35 52
35 54
35 58
36 46
36 47
36 52
36 58
36 60
37 50
37 55
37 58
37 59
38 45
38 49
38 53
38 54
38 55
38 57
38 58
39 48
39 55
39 56
40 48
40 49
40 55
40 56
40 58
40 59
40 60
41 45
41 46
41 48
41 49
41 50
41 51
41 53
41 55
41 56
41 59
42 45
42 46
42 50
42 54
42 59
43 49
43 54
43 55
43 59
44 45
44 50
44 51
44 52
44 53
44 54
44 55
45 63
45 65
45 69
45 70
45 71
45 75
46 65
46 68
46 73
46 74
47 61
47 62
47 63
47 66
47 69
47 74
47 77
48 62
48 67
48 72
48 74
48 75
48 76
49 66
49 68
49 70
49 71
49 73
49 75
49 77
50 69
50 70
50 71
50 71
50 72
51 62
51 63
51 68
52 62
52 75
53 63
53 69
53 72
54 62
54 64
54 66
54 68
54 71
54 74
54 75
55 63
55 64
55 65
55 66
55 68
55 69
55 71
55 72
55 76
56 62
56 63
56 66
56 69
56 73
56 76
57 62
57 63
57 67
57 69
57 71
57 74
57 76
57 77
58 62
58 68
58 73
59 65
59 68
59 73
59 74
59 76
59 77
60 65
60 67
60 70
60 73
60 76
61 78
61 80
61 83
61 87
61 89
61 96
62 78
62 80
62 86
62 88
62 89
62 93
63 78
63 87
63 88
63 89
63 92
63 97
64 78
64 82
64 85
64 88
64 97
65 78
65 79
65 80
65 81
65 82
65 83
65 87
65 93
65 95
65 96
66 83
66 90
66 97
67 78
67 83
67 86
67 88
67 94
67 95
67 98
68 79
68 85
68 94
68 95
68 96
68 97
69 79
69 82
69 88
70 86
70 90
70 91
70 98
71 78
71 81
71 83
71 87
71 90
71 91
71 92
71 94
71 97
72 81
72 86
72 89
72 93
72 94
73 81
73 82
73 84
73 86
73 88
73 89
73 90
73 94
73 95
73 96
74 86
74 88
74 89
74 90
74 94
74 95
75 89
75 90
75 95
75 96
75 97
76 79
76 89
76 90
76 94
77 81
77 91
77 92
77 93
77 94
77 95
77 96
81 99
83 99
