0 14
2 17
3 11
4 13
4 17
4 20
4 21
5 11
5 12
5 16
5 18
5 22
6 11
6 14
6 15
6 17
6 18
7 11
7 17
7 18
7 19
8 11
8 14
8 17
8 18
8 21
9 11
9 16
9 21
10 13
10 14
11 24
11 25
11 28
12 23
12 26
12 28
12 29
13 28
13 30
14 23
14 25
14 28
14 30
15 23
15 25
15 29
15 30
16 27
16 30
17 30
18 25
18 27
18 28
18 30
19 26
19 28
19 29
21 25
22 24
22 25
22 26
23 34
23 35
23 36
24 32
24 35
24 38
24 40
26 36
27 32
27 33
27 35
27 36
27 37
28 34
28 35
28 36
28 39
29 31
29 32
30 31
30 33
30 34
30 37
31 43
31 49
32 44
33 44
33 49
34 47
34 48
35 44
35 48
36 41
36 44
36 45
36 47
36 48
37 41
37 42
37 48
38 41
38 43
38 48
39 43
39 47
39 49
40 41
40 42
40 43
40 46
40 47
40 49
41 51
41 52
41 53
41 54
41 55
41 57
41 59
42 52
42 57
43 50
43 52
43 54
43 56
44 50
44 53
44 56
44 57
44 59
45 50
45 52
45 53
45 56
46 53
46 54
46 56
47 56
47 59
48 50
49 51
49 52
49 54
49 58
49 59
50 60
50 67
50 74
50 79
50 80
51 65
51 68
51 74
51 75
51 76
51 79
52 61
52 69
52 71
52 74
52 75
52 76
52 77
52 79
52 80
53 60
53 62
53 64
53 66
53 67
53 68
53 69
53 71
53 74
53 75
53 77
53 80
54 62
54 63
54 67
54 68
54 69
54 75
54 76
55 62
55 63
55 66
55 69
55 71
55 73
55 76
55 77
56 63
56 63
56 64
56 67
56 70
56 73
57 63
57 64
57 78
57 79
58 61
58 62
58 69
58 70
58 72
58 73
58 77
59 62
59 64
59 73
59 74
59 78
59 79
60 85
60 87
60 88
60 92
60 93
60 96
60 99
61 87
61 97
62 81
62 85
62 86
62 88
62 95
62 96
62 98
63 88
63 94
63 97
64 99
65 87
65 92
65 97
66 81
66 82
66 84
66 86
66 96
66 97
67 81
67 86
67 93
68 82
68 85
68 98
68 99
69 85
69 87
69 88
69 89
70 84
70 87
70 90
70 95
70 96
70 98
71 81
71 84
71 87
71 88
71 95
71 97
72 81
72 83
72 85
72 92
72 97
72 99
73 82
73 85
73 86
73 92
73 97
74 81
74 84
74 85
74 86
74 92
74 93
74 94
74 95
74 96
74 98
75 85
75 86
75 95
75 99
76 81
76 84
76 85
76 88
76 91
76 98
76 99
77 81
77 83
77 84
77 85
77 94
77 95
77 99
78 81
78 82
78 84
78 94
78 96
78 98
79 81
79 92
79 94
79 97
80 81
80 85
80 86
80 87
80 94
80 96
80 97
80 98
80 99
