0.31596734
Task0 15 15 15 
Task1 7 31 15 
Task2 63 31 3 
Task3 7 3 31 
Task4 3 7 31 
Task5 31 63 3 
Task6 7 63 15 
Task7 3 15 3 
Task8 31 1 3 
Task9 31 31 1 
Task10 15 15 15 
Task11 31 7 63 
Task12 63 63 63 
Task13 3 15 3 
Task14 63 31 3 
Task15 31 15 31 
Task16 1 3 31 
Task17 15 3 15 
Task18 1 15 63 
Task19 15 31 63 
Task20 15 15 3 
Task21 31 3 7 
Task22 31 7 15 
Task23 31 15 15 
Task24 15 15 7 
Task25 31 15 15 
Task26 7 3 15 
Task27 15 1 15 
Task28 1 15 3 
Task29 127 127 255 
Task30 3 15 31 
Task31 15 15 31 
Task32 3 3 15 
Task33 3 31 3 
Task34 3 31 15 
Task35 3 7 31 
Task36 15 15 15 
Task37 15 7 7 
Task38 255 255 127 
Task39 3 3 15 
Task40 15 15 3 
Task41 31 15 31 
Task42 127 7 255 
Task43 3 31 7 
Task44 15 1 15 
Task45 31 15 1 
Task46 1 15 31 
Task47 3 63 15 
Task48 7 1 15 
Task49 31 15 15 
Task50 3 15 15 
Task51 15 7 31 
Task52 15 31 31 
Task53 7 15 63 
Task54 15 3 3 
Task55 1 31 15 
Task56 63 31 15 
Task57 7 1 63 
Task58 127 63 63 
Task59 3 31 7 
Task60 15 15 31 
Task61 3 15 15 
Task62 31 63 7 
Task63 1 15 3 
Task64 15 15 31 
Task65 15 3 7 
Task66 1 3 31 
Task67 15 31 1 
Task68 15 1 1 
Task69 15 1 7 
Task70 255 7 127 
Task71 15 7 31 
Task72 1 3 15 
Task73 31 7 3 
Task74 1 15 7 
Task75 7 15 31 
Task76 63 255 63 
Task77 31 1 7 
Task78 63 7 15 
Task79 31 31 3 
Task80 1 3 15 
Task81 31 1 7 
Task82 7 31 7 
Task83 15 15 31 
Task84 63 127 63 
Task85 3 1 15 
Task86 1 31 15 
Task87 7 1 15 
Task88 31 7 31 
Task89 15 3 7 
Task90 15 1 31 
Task91 7 31 1 
Task92 31 3 15 
Task93 7 1 63 
Task94 15 31 1 
Task95 31 3 1 
Task96 31 15 1 
Task97 15 1 7 
Task98 7 15 31 
Task99 31 15 63 
