files/tasks_parameters/ExAp01/sample8.txt 0.775108 3.15778 1.5595 0.203411 4.33076
files/tasks_parameters/ExAp01/sample12.txt 0.810076 3.94962 1.6705 0.207924 4.42684
files/tasks_parameters/ExAp01/sample2.txt 0.766985 3.78275 1.74131 0.200098 4.26021
files/tasks_parameters/ExAp01/sample44.txt 0.686719 3.59825 1.65317 0.200005 4.25824
files/tasks_parameters/ExAp01/sample27.txt 0.709492 3.45743 1.5148 0.182129 3.87764
files/tasks_parameters/ExAp01/sample17.txt 0.768416 2.77299 1.44514 0.14646 3.11823
files/tasks_parameters/ExAp01/sample9.txt 0.704189 2.99933 1.451 0.177444 3.77789
files/tasks_parameters/ExAp01/sample34.txt 0.809445 3.02928 1.58429 0.157984 3.36358
files/tasks_parameters/ExAp01/sample40.txt 0.747968 3.86889 1.52122 0.168379 3.58491
files/tasks_parameters/ExAp01/sample33.txt 0.783971 3.63695 1.71905 0.199765 4.25313
files/tasks_parameters/ExAp01/sample48.txt 0.670878 3.39061 1.49062 0.154728 3.29427
files/tasks_parameters/ExAp01/sample29.txt 0.762881 3.30472 1.38739 0.223868 4.76631
files/tasks_parameters/ExAp01/sample11.txt 0.707448 3.10585 1.41612 0.174079 3.70625
files/tasks_parameters/ExAp01/sample14.txt 0.666819 2.70971 1.43432 0.162214 3.45365
files/tasks_parameters/ExAp01/sample0.txt 0.747806 3.6937 1.5439 0.18367 3.91045
files/tasks_parameters/ExAp01/sample7.txt 0.767579 2.70501 1.42221 0.143463 3.05443
files/tasks_parameters/ExAp01/sample23.txt 0.759819 3.2697 1.57822 0.181448 3.86316
files/tasks_parameters/ExAp01/sample13.txt 0.729564 3.84225 1.67648 0.198247 4.22081
files/tasks_parameters/ExAp01/sample22.txt 0.740817 3.09569 1.56121 0.148796 3.16797
files/tasks_parameters/ExAp01/sample25.txt 0.721425 2.73966 1.5007 0.148149 3.15418
files/tasks_parameters/ExAp01/sample36.txt 0.646063 2.85948 1.28553 0.130042 2.76869
files/tasks_parameters/ExAp01/sample46.txt 0.762827 3.58643 1.69998 0.210103 4.47323
files/tasks_parameters/ExAp01/sample31.txt 0.707377 3.4832 1.53782 0.1722 3.66625
files/tasks_parameters/ExAp01/sample37.txt 0.745977 3.95293 1.50705 0.171701 3.65563
files/tasks_parameters/ExAp01/sample16.txt 0.603294 3.31216 1.30115 0.150249 3.1989
files/tasks_parameters/ExAp01/sample10.txt 0.812764 3.17098 1.61789 0.153776 3.274
files/tasks_parameters/ExAp01/sample39.txt 0.714169 3.26617 1.44406 0.165669 3.5272
files/tasks_parameters/ExAp01/sample19.txt 0.759022 3.63532 1.52509 0.196094 4.17498
files/tasks_parameters/ExAp01/sample20.txt 0.660052 3.20793 1.25367 0.147335 3.13687
files/tasks_parameters/ExAp01/sample43.txt 0.637262 3.11551 1.4202 0.150644 3.20732
files/tasks_parameters/ExAp01/sample32.txt 0.72465 3.5311 1.42482 0.168744 3.59268
files/tasks_parameters/ExAp01/sample45.txt 0.756983 3.80283 1.48324 0.19807 4.21705
files/tasks_parameters/ExAp01/sample26.txt 0.634746 3.21645 1.29701 0.166061 3.53556
files/tasks_parameters/ExAp01/sample5.txt 0.627864 3.5889 1.52559 0.178903 3.80897
files/tasks_parameters/ExAp01/sample21.txt 0.66058 2.75242 1.55936 0.19512 4.15424
files/tasks_parameters/ExAp01/sample38.txt 0.659056 3.31563 1.37515 0.166157 3.53759
files/tasks_parameters/ExAp01/sample1.txt 0.715602 3.74964 1.51696 0.19701 4.19447
files/tasks_parameters/ExAp01/sample15.txt 0.693104 3.32916 1.48508 0.180707 3.84738
files/tasks_parameters/ExAp01/sample24.txt 0.781478 3.45951 1.59549 0.16529 3.51914
files/tasks_parameters/ExAp01/sample3.txt 0.88648 3.70014 1.70809 0.237107 5.04817
files/tasks_parameters/ExAp01/sample6.txt 0.709826 3.33003 1.58323 0.184714 3.93269
files/tasks_parameters/ExAp01/sample30.txt 0.904341 4.1841 1.4861 0.239623 5.10174
files/tasks_parameters/ExAp01/sample42.txt 0.744311 3.43221 1.70276 0.177383 3.7766
files/tasks_parameters/ExAp01/sample4.txt 0.78316 3.72477 1.6136 0.196448 4.18251
files/tasks_parameters/ExAp01/sample28.txt 0.685445 3.11323 1.45032 0.158819 3.38136
files/tasks_parameters/ExAp01/sample18.txt 0.72604 3.47418 1.45209 0.149064 3.17367
files/tasks_parameters/ExAp01/sample35.txt 0.784019 4.57086 1.49394 0.185031 3.93943
files/tasks_parameters/ExAp01/sample47.txt 0.695235 3.13768 1.52397 0.16417 3.49529
files/tasks_parameters/ExAp01/sample49.txt 0.736707 3.13288 1.49657 0.156154 3.32463
files/tasks_parameters/ExAp01/sample41.txt 0.763314 2.81964 1.49636 0.150876 3.21225
