Task0 0.05562473597895218 0.4572552154630749 0.3275072281118373 0.013798687058340637 0.5200572331729405 0.36081461502749634 0.3884721166684753 
Task1 0.011109972407677936 0.15873519577337594 0.1913644589481762 0.1446910618659638 0.6355210042085578 0.3728635071589048 0.7618441235536714 
Task2 0.009105371293465468 0.023934757331214137 0.0063679311326051025 0.027741191517508503 0.34449596544380834 0.7703875024054652 0.8321998462974871 
Task3 0.060789362638569884 0.04865900292678687 0.12874751795286896 0.1148456052870994 0.6057434448495055 0.7055754046697622 0.9816356946669007 
Task4 0.01181892299845742 0.15956521771829257 0.10298778754020717 0.020648740480091632 0.4811675384091329 0.4245340856042527 0.49559590147697935 
Task5 0.007162435184090859 0.007126932697868891 0.051232354601095514 0.06279946490147965 0.3489828421186867 0.9182128908321423 0.5709700266773843 
Task6 0.08267187858066767 0.4162501654570886 0.0338472866883292 0.30486097424010766 0.35206973992067564 0.7167575787948769 0.9841169588090093 
Task7 0.012420499366754953 0.060891285495335505 0.021115334015306554 0.06834706550370678 0.4676299044363885 0.4299009683776611 0.44007179222545595 
Task8 0.06833057773826878 0.1778056533432757 0.16529654066384097 0.01548007878935021 0.7679719400977227 0.9840441754164322 0.43791846268817447 
Task9 0.0603057473211188 0.1298709647425061 0.12526219015199297 0.17433570445664637 0.7053549364465648 0.7354743509559878 0.31362631633534976 
Task10 0.040519233525292374 0.12046245562012163 0.13820607638087148 0.2333143571989716 0.3834862408765679 0.3490215012638429 0.9302342215695505 
Task11 0.007543460519579343 0.16909993941508797 0.07470730507153679 0.1243952405855693 0.38674393141098784 0.3622839889938668 0.686205324495345 
Task12 0.010151354249417068 0.024997986021176588 0.042948485081513166 0.04030630388186433 0.785513496809739 0.8094619361372548 0.4527856932954962 
Task13 0.013644050377502655 0.09555744550189828 0.08144351519246905 0.01507597428185551 0.8372071414172286 0.6547833151945435 0.6009822672992535 
Task14 0.06403294148142297 0.0964005762625635 0.26112130146395734 0.3569285889565838 0.467792874402698 0.858041694011781 0.5427792429392824 
Task15 0.06278522092671929 0.047991402808174315 0.3721014201049613 0.10192216834315637 0.46524767523244803 0.9721198665600677 0.8707103372094134 
Task16 0.002562001653419487 0.001474711969120167 0.022582005002622564 0.009778274279875175 0.5715287389420559 0.6267095547698835 0.7665346167259892 
Task17 0.06980469930527416 0.24656384131716416 0.03124304977900164 0.20004528050211498 0.9391295904482169 0.7095835691241883 0.6000531542896921 
Task18 0.031120190679374358 0.062410194707426564 0.1260876679028213 0.10106609881938147 0.3651149557783445 0.6320499162081159 0.7696146324310708 
Task19 0.13259192157686833 0.1906054041633306 0.16750570414472354 0.23533537164142046 0.3798380091542727 0.8468814589540534 0.4389787482476094 
Task20 0.04097385830846981 0.26260271470308083 0.1432069717718253 0.0985743699372345 0.8554362010961163 0.3769728213946883 0.8995683529434599 
Task21 0.005110860188357049 0.16929927211728343 0.0682665536599449 0.12520460162935548 0.7689248223555639 0.3214599033454976 0.6252778201819567 
Task22 0.005034841228606479 0.014857772957259027 0.009796462234986028 0.001248839516986257 0.43503443026205424 0.8690945242141264 0.9914745722280098 
Task23 0.011362345539090494 0.19675576641103773 0.08875276503857903 0.13572602104242945 0.5649569061138813 0.8176202195105744 0.9687072294748278 
Task24 0.017442449452088157 0.16327256842551563 0.10276379059568454 0.08055497131320062 0.42298524415451755 0.6042806944373055 0.6458094551028366 
Task25 0.06815267637772705 0.20192089555272083 0.19315020085998857 0.20825411294218166 0.3022154660835818 0.32600391269368345 0.99707087666334 
Task26 0.047934702918384677 0.2110631194308455 0.03864946531124271 0.3387932679827166 0.835924216193215 0.8291593427049935 0.5177000656070925 
Task27 0.024610155542265293 0.06382440557523071 0.013574084260257097 0.023468822315668502 0.5586891899356082 0.675151257289283 0.3122322901738644 
Task28 0.022450675552192174 0.11275226360059092 0.14472899108227422 0.008636998734510546 0.6827331726121755 0.36725250284770644 0.8467456612624102 
Task29 0.09871294270328942 0.2922318193273474 0.3100548604678416 0.13755369790810482 0.8998269494071498 0.9999288304613427 0.6776495615922457 
Task30 0.012872309056912515 0.025726506510261447 0.029762857856312008 0.08531040082081433 0.5551483938125384 0.345977348826542 0.6966972378914944 
Task31 0.11986007715189953 0.20881477851615954 0.0469297990841388 0.23423502884650604 0.7337714550142991 0.613817156138527 0.7058073621750437 
Task32 0.028356597655800075 0.060442717643633986 0.06259067167877637 0.25042149975594374 0.5902870999141978 0.8151314396798988 0.7705846159767666 
Task33 0.01586902188363659 0.10365939456863348 0.09370784001074109 0.09155474962231488 0.6473355367709124 0.49964247187052024 0.6535684065082299 
Task34 0.08127260348251367 0.39615420791687733 0.053137190403706784 0.31725843603767945 0.670410561540814 0.613127413362178 0.9178497939361512 
Task35 0.015132805331733954 0.027674424774121 0.025940328437056903 0.08487196528649785 0.30134944983411377 0.5803178619184973 0.38393472348009605 
Task36 0.00890385673933933 0.105784777208205 0.17315208944618576 0.04047477226269389 0.6634963479693534 0.4431221572511552 0.5279714717415502 
Task37 0.02429476882701235 0.11301317123073754 0.40189819607105726 0.4028596642742634 0.671247545270643 0.9690898859019041 0.4576595425706923 
Task38 0.028461237540683863 0.09331154248692926 0.10280332623083419 0.08475325207273728 0.334180495054611 0.35663923219809157 0.831681471387288 
Task39 0.010002529454746254 0.09748650184757011 0.04171956704038526 0.066820189649602 0.9791706799146287 0.4917593425420937 0.7133831669044703 
Task40 0.011464776611465131 0.05910759431430903 0.03436975401213584 0.051015383346604486 0.6467454781090203 0.5358402595749505 0.8488480731764871 
Task41 0.0033438138348486856 0.02965681652970774 0.009955401688887484 0.04427296117556388 0.38090729661518496 0.3567255296809756 0.9687868479259092 
Task42 0.052450305883251315 0.1923637311014598 0.06940794129863238 0.328599608053307 0.651405595225428 0.47646817816998666 0.39506592014892217 
Task43 0.06912568425929323 0.2581711889431937 0.08272023129701171 0.034813677754509366 0.34993427822065803 0.3506953923405304 0.9385907969938196 
Task44 0.04536304635329157 0.45223384123200566 0.1784393125394592 0.06775962084527005 0.32618203514572597 0.487698061471005 0.724210990046896 
Task45 0.15237428186699836 0.1175981977681175 0.28761633968182176 0.22574071598962012 0.58662154456146 0.9559216730086675 0.4406898001854136 
Task46 0.15108480760586362 0.3006644491170176 0.25428327778542575 0.23335107892821966 0.5982086787919139 0.5180176078279831 0.4814915531237518 
Task47 0.006978103693069877 0.034186782916396916 0.05286006849976246 0.02956233245280039 0.9362891040047465 0.3136954116158823 0.6958167490703923 
Task48 0.022240127530920282 0.3387382610525586 0.2089291816846163 0.365031944573865 0.8094756420876985 0.9763186841384128 0.4171361410540628 
Task49 0.08990991629070617 0.06626447179268255 0.06856872954640983 0.2507653371726148 0.98782486377642 0.9427401682763328 0.323223407690699 
Task50 0.07979754006251759 0.2931499468318085 0.25671066811723486 0.22441192515539177 0.921957026865504 0.401438838794431 0.4981318806829295 
Task51 0.09083602289036057 0.0045043960788510445 0.3452454259953654 0.08460095729108803 0.7744620985351278 0.8111144199310298 0.741445441224799 
Task52 0.07388624923318693 0.04545291599304993 0.21417469175772905 0.1389335204812391 0.6279074562103446 0.9746672721308944 0.5915214556133075 
Task53 0.061361987203013994 0.1178561805095981 0.10545099935419151 0.023810779398965518 0.3268352942427599 0.5822785130775234 0.9459953999602324 
Task54 0.02571795473647279 0.33029986928838045 0.1931566197901241 0.0001929381036469364 0.6871243718385451 0.5771432027622876 0.6128349787179272 
Task55 0.08082594533388456 0.19698829945399138 0.09565882696277755 0.05855843407632275 0.30927955685302433 0.9920509875454506 0.9114201637647064 
Task56 0.008146300707057644 0.04930180304549831 0.09006143128903275 0.1812954114967803 0.6927658985084316 0.5176927207132795 0.8262826970382446 
Task57 0.07422982124655508 0.4744827917835556 0.0839199988979437 0.05855403785403049 0.5744483213389182 0.926500612053822 0.7974334840771229 
Task58 0.11124628200082974 0.06380396007021287 0.29448926371644635 0.22029096793706096 0.7168928283982728 0.6081064713059046 0.9936014487568097 
Task59 0.040663852717148036 0.08985473339028807 0.26714876876215177 0.18609945886988263 0.9429202018456153 0.8218836402260541 0.8092820341946885 
Task60 0.1267731482504029 0.4121363623736957 0.03224024135659469 0.10920268840397869 0.37325659452123683 0.47561744442136045 0.8289827249240957 
Task61 0.02460813012138883 0.09624946722597469 0.4319738926359262 0.22921815704379886 0.6995258278337747 0.5411674000764846 0.7057512428202015 
Task62 0.002080448106065199 0.007955001532234902 0.013709651832463138 0.006245921043353103 0.8986543579257256 0.3187052917841687 0.4786412851381912 
Task63 0.010259648113553786 0.21537432835758902 0.29892381309174865 0.2594871745831091 0.8660181542183127 0.9281382252157473 0.8043264561083565 
Task64 0.019223946772973108 0.0383570720097918 0.0474317385704061 0.04042166315535683 0.6733517275825507 0.4794650238674478 0.9515041063911129 
Task65 0.029408163640510337 0.12374353727635681 0.2797855852828941 0.23425163288025228 0.6545619442958188 0.4314668531988325 0.6595294911560674 
Task66 0.044538028036579705 0.22136088682093882 0.16200345407146363 0.30508825847161014 0.6792310864213056 0.3787006851884347 0.5319142080304714 
Task67 0.03809187304909295 0.2463857704461648 0.011988252870139165 0.35484422532154086 0.44036924347095674 0.587168215441085 0.3603979762319651 
Task68 0.07449468414237792 0.1429766154376802 0.022373071624160433 0.14743593018971823 0.9081477239291567 0.554168408796893 0.876317030806657 
Task69 0.000679932180426566 0.23848303022102843 0.28029084798202536 0.22408129700012144 0.36351242165302117 0.43684487726234533 0.8522468818117148 
Task70 0.04210406113683596 0.12293252559154189 0.0935726797744169 0.07792446270032666 0.5921111038336455 0.5913089410941726 0.6033113414162015 
Task71 0.014078467854820491 0.10816855046377566 0.17891435245992585 0.25458825593944523 0.3286963008363293 0.9084944846814706 0.602856735523453 
Task72 0.008514744851032027 0.02402691562445288 0.061135076973929746 0.06151160230793015 0.6913308705683578 0.7618397058870754 0.8025855175595349 
Task73 0.009091489753992694 0.036412196642497646 0.022211454365915463 0.012573428862196485 0.9792777207766816 0.9434123339427751 0.601120826967862 
Task74 0.17477487258203894 0.2627109238857591 0.2914468364313508 0.14718112881703885 0.9975769180619565 0.41702511762750827 0.48349794644074284 
Task75 0.007968914716357063 0.013446877126386222 0.05660883164554226 0.055444404830059864 0.8172357828220325 0.6884148304938735 0.7708575559542253 
Task76 0.17200532057615087 0.33834523738804345 0.26472534953400606 0.18739398343125788 0.38548600516328047 0.5857125613059719 0.8466423327558212 
Task77 0.010331458938615763 0.0026387614949853317 0.050757605193344546 0.09405007378781752 0.871836989863197 0.35571297818267156 0.9115921455687062 
Task78 0.011157339616551557 0.18294545572583634 0.053161532537838875 0.05404671816654755 0.3414944075481993 0.5542696000189882 0.9055764336902687 
Task79 0.047652060191245925 0.07516403700304082 0.09345638556625467 0.056201475040729726 0.9000299205427191 0.7647244991720814 0.5666151676849955 
Task80 0.0003359069727578506 0.010705807912157533 0.0076220129599153166 0.003220507279326791 0.4378054313280677 0.8935934433188286 0.5762900806747887 
Task81 0.08586925018557619 0.1728820485156157 0.22636259996530322 0.10890313966061291 0.35605057866223716 0.8205105610429313 0.5107176876352164 
Task82 0.0030427796044788227 0.08686349400609329 0.1721178732785584 0.005337313257224423 0.741818413503102 0.613259728513773 0.8976543736409075 
Task83 0.09654488039461975 0.23692766650577587 0.29365923330828203 0.27613206926159317 0.6104098191574063 0.8034317347436897 0.9944007972982185 
Task84 0.07703048299028448 0.24441987366657886 0.15973173329995022 0.1171348556177569 0.9454966218332927 0.5474614397134152 0.9102080594943953 
Task85 0.07162296873882035 0.016307454237932607 0.039597071590954755 0.39827704153113636 0.6827343585272534 0.5794082054169055 0.4983465978979286 
Task86 0.035043311267974796 0.07358789974468108 0.14414201274541957 0.10879955362487922 0.5790993182681816 0.34723944973546983 0.6833013647204534 
Task87 0.01683893491229723 0.015985379540921118 0.027337195208198422 0.027178858310317383 0.33298045764493245 0.4306644896187811 0.7238356884666582 
Task88 0.015306666686358435 0.12241072510218765 0.25869417973095715 0.27903269440195533 0.7876468051782537 0.342326902663644 0.7037191557813657 
Task89 0.049580144629609184 0.2684012614348267 0.20298701019324905 0.297278402537132 0.41309378459227036 0.6084605128622749 0.5742634853120004 
Task90 0.005253085292831693 0.4304563978709417 0.3693792711542819 0.018998610884936866 0.8547759349393598 0.6842021662706481 0.7175901111323701 
Task91 0.0024054018882281136 0.06318516919866636 0.09743481106029832 0.1516461053199359 0.8632272853364371 0.5704862450664909 0.8992770831840351 
Task92 0.009784384314775626 0.0353775319502966 0.03303167652775599 0.025144136238065898 0.3735676268458292 0.9251244822953151 0.8112162812592878 
Task93 0.05154384319131885 0.1434636396682575 0.15321167200365948 0.08054893862946819 0.8117814930575225 0.8083075755216538 0.7227107916284804 
Task94 0.027162223407872672 0.06851990874506782 0.024221127959334874 0.03543400123856167 0.8405912593760685 0.3162795349756656 0.651815475130511 
Task95 0.13603588797576824 0.18137101766658725 0.20248951675399035 0.1959793206099779 0.7873953712289994 0.32447933289819864 0.8527200365451055 
Task96 0.10227088929031097 0.0656898320810829 0.2056756007427708 0.2504986419458724 0.8650238647539465 0.7826563034204626 0.9725421862129586 
Task97 0.0038118728749643818 0.057572412894442586 0.057943773772837284 0.028889317475525905 0.7752304930448899 0.9026901617244931 0.9824628071783041 
Task98 0.06862980100820341 0.18112255456351342 0.10608143297717551 0.1724232577789105 0.9845368748942964 0.8176046511616268 0.44407351734753703 
Task99 0.10826479726626421 0.08414706135503441 0.04468780150038195 0.34585252718937 0.724250210299006 0.5490036887999608 0.7980255563135209 
