Task0 0.046856611050202245 0.2581102327639003 0.06958560275617746 0.04921686886825647 0.8621802012734587 0.6403376211460413 0.4439075196077765 
Task1 0.018106971031794112 0.3495086095545637 0.2342233717570389 0.25928399555181497 0.8925509015150768 0.354352378139841 0.41489612991301733 
Task2 0.1524840388604505 0.1480854509985091 0.28382539378847227 0.22042716468221793 0.6426508044269383 0.39707779497145324 0.5770798235086178 
Task3 0.00400506527202706 0.3756177048347858 0.12455244465449668 0.4420067321476513 0.9660421089023365 0.7307904629217283 0.8343467026194058 
Task4 0.08212473234351034 0.27016042091359027 0.3515609335702542 0.04212203424583914 0.7425178294769468 0.9736113244747706 0.9133764922918757 
Task5 0.04159963702461997 0.2156097507497274 0.11276160311584306 0.1044256630510295 0.8026261808423314 0.32011731352893097 0.8722294431677968 
Task6 0.016290269904358133 0.1605684435027016 0.1506329654382311 0.17592738256183954 0.4592620798468796 0.46551532770011456 0.37539183513177854 
Task7 0.04265934062088158 0.14308680900707205 0.09457900698534882 0.1288620641108079 0.7089977627723251 0.6641333159646136 0.49495961429828234 
Task8 0.02631720135890413 0.24143664643573265 0.3305400296910706 0.3382515096504525 0.5834415536920449 0.5606137639894346 0.43563297152509145 
Task9 0.012953291123775846 0.017413118189468103 0.002813773421486265 0.08882196955293055 0.37009698666034885 0.5826349241652591 0.6203498191251162 
Task10 0.10104511143691335 0.40709640720857426 0.26128201713203797 0.211324406038531 0.9071875152683393 0.6655862856442311 0.798592214830153 
Task11 0.05420943557651949 0.07468706440773107 0.07151700175575965 0.11163368604503383 0.6609614064643083 0.39621785568690837 0.3423503424809722 
Task12 0.04639849223778617 0.15929052610070882 0.13881315487615176 0.01770735036277768 0.6004286074228338 0.49419837623790697 0.6720858109546556 
Task13 0.08972935663747648 0.20063401477003748 0.008659880839682936 0.3775079087105264 0.9114588946891646 0.3284085531096668 0.5103952692314688 
Task14 0.12816269550474926 0.5474850015500801 0.16403021021608652 0.08159696563710886 0.8957229859941176 0.8554767270356052 0.9462406514290058 
Task15 0.10033750495772151 0.06218912391558282 0.1541675006628402 0.1874643368174544 0.7159242055916036 0.821425381676008 0.5114928473128239 
Task16 0.08315980254465127 0.09829911018297238 0.4337979936937786 0.2073667647060833 0.5305495904016854 0.6292555632020593 0.9647560499133032 
Task17 0.002104354116611292 0.005188564093016542 0.005436354845182387 0.002002623835416471 0.6106561588457429 0.5481818352077528 0.31224264609637353 
Task18 0.07000840558615681 0.04270079939237743 0.484742218843812 0.05435270445487905 0.846142533804207 0.7566974743246204 0.6068370437315744 
Task19 0.011351390439932298 0.04041094581949432 0.06894405766601933 0.09708045750648484 0.827936435238342 0.729215654605667 0.7382168335124446 
Task20 0.011884462690236698 0.01785643082945443 0.015189405231946876 0.059791776331443065 0.625176936029898 0.9690313479997561 0.8387142400879977 
Task21 0.038832356911610195 0.3087911645643602 0.24319880998940477 0.3161410433640255 0.5106673324828295 0.5619841047429894 0.9043852328567477 
Task22 0.01130921144423424 0.04674829697213887 0.04053078298854934 0.0249431510038782 0.6814100190452006 0.3181904659976173 0.5131343035982904 
Task23 0.060338944026381916 0.22420478818670583 0.3320718119307399 0.08373068326473118 0.7869235243445695 0.5475178547400081 0.9765308972822588 
Task24 0.024020767900363997 0.04428627043108642 0.04380766441020623 0.04024923160682665 0.3138084856502183 0.40326947627849713 0.30063487492858326 
Task25 0.04549922723763974 0.24683923128707402 0.24096631331317112 0.21755119464523073 0.8989275796439951 0.522771059647088 0.6309781186567069 
Task26 0.04335543269311927 0.05327379756423512 0.22667329373932107 0.1215157764175193 0.7328151118913805 0.9838335654761536 0.901573184835027 
Task27 0.0012600620733376612 0.009876981647030398 0.008244805994900219 0.0034284159746554494 0.5347420700684354 0.6128142046534928 0.6705382811764145 
Task28 0.04138274769779687 0.1573192871334667 0.11163607996328503 0.05667656444788328 0.6021027956971106 0.5633669291575689 0.8580420191698415 
Task29 0.0335244585859743 0.17622244252430322 0.22085587035834192 0.08737712707485706 0.5944992151641564 0.8858635943376727 0.7256778146804734 
Task30 0.05383875255943281 0.09875682773295814 0.10574848387949112 0.17182439226537533 0.4594835806573432 0.6130555760217187 0.3727667441021035 
Task31 0.13638762453129216 0.2892788472571268 0.1252195303503669 0.2385922867562615 0.9120301784758829 0.7161185024269878 0.31657513276754223 
Task32 0.07616648549224943 0.2643647503379882 0.2339329907333715 0.027067879585472226 0.902067616932287 0.847960990300519 0.5849108042784179 
Task33 0.020054490542173585 0.07815868995440999 0.285828860565423 0.1109870028346328 0.9689976564286777 0.31596718414387154 0.5500556903664142 
Task34 0.04980325195552173 0.054508937267209776 0.025829843016462583 0.28763566543437236 0.6322800686891201 0.913014244674891 0.5890727557594096 
Task35 0.017094075806364045 0.09866891011956597 0.10325213897993216 0.030272652893651816 0.5006220262205244 0.41692234947181 0.6687978128777885 
Task36 0.037209011356144815 0.09159113730952215 0.14095864048714962 0.0031133639241011316 0.7017890650715572 0.8913989918137584 0.6357041703263837 
Task37 0.006065863314393742 0.013940274532813348 0.020447335796094073 0.012607387464135972 0.5248173436702143 0.6970820286309283 0.6410405687158801 
Task38 0.015108879881865512 0.020685557602494367 0.06945635088421927 0.10127944611592886 0.6287255530143656 0.8476699791717075 0.35796617444113804 
Task39 0.012915545925321115 0.14133456024770555 0.15655076828222736 0.1518791878261045 0.3719269392164343 0.4105301054514332 0.5500403136249135 
Task40 0.13238344832510365 0.3520718634690942 0.4072282712840476 0.01079085857130769 0.8384822756343016 0.43505284646202025 0.6279838352008587 
Task41 0.11242806897918102 0.5588641753508281 0.002071464598363483 0.08494261457154463 0.46121773926251364 0.9012024126716591 0.7892551242455814 
Task42 0.115412408226179 0.21454802024761668 0.3618420057524048 0.212818877492928 0.746347940169937 0.41839820652368104 0.42299306651110424 
Task43 0.0495369944960246 0.2875253775900565 0.247892373018974 0.01097797037834317 0.725020328160279 0.8117199317375798 0.9441032372135041 
Task44 0.09702930756189092 0.20438694102869523 0.19686313636322061 0.19988837868357784 0.43654081281860596 0.35169591935638916 0.8663573901994548 
Task45 0.036191327076357103 0.12002970612959266 0.3666925623883371 0.42470262110612284 0.6830498107442273 0.3400156224488564 0.5624679819531897 
Task46 0.04237753602981139 0.07811559489973578 0.0941582617009659 0.017571787468937682 0.6099588460749925 0.587465184768432 0.4017056081481865 
Task47 0.0003853920735469557 0.03408525589985851 0.044062808507385184 0.03546490763712887 0.3346839069120918 0.8090715304407705 0.38932978128107043 
Task48 0.019082384213548086 0.15753688407349128 0.12862728980419244 0.17972935462546874 0.5734530258402435 0.5784644671725294 0.340180281341054 
Task49 0.04250971076943481 0.007054874647576065 0.24011979552528392 0.16800475646342627 0.3802350960838293 0.5905228014229071 0.3243737533215987 
Task50 0.14884045026899753 0.2664871072267813 0.2510013951864427 0.23908851380910992 0.6312941731401018 0.5395812027266116 0.983049939561744 
Task51 0.01017672665888137 0.029043229840618096 0.061922068890667106 0.01911388433767226 0.5914228712794367 0.34328315352262895 0.6769766928900771 
Task52 0.03874478399055537 0.061131801845904624 0.060464434317471026 0.039529045605460764 0.654833408780487 0.6214260667375224 0.7699209445639821 
Task53 0.00018737933570567587 0.0008523744005937799 0.0006983664236730092 0.0003973937387632098 0.35742720074220286 0.5806377443156138 0.47371332118490794 
Task54 0.007523928155193498 0.04924213575311681 0.057685491779453854 0.04881970308593058 0.9816796167617587 0.6721443584997746 0.8091225521273779 
Task55 0.024736058571704623 0.31205016640312966 0.20865187622496514 0.05073429373048441 0.7495378425119137 0.7426149288431774 0.6758668780107333 
Task56 0.06840410919967005 0.25236649568947 0.16569434809787548 0.16046599130570469 0.7624222007206021 0.774916110594112 0.44796344431554014 
Task57 0.10565615736739951 0.2578143220547188 0.18705115812813713 0.2323316083293856 0.8229694350173622 0.9310332201970655 0.6359375609977785 
Task58 0.00400489527851778 0.027945958626835746 0.022499145470277544 0.1473439310415278 0.4268639187831393 0.767975402471986 0.5773981971775471 
Task59 0.00026064836336238363 0.5263314002652606 0.39497983727589814 0.06468080460878761 0.7120975043735958 0.47625874839159543 0.3360475129511272 
Task60 0.021027173426227924 0.09416612504025007 0.016790818615069633 0.20866951748629833 0.391731352278287 0.525909633358003 0.889140515177598 
Task61 0.028878863478659818 0.10842562427881754 0.0381888406197089 0.06129339918238072 0.7501819249266295 0.37944536423795217 0.9214935420710506 
Task62 0.017870339937140257 0.07154967467536981 0.08118455417699101 0.09655028257181114 0.8983171817315712 0.6318840693452819 0.7370698791768615 
Task63 0.045169439585156027 0.06996929471535204 0.15202405352196913 0.18214163243043707 0.9594313896809346 0.4006478362455794 0.7346910664016364 
Task64 0.0075887639625918275 0.00944353056948074 0.006109038190319552 0.01627645601271104 0.42040450312204836 0.8478814798105287 0.5432500568683069 
Task65 0.06992898945289286 0.22232258594558096 0.2890546203731041 0.16877672155812717 0.3946634895476739 0.6917636645499505 0.5686364892227634 
Task66 0.10920991707831441 0.380750042286563 0.3611131255016731 0.11647624043187232 0.798309010733194 0.7069415597462106 0.4756374020231033 
Task67 0.05707684660964292 0.072584718888257 0.03223116820260539 0.5127273831352669 0.3971516895102933 0.5954696516675075 0.817211386900381 
Task68 0.12021476174240042 0.23521914694208879 0.3058113335789242 0.16385813769246244 0.6189283545609368 0.3925338665404787 0.31999447920179497 
Task69 0.08580037627941663 0.28678074792525654 0.3395824929409022 0.17346845916537465 0.5497789262845475 0.4767878625454286 0.8692514364148849 
Task70 0.029029383073176637 0.11896799420341703 0.09798820233071895 0.3319032964785845 0.9255920057405767 0.7477327004071328 0.41411409611643835 
Task71 0.0017610071792138085 0.021781745028736674 0.09189563966922758 0.08400330570324535 0.7248222597859535 0.6216058885822993 0.34917074539454174 
Task72 0.0440951968583559 0.006505535317188052 0.11691259920979245 0.09762363816893904 0.845253178626199 0.5984752167785936 0.5932228759503374 
Task73 0.0009747454499797483 0.01660953638975572 0.011317644565634982 0.007357362320737841 0.30444353537162533 0.845092395936283 0.49549355951798946 
Task74 0.028877866747821015 0.09141851045931108 0.21029924242942105 0.47588204797107386 0.9884925877477628 0.6120041307151307 0.8895734488215885 
Task75 0.027967746806721372 0.06358050540053711 0.05681421809373585 0.15107879264518112 0.6062928107099322 0.5782942767032793 0.765578245175992 
Task76 0.05939941725218082 0.1634138948145537 0.0392357633335201 0.1903615368900628 0.5859429875359754 0.8569513272582916 0.3336231651709174 
Task77 0.0027875518651793918 0.3197587087758142 0.03328571156321628 0.21120026433844358 0.6225018060348327 0.5965177543164515 0.3306386184862733 
Task78 0.04703237550530401 0.15240490215513142 0.07992972791726576 0.0899643601561909 0.5005574954641957 0.39324927058881526 0.9418626979157243 
Task79 0.10395577447157328 0.3651807966895338 0.3827928849884855 0.08178147481303374 0.31883220594028716 0.8182022733660963 0.7936520024455467 
Task80 0.014375554130667097 0.33472304432752226 0.19324094095603453 0.10466730096850946 0.3733047884808086 0.7318757033575624 0.9061378923919596 
Task81 0.012033613187220458 0.19775762350237666 0.1748956984772954 0.09084400198128055 0.45642670792594076 0.5085605618522147 0.33934923575986486 
Task82 0.021520569436049367 0.06344216833407282 0.039031937254182913 0.07521651537764037 0.732155947850473 0.9409376968159511 0.8104595731808393 
Task83 0.021910181105924024 0.09533238859836757 0.009038538115817743 0.00172425814117797 0.8763104488468947 0.6024077932311153 0.6500071883766385 
Task84 0.015559764178507084 0.11738995761096876 0.0948669319349192 0.03727914526617578 0.7579147546187004 0.7538099861492178 0.566147311979762 
Task85 0.09077539649705091 0.2777018989499268 0.26846791927705854 0.05240947283041861 0.6095056626877895 0.5149555436744888 0.4395880120490131 
Task86 0.006080841857438509 0.005962397257032261 0.014508598439499094 0.006283990791919627 0.6925317448339321 0.730043090270119 0.4517622333596753 
Task87 0.08098348526720371 0.12837560362352488 0.23509656306837629 0.18584157629157233 0.588726801734827 0.5486009640306198 0.5382893683375087 
Task88 0.05085794601018494 0.10764260019899914 0.09771987678256591 0.00156579779060248 0.43124941378897974 0.5815719813199758 0.9923890807485891 
Task89 0.06829987297862772 0.17799677841502293 0.03492899477618236 0.21630238542480523 0.3367370649089917 0.6779242249526826 0.9304051485358531 
Task90 0.024022358328885662 0.13362444725529768 0.19403956034699643 0.27508230020968855 0.8584534692810801 0.5931913379341585 0.6313090032543918 
Task91 0.13581501855597422 0.14669556740429085 0.2670941715318479 0.21586404774236448 0.40129558638121765 0.8903386994763547 0.7343147400745176 
Task92 0.006993823590230673 0.05277159160137766 0.16113691036287633 0.02824220727936431 0.8039934980425447 0.40808118176594455 0.6882253894766935 
Task93 0.0649271785635799 0.09994626036092909 0.4175684648734449 0.3380754348817475 0.4738061791182224 0.5355345752966765 0.43686040538563636 
Task94 0.0890493533843588 0.19983933765911577 0.05814807493093729 0.19725184645218374 0.7413825817125475 0.5778227587328415 0.3237569547166514 
Task95 0.0022448789022303925 0.20581562294788194 0.03253788555823447 0.37873706898314485 0.6591465014050553 0.808492867546998 0.8428810741208037 
Task96 0.024235496429377234 0.25994005642614537 0.027910355278533052 0.16942138200296525 0.49547717210341896 0.9362142033925673 0.5243660579032413 
Task97 0.06922340071132035 0.23890487262006527 0.07270846460527515 0.45910008759488835 0.4581403681193985 0.656742580861122 0.5927822594167962 
Task98 0.012571561095328289 0.015843815085784273 0.022349484296350672 0.018136404300363087 0.4025083331968169 0.9427761599786086 0.6206368602812419 
Task99 0.059077563731188866 0.04526378087400295 0.314681481144512 0.041999888453295046 0.42438129467076036 0.4508215050711334 0.5996309554852335 
