Task0 0.008345695171359607 0.1690342441660714 0.09112479225225652 0.10942513546269533 0.7959377275226429 0.7577787881077793 0.5961850826424044 
Task1 0.007015500573286331 0.016493748443473837 0.01661933879696387 0.02981521926188284 0.6509400742582512 0.391350012550145 0.3808550991650428 
Task2 0.004497880221905385 0.020939494079389043 0.017593642535063694 0.0024966310682186235 0.3635145434950008 0.4229864555846667 0.33703883326350625 
Task3 0.02063238499818337 0.0756103212867864 0.16821672976947522 0.05678256034779909 0.9903491803605053 0.8581632017718033 0.38813414406998803 
Task4 0.0783559362586336 0.1274002296428335 0.10328645124844171 0.3429852360962409 0.9144670801403123 0.7436717360081493 0.9032337458364208 
Task5 0.03546344685939467 0.28565609187853336 0.14404186433997807 0.10084848566976223 0.8265746145889794 0.7929467349198523 0.3342788266567276 
Task6 0.007490175091431073 0.024703180884185473 0.026641132313226516 0.009529794647663252 0.6906943098354179 0.8279348999050531 0.6993317429882719 
Task7 0.11601118150585449 0.14794226975566047 0.327819369919981 0.015218574812359782 0.635898958093641 0.3251014986985761 0.9203930987240356 
Task8 0.05434149835160696 0.1312206457095931 0.4455452295529495 0.2573129033439985 0.43829039374612355 0.7976869057307945 0.8130349093688567 
Task9 0.1228035373814377 0.012220383578854712 0.8167509856307275 0.03088228090620919 0.5440248292283776 0.3858225857489512 0.7122057038375843 
Task10 0.0016813011876049392 0.002800384056039399 0.008583797483942134 0.006027277074484899 0.7350949783206052 0.739960921218016 0.90743635953936 
Task11 0.04609253656793762 0.15369298799610998 0.09965892566223902 0.21522166990547764 0.9602784372490734 0.3650133642458747 0.5904626422141422 
Task12 0.17484514964144368 0.33010314174963673 0.34949806756384766 0.14112507383548967 0.42338473664798404 0.43568129065378275 0.4402856800668053 
Task13 0.004586384391097666 0.018124516050464057 0.006400029496800594 0.0030583792610589704 0.9713749448621007 0.39104064557835794 0.7965260385763597 
Task14 0.08893309725756111 0.19012130042702932 0.2060626074621918 0.0022333227985227794 0.6039704083194575 0.46165862518484574 0.6466811009216588 
Task15 0.06660482951434471 0.14713705042405906 0.19299350203050597 0.07818019225673453 0.5668082849112593 0.3989993833283863 0.7332178801503972 
Task16 0.012440488694636327 0.141017235094162 0.06382012337729802 0.6685643647664723 0.445451402544229 0.453708513322831 0.45352845399725866 
Task17 0.01805417605566027 0.11034376530491734 0.08831907060454655 0.33244011317929434 0.5535372460230551 0.842788855036749 0.9883933566061767 
Task18 0.06942682583444472 0.0760944620751958 0.20515876244214326 0.17867834429546206 0.7014842759795272 0.5385185360770545 0.6712613478643954 
Task19 0.03155105740650753 0.011610917434925335 0.024247983408338773 0.16146943333233982 0.47345317827739275 0.8522770557869723 0.3889327603274996 
Task20 0.04461857052286569 0.19180099716307691 0.383912290424291 0.097256798263819 0.9766618881456548 0.6442270582161228 0.6209044105044477 
Task21 0.1659008558902935 0.05089077553804278 0.18807358831764498 0.4992958748769089 0.5407975254719755 0.5543864891601362 0.3651600250053061 
Task22 0.006759019232659309 0.0016924656636809067 0.05068911916420755 0.0833056841329192 0.8261329849303891 0.5576989738713893 0.4369803294957677 
Task23 0.12238953901634604 0.23286333742470383 0.35290233082871103 0.20068530940820514 0.7600351540749593 0.4643763508413372 0.33640315172172974 
Task24 0.035127828311073785 0.28215268431455764 0.28555979690148237 0.025100340962617134 0.9827564634795665 0.47703526302894206 0.6925557821002322 
Task25 0.18695129489032855 0.6278556091415421 0.1047149627444669 0.0708618831769519 0.3289369805127949 0.684543060925424 0.3796948786617421 
Task26 0.021323920548433392 0.03466736516950499 0.04979027874678065 0.1033319633754534 0.9904534648138319 0.6965409192069332 0.9212187965224774 
Task27 0.04663602708020873 0.07221969627912482 0.1259061110996839 0.009568862192067491 0.6691961943413038 0.7431064271793018 0.4933314567408119 
Task28 0.05648906586790448 0.09374274346433725 0.138499932045567 0.041223590779161885 0.9734380144964461 0.5545747927640029 0.8464413284614025 
Task29 0.019885724298046865 0.04152663094645195 0.03650774797977153 0.01727653030749746 0.3723182952125168 0.4354787978957083 0.37021954299046883 
Task30 0.06102289731950403 0.33737657143831984 0.08298222830799513 0.12618893139549575 0.9608963337178522 0.5881840750445864 0.680815413786099 
Task31 0.07521984089717403 0.1524723930673512 0.14298030556227348 0.05448963530554727 0.4759850641485826 0.4330436151286896 0.3903158467268557 
Task32 0.009893862735072569 0.044154253895810215 0.057924915298155626 0.00950374024402922 0.9025755552704535 0.5562881879149082 0.4749760023597899 
Task33 0.1099016456006986 0.46210748596065654 0.05078115258327497 0.13461132355811883 0.31669342138930634 0.6939835648044665 0.5267201362737521 
Task34 0.11022655780056576 0.18040158091151062 0.20158076941828085 0.1471969791738325 0.990061836262323 0.7226507149428334 0.8012482209532963 
Task35 0.004970488612891825 0.2367026165870026 0.03957728107362371 0.004744779597668428 0.5246992540576876 0.4849107866533198 0.5649109740363 
Task36 0.06637968319190378 0.32909779924299193 0.3659501372348484 0.12500610164922396 0.3022611946950844 0.9383489317610467 0.6669363380908235 
Task37 0.03771496650299899 0.10935519641067348 0.05941705781228213 0.06846111282277831 0.7082050153221859 0.5716172755672669 0.8289872251207768 
Task38 0.014280802383165904 0.09468385339160565 0.07199699556827979 0.09613695127858408 0.426415849223142 0.7292897625673262 0.3252237172931366 
Task39 0.031728370540608015 0.11750915027369076 0.12273925917094218 0.0035771721480244135 0.8733983430708294 0.7706380031168978 0.64064924767693 
Task40 0.1375097250376318 0.5513953525296429 0.25735413609363045 0.020929977718808477 0.36580553519552933 0.3201355633616413 0.5888472380834662 
Task41 0.03001804863338107 0.06914967697519997 0.2880010289401808 0.2525792637177066 0.881357590845484 0.5413108140539717 0.5168329867628356 
Task42 0.008846788707697305 0.25726280967997156 0.01941553487100614 0.2686909088724285 0.7435893769721176 0.5212531777032301 0.6686408734362573 
Task43 0.13785939700851293 0.382791038469366 0.09465600699735442 0.09656816744639726 0.970298926564098 0.8537541226749368 0.7218450584149103 
Task44 0.00848216645452553 0.01254899173646605 0.01575222508576408 0.01987116501025878 0.5028556554708168 0.5147617816963952 0.47185418853601757 
Task45 0.019586371699360422 0.28152158095025165 0.07923788044915196 0.09136998727070833 0.7472881058749732 0.5062375843655438 0.9828454283206551 
Task46 0.012002194527027643 0.22895293554349536 0.2823231684115687 0.036393952640183545 0.4682222075029389 0.8070848224847422 0.6326730666227302 
Task47 0.002056562595917045 0.18687058750124427 0.1324906141485465 0.07428481451027187 0.5899991646248197 0.6502007151864155 0.6275446773532535 
Task48 0.044127673975049415 0.010514705772678731 0.39081918233506974 0.4088558412212812 0.47034464037071083 0.3778302304493638 0.610147957118353 
Task49 0.05325256337223143 0.2116939763571202 0.07844062917664484 0.09319841370194336 0.6219461275961505 0.33612209521411884 0.8224571344286229 
Task50 0.0015491709053146857 0.008973314438560757 0.0010141095748859394 0.002236673381719261 0.5869133040609424 0.3391879198487449 0.9014910002579848 
Task51 0.00681200180622089 0.08378283881408144 0.058329264356287325 0.7099452105911057 0.36166842797620513 0.43000689556167493 0.3549744465471337 
Task52 0.022284383342859714 0.026779104493439416 0.06880854609148308 0.3418717272839959 0.4796000302255683 0.7583425809276116 0.5414754323580151 
Task53 0.019568713105177493 0.07331623794205759 0.005857655590198767 0.30923474183510047 0.9538453705740957 0.3229588734008581 0.6950748496064413 
Task54 0.0008475534174001369 0.015518143494159364 0.004950152495703084 0.0024682300100432836 0.9632053915119554 0.3275645078698257 0.8250096154303481 
Task55 0.007252461745898516 0.019165942435952547 0.02806356460183725 0.02366488272014451 0.45111441811657776 0.7891699537171936 0.7196889148440271 
Task56 0.048134373219052715 0.26099696214609325 0.11553436432066272 0.1369103655402054 0.7265494481044755 0.8073936800705743 0.4398517263420715 
Task57 0.08551000735086053 0.27428357776014073 0.3196425395542364 0.2516295177927097 0.6262293012515723 0.7131090972049605 0.8845978189288382 
Task58 0.01724746440471697 0.33787426114298347 0.003095883037051449 0.08674418841600418 0.7161425268597201 0.8689934794157674 0.7904626499301926 
Task59 0.0051817810483263125 0.0006011637583236346 0.010440593192443642 0.014313306152662915 0.3630051235590769 0.8872367038301607 0.828481990551942 
Task60 0.05511125252000198 0.13967309697103578 0.18799384371934966 0.22560722021013402 0.6192174196470092 0.6242866182943304 0.620945616027877 
Task61 0.006530639342500743 0.0008334335955728771 0.014692231332509156 0.014160417324622507 0.901129244904108 0.38044539418524836 0.8585846149862375 
Task62 0.03295597027094352 0.2015723285878221 0.1961129946951703 0.148582363509754 0.7319706356213236 0.9050980961331978 0.958957244629171 
Task63 0.11936028252507706 0.5654256366086361 0.13776250356939704 0.1768931928437484 0.5087642820259377 0.6663987303798051 0.7416404850919729 
Task64 0.05245189806650913 0.2897661421146389 0.13402269111892245 0.13278692544013893 0.6790797153434514 0.9988874982965776 0.9983429496181717 
Task65 0.11057078923719307 0.15001458355195896 0.18738233055535006 0.21424829118655744 0.5858347143349876 0.41577790338770293 0.9962628801785791 
Task66 0.03274717344887645 0.05413959922096612 0.18072046919967935 0.20925403475984017 0.4423995879209881 0.3779049123947026 0.30785691905893536 
Task67 0.10774466570667236 0.11386698408969487 0.36848677300418464 0.039267472723904545 0.5734119271605287 0.7050560062439024 0.9138319697675457 
Task68 0.006728200416615877 0.061630688684333086 0.17066815729489337 0.04312644618809121 0.9782081210780265 0.6567389867042311 0.4820445690918178 
Task69 0.10109807972449182 0.35694052774812585 0.05796513534579437 0.34064874337977 0.733549931492322 0.41589457757222753 0.7163622893399262 
Task70 0.10330229926946423 0.046688519060184244 0.21351506259135267 0.19811376658000288 0.9605268339027102 0.4666703253927316 0.9293491066773885 
Task71 0.017180730414399454 0.06031369211963711 0.04897948877053298 0.054541183696965145 0.49715289691745995 0.9006462997396734 0.9705344984964566 
Task72 0.14412423043516528 0.1777000223766701 0.506900213058474 0.007944687493560821 0.3641845211492831 0.3749768647597415 0.5879441891472397 
Task73 0.06723798285280132 0.22163574513726095 0.2969579050896807 0.2430771323736887 0.615860832019093 0.7196926417891967 0.4604614616763244 
Task74 0.06110976396348848 0.2295763046436601 0.5849665062612188 0.09382411173119658 0.8799797472657833 0.4534398858408031 0.7081708875919821 
Task75 0.11181192572750272 0.11028546440765988 0.31570032589533165 0.20414351913358036 0.8345125933589606 0.6962399461674061 0.6044177082640708 
Task76 0.0335267371007735 0.2633302685845218 0.22808540211428643 0.15553265204430813 0.9540263979611074 0.34185307941824083 0.6622514398190502 
Task77 0.1336412181462015 0.034881204648715615 0.4904278923767602 0.10376703868995714 0.5715179203633864 0.5748496874938549 0.9813102154052709 
Task78 0.0404794510937995 0.17646595380243607 0.25361348678667006 0.3241897506906517 0.884785770990921 0.43723567903376204 0.9640327876256385 
Task79 0.005151935791030589 0.25386988466997934 0.18778119358296863 0.11020078784777353 0.9716167563996758 0.6042113880202584 0.36722435018190647 
Task80 0.011844365304441093 0.21939855608457662 0.378790814150526 0.020286985502201746 0.4528091615492331 0.8159489406983067 0.37100567172856735 
Task81 0.04798866895106381 0.18653403193082257 0.20758495223376278 0.20321816641493673 0.3041047333841117 0.4842734416112276 0.6205928053750651 
Task82 0.17098914110035562 0.2979367672928046 0.013237506615925085 0.5011193168715181 0.5458851084490934 0.4787450021534544 0.6707681160582064 
Task83 0.028170921088864348 0.0535146305013724 0.24508444296219387 0.058978125470506945 0.8242144039014407 0.6151045939147823 0.31884622740317303 
Task84 0.09816741791240097 0.060897307072403324 0.18749662330264938 0.32428063194919854 0.7431505840517518 0.4569068375539709 0.5543025848485517 
Task85 0.0007166177433305624 0.040078601406135686 0.09757154290358708 0.030624900074367353 0.5673733697102583 0.9803069541987515 0.7314158923766045 
Task86 0.0038819464496466843 0.338060525608303 0.08321776445775678 0.29245790403671984 0.5553499075280417 0.9538095557015467 0.8135812922495207 
Task87 0.10874495855260458 0.11956880792500647 0.2473688114864869 0.28455280635257296 0.7459516432842426 0.6149786847114302 0.35153313919937745 
Task88 0.056279430920695046 0.13587965764299073 0.12505103556835423 0.20351975563006972 0.7467490028580599 0.7136433121848951 0.6862837431811778 
Task89 0.002530293312718701 0.004522104390230214 0.10892341543379087 0.10145534499599228 0.8065775468055847 0.5425778766411433 0.4095569890753556 
Task90 0.1121615851786826 0.17222204809743485 0.16174248132772961 0.3166009962616538 0.631363785247278 0.9426195794503296 0.4324756490000946 
Task91 0.06422292546587809 0.14534452519163377 0.5281685765990715 0.1636796547556726 0.5710206364156746 0.4882728611178312 0.5365516162794497 
Task92 0.006354580653791897 0.0025877647226907976 0.026856837084710778 0.0029859635065176285 0.37325615169121357 0.5488654568502221 0.4310843159732898 
Task93 0.1312183706075185 0.45854559965301184 0.10941201011693051 0.15116955855831557 0.5262315483920766 0.8890317763356073 0.902896061008321 
Task94 0.01131511155736876 0.12060426290262394 0.05481671363201542 0.1275616893024222 0.6188461364105986 0.9193679630540887 0.5631458242339653 
Task95 0.08293254532786973 0.22780921890741065 0.3279331728778492 0.17505772433111555 0.7761436232996761 0.43146951325679705 0.8922121502476876 
Task96 0.02965901600370978 0.09048913375424615 0.2951882624901656 0.1530700676916292 0.477820840572875 0.5854151972112124 0.6213016604736233 
Task97 0.006682985475843177 0.01837403033758945 0.0014891073831445195 0.03453892696443891 0.5263256385869468 0.900695602610474 0.8097115854022949 
Task98 0.042096300385638316 0.034484538933230606 0.10100919268098589 0.040619638387844874 0.7146004864514457 0.4649171076425985 0.9500017728532182 
Task99 0.06721873900264727 0.252298155382623 0.13357359576808908 0.31857512852402053 0.9832731452539256 0.7018579803362728 0.3475441618083427 
