files/tasks_parameters/ExAp01/sample8.txt 1.08713 7.2562 4.46819 0.454772 8.67945
files/tasks_parameters/ExAp01/sample12.txt 1.59635 9.70908 5.28286 0.618515 11.8045
files/tasks_parameters/ExAp01/sample2.txt 1.45836 8.14159 5.7401 0.620531 11.843
files/tasks_parameters/ExAp01/sample44.txt 1.35459 7.25164 5.75904 0.557631 10.6425
files/tasks_parameters/ExAp01/sample27.txt 1.3183 8.10944 5.64946 0.564878 10.7809
files/tasks_parameters/ExAp01/sample17.txt 1.25401 7.11225 5.46658 0.527183 10.0614
files/tasks_parameters/ExAp01/sample9.txt 1.1815 7.62559 5.37813 0.517277 9.87237
files/tasks_parameters/ExAp01/sample34.txt 1.2448 7.04587 5.93037 0.497709 9.49891
files/tasks_parameters/ExAp01/sample40.txt 1.22744 8.03037 5.123 0.502383 9.5881
files/tasks_parameters/ExAp01/sample33.txt 1.61164 9.22935 5.92956 0.659262 12.5822
files/tasks_parameters/ExAp01/sample48.txt 1.15203 8.12182 5.1577 0.452491 8.6359
files/tasks_parameters/ExAp01/sample29.txt 1.51595 8.06133 5.12331 0.650652 12.4179
files/tasks_parameters/ExAp01/sample11.txt 1.35889 7.63104 5.37897 0.563302 10.7508
files/tasks_parameters/ExAp01/sample14.txt 1.13168 6.66403 4.66322 0.471536 8.99939
files/tasks_parameters/ExAp01/sample0.txt 1.5117 9.3266 4.98971 0.6311 12.0447
files/tasks_parameters/ExAp01/sample7.txt 1.23356 7.34863 5.19436 0.515527 9.83897
files/tasks_parameters/ExAp01/sample23.txt 1.40203 6.68564 5.54308 0.588617 11.2339
files/tasks_parameters/ExAp01/sample13.txt 1.52481 9.31093 5.35591 0.632849 12.0781
files/tasks_parameters/ExAp01/sample22.txt 1.30635 7.65588 5.04866 0.540336 10.3125
files/tasks_parameters/ExAp01/sample25.txt 1.0295 6.17035 5.0141 0.408296 7.79243
files/tasks_parameters/ExAp01/sample36.txt 1.19007 7.03772 4.66274 0.507647 9.68858
files/tasks_parameters/ExAp01/sample46.txt 1.35236 7.73433 4.79934 0.536843 10.2458
files/tasks_parameters/ExAp01/sample31.txt 1.16998 6.96928 5.16482 0.485817 9.27195
files/tasks_parameters/ExAp01/sample37.txt 1.55195 9.52443 5.74224 0.65799 12.5579
files/tasks_parameters/ExAp01/sample16.txt 1.33876 8.63521 4.97261 0.516328 9.85425
files/tasks_parameters/ExAp01/sample10.txt 1.39877 7.28353 6.16876 0.615651 11.7499
files/tasks_parameters/ExAp01/sample39.txt 1.14417 6.3405 4.6137 0.468873 8.94857
files/tasks_parameters/ExAp01/sample19.txt 1.40407 8.85528 5.22306 0.622152 11.8739
files/tasks_parameters/ExAp01/sample20.txt 1.39217 8.1141 5.21177 0.586994 11.2029
files/tasks_parameters/ExAp01/sample43.txt 1.28062 7.21373 5.6367 0.53748 10.2579
files/tasks_parameters/ExAp01/sample32.txt 1.43715 8.30592 5.38137 0.593918 11.3351
files/tasks_parameters/ExAp01/sample45.txt 1.31006 7.94069 4.96323 0.547271 10.4448
files/tasks_parameters/ExAp01/sample26.txt 1.12386 7.57061 4.62637 0.480146 9.16371
files/tasks_parameters/ExAp01/sample5.txt 1.37341 8.0307 5.35681 0.59407 11.338
files/tasks_parameters/ExAp01/sample21.txt 1.02755 5.87802 4.61744 0.434264 8.28805
files/tasks_parameters/ExAp01/sample38.txt 1.2847 7.66999 4.86632 0.496808 9.48171
files/tasks_parameters/ExAp01/sample1.txt 1.14035 7.21312 4.63213 0.486293 9.28104
files/tasks_parameters/ExAp01/sample15.txt 1.28125 8.02273 5.50855 0.531063 10.1355
files/tasks_parameters/ExAp01/sample24.txt 1.30705 8.66348 5.4905 0.548998 10.4778
files/tasks_parameters/ExAp01/sample3.txt 1.18752 7.74268 4.79918 0.477387 9.11105
files/tasks_parameters/ExAp01/sample6.txt 1.488 8.57133 5.80157 0.633604 12.0925
files/tasks_parameters/ExAp01/sample30.txt 1.66528 8.18878 5.90888 0.633576 12.092
files/tasks_parameters/ExAp01/sample42.txt 1.30673 8.57689 5.67253 0.54426 10.3873
files/tasks_parameters/ExAp01/sample4.txt 1.28278 8.40354 4.57985 0.563519 10.7549
files/tasks_parameters/ExAp01/sample28.txt 1.11294 6.44114 4.96426 0.449721 8.58305
files/tasks_parameters/ExAp01/sample18.txt 1.29188 8.56363 4.60946 0.543766 10.3779
files/tasks_parameters/ExAp01/sample35.txt 1.91439 11.0387 6.34514 0.761377 14.5311
files/tasks_parameters/ExAp01/sample47.txt 1.32345 7.14493 5.22131 0.545046 10.4023
files/tasks_parameters/ExAp01/sample49.txt 1.29203 6.65996 4.80244 0.498533 9.51464
files/tasks_parameters/ExAp01/sample41.txt 1.18983 7.09069 5.35462 0.497129 9.48783
