files/tasks_parameters/ExAp01/sample8.txt 1.08361 3.76817 4.3855 0.450105 12.39
files/tasks_parameters/ExAp01/sample12.txt 1.49418 5.03638 5.18776 0.610564 16.8069
files/tasks_parameters/ExAp01/sample2.txt 1.40477 4.58991 5.64606 0.613877 16.8981
files/tasks_parameters/ExAp01/sample44.txt 1.24953 3.77401 5.66946 0.551838 15.1904
files/tasks_parameters/ExAp01/sample27.txt 1.29418 4.13937 5.56136 0.55779 15.3542
files/tasks_parameters/ExAp01/sample17.txt 1.19405 3.76163 5.38341 0.520991 14.3413
files/tasks_parameters/ExAp01/sample9.txt 1.16122 3.69889 5.2981 0.511699 14.0855
files/tasks_parameters/ExAp01/sample34.txt 1.13513 3.52435 5.83741 0.49187 13.5397
files/tasks_parameters/ExAp01/sample40.txt 1.15486 4.06185 5.0335 0.496884 13.6777
files/tasks_parameters/ExAp01/sample33.txt 1.55311 4.82091 5.83886 0.651963 17.9465
files/tasks_parameters/ExAp01/sample48.txt 1.06928 4.01134 5.07085 0.447927 12.33
files/tasks_parameters/ExAp01/sample29.txt 1.46133 4.20847 5.0406 0.643694 17.7189
files/tasks_parameters/ExAp01/sample11.txt 1.31879 3.94699 5.29198 0.557276 15.3401
files/tasks_parameters/ExAp01/sample14.txt 1.07005 3.54059 4.58345 0.466713 12.8472
files/tasks_parameters/ExAp01/sample0.txt 1.5406 4.82755 4.90216 0.623551 17.1644
files/tasks_parameters/ExAp01/sample7.txt 1.15513 3.60766 5.11185 0.509566 14.0268
files/tasks_parameters/ExAp01/sample23.txt 1.39278 3.81403 5.45799 0.582911 16.0457
files/tasks_parameters/ExAp01/sample13.txt 1.48722 4.8894 5.26818 0.624499 17.1905
files/tasks_parameters/ExAp01/sample22.txt 1.29323 3.76156 4.95746 0.534216 14.7053
files/tasks_parameters/ExAp01/sample25.txt 0.982879 2.94144 4.92622 0.403639 11.1109
files/tasks_parameters/ExAp01/sample36.txt 1.25826 3.56164 4.5806 0.501799 13.813
files/tasks_parameters/ExAp01/sample46.txt 1.23268 3.84833 4.7121 0.530701 14.6085
files/tasks_parameters/ExAp01/sample31.txt 1.09396 3.764 5.08385 0.479734 13.2056
files/tasks_parameters/ExAp01/sample37.txt 1.52712 4.43254 5.65111 0.65143 17.9318
files/tasks_parameters/ExAp01/sample16.txt 1.2713 4.49741 4.8895 0.509171 14.0159
files/tasks_parameters/ExAp01/sample10.txt 1.38978 3.87086 6.07511 0.60993 16.7895
files/tasks_parameters/ExAp01/sample39.txt 1.05999 3.66299 4.54281 0.463671 12.7634
files/tasks_parameters/ExAp01/sample19.txt 1.40899 3.86694 5.14047 0.615987 16.9562
files/tasks_parameters/ExAp01/sample20.txt 1.30362 4.09945 5.13368 0.580369 15.9757
files/tasks_parameters/ExAp01/sample43.txt 1.15313 3.75825 5.55698 0.530892 14.6138
files/tasks_parameters/ExAp01/sample32.txt 1.42858 4.0352 5.29178 0.587643 16.176
files/tasks_parameters/ExAp01/sample45.txt 1.22569 3.94578 4.87833 0.541081 14.8943
files/tasks_parameters/ExAp01/sample26.txt 1.11295 3.50998 4.55035 0.474009 13.048
files/tasks_parameters/ExAp01/sample5.txt 1.38263 4.00994 5.27725 0.587681 16.177
files/tasks_parameters/ExAp01/sample21.txt 0.933921 2.8974 4.54677 0.430037 11.8376
files/tasks_parameters/ExAp01/sample38.txt 1.15783 3.56689 4.78573 0.492366 13.5533
files/tasks_parameters/ExAp01/sample1.txt 1.20389 3.69002 4.55048 0.481074 13.2425
files/tasks_parameters/ExAp01/sample15.txt 1.20629 3.73223 5.42493 0.524964 14.4506
files/tasks_parameters/ExAp01/sample24.txt 1.31081 4.18053 5.40377 0.542575 14.9354
files/tasks_parameters/ExAp01/sample3.txt 1.08376 3.70547 4.7118 0.470503 12.9515
files/tasks_parameters/ExAp01/sample6.txt 1.4201 4.07521 5.71419 0.626702 17.2512
files/tasks_parameters/ExAp01/sample30.txt 1.49449 3.97446 5.82388 0.626709 17.2514
files/tasks_parameters/ExAp01/sample42.txt 1.29681 4.44207 5.58473 0.537025 14.7826
files/tasks_parameters/ExAp01/sample4.txt 1.40231 3.92181 4.49751 0.556974 15.3318
files/tasks_parameters/ExAp01/sample28.txt 1.04732 3.13496 4.88321 0.444588 12.2381
files/tasks_parameters/ExAp01/sample18.txt 1.22803 3.95301 4.52898 0.537438 14.794
files/tasks_parameters/ExAp01/sample35.txt 1.80766 5.75923 6.25034 0.752488 20.7136
files/tasks_parameters/ExAp01/sample47.txt 1.16153 3.44018 5.14289 0.540033 14.8654
files/tasks_parameters/ExAp01/sample49.txt 1.19873 3.38981 4.72409 0.493041 13.5719
files/tasks_parameters/ExAp01/sample41.txt 1.10214 3.58692 5.27252 0.492391 13.554
