files/tasks_parameters/ExAp01/sample8.txt 1.06507 6.77015 2.19458 0.288816 6.01681
files/tasks_parameters/ExAp01/sample12.txt 1.27627 9.58351 2.46081 0.337498 7.03099
files/tasks_parameters/ExAp01/sample2.txt 1.191 8.44418 2.50701 0.319127 6.64827
files/tasks_parameters/ExAp01/sample44.txt 1.03909 6.96299 2.23089 0.28229 5.88086
files/tasks_parameters/ExAp01/sample27.txt 1.09549 7.74306 2.16676 0.28602 5.95855
files/tasks_parameters/ExAp01/sample17.txt 1.08977 7.35053 2.25579 0.292348 6.09037
files/tasks_parameters/ExAp01/sample9.txt 1.08474 6.89392 2.21068 0.282399 5.88312
files/tasks_parameters/ExAp01/sample34.txt 1.08305 6.62788 2.3772 0.297742 6.20275
files/tasks_parameters/ExAp01/sample40.txt 1.03441 7.75686 2.17534 0.285619 5.95021
files/tasks_parameters/ExAp01/sample33.txt 1.24781 8.14826 2.6463 0.338073 7.04296
files/tasks_parameters/ExAp01/sample48.txt 0.9964 7.64107 2.14272 0.270011 5.62505
files/tasks_parameters/ExAp01/sample29.txt 1.10987 7.139 1.93769 0.286306 5.96451
files/tasks_parameters/ExAp01/sample11.txt 1.01611 6.88688 2.12981 0.280008 5.83332
files/tasks_parameters/ExAp01/sample14.txt 0.895828 6.11983 1.97599 0.247458 5.1552
files/tasks_parameters/ExAp01/sample0.txt 1.08613 8.2738 2.14256 0.289132 6.02338
files/tasks_parameters/ExAp01/sample7.txt 1.03164 6.87011 2.05821 0.269886 5.62243
files/tasks_parameters/ExAp01/sample23.txt 1.13148 6.52032 2.38087 0.291712 6.07712
files/tasks_parameters/ExAp01/sample13.txt 1.12356 8.73247 2.33415 0.295393 6.15381
files/tasks_parameters/ExAp01/sample22.txt 1.08552 6.9777 2.28948 0.283979 5.91604
files/tasks_parameters/ExAp01/sample25.txt 0.969139 6.23444 2.2122 0.267298 5.56852
files/tasks_parameters/ExAp01/sample36.txt 0.950304 6.6174 1.9458 0.253823 5.2878
files/tasks_parameters/ExAp01/sample46.txt 1.25159 7.42369 2.49128 0.327273 6.81796
files/tasks_parameters/ExAp01/sample31.txt 0.982306 7.22028 2.13584 0.25377 5.2867
files/tasks_parameters/ExAp01/sample37.txt 1.11254 8.90704 2.16981 0.295708 6.16038
files/tasks_parameters/ExAp01/sample16.txt 0.953106 8.18243 1.88294 0.24945 5.1967
files/tasks_parameters/ExAp01/sample10.txt 1.0857 6.96646 2.31217 0.285748 5.95289
files/tasks_parameters/ExAp01/sample39.txt 0.925994 6.4161 1.97266 0.251967 5.24913
files/tasks_parameters/ExAp01/sample19.txt 1.18674 8.16711 2.23199 0.308463 6.4261
files/tasks_parameters/ExAp01/sample20.txt 0.953532 7.28549 1.88944 0.25994 5.41523
files/tasks_parameters/ExAp01/sample43.txt 0.938464 6.86804 2.00142 0.25616 5.33649
files/tasks_parameters/ExAp01/sample32.txt 1.08193 8.15663 2.12995 0.281726 5.86911
files/tasks_parameters/ExAp01/sample45.txt 1.09854 7.75184 2.10599 0.274935 5.72762
files/tasks_parameters/ExAp01/sample26.txt 0.984525 7.4944 1.88956 0.267248 5.56748
files/tasks_parameters/ExAp01/sample5.txt 1.07729 8.08362 2.09961 0.28454 5.92773
files/tasks_parameters/ExAp01/sample21.txt 0.989407 6.11814 2.17119 0.26143 5.44627
files/tasks_parameters/ExAp01/sample38.txt 0.991612 7.761 1.96293 0.263659 5.49271
files/tasks_parameters/ExAp01/sample1.txt 1.10406 7.83752 2.13261 0.289228 6.02539
files/tasks_parameters/ExAp01/sample15.txt 1.06714 7.37971 2.12057 0.285825 5.9545
files/tasks_parameters/ExAp01/sample24.txt 1.09456 8.28531 2.25272 0.296628 6.17956
files/tasks_parameters/ExAp01/sample3.txt 1.15457 7.33359 2.39135 0.305084 6.35572
files/tasks_parameters/ExAp01/sample6.txt 1.03642 7.09894 2.24425 0.281804 5.87073
files/tasks_parameters/ExAp01/sample30.txt 1.22529 8.17669 2.03701 0.299204 6.23322
files/tasks_parameters/ExAp01/sample42.txt 1.10116 7.70416 2.42413 0.29743 6.19625
files/tasks_parameters/ExAp01/sample4.txt 1.18533 7.41691 2.36261 0.307803 6.41235
files/tasks_parameters/ExAp01/sample28.txt 1.01367 7.0562 2.07657 0.266428 5.5504
files/tasks_parameters/ExAp01/sample18.txt 0.995114 7.60139 2.1377 0.268016 5.58348
files/tasks_parameters/ExAp01/sample35.txt 1.23242 9.66795 2.28028 0.32244 6.71727
files/tasks_parameters/ExAp01/sample47.txt 0.932231 6.84842 2.12104 0.251655 5.24263
files/tasks_parameters/ExAp01/sample49.txt 0.967258 7.1497 2.11412 0.255889 5.33084
files/tasks_parameters/ExAp01/sample41.txt 0.974616 6.59911 2.07359 0.265885 5.5391
