files/tasks_parameters/ExAp01/sample8.txt 0.741284 3.15778 1.5595 0.203411 7.54381
files/tasks_parameters/ExAp01/sample12.txt 0.783114 3.94962 1.6705 0.207924 7.71118
files/tasks_parameters/ExAp01/sample2.txt 0.731387 3.78275 1.74131 0.200098 7.42093
files/tasks_parameters/ExAp01/sample44.txt 0.713809 3.59825 1.65317 0.200005 7.4175
files/tasks_parameters/ExAp01/sample27.txt 0.702475 3.45743 1.5148 0.182129 6.75452
files/tasks_parameters/ExAp01/sample17.txt 0.559701 2.77299 1.44514 0.14646 5.43169
files/tasks_parameters/ExAp01/sample9.txt 0.673803 2.99933 1.451 0.177444 6.58077
files/tasks_parameters/ExAp01/sample34.txt 0.595061 3.02928 1.58429 0.157984 5.85907
files/tasks_parameters/ExAp01/sample40.txt 0.667049 3.86889 1.52122 0.168379 6.24461
files/tasks_parameters/ExAp01/sample33.txt 0.730948 3.63695 1.71905 0.199765 7.40859
files/tasks_parameters/ExAp01/sample48.txt 0.59957 3.39061 1.49062 0.154728 5.73833
files/tasks_parameters/ExAp01/sample29.txt 0.790901 3.30472 1.38739 0.223868 8.3025
files/tasks_parameters/ExAp01/sample11.txt 0.655508 3.10585 1.41612 0.174079 6.45597
files/tasks_parameters/ExAp01/sample14.txt 0.591623 2.70971 1.43432 0.162214 6.01597
files/tasks_parameters/ExAp01/sample0.txt 0.702352 3.6937 1.5439 0.18367 6.81168
files/tasks_parameters/ExAp01/sample7.txt 0.567638 2.70501 1.42221 0.143463 5.32056
files/tasks_parameters/ExAp01/sample23.txt 0.678222 3.2697 1.57822 0.181448 6.7293
files/tasks_parameters/ExAp01/sample13.txt 0.716583 3.84225 1.67648 0.198247 7.3523
files/tasks_parameters/ExAp01/sample22.txt 0.586715 3.09569 1.56121 0.148796 5.51833
files/tasks_parameters/ExAp01/sample25.txt 0.53976 2.73966 1.5007 0.148149 5.49432
files/tasks_parameters/ExAp01/sample36.txt 0.508923 2.85948 1.28553 0.130042 4.82282
files/tasks_parameters/ExAp01/sample46.txt 0.770954 3.58643 1.69998 0.210103 7.79198
files/tasks_parameters/ExAp01/sample31.txt 0.669897 3.4832 1.53782 0.1722 6.3863
files/tasks_parameters/ExAp01/sample37.txt 0.672619 3.95293 1.50705 0.171701 6.3678
files/tasks_parameters/ExAp01/sample16.txt 0.601498 3.31216 1.30115 0.150249 5.57221
files/tasks_parameters/ExAp01/sample10.txt 0.621546 3.17098 1.61789 0.153776 5.70303
files/tasks_parameters/ExAp01/sample39.txt 0.622202 3.26617 1.44406 0.165669 6.14408
files/tasks_parameters/ExAp01/sample19.txt 0.731061 3.63532 1.52509 0.196094 7.27246
files/tasks_parameters/ExAp01/sample20.txt 0.53848 3.20793 1.25367 0.147335 5.46416
files/tasks_parameters/ExAp01/sample43.txt 0.577176 3.11551 1.4202 0.150644 5.58688
files/tasks_parameters/ExAp01/sample32.txt 0.680027 3.5311 1.42482 0.168744 6.25814
files/tasks_parameters/ExAp01/sample45.txt 0.757533 3.80283 1.48324 0.19807 7.34575
files/tasks_parameters/ExAp01/sample26.txt 0.610395 3.21645 1.29701 0.166061 6.15864
files/tasks_parameters/ExAp01/sample5.txt 0.687799 3.5889 1.52559 0.178903 6.63491
files/tasks_parameters/ExAp01/sample21.txt 0.708551 2.75242 1.55936 0.19512 7.23634
files/tasks_parameters/ExAp01/sample38.txt 0.598615 3.31563 1.37515 0.166157 6.16218
files/tasks_parameters/ExAp01/sample1.txt 0.709965 3.74964 1.51696 0.19701 7.30641
files/tasks_parameters/ExAp01/sample15.txt 0.648914 3.32916 1.48508 0.180707 6.70181
files/tasks_parameters/ExAp01/sample24.txt 0.635714 3.45951 1.59549 0.16529 6.13005
files/tasks_parameters/ExAp01/sample3.txt 0.877076 3.70014 1.70809 0.237107 8.79348
files/tasks_parameters/ExAp01/sample6.txt 0.679243 3.33003 1.58323 0.184714 6.85042
files/tasks_parameters/ExAp01/sample30.txt 0.881025 4.1841 1.4861 0.239623 8.88679
files/tasks_parameters/ExAp01/sample42.txt 0.648837 3.43221 1.70276 0.177383 6.57852
files/tasks_parameters/ExAp01/sample4.txt 0.774433 3.72477 1.6136 0.196448 7.28558
files/tasks_parameters/ExAp01/sample28.txt 0.580618 3.11323 1.45032 0.158819 5.89005
files/tasks_parameters/ExAp01/sample18.txt 0.562489 3.47418 1.45209 0.149064 5.52826
files/tasks_parameters/ExAp01/sample35.txt 0.720138 4.57086 1.49394 0.185031 6.86215
files/tasks_parameters/ExAp01/sample47.txt 0.618796 3.13768 1.52397 0.16417 6.0885
files/tasks_parameters/ExAp01/sample49.txt 0.600764 3.13288 1.49657 0.156154 5.79122
files/tasks_parameters/ExAp01/sample41.txt 0.570304 2.81964 1.49636 0.150876 5.59547
