0.30175179
Task0 31 7 7 
Task1 127 63 31 
Task2 31 7 3 
Task3 15 7 255 
Task4 1 15 63 
Task5 7 3 63 
Task6 31 15 63 
Task7 15 31 7 
Task8 7 3 255 
Task9 63 3 1 
Task10 1 31 1 
Task11 7 63 15 
Task12 1 63 7 
Task13 31 63 31 
Task14 15 15 127 
Task15 255 7 15 
Task16 127 255 255 
Task17 15 127 1 
Task18 7 255 15 
Task19 31 63 7 
Task20 63 31 3 
Task21 255 127 1 
Task22 15 1 63 
Task23 7 3 31 
Task24 255 255 255 
Task25 15 255 15 
Task26 31 7 63 
Task27 63 15 7 
Task28 63 63 31 
Task29 63 31 31 
Task30 63 3 15 
Task31 63 1 3 
Task32 31 7 31 
Task33 3 31 15 
Task34 15 63 63 
Task35 15 63 7 
Task36 31 127 7 
Task37 255 1 7 
Task38 63 127 1 
Task39 1 7 63 
Task40 3 63 15 
Task41 3 63 7 
Task42 127 15 7 
Task43 15 63 31 
Task44 7 63 31 
Task45 15 3 63 
Task46 7 63 3 
Task47 63 31 15 
Task48 3 255 63 
Task49 63 31 31 
Task50 7 63 7 
Task51 31 15 255 
Task52 7 3 63 
Task53 7 255 15 
Task54 63 1 31 
Task55 1 31 7 
Task56 63 63 63 
Task57 31 31 63 
Task58 7 31 255 
Task59 63 63 31 
Task60 255 7 63 
Task61 31 31 31 
Task62 255 3 1 
Task63 15 31 63 
Task64 127 255 63 
Task65 255 255 7 
Task66 63 1 3 
Task67 31 15 63 
Task68 7 63 1 
Task69 255 127 63 
Task70 63 255 1 
Task71 15 63 63 
Task72 31 127 31 
Task73 255 1 63 
Task74 3 15 255 
Task75 255 31 63 
Task76 63 3 63 
Task77 31 63 7 
Task78 15 63 31 
Task79 31 15 7 
Task80 15 7 63 
Task81 255 127 3 
Task82 15 63 7 
Task83 63 255 31 
Task84 127 127 63 
Task85 15 1 63 
Task86 127 63 7 
Task87 3 31 3 
Task88 31 255 15 
Task89 7 31 255 
Task90 63 3 31 
Task91 31 63 1 
Task92 63 63 3 
Task93 31 255 7 
Task94 63 15 31 
Task95 127 127 63 
Task96 15 255 7 
Task97 63 255 7 
Task98 31 3 127 
Task99 31 31 63 
