files/tasks_parameters/ExAp01/sample8.txt 1.0987 6.77015 2.19458 0.288816 11.8347
files/tasks_parameters/ExAp01/sample12.txt 1.2294 9.58351 2.46081 0.337498 13.8295
files/tasks_parameters/ExAp01/sample2.txt 1.13919 8.44418 2.50701 0.319127 13.0767
files/tasks_parameters/ExAp01/sample44.txt 1.10228 6.96299 2.23089 0.28229 11.5672
files/tasks_parameters/ExAp01/sample27.txt 1.15205 7.74306 2.16676 0.28602 11.7201
files/tasks_parameters/ExAp01/sample17.txt 1.10882 7.35053 2.25579 0.292348 11.9793
files/tasks_parameters/ExAp01/sample9.txt 1.0293 6.89392 2.21068 0.282399 11.5717
files/tasks_parameters/ExAp01/sample34.txt 1.07022 6.62788 2.3772 0.297742 12.2004
files/tasks_parameters/ExAp01/sample40.txt 1.11014 7.75686 2.17534 0.285619 11.7036
files/tasks_parameters/ExAp01/sample33.txt 1.30629 8.14826 2.6463 0.338073 13.853
files/tasks_parameters/ExAp01/sample48.txt 1.02766 7.64107 2.14272 0.270011 11.0641
files/tasks_parameters/ExAp01/sample29.txt 1.01109 7.139 1.93769 0.286306 11.7318
files/tasks_parameters/ExAp01/sample11.txt 1.07559 6.88688 2.12981 0.280008 11.4737
files/tasks_parameters/ExAp01/sample14.txt 0.950985 6.11983 1.97599 0.247458 10.1399
files/tasks_parameters/ExAp01/sample0.txt 1.07604 8.2738 2.14256 0.289132 11.8476
files/tasks_parameters/ExAp01/sample7.txt 1.04531 6.87011 2.05821 0.269886 11.0589
files/tasks_parameters/ExAp01/sample23.txt 1.11731 6.52032 2.38087 0.291712 11.9533
files/tasks_parameters/ExAp01/sample13.txt 1.25923 8.73247 2.33415 0.295393 12.1041
files/tasks_parameters/ExAp01/sample22.txt 1.10259 6.9777 2.28948 0.283979 11.6364
files/tasks_parameters/ExAp01/sample25.txt 1.00304 6.23444 2.2122 0.267298 10.9529
files/tasks_parameters/ExAp01/sample36.txt 0.947105 6.6174 1.9458 0.253823 10.4007
files/tasks_parameters/ExAp01/sample46.txt 1.30481 7.42369 2.49128 0.327273 13.4105
files/tasks_parameters/ExAp01/sample31.txt 0.971494 7.22028 2.13584 0.25377 10.3986
files/tasks_parameters/ExAp01/sample37.txt 1.1488 8.90704 2.16981 0.295708 12.1171
files/tasks_parameters/ExAp01/sample16.txt 0.963326 8.18243 1.88294 0.24945 10.2215
files/tasks_parameters/ExAp01/sample10.txt 1.02856 6.96646 2.31217 0.285748 11.7089
files/tasks_parameters/ExAp01/sample39.txt 1.06105 6.4161 1.97266 0.251967 10.3247
files/tasks_parameters/ExAp01/sample19.txt 1.16785 8.16711 2.23199 0.308463 12.6397
files/tasks_parameters/ExAp01/sample20.txt 0.923026 7.28549 1.88944 0.25994 10.6514
files/tasks_parameters/ExAp01/sample43.txt 0.925213 6.86804 2.00142 0.25616 10.4965
files/tasks_parameters/ExAp01/sample32.txt 1.09914 8.15663 2.12995 0.281726 11.5441
files/tasks_parameters/ExAp01/sample45.txt 1.09551 7.75184 2.10599 0.274935 11.2658
files/tasks_parameters/ExAp01/sample26.txt 0.962355 7.4944 1.88956 0.267248 10.9509
files/tasks_parameters/ExAp01/sample5.txt 1.09718 8.08362 2.09961 0.28454 11.6594
files/tasks_parameters/ExAp01/sample21.txt 0.973858 6.11814 2.17119 0.26143 10.7124
files/tasks_parameters/ExAp01/sample38.txt 1.03059 7.761 1.96293 0.263659 10.8038
files/tasks_parameters/ExAp01/sample1.txt 1.06658 7.83752 2.13261 0.289228 11.8515
files/tasks_parameters/ExAp01/sample15.txt 1.06409 7.37971 2.12057 0.285825 11.7121
files/tasks_parameters/ExAp01/sample24.txt 1.16132 8.28531 2.25272 0.296628 12.1548
files/tasks_parameters/ExAp01/sample3.txt 1.24359 7.33359 2.39135 0.305084 12.5013
files/tasks_parameters/ExAp01/sample6.txt 1.01297 7.09894 2.24425 0.281804 11.5473
files/tasks_parameters/ExAp01/sample30.txt 1.21264 8.17669 2.03701 0.299204 12.2603
files/tasks_parameters/ExAp01/sample42.txt 1.10188 7.70416 2.42413 0.29743 12.1876
files/tasks_parameters/ExAp01/sample4.txt 1.20463 7.41691 2.36261 0.307803 12.6126
files/tasks_parameters/ExAp01/sample28.txt 1.09447 7.0562 2.07657 0.266428 10.9173
files/tasks_parameters/ExAp01/sample18.txt 1.052 7.60139 2.1377 0.268016 10.9823
files/tasks_parameters/ExAp01/sample35.txt 1.2023 9.66795 2.28028 0.32244 13.2124
files/tasks_parameters/ExAp01/sample47.txt 0.94971 6.84842 2.12104 0.251655 10.3119
files/tasks_parameters/ExAp01/sample49.txt 1.02064 7.1497 2.11412 0.255889 10.4854
files/tasks_parameters/ExAp01/sample41.txt 0.967884 6.59911 2.07359 0.265885 10.895
