0.39401927
Task0 15 63 15 
Task1 63 1 15 
Task2 31 15 255 
Task3 31 15 63 
Task4 7 63 31 
Task5 63 15 3 
Task6 15 255 255 
Task7 31 31 255 
Task8 255 63 15 
Task9 3 3 63 
Task10 127 255 63 
Task11 255 63 63 
Task12 63 63 63 
Task13 127 127 3 
Task14 31 127 63 
Task15 127 7 255 
Task16 3 15 63 
Task17 255 63 127 
Task18 15 15 127 
Task19 31 127 127 
Task20 63 7 1 
Task21 31 255 63 
Task22 127 127 127 
Task23 15 255 31 
Task24 31 15 63 
Task25 63 63 63 
Task26 31 127 31 
Task27 7 1 63 
Task28 255 255 31 
Task29 127 255 15 
Task30 31 31 255 
Task31 63 255 7 
Task32 127 3 63 
Task33 63 255 63 
Task34 31 31 7 
Task35 63 127 31 
Task36 63 31 15 
Task37 15 127 127 
Task38 63 3 7 
Task39 255 15 15 
Task40 63 15 7 
Task41 3 255 255 
Task42 63 127 31 
Task43 1 3 63 
Task44 255 15 63 
Task45 31 15 63 
Task46 127 255 127 
Task47 31 63 7 
Task48 3 63 31 
Task49 7 255 255 
Task50 127 255 15 
Task51 3 63 7 
Task52 63 3 1 
Task53 31 7 255 
Task54 7 63 63 
Task55 127 63 63 
Task56 255 3 15 
Task57 255 31 255 
Task58 31 31 127 
Task59 31 63 1 
Task60 63 15 3 
Task61 31 255 31 
Task62 15 1 63 
Task63 3 7 63 
Task64 15 63 255 
Task65 255 63 63 
Task66 7 7 31 
Task67 63 7 63 
Task68 7 15 127 
Task69 63 31 255 
Task70 7 63 15 
Task71 15 127 31 
Task72 1 1 255 
Task73 127 127 31 
Task74 1 255 31 
Task75 255 255 255 
Task76 31 15 7 
Task77 127 63 31 
Task78 63 15 31 
Task79 31 1 63 
Task80 127 31 127 
Task81 255 255 255 
Task82 15 7 63 
Task83 31 127 31 
Task84 63 255 255 
Task85 15 127 255 
Task86 63 127 63 
Task87 15 255 1 
Task88 1 15 63 
Task89 63 31 63 
Task90 7 63 1 
Task91 63 255 7 
Task92 255 15 63 
Task93 1 31 31 
Task94 31 63 63 
Task95 63 127 255 
Task96 255 63 31 
Task97 127 255 255 
Task98 3 255 63 
Task99 15 31 255 
