files/tasks_parameters/ExAp01/sample8.txt 1.11035 7.2562 4.46819 0.454772 11.2647
files/tasks_parameters/ExAp01/sample12.txt 1.60256 9.70908 5.28286 0.618515 15.3206
files/tasks_parameters/ExAp01/sample2.txt 1.45442 8.14159 5.7401 0.620531 15.3706
files/tasks_parameters/ExAp01/sample44.txt 1.33358 7.25164 5.75904 0.557631 13.8125
files/tasks_parameters/ExAp01/sample27.txt 1.31959 8.10944 5.64946 0.564878 13.9921
files/tasks_parameters/ExAp01/sample17.txt 1.24756 7.11225 5.46658 0.527183 13.0583
files/tasks_parameters/ExAp01/sample9.txt 1.18337 7.62559 5.37813 0.517277 12.813
files/tasks_parameters/ExAp01/sample34.txt 1.23859 7.04587 5.93037 0.497709 12.3283
files/tasks_parameters/ExAp01/sample40.txt 1.20264 8.03037 5.123 0.502383 12.444
files/tasks_parameters/ExAp01/sample33.txt 1.62161 9.22935 5.92956 0.659262 16.3299
files/tasks_parameters/ExAp01/sample48.txt 1.15051 8.12182 5.1577 0.452491 11.2082
files/tasks_parameters/ExAp01/sample29.txt 1.52238 8.06133 5.12331 0.650652 16.1167
files/tasks_parameters/ExAp01/sample11.txt 1.3591 7.63104 5.37897 0.563302 13.953
files/tasks_parameters/ExAp01/sample14.txt 1.13396 6.66403 4.66322 0.471536 11.68
files/tasks_parameters/ExAp01/sample0.txt 1.51591 9.3266 4.98971 0.6311 15.6324
files/tasks_parameters/ExAp01/sample7.txt 1.28633 7.34863 5.19436 0.515527 12.7696
files/tasks_parameters/ExAp01/sample23.txt 1.36291 6.68564 5.54308 0.588617 14.5801
files/tasks_parameters/ExAp01/sample13.txt 1.53075 9.31093 5.35591 0.632849 15.6757
files/tasks_parameters/ExAp01/sample22.txt 1.29495 7.65588 5.04866 0.540336 13.3841
files/tasks_parameters/ExAp01/sample25.txt 1.03102 6.17035 5.0141 0.408296 10.1135
files/tasks_parameters/ExAp01/sample36.txt 1.21375 7.03772 4.66274 0.507647 12.5744
files/tasks_parameters/ExAp01/sample46.txt 1.35048 7.73433 4.79934 0.536843 13.2976
files/tasks_parameters/ExAp01/sample31.txt 1.17611 6.96928 5.16482 0.485817 12.0337
files/tasks_parameters/ExAp01/sample37.txt 1.54146 9.52443 5.74224 0.65799 16.2984
files/tasks_parameters/ExAp01/sample16.txt 1.34113 8.63521 4.97261 0.516328 12.7894
files/tasks_parameters/ExAp01/sample10.txt 1.40133 7.28353 6.16876 0.615651 15.2497
files/tasks_parameters/ExAp01/sample39.txt 1.14438 6.3405 4.6137 0.468873 11.614
files/tasks_parameters/ExAp01/sample19.txt 1.40621 8.85528 5.22306 0.622152 15.4107
files/tasks_parameters/ExAp01/sample20.txt 1.39594 8.1141 5.21177 0.586994 14.5398
files/tasks_parameters/ExAp01/sample43.txt 1.28843 7.21373 5.6367 0.53748 13.3134
files/tasks_parameters/ExAp01/sample32.txt 1.44395 8.30592 5.38137 0.593918 14.7114
files/tasks_parameters/ExAp01/sample45.txt 1.31563 7.94069 4.96323 0.547271 13.5559
files/tasks_parameters/ExAp01/sample26.txt 1.12704 7.57061 4.62637 0.480146 11.8932
files/tasks_parameters/ExAp01/sample5.txt 1.37749 8.0307 5.35681 0.59407 14.7151
files/tasks_parameters/ExAp01/sample21.txt 1.02975 5.87802 4.61744 0.434264 10.7567
files/tasks_parameters/ExAp01/sample38.txt 1.18994 7.66999 4.86632 0.496808 12.3059
files/tasks_parameters/ExAp01/sample1.txt 1.12402 7.21312 4.63213 0.486293 12.0455
files/tasks_parameters/ExAp01/sample15.txt 1.28394 8.02273 5.50855 0.531063 13.1544
files/tasks_parameters/ExAp01/sample24.txt 1.30014 8.66348 5.4905 0.548998 13.5987
files/tasks_parameters/ExAp01/sample3.txt 1.16002 7.74268 4.79918 0.477387 11.8249
files/tasks_parameters/ExAp01/sample6.txt 1.49305 8.57133 5.80157 0.633604 15.6944
files/tasks_parameters/ExAp01/sample30.txt 1.66943 8.18878 5.90888 0.633576 15.6937
files/tasks_parameters/ExAp01/sample42.txt 1.33044 8.57689 5.67253 0.54426 13.4813
files/tasks_parameters/ExAp01/sample4.txt 1.28166 8.40354 4.57985 0.563519 13.9584
files/tasks_parameters/ExAp01/sample28.txt 1.03974 6.44114 4.96426 0.449721 11.1396
files/tasks_parameters/ExAp01/sample18.txt 1.29999 8.56363 4.60946 0.543766 13.4691
files/tasks_parameters/ExAp01/sample35.txt 1.92465 11.0387 6.34514 0.761377 18.8593
files/tasks_parameters/ExAp01/sample47.txt 1.3273 7.14493 5.22131 0.545046 13.5008
files/tasks_parameters/ExAp01/sample49.txt 1.28718 6.65996 4.80244 0.498533 12.3487
files/tasks_parameters/ExAp01/sample41.txt 1.1976 7.09069 5.35462 0.497129 12.3139
