digraph G {
0 ->16 0 ->20 1 ->21 1 ->23 1 ->25 2 ->15 2 ->20 2 ->21 2 ->22 2 ->23 3 ->19 3 ->20 3 ->21 3 ->22 3 ->23 4 ->15 4 ->20 5 ->14 5 ->17 5 ->19 5 ->20 5 ->22 6 ->14 6 ->19 6 ->25 7 ->14 7 ->15 7 ->22 7 ->24 8 ->14 8 ->19 9 ->14 9 ->18 9 ->21 9 ->23 9 ->25 10 ->14 10 ->17 10 ->23 11 ->18 11 ->19 11 ->22 11 ->23 11 ->25 12 ->14 12 ->24 12 ->25 13 ->17 13 ->19 13 ->21 13 ->23 13 ->25 14 ->29 14 ->29 14 ->30 14 ->35 14 ->36 15 ->29 15 ->31 15 ->33 15 ->36 16 ->31 17 ->31 17 ->32 17 ->33 17 ->34 18 ->27 18 ->31 18 ->33 18 ->34 19 ->30 19 ->31 19 ->33 19 ->34 19 ->36 19 ->37 20 ->28 20 ->30 20 ->31 20 ->32 20 ->33 20 ->34 21 ->28 21 ->32 21 ->34 21 ->36 22 ->28 22 ->29 22 ->30 22 ->35 23 ->26 23 ->29 23 ->30 23 ->33 25 ->28 25 ->29 25 ->30 26 ->39 26 ->40 26 ->42 26 ->44 27 ->44 28 ->38 28 ->41 28 ->43 28 ->44 29 ->38 29 ->40 29 ->42 29 ->43 30 ->38 30 ->40 30 ->42 30 ->43 31 ->39 31 ->43 32 ->41 33 ->38 33 ->39 33 ->41 34 ->44 35 ->44 36 ->38 36 ->40 36 ->43 36 ->45 36 ->46 37 ->39 37 ->42 37 ->47 38 ->50 38 ->52 38 ->56 39 ->58 39 ->61 40 ->52 41 ->49 41 ->53 41 ->54 41 ->57 41 ->59 42 ->55 43 ->50 43 ->55 43 ->56 43 ->59 43 ->60 44 ->51 44 ->55 45 ->55 45 ->55 45 ->56 45 ->57 45 ->60 45 ->61 46 ->54 46 ->58 46 ->61 47 ->48 47 ->49 47 ->54 47 ->56 47 ->61 48 ->65 48 ->71 48 ->79 49 ->62 49 ->68 49 ->73 50 ->65 50 ->70 50 ->73 51 ->64 51 ->69 51 ->70 51 ->73 51 ->74 51 ->78 52 ->64 52 ->67 52 ->68 52 ->73 52 ->74 52 ->76 52 ->78 53 ->62 53 ->64 53 ->69 53 ->73 53 ->74 53 ->76 53 ->78 54 ->62 54 ->66 54 ->67 54 ->68 54 ->72 54 ->73 54 ->76 54 ->77 54 ->79 55 ->62 55 ->70 55 ->71 55 ->74 55 ->75 56 ->64 56 ->68 56 ->70 57 ->62 57 ->64 57 ->65 57 ->74 57 ->76 57 ->77 57 ->79 58 ->64 58 ->65 58 ->65 58 ->67 58 ->73 58 ->74 58 ->76 59 ->62 59 ->67 59 ->69 59 ->70 60 ->63 60 ->65 60 ->67 60 ->68 60 ->76 61 ->75 61 ->76 61 ->79 62 ->81 62 ->83 63 ->83 63 ->88 64 ->82 64 ->84 64 ->85 64 ->86 65 ->81 65 ->83 65 ->91 65 ->93 66 ->81 66 ->93 67 ->83 67 ->84 67 ->87 67 ->93 68 ->80 68 ->84 69 ->90 70 ->82 70 ->89 71 ->81 71 ->82 71 ->83 71 ->91 71 ->92 72 ->80 72 ->87 73 ->87 74 ->82 74 ->83 74 ->85 74 ->87 74 ->90 75 ->83 75 ->85 75 ->87 76 ->82 76 ->85 76 ->87 77 ->80 78 ->81 78 ->83 79 ->81 79 ->83 79 ->87 79 ->91 80 ->95 80 ->98 81 ->94 81 ->97 81 ->100 81 ->102 81 ->104 81 ->105 82 ->95 82 ->96 82 ->97 82 ->99 82 ->100 82 ->102 83 ->96 83 ->96 83 ->100 83 ->103 83 ->104 84 ->97 84 ->99 84 ->100 84 ->103 84 ->104 85 ->103 85 ->104 86 ->95 86 ->98 86 ->103 87 ->95 87 ->97 87 ->99 87 ->100 87 ->102 87 ->103 88 ->95 88 ->98 88 ->102 88 ->103 89 ->95 89 ->99 89 ->102 90 ->100 90 ->104 91 ->98 91 ->103 91 ->104 92 ->95 92 ->97 92 ->98 92 ->101 92 ->102 93 ->104 94 ->107 94 ->114 94 ->116 94 ->117 94 ->121 95 ->108 95 ->109 95 ->118 96 ->113 96 ->123 97 ->109 97 ->110 97 ->117 97 ->121 97 ->122 97 ->124 98 ->106 98 ->112 98 ->116 98 ->122 98 ->124 99 ->106 99 ->115 99 ->117 99 ->122 99 ->124 100 ->109 100 ->110 100 ->111 100 ->113 100 ->114 100 ->115 100 ->116 100 ->118 100 ->121 101 ->108 101 ->109 101 ->113 101 ->113 101 ->115 101 ->116 101 ->117 101 ->119 101 ->122 101 ->123 102 ->108 102 ->111 102 ->117 102 ->120 102 ->122 102 ->123 102 ->124 103 ->107 103 ->110 103 ->112 103 ->116 103 ->117 103 ->122 103 ->124 104 ->107 104 ->110 104 ->111 104 ->112 104 ->124 105 ->110 105 ->123 106 ->129 107 ->128 107 ->129 107 ->130 107 ->134 109 ->126 109 ->127 109 ->128 110 ->130 110 ->132 111 ->125 111 ->126 111 ->130 112 ->128 113 ->127 113 ->128 113 ->130 113 ->133 113 ->134 114 ->127 114 ->128 114 ->131 114 ->133 115 ->126 115 ->128 115 ->130 115 ->132 116 ->126 116 ->130 116 ->131 116 ->135 117 ->126 117 ->127 117 ->134 118 ->125 118 ->129 118 ->132 118 ->134 119 ->128 119 ->134 120 ->127 120 ->130 120 ->134 120 ->135 121 ->129 121 ->133 121 ->134 122 ->126 122 ->129 123 ->125 123 ->134 124 ->131 125 ->140 127 ->139 127 ->143 127 ->145 129 ->138 129 ->139 129 ->142 129 ->144 130 ->142 130 ->144 131 ->138 132 ->138 133 ->136 133 ->137 133 ->138 133 ->142 133 ->143 133 ->144 134 ->137 134 ->142 135 ->137 135 ->140 135 ->141 136 ->147 136 ->148 136 ->151 136 ->152 136 ->153 136 ->155 136 ->157 137 ->146 137 ->147 137 ->153 137 ->155 137 ->157 138 ->149 138 ->152 138 ->159 139 ->147 139 ->149 139 ->150 139 ->154 139 ->155 139 ->156 139 ->159 140 ->149 140 ->150 140 ->153 140 ->155 141 ->152 141 ->156 141 ->159 142 ->147 142 ->149 142 ->156 142 ->159 143 ->153 143 ->154 144 ->150 144 ->156 144 ->157 144 ->158 145 ->147 145 ->155 146 ->163 146 ->164 147 ->161 147 ->166 147 ->167 148 ->160 148 ->161 148 ->162 148 ->164 148 ->166 148 ->167 149 ->161 149 ->163 149 ->166 149 ->167 150 ->160 150 ->163 150 ->167 151 ->166 152 ->160 152 ->161 152 ->162 152 ->166 152 ->167 153 ->160 153 ->164 153 ->167 153 ->168 154 ->160 154 ->163 155 ->160 155 ->163 155 ->165 155 ->167 156 ->163 156 ->164 157 ->160 157 ->161 157 ->165 157 ->168 158 ->161 158 ->161 158 ->163 158 ->166 158 ->168 159 ->162 160 ->169 160 ->174 160 ->175 160 ->176 161 ->176 161 ->178 162 ->171 162 ->173 162 ->177 164 ->174 167 ->169 167 ->170 167 ->174 168 ->169 168 ->170 168 ->172 168 ->174 169 ->181 169 ->183 169 ->185 169 ->186 169 ->193 170 ->179 170 ->180 170 ->181 170 ->183 170 ->186 170 ->188 170 ->189 170 ->191 171 ->181 171 ->184 171 ->185 171 ->186 171 ->188 171 ->189 171 ->191 171 ->194 172 ->182 172 ->189 173 ->179 173 ->180 173 ->182 173 ->187 173 ->189 173 ->192 174 ->179 174 ->183 174 ->185 174 ->189 175 ->181 175 ->183 175 ->185 176 ->180 176 ->182 176 ->186 176 ->188 176 ->193 177 ->181 177 ->186 177 ->188 177 ->193 177 ->193 178 ->185 178 ->188 178 ->190 178 ->193 179 ->199 180 ->197 180 ->199 181 ->198 185 ->195 185 ->198 185 ->199 186 ->199 187 ->199 188 ->196 189 ->195 189 ->197 189 ->198 190 ->198 191 ->195 191 ->197 191 ->198 192 ->199 193 ->196 193 ->198 194 ->199 
}
