digraph G {
0 ->17 0 ->18 0 ->19 0 ->22 0 ->25 0 ->29 0 ->31 1 ->19 1 ->26 1 ->30 1 ->32 2 ->18 2 ->19 2 ->23 2 ->24 2 ->25 2 ->26 2 ->30 2 ->32 2 ->34 3 ->22 3 ->26 3 ->30 3 ->31 3 ->32 3 ->33 4 ->19 4 ->26 4 ->31 4 ->31 4 ->32 5 ->17 5 ->28 5 ->29 5 ->30 5 ->33 5 ->34 6 ->17 6 ->19 6 ->24 6 ->30 6 ->31 7 ->18 7 ->19 7 ->21 7 ->26 7 ->30 8 ->17 8 ->18 8 ->19 8 ->30 8 ->33 9 ->27 9 ->30 10 ->17 10 ->18 10 ->25 10 ->26 10 ->27 11 ->17 11 ->25 11 ->29 11 ->30 11 ->31 12 ->17 12 ->21 12 ->32 12 ->34 13 ->26 13 ->27 13 ->29 13 ->31 14 ->17 14 ->23 14 ->29 14 ->34 15 ->18 15 ->20 15 ->26 15 ->31 15 ->33 16 ->18 16 ->26 17 ->42 17 ->48 17 ->49 18 ->38 18 ->42 18 ->45 18 ->48 19 ->35 19 ->38 19 ->40 19 ->44 19 ->45 20 ->38 20 ->40 20 ->41 20 ->43 20 ->44 20 ->47 21 ->35 21 ->42 21 ->43 21 ->43 21 ->44 21 ->47 21 ->49 21 ->50 22 ->36 22 ->42 22 ->43 22 ->45 23 ->36 23 ->38 23 ->45 23 ->47 24 ->39 24 ->44 24 ->47 24 ->49 25 ->38 25 ->41 25 ->42 25 ->49 26 ->45 26 ->46 26 ->49 26 ->49 27 ->43 27 ->45 27 ->47 28 ->35 28 ->36 28 ->40 28 ->43 28 ->45 29 ->35 29 ->38 29 ->40 29 ->43 29 ->45 29 ->49 29 ->50 30 ->35 30 ->37 30 ->43 30 ->47 31 ->40 31 ->47 31 ->49 31 ->50 32 ->38 32 ->40 32 ->42 32 ->43 32 ->50 33 ->40 33 ->41 33 ->45 33 ->46 34 ->37 34 ->41 34 ->50 35 ->57 36 ->53 36 ->54 36 ->56 37 ->55 37 ->56 38 ->51 38 ->57 39 ->52 39 ->57 39 ->59 40 ->51 40 ->53 40 ->54 40 ->56 40 ->58 41 ->51 41 ->53 41 ->54 41 ->55 42 ->51 42 ->54 42 ->55 42 ->56 42 ->57 42 ->58 43 ->52 43 ->55 43 ->55 43 ->56 43 ->57 44 ->53 44 ->57 45 ->52 45 ->53 45 ->59 47 ->51 47 ->55 48 ->57 48 ->59 49 ->53 49 ->54 50 ->53 50 ->56 50 ->57 51 ->65 51 ->69 51 ->71 51 ->74 52 ->60 52 ->61 52 ->63 52 ->66 52 ->67 52 ->69 52 ->70 52 ->71 53 ->64 53 ->71 54 ->62 54 ->63 54 ->64 54 ->67 54 ->71 55 ->61 55 ->62 55 ->63 56 ->62 56 ->69 57 ->64 57 ->65 57 ->74 58 ->60 58 ->73 59 ->62 59 ->65 59 ->68 59 ->69 59 ->72 59 ->74 61 ->75 61 ->77 62 ->75 63 ->75 64 ->77 64 ->80 64 ->82 65 ->80 66 ->77 66 ->78 66 ->82 67 ->77 67 ->78 67 ->82 68 ->75 68 ->78 68 ->81 69 ->75 69 ->76 69 ->77 69 ->81 70 ->77 71 ->78 72 ->78 72 ->82 73 ->79 73 ->82 75 ->85 75 ->86 75 ->90 76 ->86 77 ->84 77 ->86 77 ->88 77 ->92 78 ->83 78 ->84 78 ->92 79 ->83 79 ->85 79 ->89 79 ->91 80 ->83 80 ->84 80 ->88 80 ->89 81 ->89 81 ->90 81 ->92 82 ->83 82 ->85 82 ->87 82 ->90 83 ->93 83 ->95 83 ->98 83 ->99 83 ->100 83 ->102 83 ->104 84 ->94 84 ->95 84 ->100 84 ->101 84 ->102 85 ->93 85 ->95 85 ->97 85 ->98 85 ->103 85 ->105 86 ->93 86 ->97 86 ->98 86 ->98 86 ->101 86 ->104 87 ->93 87 ->95 87 ->99 87 ->100 87 ->101 87 ->102 87 ->105 87 ->106 88 ->93 88 ->96 88 ->100 88 ->105 89 ->106 89 ->108 90 ->94 90 ->97 90 ->98 91 ->97 91 ->100 91 ->101 91 ->102 91 ->107 92 ->94 92 ->95 92 ->97 92 ->99 92 ->102 92 ->106 93 ->110 93 ->113 94 ->109 95 ->111 95 ->112 96 ->112 96 ->115 96 ->116 97 ->112 97 ->115 97 ->116 98 ->112 98 ->114 98 ->115 98 ->116 99 ->111 99 ->116 99 ->118 100 ->112 100 ->115 101 ->112 102 ->116 103 ->112 103 ->118 104 ->110 104 ->112 104 ->115 104 ->116 104 ->118 105 ->110 105 ->117 105 ->118 106 ->111 106 ->114 107 ->110 107 ->114 107 ->115 108 ->111 108 ->114 109 ->119 109 ->123 109 ->127 109 ->129 110 ->120 110 ->122 110 ->125 110 ->126 111 ->120 111 ->124 111 ->125 111 ->126 111 ->127 111 ->129 112 ->124 112 ->125 112 ->125 112 ->127 112 ->129 113 ->121 113 ->123 113 ->124 113 ->125 114 ->121 114 ->122 114 ->124 115 ->121 115 ->122 115 ->128 116 ->123 116 ->126 116 ->127 116 ->129 117 ->119 117 ->124 117 ->129 118 ->119 118 ->122 118 ->127 118 ->128 119 ->130 119 ->132 119 ->133 119 ->137 119 ->138 119 ->140 119 ->141 119 ->142 119 ->147 120 ->130 120 ->131 120 ->133 120 ->136 120 ->137 120 ->138 120 ->141 120 ->143 120 ->147 121 ->130 121 ->131 121 ->133 121 ->134 121 ->135 121 ->136 121 ->140 121 ->141 121 ->142 121 ->143 122 ->130 122 ->131 122 ->133 122 ->136 122 ->139 122 ->142 123 ->130 123 ->131 123 ->134 123 ->147 124 ->147 125 ->135 125 ->140 125 ->143 126 ->133 126 ->135 126 ->137 126 ->141 126 ->144 127 ->134 127 ->138 127 ->144 128 ->130 128 ->136 128 ->140 128 ->142 128 ->143 128 ->145 128 ->146 128 ->147 129 ->133 129 ->135 129 ->139 129 ->140 129 ->142 130 ->150 131 ->150 132 ->155 133 ->155 134 ->148 134 ->151 135 ->150 135 ->152 135 ->153 135 ->158 136 ->150 137 ->160 138 ->149 139 ->153 139 ->155 139 ->156 139 ->157 139 ->158 139 ->160 140 ->150 140 ->157 140 ->158 141 ->150 141 ->153 141 ->157 141 ->158 142 ->149 142 ->150 142 ->153 142 ->155 142 ->157 143 ->148 143 ->149 143 ->150 143 ->157 144 ->150 144 ->158 145 ->148 145 ->154 145 ->155 145 ->158 145 ->159 146 ->148 147 ->155 147 ->161 148 ->162 148 ->164 148 ->173 148 ->174 148 ->176 149 ->162 149 ->163 149 ->164 149 ->170 150 ->167 150 ->174 151 ->168 152 ->163 152 ->167 152 ->168 152 ->172 153 ->166 153 ->167 153 ->172 154 ->162 154 ->163 154 ->167 154 ->171 154 ->176 155 ->166 155 ->168 155 ->169 155 ->171 155 ->173 155 ->176 156 ->168 156 ->171 157 ->162 158 ->162 158 ->164 158 ->172 158 ->173 158 ->176 159 ->164 159 ->167 159 ->172 159 ->175 160 ->163 160 ->165 160 ->167 160 ->168 160 ->174 160 ->175 160 ->176 161 ->165 161 ->174 161 ->175 161 ->176 162 ->180 162 ->186 162 ->187 162 ->188 162 ->189 163 ->179 163 ->180 163 ->184 163 ->187 164 ->177 164 ->179 164 ->184 165 ->177 165 ->178 165 ->182 165 ->184 165 ->185 165 ->189 166 ->177 166 ->179 166 ->182 166 ->187 166 ->189 167 ->177 167 ->182 167 ->186 167 ->188 167 ->190 168 ->179 168 ->182 168 ->185 168 ->189 168 ->190 169 ->178 169 ->180 169 ->181 169 ->184 170 ->177 170 ->180 170 ->182 170 ->187 171 ->180 171 ->182 171 ->189 171 ->190 172 ->177 172 ->179 172 ->180 172 ->183 172 ->190 173 ->177 174 ->186 174 ->187 174 ->189 175 ->185 175 ->189 176 ->179 176 ->182 176 ->184 176 ->185 177 ->191 178 ->191 179 ->193 179 ->194 180 ->191 181 ->195 181 ->197 182 ->195 183 ->195 183 ->197 184 ->195 184 ->197 184 ->198 185 ->193 185 ->195 185 ->196 185 ->197 185 ->198 186 ->193 186 ->195 186 ->196 187 ->195 187 ->197 188 ->192 188 ->193 190 ->191 193 ->199 194 ->199 
}
