digraph G {
0 ->19 0 ->20 0 ->21 0 ->22 0 ->28 1 ->20 1 ->22 1 ->28 1 ->29 2 ->20 2 ->25 3 ->18 3 ->28 4 ->18 4 ->19 4 ->23 4 ->26 4 ->32 4 ->33 5 ->19 5 ->24 5 ->28 6 ->18 6 ->19 6 ->23 6 ->27 6 ->29 6 ->30 7 ->19 7 ->31 8 ->18 8 ->22 8 ->32 9 ->29 9 ->30 10 ->18 10 ->22 10 ->30 11 ->29 12 ->19 12 ->28 12 ->29 13 ->23 13 ->31 13 ->32 14 ->19 14 ->21 14 ->23 14 ->29 14 ->33 15 ->21 15 ->27 16 ->21 16 ->27 16 ->29 17 ->20 17 ->21 17 ->22 18 ->40 18 ->41 18 ->42 18 ->43 19 ->35 19 ->41 19 ->43 19 ->44 19 ->46 20 ->42 20 ->46 21 ->34 21 ->37 21 ->38 21 ->45 21 ->46 21 ->47 22 ->35 22 ->38 22 ->40 22 ->42 23 ->34 23 ->35 23 ->40 23 ->44 23 ->45 24 ->38 24 ->42 24 ->44 24 ->45 24 ->46 25 ->34 25 ->35 25 ->39 25 ->42 26 ->34 26 ->41 27 ->45 27 ->47 28 ->35 28 ->38 28 ->39 28 ->42 28 ->47 29 ->35 29 ->36 29 ->38 29 ->47 30 ->35 30 ->41 30 ->42 30 ->45 30 ->47 31 ->35 31 ->37 31 ->41 31 ->43 32 ->38 32 ->41 32 ->42 32 ->46 32 ->47 33 ->34 33 ->38 33 ->47 34 ->48 34 ->49 34 ->50 34 ->51 34 ->53 34 ->57 34 ->64 35 ->49 35 ->50 35 ->51 35 ->53 35 ->56 35 ->58 35 ->59 35 ->60 36 ->48 36 ->49 36 ->50 36 ->52 36 ->56 36 ->58 36 ->60 36 ->61 36 ->62 36 ->63 36 ->64 36 ->65 36 ->66 37 ->52 37 ->56 37 ->57 37 ->65 37 ->66 38 ->52 38 ->53 38 ->58 38 ->61 38 ->65 39 ->48 39 ->53 39 ->58 39 ->61 39 ->64 40 ->49 40 ->50 40 ->52 40 ->53 40 ->54 40 ->55 41 ->54 41 ->55 41 ->60 41 ->63 42 ->48 42 ->50 42 ->51 42 ->52 42 ->66 43 ->50 43 ->51 43 ->52 43 ->54 43 ->59 43 ->60 43 ->63 43 ->64 43 ->66 44 ->51 44 ->54 44 ->57 44 ->63 44 ->66 45 ->49 45 ->51 45 ->54 45 ->56 45 ->57 45 ->58 45 ->63 45 ->64 45 ->66 46 ->55 46 ->57 46 ->58 46 ->66 47 ->51 47 ->54 47 ->55 47 ->57 47 ->58 47 ->63 47 ->64 48 ->68 48 ->69 48 ->70 48 ->74 48 ->77 49 ->67 49 ->69 49 ->70 49 ->71 50 ->75 51 ->68 51 ->70 51 ->71 51 ->73 51 ->75 51 ->76 52 ->68 52 ->69 52 ->71 52 ->74 52 ->77 53 ->68 53 ->69 53 ->71 53 ->74 53 ->77 54 ->69 54 ->69 54 ->74 54 ->77 55 ->69 56 ->73 56 ->75 57 ->67 57 ->75 58 ->68 58 ->71 58 ->75 58 ->77 59 ->68 59 ->74 60 ->71 60 ->75 61 ->67 61 ->71 61 ->72 61 ->74 61 ->75 61 ->76 62 ->67 62 ->69 62 ->70 62 ->74 62 ->75 63 ->70 63 ->74 63 ->75 63 ->76 64 ->72 64 ->73 64 ->75 64 ->78 65 ->68 65 ->69 65 ->71 65 ->72 65 ->74 65 ->77 66 ->69 66 ->70 66 ->71 66 ->74 67 ->80 67 ->83 67 ->87 68 ->81 68 ->86 68 ->88 69 ->83 69 ->84 69 ->86 69 ->88 70 ->80 70 ->82 70 ->84 70 ->86 71 ->80 71 ->83 71 ->84 71 ->86 72 ->80 72 ->85 73 ->83 73 ->86 73 ->87 74 ->83 75 ->81 75 ->82 75 ->83 75 ->84 75 ->85 76 ->84 76 ->85 76 ->87 77 ->79 77 ->80 77 ->84 77 ->85 77 ->86 77 ->87 78 ->87 79 ->90 79 ->98 79 ->99 79 ->100 79 ->103 80 ->90 80 ->94 80 ->100 80 ->103 81 ->90 81 ->92 81 ->95 81 ->96 81 ->98 81 ->100 81 ->101 81 ->102 81 ->105 81 ->106 82 ->92 82 ->95 82 ->95 82 ->96 82 ->101 82 ->102 82 ->103 82 ->104 82 ->105 83 ->90 83 ->93 83 ->94 83 ->98 83 ->103 84 ->89 84 ->92 84 ->93 84 ->95 84 ->96 84 ->98 84 ->100 84 ->103 85 ->89 85 ->94 85 ->99 85 ->105 85 ->106 86 ->89 86 ->92 86 ->94 86 ->97 86 ->99 86 ->104 86 ->105 87 ->96 87 ->99 87 ->105 88 ->90 88 ->91 88 ->92 88 ->94 88 ->97 88 ->99 88 ->100 89 ->111 89 ->113 89 ->115 89 ->117 90 ->111 90 ->115 91 ->108 91 ->115 91 ->117 91 ->119 92 ->113 92 ->117 92 ->117 93 ->114 93 ->116 93 ->119 94 ->109 94 ->117 95 ->108 95 ->111 95 ->113 95 ->114 95 ->116 95 ->117 95 ->119 96 ->114 96 ->115 96 ->118 98 ->110 98 ->111 98 ->115 98 ->119 99 ->111 99 ->119 100 ->108 100 ->111 100 ->117 101 ->111 101 ->114 101 ->119 102 ->111 102 ->114 102 ->117 103 ->114 103 ->115 103 ->116 103 ->117 103 ->119 104 ->109 104 ->114 104 ->115 104 ->116 105 ->107 105 ->112 105 ->115 105 ->116 106 ->111 106 ->119 107 ->120 107 ->121 107 ->126 107 ->128 107 ->130 107 ->133 108 ->120 108 ->125 108 ->130 109 ->125 109 ->126 109 ->130 110 ->125 110 ->126 110 ->127 110 ->130 111 ->120 111 ->122 111 ->125 111 ->128 111 ->129 111 ->130 112 ->120 112 ->122 112 ->125 112 ->126 112 ->128 112 ->130 113 ->123 113 ->126 113 ->129 113 ->130 113 ->131 114 ->120 114 ->123 114 ->125 114 ->126 114 ->128 114 ->131 114 ->132 115 ->120 115 ->121 115 ->122 115 ->125 115 ->129 115 ->131 116 ->120 116 ->121 116 ->122 117 ->122 117 ->123 117 ->129 118 ->122 119 ->121 119 ->122 119 ->124 119 ->129 120 ->140 120 ->143 121 ->137 121 ->138 121 ->140 121 ->144 122 ->138 122 ->139 122 ->145 122 ->146 123 ->136 123 ->141 123 ->142 123 ->145 123 ->146 124 ->142 124 ->143 124 ->146 125 ->134 125 ->143 125 ->145 126 ->135 126 ->137 127 ->134 127 ->137 127 ->141 128 ->141 128 ->142 128 ->144 128 ->146 129 ->140 130 ->137 131 ->141 131 ->144 132 ->134 132 ->135 132 ->137 132 ->138 132 ->142 132 ->144 133 ->136 133 ->137 133 ->140 133 ->141 133 ->143 133 ->144 133 ->146 134 ->148 134 ->151 134 ->153 134 ->155 134 ->158 134 ->163 135 ->148 135 ->151 135 ->154 135 ->155 135 ->158 135 ->163 136 ->147 136 ->148 136 ->149 136 ->154 136 ->155 136 ->156 137 ->155 137 ->158 137 ->160 137 ->161 137 ->163 138 ->152 138 ->153 138 ->156 138 ->157 138 ->160 138 ->161 138 ->162 138 ->163 139 ->147 139 ->149 139 ->160 140 ->147 140 ->149 140 ->150 140 ->151 140 ->160 141 ->147 141 ->148 141 ->149 141 ->150 141 ->157 141 ->159 142 ->147 142 ->148 142 ->149 142 ->152 142 ->163 143 ->151 143 ->157 143 ->163 144 ->151 144 ->152 145 ->155 145 ->156 146 ->154 146 ->163 147 ->165 147 ->167 147 ->173 148 ->167 148 ->173 149 ->171 149 ->172 149 ->173 149 ->174 150 ->164 150 ->166 150 ->172 150 ->174 151 ->165 151 ->169 151 ->171 151 ->174 151 ->175 152 ->164 152 ->166 153 ->166 153 ->166 153 ->171 153 ->174 153 ->175 154 ->166 154 ->172 154 ->173 154 ->174 154 ->175 155 ->164 155 ->166 155 ->167 155 ->171 155 ->172 155 ->175 156 ->167 156 ->170 156 ->171 156 ->172 157 ->167 157 ->171 157 ->173 157 ->174 157 ->175 158 ->169 158 ->175 159 ->171 159 ->174 159 ->175 160 ->165 160 ->168 160 ->171 160 ->174 160 ->175 161 ->164 161 ->166 161 ->173 161 ->175 162 ->173 162 ->174 164 ->178 164 ->179 164 ->184 165 ->177 165 ->178 165 ->179 165 ->182 165 ->187 166 ->182 166 ->183 167 ->181 168 ->176 168 ->177 168 ->182 168 ->185 168 ->188 169 ->176 169 ->177 169 ->178 169 ->179 169 ->185 170 ->176 170 ->178 170 ->181 170 ->183 170 ->187 171 ->181 171 ->182 171 ->184 172 ->178 172 ->182 172 ->186 173 ->183 173 ->186 174 ->177 174 ->178 174 ->184 174 ->185 175 ->179 175 ->180 175 ->182 175 ->187 175 ->189 176 ->191 176 ->192 176 ->197 177 ->190 177 ->197 177 ->197 178 ->193 178 ->197 178 ->198 179 ->191 179 ->193 179 ->194 179 ->196 180 ->194 181 ->190 181 ->191 181 ->194 181 ->197 181 ->198 182 ->193 183 ->190 183 ->191 184 ->190 184 ->192 184 ->194 184 ->196 185 ->190 185 ->191 185 ->193 185 ->195 185 ->196 186 ->191 186 ->193 186 ->194 186 ->195 187 ->191 187 ->195 188 ->195 188 ->199 189 ->192 189 ->193 189 ->198 
}
