digraph G {
0 ->14 0 ->20 0 ->21 0 ->24 0 ->25 0 ->27 1 ->14 1 ->16 1 ->18 1 ->22 1 ->23 1 ->26 1 ->27 2 ->14 2 ->16 2 ->21 2 ->24 2 ->25 2 ->26 2 ->29 3 ->15 3 ->18 3 ->19 3 ->25 4 ->21 4 ->27 4 ->28 4 ->29 5 ->15 5 ->19 5 ->29 6 ->18 6 ->20 6 ->21 6 ->25 6 ->26 6 ->28 6 ->29 6 ->30 6 ->31 7 ->17 7 ->18 7 ->21 7 ->28 8 ->15 8 ->16 8 ->17 8 ->21 8 ->25 8 ->26 8 ->29 8 ->30 9 ->19 9 ->25 9 ->30 10 ->18 10 ->21 10 ->25 10 ->27 10 ->30 11 ->14 11 ->18 11 ->29 11 ->31 12 ->26 12 ->27 12 ->28 13 ->18 13 ->19 13 ->20 14 ->33 14 ->36 14 ->37 14 ->38 14 ->39 14 ->40 14 ->42 14 ->48 15 ->36 15 ->37 15 ->40 15 ->45 15 ->47 15 ->49 16 ->32 16 ->34 16 ->37 16 ->39 16 ->40 16 ->44 16 ->46 16 ->49 17 ->40 17 ->46 18 ->33 18 ->38 18 ->39 18 ->40 18 ->41 18 ->42 18 ->47 18 ->48 19 ->42 19 ->43 19 ->47 19 ->49 20 ->38 20 ->41 20 ->42 20 ->47 20 ->48 20 ->49 21 ->33 21 ->41 21 ->42 21 ->45 21 ->46 22 ->35 22 ->38 22 ->40 22 ->44 22 ->45 22 ->47 22 ->49 23 ->32 23 ->34 23 ->38 23 ->39 23 ->40 23 ->43 23 ->44 23 ->45 23 ->49 24 ->34 24 ->35 24 ->40 24 ->43 24 ->47 24 ->49 25 ->35 25 ->38 25 ->42 25 ->43 25 ->44 25 ->47 26 ->33 26 ->34 26 ->36 26 ->38 26 ->40 26 ->41 26 ->44 26 ->46 27 ->33 27 ->41 27 ->42 27 ->43 27 ->44 28 ->33 28 ->37 28 ->41 28 ->42 28 ->43 28 ->45 28 ->47 28 ->48 29 ->33 29 ->36 29 ->37 29 ->38 29 ->44 29 ->49 30 ->33 30 ->34 30 ->43 30 ->47 31 ->33 31 ->36 31 ->38 32 ->51 32 ->54 32 ->55 33 ->55 34 ->51 35 ->51 35 ->52 35 ->53 35 ->55 35 ->57 35 ->59 35 ->60 35 ->61 35 ->62 36 ->53 36 ->54 36 ->59 36 ->60 37 ->54 37 ->55 37 ->61 37 ->62 38 ->62 39 ->54 39 ->55 39 ->58 40 ->50 40 ->52 40 ->54 40 ->60 40 ->62 41 ->51 41 ->56 41 ->62 42 ->50 42 ->51 42 ->52 42 ->54 42 ->56 43 ->56 43 ->60 43 ->61 44 ->56 45 ->53 45 ->54 45 ->55 45 ->59 45 ->61 46 ->53 46 ->55 46 ->56 46 ->59 47 ->51 47 ->52 47 ->54 47 ->59 47 ->60 47 ->61 48 ->58 48 ->59 48 ->60 48 ->62 49 ->51 49 ->52 49 ->58 49 ->59 49 ->60 49 ->61 50 ->63 50 ->67 50 ->68 50 ->74 50 ->76 50 ->79 51 ->68 51 ->72 51 ->74 52 ->63 52 ->74 52 ->80 53 ->63 53 ->66 53 ->74 53 ->77 53 ->78 54 ->63 54 ->65 54 ->71 54 ->73 54 ->75 54 ->77 54 ->78 54 ->80 55 ->68 55 ->69 55 ->72 55 ->76 55 ->79 55 ->80 56 ->66 56 ->67 56 ->68 56 ->70 56 ->72 56 ->73 56 ->74 56 ->77 56 ->79 56 ->80 57 ->63 57 ->66 57 ->68 57 ->69 57 ->70 57 ->71 57 ->72 58 ->63 58 ->64 58 ->67 58 ->72 58 ->76 58 ->78 59 ->64 59 ->65 59 ->66 59 ->67 59 ->69 59 ->70 59 ->72 59 ->74 59 ->79 59 ->80 60 ->72 60 ->76 60 ->80 61 ->68 61 ->79 62 ->70 62 ->71 62 ->74 62 ->76 62 ->79 63 ->82 63 ->84 63 ->87 63 ->88 63 ->94 63 ->95 64 ->84 64 ->85 64 ->87 64 ->92 65 ->81 65 ->82 65 ->86 65 ->92 66 ->81 66 ->93 66 ->96 67 ->81 67 ->86 67 ->87 67 ->93 68 ->81 68 ->84 68 ->85 68 ->86 68 ->94 69 ->81 69 ->86 69 ->91 69 ->94 69 ->96 70 ->83 70 ->86 70 ->91 70 ->92 70 ->94 70 ->97 71 ->86 71 ->92 72 ->83 72 ->85 72 ->88 72 ->91 72 ->92 72 ->94 72 ->96 73 ->81 73 ->82 73 ->84 73 ->85 73 ->86 73 ->88 73 ->91 73 ->92 73 ->94 74 ->82 74 ->84 74 ->85 74 ->85 74 ->86 74 ->90 74 ->91 74 ->92 74 ->94 74 ->95 75 ->82 75 ->85 75 ->85 75 ->94 76 ->81 76 ->82 76 ->84 76 ->86 76 ->89 76 ->94 76 ->96 77 ->81 77 ->82 77 ->84 78 ->87 78 ->91 78 ->92 78 ->96 79 ->84 79 ->87 79 ->91 80 ->83 80 ->84 80 ->85 80 ->87 80 ->88 80 ->91 81 ->103 82 ->100 83 ->99 84 ->102 85 ->100 85 ->103 86 ->100 87 ->98 87 ->99 87 ->100 87 ->101 87 ->103 88 ->99 89 ->101 89 ->102 90 ->98 90 ->103 91 ->101 92 ->99 92 ->102 92 ->104 93 ->100 93 ->103 94 ->100 96 ->98 96 ->101 97 ->99 97 ->102 98 ->107 98 ->108 98 ->111 98 ->113 99 ->108 99 ->112 100 ->106 100 ->108 100 ->110 100 ->112 101 ->105 101 ->107 101 ->112 101 ->113 102 ->105 102 ->109 102 ->113 103 ->109 103 ->109 104 ->105 104 ->108 104 ->110 104 ->111 104 ->112 105 ->114 105 ->122 106 ->114 106 ->116 106 ->117 106 ->118 106 ->120 106 ->123 106 ->124 107 ->115 107 ->119 107 ->124 108 ->117 108 ->118 108 ->123 108 ->124 109 ->121 110 ->122 110 ->124 111 ->116 111 ->121 111 ->125 112 ->114 112 ->116 112 ->117 112 ->118 112 ->124 113 ->114 113 ->116 113 ->119 113 ->122 113 ->125 114 ->126 114 ->128 114 ->133 114 ->134 114 ->136 114 ->137 114 ->140 114 ->141 115 ->126 115 ->128 115 ->131 115 ->133 115 ->135 115 ->138 115 ->140 116 ->127 116 ->136 116 ->139 116 ->143 117 ->135 117 ->139 118 ->126 118 ->133 118 ->134 118 ->139 118 ->142 119 ->128 119 ->129 119 ->130 119 ->134 119 ->135 119 ->138 119 ->141 119 ->143 120 ->128 120 ->129 120 ->132 120 ->136 120 ->138 120 ->141 120 ->143 121 ->128 121 ->129 121 ->141 122 ->139 122 ->143 123 ->128 123 ->131 123 ->136 123 ->138 123 ->140 123 ->142 123 ->143 124 ->131 124 ->133 124 ->135 124 ->139 124 ->141 124 ->143 125 ->126 125 ->130 125 ->131 125 ->133 125 ->136 125 ->138 125 ->141 126 ->149 127 ->144 127 ->145 127 ->147 127 ->148 127 ->153 128 ->144 128 ->146 128 ->150 128 ->153 129 ->144 129 ->145 129 ->151 130 ->145 130 ->148 130 ->149 131 ->150 131 ->153 132 ->153 133 ->145 133 ->149 133 ->153 133 ->154 133 ->155 134 ->144 134 ->145 136 ->145 136 ->152 137 ->145 137 ->146 137 ->152 137 ->153 138 ->145 138 ->146 139 ->144 139 ->146 139 ->153 140 ->147 141 ->146 141 ->154 142 ->151 143 ->147 143 ->154 144 ->161 144 ->164 144 ->165 145 ->157 145 ->158 145 ->159 145 ->160 145 ->162 145 ->164 145 ->165 145 ->166 146 ->157 146 ->163 146 ->168 147 ->160 147 ->163 148 ->157 148 ->160 148 ->162 148 ->165 148 ->168 149 ->156 149 ->158 149 ->166 150 ->160 150 ->161 150 ->162 150 ->163 150 ->166 151 ->160 151 ->163 151 ->164 152 ->157 152 ->159 152 ->160 152 ->163 152 ->164 152 ->166 152 ->167 152 ->168 153 ->159 153 ->162 153 ->163 153 ->165 153 ->166 154 ->157 154 ->158 154 ->159 154 ->162 154 ->167 155 ->157 155 ->162 155 ->164 155 ->165 155 ->166 156 ->171 156 ->175 156 ->180 156 ->182 156 ->185 157 ->178 157 ->185 158 ->173 158 ->178 158 ->179 158 ->180 159 ->170 159 ->171 159 ->174 159 ->178 159 ->181 159 ->183 160 ->171 160 ->183 160 ->186 161 ->170 161 ->173 161 ->174 161 ->175 161 ->177 161 ->179 161 ->185 161 ->186 161 ->187 162 ->171 162 ->173 162 ->174 162 ->176 162 ->182 162 ->183 162 ->185 162 ->186 163 ->170 163 ->172 163 ->173 163 ->174 163 ->179 163 ->183 163 ->186 164 ->171 164 ->180 164 ->184 164 ->185 165 ->175 165 ->177 165 ->185 166 ->169 166 ->171 166 ->172 166 ->175 166 ->180 166 ->184 167 ->172 167 ->177 167 ->179 167 ->184 168 ->177 168 ->179 168 ->184 168 ->186 169 ->192 169 ->197 169 ->199 170 ->192 170 ->198 170 ->199 171 ->199 172 ->198 172 ->199 173 ->189 173 ->191 173 ->192 173 ->197 173 ->198 173 ->199 174 ->192 174 ->199 175 ->192 175 ->195 175 ->196 175 ->197 176 ->189 176 ->191 177 ->193 177 ->195 178 ->195 179 ->194 179 ->199 181 ->193 182 ->198 183 ->189 183 ->190 183 ->196 183 ->197 184 ->190 184 ->197 184 ->198 185 ->188 185 ->194 185 ->197 185 ->198 185 ->199 186 ->191 186 ->196 186 ->198 187 ->189 187 ->193 187 ->196 187 ->197 187 ->198 187 ->199 
}
