digraph G {
0 ->22 0 ->24 0 ->30 0 ->35 1 ->24 1 ->26 1 ->30 1 ->32 1 ->33 1 ->34 1 ->35 1 ->36 2 ->23 2 ->26 2 ->28 2 ->30 2 ->33 2 ->34 2 ->35 2 ->36 3 ->21 3 ->23 3 ->24 3 ->28 3 ->33 3 ->36 4 ->26 4 ->27 4 ->28 4 ->31 4 ->33 4 ->36 5 ->23 5 ->24 5 ->26 5 ->30 6 ->26 6 ->31 6 ->34 7 ->21 7 ->23 7 ->31 8 ->22 8 ->23 8 ->33 9 ->23 9 ->25 9 ->29 9 ->31 10 ->22 10 ->30 12 ->24 12 ->25 12 ->28 12 ->30 12 ->34 12 ->35 13 ->19 13 ->21 13 ->24 13 ->26 13 ->30 13 ->31 13 ->33 13 ->36 14 ->19 14 ->21 14 ->25 14 ->29 14 ->30 14 ->34 15 ->19 15 ->20 15 ->24 15 ->25 15 ->27 15 ->29 15 ->30 16 ->29 16 ->30 16 ->31 17 ->25 17 ->33 17 ->34 18 ->22 18 ->23 18 ->25 18 ->33 19 ->41 19 ->42 19 ->43 20 ->37 20 ->40 20 ->41 20 ->43 21 ->37 21 ->42 22 ->37 22 ->41 22 ->42 23 ->37 23 ->40 23 ->42 24 ->37 24 ->42 24 ->42 24 ->43 26 ->37 26 ->41 27 ->41 29 ->41 30 ->40 31 ->37 33 ->38 33 ->39 33 ->41 34 ->37 34 ->41 34 ->43 35 ->37 36 ->38 36 ->42 37 ->45 37 ->48 37 ->51 38 ->47 38 ->49 38 ->50 38 ->51 38 ->54 38 ->55 38 ->56 39 ->44 39 ->45 39 ->49 39 ->51 39 ->53 39 ->57 40 ->44 40 ->52 40 ->53 41 ->45 41 ->46 41 ->48 41 ->49 41 ->52 41 ->53 41 ->54 42 ->49 42 ->52 42 ->53 42 ->54 42 ->56 43 ->54 43 ->56 44 ->58 44 ->66 45 ->58 45 ->60 45 ->62 46 ->60 46 ->61 46 ->64 46 ->65 46 ->66 47 ->58 47 ->62 47 ->66 48 ->58 48 ->59 48 ->61 48 ->62 48 ->65 49 ->61 49 ->62 49 ->64 50 ->61 50 ->66 51 ->60 51 ->61 51 ->62 51 ->63 52 ->64 52 ->66 53 ->64 53 ->65 54 ->64 54 ->65 55 ->62 55 ->65 55 ->66 56 ->58 56 ->61 56 ->65 57 ->58 57 ->61 57 ->66 58 ->68 58 ->69 58 ->73 58 ->74 58 ->77 58 ->78 58 ->79 59 ->69 59 ->77 59 ->79 60 ->68 60 ->70 60 ->72 60 ->76 61 ->67 61 ->73 61 ->75 61 ->76 61 ->77 61 ->78 62 ->69 62 ->71 62 ->74 62 ->76 62 ->78 63 ->68 63 ->70 63 ->72 63 ->73 63 ->75 63 ->76 63 ->79 64 ->67 64 ->69 64 ->72 64 ->75 64 ->77 65 ->67 65 ->69 65 ->72 65 ->75 65 ->78 65 ->79 66 ->67 67 ->85 67 ->90 68 ->90 70 ->81 70 ->87 70 ->90 71 ->84 71 ->87 71 ->89 71 ->90 72 ->81 72 ->83 72 ->88 72 ->89 73 ->85 73 ->88 73 ->89 74 ->81 74 ->82 74 ->83 74 ->84 74 ->89 75 ->83 75 ->84 75 ->86 75 ->88 75 ->89 76 ->80 76 ->83 76 ->84 76 ->85 76 ->87 77 ->82 77 ->84 77 ->87 78 ->84 78 ->90 78 ->91 79 ->83 79 ->89 79 ->91 80 ->93 80 ->95 80 ->102 80 ->106 80 ->111 81 ->97 81 ->104 82 ->104 82 ->106 83 ->96 83 ->98 83 ->99 83 ->104 83 ->107 84 ->100 84 ->101 84 ->105 84 ->106 84 ->108 85 ->92 85 ->93 85 ->99 85 ->102 85 ->107 85 ->110 86 ->93 86 ->96 86 ->102 86 ->107 87 ->92 87 ->93 87 ->96 87 ->104 87 ->105 87 ->106 88 ->98 88 ->102 88 ->103 88 ->106 88 ->108 88 ->110 89 ->93 89 ->97 89 ->98 89 ->105 89 ->108 90 ->92 90 ->93 90 ->98 90 ->99 90 ->102 90 ->105 90 ->106 90 ->107 90 ->109 91 ->94 91 ->96 91 ->98 91 ->99 91 ->102 91 ->105 91 ->108 91 ->109 92 ->115 92 ->116 92 ->117 92 ->118 93 ->112 93 ->114 93 ->115 93 ->116 94 ->116 95 ->115 96 ->117 96 ->118 97 ->114 97 ->115 97 ->117 97 ->118 98 ->114 98 ->117 98 ->117 99 ->117 100 ->116 100 ->118 101 ->118 102 ->114 102 ->116 102 ->117 103 ->112 103 ->114 103 ->115 103 ->116 104 ->112 104 ->117 105 ->112 105 ->114 105 ->118 106 ->112 106 ->114 106 ->115 106 ->118 107 ->112 107 ->116 108 ->112 108 ->116 108 ->118 109 ->112 110 ->112 110 ->114 110 ->117 111 ->112 111 ->113 111 ->116 112 ->121 112 ->122 112 ->124 112 ->125 112 ->130 112 ->132 112 ->133 113 ->126 113 ->127 113 ->128 113 ->133 114 ->126 114 ->127 114 ->135 115 ->120 115 ->123 115 ->124 115 ->127 115 ->128 115 ->129 115 ->131 115 ->135 115 ->136 116 ->121 116 ->122 116 ->123 116 ->128 116 ->130 116 ->133 117 ->123 117 ->124 117 ->129 117 ->132 117 ->134 117 ->135 118 ->119 118 ->120 118 ->124 118 ->131 118 ->135 119 ->141 119 ->144 119 ->144 119 ->151 120 ->139 120 ->140 120 ->145 120 ->148 120 ->149 120 ->150 121 ->139 121 ->148 121 ->150 121 ->151 121 ->154 122 ->137 122 ->138 122 ->148 122 ->150 122 ->152 122 ->154 123 ->138 123 ->146 123 ->148 123 ->151 123 ->152 123 ->154 124 ->137 124 ->142 124 ->143 124 ->144 124 ->146 124 ->148 124 ->149 124 ->151 124 ->153 124 ->154 125 ->140 125 ->144 125 ->146 125 ->147 125 ->148 125 ->150 125 ->154 126 ->146 127 ->137 127 ->143 127 ->146 127 ->152 128 ->145 128 ->146 128 ->149 128 ->154 129 ->138 129 ->154 130 ->137 130 ->149 130 ->150 130 ->151 131 ->150 132 ->137 132 ->139 132 ->150 133 ->137 133 ->139 133 ->146 133 ->150 133 ->151 133 ->154 134 ->137 134 ->146 134 ->146 134 ->153 134 ->154 135 ->137 135 ->138 135 ->145 135 ->152 136 ->137 136 ->139 136 ->144 136 ->147 136 ->148 136 ->150 136 ->152 137 ->155 137 ->173 138 ->155 138 ->158 138 ->162 138 ->164 138 ->170 139 ->155 139 ->165 139 ->169 139 ->170 139 ->174 140 ->155 140 ->156 140 ->157 140 ->159 140 ->164 140 ->165 140 ->174 141 ->155 141 ->158 141 ->160 141 ->164 141 ->165 141 ->165 141 ->168 141 ->174 142 ->156 142 ->157 142 ->162 142 ->165 142 ->168 142 ->169 143 ->156 143 ->157 143 ->162 143 ->163 143 ->168 144 ->155 144 ->156 144 ->161 144 ->163 144 ->168 144 ->174 145 ->163 145 ->167 145 ->168 145 ->174 146 ->155 146 ->158 146 ->159 146 ->163 146 ->164 146 ->167 146 ->168 146 ->169 146 ->171 146 ->172 147 ->155 147 ->159 147 ->160 147 ->169 147 ->172 147 ->174 148 ->156 148 ->159 148 ->162 148 ->168 148 ->169 149 ->158 149 ->160 149 ->162 149 ->165 149 ->167 149 ->168 149 ->169 149 ->171 149 ->174 150 ->157 150 ->158 150 ->160 150 ->166 150 ->168 150 ->169 151 ->155 151 ->160 151 ->162 151 ->164 152 ->156 152 ->158 152 ->163 152 ->167 152 ->174 153 ->159 153 ->161 153 ->165 153 ->166 154 ->159 154 ->167 154 ->170 154 ->174 155 ->179 155 ->182 155 ->186 155 ->187 155 ->188 157 ->179 157 ->180 157 ->183 157 ->187 158 ->187 159 ->178 159 ->185 160 ->178 161 ->178 161 ->182 161 ->184 163 ->179 163 ->182 163 ->183 164 ->181 165 ->179 165 ->181 165 ->185 166 ->176 166 ->181 167 ->180 167 ->182 167 ->183 168 ->175 168 ->187 168 ->188 169 ->182 169 ->183 169 ->186 170 ->183 170 ->188 171 ->179 171 ->181 171 ->183 171 ->187 172 ->177 172 ->179 172 ->183 172 ->187 173 ->178 173 ->179 173 ->187 173 ->187 173 ->188 175 ->191 175 ->192 175 ->198 176 ->189 176 ->194 176 ->196 176 ->198 176 ->199 177 ->189 177 ->190 177 ->191 177 ->192 178 ->192 178 ->193 178 ->194 178 ->195 179 ->191 179 ->192 179 ->195 180 ->196 181 ->193 181 ->196 182 ->196 184 ->197 185 ->192 185 ->195 185 ->196 186 ->191 186 ->196 186 ->197 187 ->196 187 ->197 188 ->194 188 ->195 188 ->197 
}
