files/tasks_parameters/ExAp01/sample8.txt 0.714982 3.15778 1.5595 0.203411 3.70955
files/tasks_parameters/ExAp01/sample12.txt 0.814715 3.94962 1.6705 0.207924 3.79185
files/tasks_parameters/ExAp01/sample2.txt 0.807344 3.78275 1.74131 0.200098 3.64912
files/tasks_parameters/ExAp01/sample44.txt 0.719096 3.59825 1.65317 0.200005 3.64744
files/tasks_parameters/ExAp01/sample27.txt 0.71882 3.45743 1.5148 0.182129 3.32143
files/tasks_parameters/ExAp01/sample17.txt 0.604416 2.77299 1.44514 0.14646 2.67095
files/tasks_parameters/ExAp01/sample9.txt 0.670785 2.99933 1.451 0.177444 3.23599
files/tasks_parameters/ExAp01/sample34.txt 0.64895 3.02928 1.58429 0.157984 2.8811
files/tasks_parameters/ExAp01/sample40.txt 0.677319 3.86889 1.52122 0.168379 3.07069
files/tasks_parameters/ExAp01/sample33.txt 0.804044 3.63695 1.71905 0.199765 3.64306
files/tasks_parameters/ExAp01/sample48.txt 0.643543 3.39061 1.49062 0.154728 2.82173
files/tasks_parameters/ExAp01/sample29.txt 0.789629 3.30472 1.38739 0.223868 4.08262
files/tasks_parameters/ExAp01/sample11.txt 0.679725 3.10585 1.41612 0.174079 3.17462
files/tasks_parameters/ExAp01/sample14.txt 0.662815 2.70971 1.43432 0.162214 2.95826
files/tasks_parameters/ExAp01/sample0.txt 0.744711 3.6937 1.5439 0.18367 3.34953
files/tasks_parameters/ExAp01/sample7.txt 0.60137 2.70501 1.42221 0.143463 2.6163
files/tasks_parameters/ExAp01/sample23.txt 0.733661 3.2697 1.57822 0.181448 3.30902
files/tasks_parameters/ExAp01/sample13.txt 0.768031 3.84225 1.67648 0.198247 3.61537
files/tasks_parameters/ExAp01/sample22.txt 0.615814 3.09569 1.56121 0.148796 2.71355
files/tasks_parameters/ExAp01/sample25.txt 0.59509 2.73966 1.5007 0.148149 2.70174
files/tasks_parameters/ExAp01/sample36.txt 0.548638 2.85948 1.28553 0.130042 2.37154
files/tasks_parameters/ExAp01/sample46.txt 0.765324 3.58643 1.69998 0.210103 3.83158
files/tasks_parameters/ExAp01/sample31.txt 0.701895 3.4832 1.53782 0.1722 3.14036
files/tasks_parameters/ExAp01/sample37.txt 0.709519 3.95293 1.50705 0.171701 3.13126
files/tasks_parameters/ExAp01/sample16.txt 0.619857 3.31216 1.30115 0.150249 2.74005
files/tasks_parameters/ExAp01/sample10.txt 0.682668 3.17098 1.61789 0.153776 2.80438
files/tasks_parameters/ExAp01/sample39.txt 0.683804 3.26617 1.44406 0.165669 3.02125
files/tasks_parameters/ExAp01/sample19.txt 0.74837 3.63532 1.52509 0.196094 3.57612
files/tasks_parameters/ExAp01/sample20.txt 0.597372 3.20793 1.25367 0.147335 2.68691
files/tasks_parameters/ExAp01/sample43.txt 0.595463 3.11551 1.4202 0.150644 2.74726
files/tasks_parameters/ExAp01/sample32.txt 0.680929 3.5311 1.42482 0.168744 3.07734
files/tasks_parameters/ExAp01/sample45.txt 0.762905 3.80283 1.48324 0.19807 3.61215
files/tasks_parameters/ExAp01/sample26.txt 0.608609 3.21645 1.29701 0.166061 3.02841
files/tasks_parameters/ExAp01/sample5.txt 0.657547 3.5889 1.52559 0.178903 3.26261
files/tasks_parameters/ExAp01/sample21.txt 0.70119 2.75242 1.55936 0.19512 3.55835
files/tasks_parameters/ExAp01/sample38.txt 0.653669 3.31563 1.37515 0.166157 3.03015
files/tasks_parameters/ExAp01/sample1.txt 0.715662 3.74964 1.51696 0.19701 3.59281
files/tasks_parameters/ExAp01/sample15.txt 0.704471 3.32916 1.48508 0.180707 3.29551
files/tasks_parameters/ExAp01/sample24.txt 0.704277 3.45951 1.59549 0.16529 3.01435
files/tasks_parameters/ExAp01/sample3.txt 0.869402 3.70014 1.70809 0.237107 4.32405
files/tasks_parameters/ExAp01/sample6.txt 0.724471 3.33003 1.58323 0.184714 3.36858
files/tasks_parameters/ExAp01/sample30.txt 0.894412 4.1841 1.4861 0.239623 4.36994
files/tasks_parameters/ExAp01/sample42.txt 0.732436 3.43221 1.70276 0.177383 3.23488
files/tasks_parameters/ExAp01/sample4.txt 0.787141 3.72477 1.6136 0.196448 3.58257
files/tasks_parameters/ExAp01/sample28.txt 0.626316 3.11323 1.45032 0.158819 2.89634
files/tasks_parameters/ExAp01/sample18.txt 0.611135 3.47418 1.45209 0.149064 2.71843
files/tasks_parameters/ExAp01/sample35.txt 0.730425 4.57086 1.49394 0.185031 3.37435
files/tasks_parameters/ExAp01/sample47.txt 0.663397 3.13768 1.52397 0.16417 2.99392
files/tasks_parameters/ExAp01/sample49.txt 0.65943 3.13288 1.49657 0.156154 2.84774
files/tasks_parameters/ExAp01/sample41.txt 0.619906 2.81964 1.49636 0.150876 2.75148
