files/tasks_parameters/ExAp01/sample8.txt 0.869288 3.15778 1.5595 0.203411 7.38924
files/tasks_parameters/ExAp01/sample12.txt 0.84019 3.94962 1.6705 0.207924 7.55317
files/tasks_parameters/ExAp01/sample2.txt 0.798742 3.78275 1.74131 0.200098 7.26887
files/tasks_parameters/ExAp01/sample44.txt 0.81984 3.59825 1.65317 0.200005 7.26551
files/tasks_parameters/ExAp01/sample27.txt 0.792943 3.45743 1.5148 0.182129 6.61612
files/tasks_parameters/ExAp01/sample17.txt 0.716921 2.77299 1.44514 0.14646 5.32039
files/tasks_parameters/ExAp01/sample9.txt 0.736484 2.99933 1.451 0.177444 6.44593
files/tasks_parameters/ExAp01/sample34.txt 0.744414 3.02928 1.58429 0.157984 5.73902
files/tasks_parameters/ExAp01/sample40.txt 0.69716 3.86889 1.52122 0.168379 6.11666
files/tasks_parameters/ExAp01/sample33.txt 0.982598 3.63695 1.71905 0.199765 7.25679
files/tasks_parameters/ExAp01/sample48.txt 0.694322 3.39061 1.49062 0.154728 5.62076
files/tasks_parameters/ExAp01/sample29.txt 0.853494 3.30472 1.38739 0.223868 8.13238
files/tasks_parameters/ExAp01/sample11.txt 0.763037 3.10585 1.41612 0.174079 6.32369
files/tasks_parameters/ExAp01/sample14.txt 0.637731 2.70971 1.43432 0.162214 5.89271
files/tasks_parameters/ExAp01/sample0.txt 0.78651 3.6937 1.5439 0.18367 6.67211
files/tasks_parameters/ExAp01/sample7.txt 0.681733 2.70501 1.42221 0.143463 5.21154
files/tasks_parameters/ExAp01/sample23.txt 0.702167 3.2697 1.57822 0.181448 6.59141
files/tasks_parameters/ExAp01/sample13.txt 0.896657 3.84225 1.67648 0.198247 7.20165
files/tasks_parameters/ExAp01/sample22.txt 0.656217 3.09569 1.56121 0.148796 5.40526
files/tasks_parameters/ExAp01/sample25.txt 0.635473 2.73966 1.5007 0.148149 5.38174
files/tasks_parameters/ExAp01/sample36.txt 0.511315 2.85948 1.28553 0.130042 4.724
files/tasks_parameters/ExAp01/sample46.txt 0.913981 3.58643 1.69998 0.210103 7.63233
files/tasks_parameters/ExAp01/sample31.txt 0.685747 3.4832 1.53782 0.1722 6.25544
files/tasks_parameters/ExAp01/sample37.txt 0.797504 3.95293 1.50705 0.171701 6.23732
files/tasks_parameters/ExAp01/sample16.txt 0.672602 3.31216 1.30115 0.150249 5.45804
files/tasks_parameters/ExAp01/sample10.txt 0.724546 3.17098 1.61789 0.153776 5.58618
files/tasks_parameters/ExAp01/sample39.txt 0.746431 3.26617 1.44406 0.165669 6.01819
files/tasks_parameters/ExAp01/sample19.txt 0.86903 3.63532 1.52509 0.196094 7.12345
files/tasks_parameters/ExAp01/sample20.txt 0.62072 3.20793 1.25367 0.147335 5.3522
files/tasks_parameters/ExAp01/sample43.txt 0.565502 3.11551 1.4202 0.150644 5.47241
files/tasks_parameters/ExAp01/sample32.txt 0.675575 3.5311 1.42482 0.168744 6.12991
files/tasks_parameters/ExAp01/sample45.txt 0.838425 3.80283 1.48324 0.19807 7.19523
files/tasks_parameters/ExAp01/sample26.txt 0.720414 3.21645 1.29701 0.166061 6.03245
files/tasks_parameters/ExAp01/sample5.txt 0.840931 3.5889 1.52559 0.178903 6.49896
files/tasks_parameters/ExAp01/sample21.txt 0.831044 2.75242 1.55936 0.19512 7.08806
files/tasks_parameters/ExAp01/sample38.txt 0.673054 3.31563 1.37515 0.166157 6.03592
files/tasks_parameters/ExAp01/sample1.txt 0.891905 3.74964 1.51696 0.19701 7.1567
files/tasks_parameters/ExAp01/sample15.txt 0.738508 3.32916 1.48508 0.180707 6.56449
files/tasks_parameters/ExAp01/sample24.txt 0.722258 3.45951 1.59549 0.16529 6.00444
files/tasks_parameters/ExAp01/sample3.txt 1.02925 3.70014 1.70809 0.237107 8.6133
files/tasks_parameters/ExAp01/sample6.txt 0.845866 3.33003 1.58323 0.184714 6.71005
files/tasks_parameters/ExAp01/sample30.txt 0.940722 4.1841 1.4861 0.239623 8.7047
files/tasks_parameters/ExAp01/sample42.txt 0.814525 3.43221 1.70276 0.177383 6.44372
files/tasks_parameters/ExAp01/sample4.txt 0.86271 3.72477 1.6136 0.196448 7.1363
files/tasks_parameters/ExAp01/sample28.txt 0.717529 3.11323 1.45032 0.158819 5.76936
files/tasks_parameters/ExAp01/sample18.txt 0.696691 3.47418 1.45209 0.149064 5.41499
files/tasks_parameters/ExAp01/sample35.txt 0.713936 4.57086 1.49394 0.185031 6.72154
files/tasks_parameters/ExAp01/sample47.txt 0.648368 3.13768 1.52397 0.16417 5.96375
files/tasks_parameters/ExAp01/sample49.txt 0.727599 3.13288 1.49657 0.156154 5.67255
files/tasks_parameters/ExAp01/sample41.txt 0.623427 2.81964 1.49636 0.150876 5.48081
