files/tasks_parameters/ExAp01/sample8.txt 0.801198 3.15778 1.5595 0.203411 5.22084
files/tasks_parameters/ExAp01/sample12.txt 0.809538 3.94962 1.6705 0.207924 5.33667
files/tasks_parameters/ExAp01/sample2.txt 0.793972 3.78275 1.74131 0.200098 5.1358
files/tasks_parameters/ExAp01/sample44.txt 0.67193 3.59825 1.65317 0.200005 5.13342
files/tasks_parameters/ExAp01/sample27.txt 0.700341 3.45743 1.5148 0.182129 4.6746
files/tasks_parameters/ExAp01/sample17.txt 0.925109 2.77299 1.44514 0.14646 3.7591
files/tasks_parameters/ExAp01/sample9.txt 0.742645 2.99933 1.451 0.177444 4.55435
files/tasks_parameters/ExAp01/sample34.txt 0.831645 3.02928 1.58429 0.157984 4.05488
files/tasks_parameters/ExAp01/sample40.txt 0.765109 3.86889 1.52122 0.168379 4.3217
files/tasks_parameters/ExAp01/sample33.txt 0.800579 3.63695 1.71905 0.199765 5.12726
files/tasks_parameters/ExAp01/sample48.txt 0.682426 3.39061 1.49062 0.154728 3.97133
files/tasks_parameters/ExAp01/sample29.txt 0.795626 3.30472 1.38739 0.223868 5.74591
files/tasks_parameters/ExAp01/sample11.txt 0.707448 3.10585 1.41612 0.174079 4.46798
files/tasks_parameters/ExAp01/sample14.txt 0.665878 2.70971 1.43432 0.162214 4.16347
files/tasks_parameters/ExAp01/sample0.txt 0.743356 3.6937 1.5439 0.18367 4.71415
files/tasks_parameters/ExAp01/sample7.txt 0.809856 2.70501 1.42221 0.143463 3.6822
files/tasks_parameters/ExAp01/sample23.txt 0.758823 3.2697 1.57822 0.181448 4.65714
files/tasks_parameters/ExAp01/sample13.txt 0.729548 3.84225 1.67648 0.198247 5.0883
files/tasks_parameters/ExAp01/sample22.txt 0.901802 3.09569 1.56121 0.148796 3.81907
files/tasks_parameters/ExAp01/sample25.txt 0.746637 2.73966 1.5007 0.148149 3.80245
files/tasks_parameters/ExAp01/sample36.txt 0.849347 2.85948 1.28553 0.130042 3.33773
files/tasks_parameters/ExAp01/sample46.txt 0.761146 3.58643 1.69998 0.210103 5.3926
files/tasks_parameters/ExAp01/sample31.txt 0.703823 3.4832 1.53782 0.1722 4.41976
files/tasks_parameters/ExAp01/sample37.txt 0.772494 3.95293 1.50705 0.171701 4.40696
files/tasks_parameters/ExAp01/sample16.txt 0.614215 3.31216 1.30115 0.150249 3.85636
files/tasks_parameters/ExAp01/sample10.txt 1.10417 3.17098 1.61789 0.153776 3.9469
files/tasks_parameters/ExAp01/sample39.txt 0.706405 3.26617 1.44406 0.165669 4.25213
files/tasks_parameters/ExAp01/sample19.txt 0.748147 3.63532 1.52509 0.196094 5.03305
files/tasks_parameters/ExAp01/sample20.txt 0.662661 3.20793 1.25367 0.147335 3.78158
files/tasks_parameters/ExAp01/sample43.txt 0.646585 3.11551 1.4202 0.150644 3.86651
files/tasks_parameters/ExAp01/sample32.txt 0.722684 3.5311 1.42482 0.168744 4.33107
files/tasks_parameters/ExAp01/sample45.txt 0.751869 3.80283 1.48324 0.19807 5.08377
files/tasks_parameters/ExAp01/sample26.txt 0.653126 3.21645 1.29701 0.166061 4.2622
files/tasks_parameters/ExAp01/sample5.txt 0.663783 3.5889 1.52559 0.178903 4.59182
files/tasks_parameters/ExAp01/sample21.txt 0.733173 2.75242 1.55936 0.19512 5.00805
files/tasks_parameters/ExAp01/sample38.txt 0.676658 3.31563 1.37515 0.166157 4.26466
files/tasks_parameters/ExAp01/sample1.txt 0.693211 3.74964 1.51696 0.19701 5.05654
files/tasks_parameters/ExAp01/sample15.txt 0.696375 3.32916 1.48508 0.180707 4.63812
files/tasks_parameters/ExAp01/sample24.txt 0.861271 3.45951 1.59549 0.16529 4.24242
files/tasks_parameters/ExAp01/sample3.txt 0.959207 3.70014 1.70809 0.237107 6.0857
files/tasks_parameters/ExAp01/sample6.txt 0.730089 3.33003 1.58323 0.184714 4.74097
files/tasks_parameters/ExAp01/sample30.txt 0.918387 4.1841 1.4861 0.239623 6.15028
files/tasks_parameters/ExAp01/sample42.txt 0.747833 3.43221 1.70276 0.177383 4.55279
files/tasks_parameters/ExAp01/sample4.txt 0.81252 3.72477 1.6136 0.196448 5.04213
files/tasks_parameters/ExAp01/sample28.txt 0.689545 3.11323 1.45032 0.158819 4.07632
files/tasks_parameters/ExAp01/sample18.txt 0.769617 3.47418 1.45209 0.149064 3.82594
files/tasks_parameters/ExAp01/sample35.txt 0.802853 4.57086 1.49394 0.185031 4.74908
files/tasks_parameters/ExAp01/sample47.txt 0.71855 3.13768 1.52397 0.16417 4.21367
files/tasks_parameters/ExAp01/sample49.txt 0.776571 3.13288 1.49657 0.156154 4.00792
files/tasks_parameters/ExAp01/sample41.txt 0.763189 2.81964 1.49636 0.150876 3.87245
