files/tasks_parameters/ExAp01/sample8.txt 1.16149 6.77015 2.19458 0.288816 9.8998
files/tasks_parameters/ExAp01/sample12.txt 1.20922 9.58351 2.46081 0.337498 11.5685
files/tasks_parameters/ExAp01/sample2.txt 1.10989 8.44418 2.50701 0.319127 10.9388
files/tasks_parameters/ExAp01/sample44.txt 0.975187 6.96299 2.23089 0.28229 9.67611
files/tasks_parameters/ExAp01/sample27.txt 1.069 7.74306 2.16676 0.28602 9.80394
files/tasks_parameters/ExAp01/sample17.txt 1.01958 7.35053 2.25579 0.292348 10.0208
files/tasks_parameters/ExAp01/sample9.txt 1.06095 6.89392 2.21068 0.282399 9.67983
files/tasks_parameters/ExAp01/sample34.txt 1.04947 6.62788 2.3772 0.297742 10.2057
files/tasks_parameters/ExAp01/sample40.txt 1.01466 7.75686 2.17534 0.285619 9.79021
files/tasks_parameters/ExAp01/sample33.txt 1.23013 8.14826 2.6463 0.338073 11.5882
files/tasks_parameters/ExAp01/sample48.txt 1.01116 7.64107 2.14272 0.270011 9.25521
files/tasks_parameters/ExAp01/sample29.txt 1.09849 7.139 1.93769 0.286306 9.81374
files/tasks_parameters/ExAp01/sample11.txt 0.970311 6.88688 2.12981 0.280008 9.59789
files/tasks_parameters/ExAp01/sample14.txt 0.858495 6.11983 1.97599 0.247458 8.48214
files/tasks_parameters/ExAp01/sample0.txt 1.03032 8.2738 2.14256 0.289132 9.91061
files/tasks_parameters/ExAp01/sample7.txt 0.964252 6.87011 2.05821 0.269886 9.25091
files/tasks_parameters/ExAp01/sample23.txt 1.03264 6.52032 2.38087 0.291712 9.99904
files/tasks_parameters/ExAp01/sample13.txt 1.09351 8.73247 2.33415 0.295393 10.1252
files/tasks_parameters/ExAp01/sample22.txt 1.02281 6.9777 2.28948 0.283979 9.734
files/tasks_parameters/ExAp01/sample25.txt 0.865726 6.23444 2.2122 0.267298 9.1622
files/tasks_parameters/ExAp01/sample36.txt 0.874535 6.6174 1.9458 0.253823 8.70032
files/tasks_parameters/ExAp01/sample46.txt 1.20963 7.42369 2.49128 0.327273 11.218
files/tasks_parameters/ExAp01/sample31.txt 0.94852 7.22028 2.13584 0.25377 8.69851
files/tasks_parameters/ExAp01/sample37.txt 1.01744 8.90704 2.16981 0.295708 10.136
files/tasks_parameters/ExAp01/sample16.txt 0.939882 8.18243 1.88294 0.24945 8.55042
files/tasks_parameters/ExAp01/sample10.txt 1.06688 6.96646 2.31217 0.285748 9.79462
files/tasks_parameters/ExAp01/sample39.txt 0.964202 6.4161 1.97266 0.251967 8.6367
files/tasks_parameters/ExAp01/sample19.txt 1.14441 8.16711 2.23199 0.308463 10.5732
files/tasks_parameters/ExAp01/sample20.txt 0.927087 7.28549 1.88944 0.25994 8.91
files/tasks_parameters/ExAp01/sample43.txt 0.917372 6.86804 2.00142 0.25616 8.78044
files/tasks_parameters/ExAp01/sample32.txt 1.09387 8.15663 2.12995 0.281726 9.65678
files/tasks_parameters/ExAp01/sample45.txt 1.09097 7.75184 2.10599 0.274935 9.42399
files/tasks_parameters/ExAp01/sample26.txt 0.923656 7.4944 1.88956 0.267248 9.1605
files/tasks_parameters/ExAp01/sample5.txt 1.01591 8.08362 2.09961 0.28454 9.75323
files/tasks_parameters/ExAp01/sample21.txt 0.948605 6.11814 2.17119 0.26143 8.96106
files/tasks_parameters/ExAp01/sample38.txt 0.96475 7.761 1.96293 0.263659 9.03747
files/tasks_parameters/ExAp01/sample1.txt 1.07075 7.83752 2.13261 0.289228 9.91391
files/tasks_parameters/ExAp01/sample15.txt 1.04522 7.37971 2.12057 0.285825 9.79728
files/tasks_parameters/ExAp01/sample24.txt 1.04671 8.28531 2.25272 0.296628 10.1676
files/tasks_parameters/ExAp01/sample3.txt 1.18579 7.33359 2.39135 0.305084 10.4574
files/tasks_parameters/ExAp01/sample6.txt 0.983442 7.09894 2.24425 0.281804 9.65945
files/tasks_parameters/ExAp01/sample30.txt 1.16612 8.17669 2.03701 0.299204 10.2559
files/tasks_parameters/ExAp01/sample42.txt 1.02189 7.70416 2.42413 0.29743 10.1951
files/tasks_parameters/ExAp01/sample4.txt 1.1801 7.41691 2.36261 0.307803 10.5506
files/tasks_parameters/ExAp01/sample28.txt 0.992708 7.0562 2.07657 0.266428 9.13239
files/tasks_parameters/ExAp01/sample18.txt 0.938074 7.60139 2.1377 0.268016 9.18682
files/tasks_parameters/ExAp01/sample35.txt 1.13368 9.66795 2.28028 0.32244 11.0523
files/tasks_parameters/ExAp01/sample47.txt 0.919767 6.84842 2.12104 0.251655 8.62601
files/tasks_parameters/ExAp01/sample49.txt 0.980501 7.1497 2.11412 0.255889 8.77114
files/tasks_parameters/ExAp01/sample41.txt 0.910243 6.59911 2.07359 0.265885 9.11379
