files/tasks_parameters/ExAp01/sample8.txt 1.20819 6.77015 2.19458 0.288816 5.26742
files/tasks_parameters/ExAp01/sample12.txt 1.45128 9.58351 2.46081 0.337498 6.15528
files/tasks_parameters/ExAp01/sample2.txt 1.35207 8.44418 2.50701 0.319127 5.82023
files/tasks_parameters/ExAp01/sample44.txt 1.18361 6.96299 2.23089 0.28229 5.1484
files/tasks_parameters/ExAp01/sample27.txt 1.20969 7.74306 2.16676 0.28602 5.21642
files/tasks_parameters/ExAp01/sample17.txt 1.25037 7.35053 2.25579 0.292348 5.33182
files/tasks_parameters/ExAp01/sample9.txt 1.21154 6.89392 2.21068 0.282399 5.15038
files/tasks_parameters/ExAp01/sample34.txt 1.24356 6.62788 2.3772 0.297742 5.4302
files/tasks_parameters/ExAp01/sample40.txt 1.19381 7.75686 2.17534 0.285619 5.20911
files/tasks_parameters/ExAp01/sample33.txt 1.41259 8.14826 2.6463 0.338073 6.16577
files/tasks_parameters/ExAp01/sample48.txt 1.14353 7.64107 2.14272 0.270011 4.92445
files/tasks_parameters/ExAp01/sample29.txt 1.23868 7.139 1.93769 0.286306 5.22163
files/tasks_parameters/ExAp01/sample11.txt 1.16584 6.88688 2.12981 0.280008 5.10678
files/tasks_parameters/ExAp01/sample14.txt 1.02407 6.11983 1.97599 0.247458 4.51312
files/tasks_parameters/ExAp01/sample0.txt 1.23874 8.2738 2.14256 0.289132 5.27317
files/tasks_parameters/ExAp01/sample7.txt 1.13789 6.87011 2.05821 0.269886 4.92216
files/tasks_parameters/ExAp01/sample23.txt 1.23436 6.52032 2.38087 0.291712 5.32022
files/tasks_parameters/ExAp01/sample13.txt 1.29245 8.73247 2.33415 0.295393 5.38736
files/tasks_parameters/ExAp01/sample22.txt 1.19899 6.9777 2.28948 0.283979 5.1792
files/tasks_parameters/ExAp01/sample25.txt 1.10487 6.23444 2.2122 0.267298 4.87496
files/tasks_parameters/ExAp01/sample36.txt 1.0925 6.6174 1.9458 0.253823 4.62921
files/tasks_parameters/ExAp01/sample46.txt 1.41572 7.42369 2.49128 0.327273 5.96879
files/tasks_parameters/ExAp01/sample31.txt 1.10906 7.22028 2.13584 0.25377 4.62824
files/tasks_parameters/ExAp01/sample37.txt 1.27427 8.90704 2.16981 0.295708 5.39311
files/tasks_parameters/ExAp01/sample16.txt 1.09632 8.18243 1.88294 0.24945 4.54945
files/tasks_parameters/ExAp01/sample10.txt 1.22458 6.96646 2.31217 0.285748 5.21146
files/tasks_parameters/ExAp01/sample39.txt 1.07782 6.4161 1.97266 0.251967 4.59536
files/tasks_parameters/ExAp01/sample19.txt 1.34027 8.16711 2.23199 0.308463 5.62573
files/tasks_parameters/ExAp01/sample20.txt 1.08538 7.28549 1.88944 0.25994 4.74077
files/tasks_parameters/ExAp01/sample43.txt 1.07856 6.86804 2.00142 0.25616 4.67184
files/tasks_parameters/ExAp01/sample32.txt 1.21489 8.15663 2.12995 0.281726 5.13811
files/tasks_parameters/ExAp01/sample45.txt 1.22662 7.75184 2.10599 0.274935 5.01425
files/tasks_parameters/ExAp01/sample26.txt 1.13202 7.4944 1.88956 0.267248 4.87406
files/tasks_parameters/ExAp01/sample5.txt 1.22124 8.08362 2.09961 0.28454 5.18943
files/tasks_parameters/ExAp01/sample21.txt 1.12281 6.11814 2.17119 0.26143 4.76794
files/tasks_parameters/ExAp01/sample38.txt 1.1142 7.761 1.96293 0.263659 4.8086
files/tasks_parameters/ExAp01/sample1.txt 1.24785 7.83752 2.13261 0.289228 5.27493
files/tasks_parameters/ExAp01/sample15.txt 1.20188 7.37971 2.12057 0.285825 5.21287
files/tasks_parameters/ExAp01/sample24.txt 1.2466 8.28531 2.25272 0.296628 5.4099
files/tasks_parameters/ExAp01/sample3.txt 1.31476 7.33359 2.39135 0.305084 5.56412
files/tasks_parameters/ExAp01/sample6.txt 1.17606 7.09894 2.24425 0.281804 5.13954
files/tasks_parameters/ExAp01/sample30.txt 1.33196 8.17669 2.03701 0.299204 5.45688
files/tasks_parameters/ExAp01/sample42.txt 1.24448 7.70416 2.42413 0.29743 5.42452
files/tasks_parameters/ExAp01/sample4.txt 1.32292 7.41691 2.36261 0.307803 5.61369
files/tasks_parameters/ExAp01/sample28.txt 1.13944 7.0562 2.07657 0.266428 4.8591
files/tasks_parameters/ExAp01/sample18.txt 1.11317 7.60139 2.1377 0.268016 4.88807
files/tasks_parameters/ExAp01/sample35.txt 1.40027 9.66795 2.28028 0.32244 5.88064
files/tasks_parameters/ExAp01/sample47.txt 1.06526 6.84842 2.12104 0.251655 4.58967
files/tasks_parameters/ExAp01/sample49.txt 1.06087 7.1497 2.11412 0.255889 4.66689
files/tasks_parameters/ExAp01/sample41.txt 1.11323 6.59911 2.07359 0.265885 4.84921
