files/tasks_parameters/ExAp01/sample8.txt 1.10411 7.2562 4.46819 0.454772 10.0098
files/tasks_parameters/ExAp01/sample12.txt 1.63049 9.70908 5.28286 0.618515 13.6139
files/tasks_parameters/ExAp01/sample2.txt 1.45399 8.14159 5.7401 0.620531 13.6583
files/tasks_parameters/ExAp01/sample44.txt 1.35997 7.25164 5.75904 0.557631 12.2738
files/tasks_parameters/ExAp01/sample27.txt 1.3183 8.10944 5.64946 0.564878 12.4334
files/tasks_parameters/ExAp01/sample17.txt 1.25252 7.11225 5.46658 0.527183 11.6037
files/tasks_parameters/ExAp01/sample9.txt 1.19809 7.62559 5.37813 0.517277 11.3856
files/tasks_parameters/ExAp01/sample34.txt 1.2448 7.04587 5.93037 0.497709 10.9549
files/tasks_parameters/ExAp01/sample40.txt 1.201 8.03037 5.123 0.502383 11.0578
files/tasks_parameters/ExAp01/sample33.txt 1.61617 9.22935 5.92956 0.659262 14.5108
files/tasks_parameters/ExAp01/sample48.txt 1.15167 8.12182 5.1577 0.452491 9.95962
files/tasks_parameters/ExAp01/sample29.txt 1.53889 8.06133 5.12331 0.650652 14.3213
files/tasks_parameters/ExAp01/sample11.txt 1.35889 7.63104 5.37897 0.563302 12.3987
files/tasks_parameters/ExAp01/sample14.txt 1.13533 6.66403 4.66322 0.471536 10.3788
files/tasks_parameters/ExAp01/sample0.txt 1.51727 9.3266 4.98971 0.6311 13.8909
files/tasks_parameters/ExAp01/sample7.txt 1.23364 7.34863 5.19436 0.515527 11.3471
files/tasks_parameters/ExAp01/sample23.txt 1.40203 6.68564 5.54308 0.588617 12.9559
files/tasks_parameters/ExAp01/sample13.txt 1.60733 9.31093 5.35591 0.632849 13.9294
files/tasks_parameters/ExAp01/sample22.txt 1.28633 7.65588 5.04866 0.540336 11.8932
files/tasks_parameters/ExAp01/sample25.txt 1.0295 6.17035 5.0141 0.408296 8.98686
files/tasks_parameters/ExAp01/sample36.txt 1.18626 7.03772 4.66274 0.507647 11.1737
files/tasks_parameters/ExAp01/sample46.txt 1.35221 7.73433 4.79934 0.536843 11.8163
files/tasks_parameters/ExAp01/sample31.txt 1.16998 6.96928 5.16482 0.485817 10.6932
files/tasks_parameters/ExAp01/sample37.txt 1.59457 9.52443 5.74224 0.65799 14.4828
files/tasks_parameters/ExAp01/sample16.txt 1.33905 8.63521 4.97261 0.516328 11.3647
files/tasks_parameters/ExAp01/sample10.txt 1.39877 7.28353 6.16876 0.615651 13.5509
files/tasks_parameters/ExAp01/sample39.txt 1.14417 6.3405 4.6137 0.468873 10.3202
files/tasks_parameters/ExAp01/sample19.txt 1.40241 8.85528 5.22306 0.622152 13.694
files/tasks_parameters/ExAp01/sample20.txt 1.39217 8.1141 5.21177 0.586994 12.9201
files/tasks_parameters/ExAp01/sample43.txt 1.30697 7.21373 5.6367 0.53748 11.8303
files/tasks_parameters/ExAp01/sample32.txt 1.46593 8.30592 5.38137 0.593918 13.0725
files/tasks_parameters/ExAp01/sample45.txt 1.29684 7.94069 4.96323 0.547271 12.0458
files/tasks_parameters/ExAp01/sample26.txt 1.12618 7.57061 4.62637 0.480146 10.5683
files/tasks_parameters/ExAp01/sample5.txt 1.38077 8.0307 5.35681 0.59407 13.0759
files/tasks_parameters/ExAp01/sample21.txt 1.02755 5.87802 4.61744 0.434264 9.55844
files/tasks_parameters/ExAp01/sample38.txt 1.18479 7.66999 4.86632 0.496808 10.9351
files/tasks_parameters/ExAp01/sample1.txt 1.14035 7.21312 4.63213 0.486293 10.7036
files/tasks_parameters/ExAp01/sample15.txt 1.28125 8.02273 5.50855 0.531063 11.689
files/tasks_parameters/ExAp01/sample24.txt 1.32473 8.66348 5.4905 0.548998 12.0838
files/tasks_parameters/ExAp01/sample3.txt 1.18752 7.74268 4.79918 0.477387 10.5076
files/tasks_parameters/ExAp01/sample6.txt 1.51709 8.57133 5.80157 0.633604 13.946
files/tasks_parameters/ExAp01/sample30.txt 1.68756 8.18878 5.90888 0.633576 13.9454
files/tasks_parameters/ExAp01/sample42.txt 1.30595 8.57689 5.67253 0.54426 11.9795
files/tasks_parameters/ExAp01/sample4.txt 1.2994 8.40354 4.57985 0.563519 12.4034
files/tasks_parameters/ExAp01/sample28.txt 1.11501 6.44114 4.96426 0.449721 9.89867
files/tasks_parameters/ExAp01/sample18.txt 1.36928 8.56363 4.60946 0.543766 11.9687
files/tasks_parameters/ExAp01/sample35.txt 1.9413 11.0387 6.34514 0.761377 16.7584
files/tasks_parameters/ExAp01/sample47.txt 1.32345 7.14493 5.22131 0.545046 11.9968
files/tasks_parameters/ExAp01/sample49.txt 1.2998 6.65996 4.80244 0.498533 10.9731
files/tasks_parameters/ExAp01/sample41.txt 1.18983 7.09069 5.35462 0.497129 10.9421
