0.29291955
Task0 3 7 63 
Task1 3 63 7 
Task2 255 15 3 
Task3 15 1 15 
Task4 31 3 31 
Task5 7 15 15 
Task6 7 127 63 
Task7 63 127 127 
Task8 255 31 63 
Task9 3 1 15 
Task10 31 127 31 
Task11 1 3 63 
Task12 31 127 15 
Task13 7 63 31 
Task14 15 31 1 
Task15 1 7 31 
Task16 31 3 31 
Task17 63 15 127 
Task18 255 31 7 
Task19 15 3 63 
Task20 31 31 127 
Task21 255 7 31 
Task22 7 31 31 
Task23 63 3 63 
Task24 31 255 255 
Task25 7 63 31 
Task26 63 31 31 
Task27 7 15 3 
Task28 31 3 31 
Task29 63 1 15 
Task30 15 15 31 
Task31 7 7 15 
Task32 15 15 15 
Task33 255 7 15 
Task34 255 31 7 
Task35 31 3 15 
Task36 63 63 255 
Task37 7 15 31 
Task38 3 255 31 
Task39 255 7 7 
Task40 63 31 63 
Task41 15 15 15 
Task42 31 255 127 
Task43 31 7 15 
Task44 31 127 63 
Task45 63 3 255 
Task46 255 1 31 
Task47 31 63 3 
Task48 31 31 15 
Task49 1 63 15 
Task50 255 3 127 
Task51 15 15 3 
Task52 15 63 127 
Task53 7 63 7 
Task54 255 255 31 
Task55 63 31 255 
Task56 7 7 31 
Task57 63 31 31 
Task58 255 255 255 
Task59 7 7 15 
Task60 255 15 7 
Task61 3 15 15 
Task62 63 31 15 
Task63 1 31 15 
Task64 7 3 63 
Task65 63 63 15 
Task66 7 3 7 
Task67 127 63 63 
Task68 63 31 7 
Task69 31 3 63 
Task70 15 15 3 
Task71 127 63 255 
Task72 7 15 7 
Task73 1 3 31 
Task74 15 63 3 
Task75 31 7 31 
Task76 15 7 15 
Task77 1 255 15 
Task78 63 31 31 
Task79 31 3 31 
Task80 7 7 63 
Task81 255 3 127 
Task82 31 63 63 
Task83 255 15 255 
Task84 31 7 7 
Task85 255 255 31 
Task86 255 31 63 
Task87 3 127 127 
Task88 15 1 1 
Task89 1 63 255 
Task90 15 63 127 
Task91 127 31 127 
Task92 63 15 1 
Task93 63 1 31 
Task94 31 3 255 
Task95 63 127 15 
Task96 63 1 15 
Task97 31 31 31 
Task98 15 3 7 
Task99 63 63 1 
