files/tasks_parameters/ExAp01/sample8.txt 1.08344 7.2562 4.46819 0.454772 16.8187
files/tasks_parameters/ExAp01/sample12.txt 1.46933 9.70908 5.28286 0.618515 22.8744
files/tasks_parameters/ExAp01/sample2.txt 1.4346 8.14159 5.7401 0.620531 22.9489
files/tasks_parameters/ExAp01/sample44.txt 1.32957 7.25164 5.75904 0.557631 20.6227
files/tasks_parameters/ExAp01/sample27.txt 1.33161 8.10944 5.64946 0.564878 20.8908
files/tasks_parameters/ExAp01/sample17.txt 1.23285 7.11225 5.46658 0.527183 19.4967
files/tasks_parameters/ExAp01/sample9.txt 1.20665 7.62559 5.37813 0.517277 19.1303
files/tasks_parameters/ExAp01/sample34.txt 1.19722 7.04587 5.93037 0.497709 18.4067
files/tasks_parameters/ExAp01/sample40.txt 1.19271 8.03037 5.123 0.502383 18.5795
files/tasks_parameters/ExAp01/sample33.txt 1.51062 9.22935 5.92956 0.659262 24.3813
files/tasks_parameters/ExAp01/sample48.txt 1.10564 8.12182 5.1577 0.452491 16.7343
files/tasks_parameters/ExAp01/sample29.txt 1.48203 8.06133 5.12331 0.650652 24.0629
files/tasks_parameters/ExAp01/sample11.txt 1.30332 7.63104 5.37897 0.563302 20.8325
files/tasks_parameters/ExAp01/sample14.txt 1.12715 6.66403 4.66322 0.471536 17.4387
files/tasks_parameters/ExAp01/sample0.txt 1.48081 9.3266 4.98971 0.6311 23.3398
files/tasks_parameters/ExAp01/sample7.txt 1.20807 7.34863 5.19436 0.515527 19.0656
files/tasks_parameters/ExAp01/sample23.txt 1.36181 6.68564 5.54308 0.588617 21.7687
files/tasks_parameters/ExAp01/sample13.txt 1.48835 9.31093 5.35591 0.632849 23.4045
files/tasks_parameters/ExAp01/sample22.txt 1.2721 7.65588 5.04866 0.540336 19.9831
files/tasks_parameters/ExAp01/sample25.txt 0.985495 6.17035 5.0141 0.408296 15.0999
files/tasks_parameters/ExAp01/sample36.txt 1.17505 7.03772 4.66274 0.507647 18.7742
files/tasks_parameters/ExAp01/sample46.txt 1.24891 7.73433 4.79934 0.536843 19.854
files/tasks_parameters/ExAp01/sample31.txt 1.18103 6.96928 5.16482 0.485817 17.9669
files/tasks_parameters/ExAp01/sample37.txt 1.52963 9.52443 5.74224 0.65799 24.3343
files/tasks_parameters/ExAp01/sample16.txt 1.31504 8.63521 4.97261 0.516328 19.0952
files/tasks_parameters/ExAp01/sample10.txt 1.4236 7.28353 6.16876 0.615651 22.7685
files/tasks_parameters/ExAp01/sample39.txt 1.11625 6.3405 4.6137 0.468873 17.3402
files/tasks_parameters/ExAp01/sample19.txt 1.42697 8.85528 5.22306 0.622152 23.0089
files/tasks_parameters/ExAp01/sample20.txt 1.35624 8.1141 5.21177 0.586994 21.7086
files/tasks_parameters/ExAp01/sample43.txt 1.26503 7.21373 5.6367 0.53748 19.8775
files/tasks_parameters/ExAp01/sample32.txt 1.40187 8.30592 5.38137 0.593918 21.9647
files/tasks_parameters/ExAp01/sample45.txt 1.26616 7.94069 4.96323 0.547271 20.2396
files/tasks_parameters/ExAp01/sample26.txt 1.1381 7.57061 4.62637 0.480146 17.7571
files/tasks_parameters/ExAp01/sample5.txt 1.38398 8.0307 5.35681 0.59407 21.9703
files/tasks_parameters/ExAp01/sample21.txt 1.03756 5.87802 4.61744 0.434264 16.0603
files/tasks_parameters/ExAp01/sample38.txt 1.14562 7.66999 4.86632 0.496808 18.3733
files/tasks_parameters/ExAp01/sample1.txt 1.15413 7.21312 4.63213 0.486293 17.9845
files/tasks_parameters/ExAp01/sample15.txt 1.25306 8.02273 5.50855 0.531063 19.6402
files/tasks_parameters/ExAp01/sample24.txt 1.29044 8.66348 5.4905 0.548998 20.3035
files/tasks_parameters/ExAp01/sample3.txt 1.13621 7.74268 4.79918 0.477387 17.6551
files/tasks_parameters/ExAp01/sample6.txt 1.44979 8.57133 5.80157 0.633604 23.4324
files/tasks_parameters/ExAp01/sample30.txt 1.48846 8.18878 5.90888 0.633576 23.4314
files/tasks_parameters/ExAp01/sample42.txt 1.32511 8.57689 5.67253 0.54426 20.1282
files/tasks_parameters/ExAp01/sample4.txt 1.31556 8.40354 4.57985 0.563519 20.8405
files/tasks_parameters/ExAp01/sample28.txt 1.05661 6.44114 4.96426 0.449721 16.6319
files/tasks_parameters/ExAp01/sample18.txt 1.26714 8.56363 4.60946 0.543766 20.11
files/tasks_parameters/ExAp01/sample35.txt 1.77617 11.0387 6.34514 0.761377 28.1578
files/tasks_parameters/ExAp01/sample47.txt 1.24826 7.14493 5.22131 0.545046 20.1573
files/tasks_parameters/ExAp01/sample49.txt 1.23055 6.65996 4.80244 0.498533 18.4371
files/tasks_parameters/ExAp01/sample41.txt 1.15045 7.09069 5.35462 0.497129 18.3852
