0 10
0 11
0 14
0 15
0 16
0 17
0 19
1 11
1 13
1 17
1 18
2 11
2 17
2 18
2 19
3 17
3 18
3 19
3 19
4 10
4 13
4 14
4 16
5 10
5 11
5 14
5 16
5 19
6 11
6 13
6 16
7 12
7 14
8 10
8 13
8 17
9 10
9 14
9 15
9 18
9 20
10 21
10 25
10 29
11 28
12 23
12 25
12 27
13 28
14 22
14 24
14 25
14 29
15 25
16 23
16 24
16 25
16 28
17 23
17 25
17 27
17 28
18 22
18 27
19 23
19 28
20 21
20 26
20 27
20 29
21 30
21 35
22 36
22 37
22 38
23 30
23 37
23 38
24 36
25 30
25 31
25 33
25 34
25 35
26 31
26 34
26 35
26 37
26 38
27 30
27 32
27 34
27 37
28 31
28 34
28 38
29 30
29 34
29 35
29 38
30 39
30 42
30 43
31 45
32 40
32 41
32 44
32 45
33 40
33 45
34 43
34 46
35 39
35 42
35 43
36 42
36 43
36 46
37 40
37 41
37 46
38 40
38 41
38 43
38 45
38 46
39 48
39 49
39 51
40 48
41 47
41 49
42 50
42 52
42 54
43 48
43 51
43 52
43 53
43 54
44 53
46 48
46 51
46 52
46 54
47 55
47 57
47 59
47 60
47 62
48 55
48 58
48 60
49 57
49 59
50 60
50 62
51 56
51 60
51 63
52 55
52 58
52 62
53 57
53 62
53 63
54 55
54 57
54 58
54 59
54 61
55 67
56 66
56 69
56 70
57 66
57 68
57 70
59 64
59 66
59 67
61 64
61 65
61 67
61 68
62 64
62 69
63 67
63 69
63 71
64 73
64 74
65 73
65 75
66 73
66 74
66 75
66 77
67 72
67 75
67 75
67 77
67 78
67 79
68 79
69 72
69 78
70 72
70 79
71 73
71 74
71 76
71 79
71 80
72 82
72 83
72 88
73 86
74 81
74 86
74 87
75 81
75 84
75 86
75 88
77 86
79 85
79 86
79 88
80 84
80 85
80 88
81 90
81 93
81 95
82 89
82 95
82 95
82 98
82 99
83 89
83 98
84 91
84 92
84 97
85 89
85 90
85 93
85 97
85 98
85 99
86 90
86 91
86 94
87 93
87 96
87 99
88 90
88 91
88 93
88 94
88 95
88 97
88 98
