0 12
0 13
0 14
0 17
0 18
1 12
1 17
1 18
1 21
2 19
2 20
2 21
3 13
3 15
4 15
4 17
4 18
4 19
5 16
5 18
5 19
6 11
6 15
7 11
7 14
7 16
7 19
7 20
8 13
8 14
8 15
8 16
9 14
10 14
10 16
10 18
10 21
11 26
11 28
12 22
12 23
12 29
13 23
13 28
13 29
14 22
15 22
15 23
15 26
15 28
15 29
16 22
17 25
17 27
17 29
18 24
18 26
19 22
19 29
20 22
20 28
21 26
21 28
22 32
22 36
22 37
23 32
23 34
23 40
24 30
24 31
24 34
24 35
24 36
25 33
25 35
25 38
25 40
26 30
26 34
26 38
26 40
27 30
27 32
27 37
27 38
27 39
27 40
28 31
28 38
28 39
29 30
29 32
29 35
29 36
31 43
31 49
31 50
32 43
32 44
32 45
32 48
32 50
33 43
33 49
34 41
34 46
34 47
34 50
35 47
35 48
36 49
37 42
37 47
37 48
37 49
37 50
38 47
38 47
38 48
38 50
40 41
40 47
40 50
41 54
41 55
42 52
42 54
42 55
42 57
42 58
43 52
43 53
43 57
43 57
44 54
44 56
45 52
45 54
45 58
46 54
46 57
46 58
47 51
47 52
47 58
48 53
49 51
49 52
49 53
49 57
49 58
50 53
51 61
51 62
51 68
52 62
52 64
52 67
53 60
53 61
53 64
54 61
54 67
55 66
55 67
56 62
56 63
56 67
56 68
57 59
57 61
57 62
57 65
58 60
58 65
58 66
59 69
59 72
59 76
59 77
60 70
60 72
61 69
61 70
61 72
61 75
62 71
62 73
62 75
62 76
63 69
63 70
63 75
64 69
64 73
64 74
64 75
65 73
65 76
66 73
67 69
67 70
67 72
67 76
67 77
68 76
68 77
69 79
69 83
69 85
70 78
70 80
70 81
70 82
70 85
71 78
71 79
71 81
72 78
73 79
74 84
75 80
75 82
75 84
76 80
76 81
76 82
77 80
77 82
78 87
78 88
78 91
78 92
78 93
79 88
79 90
79 93
80 86
80 90
80 93
81 90
81 93
82 86
82 90
82 92
83 89
84 87
84 88
84 92
85 88
85 89
85 92
85 94
86 96
86 96
87 98
89 95
89 96
89 97
89 99
90 95
90 96
90 99
91 95
91 98
91 99
92 97
92 99
93 95
93 97
93 98
93 99
94 95
94 96
94 97
