files/tasks_parameters/ExAp01/sample8.txt 1.0771 6.77015 2.19458 0.288816 6.02649
files/tasks_parameters/ExAp01/sample12.txt 1.31034 9.58351 2.46081 0.337498 7.0423
files/tasks_parameters/ExAp01/sample2.txt 1.18001 8.44418 2.50701 0.319127 6.65897
files/tasks_parameters/ExAp01/sample44.txt 1.06633 6.96299 2.23089 0.28229 5.89032
files/tasks_parameters/ExAp01/sample27.txt 1.06871 7.74306 2.16676 0.28602 5.96814
files/tasks_parameters/ExAp01/sample17.txt 1.10501 7.35053 2.25579 0.292348 6.10018
files/tasks_parameters/ExAp01/sample9.txt 1.07692 6.89392 2.21068 0.282399 5.89258
files/tasks_parameters/ExAp01/sample34.txt 1.08888 6.62788 2.3772 0.297742 6.21273
files/tasks_parameters/ExAp01/sample40.txt 1.03589 7.75686 2.17534 0.285619 5.95978
files/tasks_parameters/ExAp01/sample33.txt 1.24656 8.14826 2.6463 0.338073 7.05429
files/tasks_parameters/ExAp01/sample48.txt 1.00885 7.64107 2.14272 0.270011 5.6341
files/tasks_parameters/ExAp01/sample29.txt 1.07336 7.139 1.93769 0.286306 5.9741
files/tasks_parameters/ExAp01/sample11.txt 1.03031 6.88688 2.12981 0.280008 5.8427
files/tasks_parameters/ExAp01/sample14.txt 0.906091 6.11983 1.97599 0.247458 5.16349
files/tasks_parameters/ExAp01/sample0.txt 1.08615 8.2738 2.14256 0.289132 6.03307
files/tasks_parameters/ExAp01/sample7.txt 1.00906 6.87011 2.05821 0.269886 5.63148
files/tasks_parameters/ExAp01/sample23.txt 1.113 6.52032 2.38087 0.291712 6.0869
files/tasks_parameters/ExAp01/sample13.txt 1.10058 8.73247 2.33415 0.295393 6.16371
files/tasks_parameters/ExAp01/sample22.txt 1.05742 6.9777 2.28948 0.283979 5.92556
files/tasks_parameters/ExAp01/sample25.txt 1.00993 6.23444 2.2122 0.267298 5.57748
files/tasks_parameters/ExAp01/sample36.txt 0.950088 6.6174 1.9458 0.253823 5.29631
files/tasks_parameters/ExAp01/sample46.txt 1.26277 7.42369 2.49128 0.327273 6.82893
files/tasks_parameters/ExAp01/sample31.txt 0.987503 7.22028 2.13584 0.25377 5.29521
files/tasks_parameters/ExAp01/sample37.txt 1.16943 8.90704 2.16981 0.295708 6.1703
files/tasks_parameters/ExAp01/sample16.txt 0.9675 8.18243 1.88294 0.24945 5.20506
files/tasks_parameters/ExAp01/sample10.txt 1.10938 6.96646 2.31217 0.285748 5.96247
files/tasks_parameters/ExAp01/sample39.txt 0.945459 6.4161 1.97266 0.251967 5.25758
files/tasks_parameters/ExAp01/sample19.txt 1.17322 8.16711 2.23199 0.308463 6.43644
files/tasks_parameters/ExAp01/sample20.txt 0.961092 7.28549 1.88944 0.25994 5.42395
files/tasks_parameters/ExAp01/sample43.txt 0.955799 6.86804 2.00142 0.25616 5.34508
files/tasks_parameters/ExAp01/sample32.txt 1.069 8.15663 2.12995 0.281726 5.87855
files/tasks_parameters/ExAp01/sample45.txt 1.0529 7.75184 2.10599 0.274935 5.73684
files/tasks_parameters/ExAp01/sample26.txt 0.987971 7.4944 1.88956 0.267248 5.57644
files/tasks_parameters/ExAp01/sample5.txt 1.07302 8.08362 2.09961 0.28454 5.93727
files/tasks_parameters/ExAp01/sample21.txt 0.987109 6.11814 2.17119 0.26143 5.45504
files/tasks_parameters/ExAp01/sample38.txt 0.987869 7.761 1.96293 0.263659 5.50155
files/tasks_parameters/ExAp01/sample1.txt 1.07502 7.83752 2.13261 0.289228 6.03508
files/tasks_parameters/ExAp01/sample15.txt 1.06587 7.37971 2.12057 0.285825 5.96408
files/tasks_parameters/ExAp01/sample24.txt 1.07974 8.28531 2.25272 0.296628 6.1895
files/tasks_parameters/ExAp01/sample3.txt 1.13998 7.33359 2.39135 0.305084 6.36595
files/tasks_parameters/ExAp01/sample6.txt 1.04342 7.09894 2.24425 0.281804 5.88018
files/tasks_parameters/ExAp01/sample30.txt 1.1895 8.17669 2.03701 0.299204 6.24325
files/tasks_parameters/ExAp01/sample42.txt 1.14771 7.70416 2.42413 0.29743 6.20623
files/tasks_parameters/ExAp01/sample4.txt 1.16841 7.41691 2.36261 0.307803 6.42267
files/tasks_parameters/ExAp01/sample28.txt 0.988804 7.0562 2.07657 0.266428 5.55933
files/tasks_parameters/ExAp01/sample18.txt 1.01558 7.60139 2.1377 0.268016 5.59247
files/tasks_parameters/ExAp01/sample35.txt 1.21277 9.66795 2.28028 0.32244 6.72808
files/tasks_parameters/ExAp01/sample47.txt 0.927693 6.84842 2.12104 0.251655 5.25107
files/tasks_parameters/ExAp01/sample49.txt 0.964473 7.1497 2.11412 0.255889 5.33942
files/tasks_parameters/ExAp01/sample41.txt 0.962674 6.59911 2.07359 0.265885 5.54801
