0 7
0 13
0 14
1 8
1 10
1 12
1 15
1 16
2 8
2 9
2 10
2 17
3 9
3 9
3 11
3 12
3 13
3 17
4 6
4 10
4 11
4 13
4 14
4 16
5 6
5 11
5 14
5 15
5 18
5 19
6 25
6 26
6 27
6 27
6 29
7 25
7 26
8 20
8 22
8 23
8 26
8 28
8 29
9 21
9 23
9 24
9 25
9 26
9 28
9 29
10 20
10 21
10 24
10 26
10 28
10 29
11 20
11 22
11 26
12 20
12 23
12 25
13 20
13 21
13 25
13 28
14 21
14 23
14 27
15 20
15 21
15 23
15 24
15 28
15 29
16 20
16 24
17 23
17 28
17 29
18 24
18 26
18 27
18 28
19 23
19 24
19 25
19 27
20 30
20 31
20 33
20 35
21 30
21 31
22 31
22 34
23 35
24 30
24 31
24 35
25 32
26 32
26 33
27 30
27 33
28 33
28 35
29 31
29 32
29 33
29 35
30 37
31 37
31 38
31 39
32 39
32 40
34 36
34 39
35 37
35 41
36 42
36 46
36 47
36 48
36 49
37 45
37 49
38 44
39 42
39 48
40 48
40 49
41 43
41 44
41 47
42 53
42 56
42 57
43 50
43 53
43 57
44 51
44 55
44 57
45 51
45 55
45 58
46 51
46 52
46 54
46 56
47 51
47 52
47 53
47 57
48 53
49 58
50 60
50 61
50 62
50 63
50 64
50 66
51 60
51 61
51 62
51 63
51 69
52 60
53 60
53 61
53 69
54 61
54 67
54 68
54 69
55 66
55 67
55 68
56 59
56 66
56 68
57 60
57 63
57 65
57 68
58 63
58 66
59 72
59 74
59 80
60 74
60 75
60 78
61 72
61 78
61 78
61 79
61 81
62 70
62 71
62 76
62 81
63 71
63 73
63 74
63 79
64 77
64 81
66 70
66 74
66 77
66 79
67 71
67 73
67 80
68 71
68 73
68 75
68 76
68 77
68 80
69 70
69 74
69 76
69 77
69 77
70 83
70 89
70 92
70 95
71 82
71 89
71 90
72 82
72 93
73 83
73 86
73 87
73 93
73 94
74 91
74 93
75 84
75 92
75 93
76 82
76 91
76 95
77 85
77 87
77 91
77 93
78 82
78 86
78 89
78 91
78 93
79 83
79 84
79 86
79 87
79 91
79 95
80 89
80 91
81 82
81 86
81 88
82 97
83 97
85 98
88 96
88 97
88 98
89 98
90 96
91 96
91 99
92 98
93 96
93 98
94 98
94 99
95 98
