digraph G {
0 ->1 0 ->2 2 ->3 2 ->4 3 ->5 5 ->6 5 ->7 7 ->8 8 ->9 8 ->10 9 ->11 9 ->12 11 ->13 13 ->14 14 ->15 15 ->16 15 ->17 16 ->19 17 ->18 18 ->20 20 ->21 21 ->22 21 ->23 22 ->24 23 ->25 25 ->26 26 ->27 27 ->28 28 ->29 29 ->30 29 ->31 31 ->32 31 ->33 32 ->35 33 ->34 34 ->36 36 ->37 36 ->38 37 ->39 37 ->40 40 ->41 41 ->42 42 ->43 43 ->44 44 ->45 45 ->46 45 ->47 46 ->48 48 ->49 49 ->50 49 ->51 50 ->52 52 ->53 53 ->54 53 ->55 54 ->56 55 ->57 56 ->58 58 ->59 59 ->60 60 ->61 61 ->62 62 ->63 62 ->64 64 ->65 64 ->66 65 ->67 66 ->68 68 ->69 69 ->70 70 ->71 70 ->72 71 ->73 73 ->74 73 ->75 75 ->76 75 ->77 77 ->78 78 ->79 78 ->80 80 ->81 81 ->82 82 ->83 83 ->84 84 ->85 84 ->86 85 ->88 86 ->87 87 ->89 87 ->90 89 ->91 90 ->92 91 ->93 92 ->94 94 ->95 95 ->96 96 ->97 96 ->98 98 ->99 
}
