digraph G {
1 ->2 1 ->3 2 ->4 2 ->5 4 ->6 4 ->7 6 ->9 7 ->8 8 ->10 10 ->11 10 ->12 11 ->13 12 ->14 14 ->15 14 ->16 16 ->17 16 ->18 18 ->19 19 ->20 20 ->21 21 ->22 21 ->23 22 ->24 23 ->25 24 ->27 25 ->26 27 ->28 27 ->29 28 ->30 30 ->31 31 ->32 31 ->33 32 ->34 32 ->35 35 ->36 35 ->37 36 ->38 38 ->39 39 ->40 39 ->41 41 ->42 42 ->43 42 ->44 44 ->45 45 ->46 45 ->47 47 ->48 47 ->49 49 ->50 50 ->51 51 ->52 52 ->53 53 ->54 54 ->55 55 ->56 55 ->57 57 ->58 57 ->59 58 ->60 59 ->61 61 ->62 62 ->63 62 ->64 64 ->65 64 ->66 65 ->67 67 ->68 67 ->69 69 ->70 69 ->71 71 ->72 72 ->73 72 ->74 74 ->75 74 ->76 75 ->77 77 ->78 77 ->79 79 ->80 80 ->81 81 ->82 82 ->83 83 ->84 83 ->85 85 ->86 86 ->87 87 ->88 88 ->89 89 ->90 90 ->91 91 ->92 91 ->93 92 ->94 94 ->95 95 ->96 95 ->97 97 ->98 98 ->99 
}
