digraph G {
0 ->2 0 ->3 3 ->4 3 ->5 4 ->6 5 ->7 6 ->8 8 ->9 8 ->10 10 ->11 11 ->12 12 ->13 13 ->14 13 ->15 14 ->17 15 ->16 17 ->18 18 ->19 19 ->20 20 ->21 20 ->22 21 ->23 22 ->24 23 ->25 25 ->26 26 ->27 27 ->28 27 ->29 28 ->30 29 ->31 31 ->32 31 ->33 32 ->34 34 ->35 35 ->36 35 ->37 36 ->38 38 ->39 38 ->40 39 ->41 41 ->42 42 ->43 43 ->44 44 ->45 45 ->46 45 ->47 46 ->48 48 ->49 49 ->50 49 ->51 50 ->53 51 ->52 53 ->54 54 ->55 55 ->56 56 ->57 56 ->58 57 ->59 58 ->60 59 ->61 61 ->62 62 ->63 62 ->64 63 ->65 65 ->66 65 ->67 67 ->68 68 ->69 69 ->70 69 ->71 70 ->73 71 ->72 72 ->74 74 ->75 74 ->76 75 ->77 77 ->78 77 ->79 78 ->80 78 ->81 81 ->82 81 ->83 83 ->84 84 ->85 84 ->86 85 ->87 87 ->88 87 ->89 88 ->90 90 ->91 90 ->92 92 ->93 93 ->94 94 ->95 94 ->96 95 ->97 97 ->98 98 ->99 
}
