files/tasks_parameters/ExAp01/sample8.txt 1.10748 7.2562 4.46819 0.454772 15.2221
files/tasks_parameters/ExAp01/sample12.txt 1.59635 9.70908 5.28286 0.618515 20.7029
files/tasks_parameters/ExAp01/sample2.txt 1.47574 8.14159 5.7401 0.620531 20.7704
files/tasks_parameters/ExAp01/sample44.txt 1.35459 7.25164 5.75904 0.557631 18.665
files/tasks_parameters/ExAp01/sample27.txt 1.31297 8.10944 5.64946 0.564878 18.9076
files/tasks_parameters/ExAp01/sample17.txt 1.23907 7.11225 5.46658 0.527183 17.6459
files/tasks_parameters/ExAp01/sample9.txt 1.18135 7.62559 5.37813 0.517277 17.3143
files/tasks_parameters/ExAp01/sample34.txt 1.26878 7.04587 5.93037 0.497709 16.6593
files/tasks_parameters/ExAp01/sample40.txt 1.201 8.03037 5.123 0.502383 16.8157
files/tasks_parameters/ExAp01/sample33.txt 1.61164 9.22935 5.92956 0.659262 22.0668
files/tasks_parameters/ExAp01/sample48.txt 1.16045 8.12182 5.1577 0.452491 15.1457
files/tasks_parameters/ExAp01/sample29.txt 1.5264 8.06133 5.12331 0.650652 21.7786
files/tasks_parameters/ExAp01/sample11.txt 1.35889 7.63104 5.37897 0.563302 18.8548
files/tasks_parameters/ExAp01/sample14.txt 1.13573 6.66403 4.66322 0.471536 15.7832
files/tasks_parameters/ExAp01/sample0.txt 1.5117 9.3266 4.98971 0.6311 21.1241
files/tasks_parameters/ExAp01/sample7.txt 1.28351 7.34863 5.19436 0.515527 17.2557
files/tasks_parameters/ExAp01/sample23.txt 1.39501 6.68564 5.54308 0.588617 19.7022
files/tasks_parameters/ExAp01/sample13.txt 1.52481 9.31093 5.35591 0.632849 21.1827
files/tasks_parameters/ExAp01/sample22.txt 1.30635 7.65588 5.04866 0.540336 18.0861
files/tasks_parameters/ExAp01/sample25.txt 1.0295 6.17035 5.0141 0.408296 13.6665
files/tasks_parameters/ExAp01/sample36.txt 1.21795 7.03772 4.66274 0.507647 16.9919
files/tasks_parameters/ExAp01/sample46.txt 1.35225 7.73433 4.79934 0.536843 17.9692
files/tasks_parameters/ExAp01/sample31.txt 1.16992 6.96928 5.16482 0.485817 16.2612
files/tasks_parameters/ExAp01/sample37.txt 1.54891 9.52443 5.74224 0.65799 22.0242
files/tasks_parameters/ExAp01/sample16.txt 1.33729 8.63521 4.97261 0.516328 17.2825
files/tasks_parameters/ExAp01/sample10.txt 1.39779 7.28353 6.16876 0.615651 20.607
files/tasks_parameters/ExAp01/sample39.txt 1.13898 6.3405 4.6137 0.468873 15.6941
files/tasks_parameters/ExAp01/sample19.txt 1.40393 8.85528 5.22306 0.622152 20.8246
files/tasks_parameters/ExAp01/sample20.txt 1.39217 8.1141 5.21177 0.586994 19.6478
files/tasks_parameters/ExAp01/sample43.txt 1.26612 7.21373 5.6367 0.53748 17.9905
files/tasks_parameters/ExAp01/sample32.txt 1.43722 8.30592 5.38137 0.593918 19.8796
files/tasks_parameters/ExAp01/sample45.txt 1.31006 7.94069 4.96323 0.547271 18.3182
files/tasks_parameters/ExAp01/sample26.txt 1.12383 7.57061 4.62637 0.480146 16.0714
files/tasks_parameters/ExAp01/sample5.txt 1.37269 8.0307 5.35681 0.59407 19.8847
files/tasks_parameters/ExAp01/sample21.txt 1.01482 5.87802 4.61744 0.434264 14.5357
files/tasks_parameters/ExAp01/sample38.txt 1.31275 7.66999 4.86632 0.496808 16.6291
files/tasks_parameters/ExAp01/sample1.txt 1.14035 7.21312 4.63213 0.486293 16.2772
files/tasks_parameters/ExAp01/sample15.txt 1.26866 8.02273 5.50855 0.531063 17.7757
files/tasks_parameters/ExAp01/sample24.txt 1.31071 8.66348 5.4905 0.548998 18.376
files/tasks_parameters/ExAp01/sample3.txt 1.16681 7.74268 4.79918 0.477387 15.9791
files/tasks_parameters/ExAp01/sample6.txt 1.48738 8.57133 5.80157 0.633604 21.208
files/tasks_parameters/ExAp01/sample30.txt 1.66528 8.18878 5.90888 0.633576 21.207
files/tasks_parameters/ExAp01/sample42.txt 1.33507 8.57689 5.67253 0.54426 18.2174
files/tasks_parameters/ExAp01/sample4.txt 1.28267 8.40354 4.57985 0.563519 18.8621
files/tasks_parameters/ExAp01/sample28.txt 1.10937 6.44114 4.96426 0.449721 15.053
files/tasks_parameters/ExAp01/sample18.txt 1.32536 8.56363 4.60946 0.543766 18.2009
files/tasks_parameters/ExAp01/sample35.txt 1.89976 11.0387 6.34514 0.761377 25.4848
files/tasks_parameters/ExAp01/sample47.txt 1.32242 7.14493 5.22131 0.545046 18.2437
files/tasks_parameters/ExAp01/sample49.txt 1.28365 6.65996 4.80244 0.498533 16.6869
files/tasks_parameters/ExAp01/sample41.txt 1.18345 7.09069 5.35462 0.497129 16.6399
