files/tasks_parameters/ExAp01/sample8.txt 0.777477 3.15778 1.5595 0.203411 4.21199
files/tasks_parameters/ExAp01/sample12.txt 0.810258 3.94962 1.6705 0.207924 4.30543
files/tasks_parameters/ExAp01/sample2.txt 0.767597 3.78275 1.74131 0.200098 4.14338
files/tasks_parameters/ExAp01/sample44.txt 0.686719 3.59825 1.65317 0.200005 4.14146
files/tasks_parameters/ExAp01/sample27.txt 0.710898 3.45743 1.5148 0.182129 3.77129
files/tasks_parameters/ExAp01/sample17.txt 0.794757 2.77299 1.44514 0.14646 3.03271
files/tasks_parameters/ExAp01/sample9.txt 0.713853 2.99933 1.451 0.177444 3.67428
files/tasks_parameters/ExAp01/sample34.txt 0.82455 3.02928 1.58429 0.157984 3.27133
files/tasks_parameters/ExAp01/sample40.txt 0.747968 3.86889 1.52122 0.168379 3.48659
files/tasks_parameters/ExAp01/sample33.txt 0.802878 3.63695 1.71905 0.199765 4.13649
files/tasks_parameters/ExAp01/sample48.txt 0.676598 3.39061 1.49062 0.154728 3.20392
files/tasks_parameters/ExAp01/sample29.txt 0.776349 3.30472 1.38739 0.223868 4.63559
files/tasks_parameters/ExAp01/sample11.txt 0.707448 3.10585 1.41612 0.174079 3.60461
files/tasks_parameters/ExAp01/sample14.txt 0.667136 2.70971 1.43432 0.162214 3.35894
files/tasks_parameters/ExAp01/sample0.txt 0.746487 3.6937 1.5439 0.18367 3.80321
files/tasks_parameters/ExAp01/sample7.txt 0.778871 2.70501 1.42221 0.143463 2.97067
files/tasks_parameters/ExAp01/sample23.txt 0.760294 3.2697 1.57822 0.181448 3.75721
files/tasks_parameters/ExAp01/sample13.txt 0.730044 3.84225 1.67648 0.198247 4.10506
files/tasks_parameters/ExAp01/sample22.txt 0.783248 3.09569 1.56121 0.148796 3.08109
files/tasks_parameters/ExAp01/sample25.txt 0.721425 2.73966 1.5007 0.148149 3.06768
files/tasks_parameters/ExAp01/sample36.txt 0.708717 2.85948 1.28553 0.130042 2.69276
files/tasks_parameters/ExAp01/sample46.txt 0.763603 3.58643 1.69998 0.210103 4.35055
files/tasks_parameters/ExAp01/sample31.txt 0.709123 3.4832 1.53782 0.1722 3.56571
files/tasks_parameters/ExAp01/sample37.txt 0.745977 3.95293 1.50705 0.171701 3.55538
files/tasks_parameters/ExAp01/sample16.txt 0.605063 3.31216 1.30115 0.150249 3.11117
files/tasks_parameters/ExAp01/sample10.txt 0.850411 3.17098 1.61789 0.153776 3.18421
files/tasks_parameters/ExAp01/sample39.txt 0.728037 3.26617 1.44406 0.165669 3.43047
files/tasks_parameters/ExAp01/sample19.txt 0.764864 3.63532 1.52509 0.196094 4.06048
files/tasks_parameters/ExAp01/sample20.txt 0.662661 3.20793 1.25367 0.147335 3.05084
files/tasks_parameters/ExAp01/sample43.txt 0.646905 3.11551 1.4202 0.150644 3.11936
files/tasks_parameters/ExAp01/sample32.txt 0.722684 3.5311 1.42482 0.168744 3.49415
files/tasks_parameters/ExAp01/sample45.txt 0.761137 3.80283 1.48324 0.19807 4.1014
files/tasks_parameters/ExAp01/sample26.txt 0.635002 3.21645 1.29701 0.166061 3.43859
files/tasks_parameters/ExAp01/sample5.txt 0.62818 3.5889 1.52559 0.178903 3.70451
files/tasks_parameters/ExAp01/sample21.txt 0.661732 2.75242 1.55936 0.19512 4.04031
files/tasks_parameters/ExAp01/sample38.txt 0.676658 3.31563 1.37515 0.166157 3.44057
files/tasks_parameters/ExAp01/sample1.txt 0.70831 3.74964 1.51696 0.19701 4.07944
files/tasks_parameters/ExAp01/sample15.txt 0.693207 3.32916 1.48508 0.180707 3.74187
files/tasks_parameters/ExAp01/sample24.txt 0.809239 3.45951 1.59549 0.16529 3.42263
files/tasks_parameters/ExAp01/sample3.txt 0.858805 3.70014 1.70809 0.237107 4.90972
files/tasks_parameters/ExAp01/sample6.txt 0.708439 3.33003 1.58323 0.184714 3.82484
files/tasks_parameters/ExAp01/sample30.txt 0.923882 4.1841 1.4861 0.239623 4.96182
files/tasks_parameters/ExAp01/sample42.txt 0.747833 3.43221 1.70276 0.177383 3.67303
files/tasks_parameters/ExAp01/sample4.txt 0.784011 3.72477 1.6136 0.196448 4.06781
files/tasks_parameters/ExAp01/sample28.txt 0.685445 3.11323 1.45032 0.158819 3.28863
files/tasks_parameters/ExAp01/sample18.txt 0.764248 3.47418 1.45209 0.149064 3.08663
files/tasks_parameters/ExAp01/sample35.txt 0.784953 4.57086 1.49394 0.185031 3.83139
files/tasks_parameters/ExAp01/sample47.txt 0.696336 3.13768 1.52397 0.16417 3.39943
files/tasks_parameters/ExAp01/sample49.txt 0.766167 3.13288 1.49657 0.156154 3.23345
files/tasks_parameters/ExAp01/sample41.txt 0.761155 2.81964 1.49636 0.150876 3.12415
