files/tasks_parameters/ExAp01/sample8.txt 1.09275 7.2562 4.46819 0.454772 11.2929
files/tasks_parameters/ExAp01/sample12.txt 1.63152 9.70908 5.28286 0.618515 15.3589
files/tasks_parameters/ExAp01/sample2.txt 1.45516 8.14159 5.7401 0.620531 15.409
files/tasks_parameters/ExAp01/sample44.txt 1.35997 7.25164 5.75904 0.557631 13.8471
files/tasks_parameters/ExAp01/sample27.txt 1.3183 8.10944 5.64946 0.564878 14.027
files/tasks_parameters/ExAp01/sample17.txt 1.25325 7.11225 5.46658 0.527183 13.091
files/tasks_parameters/ExAp01/sample9.txt 1.19914 7.62559 5.37813 0.517277 12.845
files/tasks_parameters/ExAp01/sample34.txt 1.2448 7.04587 5.93037 0.497709 12.3591
files/tasks_parameters/ExAp01/sample40.txt 1.22744 8.03037 5.123 0.502383 12.4751
files/tasks_parameters/ExAp01/sample33.txt 1.61656 9.22935 5.92956 0.659262 16.3708
files/tasks_parameters/ExAp01/sample48.txt 1.15185 8.12182 5.1577 0.452491 11.2362
files/tasks_parameters/ExAp01/sample29.txt 1.53908 8.06133 5.12331 0.650652 16.157
files/tasks_parameters/ExAp01/sample11.txt 1.35889 7.63104 5.37897 0.563302 13.9879
files/tasks_parameters/ExAp01/sample14.txt 1.13603 6.66403 4.66322 0.471536 11.7092
files/tasks_parameters/ExAp01/sample0.txt 1.51928 9.3266 4.98971 0.6311 15.6714
files/tasks_parameters/ExAp01/sample7.txt 1.23514 7.34863 5.19436 0.515527 12.8015
files/tasks_parameters/ExAp01/sample23.txt 1.40203 6.68564 5.54308 0.588617 14.6165
files/tasks_parameters/ExAp01/sample13.txt 1.60807 9.31093 5.35591 0.632849 15.7149
files/tasks_parameters/ExAp01/sample22.txt 1.28633 7.65588 5.04866 0.540336 13.4176
files/tasks_parameters/ExAp01/sample25.txt 1.0295 6.17035 5.0141 0.408296 10.1388
files/tasks_parameters/ExAp01/sample36.txt 1.19007 7.03772 4.66274 0.507647 12.6059
files/tasks_parameters/ExAp01/sample46.txt 1.37122 7.73433 4.79934 0.536843 13.3309
files/tasks_parameters/ExAp01/sample31.txt 1.16998 6.96928 5.16482 0.485817 12.0638
files/tasks_parameters/ExAp01/sample37.txt 1.59518 9.52443 5.74224 0.65799 16.3392
files/tasks_parameters/ExAp01/sample16.txt 1.33876 8.63521 4.97261 0.516328 12.8214
files/tasks_parameters/ExAp01/sample10.txt 1.39877 7.28353 6.16876 0.615651 15.2878
files/tasks_parameters/ExAp01/sample39.txt 1.14417 6.3405 4.6137 0.468873 11.643
files/tasks_parameters/ExAp01/sample19.txt 1.4036 8.85528 5.22306 0.622152 15.4493
files/tasks_parameters/ExAp01/sample20.txt 1.39217 8.1141 5.21177 0.586994 14.5762
files/tasks_parameters/ExAp01/sample43.txt 1.30697 7.21373 5.6367 0.53748 13.3467
files/tasks_parameters/ExAp01/sample32.txt 1.47061 8.30592 5.38137 0.593918 14.7481
files/tasks_parameters/ExAp01/sample45.txt 1.30262 7.94069 4.96323 0.547271 13.5898
files/tasks_parameters/ExAp01/sample26.txt 1.12295 7.57061 4.62637 0.480146 11.923
files/tasks_parameters/ExAp01/sample5.txt 1.38077 8.0307 5.35681 0.59407 14.7519
files/tasks_parameters/ExAp01/sample21.txt 1.02755 5.87802 4.61744 0.434264 10.7836
files/tasks_parameters/ExAp01/sample38.txt 1.18513 7.66999 4.86632 0.496808 12.3367
files/tasks_parameters/ExAp01/sample1.txt 1.14035 7.21312 4.63213 0.486293 12.0756
files/tasks_parameters/ExAp01/sample15.txt 1.28125 8.02273 5.50855 0.531063 13.1873
files/tasks_parameters/ExAp01/sample24.txt 1.31609 8.66348 5.4905 0.548998 13.6327
files/tasks_parameters/ExAp01/sample3.txt 1.18752 7.74268 4.79918 0.477387 11.8544
files/tasks_parameters/ExAp01/sample6.txt 1.51709 8.57133 5.80157 0.633604 15.7336
files/tasks_parameters/ExAp01/sample30.txt 1.68756 8.18878 5.90888 0.633576 15.7329
files/tasks_parameters/ExAp01/sample42.txt 1.30673 8.57689 5.67253 0.54426 13.515
files/tasks_parameters/ExAp01/sample4.txt 1.30192 8.40354 4.57985 0.563519 13.9933
files/tasks_parameters/ExAp01/sample28.txt 1.11432 6.44114 4.96426 0.449721 11.1675
files/tasks_parameters/ExAp01/sample18.txt 1.33748 8.56363 4.60946 0.543766 13.5028
files/tasks_parameters/ExAp01/sample35.txt 1.94321 11.0387 6.34514 0.761377 18.9065
files/tasks_parameters/ExAp01/sample47.txt 1.32345 7.14493 5.22131 0.545046 13.5345
files/tasks_parameters/ExAp01/sample49.txt 1.30058 6.65996 4.80244 0.498533 12.3796
files/tasks_parameters/ExAp01/sample41.txt 1.18983 7.09069 5.35462 0.497129 12.3447
