files/tasks_parameters/ExAp01/sample8.txt 0.714982 3.15778 1.5595 0.203411 4.02461
files/tasks_parameters/ExAp01/sample12.txt 0.827123 3.94962 1.6705 0.207924 4.11389
files/tasks_parameters/ExAp01/sample2.txt 0.807344 3.78275 1.74131 0.200098 3.95905
files/tasks_parameters/ExAp01/sample44.txt 0.719096 3.59825 1.65317 0.200005 3.95722
files/tasks_parameters/ExAp01/sample27.txt 0.718675 3.45743 1.5148 0.182129 3.60352
files/tasks_parameters/ExAp01/sample17.txt 0.925109 2.77299 1.44514 0.14646 2.89779
files/tasks_parameters/ExAp01/sample9.txt 0.734786 2.99933 1.451 0.177444 3.51082
files/tasks_parameters/ExAp01/sample34.txt 0.831645 3.02928 1.58429 0.157984 3.1258
files/tasks_parameters/ExAp01/sample40.txt 0.765297 3.86889 1.52122 0.168379 3.33148
files/tasks_parameters/ExAp01/sample33.txt 0.805067 3.63695 1.71905 0.199765 3.95246
files/tasks_parameters/ExAp01/sample48.txt 0.690173 3.39061 1.49062 0.154728 3.06139
files/tasks_parameters/ExAp01/sample29.txt 0.785367 3.30472 1.38739 0.223868 4.42936
files/tasks_parameters/ExAp01/sample11.txt 0.713861 3.10585 1.41612 0.174079 3.44425
files/tasks_parameters/ExAp01/sample14.txt 0.662046 2.70971 1.43432 0.162214 3.20951
files/tasks_parameters/ExAp01/sample0.txt 0.770218 3.6937 1.5439 0.18367 3.63401
files/tasks_parameters/ExAp01/sample7.txt 0.809856 2.70501 1.42221 0.143463 2.83851
files/tasks_parameters/ExAp01/sample23.txt 0.767286 3.2697 1.57822 0.181448 3.59006
files/tasks_parameters/ExAp01/sample13.txt 0.772379 3.84225 1.67648 0.198247 3.92243
files/tasks_parameters/ExAp01/sample22.txt 0.901802 3.09569 1.56121 0.148796 2.94402
files/tasks_parameters/ExAp01/sample25.txt 0.746637 2.73966 1.5007 0.148149 2.93121
files/tasks_parameters/ExAp01/sample36.txt 0.832743 2.85948 1.28553 0.130042 2.57296
files/tasks_parameters/ExAp01/sample46.txt 0.772534 3.58643 1.69998 0.210103 4.157
files/tasks_parameters/ExAp01/sample31.txt 0.701895 3.4832 1.53782 0.1722 3.40707
files/tasks_parameters/ExAp01/sample37.txt 0.773462 3.95293 1.50705 0.171701 3.3972
files/tasks_parameters/ExAp01/sample16.txt 0.630255 3.31216 1.30115 0.150249 2.97276
files/tasks_parameters/ExAp01/sample10.txt 1.10417 3.17098 1.61789 0.153776 3.04255
files/tasks_parameters/ExAp01/sample39.txt 0.687463 3.26617 1.44406 0.165669 3.27785
files/tasks_parameters/ExAp01/sample19.txt 0.744615 3.63532 1.52509 0.196094 3.87984
files/tasks_parameters/ExAp01/sample20.txt 0.664595 3.20793 1.25367 0.147335 2.91512
files/tasks_parameters/ExAp01/sample43.txt 0.651918 3.11551 1.4202 0.150644 2.98059
files/tasks_parameters/ExAp01/sample32.txt 0.747508 3.5311 1.42482 0.168744 3.3387
files/tasks_parameters/ExAp01/sample45.txt 0.750162 3.80283 1.48324 0.19807 3.91894
files/tasks_parameters/ExAp01/sample26.txt 0.652237 3.21645 1.29701 0.166061 3.28562
files/tasks_parameters/ExAp01/sample5.txt 0.665789 3.5889 1.52559 0.178903 3.53971
files/tasks_parameters/ExAp01/sample21.txt 0.712415 2.75242 1.55936 0.19512 3.86057
files/tasks_parameters/ExAp01/sample38.txt 0.66832 3.31563 1.37515 0.166157 3.28751
files/tasks_parameters/ExAp01/sample1.txt 0.715662 3.74964 1.51696 0.19701 3.89795
files/tasks_parameters/ExAp01/sample15.txt 0.710031 3.32916 1.48508 0.180707 3.5754
files/tasks_parameters/ExAp01/sample24.txt 0.861271 3.45951 1.59549 0.16529 3.27037
files/tasks_parameters/ExAp01/sample3.txt 0.869402 3.70014 1.70809 0.237107 4.6913
files/tasks_parameters/ExAp01/sample6.txt 0.744694 3.33003 1.58323 0.184714 3.65468
files/tasks_parameters/ExAp01/sample30.txt 0.894412 4.1841 1.4861 0.239623 4.74108
files/tasks_parameters/ExAp01/sample42.txt 0.755066 3.43221 1.70276 0.177383 3.50962
files/tasks_parameters/ExAp01/sample4.txt 0.803046 3.72477 1.6136 0.196448 3.88684
files/tasks_parameters/ExAp01/sample28.txt 0.7016 3.11323 1.45032 0.158819 3.14233
files/tasks_parameters/ExAp01/sample18.txt 0.77307 3.47418 1.45209 0.149064 2.94931
files/tasks_parameters/ExAp01/sample35.txt 0.830719 4.57086 1.49394 0.185031 3.66094
files/tasks_parameters/ExAp01/sample47.txt 0.719799 3.13768 1.52397 0.16417 3.2482
files/tasks_parameters/ExAp01/sample49.txt 0.781983 3.13288 1.49657 0.156154 3.0896
files/tasks_parameters/ExAp01/sample41.txt 0.765478 2.81964 1.49636 0.150876 2.98517
