files/tasks_parameters/ExAp01/sample8.txt 1.02393 3.76817 4.3855 0.450105 9.01758
files/tasks_parameters/ExAp01/sample12.txt 1.34074 5.03638 5.18776 0.610564 12.2323
files/tasks_parameters/ExAp01/sample2.txt 1.29592 4.58991 5.64606 0.613877 12.2986
files/tasks_parameters/ExAp01/sample44.txt 1.1816 3.77401 5.66946 0.551838 11.0557
files/tasks_parameters/ExAp01/sample27.txt 1.19407 4.13937 5.56136 0.55779 11.175
files/tasks_parameters/ExAp01/sample17.txt 1.11005 3.76163 5.38341 0.520991 10.4377
files/tasks_parameters/ExAp01/sample9.txt 1.09395 3.69889 5.2981 0.511699 10.2516
files/tasks_parameters/ExAp01/sample34.txt 1.07957 3.52435 5.83741 0.49187 9.85431
files/tasks_parameters/ExAp01/sample40.txt 1.06149 4.06185 5.0335 0.496884 9.95476
files/tasks_parameters/ExAp01/sample33.txt 1.40552 4.82091 5.83886 0.651963 13.0617
files/tasks_parameters/ExAp01/sample48.txt 0.991542 4.01134 5.07085 0.447927 8.97394
files/tasks_parameters/ExAp01/sample29.txt 1.35332 4.20847 5.0406 0.643694 12.896
files/tasks_parameters/ExAp01/sample11.txt 1.21202 3.94699 5.29198 0.557276 11.1647
files/tasks_parameters/ExAp01/sample14.txt 1.02592 3.54059 4.58345 0.466713 9.35031
files/tasks_parameters/ExAp01/sample0.txt 1.33568 4.82755 4.90216 0.623551 12.4924
files/tasks_parameters/ExAp01/sample7.txt 1.10144 3.60766 5.11185 0.509566 10.2088
files/tasks_parameters/ExAp01/sample23.txt 1.26316 3.81403 5.45799 0.582911 11.6783
files/tasks_parameters/ExAp01/sample13.txt 1.34682 4.8894 5.26818 0.624499 12.5114
files/tasks_parameters/ExAp01/sample22.txt 1.16206 3.76156 4.95746 0.534216 10.7027
files/tasks_parameters/ExAp01/sample25.txt 0.899798 2.94144 4.92622 0.403639 8.08666
files/tasks_parameters/ExAp01/sample36.txt 1.10489 3.56164 4.5806 0.501799 10.0532
files/tasks_parameters/ExAp01/sample46.txt 1.14198 3.84833 4.7121 0.530701 10.6323
files/tasks_parameters/ExAp01/sample31.txt 1.05359 3.764 5.08385 0.479734 9.61117
files/tasks_parameters/ExAp01/sample37.txt 1.40456 4.43254 5.65111 0.65143 13.051
files/tasks_parameters/ExAp01/sample16.txt 1.1773 4.49741 4.8895 0.509171 10.2009
files/tasks_parameters/ExAp01/sample10.txt 1.32001 3.87086 6.07511 0.60993 12.2196
files/tasks_parameters/ExAp01/sample39.txt 1.01209 3.66299 4.54281 0.463671 9.28936
files/tasks_parameters/ExAp01/sample19.txt 1.29496 3.86694 5.14047 0.615987 12.3409
files/tasks_parameters/ExAp01/sample20.txt 1.22988 4.09945 5.13368 0.580369 11.6273
files/tasks_parameters/ExAp01/sample43.txt 1.14437 3.75825 5.55698 0.530892 10.6361
files/tasks_parameters/ExAp01/sample32.txt 1.30189 4.0352 5.29178 0.587643 11.7731
files/tasks_parameters/ExAp01/sample45.txt 1.17582 3.94578 4.87833 0.541081 10.8402
files/tasks_parameters/ExAp01/sample26.txt 1.01909 3.50998 4.55035 0.474009 9.49648
files/tasks_parameters/ExAp01/sample5.txt 1.26212 4.00994 5.27725 0.587681 11.7738
files/tasks_parameters/ExAp01/sample21.txt 0.934426 2.8974 4.54677 0.430037 8.61553
files/tasks_parameters/ExAp01/sample38.txt 1.08094 3.56689 4.78573 0.492366 9.86425
files/tasks_parameters/ExAp01/sample1.txt 1.04415 3.69002 4.55048 0.481074 9.63801
files/tasks_parameters/ExAp01/sample15.txt 1.13059 3.73223 5.42493 0.524964 10.5173
files/tasks_parameters/ExAp01/sample24.txt 1.15732 4.18053 5.40377 0.542575 10.8702
files/tasks_parameters/ExAp01/sample3.txt 1.00507 3.70547 4.7118 0.470503 9.42623
files/tasks_parameters/ExAp01/sample6.txt 1.31353 4.07521 5.71419 0.626702 12.5556
files/tasks_parameters/ExAp01/sample30.txt 1.3709 3.97446 5.82388 0.626709 12.5557
files/tasks_parameters/ExAp01/sample42.txt 1.19543 4.44207 5.58473 0.537025 10.759
files/tasks_parameters/ExAp01/sample4.txt 1.22667 3.92181 4.49751 0.556974 11.1586
files/tasks_parameters/ExAp01/sample28.txt 0.991351 3.13496 4.88321 0.444588 8.90705
files/tasks_parameters/ExAp01/sample18.txt 1.16987 3.95301 4.52898 0.537438 10.7672
files/tasks_parameters/ExAp01/sample35.txt 1.70241 5.75923 6.25034 0.752488 15.0756
files/tasks_parameters/ExAp01/sample47.txt 1.14008 3.44018 5.14289 0.540033 10.8192
files/tasks_parameters/ExAp01/sample49.txt 1.17439 3.38981 4.72409 0.493041 9.87777
files/tasks_parameters/ExAp01/sample41.txt 1.04989 3.58692 5.27252 0.492391 9.86473
