files/tasks_parameters/ExAp01/sample8.txt 1.08361 3.76817 4.3855 0.450105 13.2192
files/tasks_parameters/ExAp01/sample12.txt 1.49418 5.03638 5.18776 0.610564 17.9318
files/tasks_parameters/ExAp01/sample2.txt 1.39957 4.58991 5.64606 0.613877 18.0291
files/tasks_parameters/ExAp01/sample44.txt 1.25878 3.77401 5.66946 0.551838 16.207
files/tasks_parameters/ExAp01/sample27.txt 1.29418 4.13937 5.56136 0.55779 16.3818
files/tasks_parameters/ExAp01/sample17.txt 1.1944 3.76163 5.38341 0.520991 15.3011
files/tasks_parameters/ExAp01/sample9.txt 1.12921 3.69889 5.2981 0.511699 15.0282
files/tasks_parameters/ExAp01/sample34.txt 1.13513 3.52435 5.83741 0.49187 14.4458
files/tasks_parameters/ExAp01/sample40.txt 1.15486 4.06185 5.0335 0.496884 14.5931
files/tasks_parameters/ExAp01/sample33.txt 1.55311 4.82091 5.83886 0.651963 19.1476
files/tasks_parameters/ExAp01/sample48.txt 1.06928 4.01134 5.07085 0.447927 13.1553
files/tasks_parameters/ExAp01/sample29.txt 1.44434 4.20847 5.0406 0.643694 18.9048
files/tasks_parameters/ExAp01/sample11.txt 1.31879 3.94699 5.29198 0.557276 16.3667
files/tasks_parameters/ExAp01/sample14.txt 1.0833 3.54059 4.58345 0.466713 13.707
files/tasks_parameters/ExAp01/sample0.txt 1.51814 4.82755 4.90216 0.623551 18.3132
files/tasks_parameters/ExAp01/sample7.txt 1.15513 3.60766 5.11185 0.509566 14.9655
files/tasks_parameters/ExAp01/sample23.txt 1.39278 3.81403 5.45799 0.582911 17.1196
files/tasks_parameters/ExAp01/sample13.txt 1.48778 4.8894 5.26818 0.624499 18.341
files/tasks_parameters/ExAp01/sample22.txt 1.29363 3.76156 4.95746 0.534216 15.6895
files/tasks_parameters/ExAp01/sample25.txt 0.976769 2.94144 4.92622 0.403639 11.8546
files/tasks_parameters/ExAp01/sample36.txt 1.25826 3.56164 4.5806 0.501799 14.7374
files/tasks_parameters/ExAp01/sample46.txt 1.23268 3.84833 4.7121 0.530701 15.5863
files/tasks_parameters/ExAp01/sample31.txt 1.09406 3.764 5.08385 0.479734 14.0894
files/tasks_parameters/ExAp01/sample37.txt 1.5274 4.43254 5.65111 0.65143 19.132
files/tasks_parameters/ExAp01/sample16.txt 1.27211 4.49741 4.8895 0.509171 14.9539
files/tasks_parameters/ExAp01/sample10.txt 1.38978 3.87086 6.07511 0.60993 17.9131
files/tasks_parameters/ExAp01/sample39.txt 1.05999 3.66299 4.54281 0.463671 13.6177
files/tasks_parameters/ExAp01/sample19.txt 1.40955 3.86694 5.14047 0.615987 18.0911
files/tasks_parameters/ExAp01/sample20.txt 1.30362 4.09945 5.13368 0.580369 17.045
files/tasks_parameters/ExAp01/sample43.txt 1.15395 3.75825 5.55698 0.530892 15.5919
files/tasks_parameters/ExAp01/sample32.txt 1.42834 4.0352 5.29178 0.587643 17.2586
files/tasks_parameters/ExAp01/sample45.txt 1.2259 3.94578 4.87833 0.541081 15.8911
files/tasks_parameters/ExAp01/sample26.txt 1.11313 3.50998 4.55035 0.474009 13.9213
files/tasks_parameters/ExAp01/sample5.txt 1.38286 4.00994 5.27725 0.587681 17.2597
files/tasks_parameters/ExAp01/sample21.txt 0.935011 2.8974 4.54677 0.430037 12.6298
files/tasks_parameters/ExAp01/sample38.txt 1.17206 3.56689 4.78573 0.492366 14.4604
files/tasks_parameters/ExAp01/sample1.txt 1.1568 3.69002 4.55048 0.481074 14.1288
files/tasks_parameters/ExAp01/sample15.txt 1.20629 3.73223 5.42493 0.524964 15.4178
files/tasks_parameters/ExAp01/sample24.txt 1.31125 4.18053 5.40377 0.542575 15.935
files/tasks_parameters/ExAp01/sample3.txt 1.08376 3.70547 4.7118 0.470503 13.8183
files/tasks_parameters/ExAp01/sample6.txt 1.42034 4.07521 5.71419 0.626702 18.4057
files/tasks_parameters/ExAp01/sample30.txt 1.49517 3.97446 5.82388 0.626709 18.4059
files/tasks_parameters/ExAp01/sample42.txt 1.29681 4.44207 5.58473 0.537025 15.772
files/tasks_parameters/ExAp01/sample4.txt 1.40492 3.92181 4.49751 0.556974 16.3579
files/tasks_parameters/ExAp01/sample28.txt 1.02346 3.13496 4.88321 0.444588 13.0572
files/tasks_parameters/ExAp01/sample18.txt 1.22792 3.95301 4.52898 0.537438 15.7841
files/tasks_parameters/ExAp01/sample35.txt 1.80878 5.75923 6.25034 0.752488 22.1
files/tasks_parameters/ExAp01/sample47.txt 1.16153 3.44018 5.14289 0.540033 15.8603
files/tasks_parameters/ExAp01/sample49.txt 1.22931 3.38981 4.72409 0.493041 14.4802
files/tasks_parameters/ExAp01/sample41.txt 1.10214 3.58692 5.27252 0.492391 14.4611
