files/tasks_parameters/ExAp01/sample8.txt 1.14384 6.77015 2.19458 0.288816 6.65923
files/tasks_parameters/ExAp01/sample12.txt 1.34411 9.58351 2.46081 0.337498 7.78169
files/tasks_parameters/ExAp01/sample2.txt 1.27398 8.44418 2.50701 0.319127 7.35811
files/tasks_parameters/ExAp01/sample44.txt 1.13996 6.96299 2.23089 0.28229 6.50876
files/tasks_parameters/ExAp01/sample27.txt 1.14269 7.74306 2.16676 0.28602 6.59475
files/tasks_parameters/ExAp01/sample17.txt 1.16668 7.35053 2.25579 0.292348 6.74065
files/tasks_parameters/ExAp01/sample9.txt 1.13007 6.89392 2.21068 0.282399 6.51126
files/tasks_parameters/ExAp01/sample34.txt 1.18276 6.62788 2.3772 0.297742 6.86502
files/tasks_parameters/ExAp01/sample40.txt 1.1375 7.75686 2.17534 0.285619 6.58551
files/tasks_parameters/ExAp01/sample33.txt 1.34405 8.14826 2.6463 0.338073 7.79494
files/tasks_parameters/ExAp01/sample48.txt 1.09631 7.64107 2.14272 0.270011 6.22564
files/tasks_parameters/ExAp01/sample29.txt 1.13422 7.139 1.93769 0.286306 6.60134
files/tasks_parameters/ExAp01/sample11.txt 1.11759 6.88688 2.12981 0.280008 6.45614
files/tasks_parameters/ExAp01/sample14.txt 0.995605 6.11983 1.97599 0.247458 5.70562
files/tasks_parameters/ExAp01/sample0.txt 1.17221 8.2738 2.14256 0.289132 6.6665
files/tasks_parameters/ExAp01/sample7.txt 1.10205 6.87011 2.05821 0.269886 6.22274
files/tasks_parameters/ExAp01/sample23.txt 1.17273 6.52032 2.38087 0.291712 6.72598
files/tasks_parameters/ExAp01/sample13.txt 1.18604 8.73247 2.33415 0.295393 6.81086
files/tasks_parameters/ExAp01/sample22.txt 1.13698 6.9777 2.28948 0.283979 6.5477
files/tasks_parameters/ExAp01/sample25.txt 1.07137 6.23444 2.2122 0.267298 6.16307
files/tasks_parameters/ExAp01/sample36.txt 1.02862 6.6174 1.9458 0.253823 5.85238
files/tasks_parameters/ExAp01/sample46.txt 1.30779 7.42369 2.49128 0.327273 7.54592
files/tasks_parameters/ExAp01/sample31.txt 1.02227 7.22028 2.13584 0.25377 5.85116
files/tasks_parameters/ExAp01/sample37.txt 1.24372 8.90704 2.16981 0.295708 6.81813
files/tasks_parameters/ExAp01/sample16.txt 1.05363 8.18243 1.88294 0.24945 5.75155
files/tasks_parameters/ExAp01/sample10.txt 1.1843 6.96646 2.31217 0.285748 6.58848
files/tasks_parameters/ExAp01/sample39.txt 1.03935 6.4161 1.97266 0.251967 5.80959
files/tasks_parameters/ExAp01/sample19.txt 1.28231 8.16711 2.23199 0.308463 7.11222
files/tasks_parameters/ExAp01/sample20.txt 1.04468 7.28549 1.88944 0.25994 5.99342
files/tasks_parameters/ExAp01/sample43.txt 1.02162 6.86804 2.00142 0.25616 5.90628
files/tasks_parameters/ExAp01/sample32.txt 1.11869 8.15663 2.12995 0.281726 6.49576
files/tasks_parameters/ExAp01/sample45.txt 1.10921 7.75184 2.10599 0.274935 6.33916
files/tasks_parameters/ExAp01/sample26.txt 1.08964 7.4944 1.88956 0.267248 6.16193
files/tasks_parameters/ExAp01/sample5.txt 1.12924 8.08362 2.09961 0.28454 6.56064
files/tasks_parameters/ExAp01/sample21.txt 1.04845 6.11814 2.17119 0.26143 6.02777
files/tasks_parameters/ExAp01/sample38.txt 1.05871 7.761 1.96293 0.263659 6.07917
files/tasks_parameters/ExAp01/sample1.txt 1.16463 7.83752 2.13261 0.289228 6.66872
files/tasks_parameters/ExAp01/sample15.txt 1.16044 7.37971 2.12057 0.285825 6.59027
files/tasks_parameters/ExAp01/sample24.txt 1.18162 8.28531 2.25272 0.296628 6.83935
files/tasks_parameters/ExAp01/sample3.txt 1.222 7.33359 2.39135 0.305084 7.03432
files/tasks_parameters/ExAp01/sample6.txt 1.11891 7.09894 2.24425 0.281804 6.49755
files/tasks_parameters/ExAp01/sample30.txt 1.2512 8.17669 2.03701 0.299204 6.89874
files/tasks_parameters/ExAp01/sample42.txt 1.18994 7.70416 2.42413 0.29743 6.85783
files/tasks_parameters/ExAp01/sample4.txt 1.23474 7.41691 2.36261 0.307803 7.097
files/tasks_parameters/ExAp01/sample28.txt 1.058 7.0562 2.07657 0.266428 6.14302
files/tasks_parameters/ExAp01/sample18.txt 1.10967 7.60139 2.1377 0.268016 6.17964
files/tasks_parameters/ExAp01/sample35.txt 1.28058 9.66795 2.28028 0.32244 7.43448
files/tasks_parameters/ExAp01/sample47.txt 1.00314 6.84842 2.12104 0.251655 5.80239
files/tasks_parameters/ExAp01/sample49.txt 1.0277 7.1497 2.11412 0.255889 5.90002
files/tasks_parameters/ExAp01/sample41.txt 1.06617 6.59911 2.07359 0.265885 6.13051
