files/tasks_parameters/ExAp01/sample8.txt 1.13768 6.77015 2.19458 0.288816 8.3912
files/tasks_parameters/ExAp01/sample12.txt 1.25232 9.58351 2.46081 0.337498 9.80559
files/tasks_parameters/ExAp01/sample2.txt 1.1304 8.44418 2.50701 0.319127 9.27184
files/tasks_parameters/ExAp01/sample44.txt 0.996537 6.96299 2.23089 0.28229 8.20159
files/tasks_parameters/ExAp01/sample27.txt 1.08155 7.74306 2.16676 0.28602 8.30994
files/tasks_parameters/ExAp01/sample17.txt 1.06104 7.35053 2.25579 0.292348 8.49379
files/tasks_parameters/ExAp01/sample9.txt 1.00094 6.89392 2.21068 0.282399 8.20474
files/tasks_parameters/ExAp01/sample34.txt 1.02462 6.62788 2.3772 0.297742 8.65051
files/tasks_parameters/ExAp01/sample40.txt 0.987572 7.75686 2.17534 0.285619 8.29831
files/tasks_parameters/ExAp01/sample33.txt 1.22325 8.14826 2.6463 0.338073 9.82229
files/tasks_parameters/ExAp01/sample48.txt 0.951961 7.64107 2.14272 0.270011 7.84483
files/tasks_parameters/ExAp01/sample29.txt 1.03208 7.139 1.93769 0.286306 8.31825
files/tasks_parameters/ExAp01/sample11.txt 1.04092 6.88688 2.12981 0.280008 8.13529
files/tasks_parameters/ExAp01/sample14.txt 0.880096 6.11983 1.97599 0.247458 7.18957
files/tasks_parameters/ExAp01/sample0.txt 1.04641 8.2738 2.14256 0.289132 8.40036
files/tasks_parameters/ExAp01/sample7.txt 0.975876 6.87011 2.05821 0.269886 7.84118
files/tasks_parameters/ExAp01/sample23.txt 1.04419 6.52032 2.38087 0.291712 8.47531
files/tasks_parameters/ExAp01/sample13.txt 1.07537 8.73247 2.33415 0.295393 8.58226
files/tasks_parameters/ExAp01/sample22.txt 1.00187 6.9777 2.28948 0.283979 8.25066
files/tasks_parameters/ExAp01/sample25.txt 0.962472 6.23444 2.2122 0.267298 7.766
files/tasks_parameters/ExAp01/sample36.txt 0.845901 6.6174 1.9458 0.253823 7.3745
files/tasks_parameters/ExAp01/sample46.txt 1.21124 7.42369 2.49128 0.327273 9.5085
files/tasks_parameters/ExAp01/sample31.txt 0.97981 7.22028 2.13584 0.25377 7.37296
files/tasks_parameters/ExAp01/sample37.txt 1.01718 8.90704 2.16981 0.295708 8.59142
files/tasks_parameters/ExAp01/sample16.txt 0.912323 8.18243 1.88294 0.24945 7.24745
files/tasks_parameters/ExAp01/sample10.txt 1.07571 6.96646 2.31217 0.285748 8.30205
files/tasks_parameters/ExAp01/sample39.txt 0.966991 6.4161 1.97266 0.251967 7.32057
files/tasks_parameters/ExAp01/sample19.txt 1.18792 8.16711 2.23199 0.308463 8.962
files/tasks_parameters/ExAp01/sample20.txt 0.924441 7.28549 1.88944 0.25994 7.55222
files/tasks_parameters/ExAp01/sample43.txt 0.889321 6.86804 2.00142 0.25616 7.44241
files/tasks_parameters/ExAp01/sample32.txt 0.989772 8.15663 2.12995 0.281726 8.1852
files/tasks_parameters/ExAp01/sample45.txt 1.05516 7.75184 2.10599 0.274935 7.98789
files/tasks_parameters/ExAp01/sample26.txt 0.934167 7.4944 1.88956 0.267248 7.76455
files/tasks_parameters/ExAp01/sample5.txt 1.01689 8.08362 2.09961 0.28454 8.26696
files/tasks_parameters/ExAp01/sample21.txt 0.909114 6.11814 2.17119 0.26143 7.59551
files/tasks_parameters/ExAp01/sample38.txt 0.943269 7.761 1.96293 0.263659 7.66028
files/tasks_parameters/ExAp01/sample1.txt 1.08456 7.83752 2.13261 0.289228 8.40316
files/tasks_parameters/ExAp01/sample15.txt 0.99047 7.37971 2.12057 0.285825 8.3043
files/tasks_parameters/ExAp01/sample24.txt 1.06014 8.28531 2.25272 0.296628 8.61817
files/tasks_parameters/ExAp01/sample3.txt 1.08305 7.33359 2.39135 0.305084 8.86384
files/tasks_parameters/ExAp01/sample6.txt 0.934653 7.09894 2.24425 0.281804 8.18747
files/tasks_parameters/ExAp01/sample30.txt 1.13488 8.17669 2.03701 0.299204 8.693
files/tasks_parameters/ExAp01/sample42.txt 1.0606 7.70416 2.42413 0.29743 8.64145
files/tasks_parameters/ExAp01/sample4.txt 1.15713 7.41691 2.36261 0.307803 8.94282
files/tasks_parameters/ExAp01/sample28.txt 0.997821 7.0562 2.07657 0.266428 7.74073
files/tasks_parameters/ExAp01/sample18.txt 0.93684 7.60139 2.1377 0.268016 7.78687
files/tasks_parameters/ExAp01/sample35.txt 1.08016 9.66795 2.28028 0.32244 9.36808
files/tasks_parameters/ExAp01/sample47.txt 0.986221 6.84842 2.12104 0.251655 7.31151
files/tasks_parameters/ExAp01/sample49.txt 0.945742 7.1497 2.11412 0.255889 7.43453
files/tasks_parameters/ExAp01/sample41.txt 0.942505 6.59911 2.07359 0.265885 7.72496
