files/tasks_parameters/ExAp01/sample8.txt 0.732739 3.15778 1.5595 0.203411 3.74863
files/tasks_parameters/ExAp01/sample12.txt 0.828253 3.94962 1.6705 0.207924 3.83179
files/tasks_parameters/ExAp01/sample2.txt 0.825882 3.78275 1.74131 0.200098 3.68757
files/tasks_parameters/ExAp01/sample44.txt 0.746675 3.59825 1.65317 0.200005 3.68586
files/tasks_parameters/ExAp01/sample27.txt 0.72049 3.45743 1.5148 0.182129 3.35642
files/tasks_parameters/ExAp01/sample17.txt 0.611805 2.77299 1.44514 0.14646 2.69908
files/tasks_parameters/ExAp01/sample9.txt 0.679114 2.99933 1.451 0.177444 3.27008
files/tasks_parameters/ExAp01/sample34.txt 0.631556 3.02928 1.58429 0.157984 2.91146
files/tasks_parameters/ExAp01/sample40.txt 0.683883 3.86889 1.52122 0.168379 3.10304
files/tasks_parameters/ExAp01/sample33.txt 0.800562 3.63695 1.71905 0.199765 3.68144
files/tasks_parameters/ExAp01/sample48.txt 0.629668 3.39061 1.49062 0.154728 2.85146
files/tasks_parameters/ExAp01/sample29.txt 0.813272 3.30472 1.38739 0.223868 4.12563
files/tasks_parameters/ExAp01/sample11.txt 0.680356 3.10585 1.41612 0.174079 3.20807
files/tasks_parameters/ExAp01/sample14.txt 0.644148 2.70971 1.43432 0.162214 2.98942
files/tasks_parameters/ExAp01/sample0.txt 0.763302 3.6937 1.5439 0.18367 3.38482
files/tasks_parameters/ExAp01/sample7.txt 0.607477 2.70501 1.42221 0.143463 2.64386
files/tasks_parameters/ExAp01/sample23.txt 0.7105 3.2697 1.57822 0.181448 3.34388
files/tasks_parameters/ExAp01/sample13.txt 0.789707 3.84225 1.67648 0.198247 3.65346
files/tasks_parameters/ExAp01/sample22.txt 0.616889 3.09569 1.56121 0.148796 2.74214
files/tasks_parameters/ExAp01/sample25.txt 0.578807 2.73966 1.5007 0.148149 2.73021
files/tasks_parameters/ExAp01/sample36.txt 0.548584 2.85948 1.28553 0.130042 2.39653
files/tasks_parameters/ExAp01/sample46.txt 0.783639 3.58643 1.69998 0.210103 3.87195
files/tasks_parameters/ExAp01/sample31.txt 0.725639 3.4832 1.53782 0.1722 3.17344
files/tasks_parameters/ExAp01/sample37.txt 0.717108 3.95293 1.50705 0.171701 3.16425
files/tasks_parameters/ExAp01/sample16.txt 0.624612 3.31216 1.30115 0.150249 2.76891
files/tasks_parameters/ExAp01/sample10.txt 0.649133 3.17098 1.61789 0.153776 2.83392
files/tasks_parameters/ExAp01/sample39.txt 0.686465 3.26617 1.44406 0.165669 3.05308
files/tasks_parameters/ExAp01/sample19.txt 0.752161 3.63532 1.52509 0.196094 3.61379
files/tasks_parameters/ExAp01/sample20.txt 0.607917 3.20793 1.25367 0.147335 2.71522
files/tasks_parameters/ExAp01/sample43.txt 0.609659 3.11551 1.4202 0.150644 2.7762
files/tasks_parameters/ExAp01/sample32.txt 0.708079 3.5311 1.42482 0.168744 3.10976
files/tasks_parameters/ExAp01/sample45.txt 0.765663 3.80283 1.48324 0.19807 3.65021
files/tasks_parameters/ExAp01/sample26.txt 0.630728 3.21645 1.29701 0.166061 3.06031
files/tasks_parameters/ExAp01/sample5.txt 0.676889 3.5889 1.52559 0.178903 3.29698
files/tasks_parameters/ExAp01/sample21.txt 0.727941 2.75242 1.55936 0.19512 3.59584
files/tasks_parameters/ExAp01/sample38.txt 0.669741 3.31563 1.37515 0.166157 3.06208
files/tasks_parameters/ExAp01/sample1.txt 0.744422 3.74964 1.51696 0.19701 3.63066
files/tasks_parameters/ExAp01/sample15.txt 0.717906 3.32916 1.48508 0.180707 3.33023
files/tasks_parameters/ExAp01/sample24.txt 0.677231 3.45951 1.59549 0.16529 3.04611
files/tasks_parameters/ExAp01/sample3.txt 0.901573 3.70014 1.70809 0.237107 4.36961
files/tasks_parameters/ExAp01/sample6.txt 0.730467 3.33003 1.58323 0.184714 3.40407
files/tasks_parameters/ExAp01/sample30.txt 0.940163 4.1841 1.4861 0.239623 4.41597
files/tasks_parameters/ExAp01/sample42.txt 0.70645 3.43221 1.70276 0.177383 3.26896
files/tasks_parameters/ExAp01/sample4.txt 0.781152 3.72477 1.6136 0.196448 3.62031
files/tasks_parameters/ExAp01/sample28.txt 0.627277 3.11323 1.45032 0.158819 2.92685
files/tasks_parameters/ExAp01/sample18.txt 0.615469 3.47418 1.45209 0.149064 2.74707
files/tasks_parameters/ExAp01/sample35.txt 0.76324 4.57086 1.49394 0.185031 3.4099
files/tasks_parameters/ExAp01/sample47.txt 0.674839 3.13768 1.52397 0.16417 3.02546
files/tasks_parameters/ExAp01/sample49.txt 0.653593 3.13288 1.49657 0.156154 2.87774
files/tasks_parameters/ExAp01/sample41.txt 0.608045 2.81964 1.49636 0.150876 2.78047
