files/tasks_parameters/Expfat0/sample8.txt 5.19714 39.7439 4.91083 2.45576 50.3948
files/tasks_parameters/Expfat0/sample12.txt 5.74337 45.8051 5.45327 2.72699 55.9605
files/tasks_parameters/Expfat0/sample2.txt 5.47393 41.6579 5.19473 2.5977 53.3075
files/tasks_parameters/Expfat0/sample44.txt 4.59248 42.0381 4.3194 2.16003 44.3261
files/tasks_parameters/Expfat0/sample27.txt 5.35308 42.3582 5.06556 2.53313 51.9824
files/tasks_parameters/Expfat0/sample17.txt 5.2431 39.861 4.97842 2.48953 51.0877
files/tasks_parameters/Expfat0/sample9.txt 5.74315 41.892 5.47262 2.73664 56.1586
files/tasks_parameters/Expfat0/sample34.txt 5.85216 46.5715 5.54679 2.77377 56.9205
files/tasks_parameters/Expfat0/sample40.txt 5.14451 45.264 4.86065 2.43067 49.8798
files/tasks_parameters/Expfat0/sample33.txt 5.38279 41.3772 5.12602 2.56332 52.6019
files/tasks_parameters/Expfat0/sample48.txt 5.07794 39.4678 4.81351 2.40708 49.3956
files/tasks_parameters/Expfat0/sample29.txt 6.1428 46.0385 5.82723 2.914 59.7983
files/tasks_parameters/Expfat0/sample11.txt 5.11753 41.8483 4.84342 2.42204 49.7028
files/tasks_parameters/Expfat0/sample14.txt 6.05004 45.4378 5.76535 2.88302 59.1626
files/tasks_parameters/Expfat0/sample0.txt 4.43852 39.5116 4.17766 2.08915 42.8714
files/tasks_parameters/Expfat0/sample7.txt 5.42113 45.6709 5.12476 2.56274 52.59
files/tasks_parameters/Expfat0/sample23.txt 5.60312 43.2063 5.31876 2.65973 54.5803
files/tasks_parameters/Expfat0/sample13.txt 5.91004 48.0959 5.5932 2.79698 57.397
files/tasks_parameters/Expfat0/sample22.txt 5.71721 42.0192 5.4388 2.71974 55.8118
files/tasks_parameters/Expfat0/sample25.txt 4.90552 40.4352 4.62977 2.31522 47.5107
files/tasks_parameters/Expfat0/sample36.txt 5.49341 43.9806 5.19437 2.59755 53.3044
files/tasks_parameters/Expfat0/sample46.txt 5.72823 44.85 5.43918 2.71994 55.816
files/tasks_parameters/Expfat0/sample31.txt 5.6645 42.7718 5.38116 2.69093 55.2206
files/tasks_parameters/Expfat0/sample37.txt 5.26108 44.1687 4.95292 2.47684 50.8272
files/tasks_parameters/Expfat0/sample16.txt 5.3245 40.9018 5.04068 2.52069 51.727
files/tasks_parameters/Expfat0/sample10.txt 6.75995 47.4752 6.46014 3.23043 66.2918
files/tasks_parameters/Expfat0/sample39.txt 6.16412 46.4068 5.86101 2.93088 60.1446
files/tasks_parameters/Expfat0/sample19.txt 5.14522 41.4925 4.87383 2.43724 50.0147
files/tasks_parameters/Expfat0/sample20.txt 5.28732 40.6791 5.01571 2.50818 51.4705
files/tasks_parameters/Expfat0/sample43.txt 5.25575 42.015 4.96739 2.48405 50.9751
files/tasks_parameters/Expfat0/sample32.txt 5.88082 48.7165 5.57335 2.78705 57.193
files/tasks_parameters/Expfat0/sample45.txt 5.45935 40.7782 5.17505 2.58787 53.1057
files/tasks_parameters/Expfat0/sample26.txt 4.98354 41.1823 4.69747 2.34909 48.2056
files/tasks_parameters/Expfat0/sample5.txt 5.78909 44.067 5.5136 2.75714 56.5793
files/tasks_parameters/Expfat0/sample21.txt 5.00862 42.957 4.71824 2.35947 48.4188
files/tasks_parameters/Expfat0/sample38.txt 5.74467 42.6909 5.45811 2.7294 56.0101
files/tasks_parameters/Expfat0/sample1.txt 5.94415 45.9389 5.65365 2.82718 58.0166
files/tasks_parameters/Expfat0/sample15.txt 5.81592 46.1591 5.50895 2.75485 56.5323
files/tasks_parameters/Expfat0/sample24.txt 5.63499 42.1531 5.34962 2.67516 54.8969
files/tasks_parameters/Expfat0/sample3.txt 5.9306 45.9964 5.6343 2.81751 57.8182
files/tasks_parameters/Expfat0/sample6.txt 5.56569 42.5541 5.28827 2.64447 54.2673
files/tasks_parameters/Expfat0/sample30.txt 5.62585 45.2425 5.32985 2.66528 54.6943
files/tasks_parameters/Expfat0/sample42.txt 5.54901 43.8254 5.26984 2.63526 54.0783
files/tasks_parameters/Expfat0/sample4.txt 5.49088 40.9711 5.20646 2.60358 53.4281
files/tasks_parameters/Expfat0/sample28.txt 5.37297 42.2455 5.10455 2.5526 52.3819
files/tasks_parameters/Expfat0/sample18.txt 4.90725 42.0824 4.62284 2.31177 47.4398
files/tasks_parameters/Expfat0/sample35.txt 5.46206 42.1601 5.17373 2.58722 53.0923
files/tasks_parameters/Expfat0/sample47.txt 5.0637 40.9451 4.79181 2.39624 49.1732
files/tasks_parameters/Expfat0/sample49.txt 6.70727 47.3942 6.40672 3.20372 65.7437
files/tasks_parameters/Expfat0/sample41.txt 5.23445 38.7227 4.97683 2.48873 51.0712
