files/tasks_parameters/ExAp01/sample8.txt 1.10598 7.2562 4.46819 0.454772 20.2979
files/tasks_parameters/ExAp01/sample12.txt 1.58695 9.70908 5.28286 0.618515 27.6062
files/tasks_parameters/ExAp01/sample2.txt 1.43775 8.14159 5.7401 0.620531 27.6962
files/tasks_parameters/ExAp01/sample44.txt 1.33608 7.25164 5.75904 0.557631 24.8888
files/tasks_parameters/ExAp01/sample27.txt 1.30402 8.10944 5.64946 0.564878 25.2123
files/tasks_parameters/ExAp01/sample17.txt 1.23519 7.11225 5.46658 0.527183 23.5298
files/tasks_parameters/ExAp01/sample9.txt 1.23479 7.62559 5.37813 0.517277 23.0877
files/tasks_parameters/ExAp01/sample34.txt 1.19695 7.04587 5.93037 0.497709 22.2143
files/tasks_parameters/ExAp01/sample40.txt 1.20983 8.03037 5.123 0.502383 22.4229
files/tasks_parameters/ExAp01/sample33.txt 1.53791 9.22935 5.92956 0.659262 29.4249
files/tasks_parameters/ExAp01/sample48.txt 1.10842 8.12182 5.1577 0.452491 20.1961
files/tasks_parameters/ExAp01/sample29.txt 1.4523 8.06133 5.12331 0.650652 29.0406
files/tasks_parameters/ExAp01/sample11.txt 1.33847 7.63104 5.37897 0.563302 25.1419
files/tasks_parameters/ExAp01/sample14.txt 1.1435 6.66403 4.66322 0.471536 21.0461
files/tasks_parameters/ExAp01/sample0.txt 1.44563 9.3266 4.98971 0.6311 28.1679
files/tasks_parameters/ExAp01/sample7.txt 1.22877 7.34863 5.19436 0.515527 23.0096
files/tasks_parameters/ExAp01/sample23.txt 1.34812 6.68564 5.54308 0.588617 26.2718
files/tasks_parameters/ExAp01/sample13.txt 1.45846 9.31093 5.35591 0.632849 28.246
files/tasks_parameters/ExAp01/sample22.txt 1.26573 7.65588 5.04866 0.540336 24.1169
files/tasks_parameters/ExAp01/sample25.txt 0.995792 6.17035 5.0141 0.408296 18.2235
files/tasks_parameters/ExAp01/sample36.txt 1.22197 7.03772 4.66274 0.507647 22.6579
files/tasks_parameters/ExAp01/sample46.txt 1.26382 7.73433 4.79934 0.536843 23.961
files/tasks_parameters/ExAp01/sample31.txt 1.16225 6.96928 5.16482 0.485817 21.6835
files/tasks_parameters/ExAp01/sample37.txt 1.55068 9.52443 5.74224 0.65799 29.3681
files/tasks_parameters/ExAp01/sample16.txt 1.35877 8.63521 4.97261 0.516328 23.0453
files/tasks_parameters/ExAp01/sample10.txt 1.38396 7.28353 6.16876 0.615651 27.4784
files/tasks_parameters/ExAp01/sample39.txt 1.10079 6.3405 4.6137 0.468873 20.9273
files/tasks_parameters/ExAp01/sample19.txt 1.38295 8.85528 5.22306 0.622152 27.7686
files/tasks_parameters/ExAp01/sample20.txt 1.36471 8.1141 5.21177 0.586994 26.1994
files/tasks_parameters/ExAp01/sample43.txt 1.24968 7.21373 5.6367 0.53748 23.9894
files/tasks_parameters/ExAp01/sample32.txt 1.379 8.30592 5.38137 0.593918 26.5084
files/tasks_parameters/ExAp01/sample45.txt 1.3398 7.94069 4.96323 0.547271 24.4264
files/tasks_parameters/ExAp01/sample26.txt 1.12141 7.57061 4.62637 0.480146 21.4304
files/tasks_parameters/ExAp01/sample5.txt 1.35144 8.0307 5.35681 0.59407 26.5152
files/tasks_parameters/ExAp01/sample21.txt 1.02538 5.87802 4.61744 0.434264 19.3826
files/tasks_parameters/ExAp01/sample38.txt 1.16338 7.66999 4.86632 0.496808 22.1741
files/tasks_parameters/ExAp01/sample1.txt 1.11813 7.21312 4.63213 0.486293 21.7048
files/tasks_parameters/ExAp01/sample15.txt 1.22653 8.02273 5.50855 0.531063 23.703
files/tasks_parameters/ExAp01/sample24.txt 1.32843 8.66348 5.4905 0.548998 24.5035
files/tasks_parameters/ExAp01/sample3.txt 1.18016 7.74268 4.79918 0.477387 21.3073
files/tasks_parameters/ExAp01/sample6.txt 1.45141 8.57133 5.80157 0.633604 28.2797
files/tasks_parameters/ExAp01/sample30.txt 1.52907 8.18878 5.90888 0.633576 28.2785
files/tasks_parameters/ExAp01/sample42.txt 1.32707 8.57689 5.67253 0.54426 24.292
files/tasks_parameters/ExAp01/sample4.txt 1.2813 8.40354 4.57985 0.563519 25.1516
files/tasks_parameters/ExAp01/sample28.txt 1.05931 6.44114 4.96426 0.449721 20.0725
files/tasks_parameters/ExAp01/sample18.txt 1.313 8.56363 4.60946 0.543766 24.27
files/tasks_parameters/ExAp01/sample35.txt 1.82486 11.0387 6.34514 0.761377 33.9826
files/tasks_parameters/ExAp01/sample47.txt 1.29797 7.14493 5.22131 0.545046 24.3271
files/tasks_parameters/ExAp01/sample49.txt 1.24375 6.65996 4.80244 0.498533 22.2511
files/tasks_parameters/ExAp01/sample41.txt 1.1589 7.09069 5.35462 0.497129 22.1884
