files/tasks_parameters/ExAp01/sample8.txt 1.1174 7.2562 4.46819 0.454772 11.1069
files/tasks_parameters/ExAp01/sample12.txt 1.6387 9.70908 5.28286 0.618515 15.106
files/tasks_parameters/ExAp01/sample2.txt 1.52648 8.14159 5.7401 0.620531 15.1553
files/tasks_parameters/ExAp01/sample44.txt 1.39788 7.25164 5.75904 0.557631 13.6191
files/tasks_parameters/ExAp01/sample27.txt 1.3183 8.10944 5.64946 0.564878 13.7961
files/tasks_parameters/ExAp01/sample17.txt 1.26926 7.11225 5.46658 0.527183 12.8754
files/tasks_parameters/ExAp01/sample9.txt 1.21353 7.62559 5.37813 0.517277 12.6335
files/tasks_parameters/ExAp01/sample34.txt 1.2448 7.04587 5.93037 0.497709 12.1556
files/tasks_parameters/ExAp01/sample40.txt 1.22744 8.03037 5.123 0.502383 12.2697
files/tasks_parameters/ExAp01/sample33.txt 1.63735 9.22935 5.92956 0.659262 16.1012
files/tasks_parameters/ExAp01/sample48.txt 1.16575 8.12182 5.1577 0.452491 11.0512
files/tasks_parameters/ExAp01/sample29.txt 1.55398 8.06133 5.12331 0.650652 15.8909
files/tasks_parameters/ExAp01/sample11.txt 1.35889 7.63104 5.37897 0.563302 13.7576
files/tasks_parameters/ExAp01/sample14.txt 1.13168 6.66403 4.66322 0.471536 11.5164
files/tasks_parameters/ExAp01/sample0.txt 1.64457 9.3266 4.98971 0.6311 15.4134
files/tasks_parameters/ExAp01/sample7.txt 1.30116 7.34863 5.19436 0.515527 12.5908
files/tasks_parameters/ExAp01/sample23.txt 1.40506 6.68564 5.54308 0.588617 14.3758
files/tasks_parameters/ExAp01/sample13.txt 1.65142 9.31093 5.35591 0.632849 15.4561
files/tasks_parameters/ExAp01/sample22.txt 1.29523 7.65588 5.04866 0.540336 13.1967
files/tasks_parameters/ExAp01/sample25.txt 1.0295 6.17035 5.0141 0.408296 9.97184
files/tasks_parameters/ExAp01/sample36.txt 1.19007 7.03772 4.66274 0.507647 12.3983
files/tasks_parameters/ExAp01/sample46.txt 1.35236 7.73433 4.79934 0.536843 13.1114
files/tasks_parameters/ExAp01/sample31.txt 1.19045 6.96928 5.16482 0.485817 11.8652
files/tasks_parameters/ExAp01/sample37.txt 1.63248 9.52443 5.74224 0.65799 16.0701
files/tasks_parameters/ExAp01/sample16.txt 1.43838 8.63521 4.97261 0.516328 12.6103
files/tasks_parameters/ExAp01/sample10.txt 1.39877 7.28353 6.16876 0.615651 15.0361
files/tasks_parameters/ExAp01/sample39.txt 1.14417 6.3405 4.6137 0.468873 11.4513
files/tasks_parameters/ExAp01/sample19.txt 1.62945 8.85528 5.22306 0.622152 15.1949
files/tasks_parameters/ExAp01/sample20.txt 1.39412 8.1141 5.21177 0.586994 14.3362
files/tasks_parameters/ExAp01/sample43.txt 1.30697 7.21373 5.6367 0.53748 13.1269
files/tasks_parameters/ExAp01/sample32.txt 1.60287 8.30592 5.38137 0.593918 14.5053
files/tasks_parameters/ExAp01/sample45.txt 1.42244 7.94069 4.96323 0.547271 13.366
files/tasks_parameters/ExAp01/sample26.txt 1.15359 7.57061 4.62637 0.480146 11.7266
files/tasks_parameters/ExAp01/sample5.txt 1.4931 8.0307 5.35681 0.59407 14.509
files/tasks_parameters/ExAp01/sample21.txt 1.02755 5.87802 4.61744 0.434264 10.6061
files/tasks_parameters/ExAp01/sample38.txt 1.18494 7.66999 4.86632 0.496808 12.1336
files/tasks_parameters/ExAp01/sample1.txt 1.18331 7.21312 4.63213 0.486293 11.8768
files/tasks_parameters/ExAp01/sample15.txt 1.28125 8.02273 5.50855 0.531063 12.9702
files/tasks_parameters/ExAp01/sample24.txt 1.38769 8.66348 5.4905 0.548998 13.4082
files/tasks_parameters/ExAp01/sample3.txt 1.18752 7.74268 4.79918 0.477387 11.6593
files/tasks_parameters/ExAp01/sample6.txt 1.50447 8.57133 5.80157 0.633604 15.4746
files/tasks_parameters/ExAp01/sample30.txt 1.64664 8.18878 5.90888 0.633576 15.4739
files/tasks_parameters/ExAp01/sample42.txt 1.30673 8.57689 5.67253 0.54426 13.2925
files/tasks_parameters/ExAp01/sample4.txt 1.34862 8.40354 4.57985 0.563519 13.7629
files/tasks_parameters/ExAp01/sample28.txt 1.0744 6.44114 4.96426 0.449721 10.9836
files/tasks_parameters/ExAp01/sample18.txt 1.32677 8.56363 4.60946 0.543766 13.2804
files/tasks_parameters/ExAp01/sample35.txt 1.98167 11.0387 6.34514 0.761377 18.5952
files/tasks_parameters/ExAp01/sample47.txt 1.32345 7.14493 5.22131 0.545046 13.3117
files/tasks_parameters/ExAp01/sample49.txt 1.30572 6.65996 4.80244 0.498533 12.1757
files/tasks_parameters/ExAp01/sample41.txt 1.18983 7.09069 5.35462 0.497129 12.1414
