0.33212245999999995
Task0 7 63 7 
Task1 31 63 31 
Task2 7 15 63 
Task3 63 7 15 
Task4 7 31 63 
Task5 255 63 31 
Task6 7 31 15 
Task7 63 15 7 
Task8 63 31 15 
Task9 255 127 127 
Task10 3 15 63 
Task11 63 31 7 
Task12 1 63 63 
Task13 1 255 1 
Task14 7 63 15 
Task15 7 63 1 
Task16 1 15 63 
Task17 127 31 31 
Task18 63 63 31 
Task19 3 31 1 
Task20 31 31 31 
Task21 15 31 31 
Task22 31 31 7 
Task23 63 63 31 
Task24 7 63 1 
Task25 63 15 15 
Task26 1 63 1 
Task27 15 63 63 
Task28 7 7 63 
Task29 15 1 63 
Task30 127 255 15 
Task31 63 15 7 
Task32 7 7 63 
Task33 255 63 63 
Task34 63 255 255 
Task35 63 255 255 
Task36 31 7 255 
Task37 31 7 63 
Task38 31 255 127 
Task39 1 3 63 
Task40 63 255 127 
Task41 7 127 255 
Task42 31 63 3 
Task43 31 63 31 
Task44 31 63 7 
Task45 63 127 255 
Task46 1 63 3 
Task47 31 1 7 
Task48 63 127 31 
Task49 31 7 63 
Task50 255 63 255 
Task51 15 31 63 
Task52 255 127 63 
Task53 3 63 3 
Task54 63 255 63 
Task55 15 7 31 
Task56 63 31 1 
Task57 15 255 31 
Task58 7 31 63 
Task59 15 63 63 
Task60 3 3 63 
Task61 15 255 63 
Task62 31 31 15 
Task63 255 255 127 
Task64 7 7 63 
Task65 31 31 63 
Task66 7 15 63 
Task67 31 15 63 
Task68 1 31 63 
Task69 7 31 127 
Task70 63 255 7 
Task71 15 31 31 
Task72 31 15 31 
Task73 3 3 31 
Task74 3 63 3 
Task75 63 31 127 
Task76 1 63 15 
Task77 1 63 7 
Task78 7 1 31 
Task79 15 31 63 
Task80 31 63 31 
Task81 31 31 15 
Task82 31 3 31 
Task83 63 7 63 
Task84 15 3 63 
Task85 7 3 63 
Task86 255 255 255 
Task87 15 63 31 
Task88 31 31 3 
Task89 7 7 63 
Task90 7 3 63 
Task91 63 15 31 
Task92 63 63 63 
Task93 7 63 7 
Task94 31 7 7 
Task95 3 15 63 
Task96 7 7 63 
Task97 1 63 7 
Task98 63 15 31 
Task99 31 31 63 
