files/tasks_parameters/ExAp01/sample8.txt 1.089 3.76817 4.3855 0.450105 11.5019
files/tasks_parameters/ExAp01/sample12.txt 1.49418 5.03638 5.18776 0.610564 15.6023
files/tasks_parameters/ExAp01/sample2.txt 1.42952 4.58991 5.64606 0.613877 15.6869
files/tasks_parameters/ExAp01/sample44.txt 1.27976 3.77401 5.66946 0.551838 14.1016
files/tasks_parameters/ExAp01/sample27.txt 1.30608 4.13937 5.56136 0.55779 14.2537
files/tasks_parameters/ExAp01/sample17.txt 1.20325 3.76163 5.38341 0.520991 13.3133
files/tasks_parameters/ExAp01/sample9.txt 1.21626 3.69889 5.2981 0.511699 13.0759
files/tasks_parameters/ExAp01/sample34.txt 1.13513 3.52435 5.83741 0.49187 12.5692
files/tasks_parameters/ExAp01/sample40.txt 1.1695 4.06185 5.0335 0.496884 12.6973
files/tasks_parameters/ExAp01/sample33.txt 1.59074 4.82091 5.83886 0.651963 16.6602
files/tasks_parameters/ExAp01/sample48.txt 1.12171 4.01134 5.07085 0.447927 11.4463
files/tasks_parameters/ExAp01/sample29.txt 1.53872 4.20847 5.0406 0.643694 16.4489
files/tasks_parameters/ExAp01/sample11.txt 1.31879 3.94699 5.29198 0.557276 14.2405
files/tasks_parameters/ExAp01/sample14.txt 1.08636 3.54059 4.58345 0.466713 11.9263
files/tasks_parameters/ExAp01/sample0.txt 1.58452 4.82755 4.90216 0.623551 15.9341
files/tasks_parameters/ExAp01/sample7.txt 1.15002 3.60766 5.11185 0.509566 13.0214
files/tasks_parameters/ExAp01/sample23.txt 1.39278 3.81403 5.45799 0.582911 14.8956
files/tasks_parameters/ExAp01/sample13.txt 1.4864 4.8894 5.26818 0.624499 15.9584
files/tasks_parameters/ExAp01/sample22.txt 1.29069 3.76156 4.95746 0.534216 13.6513
files/tasks_parameters/ExAp01/sample25.txt 0.969765 2.94144 4.92622 0.403639 10.3145
files/tasks_parameters/ExAp01/sample36.txt 1.25826 3.56164 4.5806 0.501799 12.8229
files/tasks_parameters/ExAp01/sample46.txt 1.2671 3.84833 4.7121 0.530701 13.5615
files/tasks_parameters/ExAp01/sample31.txt 1.09429 3.764 5.08385 0.479734 12.2591
files/tasks_parameters/ExAp01/sample37.txt 1.52335 4.43254 5.65111 0.65143 16.6466
files/tasks_parameters/ExAp01/sample16.txt 1.27104 4.49741 4.8895 0.509171 13.0113
files/tasks_parameters/ExAp01/sample10.txt 1.38978 3.87086 6.07511 0.60993 15.5861
files/tasks_parameters/ExAp01/sample39.txt 1.04986 3.66299 4.54281 0.463671 11.8486
files/tasks_parameters/ExAp01/sample19.txt 1.40818 3.86694 5.14047 0.615987 15.7409
files/tasks_parameters/ExAp01/sample20.txt 1.30941 4.09945 5.13368 0.580369 14.8307
files/tasks_parameters/ExAp01/sample43.txt 1.15194 3.75825 5.55698 0.530892 13.5663
files/tasks_parameters/ExAp01/sample32.txt 1.44449 4.0352 5.29178 0.587643 15.0166
files/tasks_parameters/ExAp01/sample45.txt 1.23205 3.94578 4.87833 0.541081 13.8267
files/tasks_parameters/ExAp01/sample26.txt 1.11243 3.50998 4.55035 0.474009 12.1128
files/tasks_parameters/ExAp01/sample5.txt 1.35529 4.00994 5.27725 0.587681 15.0175
files/tasks_parameters/ExAp01/sample21.txt 0.933921 2.8974 4.54677 0.430037 10.9891
files/tasks_parameters/ExAp01/sample38.txt 1.16959 3.56689 4.78573 0.492366 12.5819
files/tasks_parameters/ExAp01/sample1.txt 1.27816 3.69002 4.55048 0.481074 12.2933
files/tasks_parameters/ExAp01/sample15.txt 1.20629 3.73223 5.42493 0.524964 13.4149
files/tasks_parameters/ExAp01/sample24.txt 1.24672 4.18053 5.40377 0.542575 13.8649
files/tasks_parameters/ExAp01/sample3.txt 1.08376 3.70547 4.7118 0.470503 12.0232
files/tasks_parameters/ExAp01/sample6.txt 1.41981 4.07521 5.71419 0.626702 16.0147
files/tasks_parameters/ExAp01/sample30.txt 1.49305 3.97446 5.82388 0.626709 16.0148
files/tasks_parameters/ExAp01/sample42.txt 1.29681 4.44207 5.58473 0.537025 13.7231
files/tasks_parameters/ExAp01/sample4.txt 1.32314 3.92181 4.49751 0.556974 14.2328
files/tasks_parameters/ExAp01/sample28.txt 1.07189 3.13496 4.88321 0.444588 11.3609
files/tasks_parameters/ExAp01/sample18.txt 1.22803 3.95301 4.52898 0.537438 13.7336
files/tasks_parameters/ExAp01/sample35.txt 1.90869 5.75923 6.25034 0.752488 19.229
files/tasks_parameters/ExAp01/sample47.txt 1.16153 3.44018 5.14289 0.540033 13.7999
files/tasks_parameters/ExAp01/sample49.txt 1.23208 3.38981 4.72409 0.493041 12.5991
files/tasks_parameters/ExAp01/sample41.txt 1.10214 3.58692 5.27252 0.492391 12.5825
