files/tasks_parameters/ExAp01/sample8.txt 1.28575 6.77015 2.19458 0.288816 7.38037
files/tasks_parameters/ExAp01/sample12.txt 1.49836 9.58351 2.46081 0.337498 8.62439
files/tasks_parameters/ExAp01/sample2.txt 1.4208 8.44418 2.50701 0.319127 8.15493
files/tasks_parameters/ExAp01/sample44.txt 1.24703 6.96299 2.23089 0.28229 7.21361
files/tasks_parameters/ExAp01/sample27.txt 1.26157 7.74306 2.16676 0.28602 7.30891
files/tasks_parameters/ExAp01/sample17.txt 1.29855 7.35053 2.25579 0.292348 7.47061
files/tasks_parameters/ExAp01/sample9.txt 1.24747 6.89392 2.21068 0.282399 7.21638
files/tasks_parameters/ExAp01/sample34.txt 1.31818 6.62788 2.3772 0.297742 7.60845
files/tasks_parameters/ExAp01/sample40.txt 1.26286 7.75686 2.17534 0.285619 7.29867
files/tasks_parameters/ExAp01/sample33.txt 1.50355 8.14826 2.6463 0.338073 8.63907
files/tasks_parameters/ExAp01/sample48.txt 1.19821 7.64107 2.14272 0.270011 6.89983
files/tasks_parameters/ExAp01/sample29.txt 1.2533 7.139 1.93769 0.286306 7.31622
files/tasks_parameters/ExAp01/sample11.txt 1.24382 6.88688 2.12981 0.280008 7.1553
files/tasks_parameters/ExAp01/sample14.txt 1.11616 6.11983 1.97599 0.247458 6.3235
files/tasks_parameters/ExAp01/sample0.txt 1.29958 8.2738 2.14256 0.289132 7.38843
files/tasks_parameters/ExAp01/sample7.txt 1.2009 6.87011 2.05821 0.269886 6.89662
files/tasks_parameters/ExAp01/sample23.txt 1.30164 6.52032 2.38087 0.291712 7.45436
files/tasks_parameters/ExAp01/sample13.txt 1.29494 8.73247 2.33415 0.295393 7.54842
files/tasks_parameters/ExAp01/sample22.txt 1.25472 6.9777 2.28948 0.283979 7.25676
files/tasks_parameters/ExAp01/sample25.txt 1.18474 6.23444 2.2122 0.267298 6.83049
files/tasks_parameters/ExAp01/sample36.txt 1.12094 6.6174 1.9458 0.253823 6.48615
files/tasks_parameters/ExAp01/sample46.txt 1.4546 7.42369 2.49128 0.327273 8.36308
files/tasks_parameters/ExAp01/sample31.txt 1.13086 7.22028 2.13584 0.25377 6.4848
files/tasks_parameters/ExAp01/sample37.txt 1.38968 8.90704 2.16981 0.295708 7.55648
files/tasks_parameters/ExAp01/sample16.txt 1.15693 8.18243 1.88294 0.24945 6.3744
files/tasks_parameters/ExAp01/sample10.txt 1.26822 6.96646 2.31217 0.285748 7.30196
files/tasks_parameters/ExAp01/sample39.txt 1.10854 6.4161 1.97266 0.251967 6.43872
files/tasks_parameters/ExAp01/sample19.txt 1.36112 8.16711 2.23199 0.308463 7.88241
files/tasks_parameters/ExAp01/sample20.txt 1.16101 7.28549 1.88944 0.25994 6.64247
files/tasks_parameters/ExAp01/sample43.txt 1.13304 6.86804 2.00142 0.25616 6.54588
files/tasks_parameters/ExAp01/sample32.txt 1.25094 8.15663 2.12995 0.281726 7.1992
files/tasks_parameters/ExAp01/sample45.txt 1.23945 7.75184 2.10599 0.274935 7.02565
files/tasks_parameters/ExAp01/sample26.txt 1.186 7.4944 1.88956 0.267248 6.82922
files/tasks_parameters/ExAp01/sample5.txt 1.25553 8.08362 2.09961 0.28454 7.2711
files/tasks_parameters/ExAp01/sample21.txt 1.17018 6.11814 2.17119 0.26143 6.68054
files/tasks_parameters/ExAp01/sample38.txt 1.17251 7.761 1.96293 0.263659 6.7375
files/tasks_parameters/ExAp01/sample1.txt 1.29153 7.83752 2.13261 0.289228 7.39089
files/tasks_parameters/ExAp01/sample15.txt 1.30326 7.37971 2.12057 0.285825 7.30394
files/tasks_parameters/ExAp01/sample24.txt 1.30267 8.28531 2.25272 0.296628 7.58
files/tasks_parameters/ExAp01/sample3.txt 1.34627 7.33359 2.39135 0.305084 7.79609
files/tasks_parameters/ExAp01/sample6.txt 1.23539 7.09894 2.24425 0.281804 7.20119
files/tasks_parameters/ExAp01/sample30.txt 1.37442 8.17669 2.03701 0.299204 7.64582
files/tasks_parameters/ExAp01/sample42.txt 1.32497 7.70416 2.42413 0.29743 7.60048
files/tasks_parameters/ExAp01/sample4.txt 1.36823 7.41691 2.36261 0.307803 7.86555
files/tasks_parameters/ExAp01/sample28.txt 1.17223 7.0562 2.07657 0.266428 6.80826
files/tasks_parameters/ExAp01/sample18.txt 1.22897 7.60139 2.1377 0.268016 6.84884
files/tasks_parameters/ExAp01/sample35.txt 1.45573 9.66795 2.28028 0.32244 8.23958
files/tasks_parameters/ExAp01/sample47.txt 1.12215 6.84842 2.12104 0.251655 6.43075
files/tasks_parameters/ExAp01/sample49.txt 1.12952 7.1497 2.11412 0.255889 6.53895
files/tasks_parameters/ExAp01/sample41.txt 1.17261 6.59911 2.07359 0.265885 6.7944
