files/tasks_parameters/ExAp01/sample8.txt 1.11169 7.2562 4.46819 0.454772 12.2549
files/tasks_parameters/ExAp01/sample12.txt 1.62899 9.70908 5.28286 0.618515 16.6673
files/tasks_parameters/ExAp01/sample2.txt 1.45393 8.14159 5.7401 0.620531 16.7217
files/tasks_parameters/ExAp01/sample44.txt 1.37778 7.25164 5.75904 0.557631 15.0267
files/tasks_parameters/ExAp01/sample27.txt 1.3183 8.10944 5.64946 0.564878 15.222
files/tasks_parameters/ExAp01/sample17.txt 1.25146 7.11225 5.46658 0.527183 14.2062
files/tasks_parameters/ExAp01/sample9.txt 1.19643 7.62559 5.37813 0.517277 13.9392
files/tasks_parameters/ExAp01/sample34.txt 1.23761 7.04587 5.93037 0.497709 13.4119
files/tasks_parameters/ExAp01/sample40.txt 1.201 8.03037 5.123 0.502383 13.5379
files/tasks_parameters/ExAp01/sample33.txt 1.61561 9.22935 5.92956 0.659262 17.7653
files/tasks_parameters/ExAp01/sample48.txt 1.15873 8.12182 5.1577 0.452491 12.1934
files/tasks_parameters/ExAp01/sample29.txt 1.52736 8.06133 5.12331 0.650652 17.5333
files/tasks_parameters/ExAp01/sample11.txt 1.35889 7.63104 5.37897 0.563302 15.1795
files/tasks_parameters/ExAp01/sample14.txt 1.13168 6.66403 4.66322 0.471536 12.7066
files/tasks_parameters/ExAp01/sample0.txt 1.61847 9.3266 4.98971 0.6311 17.0065
files/tasks_parameters/ExAp01/sample7.txt 1.22995 7.34863 5.19436 0.515527 13.8921
files/tasks_parameters/ExAp01/sample23.txt 1.40203 6.68564 5.54308 0.588617 15.8617
files/tasks_parameters/ExAp01/sample13.txt 1.60627 9.31093 5.35591 0.632849 17.0536
files/tasks_parameters/ExAp01/sample22.txt 1.28633 7.65588 5.04866 0.540336 14.5606
files/tasks_parameters/ExAp01/sample25.txt 1.0295 6.17035 5.0141 0.408296 11.0025
files/tasks_parameters/ExAp01/sample36.txt 1.18548 7.03772 4.66274 0.507647 13.6797
files/tasks_parameters/ExAp01/sample46.txt 1.3517 7.73433 4.79934 0.536843 14.4665
files/tasks_parameters/ExAp01/sample31.txt 1.16998 6.96928 5.16482 0.485817 13.0915
files/tasks_parameters/ExAp01/sample37.txt 1.59369 9.52443 5.74224 0.65799 17.7311
files/tasks_parameters/ExAp01/sample16.txt 1.34501 8.63521 4.97261 0.516328 13.9136
files/tasks_parameters/ExAp01/sample10.txt 1.39877 7.28353 6.16876 0.615651 16.5901
files/tasks_parameters/ExAp01/sample39.txt 1.14417 6.3405 4.6137 0.468873 12.6349
files/tasks_parameters/ExAp01/sample19.txt 1.42117 8.85528 5.22306 0.622152 16.7653
files/tasks_parameters/ExAp01/sample20.txt 1.39217 8.1141 5.21177 0.586994 15.8179
files/tasks_parameters/ExAp01/sample43.txt 1.30771 7.21373 5.6367 0.53748 14.4836
files/tasks_parameters/ExAp01/sample32.txt 1.46561 8.30592 5.38137 0.593918 16.0045
files/tasks_parameters/ExAp01/sample45.txt 1.29578 7.94069 4.96323 0.547271 14.7475
files/tasks_parameters/ExAp01/sample26.txt 1.12403 7.57061 4.62637 0.480146 12.9386
files/tasks_parameters/ExAp01/sample5.txt 1.38077 8.0307 5.35681 0.59407 16.0086
files/tasks_parameters/ExAp01/sample21.txt 1.02755 5.87802 4.61744 0.434264 11.7023
files/tasks_parameters/ExAp01/sample38.txt 1.18321 7.66999 4.86632 0.496808 13.3877
files/tasks_parameters/ExAp01/sample1.txt 1.16295 7.21312 4.63213 0.486293 13.1043
files/tasks_parameters/ExAp01/sample15.txt 1.28125 8.02273 5.50855 0.531063 14.3107
files/tasks_parameters/ExAp01/sample24.txt 1.32473 8.66348 5.4905 0.548998 14.794
files/tasks_parameters/ExAp01/sample3.txt 1.20664 7.74268 4.79918 0.477387 12.8643
files/tasks_parameters/ExAp01/sample6.txt 1.51709 8.57133 5.80157 0.633604 17.0739
files/tasks_parameters/ExAp01/sample30.txt 1.58117 8.18878 5.90888 0.633576 17.0732
files/tasks_parameters/ExAp01/sample42.txt 1.30506 8.57689 5.67253 0.54426 14.6663
files/tasks_parameters/ExAp01/sample4.txt 1.29715 8.40354 4.57985 0.563519 15.1853
files/tasks_parameters/ExAp01/sample28.txt 1.05736 6.44114 4.96426 0.449721 12.1188
files/tasks_parameters/ExAp01/sample18.txt 1.36715 8.56363 4.60946 0.543766 14.6531
files/tasks_parameters/ExAp01/sample35.txt 1.93853 11.0387 6.34514 0.761377 20.5171
files/tasks_parameters/ExAp01/sample47.txt 1.32345 7.14493 5.22131 0.545046 14.6875
files/tasks_parameters/ExAp01/sample49.txt 1.29618 6.65996 4.80244 0.498533 13.4341
files/tasks_parameters/ExAp01/sample41.txt 1.18983 7.09069 5.35462 0.497129 13.3963
