files/tasks_parameters/ExAp01/sample8.txt 1.17461 7.2562 4.46819 0.454772 43.9366
files/tasks_parameters/ExAp01/sample12.txt 1.75895 9.70908 5.28286 0.618515 59.7562
files/tasks_parameters/ExAp01/sample2.txt 1.58035 8.14159 5.7401 0.620531 59.951
files/tasks_parameters/ExAp01/sample44.txt 1.44584 7.25164 5.75904 0.557631 53.874
files/tasks_parameters/ExAp01/sample27.txt 1.43134 8.10944 5.64946 0.564878 54.5742
files/tasks_parameters/ExAp01/sample17.txt 1.30551 7.11225 5.46658 0.527183 50.9324
files/tasks_parameters/ExAp01/sample9.txt 1.23078 7.62559 5.37813 0.517277 49.9753
files/tasks_parameters/ExAp01/sample34.txt 1.29511 7.04587 5.93037 0.497709 48.0849
files/tasks_parameters/ExAp01/sample40.txt 1.27388 8.03037 5.123 0.502383 48.5364
files/tasks_parameters/ExAp01/sample33.txt 1.6913 9.22935 5.92956 0.659262 63.6929
files/tasks_parameters/ExAp01/sample48.txt 1.34877 8.12182 5.1577 0.452491 43.7162
files/tasks_parameters/ExAp01/sample29.txt 1.64387 8.06133 5.12331 0.650652 62.861
files/tasks_parameters/ExAp01/sample11.txt 1.40945 7.63104 5.37897 0.563302 54.4219
files/tasks_parameters/ExAp01/sample14.txt 1.17213 6.66403 4.66322 0.471536 45.5562
files/tasks_parameters/ExAp01/sample0.txt 1.6739 9.3266 4.98971 0.6311 60.972
files/tasks_parameters/ExAp01/sample7.txt 1.3862 7.34863 5.19436 0.515527 49.8063
files/tasks_parameters/ExAp01/sample23.txt 1.42594 6.68564 5.54308 0.588617 56.8677
files/tasks_parameters/ExAp01/sample13.txt 1.65636 9.31093 5.35591 0.632849 61.141
files/tasks_parameters/ExAp01/sample22.txt 1.47379 7.65588 5.04866 0.540336 52.2031
files/tasks_parameters/ExAp01/sample25.txt 1.11933 6.17035 5.0141 0.408296 39.4464
files/tasks_parameters/ExAp01/sample36.txt 1.2949 7.03772 4.66274 0.507647 49.045
files/tasks_parameters/ExAp01/sample46.txt 1.39087 7.73433 4.79934 0.536843 51.8657
files/tasks_parameters/ExAp01/sample31.txt 1.28387 6.96928 5.16482 0.485817 46.936
files/tasks_parameters/ExAp01/sample37.txt 1.64162 9.52443 5.74224 0.65799 63.5699
files/tasks_parameters/ExAp01/sample16.txt 1.44227 8.63521 4.97261 0.516328 49.8836
files/tasks_parameters/ExAp01/sample10.txt 1.53986 7.28353 6.16876 0.615651 59.4795
files/tasks_parameters/ExAp01/sample39.txt 1.16132 6.3405 4.6137 0.468873 45.2989
files/tasks_parameters/ExAp01/sample19.txt 1.66126 8.85528 5.22306 0.622152 60.1076
files/tasks_parameters/ExAp01/sample20.txt 1.4661 8.1141 5.21177 0.586994 56.7108
files/tasks_parameters/ExAp01/sample43.txt 1.38829 7.21373 5.6367 0.53748 51.9272
files/tasks_parameters/ExAp01/sample32.txt 1.62284 8.30592 5.38137 0.593918 57.3798
files/tasks_parameters/ExAp01/sample45.txt 1.55382 7.94069 4.96323 0.547271 52.8731
files/tasks_parameters/ExAp01/sample26.txt 1.24347 7.57061 4.62637 0.480146 46.388
files/tasks_parameters/ExAp01/sample5.txt 1.48521 8.0307 5.35681 0.59407 57.3945
files/tasks_parameters/ExAp01/sample21.txt 1.18755 5.87802 4.61744 0.434264 41.9553
files/tasks_parameters/ExAp01/sample38.txt 1.24202 7.66999 4.86632 0.496808 47.9978
files/tasks_parameters/ExAp01/sample1.txt 1.29393 7.21312 4.63213 0.486293 46.9819
files/tasks_parameters/ExAp01/sample15.txt 1.31098 8.02273 5.50855 0.531063 51.3072
files/tasks_parameters/ExAp01/sample24.txt 1.37995 8.66348 5.4905 0.548998 53.04
files/tasks_parameters/ExAp01/sample3.txt 1.23092 7.74268 4.79918 0.477387 46.1215
files/tasks_parameters/ExAp01/sample6.txt 1.64751 8.57133 5.80157 0.633604 61.214
files/tasks_parameters/ExAp01/sample30.txt 1.80869 8.18878 5.90888 0.633576 61.2113
files/tasks_parameters/ExAp01/sample42.txt 1.44085 8.57689 5.67253 0.54426 52.5822
files/tasks_parameters/ExAp01/sample4.txt 1.40631 8.40354 4.57985 0.563519 54.4429
files/tasks_parameters/ExAp01/sample28.txt 1.12073 6.44114 4.96426 0.449721 43.4486
files/tasks_parameters/ExAp01/sample18.txt 1.3196 8.56363 4.60946 0.543766 52.5346
files/tasks_parameters/ExAp01/sample35.txt 2.04074 11.0387 6.34514 0.761377 73.5584
files/tasks_parameters/ExAp01/sample47.txt 1.37147 7.14493 5.22131 0.545046 52.6581
files/tasks_parameters/ExAp01/sample49.txt 1.32596 6.65996 4.80244 0.498533 48.1645
files/tasks_parameters/ExAp01/sample41.txt 1.24945 7.09069 5.35462 0.497129 48.0288
