0.4792461
Task0 255 63 31 
Task1 255 127 15 
Task2 255 1 255 
Task3 255 255 255 
Task4 255 1 31 
Task5 63 63 255 
Task6 7 15 255 
Task7 7 15 255 
Task8 63 63 255 
Task9 31 255 255 
Task10 7 7 255 
Task11 255 63 127 
Task12 127 255 255 
Task13 255 31 31 
Task14 31 15 255 
Task15 31 31 255 
Task16 255 127 63 
Task17 63 3 255 
Task18 31 7 255 
Task19 31 255 63 
Task20 255 63 255 
Task21 255 255 1 
Task22 127 255 127 
Task23 255 127 255 
Task24 255 255 127 
Task25 255 63 15 
Task26 127 63 255 
Task27 31 255 127 
Task28 15 127 255 
Task29 255 255 31 
Task30 255 255 255 
Task31 127 255 255 
Task32 15 1 255 
Task33 255 127 15 
Task34 255 31 255 
Task35 63 255 3 
Task36 255 15 31 
Task37 1 255 1 
Task38 15 255 31 
Task39 255 15 7 
Task40 255 7 31 
Task41 255 255 127 
Task42 255 63 7 
Task43 63 255 255 
Task44 31 63 255 
Task45 255 7 15 
Task46 255 255 15 
Task47 127 255 3 
Task48 255 255 127 
Task49 255 127 15 
Task50 255 15 63 
Task51 255 7 1 
Task52 255 63 31 
Task53 255 1 15 
Task54 255 63 31 
Task55 63 255 63 
Task56 127 63 255 
Task57 127 255 31 
Task58 31 1 255 
Task59 15 255 1 
Task60 255 127 15 
Task61 255 63 31 
Task62 7 255 1 
Task63 31 255 31 
Task64 255 15 255 
Task65 255 31 15 
Task66 31 255 1 
Task67 31 3 255 
Task68 127 255 31 
Task69 3 255 15 
Task70 31 3 255 
Task71 63 127 255 
Task72 7 63 255 
Task73 15 255 127 
Task74 31 31 255 
Task75 255 31 255 
Task76 63 127 255 
Task77 63 255 63 
Task78 63 255 255 
Task79 31 255 127 
Task80 31 255 255 
Task81 63 127 255 
Task82 255 15 7 
Task83 255 127 15 
Task84 255 31 7 
Task85 255 255 127 
Task86 31 127 255 
Task87 255 31 31 
Task88 255 3 255 
Task89 255 63 31 
Task90 127 3 255 
Task91 63 63 255 
Task92 255 127 127 
Task93 255 15 127 
Task94 255 127 255 
Task95 63 255 127 
Task96 127 127 255 
Task97 127 255 255 
Task98 255 31 255 
Task99 255 7 255 
