files/tasks_parameters/ExAp01/sample8.txt 1.15676 6.77015 2.19458 0.288816 10.6653
files/tasks_parameters/ExAp01/sample12.txt 1.22719 9.58351 2.46081 0.337498 12.4631
files/tasks_parameters/ExAp01/sample2.txt 1.1833 8.44418 2.50701 0.319127 11.7847
files/tasks_parameters/ExAp01/sample44.txt 1.1157 6.96299 2.23089 0.28229 10.4243
files/tasks_parameters/ExAp01/sample27.txt 1.13621 7.74306 2.16676 0.28602 10.5621
files/tasks_parameters/ExAp01/sample17.txt 1.05748 7.35053 2.25579 0.292348 10.7957
files/tasks_parameters/ExAp01/sample9.txt 1.07812 6.89392 2.21068 0.282399 10.4284
files/tasks_parameters/ExAp01/sample34.txt 1.05976 6.62788 2.3772 0.297742 10.9949
files/tasks_parameters/ExAp01/sample40.txt 1.08668 7.75686 2.17534 0.285619 10.5473
files/tasks_parameters/ExAp01/sample33.txt 1.2232 8.14826 2.6463 0.338073 12.4843
files/tasks_parameters/ExAp01/sample48.txt 1.02283 7.64107 2.14272 0.270011 9.97091
files/tasks_parameters/ExAp01/sample29.txt 1.00429 7.139 1.93769 0.286306 10.5726
files/tasks_parameters/ExAp01/sample11.txt 1.13113 6.88688 2.12981 0.280008 10.3401
files/tasks_parameters/ExAp01/sample14.txt 1.01462 6.11983 1.97599 0.247458 9.13805
files/tasks_parameters/ExAp01/sample0.txt 1.07748 8.2738 2.14256 0.289132 10.677
files/tasks_parameters/ExAp01/sample7.txt 0.981354 6.87011 2.05821 0.269886 9.96627
files/tasks_parameters/ExAp01/sample23.txt 1.05183 6.52032 2.38087 0.291712 10.7723
files/tasks_parameters/ExAp01/sample13.txt 1.16678 8.73247 2.33415 0.295393 10.9082
files/tasks_parameters/ExAp01/sample22.txt 1.04802 6.9777 2.28948 0.283979 10.4867
files/tasks_parameters/ExAp01/sample25.txt 0.974633 6.23444 2.2122 0.267298 9.8707
files/tasks_parameters/ExAp01/sample36.txt 0.983325 6.6174 1.9458 0.253823 9.3731
files/tasks_parameters/ExAp01/sample46.txt 1.28644 7.42369 2.49128 0.327273 12.0855
files/tasks_parameters/ExAp01/sample31.txt 0.914616 7.22028 2.13584 0.25377 9.37115
files/tasks_parameters/ExAp01/sample37.txt 1.18455 8.90704 2.16981 0.295708 10.9198
files/tasks_parameters/ExAp01/sample16.txt 1.00311 8.18243 1.88294 0.24945 9.21162
files/tasks_parameters/ExAp01/sample10.txt 1.10125 6.96646 2.31217 0.285748 10.552
files/tasks_parameters/ExAp01/sample39.txt 1.01804 6.4161 1.97266 0.251967 9.30457
files/tasks_parameters/ExAp01/sample19.txt 1.21774 8.16711 2.23199 0.308463 11.3908
files/tasks_parameters/ExAp01/sample20.txt 0.895422 7.28549 1.88944 0.25994 9.599
files/tasks_parameters/ExAp01/sample43.txt 0.963001 6.86804 2.00142 0.25616 9.45942
files/tasks_parameters/ExAp01/sample32.txt 1.01433 8.15663 2.12995 0.281726 10.4035
files/tasks_parameters/ExAp01/sample45.txt 1.0346 7.75184 2.10599 0.274935 10.1527
files/tasks_parameters/ExAp01/sample26.txt 1.02951 7.4944 1.88956 0.267248 9.86887
files/tasks_parameters/ExAp01/sample5.txt 1.13561 8.08362 2.09961 0.28454 10.5074
files/tasks_parameters/ExAp01/sample21.txt 1.05663 6.11814 2.17119 0.26143 9.65401
files/tasks_parameters/ExAp01/sample38.txt 1.00981 7.761 1.96293 0.263659 9.73633
files/tasks_parameters/ExAp01/sample1.txt 1.10613 7.83752 2.13261 0.289228 10.6805
files/tasks_parameters/ExAp01/sample15.txt 1.05211 7.37971 2.12057 0.285825 10.5549
files/tasks_parameters/ExAp01/sample24.txt 1.05295 8.28531 2.25272 0.296628 10.9538
files/tasks_parameters/ExAp01/sample3.txt 1.20504 7.33359 2.39135 0.305084 11.2661
files/tasks_parameters/ExAp01/sample6.txt 1.03997 7.09894 2.24425 0.281804 10.4064
files/tasks_parameters/ExAp01/sample30.txt 1.17745 8.17669 2.03701 0.299204 11.0489
files/tasks_parameters/ExAp01/sample42.txt 1.1334 7.70416 2.42413 0.29743 10.9834
files/tasks_parameters/ExAp01/sample4.txt 1.19644 7.41691 2.36261 0.307803 11.3665
files/tasks_parameters/ExAp01/sample28.txt 1.04595 7.0562 2.07657 0.266428 9.83859
files/tasks_parameters/ExAp01/sample18.txt 1.04066 7.60139 2.1377 0.268016 9.89723
files/tasks_parameters/ExAp01/sample35.txt 1.18732 9.66795 2.28028 0.32244 11.907
files/tasks_parameters/ExAp01/sample47.txt 0.920141 6.84842 2.12104 0.251655 9.29304
files/tasks_parameters/ExAp01/sample49.txt 1.0182 7.1497 2.11412 0.255889 9.44941
files/tasks_parameters/ExAp01/sample41.txt 1.00129 6.59911 2.07359 0.265885 9.81855
