0.26008451
Task0 3 15 7 
Task1 7 7 15 
Task2 15 15 15 
Task3 31 1 7 
Task4 31 15 3 
Task5 3 15 3 
Task6 7 1 15 
Task7 15 3 1 
Task8 15 7 7 
Task9 7 1 15 
Task10 31 15 15 
Task11 31 31 7 
Task12 7 15 15 
Task13 15 1 31 
Task14 15 31 3 
Task15 7 7 7 
Task16 31 15 31 
Task17 31 15 7 
Task18 15 3 7 
Task19 3 7 15 
Task20 1 31 31 
Task21 15 15 1 
Task22 3 15 15 
Task23 15 15 3 
Task24 7 31 31 
Task25 7 1 7 
Task26 7 31 1 
Task27 7 3 7 
Task28 1 1 31 
Task29 31 7 1 
Task30 63 3 3 
Task31 15 15 15 
Task32 15 31 15 
Task33 3 7 15 
Task34 7 1 31 
Task35 7 15 15 
Task36 31 7 1 
Task37 15 3 15 
Task38 3 1 15 
Task39 7 15 3 
Task40 7 15 31 
Task41 63 15 3 
Task42 31 7 3 
Task43 15 7 15 
Task44 31 7 1 
Task45 3 3 15 
Task46 1 15 7 
Task47 15 1 1 
Task48 15 15 15 
Task49 1 7 3 
Task50 31 7 3 
Task51 15 7 15 
Task52 7 15 7 
Task53 1 31 3 
Task54 63 7 1 
Task55 7 1 15 
Task56 15 7 7 
Task57 15 15 1 
Task58 7 1 3 
Task59 15 31 31 
Task60 31 15 7 
Task61 7 15 15 
Task62 31 1 3 
Task63 15 31 3 
Task64 7 15 31 
Task65 15 15 15 
Task66 15 7 15 
Task67 15 31 7 
Task68 31 3 31 
Task69 7 31 3 
Task70 31 15 1 
Task71 31 15 15 
Task72 7 63 63 
Task73 3 15 1 
Task74 15 7 31 
Task75 7 3 15 
Task76 15 7 15 
Task77 15 15 63 
Task78 7 7 7 
Task79 3 7 15 
Task80 1 31 15 
Task81 63 31 31 
Task82 15 7 1 
Task83 1 31 31 
Task84 7 1 31 
Task85 1 15 7 
Task86 1 3 7 
Task87 15 15 3 
Task88 7 15 1 
Task89 1 7 3 
Task90 1 3 15 
Task91 1 31 31 
Task92 3 15 1 
Task93 31 31 7 
Task94 15 7 1 
Task95 15 15 7 
Task96 1 15 3 
Task97 31 31 31 
Task98 7 15 7 
Task99 31 15 15 
