files/tasks_parameters/ExAp01/sample8.txt 1.07163 7.2562 4.46819 0.454772 7.69597
files/tasks_parameters/ExAp01/sample12.txt 1.47613 9.70908 5.28286 0.618515 10.4669
files/tasks_parameters/ExAp01/sample2.txt 1.42119 8.14159 5.7401 0.620531 10.5011
files/tasks_parameters/ExAp01/sample44.txt 1.31004 7.25164 5.75904 0.557631 9.43661
files/tasks_parameters/ExAp01/sample27.txt 1.32657 8.10944 5.64946 0.564878 9.55927
files/tasks_parameters/ExAp01/sample17.txt 1.24082 7.11225 5.46658 0.527183 8.92137
files/tasks_parameters/ExAp01/sample9.txt 1.19424 7.62559 5.37813 0.517277 8.75372
files/tasks_parameters/ExAp01/sample34.txt 1.24387 7.04587 5.93037 0.497709 8.42258
files/tasks_parameters/ExAp01/sample40.txt 1.17478 8.03037 5.123 0.502383 8.50167
files/tasks_parameters/ExAp01/sample33.txt 1.49397 9.22935 5.92956 0.659262 11.1565
files/tasks_parameters/ExAp01/sample48.txt 1.08806 8.12182 5.1577 0.452491 7.65736
files/tasks_parameters/ExAp01/sample29.txt 1.45821 8.06133 5.12331 0.650652 11.0108
files/tasks_parameters/ExAp01/sample11.txt 1.29989 7.63104 5.37897 0.563302 9.53259
files/tasks_parameters/ExAp01/sample14.txt 1.12628 6.66403 4.66322 0.471536 7.97966
files/tasks_parameters/ExAp01/sample0.txt 1.45127 9.3266 4.98971 0.6311 10.6799
files/tasks_parameters/ExAp01/sample7.txt 1.19864 7.34863 5.19436 0.515527 8.72411
files/tasks_parameters/ExAp01/sample23.txt 1.36407 6.68564 5.54308 0.588617 9.96099
files/tasks_parameters/ExAp01/sample13.txt 1.46462 9.31093 5.35591 0.632849 10.7095
files/tasks_parameters/ExAp01/sample22.txt 1.25842 7.65588 5.04866 0.540336 9.14394
files/tasks_parameters/ExAp01/sample25.txt 1.01203 6.17035 5.0141 0.408296 6.90947
files/tasks_parameters/ExAp01/sample36.txt 1.19687 7.03772 4.66274 0.507647 8.59076
files/tasks_parameters/ExAp01/sample46.txt 1.2529 7.73433 4.79934 0.536843 9.08484
files/tasks_parameters/ExAp01/sample31.txt 1.17902 6.96928 5.16482 0.485817 8.22134
files/tasks_parameters/ExAp01/sample37.txt 1.50124 9.52443 5.74224 0.65799 11.135
files/tasks_parameters/ExAp01/sample16.txt 1.30109 8.63521 4.97261 0.516328 8.73766
files/tasks_parameters/ExAp01/sample10.txt 1.41509 7.28353 6.16876 0.615651 10.4185
files/tasks_parameters/ExAp01/sample39.txt 1.11609 6.3405 4.6137 0.468873 7.9346
files/tasks_parameters/ExAp01/sample19.txt 1.39996 8.85528 5.22306 0.622152 10.5285
files/tasks_parameters/ExAp01/sample20.txt 1.3359 8.1141 5.21177 0.586994 9.93352
files/tasks_parameters/ExAp01/sample43.txt 1.25268 7.21373 5.6367 0.53748 9.09561
files/tasks_parameters/ExAp01/sample32.txt 1.36894 8.30592 5.38137 0.593918 10.0507
files/tasks_parameters/ExAp01/sample45.txt 1.24194 7.94069 4.96323 0.547271 9.2613
files/tasks_parameters/ExAp01/sample26.txt 1.11739 7.57061 4.62637 0.480146 8.12536
files/tasks_parameters/ExAp01/sample5.txt 1.351 8.0307 5.35681 0.59407 10.0533
files/tasks_parameters/ExAp01/sample21.txt 1.04441 5.87802 4.61744 0.434264 7.34892
files/tasks_parameters/ExAp01/sample38.txt 1.13651 7.66999 4.86632 0.496808 8.40734
files/tasks_parameters/ExAp01/sample1.txt 1.1269 7.21312 4.63213 0.486293 8.2294
files/tasks_parameters/ExAp01/sample15.txt 1.25447 8.02273 5.50855 0.531063 8.98701
files/tasks_parameters/ExAp01/sample24.txt 1.28903 8.66348 5.4905 0.548998 9.29053
files/tasks_parameters/ExAp01/sample3.txt 1.13645 7.74268 4.79918 0.477387 8.07867
files/tasks_parameters/ExAp01/sample6.txt 1.43544 8.57133 5.80157 0.633604 10.7223
files/tasks_parameters/ExAp01/sample30.txt 1.51048 8.18878 5.90888 0.633576 10.7218
files/tasks_parameters/ExAp01/sample42.txt 1.337 8.57689 5.67253 0.54426 9.21034
files/tasks_parameters/ExAp01/sample4.txt 1.28625 8.40354 4.57985 0.563519 9.53627
files/tasks_parameters/ExAp01/sample28.txt 1.04054 6.44114 4.96426 0.449721 7.6105
files/tasks_parameters/ExAp01/sample18.txt 1.27414 8.56363 4.60946 0.543766 9.202
files/tasks_parameters/ExAp01/sample35.txt 1.77651 11.0387 6.34514 0.761377 12.8846
files/tasks_parameters/ExAp01/sample47.txt 1.23169 7.14493 5.22131 0.545046 9.22364
files/tasks_parameters/ExAp01/sample49.txt 1.27555 6.65996 4.80244 0.498533 8.43653
files/tasks_parameters/ExAp01/sample41.txt 1.14834 7.09069 5.35462 0.497129 8.41276
