files/tasks_parameters/ExAp01/sample8.txt 1.11811 7.2562 4.46819 0.454772 9.54384
files/tasks_parameters/ExAp01/sample12.txt 1.62948 9.70908 5.28286 0.618515 12.9801
files/tasks_parameters/ExAp01/sample2.txt 1.52681 8.14159 5.7401 0.620531 13.0225
files/tasks_parameters/ExAp01/sample44.txt 1.3984 7.25164 5.75904 0.557631 11.7024
files/tasks_parameters/ExAp01/sample27.txt 1.3183 8.10944 5.64946 0.564878 11.8545
files/tasks_parameters/ExAp01/sample17.txt 1.27015 7.11225 5.46658 0.527183 11.0635
files/tasks_parameters/ExAp01/sample9.txt 1.21481 7.62559 5.37813 0.517277 10.8556
files/tasks_parameters/ExAp01/sample34.txt 1.2448 7.04587 5.93037 0.497709 10.4449
files/tasks_parameters/ExAp01/sample40.txt 1.22744 8.03037 5.123 0.502383 10.543
files/tasks_parameters/ExAp01/sample33.txt 1.63735 9.22935 5.92956 0.659262 13.8353
files/tasks_parameters/ExAp01/sample48.txt 1.15854 8.12182 5.1577 0.452491 9.49596
files/tasks_parameters/ExAp01/sample29.txt 1.55649 8.06133 5.12331 0.650652 13.6546
files/tasks_parameters/ExAp01/sample11.txt 1.35889 7.63104 5.37897 0.563302 11.8214
files/tasks_parameters/ExAp01/sample14.txt 1.13168 6.66403 4.66322 0.471536 9.89565
files/tasks_parameters/ExAp01/sample0.txt 1.64656 9.3266 4.98971 0.6311 13.2442
files/tasks_parameters/ExAp01/sample7.txt 1.30151 7.34863 5.19436 0.515527 10.8188
files/tasks_parameters/ExAp01/sample23.txt 1.40584 6.68564 5.54308 0.588617 12.3527
files/tasks_parameters/ExAp01/sample13.txt 1.63992 9.31093 5.35591 0.632849 13.281
files/tasks_parameters/ExAp01/sample22.txt 1.29523 7.65588 5.04866 0.540336 11.3395
files/tasks_parameters/ExAp01/sample25.txt 1.0295 6.17035 5.0141 0.408296 8.56849
files/tasks_parameters/ExAp01/sample36.txt 1.19007 7.03772 4.66274 0.507647 10.6535
files/tasks_parameters/ExAp01/sample46.txt 1.35236 7.73433 4.79934 0.536843 11.2662
files/tasks_parameters/ExAp01/sample31.txt 1.19045 6.96928 5.16482 0.485817 10.1954
files/tasks_parameters/ExAp01/sample37.txt 1.63332 9.52443 5.74224 0.65799 13.8086
files/tasks_parameters/ExAp01/sample16.txt 1.43984 8.63521 4.97261 0.516328 10.8356
files/tasks_parameters/ExAp01/sample10.txt 1.39877 7.28353 6.16876 0.615651 12.92
files/tasks_parameters/ExAp01/sample39.txt 1.14417 6.3405 4.6137 0.468873 9.83976
files/tasks_parameters/ExAp01/sample19.txt 1.6316 8.85528 5.22306 0.622152 13.0565
files/tasks_parameters/ExAp01/sample20.txt 1.39434 8.1141 5.21177 0.586994 12.3186
files/tasks_parameters/ExAp01/sample43.txt 1.30697 7.21373 5.6367 0.53748 11.2795
files/tasks_parameters/ExAp01/sample32.txt 1.60397 8.30592 5.38137 0.593918 12.464
files/tasks_parameters/ExAp01/sample45.txt 1.42269 7.94069 4.96323 0.547271 11.485
files/tasks_parameters/ExAp01/sample26.txt 1.12736 7.57061 4.62637 0.480146 10.0763
files/tasks_parameters/ExAp01/sample5.txt 1.49482 8.0307 5.35681 0.59407 12.4671
files/tasks_parameters/ExAp01/sample21.txt 1.02755 5.87802 4.61744 0.434264 9.11346
files/tasks_parameters/ExAp01/sample38.txt 1.18513 7.66999 4.86632 0.496808 10.426
files/tasks_parameters/ExAp01/sample1.txt 1.18451 7.21312 4.63213 0.486293 10.2053
files/tasks_parameters/ExAp01/sample15.txt 1.28125 8.02273 5.50855 0.531063 11.1449
files/tasks_parameters/ExAp01/sample24.txt 1.3886 8.66348 5.4905 0.548998 11.5213
files/tasks_parameters/ExAp01/sample3.txt 1.18752 7.74268 4.79918 0.477387 10.0184
files/tasks_parameters/ExAp01/sample6.txt 1.50686 8.57133 5.80157 0.633604 13.2968
files/tasks_parameters/ExAp01/sample30.txt 1.64749 8.18878 5.90888 0.633576 13.2962
files/tasks_parameters/ExAp01/sample42.txt 1.30673 8.57689 5.67253 0.54426 11.4218
files/tasks_parameters/ExAp01/sample4.txt 1.3443 8.40354 4.57985 0.563519 11.826
files/tasks_parameters/ExAp01/sample28.txt 1.07515 6.44114 4.96426 0.449721 9.43784
files/tasks_parameters/ExAp01/sample18.txt 1.30788 8.56363 4.60946 0.543766 11.4115
files/tasks_parameters/ExAp01/sample35.txt 1.984 11.0387 6.34514 0.761377 15.9782
files/tasks_parameters/ExAp01/sample47.txt 1.32345 7.14493 5.22131 0.545046 11.4383
files/tasks_parameters/ExAp01/sample49.txt 1.32892 6.65996 4.80244 0.498533 10.4622
files/tasks_parameters/ExAp01/sample41.txt 1.18983 7.09069 5.35462 0.497129 10.4327
