0.8590652562999999
Task0 31 255 7 
Task1 255 31 63 
Task2 255 255 63 
Task3 255 7 255 
Task4 127 15 255 
Task5 127 255 63 
Task6 127 15 255 
Task7 3 3 255 
Task8 63 63 255 
Task9 1 31 255 
Task10 1 3 255 
Task11 255 255 255 
Task12 255 255 63 
Task13 255 3 127 
Task14 3 63 255 
Task15 127 255 255 
Task16 31 255 127 
Task17 15 255 15 
Task18 255 255 15 
Task19 15 255 15 
Task20 255 31 15 
Task21 7 255 31 
Task22 255 255 63 
Task23 63 3 255 
Task24 31 255 15 
Task25 127 255 255 
Task26 255 255 63 
Task27 255 63 31 
Task28 255 255 255 
Task29 255 7 63 
Task30 31 3 255 
Task31 255 255 255 
Task32 31 127 255 
Task33 63 255 1 
Task34 255 31 255 
Task35 15 255 15 
Task36 7 255 255 
Task37 255 7 255 
Task38 63 255 7 
Task39 31 63 255 
Task40 255 255 63 
Task41 3 63 255 
Task42 255 127 63 
Task43 63 1 255 
Task44 255 255 255 
Task45 255 255 63 
Task46 63 255 1 
Task47 255 31 127 
Task48 255 7 31 
Task49 7 7 255 
Task50 7 15 255 
Task51 255 63 255 
Task52 63 255 7 
Task53 255 255 255 
Task54 255 127 31 
Task55 63 1 255 
Task56 127 255 255 
Task57 255 127 255 
Task58 7 255 31 
Task59 63 255 31 
Task60 7 255 15 
Task61 31 15 255 
Task62 255 255 127 
Task63 15 1 255 
Task64 63 255 31 
Task65 127 31 255 
Task66 7 127 255 
Task67 255 255 63 
Task68 255 255 31 
Task69 127 255 31 
Task70 127 31 255 
Task71 7 255 3 
Task72 31 255 63 
Task73 63 255 31 
Task74 255 7 1 
Task75 3 255 127 
Task76 63 63 255 
Task77 15 63 255 
Task78 31 255 63 
Task79 255 127 1 
Task80 255 63 255 
Task81 31 255 15 
Task82 1 255 7 
Task83 255 31 63 
Task84 127 63 255 
Task85 31 255 63 
Task86 15 255 255 
Task87 255 255 31 
Task88 31 63 255 
Task89 63 255 255 
Task90 255 127 63 
Task91 127 255 255 
Task92 63 255 255 
Task93 3 15 255 
Task94 255 7 63 
Task95 255 255 31 
Task96 255 255 255 
Task97 31 255 31 
Task98 31 63 255 
Task99 31 255 255 
