1.2775811169999993
Task0 255 127 63 
Task1 127 63 255 
Task2 255 255 15 
Task3 127 255 255 
Task4 63 63 255 
Task5 31 255 31 
Task6 31 255 63 
Task7 15 255 3 
Task8 255 63 15 
Task9 255 1 7 
Task10 255 7 15 
Task11 127 255 31 
Task12 255 127 255 
Task13 255 3 127 
Task14 255 15 15 
Task15 31 255 31 
Task16 7 255 31 
Task17 255 7 15 
Task18 255 63 255 
Task19 255 1 31 
Task20 127 31 255 
Task21 7 255 15 
Task22 255 255 255 
Task23 255 127 255 
Task24 7 63 255 
Task25 255 7 7 
Task26 255 3 3 
Task27 255 7 63 
Task28 255 63 15 
Task29 31 255 1 
Task30 255 255 255 
Task31 15 255 127 
Task32 15 255 31 
Task33 15 255 15 
Task34 255 255 31 
Task35 127 1 255 
Task36 3 255 255 
Task37 7 255 255 
Task38 7 127 255 
Task39 15 3 255 
Task40 255 1 255 
Task41 255 255 127 
Task42 255 7 31 
Task43 31 15 255 
Task44 63 31 255 
Task45 127 15 255 
Task46 255 255 15 
Task47 255 3 15 
Task48 15 255 31 
Task49 127 255 63 
Task50 31 31 255 
Task51 255 255 7 
Task52 255 63 127 
Task53 63 3 255 
Task54 255 15 7 
Task55 3 255 31 
Task56 255 255 255 
Task57 255 15 15 
Task58 3 255 1 
Task59 255 31 63 
Task60 255 15 63 
Task61 63 15 255 
Task62 63 31 255 
Task63 255 63 127 
Task64 127 255 63 
Task65 63 255 255 
Task66 255 255 3 
Task67 15 31 255 
Task68 255 1 63 
Task69 31 15 255 
Task70 31 15 255 
Task71 255 31 7 
Task72 255 7 63 
Task73 15 127 255 
Task74 31 255 31 
Task75 31 255 63 
Task76 127 255 63 
Task77 31 3 255 
Task78 255 63 7 
Task79 255 3 7 
Task80 7 255 15 
Task81 255 63 15 
Task82 15 1 255 
Task83 15 255 127 
Task84 127 7 255 
Task85 255 63 255 
Task86 255 255 255 
Task87 255 1 15 
Task88 255 127 127 
Task89 127 255 127 
Task90 31 63 255 
Task91 15 15 255 
Task92 1 7 255 
Task93 255 255 127 
Task94 127 255 63 
Task95 7 1 255 
Task96 127 255 255 
Task97 7 3 255 
Task98 255 15 15 
Task99 255 15 31 
