Task0 1 1 1 
Task1 1 1 1 
Task2 1 3 1 
Task3 1 1 1 
Task4 1 1 1 
Task5 3 1 3 
Task6 1 1 1 
Task7 1 1 1 
Task8 1 1 1 
Task9 3 1 3 
Task10 1 1 7 
Task11 1 1 1 
Task12 1 1 1 
Task13 1 1 1 
Task14 1 1 1 
Task15 1 1 1 
Task16 1 1 1 
Task17 1 1 1 
Task18 1 1 1 
Task19 1 1 1 
Task20 1 1 1 
Task21 1 3 1 
Task22 1 1 1 
Task23 1 1 1 
Task24 1 1 1 
Task25 1 1 1 
Task26 1 7 1 
Task27 1 1 1 
Task28 1 1 1 
Task29 15 15 7 
Task30 1 1 1 
Task31 1 1 1 
Task32 3 1 3 
Task33 3 1 1 
Task34 1 1 1 
Task35 1 3 1 
Task36 1 3 1 
Task37 1 1 1 
Task38 1 1 1 
Task39 1 1 1 
Task40 1 1 1 
Task41 3 1 1 
Task42 1 1 1 
Task43 1 1 1 
Task44 3 1 3 
Task45 7 1 1 
Task46 3 3 1 
Task47 1 1 1 
Task48 3 1 1 
Task49 1 1 1 
Task50 1 1 1 
Task51 1 1 1 
Task52 1 1 1 
Task53 1 1 3 
Task54 3 1 1 
Task55 1 1 3 
Task56 1 1 1 
Task57 1 1 1 
Task58 3 1 3 
Task59 1 1 1 
Task60 1 1 1 
Task61 1 1 1 
Task62 1 1 1 
Task63 1 7 1 
Task64 1 1 1 
Task65 1 1 1 
Task66 1 1 1 
Task67 1 1 1 
Task68 1 1 3 
Task69 1 1 3 
Task70 1 1 1 
Task71 3 1 1 
Task72 1 3 3 
Task73 3 1 3 
Task74 1 1 1 
Task75 3 1 1 
Task76 1 1 1 
Task77 3 7 1 
Task78 3 1 1 
Task79 1 3 3 
Task80 1 1 1 
Task81 3 1 1 
Task82 1 1 1 
Task83 1 1 1 
Task84 1 1 1 
Task85 1 3 1 
Task86 1 1 1 
Task87 1 1 1 
Task88 1 1 1 
Task89 1 1 1 
Task90 1 1 1 
Task91 1 1 1 
Task92 1 1 1 
Task93 1 1 1 
Task94 1 1 1 
Task95 1 1 3 
Task96 1 3 3 
Task97 1 1 1 
Task98 1 1 3 
Task99 1 1 1 
