1.0712864830000002
Task0 255 63 255 
Task1 15 255 255 
Task2 127 255 127 
Task3 255 31 255 
Task4 7 15 255 
Task5 127 255 255 
Task6 31 255 127 
Task7 63 7 255 
Task8 31 255 63 
Task9 127 255 63 
Task10 255 7 15 
Task11 15 255 31 
Task12 63 31 255 
Task13 255 31 255 
Task14 255 255 127 
Task15 31 255 255 
Task16 255 255 63 
Task17 127 255 31 
Task18 3 255 3 
Task19 255 127 255 
Task20 3 31 255 
Task21 63 255 15 
Task22 255 255 255 
Task23 255 255 127 
Task24 1 15 255 
Task25 255 63 7 
Task26 255 127 15 
Task27 255 127 127 
Task28 255 31 3 
Task29 255 7 127 
Task30 31 255 127 
Task31 255 255 255 
Task32 255 15 127 
Task33 255 15 127 
Task34 127 31 255 
Task35 255 1 255 
Task36 255 15 7 
Task37 31 255 255 
Task38 127 15 255 
Task39 255 3 255 
Task40 1 1 255 
Task41 255 15 127 
Task42 7 255 63 
Task43 127 255 31 
Task44 255 3 63 
Task45 7 31 255 
Task46 127 63 255 
Task47 255 31 127 
Task48 7 127 255 
Task49 31 127 255 
Task50 255 127 31 
Task51 255 127 255 
Task52 31 1 255 
Task53 63 255 63 
Task54 15 255 3 
Task55 7 255 7 
Task56 127 255 63 
Task57 255 255 127 
Task58 3 255 255 
Task59 127 127 255 
Task60 7 255 3 
Task61 7 15 255 
Task62 31 255 255 
Task63 127 63 255 
Task64 127 127 255 
Task65 63 63 255 
Task66 31 7 255 
Task67 7 3 255 
Task68 255 31 255 
Task69 15 255 63 
Task70 255 7 127 
Task71 255 127 31 
Task72 31 255 127 
Task73 255 63 15 
Task74 63 15 255 
Task75 7 15 255 
Task76 127 31 255 
Task77 255 3 63 
Task78 63 255 127 
Task79 15 255 31 
Task80 63 63 255 
Task81 7 255 7 
Task82 127 255 3 
Task83 255 15 255 
Task84 15 15 255 
Task85 31 63 255 
Task86 15 255 63 
Task87 127 255 255 
Task88 127 255 63 
Task89 63 255 31 
Task90 63 255 7 
Task91 255 1 31 
Task92 31 255 15 
Task93 255 15 63 
Task94 255 15 7 
Task95 255 7 255 
Task96 31 255 31 
Task97 31 3 255 
Task98 31 63 255 
Task99 31 255 31 
