0.33675869
Task0 63 255 15 
Task1 63 63 31 
Task2 63 127 1 
Task3 15 63 15 
Task4 7 31 63 
Task5 1 3 63 
Task6 3 15 255 
Task7 63 63 255 
Task8 31 31 15 
Task9 15 31 15 
Task10 63 255 255 
Task11 7 31 3 
Task12 31 31 31 
Task13 63 15 3 
Task14 1 31 31 
Task15 31 15 31 
Task16 63 3 3 
Task17 31 1 3 
Task18 15 31 15 
Task19 1 7 63 
Task20 15 3 15 
Task21 31 3 31 
Task22 63 31 7 
Task23 127 255 63 
Task24 15 15 31 
Task25 3 63 7 
Task26 255 127 255 
Task27 31 15 31 
Task28 31 63 7 
Task29 63 255 63 
Task30 31 7 7 
Task31 3 31 1 
Task32 15 7 31 
Task33 63 7 31 
Task34 127 31 31 
Task35 7 31 31 
Task36 15 63 255 
Task37 63 63 15 
Task38 31 255 63 
Task39 15 63 15 
Task40 63 15 15 
Task41 7 31 7 
Task42 15 1 31 
Task43 7 15 15 
Task44 255 31 255 
Task45 31 1 7 
Task46 15 31 127 
Task47 15 63 15 
Task48 7 31 15 
Task49 15 63 7 
Task50 63 15 1 
Task51 15 63 15 
Task52 31 15 127 
Task53 1 15 31 
Task54 63 63 7 
Task55 31 15 63 
Task56 31 63 15 
Task57 7 31 31 
Task58 255 15 63 
Task59 7 15 63 
Task60 127 255 63 
Task61 31 63 31 
Task62 63 1 1 
Task63 31 7 15 
Task64 3 63 15 
Task65 31 31 127 
Task66 63 15 31 
Task67 1 15 63 
Task68 15 255 255 
Task69 15 7 63 
Task70 15 3 63 
Task71 1 31 7 
Task72 63 3 15 
Task73 31 7 15 
Task74 31 31 3 
Task75 31 1 7 
Task76 63 255 31 
Task77 31 3 3 
Task78 7 7 31 
Task79 63 1 1 
Task80 15 7 31 
Task81 15 127 15 
Task82 31 127 63 
Task83 15 31 15 
Task84 7 3 31 
Task85 63 255 127 
Task86 127 15 63 
Task87 7 1 63 
Task88 7 3 31 
Task89 31 7 255 
Task90 7 7 63 
Task91 31 7 15 
Task92 1 15 31 
Task93 7 31 1 
Task94 31 31 31 
Task95 1 3 63 
Task96 7 31 31 
Task97 3 31 31 
Task98 15 7 31 
Task99 1 31 31 
