0.34439978
Task0 31 255 127 
Task1 63 3 127 
Task2 255 255 31 
Task3 15 255 63 
Task4 1 63 1 
Task5 63 1 31 
Task6 1 31 7 
Task7 1 63 63 
Task8 1 31 7 
Task9 15 63 3 
Task10 63 3 31 
Task11 7 1 63 
Task12 7 7 31 
Task13 31 7 1 
Task14 63 31 255 
Task15 255 15 3 
Task16 63 15 255 
Task17 31 3 31 
Task18 31 1 7 
Task19 3 31 63 
Task20 63 7 15 
Task21 127 63 15 
Task22 7 31 31 
Task23 1 7 255 
Task24 1 7 63 
Task25 63 31 31 
Task26 127 255 7 
Task27 63 31 31 
Task28 15 1 63 
Task29 15 63 63 
Task30 31 15 63 
Task31 15 31 63 
Task32 15 255 31 
Task33 255 15 15 
Task34 1 255 7 
Task35 63 31 7 
Task36 63 63 63 
Task37 31 7 63 
Task38 63 1 127 
Task39 31 255 15 
Task40 255 127 63 
Task41 15 255 3 
Task42 15 7 31 
Task43 63 127 63 
Task44 63 3 31 
Task45 63 127 31 
Task46 7 3 63 
Task47 31 31 31 
Task48 255 255 127 
Task49 7 7 63 
Task50 63 255 7 
Task51 255 7 3 
Task52 31 31 31 
Task53 15 255 31 
Task54 1 31 31 
Task55 1 63 7 
Task56 31 63 3 
Task57 31 3 255 
Task58 63 15 31 
Task59 1 255 255 
Task60 7 1 63 
Task61 255 63 31 
Task62 127 63 255 
Task63 63 15 31 
Task64 255 1 31 
Task65 7 31 255 
Task66 127 255 255 
Task67 31 63 3 
Task68 63 15 255 
Task69 3 31 7 
Task70 255 31 31 
Task71 31 255 31 
Task72 15 255 63 
Task73 3 15 63 
Task74 31 3 7 
Task75 31 15 63 
Task76 1 31 63 
Task77 31 3 7 
Task78 7 7 31 
Task79 255 1 1 
Task80 3 255 15 
Task81 127 127 63 
Task82 3 63 7 
Task83 15 63 1 
Task84 3 7 31 
Task85 3 63 7 
Task86 31 7 7 
Task87 15 7 63 
Task88 3 31 63 
Task89 1 7 63 
Task90 255 15 31 
Task91 63 255 15 
Task92 127 7 255 
Task93 255 63 255 
Task94 15 63 31 
Task95 31 15 7 
Task96 7 31 31 
Task97 31 63 31 
Task98 63 1 31 
Task99 31 63 63 
