files/tasks_parameters/ExAp01/sample8.txt 4.94669 6.77015 2.19458 0.288816 8.34358
files/tasks_parameters/ExAp01/sample12.txt 5.90497 9.58351 2.46081 0.337498 9.74996
files/tasks_parameters/ExAp01/sample2.txt 5.76136 8.44418 2.50701 0.319127 9.21923
files/tasks_parameters/ExAp01/sample44.txt 5.06428 6.96299 2.23089 0.28229 8.15505
files/tasks_parameters/ExAp01/sample27.txt 4.93397 7.74306 2.16676 0.28602 8.26279
files/tasks_parameters/ExAp01/sample17.txt 5.28124 7.35053 2.25579 0.292348 8.4456
files/tasks_parameters/ExAp01/sample9.txt 5.11517 6.89392 2.21068 0.282399 8.15819
files/tasks_parameters/ExAp01/sample34.txt 5.10634 6.62788 2.3772 0.297742 8.60143
files/tasks_parameters/ExAp01/sample40.txt 5.07757 7.75686 2.17534 0.285619 8.25122
files/tasks_parameters/ExAp01/sample33.txt 5.66376 8.14826 2.6463 0.338073 9.76656
files/tasks_parameters/ExAp01/sample48.txt 4.58112 7.64107 2.14272 0.270011 7.80032
files/tasks_parameters/ExAp01/sample29.txt 3.69534 7.139 1.93769 0.286306 8.27105
files/tasks_parameters/ExAp01/sample11.txt 4.8166 6.88688 2.12981 0.280008 8.08913
files/tasks_parameters/ExAp01/sample14.txt 4.24547 6.11983 1.97599 0.247458 7.14877
files/tasks_parameters/ExAp01/sample0.txt 5.10913 8.2738 2.14256 0.289132 8.3527
files/tasks_parameters/ExAp01/sample7.txt 4.59137 6.87011 2.05821 0.269886 7.79669
files/tasks_parameters/ExAp01/sample23.txt 4.95703 6.52032 2.38087 0.291712 8.42722
files/tasks_parameters/ExAp01/sample13.txt 5.42808 8.73247 2.33415 0.295393 8.53356
files/tasks_parameters/ExAp01/sample22.txt 4.73105 6.9777 2.28948 0.283979 8.20384
files/tasks_parameters/ExAp01/sample25.txt 4.28931 6.23444 2.2122 0.267298 7.72193
files/tasks_parameters/ExAp01/sample36.txt 4.56327 6.6174 1.9458 0.253823 7.33266
files/tasks_parameters/ExAp01/sample46.txt 5.61025 7.42369 2.49128 0.327273 9.45455
files/tasks_parameters/ExAp01/sample31.txt 4.49304 7.22028 2.13584 0.25377 7.33113
files/tasks_parameters/ExAp01/sample37.txt 5.32082 8.90704 2.16981 0.295708 8.54268
files/tasks_parameters/ExAp01/sample16.txt 4.39793 8.18243 1.88294 0.24945 7.20632
files/tasks_parameters/ExAp01/sample10.txt 5.19941 6.96646 2.31217 0.285748 8.25494
files/tasks_parameters/ExAp01/sample39.txt 4.63636 6.4161 1.97266 0.251967 7.27904
files/tasks_parameters/ExAp01/sample19.txt 5.46677 8.16711 2.23199 0.308463 8.91115
files/tasks_parameters/ExAp01/sample20.txt 4.72085 7.28549 1.88944 0.25994 7.50937
files/tasks_parameters/ExAp01/sample43.txt 4.5684 6.86804 2.00142 0.25616 7.40018
files/tasks_parameters/ExAp01/sample32.txt 4.79247 8.15663 2.12995 0.281726 8.13876
files/tasks_parameters/ExAp01/sample45.txt 4.86 7.75184 2.10599 0.274935 7.94256
files/tasks_parameters/ExAp01/sample26.txt 4.9125 7.4944 1.88956 0.267248 7.7205
files/tasks_parameters/ExAp01/sample5.txt 5.05274 8.08362 2.09961 0.28454 8.22005
files/tasks_parameters/ExAp01/sample21.txt 4.69613 6.11814 2.17119 0.26143 7.55241
files/tasks_parameters/ExAp01/sample38.txt 4.76902 7.761 1.96293 0.263659 7.61681
files/tasks_parameters/ExAp01/sample1.txt 5.07904 7.83752 2.13261 0.289228 8.35548
files/tasks_parameters/ExAp01/sample15.txt 5.33406 7.37971 2.12057 0.285825 8.25718
files/tasks_parameters/ExAp01/sample24.txt 5.23012 8.28531 2.25272 0.296628 8.56927
files/tasks_parameters/ExAp01/sample3.txt 5.44999 7.33359 2.39135 0.305084 8.81355
files/tasks_parameters/ExAp01/sample6.txt 4.98817 7.09894 2.24425 0.281804 8.14101
files/tasks_parameters/ExAp01/sample30.txt 4.61891 8.17669 2.03701 0.299204 8.64368
files/tasks_parameters/ExAp01/sample42.txt 5.48456 7.70416 2.42413 0.29743 8.59242
files/tasks_parameters/ExAp01/sample4.txt 5.44033 7.41691 2.36261 0.307803 8.89208
files/tasks_parameters/ExAp01/sample28.txt 4.89901 7.0562 2.07657 0.266428 7.69681
files/tasks_parameters/ExAp01/sample18.txt 4.88356 7.60139 2.1377 0.268016 7.74268
files/tasks_parameters/ExAp01/sample35.txt 5.60196 9.66795 2.28028 0.32244 9.31492
files/tasks_parameters/ExAp01/sample47.txt 4.58554 6.84842 2.12104 0.251655 7.27002
files/tasks_parameters/ExAp01/sample49.txt 4.4252 7.1497 2.11412 0.255889 7.39235
files/tasks_parameters/ExAp01/sample41.txt 4.57322 6.59911 2.07359 0.265885 7.68113
