files/tasks_parameters/ExAp01/sample8.txt 1.11883 6.77015 2.19458 0.288816 11.8824
files/tasks_parameters/ExAp01/sample12.txt 1.231 9.58351 2.46081 0.337498 13.8853
files/tasks_parameters/ExAp01/sample2.txt 1.15246 8.44418 2.50701 0.319127 13.1294
files/tasks_parameters/ExAp01/sample44.txt 1.05433 6.96299 2.23089 0.28229 11.6139
files/tasks_parameters/ExAp01/sample27.txt 1.17363 7.74306 2.16676 0.28602 11.7673
files/tasks_parameters/ExAp01/sample17.txt 1.10511 7.35053 2.25579 0.292348 12.0277
files/tasks_parameters/ExAp01/sample9.txt 1.03243 6.89392 2.21068 0.282399 11.6184
files/tasks_parameters/ExAp01/sample34.txt 1.05337 6.62788 2.3772 0.297742 12.2496
files/tasks_parameters/ExAp01/sample40.txt 1.13863 7.75686 2.17534 0.285619 11.7509
files/tasks_parameters/ExAp01/sample33.txt 1.31441 8.14826 2.6463 0.338073 13.9089
files/tasks_parameters/ExAp01/sample48.txt 1.04478 7.64107 2.14272 0.270011 11.1087
files/tasks_parameters/ExAp01/sample29.txt 1.02296 7.139 1.93769 0.286306 11.7791
files/tasks_parameters/ExAp01/sample11.txt 1.04379 6.88688 2.12981 0.280008 11.52
files/tasks_parameters/ExAp01/sample14.txt 0.93036 6.11983 1.97599 0.247458 10.1808
files/tasks_parameters/ExAp01/sample0.txt 1.11645 8.2738 2.14256 0.289132 11.8954
files/tasks_parameters/ExAp01/sample7.txt 1.02934 6.87011 2.05821 0.269886 11.1035
files/tasks_parameters/ExAp01/sample23.txt 1.04702 6.52032 2.38087 0.291712 12.0015
files/tasks_parameters/ExAp01/sample13.txt 1.15708 8.73247 2.33415 0.295393 12.1529
files/tasks_parameters/ExAp01/sample22.txt 1.09629 6.9777 2.28948 0.283979 11.6834
files/tasks_parameters/ExAp01/sample25.txt 1.01285 6.23444 2.2122 0.267298 10.9971
files/tasks_parameters/ExAp01/sample36.txt 0.933683 6.6174 1.9458 0.253823 10.4427
files/tasks_parameters/ExAp01/sample46.txt 1.23867 7.42369 2.49128 0.327273 13.4646
files/tasks_parameters/ExAp01/sample31.txt 0.962745 7.22028 2.13584 0.25377 10.4405
files/tasks_parameters/ExAp01/sample37.txt 1.06377 8.90704 2.16981 0.295708 12.1659
files/tasks_parameters/ExAp01/sample16.txt 0.955262 8.18243 1.88294 0.24945 10.2628
files/tasks_parameters/ExAp01/sample10.txt 1.11269 6.96646 2.31217 0.285748 11.7562
files/tasks_parameters/ExAp01/sample39.txt 1.00549 6.4161 1.97266 0.251967 10.3663
files/tasks_parameters/ExAp01/sample19.txt 1.16784 8.16711 2.23199 0.308463 12.6907
files/tasks_parameters/ExAp01/sample20.txt 0.91512 7.28549 1.88944 0.25994 10.6944
files/tasks_parameters/ExAp01/sample43.txt 0.919551 6.86804 2.00142 0.25616 10.5389
files/tasks_parameters/ExAp01/sample32.txt 1.10859 8.15663 2.12995 0.281726 11.5907
files/tasks_parameters/ExAp01/sample45.txt 1.06432 7.75184 2.10599 0.274935 11.3113
files/tasks_parameters/ExAp01/sample26.txt 1.01523 7.4944 1.88956 0.267248 10.995
files/tasks_parameters/ExAp01/sample5.txt 1.09504 8.08362 2.09961 0.28454 11.7065
files/tasks_parameters/ExAp01/sample21.txt 0.905965 6.11814 2.17119 0.26143 10.7557
files/tasks_parameters/ExAp01/sample38.txt 1.02081 7.761 1.96293 0.263659 10.8474
files/tasks_parameters/ExAp01/sample1.txt 1.11831 7.83752 2.13261 0.289228 11.8993
files/tasks_parameters/ExAp01/sample15.txt 1.07625 7.37971 2.12057 0.285825 11.7593
files/tasks_parameters/ExAp01/sample24.txt 1.12884 8.28531 2.25272 0.296628 12.2038
files/tasks_parameters/ExAp01/sample3.txt 1.25354 7.33359 2.39135 0.305084 12.5517
files/tasks_parameters/ExAp01/sample6.txt 1.03035 7.09894 2.24425 0.281804 11.5939
files/tasks_parameters/ExAp01/sample30.txt 1.22863 8.17669 2.03701 0.299204 12.3098
files/tasks_parameters/ExAp01/sample42.txt 1.15881 7.70416 2.42413 0.29743 12.2368
files/tasks_parameters/ExAp01/sample4.txt 1.21589 7.41691 2.36261 0.307803 12.6635
files/tasks_parameters/ExAp01/sample28.txt 1.05003 7.0562 2.07657 0.266428 10.9613
files/tasks_parameters/ExAp01/sample18.txt 1.02196 7.60139 2.1377 0.268016 11.0266
files/tasks_parameters/ExAp01/sample35.txt 1.24018 9.66795 2.28028 0.32244 13.2657
files/tasks_parameters/ExAp01/sample47.txt 0.956661 6.84842 2.12104 0.251655 10.3535
files/tasks_parameters/ExAp01/sample49.txt 0.994515 7.1497 2.11412 0.255889 10.5277
files/tasks_parameters/ExAp01/sample41.txt 1.02918 6.59911 2.07359 0.265885 10.939
