0.29812760999999993
Task0 15 31 63 
Task1 31 7 7 
Task2 15 15 63 
Task3 7 15 31 
Task4 1 15 15 
Task5 15 31 63 
Task6 15 1 15 
Task7 15 3 15 
Task8 31 7 15 
Task9 63 7 7 
Task10 1 31 3 
Task11 15 31 3 
Task12 3 7 63 
Task13 1 7 31 
Task14 15 7 1 
Task15 127 1 255 
Task16 3 63 255 
Task17 31 3 31 
Task18 31 7 15 
Task19 31 1 7 
Task20 63 15 63 
Task21 31 7 7 
Task22 31 63 7 
Task23 15 31 3 
Task24 3 31 7 
Task25 3 63 63 
Task26 15 7 3 
Task27 31 7 3 
Task28 63 15 15 
Task29 15 15 31 
Task30 15 15 15 
Task31 15 63 7 
Task32 31 31 3 
Task33 15 15 1 
Task34 31 15 15 
Task35 3 15 1 
Task36 7 3 15 
Task37 3 31 31 
Task38 31 63 63 
Task39 7 7 31 
Task40 1 15 15 
Task41 1 15 1 
Task42 7 3 15 
Task43 3 1 31 
Task44 7 7 31 
Task45 3 3 15 
Task46 7 31 3 
Task47 31 1 7 
Task48 3 7 31 
Task49 15 31 7 
Task50 7 15 31 
Task51 31 63 15 
Task52 127 63 63 
Task53 7 15 7 
Task54 31 15 1 
Task55 3 15 31 
Task56 31 7 31 
Task57 3 15 31 
Task58 3 31 31 
Task59 31 3 31 
Task60 31 7 1 
Task61 7 15 31 
Task62 31 1 7 
Task63 31 1 3 
Task64 15 15 7 
Task65 15 3 15 
Task66 1 3 15 
Task67 7 1 31 
Task68 7 31 31 
Task69 31 31 31 
Task70 15 15 31 
Task71 31 63 63 
Task72 7 15 7 
Task73 3 1 31 
Task74 15 7 63 
Task75 31 7 15 
Task76 7 7 31 
Task77 1 31 3 
Task78 7 31 7 
Task79 15 7 31 
Task80 3 3 31 
Task81 15 15 7 
Task82 1 31 7 
Task83 15 7 1 
Task84 15 63 63 
Task85 3 31 15 
Task86 7 63 31 
Task87 15 31 15 
Task88 15 15 7 
Task89 3 31 7 
Task90 31 7 7 
Task91 31 7 3 
Task92 3 3 15 
Task93 31 15 15 
Task94 31 1 7 
Task95 7 31 31 
Task96 31 15 3 
Task97 15 15 15 
Task98 31 1 31 
Task99 63 15 15 
