files/tasks_parameters/ExAp01/sample8.txt 0.732739 3.15778 1.5595 0.203411 4.18629
files/tasks_parameters/ExAp01/sample12.txt 0.849869 3.94962 1.6705 0.207924 4.27917
files/tasks_parameters/ExAp01/sample2.txt 0.825882 3.78275 1.74131 0.200098 4.1181
files/tasks_parameters/ExAp01/sample44.txt 0.746675 3.59825 1.65317 0.200005 4.1162
files/tasks_parameters/ExAp01/sample27.txt 0.728674 3.45743 1.5148 0.182129 3.74829
files/tasks_parameters/ExAp01/sample17.txt 0.925109 2.77299 1.44514 0.14646 3.01421
files/tasks_parameters/ExAp01/sample9.txt 0.752003 2.99933 1.451 0.177444 3.65187
files/tasks_parameters/ExAp01/sample34.txt 0.831645 3.02928 1.58429 0.157984 3.25138
files/tasks_parameters/ExAp01/sample40.txt 0.767787 3.86889 1.52122 0.168379 3.46532
files/tasks_parameters/ExAp01/sample33.txt 0.808182 3.63695 1.71905 0.199765 4.11125
files/tasks_parameters/ExAp01/sample48.txt 0.695106 3.39061 1.49062 0.154728 3.18438
files/tasks_parameters/ExAp01/sample29.txt 0.810376 3.30472 1.38739 0.223868 4.60731
files/tasks_parameters/ExAp01/sample11.txt 0.717528 3.10585 1.41612 0.174079 3.58262
files/tasks_parameters/ExAp01/sample14.txt 0.663037 2.70971 1.43432 0.162214 3.33845
files/tasks_parameters/ExAp01/sample0.txt 0.782087 3.6937 1.5439 0.18367 3.78001
files/tasks_parameters/ExAp01/sample7.txt 0.809856 2.70501 1.42221 0.143463 2.95254
files/tasks_parameters/ExAp01/sample23.txt 0.777501 3.2697 1.57822 0.181448 3.73429
files/tasks_parameters/ExAp01/sample13.txt 0.793272 3.84225 1.67648 0.198247 4.08001
files/tasks_parameters/ExAp01/sample22.txt 0.901802 3.09569 1.56121 0.148796 3.06229
files/tasks_parameters/ExAp01/sample25.txt 0.746637 2.73966 1.5007 0.148149 3.04897
files/tasks_parameters/ExAp01/sample36.txt 0.850752 2.85948 1.28553 0.130042 2.67633
files/tasks_parameters/ExAp01/sample46.txt 0.791803 3.58643 1.69998 0.210103 4.32401
files/tasks_parameters/ExAp01/sample31.txt 0.725639 3.4832 1.53782 0.1722 3.54395
files/tasks_parameters/ExAp01/sample37.txt 0.780697 3.95293 1.50705 0.171701 3.53369
files/tasks_parameters/ExAp01/sample16.txt 0.642207 3.31216 1.30115 0.150249 3.09219
files/tasks_parameters/ExAp01/sample10.txt 1.10417 3.17098 1.61789 0.153776 3.16479
files/tasks_parameters/ExAp01/sample39.txt 0.684731 3.26617 1.44406 0.165669 3.40954
files/tasks_parameters/ExAp01/sample19.txt 0.769146 3.63532 1.52509 0.196094 4.03571
files/tasks_parameters/ExAp01/sample20.txt 0.665733 3.20793 1.25367 0.147335 3.03223
files/tasks_parameters/ExAp01/sample43.txt 0.653813 3.11551 1.4202 0.150644 3.10033
files/tasks_parameters/ExAp01/sample32.txt 0.766615 3.5311 1.42482 0.168744 3.47283
files/tasks_parameters/ExAp01/sample45.txt 0.765508 3.80283 1.48324 0.19807 4.07638
files/tasks_parameters/ExAp01/sample26.txt 0.666702 3.21645 1.29701 0.166061 3.41762
files/tasks_parameters/ExAp01/sample5.txt 0.684255 3.5889 1.52559 0.178903 3.68191
files/tasks_parameters/ExAp01/sample21.txt 0.727488 2.75242 1.55936 0.19512 4.01566
files/tasks_parameters/ExAp01/sample38.txt 0.681621 3.31563 1.37515 0.166157 3.41958
files/tasks_parameters/ExAp01/sample1.txt 0.744422 3.74964 1.51696 0.19701 4.05455
files/tasks_parameters/ExAp01/sample15.txt 0.722155 3.32916 1.48508 0.180707 3.71904
files/tasks_parameters/ExAp01/sample24.txt 0.861271 3.45951 1.59549 0.16529 3.40175
files/tasks_parameters/ExAp01/sample3.txt 0.901573 3.70014 1.70809 0.237107 4.87977
files/tasks_parameters/ExAp01/sample6.txt 0.752912 3.33003 1.58323 0.184714 3.80151
files/tasks_parameters/ExAp01/sample30.txt 0.940163 4.1841 1.4861 0.239623 4.93155
files/tasks_parameters/ExAp01/sample42.txt 0.761674 3.43221 1.70276 0.177383 3.65062
files/tasks_parameters/ExAp01/sample4.txt 0.825138 3.72477 1.6136 0.196448 4.04299
files/tasks_parameters/ExAp01/sample28.txt 0.709255 3.11323 1.45032 0.158819 3.26857
files/tasks_parameters/ExAp01/sample18.txt 0.775563 3.47418 1.45209 0.149064 3.0678
files/tasks_parameters/ExAp01/sample35.txt 0.844027 4.57086 1.49394 0.185031 3.80802
files/tasks_parameters/ExAp01/sample47.txt 0.725739 3.13768 1.52397 0.16417 3.3787
files/tasks_parameters/ExAp01/sample49.txt 0.78511 3.13288 1.49657 0.156154 3.21372
files/tasks_parameters/ExAp01/sample41.txt 0.767359 2.81964 1.49636 0.150876 3.10509
