0.17834108467722196
Task0 1 7 15 
Task1 1 1 3 
Task2 1 3 3 
Task3 1 1 1 
Task4 1 1 1 
Task5 3 7 1 
Task6 1 3 1 
Task7 3 1 3 
Task8 1 1 1 
Task9 1 1 1 
Task10 1 3 3 
Task11 1 3 3 
Task12 1 3 7 
Task13 1 1 1 
Task14 1 1 1 
Task15 1 1 1 
Task16 3 3 7 
Task17 1 1 1 
Task18 3 7 1 
Task19 1 15 1 
Task20 1 1 1 
Task21 1 1 1 
Task22 3 1 1 
Task23 1 7 1 
Task24 3 7 1 
Task25 1 1 1 
Task26 1 3 1 
Task27 3 3 1 
Task28 7 1 1 
Task29 1 3 1 
Task30 1 1 3 
Task31 1 1 1 
Task32 1 1 1 
Task33 7 3 1 
Task34 1 1 1 
Task35 1 1 1 
Task36 7 1 1 
Task37 1 1 1 
Task38 1 3 1 
Task39 7 1 1 
Task40 1 1 1 
Task41 3 7 1 
Task42 1 1 1 
Task43 1 1 1 
Task44 3 1 1 
Task45 3 1 1 
Task46 1 3 3 
Task47 1 1 1 
Task48 1 1 1 
Task49 1 1 1 
Task50 3 3 1 
Task51 1 1 1 
Task52 3 1 1 
Task53 1 3 7 
Task54 3 1 3 
Task55 1 1 1 
Task56 1 1 1 
Task57 1 1 7 
Task58 127 255 255 
Task59 1 3 1 
Task60 1 3 1 
Task61 1 1 1 
Task62 3 3 3 
Task63 1 1 1 
Task64 1 1 1 
Task65 1 3 1 
Task66 1 1 1 
Task67 3 1 1 
Task68 1 1 1 
Task69 1 3 1 
Task70 7 3 3 
Task71 7 3 1 
Task72 3 3 3 
Task73 3 3 1 
Task74 1 3 1 
Task75 3 3 3 
Task76 1 1 1 
Task77 1 7 7 
Task78 1 1 1 
Task79 3 1 3 
Task80 1 1 1 
Task81 3 1 7 
Task82 1 1 1 
Task83 3 3 1 
Task84 3 3 3 
Task85 1 1 1 
Task86 3 1 3 
Task87 3 3 1 
Task88 3 7 1 
Task89 1 15 31 
Task90 3 3 3 
Task91 15 7 7 
Task92 3 3 3 
Task93 15 3 1 
Task94 3 1 3 
Task95 3 15 1 
Task96 31 15 1 
Task97 1 3 15 
Task98 15 1 3 
Task99 31 3 7 
