Task0 3 1 1 
Task1 1 1 1 
Task2 1 1 1 
Task3 1 1 3 
Task4 1 1 3 
Task5 3 3 3 
Task6 1 1 1 
Task7 1 1 1 
Task8 3 1 1 
Task9 1 1 1 
Task10 3 1 3 
Task11 1 1 1 
Task12 1 1 3 
Task13 1 1 1 
Task14 1 1 1 
Task15 15 1 1 
Task16 7 1 1 
Task17 1 1 3 
Task18 1 1 1 
Task19 1 1 1 
Task20 1 3 3 
Task21 1 1 1 
Task22 1 1 1 
Task23 1 3 1 
Task24 1 1 1 
Task25 1 1 1 
Task26 1 1 1 
Task27 1 1 3 
Task28 3 1 1 
Task29 1 1 1 
Task30 1 1 1 
Task31 3 3 1 
Task32 1 1 1 
Task33 1 1 1 
Task34 7 1 3 
Task35 7 1 3 
Task36 3 1 1 
Task37 1 3 1 
Task38 1 1 1 
Task39 7 15 1 
Task40 7 3 31 
Task41 7 1 1 
Task42 1 1 1 
Task43 1 1 3 
Task44 1 1 1 
Task45 3 3 1 
Task46 1 1 1 
Task47 1 1 1 
Task48 3 3 1 
Task49 1 1 1 
Task50 1 1 1 
Task51 1 1 1 
Task52 1 1 1 
Task53 1 1 1 
Task54 1 1 1 
Task55 1 3 1 
Task56 3 1 3 
Task57 1 1 1 
Task58 1 1 7 
Task59 1 1 1 
Task60 1 1 1 
Task61 1 1 1 
Task62 1 1 1 
Task63 1 3 3 
Task64 1 1 1 
Task65 7 1 7 
Task66 1 1 1 
Task67 1 3 1 
Task68 1 1 1 
Task69 1 1 1 
Task70 1 1 1 
Task71 1 1 3 
Task72 1 1 1 
Task73 1 1 1 
Task74 3 1 1 
Task75 1 1 1 
Task76 1 1 1 
Task77 1 1 1 
Task78 3 1 1 
Task79 1 1 1 
Task80 1 1 1 
Task81 1 1 1 
Task82 3 15 7 
Task83 1 1 1 
Task84 1 1 1 
Task85 1 3 1 
Task86 1 1 1 
Task87 1 1 1 
Task88 1 1 3 
Task89 1 1 1 
Task90 1 1 1 
Task91 3 1 1 
Task92 7 3 3 
Task93 1 1 1 
Task94 15 31 31 
Task95 3 1 3 
Task96 1 1 3 
Task97 1 3 3 
Task98 1 1 1 
Task99 1 1 1 
