0.12114293407768607
Task0 1 1 1 
Task1 1 3 1 
Task2 1 1 3 
Task3 3 1 1 
Task4 1 1 3 
Task5 1 1 1 
Task6 1 3 3 
Task7 1 3 1 
Task8 3 1 1 
Task9 1 1 1 
Task10 1 1 1 
Task11 1 1 7 
Task12 1 1 1 
Task13 1 3 3 
Task14 3 1 1 
Task15 1 1 1 
Task16 1 1 1 
Task17 1 1 1 
Task18 1 1 1 
Task19 1 3 1 
Task20 1 1 1 
Task21 1 1 7 
Task22 1 1 3 
Task23 7 1 1 
Task24 1 1 1 
Task25 1 1 1 
Task26 1 1 1 
Task27 1 1 1 
Task28 1 3 7 
Task29 1 1 3 
Task30 1 1 1 
Task31 1 3 3 
Task32 1 1 1 
Task33 1 1 1 
Task34 1 3 7 
Task35 3 3 1 
Task36 1 1 1 
Task37 3 1 1 
Task38 3 7 1 
Task39 3 3 1 
Task40 1 1 1 
Task41 1 1 1 
Task42 1 3 3 
Task43 1 1 1 
Task44 1 1 1 
Task45 7 1 1 
Task46 1 1 1 
Task47 1 3 1 
Task48 1 1 3 
Task49 1 3 1 
Task50 1 1 1 
Task51 3 1 3 
Task52 1 1 1 
Task53 1 1 3 
Task54 3 1 1 
Task55 1 1 1 
Task56 1 1 1 
Task57 1 1 1 
Task58 7 1 3 
Task59 3 1 1 
Task60 1 1 1 
Task61 1 1 1 
Task62 3 3 1 
Task63 3 1 1 
Task64 1 1 1 
Task65 3 1 1 
Task66 1 1 1 
Task67 1 1 1 
Task68 1 1 1 
Task69 1 1 1 
Task70 1 1 1 
Task71 1 1 1 
Task72 1 1 1 
Task73 1 3 1 
Task74 3 1 1 
Task75 1 1 1 
Task76 3 7 1 
Task77 1 1 1 
Task78 3 1 1 
Task79 1 1 1 
Task80 1 1 1 
Task81 1 3 3 
Task82 3 1 1 
Task83 1 1 1 
Task84 3 7 1 
Task85 1 1 1 
Task86 1 3 1 
Task87 1 1 1 
Task88 3 1 3 
Task89 3 3 1 
Task90 1 1 1 
Task91 1 1 1 
Task92 1 1 1 
Task93 15 1 3 
Task94 3 3 1 
Task95 3 1 1 
Task96 15 3 3 
Task97 1 7 3 
Task98 7 7 1 
Task99 255 63 63 
