0.12274466946538672
Task0 1 7 3 
Task1 1 3 3 
Task2 3 3 1 
Task3 1 3 1 
Task4 1 1 1 
Task5 3 1 1 
Task6 1 1 3 
Task7 1 1 1 
Task8 3 3 3 
Task9 1 3 1 
Task10 1 1 3 
Task11 1 1 7 
Task12 1 1 1 
Task13 1 1 1 
Task14 1 1 1 
Task15 1 3 1 
Task16 1 1 1 
Task17 1 1 1 
Task18 3 1 3 
Task19 7 3 3 
Task20 1 3 3 
Task21 1 1 1 
Task22 1 1 3 
Task23 1 3 1 
Task24 1 1 1 
Task25 1 3 1 
Task26 1 3 3 
Task27 7 1 3 
Task28 3 1 7 
Task29 3 1 3 
Task30 3 1 3 
Task31 1 1 3 
Task32 3 1 3 
Task33 1 3 1 
Task34 3 1 1 
Task35 1 7 3 
Task36 7 1 1 
Task37 3 1 7 
Task38 1 1 1 
Task39 7 1 3 
Task40 1 3 1 
Task41 1 1 1 
Task42 63 255 255 
Task43 3 1 1 
Task44 1 1 1 
Task45 1 1 3 
Task46 3 1 3 
Task47 1 1 1 
Task48 3 1 1 
Task49 1 1 1 
Task50 1 1 1 
Task51 3 1 1 
Task52 3 1 3 
Task53 3 1 3 
Task54 3 3 1 
Task55 3 1 3 
Task56 1 3 3 
Task57 1 3 3 
Task58 1 1 1 
Task59 1 1 1 
Task60 1 3 1 
Task61 1 1 1 
Task62 1 1 3 
Task63 1 1 1 
Task64 1 1 1 
Task65 1 3 3 
Task66 1 1 7 
Task67 3 3 1 
Task68 1 1 1 
Task69 1 1 1 
Task70 3 3 1 
Task71 3 3 1 
Task72 7 7 3 
Task73 1 1 3 
Task74 3 3 3 
Task75 1 3 7 
Task76 1 1 1 
Task77 1 1 1 
Task78 1 7 1 
Task79 3 7 3 
Task80 3 3 1 
Task81 1 3 3 
Task82 1 7 1 
Task83 3 7 1 
Task84 3 3 1 
Task85 3 1 3 
Task86 7 3 7 
Task87 15 3 1 
Task88 7 1 1 
Task89 1 3 7 
Task90 1 1 1 
Task91 1 1 1 
Task92 1 1 1 
Task93 3 3 3 
Task94 1 1 3 
Task95 3 1 3 
Task96 3 7 3 
Task97 7 3 1 
Task98 1 1 1 
Task99 7 1 7 
