files/tasks_parameters/ExAp01/sample8.txt 0.78224 3.15778 1.5595 0.203411 3.38285
files/tasks_parameters/ExAp01/sample12.txt 0.897568 3.94962 1.6705 0.207924 3.4579
files/tasks_parameters/ExAp01/sample2.txt 0.862556 3.78275 1.74131 0.200098 3.32775
files/tasks_parameters/ExAp01/sample44.txt 0.800476 3.59825 1.65317 0.200005 3.32621
files/tasks_parameters/ExAp01/sample27.txt 0.75776 3.45743 1.5148 0.182129 3.02891
files/tasks_parameters/ExAp01/sample17.txt 0.799088 2.77299 1.44514 0.14646 2.43572
files/tasks_parameters/ExAp01/sample9.txt 0.753139 2.99933 1.451 0.177444 2.951
files/tasks_parameters/ExAp01/sample34.txt 0.828815 3.02928 1.58429 0.157984 2.62737
files/tasks_parameters/ExAp01/sample40.txt 0.767634 3.86889 1.52122 0.168379 2.80025
files/tasks_parameters/ExAp01/sample33.txt 0.814264 3.63695 1.71905 0.199765 3.32222
files/tasks_parameters/ExAp01/sample48.txt 0.697078 3.39061 1.49062 0.154728 2.57323
files/tasks_parameters/ExAp01/sample29.txt 0.865541 3.30472 1.38739 0.223868 3.72307
files/tasks_parameters/ExAp01/sample11.txt 0.730365 3.10585 1.41612 0.174079 2.89504
files/tasks_parameters/ExAp01/sample14.txt 0.669581 2.70971 1.43432 0.162214 2.69773
files/tasks_parameters/ExAp01/sample0.txt 0.806884 3.6937 1.5439 0.18367 3.05454
files/tasks_parameters/ExAp01/sample7.txt 0.78083 2.70501 1.42221 0.143463 2.38589
files/tasks_parameters/ExAp01/sample23.txt 0.797816 3.2697 1.57822 0.181448 3.0176
files/tasks_parameters/ExAp01/sample13.txt 0.834296 3.84225 1.67648 0.198247 3.29697
files/tasks_parameters/ExAp01/sample22.txt 0.811755 3.09569 1.56121 0.148796 2.47457
files/tasks_parameters/ExAp01/sample25.txt 0.728267 2.73966 1.5007 0.148149 2.4638
files/tasks_parameters/ExAp01/sample36.txt 0.70854 2.85948 1.28553 0.130042 2.16268
files/tasks_parameters/ExAp01/sample46.txt 0.829332 3.58643 1.69998 0.210103 3.49414
files/tasks_parameters/ExAp01/sample31.txt 0.772537 3.4832 1.53782 0.1722 2.86379
files/tasks_parameters/ExAp01/sample37.txt 0.783496 3.95293 1.50705 0.171701 2.8555
files/tasks_parameters/ExAp01/sample16.txt 0.678171 3.31216 1.30115 0.150249 2.49873
files/tasks_parameters/ExAp01/sample10.txt 0.856814 3.17098 1.61789 0.153776 2.5574
files/tasks_parameters/ExAp01/sample39.txt 0.701597 3.26617 1.44406 0.165669 2.75517
files/tasks_parameters/ExAp01/sample19.txt 0.816868 3.63532 1.52509 0.196094 3.26117
files/tasks_parameters/ExAp01/sample20.txt 0.665469 3.20793 1.25367 0.147335 2.45028
files/tasks_parameters/ExAp01/sample43.txt 0.660149 3.11551 1.4202 0.150644 2.50531
files/tasks_parameters/ExAp01/sample32.txt 0.779453 3.5311 1.42482 0.168744 2.80632
files/tasks_parameters/ExAp01/sample45.txt 0.822146 3.80283 1.48324 0.19807 3.29403
files/tasks_parameters/ExAp01/sample26.txt 0.695132 3.21645 1.29701 0.166061 2.7617
files/tasks_parameters/ExAp01/sample5.txt 0.730535 3.5889 1.52559 0.178903 2.97527
files/tasks_parameters/ExAp01/sample21.txt 0.773629 2.75242 1.55936 0.19512 3.24497
files/tasks_parameters/ExAp01/sample38.txt 0.708461 3.31563 1.37515 0.166157 2.76329
files/tasks_parameters/ExAp01/sample1.txt 0.800937 3.74964 1.51696 0.19701 3.27639
files/tasks_parameters/ExAp01/sample15.txt 0.756906 3.32916 1.48508 0.180707 3.00528
files/tasks_parameters/ExAp01/sample24.txt 0.833403 3.45951 1.59549 0.16529 2.74888
files/tasks_parameters/ExAp01/sample3.txt 0.932605 3.70014 1.70809 0.237107 3.94324
files/tasks_parameters/ExAp01/sample6.txt 0.761079 3.33003 1.58323 0.184714 3.07192
files/tasks_parameters/ExAp01/sample30.txt 1.00385 4.1841 1.4861 0.239623 3.98508
files/tasks_parameters/ExAp01/sample42.txt 0.774955 3.43221 1.70276 0.177383 2.94999
files/tasks_parameters/ExAp01/sample4.txt 0.868689 3.72477 1.6136 0.196448 3.26706
files/tasks_parameters/ExAp01/sample28.txt 0.720173 3.11323 1.45032 0.158819 2.64126
files/tasks_parameters/ExAp01/sample18.txt 0.776844 3.47418 1.45209 0.149064 2.47902
files/tasks_parameters/ExAp01/sample35.txt 0.86894 4.57086 1.49394 0.185031 3.07718
files/tasks_parameters/ExAp01/sample47.txt 0.733683 3.13768 1.52397 0.16417 2.73025
files/tasks_parameters/ExAp01/sample49.txt 0.776734 3.13288 1.49657 0.156154 2.59694
files/tasks_parameters/ExAp01/sample41.txt 0.77121 2.81964 1.49636 0.150876 2.50916
