files/tasks_parameters/ExAp01/sample8.txt 2.667 6.77015 2.19458 0.288816 5.67536
files/tasks_parameters/ExAp01/sample12.txt 3.07236 9.58351 2.46081 0.337498 6.63198
files/tasks_parameters/ExAp01/sample2.txt 2.89555 8.44418 2.50701 0.319127 6.27098
files/tasks_parameters/ExAp01/sample44.txt 2.60687 6.96299 2.23089 0.28229 5.54712
files/tasks_parameters/ExAp01/sample27.txt 2.61261 7.74306 2.16676 0.28602 5.6204
files/tasks_parameters/ExAp01/sample17.txt 2.70985 7.35053 2.25579 0.292348 5.74474
files/tasks_parameters/ExAp01/sample9.txt 2.55782 6.89392 2.21068 0.282399 5.54925
files/tasks_parameters/ExAp01/sample34.txt 2.68321 6.62788 2.3772 0.297742 5.85074
files/tasks_parameters/ExAp01/sample40.txt 2.55766 7.75686 2.17534 0.285619 5.61253
files/tasks_parameters/ExAp01/sample33.txt 3.06291 8.14826 2.6463 0.338073 6.64327
files/tasks_parameters/ExAp01/sample48.txt 2.45891 7.64107 2.14272 0.270011 5.30583
files/tasks_parameters/ExAp01/sample29.txt 2.50396 7.139 1.93769 0.286306 5.62602
files/tasks_parameters/ExAp01/sample11.txt 2.54174 6.88688 2.12981 0.280008 5.50227
files/tasks_parameters/ExAp01/sample14.txt 2.28095 6.11983 1.97599 0.247458 4.86264
files/tasks_parameters/ExAp01/sample0.txt 2.63532 8.2738 2.14256 0.289132 5.68155
files/tasks_parameters/ExAp01/sample7.txt 2.43072 6.87011 2.05821 0.269886 5.30336
files/tasks_parameters/ExAp01/sample23.txt 2.70714 6.52032 2.38087 0.291712 5.73225
files/tasks_parameters/ExAp01/sample13.txt 2.71002 8.73247 2.33415 0.295393 5.80458
files/tasks_parameters/ExAp01/sample22.txt 2.56579 6.9777 2.28948 0.283979 5.5803
files/tasks_parameters/ExAp01/sample25.txt 2.42799 6.23444 2.2122 0.267298 5.2525
files/tasks_parameters/ExAp01/sample36.txt 2.29418 6.6174 1.9458 0.253823 4.98772
files/tasks_parameters/ExAp01/sample46.txt 2.97073 7.42369 2.49128 0.327273 6.43104
files/tasks_parameters/ExAp01/sample31.txt 2.3278 7.22028 2.13584 0.25377 4.98668
files/tasks_parameters/ExAp01/sample37.txt 2.68778 8.90704 2.16981 0.295708 5.81078
files/tasks_parameters/ExAp01/sample16.txt 2.25068 8.18243 1.88294 0.24945 4.90178
files/tasks_parameters/ExAp01/sample10.txt 2.61535 6.96646 2.31217 0.285748 5.61506
files/tasks_parameters/ExAp01/sample39.txt 2.32159 6.4161 1.97266 0.251967 4.95124
files/tasks_parameters/ExAp01/sample19.txt 2.80769 8.16711 2.23199 0.308463 6.06141
files/tasks_parameters/ExAp01/sample20.txt 2.38905 7.28549 1.88944 0.25994 5.10792
files/tasks_parameters/ExAp01/sample43.txt 2.36691 6.86804 2.00142 0.25616 5.03365
files/tasks_parameters/ExAp01/sample32.txt 2.56866 8.15663 2.12995 0.281726 5.53603
files/tasks_parameters/ExAp01/sample45.txt 2.4959 7.75184 2.10599 0.274935 5.40258
files/tasks_parameters/ExAp01/sample26.txt 2.43734 7.4944 1.88956 0.267248 5.25153
files/tasks_parameters/ExAp01/sample5.txt 2.58269 8.08362 2.09961 0.28454 5.59133
files/tasks_parameters/ExAp01/sample21.txt 2.364 6.11814 2.17119 0.26143 5.13719
files/tasks_parameters/ExAp01/sample38.txt 2.44661 7.761 1.96293 0.263659 5.181
files/tasks_parameters/ExAp01/sample1.txt 2.65338 7.83752 2.13261 0.289228 5.68345
files/tasks_parameters/ExAp01/sample15.txt 2.5922 7.37971 2.12057 0.285825 5.61658
files/tasks_parameters/ExAp01/sample24.txt 2.7184 8.28531 2.25272 0.296628 5.82887
files/tasks_parameters/ExAp01/sample3.txt 2.83412 7.33359 2.39135 0.305084 5.99503
files/tasks_parameters/ExAp01/sample6.txt 2.60831 7.09894 2.24425 0.281804 5.53756
files/tasks_parameters/ExAp01/sample30.txt 2.71907 8.17669 2.03701 0.299204 5.87948
files/tasks_parameters/ExAp01/sample42.txt 2.69646 7.70416 2.42413 0.29743 5.84462
files/tasks_parameters/ExAp01/sample4.txt 2.77686 7.41691 2.36261 0.307803 6.04844
files/tasks_parameters/ExAp01/sample28.txt 2.47739 7.0562 2.07657 0.266428 5.23541
files/tasks_parameters/ExAp01/sample18.txt 2.42102 7.60139 2.1377 0.268016 5.26662
files/tasks_parameters/ExAp01/sample35.txt 2.95381 9.66795 2.28028 0.32244 6.33606
files/tasks_parameters/ExAp01/sample47.txt 2.32686 6.84842 2.12104 0.251655 4.94511
files/tasks_parameters/ExAp01/sample49.txt 2.35767 7.1497 2.11412 0.255889 5.02832
files/tasks_parameters/ExAp01/sample41.txt 2.42006 6.59911 2.07359 0.265885 5.22475
