0 4
1 2
1 3
2 5
3 6
3 7
4 5
4 6
5 8
6 9
8 10
10 11
11 12
11 13
13 14
14 15
14 16
15 19
15 20
16 17
16 18
17 23
18 22
19 23
20 21
21 24
22 25
24 28
24 29
25 26
25 27
26 31
29 30
29 31
29 32
31 35
31 36
32 33
32 34
32 36
35 37
37 38
37 39
37 40
39 42
40 41
40 43
41 44
44 45
44 46
44 47
45 49
45 51
46 48
46 49
46 51
47 50
49 52
49 53
52 54
54 55
54 56
54 57
55 58
56 58
57 59
58 61
59 60
60 62
62 63
62 64
62 65
62 66
65 67
67 68
67 69
68 70
68 71
70 73
71 72
71 74
72 76
72 77
73 75
73 78
74 77
76 79
78 79
79 80
80 81
80 82
80 83
80 84
81 86
82 85
85 88
86 87
87 90
87 91
88 89
88 92
89 94
89 95
91 93
92 95
95 96
95 97
96 98
96 99
