files/tasks_parameters/ExAp01/sample8.txt 1.14669 6.77015 2.19458 0.288816 7.75977
files/tasks_parameters/ExAp01/sample12.txt 1.26815 9.58351 2.46081 0.337498 9.06773
files/tasks_parameters/ExAp01/sample2.txt 1.14682 8.44418 2.50701 0.319127 8.57415
files/tasks_parameters/ExAp01/sample44.txt 1.02648 6.96299 2.23089 0.28229 7.58443
files/tasks_parameters/ExAp01/sample27.txt 1.04661 7.74306 2.16676 0.28602 7.68463
files/tasks_parameters/ExAp01/sample17.txt 1.06817 7.35053 2.25579 0.292348 7.85464
files/tasks_parameters/ExAp01/sample9.txt 0.990184 6.89392 2.21068 0.282399 7.58734
files/tasks_parameters/ExAp01/sample34.txt 1.07329 6.62788 2.3772 0.297742 7.99957
files/tasks_parameters/ExAp01/sample40.txt 0.984191 7.75686 2.17534 0.285619 7.67387
files/tasks_parameters/ExAp01/sample33.txt 1.32902 8.14826 2.6463 0.338073 9.08317
files/tasks_parameters/ExAp01/sample48.txt 1.01804 7.64107 2.14272 0.270011 7.25452
files/tasks_parameters/ExAp01/sample29.txt 1.00438 7.139 1.93769 0.286306 7.69231
files/tasks_parameters/ExAp01/sample11.txt 1.05247 6.88688 2.12981 0.280008 7.52312
files/tasks_parameters/ExAp01/sample14.txt 0.867013 6.11983 1.97599 0.247458 6.64856
files/tasks_parameters/ExAp01/sample0.txt 1.04324 8.2738 2.14256 0.289132 7.76824
files/tasks_parameters/ExAp01/sample7.txt 0.999038 6.87011 2.05821 0.269886 7.25114
files/tasks_parameters/ExAp01/sample23.txt 1.12315 6.52032 2.38087 0.291712 7.83755
files/tasks_parameters/ExAp01/sample13.txt 1.1608 8.73247 2.33415 0.295393 7.93645
files/tasks_parameters/ExAp01/sample22.txt 1.06329 6.9777 2.28948 0.283979 7.6298
files/tasks_parameters/ExAp01/sample25.txt 1.03943 6.23444 2.2122 0.267298 7.18162
files/tasks_parameters/ExAp01/sample36.txt 0.910506 6.6174 1.9458 0.253823 6.81958
files/tasks_parameters/ExAp01/sample46.txt 1.21195 7.42369 2.49128 0.327273 8.793
files/tasks_parameters/ExAp01/sample31.txt 0.885038 7.22028 2.13584 0.25377 6.81816
files/tasks_parameters/ExAp01/sample37.txt 1.14825 8.90704 2.16981 0.295708 7.94493
files/tasks_parameters/ExAp01/sample16.txt 0.99268 8.18243 1.88294 0.24945 6.70208
files/tasks_parameters/ExAp01/sample10.txt 1.08659 6.96646 2.31217 0.285748 7.67733
files/tasks_parameters/ExAp01/sample39.txt 1.01531 6.4161 1.97266 0.251967 6.76971
files/tasks_parameters/ExAp01/sample19.txt 1.16564 8.16711 2.23199 0.308463 8.28762
files/tasks_parameters/ExAp01/sample20.txt 0.916727 7.28549 1.88944 0.25994 6.98393
files/tasks_parameters/ExAp01/sample43.txt 0.909499 6.86804 2.00142 0.25616 6.88238
files/tasks_parameters/ExAp01/sample32.txt 1.01589 8.15663 2.12995 0.281726 7.56928
files/tasks_parameters/ExAp01/sample45.txt 1.03059 7.75184 2.10599 0.274935 7.38681
files/tasks_parameters/ExAp01/sample26.txt 0.964355 7.4944 1.88956 0.267248 7.18028
files/tasks_parameters/ExAp01/sample5.txt 1.14384 8.08362 2.09961 0.28454 7.64488
files/tasks_parameters/ExAp01/sample21.txt 0.905655 6.11814 2.17119 0.26143 7.02395
files/tasks_parameters/ExAp01/sample38.txt 0.960682 7.761 1.96293 0.263659 7.08385
files/tasks_parameters/ExAp01/sample1.txt 1.00416 7.83752 2.13261 0.289228 7.77083
files/tasks_parameters/ExAp01/sample15.txt 0.976666 7.37971 2.12057 0.285825 7.67941
files/tasks_parameters/ExAp01/sample24.txt 1.04413 8.28531 2.25272 0.296628 7.96966
files/tasks_parameters/ExAp01/sample3.txt 1.12758 7.33359 2.39135 0.305084 8.19685
files/tasks_parameters/ExAp01/sample6.txt 1.06501 7.09894 2.24425 0.281804 7.57137
files/tasks_parameters/ExAp01/sample30.txt 1.12459 8.17669 2.03701 0.299204 8.03887
files/tasks_parameters/ExAp01/sample42.txt 1.09258 7.70416 2.42413 0.29743 7.99119
files/tasks_parameters/ExAp01/sample4.txt 1.1452 7.41691 2.36261 0.307803 8.26988
files/tasks_parameters/ExAp01/sample28.txt 0.963359 7.0562 2.07657 0.266428 7.15825
files/tasks_parameters/ExAp01/sample18.txt 1.04545 7.60139 2.1377 0.268016 7.20091
files/tasks_parameters/ExAp01/sample35.txt 1.22964 9.66795 2.28028 0.32244 8.66314
files/tasks_parameters/ExAp01/sample47.txt 0.949292 6.84842 2.12104 0.251655 6.76133
files/tasks_parameters/ExAp01/sample49.txt 0.971283 7.1497 2.11412 0.255889 6.87509
files/tasks_parameters/ExAp01/sample41.txt 0.92006 6.59911 2.07359 0.265885 7.14367
