Task0 7 1 15 
Task1 255 255 127 
Task2 1 1 1 
Task3 1 1 1 
Task4 7 3 1 
Task5 3 7 1 
Task6 1 1 1 
Task7 7 15 15 
Task8 3 1 1 
Task9 3 3 1 
Task10 1 3 3 
Task11 3 3 1 
Task12 1 3 3 
Task13 3 1 1 
Task14 3 3 7 
Task15 7 3 1 
Task16 3 15 3 
Task17 1 3 1 
Task18 7 1 7 
Task19 1 1 1 
Task20 7 3 1 
Task21 1 1 1 
Task22 3 3 1 
Task23 3 1 1 
Task24 15 1 7 
Task25 1 1 1 
Task26 3 15 15 
Task27 7 1 7 
Task28 3 7 3 
Task29 1 1 1 
Task30 3 1 3 
Task31 1 3 3 
Task32 1 3 3 
Task33 1 1 1 
Task34 1 1 1 
Task35 3 1 1 
Task36 127 255 127 
Task37 1 7 3 
Task38 7 3 3 
Task39 255 255 255 
Task40 1 1 1 
Task41 7 7 15 
Task42 7 3 7 
Task43 3 1 1 
Task44 3 1 1 
Task45 1 1 3 
Task46 1 1 1 
Task47 1 1 1 
Task48 1 1 1 
Task49 3 3 7 
Task50 3 3 1 
Task51 3 3 1 
Task52 7 1 7 
Task53 3 3 7 
Task54 15 31 7 
Task55 3 1 3 
Task56 255 1 127 
Task57 1 1 1 
Task58 1 1 3 
Task59 1 15 15 
Task60 15 63 31 
Task61 3 1 7 
Task62 1 15 15 
Task63 1 7 7 
Task64 1 1 1 
Task65 3 7 1 
Task66 7 1 7 
Task67 1 1 1 
Task68 31 3 3 
Task69 3 1 3 
Task70 1 1 1 
Task71 1 3 3 
Task72 1 1 1 
Task73 3 3 1 
Task74 1 3 1 
Task75 3 1 3 
Task76 1 1 1 
Task77 3 3 3 
Task78 1 3 7 
Task79 15 3 3 
Task80 1 7 31 
Task81 3 1 3 
Task82 1 1 1 
Task83 1 7 7 
Task84 7 7 3 
Task85 15 7 7 
Task86 3 7 3 
Task87 15 1 15 
Task88 1 1 1 
Task89 63 127 255 
Task90 1 7 7 
Task91 7 15 1 
Task92 7 7 15 
Task93 15 3 1 
Task94 3 1 7 
Task95 1 1 1 
Task96 3 1 1 
Task97 1 3 3 
Task98 1 1 3 
Task99 3 3 1 
