Task0 3 3 1 
Task1 1 1 1 
Task2 7 3 7 
Task3 7 7 3 
Task4 7 1 7 
Task5 3 3 1 
Task6 7 7 1 
Task7 1 3 1 
Task8 15 3 7 
Task9 3 7 3 
Task10 127 15 63 
Task11 1 1 3 
Task12 3 1 3 
Task13 15 15 7 
Task14 15 15 1 
Task15 1 3 3 
Task16 1 3 3 
Task17 7 3 3 
Task18 3 1 1 
Task19 3 1 3 
Task20 3 1 3 
Task21 15 15 1 
Task22 3 1 3 
Task23 3 7 3 
Task24 7 3 3 
Task25 1 3 3 
Task26 3 1 3 
Task27 31 15 63 
Task28 1 3 3 
Task29 1 1 1 
Task30 1 1 3 
Task31 1 1 1 
Task32 1 3 3 
Task33 1 1 1 
Task34 3 3 1 
Task35 1 1 1 
Task36 3 7 15 
Task37 15 1 7 
Task38 7 15 15 
Task39 1 1 3 
Task40 1 1 1 
Task41 1 3 3 
Task42 1 1 3 
Task43 3 1 7 
Task44 7 7 3 
Task45 1 1 1 
Task46 255 63 63 
Task47 1 1 1 
Task48 1 1 3 
Task49 1 1 1 
Task50 1 1 1 
Task51 1 3 7 
Task52 7 7 15 
Task53 3 1 1 
Task54 1 1 1 
Task55 1 3 7 
Task56 3 3 3 
Task57 3 3 1 
Task58 7 3 3 
Task59 1 3 3 
Task60 3 3 1 
Task61 3 3 1 
Task62 3 7 7 
Task63 3 3 1 
Task64 3 1 3 
Task65 15 31 7 
Task66 1 15 7 
Task67 1 1 1 
Task68 3 3 1 
Task69 3 7 1 
Task70 3 1 3 
Task71 1 7 7 
Task72 3 3 1 
Task73 7 3 7 
Task74 3 3 1 
Task75 15 31 7 
Task76 7 7 15 
Task77 1 1 1 
Task78 3 7 3 
Task79 1 1 1 
Task80 7 3 7 
Task81 1 1 1 
Task82 1 1 1 
Task83 15 3 1 
Task84 1 3 3 
Task85 1 3 15 
Task86 3 3 1 
Task87 1 1 3 
Task88 15 31 15 
Task89 1 3 7 
Task90 7 3 7 
Task91 3 7 3 
Task92 3 3 1 
Task93 1 1 1 
Task94 7 31 15 
Task95 1 3 1 
Task96 7 7 1 
Task97 1 3 1 
Task98 1 1 1 
Task99 1 3 3 
