files/tasks_parameters/ExAp01/sample8.txt 0.772158 3.15778 1.5595 0.203411 9.30158
files/tasks_parameters/ExAp01/sample12.txt 0.788204 3.94962 1.6705 0.207924 9.50793
files/tasks_parameters/ExAp01/sample2.txt 0.728583 3.78275 1.74131 0.200098 9.15006
files/tasks_parameters/ExAp01/sample44.txt 0.691508 3.59825 1.65317 0.200005 9.14583
files/tasks_parameters/ExAp01/sample27.txt 0.74323 3.45743 1.5148 0.182129 8.32837
files/tasks_parameters/ExAp01/sample17.txt 0.564373 2.77299 1.44514 0.14646 6.69731
files/tasks_parameters/ExAp01/sample9.txt 0.650619 2.99933 1.451 0.177444 8.11413
files/tasks_parameters/ExAp01/sample34.txt 0.607085 3.02928 1.58429 0.157984 7.22427
files/tasks_parameters/ExAp01/sample40.txt 0.641998 3.86889 1.52122 0.168379 7.69965
files/tasks_parameters/ExAp01/sample33.txt 0.862618 3.63695 1.71905 0.199765 9.13484
files/tasks_parameters/ExAp01/sample48.txt 0.674546 3.39061 1.49062 0.154728 7.07541
files/tasks_parameters/ExAp01/sample29.txt 0.764143 3.30472 1.38739 0.223868 10.237
files/tasks_parameters/ExAp01/sample11.txt 0.661831 3.10585 1.41612 0.174079 7.96026
files/tasks_parameters/ExAp01/sample14.txt 0.612753 2.70971 1.43432 0.162214 7.41774
files/tasks_parameters/ExAp01/sample0.txt 0.690148 3.6937 1.5439 0.18367 8.39885
files/tasks_parameters/ExAp01/sample7.txt 0.551219 2.70501 1.42221 0.143463 6.56029
files/tasks_parameters/ExAp01/sample23.txt 0.65468 3.2697 1.57822 0.181448 8.29727
files/tasks_parameters/ExAp01/sample13.txt 0.724062 3.84225 1.67648 0.198247 9.06543
files/tasks_parameters/ExAp01/sample22.txt 0.580037 3.09569 1.56121 0.148796 6.80415
files/tasks_parameters/ExAp01/sample25.txt 0.529674 2.73966 1.5007 0.148149 6.77453
files/tasks_parameters/ExAp01/sample36.txt 0.475227 2.85948 1.28553 0.130042 5.94657
files/tasks_parameters/ExAp01/sample46.txt 0.759772 3.58643 1.69998 0.210103 9.60757
files/tasks_parameters/ExAp01/sample31.txt 0.610564 3.4832 1.53782 0.1722 7.87435
files/tasks_parameters/ExAp01/sample37.txt 0.696191 3.95293 1.50705 0.171701 7.85154
files/tasks_parameters/ExAp01/sample16.txt 0.611722 3.31216 1.30115 0.150249 6.87058
files/tasks_parameters/ExAp01/sample10.txt 0.648326 3.17098 1.61789 0.153776 7.03188
files/tasks_parameters/ExAp01/sample39.txt 0.638567 3.26617 1.44406 0.165669 7.57569
files/tasks_parameters/ExAp01/sample19.txt 0.727263 3.63532 1.52509 0.196094 8.967
files/tasks_parameters/ExAp01/sample20.txt 0.512067 3.20793 1.25367 0.147335 6.73735
files/tasks_parameters/ExAp01/sample43.txt 0.643472 3.11551 1.4202 0.150644 6.88867
files/tasks_parameters/ExAp01/sample32.txt 0.663798 3.5311 1.42482 0.168744 7.71633
files/tasks_parameters/ExAp01/sample45.txt 0.738152 3.80283 1.48324 0.19807 9.05736
files/tasks_parameters/ExAp01/sample26.txt 0.602608 3.21645 1.29701 0.166061 7.59364
files/tasks_parameters/ExAp01/sample5.txt 0.664616 3.5889 1.52559 0.178903 8.18089
files/tasks_parameters/ExAp01/sample21.txt 0.731879 2.75242 1.55936 0.19512 8.92245
files/tasks_parameters/ExAp01/sample38.txt 0.618181 3.31563 1.37515 0.166157 7.59801
files/tasks_parameters/ExAp01/sample1.txt 0.760265 3.74964 1.51696 0.19701 9.00885
files/tasks_parameters/ExAp01/sample15.txt 0.659986 3.32916 1.48508 0.180707 8.26338
files/tasks_parameters/ExAp01/sample24.txt 0.640349 3.45951 1.59549 0.16529 7.55839
files/tasks_parameters/ExAp01/sample3.txt 0.913758 3.70014 1.70809 0.237107 10.8424
files/tasks_parameters/ExAp01/sample6.txt 0.70182 3.33003 1.58323 0.184714 8.44662
files/tasks_parameters/ExAp01/sample30.txt 0.826604 4.1841 1.4861 0.239623 10.9575
files/tasks_parameters/ExAp01/sample42.txt 0.663988 3.43221 1.70276 0.177383 8.11136
files/tasks_parameters/ExAp01/sample4.txt 0.768186 3.72477 1.6136 0.196448 8.98317
files/tasks_parameters/ExAp01/sample28.txt 0.61525 3.11323 1.45032 0.158819 7.26247
files/tasks_parameters/ExAp01/sample18.txt 0.583924 3.47418 1.45209 0.149064 6.81639
files/tasks_parameters/ExAp01/sample35.txt 0.719708 4.57086 1.49394 0.185031 8.46108
files/tasks_parameters/ExAp01/sample47.txt 0.657268 3.13768 1.52397 0.16417 7.50717
files/tasks_parameters/ExAp01/sample49.txt 0.625307 3.13288 1.49657 0.156154 7.14061
files/tasks_parameters/ExAp01/sample41.txt 0.595467 2.81964 1.49636 0.150876 6.89925
