files/tasks_parameters/ExAp01/sample8.txt 2.23862 6.77015 2.19458 0.288816 4.90663
files/tasks_parameters/ExAp01/sample12.txt 2.60941 9.58351 2.46081 0.337498 5.73368
files/tasks_parameters/ExAp01/sample2.txt 2.50061 8.44418 2.50701 0.319127 5.42158
files/tasks_parameters/ExAp01/sample44.txt 2.16782 6.96299 2.23089 0.28229 4.79576
files/tasks_parameters/ExAp01/sample27.txt 2.22884 7.74306 2.16676 0.28602 4.85912
files/tasks_parameters/ExAp01/sample17.txt 2.27444 7.35053 2.25579 0.292348 4.96662
files/tasks_parameters/ExAp01/sample9.txt 2.17463 6.89392 2.21068 0.282399 4.79761
files/tasks_parameters/ExAp01/sample34.txt 2.31732 6.62788 2.3772 0.297742 5.05826
files/tasks_parameters/ExAp01/sample40.txt 2.20468 7.75686 2.17534 0.285619 4.85232
files/tasks_parameters/ExAp01/sample33.txt 2.62774 8.14826 2.6463 0.338073 5.74345
files/tasks_parameters/ExAp01/sample48.txt 2.09947 7.64107 2.14272 0.270011 4.58716
files/tasks_parameters/ExAp01/sample29.txt 2.19627 7.139 1.93769 0.286306 4.86398
files/tasks_parameters/ExAp01/sample11.txt 2.1546 6.88688 2.12981 0.280008 4.757
files/tasks_parameters/ExAp01/sample14.txt 1.92926 6.11983 1.97599 0.247458 4.204
files/tasks_parameters/ExAp01/sample0.txt 2.2557 8.2738 2.14256 0.289132 4.91199
files/tasks_parameters/ExAp01/sample7.txt 2.08193 6.87011 2.05821 0.269886 4.58502
files/tasks_parameters/ExAp01/sample23.txt 2.25107 6.52032 2.38087 0.291712 4.95582
files/tasks_parameters/ExAp01/sample13.txt 2.27581 8.73247 2.33415 0.295393 5.01836
files/tasks_parameters/ExAp01/sample22.txt 2.21643 6.9777 2.28948 0.283979 4.82446
files/tasks_parameters/ExAp01/sample25.txt 2.07255 6.23444 2.2122 0.267298 4.54106
files/tasks_parameters/ExAp01/sample36.txt 1.97728 6.6174 1.9458 0.253823 4.31213
files/tasks_parameters/ExAp01/sample46.txt 2.53537 7.42369 2.49128 0.327273 5.55996
files/tasks_parameters/ExAp01/sample31.txt 1.9546 7.22028 2.13584 0.25377 4.31124
files/tasks_parameters/ExAp01/sample37.txt 2.31607 8.90704 2.16981 0.295708 5.02371
files/tasks_parameters/ExAp01/sample16.txt 1.93734 8.18243 1.88294 0.24945 4.23784
files/tasks_parameters/ExAp01/sample10.txt 2.23797 6.96646 2.31217 0.285748 4.8545
files/tasks_parameters/ExAp01/sample39.txt 1.93644 6.4161 1.97266 0.251967 4.2806
files/tasks_parameters/ExAp01/sample19.txt 2.40381 8.16711 2.23199 0.308463 5.2404
files/tasks_parameters/ExAp01/sample20.txt 2.00633 7.28549 1.88944 0.25994 4.41606
files/tasks_parameters/ExAp01/sample43.txt 1.96576 6.86804 2.00142 0.25616 4.35184
files/tasks_parameters/ExAp01/sample32.txt 2.15435 8.15663 2.12995 0.281726 4.78618
files/tasks_parameters/ExAp01/sample45.txt 2.11013 7.75184 2.10599 0.274935 4.6708
files/tasks_parameters/ExAp01/sample26.txt 2.08225 7.4944 1.88956 0.267248 4.54021
files/tasks_parameters/ExAp01/sample5.txt 2.23913 8.08362 2.09961 0.28454 4.83399
files/tasks_parameters/ExAp01/sample21.txt 2.00757 6.11814 2.17119 0.26143 4.44137
files/tasks_parameters/ExAp01/sample38.txt 2.02407 7.761 1.96293 0.263659 4.47924
files/tasks_parameters/ExAp01/sample1.txt 2.23521 7.83752 2.13261 0.289228 4.91363
files/tasks_parameters/ExAp01/sample15.txt 2.21418 7.37971 2.12057 0.285825 4.85582
files/tasks_parameters/ExAp01/sample24.txt 2.29518 8.28531 2.25272 0.296628 5.03935
files/tasks_parameters/ExAp01/sample3.txt 2.39592 7.33359 2.39135 0.305084 5.18301
files/tasks_parameters/ExAp01/sample6.txt 2.18777 7.09894 2.24425 0.281804 4.78751
files/tasks_parameters/ExAp01/sample30.txt 2.31886 8.17669 2.03701 0.299204 5.08311
files/tasks_parameters/ExAp01/sample42.txt 2.31314 7.70416 2.42413 0.29743 5.05297
files/tasks_parameters/ExAp01/sample4.txt 2.38523 7.41691 2.36261 0.307803 5.22919
files/tasks_parameters/ExAp01/sample28.txt 2.03956 7.0562 2.07657 0.266428 4.52628
files/tasks_parameters/ExAp01/sample18.txt 2.05691 7.60139 2.1377 0.268016 4.55326
files/tasks_parameters/ExAp01/sample35.txt 2.52736 9.66795 2.28028 0.32244 5.47785
files/tasks_parameters/ExAp01/sample47.txt 1.97455 6.84842 2.12104 0.251655 4.2753
files/tasks_parameters/ExAp01/sample49.txt 1.94298 7.1497 2.11412 0.255889 4.34724
files/tasks_parameters/ExAp01/sample41.txt 2.03802 6.59911 2.07359 0.265885 4.51706
