files/tasks_parameters/ExAp01/sample8.txt 1.08784 3.76817 4.3855 0.450105 12.6166
files/tasks_parameters/ExAp01/sample12.txt 1.49418 5.03638 5.18776 0.610564 17.1143
files/tasks_parameters/ExAp01/sample2.txt 1.39307 4.58991 5.64606 0.613877 17.2072
files/tasks_parameters/ExAp01/sample44.txt 1.28672 3.77401 5.66946 0.551838 15.4682
files/tasks_parameters/ExAp01/sample27.txt 1.29418 4.13937 5.56136 0.55779 15.635
files/tasks_parameters/ExAp01/sample17.txt 1.20439 3.76163 5.38341 0.520991 14.6035
files/tasks_parameters/ExAp01/sample9.txt 1.16082 3.69889 5.2981 0.511699 14.3431
files/tasks_parameters/ExAp01/sample34.txt 1.13513 3.52435 5.83741 0.49187 13.7873
files/tasks_parameters/ExAp01/sample40.txt 1.16964 4.06185 5.0335 0.496884 13.9278
files/tasks_parameters/ExAp01/sample33.txt 1.55311 4.82091 5.83886 0.651963 18.2747
files/tasks_parameters/ExAp01/sample48.txt 1.08638 4.01134 5.07085 0.447927 12.5555
files/tasks_parameters/ExAp01/sample29.txt 1.52388 4.20847 5.0406 0.643694 18.0429
files/tasks_parameters/ExAp01/sample11.txt 1.31879 3.94699 5.29198 0.557276 15.6206
files/tasks_parameters/ExAp01/sample14.txt 1.08628 3.54059 4.58345 0.466713 13.0821
files/tasks_parameters/ExAp01/sample0.txt 1.53414 4.82755 4.90216 0.623551 17.4783
files/tasks_parameters/ExAp01/sample7.txt 1.15002 3.60766 5.11185 0.509566 14.2833
files/tasks_parameters/ExAp01/sample23.txt 1.39278 3.81403 5.45799 0.582911 16.3392
files/tasks_parameters/ExAp01/sample13.txt 1.48704 4.8894 5.26818 0.624499 17.5049
files/tasks_parameters/ExAp01/sample22.txt 1.29069 3.76156 4.95746 0.534216 14.9742
files/tasks_parameters/ExAp01/sample25.txt 0.982879 2.94144 4.92622 0.403639 11.3141
files/tasks_parameters/ExAp01/sample36.txt 1.25826 3.56164 4.5806 0.501799 14.0656
files/tasks_parameters/ExAp01/sample46.txt 1.23268 3.84833 4.7121 0.530701 14.8757
files/tasks_parameters/ExAp01/sample31.txt 1.09919 3.764 5.08385 0.479734 13.4471
files/tasks_parameters/ExAp01/sample37.txt 1.5241 4.43254 5.65111 0.65143 18.2598
files/tasks_parameters/ExAp01/sample16.txt 1.27105 4.49741 4.8895 0.509171 14.2722
files/tasks_parameters/ExAp01/sample10.txt 1.38978 3.87086 6.07511 0.60993 17.0965
files/tasks_parameters/ExAp01/sample39.txt 1.04986 3.66299 4.54281 0.463671 12.9968
files/tasks_parameters/ExAp01/sample19.txt 1.40882 3.86694 5.14047 0.615987 17.2663
files/tasks_parameters/ExAp01/sample20.txt 1.30941 4.09945 5.13368 0.580369 16.2679
files/tasks_parameters/ExAp01/sample43.txt 1.15287 3.75825 5.55698 0.530892 14.8811
files/tasks_parameters/ExAp01/sample32.txt 1.42849 4.0352 5.29178 0.587643 16.4718
files/tasks_parameters/ExAp01/sample45.txt 1.23229 3.94578 4.87833 0.541081 15.1667
files/tasks_parameters/ExAp01/sample26.txt 1.11284 3.50998 4.55035 0.474009 13.2866
files/tasks_parameters/ExAp01/sample5.txt 1.35555 4.00994 5.27725 0.587681 16.4729
files/tasks_parameters/ExAp01/sample21.txt 0.933921 2.8974 4.54677 0.430037 12.0541
files/tasks_parameters/ExAp01/sample38.txt 1.16978 3.56689 4.78573 0.492366 13.8012
files/tasks_parameters/ExAp01/sample1.txt 1.15478 3.69002 4.55048 0.481074 13.4846
files/tasks_parameters/ExAp01/sample15.txt 1.20629 3.73223 5.42493 0.524964 14.7149
files/tasks_parameters/ExAp01/sample24.txt 1.29617 4.18053 5.40377 0.542575 15.2086
files/tasks_parameters/ExAp01/sample3.txt 1.08376 3.70547 4.7118 0.470503 13.1883
files/tasks_parameters/ExAp01/sample6.txt 1.42002 4.07521 5.71419 0.626702 17.5667
files/tasks_parameters/ExAp01/sample30.txt 1.49422 3.97446 5.82388 0.626709 17.5668
files/tasks_parameters/ExAp01/sample42.txt 1.29681 4.44207 5.58473 0.537025 15.053
files/tasks_parameters/ExAp01/sample4.txt 1.32117 3.92181 4.49751 0.556974 15.6122
files/tasks_parameters/ExAp01/sample28.txt 1.07689 3.13496 4.88321 0.444588 12.4619
files/tasks_parameters/ExAp01/sample18.txt 1.22803 3.95301 4.52898 0.537438 15.0645
files/tasks_parameters/ExAp01/sample35.txt 1.90954 5.75923 6.25034 0.752488 21.0925
files/tasks_parameters/ExAp01/sample47.txt 1.16153 3.44018 5.14289 0.540033 15.1373
files/tasks_parameters/ExAp01/sample49.txt 1.19873 3.38981 4.72409 0.493041 13.8201
files/tasks_parameters/ExAp01/sample41.txt 1.10214 3.58692 5.27252 0.492391 13.8019
