files/tasks_parameters/ExAp01/sample8.txt 0.742843 3.15778 1.5595 0.203411 5.30686
files/tasks_parameters/ExAp01/sample12.txt 0.798164 3.94962 1.6705 0.207924 5.42459
files/tasks_parameters/ExAp01/sample2.txt 0.760102 3.78275 1.74131 0.200098 5.22041
files/tasks_parameters/ExAp01/sample44.txt 0.735177 3.59825 1.65317 0.200005 5.218
files/tasks_parameters/ExAp01/sample27.txt 0.692642 3.45743 1.5148 0.182129 4.75161
files/tasks_parameters/ExAp01/sample17.txt 0.571874 2.77299 1.44514 0.14646 3.82104
files/tasks_parameters/ExAp01/sample9.txt 0.676845 2.99933 1.451 0.177444 4.62938
files/tasks_parameters/ExAp01/sample34.txt 0.605642 3.02928 1.58429 0.157984 4.12169
files/tasks_parameters/ExAp01/sample40.txt 0.676255 3.86889 1.52122 0.168379 4.3929
files/tasks_parameters/ExAp01/sample33.txt 0.748235 3.63695 1.71905 0.199765 5.21173
files/tasks_parameters/ExAp01/sample48.txt 0.639678 3.39061 1.49062 0.154728 4.03675
files/tasks_parameters/ExAp01/sample29.txt 0.801294 3.30472 1.38739 0.223868 5.84057
files/tasks_parameters/ExAp01/sample11.txt 0.645293 3.10585 1.41612 0.174079 4.54159
files/tasks_parameters/ExAp01/sample14.txt 0.631291 2.70971 1.43432 0.162214 4.23206
files/tasks_parameters/ExAp01/sample0.txt 0.704224 3.6937 1.5439 0.18367 4.79182
files/tasks_parameters/ExAp01/sample7.txt 0.570019 2.70501 1.42221 0.143463 3.74286
files/tasks_parameters/ExAp01/sample23.txt 0.6865 3.2697 1.57822 0.181448 4.73387
files/tasks_parameters/ExAp01/sample13.txt 0.74413 3.84225 1.67648 0.198247 5.17213
files/tasks_parameters/ExAp01/sample22.txt 0.58351 3.09569 1.56121 0.148796 3.88199
files/tasks_parameters/ExAp01/sample25.txt 0.527744 2.73966 1.5007 0.148149 3.8651
files/tasks_parameters/ExAp01/sample36.txt 0.52923 2.85948 1.28553 0.130042 3.39271
files/tasks_parameters/ExAp01/sample46.txt 0.773042 3.58643 1.69998 0.210103 5.48144
files/tasks_parameters/ExAp01/sample31.txt 0.690505 3.4832 1.53782 0.1722 4.49258
files/tasks_parameters/ExAp01/sample37.txt 0.673751 3.95293 1.50705 0.171701 4.47956
files/tasks_parameters/ExAp01/sample16.txt 0.602457 3.31216 1.30115 0.150249 3.91989
files/tasks_parameters/ExAp01/sample10.txt 0.621148 3.17098 1.61789 0.153776 4.01192
files/tasks_parameters/ExAp01/sample39.txt 0.623244 3.26617 1.44406 0.165669 4.32218
files/tasks_parameters/ExAp01/sample19.txt 0.75909 3.63532 1.52509 0.196094 5.11597
files/tasks_parameters/ExAp01/sample20.txt 0.559485 3.20793 1.25367 0.147335 3.84388
files/tasks_parameters/ExAp01/sample43.txt 0.572703 3.11551 1.4202 0.150644 3.93021
files/tasks_parameters/ExAp01/sample32.txt 0.69124 3.5311 1.42482 0.168744 4.40242
files/tasks_parameters/ExAp01/sample45.txt 0.759506 3.80283 1.48324 0.19807 5.16752
files/tasks_parameters/ExAp01/sample26.txt 0.613345 3.21645 1.29701 0.166061 4.33243
files/tasks_parameters/ExAp01/sample5.txt 0.665669 3.5889 1.52559 0.178903 4.66747
files/tasks_parameters/ExAp01/sample21.txt 0.728438 2.75242 1.55936 0.19512 5.09056
files/tasks_parameters/ExAp01/sample38.txt 0.621803 3.31563 1.37515 0.166157 4.33492
files/tasks_parameters/ExAp01/sample1.txt 0.734958 3.74964 1.51696 0.19701 5.13985
files/tasks_parameters/ExAp01/sample15.txt 0.673364 3.32916 1.48508 0.180707 4.71454
files/tasks_parameters/ExAp01/sample24.txt 0.643438 3.45951 1.59549 0.16529 4.31231
files/tasks_parameters/ExAp01/sample3.txt 0.91183 3.70014 1.70809 0.237107 6.18596
files/tasks_parameters/ExAp01/sample6.txt 0.677672 3.33003 1.58323 0.184714 4.81907
files/tasks_parameters/ExAp01/sample30.txt 0.915931 4.1841 1.4861 0.239623 6.2516
files/tasks_parameters/ExAp01/sample42.txt 0.676696 3.43221 1.70276 0.177383 4.6278
files/tasks_parameters/ExAp01/sample4.txt 0.76787 3.72477 1.6136 0.196448 5.1252
files/tasks_parameters/ExAp01/sample28.txt 0.600291 3.11323 1.45032 0.158819 4.14348
files/tasks_parameters/ExAp01/sample18.txt 0.587136 3.47418 1.45209 0.149064 3.88897
files/tasks_parameters/ExAp01/sample35.txt 0.749529 4.57086 1.49394 0.185031 4.82733
files/tasks_parameters/ExAp01/sample47.txt 0.635653 3.13768 1.52397 0.16417 4.28309
files/tasks_parameters/ExAp01/sample49.txt 0.620094 3.13288 1.49657 0.156154 4.07396
files/tasks_parameters/ExAp01/sample41.txt 0.58044 2.81964 1.49636 0.150876 3.93625
