files/tasks_parameters/ExAp01/sample8.txt 1.08681 7.2562 4.46819 0.454772 11.2348
files/tasks_parameters/ExAp01/sample12.txt 1.599 9.70908 5.28286 0.618515 15.28
files/tasks_parameters/ExAp01/sample2.txt 1.45822 8.14159 5.7401 0.620531 15.3298
files/tasks_parameters/ExAp01/sample44.txt 1.35459 7.25164 5.75904 0.557631 13.7759
files/tasks_parameters/ExAp01/sample27.txt 1.3183 8.10944 5.64946 0.564878 13.9549
files/tasks_parameters/ExAp01/sample17.txt 1.25361 7.11225 5.46658 0.527183 13.0237
files/tasks_parameters/ExAp01/sample9.txt 1.1815 7.62559 5.37813 0.517277 12.779
files/tasks_parameters/ExAp01/sample34.txt 1.2448 7.04587 5.93037 0.497709 12.2955
files/tasks_parameters/ExAp01/sample40.txt 1.22744 8.03037 5.123 0.502383 12.411
files/tasks_parameters/ExAp01/sample33.txt 1.61164 9.22935 5.92956 0.659262 16.2866
files/tasks_parameters/ExAp01/sample48.txt 1.15194 8.12182 5.1577 0.452491 11.1785
files/tasks_parameters/ExAp01/sample29.txt 1.51973 8.06133 5.12331 0.650652 16.0739
files/tasks_parameters/ExAp01/sample11.txt 1.35889 7.63104 5.37897 0.563302 13.916
files/tasks_parameters/ExAp01/sample14.txt 1.13168 6.66403 4.66322 0.471536 11.649
files/tasks_parameters/ExAp01/sample0.txt 1.50443 9.3266 4.98971 0.6311 15.5909
files/tasks_parameters/ExAp01/sample7.txt 1.23235 7.34863 5.19436 0.515527 12.7357
files/tasks_parameters/ExAp01/sample23.txt 1.40203 6.68564 5.54308 0.588617 14.5414
files/tasks_parameters/ExAp01/sample13.txt 1.53396 9.31093 5.35591 0.632849 15.6341
files/tasks_parameters/ExAp01/sample22.txt 1.30635 7.65588 5.04866 0.540336 13.3486
files/tasks_parameters/ExAp01/sample25.txt 1.0295 6.17035 5.0141 0.408296 10.0867
files/tasks_parameters/ExAp01/sample36.txt 1.19007 7.03772 4.66274 0.507647 12.5411
files/tasks_parameters/ExAp01/sample46.txt 1.37122 7.73433 4.79934 0.536843 13.2623
files/tasks_parameters/ExAp01/sample31.txt 1.16998 6.96928 5.16482 0.485817 12.0018
files/tasks_parameters/ExAp01/sample37.txt 1.55148 9.52443 5.74224 0.65799 16.2552
files/tasks_parameters/ExAp01/sample16.txt 1.33876 8.63521 4.97261 0.516328 12.7555
files/tasks_parameters/ExAp01/sample10.txt 1.39877 7.28353 6.16876 0.615651 15.2092
files/tasks_parameters/ExAp01/sample39.txt 1.14417 6.3405 4.6137 0.468873 11.5832
files/tasks_parameters/ExAp01/sample19.txt 1.40347 8.85528 5.22306 0.622152 15.3698
files/tasks_parameters/ExAp01/sample20.txt 1.39217 8.1141 5.21177 0.586994 14.5013
files/tasks_parameters/ExAp01/sample43.txt 1.30697 7.21373 5.6367 0.53748 13.278
files/tasks_parameters/ExAp01/sample32.txt 1.43715 8.30592 5.38137 0.593918 14.6723
files/tasks_parameters/ExAp01/sample45.txt 1.30968 7.94069 4.96323 0.547271 13.5199
files/tasks_parameters/ExAp01/sample26.txt 1.12338 7.57061 4.62637 0.480146 11.8617
files/tasks_parameters/ExAp01/sample5.txt 1.37341 8.0307 5.35681 0.59407 14.6761
files/tasks_parameters/ExAp01/sample21.txt 1.02755 5.87802 4.61744 0.434264 10.7282
files/tasks_parameters/ExAp01/sample38.txt 1.18992 7.66999 4.86632 0.496808 12.2733
files/tasks_parameters/ExAp01/sample1.txt 1.14035 7.21312 4.63213 0.486293 12.0135
files/tasks_parameters/ExAp01/sample15.txt 1.28125 8.02273 5.50855 0.531063 13.1195
files/tasks_parameters/ExAp01/sample24.txt 1.30698 8.66348 5.4905 0.548998 13.5626
files/tasks_parameters/ExAp01/sample3.txt 1.18752 7.74268 4.79918 0.477387 11.7935
files/tasks_parameters/ExAp01/sample6.txt 1.488 8.57133 5.80157 0.633604 15.6527
files/tasks_parameters/ExAp01/sample30.txt 1.66528 8.18878 5.90888 0.633576 15.652
files/tasks_parameters/ExAp01/sample42.txt 1.30673 8.57689 5.67253 0.54426 13.4455
files/tasks_parameters/ExAp01/sample4.txt 1.28142 8.40354 4.57985 0.563519 13.9213
files/tasks_parameters/ExAp01/sample28.txt 1.11252 6.44114 4.96426 0.449721 11.11
files/tasks_parameters/ExAp01/sample18.txt 1.2733 8.56363 4.60946 0.543766 13.4334
files/tasks_parameters/ExAp01/sample35.txt 1.91336 11.0387 6.34514 0.761377 18.8093
files/tasks_parameters/ExAp01/sample47.txt 1.32345 7.14493 5.22131 0.545046 13.465
files/tasks_parameters/ExAp01/sample49.txt 1.29189 6.65996 4.80244 0.498533 12.3159
files/tasks_parameters/ExAp01/sample41.txt 1.18983 7.09069 5.35462 0.497129 12.2812
