digraph G {
0 ->8 0 ->10 0 ->11 0 ->12 0 ->14 0 ->16 1 ->8 1 ->9 1 ->10 1 ->14 1 ->15 1 ->16 2 ->8 2 ->9 2 ->10 2 ->13 2 ->14 2 ->16 2 ->17 3 ->8 3 ->9 3 ->10 3 ->12 3 ->14 3 ->16 4 ->8 4 ->10 4 ->12 4 ->12 4 ->13 4 ->14 4 ->15 4 ->16 6 ->10 6 ->12 6 ->14 6 ->15 7 ->10 7 ->12 7 ->16 8 ->20 8 ->22 8 ->23 8 ->25 8 ->26 9 ->22 9 ->23 9 ->26 10 ->22 10 ->25 10 ->26 11 ->18 11 ->23 11 ->25 12 ->19 12 ->23 12 ->25 13 ->19 13 ->20 13 ->22 13 ->23 13 ->24 13 ->25 14 ->21 14 ->24 14 ->26 15 ->21 15 ->23 16 ->21 16 ->23 17 ->19 17 ->21 17 ->22 17 ->23 17 ->25 18 ->28 18 ->29 18 ->30 18 ->32 18 ->34 18 ->35 18 ->38 19 ->32 19 ->34 19 ->36 19 ->38 20 ->28 20 ->29 20 ->32 20 ->34 20 ->36 20 ->38 20 ->39 21 ->31 21 ->32 21 ->33 21 ->34 21 ->37 22 ->27 22 ->28 22 ->33 22 ->34 22 ->38 23 ->27 23 ->28 23 ->29 23 ->31 23 ->32 23 ->33 23 ->34 23 ->38 23 ->39 24 ->28 24 ->29 24 ->29 24 ->30 24 ->33 24 ->35 24 ->36 25 ->36 25 ->38 26 ->29 26 ->32 26 ->34 26 ->37 26 ->39 27 ->40 27 ->41 27 ->43 27 ->44 28 ->40 28 ->43 28 ->43 28 ->44 29 ->40 29 ->43 30 ->42 31 ->40 31 ->42 31 ->43 31 ->44 32 ->43 32 ->44 33 ->43 34 ->40 34 ->41 34 ->44 35 ->40 35 ->42 35 ->44 36 ->40 37 ->40 37 ->43 38 ->40 38 ->43 38 ->44 39 ->40 39 ->43 39 ->44 40 ->47 40 ->49 40 ->53 40 ->54 40 ->55 41 ->45 41 ->47 41 ->48 41 ->49 42 ->46 42 ->47 42 ->49 42 ->50 42 ->51 42 ->53 42 ->54 43 ->45 43 ->48 43 ->49 43 ->51 43 ->52 43 ->54 43 ->54 43 ->55 44 ->45 44 ->50 44 ->51 45 ->59 45 ->62 45 ->62 45 ->65 45 ->66 46 ->56 46 ->58 46 ->61 46 ->62 46 ->64 46 ->66 47 ->56 47 ->57 47 ->58 47 ->60 47 ->61 47 ->64 47 ->66 48 ->56 48 ->58 48 ->58 48 ->59 48 ->60 48 ->61 48 ->63 48 ->64 49 ->56 49 ->60 49 ->62 49 ->63 50 ->59 50 ->61 50 ->65 51 ->56 51 ->57 51 ->58 51 ->59 51 ->60 51 ->64 51 ->65 51 ->66 53 ->61 53 ->64 54 ->56 54 ->57 54 ->59 54 ->60 54 ->61 55 ->56 55 ->58 55 ->62 55 ->64 56 ->69 56 ->71 56 ->71 56 ->73 56 ->76 57 ->67 57 ->71 57 ->73 57 ->74 58 ->67 58 ->71 58 ->73 58 ->74 59 ->68 59 ->69 59 ->73 59 ->74 60 ->67 60 ->69 60 ->71 60 ->74 61 ->69 61 ->73 61 ->75 62 ->70 63 ->67 63 ->70 63 ->72 63 ->76 64 ->67 64 ->68 65 ->67 65 ->68 65 ->71 65 ->73 65 ->74 65 ->76 66 ->67 66 ->70 66 ->71 67 ->78 67 ->80 67 ->81 67 ->84 67 ->88 67 ->89 68 ->79 68 ->87 68 ->89 69 ->77 69 ->78 69 ->79 69 ->84 69 ->87 70 ->79 70 ->80 70 ->81 70 ->87 70 ->89 71 ->81 71 ->83 71 ->84 71 ->85 71 ->86 71 ->87 71 ->88 71 ->89 72 ->79 72 ->83 72 ->84 72 ->85 72 ->86 72 ->89 73 ->78 73 ->79 73 ->80 73 ->81 73 ->82 73 ->83 73 ->86 73 ->88 74 ->77 74 ->78 74 ->80 74 ->81 74 ->86 75 ->77 75 ->78 75 ->81 75 ->81 75 ->83 75 ->86 75 ->87 76 ->78 76 ->78 76 ->79 76 ->81 76 ->83 76 ->84 76 ->86 76 ->87 76 ->88 77 ->92 77 ->94 78 ->94 79 ->90 79 ->95 80 ->94 81 ->91 83 ->90 83 ->91 83 ->92 83 ->93 83 ->94 84 ->95 85 ->90 85 ->94 86 ->92 86 ->94 87 ->91 87 ->94 88 ->93 88 ->94 89 ->90 89 ->91 89 ->94 89 ->95 90 ->96 90 ->99 91 ->98 93 ->96 93 ->97 93 ->98 94 ->96 94 ->97 94 ->99 95 ->97 95 ->97 95 ->99 
}
