digraph G {
0 ->11 0 ->13 0 ->14 1 ->12 1 ->14 1 ->14 2 ->12 2 ->14 3 ->15 4 ->11 4 ->12 4 ->14 4 ->15 5 ->12 5 ->13 5 ->14 5 ->16 6 ->13 6 ->14 6 ->15 7 ->13 7 ->14 8 ->11 8 ->12 8 ->13 8 ->14 8 ->15 9 ->13 10 ->12 11 ->19 11 ->20 11 ->21 11 ->27 11 ->29 12 ->17 12 ->18 12 ->21 12 ->23 12 ->27 12 ->29 13 ->17 13 ->18 13 ->22 13 ->24 13 ->25 13 ->26 13 ->27 13 ->29 14 ->17 14 ->21 14 ->22 14 ->24 14 ->25 14 ->27 14 ->27 14 ->29 15 ->17 15 ->18 15 ->20 15 ->21 15 ->22 15 ->24 15 ->25 15 ->28 16 ->17 16 ->21 16 ->22 16 ->23 16 ->24 16 ->24 16 ->25 16 ->28 17 ->30 17 ->35 17 ->36 17 ->39 18 ->35 18 ->38 18 ->39 18 ->41 19 ->32 19 ->34 19 ->36 19 ->37 19 ->38 19 ->39 19 ->40 20 ->32 20 ->33 20 ->38 21 ->31 21 ->33 21 ->36 21 ->37 21 ->38 22 ->31 22 ->32 22 ->33 22 ->37 22 ->38 22 ->39 22 ->40 23 ->34 23 ->36 23 ->37 23 ->39 23 ->41 24 ->31 24 ->32 24 ->34 24 ->36 25 ->30 25 ->32 25 ->33 25 ->34 25 ->36 25 ->37 25 ->39 25 ->40 26 ->32 26 ->34 26 ->36 26 ->37 26 ->39 26 ->40 27 ->33 27 ->34 27 ->36 27 ->37 27 ->38 27 ->40 28 ->33 28 ->34 28 ->35 28 ->36 28 ->41 29 ->33 29 ->36 30 ->46 30 ->48 30 ->49 30 ->51 31 ->42 31 ->43 31 ->44 31 ->49 31 ->51 32 ->42 32 ->43 32 ->44 32 ->45 32 ->46 32 ->47 32 ->48 32 ->49 33 ->42 33 ->44 33 ->46 33 ->47 33 ->48 34 ->42 34 ->43 34 ->46 34 ->48 34 ->49 34 ->50 34 ->51 35 ->42 35 ->44 35 ->46 35 ->47 35 ->49 35 ->50 36 ->42 36 ->44 36 ->46 36 ->48 36 ->50 36 ->51 37 ->42 37 ->43 37 ->44 37 ->46 37 ->47 37 ->49 37 ->51 38 ->42 38 ->43 38 ->44 38 ->46 38 ->48 38 ->51 39 ->43 39 ->44 39 ->45 39 ->46 39 ->47 39 ->49 39 ->51 40 ->42 40 ->47 40 ->49 41 ->43 41 ->49 41 ->51 42 ->53 42 ->55 42 ->58 42 ->59 42 ->60 43 ->52 43 ->56 43 ->60 44 ->55 44 ->60 45 ->54 45 ->55 45 ->60 46 ->52 46 ->53 46 ->55 46 ->56 46 ->58 46 ->60 47 ->53 47 ->55 47 ->56 47 ->57 47 ->58 47 ->59 47 ->60 48 ->53 48 ->54 48 ->55 48 ->56 48 ->57 48 ->58 48 ->59 48 ->60 49 ->54 49 ->60 50 ->55 50 ->56 50 ->57 50 ->58 50 ->59 51 ->53 51 ->56 51 ->59 52 ->62 52 ->62 52 ->63 52 ->66 52 ->67 53 ->63 53 ->64 53 ->66 53 ->67 53 ->69 53 ->71 54 ->62 54 ->63 54 ->64 54 ->68 54 ->71 54 ->71 55 ->65 55 ->66 55 ->67 55 ->68 55 ->71 55 ->72 56 ->62 56 ->63 56 ->64 56 ->66 56 ->69 56 ->70 56 ->71 56 ->72 57 ->63 57 ->64 57 ->65 57 ->66 57 ->68 57 ->71 57 ->72 58 ->68 58 ->69 58 ->71 58 ->72 59 ->61 59 ->62 59 ->63 59 ->64 59 ->65 59 ->68 60 ->61 60 ->62 60 ->63 60 ->64 60 ->65 60 ->66 60 ->67 60 ->68 60 ->69 60 ->71 60 ->73 61 ->75 61 ->77 61 ->78 61 ->79 61 ->81 61 ->82 61 ->83 62 ->74 62 ->75 62 ->77 62 ->80 62 ->81 62 ->82 62 ->83 62 ->84 62 ->85 63 ->76 63 ->77 63 ->78 63 ->79 63 ->80 63 ->81 64 ->75 64 ->78 64 ->80 64 ->82 64 ->83 65 ->77 65 ->79 65 ->80 65 ->82 65 ->83 66 ->78 66 ->79 66 ->80 66 ->81 66 ->82 66 ->83 67 ->74 67 ->78 67 ->80 67 ->81 67 ->82 67 ->83 68 ->74 68 ->75 68 ->81 68 ->82 68 ->82 69 ->76 69 ->77 69 ->80 69 ->81 69 ->82 69 ->84 70 ->76 70 ->77 70 ->81 70 ->83 71 ->74 71 ->76 71 ->77 71 ->78 71 ->82 71 ->83 72 ->74 72 ->76 72 ->81 72 ->83 73 ->76 73 ->77 73 ->78 73 ->80 73 ->81 73 ->82 73 ->83 74 ->88 74 ->89 74 ->90 75 ->89 75 ->90 75 ->91 76 ->88 76 ->89 76 ->90 76 ->91 77 ->86 77 ->88 77 ->91 78 ->88 78 ->90 78 ->91 79 ->88 79 ->91 80 ->87 80 ->89 81 ->88 81 ->89 81 ->90 81 ->91 82 ->86 82 ->89 82 ->90 83 ->86 83 ->88 83 ->89 83 ->91 84 ->89 84 ->90 84 ->91 85 ->88 85 ->89 85 ->90 86 ->95 86 ->96 86 ->97 87 ->92 87 ->95 87 ->96 87 ->97 88 ->95 88 ->97 89 ->93 89 ->94 89 ->95 90 ->95 90 ->96 90 ->97 91 ->97 94 ->99 96 ->98 96 ->99 
}
