digraph G {
0 ->6 0 ->9 0 ->10 0 ->14 0 ->16 1 ->5 1 ->6 1 ->8 1 ->9 1 ->14 1 ->15 1 ->17 2 ->6 2 ->6 2 ->7 2 ->8 2 ->9 2 ->10 2 ->11 2 ->12 2 ->13 2 ->14 3 ->5 3 ->7 3 ->8 3 ->10 3 ->12 3 ->14 4 ->5 4 ->8 4 ->9 4 ->10 4 ->12 4 ->16 5 ->20 5 ->21 5 ->25 5 ->26 6 ->18 6 ->20 6 ->21 6 ->23 6 ->25 6 ->27 7 ->20 7 ->21 7 ->22 7 ->25 7 ->25 8 ->21 8 ->22 8 ->22 8 ->23 8 ->24 8 ->25 8 ->27 9 ->18 9 ->20 9 ->21 9 ->22 9 ->23 9 ->24 9 ->25 9 ->27 10 ->19 10 ->21 10 ->23 10 ->27 11 ->23 11 ->25 12 ->19 12 ->20 12 ->21 12 ->23 12 ->24 13 ->18 13 ->21 13 ->23 14 ->18 14 ->22 14 ->23 14 ->25 14 ->26 14 ->27 15 ->18 15 ->23 15 ->23 15 ->27 16 ->25 17 ->21 17 ->24 17 ->26 17 ->27 18 ->32 18 ->35 18 ->36 18 ->38 18 ->38 19 ->29 19 ->32 19 ->37 20 ->30 20 ->31 20 ->32 20 ->36 20 ->37 21 ->28 21 ->29 21 ->31 21 ->32 21 ->35 21 ->36 21 ->37 21 ->38 21 ->39 22 ->28 22 ->30 22 ->31 22 ->35 23 ->31 23 ->33 23 ->37 23 ->38 23 ->39 24 ->31 24 ->32 24 ->35 24 ->36 25 ->29 25 ->31 25 ->32 26 ->29 26 ->30 26 ->31 26 ->34 26 ->35 26 ->36 26 ->38 27 ->29 27 ->31 27 ->32 27 ->36 27 ->38 28 ->40 28 ->41 28 ->43 28 ->44 28 ->45 28 ->46 29 ->40 29 ->41 29 ->43 29 ->45 29 ->46 30 ->40 30 ->41 30 ->42 30 ->43 30 ->44 31 ->40 31 ->41 31 ->42 31 ->43 31 ->45 31 ->46 32 ->40 32 ->41 32 ->43 32 ->43 32 ->45 32 ->46 33 ->43 33 ->45 34 ->43 34 ->45 34 ->46 35 ->40 35 ->41 35 ->42 35 ->45 35 ->46 36 ->41 36 ->44 36 ->45 37 ->40 37 ->41 37 ->42 37 ->44 37 ->45 37 ->46 38 ->40 38 ->41 38 ->43 38 ->44 38 ->46 39 ->40 39 ->41 39 ->43 39 ->44 39 ->45 39 ->46 40 ->48 40 ->48 40 ->49 40 ->52 40 ->55 41 ->49 41 ->50 41 ->52 41 ->53 42 ->49 42 ->51 42 ->53 42 ->54 42 ->55 42 ->56 43 ->47 43 ->50 43 ->51 43 ->53 43 ->54 43 ->55 43 ->56 44 ->48 44 ->51 44 ->53 44 ->54 44 ->55 44 ->56 45 ->50 45 ->52 45 ->53 45 ->54 45 ->55 46 ->47 46 ->48 46 ->49 46 ->50 46 ->51 46 ->55 47 ->61 47 ->61 48 ->58 48 ->61 48 ->63 48 ->64 48 ->65 49 ->61 49 ->64 49 ->65 49 ->68 49 ->69 50 ->62 50 ->63 50 ->64 50 ->65 51 ->58 51 ->59 51 ->64 52 ->58 52 ->59 52 ->63 52 ->64 52 ->66 52 ->68 53 ->58 53 ->59 53 ->60 53 ->62 53 ->63 53 ->64 53 ->69 54 ->58 54 ->62 54 ->63 54 ->64 55 ->57 55 ->58 55 ->61 55 ->62 55 ->64 55 ->65 56 ->58 56 ->61 56 ->67 57 ->70 57 ->71 57 ->72 57 ->73 57 ->74 57 ->76 58 ->71 58 ->72 58 ->73 58 ->78 59 ->71 59 ->72 59 ->73 59 ->75 59 ->78 60 ->70 60 ->73 60 ->74 60 ->78 60 ->78 61 ->73 61 ->78 62 ->72 62 ->73 62 ->74 62 ->77 63 ->72 63 ->77 63 ->78 64 ->72 64 ->73 64 ->74 64 ->76 64 ->77 64 ->78 65 ->70 65 ->74 66 ->70 66 ->72 66 ->74 66 ->76 66 ->78 67 ->70 67 ->72 67 ->73 67 ->75 68 ->70 68 ->71 68 ->73 68 ->74 68 ->75 69 ->71 69 ->73 69 ->74 69 ->75 69 ->78 70 ->80 70 ->81 70 ->86 70 ->88 70 ->90 70 ->91 70 ->92 71 ->79 71 ->80 71 ->85 71 ->89 71 ->90 72 ->80 72 ->81 72 ->84 72 ->85 72 ->87 72 ->89 73 ->80 73 ->81 73 ->84 73 ->87 73 ->89 74 ->80 74 ->81 74 ->83 74 ->87 74 ->88 74 ->90 74 ->91 75 ->84 75 ->86 75 ->88 75 ->90 75 ->91 75 ->92 76 ->82 76 ->87 76 ->90 76 ->91 76 ->92 77 ->80 77 ->81 77 ->87 77 ->88 77 ->91 77 ->92 78 ->80 78 ->87 78 ->87 78 ->88 78 ->91 79 ->93 79 ->95 79 ->96 79 ->97 79 ->98 80 ->93 80 ->95 80 ->97 81 ->93 81 ->96 81 ->97 81 ->99 82 ->94 82 ->96 82 ->98 83 ->95 83 ->96 83 ->97 84 ->93 84 ->94 84 ->95 84 ->96 84 ->98 85 ->93 85 ->95 85 ->96 86 ->93 86 ->97 86 ->98 87 ->94 87 ->95 87 ->97 87 ->98 88 ->94 88 ->95 88 ->96 88 ->97 88 ->98 89 ->93 89 ->95 89 ->97 89 ->98 90 ->93 90 ->95 90 ->96 90 ->98 91 ->93 91 ->95 91 ->98 91 ->98 92 ->94 92 ->95 92 ->96 92 ->97 92 ->98 
}
