files/tasks_parameters/ExAp01/sample8.txt 1.08361 3.76817 4.3855 0.450105 8.17678
files/tasks_parameters/ExAp01/sample12.txt 1.49418 5.03638 5.18776 0.610564 11.0917
files/tasks_parameters/ExAp01/sample2.txt 1.36808 4.58991 5.64606 0.613877 11.1519
files/tasks_parameters/ExAp01/sample44.txt 1.24953 3.77401 5.66946 0.551838 10.0249
files/tasks_parameters/ExAp01/sample27.txt 1.29418 4.13937 5.56136 0.55779 10.133
files/tasks_parameters/ExAp01/sample17.txt 1.19449 3.76163 5.38341 0.520991 9.46453
files/tasks_parameters/ExAp01/sample9.txt 1.1433 3.69889 5.2981 0.511699 9.29573
files/tasks_parameters/ExAp01/sample34.txt 1.13513 3.52435 5.83741 0.49187 8.9355
files/tasks_parameters/ExAp01/sample40.txt 1.15486 4.06185 5.0335 0.496884 9.02659
files/tasks_parameters/ExAp01/sample33.txt 1.55857 4.82091 5.83886 0.651963 11.8438
files/tasks_parameters/ExAp01/sample48.txt 1.07635 4.01134 5.07085 0.447927 8.13722
files/tasks_parameters/ExAp01/sample29.txt 1.41303 4.20847 5.0406 0.643694 11.6936
files/tasks_parameters/ExAp01/sample11.txt 1.31879 3.94699 5.29198 0.557276 10.1237
files/tasks_parameters/ExAp01/sample14.txt 1.08537 3.54059 4.58345 0.466713 8.4785
files/tasks_parameters/ExAp01/sample0.txt 1.46657 4.82755 4.90216 0.623551 11.3277
files/tasks_parameters/ExAp01/sample7.txt 1.15002 3.60766 5.11185 0.509566 9.25697
files/tasks_parameters/ExAp01/sample23.txt 1.41579 3.81403 5.45799 0.582911 10.5894
files/tasks_parameters/ExAp01/sample13.txt 1.49914 4.8894 5.26818 0.624499 11.3449
files/tasks_parameters/ExAp01/sample22.txt 1.24485 3.76156 4.95746 0.534216 9.70478
files/tasks_parameters/ExAp01/sample25.txt 0.976769 2.94144 4.92622 0.403639 7.33267
files/tasks_parameters/ExAp01/sample36.txt 1.25826 3.56164 4.5806 0.501799 9.11587
files/tasks_parameters/ExAp01/sample46.txt 1.23268 3.84833 4.7121 0.530701 9.64092
files/tasks_parameters/ExAp01/sample31.txt 1.07702 3.764 5.08385 0.479734 8.71503
files/tasks_parameters/ExAp01/sample37.txt 1.52462 4.43254 5.65111 0.65143 11.8341
files/tasks_parameters/ExAp01/sample16.txt 1.23049 4.49741 4.8895 0.509171 9.24979
files/tasks_parameters/ExAp01/sample10.txt 1.38978 3.87086 6.07511 0.60993 11.0802
files/tasks_parameters/ExAp01/sample39.txt 1.04986 3.66299 4.54281 0.463671 8.42323
files/tasks_parameters/ExAp01/sample19.txt 1.37717 3.86694 5.14047 0.615987 11.1903
files/tasks_parameters/ExAp01/sample20.txt 1.30362 4.09945 5.13368 0.580369 10.5432
files/tasks_parameters/ExAp01/sample43.txt 1.17203 3.75825 5.55698 0.530892 9.64439
files/tasks_parameters/ExAp01/sample32.txt 1.42952 4.0352 5.29178 0.587643 10.6754
files/tasks_parameters/ExAp01/sample45.txt 1.21753 3.94578 4.87833 0.541081 9.82949
files/tasks_parameters/ExAp01/sample26.txt 1.10312 3.50998 4.55035 0.474009 8.61103
files/tasks_parameters/ExAp01/sample5.txt 1.3564 4.00994 5.27725 0.587681 10.676
files/tasks_parameters/ExAp01/sample21.txt 0.935749 2.8974 4.54677 0.430037 7.81222
files/tasks_parameters/ExAp01/sample38.txt 1.16624 3.56689 4.78573 0.492366 8.94452
files/tasks_parameters/ExAp01/sample1.txt 1.14158 3.69002 4.55048 0.481074 8.73937
files/tasks_parameters/ExAp01/sample15.txt 1.20629 3.73223 5.42493 0.524964 9.5367
files/tasks_parameters/ExAp01/sample24.txt 1.20389 4.18053 5.40377 0.542575 9.85663
files/tasks_parameters/ExAp01/sample3.txt 1.08376 3.70547 4.7118 0.470503 8.54734
files/tasks_parameters/ExAp01/sample6.txt 1.38737 4.07521 5.71419 0.626702 11.3849
files/tasks_parameters/ExAp01/sample30.txt 1.46769 3.97446 5.82388 0.626709 11.385
files/tasks_parameters/ExAp01/sample42.txt 1.29681 4.44207 5.58473 0.537025 9.7558
files/tasks_parameters/ExAp01/sample4.txt 1.36214 3.92181 4.49751 0.556974 10.1182
files/tasks_parameters/ExAp01/sample28.txt 1.05518 3.13496 4.88321 0.444588 8.07656
files/tasks_parameters/ExAp01/sample18.txt 1.22803 3.95301 4.52898 0.537438 9.7633
files/tasks_parameters/ExAp01/sample35.txt 1.79181 5.75923 6.25034 0.752488 13.67
files/tasks_parameters/ExAp01/sample47.txt 1.16153 3.44018 5.14289 0.540033 9.81045
files/tasks_parameters/ExAp01/sample49.txt 1.23301 3.38981 4.72409 0.493041 8.95678
files/tasks_parameters/ExAp01/sample41.txt 1.10214 3.58692 5.27252 0.492391 8.94496
