files/tasks_parameters/ExAp01/sample8.txt 2.41476 6.77015 2.19458 0.288816 6.92423
files/tasks_parameters/ExAp01/sample12.txt 2.83139 9.58351 2.46081 0.337498 8.09135
files/tasks_parameters/ExAp01/sample2.txt 2.65788 8.44418 2.50701 0.319127 7.65091
files/tasks_parameters/ExAp01/sample44.txt 2.37053 6.96299 2.23089 0.28229 6.76777
files/tasks_parameters/ExAp01/sample27.txt 2.36429 7.74306 2.16676 0.28602 6.85718
files/tasks_parameters/ExAp01/sample17.txt 2.43693 7.35053 2.25579 0.292348 7.00888
files/tasks_parameters/ExAp01/sample9.txt 2.37173 6.89392 2.21068 0.282399 6.77037
files/tasks_parameters/ExAp01/sample34.txt 2.49139 6.62788 2.3772 0.297742 7.1382
files/tasks_parameters/ExAp01/sample40.txt 2.40612 7.75686 2.17534 0.285619 6.84758
files/tasks_parameters/ExAp01/sample33.txt 2.86723 8.14826 2.6463 0.338073 8.10513
files/tasks_parameters/ExAp01/sample48.txt 2.2573 7.64107 2.14272 0.270011 6.47338
files/tasks_parameters/ExAp01/sample29.txt 2.22584 7.139 1.93769 0.286306 6.86403
files/tasks_parameters/ExAp01/sample11.txt 2.31746 6.88688 2.12981 0.280008 6.71306
files/tasks_parameters/ExAp01/sample14.txt 2.07966 6.11983 1.97599 0.247458 5.93267
files/tasks_parameters/ExAp01/sample0.txt 2.43243 8.2738 2.14256 0.289132 6.93179
files/tasks_parameters/ExAp01/sample7.txt 2.28465 6.87011 2.05821 0.269886 6.47037
files/tasks_parameters/ExAp01/sample23.txt 2.45288 6.52032 2.38087 0.291712 6.99364
files/tasks_parameters/ExAp01/sample13.txt 2.47873 8.73247 2.33415 0.295393 7.08189
files/tasks_parameters/ExAp01/sample22.txt 2.38397 6.9777 2.28948 0.283979 6.80826
files/tasks_parameters/ExAp01/sample25.txt 2.25289 6.23444 2.2122 0.267298 6.40833
files/tasks_parameters/ExAp01/sample36.txt 2.08093 6.6174 1.9458 0.253823 6.08527
files/tasks_parameters/ExAp01/sample46.txt 2.7654 7.42369 2.49128 0.327273 7.8462
files/tasks_parameters/ExAp01/sample31.txt 2.14275 7.22028 2.13584 0.25377 6.084
files/tasks_parameters/ExAp01/sample37.txt 2.44884 8.90704 2.16981 0.295708 7.08945
files/tasks_parameters/ExAp01/sample16.txt 2.08858 8.18243 1.88294 0.24945 5.98043
files/tasks_parameters/ExAp01/sample10.txt 2.39393 6.96646 2.31217 0.285748 6.85066
files/tasks_parameters/ExAp01/sample39.txt 2.10023 6.4161 1.97266 0.251967 6.04077
files/tasks_parameters/ExAp01/sample19.txt 2.59832 8.16711 2.23199 0.308463 7.39524
files/tasks_parameters/ExAp01/sample20.txt 2.18361 7.28549 1.88944 0.25994 6.23192
files/tasks_parameters/ExAp01/sample43.txt 2.14227 6.86804 2.00142 0.25616 6.14131
files/tasks_parameters/ExAp01/sample32.txt 2.37148 8.15663 2.12995 0.281726 6.75425
files/tasks_parameters/ExAp01/sample45.txt 2.29377 7.75184 2.10599 0.274935 6.59142
files/tasks_parameters/ExAp01/sample26.txt 2.26012 7.4944 1.88956 0.267248 6.40713
files/tasks_parameters/ExAp01/sample5.txt 2.38609 8.08362 2.09961 0.28454 6.82171
files/tasks_parameters/ExAp01/sample21.txt 2.19409 6.11814 2.17119 0.26143 6.26764
files/tasks_parameters/ExAp01/sample38.txt 2.20904 7.761 1.96293 0.263659 6.32109
files/tasks_parameters/ExAp01/sample1.txt 2.42322 7.83752 2.13261 0.289228 6.9341
files/tasks_parameters/ExAp01/sample15.txt 2.41698 7.37971 2.12057 0.285825 6.85252
files/tasks_parameters/ExAp01/sample24.txt 2.4888 8.28531 2.25272 0.296628 7.11152
files/tasks_parameters/ExAp01/sample3.txt 2.51888 7.33359 2.39135 0.305084 7.31424
files/tasks_parameters/ExAp01/sample6.txt 2.33903 7.09894 2.24425 0.281804 6.75611
files/tasks_parameters/ExAp01/sample30.txt 2.51358 8.17669 2.03701 0.299204 7.17327
files/tasks_parameters/ExAp01/sample42.txt 2.46628 7.70416 2.42413 0.29743 7.13073
files/tasks_parameters/ExAp01/sample4.txt 2.56371 7.41691 2.36261 0.307803 7.37941
files/tasks_parameters/ExAp01/sample28.txt 2.25353 7.0562 2.07657 0.266428 6.38747
files/tasks_parameters/ExAp01/sample18.txt 2.23632 7.60139 2.1377 0.268016 6.42555
files/tasks_parameters/ExAp01/sample35.txt 2.66323 9.66795 2.28028 0.32244 7.73033
files/tasks_parameters/ExAp01/sample47.txt 2.08051 6.84842 2.12104 0.251655 6.03329
files/tasks_parameters/ExAp01/sample49.txt 2.13046 7.1497 2.11412 0.255889 6.13481
files/tasks_parameters/ExAp01/sample41.txt 2.21053 6.59911 2.07359 0.265885 6.37447
