0.29777560000000003
Task0 1 1 63 
Task1 15 3 31 
Task2 15 63 15 
Task3 1 31 15 
Task4 31 15 15 
Task5 31 31 15 
Task6 15 63 3 
Task7 15 15 15 
Task8 7 31 7 
Task9 7 63 7 
Task10 15 31 31 
Task11 255 63 255 
Task12 3 7 31 
Task13 31 15 15 
Task14 7 15 15 
Task15 255 31 15 
Task16 63 3 15 
Task17 7 31 15 
Task18 1 1 31 
Task19 15 7 15 
Task20 1 15 15 
Task21 7 15 31 
Task22 63 15 255 
Task23 31 1 7 
Task24 7 3 15 
Task25 31 15 1 
Task26 31 15 31 
Task27 31 127 255 
Task28 3 3 31 
Task29 31 3 63 
Task30 15 31 31 
Task31 31 1 3 
Task32 31 1 15 
Task33 1 3 31 
Task34 3 7 15 
Task35 1 31 3 
Task36 15 15 15 
Task37 31 15 3 
Task38 31 31 31 
Task39 31 31 3 
Task40 15 15 3 
Task41 15 31 3 
Task42 63 1 31 
Task43 31 127 63 
Task44 31 31 31 
Task45 31 31 63 
Task46 3 31 31 
Task47 255 255 255 
Task48 15 7 31 
Task49 63 63 127 
Task50 63 7 31 
Task51 3 3 31 
Task52 3 7 63 
Task53 3 3 31 
Task54 15 15 1 
Task55 31 7 7 
Task56 1 15 31 
Task57 15 1 7 
Task58 7 7 31 
Task59 31 63 31 
Task60 7 1 31 
Task61 31 7 1 
Task62 7 15 31 
Task63 31 3 3 
Task64 15 31 31 
Task65 7 15 31 
Task66 7 7 31 
Task67 31 63 31 
Task68 1 31 7 
Task69 7 31 3 
Task70 7 3 63 
Task71 7 7 15 
Task72 127 127 63 
Task73 31 3 1 
Task74 15 1 63 
Task75 31 15 3 
Task76 63 7 15 
Task77 31 31 7 
Task78 15 15 7 
Task79 15 3 31 
Task80 31 7 7 
Task81 3 1 31 
Task82 3 15 31 
Task83 15 7 31 
Task84 15 3 31 
Task85 255 15 127 
Task86 127 31 1 
Task87 15 63 31 
Task88 31 3 15 
Task89 3 1 31 
Task90 15 63 63 
Task91 31 15 31 
Task92 1 7 31 
Task93 63 1 3 
Task94 15 31 63 
Task95 63 63 255 
Task96 15 31 1 
Task97 63 31 7 
Task98 31 1 1 
Task99 31 15 31 
