0.48322105400000004
Task0 15 31 31 
Task1 7 255 63 
Task2 3 7 63 
Task3 15 63 15 
Task4 3 1 63 
Task5 1 7 63 
Task6 63 1 1 
Task7 127 31 15 
Task8 3 1 63 
Task9 63 63 15 
Task10 31 255 15 
Task11 1 63 7 
Task12 7 15 63 
Task13 255 7 15 
Task14 127 127 63 
Task15 127 31 63 
Task16 127 127 63 
Task17 1 63 7 
Task18 127 63 127 
Task19 15 3 63 
Task20 1 63 15 
Task21 63 15 63 
Task22 31 15 31 
Task23 31 127 31 
Task24 63 7 1 
Task25 7 63 7 
Task26 3 63 31 
Task27 255 63 127 
Task28 31 127 127 
Task29 255 31 255 
Task30 31 63 31 
Task31 63 15 7 
Task32 31 31 255 
Task33 15 255 63 
Task34 1 63 63 
Task35 63 3 7 
Task36 63 255 63 
Task37 15 31 63 
Task38 3 1 63 
Task39 1 63 15 
Task40 1 3 63 
Task41 63 127 3 
Task42 7 31 63 
Task43 63 127 63 
Task44 7 63 7 
Task45 255 255 15 
Task46 7 255 127 
Task47 63 7 31 
Task48 15 127 63 
Task49 255 127 127 
Task50 63 3 31 
Task51 7 63 31 
Task52 7 63 63 
Task53 255 1 31 
Task54 63 63 15 
Task55 3 63 127 
Task56 7 15 31 
Task57 7 31 63 
Task58 255 255 7 
Task59 3 31 63 
Task60 31 63 63 
Task61 63 31 7 
Task62 63 255 63 
Task63 7 63 1 
Task64 63 1 1 
Task65 31 255 31 
Task66 31 127 127 
Task67 3 63 7 
Task68 3 15 63 
Task69 255 127 255 
Task70 15 3 63 
Task71 15 15 63 
Task72 63 15 7 
Task73 63 15 1 
Task74 3 63 7 
Task75 63 7 63 
Task76 255 255 255 
Task77 15 63 7 
Task78 63 31 127 
Task79 63 31 15 
Task80 7 7 63 
Task81 31 63 63 
Task82 31 7 63 
Task83 255 63 127 
Task84 7 7 63 
Task85 31 3 31 
Task86 63 31 3 
Task87 15 63 15 
Task88 1 1 63 
Task89 255 3 31 
Task90 15 15 63 
Task91 15 3 63 
Task92 63 1 7 
Task93 31 15 63 
Task94 31 31 15 
Task95 31 255 63 
Task96 1 7 63 
Task97 255 31 3 
Task98 1 1 63 
Task99 15 7 63 
