Task0 1 1 1 
Task1 1 1 1 
Task2 1 1 1 
Task3 15 1 1 
Task4 1 1 1 
Task5 1 1 1 
Task6 3 3 1 
Task7 1 1 7 
Task8 3 1 1 
Task9 1 1 3 
Task10 1 1 1 
Task11 3 1 3 
Task12 3 1 1 
Task13 3 1 1 
Task14 1 1 1 
Task15 1 1 1 
Task16 1 1 1 
Task17 1 3 1 
Task18 1 1 1 
Task19 15 1 15 
Task20 1 1 1 
Task21 1 1 1 
Task22 1 1 1 
Task23 3 1 3 
Task24 1 1 1 
Task25 1 1 1 
Task26 7 1 1 
Task27 1 3 1 
Task28 1 3 1 
Task29 3 3 1 
Task30 1 1 1 
Task31 1 1 1 
Task32 3 1 1 
Task33 1 1 1 
Task34 1 1 1 
Task35 1 1 1 
Task36 3 3 1 
Task37 1 1 1 
Task38 1 1 1 
Task39 1 1 3 
Task40 1 1 1 
Task41 1 1 1 
Task42 1 1 1 
Task43 1 1 1 
Task44 1 1 1 
Task45 1 1 1 
Task46 1 1 1 
Task47 1 1 1 
Task48 1 1 1 
Task49 1 1 1 
Task50 1 3 1 
Task51 1 1 1 
Task52 3 1 1 
Task53 1 1 1 
Task54 1 1 1 
Task55 1 1 1 
Task56 1 1 1 
Task57 3 1 3 
Task58 1 3 1 
Task59 3 1 3 
Task60 1 1 1 
Task61 3 1 3 
Task62 1 1 1 
Task63 3 7 3 
Task64 1 1 1 
Task65 1 1 1 
Task66 1 3 1 
Task67 1 1 1 
Task68 1 1 1 
Task69 1 1 1 
Task70 1 3 3 
Task71 1 1 1 
Task72 3 1 1 
Task73 1 1 1 
Task74 1 3 1 
Task75 1 1 3 
Task76 1 1 1 
Task77 1 3 1 
Task78 1 1 1 
Task79 1 1 1 
Task80 1 1 3 
Task81 1 1 1 
Task82 1 1 1 
Task83 1 1 1 
Task84 3 1 1 
Task85 1 1 1 
Task86 1 7 3 
Task87 3 3 1 
Task88 1 1 1 
Task89 1 1 1 
Task90 7 1 3 
Task91 1 1 1 
Task92 1 1 1 
Task93 1 1 1 
Task94 1 1 1 
Task95 1 1 1 
Task96 1 1 1 
Task97 1 1 1 
Task98 1 1 1 
Task99 1 1 1 
