Task0 1 1 1 
Task1 1 15 15 
Task2 7 3 1 
Task3 1 1 1 
Task4 1 1 1 
Task5 1 1 1 
Task6 1 1 3 
Task7 1 1 1 
Task8 1 1 1 
Task9 1 1 3 
Task10 1 1 1 
Task11 1 1 1 
Task12 1 1 1 
Task13 1 1 1 
Task14 1 1 1 
Task15 1 1 1 
Task16 1 1 1 
Task17 1 1 1 
Task18 1 1 1 
Task19 1 1 1 
Task20 3 1 1 
Task21 1 1 1 
Task22 1 1 1 
Task23 1 1 1 
Task24 3 3 1 
Task25 3 1 1 
Task26 1 1 1 
Task27 1 1 1 
Task28 1 1 3 
Task29 1 1 1 
Task30 3 1 1 
Task31 7 1 7 
Task32 1 1 1 
Task33 1 1 1 
Task34 1 1 3 
Task35 3 3 1 
Task36 1 1 1 
Task37 7 3 1 
Task38 3 3 3 
Task39 3 1 1 
Task40 3 3 1 
Task41 3 1 1 
Task42 3 1 1 
Task43 1 1 1 
Task44 3 7 1 
Task45 1 1 3 
Task46 1 1 1 
Task47 1 1 1 
Task48 3 1 1 
Task49 1 1 1 
Task50 1 1 1 
Task51 1 3 7 
Task52 1 1 3 
Task53 1 1 1 
Task54 1 1 3 
Task55 1 1 1 
Task56 3 3 1 
Task57 7 1 7 
Task58 1 1 1 
Task59 1 7 3 
Task60 1 1 1 
Task61 1 1 1 
Task62 3 3 3 
Task63 1 1 3 
Task64 1 1 1 
Task65 3 1 1 
Task66 3 1 1 
Task67 3 1 3 
Task68 1 1 1 
Task69 1 1 1 
Task70 1 3 1 
Task71 1 1 3 
Task72 3 1 7 
Task73 3 1 1 
Task74 1 1 1 
Task75 1 3 3 
Task76 1 3 1 
Task77 3 1 1 
Task78 3 1 1 
Task79 1 3 1 
Task80 1 3 1 
Task81 1 1 3 
Task82 1 3 1 
Task83 1 1 1 
Task84 3 1 1 
Task85 1 1 1 
Task86 1 1 3 
Task87 1 1 1 
Task88 3 1 1 
Task89 1 1 1 
Task90 1 1 1 
Task91 3 3 1 
Task92 1 1 1 
Task93 1 1 1 
Task94 3 1 3 
Task95 1 1 3 
Task96 1 1 1 
Task97 1 1 1 
Task98 1 1 1 
Task99 7 1 7 
