0.36289691999999996
Task0 7 31 7 
Task1 63 15 15 
Task2 31 3 63 
Task3 31 15 7 
Task4 7 63 1 
Task5 3 31 63 
Task6 7 3 31 
Task7 63 1 127 
Task8 15 63 15 
Task9 3 31 3 
Task10 63 7 63 
Task11 63 255 15 
Task12 15 31 15 
Task13 15 31 15 
Task14 255 127 63 
Task15 31 63 63 
Task16 31 31 31 
Task17 63 15 31 
Task18 7 63 15 
Task19 7 31 7 
Task20 127 63 31 
Task21 15 3 63 
Task22 7 63 7 
Task23 63 15 7 
Task24 63 1 31 
Task25 15 255 255 
Task26 7 63 31 
Task27 31 1 31 
Task28 63 63 3 
Task29 31 63 15 
Task30 31 1 7 
Task31 63 1 15 
Task32 31 31 7 
Task33 127 31 63 
Task34 31 7 3 
Task35 7 31 3 
Task36 63 15 7 
Task37 31 7 31 
Task38 15 63 31 
Task39 15 63 63 
Task40 15 31 31 
Task41 31 7 31 
Task42 63 31 7 
Task43 31 3 15 
Task44 3 31 7 
Task45 31 31 31 
Task46 255 255 31 
Task47 15 15 63 
Task48 3 31 63 
Task49 31 1 7 
Task50 31 3 3 
Task51 7 31 7 
Task52 15 31 1 
Task53 31 15 3 
Task54 3 31 1 
Task55 1 1 31 
Task56 63 15 31 
Task57 127 63 31 
Task58 63 1 255 
Task59 1 7 31 
Task60 1 63 3 
Task61 127 31 255 
Task62 31 31 7 
Task63 31 3 1 
Task64 3 1 31 
Task65 1 31 31 
Task66 7 63 31 
Task67 3 15 31 
Task68 63 127 31 
Task69 31 7 7 
Task70 15 15 31 
Task71 15 63 1 
Task72 63 31 7 
Task73 31 63 31 
Task74 31 1 63 
Task75 31 63 63 
Task76 31 7 15 
Task77 3 63 31 
Task78 31 15 63 
Task79 63 7 63 
Task80 63 15 63 
Task81 15 31 63 
Task82 3 31 7 
Task83 31 31 63 
Task84 7 31 15 
Task85 7 31 255 
Task86 3 1 31 
Task87 255 31 127 
Task88 1 3 31 
Task89 3 31 3 
Task90 63 3 7 
Task91 7 31 31 
Task92 31 63 15 
Task93 63 63 1 
Task94 63 3 15 
Task95 31 3 31 
Task96 3 15 63 
Task97 31 15 31 
Task98 3 7 31 
Task99 255 63 127 
