0.29629723
Task0 15 1 63 
Task1 63 63 31 
Task2 63 3 127 
Task3 15 63 1 
Task4 127 3 127 
Task5 127 31 31 
Task6 31 63 7 
Task7 15 31 1 
Task8 255 63 63 
Task9 7 31 1 
Task10 63 15 15 
Task11 31 7 63 
Task12 7 255 63 
Task13 15 31 7 
Task14 255 127 63 
Task15 31 255 63 
Task16 1 1 63 
Task17 3 7 31 
Task18 31 31 63 
Task19 63 31 255 
Task20 255 15 15 
Task21 63 31 1 
Task22 1 3 15 
Task23 7 3 31 
Task24 15 1 127 
Task25 255 7 255 
Task26 15 63 7 
Task27 63 255 127 
Task28 15 15 15 
Task29 31 63 63 
Task30 31 15 31 
Task31 63 255 255 
Task32 31 31 7 
Task33 15 31 63 
Task34 15 15 31 
Task35 3 127 31 
Task36 63 15 15 
Task37 3 63 3 
Task38 63 31 15 
Task39 15 31 255 
Task40 63 15 127 
Task41 63 31 15 
Task42 127 255 255 
Task43 255 127 255 
Task44 63 63 63 
Task45 127 31 31 
Task46 7 31 7 
Task47 15 15 63 
Task48 31 7 3 
Task49 255 3 63 
Task50 63 15 31 
Task51 255 3 1 
Task52 255 255 63 
Task53 7 63 127 
Task54 7 31 31 
Task55 63 15 31 
Task56 15 63 31 
Task57 15 31 15 
Task58 1 31 7 
Task59 1 1 15 
Task60 3 3 15 
Task61 15 31 63 
Task62 31 3 63 
Task63 31 15 3 
Task64 1 31 15 
Task65 31 15 7 
Task66 15 63 1 
Task67 255 127 15 
Task68 15 31 63 
Task69 15 1 255 
Task70 31 31 15 
Task71 63 31 31 
Task72 3 15 255 
Task73 63 63 63 
Task74 255 31 7 
Task75 63 7 63 
Task76 7 63 3 
Task77 63 7 7 
Task78 31 31 1 
Task79 255 7 63 
Task80 7 31 1 
Task81 15 63 127 
Task82 15 7 63 
Task83 31 31 255 
Task84 15 31 15 
Task85 15 7 31 
Task86 63 1 7 
Task87 15 3 3 
Task88 15 15 255 
Task89 31 127 63 
Task90 1 31 31 
Task91 3 63 7 
Task92 63 63 63 
Task93 1 63 7 
Task94 15 15 31 
Task95 63 255 63 
Task96 63 3 63 
Task97 1 63 31 
Task98 255 255 63 
Task99 15 31 15 
