files/tasks_parameters/ExAp01/sample8.txt 1.11144 7.2562 4.46819 0.454772 11.5561
files/tasks_parameters/ExAp01/sample12.txt 1.64361 9.70908 5.28286 0.618515 15.717
files/tasks_parameters/ExAp01/sample2.txt 1.50039 8.14159 5.7401 0.620531 15.7682
files/tasks_parameters/ExAp01/sample44.txt 1.39834 7.25164 5.75904 0.557631 14.1698
files/tasks_parameters/ExAp01/sample27.txt 1.3183 8.10944 5.64946 0.564878 14.354
files/tasks_parameters/ExAp01/sample17.txt 1.27005 7.11225 5.46658 0.527183 13.3962
files/tasks_parameters/ExAp01/sample9.txt 1.21466 7.62559 5.37813 0.517277 13.1444
files/tasks_parameters/ExAp01/sample34.txt 1.2448 7.04587 5.93037 0.497709 12.6472
files/tasks_parameters/ExAp01/sample40.txt 1.201 8.03037 5.123 0.502383 12.7659
files/tasks_parameters/ExAp01/sample33.txt 1.63735 9.22935 5.92956 0.659262 16.7524
files/tasks_parameters/ExAp01/sample48.txt 1.15851 8.12182 5.1577 0.452491 11.4981
files/tasks_parameters/ExAp01/sample29.txt 1.5562 8.06133 5.12331 0.650652 16.5336
files/tasks_parameters/ExAp01/sample11.txt 1.35889 7.63104 5.37897 0.563302 14.314
files/tasks_parameters/ExAp01/sample14.txt 1.13168 6.66403 4.66322 0.471536 11.9821
files/tasks_parameters/ExAp01/sample0.txt 1.64632 9.3266 4.98971 0.6311 16.0367
files/tasks_parameters/ExAp01/sample7.txt 1.30147 7.34863 5.19436 0.515527 13.1
files/tasks_parameters/ExAp01/sample23.txt 1.40575 6.68564 5.54308 0.588617 14.9572
files/tasks_parameters/ExAp01/sample13.txt 1.65291 9.31093 5.35591 0.632849 16.0812
files/tasks_parameters/ExAp01/sample22.txt 1.29523 7.65588 5.04866 0.540336 13.7304
files/tasks_parameters/ExAp01/sample25.txt 1.0295 6.17035 5.0141 0.408296 10.3751
files/tasks_parameters/ExAp01/sample36.txt 1.1881 7.03772 4.66274 0.507647 12.8997
files/tasks_parameters/ExAp01/sample46.txt 1.3517 7.73433 4.79934 0.536843 13.6416
files/tasks_parameters/ExAp01/sample31.txt 1.19045 6.96928 5.16482 0.485817 12.345
files/tasks_parameters/ExAp01/sample37.txt 1.63322 9.52443 5.74224 0.65799 16.72
files/tasks_parameters/ExAp01/sample16.txt 1.43967 8.63521 4.97261 0.516328 13.1203
files/tasks_parameters/ExAp01/sample10.txt 1.39877 7.28353 6.16876 0.615651 15.6442
files/tasks_parameters/ExAp01/sample39.txt 1.14417 6.3405 4.6137 0.468873 11.9144
files/tasks_parameters/ExAp01/sample19.txt 1.63133 8.85528 5.22306 0.622152 15.8094
files/tasks_parameters/ExAp01/sample20.txt 1.39431 8.1141 5.21177 0.586994 14.916
files/tasks_parameters/ExAp01/sample43.txt 1.30697 7.21373 5.6367 0.53748 13.6578
files/tasks_parameters/ExAp01/sample32.txt 1.60384 8.30592 5.38137 0.593918 15.0919
files/tasks_parameters/ExAp01/sample45.txt 1.42266 7.94069 4.96323 0.547271 13.9066
files/tasks_parameters/ExAp01/sample26.txt 1.12661 7.57061 4.62637 0.480146 12.2009
files/tasks_parameters/ExAp01/sample5.txt 1.49461 8.0307 5.35681 0.59407 15.0958
files/tasks_parameters/ExAp01/sample21.txt 1.02755 5.87802 4.61744 0.434264 11.035
files/tasks_parameters/ExAp01/sample38.txt 1.18509 7.66999 4.86632 0.496808 12.6243
files/tasks_parameters/ExAp01/sample1.txt 1.1831 7.21312 4.63213 0.486293 12.3571
files/tasks_parameters/ExAp01/sample15.txt 1.28125 8.02273 5.50855 0.531063 13.4947
files/tasks_parameters/ExAp01/sample24.txt 1.32473 8.66348 5.4905 0.548998 13.9505
files/tasks_parameters/ExAp01/sample3.txt 1.18752 7.74268 4.79918 0.477387 12.1308
files/tasks_parameters/ExAp01/sample6.txt 1.50658 8.57133 5.80157 0.633604 16.1004
files/tasks_parameters/ExAp01/sample30.txt 1.69722 8.18878 5.90888 0.633576 16.0997
files/tasks_parameters/ExAp01/sample42.txt 1.305 8.57689 5.67253 0.54426 13.8301
files/tasks_parameters/ExAp01/sample4.txt 1.34401 8.40354 4.57985 0.563519 14.3195
files/tasks_parameters/ExAp01/sample28.txt 1.07499 6.44114 4.96426 0.449721 11.4278
files/tasks_parameters/ExAp01/sample18.txt 1.30766 8.56363 4.60946 0.543766 13.8175
files/tasks_parameters/ExAp01/sample35.txt 1.98373 11.0387 6.34514 0.761377 19.3472
files/tasks_parameters/ExAp01/sample47.txt 1.32345 7.14493 5.22131 0.545046 13.85
files/tasks_parameters/ExAp01/sample49.txt 1.32859 6.65996 4.80244 0.498533 12.6681
files/tasks_parameters/ExAp01/sample41.txt 1.18983 7.09069 5.35462 0.497129 12.6324
