files/tasks_parameters/ExAp01/sample8.txt 1.08361 3.76817 4.3855 0.450105 10.5725
files/tasks_parameters/ExAp01/sample12.txt 1.49418 5.03638 5.18776 0.610564 14.3416
files/tasks_parameters/ExAp01/sample2.txt 1.38407 4.58991 5.64606 0.613877 14.4194
files/tasks_parameters/ExAp01/sample44.txt 1.24953 3.77401 5.66946 0.551838 12.9621
files/tasks_parameters/ExAp01/sample27.txt 1.29418 4.13937 5.56136 0.55779 13.1019
files/tasks_parameters/ExAp01/sample17.txt 1.19425 3.76163 5.38341 0.520991 12.2376
files/tasks_parameters/ExAp01/sample9.txt 1.16196 3.69889 5.2981 0.511699 12.0193
files/tasks_parameters/ExAp01/sample34.txt 1.13513 3.52435 5.83741 0.49187 11.5535
files/tasks_parameters/ExAp01/sample40.txt 1.15486 4.06185 5.0335 0.496884 11.6713
files/tasks_parameters/ExAp01/sample33.txt 1.55311 4.82091 5.83886 0.651963 15.314
files/tasks_parameters/ExAp01/sample48.txt 1.07591 4.01134 5.07085 0.447927 10.5214
files/tasks_parameters/ExAp01/sample29.txt 1.46141 4.20847 5.0406 0.643694 15.1197
files/tasks_parameters/ExAp01/sample11.txt 1.31879 3.94699 5.29198 0.557276 13.0899
files/tasks_parameters/ExAp01/sample14.txt 1.08588 3.54059 4.58345 0.466713 10.9626
files/tasks_parameters/ExAp01/sample0.txt 1.50821 4.82755 4.90216 0.623551 14.6466
files/tasks_parameters/ExAp01/sample7.txt 1.15002 3.60766 5.11185 0.509566 11.9692
files/tasks_parameters/ExAp01/sample23.txt 1.4156 3.81403 5.45799 0.582911 13.692
files/tasks_parameters/ExAp01/sample13.txt 1.48754 4.8894 5.26818 0.624499 14.6689
files/tasks_parameters/ExAp01/sample22.txt 1.29069 3.76156 4.95746 0.534216 12.5482
files/tasks_parameters/ExAp01/sample25.txt 0.982879 2.94144 4.92622 0.403639 9.48109
files/tasks_parameters/ExAp01/sample36.txt 1.25826 3.56164 4.5806 0.501799 11.7868
files/tasks_parameters/ExAp01/sample46.txt 1.23268 3.84833 4.7121 0.530701 12.4656
files/tasks_parameters/ExAp01/sample31.txt 1.09929 3.764 5.08385 0.479734 11.2685
files/tasks_parameters/ExAp01/sample37.txt 1.52462 4.43254 5.65111 0.65143 15.3015
files/tasks_parameters/ExAp01/sample16.txt 1.27177 4.49741 4.8895 0.509171 11.9599
files/tasks_parameters/ExAp01/sample10.txt 1.38978 3.87086 6.07511 0.60993 14.3266
files/tasks_parameters/ExAp01/sample39.txt 1.04986 3.66299 4.54281 0.463671 10.8912
files/tasks_parameters/ExAp01/sample19.txt 1.40931 3.86694 5.14047 0.615987 14.4689
files/tasks_parameters/ExAp01/sample20.txt 1.30362 4.09945 5.13368 0.580369 13.6323
files/tasks_parameters/ExAp01/sample43.txt 1.15361 3.75825 5.55698 0.530892 12.4701
files/tasks_parameters/ExAp01/sample32.txt 1.42874 4.0352 5.29178 0.587643 13.8032
files/tasks_parameters/ExAp01/sample45.txt 1.22581 3.94578 4.87833 0.541081 12.7095
files/tasks_parameters/ExAp01/sample26.txt 1.11294 3.50998 4.55035 0.474009 11.134
files/tasks_parameters/ExAp01/sample5.txt 1.35575 4.00994 5.27725 0.587681 13.804
files/tasks_parameters/ExAp01/sample21.txt 0.934999 2.8974 4.54677 0.430037 10.1011
files/tasks_parameters/ExAp01/sample38.txt 1.17206 3.56689 4.78573 0.492366 11.5652
files/tasks_parameters/ExAp01/sample1.txt 1.15503 3.69002 4.55048 0.481074 11.3
files/tasks_parameters/ExAp01/sample15.txt 1.20629 3.73223 5.42493 0.524964 12.3309
files/tasks_parameters/ExAp01/sample24.txt 1.29656 4.18053 5.40377 0.542575 12.7446
files/tasks_parameters/ExAp01/sample3.txt 1.08376 3.70547 4.7118 0.470503 11.0517
files/tasks_parameters/ExAp01/sample6.txt 1.42024 4.07521 5.71419 0.626702 14.7206
files/tasks_parameters/ExAp01/sample30.txt 1.49474 3.97446 5.82388 0.626709 14.7208
files/tasks_parameters/ExAp01/sample42.txt 1.29681 4.44207 5.58473 0.537025 12.6142
files/tasks_parameters/ExAp01/sample4.txt 1.33293 3.92181 4.49751 0.556974 13.0828
files/tasks_parameters/ExAp01/sample28.txt 1.06695 3.13496 4.88321 0.444588 10.4429
files/tasks_parameters/ExAp01/sample18.txt 1.22803 3.95301 4.52898 0.537438 12.6239
files/tasks_parameters/ExAp01/sample35.txt 1.80832 5.75923 6.25034 0.752488 17.6752
files/tasks_parameters/ExAp01/sample47.txt 1.16153 3.44018 5.14289 0.540033 12.6849
files/tasks_parameters/ExAp01/sample49.txt 1.22901 3.38981 4.72409 0.493041 11.5811
files/tasks_parameters/ExAp01/sample41.txt 1.10214 3.58692 5.27252 0.492391 11.5658
