files/tasks_parameters/ExAp01/sample8.txt 1.10649 7.2562 4.46819 0.454772 24.7953
files/tasks_parameters/ExAp01/sample12.txt 1.59608 9.70908 5.28286 0.618515 33.7229
files/tasks_parameters/ExAp01/sample2.txt 1.5324 8.14159 5.7401 0.620531 33.8328
files/tasks_parameters/ExAp01/sample44.txt 1.35345 7.25164 5.75904 0.557631 30.4033
files/tasks_parameters/ExAp01/sample27.txt 1.31326 8.10944 5.64946 0.564878 30.7985
files/tasks_parameters/ExAp01/sample17.txt 1.27877 7.11225 5.46658 0.527183 28.7433
files/tasks_parameters/ExAp01/sample9.txt 1.21043 7.62559 5.37813 0.517277 28.2032
files/tasks_parameters/ExAp01/sample34.txt 1.22346 7.04587 5.93037 0.497709 27.1363
files/tasks_parameters/ExAp01/sample40.txt 1.22212 8.03037 5.123 0.502383 27.3911
files/tasks_parameters/ExAp01/sample33.txt 1.59588 9.22935 5.92956 0.659262 35.9445
files/tasks_parameters/ExAp01/sample48.txt 1.13238 8.12182 5.1577 0.452491 24.6708
files/tasks_parameters/ExAp01/sample29.txt 1.485 8.06133 5.12331 0.650652 35.4751
files/tasks_parameters/ExAp01/sample11.txt 1.37972 7.63104 5.37897 0.563302 30.7125
files/tasks_parameters/ExAp01/sample14.txt 1.12691 6.66403 4.66322 0.471536 25.7093
files/tasks_parameters/ExAp01/sample0.txt 1.6161 9.3266 4.98971 0.6311 34.409
files/tasks_parameters/ExAp01/sample7.txt 1.23491 7.34863 5.19436 0.515527 28.1078
files/tasks_parameters/ExAp01/sample23.txt 1.40496 6.68564 5.54308 0.588617 32.0928
files/tasks_parameters/ExAp01/sample13.txt 1.59755 9.31093 5.35591 0.632849 34.5044
files/tasks_parameters/ExAp01/sample22.txt 1.35969 7.65588 5.04866 0.540336 29.4604
files/tasks_parameters/ExAp01/sample25.txt 1.10263 6.17035 5.0141 0.408296 22.2613
files/tasks_parameters/ExAp01/sample36.txt 1.32088 7.03772 4.66274 0.507647 27.6781
files/tasks_parameters/ExAp01/sample46.txt 1.34887 7.73433 4.79934 0.536843 29.27
files/tasks_parameters/ExAp01/sample31.txt 1.15726 6.96928 5.16482 0.485817 26.4879
files/tasks_parameters/ExAp01/sample37.txt 1.58823 9.52443 5.74224 0.65799 35.8751
files/tasks_parameters/ExAp01/sample16.txt 1.33104 8.63521 4.97261 0.516328 28.1514
files/tasks_parameters/ExAp01/sample10.txt 1.38491 7.28353 6.16876 0.615651 33.5667
files/tasks_parameters/ExAp01/sample39.txt 1.13467 6.3405 4.6137 0.468873 25.5641
files/tasks_parameters/ExAp01/sample19.txt 1.45152 8.85528 5.22306 0.622152 33.9212
files/tasks_parameters/ExAp01/sample20.txt 1.39217 8.1141 5.21177 0.586994 32.0043
files/tasks_parameters/ExAp01/sample43.txt 1.27328 7.21373 5.6367 0.53748 29.3047
files/tasks_parameters/ExAp01/sample32.txt 1.45074 8.30592 5.38137 0.593918 32.3818
files/tasks_parameters/ExAp01/sample45.txt 1.40665 7.94069 4.96323 0.547271 29.8385
files/tasks_parameters/ExAp01/sample26.txt 1.1191 7.57061 4.62637 0.480146 26.1787
files/tasks_parameters/ExAp01/sample5.txt 1.37766 8.0307 5.35681 0.59407 32.3901
files/tasks_parameters/ExAp01/sample21.txt 1.02196 5.87802 4.61744 0.434264 23.6771
files/tasks_parameters/ExAp01/sample38.txt 1.17435 7.66999 4.86632 0.496808 27.0872
files/tasks_parameters/ExAp01/sample1.txt 1.15111 7.21312 4.63213 0.486293 26.5139
files/tasks_parameters/ExAp01/sample15.txt 1.21787 8.02273 5.50855 0.531063 28.9548
files/tasks_parameters/ExAp01/sample24.txt 1.3472 8.66348 5.4905 0.548998 29.9327
files/tasks_parameters/ExAp01/sample3.txt 1.18534 7.74268 4.79918 0.477387 26.0283
files/tasks_parameters/ExAp01/sample6.txt 1.50992 8.57133 5.80157 0.633604 34.5456
files/tasks_parameters/ExAp01/sample30.txt 1.58957 8.18878 5.90888 0.633576 34.5441
files/tasks_parameters/ExAp01/sample42.txt 1.32612 8.57689 5.67253 0.54426 29.6743
files/tasks_parameters/ExAp01/sample4.txt 1.2773 8.40354 4.57985 0.563519 30.7244
files/tasks_parameters/ExAp01/sample28.txt 1.06581 6.44114 4.96426 0.449721 24.5199
files/tasks_parameters/ExAp01/sample18.txt 1.35116 8.56363 4.60946 0.543766 29.6474
files/tasks_parameters/ExAp01/sample35.txt 1.90938 11.0387 6.34514 0.761377 41.5121
files/tasks_parameters/ExAp01/sample47.txt 1.30463 7.14493 5.22131 0.545046 29.7172
files/tasks_parameters/ExAp01/sample49.txt 1.28457 6.65996 4.80244 0.498533 27.1812
files/tasks_parameters/ExAp01/sample41.txt 1.17777 7.09069 5.35462 0.497129 27.1046
