files/tasks_parameters/ExAp01/sample8.txt 1.1488 6.77015 2.19458 0.288816 17.6456
files/tasks_parameters/ExAp01/sample12.txt 1.33981 9.58351 2.46081 0.337498 20.6199
files/tasks_parameters/ExAp01/sample2.txt 1.20587 8.44418 2.50701 0.319127 19.4975
files/tasks_parameters/ExAp01/sample44.txt 1.0685 6.96299 2.23089 0.28229 17.2469
files/tasks_parameters/ExAp01/sample27.txt 1.09613 7.74306 2.16676 0.28602 17.4747
files/tasks_parameters/ExAp01/sample17.txt 1.10742 7.35053 2.25579 0.292348 17.8613
files/tasks_parameters/ExAp01/sample9.txt 1.15421 6.89392 2.21068 0.282399 17.2535
files/tasks_parameters/ExAp01/sample34.txt 1.08781 6.62788 2.3772 0.297742 18.1909
files/tasks_parameters/ExAp01/sample40.txt 1.0066 7.75686 2.17534 0.285619 17.4503
files/tasks_parameters/ExAp01/sample33.txt 1.2925 8.14826 2.6463 0.338073 20.655
files/tasks_parameters/ExAp01/sample48.txt 0.984721 7.64107 2.14272 0.270011 16.4967
files/tasks_parameters/ExAp01/sample29.txt 1.21983 7.139 1.93769 0.286306 17.4922
files/tasks_parameters/ExAp01/sample11.txt 1.06525 6.88688 2.12981 0.280008 17.1075
files/tasks_parameters/ExAp01/sample14.txt 0.892041 6.11983 1.97599 0.247458 15.1187
files/tasks_parameters/ExAp01/sample0.txt 1.1888 8.2738 2.14256 0.289132 17.6649
files/tasks_parameters/ExAp01/sample7.txt 0.997332 6.87011 2.05821 0.269886 16.489
files/tasks_parameters/ExAp01/sample23.txt 1.12622 6.52032 2.38087 0.291712 17.8225
files/tasks_parameters/ExAp01/sample13.txt 1.16179 8.73247 2.33415 0.295393 18.0474
files/tasks_parameters/ExAp01/sample22.txt 1.0421 6.9777 2.28948 0.283979 17.3501
files/tasks_parameters/ExAp01/sample25.txt 0.911014 6.23444 2.2122 0.267298 16.3309
files/tasks_parameters/ExAp01/sample36.txt 0.945402 6.6174 1.9458 0.253823 15.5076
files/tasks_parameters/ExAp01/sample46.txt 1.32283 7.42369 2.49128 0.327273 19.9951
files/tasks_parameters/ExAp01/sample31.txt 0.978835 7.22028 2.13584 0.25377 15.5044
files/tasks_parameters/ExAp01/sample37.txt 1.10459 8.90704 2.16981 0.295708 18.0667
files/tasks_parameters/ExAp01/sample16.txt 0.966302 8.18243 1.88294 0.24945 15.2404
files/tasks_parameters/ExAp01/sample10.txt 1.06627 6.96646 2.31217 0.285748 17.4581
files/tasks_parameters/ExAp01/sample39.txt 0.99543 6.4161 1.97266 0.251967 15.3942
files/tasks_parameters/ExAp01/sample19.txt 1.2942 8.16711 2.23199 0.308463 18.8459
files/tasks_parameters/ExAp01/sample20.txt 1.01336 7.28549 1.88944 0.25994 15.8813
files/tasks_parameters/ExAp01/sample43.txt 0.944441 6.86804 2.00142 0.25616 15.6504
files/tasks_parameters/ExAp01/sample32.txt 1.1316 8.15663 2.12995 0.281726 17.2124
files/tasks_parameters/ExAp01/sample45.txt 1.17066 7.75184 2.10599 0.274935 16.7975
files/tasks_parameters/ExAp01/sample26.txt 1.01728 7.4944 1.88956 0.267248 16.3279
files/tasks_parameters/ExAp01/sample5.txt 1.13717 8.08362 2.09961 0.28454 17.3843
files/tasks_parameters/ExAp01/sample21.txt 1.06773 6.11814 2.17119 0.26143 15.9724
files/tasks_parameters/ExAp01/sample38.txt 1.01945 7.761 1.96293 0.263659 16.1086
files/tasks_parameters/ExAp01/sample1.txt 1.15035 7.83752 2.13261 0.289228 17.6708
files/tasks_parameters/ExAp01/sample15.txt 1.07612 7.37971 2.12057 0.285825 17.4629
files/tasks_parameters/ExAp01/sample24.txt 1.10365 8.28531 2.25272 0.296628 18.1229
files/tasks_parameters/ExAp01/sample3.txt 1.29561 7.33359 2.39135 0.305084 18.6395
files/tasks_parameters/ExAp01/sample6.txt 1.04003 7.09894 2.24425 0.281804 17.2172
files/tasks_parameters/ExAp01/sample30.txt 1.33502 8.17669 2.03701 0.299204 18.2803
files/tasks_parameters/ExAp01/sample42.txt 1.07972 7.70416 2.42413 0.29743 18.1719
files/tasks_parameters/ExAp01/sample4.txt 1.24915 7.41691 2.36261 0.307803 18.8056
files/tasks_parameters/ExAp01/sample28.txt 1.09171 7.0562 2.07657 0.266428 16.2777
files/tasks_parameters/ExAp01/sample18.txt 0.994576 7.60139 2.1377 0.268016 16.3748
files/tasks_parameters/ExAp01/sample35.txt 1.31098 9.66795 2.28028 0.32244 19.6999
files/tasks_parameters/ExAp01/sample47.txt 0.986693 6.84842 2.12104 0.251655 15.3752
files/tasks_parameters/ExAp01/sample49.txt 1.00235 7.1497 2.11412 0.255889 15.6339
files/tasks_parameters/ExAp01/sample41.txt 1.01296 6.59911 2.07359 0.265885 16.2446
