files/tasks_parameters/ExAp01/sample8.txt 1.12786 7.2562 4.46819 0.454772 29.2822
files/tasks_parameters/ExAp01/sample12.txt 1.6355 9.70908 5.28286 0.618515 39.8253
files/tasks_parameters/ExAp01/sample2.txt 1.50979 8.14159 5.7401 0.620531 39.9551
files/tasks_parameters/ExAp01/sample44.txt 1.3807 7.25164 5.75904 0.557631 35.9051
files/tasks_parameters/ExAp01/sample27.txt 1.31133 8.10944 5.64946 0.564878 36.3718
files/tasks_parameters/ExAp01/sample17.txt 1.25197 7.11225 5.46658 0.527183 33.9446
files/tasks_parameters/ExAp01/sample9.txt 1.23117 7.62559 5.37813 0.517277 33.3068
files/tasks_parameters/ExAp01/sample34.txt 1.23474 7.04587 5.93037 0.497709 32.0468
files/tasks_parameters/ExAp01/sample40.txt 1.22326 8.03037 5.123 0.502383 32.3477
files/tasks_parameters/ExAp01/sample33.txt 1.64332 9.22935 5.92956 0.659262 42.449
files/tasks_parameters/ExAp01/sample48.txt 1.1812 8.12182 5.1577 0.452491 29.1352
files/tasks_parameters/ExAp01/sample29.txt 1.56678 8.06133 5.12331 0.650652 41.8946
files/tasks_parameters/ExAp01/sample11.txt 1.36807 7.63104 5.37897 0.563302 36.2702
files/tasks_parameters/ExAp01/sample14.txt 1.1404 6.66403 4.66322 0.471536 30.3616
files/tasks_parameters/ExAp01/sample0.txt 1.53994 9.3266 4.98971 0.6311 40.6357
files/tasks_parameters/ExAp01/sample7.txt 1.2805 7.34863 5.19436 0.515527 33.1941
files/tasks_parameters/ExAp01/sample23.txt 1.42208 6.68564 5.54308 0.588617 37.9003
files/tasks_parameters/ExAp01/sample13.txt 1.70671 9.31093 5.35591 0.632849 40.7483
files/tasks_parameters/ExAp01/sample22.txt 1.32115 7.65588 5.04866 0.540336 34.7915
files/tasks_parameters/ExAp01/sample25.txt 1.09382 6.17035 5.0141 0.408296 26.2896
files/tasks_parameters/ExAp01/sample36.txt 1.23154 7.03772 4.66274 0.507647 32.6867
files/tasks_parameters/ExAp01/sample46.txt 1.4141 7.73433 4.79934 0.536843 34.5666
files/tasks_parameters/ExAp01/sample31.txt 1.25692 6.96928 5.16482 0.485817 31.2811
files/tasks_parameters/ExAp01/sample37.txt 1.63616 9.52443 5.74224 0.65799 42.367
files/tasks_parameters/ExAp01/sample16.txt 1.36321 8.63521 4.97261 0.516328 33.2456
files/tasks_parameters/ExAp01/sample10.txt 1.41515 7.28353 6.16876 0.615651 39.6409
files/tasks_parameters/ExAp01/sample39.txt 1.13607 6.3405 4.6137 0.468873 30.1901
files/tasks_parameters/ExAp01/sample19.txt 1.64579 8.85528 5.22306 0.622152 40.0595
files/tasks_parameters/ExAp01/sample20.txt 1.40147 8.1141 5.21177 0.586994 37.7957
files/tasks_parameters/ExAp01/sample43.txt 1.32369 7.21373 5.6367 0.53748 34.6076
files/tasks_parameters/ExAp01/sample32.txt 1.6155 8.30592 5.38137 0.593918 38.2416
files/tasks_parameters/ExAp01/sample45.txt 1.44051 7.94069 4.96323 0.547271 35.238
files/tasks_parameters/ExAp01/sample26.txt 1.17146 7.57061 4.62637 0.480146 30.9159
files/tasks_parameters/ExAp01/sample5.txt 1.47548 8.0307 5.35681 0.59407 38.2513
files/tasks_parameters/ExAp01/sample21.txt 1.10165 5.87802 4.61744 0.434264 27.9617
files/tasks_parameters/ExAp01/sample38.txt 1.22565 7.66999 4.86632 0.496808 31.9888
files/tasks_parameters/ExAp01/sample1.txt 1.21531 7.21312 4.63213 0.486293 31.3118
files/tasks_parameters/ExAp01/sample15.txt 1.24835 8.02273 5.50855 0.531063 34.1944
files/tasks_parameters/ExAp01/sample24.txt 1.40449 8.66348 5.4905 0.548998 35.3492
files/tasks_parameters/ExAp01/sample3.txt 1.1842 7.74268 4.79918 0.477387 30.7383
files/tasks_parameters/ExAp01/sample6.txt 1.63283 8.57133 5.80157 0.633604 40.7969
files/tasks_parameters/ExAp01/sample30.txt 1.72155 8.18878 5.90888 0.633576 40.7951
files/tasks_parameters/ExAp01/sample42.txt 1.32868 8.57689 5.67253 0.54426 35.0441
files/tasks_parameters/ExAp01/sample4.txt 1.38811 8.40354 4.57985 0.563519 36.2842
files/tasks_parameters/ExAp01/sample28.txt 1.14485 6.44114 4.96426 0.449721 28.9569
files/tasks_parameters/ExAp01/sample18.txt 1.3985 8.56363 4.60946 0.543766 35.0124
files/tasks_parameters/ExAp01/sample35.txt 1.94414 11.0387 6.34514 0.761377 49.024
files/tasks_parameters/ExAp01/sample47.txt 1.32213 7.14493 5.22131 0.545046 35.0947
files/tasks_parameters/ExAp01/sample49.txt 1.33146 6.65996 4.80244 0.498533 32.0999
files/tasks_parameters/ExAp01/sample41.txt 1.21428 7.09069 5.35462 0.497129 32.0094
