digraph G {
0 ->17 0 ->18 1 ->18 2 ->11 2 ->14 2 ->16 2 ->19 3 ->13 3 ->14 3 ->16 4 ->11 4 ->13 4 ->14 5 ->11 5 ->16 6 ->11 8 ->12 8 ->14 8 ->15 8 ->17 9 ->13 10 ->13 10 ->15 10 ->16 10 ->17 10 ->19 11 ->23 11 ->24 11 ->26 11 ->28 12 ->28 13 ->26 14 ->20 14 ->21 14 ->22 14 ->26 15 ->20 15 ->21 15 ->25 16 ->21 16 ->22 16 ->25 16 ->27 16 ->28 17 ->21 17 ->27 18 ->20 18 ->25 18 ->27 18 ->29 19 ->23 20 ->31 21 ->31 22 ->30 23 ->32 25 ->30 25 ->31 25 ->32 26 ->30 26 ->31 27 ->30 27 ->33 28 ->30 28 ->33 29 ->31 29 ->33 30 ->34 30 ->35 30 ->40 31 ->38 32 ->36 32 ->39 33 ->36 33 ->37 33 ->39 33 ->40 34 ->41 34 ->43 34 ->46 35 ->41 35 ->43 35 ->44 35 ->46 36 ->43 36 ->44 38 ->45 39 ->42 39 ->46 40 ->44 41 ->47 41 ->48 41 ->51 41 ->52 41 ->53 42 ->47 42 ->55 43 ->48 43 ->49 43 ->50 43 ->51 43 ->55 43 ->56 45 ->54 46 ->47 46 ->49 47 ->59 47 ->63 47 ->64 47 ->66 47 ->67 48 ->57 48 ->59 48 ->64 48 ->65 48 ->69 49 ->57 49 ->58 49 ->60 49 ->61 49 ->64 50 ->61 50 ->63 50 ->66 50 ->68 50 ->70 51 ->57 51 ->60 51 ->62 51 ->63 51 ->65 51 ->68 51 ->70 52 ->57 52 ->58 52 ->62 52 ->63 52 ->68 53 ->57 53 ->59 53 ->61 53 ->62 53 ->64 53 ->68 53 ->69 54 ->69 55 ->58 55 ->64 55 ->67 56 ->62 56 ->63 56 ->65 56 ->67 56 ->68 57 ->71 57 ->73 57 ->75 57 ->77 57 ->80 58 ->73 58 ->76 58 ->77 58 ->79 58 ->81 59 ->72 59 ->73 59 ->74 59 ->77 60 ->72 60 ->77 60 ->83 61 ->72 61 ->74 61 ->75 61 ->76 61 ->77 61 ->79 61 ->82 62 ->72 62 ->79 63 ->71 63 ->73 63 ->75 63 ->77 63 ->79 63 ->80 63 ->82 64 ->71 64 ->74 64 ->80 65 ->74 65 ->80 66 ->82 67 ->71 67 ->73 67 ->78 67 ->80 67 ->81 67 ->82 67 ->83 68 ->72 68 ->73 68 ->76 68 ->82 69 ->71 69 ->75 69 ->76 69 ->79 70 ->73 70 ->75 70 ->76 71 ->86 71 ->92 71 ->93 71 ->94 72 ->88 72 ->91 72 ->92 72 ->93 73 ->84 73 ->91 73 ->93 73 ->94 73 ->97 73 ->98 74 ->85 74 ->86 74 ->92 74 ->94 74 ->95 74 ->98 75 ->84 75 ->89 75 ->91 75 ->92 75 ->96 75 ->98 76 ->85 76 ->86 76 ->88 76 ->90 76 ->92 76 ->97 77 ->85 77 ->86 77 ->87 77 ->96 77 ->98 78 ->88 78 ->96 78 ->97 79 ->86 79 ->87 79 ->88 79 ->91 79 ->94 79 ->96 80 ->87 80 ->88 80 ->89 80 ->90 80 ->95 81 ->86 81 ->88 81 ->90 81 ->94 81 ->95 81 ->96 82 ->87 82 ->92 82 ->93 82 ->95 82 ->95 82 ->96 82 ->97 82 ->98 83 ->84 83 ->86 83 ->88 83 ->92 83 ->95 84 ->99 85 ->99 86 ->99 92 ->99 98 ->99 
}
