digraph G {
0 ->5 0 ->10 0 ->11 1 ->8 2 ->6 2 ->7 2 ->9 2 ->12 3 ->7 3 ->11 4 ->5 5 ->13 5 ->15 6 ->13 6 ->15 7 ->13 7 ->16 8 ->13 8 ->16 9 ->14 9 ->15 9 ->16 12 ->15 13 ->19 13 ->20 14 ->19 15 ->18 16 ->17 16 ->18 17 ->23 18 ->21 18 ->22 19 ->24 19 ->25 19 ->26 21 ->28 21 ->29 23 ->27 25 ->28 25 ->29 25 ->30 26 ->27 26 ->28 26 ->29 26 ->30 27 ->31 27 ->32 27 ->33 27 ->34 27 ->37 27 ->39 27 ->40 27 ->41 27 ->42 28 ->31 28 ->32 28 ->33 28 ->34 28 ->35 28 ->38 28 ->41 28 ->44 29 ->35 29 ->36 30 ->37 30 ->38 30 ->43 30 ->44 31 ->49 34 ->45 34 ->46 34 ->48 35 ->45 35 ->48 36 ->45 36 ->49 37 ->46 37 ->47 37 ->49 39 ->47 39 ->48 40 ->45 40 ->48 41 ->48 41 ->48 41 ->49 42 ->48 42 ->49 45 ->50 45 ->52 45 ->53 45 ->54 45 ->55 46 ->51 46 ->54 46 ->58 47 ->50 47 ->51 47 ->53 47 ->54 47 ->58 47 ->60 47 ->61 48 ->50 48 ->56 48 ->57 48 ->59 48 ->60 49 ->52 49 ->59 50 ->63 52 ->64 53 ->64 54 ->64 55 ->65 56 ->63 56 ->64 59 ->62 59 ->63 60 ->64 61 ->63 62 ->67 62 ->68 62 ->71 62 ->74 62 ->75 63 ->66 63 ->69 63 ->72 63 ->74 63 ->75 63 ->76 64 ->69 64 ->73 64 ->76 65 ->70 65 ->71 65 ->72 66 ->78 66 ->80 67 ->78 67 ->80 67 ->84 68 ->79 68 ->80 69 ->79 69 ->80 69 ->81 70 ->78 70 ->79 70 ->82 71 ->77 71 ->82 71 ->84 72 ->77 72 ->78 72 ->79 72 ->84 73 ->78 73 ->84 74 ->79 75 ->83 76 ->78 76 ->80 76 ->84 78 ->86 78 ->90 79 ->86 80 ->86 80 ->87 80 ->88 80 ->89 80 ->90 81 ->87 81 ->88 82 ->85 82 ->90 84 ->88 85 ->91 85 ->92 85 ->93 86 ->93 86 ->94 86 ->95 88 ->96 89 ->92 90 ->92 91 ->97 92 ->98 93 ->99 94 ->99 95 ->97 
}
