digraph G {
0 ->12 0 ->14 1 ->8 1 ->11 1 ->12 2 ->8 2 ->13 3 ->10 3 ->16 4 ->10 4 ->11 4 ->13 4 ->14 4 ->16 5 ->14 5 ->15 5 ->16 6 ->9 6 ->13 7 ->10 7 ->14 7 ->17 8 ->19 8 ->21 8 ->31 9 ->19 9 ->22 9 ->26 9 ->31 10 ->21 10 ->25 10 ->27 11 ->20 11 ->23 11 ->32 12 ->18 12 ->20 12 ->24 12 ->28 12 ->32 13 ->19 13 ->20 13 ->25 13 ->26 13 ->32 14 ->29 14 ->32 15 ->19 15 ->23 15 ->26 15 ->27 15 ->30 15 ->32 16 ->20 16 ->22 16 ->23 16 ->26 16 ->27 16 ->29 17 ->20 17 ->22 17 ->23 17 ->26 17 ->28 17 ->29 18 ->35 18 ->40 18 ->41 18 ->43 18 ->44 18 ->46 19 ->33 19 ->38 19 ->39 19 ->41 19 ->45 20 ->37 20 ->38 20 ->40 21 ->33 21 ->38 21 ->40 22 ->40 22 ->42 22 ->43 23 ->34 23 ->37 23 ->38 23 ->45 23 ->46 24 ->37 24 ->44 25 ->41 26 ->36 26 ->42 27 ->34 27 ->42 27 ->45 28 ->37 28 ->39 28 ->40 28 ->42 29 ->33 29 ->34 29 ->37 29 ->38 29 ->40 29 ->41 29 ->42 29 ->45 30 ->33 30 ->41 30 ->42 30 ->44 30 ->45 30 ->46 31 ->38 31 ->41 31 ->43 31 ->44 32 ->34 32 ->40 32 ->41 32 ->42 32 ->44 33 ->50 33 ->53 33 ->55 33 ->59 34 ->48 34 ->50 34 ->53 34 ->58 35 ->48 35 ->49 35 ->52 35 ->58 36 ->48 36 ->49 36 ->50 36 ->53 36 ->58 36 ->59 37 ->47 37 ->49 37 ->50 37 ->54 37 ->57 37 ->58 38 ->48 38 ->49 38 ->51 38 ->52 38 ->54 38 ->55 38 ->57 38 ->58 39 ->49 39 ->51 39 ->52 39 ->55 39 ->56 39 ->57 39 ->58 40 ->51 40 ->52 40 ->54 40 ->55 40 ->57 40 ->59 41 ->48 41 ->54 41 ->55 41 ->59 42 ->53 42 ->54 43 ->48 43 ->50 43 ->52 43 ->54 44 ->58 44 ->59 45 ->53 45 ->59 46 ->53 47 ->63 48 ->63 49 ->63 51 ->60 51 ->63 52 ->60 52 ->61 52 ->62 53 ->60 53 ->61 53 ->62 55 ->60 56 ->60 56 ->61 57 ->60 59 ->62 61 ->64 61 ->65 61 ->69 62 ->65 62 ->66 63 ->64 63 ->66 63 ->67 63 ->68 64 ->72 64 ->73 64 ->77 65 ->72 65 ->74 65 ->78 65 ->79 66 ->73 66 ->74 66 ->78 66 ->79 67 ->71 67 ->75 68 ->72 68 ->75 68 ->77 69 ->70 69 ->71 69 ->73 69 ->74 69 ->75 69 ->76 69 ->77 70 ->89 71 ->80 71 ->83 71 ->86 71 ->88 72 ->85 73 ->80 73 ->82 73 ->85 73 ->86 73 ->87 74 ->85 74 ->89 75 ->80 75 ->85 75 ->86 75 ->88 76 ->81 76 ->83 76 ->85 76 ->88 77 ->80 77 ->83 77 ->84 77 ->89 78 ->80 78 ->81 78 ->83 78 ->84 78 ->89 78 ->90 79 ->81 79 ->86 79 ->89 80 ->91 80 ->92 80 ->93 81 ->91 81 ->92 81 ->94 81 ->96 81 ->97 84 ->92 85 ->91 85 ->95 86 ->94 87 ->92 88 ->98 89 ->94 90 ->91 90 ->93 90 ->95 90 ->97 93 ->99 97 ->99 98 ->99 
}
