files/tasks_parameters/ExAp01/sample8.txt 0.880463 3.15778 1.5595 0.203411 8.67887
files/tasks_parameters/ExAp01/sample12.txt 0.794249 3.94962 1.6705 0.207924 8.87142
files/tasks_parameters/ExAp01/sample2.txt 0.83218 3.78275 1.74131 0.200098 8.5375
files/tasks_parameters/ExAp01/sample44.txt 0.810415 3.59825 1.65317 0.200005 8.53355
files/tasks_parameters/ExAp01/sample27.txt 0.780292 3.45743 1.5148 0.182129 7.77082
files/tasks_parameters/ExAp01/sample17.txt 0.666803 2.77299 1.44514 0.14646 6.24895
files/tasks_parameters/ExAp01/sample9.txt 0.688167 2.99933 1.451 0.177444 7.57092
files/tasks_parameters/ExAp01/sample34.txt 0.611661 3.02928 1.58429 0.157984 6.74064
files/tasks_parameters/ExAp01/sample40.txt 0.673218 3.86889 1.52122 0.168379 7.18419
files/tasks_parameters/ExAp01/sample33.txt 0.736498 3.63695 1.71905 0.199765 8.5233
files/tasks_parameters/ExAp01/sample48.txt 0.667813 3.39061 1.49062 0.154728 6.60174
files/tasks_parameters/ExAp01/sample29.txt 0.740657 3.30472 1.38739 0.223868 9.55171
files/tasks_parameters/ExAp01/sample11.txt 0.749104 3.10585 1.41612 0.174079 7.42735
files/tasks_parameters/ExAp01/sample14.txt 0.607159 2.70971 1.43432 0.162214 6.92115
files/tasks_parameters/ExAp01/sample0.txt 0.760389 3.6937 1.5439 0.18367 7.83658
files/tasks_parameters/ExAp01/sample7.txt 0.640153 2.70501 1.42221 0.143463 6.12111
files/tasks_parameters/ExAp01/sample23.txt 0.672001 3.2697 1.57822 0.181448 7.7418
files/tasks_parameters/ExAp01/sample13.txt 0.790175 3.84225 1.67648 0.198247 8.45854
files/tasks_parameters/ExAp01/sample22.txt 0.578672 3.09569 1.56121 0.148796 6.34864
files/tasks_parameters/ExAp01/sample25.txt 0.543344 2.73966 1.5007 0.148149 6.32101
files/tasks_parameters/ExAp01/sample36.txt 0.508027 2.85948 1.28553 0.130042 5.54847
files/tasks_parameters/ExAp01/sample46.txt 0.838526 3.58643 1.69998 0.210103 8.96438
files/tasks_parameters/ExAp01/sample31.txt 0.611685 3.4832 1.53782 0.1722 7.3472
files/tasks_parameters/ExAp01/sample37.txt 0.742139 3.95293 1.50705 0.171701 7.32591
files/tasks_parameters/ExAp01/sample16.txt 0.65806 3.31216 1.30115 0.150249 6.41062
files/tasks_parameters/ExAp01/sample10.txt 0.707317 3.17098 1.61789 0.153776 6.56113
files/tasks_parameters/ExAp01/sample39.txt 0.662164 3.26617 1.44406 0.165669 7.06853
files/tasks_parameters/ExAp01/sample19.txt 0.857691 3.63532 1.52509 0.196094 8.3667
files/tasks_parameters/ExAp01/sample20.txt 0.57012 3.20793 1.25367 0.147335 6.28631
files/tasks_parameters/ExAp01/sample43.txt 0.647524 3.11551 1.4202 0.150644 6.4275
files/tasks_parameters/ExAp01/sample32.txt 0.626458 3.5311 1.42482 0.168744 7.19975
files/tasks_parameters/ExAp01/sample45.txt 0.904878 3.80283 1.48324 0.19807 8.451
files/tasks_parameters/ExAp01/sample26.txt 0.678881 3.21645 1.29701 0.166061 7.08528
files/tasks_parameters/ExAp01/sample5.txt 0.794953 3.5889 1.52559 0.178903 7.63321
files/tasks_parameters/ExAp01/sample21.txt 0.749721 2.75242 1.55936 0.19512 8.32513
files/tasks_parameters/ExAp01/sample38.txt 0.641454 3.31563 1.37515 0.166157 7.08936
files/tasks_parameters/ExAp01/sample1.txt 0.856769 3.74964 1.51696 0.19701 8.40574
files/tasks_parameters/ExAp01/sample15.txt 0.776085 3.32916 1.48508 0.180707 7.71018
files/tasks_parameters/ExAp01/sample24.txt 0.701128 3.45951 1.59549 0.16529 7.05239
files/tasks_parameters/ExAp01/sample3.txt 0.878223 3.70014 1.70809 0.237107 10.1166
files/tasks_parameters/ExAp01/sample6.txt 0.711164 3.33003 1.58323 0.184714 7.88115
files/tasks_parameters/ExAp01/sample30.txt 0.91199 4.1841 1.4861 0.239623 10.2239
files/tasks_parameters/ExAp01/sample42.txt 0.745949 3.43221 1.70276 0.177383 7.56833
files/tasks_parameters/ExAp01/sample4.txt 0.799922 3.72477 1.6136 0.196448 8.38179
files/tasks_parameters/ExAp01/sample28.txt 0.649836 3.11323 1.45032 0.158819 6.77628
files/tasks_parameters/ExAp01/sample18.txt 0.70153 3.47418 1.45209 0.149064 6.36006
files/tasks_parameters/ExAp01/sample35.txt 0.744581 4.57086 1.49394 0.185031 7.89464
files/tasks_parameters/ExAp01/sample47.txt 0.659405 3.13768 1.52397 0.16417 7.00459
files/tasks_parameters/ExAp01/sample49.txt 0.622958 3.13288 1.49657 0.156154 6.66258
files/tasks_parameters/ExAp01/sample41.txt 0.621493 2.81964 1.49636 0.150876 6.43737
