files/tasks_parameters/ExAp01/sample8.txt 0.775108 3.15778 1.5595 0.203411 6.36665
files/tasks_parameters/ExAp01/sample12.txt 0.810076 3.94962 1.6705 0.207924 6.5079
files/tasks_parameters/ExAp01/sample2.txt 0.766985 3.78275 1.74131 0.200098 6.26294
files/tasks_parameters/ExAp01/sample44.txt 0.686719 3.59825 1.65317 0.200005 6.26005
files/tasks_parameters/ExAp01/sample27.txt 0.700003 3.45743 1.5148 0.182129 5.70052
files/tasks_parameters/ExAp01/sample17.txt 0.925109 2.77299 1.44514 0.14646 4.58411
files/tasks_parameters/ExAp01/sample9.txt 0.71794 2.99933 1.451 0.177444 5.55388
files/tasks_parameters/ExAp01/sample34.txt 0.831645 3.02928 1.58429 0.157984 4.9448
files/tasks_parameters/ExAp01/sample40.txt 0.764924 3.86889 1.52122 0.168379 5.27018
files/tasks_parameters/ExAp01/sample33.txt 0.802232 3.63695 1.71905 0.199765 6.25253
files/tasks_parameters/ExAp01/sample48.txt 0.682426 3.39061 1.49062 0.154728 4.8429
files/tasks_parameters/ExAp01/sample29.txt 0.762881 3.30472 1.38739 0.223868 7.00695
files/tasks_parameters/ExAp01/sample11.txt 0.707448 3.10585 1.41612 0.174079 5.44856
files/tasks_parameters/ExAp01/sample14.txt 0.659909 2.70971 1.43432 0.162214 5.07722
files/tasks_parameters/ExAp01/sample0.txt 0.744255 3.6937 1.5439 0.18367 5.74876
files/tasks_parameters/ExAp01/sample7.txt 0.809856 2.70501 1.42221 0.143463 4.49032
files/tasks_parameters/ExAp01/sample23.txt 0.759819 3.2697 1.57822 0.181448 5.67923
files/tasks_parameters/ExAp01/sample13.txt 0.729564 3.84225 1.67648 0.198247 6.20502
files/tasks_parameters/ExAp01/sample22.txt 0.901802 3.09569 1.56121 0.148796 4.65724
files/tasks_parameters/ExAp01/sample25.txt 0.746637 2.73966 1.5007 0.148149 4.63697
files/tasks_parameters/ExAp01/sample36.txt 0.850926 2.85948 1.28553 0.130042 4.07025
files/tasks_parameters/ExAp01/sample46.txt 0.762827 3.58643 1.69998 0.210103 6.5761
files/tasks_parameters/ExAp01/sample31.txt 0.705727 3.4832 1.53782 0.1722 5.38976
files/tasks_parameters/ExAp01/sample37.txt 0.772652 3.95293 1.50705 0.171701 5.37415
files/tasks_parameters/ExAp01/sample16.txt 0.598164 3.31216 1.30115 0.150249 4.70271
files/tasks_parameters/ExAp01/sample10.txt 1.13118 3.17098 1.61789 0.153776 4.81311
files/tasks_parameters/ExAp01/sample39.txt 0.700786 3.26617 1.44406 0.165669 5.18534
files/tasks_parameters/ExAp01/sample19.txt 0.769252 3.63532 1.52509 0.196094 6.13764
files/tasks_parameters/ExAp01/sample20.txt 0.662661 3.20793 1.25367 0.147335 4.61151
files/tasks_parameters/ExAp01/sample43.txt 0.646757 3.11551 1.4202 0.150644 4.71509
files/tasks_parameters/ExAp01/sample32.txt 0.722684 3.5311 1.42482 0.168744 5.2816
files/tasks_parameters/ExAp01/sample45.txt 0.739506 3.80283 1.48324 0.19807 6.19949
files/tasks_parameters/ExAp01/sample26.txt 0.634746 3.21645 1.29701 0.166061 5.19762
files/tasks_parameters/ExAp01/sample5.txt 0.631119 3.5889 1.52559 0.178903 5.59957
files/tasks_parameters/ExAp01/sample21.txt 0.66058 2.75242 1.55936 0.19512 6.10715
files/tasks_parameters/ExAp01/sample38.txt 0.676658 3.31563 1.37515 0.166157 5.20061
files/tasks_parameters/ExAp01/sample1.txt 0.715602 3.74964 1.51696 0.19701 6.16629
files/tasks_parameters/ExAp01/sample15.txt 0.693104 3.32916 1.48508 0.180707 5.65604
files/tasks_parameters/ExAp01/sample24.txt 0.861271 3.45951 1.59549 0.16529 5.1735
files/tasks_parameters/ExAp01/sample3.txt 0.905554 3.70014 1.70809 0.237107 7.42132
files/tasks_parameters/ExAp01/sample6.txt 0.730089 3.33003 1.58323 0.184714 5.78146
files/tasks_parameters/ExAp01/sample30.txt 0.904341 4.1841 1.4861 0.239623 7.50007
files/tasks_parameters/ExAp01/sample42.txt 0.747833 3.43221 1.70276 0.177383 5.55198
files/tasks_parameters/ExAp01/sample4.txt 0.78316 3.72477 1.6136 0.196448 6.14872
files/tasks_parameters/ExAp01/sample28.txt 0.689545 3.11323 1.45032 0.158819 4.97095
files/tasks_parameters/ExAp01/sample18.txt 0.769617 3.47418 1.45209 0.149064 4.66561
files/tasks_parameters/ExAp01/sample35.txt 0.803649 4.57086 1.49394 0.185031 5.79136
files/tasks_parameters/ExAp01/sample47.txt 0.712113 3.13768 1.52397 0.16417 5.13843
files/tasks_parameters/ExAp01/sample49.txt 0.776571 3.13288 1.49657 0.156154 4.88754
files/tasks_parameters/ExAp01/sample41.txt 0.763314 2.81964 1.49636 0.150876 4.72233
