files/tasks_parameters/ExAp01/sample8.txt 1.68288 6.77015 2.19458 0.288816 5.02435
files/tasks_parameters/ExAp01/sample12.txt 1.98563 9.58351 2.46081 0.337498 5.87124
files/tasks_parameters/ExAp01/sample2.txt 1.86183 8.44418 2.50701 0.319127 5.55164
files/tasks_parameters/ExAp01/sample44.txt 1.66396 6.96299 2.23089 0.28229 4.91082
files/tasks_parameters/ExAp01/sample27.txt 1.68604 7.74306 2.16676 0.28602 4.9757
files/tasks_parameters/ExAp01/sample17.txt 1.70549 7.35053 2.25579 0.292348 5.08578
files/tasks_parameters/ExAp01/sample9.txt 1.65297 6.89392 2.21068 0.282399 4.9127
files/tasks_parameters/ExAp01/sample34.txt 1.7718 6.62788 2.3772 0.297742 5.17961
files/tasks_parameters/ExAp01/sample40.txt 1.6878 7.75686 2.17534 0.285619 4.96873
files/tasks_parameters/ExAp01/sample33.txt 2.00186 8.14826 2.6463 0.338073 5.88123
files/tasks_parameters/ExAp01/sample48.txt 1.59265 7.64107 2.14272 0.270011 4.6972
files/tasks_parameters/ExAp01/sample29.txt 1.6494 7.139 1.93769 0.286306 4.98067
files/tasks_parameters/ExAp01/sample11.txt 1.63262 6.88688 2.12981 0.280008 4.87112
files/tasks_parameters/ExAp01/sample14.txt 1.46945 6.11983 1.97599 0.247458 4.30485
files/tasks_parameters/ExAp01/sample0.txt 1.68354 8.2738 2.14256 0.289132 5.02983
files/tasks_parameters/ExAp01/sample7.txt 1.59052 6.87011 2.05821 0.269886 4.69502
files/tasks_parameters/ExAp01/sample23.txt 1.72233 6.52032 2.38087 0.291712 5.07471
files/tasks_parameters/ExAp01/sample13.txt 1.73816 8.73247 2.33415 0.295393 5.13875
files/tasks_parameters/ExAp01/sample22.txt 1.66655 6.9777 2.28948 0.283979 4.9402
files/tasks_parameters/ExAp01/sample25.txt 1.59301 6.23444 2.2122 0.267298 4.65
files/tasks_parameters/ExAp01/sample36.txt 1.51937 6.6174 1.9458 0.253823 4.41558
files/tasks_parameters/ExAp01/sample46.txt 1.91485 7.42369 2.49128 0.327273 5.69335
files/tasks_parameters/ExAp01/sample31.txt 1.49111 7.22028 2.13584 0.25377 4.41466
files/tasks_parameters/ExAp01/sample37.txt 1.77599 8.90704 2.16981 0.295708 5.14424
files/tasks_parameters/ExAp01/sample16.txt 1.47216 8.18243 1.88294 0.24945 4.33951
files/tasks_parameters/ExAp01/sample10.txt 1.68831 6.96646 2.31217 0.285748 4.97097
files/tasks_parameters/ExAp01/sample39.txt 1.48538 6.4161 1.97266 0.251967 4.3833
files/tasks_parameters/ExAp01/sample19.txt 1.83662 8.16711 2.23199 0.308463 5.36612
files/tasks_parameters/ExAp01/sample20.txt 1.52892 7.28549 1.88944 0.25994 4.522
files/tasks_parameters/ExAp01/sample43.txt 1.49727 6.86804 2.00142 0.25616 4.45625
files/tasks_parameters/ExAp01/sample32.txt 1.69741 8.15663 2.12995 0.281726 4.90101
files/tasks_parameters/ExAp01/sample45.txt 1.62147 7.75184 2.10599 0.274935 4.78286
files/tasks_parameters/ExAp01/sample26.txt 1.56199 7.4944 1.88956 0.267248 4.64913
files/tasks_parameters/ExAp01/sample5.txt 1.66862 8.08362 2.09961 0.28454 4.94996
files/tasks_parameters/ExAp01/sample21.txt 1.54026 6.11814 2.17119 0.26143 4.54792
files/tasks_parameters/ExAp01/sample38.txt 1.55362 7.761 1.96293 0.263659 4.5867
files/tasks_parameters/ExAp01/sample1.txt 1.70195 7.83752 2.13261 0.289228 5.03151
files/tasks_parameters/ExAp01/sample15.txt 1.6848 7.37971 2.12057 0.285825 4.97231
files/tasks_parameters/ExAp01/sample24.txt 1.74676 8.28531 2.25272 0.296628 5.16025
files/tasks_parameters/ExAp01/sample3.txt 1.79046 7.33359 2.39135 0.305084 5.30735
files/tasks_parameters/ExAp01/sample6.txt 1.68093 7.09894 2.24425 0.281804 4.90236
files/tasks_parameters/ExAp01/sample30.txt 1.79181 8.17669 2.03701 0.299204 5.20506
files/tasks_parameters/ExAp01/sample42.txt 1.76845 7.70416 2.42413 0.29743 5.17419
files/tasks_parameters/ExAp01/sample4.txt 1.8514 7.41691 2.36261 0.307803 5.35464
files/tasks_parameters/ExAp01/sample28.txt 1.5788 7.0562 2.07657 0.266428 4.63487
files/tasks_parameters/ExAp01/sample18.txt 1.58455 7.60139 2.1377 0.268016 4.6625
files/tasks_parameters/ExAp01/sample35.txt 1.88939 9.66795 2.28028 0.32244 5.60927
files/tasks_parameters/ExAp01/sample47.txt 1.47721 6.84842 2.12104 0.251655 4.37787
files/tasks_parameters/ExAp01/sample49.txt 1.50641 7.1497 2.11412 0.255889 4.45153
files/tasks_parameters/ExAp01/sample41.txt 1.52537 6.59911 2.07359 0.265885 4.62543
