files/tasks_parameters/ExAp01/sample8.txt 1.68448 6.77015 2.19458 0.288816 4.82947
files/tasks_parameters/ExAp01/sample12.txt 2.00093 9.58351 2.46081 0.337498 5.64351
files/tasks_parameters/ExAp01/sample2.txt 1.8647 8.44418 2.50701 0.319127 5.33631
files/tasks_parameters/ExAp01/sample44.txt 1.6668 6.96299 2.23089 0.28229 4.72034
files/tasks_parameters/ExAp01/sample27.txt 1.69202 7.74306 2.16676 0.28602 4.7827
files/tasks_parameters/ExAp01/sample17.txt 1.7137 7.35053 2.25579 0.292348 4.88852
files/tasks_parameters/ExAp01/sample9.txt 1.65297 6.89392 2.21068 0.282399 4.72216
files/tasks_parameters/ExAp01/sample34.txt 1.7757 6.62788 2.3772 0.297742 4.97871
files/tasks_parameters/ExAp01/sample40.txt 1.69293 7.75686 2.17534 0.285619 4.77601
files/tasks_parameters/ExAp01/sample33.txt 2.00986 8.14826 2.6463 0.338073 5.65312
files/tasks_parameters/ExAp01/sample48.txt 1.60131 7.64107 2.14272 0.270011 4.51502
files/tasks_parameters/ExAp01/sample29.txt 1.65644 7.139 1.93769 0.286306 4.78749
files/tasks_parameters/ExAp01/sample11.txt 1.63262 6.88688 2.12981 0.280008 4.68218
files/tasks_parameters/ExAp01/sample14.txt 1.46956 6.11983 1.97599 0.247458 4.13788
files/tasks_parameters/ExAp01/sample0.txt 1.69332 8.2738 2.14256 0.289132 4.83474
files/tasks_parameters/ExAp01/sample7.txt 1.59426 6.87011 2.05821 0.269886 4.51291
files/tasks_parameters/ExAp01/sample23.txt 1.72681 6.52032 2.38087 0.291712 4.87788
files/tasks_parameters/ExAp01/sample13.txt 1.7481 8.73247 2.33415 0.295393 4.93943
files/tasks_parameters/ExAp01/sample22.txt 1.67458 6.9777 2.28948 0.283979 4.74858
files/tasks_parameters/ExAp01/sample25.txt 1.59755 6.23444 2.2122 0.267298 4.46964
files/tasks_parameters/ExAp01/sample36.txt 1.53502 6.6174 1.9458 0.253823 4.24432
files/tasks_parameters/ExAp01/sample46.txt 1.91485 7.42369 2.49128 0.327273 5.47252
files/tasks_parameters/ExAp01/sample31.txt 1.50186 7.22028 2.13584 0.25377 4.24343
files/tasks_parameters/ExAp01/sample37.txt 1.79981 8.90704 2.16981 0.295708 4.94471
files/tasks_parameters/ExAp01/sample16.txt 1.48937 8.18243 1.88294 0.24945 4.17119
files/tasks_parameters/ExAp01/sample10.txt 1.6953 6.96646 2.31217 0.285748 4.77816
files/tasks_parameters/ExAp01/sample39.txt 1.4954 6.4161 1.97266 0.251967 4.21328
files/tasks_parameters/ExAp01/sample19.txt 1.85077 8.16711 2.23199 0.308463 5.15799
files/tasks_parameters/ExAp01/sample20.txt 1.52892 7.28549 1.88944 0.25994 4.34661
files/tasks_parameters/ExAp01/sample43.txt 1.50348 6.86804 2.00142 0.25616 4.2834
files/tasks_parameters/ExAp01/sample32.txt 1.70763 8.15663 2.12995 0.281726 4.71091
files/tasks_parameters/ExAp01/sample45.txt 1.63662 7.75184 2.10599 0.274935 4.59735
files/tasks_parameters/ExAp01/sample26.txt 1.56478 7.4944 1.88956 0.267248 4.46881
files/tasks_parameters/ExAp01/sample5.txt 1.6723 8.08362 2.09961 0.28454 4.75797
files/tasks_parameters/ExAp01/sample21.txt 1.54026 6.11814 2.17119 0.26143 4.37152
files/tasks_parameters/ExAp01/sample38.txt 1.55682 7.761 1.96293 0.263659 4.40879
files/tasks_parameters/ExAp01/sample1.txt 1.70583 7.83752 2.13261 0.289228 4.83635
files/tasks_parameters/ExAp01/sample15.txt 1.69415 7.37971 2.12057 0.285825 4.77945
files/tasks_parameters/ExAp01/sample24.txt 1.75304 8.28531 2.25272 0.296628 4.9601
files/tasks_parameters/ExAp01/sample3.txt 1.79127 7.33359 2.39135 0.305084 5.1015
files/tasks_parameters/ExAp01/sample6.txt 1.6873 7.09894 2.24425 0.281804 4.71221
files/tasks_parameters/ExAp01/sample30.txt 1.8081 8.17669 2.03701 0.299204 5.00317
files/tasks_parameters/ExAp01/sample42.txt 1.77494 7.70416 2.42413 0.29743 4.9735
files/tasks_parameters/ExAp01/sample4.txt 1.86379 7.41691 2.36261 0.307803 5.14695
files/tasks_parameters/ExAp01/sample28.txt 1.5788 7.0562 2.07657 0.266428 4.4551
files/tasks_parameters/ExAp01/sample18.txt 1.59617 7.60139 2.1377 0.268016 4.48165
files/tasks_parameters/ExAp01/sample35.txt 1.90535 9.66795 2.28028 0.32244 5.3917
files/tasks_parameters/ExAp01/sample47.txt 1.48814 6.84842 2.12104 0.251655 4.20807
files/tasks_parameters/ExAp01/sample49.txt 1.50641 7.1497 2.11412 0.255889 4.27887
files/tasks_parameters/ExAp01/sample41.txt 1.52895 6.59911 2.07359 0.265885 4.44602
