files/tasks_parameters/ExAp01/sample8.txt 1.28229 6.77015 2.19458 0.288816 18.5326
files/tasks_parameters/ExAp01/sample12.txt 1.52403 9.58351 2.46081 0.337498 21.6564
files/tasks_parameters/ExAp01/sample2.txt 1.46654 8.44418 2.50701 0.319127 20.4776
files/tasks_parameters/ExAp01/sample44.txt 1.20057 6.96299 2.23089 0.28229 18.1138
files/tasks_parameters/ExAp01/sample27.txt 1.31179 7.74306 2.16676 0.28602 18.3532
files/tasks_parameters/ExAp01/sample17.txt 1.37083 7.35053 2.25579 0.292348 18.7592
files/tasks_parameters/ExAp01/sample9.txt 1.12475 6.89392 2.21068 0.282399 18.1208
files/tasks_parameters/ExAp01/sample34.txt 1.3342 6.62788 2.3772 0.297742 19.1053
files/tasks_parameters/ExAp01/sample40.txt 1.30762 7.75686 2.17534 0.285619 18.3275
files/tasks_parameters/ExAp01/sample33.txt 1.55023 8.14826 2.6463 0.338073 21.6933
files/tasks_parameters/ExAp01/sample48.txt 1.24952 7.64107 2.14272 0.270011 17.3259
files/tasks_parameters/ExAp01/sample29.txt 1.14345 7.139 1.93769 0.286306 18.3715
files/tasks_parameters/ExAp01/sample11.txt 1.34371 6.88688 2.12981 0.280008 17.9674
files/tasks_parameters/ExAp01/sample14.txt 1.15713 6.11983 1.97599 0.247458 15.8787
files/tasks_parameters/ExAp01/sample0.txt 1.26589 8.2738 2.14256 0.289132 18.5528
files/tasks_parameters/ExAp01/sample7.txt 1.18146 6.87011 2.05821 0.269886 17.3179
files/tasks_parameters/ExAp01/sample23.txt 1.27083 6.52032 2.38087 0.291712 18.7184
files/tasks_parameters/ExAp01/sample13.txt 1.41049 8.73247 2.33415 0.295393 18.9546
files/tasks_parameters/ExAp01/sample22.txt 1.31825 6.9777 2.28948 0.283979 18.2222
files/tasks_parameters/ExAp01/sample25.txt 1.246 6.23444 2.2122 0.267298 17.1518
files/tasks_parameters/ExAp01/sample36.txt 1.09501 6.6174 1.9458 0.253823 16.2871
files/tasks_parameters/ExAp01/sample46.txt 1.47073 7.42369 2.49128 0.327273 21.0003
files/tasks_parameters/ExAp01/sample31.txt 1.21729 7.22028 2.13584 0.25377 16.2838
files/tasks_parameters/ExAp01/sample37.txt 1.3311 8.90704 2.16981 0.295708 18.9748
files/tasks_parameters/ExAp01/sample16.txt 1.20293 8.18243 1.88294 0.24945 16.0065
files/tasks_parameters/ExAp01/sample10.txt 1.2843 6.96646 2.31217 0.285748 18.3357
files/tasks_parameters/ExAp01/sample39.txt 1.19587 6.4161 1.97266 0.251967 16.1681
files/tasks_parameters/ExAp01/sample19.txt 1.30432 8.16711 2.23199 0.308463 19.7933
files/tasks_parameters/ExAp01/sample20.txt 1.14546 7.28549 1.88944 0.25994 16.6797
files/tasks_parameters/ExAp01/sample43.txt 1.17441 6.86804 2.00142 0.25616 16.4371
files/tasks_parameters/ExAp01/sample32.txt 1.24848 8.15663 2.12995 0.281726 18.0777
files/tasks_parameters/ExAp01/sample45.txt 1.21059 7.75184 2.10599 0.274935 17.6419
files/tasks_parameters/ExAp01/sample26.txt 1.15197 7.4944 1.88956 0.267248 17.1486
files/tasks_parameters/ExAp01/sample5.txt 1.32957 8.08362 2.09961 0.28454 18.2582
files/tasks_parameters/ExAp01/sample21.txt 1.21588 6.11814 2.17119 0.26143 16.7753
files/tasks_parameters/ExAp01/sample38.txt 1.14482 7.761 1.96293 0.263659 16.9183
files/tasks_parameters/ExAp01/sample1.txt 1.42991 7.83752 2.13261 0.289228 18.559
files/tasks_parameters/ExAp01/sample15.txt 1.28059 7.37971 2.12057 0.285825 18.3407
files/tasks_parameters/ExAp01/sample24.txt 1.30278 8.28531 2.25272 0.296628 19.0339
files/tasks_parameters/ExAp01/sample3.txt 1.3433 7.33359 2.39135 0.305084 19.5765
files/tasks_parameters/ExAp01/sample6.txt 1.31218 7.09894 2.24425 0.281804 18.0827
files/tasks_parameters/ExAp01/sample30.txt 1.32524 8.17669 2.03701 0.299204 19.1992
files/tasks_parameters/ExAp01/sample42.txt 1.44215 7.70416 2.42413 0.29743 19.0853
files/tasks_parameters/ExAp01/sample4.txt 1.45535 7.41691 2.36261 0.307803 19.7509
files/tasks_parameters/ExAp01/sample28.txt 1.25202 7.0562 2.07657 0.266428 17.096
files/tasks_parameters/ExAp01/sample18.txt 1.23535 7.60139 2.1377 0.268016 17.1979
files/tasks_parameters/ExAp01/sample35.txt 1.47996 9.66795 2.28028 0.32244 20.6901
files/tasks_parameters/ExAp01/sample47.txt 1.135 6.84842 2.12104 0.251655 16.148
files/tasks_parameters/ExAp01/sample49.txt 1.23504 7.1497 2.11412 0.255889 16.4197
files/tasks_parameters/ExAp01/sample41.txt 1.17847 6.59911 2.07359 0.265885 17.0612
