files/tasks_parameters/ExAp01/sample8.txt 0.760708 3.15778 1.5595 0.203411 4.99637
files/tasks_parameters/ExAp01/sample12.txt 0.77447 3.94962 1.6705 0.207924 5.10722
files/tasks_parameters/ExAp01/sample2.txt 0.700391 3.78275 1.74131 0.200098 4.91498
files/tasks_parameters/ExAp01/sample44.txt 0.691211 3.59825 1.65317 0.200005 4.91271
files/tasks_parameters/ExAp01/sample27.txt 0.683369 3.45743 1.5148 0.182129 4.47361
files/tasks_parameters/ExAp01/sample17.txt 0.5449 2.77299 1.44514 0.14646 3.59748
files/tasks_parameters/ExAp01/sample9.txt 0.61898 2.99933 1.451 0.177444 4.35853
files/tasks_parameters/ExAp01/sample34.txt 0.535763 3.02928 1.58429 0.157984 3.88054
files/tasks_parameters/ExAp01/sample40.txt 0.610663 3.86889 1.52122 0.168379 4.13589
files/tasks_parameters/ExAp01/sample33.txt 0.687915 3.63695 1.71905 0.199765 4.90681
files/tasks_parameters/ExAp01/sample48.txt 0.606748 3.39061 1.49062 0.154728 3.80058
files/tasks_parameters/ExAp01/sample29.txt 0.74135 3.30472 1.38739 0.223868 5.49886
files/tasks_parameters/ExAp01/sample11.txt 0.649607 3.10585 1.41612 0.174079 4.27588
files/tasks_parameters/ExAp01/sample14.txt 0.576751 2.70971 1.43432 0.162214 3.98446
files/tasks_parameters/ExAp01/sample0.txt 0.699829 3.6937 1.5439 0.18367 4.51147
files/tasks_parameters/ExAp01/sample7.txt 0.552906 2.70501 1.42221 0.143463 3.52388
files/tasks_parameters/ExAp01/sample23.txt 0.643507 3.2697 1.57822 0.181448 4.45691
files/tasks_parameters/ExAp01/sample13.txt 0.680552 3.84225 1.67648 0.198247 4.86953
files/tasks_parameters/ExAp01/sample22.txt 0.522827 3.09569 1.56121 0.148796 3.65487
files/tasks_parameters/ExAp01/sample25.txt 0.487889 2.73966 1.5007 0.148149 3.63896
files/tasks_parameters/ExAp01/sample36.txt 0.483423 2.85948 1.28553 0.130042 3.19422
files/tasks_parameters/ExAp01/sample46.txt 0.752594 3.58643 1.69998 0.210103 5.16074
files/tasks_parameters/ExAp01/sample31.txt 0.625527 3.4832 1.53782 0.1722 4.22973
files/tasks_parameters/ExAp01/sample37.txt 0.638417 3.95293 1.50705 0.171701 4.21748
files/tasks_parameters/ExAp01/sample16.txt 0.587932 3.31216 1.30115 0.150249 3.69056
files/tasks_parameters/ExAp01/sample10.txt 0.614031 3.17098 1.61789 0.153776 3.7772
files/tasks_parameters/ExAp01/sample39.txt 0.616561 3.26617 1.44406 0.165669 4.06931
files/tasks_parameters/ExAp01/sample19.txt 0.727694 3.63532 1.52509 0.196094 4.81665
files/tasks_parameters/ExAp01/sample20.txt 0.51878 3.20793 1.25367 0.147335 3.61899
files/tasks_parameters/ExAp01/sample43.txt 0.55212 3.11551 1.4202 0.150644 3.70027
files/tasks_parameters/ExAp01/sample32.txt 0.5992 3.5311 1.42482 0.168744 4.14485
files/tasks_parameters/ExAp01/sample45.txt 0.753217 3.80283 1.48324 0.19807 4.86519
files/tasks_parameters/ExAp01/sample26.txt 0.610415 3.21645 1.29701 0.166061 4.07895
files/tasks_parameters/ExAp01/sample5.txt 0.651301 3.5889 1.52559 0.178903 4.39439
files/tasks_parameters/ExAp01/sample21.txt 0.663162 2.75242 1.55936 0.19512 4.79273
files/tasks_parameters/ExAp01/sample38.txt 0.582533 3.31563 1.37515 0.166157 4.0813
files/tasks_parameters/ExAp01/sample1.txt 0.732038 3.74964 1.51696 0.19701 4.83913
files/tasks_parameters/ExAp01/sample15.txt 0.67456 3.32916 1.48508 0.180707 4.43871
files/tasks_parameters/ExAp01/sample24.txt 0.630004 3.45951 1.59549 0.16529 4.06002
files/tasks_parameters/ExAp01/sample3.txt 0.914265 3.70014 1.70809 0.237107 5.82404
files/tasks_parameters/ExAp01/sample6.txt 0.643606 3.33003 1.58323 0.184714 4.53713
files/tasks_parameters/ExAp01/sample30.txt 0.848162 4.1841 1.4861 0.239623 5.88585
files/tasks_parameters/ExAp01/sample42.txt 0.622818 3.43221 1.70276 0.177383 4.35704
files/tasks_parameters/ExAp01/sample4.txt 0.736673 3.72477 1.6136 0.196448 4.82534
files/tasks_parameters/ExAp01/sample28.txt 0.546916 3.11323 1.45032 0.158819 3.90106
files/tasks_parameters/ExAp01/sample18.txt 0.547758 3.47418 1.45209 0.149064 3.66144
files/tasks_parameters/ExAp01/sample35.txt 0.681141 4.57086 1.49394 0.185031 4.5449
files/tasks_parameters/ExAp01/sample47.txt 0.603888 3.13768 1.52397 0.16417 4.0325
files/tasks_parameters/ExAp01/sample49.txt 0.552637 3.13288 1.49657 0.156154 3.8356
files/tasks_parameters/ExAp01/sample41.txt 0.535337 2.81964 1.49636 0.150876 3.70595
