files/tasks_parameters/ExAp01/sample8.txt 1.10117 6.77015 2.19458 0.288816 7.44453
files/tasks_parameters/ExAp01/sample12.txt 1.35889 9.58351 2.46081 0.337498 8.69935
files/tasks_parameters/ExAp01/sample2.txt 1.22609 8.44418 2.50701 0.319127 8.22582
files/tasks_parameters/ExAp01/sample44.txt 1.09587 6.96299 2.23089 0.28229 7.27631
files/tasks_parameters/ExAp01/sample27.txt 1.12484 7.74306 2.16676 0.28602 7.37244
files/tasks_parameters/ExAp01/sample17.txt 1.10492 7.35053 2.25579 0.292348 7.53554
files/tasks_parameters/ExAp01/sample9.txt 1.06833 6.89392 2.21068 0.282399 7.27911
files/tasks_parameters/ExAp01/sample34.txt 1.15253 6.62788 2.3772 0.297742 7.67458
files/tasks_parameters/ExAp01/sample40.txt 1.07172 7.75686 2.17534 0.285619 7.36212
files/tasks_parameters/ExAp01/sample33.txt 1.26134 8.14826 2.6463 0.338073 8.71417
files/tasks_parameters/ExAp01/sample48.txt 1.11383 7.64107 2.14272 0.270011 6.9598
files/tasks_parameters/ExAp01/sample29.txt 1.08421 7.139 1.93769 0.286306 7.37981
files/tasks_parameters/ExAp01/sample11.txt 1.05665 6.88688 2.12981 0.280008 7.21749
files/tasks_parameters/ExAp01/sample14.txt 0.937516 6.11983 1.97599 0.247458 6.37846
files/tasks_parameters/ExAp01/sample0.txt 1.10318 8.2738 2.14256 0.289132 7.45265
files/tasks_parameters/ExAp01/sample7.txt 1.02488 6.87011 2.05821 0.269886 6.95656
files/tasks_parameters/ExAp01/sample23.txt 1.10262 6.52032 2.38087 0.291712 7.51915
files/tasks_parameters/ExAp01/sample13.txt 1.12954 8.73247 2.33415 0.295393 7.61403
files/tasks_parameters/ExAp01/sample22.txt 1.12776 6.9777 2.28948 0.283979 7.31984
files/tasks_parameters/ExAp01/sample25.txt 1.02195 6.23444 2.2122 0.267298 6.88986
files/tasks_parameters/ExAp01/sample36.txt 1.00775 6.6174 1.9458 0.253823 6.54253
files/tasks_parameters/ExAp01/sample46.txt 1.30715 7.42369 2.49128 0.327273 8.43578
files/tasks_parameters/ExAp01/sample31.txt 0.957653 7.22028 2.13584 0.25377 6.54117
files/tasks_parameters/ExAp01/sample37.txt 1.22362 8.90704 2.16981 0.295708 7.62216
files/tasks_parameters/ExAp01/sample16.txt 1.04612 8.18243 1.88294 0.24945 6.42981
files/tasks_parameters/ExAp01/sample10.txt 1.11645 6.96646 2.31217 0.285748 7.36543
files/tasks_parameters/ExAp01/sample39.txt 0.951806 6.4161 1.97266 0.251967 6.49469
files/tasks_parameters/ExAp01/sample19.txt 1.21155 8.16711 2.23199 0.308463 7.95093
files/tasks_parameters/ExAp01/sample20.txt 0.978196 7.28549 1.88944 0.25994 6.7002
files/tasks_parameters/ExAp01/sample43.txt 0.974961 6.86804 2.00142 0.25616 6.60278
files/tasks_parameters/ExAp01/sample32.txt 1.07147 8.15663 2.12995 0.281726 7.26177
files/tasks_parameters/ExAp01/sample45.txt 1.07657 7.75184 2.10599 0.274935 7.08672
files/tasks_parameters/ExAp01/sample26.txt 1.01091 7.4944 1.88956 0.267248 6.88858
files/tasks_parameters/ExAp01/sample5.txt 1.09923 8.08362 2.09961 0.28454 7.3343
files/tasks_parameters/ExAp01/sample21.txt 0.990789 6.11814 2.17119 0.26143 6.7386
files/tasks_parameters/ExAp01/sample38.txt 0.992477 7.761 1.96293 0.263659 6.79607
files/tasks_parameters/ExAp01/sample1.txt 1.10367 7.83752 2.13261 0.289228 7.45514
files/tasks_parameters/ExAp01/sample15.txt 1.10315 7.37971 2.12057 0.285825 7.36743
files/tasks_parameters/ExAp01/sample24.txt 1.10877 8.28531 2.25272 0.296628 7.64589
files/tasks_parameters/ExAp01/sample3.txt 1.1714 7.33359 2.39135 0.305084 7.86385
files/tasks_parameters/ExAp01/sample6.txt 1.06551 7.09894 2.24425 0.281804 7.26378
files/tasks_parameters/ExAp01/sample30.txt 1.19373 8.17669 2.03701 0.299204 7.71228
files/tasks_parameters/ExAp01/sample42.txt 1.11919 7.70416 2.42413 0.29743 7.66655
files/tasks_parameters/ExAp01/sample4.txt 1.15845 7.41691 2.36261 0.307803 7.93392
files/tasks_parameters/ExAp01/sample28.txt 1.00838 7.0562 2.07657 0.266428 6.86744
files/tasks_parameters/ExAp01/sample18.txt 1.05915 7.60139 2.1377 0.268016 6.90837
files/tasks_parameters/ExAp01/sample35.txt 1.25274 9.66795 2.28028 0.32244 8.3112
files/tasks_parameters/ExAp01/sample47.txt 0.960323 6.84842 2.12104 0.251655 6.48665
files/tasks_parameters/ExAp01/sample49.txt 1.03109 7.1497 2.11412 0.255889 6.59579
files/tasks_parameters/ExAp01/sample41.txt 0.989666 6.59911 2.07359 0.265885 6.85345
