digraph G {
0 ->13 1 ->9 1 ->11 1 ->14 2 ->10 2 ->16 3 ->13 3 ->17 4 ->9 4 ->10 4 ->12 5 ->9 5 ->14 5 ->16 6 ->15 7 ->9 7 ->13 8 ->9 8 ->12 9 ->19 10 ->24 11 ->18 11 ->20 11 ->23 12 ->18 13 ->22 13 ->24 15 ->18 15 ->24 16 ->19 16 ->20 16 ->22 17 ->21 17 ->24 18 ->32 18 ->33 18 ->34 19 ->25 19 ->26 19 ->29 19 ->30 19 ->32 20 ->25 20 ->27 20 ->30 20 ->33 21 ->31 21 ->33 21 ->34 22 ->31 22 ->34 23 ->26 23 ->28 23 ->31 24 ->26 24 ->31 24 ->33 25 ->36 25 ->38 25 ->43 25 ->45 26 ->36 26 ->37 26 ->39 26 ->44 26 ->45 27 ->39 27 ->45 28 ->35 28 ->37 28 ->39 28 ->40 28 ->44 30 ->39 30 ->40 30 ->42 30 ->44 31 ->39 31 ->40 31 ->41 31 ->45 32 ->36 32 ->37 32 ->40 32 ->41 33 ->40 34 ->35 34 ->36 34 ->37 34 ->38 34 ->41 34 ->44 35 ->49 35 ->52 35 ->54 36 ->50 36 ->52 36 ->54 38 ->46 38 ->49 38 ->51 38 ->55 39 ->46 39 ->49 40 ->48 40 ->53 41 ->47 41 ->52 41 ->54 42 ->47 42 ->53 43 ->47 43 ->49 43 ->52 43 ->54 44 ->52 45 ->46 45 ->52 45 ->53 45 ->55 46 ->60 46 ->63 46 ->65 47 ->60 47 ->65 48 ->57 48 ->59 48 ->61 49 ->67 50 ->57 50 ->64 51 ->57 51 ->59 52 ->56 52 ->57 52 ->59 52 ->60 52 ->61 53 ->57 53 ->60 53 ->62 53 ->63 53 ->65 54 ->58 54 ->59 54 ->62 54 ->63 54 ->66 55 ->59 55 ->62 55 ->63 55 ->65 56 ->71 57 ->72 58 ->68 58 ->73 58 ->76 59 ->69 59 ->70 59 ->72 59 ->74 60 ->70 60 ->72 60 ->76 61 ->72 61 ->73 61 ->74 62 ->72 62 ->73 62 ->74 62 ->75 62 ->76 63 ->70 63 ->73 63 ->74 64 ->68 64 ->74 64 ->75 65 ->68 65 ->73 66 ->68 66 ->70 66 ->71 66 ->72 67 ->70 67 ->71 68 ->80 68 ->82 68 ->83 68 ->85 69 ->79 69 ->83 70 ->79 70 ->81 71 ->78 72 ->77 72 ->79 72 ->80 72 ->83 72 ->85 73 ->77 73 ->81 73 ->83 73 ->84 73 ->85 74 ->78 74 ->81 74 ->85 75 ->78 75 ->81 76 ->77 76 ->81 77 ->86 77 ->88 77 ->89 78 ->88 78 ->89 78 ->90 78 ->92 79 ->87 79 ->90 80 ->90 81 ->89 82 ->92 84 ->89 84 ->91 85 ->88 85 ->89 85 ->90 86 ->93 86 ->96 86 ->98 87 ->93 87 ->98 88 ->97 89 ->95 89 ->97 90 ->95 90 ->98 90 ->99 91 ->94 91 ->97 91 ->99 92 ->94 92 ->96 92 ->98 92 ->99 
}
