digraph G {
0 ->12 0 ->18 1 ->9 1 ->10 1 ->18 2 ->9 2 ->13 2 ->14 2 ->17 3 ->7 3 ->11 3 ->12 3 ->13 3 ->15 3 ->17 4 ->7 4 ->8 4 ->10 4 ->11 4 ->13 4 ->17 5 ->7 5 ->14 5 ->15 5 ->16 6 ->9 6 ->11 6 ->13 6 ->14 7 ->20 7 ->23 7 ->26 7 ->27 8 ->19 8 ->21 8 ->22 8 ->23 9 ->22 9 ->23 9 ->26 9 ->27 10 ->22 10 ->26 11 ->21 11 ->26 12 ->22 12 ->27 13 ->22 13 ->23 13 ->24 13 ->25 13 ->26 14 ->19 14 ->24 14 ->25 14 ->26 15 ->19 15 ->27 16 ->19 17 ->23 17 ->25 18 ->19 18 ->22 18 ->24 18 ->27 19 ->28 20 ->28 20 ->30 20 ->31 20 ->32 21 ->29 21 ->35 22 ->29 22 ->30 22 ->32 22 ->35 23 ->28 23 ->31 24 ->33 24 ->34 25 ->31 26 ->32 27 ->29 27 ->31 28 ->38 28 ->40 28 ->43 29 ->40 29 ->41 29 ->42 29 ->43 30 ->37 30 ->38 30 ->39 30 ->40 31 ->39 31 ->42 32 ->36 32 ->37 33 ->41 33 ->42 33 ->43 34 ->38 34 ->41 35 ->38 35 ->40 35 ->42 36 ->46 37 ->46 38 ->45 38 ->51 38 ->54 39 ->46 39 ->48 39 ->49 39 ->50 39 ->51 39 ->52 39 ->54 40 ->44 40 ->46 40 ->53 41 ->44 41 ->45 41 ->47 41 ->54 42 ->48 42 ->50 42 ->51 42 ->54 43 ->50 44 ->59 45 ->58 45 ->61 45 ->62 46 ->55 46 ->61 48 ->57 48 ->58 49 ->61 51 ->58 51 ->60 51 ->61 51 ->62 52 ->61 53 ->56 53 ->58 53 ->59 53 ->62 55 ->63 55 ->71 56 ->64 56 ->65 56 ->71 57 ->64 57 ->66 57 ->68 57 ->69 57 ->72 58 ->64 58 ->65 58 ->68 58 ->72 58 ->72 58 ->73 59 ->63 59 ->65 59 ->67 59 ->68 59 ->69 59 ->73 60 ->66 61 ->65 61 ->66 61 ->71 61 ->72 61 ->73 62 ->66 62 ->68 62 ->69 62 ->70 62 ->73 63 ->79 63 ->81 64 ->75 64 ->78 64 ->81 65 ->77 65 ->78 65 ->79 66 ->80 67 ->74 67 ->81 68 ->74 68 ->75 68 ->77 69 ->74 69 ->77 69 ->78 70 ->76 70 ->77 70 ->78 71 ->75 71 ->76 73 ->76 73 ->77 73 ->79 74 ->82 74 ->85 74 ->89 75 ->86 75 ->89 75 ->90 75 ->91 75 ->93 76 ->83 76 ->84 76 ->85 76 ->86 76 ->87 76 ->91 76 ->93 77 ->84 77 ->86 77 ->88 77 ->89 77 ->92 78 ->84 78 ->87 79 ->83 79 ->85 79 ->87 79 ->93 80 ->86 80 ->88 81 ->83 81 ->84 81 ->91 83 ->99 84 ->96 84 ->98 85 ->95 86 ->96 86 ->98 86 ->99 87 ->97 88 ->99 90 ->94 90 ->95 91 ->96 92 ->99 
}
