digraph G {
0 ->10 0 ->12 0 ->14 0 ->15 1 ->10 1 ->14 1 ->17 2 ->14 2 ->16 3 ->10 3 ->11 3 ->12 3 ->16 4 ->13 5 ->17 6 ->13 7 ->11 7 ->14 7 ->15 7 ->17 8 ->10 8 ->11 8 ->12 8 ->14 8 ->15 9 ->10 9 ->11 9 ->15 10 ->19 10 ->24 11 ->22 11 ->26 11 ->27 12 ->21 12 ->24 12 ->25 13 ->20 14 ->20 14 ->23 14 ->25 14 ->27 14 ->28 15 ->19 15 ->20 15 ->22 15 ->24 15 ->26 15 ->27 15 ->29 16 ->20 16 ->23 16 ->24 16 ->25 16 ->27 17 ->18 17 ->21 17 ->28 17 ->29 18 ->31 18 ->34 18 ->35 19 ->31 19 ->35 19 ->37 20 ->31 20 ->32 20 ->36 21 ->32 21 ->32 21 ->36 21 ->38 22 ->32 22 ->36 24 ->31 25 ->30 25 ->32 25 ->34 25 ->35 25 ->36 25 ->38 26 ->32 26 ->33 26 ->36 26 ->38 27 ->34 27 ->36 27 ->38 28 ->30 28 ->31 28 ->34 29 ->30 29 ->31 29 ->33 29 ->34 30 ->39 30 ->44 31 ->39 31 ->40 31 ->43 31 ->44 31 ->45 32 ->42 32 ->45 32 ->46 33 ->42 33 ->43 33 ->46 34 ->44 34 ->46 35 ->43 35 ->47 36 ->42 36 ->47 37 ->39 37 ->40 37 ->41 37 ->42 37 ->44 37 ->47 38 ->39 38 ->40 38 ->42 38 ->43 38 ->44 38 ->46 38 ->47 40 ->48 40 ->52 41 ->49 42 ->49 42 ->50 43 ->51 44 ->50 44 ->54 45 ->49 45 ->50 45 ->52 45 ->53 46 ->49 46 ->53 46 ->54 47 ->49 47 ->50 49 ->55 49 ->57 50 ->58 50 ->59 50 ->60 51 ->58 51 ->59 51 ->60 52 ->55 52 ->56 52 ->60 53 ->56 53 ->57 53 ->62 54 ->56 54 ->57 54 ->59 54 ->61 55 ->63 55 ->64 55 ->69 55 ->70 56 ->64 56 ->64 56 ->68 56 ->69 57 ->64 57 ->65 57 ->66 57 ->69 57 ->70 57 ->71 58 ->67 58 ->70 59 ->71 60 ->63 60 ->65 60 ->67 61 ->63 61 ->66 62 ->63 62 ->69 62 ->71 63 ->80 65 ->74 66 ->72 67 ->73 67 ->74 67 ->76 67 ->78 67 ->79 68 ->75 68 ->79 69 ->74 69 ->80 70 ->74 70 ->77 71 ->74 71 ->80 72 ->82 72 ->84 72 ->85 72 ->86 72 ->87 73 ->82 73 ->85 73 ->86 73 ->87 74 ->85 75 ->83 75 ->84 75 ->86 76 ->83 76 ->86 76 ->87 77 ->81 77 ->82 77 ->87 78 ->81 78 ->83 78 ->86 79 ->81 80 ->87 81 ->93 81 ->96 82 ->90 82 ->92 83 ->90 84 ->88 84 ->89 84 ->90 85 ->88 85 ->89 85 ->90 85 ->94 85 ->97 86 ->88 86 ->89 86 ->91 86 ->94 86 ->95 86 ->96 88 ->98 89 ->98 90 ->98 91 ->99 94 ->98 94 ->99 95 ->98 95 ->99 96 ->99 97 ->99 
}
