digraph G {
0 ->10 0 ->14 1 ->10 1 ->12 2 ->7 2 ->8 2 ->16 3 ->10 3 ->14 4 ->7 4 ->9 4 ->10 4 ->11 4 ->15 5 ->7 5 ->9 5 ->11 5 ->11 5 ->12 5 ->13 5 ->15 5 ->16 6 ->9 6 ->15 6 ->16 7 ->17 7 ->21 8 ->19 8 ->20 9 ->18 9 ->20 9 ->21 9 ->22 9 ->24 10 ->18 10 ->19 10 ->21 10 ->22 10 ->23 10 ->25 11 ->19 11 ->21 11 ->24 12 ->18 12 ->24 13 ->17 14 ->19 14 ->22 14 ->24 15 ->25 16 ->22 17 ->29 17 ->32 17 ->33 19 ->27 19 ->28 19 ->29 20 ->30 20 ->33 21 ->29 21 ->30 21 ->34 22 ->30 22 ->30 22 ->31 22 ->32 22 ->34 23 ->33 24 ->26 24 ->32 24 ->33 24 ->34 25 ->29 25 ->33 26 ->35 26 ->36 26 ->42 27 ->39 27 ->41 28 ->38 28 ->40 29 ->38 29 ->39 30 ->35 30 ->36 30 ->37 31 ->35 31 ->36 31 ->42 32 ->40 32 ->41 32 ->42 33 ->36 33 ->39 33 ->40 33 ->42 34 ->42 35 ->45 35 ->49 35 ->51 36 ->48 37 ->44 37 ->46 37 ->47 37 ->48 37 ->51 38 ->43 38 ->46 39 ->43 39 ->44 39 ->49 39 ->50 40 ->46 40 ->47 41 ->45 41 ->47 41 ->50 41 ->51 42 ->45 42 ->47 42 ->49 43 ->54 43 ->56 43 ->58 44 ->53 44 ->55 44 ->57 45 ->53 46 ->54 46 ->55 46 ->57 47 ->53 47 ->55 47 ->58 48 ->53 49 ->52 49 ->53 49 ->55 49 ->58 50 ->54 50 ->55 51 ->58 52 ->60 52 ->61 52 ->63 52 ->64 52 ->65 52 ->68 53 ->62 53 ->65 53 ->67 54 ->62 54 ->65 54 ->66 55 ->59 55 ->61 55 ->62 55 ->66 56 ->59 56 ->66 57 ->59 57 ->63 57 ->68 58 ->59 58 ->67 58 ->68 59 ->71 59 ->75 59 ->79 60 ->72 60 ->74 60 ->75 60 ->79 61 ->69 61 ->70 61 ->73 61 ->75 61 ->78 61 ->79 62 ->69 62 ->72 62 ->73 62 ->75 62 ->76 62 ->77 63 ->69 63 ->76 63 ->77 63 ->78 63 ->79 64 ->72 64 ->78 65 ->69 65 ->78 66 ->70 66 ->77 67 ->71 67 ->76 67 ->77 68 ->73 68 ->75 68 ->76 68 ->78 69 ->87 69 ->88 70 ->81 70 ->82 70 ->85 70 ->86 70 ->87 70 ->90 71 ->80 71 ->83 71 ->85 71 ->87 71 ->90 72 ->84 72 ->85 72 ->85 72 ->88 73 ->81 73 ->83 73 ->89 74 ->80 74 ->81 74 ->83 74 ->88 74 ->89 75 ->81 75 ->82 75 ->84 75 ->88 76 ->84 76 ->87 76 ->88 76 ->88 76 ->89 77 ->80 77 ->81 77 ->84 77 ->90 78 ->84 78 ->85 78 ->87 79 ->85 79 ->86 79 ->87 80 ->93 80 ->94 80 ->95 81 ->91 81 ->92 81 ->97 82 ->91 82 ->92 82 ->94 82 ->97 82 ->99 83 ->92 83 ->96 83 ->97 83 ->97 83 ->99 86 ->95 86 ->97 86 ->98 86 ->99 87 ->95 87 ->97 88 ->93 88 ->94 88 ->96 88 ->98 89 ->92 89 ->95 90 ->91 90 ->94 
}
