files/tasks_parameters/ExAp01/sample8.txt 1.79551 6.77015 2.19458 0.288816 5.45111
files/tasks_parameters/ExAp01/sample12.txt 2.08625 9.58351 2.46081 0.337498 6.36994
files/tasks_parameters/ExAp01/sample2.txt 1.96438 8.44418 2.50701 0.319127 6.0232
files/tasks_parameters/ExAp01/sample44.txt 1.77449 6.96299 2.23089 0.28229 5.32794
files/tasks_parameters/ExAp01/sample27.txt 1.82083 7.74306 2.16676 0.28602 5.39833
files/tasks_parameters/ExAp01/sample17.txt 1.82647 7.35053 2.25579 0.292348 5.51776
files/tasks_parameters/ExAp01/sample9.txt 1.77378 6.89392 2.21068 0.282399 5.32999
files/tasks_parameters/ExAp01/sample34.txt 1.8595 6.62788 2.3772 0.297742 5.61957
files/tasks_parameters/ExAp01/sample40.txt 1.78265 7.75686 2.17534 0.285619 5.39077
files/tasks_parameters/ExAp01/sample33.txt 2.10872 8.14826 2.6463 0.338073 6.38078
files/tasks_parameters/ExAp01/sample48.txt 1.6817 7.64107 2.14272 0.270011 5.09618
files/tasks_parameters/ExAp01/sample29.txt 1.79292 7.139 1.93769 0.286306 5.40373
files/tasks_parameters/ExAp01/sample11.txt 1.77961 6.88688 2.12981 0.280008 5.28487
files/tasks_parameters/ExAp01/sample14.txt 1.54085 6.11983 1.97599 0.247458 4.67051
files/tasks_parameters/ExAp01/sample0.txt 1.80594 8.2738 2.14256 0.289132 5.45707
files/tasks_parameters/ExAp01/sample7.txt 1.68423 6.87011 2.05821 0.269886 5.09381
files/tasks_parameters/ExAp01/sample23.txt 1.82626 6.52032 2.38087 0.291712 5.50576
files/tasks_parameters/ExAp01/sample13.txt 1.85123 8.73247 2.33415 0.295393 5.57523
files/tasks_parameters/ExAp01/sample22.txt 1.79947 6.9777 2.28948 0.283979 5.35982
files/tasks_parameters/ExAp01/sample25.txt 1.66644 6.23444 2.2122 0.267298 5.04497
files/tasks_parameters/ExAp01/sample36.txt 1.57609 6.6174 1.9458 0.253823 4.79064
files/tasks_parameters/ExAp01/sample46.txt 2.05269 7.42369 2.49128 0.327273 6.17694
files/tasks_parameters/ExAp01/sample31.txt 1.59522 7.22028 2.13584 0.25377 4.78964
files/tasks_parameters/ExAp01/sample37.txt 1.84199 8.90704 2.16981 0.295708 5.58119
files/tasks_parameters/ExAp01/sample16.txt 1.56669 8.18243 1.88294 0.24945 4.70811
files/tasks_parameters/ExAp01/sample10.txt 1.7759 6.96646 2.31217 0.285748 5.3932
files/tasks_parameters/ExAp01/sample39.txt 1.57652 6.4161 1.97266 0.251967 4.75561
files/tasks_parameters/ExAp01/sample19.txt 1.91117 8.16711 2.23199 0.308463 5.82192
files/tasks_parameters/ExAp01/sample20.txt 1.63255 7.28549 1.88944 0.25994 4.9061
files/tasks_parameters/ExAp01/sample43.txt 1.60519 6.86804 2.00142 0.25616 4.83476
files/tasks_parameters/ExAp01/sample32.txt 1.76156 8.15663 2.12995 0.281726 5.3173
files/tasks_parameters/ExAp01/sample45.txt 1.72573 7.75184 2.10599 0.274935 5.18911
files/tasks_parameters/ExAp01/sample26.txt 1.65193 7.4944 1.88956 0.267248 5.04403
files/tasks_parameters/ExAp01/sample5.txt 1.77743 8.08362 2.09961 0.28454 5.37041
files/tasks_parameters/ExAp01/sample21.txt 1.65763 6.11814 2.17119 0.26143 4.93422
files/tasks_parameters/ExAp01/sample38.txt 1.64962 7.761 1.96293 0.263659 4.97629
files/tasks_parameters/ExAp01/sample1.txt 1.80667 7.83752 2.13261 0.289228 5.45888
files/tasks_parameters/ExAp01/sample15.txt 1.79841 7.37971 2.12057 0.285825 5.39466
files/tasks_parameters/ExAp01/sample24.txt 1.85207 8.28531 2.25272 0.296628 5.59856
files/tasks_parameters/ExAp01/sample3.txt 1.87264 7.33359 2.39135 0.305084 5.75816
files/tasks_parameters/ExAp01/sample6.txt 1.77225 7.09894 2.24425 0.281804 5.31877
files/tasks_parameters/ExAp01/sample30.txt 1.83493 8.17669 2.03701 0.299204 5.64717
files/tasks_parameters/ExAp01/sample42.txt 1.84825 7.70416 2.42413 0.29743 5.61368
files/tasks_parameters/ExAp01/sample4.txt 1.95076 7.41691 2.36261 0.307803 5.80946
files/tasks_parameters/ExAp01/sample28.txt 1.67713 7.0562 2.07657 0.266428 5.02855
files/tasks_parameters/ExAp01/sample18.txt 1.66376 7.60139 2.1377 0.268016 5.05853
files/tasks_parameters/ExAp01/sample35.txt 2.02622 9.66795 2.28028 0.32244 6.08572
files/tasks_parameters/ExAp01/sample47.txt 1.57412 6.84842 2.12104 0.251655 4.74972
files/tasks_parameters/ExAp01/sample49.txt 1.61086 7.1497 2.11412 0.255889 4.82964
files/tasks_parameters/ExAp01/sample41.txt 1.67086 6.59911 2.07359 0.265885 5.01831
