files/tasks_parameters/ExAp01/sample8.txt 0.788883 3.15778 1.5595 0.203411 3.83918
files/tasks_parameters/ExAp01/sample12.txt 0.806027 3.94962 1.6705 0.207924 3.92435
files/tasks_parameters/ExAp01/sample2.txt 0.771251 3.78275 1.74131 0.200098 3.77664
files/tasks_parameters/ExAp01/sample44.txt 0.690066 3.59825 1.65317 0.200005 3.77489
files/tasks_parameters/ExAp01/sample27.txt 0.711201 3.45743 1.5148 0.182129 3.43749
files/tasks_parameters/ExAp01/sample17.txt 0.794757 2.77299 1.44514 0.14646 2.76428
files/tasks_parameters/ExAp01/sample9.txt 0.718351 2.99933 1.451 0.177444 3.34906
files/tasks_parameters/ExAp01/sample34.txt 0.82455 3.02928 1.58429 0.157984 2.98178
files/tasks_parameters/ExAp01/sample40.txt 0.747968 3.86889 1.52122 0.168379 3.17799
files/tasks_parameters/ExAp01/sample33.txt 0.805074 3.63695 1.71905 0.199765 3.77036
files/tasks_parameters/ExAp01/sample48.txt 0.663134 3.39061 1.49062 0.154728 2.92034
files/tasks_parameters/ExAp01/sample29.txt 0.728354 3.30472 1.38739 0.223868 4.22528
files/tasks_parameters/ExAp01/sample11.txt 0.707448 3.10585 1.41612 0.174079 3.28555
files/tasks_parameters/ExAp01/sample14.txt 0.655254 2.70971 1.43432 0.162214 3.06163
files/tasks_parameters/ExAp01/sample0.txt 0.7503 3.6937 1.5439 0.18367 3.46658
files/tasks_parameters/ExAp01/sample7.txt 0.778871 2.70501 1.42221 0.143463 2.70772
files/tasks_parameters/ExAp01/sample23.txt 0.75565 3.2697 1.57822 0.181448 3.42465
files/tasks_parameters/ExAp01/sample13.txt 0.732855 3.84225 1.67648 0.198247 3.74171
files/tasks_parameters/ExAp01/sample22.txt 0.783248 3.09569 1.56121 0.148796 2.80837
files/tasks_parameters/ExAp01/sample25.txt 0.721425 2.73966 1.5007 0.148149 2.79615
files/tasks_parameters/ExAp01/sample36.txt 0.708717 2.85948 1.28553 0.130042 2.45441
files/tasks_parameters/ExAp01/sample46.txt 0.750461 3.58643 1.69998 0.210103 3.96547
files/tasks_parameters/ExAp01/sample31.txt 0.69029 3.4832 1.53782 0.1722 3.2501
files/tasks_parameters/ExAp01/sample37.txt 0.747986 3.95293 1.50705 0.171701 3.24068
files/tasks_parameters/ExAp01/sample16.txt 0.602764 3.31216 1.30115 0.150249 2.8358
files/tasks_parameters/ExAp01/sample10.txt 0.850411 3.17098 1.61789 0.153776 2.90237
files/tasks_parameters/ExAp01/sample39.txt 0.693858 3.26617 1.44406 0.165669 3.12683
files/tasks_parameters/ExAp01/sample19.txt 0.736989 3.63532 1.52509 0.196094 3.70108
files/tasks_parameters/ExAp01/sample20.txt 0.662661 3.20793 1.25367 0.147335 2.7808
files/tasks_parameters/ExAp01/sample43.txt 0.647821 3.11551 1.4202 0.150644 2.84326
files/tasks_parameters/ExAp01/sample32.txt 0.722684 3.5311 1.42482 0.168744 3.18487
files/tasks_parameters/ExAp01/sample45.txt 0.745711 3.80283 1.48324 0.19807 3.73838
files/tasks_parameters/ExAp01/sample26.txt 0.632145 3.21645 1.29701 0.166061 3.13424
files/tasks_parameters/ExAp01/sample5.txt 0.631675 3.5889 1.52559 0.178903 3.37662
files/tasks_parameters/ExAp01/sample21.txt 0.668308 2.75242 1.55936 0.19512 3.6827
files/tasks_parameters/ExAp01/sample38.txt 0.663196 3.31563 1.37515 0.166157 3.13604
files/tasks_parameters/ExAp01/sample1.txt 0.727199 3.74964 1.51696 0.19701 3.71835
files/tasks_parameters/ExAp01/sample15.txt 0.695979 3.32916 1.48508 0.180707 3.41067
files/tasks_parameters/ExAp01/sample24.txt 0.809905 3.45951 1.59549 0.16529 3.11969
files/tasks_parameters/ExAp01/sample3.txt 0.88245 3.70014 1.70809 0.237107 4.47515
files/tasks_parameters/ExAp01/sample6.txt 0.70083 3.33003 1.58323 0.184714 3.4863
files/tasks_parameters/ExAp01/sample30.txt 0.806709 4.1841 1.4861 0.239623 4.52264
files/tasks_parameters/ExAp01/sample42.txt 0.747833 3.43221 1.70276 0.177383 3.34792
files/tasks_parameters/ExAp01/sample4.txt 0.785048 3.72477 1.6136 0.196448 3.70776
files/tasks_parameters/ExAp01/sample28.txt 0.685445 3.11323 1.45032 0.158819 2.99755
files/tasks_parameters/ExAp01/sample18.txt 0.764248 3.47418 1.45209 0.149064 2.81343
files/tasks_parameters/ExAp01/sample35.txt 0.790576 4.57086 1.49394 0.185031 3.49226
files/tasks_parameters/ExAp01/sample47.txt 0.708764 3.13768 1.52397 0.16417 3.09854
files/tasks_parameters/ExAp01/sample49.txt 0.766167 3.13288 1.49657 0.156154 2.94725
files/tasks_parameters/ExAp01/sample41.txt 0.761689 2.81964 1.49636 0.150876 2.84763
