0.34815720000000006
Task0 63 63 127 
Task1 255 15 255 
Task2 127 127 63 
Task3 63 255 255 
Task4 255 63 15 
Task5 15 255 63 
Task6 127 7 127 
Task7 31 63 1 
Task8 7 7 255 
Task9 255 63 31 
Task10 31 31 63 
Task11 63 31 3 
Task12 255 31 255 
Task13 7 255 1 
Task14 127 255 255 
Task15 63 63 63 
Task16 15 127 31 
Task17 1 7 255 
Task18 63 127 31 
Task19 255 15 63 
Task20 63 31 31 
Task21 1 7 255 
Task22 3 255 31 
Task23 63 63 31 
Task24 15 15 255 
Task25 1 31 255 
Task26 15 255 31 
Task27 63 3 31 
Task28 63 15 255 
Task29 31 63 63 
Task30 63 127 63 
Task31 31 63 7 
Task32 63 31 255 
Task33 63 31 63 
Task34 127 1 15 
Task35 255 63 127 
Task36 255 63 255 
Task37 1 255 15 
Task38 255 15 127 
Task39 7 63 3 
Task40 63 127 63 
Task41 127 255 31 
Task42 3 63 127 
Task43 63 127 3 
Task44 63 31 255 
Task45 31 127 127 
Task46 15 15 255 
Task47 15 127 127 
Task48 63 63 31 
Task49 31 255 31 
Task50 63 255 127 
Task51 31 255 15 
Task52 255 31 15 
Task53 31 7 63 
Task54 31 255 63 
Task55 1 255 127 
Task56 255 7 15 
Task57 255 255 127 
Task58 15 63 1 
Task59 255 3 7 
Task60 127 3 15 
Task61 63 63 63 
Task62 255 255 31 
Task63 31 127 15 
Task64 7 127 63 
Task65 255 31 63 
Task66 1 31 63 
Task67 1 255 127 
Task68 63 127 15 
Task69 31 15 63 
Task70 255 15 127 
Task71 15 63 127 
Task72 31 255 255 
Task73 63 15 63 
Task74 1 127 31 
Task75 7 31 63 
Task76 31 255 127 
Task77 15 127 31 
Task78 3 63 7 
Task79 127 127 255 
Task80 63 15 3 
Task81 3 63 3 
Task82 255 31 255 
Task83 1 63 7 
Task84 1 127 63 
Task85 63 31 15 
Task86 3 15 255 
Task87 63 15 63 
Task88 31 63 127 
Task89 63 127 63 
Task90 31 31 255 
Task91 63 127 31 
Task92 7 255 255 
Task93 31 7 127 
Task94 3 31 63 
Task95 255 7 255 
Task96 63 7 15 
Task97 255 31 127 
Task98 1 63 63 
Task99 31 15 255 
