files/tasks_parameters/ExAp01/sample8.txt 1.30055 6.77015 2.19458 0.288816 13.3731
files/tasks_parameters/ExAp01/sample12.txt 1.38984 9.58351 2.46081 0.337498 15.6272
files/tasks_parameters/ExAp01/sample2.txt 1.36399 8.44418 2.50701 0.319127 14.7766
files/tasks_parameters/ExAp01/sample44.txt 1.1784 6.96299 2.23089 0.28229 13.0709
files/tasks_parameters/ExAp01/sample27.txt 1.18687 7.74306 2.16676 0.28602 13.2436
files/tasks_parameters/ExAp01/sample17.txt 1.23678 7.35053 2.25579 0.292348 13.5366
files/tasks_parameters/ExAp01/sample9.txt 1.12736 6.89392 2.21068 0.282399 13.0759
files/tasks_parameters/ExAp01/sample34.txt 1.28278 6.62788 2.3772 0.297742 13.7863
files/tasks_parameters/ExAp01/sample40.txt 1.16965 7.75686 2.17534 0.285619 13.225
files/tasks_parameters/ExAp01/sample33.txt 1.43874 8.14826 2.6463 0.338073 15.6538
files/tasks_parameters/ExAp01/sample48.txt 1.10537 7.64107 2.14272 0.270011 12.5023
files/tasks_parameters/ExAp01/sample29.txt 1.07754 7.139 1.93769 0.286306 13.2568
files/tasks_parameters/ExAp01/sample11.txt 1.21625 6.88688 2.12981 0.280008 12.9652
files/tasks_parameters/ExAp01/sample14.txt 1.03468 6.11983 1.97599 0.247458 11.458
files/tasks_parameters/ExAp01/sample0.txt 1.19505 8.2738 2.14256 0.289132 13.3877
files/tasks_parameters/ExAp01/sample7.txt 1.06485 6.87011 2.05821 0.269886 12.4965
files/tasks_parameters/ExAp01/sample23.txt 1.31411 6.52032 2.38087 0.291712 13.5071
files/tasks_parameters/ExAp01/sample13.txt 1.39187 8.73247 2.33415 0.295393 13.6776
files/tasks_parameters/ExAp01/sample22.txt 1.11657 6.9777 2.28948 0.283979 13.1491
files/tasks_parameters/ExAp01/sample25.txt 1.06135 6.23444 2.2122 0.267298 12.3767
files/tasks_parameters/ExAp01/sample36.txt 1.03949 6.6174 1.9458 0.253823 11.7528
files/tasks_parameters/ExAp01/sample46.txt 1.41594 7.42369 2.49128 0.327273 15.1537
files/tasks_parameters/ExAp01/sample31.txt 1.03316 7.22028 2.13584 0.25377 11.7503
files/tasks_parameters/ExAp01/sample37.txt 1.28828 8.90704 2.16981 0.295708 13.6922
files/tasks_parameters/ExAp01/sample16.txt 1.04249 8.18243 1.88294 0.24945 11.5503
files/tasks_parameters/ExAp01/sample10.txt 1.0961 6.96646 2.31217 0.285748 13.231
files/tasks_parameters/ExAp01/sample39.txt 1.14789 6.4161 1.97266 0.251967 11.6668
files/tasks_parameters/ExAp01/sample19.txt 1.30772 8.16711 2.23199 0.308463 14.2828
files/tasks_parameters/ExAp01/sample20.txt 1.02075 7.28549 1.88944 0.25994 12.036
files/tasks_parameters/ExAp01/sample43.txt 1.13144 6.86804 2.00142 0.25616 11.861
files/tasks_parameters/ExAp01/sample32.txt 1.11326 8.15663 2.12995 0.281726 13.0448
files/tasks_parameters/ExAp01/sample45.txt 1.16369 7.75184 2.10599 0.274935 12.7303
files/tasks_parameters/ExAp01/sample26.txt 1.06868 7.4944 1.88956 0.267248 12.3744
files/tasks_parameters/ExAp01/sample5.txt 1.27139 8.08362 2.09961 0.28454 13.1751
files/tasks_parameters/ExAp01/sample21.txt 1.16128 6.11814 2.17119 0.26143 12.105
files/tasks_parameters/ExAp01/sample38.txt 1.10927 7.761 1.96293 0.263659 12.2082
files/tasks_parameters/ExAp01/sample1.txt 1.26477 7.83752 2.13261 0.289228 13.3921
files/tasks_parameters/ExAp01/sample15.txt 1.17868 7.37971 2.12057 0.285825 13.2346
files/tasks_parameters/ExAp01/sample24.txt 1.20909 8.28531 2.25272 0.296628 13.7348
files/tasks_parameters/ExAp01/sample3.txt 1.22737 7.33359 2.39135 0.305084 14.1263
files/tasks_parameters/ExAp01/sample6.txt 1.21607 7.09894 2.24425 0.281804 13.0484
files/tasks_parameters/ExAp01/sample30.txt 1.35853 8.17669 2.03701 0.299204 13.8541
files/tasks_parameters/ExAp01/sample42.txt 1.30189 7.70416 2.42413 0.29743 13.7719
files/tasks_parameters/ExAp01/sample4.txt 1.2836 7.41691 2.36261 0.307803 14.2522
files/tasks_parameters/ExAp01/sample28.txt 1.18772 7.0562 2.07657 0.266428 12.3364
files/tasks_parameters/ExAp01/sample18.txt 1.21705 7.60139 2.1377 0.268016 12.41
files/tasks_parameters/ExAp01/sample35.txt 1.32191 9.66795 2.28028 0.32244 14.9299
files/tasks_parameters/ExAp01/sample47.txt 1.0421 6.84842 2.12104 0.251655 11.6524
files/tasks_parameters/ExAp01/sample49.txt 1.09523 7.1497 2.11412 0.255889 11.8484
files/tasks_parameters/ExAp01/sample41.txt 1.05331 6.59911 2.07359 0.265885 12.3113
