files/tasks_parameters/ExAp01/sample8.txt 1.95652 6.77015 2.19458 0.288816 4.79724
files/tasks_parameters/ExAp01/sample12.txt 2.24424 9.58351 2.46081 0.337498 5.60585
files/tasks_parameters/ExAp01/sample2.txt 2.16968 8.44418 2.50701 0.319127 5.30071
files/tasks_parameters/ExAp01/sample44.txt 1.89369 6.96299 2.23089 0.28229 4.68884
files/tasks_parameters/ExAp01/sample27.txt 1.91262 7.74306 2.16676 0.28602 4.75079
files/tasks_parameters/ExAp01/sample17.txt 1.95241 7.35053 2.25579 0.292348 4.85589
files/tasks_parameters/ExAp01/sample9.txt 1.88642 6.89392 2.21068 0.282399 4.69065
files/tasks_parameters/ExAp01/sample34.txt 2.02154 6.62788 2.3772 0.297742 4.94549
files/tasks_parameters/ExAp01/sample40.txt 1.93181 7.75686 2.17534 0.285619 4.74414
files/tasks_parameters/ExAp01/sample33.txt 2.26945 8.14826 2.6463 0.338073 5.6154
files/tasks_parameters/ExAp01/sample48.txt 1.82537 7.64107 2.14272 0.270011 4.48489
files/tasks_parameters/ExAp01/sample29.txt 1.87624 7.139 1.93769 0.286306 4.75554
files/tasks_parameters/ExAp01/sample11.txt 1.88649 6.88688 2.12981 0.280008 4.65094
files/tasks_parameters/ExAp01/sample14.txt 1.64674 6.11983 1.97599 0.247458 4.11027
files/tasks_parameters/ExAp01/sample0.txt 1.97761 8.2738 2.14256 0.289132 4.80248
files/tasks_parameters/ExAp01/sample7.txt 1.82179 6.87011 2.05821 0.269886 4.4828
files/tasks_parameters/ExAp01/sample23.txt 1.97822 6.52032 2.38087 0.291712 4.84533
files/tasks_parameters/ExAp01/sample13.txt 2.00267 8.73247 2.33415 0.295393 4.90647
files/tasks_parameters/ExAp01/sample22.txt 1.93139 6.9777 2.28948 0.283979 4.7169
files/tasks_parameters/ExAp01/sample25.txt 1.79573 6.23444 2.2122 0.267298 4.43982
files/tasks_parameters/ExAp01/sample36.txt 1.6895 6.6174 1.9458 0.253823 4.216
files/tasks_parameters/ExAp01/sample46.txt 2.19111 7.42369 2.49128 0.327273 5.436
files/tasks_parameters/ExAp01/sample31.txt 1.70562 7.22028 2.13584 0.25377 4.21512
files/tasks_parameters/ExAp01/sample37.txt 1.97665 8.90704 2.16981 0.295708 4.91171
files/tasks_parameters/ExAp01/sample16.txt 1.67414 8.18243 1.88294 0.24945 4.14336
files/tasks_parameters/ExAp01/sample10.txt 1.92836 6.96646 2.31217 0.285748 4.74627
files/tasks_parameters/ExAp01/sample39.txt 1.68874 6.4161 1.97266 0.251967 4.18517
files/tasks_parameters/ExAp01/sample19.txt 2.07496 8.16711 2.23199 0.308463 5.12357
files/tasks_parameters/ExAp01/sample20.txt 1.71983 7.28549 1.88944 0.25994 4.3176
files/tasks_parameters/ExAp01/sample43.txt 1.72335 6.86804 2.00142 0.25616 4.25482
files/tasks_parameters/ExAp01/sample32.txt 1.89175 8.15663 2.12995 0.281726 4.67948
files/tasks_parameters/ExAp01/sample45.txt 1.83482 7.75184 2.10599 0.274935 4.56667
files/tasks_parameters/ExAp01/sample26.txt 1.80926 7.4944 1.88956 0.267248 4.43899
files/tasks_parameters/ExAp01/sample5.txt 1.91508 8.08362 2.09961 0.28454 4.72622
files/tasks_parameters/ExAp01/sample21.txt 1.75894 6.11814 2.17119 0.26143 4.34235
files/tasks_parameters/ExAp01/sample38.txt 1.76164 7.761 1.96293 0.263659 4.37938
files/tasks_parameters/ExAp01/sample1.txt 1.93856 7.83752 2.13261 0.289228 4.80408
files/tasks_parameters/ExAp01/sample15.txt 1.91673 7.37971 2.12057 0.285825 4.74756
files/tasks_parameters/ExAp01/sample24.txt 2.00851 8.28531 2.25272 0.296628 4.927
files/tasks_parameters/ExAp01/sample3.txt 2.05169 7.33359 2.39135 0.305084 5.06745
files/tasks_parameters/ExAp01/sample6.txt 1.86977 7.09894 2.24425 0.281804 4.68077
files/tasks_parameters/ExAp01/sample30.txt 2.00233 8.17669 2.03701 0.299204 4.96978
files/tasks_parameters/ExAp01/sample42.txt 1.98517 7.70416 2.42413 0.29743 4.94031
files/tasks_parameters/ExAp01/sample4.txt 2.07187 7.41691 2.36261 0.307803 5.1126
files/tasks_parameters/ExAp01/sample28.txt 1.77295 7.0562 2.07657 0.266428 4.42537
files/tasks_parameters/ExAp01/sample18.txt 1.81781 7.60139 2.1377 0.268016 4.45175
files/tasks_parameters/ExAp01/sample35.txt 2.16832 9.66795 2.28028 0.32244 5.35572
files/tasks_parameters/ExAp01/sample47.txt 1.68861 6.84842 2.12104 0.251655 4.17999
files/tasks_parameters/ExAp01/sample49.txt 1.69927 7.1497 2.11412 0.255889 4.25032
files/tasks_parameters/ExAp01/sample41.txt 1.7571 6.59911 2.07359 0.265885 4.41636
