0 24
0 25
0 26
1 21
1 24
1 26
2 25
3 20
3 23
3 26
4 27
5 20
5 23
5 24
5 26
6 24
6 25
6 26
7 20
7 24
7 25
7 26
8 20
8 22
8 26
9 21
9 25
10 20
10 21
10 24
11 21
11 23
12 21
12 27
13 21
13 25
14 21
14 24
14 25
15 21
15 27
16 20
17 27
18 22
18 26
19 21
19 26
20 29
20 35
20 36
20 41
20 43
21 31
21 40
21 41
22 28
22 32
22 38
22 43
23 29
23 30
23 31
23 32
23 44
24 29
24 32
24 33
24 34
24 35
24 41
25 28
25 33
25 35
25 39
25 40
25 43
25 45
26 28
26 29
26 30
26 33
26 35
26 36
26 37
27 28
27 32
27 33
27 42
27 43
27 45
28 47
28 51
28 53
28 61
29 50
29 51
29 54
29 58
29 60
29 61
30 46
30 52
30 55
30 59
31 47
31 49
31 53
31 56
31 59
31 60
32 46
32 47
32 48
32 53
32 56
32 59
32 61
33 46
33 48
33 52
33 61
33 62
34 47
34 51
34 52
34 53
34 54
34 62
35 46
35 51
35 54
35 62
36 46
36 47
36 49
36 51
36 54
36 55
36 56
37 46
37 49
37 51
37 54
37 55
37 58
37 60
38 56
38 58
39 47
39 55
39 58
39 62
40 47
40 48
40 50
40 53
40 55
40 56
41 50
41 51
41 53
41 53
41 55
41 56
41 58
41 62
42 46
42 47
42 53
42 54
42 55
42 59
42 60
42 62
43 48
43 55
43 58
43 60
43 62
44 48
44 51
44 58
44 60
44 61
45 50
45 51
45 52
45 53
45 56
45 57
45 59
45 60
46 63
46 67
46 70
46 73
46 77
47 69
47 75
47 76
48 68
48 76
48 76
48 77
49 63
49 64
49 65
49 70
49 74
50 66
50 67
50 70
51 66
51 70
51 77
52 77
53 67
53 70
53 72
53 75
54 66
54 69
54 76
55 66
55 69
55 76
56 63
56 66
56 67
56 71
56 72
56 77
57 65
57 66
57 67
57 72
58 64
58 65
58 66
58 67
58 69
58 72
58 74
59 63
59 66
59 67
59 72
59 74
60 63
60 69
60 70
60 72
60 73
60 74
60 76
61 66
61 70
61 74
62 70
62 74
62 74
62 76
62 77
63 80
63 91
63 94
64 80
64 84
64 87
64 90
64 91
64 93
64 94
64 97
65 82
65 91
65 93
66 80
66 84
66 95
67 81
67 95
68 80
68 82
68 88
68 89
68 95
69 79
69 84
69 88
69 91
69 95
69 97
70 78
70 81
70 83
70 85
70 92
70 93
70 94
71 80
71 83
71 88
71 92
71 97
72 78
72 83
72 91
72 93
72 94
73 80
73 84
73 86
73 88
73 93
73 94
73 95
73 96
74 79
74 80
74 81
74 86
74 93
74 94
74 95
75 78
75 81
75 83
75 84
75 88
75 91
75 93
76 78
76 83
76 95
77 78
77 82
77 84
77 87
77 91
78 98
78 101
78 113
79 103
79 105
79 107
79 108
79 110
80 101
80 102
81 98
81 101
81 102
81 108
82 98
82 101
82 102
82 104
82 105
83 100
83 102
83 104
83 109
83 111
84 98
84 99
84 105
84 109
84 112
85 104
86 102
86 104
86 106
86 110
86 113
87 101
87 102
87 104
87 107
87 108
87 109
87 113
88 98
88 104
88 106
88 107
88 113
89 106
89 107
89 113
90 98
90 101
90 103
90 104
90 105
90 106
90 107
90 108
91 98
91 104
91 106
91 108
91 111
92 98
92 101
92 106
92 110
93 102
93 107
93 109
93 110
94 98
94 102
94 104
94 106
94 108
94 110
94 113
95 101
95 104
95 105
95 108
95 110
95 113
96 100
96 105
96 107
96 108
96 113
97 98
97 100
97 107
97 110
97 113
98 115
98 121
98 122
98 124
98 129
99 115
99 124
99 126
99 127
99 128
100 121
100 125
101 115
101 117
101 125
102 115
102 116
102 118
102 119
102 121
102 126
102 129
103 114
103 115
103 116
103 117
103 123
103 125
103 126
103 127
103 128
103 129
104 116
104 122
104 126
104 127
105 116
105 123
105 126
106 115
106 116
106 120
106 121
106 122
106 123
106 127
106 128
107 116
107 121
107 122
107 124
107 129
108 116
109 119
109 123
109 125
110 115
110 116
110 118
110 126
110 129
111 121
111 122
111 125
112 114
112 118
112 122
112 125
112 127
113 117
113 121
113 122
113 126
114 130
114 132
114 138
114 140
114 143
115 130
115 133
115 134
115 135
115 138
115 140
115 144
116 132
116 134
116 135
116 144
117 130
117 132
117 135
117 141
118 139
119 132
119 134
119 144
120 130
120 134
120 135
120 143
121 130
121 134
121 138
122 136
122 137
122 143
123 131
123 132
123 134
123 136
123 138
124 132
124 133
124 136
125 136
126 136
127 130
127 134
127 138
127 142
128 130
128 132
128 138
129 130
129 143
130 147
130 156
130 158
130 159
131 146
131 156
131 159
131 159
132 145
132 146
132 148
132 149
132 153
132 159
132 161
133 145
133 150
133 155
134 148
134 149
134 150
134 161
135 146
135 149
135 150
135 151
135 152
136 145
136 148
136 152
136 153
136 155
136 157
136 158
136 159
137 146
137 150
137 151
137 153
137 154
137 158
138 151
138 152
138 156
138 158
138 161
139 155
139 161
140 146
140 155
140 158
140 161
141 145
141 148
141 149
141 150
141 157
141 160
141 161
142 150
142 156
142 157
142 158
142 160
142 161
142 162
143 146
143 148
143 151
143 153
143 154
143 156
143 157
143 158
143 159
143 160
143 162
144 148
144 150
144 154
144 156
144 157
144 158
144 159
145 166
145 167
145 173
145 176
145 176
145 177
146 166
146 173
146 174
146 176
146 177
147 173
147 175
147 177
148 163
148 165
149 165
149 170
149 173
150 163
150 165
150 166
150 169
150 172
150 173
150 177
151 163
151 166
151 166
151 168
151 169
151 172
151 174
151 175
151 176
152 163
152 164
152 167
152 176
153 163
153 165
153 168
153 170
153 171
153 176
154 163
154 168
154 172
155 167
155 170
155 172
156 166
156 171
157 166
157 169
157 170
157 172
157 173
157 175
157 177
158 163
158 164
158 166
158 167
158 170
158 175
159 163
159 165
159 166
159 167
159 173
159 176
159 177
160 163
160 167
160 172
160 177
161 165
161 173
161 177
162 165
162 167
162 171
162 175
162 176
162 177
163 178
163 186
163 186
163 187
164 180
164 183
164 186
164 189
164 190
165 179
165 183
165 186
166 178
166 183
166 185
166 190
167 183
167 184
167 185
168 178
168 181
168 190
169 186
169 188
169 190
170 183
170 187
170 189
171 186
171 190
172 181
172 184
172 185
173 181
173 182
173 185
173 186
173 187
174 178
174 181
174 184
174 185
174 187
175 185
175 187
176 185
177 180
177 185
177 186
178 193
178 198
178 199
179 199
180 192
180 193
180 197
180 198
180 199
181 191
181 194
181 198
182 193
183 191
183 199
184 196
184 198
185 199
186 191
186 199
187 194
187 195
188 192
188 193
188 198
189 192
189 198
190 191
190 199
