0 25
2 18
2 22
2 28
3 23
3 27
3 28
4 23
4 25
5 20
5 22
5 24
5 25
7 18
7 25
7 26
8 18
8 19
8 28
9 23
9 28
10 23
11 18
11 23
13 21
13 23
13 27
15 18
15 23
17 18
17 23
18 30
18 36
18 37
18 39
18 42
18 43
18 45
19 29
19 31
19 37
19 39
19 40
19 42
20 30
20 31
20 32
20 33
20 39
20 41
20 42
20 44
20 47
21 32
21 35
21 37
21 38
21 41
21 41
21 43
21 44
21 47
22 32
22 33
22 35
22 42
23 29
23 32
23 36
23 37
23 42
23 43
24 29
24 34
24 39
24 46
25 34
25 35
25 43
25 46
26 29
26 34
26 43
26 45
26 46
27 29
27 34
27 35
27 39
27 40
27 43
27 48
28 32
28 33
28 34
28 39
28 42
28 46
29 50
29 51
29 52
29 54
29 56
29 57
30 51
30 55
31 50
31 51
32 51
32 52
33 49
33 51
33 52
34 50
34 51
35 58
36 49
36 50
36 51
36 59
37 49
37 51
37 52
37 59
38 49
38 50
38 52
38 59
39 52
39 56
40 50
40 56
40 58
41 55
41 56
42 51
42 52
42 53
42 59
43 49
43 50
44 52
45 56
46 51
46 59
47 56
48 53
48 56
49 61
49 66
49 69
49 73
50 60
50 61
50 63
50 64
50 65
50 66
50 73
50 74
51 64
51 66
51 67
51 72
51 73
52 60
52 64
52 66
52 71
52 73
53 60
53 67
53 73
53 74
54 60
54 63
54 64
54 68
54 69
55 61
55 67
55 68
55 68
55 70
55 74
56 60
56 61
56 67
56 70
56 72
56 75
57 71
57 72
57 74
58 61
58 62
58 64
58 72
59 66
59 68
59 72
59 73
59 75
60 80
61 77
62 83
63 76
63 80
63 82
64 78
64 81
65 78
66 78
66 79
67 77
67 78
67 82
68 82
68 83
69 76
69 81
70 76
71 76
71 82
72 76
72 78
73 76
73 77
73 78
73 79
73 82
74 78
74 80
74 82
75 78
75 80
76 87
76 88
76 89
77 87
77 88
77 89
77 90
78 87
78 88
78 89
78 90
79 89
79 90
80 84
80 85
81 85
81 86
82 85
82 86
82 87
82 88
83 84
83 85
83 86
85 95
85 96
86 93
87 91
87 94
88 93
89 92
89 94
89 96
90 95
90 97
91 98
91 100
91 102
91 105
91 106
91 108
91 110
91 111
91 112
92 105
92 110
92 112
93 101
93 104
93 112
94 108
94 109
95 98
95 99
95 103
95 109
96 106
96 107
96 109
97 100
97 106
97 109
97 110
97 111
98 114
98 119
99 113
99 114
99 118
99 119
102 114
102 119
103 114
103 116
103 117
103 119
104 121
105 116
105 120
107 115
107 116
107 119
108 116
108 121
109 114
109 117
109 119
109 121
110 114
110 120
111 120
111 121
112 119
112 120
113 129
113 130
113 131
114 124
114 125
115 122
115 127
115 129
115 132
116 129
117 131
118 123
118 125
118 126
118 127
118 128
119 124
119 126
119 127
120 128
120 129
121 122
121 129
122 137
122 138
122 139
122 140
122 141
123 136
123 137
123 138
123 139
124 139
124 142
125 134
125 135
125 138
125 143
125 144
126 133
126 134
126 135
126 138
126 139
126 140
126 141
126 143
127 134
127 134
127 138
127 140
128 135
129 134
129 138
130 141
130 142
131 135
131 142
132 139
132 141
132 142
132 144
133 145
133 146
133 152
133 154
133 156
134 146
134 147
134 149
134 151
134 152
134 155
134 156
134 159
134 160
135 147
135 152
135 153
135 155
135 157
135 159
135 160
136 145
136 152
136 155
136 159
136 164
137 150
137 151
137 159
137 162
137 163
137 164
138 151
138 153
138 155
138 160
138 164
139 145
139 149
139 160
140 145
140 146
140 147
140 150
140 158
141 145
141 146
141 151
141 162
142 146
142 149
142 151
142 156
142 161
142 163
143 145
143 146
143 148
143 150
143 151
143 153
143 157
143 164
144 147
144 149
144 152
144 155
144 163
144 164
145 170
145 171
145 179
146 168
146 170
146 171
146 178
146 180
146 181
147 168
147 169
147 170
147 176
147 179
148 165
148 168
148 170
148 172
148 173
149 165
149 167
149 170
149 171
149 177
150 165
150 167
150 176
150 177
151 165
151 167
151 169
151 172
151 177
151 180
152 165
152 166
152 167
152 175
152 177
152 179
153 167
153 174
153 175
154 173
154 174
154 175
154 176
154 177
154 181
155 167
155 168
155 173
155 174
155 175
155 176
155 181
156 165
156 168
156 173
156 175
156 179
157 165
157 168
157 171
157 173
157 179
157 180
158 167
158 168
158 175
158 177
158 179
158 180
159 165
159 170
159 173
159 175
159 176
159 178
159 180
160 168
160 173
160 176
160 177
160 178
160 180
161 170
161 172
161 174
161 177
161 180
161 181
162 170
162 173
162 174
162 175
162 179
163 167
163 170
163 171
163 174
163 179
164 168
164 174
164 175
164 176
164 179
165 182
165 185
165 186
165 190
166 183
166 184
166 185
166 186
166 188
167 182
167 184
167 188
169 187
170 185
170 190
171 182
171 183
171 184
171 189
171 190
172 185
172 186
172 187
173 183
173 185
173 187
173 189
174 183
174 185
174 186
174 190
175 182
175 183
175 186
175 187
175 188
175 189
175 190
176 184
176 185
176 187
176 189
176 190
177 183
177 184
177 189
177 190
178 184
178 185
178 186
178 189
179 183
179 184
179 187
179 189
180 182
180 187
180 190
181 183
181 185
182 195
182 196
183 191
183 194
183 195
183 196
183 198
184 194
185 192
185 195
185 198
186 192
187 191
187 197
187 199
188 197
188 198
189 191
189 194
189 196
189 198
189 199
190 193
190 198
