0 14
0 17
0 20
0 21
1 14
1 17
1 19
1 21
2 21
3 19
3 20
4 14
4 18
4 19
4 20
4 21
5 17
5 18
5 19
6 14
6 21
7 19
8 16
8 18
9 14
9 15
9 17
9 19
10 20
11 16
11 17
11 19
11 20
12 16
12 18
12 20
12 20
13 17
14 25
14 27
14 29
15 24
15 26
15 27
16 24
16 27
17 22
17 23
17 25
18 23
18 25
18 26
19 22
19 27
19 28
20 22
21 22
21 23
21 29
22 30
22 38
22 40
22 41
22 42
22 46
22 47
23 32
23 35
23 43
23 46
24 40
24 43
24 46
24 47
24 48
24 49
25 33
25 36
25 37
25 40
25 41
25 44
25 45
25 48
26 37
26 41
26 45
26 46
26 48
27 33
27 34
27 35
27 37
28 31
28 33
28 40
28 44
29 36
29 37
29 39
29 42
29 45
29 49
30 51
30 52
30 57
31 52
31 53
31 57
31 61
32 55
32 57
33 50
33 52
33 58
34 55
34 56
35 55
35 58
36 58
36 60
37 50
37 52
37 54
37 58
38 54
39 52
39 57
39 58
39 59
40 53
40 54
40 55
40 57
40 61
41 55
42 50
42 55
42 57
43 53
43 56
43 57
44 50
44 53
44 54
44 61
45 50
45 51
45 55
45 57
45 61
46 60
46 61
47 53
48 57
49 50
49 51
49 52
49 53
50 64
50 65
50 66
50 67
50 68
50 73
50 78
50 79
51 70
51 78
51 79
52 62
52 65
52 66
52 68
52 75
52 80
53 62
53 64
53 65
53 66
53 68
53 70
53 72
53 76
53 77
53 78
54 66
54 68
54 71
54 79
55 63
55 71
56 64
56 70
56 71
57 71
57 72
57 73
57 77
57 78
58 64
58 71
58 73
58 75
58 79
59 64
59 65
59 69
59 71
59 75
59 76
59 79
60 63
60 64
60 68
60 73
60 74
60 75
60 77
60 78
60 80
61 66
61 68
61 70
61 78
61 80
62 81
62 87
62 91
62 92
62 93
62 94
62 95
63 81
63 82
63 84
63 93
63 94
63 95
64 81
64 82
64 89
64 90
64 94
65 87
65 89
65 90
65 91
65 92
65 94
66 88
66 89
66 92
67 85
67 90
67 94
68 82
68 85
68 88
68 90
68 92
68 93
69 84
69 85
69 90
69 95
70 88
70 91
70 92
71 85
71 90
71 92
72 82
72 83
72 92
73 84
73 85
73 91
73 95
74 82
74 90
74 92
75 82
75 88
75 89
75 95
76 82
76 84
76 85
76 87
76 92
76 95
77 84
77 85
77 95
78 82
78 85
78 88
78 92
78 93
78 95
79 82
79 85
79 90
79 91
79 95
80 84
80 86
80 88
80 90
81 96
81 98
81 99
81 102
81 104
81 106
82 103
82 104
83 96
83 97
83 98
83 100
83 103
83 104
84 96
84 98
84 104
85 97
85 98
85 103
86 104
87 97
87 102
88 98
88 103
88 105
89 96
89 101
89 102
89 105
90 96
90 102
90 105
91 99
91 101
91 106
92 102
92 104
92 105
92 106
93 98
93 99
93 105
93 106
94 99
94 105
94 105
94 106
95 96
95 101
95 105
95 106
96 108
96 111
96 114
96 119
96 121
96 122
97 121
98 107
98 110
98 114
98 115
98 117
98 120
98 121
98 122
99 109
99 110
99 113
99 115
99 121
99 122
100 109
100 114
100 119
101 110
101 114
101 115
101 119
102 109
102 111
102 113
102 116
102 121
103 113
103 114
103 117
103 119
103 122
104 113
104 114
104 117
104 119
105 109
105 110
105 112
105 113
105 115
105 116
105 117
105 118
106 109
106 110
106 113
106 117
106 119
106 121
106 122
107 124
107 128
108 125
109 123
109 124
109 126
110 124
111 125
112 125
112 129
115 128
115 129
116 124
116 126
116 129
117 123
118 123
119 123
119 124
119 126
119 127
120 124
120 129
121 124
121 127
122 124
122 126
123 130
123 132
123 138
124 130
124 131
124 134
124 135
124 136
124 138
124 140
124 143
125 134
125 136
125 138
125 143
126 131
126 134
126 136
126 139
126 141
127 130
127 131
127 132
127 133
127 134
127 142
127 143
128 131
128 133
128 139
128 143
129 130
129 137
129 138
130 144
130 148
130 153
131 144
131 149
131 150
131 153
132 146
132 148
132 151
132 153
132 160
133 150
134 149
134 150
134 159
135 146
135 148
135 149
135 150
135 151
135 159
135 160
136 147
136 148
136 150
136 152
136 156
136 160
137 144
137 148
137 149
137 152
137 158
137 159
138 149
138 150
138 153
138 154
138 157
138 159
138 160
139 144
139 148
139 149
139 152
139 154
139 156
139 159
140 145
140 152
140 153
140 156
140 159
141 145
141 152
141 154
141 155
141 156
141 159
142 148
142 156
143 145
143 146
143 149
143 153
143 160
144 165
144 171
145 161
145 164
145 165
145 166
145 167
145 171
146 161
147 165
147 167
147 170
147 173
148 161
148 164
148 165
148 167
148 170
148 174
149 163
149 164
149 166
149 167
149 169
150 166
150 167
150 170
150 171
150 173
151 162
151 165
151 168
151 169
152 168
152 173
152 174
153 162
153 166
153 167
153 169
153 170
153 171
153 174
154 162
154 166
154 168
154 169
154 171
154 172
154 174
155 162
155 166
155 168
155 169
155 172
155 173
155 174
156 161
156 165
156 166
156 167
156 168
156 170
156 174
157 161
157 164
157 169
157 171
158 162
158 164
158 166
158 167
158 170
158 173
159 161
159 165
159 167
159 169
159 170
159 172
160 161
160 163
160 168
160 173
161 175
161 181
162 176
162 184
162 186
163 175
163 176
163 180
164 178
164 180
164 184
165 180
165 183
165 184
165 186
166 178
166 182
166 186
167 176
167 178
167 179
167 182
167 184
167 186
168 180
168 181
168 182
168 185
168 186
168 186
169 178
169 182
169 186
170 177
170 182
171 178
171 182
171 183
171 184
172 180
172 181
172 183
173 180
173 184
174 183
175 188
175 192
176 193
176 197
177 191
177 195
178 195
179 190
179 193
179 194
179 196
180 190
180 195
180 197
181 190
181 192
181 196
181 198
182 190
182 193
182 196
183 189
183 196
184 187
184 190
184 195
184 197
185 194
185 197
185 198
186 188
186 189
186 194
186 195
187 199
188 199
190 199
195 199
196 199
197 199
