0 20
0 25
0 26
1 22
1 25
2 22
2 23
2 27
3 25
3 29
4 27
4 28
4 29
5 20
5 24
5 26
5 29
6 20
6 22
6 27
6 29
7 21
7 22
7 25
7 26
7 28
7 29
8 27
8 28
8 29
9 20
9 21
9 22
9 25
9 28
9 29
10 20
10 22
11 21
11 22
11 24
11 26
11 28
11 29
12 21
12 24
13 27
14 21
14 22
14 24
14 26
14 27
14 28
15 25
15 29
16 25
16 26
16 28
17 20
17 25
17 27
17 29
18 25
18 28
19 20
19 22
19 26
19 27
20 32
20 34
20 35
20 42
21 32
21 33
21 34
21 39
21 43
21 44
21 45
21 48
22 30
22 32
22 34
22 41
23 35
23 39
23 43
23 45
24 35
24 39
24 42
24 44
24 45
25 30
25 34
25 35
25 37
25 40
25 41
25 44
25 46
26 30
26 35
26 38
26 44
26 46
27 38
27 39
27 45
27 46
27 47
28 36
28 41
28 42
28 43
28 45
28 46
28 47
29 31
29 36
29 39
29 42
29 43
30 51
30 53
30 54
30 55
31 49
31 52
31 54
31 55
32 52
32 55
33 50
33 55
34 50
34 51
35 51
35 52
36 49
36 51
37 51
40 49
40 52
41 52
41 52
41 54
42 49
42 50
42 53
42 54
43 51
43 55
44 50
44 54
44 55
45 54
45 55
46 51
46 52
47 51
47 52
48 50
48 51
48 54
49 63
50 60
51 59
52 58
52 59
52 62
52 64
53 56
53 61
53 62
53 64
54 58
54 60
54 62
55 57
55 58
55 63
56 65
56 66
56 69
57 65
57 70
57 71
58 68
59 66
59 70
59 72
60 66
61 66
61 68
61 71
62 65
62 66
62 70
63 67
63 70
63 72
64 70
64 72
65 76
65 78
66 83
66 85
67 74
67 77
67 84
68 73
68 76
68 79
68 81
68 82
68 83
70 73
70 76
70 78
70 80
70 83
70 84
70 85
71 75
71 78
71 82
72 73
72 74
72 78
72 80
72 81
72 83
72 85
73 91
73 94
73 98
73 103
73 105
74 86
74 89
74 93
74 94
74 95
74 97
74 99
74 104
75 88
75 89
75 90
75 93
75 99
75 101
75 103
75 105
76 86
76 87
76 93
76 100
77 89
77 95
77 96
77 98
77 101
77 104
78 89
78 93
78 94
78 96
78 98
78 100
78 102
79 88
79 92
79 96
79 102
80 93
80 96
80 98
80 101
80 104
80 105
81 87
81 91
81 92
81 93
81 98
81 104
82 86
82 92
82 95
82 98
82 102
82 104
83 86
83 88
83 90
83 105
84 86
84 89
84 104
85 86
85 89
85 92
85 94
85 97
85 104
85 105
86 111
86 115
86 116
87 106
87 112
87 115
88 106
88 110
88 111
88 114
88 116
89 110
89 111
89 112
89 116
89 116
90 116
91 106
91 107
91 109
91 110
91 111
91 116
92 106
92 107
92 110
92 111
92 115
93 107
93 107
93 111
93 115
93 116
94 109
94 115
95 106
95 107
95 111
95 113
95 115
96 109
96 113
97 111
98 110
99 110
99 111
99 113
100 110
101 107
101 109
101 114
102 107
102 110
102 112
102 115
103 106
103 107
103 109
103 110
103 112
103 115
103 116
104 106
104 112
104 115
105 106
105 108
105 110
105 116
106 118
106 121
106 124
106 127
106 132
106 135
107 118
107 121
107 122
107 123
107 124
107 129
107 131
107 133
107 136
108 118
108 121
108 123
108 126
108 127
108 129
108 134
109 117
109 120
109 122
109 123
109 132
109 134
110 118
110 119
110 132
110 133
110 134
110 136
111 117
111 125
111 126
111 128
111 129
111 136
112 117
112 123
112 125
112 128
112 129
113 119
113 120
113 121
113 123
113 129
113 131
113 133
113 136
114 117
114 118
114 119
114 121
114 124
114 127
114 128
114 129
114 130
114 132
114 133
114 135
115 120
115 134
115 136
116 118
116 121
116 127
116 128
116 133
117 141
117 142
118 137
118 144
118 145
119 137
119 138
119 142
120 138
120 141
121 137
122 137
122 138
122 139
123 139
123 141
123 143
123 144
124 137
124 143
124 144
125 137
125 139
125 144
126 144
126 145
127 138
127 144
128 138
128 139
128 140
128 144
129 138
129 141
129 142
129 144
129 145
130 141
130 145
131 138
131 139
131 141
132 139
134 141
136 138
136 141
136 144
137 146
137 151
137 156
137 157
138 146
138 150
138 153
138 156
139 150
139 151
139 153
139 155
139 156
140 153
140 156
141 150
141 151
141 154
141 155
142 148
142 149
142 152
143 146
143 147
143 148
143 149
143 153
143 154
144 150
145 148
145 151
145 154
145 156
146 158
146 161
146 165
147 163
147 165
148 163
149 162
149 166
150 159
150 162
150 164
150 165
151 158
151 165
152 161
152 163
152 164
152 166
153 158
153 161
153 162
153 163
153 166
154 159
154 163
154 166
155 158
155 165
156 158
156 159
156 160
157 159
157 159
157 161
157 164
158 168
158 171
158 174
158 179
158 180
159 167
159 175
159 176
159 180
160 167
160 168
160 173
160 174
160 176
160 178
160 180
161 167
161 168
161 171
161 173
161 174
161 175
161 178
161 179
161 181
161 182
162 167
162 173
162 175
162 177
162 178
162 179
163 169
163 179
163 181
163 182
164 169
164 172
164 173
164 178
164 181
164 182
165 170
165 172
165 176
165 182
166 168
166 171
166 172
166 175
166 176
166 178
167 184
167 189
167 192
168 185
168 186
168 189
169 184
169 185
169 186
169 187
169 188
169 189
170 186
170 188
170 192
171 184
171 185
171 188
171 190
171 192
172 183
172 184
172 185
172 192
173 183
173 184
173 188
173 189
173 192
174 183
174 186
174 187
174 189
175 186
175 189
177 190
178 189
179 184
179 187
179 190
179 191
179 192
181 190
181 192
182 186
183 194
183 196
183 197
183 198
183 199
184 196
184 197
184 199
185 197
186 195
186 196
186 197
186 198
186 199
187 194
187 196
188 194
188 196
188 199
189 193
190 197
191 194
191 195
192 199
