files/tasks_parameters/ExAp01/sample8.txt 1.09188 7.2562 4.46819 0.454772 9.09421
files/tasks_parameters/ExAp01/sample12.txt 1.63076 9.70908 5.28286 0.618515 12.3686
files/tasks_parameters/ExAp01/sample2.txt 1.4543 8.14159 5.7401 0.620531 12.4089
files/tasks_parameters/ExAp01/sample44.txt 1.35997 7.25164 5.75904 0.557631 11.1511
files/tasks_parameters/ExAp01/sample27.txt 1.3183 8.10944 5.64946 0.564878 11.296
files/tasks_parameters/ExAp01/sample17.txt 1.25271 7.11225 5.46658 0.527183 10.5422
files/tasks_parameters/ExAp01/sample9.txt 1.19837 7.62559 5.37813 0.517277 10.3441
files/tasks_parameters/ExAp01/sample34.txt 1.2448 7.04587 5.93037 0.497709 9.95283
files/tasks_parameters/ExAp01/sample40.txt 1.201 8.03037 5.123 0.502383 10.0463
files/tasks_parameters/ExAp01/sample33.txt 1.61627 9.22935 5.92956 0.659262 13.1834
files/tasks_parameters/ExAp01/sample48.txt 1.15172 8.12182 5.1577 0.452491 9.04858
files/tasks_parameters/ExAp01/sample29.txt 1.53894 8.06133 5.12331 0.650652 13.0113
files/tasks_parameters/ExAp01/sample11.txt 1.35889 7.63104 5.37897 0.563302 11.2645
files/tasks_parameters/ExAp01/sample14.txt 1.13552 6.66403 4.66322 0.471536 9.42944
files/tasks_parameters/ExAp01/sample0.txt 1.5178 9.3266 4.98971 0.6311 12.6203
files/tasks_parameters/ExAp01/sample7.txt 1.23404 7.34863 5.19436 0.515527 10.3091
files/tasks_parameters/ExAp01/sample23.txt 1.40203 6.68564 5.54308 0.588617 11.7707
files/tasks_parameters/ExAp01/sample13.txt 1.60753 9.31093 5.35591 0.632849 12.6553
files/tasks_parameters/ExAp01/sample22.txt 1.28633 7.65588 5.04866 0.540336 10.8052
files/tasks_parameters/ExAp01/sample25.txt 1.0295 6.17035 5.0141 0.408296 8.16481
files/tasks_parameters/ExAp01/sample36.txt 1.19007 7.03772 4.66274 0.507647 10.1516
files/tasks_parameters/ExAp01/sample46.txt 1.35241 7.73433 4.79934 0.536843 10.7354
files/tasks_parameters/ExAp01/sample31.txt 1.16998 6.96928 5.16482 0.485817 9.71502
files/tasks_parameters/ExAp01/sample37.txt 1.59473 9.52443 5.74224 0.65799 13.158
files/tasks_parameters/ExAp01/sample16.txt 1.33876 8.63521 4.97261 0.516328 10.3251
files/tasks_parameters/ExAp01/sample10.txt 1.39877 7.28353 6.16876 0.615651 12.3113
files/tasks_parameters/ExAp01/sample39.txt 1.14417 6.3405 4.6137 0.468873 9.37619
files/tasks_parameters/ExAp01/sample19.txt 1.40273 8.85528 5.22306 0.622152 12.4414
files/tasks_parameters/ExAp01/sample20.txt 1.39217 8.1141 5.21177 0.586994 11.7383
files/tasks_parameters/ExAp01/sample43.txt 1.30697 7.21373 5.6367 0.53748 10.7481
files/tasks_parameters/ExAp01/sample32.txt 1.46599 8.30592 5.38137 0.593918 11.8767
files/tasks_parameters/ExAp01/sample45.txt 1.29703 7.94069 4.96323 0.547271 10.9439
files/tasks_parameters/ExAp01/sample26.txt 1.12681 7.57061 4.62637 0.480146 9.60161
files/tasks_parameters/ExAp01/sample5.txt 1.38077 8.0307 5.35681 0.59407 11.8798
files/tasks_parameters/ExAp01/sample21.txt 1.02755 5.87802 4.61744 0.434264 8.6841
files/tasks_parameters/ExAp01/sample38.txt 1.18484 7.66999 4.86632 0.496808 9.93481
files/tasks_parameters/ExAp01/sample1.txt 1.14035 7.21312 4.63213 0.486293 9.72454
files/tasks_parameters/ExAp01/sample15.txt 1.28125 8.02273 5.50855 0.531063 10.6198
files/tasks_parameters/ExAp01/sample24.txt 1.31554 8.66348 5.4905 0.548998 10.9785
files/tasks_parameters/ExAp01/sample3.txt 1.18752 7.74268 4.79918 0.477387 9.54644
files/tasks_parameters/ExAp01/sample6.txt 1.51709 8.57133 5.80157 0.633604 12.6704
files/tasks_parameters/ExAp01/sample30.txt 1.68756 8.18878 5.90888 0.633576 12.6698
files/tasks_parameters/ExAp01/sample42.txt 1.30604 8.57689 5.67253 0.54426 10.8837
files/tasks_parameters/ExAp01/sample4.txt 1.30007 8.40354 4.57985 0.563519 11.2688
files/tasks_parameters/ExAp01/sample28.txt 1.11521 6.44114 4.96426 0.449721 8.9932
files/tasks_parameters/ExAp01/sample18.txt 1.36968 8.56363 4.60946 0.543766 10.8738
files/tasks_parameters/ExAp01/sample35.txt 1.94181 11.0387 6.34514 0.761377 15.2255
files/tasks_parameters/ExAp01/sample47.txt 1.32345 7.14493 5.22131 0.545046 10.8994
files/tasks_parameters/ExAp01/sample49.txt 1.30001 6.65996 4.80244 0.498533 9.96931
files/tasks_parameters/ExAp01/sample41.txt 1.18983 7.09069 5.35462 0.497129 9.94122
