files/tasks_parameters/ExAp01/sample8.txt 0.912112 3.15778 1.5595 0.203411 8.7892
files/tasks_parameters/ExAp01/sample12.txt 0.820174 3.94962 1.6705 0.207924 8.98419
files/tasks_parameters/ExAp01/sample2.txt 0.894645 3.78275 1.74131 0.200098 8.64603
files/tasks_parameters/ExAp01/sample44.txt 0.851112 3.59825 1.65317 0.200005 8.64203
files/tasks_parameters/ExAp01/sample27.txt 0.849955 3.45743 1.5148 0.182129 7.8696
files/tasks_parameters/ExAp01/sample17.txt 0.722378 2.77299 1.44514 0.14646 6.32839
files/tasks_parameters/ExAp01/sample9.txt 0.713874 2.99933 1.451 0.177444 7.66716
files/tasks_parameters/ExAp01/sample34.txt 0.698344 3.02928 1.58429 0.157984 6.82632
files/tasks_parameters/ExAp01/sample40.txt 0.705571 3.86889 1.52122 0.168379 7.27551
files/tasks_parameters/ExAp01/sample33.txt 0.935122 3.63695 1.71905 0.199765 8.63165
files/tasks_parameters/ExAp01/sample48.txt 0.701473 3.39061 1.49062 0.154728 6.68566
files/tasks_parameters/ExAp01/sample29.txt 0.857802 3.30472 1.38739 0.223868 9.67313
files/tasks_parameters/ExAp01/sample11.txt 0.815404 3.10585 1.41612 0.174079 7.52177
files/tasks_parameters/ExAp01/sample14.txt 0.655961 2.70971 1.43432 0.162214 7.00913
files/tasks_parameters/ExAp01/sample0.txt 0.834694 3.6937 1.5439 0.18367 7.9362
files/tasks_parameters/ExAp01/sample7.txt 0.664018 2.70501 1.42221 0.143463 6.19892
files/tasks_parameters/ExAp01/sample23.txt 0.7503 3.2697 1.57822 0.181448 7.84021
files/tasks_parameters/ExAp01/sample13.txt 0.925528 3.84225 1.67648 0.198247 8.56607
files/tasks_parameters/ExAp01/sample22.txt 0.607178 3.09569 1.56121 0.148796 6.42934
files/tasks_parameters/ExAp01/sample25.txt 0.633306 2.73966 1.5007 0.148149 6.40136
files/tasks_parameters/ExAp01/sample36.txt 0.600999 2.85948 1.28553 0.130042 5.619
files/tasks_parameters/ExAp01/sample46.txt 0.940157 3.58643 1.69998 0.210103 9.07834
files/tasks_parameters/ExAp01/sample31.txt 0.687581 3.4832 1.53782 0.1722 7.44059
files/tasks_parameters/ExAp01/sample37.txt 0.813088 3.95293 1.50705 0.171701 7.41904
files/tasks_parameters/ExAp01/sample16.txt 0.728201 3.31216 1.30115 0.150249 6.49211
files/tasks_parameters/ExAp01/sample10.txt 0.75581 3.17098 1.61789 0.153776 6.64453
files/tasks_parameters/ExAp01/sample39.txt 0.745728 3.26617 1.44406 0.165669 7.15839
files/tasks_parameters/ExAp01/sample19.txt 0.899244 3.63532 1.52509 0.196094 8.47305
files/tasks_parameters/ExAp01/sample20.txt 0.629066 3.20793 1.25367 0.147335 6.36622
files/tasks_parameters/ExAp01/sample43.txt 0.655975 3.11551 1.4202 0.150644 6.5092
files/tasks_parameters/ExAp01/sample32.txt 0.691041 3.5311 1.42482 0.168744 7.29128
files/tasks_parameters/ExAp01/sample45.txt 0.845159 3.80283 1.48324 0.19807 8.55843
files/tasks_parameters/ExAp01/sample26.txt 0.712343 3.21645 1.29701 0.166061 7.17535
files/tasks_parameters/ExAp01/sample5.txt 0.864269 3.5889 1.52559 0.178903 7.73024
files/tasks_parameters/ExAp01/sample21.txt 0.823397 2.75242 1.55936 0.19512 8.43096
files/tasks_parameters/ExAp01/sample38.txt 0.698612 3.31563 1.37515 0.166157 7.17948
files/tasks_parameters/ExAp01/sample1.txt 0.87185 3.74964 1.51696 0.19701 8.5126
files/tasks_parameters/ExAp01/sample15.txt 0.777147 3.32916 1.48508 0.180707 7.8082
files/tasks_parameters/ExAp01/sample24.txt 0.724607 3.45951 1.59549 0.16529 7.14204
files/tasks_parameters/ExAp01/sample3.txt 1.04483 3.70014 1.70809 0.237107 10.2452
files/tasks_parameters/ExAp01/sample6.txt 0.842466 3.33003 1.58323 0.184714 7.98133
files/tasks_parameters/ExAp01/sample30.txt 0.940722 4.1841 1.4861 0.239623 10.3539
files/tasks_parameters/ExAp01/sample42.txt 0.771358 3.43221 1.70276 0.177383 7.66454
files/tasks_parameters/ExAp01/sample4.txt 0.8412 3.72477 1.6136 0.196448 8.48834
files/tasks_parameters/ExAp01/sample28.txt 0.737514 3.11323 1.45032 0.158819 6.86242
files/tasks_parameters/ExAp01/sample18.txt 0.676596 3.47418 1.45209 0.149064 6.4409
files/tasks_parameters/ExAp01/sample35.txt 0.724321 4.57086 1.49394 0.185031 7.995
files/tasks_parameters/ExAp01/sample47.txt 0.715109 3.13768 1.52397 0.16417 7.09363
files/tasks_parameters/ExAp01/sample49.txt 0.675083 3.13288 1.49657 0.156154 6.74727
files/tasks_parameters/ExAp01/sample41.txt 0.603305 2.81964 1.49636 0.150876 6.5192
