files/tasks_parameters/ExAp01/sample8.txt 2.00433 6.77015 2.19458 0.288816 6.43898
files/tasks_parameters/ExAp01/sample12.txt 2.34356 9.58351 2.46081 0.337498 7.52432
files/tasks_parameters/ExAp01/sample2.txt 2.20302 8.44418 2.50701 0.319127 7.11474
files/tasks_parameters/ExAp01/sample44.txt 1.95369 6.96299 2.23089 0.28229 6.29349
files/tasks_parameters/ExAp01/sample27.txt 1.96513 7.74306 2.16676 0.28602 6.37663
files/tasks_parameters/ExAp01/sample17.txt 2.029 7.35053 2.25579 0.292348 6.51771
files/tasks_parameters/ExAp01/sample9.txt 1.93625 6.89392 2.21068 0.282399 6.2959
files/tasks_parameters/ExAp01/sample34.txt 2.04835 6.62788 2.3772 0.297742 6.63796
files/tasks_parameters/ExAp01/sample40.txt 1.96599 7.75686 2.17534 0.285619 6.3677
files/tasks_parameters/ExAp01/sample33.txt 2.33824 8.14826 2.6463 0.338073 7.53713
files/tasks_parameters/ExAp01/sample48.txt 1.84924 7.64107 2.14272 0.270011 6.01973
files/tasks_parameters/ExAp01/sample29.txt 1.9429 7.139 1.93769 0.286306 6.38301
files/tasks_parameters/ExAp01/sample11.txt 1.92576 6.88688 2.12981 0.280008 6.24261
files/tasks_parameters/ExAp01/sample14.txt 1.72277 6.11983 1.97599 0.247458 5.51691
files/tasks_parameters/ExAp01/sample0.txt 2.01298 8.2738 2.14256 0.289132 6.44601
files/tasks_parameters/ExAp01/sample7.txt 1.87154 6.87011 2.05821 0.269886 6.01693
files/tasks_parameters/ExAp01/sample23.txt 1.99856 6.52032 2.38087 0.291712 6.50353
files/tasks_parameters/ExAp01/sample13.txt 2.04403 8.73247 2.33415 0.295393 6.58559
files/tasks_parameters/ExAp01/sample22.txt 1.94869 6.9777 2.28948 0.283979 6.33114
files/tasks_parameters/ExAp01/sample25.txt 1.85035 6.23444 2.2122 0.267298 5.95923
files/tasks_parameters/ExAp01/sample36.txt 1.76166 6.6174 1.9458 0.253823 5.65882
files/tasks_parameters/ExAp01/sample46.txt 2.29378 7.42369 2.49128 0.327273 7.29634
files/tasks_parameters/ExAp01/sample31.txt 1.76677 7.22028 2.13584 0.25377 5.65764
files/tasks_parameters/ExAp01/sample37.txt 2.04156 8.90704 2.16981 0.295708 6.59263
files/tasks_parameters/ExAp01/sample16.txt 1.74148 8.18243 1.88294 0.24945 5.56132
files/tasks_parameters/ExAp01/sample10.txt 1.98072 6.96646 2.31217 0.285748 6.37057
files/tasks_parameters/ExAp01/sample39.txt 1.76863 6.4161 1.97266 0.251967 5.61744
files/tasks_parameters/ExAp01/sample19.txt 2.13524 8.16711 2.23199 0.308463 6.87698
files/tasks_parameters/ExAp01/sample20.txt 1.77109 7.28549 1.88944 0.25994 5.7952
files/tasks_parameters/ExAp01/sample43.txt 1.75235 6.86804 2.00142 0.25616 5.71093
files/tasks_parameters/ExAp01/sample32.txt 1.94312 8.15663 2.12995 0.281726 6.28091
files/tasks_parameters/ExAp01/sample45.txt 1.89459 7.75184 2.10599 0.274935 6.1295
files/tasks_parameters/ExAp01/sample26.txt 1.85807 7.4944 1.88956 0.267248 5.95813
files/tasks_parameters/ExAp01/sample5.txt 1.972 8.08362 2.09961 0.28454 6.34365
files/tasks_parameters/ExAp01/sample21.txt 1.80936 6.11814 2.17119 0.26143 5.82841
files/tasks_parameters/ExAp01/sample38.txt 1.84069 7.761 1.96293 0.263659 5.87811
files/tasks_parameters/ExAp01/sample1.txt 1.98294 7.83752 2.13261 0.289228 6.44816
files/tasks_parameters/ExAp01/sample15.txt 1.96332 7.37971 2.12057 0.285825 6.3723
files/tasks_parameters/ExAp01/sample24.txt 2.055 8.28531 2.25272 0.296628 6.61314
files/tasks_parameters/ExAp01/sample3.txt 2.11513 7.33359 2.39135 0.305084 6.80167
files/tasks_parameters/ExAp01/sample6.txt 1.96003 7.09894 2.24425 0.281804 6.28265
files/tasks_parameters/ExAp01/sample30.txt 2.02544 8.17669 2.03701 0.299204 6.67057
files/tasks_parameters/ExAp01/sample42.txt 2.06623 7.70416 2.42413 0.29743 6.63101
files/tasks_parameters/ExAp01/sample4.txt 2.10266 7.41691 2.36261 0.307803 6.86227
files/tasks_parameters/ExAp01/sample28.txt 1.81055 7.0562 2.07657 0.266428 5.93984
files/tasks_parameters/ExAp01/sample18.txt 1.85177 7.60139 2.1377 0.268016 5.97525
files/tasks_parameters/ExAp01/sample35.txt 2.23402 9.66795 2.28028 0.32244 7.18859
files/tasks_parameters/ExAp01/sample47.txt 1.74964 6.84842 2.12104 0.251655 5.61048
files/tasks_parameters/ExAp01/sample49.txt 1.76562 7.1497 2.11412 0.255889 5.70488
files/tasks_parameters/ExAp01/sample41.txt 1.86537 6.59911 2.07359 0.265885 5.92775
